0.127361	0.163419
0.170224	0.17333
0.195257	0.265707
0.199794	0.265369
0.203023	0.224042
0.206131	0.246359
0.206331	0.252816
0.207908	0.293153
0.210555	0.222653
0.216445	0.440079
0.217813	0.304139
0.219081	0.312814
0.224049	0.450655
0.224197	0.289405
0.224218	0.490264
0.229293	0.241348
0.231959	0.333678
0.232116	0.394261
0.234641	0.367472
0.242581	0.294885
0.24304	0.394958
0.243245	0.302181
0.24897	0.416087
0.250594	0.262188
0.251295	0.282369
0.2544	0.283841
0.254839	0.29114
0.255583	0.279694
0.256713	0.325659
0.258154	0.37367
0.265086	0.414579
0.274753	0.314172
0.274998	0.302526
0.286815	0.390865
0.288305	0.293099
0.296921	0.329374
0.307923	0.354247
0.367502	0.368423
0.397896	0.412005
