0.153233	0.174488
0.159826	0.165099
0.165908	0.206942
0.168983	0.182755
0.175477	0.435137
0.17857	0.249433
0.185035	0.242427
0.186912	0.406898
0.195598	0.216707
0.201221	0.383961
0.202452	0.332528
0.205584	0.251234
0.208527	0.209865
0.209576	0.277526
0.209602	0.470762
0.21007	0.235526
0.213567	0.219194
0.215388	0.460231
0.219238	0.36142
0.219789	0.225303
0.220174	0.260307
0.226866	0.341888
0.230828	0.241746
0.232757	0.236901
0.233619	0.341858
0.234144	0.286953
0.238675	0.325615
0.243558	0.268042
0.245895	0.355801
0.248161	0.279477
0.248387	0.285355
0.252898	0.362527
0.258936	0.326964
0.260859	0.384749
0.265238	0.266053
0.269748	0.278384
0.278129	0.368305
0.27823	0.283456
0.278314	0.312074
0.312377	0.319419
0.327375	0.342777
0.328521	0.395502
