0.135891	0.148148
0.144196	0.145066
0.157493	0.188185
0.161603	0.167223
0.166562	0.17884
0.185868	0.231894
0.185938	0.450603
0.190169	0.191948
0.194617	0.492929
0.197707	0.210543
0.199809	0.239385
0.19992	0.206286
0.201713	0.227258
0.20521	0.237294
0.208127	0.40637
0.213063	0.317994
0.215676	0.382829
0.216289	0.290531
0.216327	0.271251
0.218636	0.329072
0.220075	0.240021
0.221612	0.331003
0.222973	0.297337
0.222996	0.285755
0.22857	0.245148
0.230718	0.393889
0.232998	0.245385
0.238762	0.307395
0.239335	0.328203
0.248251	0.266767
0.248863	0.276486
0.251889	0.309143
0.252116	0.306948
0.253116	0.262341
0.253845	0.270065
0.254779	0.308
0.255254	0.280752
0.256387	0.283007
0.262233	0.328865
0.262472	0.29518
0.267131	0.268639
0.270616	0.380162
0.278118	0.336264
0.280523	0.323008
0.28242	0.288567
0.295063	0.350778
0.305292	0.366187
0.306794	0.307402
0.340268	0.390305
0.340877	0.344216
0.34481	0.354583
0.366361	0.379658
0.432017	0.436608
