0.139581	0.150024
0.148463	0.180595
0.148493	0.16925
0.16249	0.181253
0.168425	0.174581
0.207868	0.235823
0.208474	0.441751
0.211347	0.266531
0.217548	0.387986
0.222166	0.263058
0.228832	0.440911
0.231566	0.26652
0.238046	0.297245
0.238653	0.309941
0.23908	0.310495
0.239093	0.46904
0.243175	0.288739
0.243307	0.289152
0.243382	0.316293
0.243588	0.370239
0.246313	0.29856
0.249687	0.284123
0.251243	0.285602
0.25153	0.365878
0.253087	0.415111
0.253284	0.324377
0.253361	0.367285
0.254433	0.294758
0.257819	0.364137
0.261298	0.28148
0.264891	0.268785
0.271024	0.30114
0.271827	0.331966
0.276371	0.28493
0.279996	0.29458
0.282905	0.358831
0.29335	0.293443
0.295064	0.354017
0.29604	0.324144
0.305154	0.356156
0.314795	0.342188
0.330712	0.348668
0.3695	0.378891
