0.124296	0.156463
0.159107	0.170036
0.162474	0.182017
0.181841	0.222504
0.185659	0.203175
0.186598	0.198384
0.187155	0.193184
0.200725	0.445108
0.205996	0.244894
0.217442	0.268297
0.217606	0.357265
0.223423	0.424202
0.224761	0.24682
0.224935	0.299185
0.225607	0.254422
0.226415	0.294453
0.22677	0.304832
0.229949	0.240038
0.230215	0.367385
0.230769	0.248276
0.231458	0.294938
0.233071	0.24329
0.23308	0.236005
0.240185	0.393162
0.242823	0.306151
0.243665	0.323556
0.244798	0.276665
0.247443	0.361148
0.2476	0.30359
0.257924	0.272477
0.258791	0.485822
0.263038	0.320273
0.266038	0.314175
0.266541	0.398891
0.272577	0.347335
0.273361	0.352077
0.279328	0.298461
0.293445	0.363735
0.296109	0.31568
0.296819	0.302718
0.311893	0.327409
0.321965	0.385024
0.324942	0.33036
0.343713	0.407112
0.35789	0.373096
