0.118494	0.137882
0.122871	0.128137
0.143141	0.165101
0.161628	0.173413
0.173915	0.173988
0.188815	0.221125
0.191378	0.197528
0.193126	0.248377
0.196575	0.323413
0.203804	0.23706
0.205595	0.456257
0.205676	0.303832
0.212045	0.215663
0.216233	0.245018
0.216572	0.441175
0.218755	0.265962
0.219071	0.339688
0.220576	0.24887
0.222299	0.257156
0.223561	0.247073
0.23149	0.242386
0.233011	0.313374
0.234291	0.253689
0.235078	0.323352
0.235169	0.314171
0.237216	0.357863
0.23801	0.238757
0.239216	0.380301
0.240897	0.404333
0.245915	0.346939
0.248518	0.251198
0.249191	0.302989
0.252459	0.290906
0.252714	0.279546
0.255482	0.319598
0.259161	0.280543
0.259838	0.28556
0.270874	0.322358
0.281069	0.292218
0.294959	0.375066
0.299165	0.34686
0.300145	0.305712
0.323004	0.435346
0.327014	0.380623
0.330652	0.427324
0.421752	0.445041
