0.137306	0.156886
0.1387	0.144778
0.156281	0.1901
0.158349	0.222927
0.162583	0.184661
0.182627	0.228604
0.192113	0.319499
0.192247	0.246679
0.193402	0.22102
0.194846	0.219805
0.200213	0.207468
0.202384	0.205676
0.215306	0.21538
0.21647	0.402824
0.21867	0.280495
0.231749	0.424913
0.234734	0.255387
0.237886	0.436159
0.238714	0.469757
0.24118	0.426255
0.242943	0.404401
0.244309	0.348095
0.247567	0.369468
0.251854	0.334488
0.254263	0.290734
0.255028	0.304208
0.255808	0.288735
0.258655	0.402078
0.259198	0.298965
0.260339	0.262543
0.260841	0.303133
0.263777	0.329706
0.264069	0.283926
0.272368	0.293622
0.274432	0.279217
0.27636	0.288621
0.281336	0.318172
0.295092	0.342421
0.298326	0.380179
0.298855	0.300059
0.305223	0.321984
0.309646	0.402643
0.324066	0.325243
0.339006	0.366135
