0.127309	0.136005
0.139996	0.204225
0.151458	0.160641
0.160735	0.17479
0.166112	0.17881
0.166512	0.239909
0.167293	0.186485
0.169983	0.244398
0.170056	0.175452
0.180449	0.200483
0.182479	0.246522
0.184825	0.186547
0.185782	0.222786
0.186695	0.219927
0.187206	0.189468
0.189102	0.291861
0.189975	0.190701
0.19671	0.325191
0.200371	0.487005
0.203099	0.443779
0.208814	0.229222
0.215493	0.37842
0.218657	0.281159
0.221135	0.395329
0.229783	0.359589
0.230385	0.252164
0.231629	0.281689
0.234716	0.234815
0.235325	0.466782
0.235429	0.283371
0.235972	0.280582
0.238689	0.44172
0.24236	0.373842
0.247593	0.370704
0.252999	0.275296
0.256991	0.317483
0.26159	0.28901
0.264144	0.298488
0.271905	0.344148
0.272183	0.297431
0.278536	0.333062
0.281433	0.320123
0.282735	0.318678
0.289344	0.308328
0.317242	0.401088
