0.136876	0.146678
0.144277	0.158115
0.151961	0.158157
0.153031	0.159945
0.163831	0.190935
0.167007	0.189182
0.168582	0.171071
0.179376	0.183859
0.190107	0.198006
0.19046	0.442371
0.19276	0.260773
0.203088	0.203545
0.207408	0.212221
0.222044	0.238723
0.222586	0.268948
0.223948	0.365505
0.224092	0.233448
0.225555	0.230282
0.229488	0.230844
0.236019	0.308419
0.23651	0.386418
0.24212	0.474489
0.24641	0.288155
0.247024	0.300991
0.249724	0.28713
0.251715	0.494811
0.252016	0.290777
0.267776	0.441524
0.269646	0.448287
0.278479	0.347197
0.279466	0.337837
0.281153	0.294085
0.282118	0.31298
0.285351	0.391114
0.291687	0.31065
0.291828	0.338426
0.293458	0.427732
0.297795	0.312653
0.299084	0.395946
