0.139518	0.152122
0.159136	0.197108
0.171048	0.188705
0.171213	0.219195
0.171334	0.173183
0.185336	0.242086
0.188293	0.228347
0.188856	0.235595
0.189578	0.242248
0.193895	0.196904
0.202614	0.203855
0.205234	0.387236
0.209503	0.408737
0.210704	0.233881
0.211784	0.273653
0.215633	0.48058
0.221274	0.252584
0.223139	0.355261
0.224045	0.238782
0.224054	0.253828
0.225087	0.439743
0.227781	0.296718
0.229663	0.266836
0.235381	0.485097
0.23786	0.288384
0.238613	0.384401
0.239091	0.353489
0.242002	0.250222
0.248504	0.37513
0.262252	0.422571
0.265157	0.478907
0.273688	0.382921
0.281825	0.354084
0.285425	0.308242
0.295345	0.296716
0.305926	0.346164
0.308625	0.326123
0.315533	0.322862
0.32612	0.352599
0.328992	0.333463
0.33101	0.35146
0.335719	0.375307
0.337138	0.341679
0.345921	0.397111
0.364602	0.373634

