# Persistence diagram </home/jens/Uni/data_topology/Project/Graph_Data/Synthetic_Havel_Hakimi/hhg_36.gml>
#
# Dimension   : 0
# Entries     : 21
# Betti number: 17
1	inf
1	inf
1	inf
1	inf
1	inf
1	inf
1	inf
1	inf
1	inf
1	inf
1	inf
1	inf
1	inf
1	inf
1	inf
2	inf
2	inf
2	12
2	12
3	12
4	5


