# Persistence diagram </home/jens/Uni/data_topology/Project/Graph_Data/Synthetic_Havel_Hakimi/hhg_9.gml>
#
# Dimension   : 1
# Entries     : 16
# Betti number: 16
2	inf
2	inf
3	inf
3	inf
5	inf
5	inf
5	inf
5	inf
12	inf
12	inf
12	inf
12	inf
12	inf
12	inf
12	inf
12	inf
