# Persistence diagram </home/jens/Uni/data_topology/Project/Graph_Data/Synthetic_Erdos_Reny_reduced_2/err_95.gml>
#
# Dimension   : 0
# Entries     : 28
# Betti number: 1
28	inf
32	38
32	38
33	43
35	43
35	39
36	39
36	39
36	39
36	41
36	42
36	41
37	40
37	39
37	39
38	39
38	41
38	39
38	41
39	40
39	40
40	42
40	42
40	42
40	42
40	41
41	42
41	42


