# Persistence diagram </home/jens/Uni/data_topology/Project/Graph_Data/Synthetic_Erdos_Reny_reduced_2/err_22.gml>
#
# Dimension   : 0
# Entries     : 30
# Betti number: 1
27	inf
28	42
31	39
31	40
33	40
33	39
33	39
33	35
34	38
34	40
34	39
34	42
34	36
35	37
35	39
35	36
36	38
36	40
36	40
36	39
37	39
37	38
38	40
38	40
38	40
38	41
38	39
39	40
39	43
40	41


