# Persistence diagram </home/jens/Uni/data_topology/Project/Graph_Data/Synthetic_Erdos_Reny_reduced_2/err_98.gml>
#
# Dimension   : 0
# Entries     : 28
# Betti number: 1
27	inf
29	43
29	40
30	41
32	38
33	39
34	40
34	41
35	39
35	39
35	40
35	38
36	40
36	38
36	39
36	38
37	42
37	40
37	41
37	38
37	40
37	38
38	41
38	40
39	40
39	41
39	42
40	41


