# Persistence diagram </home/jens/Uni/data_topology/Project/Graph_Data/Synthetic_Erdos_Reny_reduced_2/err_40.gml>
#
# Dimension   : 0
# Entries     : 33
# Betti number: 1
26	inf
28	42
31	40
32	41
34	41
34	37
35	40
35	40
35	36
35	40
36	41
36	40
36	40
36	39
36	41
36	39
37	41
37	41
37	40
37	40
37	41
37	41
37	40
37	38
38	39
38	41
38	39
39	41
39	41
39	41
40	41
40	41
42	43


