# Persistence diagram </home/jens/Uni/data_topology/Project/Graph_Data/Synthetic_Erdos_Reny_reduced_2/err_74.gml>
#
# Dimension   : 0
# Entries     : 34
# Betti number: 1
29	inf
31	41
31	40
32	41
32	40
32	40
33	39
34	40
34	39
34	39
35	41
35	40
35	36
36	37
36	37
36	39
36	40
36	39
36	39
37	39
37	39
37	40
38	40
38	41
39	42
39	40
39	40
39	43
40	43
40	41
41	42
41	42
41	42
42	43


