# Persistence diagram </home/jens/Uni/data_topology/Project/Graph_Data/Synthetic_Erdos_Reny_reduced_2/err_35.gml>
#
# Dimension   : 0
# Entries     : 31
# Betti number: 1
28	inf
30	41
31	38
31	40
31	40
33	41
34	38
34	37
34	40
34	38
35	38
35	37
36	40
36	40
36	37
36	39
36	41
37	38
37	40
37	39
38	39
38	39
38	41
38	39
38	39
38	39
38	42
38	39
39	43
40	41
40	41


