# Persistence diagram </home/jens/Uni/data_topology/Project/Graph_Data/Synthetic_Erdos_Reny_reduced_2/err_38.gml>
#
# Dimension   : 0
# Entries     : 33
# Betti number: 1
27	inf
30	39
31	41
32	40
32	38
32	38
32	39
34	40
34	42
35	41
35	40
35	39
35	39
35	39
35	42
36	40
36	39
36	38
36	38
36	38
37	39
37	39
37	41
37	38
37	40
38	39
38	39
38	39
38	42
38	39
39	40
40	43
40	41


