# Persistence diagram </home/jens/Uni/data_topology/Project/Graph_Data/Synthetic_Erdos_Reny_reduced_2/err_20.gml>
#
# Dimension   : 0
# Entries     : 27
# Betti number: 1
30	inf
31	41
32	38
33	38
33	36
33	41
34	36
34	38
35	38
35	38
35	36
35	38
35	39
35	41
35	40
36	39
36	39
36	38
36	40
37	38
37	38
37	38
37	40
39	42
39	40
40	44
40	43


