# Persistence diagram </home/jens/Uni/data_topology/Project/Graph_Data/Synthetic_Gnm_2/gnm_78.gml>
#
# Dimension   : 0
# Entries     : 23
# Betti number: 1
50	inf
50	55
50	51
50	53
50	55
51	58
51	57
51	57
51	55
51	56
52	55
53	59
54	56
54	56
55	58
55	56
55	57
55	56
56	59
56	58
56	58
56	57
57	59


