# Persistence diagram </home/jens/Uni/data_topology/Project/Graph_Data/Synthetic_Gnm_2/gnm_21.gml>
#
# Dimension   : 0
# Entries     : 21
# Betti number: 1
47	inf
49	54
49	50
49	55
50	56
51	54
51	57
51	55
51	56
52	56
53	54
54	56
54	55
55	58
55	57
55	59
55	56
56	57
56	58
58	59
60	61


