# Persistence diagram </home/jens/Uni/data_topology/Project/Graph_Data/Synthetic_Gnm_2/gnm_58.gml>
#
# Dimension   : 0
# Entries     : 23
# Betti number: 1
49	inf
49	57
51	58
51	59
52	57
52	56
53	56
53	57
53	56
53	54
53	58
54	56
54	58
54	57
54	56
54	59
55	57
55	57
56	57
56	58
56	59
57	58
58	59


