# Persistence diagram </home/jens/Uni/data_topology/Project/Graph_Data/Synthetic_Gnm_2/gnm_10.gml>
#
# Dimension   : 0
# Entries     : 17
# Betti number: 1
46	inf
49	57
50	58
50	56
51	56
52	59
52	56
52	58
52	56
53	56
53	56
53	56
53	54
54	56
54	56
56	57
58	59


