# Persistence diagram </home/jens/Uni/data_topology/Project/Graph_Data/Synthetic_Gnm_2/gnm_84.gml>
#
# Dimension   : 0
# Entries     : 23
# Betti number: 1
46	inf
48	59
49	56
50	55
51	59
51	55
52	58
52	57
52	60
53	58
53	54
54	56
54	56
54	59
54	58
54	56
54	57
55	59
56	58
56	58
57	61
57	60
58	59


