# Persistence diagram </home/jens/Uni/data_topology/Project/Graph_Data/Synthetic_Gnm_2/gnm_95.gml>
#
# Dimension   : 0
# Entries     : 20
# Betti number: 1
42	inf
43	60
47	60
49	56
50	55
50	57
51	56
52	55
52	56
52	59
53	56
54	56
54	57
54	55
54	56
55	60
55	56
57	59
58	59
58	60


