# Persistence diagram </home/jens/Uni/data_topology/Project/Graph_Data/Synthetic_Gnm_2/gnm_7.gml>
#
# Dimension   : 0
# Entries     : 17
# Betti number: 1
42	inf
44	56
47	56
47	60
48	59
50	55
51	54
52	53
52	56
52	53
52	54
52	56
52	58
53	59
55	58
55	58
55	57


