# Persistence diagram </home/jens/Uni/data_topology/Project/Graph_Data/Synthetic_Gnm_2/gnm_81.gml>
#
# Dimension   : 0
# Entries     : 21
# Betti number: 1
43	inf
45	54
49	54
50	55
50	53
50	59
50	56
50	54
51	54
52	53
53	55
54	55
54	57
54	56
55	56
55	57
55	58
55	57
56	57
56	59
58	61


