# Persistence diagram </home/jens/Uni/data_topology/Project/Graph_Data/Synthetic_Gnm_2/gnm_29.gml>
#
# Dimension   : 0
# Entries     : 17
# Betti number: 1
43	inf
45	57
50	55
50	54
51	52
51	56
51	58
52	57
52	57
52	56
53	54
55	60
56	57
57	58
57	59
57	58
57	59


