# Persistence diagram </home/jens/Uni/data_topology/Project/Graph_Data/Synthetic_Gnm_2/gnm_71.gml>
#
# Dimension   : 0
# Entries     : 18
# Betti number: 1
46	inf
48	57
48	55
49	60
51	57
51	55
53	55
53	56
53	54
54	56
55	56
55	56
55	56
55	60
56	58
57	58
57	58
58	60


