# Persistence diagram </home/jens/Uni/data_topology/Project/Graph_Data/Synthetic_Gnm_2/gnm_67.gml>
#
# Dimension   : 0
# Entries     : 21
# Betti number: 1
42	inf
50	57
50	51
52	58
52	56
52	57
52	56
53	57
53	55
53	57
53	58
53	56
54	56
54	56
55	60
55	56
55	56
55	56
56	58
56	57
57	59


