# Persistence diagram </home/jens/Uni/data_topology/Project/Graph_Data/Synthetic_Gnm_2/gnm_17.gml>
#
# Dimension   : 0
# Entries     : 17
# Betti number: 1
44	inf
47	57
48	55
49	56
49	56
50	54
50	54
50	55
51	54
51	58
51	56
51	55
52	54
53	56
53	55
55	57
57	59


