0.0734127	0.0915529
0.12707	0.156697
0.141121	0.16629
0.143759	0.164685
0.14847	0.161393
0.149376	0.180038
0.16991	0.195928
0.173557	0.191287
0.1752	0.189732
0.184488	0.186938
0.185971	0.214474
0.192138	0.239144
0.195473	0.289464
0.196784	0.248242
0.197361	0.240219
0.20148	0.334475
0.212661	0.239298
0.214293	0.23988
0.218181	0.224705
0.221644	0.252379
0.224721	0.238177
0.225962	0.313313
0.228945	0.411759
0.229548	0.37996
0.23149	0.489362
0.232447	0.246185
0.23455	0.240797
0.235115	0.488734
0.236972	0.381932
0.241019	0.246169
0.24388	0.280761
0.245335	0.334667
0.249869	0.296525
0.252031	0.271171
0.26199	0.262719
0.266519	0.345673
0.269877	0.31787
0.27072	0.280481
0.271505	0.323938
0.276421	0.314391
0.277082	0.312229
0.278902	0.300993
0.291727	0.334372
0.294853	0.31707
0.296777	0.296927
0.302422	0.371955
0.311991	0.316525
0.319832	0.410506
0.324497	0.332794
0.32976	0.458142
0.335721	0.428593
0.340367	0.390601
0.34255	0.371221
0.355643	0.396898
0.398463	0.435033

