0.122463	0.142087
0.154695	0.182668
0.170738	0.186537
0.175169	0.315453
0.175472	0.186478
0.178966	0.24705
0.184764	0.196732
0.18763	0.209363
0.190829	0.24892
0.1937	0.252223
0.194369	0.24692
0.196618	0.216863
0.202037	0.210937
0.20505	0.233436
0.205401	0.245093
0.215138	0.218466
0.21663	0.226998
0.21723	0.236947
0.217396	0.362432
0.219383	0.335989
0.22014	0.225307
0.220295	0.265813
0.222297	0.353225
0.226124	0.434042
0.226538	0.270256
0.228408	0.461805
0.234129	0.350937
0.236792	0.35382
0.239696	0.256901
0.239853	0.280854
0.248968	0.377816
0.25293	0.303693
0.253684	0.395295
0.259448	0.287043
0.265038	0.339388
0.266766	0.368941
0.267487	0.270527
0.270394	0.303914
0.273333	0.340081
0.278707	0.350916
0.27964	inf
0.282164	0.415543
0.282434	0.293349
0.286518	0.300143
0.286618	0.369378
0.29286	0.306952
0.297098	0.376893
0.311887	0.41941
0.381137	0.476152

