0.10266	0.112268
0.16347	0.251435
0.16794	0.193773
0.169229	0.173614
0.188294	0.322353
0.193433	inf
0.199244	0.348863
0.200235	0.354273
0.201638	0.446503
0.204473	0.214963
0.207646	0.214824
0.208557	0.232298
0.211202	0.283375
0.215444	0.219449
0.217441	0.22915
0.220929	0.240881
0.221903	0.261229
0.22768	0.278673
0.228204	0.308765
0.228819	0.333969
0.231278	0.284268
0.231674	0.266666
0.232895	0.423801
0.233632	0.27638
0.237959	0.310948
0.240077	0.363483
0.245517	0.266752
0.250081	0.264602
0.253792	0.310767
0.255459	0.257753
0.261075	0.446236
0.275316	0.391606
0.296603	0.322429
0.296812	0.317245
0.297621	0.343305
0.300246	0.426992
0.305351	0.327049
0.315496	0.380491
0.319323	0.4336
0.327953	0.405606
0.350785	0.430977
0.353777	0.416168
0.376781	0.386177

