0.110226	0.110738
0.114237	0.121196
0.125745	0.137965
0.179748	0.180175
0.196108	0.236364
0.197073	0.216325
0.201101	0.204952
0.20316	0.222563
0.210333	0.311417
0.212236	0.277707
0.212813	0.402155
0.213321	0.241224
0.213644	0.214547
0.214089	0.223851
0.214342	0.219768
0.215759	0.48046
0.215973	0.289928
0.216266	0.303049
0.216895	0.216994
0.217657	0.237967
0.219776	0.314611
0.219843	0.424126
0.222597	0.299188
0.224212	0.312303
0.2254	0.249201
0.22661	0.310038
0.229431	0.249811
0.231918	0.256229
0.233438	0.292498
0.233718	0.253882
0.237142	0.245337
0.238594	0.463447
0.241963	0.262801
0.246777	0.282941
0.24693	0.477226
0.24846	0.413967
0.24859	0.29015
0.250117	0.254324
0.255106	0.28772
0.258036	0.288477
0.259808	0.305832
0.260183	0.330987
0.260479	0.335846
0.284794	0.32241
0.285446	0.346754
0.28756	0.302408
0.287721	0.344746
0.299349	0.412024
0.310052	0.318044
0.315186	0.325967
0.335879	0.395779
0.339345	0.404968
0.369779	0.406523

