0.0843423	0.0854049
0.128623	0.13644
0.161225	0.195685
0.164394	0.166892
0.166673	0.260426
0.169747	0.170534
0.170112	0.256194
0.177357	0.187612
0.184436	0.400577
0.18933	0.228793
0.192087	0.226724
0.194919	0.325375
0.194932	0.203515
0.201334	0.219953
0.206058	0.33068
0.209144	0.221774
0.213933	0.347275
0.214796	0.273239
0.221948	0.253421
0.222278	inf
0.222484	0.270539
0.225153	0.237238
0.229097	0.262763
0.231101	0.261732
0.233045	0.252211
0.23465	0.244591
0.237113	0.344306
0.237616	0.273538
0.240973	0.254874
0.246542	inf
0.246835	0.247324
0.249771	0.251367
0.251173	0.258786
0.251481	0.298086
0.25465	0.286626
0.254787	0.342479
0.258373	0.316805
0.26011	0.278556
0.260168	0.288729
0.282391	0.341015
0.291843	0.345674
0.297486	0.329915
0.300062	0.327598
0.30946	0.323207
0.324788	0.481705
0.330302	0.334143
0.360789	0.4283
0.362721	0.433115
0.389106	inf
0.391275	0.449804
0.398695	0.421176

