0.121353	0.132231
0.133849	0.166713
0.146148	0.15324
0.159523	0.162586
0.164482	0.168801
0.166719	0.179773
0.166752	0.175139
0.1678	0.173777
0.168118	0.189011
0.173667	0.224573
0.178649	0.207491
0.190486	0.199508
0.192027	0.226446
0.192696	0.195021
0.195973	0.245069
0.202511	0.205211
0.204384	0.324445
0.204991	0.316655
0.213954	0.274425
0.220913	0.253709
0.221	0.252994
0.222946	0.230373
0.224779	0.292965
0.226765	0.293928
0.228902	0.235387
0.233568	0.271353
0.234984	0.280542
0.237683	0.272542
0.239266	0.256118
0.241483	0.457666
0.241508	0.334664
0.242804	0.280092
0.247374	0.482655
0.250123	0.314734
0.251648	0.281322
0.255145	0.307243
0.258328	0.407091
0.259393	0.436718
0.261034	0.435548
0.262011	0.367336
0.268941	0.271954
0.269304	0.37161
0.27326	0.386594
0.274668	0.478734
0.279654	0.28332
0.284537	0.293341
0.286312	0.350126
0.294806	0.342003
0.296275	0.311347
0.302667	0.31311
0.303157	0.311081
0.32053	0.364475
0.321445	0.375358
0.330539	0.377579
0.354075	0.39356
0.368626	0.455325

