0.110682	0.130225
0.122884	0.197947
0.138328	0.161939
0.143971	0.149247
0.161891	0.165352
0.169978	0.188867
0.176673	0.210129
0.17738	0.209181
0.180449	0.249983
0.182706	0.248966
0.19045	0.196472
0.198762	0.386335
0.201047	0.216578
0.20928	0.267115
0.220385	0.258704
0.222578	0.310538
0.224652	0.304352
0.229643	0.416456
0.233358	0.269869
0.235895	0.236495
0.239852	0.259636
0.240526	0.328426
0.242666	0.281294
0.25173	0.311922
0.252841	inf
0.253147	0.295292
0.255684	0.281615
0.256736	0.299925
0.25701	0.305534
0.260086	0.351689
0.270684	0.2774
0.272354	0.274278
0.272958	0.467334
0.276016	0.347293
0.289388	0.296743
0.289471	0.41387
0.292826	0.330914
0.296218	0.319113
0.31229	0.332333
0.315481	0.350488
0.323817	0.489242
0.326709	0.338231
0.331893	0.349046
0.342796	0.353762
0.352639	0.438409
0.355688	0.367745
0.368087	0.384175
0.394902	0.48182

