0.1338	0.138738
0.14363	0.160477
0.146615	0.172708
0.15768	0.185679
0.162129	0.213852
0.169295	0.173603
0.182186	0.26938
0.184654	0.194594
0.195082	0.2304
0.198111	0.229099
0.199759	0.282072
0.200533	0.306268
0.212427	0.455592
0.218018	0.355759
0.222579	0.40372
0.222796	0.257536
0.223795	0.225534
0.224711	0.225254
0.226384	0.346197
0.228081	0.334153
0.238589	0.255412
0.240109	0.283155
0.243514	0.296056
0.243698	0.274373
0.245202	0.28754
0.247806	0.29121
0.248894	0.252361
0.250369	0.326413
0.251912	0.324605
0.252741	0.447914
0.25524	0.45289
0.255285	0.333133
0.256441	0.29246
0.256521	0.278186
0.256801	0.259786
0.256874	0.377323
0.257268	0.327678
0.258553	0.310507
0.263908	0.330016
0.264758	0.271414
0.27173	0.329774
0.278703	0.406915
0.286325	0.354952
0.286802	0.341844
0.287733	0.305271
0.288812	0.385246
0.324339	0.38249
0.330447	0.35729
0.345942	0.398369
0.355816	0.452108
0.365359	0.399891
0.384397	0.437964

