0.0616864	0.0629427
0.0793706	0.0805556
0.0846213	0.0881706
0.0846553	0.0989157
0.085112	0.114774
0.0856993	0.0870165
0.0876079	0.0949969
0.0946252	0.147772
0.0959292	0.109445
0.0990532	0.107682
0.102623	0.124888
0.105001	0.109009
0.10579	0.129398
0.106065	0.118625
0.110507	0.117222
0.111187	0.156053
0.111767	0.114269
0.112166	0.155401
0.112511	0.15109
0.112753	0.158609
0.11547	0.164645
0.115595	0.152849
0.115935	0.259408
0.11684	0.127349
0.117496	0.139815
0.118424	0.144512
0.120756	0.128753
0.121188	0.140435
0.122551	0.176231
0.124357	0.435348
0.125095	0.316764
0.125276	0.128555
0.12747	0.248796
0.127526	0.166237
0.128168	0.199473
0.128457	0.43986
0.128471	0.139956
0.129323	0.158326
0.130641	0.267845
0.13067	0.155574
0.130956	0.206652
0.133066	0.222985
0.133486	0.193043
0.133537	0.26734
0.133608	0.148833
0.135463	0.136405
0.135657	0.186938
0.136483	0.289228
0.136889	0.162482
0.137017	0.14589
0.13793	0.143541
0.138757	0.222828
0.138767	0.13933
0.13921	0.179033
0.141424	0.202373
0.142296	0.281627
0.142867	0.181283
0.142882	0.26577
0.143405	0.16728
0.14626	0.256458
0.14642	0.186155
0.147532	0.194523
0.148863	0.223974
0.148908	0.184664
0.151313	0.29326
0.151475	0.159183
0.152549	0.170016
0.153177	0.184879
0.153257	0.207238
0.15384	0.178573
0.153849	0.22507
0.153907	0.175579
0.155655	0.243361
0.155896	0.226499
0.157677	0.194653
0.159984	0.183272
0.160966	0.174937
0.161323	0.17127
0.161365	0.262538
0.162108	0.188819
0.1637	0.196187
0.16553	0.17559
0.165836	0.185116
0.16616	0.188398
0.167294	0.201831
0.168199	0.20537
0.170069	0.194213
0.171104	0.255289
0.171802	0.198372
0.172149	0.193926
0.172408	0.223253
0.172637	0.202192
0.173589	0.196547
0.173625	0.222202
0.176845	0.192426
0.1769	0.181863
0.177155	0.207035
0.178607	0.205653
0.183566	0.189297
0.184066	0.248733
0.185442	0.233623
0.185964	0.208583
0.190666	0.203917
0.201299	0.213672
0.206076	0.218741
0.221758	0.234474
0.226715	0.242675
0.279679	0.285729
