0.0737757	0.0775499
0.0746652	0.0881712
0.0970789	0.134098
0.101764	0.116883
0.104853	0.17989
0.105316	0.120428
0.110599	0.165805
0.110899	0.124782
0.11126	0.120573
0.112002	0.11915
0.112999	0.11908
0.113279	0.167661
0.114376	0.146026
0.11594	0.116837
0.116707	0.124158
0.117182	0.135964
0.118181	0.135012
0.120041	0.187187
0.121281	0.124891
0.122225	0.122383
0.123056	0.12574
0.1243	0.135106
0.124926	0.138947
0.125111	0.134719
0.125169	0.139632
0.125171	0.435065
0.126763	0.186791
0.127177	0.189275
0.127712	0.131368
0.127772	0.17189
0.128054	0.161764
0.128788	0.14802
0.130216	0.143408
0.131073	0.452839
0.131361	0.139074
0.131548	0.136773
0.131782	0.18992
0.131995	0.178375
0.132888	0.251405
0.134572	0.13863
0.136211	0.219636
0.136489	0.169232
0.136559	0.213739
0.136662	0.14185
0.13706	0.142192
0.137793	0.317343
0.138591	0.186445
0.138613	0.14236
0.138994	0.277226
0.139008	0.147816
0.139967	0.241492
0.140519	0.234542
0.140832	0.206869
0.142112	0.173596
0.142155	0.165018
0.142314	0.151578
0.144792	0.16523
0.144903	0.158018
0.146898	0.201668
0.147674	0.208069
0.148118	0.176344
0.148749	0.198704
0.149649	0.150299
0.149832	0.159975
0.149913	0.242006
0.150055	0.217957
0.150446	0.169912
0.151826	0.225607
0.152369	0.174789
0.153237	0.153373
0.153316	0.15636
0.155347	0.190688
0.156858	0.22975
0.156921	0.159119
0.157718	0.301564
0.159292	0.167958
0.161157	0.201901
0.162426	0.204947
0.163501	0.2361
0.163936	0.194625
0.164939	0.167571
0.165954	0.213253
0.16694	0.16805
0.16795	0.257164
0.168011	0.298441
0.172702	0.176565
0.174239	0.187945
0.174999	0.253172
0.175364	0.230505
0.176831	0.184555
0.177244	0.199909
0.177335	0.200014
0.177432	0.182228
0.179575	0.181418
0.182264	0.196682
0.18333	0.197343
0.183462	0.206014
0.189078	0.197108
0.189278	0.224461
0.190594	0.228714
0.198696	0.279827
0.203392	0.270896
0.21141	0.217426
0.212535	0.221794
0.214262	0.220158
0.21723	0.226949
0.231353	0.233536
0.233884	0.263026
0.235033	0.237685
0.237808	0.296846
0.239749	0.256605
0.257566	0.258692
0.276921	0.286668
