0.0654783	0.0733043
0.0695624	0.0749893
0.0788941	0.0874544
0.0853417	0.106265
0.0884975	0.0899856
0.0987285	0.104507
0.104191	0.108113
0.108825	0.186271
0.111499	0.12013
0.112004	0.119199
0.115262	0.125522
0.115522	0.196513
0.11644	0.436656
0.117131	0.267681
0.118938	0.184028
0.119223	0.152084
0.120295	0.121204
0.121179	0.122823
0.121708	0.179774
0.121972	0.152251
0.123052	0.167692
0.124473	0.136035
0.125769	0.154592
0.127751	0.132384
0.128935	0.139649
0.130445	0.224054
0.131718	0.140983
0.133409	0.151196
0.133839	0.146442
0.136564	0.227051
0.138233	0.305658
0.139116	0.155282
0.139241	0.247712
0.139689	0.266313
0.14021	0.222475
0.140291	0.177291
0.140432	0.245725
0.140737	0.143009
0.141473	0.325346
0.141626	0.159051
0.141771	0.158165
0.142137	0.212742
0.142222	0.197819
0.142436	0.146051
0.143144	0.174142
0.143356	0.447738
0.144828	0.290711
0.145831	0.164667
0.146838	0.164281
0.146944	0.153848
0.146979	0.152273
0.147398	0.159417
0.147582	0.32535
0.147734	0.234333
0.153717	0.236835
0.154659	0.22132
0.15572	0.175792
0.156447	0.179413
0.156883	0.180976
0.157526	0.16643
0.157687	0.17849
0.15863	0.161103
0.159448	0.217096
0.159733	0.203631
0.161741	0.179676
0.162886	0.169942
0.163002	0.235417
0.163903	0.17534
0.164915	0.175351
0.165422	0.188474
0.165553	0.168403
0.166101	0.189404
0.166244	0.197752
0.166458	0.208935
0.167092	0.223887
0.167269	0.227103
0.16742	0.275999
0.167829	0.228512
0.169837	0.272284
0.170207	0.18916
0.17059	0.212167
0.171622	0.172222
0.172273	0.174942
0.176361	0.2106
0.177941	0.18318
0.180093	0.224368
0.182076	0.207202
0.183968	0.240159
0.186444	0.205604
0.190567	0.203043
0.192524	0.287423
0.193963	0.210322
0.19502	0.227492
0.195173	0.217894
0.196545	0.234589
0.201656	0.247396
0.201695	0.201737
0.202458	0.221838
0.202622	0.208013
0.203265	0.259236
0.203298	0.232541
0.204803	0.226998
0.205757	0.206018
0.228368	0.262414
0.230063	0.242367
