0.0867327	0.0874214
0.0928682	0.096416
0.0964806	0.108794
0.0985288	0.129826
0.0991601	0.104881
0.0994394	0.110685
0.100381	0.105065
0.105173	0.142366
0.105875	0.129639
0.106351	0.130411
0.107339	0.110324
0.108813	0.126785
0.114548	0.154112
0.114806	0.159432
0.116594	0.164733
0.118376	0.204536
0.122416	0.157502
0.126187	0.207002
0.128914	0.301848
0.131193	0.133371
0.13197	0.150131
0.133393	0.436489
0.135065	0.140829
0.135206	0.207956
0.13682	0.322657
0.137978	0.15238
0.138289	0.187278
0.138859	0.240468
0.139404	0.217735
0.139801	0.218751
0.141012	0.154865
0.141401	0.202391
0.141493	0.237271
0.141529	0.445275
0.142261	0.273327
0.144596	0.154379
0.144779	0.242175
0.147013	0.159386
0.147623	0.19434
0.148013	0.162523
0.148203	0.230703
0.150097	0.191361
0.151088	0.230717
0.15182	0.293099
0.152519	0.204241
0.152986	0.177904
0.153707	0.179931
0.154272	0.298554
0.154747	0.185697
0.154835	0.157685
0.155166	0.155363
0.156365	0.178253
0.157415	0.172201
0.157726	0.176492
0.15796	0.189738
0.159327	0.238632
0.159664	0.306603
0.161941	0.162598
0.161989	0.172306
0.162424	0.235177
0.163036	0.270565
0.163173	0.198502
0.163602	0.213511
0.164938	0.19535
0.165445	0.169203
0.166087	0.174875
0.168	0.195169
0.168934	0.202988
0.170514	0.221947
0.172245	0.283901
0.173761	0.18772
0.174603	0.212789
0.175352	0.191677
0.177073	0.191528
0.177202	0.184633
0.177889	0.272423
0.179136	0.190682
0.179991	0.182698
0.186926	0.202339
0.187123	0.208154
0.188313	0.315615
0.191253	0.220431
0.192051	0.264261
0.193038	0.228521
0.193427	0.216838
0.193624	0.198436
0.195772	0.196095
0.205218	0.224879
0.205568	0.22252
0.205726	0.211146
0.20725	0.223359
0.207661	0.246218
0.209983	0.284288
0.223959	0.227584
0.230329	0.231551
0.246816	0.257112
0.267197	0.276844
