0.0697816	0.0784413
0.0797746	0.0800886
0.0809184	0.0810203
0.0825384	0.0855906
0.0852096	0.1113
0.0891453	0.089913
0.0895651	0.0934318
0.0910783	0.09204
0.0917975	0.113709
0.0924423	0.0961765
0.0941156	0.120984
0.0984033	0.116833
0.0986584	0.102956
0.100606	0.10165
0.101437	0.10825
0.102179	0.127702
0.10261	0.119631
0.10262	0.108458
0.108447	0.109047
0.109841	0.1213
0.11235	0.115537
0.11516	0.132659
0.115185	0.141552
0.116381	0.168261
0.116561	0.217516
0.117355	0.128095
0.11778	0.186844
0.120244	0.142581
0.120273	0.188946
0.121925	0.245351
0.122085	0.127904
0.123328	0.146033
0.124651	0.140667
0.126549	0.143208
0.127555	0.141635
0.128621	0.146387
0.129284	0.162155
0.129854	0.437294
0.13103	0.134482
0.131085	0.178174
0.131335	0.146092
0.13179	0.254368
0.132879	0.170333
0.133153	0.17009
0.134337	0.166496
0.134739	0.259147
0.134969	0.209439
0.135139	0.140595
0.135194	0.204852
0.13573	0.156805
0.136051	0.223216
0.136084	0.197435
0.136308	0.14773
0.136798	0.21053
0.137066	0.150702
0.137118	0.163185
0.137443	0.244113
0.137834	0.24631
0.138439	0.441272
0.139539	0.147573
0.140141	0.148019
0.140417	0.164118
0.14042	0.158135
0.141984	0.143413
0.142632	0.182512
0.142916	0.26792
0.145191	0.240189
0.1461	0.243447
0.14694	0.303449
0.147129	0.176261
0.147538	0.152074
0.148255	0.296826
0.150008	0.179849
0.150319	0.150367
0.150417	0.182068
0.150689	0.21569
0.150995	0.168068
0.153425	0.166354
0.154351	0.16498
0.154518	0.156321
0.15531	0.252491
0.155796	0.212834
0.157562	0.26535
0.158407	0.17398
0.159475	0.176149
0.159508	0.174417
0.159708	0.171839
0.159896	0.174886
0.160268	0.185599
0.163778	0.183973
0.164589	0.228072
0.164803	0.166485
0.165218	0.21843
0.169356	0.24109
0.1697	0.176244
0.170656	0.225273
0.173925	0.175271
0.174625	0.213065
0.174643	0.281737
0.175487	0.265189
0.175874	0.210074
0.177493	0.20147
0.179645	0.276437
0.181528	0.253358
0.18287	0.186604
0.183167	0.210581
0.184595	0.204228
0.184786	0.192271
0.187887	0.206443
0.188827	0.203422
0.191934	0.211341
0.192758	0.194961
0.193035	0.218573
0.201037	0.211
0.204226	0.204229
0.209678	0.276663
0.217878	0.225405
0.22228	0.227299
0.237486	0.239872
0.245117	0.270171
0.245921	0.258036
