0.0565229	0.0575333
0.0763668	0.0867505
0.0769376	0.0856895
0.0788928	0.0866741
0.0829616	0.0854884
0.0847203	0.110215
0.0868122	0.109022
0.0895628	0.090032
0.0921255	0.0998728
0.0940393	0.0953298
0.0963189	0.133867
0.0998824	0.132559
0.100298	0.140373
0.100895	0.111213
0.101305	0.102623
0.106045	0.107379
0.106583	0.108287
0.106778	0.127165
0.107823	0.143049
0.10837	0.112947
0.110656	0.176637
0.110686	0.131895
0.110818	0.121503
0.111027	0.11328
0.11103	0.211118
0.112131	0.151372
0.112675	0.119006
0.113982	0.435643
0.115747	0.12727
0.115806	0.117437
0.117954	0.130038
0.117979	0.125694
0.118925	0.145665
0.118934	0.131472
0.119497	0.151648
0.12032	0.129271
0.120465	0.197768
0.120928	0.139498
0.121467	0.135739
0.122493	0.145656
0.12486	0.125919
0.125326	0.125719
0.126002	0.148507
0.126053	0.151507
0.126197	0.146373
0.127255	0.135897
0.128245	0.293555
0.128865	0.151621
0.129343	0.164346
0.134676	0.155953
0.137619	0.149538
0.137959	0.153949
0.138514	0.241274
0.138647	0.228183
0.140705	0.146807
0.14073	0.252601
0.140742	0.287244
0.140782	0.207717
0.142159	0.16202
0.142718	0.166548
0.143533	0.157202
0.147021	0.211909
0.148518	0.223645
0.149214	0.229713
0.150055	0.268958
0.151922	0.295332
0.15202	0.18604
0.152122	0.153924
0.152473	0.288153
0.152787	0.167275
0.152934	0.260721
0.15336	0.154592
0.154391	0.236108
0.154867	0.165863
0.154949	0.156476
0.154976	0.219838
0.155327	0.184105
0.155811	0.454136
0.157719	0.198085
0.158669	0.189928
0.158831	0.248885
0.158991	0.179291
0.159516	0.281538
0.159659	0.19189
0.162027	0.168123
0.162334	0.176567
0.165929	0.252826
0.167267	0.221843
0.167272	0.181519
0.167681	0.174735
0.168717	0.185221
0.168876	0.20564
0.170878	0.21666
0.171131	0.244528
0.176032	0.177281
0.176221	0.212029
0.179401	0.186192
0.18173	0.230752
0.182572	0.185899
0.184033	0.197722
0.184622	0.281139
0.186803	0.188762
0.191119	0.292492
0.191219	0.21361
0.191465	0.197098
0.192093	0.266555
0.194123	0.255406
0.196301	0.239324
0.199444	0.238041
0.202937	0.261022
0.203637	0.281329
0.20415	0.206726
0.205217	0.207471
0.208908	0.264711
0.209699	0.237339
0.230115	0.23741
0.242585	0.247497
0.262173	0.271312
0.286577	0.292181
