0.0805454	0.0819083
0.0840195	0.126815
0.0875271	0.0923124
0.0931738	0.095023
0.099833	0.114572
0.1035	0.115172
0.104462	0.109844
0.107507	0.108862
0.109714	0.126714
0.114052	0.13734
0.114226	0.172056
0.114497	0.205818
0.114816	0.438223
0.115209	0.136873
0.116383	0.211832
0.120031	0.125556
0.121821	0.130876
0.123208	0.202442
0.124261	0.158885
0.124746	0.16318
0.125119	0.148461
0.127534	0.145952
0.130634	0.149367
0.132119	0.138089
0.133626	0.195482
0.135188	0.150494
0.135744	0.292555
0.135946	0.141043
0.136154	0.303281
0.137719	0.159957
0.137924	0.162697
0.137968	0.140264
0.138424	0.197027
0.138617	0.198211
0.138765	0.181627
0.139069	0.21786
0.139358	0.234912
0.140079	0.165241
0.140989	0.464366
0.141202	0.326493
0.141355	0.29517
0.143357	0.146125
0.143517	0.160887
0.144083	0.237558
0.145299	0.150036
0.14538	0.265973
0.145646	0.176594
0.145872	0.152219
0.146041	0.20347
0.146752	0.161012
0.149482	0.293457
0.151725	0.152251
0.151779	0.22931
0.152629	0.171297
0.152638	0.202768
0.153441	0.161568
0.153533	0.287282
0.153541	0.278191
0.154131	0.210857
0.154134	0.184753
0.156407	0.286583
0.156816	0.188873
0.157493	0.190444
0.157671	0.228439
0.159484	0.257689
0.159617	0.202454
0.162323	0.218191
0.163179	0.243569
0.165163	0.180133
0.168354	0.201577
0.170332	0.186564
0.170912	0.174084
0.173163	0.269351
0.175968	0.185587
0.177154	0.182044
0.177417	0.181594
0.177514	0.186093
0.179411	0.227165
0.18022	0.290383
0.180419	0.204958
0.182417	0.22757
0.183453	0.24574
0.184712	0.18809
0.18575	0.236574
0.186976	0.191085
0.190421	0.226835
0.191747	0.221305
0.192221	0.327385
0.196598	0.274283
0.197781	0.232869
0.20081	0.287686
0.205645	0.21852
0.212075	0.227113
0.213276	0.247291
0.253232	0.279096
