0.0506676	0.0533296
0.0564457	0.0601359
0.0745747	0.0943339
0.0833432	0.0859548
0.0847883	0.0853972
0.0861885	0.092051
0.0867533	0.0887313
0.0875476	0.105972
0.0887582	0.0906473
0.089679	0.138632
0.0899215	0.119067
0.0900964	0.102702
0.0923527	0.119758
0.092373	0.0991528
0.0960141	0.108398
0.0999614	0.100926
0.102147	0.108758
0.104036	0.157804
0.10573	0.126171
0.107771	0.133001
0.112853	0.148266
0.113652	0.121564
0.113772	0.164581
0.114673	0.126738
0.115029	0.128532
0.115974	0.260819
0.117263	0.206986
0.117614	0.131951
0.118383	0.131039
0.118565	0.120537
0.120623	0.168789
0.123147	0.154476
0.124661	0.146517
0.125664	0.139002
0.125939	0.216672
0.126496	0.134109
0.12683	0.15047
0.127023	0.136861
0.127922	0.133416
0.130288	0.439424
0.130431	0.274867
0.131175	0.18312
0.13251	0.445464
0.13268	0.141407
0.133027	0.187125
0.133548	0.135264
0.136144	0.165189
0.136291	0.142832
0.136311	0.232691
0.136325	0.28317
0.137528	0.229951
0.137818	0.154121
0.138148	0.202351
0.139462	0.158817
0.140639	0.195696
0.140753	0.174432
0.141604	0.156115
0.142532	0.264922
0.142952	0.166245
0.143061	0.211561
0.143326	0.157525
0.143733	0.219105
0.14411	0.144644
0.145896	0.165907
0.146947	0.163316
0.147776	0.217224
0.147955	0.151869
0.149417	0.176207
0.14972	0.192699
0.150096	0.18639
0.150259	0.172865
0.151086	0.202698
0.151253	0.184469
0.152901	0.176759
0.154114	0.217257
0.154652	0.316818
0.1549	0.20713
0.155909	0.162816
0.156756	0.178837
0.157427	0.251406
0.157544	0.295226
0.157877	0.229912
0.158585	0.315288
0.158786	0.197949
0.159238	0.179796
0.159498	0.161532
0.159545	0.25041
0.159963	0.258157
0.160449	0.197064
0.160927	0.19343
0.161421	0.172193
0.163418	0.184187
0.166769	0.176721
0.167794	0.168626
0.167943	0.199082
0.169023	0.187866
0.170039	0.198083
0.17041	0.207034
0.172997	0.173586
0.174253	0.199574
0.178561	0.185209
0.178729	0.255104
0.179196	0.199146
0.179258	0.232702
0.183826	0.215443
0.186543	0.197528
0.190072	0.216666
0.194103	0.199275
0.194195	0.285465
0.198963	0.209775
0.201437	0.240031
0.206553	0.215529
0.212337	0.231567
0.218212	0.219972
0.229705	0.23934
0.230714	0.284041
0.232209	0.242548
0.238182	0.24378
0.268245	0.280125
