0.0506392	0.0598199
0.079211	0.0799013
0.0807795	0.08812
0.0829408	0.0981296
0.0840409	0.0852911
0.0897354	0.111531
0.0906384	0.10061
0.107297	0.116404
0.107993	0.126762
0.115907	0.13207
0.116914	0.126631
0.118095	0.132146
0.118303	0.121307
0.119104	0.197942
0.119369	0.19718
0.119866	0.137515
0.125189	0.151152
0.125821	0.125994
0.126379	0.153375
0.127912	0.182656
0.129442	0.213596
0.130351	0.435856
0.131476	0.155197
0.131508	0.185369
0.131618	0.183093
0.132208	0.136628
0.13307	0.251344
0.133778	0.172386
0.134746	0.460607
0.1354	0.163776
0.135639	0.332526
0.135784	0.28853
0.136443	0.303477
0.136559	0.208885
0.136657	0.195681
0.137058	0.313257
0.137685	0.170728
0.138578	0.167505
0.13993	0.223923
0.140479	0.175827
0.140901	0.156754
0.141034	0.155018
0.141359	0.155611
0.141659	0.161499
0.142349	0.243803
0.142391	0.146323
0.143401	0.159108
0.144432	0.150085
0.144793	0.305555
0.145844	0.157894
0.146308	0.24664
0.146474	0.256662
0.14665	0.260249
0.147153	0.215591
0.149424	0.168479
0.151178	0.183207
0.151319	0.233074
0.152759	0.27091
0.153753	0.191771
0.154063	0.178159
0.154376	0.155678
0.157543	0.266902
0.157702	0.174515
0.158161	0.178465
0.160535	0.193287
0.16056	0.182504
0.16131	0.171632
0.161378	0.166279
0.161979	0.188676
0.162791	0.164983
0.16467	0.164829
0.165092	0.177338
0.169797	0.227184
0.170633	0.174143
0.17115	0.228616
0.171804	0.19224
0.171899	0.172571
0.178805	0.187892
0.180916	0.242751
0.181644	0.275986
0.183526	0.235515
0.183614	0.212584
0.184147	0.213236
0.184678	0.193384
0.185963	0.222103
0.189328	0.198024
0.189641	0.233142
0.190547	0.28045
0.195552	0.269336
0.195647	0.234279
0.204862	0.236962
0.215552	0.260067
0.21597	0.28321
0.218152	0.26075
0.218506	0.243152
0.228252	0.235044
0.240643	0.268993
0.263121	0.280214
0.279337	0.302763
