0.0596022	0.0597075
0.0695776	0.0717323
0.0940411	0.0954155
0.098406	0.114861
0.100187	0.102542
0.100745	0.103033
0.102	0.103958
0.108454	0.140377
0.110356	0.169124
0.111106	0.129131
0.112826	0.115869
0.113575	0.136032
0.113638	0.13111
0.115087	0.213484
0.117294	0.134769
0.118581	0.136933
0.119243	0.184706
0.121256	0.280872
0.121831	0.17544
0.122935	0.139072
0.12304	0.125666
0.123705	0.146024
0.125674	0.15105
0.126106	0.128281
0.127046	0.136795
0.127433	0.130289
0.128276	0.145593
0.129327	0.297795
0.130134	0.130605
0.130695	0.182042
0.13173	0.147977
0.131782	0.148324
0.132289	0.16823
0.133716	0.215059
0.135057	0.17948
0.135354	0.158774
0.136016	0.136196
0.13657	0.160493
0.137437	0.164521
0.137789	0.437818
0.138993	0.151671
0.140555	0.175283
0.141701	0.182499
0.142595	0.246365
0.14281	0.455327
0.142927	0.144234
0.143967	0.243388
0.145541	0.166861
0.145541	0.15468
0.146101	0.243601
0.14629	0.30856
0.147601	0.194734
0.147686	0.30538
0.148179	0.182337
0.148387	0.186775
0.150123	0.163384
0.150718	0.187555
0.150893	0.155145
0.152643	0.206844
0.152987	0.166125
0.153525	0.227194
0.153869	0.203005
0.1541	0.196059
0.155174	0.162903
0.155635	0.177594
0.156581	0.176592
0.156619	0.164446
0.157738	0.283763
0.157839	0.169043
0.157859	0.162742
0.158191	0.231115
0.159661	0.180585
0.15984	0.190343
0.160889	0.299474
0.161277	0.200795
0.161871	0.19013
0.162674	0.166317
0.163426	0.202152
0.163611	0.167052
0.164811	0.263041
0.168535	0.187229
0.169289	0.188148
0.171085	0.188248
0.173341	0.190621
0.173389	0.234094
0.173542	0.290216
0.174752	0.227734
0.175728	0.203076
0.175829	0.236932
0.175906	0.183866
0.176645	0.180302
0.178996	0.247369
0.181976	0.20157
0.18411	0.26701
0.184234	0.218028
0.186416	0.196672
0.187761	0.227113
0.188691	0.196094
0.190786	0.201258
0.194525	0.249284
0.194808	0.199384
0.19962	0.207914
0.200817	0.242348
0.203486	0.214407
0.203781	0.268713
0.208519	0.210941
0.214059	0.247269
0.214446	0.282671
0.216147	0.222266
0.21716	0.290963
0.235542	0.243648
0.239279	0.262692
0.258569	0.258992
