# persistence landscape
# X Y
"layer 0:"
-inf 0
8.48528 0
3066.24 3057.76
6124 0
inf 0


"layer 1:"
-inf 0
12.7279 0
3068.36 3055.64
6124 0
inf 0


"layer 2:"
-inf 0
16.9706 0
3070.49 3053.51
6124 0
inf 0


"layer 3:"
-inf 0
16.9706 0
3070.49 3053.51
6124 0
inf 0


"layer 4:"
-inf 0
16.9706 0
3070.49 3053.51
6124 0
inf 0


"layer 5:"
-inf 0
19.799 0
3071.9 3052.1
6124 0
inf 0


"layer 6:"
-inf 0
19.799 0
3071.9 3052.1
6124 0
inf 0


"layer 7:"
-inf 0
21.2132 0
3072.61 3051.39
6124 0
inf 0


"layer 8:"
-inf 0
21.2132 0
3072.61 3051.39
6124 0
inf 0


"layer 9:"
-inf 0
22.6274 0
3073.31 3050.69
6124 0
inf 0


"layer 10:"
-inf 0
24.0416 0
3074.02 3049.98
6124 0
inf 0


"layer 11:"
-inf 0
24.0416 0
3074.02 3049.98
6124 0
inf 0


"layer 12:"
-inf 0
26.8701 0
3075.44 3048.56
6124 0
inf 0


"layer 13:"
-inf 0
26.8701 0
3075.44 3048.56
6124 0
inf 0


"layer 14:"
-inf 0
26.8701 0
3075.44 3048.56
6124 0
inf 0


"layer 15:"
-inf 0
28.2843 0
3076.14 3047.86
6124 0
inf 0


"layer 16:"
-inf 0
28.2843 0
3076.14 3047.86
6124 0
inf 0


"layer 17:"
-inf 0
28.2843 0
3076.14 3047.86
6124 0
inf 0


"layer 18:"
-inf 0
29.6985 0
3076.85 3047.15
6124 0
inf 0


"layer 19:"
-inf 0
35.3553 0
3079.68 3044.32
6124 0
inf 0


"layer 20:"
-inf 0
35.3553 0
3079.68 3044.32
6124 0
inf 0


"layer 21:"
-inf 0
36.7696 0
3080.38 3043.62
6124 0
inf 0


"layer 22:"
-inf 0
38.1838 0
3081.09 3042.91
6124 0
inf 0


"layer 23:"
-inf 0
67.8823 0
3095.94 3028.06
6124 0
inf 0


"layer 24:"
-inf 0
67.8823 0
3095.94 3028.06
6124 0
inf 0


"layer 25:"
-inf 0
67.8823 0
3095.94 3028.06
6124 0
inf 0


"layer 26:"
-inf 0
67.8823 0
3095.94 3028.06
6124 0
inf 0


"layer 27:"
-inf 0
67.8823 0
3095.94 3028.06
6124 0
inf 0


"layer 28:"
-inf 0
69.2965 0
3096.65 3027.35
6124 0
inf 0


"layer 29:"
-inf 0
69.2965 0
3096.65 3027.35
6124 0
inf 0


"layer 30:"
-inf 0
72.1249 0
3098.06 3025.94
6124 0
inf 0


"layer 31:"
-inf 0
74.9533 0
3099.48 3024.52
6124 0
inf 0


"layer 32:"
-inf 0
76.3675 0
3100.18 3023.82
6124 0
inf 0


"layer 33:"
-inf 0
76.3675 0
3100.18 3023.82
6124 0
inf 0


"layer 34:"
-inf 0
79.196 0
3101.6 3022.4
6124 0
inf 0


"layer 35:"
-inf 0
86.267 0
3105.13 3018.87
6124 0
inf 0


"layer 36:"
-inf 0
217.789 0
3170.89 2953.11
6124 0
inf 0


"layer 37:"
-inf 0
217.789 0
3170.89 2953.11
6124 0
inf 0


"layer 38:"
-inf 0
217.789 0
3170.89 2953.11
6124 0
inf 0


"layer 39:"
-inf 0
217.789 0
3170.89 2953.11
6124 0
inf 0


"layer 40:"
-inf 0
217.789 0
3170.89 2953.11
6124 0
inf 0


"layer 41:"
-inf 0
217.789 0
3170.89 2953.11
6124 0
inf 0


"layer 42:"
-inf 0
217.789 0
3170.89 2953.11
6124 0
inf 0


"layer 43:"
-inf 0
217.789 0
3170.89 2953.11
6124 0
inf 0


"layer 44:"
-inf 0
217.789 0
3170.89 2953.11
6124 0
inf 0


"layer 45:"
-inf 0
217.789 0
3170.89 2953.11
6124 0
inf 0


"layer 46:"
-inf 0
217.789 0
3170.89 2953.11
6124 0
inf 0


"layer 47:"
-inf 0
217.789 0
3170.89 2953.11
6124 0
inf 0


"layer 48:"
-inf 0
217.789 0
3170.89 2953.11
6124 0
inf 0


"layer 49:"
-inf 0
217.789 0
3170.89 2953.11
6124 0
inf 0


"layer 50:"
-inf 0
217.789 0
3170.89 2953.11
6124 0
inf 0


"layer 51:"
-inf 0
219.203 0
3171.6 2952.4
6124 0
inf 0


"layer 52:"
-inf 0
219.203 0
3171.6 2952.4
6124 0
inf 0


"layer 53:"
-inf 0
219.203 0
3171.6 2952.4
6124 0
inf 0


"layer 54:"
-inf 0
219.203 0
3171.6 2952.4
6124 0
inf 0


"layer 55:"
-inf 0
219.203 0
3171.6 2952.4
6124 0
inf 0


"layer 56:"
-inf 0
219.203 0
3171.6 2952.4
6124 0
inf 0


"layer 57:"
-inf 0
220.617 0
3172.31 2951.69
6124 0
inf 0


"layer 58:"
-inf 0
220.617 0
3172.31 2951.69
6124 0
inf 0


"layer 59:"
-inf 0
220.617 0
3172.31 2951.69
6124 0
inf 0


"layer 60:"
-inf 0
220.617 0
3172.31 2951.69
6124 0
inf 0


"layer 61:"
-inf 0
222.032 0
3173.02 2950.98
6124 0
inf 0


"layer 62:"
-inf 0
224.86 0
3174.43 2949.57
6124 0
inf 0


"layer 63:"
-inf 0
224.86 0
3174.43 2949.57
6124 0
inf 0


"layer 64:"
-inf 0
246.073 0
3185.04 2938.96
6124 0
inf 0


"layer 65:"
-inf 0
280.014 0
3202.01 2921.99
6124 0
inf 0


