# persistence landscape
# X Y
"layer 0:"
-inf 0
11.3137 0
3067.66 3056.34
6124 0
inf 0


"layer 1:"
-inf 0
12.7279 0
3068.36 3055.64
6124 0
inf 0


"layer 2:"
-inf 0
14.1421 0
3069.07 3054.93
6124 0
inf 0


"layer 3:"
-inf 0
15.5563 0
3069.78 3054.22
6124 0
inf 0


"layer 4:"
-inf 0
15.5563 0
3069.78 3054.22
6124 0
inf 0


"layer 5:"
-inf 0
16.9706 0
3070.49 3053.51
6124 0
inf 0


"layer 6:"
-inf 0
16.9706 0
3070.49 3053.51
6124 0
inf 0


"layer 7:"
-inf 0
16.9706 0
3070.49 3053.51
6124 0
inf 0


"layer 8:"
-inf 0
16.9706 0
3070.49 3053.51
6124 0
inf 0


"layer 9:"
-inf 0
19.799 0
3071.9 3052.1
6124 0
inf 0


"layer 10:"
-inf 0
19.799 0
3071.9 3052.1
6124 0
inf 0


"layer 11:"
-inf 0
19.799 0
3071.9 3052.1
6124 0
inf 0


"layer 12:"
-inf 0
19.799 0
3071.9 3052.1
6124 0
inf 0


"layer 13:"
-inf 0
19.799 0
3071.9 3052.1
6124 0
inf 0


"layer 14:"
-inf 0
21.2132 0
3072.61 3051.39
6124 0
inf 0


"layer 15:"
-inf 0
21.2132 0
3072.61 3051.39
6124 0
inf 0


"layer 16:"
-inf 0
21.2132 0
3072.61 3051.39
6124 0
inf 0


"layer 17:"
-inf 0
21.2132 0
3072.61 3051.39
6124 0
inf 0


"layer 18:"
-inf 0
21.2132 0
3072.61 3051.39
6124 0
inf 0


"layer 19:"
-inf 0
21.2132 0
3072.61 3051.39
6124 0
inf 0


"layer 20:"
-inf 0
21.2132 0
3072.61 3051.39
6124 0
inf 0


"layer 21:"
-inf 0
21.2132 0
3072.61 3051.39
6124 0
inf 0


"layer 22:"
-inf 0
22.6274 0
3073.31 3050.69
6124 0
inf 0


"layer 23:"
-inf 0
22.6274 0
3073.31 3050.69
6124 0
inf 0


"layer 24:"
-inf 0
22.6274 0
3073.31 3050.69
6124 0
inf 0


"layer 25:"
-inf 0
22.6274 0
3073.31 3050.69
6124 0
inf 0


"layer 26:"
-inf 0
22.6274 0
3073.31 3050.69
6124 0
inf 0


"layer 27:"
-inf 0
22.6274 0
3073.31 3050.69
6124 0
inf 0


"layer 28:"
-inf 0
24.0416 0
3074.02 3049.98
6124 0
inf 0


"layer 29:"
-inf 0
24.0416 0
3074.02 3049.98
6124 0
inf 0


"layer 30:"
-inf 0
24.0416 0
3074.02 3049.98
6124 0
inf 0


"layer 31:"
-inf 0
24.0416 0
3074.02 3049.98
6124 0
inf 0


"layer 32:"
-inf 0
24.0416 0
3074.02 3049.98
6124 0
inf 0


"layer 33:"
-inf 0
24.0416 0
3074.02 3049.98
6124 0
inf 0


"layer 34:"
-inf 0
24.0416 0
3074.02 3049.98
6124 0
inf 0


"layer 35:"
-inf 0
24.0416 0
3074.02 3049.98
6124 0
inf 0


"layer 36:"
-inf 0
24.0416 0
3074.02 3049.98
6124 0
inf 0


"layer 37:"
-inf 0
25.4558 0
3074.73 3049.27
6124 0
inf 0


"layer 38:"
-inf 0
25.4558 0
3074.73 3049.27
6124 0
inf 0


"layer 39:"
-inf 0
25.4558 0
3074.73 3049.27
6124 0
inf 0


"layer 40:"
-inf 0
25.4558 0
3074.73 3049.27
6124 0
inf 0


"layer 41:"
-inf 0
25.4558 0
3074.73 3049.27
6124 0
inf 0


"layer 42:"
-inf 0
25.4558 0
3074.73 3049.27
6124 0
inf 0


"layer 43:"
-inf 0
26.8701 0
3075.44 3048.56
6124 0
inf 0


"layer 44:"
-inf 0
26.8701 0
3075.44 3048.56
6124 0
inf 0


"layer 45:"
-inf 0
26.8701 0
3075.44 3048.56
6124 0
inf 0


"layer 46:"
-inf 0
26.8701 0
3075.44 3048.56
6124 0
inf 0


"layer 47:"
-inf 0
28.2843 0
3076.14 3047.86
6124 0
inf 0


"layer 48:"
-inf 0
28.2843 0
3076.14 3047.86
6124 0
inf 0


"layer 49:"
-inf 0
28.2843 0
3076.14 3047.86
6124 0
inf 0


"layer 50:"
-inf 0
28.2843 0
3076.14 3047.86
6124 0
inf 0


"layer 51:"
-inf 0
28.2843 0
3076.14 3047.86
6124 0
inf 0


"layer 52:"
-inf 0
28.2843 0
3076.14 3047.86
6124 0
inf 0


"layer 53:"
-inf 0
29.6985 0
3076.85 3047.15
6124 0
inf 0


"layer 54:"
-inf 0
29.6985 0
3076.85 3047.15
6124 0
inf 0


"layer 55:"
-inf 0
29.6985 0
3076.85 3047.15
6124 0
inf 0


"layer 56:"
-inf 0
29.6985 0
3076.85 3047.15
6124 0
inf 0


"layer 57:"
-inf 0
29.6985 0
3076.85 3047.15
6124 0
inf 0


"layer 58:"
-inf 0
31.1127 0
3077.56 3046.44
6124 0
inf 0


"layer 59:"
-inf 0
31.1127 0
3077.56 3046.44
6124 0
inf 0


"layer 60:"
-inf 0
31.1127 0
3077.56 3046.44
6124 0
inf 0


"layer 61:"
-inf 0
31.1127 0
3077.56 3046.44
6124 0
inf 0


"layer 62:"
-inf 0
32.5269 0
3078.26 3045.74
6124 0
inf 0


"layer 63:"
-inf 0
32.5269 0
3078.26 3045.74
6124 0
inf 0


"layer 64:"
-inf 0
32.5269 0
3078.26 3045.74
6124 0
inf 0


"layer 65:"
-inf 0
32.5269 0
3078.26 3045.74
6124 0
inf 0


"layer 66:"
-inf 0
32.5269 0
3078.26 3045.74
6124 0
inf 0


"layer 67:"
-inf 0
32.5269 0
3078.26 3045.74
6124 0
inf 0


"layer 68:"
-inf 0
32.5269 0
3078.26 3045.74
6124 0
inf 0


"layer 69:"
-inf 0
33.9411 0
3078.97 3045.03
6124 0
inf 0


"layer 70:"
-inf 0
33.9411 0
3078.97 3045.03
6124 0
inf 0


"layer 71:"
-inf 0
33.9411 0
3078.97 3045.03
6124 0
inf 0


"layer 72:"
-inf 0
33.9411 0
3078.97 3045.03
6124 0
inf 0


"layer 73:"
-inf 0
33.9411 0
3078.97 3045.03
6124 0
inf 0


"layer 74:"
-inf 0
35.3553 0
3079.68 3044.32
6124 0
inf 0


"layer 75:"
-inf 0
35.3553 0
3079.68 3044.32
6124 0
inf 0


"layer 76:"
-inf 0
35.3553 0
3079.68 3044.32
6124 0
inf 0


"layer 77:"
-inf 0
35.3553 0
3079.68 3044.32
6124 0
inf 0


"layer 78:"
-inf 0
35.3553 0
3079.68 3044.32
6124 0
inf 0


"layer 79:"
-inf 0
36.7696 0
3080.38 3043.62
6124 0
inf 0


"layer 80:"
-inf 0
36.7696 0
3080.38 3043.62
6124 0
inf 0


"layer 81:"
-inf 0
36.7696 0
3080.38 3043.62
6124 0
inf 0


"layer 82:"
-inf 0
36.7696 0
3080.38 3043.62
6124 0
inf 0


"layer 83:"
-inf 0
36.7696 0
3080.38 3043.62
6124 0
inf 0


"layer 84:"
-inf 0
36.7696 0
3080.38 3043.62
6124 0
inf 0


"layer 85:"
-inf 0
36.7696 0
3080.38 3043.62
6124 0
inf 0


"layer 86:"
-inf 0
38.1838 0
3081.09 3042.91
6124 0
inf 0


"layer 87:"
-inf 0
38.1838 0
3081.09 3042.91
6124 0
inf 0


"layer 88:"
-inf 0
38.1838 0
3081.09 3042.91
6124 0
inf 0


"layer 89:"
-inf 0
39.598 0
3081.8 3042.2
6124 0
inf 0


"layer 90:"
-inf 0
39.598 0
3081.8 3042.2
6124 0
inf 0


"layer 91:"
-inf 0
39.598 0
3081.8 3042.2
6124 0
inf 0


"layer 92:"
-inf 0
39.598 0
3081.8 3042.2
6124 0
inf 0


"layer 93:"
-inf 0
39.598 0
3081.8 3042.2
6124 0
inf 0


"layer 94:"
-inf 0
39.598 0
3081.8 3042.2
6124 0
inf 0


"layer 95:"
-inf 0
41.0122 0
3082.51 3041.49
6124 0
inf 0


"layer 96:"
-inf 0
42.4264 0
3083.21 3040.79
6124 0
inf 0


"layer 97:"
-inf 0
42.4264 0
3083.21 3040.79
6124 0
inf 0


"layer 98:"
-inf 0
42.4264 0
3083.21 3040.79
6124 0
inf 0


"layer 99:"
-inf 0
45.2548 0
3084.63 3039.37
6124 0
inf 0


"layer 100:"
-inf 0
45.2548 0
3084.63 3039.37
6124 0
inf 0


"layer 101:"
-inf 0
48.0833 0
3086.04 3037.96
6124 0
inf 0


"layer 102:"
-inf 0
48.0833 0
3086.04 3037.96
6124 0
inf 0


"layer 103:"
-inf 0
48.0833 0
3086.04 3037.96
6124 0
inf 0


"layer 104:"
-inf 0
52.3259 0
3088.16 3035.84
6124 0
inf 0


"layer 105:"
-inf 0
56.5685 0
3090.28 3033.72
6124 0
inf 0


"layer 106:"
-inf 0
306.884 0
3215.44 2908.56
6124 0
inf 0


"layer 107:"
-inf 0
306.884 0
3215.44 2908.56
6124 0
inf 0


"layer 108:"
-inf 0
306.884 0
3215.44 2908.56
6124 0
inf 0


"layer 109:"
-inf 0
306.884 0
3215.44 2908.56
6124 0
inf 0


"layer 110:"
-inf 0
306.884 0
3215.44 2908.56
6124 0
inf 0


"layer 111:"
-inf 0
306.884 0
3215.44 2908.56
6124 0
inf 0


"layer 112:"
-inf 0
306.884 0
3215.44 2908.56
6124 0
inf 0


"layer 113:"
-inf 0
306.884 0
3215.44 2908.56
6124 0
inf 0


"layer 114:"
-inf 0
306.884 0
3215.44 2908.56
6124 0
inf 0


"layer 115:"
-inf 0
306.884 0
3215.44 2908.56
6124 0
inf 0


"layer 116:"
-inf 0
306.884 0
3215.44 2908.56
6124 0
inf 0


"layer 117:"
-inf 0
306.884 0
3215.44 2908.56
6124 0
inf 0


"layer 118:"
-inf 0
306.884 0
3215.44 2908.56
6124 0
inf 0


"layer 119:"
-inf 0
306.884 0
3215.44 2908.56
6124 0
inf 0


"layer 120:"
-inf 0
306.884 0
3215.44 2908.56
6124 0
inf 0


"layer 121:"
-inf 0
306.884 0
3215.44 2908.56
6124 0
inf 0


"layer 122:"
-inf 0
306.884 0
3215.44 2908.56
6124 0
inf 0


"layer 123:"
-inf 0
308.299 0
3216.15 2907.85
6124 0
inf 0


"layer 124:"
-inf 0
308.299 0
3216.15 2907.85
6124 0
inf 0


"layer 125:"
-inf 0
308.299 0
3216.15 2907.85
6124 0
inf 0


"layer 126:"
-inf 0
308.299 0
3216.15 2907.85
6124 0
inf 0


"layer 127:"
-inf 0
308.299 0
3216.15 2907.85
6124 0
inf 0


"layer 128:"
-inf 0
308.299 0
3216.15 2907.85
6124 0
inf 0


"layer 129:"
-inf 0
308.299 0
3216.15 2907.85
6124 0
inf 0


"layer 130:"
-inf 0
308.299 0
3216.15 2907.85
6124 0
inf 0


"layer 131:"
-inf 0
308.299 0
3216.15 2907.85
6124 0
inf 0


"layer 132:"
-inf 0
308.299 0
3216.15 2907.85
6124 0
inf 0


"layer 133:"
-inf 0
308.299 0
3216.15 2907.85
6124 0
inf 0


"layer 134:"
-inf 0
308.299 0
3216.15 2907.85
6124 0
inf 0


"layer 135:"
-inf 0
308.299 0
3216.15 2907.85
6124 0
inf 0


"layer 136:"
-inf 0
308.299 0
3216.15 2907.85
6124 0
inf 0


"layer 137:"
-inf 0
309.713 0
3216.86 2907.14
6124 0
inf 0


"layer 138:"
-inf 0
309.713 0
3216.86 2907.14
6124 0
inf 0


"layer 139:"
-inf 0
309.713 0
3216.86 2907.14
6124 0
inf 0


"layer 140:"
-inf 0
309.713 0
3216.86 2907.14
6124 0
inf 0


"layer 141:"
-inf 0
309.713 0
3216.86 2907.14
6124 0
inf 0


"layer 142:"
-inf 0
309.713 0
3216.86 2907.14
6124 0
inf 0


"layer 143:"
-inf 0
309.713 0
3216.86 2907.14
6124 0
inf 0


"layer 144:"
-inf 0
309.713 0
3216.86 2907.14
6124 0
inf 0


"layer 145:"
-inf 0
309.713 0
3216.86 2907.14
6124 0
inf 0


"layer 146:"
-inf 0
309.713 0
3216.86 2907.14
6124 0
inf 0


"layer 147:"
-inf 0
311.127 0
3217.56 2906.44
6124 0
inf 0


"layer 148:"
-inf 0
311.127 0
3217.56 2906.44
6124 0
inf 0


"layer 149:"
-inf 0
311.127 0
3217.56 2906.44
6124 0
inf 0


"layer 150:"
-inf 0
311.127 0
3217.56 2906.44
6124 0
inf 0


"layer 151:"
-inf 0
311.127 0
3217.56 2906.44
6124 0
inf 0


"layer 152:"
-inf 0
311.127 0
3217.56 2906.44
6124 0
inf 0


"layer 153:"
-inf 0
311.127 0
3217.56 2906.44
6124 0
inf 0


"layer 154:"
-inf 0
312.541 0
3218.27 2905.73
6124 0
inf 0


"layer 155:"
-inf 0
313.955 0
3218.98 2905.02
6124 0
inf 0


"layer 156:"
-inf 0
313.955 0
3218.98 2905.02
6124 0
inf 0


"layer 157:"
-inf 0
315.37 0
3219.68 2904.32
6124 0
inf 0


"layer 158:"
-inf 0
316.784 0
3220.39 2903.61
6124 0
inf 0


"layer 159:"
-inf 0
316.784 0
3220.39 2903.61
6124 0
inf 0


"layer 160:"
-inf 0
318.198 0
3221.1 2902.9
6124 0
inf 0


"layer 161:"
-inf 0
319.612 0
3221.81 2902.19
6124 0
inf 0


"layer 162:"
-inf 0
321.026 0
3222.51 2901.49
6124 0
inf 0


"layer 163:"
-inf 0
321.026 0
3222.51 2901.49
6124 0
inf 0


"layer 164:"
-inf 0
323.855 0
3223.93 2900.07
6124 0
inf 0


"layer 165:"
-inf 0
332.34 0
3228.17 2895.83
6124 0
inf 0


"layer 166:"
-inf 0
336.583 0
3230.29 2893.71
6124 0
inf 0


