# persistence landscape
# X Y
"layer 0:"
-inf 0
9.89949 0
3066.95 3057.05
6124 0
inf 0


"layer 1:"
-inf 0
14.1421 0
3069.07 3054.93
6124 0
inf 0


"layer 2:"
-inf 0
15.5563 0
3069.78 3054.22
6124 0
inf 0


"layer 3:"
-inf 0
15.5563 0
3069.78 3054.22
6124 0
inf 0


"layer 4:"
-inf 0
16.9706 0
3070.49 3053.51
6124 0
inf 0


"layer 5:"
-inf 0
16.9706 0
3070.49 3053.51
6124 0
inf 0


"layer 6:"
-inf 0
18.3848 0
3071.19 3052.81
6124 0
inf 0


"layer 7:"
-inf 0
18.3848 0
3071.19 3052.81
6124 0
inf 0


"layer 8:"
-inf 0
18.3848 0
3071.19 3052.81
6124 0
inf 0


"layer 9:"
-inf 0
18.3848 0
3071.19 3052.81
6124 0
inf 0


"layer 10:"
-inf 0
19.799 0
3071.9 3052.1
6124 0
inf 0


"layer 11:"
-inf 0
19.799 0
3071.9 3052.1
6124 0
inf 0


"layer 12:"
-inf 0
19.799 0
3071.9 3052.1
6124 0
inf 0


"layer 13:"
-inf 0
19.799 0
3071.9 3052.1
6124 0
inf 0


"layer 14:"
-inf 0
21.2132 0
3072.61 3051.39
6124 0
inf 0


"layer 15:"
-inf 0
21.2132 0
3072.61 3051.39
6124 0
inf 0


"layer 16:"
-inf 0
22.6274 0
3073.31 3050.69
6124 0
inf 0


"layer 17:"
-inf 0
22.6274 0
3073.31 3050.69
6124 0
inf 0


"layer 18:"
-inf 0
22.6274 0
3073.31 3050.69
6124 0
inf 0


"layer 19:"
-inf 0
22.6274 0
3073.31 3050.69
6124 0
inf 0


"layer 20:"
-inf 0
22.6274 0
3073.31 3050.69
6124 0
inf 0


"layer 21:"
-inf 0
22.6274 0
3073.31 3050.69
6124 0
inf 0


"layer 22:"
-inf 0
24.0416 0
3074.02 3049.98
6124 0
inf 0


"layer 23:"
-inf 0
24.0416 0
3074.02 3049.98
6124 0
inf 0


"layer 24:"
-inf 0
24.0416 0
3074.02 3049.98
6124 0
inf 0


"layer 25:"
-inf 0
24.0416 0
3074.02 3049.98
6124 0
inf 0


"layer 26:"
-inf 0
24.0416 0
3074.02 3049.98
6124 0
inf 0


"layer 27:"
-inf 0
24.0416 0
3074.02 3049.98
6124 0
inf 0


"layer 28:"
-inf 0
24.0416 0
3074.02 3049.98
6124 0
inf 0


"layer 29:"
-inf 0
24.0416 0
3074.02 3049.98
6124 0
inf 0


"layer 30:"
-inf 0
24.0416 0
3074.02 3049.98
6124 0
inf 0


"layer 31:"
-inf 0
25.4558 0
3074.73 3049.27
6124 0
inf 0


"layer 32:"
-inf 0
25.4558 0
3074.73 3049.27
6124 0
inf 0


"layer 33:"
-inf 0
25.4558 0
3074.73 3049.27
6124 0
inf 0


"layer 34:"
-inf 0
25.4558 0
3074.73 3049.27
6124 0
inf 0


"layer 35:"
-inf 0
25.4558 0
3074.73 3049.27
6124 0
inf 0


"layer 36:"
-inf 0
26.8701 0
3075.44 3048.56
6124 0
inf 0


"layer 37:"
-inf 0
26.8701 0
3075.44 3048.56
6124 0
inf 0


"layer 38:"
-inf 0
26.8701 0
3075.44 3048.56
6124 0
inf 0


"layer 39:"
-inf 0
26.8701 0
3075.44 3048.56
6124 0
inf 0


"layer 40:"
-inf 0
26.8701 0
3075.44 3048.56
6124 0
inf 0


"layer 41:"
-inf 0
26.8701 0
3075.44 3048.56
6124 0
inf 0


"layer 42:"
-inf 0
26.8701 0
3075.44 3048.56
6124 0
inf 0


"layer 43:"
-inf 0
28.2843 0
3076.14 3047.86
6124 0
inf 0


"layer 44:"
-inf 0
28.2843 0
3076.14 3047.86
6124 0
inf 0


"layer 45:"
-inf 0
28.2843 0
3076.14 3047.86
6124 0
inf 0


"layer 46:"
-inf 0
28.2843 0
3076.14 3047.86
6124 0
inf 0


"layer 47:"
-inf 0
28.2843 0
3076.14 3047.86
6124 0
inf 0


"layer 48:"
-inf 0
29.6985 0
3076.85 3047.15
6124 0
inf 0


"layer 49:"
-inf 0
29.6985 0
3076.85 3047.15
6124 0
inf 0


"layer 50:"
-inf 0
29.6985 0
3076.85 3047.15
6124 0
inf 0


"layer 51:"
-inf 0
29.6985 0
3076.85 3047.15
6124 0
inf 0


"layer 52:"
-inf 0
31.1127 0
3077.56 3046.44
6124 0
inf 0


"layer 53:"
-inf 0
31.1127 0
3077.56 3046.44
6124 0
inf 0


"layer 54:"
-inf 0
31.1127 0
3077.56 3046.44
6124 0
inf 0


"layer 55:"
-inf 0
31.1127 0
3077.56 3046.44
6124 0
inf 0


"layer 56:"
-inf 0
32.5269 0
3078.26 3045.74
6124 0
inf 0


"layer 57:"
-inf 0
33.9411 0
3078.97 3045.03
6124 0
inf 0


"layer 58:"
-inf 0
33.9411 0
3078.97 3045.03
6124 0
inf 0


"layer 59:"
-inf 0
36.7696 0
3080.38 3043.62
6124 0
inf 0


"layer 60:"
-inf 0
38.1838 0
3081.09 3042.91
6124 0
inf 0


"layer 61:"
-inf 0
39.598 0
3081.8 3042.2
6124 0
inf 0


"layer 62:"
-inf 0
41.0122 0
3082.51 3041.49
6124 0
inf 0


"layer 63:"
-inf 0
45.2548 0
3084.63 3039.37
6124 0
inf 0


"layer 64:"
-inf 0
188.09 0
3156.05 2967.95
6124 0
inf 0


"layer 65:"
-inf 0
188.09 0
3156.05 2967.95
6124 0
inf 0


"layer 66:"
-inf 0
188.09 0
3156.05 2967.95
6124 0
inf 0


"layer 67:"
-inf 0
188.09 0
3156.05 2967.95
6124 0
inf 0


"layer 68:"
-inf 0
188.09 0
3156.05 2967.95
6124 0
inf 0


"layer 69:"
-inf 0
188.09 0
3156.05 2967.95
6124 0
inf 0


"layer 70:"
-inf 0
188.09 0
3156.05 2967.95
6124 0
inf 0


"layer 71:"
-inf 0
188.09 0
3156.05 2967.95
6124 0
inf 0


"layer 72:"
-inf 0
189.505 0
3156.75 2967.25
6124 0
inf 0


"layer 73:"
-inf 0
189.505 0
3156.75 2967.25
6124 0
inf 0


"layer 74:"
-inf 0
189.505 0
3156.75 2967.25
6124 0
inf 0


"layer 75:"
-inf 0
189.505 0
3156.75 2967.25
6124 0
inf 0


"layer 76:"
-inf 0
189.505 0
3156.75 2967.25
6124 0
inf 0


"layer 77:"
-inf 0
189.505 0
3156.75 2967.25
6124 0
inf 0


"layer 78:"
-inf 0
189.505 0
3156.75 2967.25
6124 0
inf 0


"layer 79:"
-inf 0
190.919 0
3157.46 2966.54
6124 0
inf 0


"layer 80:"
-inf 0
190.919 0
3157.46 2966.54
6124 0
inf 0


"layer 81:"
-inf 0
190.919 0
3157.46 2966.54
6124 0
inf 0


"layer 82:"
-inf 0
190.919 0
3157.46 2966.54
6124 0
inf 0


"layer 83:"
-inf 0
190.919 0
3157.46 2966.54
6124 0
inf 0


"layer 84:"
-inf 0
190.919 0
3157.46 2966.54
6124 0
inf 0


"layer 85:"
-inf 0
190.919 0
3157.46 2966.54
6124 0
inf 0


"layer 86:"
-inf 0
192.333 0
3158.17 2965.83
6124 0
inf 0


"layer 87:"
-inf 0
192.333 0
3158.17 2965.83
6124 0
inf 0


"layer 88:"
-inf 0
192.333 0
3158.17 2965.83
6124 0
inf 0


"layer 89:"
-inf 0
193.747 0
3158.87 2965.13
6124 0
inf 0


"layer 90:"
-inf 0
193.747 0
3158.87 2965.13
6124 0
inf 0


"layer 91:"
-inf 0
193.747 0
3158.87 2965.13
6124 0
inf 0


"layer 92:"
-inf 0
193.747 0
3158.87 2965.13
6124 0
inf 0


"layer 93:"
-inf 0
193.747 0
3158.87 2965.13
6124 0
inf 0


"layer 94:"
-inf 0
195.161 0
3159.58 2964.42
6124 0
inf 0


"layer 95:"
-inf 0
195.161 0
3159.58 2964.42
6124 0
inf 0


"layer 96:"
-inf 0
196.576 0
3160.29 2963.71
6124 0
inf 0


"layer 97:"
-inf 0
197.99 0
3160.99 2963.01
6124 0
inf 0


"layer 98:"
-inf 0
197.99 0
3160.99 2963.01
6124 0
inf 0


"layer 99:"
-inf 0
199.404 0
3161.7 2962.3
6124 0
inf 0


"layer 100:"
-inf 0
200.818 0
3162.41 2961.59
6124 0
inf 0


"layer 101:"
-inf 0
202.233 0
3163.12 2960.88
6124 0
inf 0


"layer 102:"
-inf 0
203.647 0
3163.82 2960.18
6124 0
inf 0


"layer 103:"
-inf 0
205.061 0
3164.53 2959.47
6124 0
inf 0


"layer 104:"
-inf 0
210.718 0
3167.36 2956.64
6124 0
inf 0


