# persistence landscape
# X Y
"layer 0:"
-inf 0
9.89949 0
119.95 110.05
230 0
inf 0


"layer 1:"
-inf 0
9.89949 0
119.95 110.05
230 0
inf 0


"layer 2:"
-inf 0
12.7279 0
121.364 108.636
230 0
inf 0


"layer 3:"
-inf 0
12.7279 0
121.364 108.636
230 0
inf 0


"layer 4:"
-inf 0
14.1421 0
122.071 107.929
230 0
inf 0


"layer 5:"
-inf 0
14.1421 0
122.071 107.929
230 0
inf 0


"layer 6:"
-inf 0
14.1421 0
122.071 107.929
230 0
inf 0


"layer 7:"
-inf 0
14.1421 0
122.071 107.929
230 0
inf 0


"layer 8:"
-inf 0
14.1421 0
122.071 107.929
230 0
inf 0


"layer 9:"
-inf 0
15.5563 0
122.778 107.222
230 0
inf 0


"layer 10:"
-inf 0
15.5563 0
122.778 107.222
230 0
inf 0


"layer 11:"
-inf 0
15.5563 0
122.778 107.222
230 0
inf 0


"layer 12:"
-inf 0
16.9706 0
123.485 106.515
230 0
inf 0


"layer 13:"
-inf 0
16.9706 0
123.485 106.515
230 0
inf 0


"layer 14:"
-inf 0
16.9706 0
123.485 106.515
230 0
inf 0


"layer 15:"
-inf 0
16.9706 0
123.485 106.515
230 0
inf 0


"layer 16:"
-inf 0
55.1543 0
142.577 87.4228
230 0
inf 0


"layer 17:"
-inf 0
55.1543 0
142.577 87.4228
230 0
inf 0


"layer 18:"
-inf 0
55.1543 0
142.577 87.4228
230 0
inf 0


"layer 19:"
-inf 0
56.5685 0
143.284 86.7157
230 0
inf 0


"layer 20:"
-inf 0
56.5685 0
143.284 86.7157
230 0
inf 0


"layer 21:"
-inf 0
56.5685 0
143.284 86.7157
230 0
inf 0


"layer 22:"
-inf 0
56.5685 0
143.284 86.7157
230 0
inf 0


"layer 23:"
-inf 0
56.5685 0
143.284 86.7157
230 0
inf 0


"layer 24:"
-inf 0
56.5685 0
143.284 86.7157
230 0
inf 0


"layer 25:"
-inf 0
56.5685 0
143.284 86.7157
230 0
inf 0


"layer 26:"
-inf 0
57.9828 0
143.991 86.0086
230 0
inf 0


"layer 27:"
-inf 0
57.9828 0
143.991 86.0086
230 0
inf 0


"layer 28:"
-inf 0
57.9828 0
143.991 86.0086
230 0
inf 0


"layer 29:"
-inf 0
59.397 0
144.698 85.3015
230 0
inf 0


"layer 30:"
-inf 0
59.397 0
144.698 85.3015
230 0
inf 0


"layer 31:"
-inf 0
59.397 0
144.698 85.3015
230 0
inf 0


"layer 32:"
-inf 0
60.8112 0
145.406 84.5944
230 0
inf 0


"layer 33:"
-inf 0
60.8112 0
145.406 84.5944
230 0
inf 0


"layer 34:"
-inf 0
62.2254 0
146.113 83.8873
230 0
inf 0


