# persistence landscape
# X Y
"layer 0:"
-inf 0
11.3137 0
3067.66 3056.34
6124 0
inf 0


"layer 1:"
-inf 0
12.7279 0
3068.36 3055.64
6124 0
inf 0


"layer 2:"
-inf 0
12.7279 0
3068.36 3055.64
6124 0
inf 0


"layer 3:"
-inf 0
14.1421 0
3069.07 3054.93
6124 0
inf 0


"layer 4:"
-inf 0
14.1421 0
3069.07 3054.93
6124 0
inf 0


"layer 5:"
-inf 0
18.3848 0
3071.19 3052.81
6124 0
inf 0


"layer 6:"
-inf 0
25.4558 0
3074.73 3049.27
6124 0
inf 0


"layer 7:"
-inf 0
25.4558 0
3074.73 3049.27
6124 0
inf 0


"layer 8:"
-inf 0
26.8701 0
3075.44 3048.56
6124 0
inf 0


"layer 9:"
-inf 0
26.8701 0
3075.44 3048.56
6124 0
inf 0


"layer 10:"
-inf 0
26.8701 0
3075.44 3048.56
6124 0
inf 0


"layer 11:"
-inf 0
26.8701 0
3075.44 3048.56
6124 0
inf 0


"layer 12:"
-inf 0
28.2843 0
3076.14 3047.86
6124 0
inf 0


"layer 13:"
-inf 0
31.1127 0
3077.56 3046.44
6124 0
inf 0


"layer 14:"
-inf 0
32.5269 0
3078.26 3045.74
6124 0
inf 0


"layer 15:"
-inf 0
62.2254 0
3093.11 3030.89
6124 0
inf 0


"layer 16:"
-inf 0
62.2254 0
3093.11 3030.89
6124 0
inf 0


"layer 17:"
-inf 0
62.2254 0
3093.11 3030.89
6124 0
inf 0


"layer 18:"
-inf 0
62.2254 0
3093.11 3030.89
6124 0
inf 0


"layer 19:"
-inf 0
62.2254 0
3093.11 3030.89
6124 0
inf 0


"layer 20:"
-inf 0
63.6396 0
3093.82 3030.18
6124 0
inf 0


"layer 21:"
-inf 0
63.6396 0
3093.82 3030.18
6124 0
inf 0


"layer 22:"
-inf 0
63.6396 0
3093.82 3030.18
6124 0
inf 0


"layer 23:"
-inf 0
63.6396 0
3093.82 3030.18
6124 0
inf 0


"layer 24:"
-inf 0
63.6396 0
3093.82 3030.18
6124 0
inf 0


"layer 25:"
-inf 0
63.6396 0
3093.82 3030.18
6124 0
inf 0


"layer 26:"
-inf 0
63.6396 0
3093.82 3030.18
6124 0
inf 0


"layer 27:"
-inf 0
66.468 0
3095.23 3028.77
6124 0
inf 0


"layer 28:"
-inf 0
67.8823 0
3095.94 3028.06
6124 0
inf 0


"layer 29:"
-inf 0
70.7107 0
3097.36 3026.64
6124 0
inf 0


