# persistence landscape
# X Y
"layer 0:"
-inf 0
1.41421 0
3062.71 3061.29
6124 0
inf 0


"layer 1:"
-inf 0
1.41421 0
3062.71 3061.29
6124 0
inf 0


"layer 2:"
-inf 0
1.41421 0
3062.71 3061.29
6124 0
inf 0


"layer 3:"
-inf 0
1.41421 0
3062.71 3061.29
6124 0
inf 0


"layer 4:"
-inf 0
1.41421 0
3062.71 3061.29
6124 0
inf 0


"layer 5:"
-inf 0
1.41421 0
3062.71 3061.29
6124 0
inf 0


"layer 6:"
-inf 0
1.41421 0
178.898 177.484
356.382 0
inf 0


"layer 7:"
-inf 0
1.41421 0
178.898 177.484
356.382 0
inf 0


"layer 8:"
-inf 0
1.41421 0
178.191 176.777
354.968 0
inf 0


"layer 9:"
-inf 0
1.41421 0
178.191 176.777
354.968 0
inf 0


"layer 10:"
-inf 0
1.41421 0
178.191 176.777
354.968 0
inf 0


"layer 11:"
-inf 0
1.41421 0
178.191 176.777
354.968 0
inf 0


"layer 12:"
-inf 0
1.41421 0
178.191 176.777
354.968 0
inf 0


"layer 13:"
-inf 0
1.41421 0
178.191 176.777
354.968 0
inf 0


"layer 14:"
-inf 0
1.41421 0
178.191 176.777
354.968 0
inf 0


"layer 15:"
-inf 0
1.41421 0
178.191 176.777
354.968 0
inf 0


"layer 16:"
-inf 0
1.41421 0
178.191 176.777
354.968 0
inf 0


"layer 17:"
-inf 0
1.41421 0
178.191 176.777
354.968 0
inf 0


"layer 18:"
-inf 0
1.41421 0
177.484 176.07
178.191 175.362
178.898 176.07
354.968 0
inf 0


"layer 19:"
-inf 0
1.41421 0
177.484 176.07
178.191 175.362
178.898 176.07
354.968 0
inf 0


"layer 20:"
-inf 0
1.41421 0
177.484 176.07
178.191 175.362
178.898 176.07
354.968 0
inf 0


"layer 21:"
-inf 0
1.41421 0
177.484 176.07
178.191 175.362
178.898 176.07
354.968 0
inf 0


"layer 22:"
-inf 0
1.41421 0
177.484 176.07
178.191 175.362
178.898 176.07
354.968 0
inf 0


"layer 23:"
-inf 0
1.41421 0
177.484 176.07
178.191 175.362
178.898 176.07
354.968 0
inf 0


"layer 24:"
-inf 0
1.41421 0
177.484 176.07
178.191 175.362
178.898 176.07
354.968 0
inf 0


"layer 25:"
-inf 0
1.41421 0
177.484 176.07
353.553 0
inf 0


"layer 26:"
-inf 0
1.41421 0
177.484 176.07
353.553 0
inf 0


"layer 27:"
-inf 0
1.41421 0
177.484 176.07
353.553 0
inf 0


"layer 28:"
-inf 0
1.41421 0
177.484 176.07
353.553 0
inf 0


"layer 29:"
-inf 0
1.41421 0
177.484 176.07
353.553 0
inf 0


"layer 30:"
-inf 0
1.41421 0
177.484 176.07
353.553 0
inf 0


"layer 31:"
-inf 0
1.41421 0
177.484 176.07
353.553 0
inf 0


"layer 32:"
-inf 0
1.41421 0
177.484 176.07
353.553 0
inf 0


"layer 33:"
-inf 0
1.41421 0
177.484 176.07
353.553 0
inf 0


"layer 34:"
-inf 0
1.41421 0
177.484 176.07
353.553 0
inf 0


"layer 35:"
-inf 0
1.41421 0
177.484 176.07
353.553 0
inf 0


"layer 36:"
-inf 0
1.41421 0
177.484 176.07
353.553 0
inf 0


"layer 37:"
-inf 0
1.41421 0
177.484 176.07
353.553 0
inf 0


"layer 38:"
-inf 0
1.41421 0
177.484 176.07
353.553 0
inf 0


"layer 39:"
-inf 0
1.41421 0
177.484 176.07
353.553 0
inf 0


"layer 40:"
-inf 0
1.41421 0
177.484 176.07
353.553 0
inf 0


"layer 41:"
-inf 0
1.41421 0
177.484 176.07
353.553 0
inf 0


"layer 42:"
-inf 0
1.41421 0
177.484 176.07
353.553 0
inf 0


"layer 43:"
-inf 0
1.41421 0
177.484 176.07
353.553 0
inf 0


"layer 44:"
-inf 0
1.41421 0
177.484 176.07
353.553 0
inf 0


"layer 45:"
-inf 0
1.41421 0
177.484 176.07
353.553 0
inf 0


"layer 46:"
-inf 0
1.41421 0
177.484 176.07
353.553 0
inf 0


"layer 47:"
-inf 0
1.41421 0
177.484 176.07
353.553 0
inf 0


"layer 48:"
-inf 0
1.41421 0
177.484 176.07
353.553 0
inf 0


"layer 49:"
-inf 0
1.41421 0
177.484 176.07
353.553 0
inf 0


"layer 50:"
-inf 0
1.41421 0
177.484 176.07
353.553 0
inf 0


"layer 51:"
-inf 0
1.41421 0
177.484 176.07
353.553 0
inf 0


"layer 52:"
-inf 0
1.41421 0
177.484 176.07
353.553 0
inf 0


"layer 53:"
-inf 0
1.41421 0
177.484 176.07
353.553 0
inf 0


"layer 54:"
-inf 0
1.41421 0
177.484 176.07
353.553 0
inf 0


"layer 55:"
-inf 0
1.41421 0
177.484 176.07
353.553 0
inf 0


"layer 56:"
-inf 0
1.41421 0
177.484 176.07
353.553 0
inf 0


"layer 57:"
-inf 0
1.41421 0
177.484 176.07
353.553 0
inf 0


"layer 58:"
-inf 0
1.41421 0
177.484 176.07
353.553 0
inf 0


"layer 59:"
-inf 0
1.41421 0
177.484 176.07
353.553 0
inf 0


"layer 60:"
-inf 0
1.41421 0
177.484 176.07
353.553 0
inf 0


"layer 61:"
-inf 0
1.41421 0
177.484 176.07
353.553 0
inf 0


"layer 62:"
-inf 0
1.41421 0
177.484 176.07
353.553 0
inf 0


"layer 63:"
-inf 0
1.41421 0
177.484 176.07
353.553 0
inf 0


"layer 64:"
-inf 0
1.41421 0
177.484 176.07
353.553 0
inf 0


"layer 65:"
-inf 0
1.41421 0
177.484 176.07
353.553 0
inf 0


"layer 66:"
-inf 0
1.41421 0
177.484 176.07
353.553 0
inf 0


"layer 67:"
-inf 0
1.41421 0
177.484 176.07
353.553 0
inf 0


"layer 68:"
-inf 0
1.41421 0
177.484 176.07
353.553 0
inf 0


"layer 69:"
-inf 0
1.41421 0
177.484 176.07
353.553 0
inf 0


"layer 70:"
-inf 0
1.41421 0
177.484 176.07
353.553 0
inf 0


"layer 71:"
-inf 0
1.41421 0
177.484 176.07
353.553 0
inf 0


"layer 72:"
-inf 0
1.41421 0
177.484 176.07
353.553 0
inf 0


"layer 73:"
-inf 0
1.41421 0
177.484 176.07
353.553 0
inf 0


"layer 74:"
-inf 0
1.41421 0
177.484 176.07
353.553 0
inf 0


"layer 75:"
-inf 0
1.41421 0
177.484 176.07
353.553 0
inf 0


"layer 76:"
-inf 0
1.41421 0
177.484 176.07
353.553 0
inf 0


"layer 77:"
-inf 0
1.41421 0
177.484 176.07
353.553 0
inf 0


"layer 78:"
-inf 0
1.41421 0
177.484 176.07
353.553 0
inf 0


"layer 79:"
-inf 0
1.41421 0
177.484 176.07
353.553 0
inf 0


"layer 80:"
-inf 0
1.41421 0
177.484 176.07
353.553 0
inf 0


"layer 81:"
-inf 0
1.41421 0
177.484 176.07
353.553 0
inf 0


"layer 82:"
-inf 0
1.41421 0
177.484 176.07
353.553 0
inf 0


"layer 83:"
-inf 0
1.41421 0
177.484 176.07
353.553 0
inf 0


"layer 84:"
-inf 0
1.41421 0
177.484 176.07
353.553 0
inf 0


"layer 85:"
-inf 0
1.41421 0
177.484 176.07
353.553 0
inf 0


"layer 86:"
-inf 0
1.41421 0
177.484 176.07
353.553 0
inf 0


"layer 87:"
-inf 0
1.41421 0
177.484 176.07
353.553 0
inf 0


"layer 88:"
-inf 0
1.41421 0
177.484 176.07
353.553 0
inf 0


"layer 89:"
-inf 0
1.41421 0
177.484 176.07
353.553 0
inf 0


"layer 90:"
-inf 0
1.41421 0
177.484 176.07
353.553 0
inf 0


"layer 91:"
-inf 0
1.41421 0
177.484 176.07
353.553 0
inf 0


"layer 92:"
-inf 0
1.41421 0
177.484 176.07
353.553 0
inf 0


"layer 93:"
-inf 0
1.41421 0
177.484 176.07
353.553 0
inf 0


"layer 94:"
-inf 0
1.41421 0
177.484 176.07
353.553 0
inf 0


"layer 95:"
-inf 0
1.41421 0
177.484 176.07
353.553 0
inf 0


"layer 96:"
-inf 0
1.41421 0
177.484 176.07
353.553 0
inf 0


"layer 97:"
-inf 0
1.41421 0
177.484 176.07
353.553 0
inf 0


"layer 98:"
-inf 0
1.41421 0
177.484 176.07
353.553 0
inf 0


"layer 99:"
-inf 0
1.41421 0
177.484 176.07
353.553 0
inf 0


"layer 100:"
-inf 0
1.41421 0
177.484 176.07
353.553 0
inf 0


"layer 101:"
-inf 0
1.41421 0
177.484 176.07
353.553 0
inf 0


"layer 102:"
-inf 0
1.41421 0
177.484 176.07
353.553 0
inf 0


"layer 103:"
-inf 0
1.41421 0
177.484 176.07
353.553 0
inf 0


"layer 104:"
-inf 0
1.41421 0
177.484 176.07
353.553 0
inf 0


"layer 105:"
-inf 0
1.41421 0
177.484 176.07
353.553 0
inf 0


"layer 106:"
-inf 0
1.41421 0
177.484 176.07
353.553 0
inf 0


"layer 107:"
-inf 0
1.41421 0
177.484 176.07
353.553 0
inf 0


"layer 108:"
-inf 0
1.41421 0
177.484 176.07
353.553 0
inf 0


"layer 109:"
-inf 0
1.41421 0
177.484 176.07
353.553 0
inf 0


"layer 110:"
-inf 0
1.41421 0
177.484 176.07
353.553 0
inf 0


"layer 111:"
-inf 0
1.41421 0
177.484 176.07
353.553 0
inf 0


"layer 112:"
-inf 0
1.41421 0
177.484 176.07
353.553 0
inf 0


"layer 113:"
-inf 0
1.41421 0
177.484 176.07
353.553 0
inf 0


"layer 114:"
-inf 0
1.41421 0
177.484 176.07
353.553 0
inf 0


"layer 115:"
-inf 0
1.41421 0
177.484 176.07
353.553 0
inf 0


"layer 116:"
-inf 0
1.41421 0
177.484 176.07
353.553 0
inf 0


"layer 117:"
-inf 0
1.41421 0
177.484 176.07
353.553 0
inf 0


"layer 118:"
-inf 0
1.41421 0
177.484 176.07
353.553 0
inf 0


"layer 119:"
-inf 0
1.41421 0
177.484 176.07
353.553 0
inf 0


"layer 120:"
-inf 0
1.41421 0
177.484 176.07
353.553 0
inf 0


"layer 121:"
-inf 0
1.41421 0
177.484 176.07
353.553 0
inf 0


"layer 122:"
-inf 0
1.41421 0
177.484 176.07
353.553 0
inf 0


"layer 123:"
-inf 0
1.41421 0
177.484 176.07
353.553 0
inf 0


"layer 124:"
-inf 0
1.41421 0
177.484 176.07
353.553 0
inf 0


"layer 125:"
-inf 0
1.41421 0
177.484 176.07
353.553 0
inf 0


"layer 126:"
-inf 0
1.41421 0
177.484 176.07
353.553 0
inf 0


"layer 127:"
-inf 0
1.41421 0
177.484 176.07
353.553 0
inf 0


"layer 128:"
-inf 0
1.41421 0
177.484 176.07
353.553 0
inf 0


"layer 129:"
-inf 0
1.41421 0
177.484 176.07
353.553 0
inf 0


"layer 130:"
-inf 0
1.41421 0
177.484 176.07
353.553 0
inf 0


"layer 131:"
-inf 0
1.41421 0
177.484 176.07
353.553 0
inf 0


"layer 132:"
-inf 0
1.41421 0
177.484 176.07
353.553 0
inf 0


"layer 133:"
-inf 0
1.41421 0
177.484 176.07
353.553 0
inf 0


"layer 134:"
-inf 0
1.41421 0
177.484 176.07
353.553 0
inf 0


"layer 135:"
-inf 0
1.41421 0
177.484 176.07
353.553 0
inf 0


"layer 136:"
-inf 0
1.41421 0
177.484 176.07
353.553 0
inf 0


"layer 137:"
-inf 0
1.41421 0
177.484 176.07
353.553 0
inf 0


"layer 138:"
-inf 0
1.41421 0
177.484 176.07
353.553 0
inf 0


"layer 139:"
-inf 0
1.41421 0
177.484 176.07
353.553 0
inf 0


"layer 140:"
-inf 0
1.41421 0
177.484 176.07
353.553 0
inf 0


"layer 141:"
-inf 0
1.41421 0
177.484 176.07
353.553 0
inf 0


"layer 142:"
-inf 0
1.41421 0
177.484 176.07
353.553 0
inf 0


"layer 143:"
-inf 0
1.41421 0
177.484 176.07
353.553 0
inf 0


"layer 144:"
-inf 0
1.41421 0
177.484 176.07
353.553 0
inf 0


"layer 145:"
-inf 0
1.41421 0
177.484 176.07
353.553 0
inf 0


"layer 146:"
-inf 0
1.41421 0
177.484 176.07
353.553 0
inf 0


"layer 147:"
-inf 0
1.41421 0
177.484 176.07
353.553 0
inf 0


"layer 148:"
-inf 0
1.41421 0
177.484 176.07
353.553 0
inf 0


"layer 149:"
-inf 0
1.41421 0
177.484 176.07
353.553 0
inf 0


"layer 150:"
-inf 0
1.41421 0
177.484 176.07
353.553 0
inf 0


"layer 151:"
-inf 0
1.41421 0
177.484 176.07
353.553 0
inf 0


"layer 152:"
-inf 0
1.41421 0
177.484 176.07
353.553 0
inf 0


"layer 153:"
-inf 0
1.41421 0
177.484 176.07
353.553 0
inf 0


"layer 154:"
-inf 0
1.41421 0
177.484 176.07
353.553 0
inf 0


"layer 155:"
-inf 0
1.41421 0
177.484 176.07
353.553 0
inf 0


"layer 156:"
-inf 0
1.41421 0
177.484 176.07
353.553 0
inf 0


"layer 157:"
-inf 0
1.41421 0
177.484 176.07
353.553 0
inf 0


"layer 158:"
-inf 0
1.41421 0
177.484 176.07
353.553 0
inf 0


"layer 159:"
-inf 0
1.41421 0
177.484 176.07
353.553 0
inf 0


"layer 160:"
-inf 0
1.41421 0
177.484 176.07
353.553 0
inf 0


"layer 161:"
-inf 0
1.41421 0
177.484 176.07
353.553 0
inf 0


"layer 162:"
-inf 0
1.41421 0
177.484 176.07
353.553 0
inf 0


"layer 163:"
-inf 0
1.41421 0
177.484 176.07
353.553 0
inf 0


"layer 164:"
-inf 0
1.41421 0
177.484 176.07
353.553 0
inf 0


"layer 165:"
-inf 0
1.41421 0
177.484 176.07
353.553 0
inf 0


"layer 166:"
-inf 0
1.41421 0
177.484 176.07
353.553 0
inf 0


"layer 167:"
-inf 0
1.41421 0
177.484 176.07
353.553 0
inf 0


"layer 168:"
-inf 0
1.41421 0
177.484 176.07
353.553 0
inf 0


"layer 169:"
-inf 0
1.41421 0
177.484 176.07
353.553 0
inf 0


"layer 170:"
-inf 0
1.41421 0
177.484 176.07
353.553 0
inf 0


"layer 171:"
-inf 0
1.41421 0
177.484 176.07
353.553 0
inf 0


"layer 172:"
-inf 0
1.41421 0
177.484 176.07
353.553 0
inf 0


"layer 173:"
-inf 0
1.41421 0
177.484 176.07
353.553 0
inf 0


"layer 174:"
-inf 0
1.41421 0
177.484 176.07
353.553 0
inf 0


"layer 175:"
-inf 0
1.41421 0
177.484 176.07
353.553 0
inf 0


"layer 176:"
-inf 0
1.41421 0
177.484 176.07
353.553 0
inf 0


"layer 177:"
-inf 0
1.41421 0
177.484 176.07
353.553 0
inf 0


"layer 178:"
-inf 0
1.41421 0
177.484 176.07
353.553 0
inf 0


"layer 179:"
-inf 0
1.41421 0
177.484 176.07
353.553 0
inf 0


"layer 180:"
-inf 0
1.41421 0
177.484 176.07
353.553 0
inf 0


"layer 181:"
-inf 0
1.41421 0
177.484 176.07
353.553 0
inf 0


"layer 182:"
-inf 0
1.41421 0
177.484 176.07
353.553 0
inf 0


"layer 183:"
-inf 0
1.41421 0
177.484 176.07
353.553 0
inf 0


"layer 184:"
-inf 0
1.41421 0
177.484 176.07
353.553 0
inf 0


"layer 185:"
-inf 0
1.41421 0
177.484 176.07
353.553 0
inf 0


"layer 186:"
-inf 0
1.41421 0
177.484 176.07
353.553 0
inf 0


"layer 187:"
-inf 0
1.41421 0
177.484 176.07
353.553 0
inf 0


"layer 188:"
-inf 0
1.41421 0
177.484 176.07
353.553 0
inf 0


"layer 189:"
-inf 0
1.41421 0
177.484 176.07
353.553 0
inf 0


"layer 190:"
-inf 0
1.41421 0
177.484 176.07
353.553 0
inf 0


"layer 191:"
-inf 0
1.41421 0
177.484 176.07
353.553 0
inf 0


"layer 192:"
-inf 0
1.41421 0
177.484 176.07
353.553 0
inf 0


"layer 193:"
-inf 0
1.41421 0
177.484 176.07
353.553 0
inf 0


"layer 194:"
-inf 0
1.41421 0
177.484 176.07
353.553 0
inf 0


"layer 195:"
-inf 0
1.41421 0
177.484 176.07
353.553 0
inf 0


"layer 196:"
-inf 0
1.41421 0
177.484 176.07
353.553 0
inf 0


"layer 197:"
-inf 0
1.41421 0
177.484 176.07
353.553 0
inf 0


"layer 198:"
-inf 0
1.41421 0
16.2635 14.8492
16.9706 14.1421
178.191 175.362
353.553 0
inf 0


"layer 199:"
-inf 0
1.41421 0
15.5563 14.1421
16.2635 13.435
178.191 175.362
353.553 0
inf 0


"layer 200:"
-inf 0
1.41421 0
15.5563 14.1421
16.2635 13.435
178.191 175.362
353.553 0
inf 0


"layer 201:"
-inf 0
1.41421 0
15.5563 14.1421
16.2635 13.435
178.191 175.362
353.553 0
inf 0


"layer 202:"
-inf 0
1.41421 0
15.5563 14.1421
16.2635 13.435
178.191 175.362
353.553 0
inf 0


"layer 203:"
-inf 0
1.41421 0
15.5563 14.1421
16.2635 13.435
178.191 175.362
353.553 0
inf 0


"layer 204:"
-inf 0
1.41421 0
15.5563 14.1421
16.2635 13.435
178.191 175.362
353.553 0
inf 0


"layer 205:"
-inf 0
1.41421 0
15.5563 14.1421
16.2635 13.435
16.9706 14.1421
31.1127 0
352.139 0
352.846 0.707107
353.553 0
inf 0


"layer 206:"
-inf 0
1.41421 0
15.5563 14.1421
16.2635 13.435
16.9706 14.1421
31.1127 0
inf 0


"layer 207:"
-inf 0
1.41421 0
15.5563 14.1421
29.6985 0
inf 0


"layer 208:"
-inf 0
1.41421 0
15.5563 14.1421
29.6985 0
inf 0


"layer 209:"
-inf 0
1.41421 0
15.5563 14.1421
29.6985 0
inf 0


"layer 210:"
-inf 0
1.41421 0
15.5563 14.1421
29.6985 0
inf 0


"layer 211:"
-inf 0
1.41421 0
14.8492 13.435
15.5563 12.7279
16.2635 13.435
29.6985 0
inf 0


"layer 212:"
-inf 0
1.41421 0
14.8492 13.435
15.5563 12.7279
16.2635 13.435
29.6985 0
inf 0


"layer 213:"
-inf 0
1.41421 0
14.1421 12.7279
14.8492 12.0208
16.2635 13.435
29.6985 0
inf 0


"layer 214:"
-inf 0
1.41421 0
13.435 12.0208
14.1421 11.3137
16.2635 13.435
29.6985 0
inf 0


"layer 215:"
-inf 0
1.41421 0
13.435 12.0208
14.1421 11.3137
16.2635 13.435
29.6985 0
inf 0


"layer 216:"
-inf 0
1.41421 0
13.435 12.0208
14.1421 11.3137
16.2635 13.435
29.6985 0
inf 0


"layer 217:"
-inf 0
1.41421 0
13.435 12.0208
14.1421 11.3137
16.2635 13.435
29.6985 0
inf 0


"layer 218:"
-inf 0
1.41421 0
13.435 12.0208
14.1421 11.3137
16.2635 13.435
29.6985 0
inf 0


"layer 219:"
-inf 0
1.41421 0
13.435 12.0208
14.1421 11.3137
15.5563 12.7279
28.2843 0
28.9914 0.707107
29.6985 0
inf 0


"layer 220:"
-inf 0
1.41421 0
13.435 12.0208
14.1421 11.3137
15.5563 12.7279
28.2843 0
inf 0


"layer 221:"
-inf 0
1.41421 0
12.7279 11.3137
13.435 10.6066
14.8492 12.0208
26.8701 0
inf 0


"layer 222:"
-inf 0
1.41421 0
12.7279 11.3137
13.435 10.6066
14.1421 11.3137
25.4558 0
inf 0


"layer 223:"
-inf 0
1.41421 0
12.7279 11.3137
13.435 10.6066
14.1421 11.3137
25.4558 0
inf 0


"layer 224:"
-inf 0
1.41421 0
12.7279 11.3137
13.435 10.6066
14.1421 11.3137
25.4558 0
inf 0


"layer 225:"
-inf 0
1.41421 0
12.7279 11.3137
13.435 10.6066
14.1421 11.3137
25.4558 0
inf 0


"layer 226:"
-inf 0
1.41421 0
12.7279 11.3137
13.435 10.6066
14.1421 11.3137
25.4558 0
inf 0


"layer 227:"
-inf 0
1.41421 0
12.7279 11.3137
13.435 10.6066
14.1421 11.3137
25.4558 0
inf 0


"layer 228:"
-inf 0
1.41421 0
12.7279 11.3137
13.435 10.6066
14.1421 11.3137
25.4558 0
inf 0


"layer 229:"
-inf 0
1.41421 0
12.0208 10.6066
12.7279 9.89949
14.1421 11.3137
25.4558 0
inf 0


"layer 230:"
-inf 0
1.41421 0
12.0208 10.6066
12.7279 9.89949
13.435 10.6066
24.0416 0
24.7487 0.707107
25.4558 0
inf 0


"layer 231:"
-inf 0
1.41421 0
12.0208 10.6066
12.7279 9.89949
13.435 10.6066
24.0416 0
inf 0


"layer 232:"
-inf 0
1.41421 0
11.3137 9.89949
12.0208 9.19239
13.435 10.6066
24.0416 0
inf 0


"layer 233:"
-inf 0
1.41421 0
11.3137 9.89949
12.0208 9.19239
13.435 10.6066
24.0416 0
inf 0


"layer 234:"
-inf 0
1.41421 0
11.3137 9.89949
12.0208 9.19239
13.435 10.6066
24.0416 0
inf 0


"layer 235:"
-inf 0
1.41421 0
11.3137 9.89949
12.0208 9.19239
13.435 10.6066
24.0416 0
inf 0


"layer 236:"
-inf 0
1.41421 0
11.3137 9.89949
12.0208 9.19239
13.435 10.6066
24.0416 0
inf 0


"layer 237:"
-inf 0
1.41421 0
11.3137 9.89949
12.0208 9.19239
13.435 10.6066
24.0416 0
inf 0


"layer 238:"
-inf 0
1.41421 0
11.3137 9.89949
12.0208 9.19239
13.435 10.6066
24.0416 0
inf 0


"layer 239:"
-inf 0
1.41421 0
11.3137 9.89949
12.0208 9.19239
12.7279 9.89949
22.6274 0
23.3345 0.707107
24.0416 0
inf 0


"layer 240:"
-inf 0
1.41421 0
11.3137 9.89949
12.0208 9.19239
12.7279 9.89949
22.6274 0
inf 0


"layer 241:"
-inf 0
1.41421 0
11.3137 9.89949
12.0208 9.19239
12.7279 9.89949
22.6274 0
inf 0


"layer 242:"
-inf 0
1.41421 0
11.3137 9.89949
12.0208 9.19239
12.7279 9.89949
22.6274 0
inf 0


"layer 243:"
-inf 0
1.41421 0
11.3137 9.89949
12.0208 9.19239
12.7279 9.89949
22.6274 0
inf 0


"layer 244:"
-inf 0
1.41421 0
11.3137 9.89949
21.2132 0
inf 0


"layer 245:"
-inf 0
1.41421 0
10.6066 9.19239
11.3137 8.48528
12.0208 9.19239
21.2132 0
inf 0


"layer 246:"
-inf 0
1.41421 0
10.6066 9.19239
11.3137 8.48528
12.0208 9.19239
21.2132 0
inf 0


"layer 247:"
-inf 0
1.41421 0
10.6066 9.19239
11.3137 8.48528
12.0208 9.19239
21.2132 0
inf 0


"layer 248:"
-inf 0
1.41421 0
10.6066 9.19239
11.3137 8.48528
12.0208 9.19239
21.2132 0
inf 0


"layer 249:"
-inf 0
1.41421 0
10.6066 9.19239
11.3137 8.48528
12.0208 9.19239
21.2132 0
inf 0


"layer 250:"
-inf 0
1.41421 0
10.6066 9.19239
11.3137 8.48528
12.0208 9.19239
21.2132 0
inf 0


"layer 251:"
-inf 0
1.41421 0
10.6066 9.19239
11.3137 8.48528
12.0208 9.19239
21.2132 0
inf 0


"layer 252:"
-inf 0
1.41421 0
10.6066 9.19239
11.3137 8.48528
12.0208 9.19239
21.2132 0
inf 0


"layer 253:"
-inf 0
1.41421 0
10.6066 9.19239
11.3137 8.48528
12.0208 9.19239
21.2132 0
inf 0


"layer 254:"
-inf 0
1.41421 0
10.6066 9.19239
11.3137 8.48528
12.0208 9.19239
21.2132 0
inf 0


"layer 255:"
-inf 0
1.41421 0
10.6066 9.19239
11.3137 8.48528
12.0208 9.19239
21.2132 0
inf 0


"layer 256:"
-inf 0
1.41421 0
10.6066 9.19239
11.3137 8.48528
12.0208 9.19239
21.2132 0
inf 0


"layer 257:"
-inf 0
1.41421 0
10.6066 9.19239
11.3137 8.48528
12.0208 9.19239
21.2132 0
inf 0


"layer 258:"
-inf 0
1.41421 0
10.6066 9.19239
11.3137 8.48528
12.0208 9.19239
21.2132 0
inf 0


"layer 259:"
-inf 0
1.41421 0
10.6066 9.19239
11.3137 8.48528
12.0208 9.19239
21.2132 0
inf 0


"layer 260:"
-inf 0
1.41421 0
10.6066 9.19239
11.3137 8.48528
12.0208 9.19239
21.2132 0
inf 0


"layer 261:"
-inf 0
1.41421 0
10.6066 9.19239
19.799 0
20.5061 0.707107
21.2132 0
inf 0


"layer 262:"
-inf 0
1.41421 0
10.6066 9.19239
19.799 0
inf 0


"layer 263:"
-inf 0
1.41421 0
10.6066 9.19239
19.799 0
inf 0


"layer 264:"
-inf 0
1.41421 0
10.6066 9.19239
19.799 0
inf 0


"layer 265:"
-inf 0
1.41421 0
10.6066 9.19239
19.799 0
inf 0


"layer 266:"
-inf 0
1.41421 0
9.89949 8.48528
10.6066 7.77817
11.3137 8.48528
19.799 0
inf 0


"layer 267:"
-inf 0
1.41421 0
9.89949 8.48528
10.6066 7.77817
11.3137 8.48528
19.799 0
inf 0


"layer 268:"
-inf 0
1.41421 0
9.19239 7.77817
9.89949 7.07107
11.3137 8.48528
19.799 0
inf 0


"layer 269:"
-inf 0
1.41421 0
9.19239 7.77817
9.89949 7.07107
11.3137 8.48528
19.799 0
inf 0


"layer 270:"
-inf 0
1.41421 0
9.19239 7.77817
9.89949 7.07107
11.3137 8.48528
19.799 0
inf 0


"layer 271:"
-inf 0
1.41421 0
9.19239 7.77817
9.89949 7.07107
11.3137 8.48528
19.799 0
inf 0


"layer 272:"
-inf 0
1.41421 0
9.19239 7.77817
9.89949 7.07107
11.3137 8.48528
19.799 0
inf 0


"layer 273:"
-inf 0
1.41421 0
9.19239 7.77817
9.89949 7.07107
11.3137 8.48528
19.799 0
inf 0


"layer 274:"
-inf 0
1.41421 0
9.19239 7.77817
9.89949 7.07107
11.3137 8.48528
19.799 0
inf 0


"layer 275:"
-inf 0
1.41421 0
9.19239 7.77817
9.89949 7.07107
11.3137 8.48528
19.799 0
inf 0


"layer 276:"
-inf 0
1.41421 0
8.48528 7.07107
9.19239 6.36396
11.3137 8.48528
19.799 0
inf 0


"layer 277:"
-inf 0
1.41421 0
8.48528 7.07107
9.19239 6.36396
11.3137 8.48528
19.799 0
inf 0


"layer 278:"
-inf 0
1.41421 0
8.48528 7.07107
9.19239 6.36396
11.3137 8.48528
19.799 0
inf 0


"layer 279:"
-inf 0
1.41421 0
8.48528 7.07107
9.19239 6.36396
11.3137 8.48528
19.799 0
inf 0


"layer 280:"
-inf 0
1.41421 0
8.48528 7.07107
9.19239 6.36396
11.3137 8.48528
19.799 0
inf 0


"layer 281:"
-inf 0
1.41421 0
8.48528 7.07107
9.19239 6.36396
11.3137 8.48528
19.799 0
inf 0


"layer 282:"
-inf 0
1.41421 0
8.48528 7.07107
9.19239 6.36396
10.6066 7.77817
18.3848 0
19.0919 0.707107
19.799 0
inf 0


"layer 283:"
-inf 0
1.41421 0
8.48528 7.07107
9.19239 6.36396
10.6066 7.77817
18.3848 0
19.0919 0.707107
19.799 0
inf 0


"layer 284:"
-inf 0
1.41421 0
7.77817 6.36396
8.48528 5.65685
10.6066 7.77817
18.3848 0
19.0919 0.707107
19.799 0
inf 0


"layer 285:"
-inf 0
1.41421 0
7.77817 6.36396
8.48528 5.65685
10.6066 7.77817
18.3848 0
19.0919 0.707107
19.799 0
inf 0


"layer 286:"
-inf 0
1.41421 0
7.77817 6.36396
8.48528 5.65685
9.89949 7.07107
16.9706 0
inf 0


"layer 287:"
-inf 0
1.41421 0
7.77817 6.36396
8.48528 5.65685
9.89949 7.07107
16.9706 0
inf 0


"layer 288:"
-inf 0
1.41421 0
7.77817 6.36396
8.48528 5.65685
9.89949 7.07107
16.9706 0
inf 0


"layer 289:"
-inf 0
1.41421 0
7.77817 6.36396
8.48528 5.65685
9.89949 7.07107
16.9706 0
inf 0


"layer 290:"
-inf 0
1.41421 0
7.77817 6.36396
8.48528 5.65685
9.89949 7.07107
16.9706 0
inf 0


"layer 291:"
-inf 0
1.41421 0
7.77817 6.36396
8.48528 5.65685
9.89949 7.07107
16.9706 0
inf 0


"layer 292:"
-inf 0
1.41421 0
7.07107 5.65685
7.77817 4.94975
9.89949 7.07107
16.9706 0
inf 0


"layer 293:"
-inf 0
1.41421 0
7.07107 5.65685
7.77817 4.94975
9.89949 7.07107
16.9706 0
inf 0


"layer 294:"
-inf 0
1.41421 0
7.07107 5.65685
7.77817 4.94975
9.89949 7.07107
16.9706 0
inf 0


"layer 295:"
-inf 0
1.41421 0
7.07107 5.65685
7.77817 4.94975
9.19239 6.36396
15.5563 0
16.2635 0.707107
16.9706 0
inf 0


"layer 296:"
-inf 0
1.41421 0
7.07107 5.65685
7.77817 4.94975
9.19239 6.36396
15.5563 0
inf 0


"layer 297:"
-inf 0
1.41421 0
7.07107 5.65685
7.77817 4.94975
9.19239 6.36396
15.5563 0
inf 0


"layer 298:"
-inf 0
1.41421 0
7.07107 5.65685
7.77817 4.94975
9.19239 6.36396
15.5563 0
inf 0


"layer 299:"
-inf 0
1.41421 0
7.07107 5.65685
7.77817 4.94975
9.19239 6.36396
15.5563 0
inf 0


"layer 300:"
-inf 0
1.41421 0
7.07107 5.65685
7.77817 4.94975
9.19239 6.36396
15.5563 0
inf 0


"layer 301:"
-inf 0
1.41421 0
7.07107 5.65685
7.77817 4.94975
9.19239 6.36396
15.5563 0
inf 0


"layer 302:"
-inf 0
1.41421 0
7.07107 5.65685
7.77817 4.94975
9.19239 6.36396
15.5563 0
inf 0


"layer 303:"
-inf 0
1.41421 0
7.07107 5.65685
7.77817 4.94975
9.19239 6.36396
15.5563 0
inf 0


"layer 304:"
-inf 0
1.41421 0
7.07107 5.65685
7.77817 4.94975
8.48528 5.65685
14.1421 0
14.8492 0.707107
15.5563 0
inf 0


"layer 305:"
-inf 0
1.41421 0
7.07107 5.65685
7.77817 4.94975
8.48528 5.65685
14.1421 0
inf 0


"layer 306:"
-inf 0
1.41421 0
6.36396 4.94975
7.07107 4.24264
8.48528 5.65685
14.1421 0
inf 0


"layer 307:"
-inf 0
1.41421 0
6.36396 4.94975
7.07107 4.24264
8.48528 5.65685
14.1421 0
inf 0


"layer 308:"
-inf 0
1.41421 0
6.36396 4.94975
7.07107 4.24264
8.48528 5.65685
14.1421 0
inf 0


"layer 309:"
-inf 0
1.41421 0
6.36396 4.94975
7.07107 4.24264
8.48528 5.65685
14.1421 0
inf 0


"layer 310:"
-inf 0
1.41421 0
6.36396 4.94975
7.07107 4.24264
8.48528 5.65685
14.1421 0
inf 0


"layer 311:"
-inf 0
1.41421 0
6.36396 4.94975
7.07107 4.24264
8.48528 5.65685
14.1421 0
inf 0


"layer 312:"
-inf 0
1.41421 0
6.36396 4.94975
7.07107 4.24264
8.48528 5.65685
14.1421 0
inf 0


"layer 313:"
-inf 0
1.41421 0
6.36396 4.94975
7.07107 4.24264
7.77817 4.94975
12.7279 0
inf 0


"layer 314:"
-inf 0
1.41421 0
6.36396 4.94975
7.07107 4.24264
7.77817 4.94975
12.7279 0
inf 0


"layer 315:"
-inf 0
1.41421 0
6.36396 4.94975
7.07107 4.24264
7.77817 4.94975
12.7279 0
inf 0


"layer 316:"
-inf 0
1.41421 0
6.36396 4.94975
7.07107 4.24264
7.77817 4.94975
12.7279 0
inf 0


"layer 317:"
-inf 0
1.41421 0
6.36396 4.94975
7.07107 4.24264
7.77817 4.94975
12.7279 0
inf 0


"layer 318:"
-inf 0
1.41421 0
5.65685 4.24264
6.36396 3.53553
7.77817 4.94975
12.7279 0
inf 0


"layer 319:"
-inf 0
1.41421 0
5.65685 4.24264
6.36396 3.53553
7.77817 4.94975
12.7279 0
inf 0


"layer 320:"
-inf 0
1.41421 0
5.65685 4.24264
6.36396 3.53553
7.77817 4.94975
12.7279 0
inf 0


"layer 321:"
-inf 0
1.41421 0
5.65685 4.24264
6.36396 3.53553
7.77817 4.94975
12.7279 0
inf 0


"layer 322:"
-inf 0
1.41421 0
5.65685 4.24264
6.36396 3.53553
7.77817 4.94975
12.7279 0
inf 0


"layer 323:"
-inf 0
1.41421 0
5.65685 4.24264
6.36396 3.53553
7.77817 4.94975
12.7279 0
inf 0


"layer 324:"
-inf 0
1.41421 0
5.65685 4.24264
6.36396 3.53553
7.77817 4.94975
12.7279 0
inf 0


"layer 325:"
-inf 0
1.41421 0
5.65685 4.24264
6.36396 3.53553
7.77817 4.94975
12.7279 0
inf 0


"layer 326:"
-inf 0
1.41421 0
5.65685 4.24264
6.36396 3.53553
7.77817 4.94975
12.7279 0
inf 0


"layer 327:"
-inf 0
1.41421 0
5.65685 4.24264
6.36396 3.53553
7.77817 4.94975
12.7279 0
inf 0


"layer 328:"
-inf 0
1.41421 0
5.65685 4.24264
6.36396 3.53553
7.07107 4.24264
11.3137 0
12.0208 0.707107
12.7279 0
inf 0


"layer 329:"
-inf 0
1.41421 0
4.94975 3.53553
5.65685 2.82843
7.07107 4.24264
11.3137 0
12.0208 0.707107
12.7279 0
inf 0


"layer 330:"
-inf 0
1.41421 0
4.94975 3.53553
5.65685 2.82843
7.07107 4.24264
11.3137 0
inf 0


"layer 331:"
-inf 0
1.41421 0
4.94975 3.53553
5.65685 2.82843
7.07107 4.24264
11.3137 0
inf 0


"layer 332:"
-inf 0
1.41421 0
4.94975 3.53553
5.65685 2.82843
7.07107 4.24264
11.3137 0
inf 0


"layer 333:"
-inf 0
1.41421 0
4.94975 3.53553
5.65685 2.82843
7.07107 4.24264
11.3137 0
inf 0


"layer 334:"
-inf 0
1.41421 0
4.94975 3.53553
5.65685 2.82843
7.07107 4.24264
11.3137 0
inf 0


"layer 335:"
-inf 0
1.41421 0
4.94975 3.53553
5.65685 2.82843
7.07107 4.24264
11.3137 0
inf 0


"layer 336:"
-inf 0
1.41421 0
4.24264 2.82843
4.94975 2.12132
7.07107 4.24264
11.3137 0
inf 0


"layer 337:"
-inf 0
1.41421 0
4.24264 2.82843
4.94975 2.12132
7.07107 4.24264
11.3137 0
inf 0


"layer 338:"
-inf 0
1.41421 0
4.24264 2.82843
4.94975 2.12132
7.07107 4.24264
11.3137 0
inf 0


"layer 339:"
-inf 0
1.41421 0
4.24264 2.82843
4.94975 2.12132
7.07107 4.24264
11.3137 0
inf 0


"layer 340:"
-inf 0
1.41421 0
4.24264 2.82843
4.94975 2.12132
7.07107 4.24264
11.3137 0
inf 0


"layer 341:"
-inf 0
1.41421 0
4.24264 2.82843
4.94975 2.12132
7.07107 4.24264
11.3137 0
inf 0


"layer 342:"
-inf 0
1.41421 0
4.24264 2.82843
4.94975 2.12132
7.07107 4.24264
11.3137 0
inf 0


"layer 343:"
-inf 0
1.41421 0
3.53553 2.12132
4.24264 1.41421
7.07107 4.24264
11.3137 0
inf 0


"layer 344:"
-inf 0
1.41421 0
3.53553 2.12132
4.24264 1.41421
7.07107 4.24264
11.3137 0
inf 0


"layer 345:"
-inf 0
1.41421 0
3.53553 2.12132
4.24264 1.41421
7.07107 4.24264
11.3137 0
inf 0


"layer 346:"
-inf 0
1.41421 0
3.53553 2.12132
4.24264 1.41421
7.07107 4.24264
11.3137 0
inf 0


"layer 347:"
-inf 0
1.41421 0
3.53553 2.12132
4.24264 1.41421
6.36396 3.53553
7.07107 2.82843
7.77817 3.53553
11.3137 0
inf 0


"layer 348:"
-inf 0
1.41421 0
3.53553 2.12132
4.24264 1.41421
6.36396 3.53553
7.07107 2.82843
7.77817 3.53553
11.3137 0
inf 0


"layer 349:"
-inf 0
1.41421 0
2.82843 1.41421
3.53553 0.707107
6.36396 3.53553
7.77817 2.12132
8.48528 2.82843
11.3137 0
inf 0


"layer 350:"
-inf 0
1.41421 0
2.12132 0.707107
2.82843 0
6.36396 3.53553
8.48528 1.41421
9.19239 2.12132
11.3137 0
inf 0


"layer 351:"
-inf 0
1.41421 0
2.12132 0.707107
2.82843 0
6.36396 3.53553
9.89949 0
10.6066 0.707107
11.3137 0
inf 0


"layer 352:"
-inf 0
2.82843 0
6.36396 3.53553
9.89949 0
10.6066 0.707107
11.3137 0
inf 0


"layer 353:"
-inf 0
2.82843 0
6.36396 3.53553
9.89949 0
inf 0


"layer 354:"
-inf 0
2.82843 0
6.36396 3.53553
9.89949 0
inf 0


"layer 355:"
-inf 0
2.82843 0
6.36396 3.53553
9.89949 0
inf 0


"layer 356:"
-inf 0
2.82843 0
6.36396 3.53553
9.89949 0
inf 0


"layer 357:"
-inf 0
2.82843 0
6.36396 3.53553
9.89949 0
inf 0


"layer 358:"
-inf 0
2.82843 0
6.36396 3.53553
9.89949 0
inf 0


"layer 359:"
-inf 0
2.82843 0
6.36396 3.53553
9.89949 0
inf 0


"layer 360:"
-inf 0
2.82843 0
6.36396 3.53553
9.89949 0
inf 0


"layer 361:"
-inf 0
2.82843 0
6.36396 3.53553
9.89949 0
inf 0


"layer 362:"
-inf 0
2.82843 0
6.36396 3.53553
9.89949 0
inf 0


"layer 363:"
-inf 0
2.82843 0
6.36396 3.53553
9.89949 0
inf 0


"layer 364:"
-inf 0
2.82843 0
6.36396 3.53553
9.89949 0
inf 0


"layer 365:"
-inf 0
2.82843 0
6.36396 3.53553
9.89949 0
inf 0


"layer 366:"
-inf 0
2.82843 0
6.36396 3.53553
9.89949 0
inf 0


"layer 367:"
-inf 0
2.82843 0
5.65685 2.82843
6.36396 2.12132
7.07107 2.82843
9.89949 0
inf 0


"layer 368:"
-inf 0
2.82843 0
5.65685 2.82843
6.36396 2.12132
7.07107 2.82843
9.89949 0
inf 0


"layer 369:"
-inf 0
2.82843 0
5.65685 2.82843
6.36396 2.12132
7.07107 2.82843
9.89949 0
inf 0


"layer 370:"
-inf 0
2.82843 0
5.65685 2.82843
6.36396 2.12132
7.07107 2.82843
9.89949 0
inf 0


"layer 371:"
-inf 0
2.82843 0
5.65685 2.82843
7.07107 1.41421
7.77817 2.12132
9.89949 0
inf 0


"layer 372:"
-inf 0
2.82843 0
5.65685 2.82843
7.77817 0.707107
8.48528 1.41421
9.89949 0
inf 0


"layer 373:"
-inf 0
2.82843 0
5.65685 2.82843
7.77817 0.707107
8.48528 1.41421
9.89949 0
inf 0


"layer 374:"
-inf 0
2.82843 0
5.65685 2.82843
7.77817 0.707107
8.48528 1.41421
9.89949 0
inf 0


"layer 375:"
-inf 0
2.82843 0
5.65685 2.82843
7.77817 0.707107
8.48528 1.41421
9.89949 0
inf 0


"layer 376:"
-inf 0
2.82843 0
5.65685 2.82843
8.48528 0
9.19239 0.707107
9.89949 0
inf 0


"layer 377:"
-inf 0
2.82843 0
5.65685 2.82843
8.48528 0
9.19239 0.707107
9.89949 0
inf 0


"layer 378:"
-inf 0
2.82843 0
4.94975 2.12132
5.65685 1.41421
6.36396 2.12132
8.48528 0
9.19239 0.707107
9.89949 0
inf 0


"layer 379:"
-inf 0
2.82843 0
4.94975 2.12132
5.65685 1.41421
6.36396 2.12132
8.48528 0
9.19239 0.707107
9.89949 0
inf 0


"layer 380:"
-inf 0
2.82843 0
4.94975 2.12132
5.65685 1.41421
6.36396 2.12132
8.48528 0
9.19239 0.707107
9.89949 0
inf 0


"layer 381:"
-inf 0
2.82843 0
4.94975 2.12132
5.65685 1.41421
6.36396 2.12132
8.48528 0
9.19239 0.707107
9.89949 0
inf 0


"layer 382:"
-inf 0
2.82843 0
4.94975 2.12132
5.65685 1.41421
6.36396 2.12132
8.48528 0
9.19239 0.707107
9.89949 0
inf 0


"layer 383:"
-inf 0
2.82843 0
4.94975 2.12132
5.65685 1.41421
6.36396 2.12132
8.48528 0
inf 0


"layer 384:"
-inf 0
2.82843 0
4.94975 2.12132
5.65685 1.41421
6.36396 2.12132
8.48528 0
inf 0


"layer 385:"
-inf 0
2.82843 0
4.94975 2.12132
5.65685 1.41421
6.36396 2.12132
8.48528 0
inf 0


"layer 386:"
-inf 0
2.82843 0
4.94975 2.12132
6.36396 0.707107
7.07107 1.41421
8.48528 0
inf 0


"layer 387:"
-inf 0
2.82843 0
4.94975 2.12132
6.36396 0.707107
7.07107 1.41421
8.48528 0
inf 0


"layer 388:"
-inf 0
2.82843 0
4.94975 2.12132
6.36396 0.707107
7.07107 1.41421
8.48528 0
inf 0


"layer 389:"
-inf 0
2.82843 0
4.94975 2.12132
6.36396 0.707107
7.07107 1.41421
8.48528 0
inf 0


"layer 390:"
-inf 0
2.82843 0
4.94975 2.12132
7.07107 0
7.77817 0.707107
8.48528 0
inf 0


"layer 391:"
-inf 0
2.82843 0
4.94975 2.12132
7.07107 0
7.77817 0.707107
8.48528 0
inf 0


"layer 392:"
-inf 0
2.82843 0
4.94975 2.12132
7.07107 0
7.77817 0.707107
8.48528 0
inf 0


"layer 393:"
-inf 0
2.82843 0
4.94975 2.12132
7.07107 0
7.77817 0.707107
8.48528 0
inf 0


"layer 394:"
-inf 0
2.82843 0
4.94975 2.12132
7.07107 0
7.77817 0.707107
8.48528 0
inf 0


"layer 395:"
-inf 0
2.82843 0
4.24264 1.41421
4.94975 0.707107
5.65685 1.41421
7.07107 0
7.77817 0.707107
8.48528 0
inf 0


"layer 396:"
-inf 0
2.82843 0
4.24264 1.41421
4.94975 0.707107
5.65685 1.41421
7.07107 0
7.77817 0.707107
8.48528 0
inf 0


"layer 397:"
-inf 0
2.82843 0
4.24264 1.41421
4.94975 0.707107
5.65685 1.41421
7.07107 0
7.77817 0.707107
8.48528 0
inf 0


"layer 398:"
-inf 0
2.82843 0
4.24264 1.41421
4.94975 0.707107
5.65685 1.41421
7.07107 0
7.77817 0.707107
8.48528 0
inf 0


"layer 399:"
-inf 0
2.82843 0
4.24264 1.41421
4.94975 0.707107
5.65685 1.41421
7.07107 0
7.77817 0.707107
8.48528 0
inf 0


"layer 400:"
-inf 0
2.82843 0
4.24264 1.41421
4.94975 0.707107
5.65685 1.41421
7.07107 0
7.77817 0.707107
8.48528 0
inf 0


"layer 401:"
-inf 0
2.82843 0
4.24264 1.41421
4.94975 0.707107
5.65685 1.41421
7.07107 0
inf 0


"layer 402:"
-inf 0
2.82843 0
4.24264 1.41421
4.94975 0.707107
5.65685 1.41421
7.07107 0
inf 0


"layer 403:"
-inf 0
2.82843 0
4.24264 1.41421
4.94975 0.707107
5.65685 1.41421
7.07107 0
inf 0


"layer 404:"
-inf 0
2.82843 0
4.24264 1.41421
4.94975 0.707107
5.65685 1.41421
7.07107 0
inf 0


"layer 405:"
-inf 0
2.82843 0
4.24264 1.41421
4.94975 0.707107
5.65685 1.41421
7.07107 0
inf 0


"layer 406:"
-inf 0
2.82843 0
4.24264 1.41421
4.94975 0.707107
5.65685 1.41421
7.07107 0
inf 0


"layer 407:"
-inf 0
2.82843 0
4.24264 1.41421
4.94975 0.707107
5.65685 1.41421
7.07107 0
inf 0


"layer 408:"
-inf 0
2.82843 0
4.24264 1.41421
4.94975 0.707107
5.65685 1.41421
7.07107 0
inf 0


"layer 409:"
-inf 0
2.82843 0
4.24264 1.41421
5.65685 0
6.36396 0.707107
7.07107 0
inf 0


"layer 410:"
-inf 0
2.82843 0
4.24264 1.41421
5.65685 0
6.36396 0.707107
7.07107 0
inf 0


"layer 411:"
-inf 0
2.82843 0
4.24264 1.41421
5.65685 0
6.36396 0.707107
7.07107 0
inf 0


"layer 412:"
-inf 0
2.82843 0
4.24264 1.41421
5.65685 0
6.36396 0.707107
7.07107 0
inf 0


"layer 413:"
-inf 0
2.82843 0
4.24264 1.41421
5.65685 0
6.36396 0.707107
7.07107 0
inf 0


"layer 414:"
-inf 0
2.82843 0
4.24264 1.41421
5.65685 0
6.36396 0.707107
7.07107 0
inf 0


"layer 415:"
-inf 0
2.82843 0
4.24264 1.41421
5.65685 0
6.36396 0.707107
7.07107 0
inf 0


"layer 416:"
-inf 0
2.82843 0
4.24264 1.41421
5.65685 0
6.36396 0.707107
7.07107 0
inf 0


"layer 417:"
-inf 0
2.82843 0
4.24264 1.41421
5.65685 0
6.36396 0.707107
7.07107 0
inf 0


"layer 418:"
-inf 0
2.82843 0
3.53553 0.707107
4.24264 0
4.94975 0.707107
5.65685 0
6.36396 0.707107
7.07107 0
inf 0


"layer 419:"
-inf 0
2.82843 0
3.53553 0.707107
4.24264 0
4.94975 0.707107
5.65685 0
6.36396 0.707107
7.07107 0
inf 0


"layer 420:"
-inf 0
2.82843 0
3.53553 0.707107
4.24264 0
4.94975 0.707107
5.65685 0
6.36396 0.707107
7.07107 0
inf 0


"layer 421:"
-inf 0
2.82843 0
3.53553 0.707107
4.24264 0
4.94975 0.707107
5.65685 0
6.36396 0.707107
7.07107 0
inf 0


"layer 422:"
-inf 0
2.82843 0
3.53553 0.707107
4.24264 0
4.94975 0.707107
5.65685 0
6.36396 0.707107
7.07107 0
inf 0


"layer 423:"
-inf 0
2.82843 0
3.53553 0.707107
4.24264 0
4.94975 0.707107
5.65685 0
6.36396 0.707107
7.07107 0
inf 0


"layer 424:"
-inf 0
2.82843 0
3.53553 0.707107
4.24264 0
4.94975 0.707107
5.65685 0
6.36396 0.707107
7.07107 0
inf 0


"layer 425:"
-inf 0
2.82843 0
3.53553 0.707107
4.24264 0
4.94975 0.707107
5.65685 0
6.36396 0.707107
7.07107 0
inf 0


"layer 426:"
-inf 0
2.82843 0
3.53553 0.707107
4.24264 0
4.94975 0.707107
5.65685 0
inf 0


"layer 427:"
-inf 0
2.82843 0
3.53553 0.707107
4.24264 0
4.94975 0.707107
5.65685 0
inf 0


"layer 428:"
-inf 0
2.82843 0
3.53553 0.707107
4.24264 0
4.94975 0.707107
5.65685 0
inf 0


"layer 429:"
-inf 0
2.82843 0
3.53553 0.707107
4.24264 0
4.94975 0.707107
5.65685 0
inf 0


"layer 430:"
-inf 0
2.82843 0
3.53553 0.707107
4.24264 0
4.94975 0.707107
5.65685 0
inf 0


"layer 431:"
-inf 0
2.82843 0
3.53553 0.707107
4.24264 0
4.94975 0.707107
5.65685 0
inf 0


"layer 432:"
-inf 0
2.82843 0
3.53553 0.707107
4.24264 0
4.94975 0.707107
5.65685 0
inf 0


"layer 433:"
-inf 0
2.82843 0
3.53553 0.707107
4.24264 0
4.94975 0.707107
5.65685 0
inf 0


"layer 434:"
-inf 0
2.82843 0
3.53553 0.707107
4.24264 0
4.94975 0.707107
5.65685 0
inf 0


"layer 435:"
-inf 0
2.82843 0
3.53553 0.707107
4.24264 0
4.94975 0.707107
5.65685 0
inf 0


"layer 436:"
-inf 0
2.82843 0
3.53553 0.707107
4.24264 0
4.94975 0.707107
5.65685 0
inf 0


"layer 437:"
-inf 0
2.82843 0
3.53553 0.707107
4.24264 0
4.94975 0.707107
5.65685 0
inf 0


"layer 438:"
-inf 0
2.82843 0
3.53553 0.707107
4.24264 0
4.94975 0.707107
5.65685 0
inf 0


"layer 439:"
-inf 0
2.82843 0
3.53553 0.707107
4.24264 0
4.94975 0.707107
5.65685 0
inf 0


"layer 440:"
-inf 0
2.82843 0
3.53553 0.707107
4.24264 0
4.94975 0.707107
5.65685 0
inf 0


"layer 441:"
-inf 0
2.82843 0
3.53553 0.707107
4.24264 0
4.94975 0.707107
5.65685 0
inf 0


"layer 442:"
-inf 0
2.82843 0
3.53553 0.707107
4.24264 0
4.94975 0.707107
5.65685 0
inf 0


"layer 443:"
-inf 0
2.82843 0
3.53553 0.707107
4.24264 0
4.94975 0.707107
5.65685 0
inf 0


"layer 444:"
-inf 0
4.24264 0
4.94975 0.707107
5.65685 0
inf 0


"layer 445:"
-inf 0
4.24264 0
4.94975 0.707107
5.65685 0
inf 0


"layer 446:"
-inf 0
4.24264 0
4.94975 0.707107
5.65685 0
inf 0


"layer 447:"
-inf 0
4.24264 0
4.94975 0.707107
5.65685 0
inf 0


