# persistence landscape
# X Y
"layer 0:"
-inf 0
14.1421 0
3069.07 3054.93
6124 0
inf 0


"layer 1:"
-inf 0
14.1421 0
3069.07 3054.93
6124 0
inf 0


"layer 2:"
-inf 0
14.1421 0
3069.07 3054.93
6124 0
inf 0


"layer 3:"
-inf 0
15.5563 0
3069.78 3054.22
6124 0
inf 0


"layer 4:"
-inf 0
16.9706 0
3070.49 3053.51
6124 0
inf 0


"layer 5:"
-inf 0
16.9706 0
3070.49 3053.51
6124 0
inf 0


"layer 6:"
-inf 0
16.9706 0
3070.49 3053.51
6124 0
inf 0


"layer 7:"
-inf 0
18.3848 0
3071.19 3052.81
6124 0
inf 0


"layer 8:"
-inf 0
18.3848 0
3071.19 3052.81
6124 0
inf 0


"layer 9:"
-inf 0
18.3848 0
3071.19 3052.81
6124 0
inf 0


"layer 10:"
-inf 0
18.3848 0
3071.19 3052.81
6124 0
inf 0


"layer 11:"
-inf 0
18.3848 0
3071.19 3052.81
6124 0
inf 0


"layer 12:"
-inf 0
19.799 0
3071.9 3052.1
6124 0
inf 0


"layer 13:"
-inf 0
19.799 0
3071.9 3052.1
6124 0
inf 0


"layer 14:"
-inf 0
19.799 0
3071.9 3052.1
6124 0
inf 0


"layer 15:"
-inf 0
19.799 0
3071.9 3052.1
6124 0
inf 0


"layer 16:"
-inf 0
21.2132 0
3072.61 3051.39
6124 0
inf 0


"layer 17:"
-inf 0
21.2132 0
3072.61 3051.39
6124 0
inf 0


"layer 18:"
-inf 0
21.2132 0
3072.61 3051.39
6124 0
inf 0


"layer 19:"
-inf 0
22.6274 0
3073.31 3050.69
6124 0
inf 0


"layer 20:"
-inf 0
22.6274 0
3073.31 3050.69
6124 0
inf 0


"layer 21:"
-inf 0
22.6274 0
3073.31 3050.69
6124 0
inf 0


"layer 22:"
-inf 0
24.0416 0
3074.02 3049.98
6124 0
inf 0


"layer 23:"
-inf 0
24.0416 0
3074.02 3049.98
6124 0
inf 0


"layer 24:"
-inf 0
24.0416 0
3074.02 3049.98
6124 0
inf 0


"layer 25:"
-inf 0
24.0416 0
3074.02 3049.98
6124 0
inf 0


"layer 26:"
-inf 0
24.0416 0
3074.02 3049.98
6124 0
inf 0


"layer 27:"
-inf 0
25.4558 0
3074.73 3049.27
6124 0
inf 0


"layer 28:"
-inf 0
25.4558 0
3074.73 3049.27
6124 0
inf 0


"layer 29:"
-inf 0
25.4558 0
3074.73 3049.27
6124 0
inf 0


"layer 30:"
-inf 0
26.8701 0
3075.44 3048.56
6124 0
inf 0


"layer 31:"
-inf 0
26.8701 0
3075.44 3048.56
6124 0
inf 0


"layer 32:"
-inf 0
26.8701 0
3075.44 3048.56
6124 0
inf 0


"layer 33:"
-inf 0
29.6985 0
3076.85 3047.15
6124 0
inf 0


"layer 34:"
-inf 0
31.1127 0
3077.56 3046.44
6124 0
inf 0


"layer 35:"
-inf 0
32.5269 0
3078.26 3045.74
6124 0
inf 0


"layer 36:"
-inf 0
32.5269 0
3078.26 3045.74
6124 0
inf 0


"layer 37:"
-inf 0
32.5269 0
3078.26 3045.74
6124 0
inf 0


"layer 38:"
-inf 0
35.3553 0
3079.68 3044.32
6124 0
inf 0


"layer 39:"
-inf 0
35.3553 0
3079.68 3044.32
6124 0
inf 0


"layer 40:"
-inf 0
35.3553 0
3079.68 3044.32
6124 0
inf 0


"layer 41:"
-inf 0
36.7696 0
3080.38 3043.62
6124 0
inf 0


"layer 42:"
-inf 0
36.7696 0
3080.38 3043.62
6124 0
inf 0


"layer 43:"
-inf 0
38.1838 0
3081.09 3042.91
6124 0
inf 0


"layer 44:"
-inf 0
38.1838 0
3081.09 3042.91
6124 0
inf 0


"layer 45:"
-inf 0
38.1838 0
3081.09 3042.91
6124 0
inf 0


"layer 46:"
-inf 0
38.1838 0
3081.09 3042.91
6124 0
inf 0


"layer 47:"
-inf 0
39.598 0
3081.8 3042.2
6124 0
inf 0


"layer 48:"
-inf 0
39.598 0
3081.8 3042.2
6124 0
inf 0


"layer 49:"
-inf 0
39.598 0
3081.8 3042.2
6124 0
inf 0


"layer 50:"
-inf 0
42.4264 0
3083.21 3040.79
6124 0
inf 0


"layer 51:"
-inf 0
42.4264 0
3083.21 3040.79
6124 0
inf 0


"layer 52:"
-inf 0
45.2548 0
3084.63 3039.37
6124 0
inf 0


"layer 53:"
-inf 0
50.9117 0
3087.46 3036.54
6124 0
inf 0


"layer 54:"
-inf 0
52.3259 0
3088.16 3035.84
6124 0
inf 0


"layer 55:"
-inf 0
152.735 0
3138.37 2985.63
6124 0
inf 0


"layer 56:"
-inf 0
152.735 0
3138.37 2985.63
6124 0
inf 0


"layer 57:"
-inf 0
152.735 0
3138.37 2985.63
6124 0
inf 0


"layer 58:"
-inf 0
152.735 0
3138.37 2985.63
6124 0
inf 0


"layer 59:"
-inf 0
152.735 0
3138.37 2985.63
6124 0
inf 0


"layer 60:"
-inf 0
152.735 0
3138.37 2985.63
6124 0
inf 0


"layer 61:"
-inf 0
152.735 0
3138.37 2985.63
6124 0
inf 0


"layer 62:"
-inf 0
152.735 0
3138.37 2985.63
6124 0
inf 0


"layer 63:"
-inf 0
152.735 0
3138.37 2985.63
6124 0
inf 0


"layer 64:"
-inf 0
152.735 0
3138.37 2985.63
6124 0
inf 0


"layer 65:"
-inf 0
152.735 0
3138.37 2985.63
6124 0
inf 0


"layer 66:"
-inf 0
154.149 0
3139.07 2984.93
6124 0
inf 0


"layer 67:"
-inf 0
154.149 0
3139.07 2984.93
6124 0
inf 0


"layer 68:"
-inf 0
154.149 0
3139.07 2984.93
6124 0
inf 0


"layer 69:"
-inf 0
154.149 0
3139.07 2984.93
6124 0
inf 0


"layer 70:"
-inf 0
154.149 0
3139.07 2984.93
6124 0
inf 0


"layer 71:"
-inf 0
154.149 0
3139.07 2984.93
6124 0
inf 0


"layer 72:"
-inf 0
154.149 0
3139.07 2984.93
6124 0
inf 0


"layer 73:"
-inf 0
154.149 0
3139.07 2984.93
6124 0
inf 0


"layer 74:"
-inf 0
155.563 0
3139.78 2984.22
6124 0
inf 0


"layer 75:"
-inf 0
155.563 0
3139.78 2984.22
6124 0
inf 0


"layer 76:"
-inf 0
155.563 0
3139.78 2984.22
6124 0
inf 0


"layer 77:"
-inf 0
155.563 0
3139.78 2984.22
6124 0
inf 0


"layer 78:"
-inf 0
155.563 0
3139.78 2984.22
6124 0
inf 0


"layer 79:"
-inf 0
156.978 0
3140.49 2983.51
6124 0
inf 0


"layer 80:"
-inf 0
156.978 0
3140.49 2983.51
6124 0
inf 0


"layer 81:"
-inf 0
156.978 0
3140.49 2983.51
6124 0
inf 0


"layer 82:"
-inf 0
158.392 0
3141.2 2982.8
6124 0
inf 0


"layer 83:"
-inf 0
158.392 0
3141.2 2982.8
6124 0
inf 0


"layer 84:"
-inf 0
158.392 0
3141.2 2982.8
6124 0
inf 0


"layer 85:"
-inf 0
158.392 0
3141.2 2982.8
6124 0
inf 0


"layer 86:"
-inf 0
159.806 0
3141.9 2982.1
6124 0
inf 0


"layer 87:"
-inf 0
159.806 0
3141.9 2982.1
6124 0
inf 0


"layer 88:"
-inf 0
161.22 0
3142.61 2981.39
6124 0
inf 0


"layer 89:"
-inf 0
161.22 0
3142.61 2981.39
6124 0
inf 0


"layer 90:"
-inf 0
161.22 0
3142.61 2981.39
6124 0
inf 0


"layer 91:"
-inf 0
161.22 0
3142.61 2981.39
6124 0
inf 0


"layer 92:"
-inf 0
162.635 0
3143.32 2980.68
6124 0
inf 0


"layer 93:"
-inf 0
171.12 0
3147.56 2976.44
6124 0
inf 0


"layer 94:"
-inf 0
183.848 0
3153.92 2970.08
6124 0
inf 0


