# persistence landscape
# X Y
"layer 0:"
-inf 0
11.3137 0
120.657 109.343
230 0
inf 0


"layer 1:"
-inf 0
12.7279 0
121.364 108.636
230 0
inf 0


"layer 2:"
-inf 0
12.7279 0
121.364 108.636
230 0
inf 0


"layer 3:"
-inf 0
15.5563 0
122.778 107.222
230 0
inf 0


"layer 4:"
-inf 0
41.0122 0
135.506 94.4939
230 0
inf 0


"layer 5:"
-inf 0
41.0122 0
135.506 94.4939
230 0
inf 0


"layer 6:"
-inf 0
41.0122 0
135.506 94.4939
230 0
inf 0


"layer 7:"
-inf 0
41.0122 0
135.506 94.4939
230 0
inf 0


"layer 8:"
-inf 0
42.4264 0
136.213 93.7868
230 0
inf 0


"layer 9:"
-inf 0
42.4264 0
136.213 93.7868
230 0
inf 0


"layer 10:"
-inf 0
43.8406 0
136.92 93.0797
230 0
inf 0


"layer 11:"
-inf 0
43.8406 0
136.92 93.0797
230 0
inf 0


"layer 12:"
-inf 0
45.2548 0
137.627 92.3726
230 0
inf 0


"layer 13:"
-inf 0
45.2548 0
137.627 92.3726
230 0
inf 0


