# persistence landscape
# X Y
"layer 0:"
-inf 0
9.89949 0
3066.95 3057.05
6124 0
inf 0


"layer 1:"
-inf 0
11.3137 0
3067.66 3056.34
6124 0
inf 0


"layer 2:"
-inf 0
12.7279 0
3068.36 3055.64
6124 0
inf 0


"layer 3:"
-inf 0
14.1421 0
3069.07 3054.93
6124 0
inf 0


"layer 4:"
-inf 0
14.1421 0
3069.07 3054.93
6124 0
inf 0


"layer 5:"
-inf 0
15.5563 0
3069.78 3054.22
6124 0
inf 0


"layer 6:"
-inf 0
15.5563 0
3069.78 3054.22
6124 0
inf 0


"layer 7:"
-inf 0
15.5563 0
3069.78 3054.22
6124 0
inf 0


"layer 8:"
-inf 0
15.5563 0
3069.78 3054.22
6124 0
inf 0


"layer 9:"
-inf 0
15.5563 0
3069.78 3054.22
6124 0
inf 0


"layer 10:"
-inf 0
16.9706 0
3070.49 3053.51
6124 0
inf 0


"layer 11:"
-inf 0
16.9706 0
3070.49 3053.51
6124 0
inf 0


"layer 12:"
-inf 0
16.9706 0
3070.49 3053.51
6124 0
inf 0


"layer 13:"
-inf 0
18.3848 0
3071.19 3052.81
6124 0
inf 0


"layer 14:"
-inf 0
18.3848 0
3071.19 3052.81
6124 0
inf 0


"layer 15:"
-inf 0
18.3848 0
3071.19 3052.81
6124 0
inf 0


"layer 16:"
-inf 0
19.799 0
3071.9 3052.1
6124 0
inf 0


"layer 17:"
-inf 0
19.799 0
3071.9 3052.1
6124 0
inf 0


"layer 18:"
-inf 0
19.799 0
3071.9 3052.1
6124 0
inf 0


"layer 19:"
-inf 0
21.2132 0
3072.61 3051.39
6124 0
inf 0


"layer 20:"
-inf 0
21.2132 0
3072.61 3051.39
6124 0
inf 0


"layer 21:"
-inf 0
21.2132 0
3072.61 3051.39
6124 0
inf 0


"layer 22:"
-inf 0
21.2132 0
3072.61 3051.39
6124 0
inf 0


"layer 23:"
-inf 0
22.6274 0
3073.31 3050.69
6124 0
inf 0


"layer 24:"
-inf 0
22.6274 0
3073.31 3050.69
6124 0
inf 0


"layer 25:"
-inf 0
22.6274 0
3073.31 3050.69
6124 0
inf 0


"layer 26:"
-inf 0
22.6274 0
3073.31 3050.69
6124 0
inf 0


"layer 27:"
-inf 0
22.6274 0
3073.31 3050.69
6124 0
inf 0


"layer 28:"
-inf 0
22.6274 0
3073.31 3050.69
6124 0
inf 0


"layer 29:"
-inf 0
22.6274 0
3073.31 3050.69
6124 0
inf 0


"layer 30:"
-inf 0
24.0416 0
3074.02 3049.98
6124 0
inf 0


"layer 31:"
-inf 0
24.0416 0
3074.02 3049.98
6124 0
inf 0


"layer 32:"
-inf 0
24.0416 0
3074.02 3049.98
6124 0
inf 0


"layer 33:"
-inf 0
24.0416 0
3074.02 3049.98
6124 0
inf 0


"layer 34:"
-inf 0
25.4558 0
3074.73 3049.27
6124 0
inf 0


"layer 35:"
-inf 0
25.4558 0
3074.73 3049.27
6124 0
inf 0


"layer 36:"
-inf 0
25.4558 0
3074.73 3049.27
6124 0
inf 0


"layer 37:"
-inf 0
25.4558 0
3074.73 3049.27
6124 0
inf 0


"layer 38:"
-inf 0
25.4558 0
3074.73 3049.27
6124 0
inf 0


"layer 39:"
-inf 0
26.8701 0
3075.44 3048.56
6124 0
inf 0


"layer 40:"
-inf 0
26.8701 0
3075.44 3048.56
6124 0
inf 0


"layer 41:"
-inf 0
26.8701 0
3075.44 3048.56
6124 0
inf 0


"layer 42:"
-inf 0
26.8701 0
3075.44 3048.56
6124 0
inf 0


"layer 43:"
-inf 0
26.8701 0
3075.44 3048.56
6124 0
inf 0


"layer 44:"
-inf 0
28.2843 0
3076.14 3047.86
6124 0
inf 0


"layer 45:"
-inf 0
29.6985 0
3076.85 3047.15
6124 0
inf 0


"layer 46:"
-inf 0
29.6985 0
3076.85 3047.15
6124 0
inf 0


"layer 47:"
-inf 0
29.6985 0
3076.85 3047.15
6124 0
inf 0


"layer 48:"
-inf 0
31.1127 0
3077.56 3046.44
6124 0
inf 0


"layer 49:"
-inf 0
32.5269 0
3078.26 3045.74
6124 0
inf 0


"layer 50:"
-inf 0
32.5269 0
3078.26 3045.74
6124 0
inf 0


"layer 51:"
-inf 0
32.5269 0
3078.26 3045.74
6124 0
inf 0


"layer 52:"
-inf 0
32.5269 0
3078.26 3045.74
6124 0
inf 0


"layer 53:"
-inf 0
32.5269 0
3078.26 3045.74
6124 0
inf 0


"layer 54:"
-inf 0
32.5269 0
3078.26 3045.74
6124 0
inf 0


"layer 55:"
-inf 0
33.9411 0
3078.97 3045.03
6124 0
inf 0


"layer 56:"
-inf 0
33.9411 0
3078.97 3045.03
6124 0
inf 0


"layer 57:"
-inf 0
33.9411 0
3078.97 3045.03
6124 0
inf 0


"layer 58:"
-inf 0
36.7696 0
3080.38 3043.62
6124 0
inf 0


"layer 59:"
-inf 0
39.598 0
3081.8 3042.2
6124 0
inf 0


"layer 60:"
-inf 0
39.598 0
3081.8 3042.2
6124 0
inf 0


"layer 61:"
-inf 0
41.0122 0
3082.51 3041.49
6124 0
inf 0


"layer 62:"
-inf 0
41.0122 0
3082.51 3041.49
6124 0
inf 0


"layer 63:"
-inf 0
43.8406 0
3083.92 3040.08
6124 0
inf 0


"layer 64:"
-inf 0
45.2548 0
3084.63 3039.37
6124 0
inf 0


"layer 65:"
-inf 0
46.669 0
3085.33 3038.67
6124 0
inf 0


"layer 66:"
-inf 0
48.0833 0
3086.04 3037.96
6124 0
inf 0


"layer 67:"
-inf 0
48.0833 0
3086.04 3037.96
6124 0
inf 0


"layer 68:"
-inf 0
48.0833 0
3086.04 3037.96
6124 0
inf 0


"layer 69:"
-inf 0
50.9117 0
3087.46 3036.54
6124 0
inf 0


"layer 70:"
-inf 0
50.9117 0
3087.46 3036.54
6124 0
inf 0


"layer 71:"
-inf 0
50.9117 0
3087.46 3036.54
6124 0
inf 0


"layer 72:"
-inf 0
53.7401 0
3088.87 3035.13
6124 0
inf 0


"layer 73:"
-inf 0
55.1543 0
3089.58 3034.42
6124 0
inf 0


"layer 74:"
-inf 0
60.8112 0
3092.41 3031.59
6124 0
inf 0


"layer 75:"
-inf 0
63.6396 0
3093.82 3030.18
6124 0
inf 0


"layer 76:"
-inf 0
66.468 0
3095.23 3028.77
6124 0
inf 0


"layer 77:"
-inf 0
66.468 0
3095.23 3028.77
6124 0
inf 0


"layer 78:"
-inf 0
66.468 0
3095.23 3028.77
6124 0
inf 0


"layer 79:"
-inf 0
67.8823 0
3095.94 3028.06
6124 0
inf 0


"layer 80:"
-inf 0
67.8823 0
3095.94 3028.06
6124 0
inf 0


"layer 81:"
-inf 0
67.8823 0
3095.94 3028.06
6124 0
inf 0


"layer 82:"
-inf 0
67.8823 0
3095.94 3028.06
6124 0
inf 0


"layer 83:"
-inf 0
69.2965 0
3096.65 3027.35
6124 0
inf 0


"layer 84:"
-inf 0
69.2965 0
3096.65 3027.35
6124 0
inf 0


"layer 85:"
-inf 0
70.7107 0
3097.36 3026.64
6124 0
inf 0


"layer 86:"
-inf 0
72.1249 0
3098.06 3025.94
6124 0
inf 0


"layer 87:"
-inf 0
72.1249 0
3098.06 3025.94
6124 0
inf 0


"layer 88:"
-inf 0
72.1249 0
3098.06 3025.94
6124 0
inf 0


"layer 89:"
-inf 0
76.3675 0
3100.18 3023.82
6124 0
inf 0


"layer 90:"
-inf 0
79.196 0
3101.6 3022.4
6124 0
inf 0


"layer 91:"
-inf 0
79.196 0
3101.6 3022.4
6124 0
inf 0


"layer 92:"
-inf 0
79.196 0
3101.6 3022.4
6124 0
inf 0


"layer 93:"
-inf 0
80.6102 0
3102.31 3021.69
6124 0
inf 0


"layer 94:"
-inf 0
80.6102 0
3102.31 3021.69
6124 0
inf 0


"layer 95:"
-inf 0
80.6102 0
3102.31 3021.69
6124 0
inf 0


"layer 96:"
-inf 0
80.6102 0
3102.31 3021.69
6124 0
inf 0


"layer 97:"
-inf 0
80.6102 0
3102.31 3021.69
6124 0
inf 0


"layer 98:"
-inf 0
80.6102 0
3102.31 3021.69
6124 0
inf 0


"layer 99:"
-inf 0
82.0244 0
3103.01 3020.99
6124 0
inf 0


"layer 100:"
-inf 0
82.0244 0
3103.01 3020.99
6124 0
inf 0


"layer 101:"
-inf 0
83.4386 0
3103.72 3020.28
6124 0
inf 0


"layer 102:"
-inf 0
84.8528 0
3104.43 3019.57
6124 0
inf 0


"layer 103:"
-inf 0
86.267 0
3105.13 3018.87
6124 0
inf 0


"layer 104:"
-inf 0
87.6812 0
3105.84 3018.16
6124 0
inf 0


"layer 105:"
-inf 0
87.6812 0
3105.84 3018.16
6124 0
inf 0


"layer 106:"
-inf 0
87.6812 0
3105.84 3018.16
6124 0
inf 0


"layer 107:"
-inf 0
89.0955 0
3106.55 3017.45
6124 0
inf 0


"layer 108:"
-inf 0
89.0955 0
3106.55 3017.45
6124 0
inf 0


"layer 109:"
-inf 0
90.5097 0
3107.25 3016.75
6124 0
inf 0


"layer 110:"
-inf 0
90.5097 0
3107.25 3016.75
6124 0
inf 0


"layer 111:"
-inf 0
90.5097 0
3107.25 3016.75
6124 0
inf 0


"layer 112:"
-inf 0
90.5097 0
3107.25 3016.75
6124 0
inf 0


"layer 113:"
-inf 0
90.5097 0
3107.25 3016.75
6124 0
inf 0


"layer 114:"
-inf 0
90.5097 0
3107.25 3016.75
6124 0
inf 0


"layer 115:"
-inf 0
91.9239 0
3107.96 3016.04
6124 0
inf 0


"layer 116:"
-inf 0
91.9239 0
3107.96 3016.04
6124 0
inf 0


"layer 117:"
-inf 0
91.9239 0
3107.96 3016.04
6124 0
inf 0


"layer 118:"
-inf 0
91.9239 0
3107.96 3016.04
6124 0
inf 0


"layer 119:"
-inf 0
91.9239 0
3107.96 3016.04
6124 0
inf 0


"layer 120:"
-inf 0
91.9239 0
3107.96 3016.04
6124 0
inf 0


"layer 121:"
-inf 0
93.3381 0
3108.67 3015.33
6124 0
inf 0


"layer 122:"
-inf 0
93.3381 0
3108.67 3015.33
6124 0
inf 0


"layer 123:"
-inf 0
93.3381 0
3108.67 3015.33
6124 0
inf 0


"layer 124:"
-inf 0
94.7523 0
3109.38 3014.62
6124 0
inf 0


"layer 125:"
-inf 0
94.7523 0
3109.38 3014.62
6124 0
inf 0


"layer 126:"
-inf 0
94.7523 0
3109.38 3014.62
6124 0
inf 0


"layer 127:"
-inf 0
96.1665 0
3110.08 3013.92
6124 0
inf 0


"layer 128:"
-inf 0
96.1665 0
3110.08 3013.92
6124 0
inf 0


"layer 129:"
-inf 0
96.1665 0
3110.08 3013.92
6124 0
inf 0


"layer 130:"
-inf 0
96.1665 0
3110.08 3013.92
6124 0
inf 0


"layer 131:"
-inf 0
97.5807 0
3110.79 3013.21
6124 0
inf 0


"layer 132:"
-inf 0
100.409 0
3112.2 3011.8
6124 0
inf 0


"layer 133:"
-inf 0
100.409 0
3112.2 3011.8
6124 0
inf 0


"layer 134:"
-inf 0
101.823 0
3112.91 3011.09
6124 0
inf 0


"layer 135:"
-inf 0
101.823 0
3112.91 3011.09
6124 0
inf 0


"layer 136:"
-inf 0
101.823 0
3112.91 3011.09
6124 0
inf 0


"layer 137:"
-inf 0
101.823 0
3112.91 3011.09
6124 0
inf 0


"layer 138:"
-inf 0
104.652 0
3114.33 3009.67
6124 0
inf 0


"layer 139:"
-inf 0
106.066 0
3115.03 3008.97
6124 0
inf 0


"layer 140:"
-inf 0
123.037 0
3123.52 3000.48
6124 0
inf 0


"layer 141:"
-inf 0
123.037 0
3123.52 3000.48
6124 0
inf 0


"layer 142:"
-inf 0
131.522 0
3127.76 2996.24
6124 0
inf 0


"layer 143:"
-inf 0
161.22 0
3142.61 2981.39
6124 0
inf 0


"layer 144:"
-inf 0
1687.16 0
3905.58 2218.42
6124 0
inf 0


"layer 145:"
-inf 0
1687.16 0
3905.58 2218.42
6124 0
inf 0


"layer 146:"
-inf 0
1687.16 0
3905.58 2218.42
6124 0
inf 0


"layer 147:"
-inf 0
1687.16 0
3905.58 2218.42
6124 0
inf 0


"layer 148:"
-inf 0
1687.16 0
3905.58 2218.42
6124 0
inf 0


"layer 149:"
-inf 0
1687.16 0
3905.58 2218.42
6124 0
inf 0


"layer 150:"
-inf 0
1687.16 0
3905.58 2218.42
6124 0
inf 0


"layer 151:"
-inf 0
1687.16 0
3905.58 2218.42
6124 0
inf 0


"layer 152:"
-inf 0
1687.16 0
3905.58 2218.42
6124 0
inf 0


"layer 153:"
-inf 0
1687.16 0
3905.58 2218.42
6124 0
inf 0


"layer 154:"
-inf 0
1687.16 0
3905.58 2218.42
6124 0
inf 0


"layer 155:"
-inf 0
1687.16 0
3905.58 2218.42
6124 0
inf 0


"layer 156:"
-inf 0
1687.16 0
3905.58 2218.42
6124 0
inf 0


"layer 157:"
-inf 0
1687.16 0
3905.58 2218.42
6124 0
inf 0


"layer 158:"
-inf 0
1687.16 0
3905.58 2218.42
6124 0
inf 0


"layer 159:"
-inf 0
1687.16 0
3905.58 2218.42
6124 0
inf 0


"layer 160:"
-inf 0
1687.16 0
3905.58 2218.42
6124 0
inf 0


"layer 161:"
-inf 0
1687.16 0
3905.58 2218.42
6124 0
inf 0


"layer 162:"
-inf 0
1687.16 0
3905.58 2218.42
6124 0
inf 0


"layer 163:"
-inf 0
1687.16 0
3905.58 2218.42
6124 0
inf 0


"layer 164:"
-inf 0
1687.16 0
3905.58 2218.42
6124 0
inf 0


"layer 165:"
-inf 0
1687.16 0
3905.58 2218.42
6124 0
inf 0


"layer 166:"
-inf 0
1687.16 0
3905.58 2218.42
6124 0
inf 0


"layer 167:"
-inf 0
1687.16 0
3905.58 2218.42
6124 0
inf 0


"layer 168:"
-inf 0
1687.16 0
3905.58 2218.42
6124 0
inf 0


"layer 169:"
-inf 0
1687.16 0
3905.58 2218.42
6124 0
inf 0


"layer 170:"
-inf 0
1687.16 0
3905.58 2218.42
6124 0
inf 0


"layer 171:"
-inf 0
1687.16 0
3905.58 2218.42
6124 0
inf 0


"layer 172:"
-inf 0
1687.16 0
3905.58 2218.42
6124 0
inf 0


"layer 173:"
-inf 0
1687.16 0
3905.58 2218.42
6124 0
inf 0


"layer 174:"
-inf 0
1687.16 0
3905.58 2218.42
6124 0
inf 0


"layer 175:"
-inf 0
1687.16 0
3905.58 2218.42
6124 0
inf 0


"layer 176:"
-inf 0
1687.16 0
3905.58 2218.42
6124 0
inf 0


"layer 177:"
-inf 0
1687.16 0
3905.58 2218.42
6124 0
inf 0


"layer 178:"
-inf 0
1687.16 0
3905.58 2218.42
6124 0
inf 0


"layer 179:"
-inf 0
1687.16 0
3905.58 2218.42
6124 0
inf 0


"layer 180:"
-inf 0
1687.16 0
3905.58 2218.42
6124 0
inf 0


"layer 181:"
-inf 0
1687.16 0
3905.58 2218.42
6124 0
inf 0


"layer 182:"
-inf 0
1687.16 0
3905.58 2218.42
6124 0
inf 0


"layer 183:"
-inf 0
1687.16 0
3905.58 2218.42
6124 0
inf 0


"layer 184:"
-inf 0
1687.16 0
3905.58 2218.42
6124 0
inf 0


"layer 185:"
-inf 0
1687.16 0
3905.58 2218.42
6124 0
inf 0


"layer 186:"
-inf 0
1687.16 0
3905.58 2218.42
6124 0
inf 0


"layer 187:"
-inf 0
1687.16 0
3905.58 2218.42
6124 0
inf 0


"layer 188:"
-inf 0
1688.57 0
3906.29 2217.71
6124 0
inf 0


"layer 189:"
-inf 0
1688.57 0
3906.29 2217.71
6124 0
inf 0


"layer 190:"
-inf 0
1688.57 0
3906.29 2217.71
6124 0
inf 0


"layer 191:"
-inf 0
1688.57 0
3906.29 2217.71
6124 0
inf 0


"layer 192:"
-inf 0
1688.57 0
3906.29 2217.71
6124 0
inf 0


"layer 193:"
-inf 0
1688.57 0
3906.29 2217.71
6124 0
inf 0


"layer 194:"
-inf 0
1688.57 0
3906.29 2217.71
6124 0
inf 0


"layer 195:"
-inf 0
1689.99 0
3906.99 2217.01
6124 0
inf 0


"layer 196:"
-inf 0
1689.99 0
3906.99 2217.01
6124 0
inf 0


"layer 197:"
-inf 0
1689.99 0
3906.99 2217.01
6124 0
inf 0


"layer 198:"
-inf 0
1689.99 0
3906.99 2217.01
6124 0
inf 0


"layer 199:"
-inf 0
1689.99 0
3906.99 2217.01
6124 0
inf 0


"layer 200:"
-inf 0
1689.99 0
3906.99 2217.01
6124 0
inf 0


"layer 201:"
-inf 0
1689.99 0
3906.99 2217.01
6124 0
inf 0


"layer 202:"
-inf 0
1689.99 0
3906.99 2217.01
6124 0
inf 0


"layer 203:"
-inf 0
1691.4 0
3907.7 2216.3
6124 0
inf 0


"layer 204:"
-inf 0
1691.4 0
3907.7 2216.3
6124 0
inf 0


"layer 205:"
-inf 0
1691.4 0
3907.7 2216.3
6124 0
inf 0


"layer 206:"
-inf 0
1692.81 0
3908.41 2215.59
6124 0
inf 0


"layer 207:"
-inf 0
1692.81 0
3908.41 2215.59
6124 0
inf 0


"layer 208:"
-inf 0
1692.81 0
3908.41 2215.59
6124 0
inf 0


"layer 209:"
-inf 0
1692.81 0
3908.41 2215.59
6124 0
inf 0


"layer 210:"
-inf 0
1694.23 0
3909.11 2214.89
6124 0
inf 0


"layer 211:"
-inf 0
1694.23 0
3909.11 2214.89
6124 0
inf 0


"layer 212:"
-inf 0
1694.23 0
3909.11 2214.89
6124 0
inf 0


"layer 213:"
-inf 0
1695.64 0
3909.82 2214.18
6124 0
inf 0


"layer 214:"
-inf 0
1697.06 0
3910.53 2213.47
6124 0
inf 0


"layer 215:"
-inf 0
1697.06 0
3910.53 2213.47
6124 0
inf 0


"layer 216:"
-inf 0
1699.88 0
3911.94 2212.06
6124 0
inf 0


"layer 217:"
-inf 0
1699.88 0
3911.94 2212.06
6124 0
inf 0


"layer 218:"
-inf 0
1699.88 0
3911.94 2212.06
6124 0
inf 0


"layer 219:"
-inf 0
1699.88 0
3911.94 2212.06
6124 0
inf 0


"layer 220:"
-inf 0
1702.71 0
3913.36 2210.64
6124 0
inf 0


"layer 221:"
-inf 0
1705.54 0
3914.77 2209.23
6124 0
inf 0


"layer 222:"
-inf 0
1709.78 0
3916.89 2207.11
6124 0
inf 0


"layer 223:"
-inf 0
1711.2 0
3917.6 2206.4
6124 0
inf 0


"layer 224:"
-inf 0
1711.2 0
3917.6 2206.4
6124 0
inf 0


"layer 225:"
-inf 0
1714.03 0
3919.01 2204.99
6124 0
inf 0


"layer 226:"
-inf 0
1759.28 0
3941.64 2182.36
6124 0
inf 0


"layer 227:"
-inf 0
1770.6 0
3947.3 2176.7
6124 0
inf 0


