# persistence landscape
# X Y
"layer 0:"
-inf 0
8.48528 0
3066.24 3057.76
6124 0
inf 0


"layer 1:"
-inf 0
52.3259 0
3088.16 3035.84
6124 0
inf 0


"layer 2:"
-inf 0
53.7401 0
3088.87 3035.13
6124 0
inf 0


"layer 3:"
-inf 0
53.7401 0
3088.87 3035.13
6124 0
inf 0


"layer 4:"
-inf 0
53.7401 0
3088.87 3035.13
6124 0
inf 0


"layer 5:"
-inf 0
53.7401 0
3088.87 3035.13
6124 0
inf 0


"layer 6:"
-inf 0
55.1543 0
3089.58 3034.42
6124 0
inf 0


