# persistence landscape
# X Y
"layer 0:"
-inf 0
108.894 0
3116.45 3007.55
6124 0
inf 0


"layer 1:"
-inf 0
108.894 0
3116.45 3007.55
6124 0
inf 0


"layer 2:"
-inf 0
110.309 0
3117.15 3006.85
6124 0
inf 0


"layer 3:"
-inf 0
110.309 0
3117.15 3006.85
6124 0
inf 0


