# persistence landscape
# X Y
"layer 0:"
-inf 0
15.5563 0
3069.78 3054.22
6124 0
inf 0


"layer 1:"
-inf 0
18.3848 0
3071.19 3052.81
6124 0
inf 0


"layer 2:"
-inf 0
19.799 0
3071.9 3052.1
6124 0
inf 0


"layer 3:"
-inf 0
21.2132 0
3072.61 3051.39
6124 0
inf 0


"layer 4:"
-inf 0
21.2132 0
3072.61 3051.39
6124 0
inf 0


"layer 5:"
-inf 0
22.6274 0
3073.31 3050.69
6124 0
inf 0


"layer 6:"
-inf 0
22.6274 0
3073.31 3050.69
6124 0
inf 0


"layer 7:"
-inf 0
24.0416 0
3074.02 3049.98
6124 0
inf 0


"layer 8:"
-inf 0
28.2843 0
3076.14 3047.86
6124 0
inf 0


"layer 9:"
-inf 0
32.5269 0
3078.26 3045.74
6124 0
inf 0


"layer 10:"
-inf 0
33.9411 0
3078.97 3045.03
6124 0
inf 0


"layer 11:"
-inf 0
288.5 0
3206.25 2917.75
6124 0
inf 0


"layer 12:"
-inf 0
288.5 0
3206.25 2917.75
6124 0
inf 0


"layer 13:"
-inf 0
288.5 0
3206.25 2917.75
6124 0
inf 0


"layer 14:"
-inf 0
288.5 0
3206.25 2917.75
6124 0
inf 0


"layer 15:"
-inf 0
288.5 0
3206.25 2917.75
6124 0
inf 0


"layer 16:"
-inf 0
289.914 0
3206.96 2917.04
6124 0
inf 0


"layer 17:"
-inf 0
289.914 0
3206.96 2917.04
6124 0
inf 0


"layer 18:"
-inf 0
289.914 0
3206.96 2917.04
6124 0
inf 0


"layer 19:"
-inf 0
289.914 0
3206.96 2917.04
6124 0
inf 0


"layer 20:"
-inf 0
289.914 0
3206.96 2917.04
6124 0
inf 0


"layer 21:"
-inf 0
289.914 0
3206.96 2917.04
6124 0
inf 0


"layer 22:"
-inf 0
289.914 0
3206.96 2917.04
6124 0
inf 0


"layer 23:"
-inf 0
289.914 0
3206.96 2917.04
6124 0
inf 0


"layer 24:"
-inf 0
289.914 0
3206.96 2917.04
6124 0
inf 0


"layer 25:"
-inf 0
289.914 0
3206.96 2917.04
6124 0
inf 0


"layer 26:"
-inf 0
289.914 0
3206.96 2917.04
6124 0
inf 0


"layer 27:"
-inf 0
289.914 0
3206.96 2917.04
6124 0
inf 0


"layer 28:"
-inf 0
291.328 0
3207.66 2916.34
6124 0
inf 0


"layer 29:"
-inf 0
291.328 0
3207.66 2916.34
6124 0
inf 0


"layer 30:"
-inf 0
291.328 0
3207.66 2916.34
6124 0
inf 0


"layer 31:"
-inf 0
292.742 0
3208.37 2915.63
6124 0
inf 0


"layer 32:"
-inf 0
292.742 0
3208.37 2915.63
6124 0
inf 0


"layer 33:"
-inf 0
292.742 0
3208.37 2915.63
6124 0
inf 0


"layer 34:"
-inf 0
292.742 0
3208.37 2915.63
6124 0
inf 0


"layer 35:"
-inf 0
294.156 0
3209.08 2914.92
6124 0
inf 0


"layer 36:"
-inf 0
294.156 0
3209.08 2914.92
6124 0
inf 0


"layer 37:"
-inf 0
295.571 0
3209.79 2914.21
6124 0
inf 0


"layer 38:"
-inf 0
295.571 0
3209.79 2914.21
6124 0
inf 0


"layer 39:"
-inf 0
295.571 0
3209.79 2914.21
6124 0
inf 0


"layer 40:"
-inf 0
295.571 0
3209.79 2914.21
6124 0
inf 0


"layer 41:"
-inf 0
295.571 0
3209.79 2914.21
6124 0
inf 0


"layer 42:"
-inf 0
295.571 0
3209.79 2914.21
6124 0
inf 0


"layer 43:"
-inf 0
298.399 0
3211.2 2912.8
6124 0
inf 0


"layer 44:"
-inf 0
298.399 0
3211.2 2912.8
6124 0
inf 0


"layer 45:"
-inf 0
299.813 0
3211.91 2912.09
6124 0
inf 0


"layer 46:"
-inf 0
301.227 0
3212.61 2911.39
6124 0
inf 0


"layer 47:"
-inf 0
302.642 0
3213.32 2910.68
6124 0
inf 0


"layer 48:"
-inf 0
304.056 0
3214.03 2909.97
6124 0
inf 0


"layer 49:"
-inf 0
1807.36 0
3965.68 2158.32
6124 0
inf 0


"layer 50:"
-inf 0
1807.36 0
3965.68 2158.32
6124 0
inf 0


"layer 51:"
-inf 0
1807.36 0
3965.68 2158.32
6124 0
inf 0


"layer 52:"
-inf 0
1807.36 0
3965.68 2158.32
6124 0
inf 0


"layer 53:"
-inf 0
1807.36 0
3965.68 2158.32
6124 0
inf 0


"layer 54:"
-inf 0
1807.36 0
3965.68 2158.32
6124 0
inf 0


"layer 55:"
-inf 0
1807.36 0
3965.68 2158.32
6124 0
inf 0


"layer 56:"
-inf 0
1807.36 0
3965.68 2158.32
6124 0
inf 0


"layer 57:"
-inf 0
1807.36 0
3965.68 2158.32
6124 0
inf 0


"layer 58:"
-inf 0
1807.36 0
3965.68 2158.32
6124 0
inf 0


"layer 59:"
-inf 0
1807.36 0
3965.68 2158.32
6124 0
inf 0


"layer 60:"
-inf 0
1807.36 0
3965.68 2158.32
6124 0
inf 0


"layer 61:"
-inf 0
1807.36 0
3965.68 2158.32
6124 0
inf 0


"layer 62:"
-inf 0
1807.36 0
3965.68 2158.32
6124 0
inf 0


"layer 63:"
-inf 0
1807.36 0
3965.68 2158.32
6124 0
inf 0


"layer 64:"
-inf 0
1807.36 0
3965.68 2158.32
6124 0
inf 0


"layer 65:"
-inf 0
1807.36 0
3965.68 2158.32
6124 0
inf 0


"layer 66:"
-inf 0
1807.36 0
3965.68 2158.32
6124 0
inf 0


"layer 67:"
-inf 0
1807.36 0
3965.68 2158.32
6124 0
inf 0


"layer 68:"
-inf 0
1807.36 0
3965.68 2158.32
6124 0
inf 0


"layer 69:"
-inf 0
1807.36 0
3965.68 2158.32
6124 0
inf 0


"layer 70:"
-inf 0
1807.36 0
3965.68 2158.32
6124 0
inf 0


"layer 71:"
-inf 0
1807.36 0
3965.68 2158.32
6124 0
inf 0


"layer 72:"
-inf 0
1807.36 0
3965.68 2158.32
6124 0
inf 0


"layer 73:"
-inf 0
1807.36 0
3965.68 2158.32
6124 0
inf 0


"layer 74:"
-inf 0
1807.36 0
3965.68 2158.32
6124 0
inf 0


"layer 75:"
-inf 0
1807.36 0
3965.68 2158.32
6124 0
inf 0


"layer 76:"
-inf 0
1807.36 0
3965.68 2158.32
6124 0
inf 0


"layer 77:"
-inf 0
1807.36 0
3965.68 2158.32
6124 0
inf 0


"layer 78:"
-inf 0
1807.36 0
3965.68 2158.32
6124 0
inf 0


"layer 79:"
-inf 0
1807.36 0
3965.68 2158.32
6124 0
inf 0


"layer 80:"
-inf 0
1807.36 0
3965.68 2158.32
6124 0
inf 0


"layer 81:"
-inf 0
1807.36 0
3965.68 2158.32
6124 0
inf 0


"layer 82:"
-inf 0
1807.36 0
3965.68 2158.32
6124 0
inf 0


"layer 83:"
-inf 0
1807.36 0
3965.68 2158.32
6124 0
inf 0


"layer 84:"
-inf 0
1807.36 0
3965.68 2158.32
6124 0
inf 0


"layer 85:"
-inf 0
1807.36 0
3965.68 2158.32
6124 0
inf 0


"layer 86:"
-inf 0
1807.36 0
3965.68 2158.32
6124 0
inf 0


"layer 87:"
-inf 0
1807.36 0
3965.68 2158.32
6124 0
inf 0


"layer 88:"
-inf 0
1807.36 0
3965.68 2158.32
6124 0
inf 0


"layer 89:"
-inf 0
1807.36 0
3965.68 2158.32
6124 0
inf 0


"layer 90:"
-inf 0
1807.36 0
3965.68 2158.32
6124 0
inf 0


"layer 91:"
-inf 0
1807.36 0
3965.68 2158.32
6124 0
inf 0


"layer 92:"
-inf 0
1807.36 0
3965.68 2158.32
6124 0
inf 0


"layer 93:"
-inf 0
1807.36 0
3965.68 2158.32
6124 0
inf 0


"layer 94:"
-inf 0
1807.36 0
3965.68 2158.32
6124 0
inf 0


"layer 95:"
-inf 0
1807.36 0
3965.68 2158.32
6124 0
inf 0


"layer 96:"
-inf 0
1807.36 0
3965.68 2158.32
6124 0
inf 0


"layer 97:"
-inf 0
1807.36 0
3965.68 2158.32
6124 0
inf 0


"layer 98:"
-inf 0
1807.36 0
3965.68 2158.32
6124 0
inf 0


"layer 99:"
-inf 0
1807.36 0
3965.68 2158.32
6124 0
inf 0


"layer 100:"
-inf 0
1807.36 0
3965.68 2158.32
6124 0
inf 0


"layer 101:"
-inf 0
1807.36 0
3965.68 2158.32
6124 0
inf 0


"layer 102:"
-inf 0
1807.36 0
3965.68 2158.32
6124 0
inf 0


"layer 103:"
-inf 0
1807.36 0
3965.68 2158.32
6124 0
inf 0


"layer 104:"
-inf 0
1807.36 0
3965.68 2158.32
6124 0
inf 0


"layer 105:"
-inf 0
1807.36 0
3965.68 2158.32
6124 0
inf 0


"layer 106:"
-inf 0
1807.36 0
3965.68 2158.32
6124 0
inf 0


"layer 107:"
-inf 0
1807.36 0
3965.68 2158.32
6124 0
inf 0


"layer 108:"
-inf 0
1807.36 0
3965.68 2158.32
6124 0
inf 0


"layer 109:"
-inf 0
1807.36 0
3965.68 2158.32
6124 0
inf 0


"layer 110:"
-inf 0
1807.36 0
3965.68 2158.32
6124 0
inf 0


"layer 111:"
-inf 0
1807.36 0
3965.68 2158.32
6124 0
inf 0


"layer 112:"
-inf 0
1807.36 0
3965.68 2158.32
6124 0
inf 0


"layer 113:"
-inf 0
1807.36 0
3965.68 2158.32
6124 0
inf 0


"layer 114:"
-inf 0
1807.36 0
3965.68 2158.32
6124 0
inf 0


"layer 115:"
-inf 0
1807.36 0
3965.68 2158.32
6124 0
inf 0


"layer 116:"
-inf 0
1807.36 0
3965.68 2158.32
6124 0
inf 0


"layer 117:"
-inf 0
1807.36 0
3965.68 2158.32
6124 0
inf 0


"layer 118:"
-inf 0
1807.36 0
3965.68 2158.32
6124 0
inf 0


"layer 119:"
-inf 0
1807.36 0
3965.68 2158.32
6124 0
inf 0


"layer 120:"
-inf 0
1807.36 0
3965.68 2158.32
6124 0
inf 0


"layer 121:"
-inf 0
1807.36 0
3965.68 2158.32
6124 0
inf 0


"layer 122:"
-inf 0
1807.36 0
3965.68 2158.32
6124 0
inf 0


"layer 123:"
-inf 0
1807.36 0
3965.68 2158.32
6124 0
inf 0


"layer 124:"
-inf 0
1807.36 0
3965.68 2158.32
6124 0
inf 0


"layer 125:"
-inf 0
1808.78 0
3966.39 2157.61
6124 0
inf 0


"layer 126:"
-inf 0
1808.78 0
3966.39 2157.61
6124 0
inf 0


"layer 127:"
-inf 0
1808.78 0
3966.39 2157.61
6124 0
inf 0


"layer 128:"
-inf 0
1808.78 0
3966.39 2157.61
6124 0
inf 0


"layer 129:"
-inf 0
1808.78 0
3966.39 2157.61
6124 0
inf 0


"layer 130:"
-inf 0
1808.78 0
3966.39 2157.61
6124 0
inf 0


"layer 131:"
-inf 0
1808.78 0
3966.39 2157.61
6124 0
inf 0


"layer 132:"
-inf 0
1808.78 0
3966.39 2157.61
6124 0
inf 0


"layer 133:"
-inf 0
1808.78 0
3966.39 2157.61
6124 0
inf 0


"layer 134:"
-inf 0
1808.78 0
3966.39 2157.61
6124 0
inf 0


"layer 135:"
-inf 0
1808.78 0
3966.39 2157.61
6124 0
inf 0


"layer 136:"
-inf 0
1808.78 0
3966.39 2157.61
6124 0
inf 0


"layer 137:"
-inf 0
1808.78 0
3966.39 2157.61
6124 0
inf 0


"layer 138:"
-inf 0
1808.78 0
3966.39 2157.61
6124 0
inf 0


"layer 139:"
-inf 0
1808.78 0
3966.39 2157.61
6124 0
inf 0


"layer 140:"
-inf 0
1808.78 0
3966.39 2157.61
6124 0
inf 0


"layer 141:"
-inf 0
1808.78 0
3966.39 2157.61
6124 0
inf 0


"layer 142:"
-inf 0
1808.78 0
3966.39 2157.61
6124 0
inf 0


"layer 143:"
-inf 0
1808.78 0
3966.39 2157.61
6124 0
inf 0


"layer 144:"
-inf 0
1808.78 0
3966.39 2157.61
6124 0
inf 0


"layer 145:"
-inf 0
1808.78 0
3966.39 2157.61
6124 0
inf 0


"layer 146:"
-inf 0
1808.78 0
3966.39 2157.61
6124 0
inf 0


"layer 147:"
-inf 0
1808.78 0
3966.39 2157.61
6124 0
inf 0


"layer 148:"
-inf 0
1808.78 0
3966.39 2157.61
6124 0
inf 0


"layer 149:"
-inf 0
1808.78 0
3966.39 2157.61
6124 0
inf 0


"layer 150:"
-inf 0
1808.78 0
3966.39 2157.61
6124 0
inf 0


"layer 151:"
-inf 0
1808.78 0
3966.39 2157.61
6124 0
inf 0


"layer 152:"
-inf 0
1808.78 0
3966.39 2157.61
6124 0
inf 0


"layer 153:"
-inf 0
1808.78 0
3966.39 2157.61
6124 0
inf 0


"layer 154:"
-inf 0
1810.19 0
3967.1 2156.9
6124 0
inf 0


"layer 155:"
-inf 0
1810.19 0
3967.1 2156.9
6124 0
inf 0


"layer 156:"
-inf 0
1810.19 0
3967.1 2156.9
6124 0
inf 0


"layer 157:"
-inf 0
1810.19 0
3967.1 2156.9
6124 0
inf 0


"layer 158:"
-inf 0
1810.19 0
3967.1 2156.9
6124 0
inf 0


"layer 159:"
-inf 0
1810.19 0
3967.1 2156.9
6124 0
inf 0


"layer 160:"
-inf 0
1810.19 0
3967.1 2156.9
6124 0
inf 0


"layer 161:"
-inf 0
1810.19 0
3967.1 2156.9
6124 0
inf 0


"layer 162:"
-inf 0
1810.19 0
3967.1 2156.9
6124 0
inf 0


"layer 163:"
-inf 0
1810.19 0
3967.1 2156.9
6124 0
inf 0


"layer 164:"
-inf 0
1810.19 0
3967.1 2156.9
6124 0
inf 0


"layer 165:"
-inf 0
1810.19 0
3967.1 2156.9
6124 0
inf 0


"layer 166:"
-inf 0
1810.19 0
3967.1 2156.9
6124 0
inf 0


"layer 167:"
-inf 0
1810.19 0
3967.1 2156.9
6124 0
inf 0


"layer 168:"
-inf 0
1810.19 0
3967.1 2156.9
6124 0
inf 0


"layer 169:"
-inf 0
1811.61 0
3967.8 2156.2
6124 0
inf 0


"layer 170:"
-inf 0
1811.61 0
3967.8 2156.2
6124 0
inf 0


"layer 171:"
-inf 0
1811.61 0
3967.8 2156.2
6124 0
inf 0


"layer 172:"
-inf 0
1811.61 0
3967.8 2156.2
6124 0
inf 0


"layer 173:"
-inf 0
1811.61 0
3967.8 2156.2
6124 0
inf 0


"layer 174:"
-inf 0
1811.61 0
3967.8 2156.2
6124 0
inf 0


"layer 175:"
-inf 0
1811.61 0
3967.8 2156.2
6124 0
inf 0


"layer 176:"
-inf 0
1811.61 0
3967.8 2156.2
6124 0
inf 0


"layer 177:"
-inf 0
1811.61 0
3967.8 2156.2
6124 0
inf 0


"layer 178:"
-inf 0
1811.61 0
3967.8 2156.2
6124 0
inf 0


"layer 179:"
-inf 0
1811.61 0
3967.8 2156.2
6124 0
inf 0


"layer 180:"
-inf 0
1813.02 0
3968.51 2155.49
6124 0
inf 0


"layer 181:"
-inf 0
1813.02 0
3968.51 2155.49
6124 0
inf 0


"layer 182:"
-inf 0
1813.02 0
3968.51 2155.49
6124 0
inf 0


"layer 183:"
-inf 0
1813.02 0
3968.51 2155.49
6124 0
inf 0


"layer 184:"
-inf 0
1814.44 0
3969.22 2154.78
6124 0
inf 0


"layer 185:"
-inf 0
1814.44 0
3969.22 2154.78
6124 0
inf 0


"layer 186:"
-inf 0
1814.44 0
3969.22 2154.78
6124 0
inf 0


"layer 187:"
-inf 0
1814.44 0
3969.22 2154.78
6124 0
inf 0


"layer 188:"
-inf 0
1814.44 0
3969.22 2154.78
6124 0
inf 0


"layer 189:"
-inf 0
1814.44 0
3969.22 2154.78
6124 0
inf 0


"layer 190:"
-inf 0
1814.44 0
3969.22 2154.78
6124 0
inf 0


"layer 191:"
-inf 0
1814.44 0
3969.22 2154.78
6124 0
inf 0


"layer 192:"
-inf 0
1815.85 0
3969.93 2154.07
6124 0
inf 0


"layer 193:"
-inf 0
1817.26 0
3970.63 2153.37
6124 0
inf 0


"layer 194:"
-inf 0
1817.26 0
3970.63 2153.37
6124 0
inf 0


"layer 195:"
-inf 0
1817.26 0
3970.63 2153.37
6124 0
inf 0


"layer 196:"
-inf 0
1820.09 0
3972.05 2151.95
6124 0
inf 0


"layer 197:"
-inf 0
1820.09 0
3972.05 2151.95
6124 0
inf 0


"layer 198:"
-inf 0
1821.51 0
3972.75 2151.25
6124 0
inf 0


"layer 199:"
-inf 0
1822.92 0
3973.46 2150.54
6124 0
inf 0


"layer 200:"
-inf 0
1824.34 0
3974.17 2149.83
6124 0
inf 0


"layer 201:"
-inf 0
2090.21 0
4107.1 2016.9
6124 0
inf 0


