# persistence landscape
# X Y
"layer 0:"
-inf 0
8.48528 0
3066.24 3057.76
6124 0
inf 0


"layer 1:"
-inf 0
12.7279 0
3068.36 3055.64
6124 0
inf 0


"layer 2:"
-inf 0
12.7279 0
3068.36 3055.64
6124 0
inf 0


"layer 3:"
-inf 0
14.1421 0
3069.07 3054.93
6124 0
inf 0


"layer 4:"
-inf 0
14.1421 0
3069.07 3054.93
6124 0
inf 0


"layer 5:"
-inf 0
16.9706 0
3070.49 3053.51
6124 0
inf 0


"layer 6:"
-inf 0
16.9706 0
3070.49 3053.51
6124 0
inf 0


"layer 7:"
-inf 0
16.9706 0
3070.49 3053.51
6124 0
inf 0


"layer 8:"
-inf 0
16.9706 0
3070.49 3053.51
6124 0
inf 0


"layer 9:"
-inf 0
16.9706 0
3070.49 3053.51
6124 0
inf 0


"layer 10:"
-inf 0
16.9706 0
3070.49 3053.51
6124 0
inf 0


"layer 11:"
-inf 0
16.9706 0
3070.49 3053.51
6124 0
inf 0


"layer 12:"
-inf 0
16.9706 0
3070.49 3053.51
6124 0
inf 0


"layer 13:"
-inf 0
16.9706 0
3070.49 3053.51
6124 0
inf 0


"layer 14:"
-inf 0
18.3848 0
3071.19 3052.81
6124 0
inf 0


"layer 15:"
-inf 0
18.3848 0
3071.19 3052.81
6124 0
inf 0


"layer 16:"
-inf 0
18.3848 0
3071.19 3052.81
6124 0
inf 0


"layer 17:"
-inf 0
18.3848 0
3071.19 3052.81
6124 0
inf 0


"layer 18:"
-inf 0
18.3848 0
3071.19 3052.81
6124 0
inf 0


"layer 19:"
-inf 0
18.3848 0
3071.19 3052.81
6124 0
inf 0


"layer 20:"
-inf 0
18.3848 0
3071.19 3052.81
6124 0
inf 0


"layer 21:"
-inf 0
18.3848 0
3071.19 3052.81
6124 0
inf 0


"layer 22:"
-inf 0
19.799 0
3071.9 3052.1
6124 0
inf 0


"layer 23:"
-inf 0
19.799 0
3071.9 3052.1
6124 0
inf 0


"layer 24:"
-inf 0
19.799 0
3071.9 3052.1
6124 0
inf 0


"layer 25:"
-inf 0
19.799 0
3071.9 3052.1
6124 0
inf 0


"layer 26:"
-inf 0
19.799 0
3071.9 3052.1
6124 0
inf 0


"layer 27:"
-inf 0
19.799 0
3071.9 3052.1
6124 0
inf 0


"layer 28:"
-inf 0
19.799 0
3071.9 3052.1
6124 0
inf 0


"layer 29:"
-inf 0
21.2132 0
3072.61 3051.39
6124 0
inf 0


"layer 30:"
-inf 0
21.2132 0
3072.61 3051.39
6124 0
inf 0


"layer 31:"
-inf 0
21.2132 0
3072.61 3051.39
6124 0
inf 0


"layer 32:"
-inf 0
21.2132 0
3072.61 3051.39
6124 0
inf 0


"layer 33:"
-inf 0
21.2132 0
3072.61 3051.39
6124 0
inf 0


"layer 34:"
-inf 0
21.2132 0
3072.61 3051.39
6124 0
inf 0


"layer 35:"
-inf 0
21.2132 0
3072.61 3051.39
6124 0
inf 0


"layer 36:"
-inf 0
21.2132 0
3072.61 3051.39
6124 0
inf 0


"layer 37:"
-inf 0
22.6274 0
3073.31 3050.69
6124 0
inf 0


"layer 38:"
-inf 0
22.6274 0
3073.31 3050.69
6124 0
inf 0


"layer 39:"
-inf 0
22.6274 0
3073.31 3050.69
6124 0
inf 0


"layer 40:"
-inf 0
22.6274 0
3073.31 3050.69
6124 0
inf 0


"layer 41:"
-inf 0
22.6274 0
3073.31 3050.69
6124 0
inf 0


"layer 42:"
-inf 0
22.6274 0
3073.31 3050.69
6124 0
inf 0


"layer 43:"
-inf 0
22.6274 0
3073.31 3050.69
6124 0
inf 0


"layer 44:"
-inf 0
24.0416 0
3074.02 3049.98
6124 0
inf 0


"layer 45:"
-inf 0
24.0416 0
3074.02 3049.98
6124 0
inf 0


"layer 46:"
-inf 0
24.0416 0
3074.02 3049.98
6124 0
inf 0


"layer 47:"
-inf 0
24.0416 0
3074.02 3049.98
6124 0
inf 0


"layer 48:"
-inf 0
24.0416 0
3074.02 3049.98
6124 0
inf 0


"layer 49:"
-inf 0
24.0416 0
3074.02 3049.98
6124 0
inf 0


"layer 50:"
-inf 0
24.0416 0
3074.02 3049.98
6124 0
inf 0


"layer 51:"
-inf 0
24.0416 0
3074.02 3049.98
6124 0
inf 0


"layer 52:"
-inf 0
24.0416 0
3074.02 3049.98
6124 0
inf 0


"layer 53:"
-inf 0
24.0416 0
3074.02 3049.98
6124 0
inf 0


"layer 54:"
-inf 0
25.4558 0
3074.73 3049.27
6124 0
inf 0


"layer 55:"
-inf 0
25.4558 0
3074.73 3049.27
6124 0
inf 0


"layer 56:"
-inf 0
25.4558 0
3074.73 3049.27
6124 0
inf 0


"layer 57:"
-inf 0
25.4558 0
3074.73 3049.27
6124 0
inf 0


"layer 58:"
-inf 0
25.4558 0
3074.73 3049.27
6124 0
inf 0


"layer 59:"
-inf 0
25.4558 0
3074.73 3049.27
6124 0
inf 0


"layer 60:"
-inf 0
25.4558 0
3074.73 3049.27
6124 0
inf 0


"layer 61:"
-inf 0
25.4558 0
3074.73 3049.27
6124 0
inf 0


"layer 62:"
-inf 0
26.8701 0
3075.44 3048.56
6124 0
inf 0


"layer 63:"
-inf 0
26.8701 0
3075.44 3048.56
6124 0
inf 0


"layer 64:"
-inf 0
26.8701 0
3075.44 3048.56
6124 0
inf 0


"layer 65:"
-inf 0
26.8701 0
3075.44 3048.56
6124 0
inf 0


"layer 66:"
-inf 0
26.8701 0
3075.44 3048.56
6124 0
inf 0


"layer 67:"
-inf 0
26.8701 0
3075.44 3048.56
6124 0
inf 0


"layer 68:"
-inf 0
26.8701 0
3075.44 3048.56
6124 0
inf 0


"layer 69:"
-inf 0
26.8701 0
3075.44 3048.56
6124 0
inf 0


"layer 70:"
-inf 0
26.8701 0
3075.44 3048.56
6124 0
inf 0


"layer 71:"
-inf 0
26.8701 0
3075.44 3048.56
6124 0
inf 0


"layer 72:"
-inf 0
28.2843 0
3076.14 3047.86
6124 0
inf 0


"layer 73:"
-inf 0
28.2843 0
3076.14 3047.86
6124 0
inf 0


"layer 74:"
-inf 0
28.2843 0
3076.14 3047.86
6124 0
inf 0


"layer 75:"
-inf 0
28.2843 0
3076.14 3047.86
6124 0
inf 0


"layer 76:"
-inf 0
28.2843 0
3076.14 3047.86
6124 0
inf 0


"layer 77:"
-inf 0
28.2843 0
3076.14 3047.86
6124 0
inf 0


"layer 78:"
-inf 0
28.2843 0
3076.14 3047.86
6124 0
inf 0


"layer 79:"
-inf 0
28.2843 0
3076.14 3047.86
6124 0
inf 0


"layer 80:"
-inf 0
28.2843 0
3076.14 3047.86
6124 0
inf 0


"layer 81:"
-inf 0
29.6985 0
3076.85 3047.15
6124 0
inf 0


"layer 82:"
-inf 0
29.6985 0
3076.85 3047.15
6124 0
inf 0


"layer 83:"
-inf 0
29.6985 0
3076.85 3047.15
6124 0
inf 0


"layer 84:"
-inf 0
29.6985 0
3076.85 3047.15
6124 0
inf 0


"layer 85:"
-inf 0
29.6985 0
3076.85 3047.15
6124 0
inf 0


"layer 86:"
-inf 0
29.6985 0
3076.85 3047.15
6124 0
inf 0


"layer 87:"
-inf 0
29.6985 0
3076.85 3047.15
6124 0
inf 0


"layer 88:"
-inf 0
29.6985 0
3076.85 3047.15
6124 0
inf 0


"layer 89:"
-inf 0
29.6985 0
3076.85 3047.15
6124 0
inf 0


"layer 90:"
-inf 0
29.6985 0
3076.85 3047.15
6124 0
inf 0


"layer 91:"
-inf 0
29.6985 0
3076.85 3047.15
6124 0
inf 0


"layer 92:"
-inf 0
29.6985 0
3076.85 3047.15
6124 0
inf 0


"layer 93:"
-inf 0
29.6985 0
3076.85 3047.15
6124 0
inf 0


"layer 94:"
-inf 0
31.1127 0
3077.56 3046.44
6124 0
inf 0


"layer 95:"
-inf 0
31.1127 0
3077.56 3046.44
6124 0
inf 0


"layer 96:"
-inf 0
31.1127 0
3077.56 3046.44
6124 0
inf 0


"layer 97:"
-inf 0
31.1127 0
3077.56 3046.44
6124 0
inf 0


"layer 98:"
-inf 0
31.1127 0
3077.56 3046.44
6124 0
inf 0


"layer 99:"
-inf 0
31.1127 0
3077.56 3046.44
6124 0
inf 0


"layer 100:"
-inf 0
31.1127 0
3077.56 3046.44
6124 0
inf 0


"layer 101:"
-inf 0
31.1127 0
3077.56 3046.44
6124 0
inf 0


"layer 102:"
-inf 0
31.1127 0
3077.56 3046.44
6124 0
inf 0


"layer 103:"
-inf 0
31.1127 0
3077.56 3046.44
6124 0
inf 0


"layer 104:"
-inf 0
31.1127 0
3077.56 3046.44
6124 0
inf 0


"layer 105:"
-inf 0
31.1127 0
3077.56 3046.44
6124 0
inf 0


"layer 106:"
-inf 0
31.1127 0
3077.56 3046.44
6124 0
inf 0


"layer 107:"
-inf 0
31.1127 0
3077.56 3046.44
6124 0
inf 0


"layer 108:"
-inf 0
32.5269 0
3078.26 3045.74
6124 0
inf 0


"layer 109:"
-inf 0
32.5269 0
3078.26 3045.74
6124 0
inf 0


"layer 110:"
-inf 0
32.5269 0
3078.26 3045.74
6124 0
inf 0


"layer 111:"
-inf 0
32.5269 0
3078.26 3045.74
6124 0
inf 0


"layer 112:"
-inf 0
32.5269 0
3078.26 3045.74
6124 0
inf 0


"layer 113:"
-inf 0
32.5269 0
3078.26 3045.74
6124 0
inf 0


"layer 114:"
-inf 0
32.5269 0
3078.26 3045.74
6124 0
inf 0


"layer 115:"
-inf 0
32.5269 0
3078.26 3045.74
6124 0
inf 0


"layer 116:"
-inf 0
33.9411 0
3078.97 3045.03
6124 0
inf 0


"layer 117:"
-inf 0
33.9411 0
3078.97 3045.03
6124 0
inf 0


"layer 118:"
-inf 0
33.9411 0
3078.97 3045.03
6124 0
inf 0


"layer 119:"
-inf 0
33.9411 0
3078.97 3045.03
6124 0
inf 0


"layer 120:"
-inf 0
33.9411 0
3078.97 3045.03
6124 0
inf 0


"layer 121:"
-inf 0
33.9411 0
3078.97 3045.03
6124 0
inf 0


"layer 122:"
-inf 0
33.9411 0
3078.97 3045.03
6124 0
inf 0


"layer 123:"
-inf 0
33.9411 0
3078.97 3045.03
6124 0
inf 0


"layer 124:"
-inf 0
33.9411 0
3078.97 3045.03
6124 0
inf 0


"layer 125:"
-inf 0
33.9411 0
3078.97 3045.03
6124 0
inf 0


"layer 126:"
-inf 0
35.3553 0
3079.68 3044.32
6124 0
inf 0


"layer 127:"
-inf 0
35.3553 0
3079.68 3044.32
6124 0
inf 0


"layer 128:"
-inf 0
35.3553 0
3079.68 3044.32
6124 0
inf 0


"layer 129:"
-inf 0
35.3553 0
3079.68 3044.32
6124 0
inf 0


"layer 130:"
-inf 0
35.3553 0
3079.68 3044.32
6124 0
inf 0


"layer 131:"
-inf 0
35.3553 0
3079.68 3044.32
6124 0
inf 0


"layer 132:"
-inf 0
35.3553 0
3079.68 3044.32
6124 0
inf 0


"layer 133:"
-inf 0
36.7696 0
3080.38 3043.62
6124 0
inf 0


"layer 134:"
-inf 0
36.7696 0
3080.38 3043.62
6124 0
inf 0


"layer 135:"
-inf 0
36.7696 0
3080.38 3043.62
6124 0
inf 0


"layer 136:"
-inf 0
36.7696 0
3080.38 3043.62
6124 0
inf 0


"layer 137:"
-inf 0
36.7696 0
3080.38 3043.62
6124 0
inf 0


"layer 138:"
-inf 0
38.1838 0
3081.09 3042.91
6124 0
inf 0


"layer 139:"
-inf 0
38.1838 0
3081.09 3042.91
6124 0
inf 0


"layer 140:"
-inf 0
38.1838 0
3081.09 3042.91
6124 0
inf 0


"layer 141:"
-inf 0
38.1838 0
3081.09 3042.91
6124 0
inf 0


"layer 142:"
-inf 0
39.598 0
3081.8 3042.2
6124 0
inf 0


"layer 143:"
-inf 0
39.598 0
3081.8 3042.2
6124 0
inf 0


"layer 144:"
-inf 0
39.598 0
3081.8 3042.2
6124 0
inf 0


"layer 145:"
-inf 0
41.0122 0
3082.51 3041.49
6124 0
inf 0


"layer 146:"
-inf 0
41.0122 0
3082.51 3041.49
6124 0
inf 0


"layer 147:"
-inf 0
41.0122 0
3082.51 3041.49
6124 0
inf 0


"layer 148:"
-inf 0
41.0122 0
3082.51 3041.49
6124 0
inf 0


"layer 149:"
-inf 0
42.4264 0
3083.21 3040.79
6124 0
inf 0


"layer 150:"
-inf 0
42.4264 0
3083.21 3040.79
6124 0
inf 0


"layer 151:"
-inf 0
42.4264 0
3083.21 3040.79
6124 0
inf 0


"layer 152:"
-inf 0
45.2548 0
3084.63 3039.37
6124 0
inf 0


"layer 153:"
-inf 0
45.2548 0
3084.63 3039.37
6124 0
inf 0


"layer 154:"
-inf 0
45.2548 0
3084.63 3039.37
6124 0
inf 0


"layer 155:"
-inf 0
45.2548 0
3084.63 3039.37
6124 0
inf 0


"layer 156:"
-inf 0
45.2548 0
3084.63 3039.37
6124 0
inf 0


"layer 157:"
-inf 0
45.2548 0
3084.63 3039.37
6124 0
inf 0


"layer 158:"
-inf 0
46.669 0
3085.33 3038.67
6124 0
inf 0


"layer 159:"
-inf 0
46.669 0
3085.33 3038.67
6124 0
inf 0


"layer 160:"
-inf 0
48.0833 0
3086.04 3037.96
6124 0
inf 0


"layer 161:"
-inf 0
48.0833 0
3086.04 3037.96
6124 0
inf 0


"layer 162:"
-inf 0
49.4975 0
3086.75 3037.25
6124 0
inf 0


"layer 163:"
-inf 0
49.4975 0
3086.75 3037.25
6124 0
inf 0


"layer 164:"
-inf 0
50.9117 0
3087.46 3036.54
6124 0
inf 0


"layer 165:"
-inf 0
52.3259 0
3088.16 3035.84
6124 0
inf 0


"layer 166:"
-inf 0
53.7401 0
3088.87 3035.13
6124 0
inf 0


"layer 167:"
-inf 0
55.1543 0
3089.58 3034.42
6124 0
inf 0


"layer 168:"
-inf 0
63.6396 0
3093.82 3030.18
6124 0
inf 0


"layer 169:"
-inf 0
63.6396 0
3093.82 3030.18
6124 0
inf 0


"layer 170:"
-inf 0
862.67 0
3493.34 2630.66
6124 0
inf 0


"layer 171:"
-inf 0
862.67 0
3493.34 2630.66
6124 0
inf 0


"layer 172:"
-inf 0
862.67 0
3493.34 2630.66
6124 0
inf 0


"layer 173:"
-inf 0
862.67 0
3493.34 2630.66
6124 0
inf 0


"layer 174:"
-inf 0
862.67 0
3493.34 2630.66
6124 0
inf 0


"layer 175:"
-inf 0
862.67 0
3493.34 2630.66
6124 0
inf 0


"layer 176:"
-inf 0
862.67 0
3493.34 2630.66
6124 0
inf 0


"layer 177:"
-inf 0
862.67 0
3493.34 2630.66
6124 0
inf 0


"layer 178:"
-inf 0
862.67 0
3493.34 2630.66
6124 0
inf 0


"layer 179:"
-inf 0
862.67 0
3493.34 2630.66
6124 0
inf 0


"layer 180:"
-inf 0
862.67 0
3493.34 2630.66
6124 0
inf 0


"layer 181:"
-inf 0
862.67 0
3493.34 2630.66
6124 0
inf 0


"layer 182:"
-inf 0
862.67 0
3493.34 2630.66
6124 0
inf 0


"layer 183:"
-inf 0
862.67 0
3493.34 2630.66
6124 0
inf 0


"layer 184:"
-inf 0
862.67 0
3493.34 2630.66
6124 0
inf 0


"layer 185:"
-inf 0
862.67 0
3493.34 2630.66
6124 0
inf 0


"layer 186:"
-inf 0
862.67 0
3493.34 2630.66
6124 0
inf 0


"layer 187:"
-inf 0
862.67 0
3493.34 2630.66
6124 0
inf 0


"layer 188:"
-inf 0
862.67 0
3493.34 2630.66
6124 0
inf 0


"layer 189:"
-inf 0
862.67 0
3493.34 2630.66
6124 0
inf 0


"layer 190:"
-inf 0
862.67 0
3493.34 2630.66
6124 0
inf 0


"layer 191:"
-inf 0
862.67 0
3493.34 2630.66
6124 0
inf 0


"layer 192:"
-inf 0
862.67 0
3493.34 2630.66
6124 0
inf 0


"layer 193:"
-inf 0
862.67 0
3493.34 2630.66
6124 0
inf 0


"layer 194:"
-inf 0
862.67 0
3493.34 2630.66
6124 0
inf 0


"layer 195:"
-inf 0
862.67 0
3493.34 2630.66
6124 0
inf 0


"layer 196:"
-inf 0
862.67 0
3493.34 2630.66
6124 0
inf 0


"layer 197:"
-inf 0
862.67 0
3493.34 2630.66
6124 0
inf 0


"layer 198:"
-inf 0
862.67 0
3493.34 2630.66
6124 0
inf 0


"layer 199:"
-inf 0
862.67 0
3493.34 2630.66
6124 0
inf 0


"layer 200:"
-inf 0
862.67 0
3493.34 2630.66
6124 0
inf 0


"layer 201:"
-inf 0
862.67 0
3493.34 2630.66
6124 0
inf 0


"layer 202:"
-inf 0
862.67 0
3493.34 2630.66
6124 0
inf 0


"layer 203:"
-inf 0
862.67 0
3493.34 2630.66
6124 0
inf 0


"layer 204:"
-inf 0
862.67 0
3493.34 2630.66
6124 0
inf 0


"layer 205:"
-inf 0
862.67 0
3493.34 2630.66
6124 0
inf 0


"layer 206:"
-inf 0
862.67 0
3493.34 2630.66
6124 0
inf 0


"layer 207:"
-inf 0
862.67 0
3493.34 2630.66
6124 0
inf 0


"layer 208:"
-inf 0
862.67 0
3493.34 2630.66
6124 0
inf 0


"layer 209:"
-inf 0
862.67 0
3493.34 2630.66
6124 0
inf 0


"layer 210:"
-inf 0
862.67 0
3493.34 2630.66
6124 0
inf 0


"layer 211:"
-inf 0
862.67 0
3493.34 2630.66
6124 0
inf 0


"layer 212:"
-inf 0
862.67 0
3493.34 2630.66
6124 0
inf 0


"layer 213:"
-inf 0
862.67 0
3493.34 2630.66
6124 0
inf 0


"layer 214:"
-inf 0
862.67 0
3493.34 2630.66
6124 0
inf 0


"layer 215:"
-inf 0
862.67 0
3493.34 2630.66
6124 0
inf 0


"layer 216:"
-inf 0
862.67 0
3493.34 2630.66
6124 0
inf 0


"layer 217:"
-inf 0
862.67 0
3493.34 2630.66
6124 0
inf 0


"layer 218:"
-inf 0
864.084 0
3494.04 2629.96
6124 0
inf 0


"layer 219:"
-inf 0
864.084 0
3494.04 2629.96
6124 0
inf 0


"layer 220:"
-inf 0
864.084 0
3494.04 2629.96
6124 0
inf 0


"layer 221:"
-inf 0
864.084 0
3494.04 2629.96
6124 0
inf 0


"layer 222:"
-inf 0
864.084 0
3494.04 2629.96
6124 0
inf 0


"layer 223:"
-inf 0
864.084 0
3494.04 2629.96
6124 0
inf 0


"layer 224:"
-inf 0
864.084 0
3494.04 2629.96
6124 0
inf 0


"layer 225:"
-inf 0
864.084 0
3494.04 2629.96
6124 0
inf 0


"layer 226:"
-inf 0
864.084 0
3494.04 2629.96
6124 0
inf 0


"layer 227:"
-inf 0
864.084 0
3494.04 2629.96
6124 0
inf 0


"layer 228:"
-inf 0
864.084 0
3494.04 2629.96
6124 0
inf 0


"layer 229:"
-inf 0
864.084 0
3494.04 2629.96
6124 0
inf 0


"layer 230:"
-inf 0
864.084 0
3494.04 2629.96
6124 0
inf 0


"layer 231:"
-inf 0
864.084 0
3494.04 2629.96
6124 0
inf 0


"layer 232:"
-inf 0
864.084 0
3494.04 2629.96
6124 0
inf 0


"layer 233:"
-inf 0
864.084 0
3494.04 2629.96
6124 0
inf 0


"layer 234:"
-inf 0
864.084 0
3494.04 2629.96
6124 0
inf 0


"layer 235:"
-inf 0
864.084 0
3494.04 2629.96
6124 0
inf 0


"layer 236:"
-inf 0
864.084 0
3494.04 2629.96
6124 0
inf 0


"layer 237:"
-inf 0
864.084 0
3494.04 2629.96
6124 0
inf 0


"layer 238:"
-inf 0
864.084 0
3494.04 2629.96
6124 0
inf 0


"layer 239:"
-inf 0
864.084 0
3494.04 2629.96
6124 0
inf 0


"layer 240:"
-inf 0
864.084 0
3494.04 2629.96
6124 0
inf 0


"layer 241:"
-inf 0
864.084 0
3494.04 2629.96
6124 0
inf 0


"layer 242:"
-inf 0
864.084 0
3494.04 2629.96
6124 0
inf 0


"layer 243:"
-inf 0
864.084 0
3494.04 2629.96
6124 0
inf 0


"layer 244:"
-inf 0
864.084 0
3494.04 2629.96
6124 0
inf 0


"layer 245:"
-inf 0
864.084 0
3494.04 2629.96
6124 0
inf 0


"layer 246:"
-inf 0
864.084 0
3494.04 2629.96
6124 0
inf 0


"layer 247:"
-inf 0
864.084 0
3494.04 2629.96
6124 0
inf 0


"layer 248:"
-inf 0
864.084 0
3494.04 2629.96
6124 0
inf 0


"layer 249:"
-inf 0
864.084 0
3494.04 2629.96
6124 0
inf 0


"layer 250:"
-inf 0
864.084 0
3494.04 2629.96
6124 0
inf 0


"layer 251:"
-inf 0
864.084 0
3494.04 2629.96
6124 0
inf 0


"layer 252:"
-inf 0
864.084 0
3494.04 2629.96
6124 0
inf 0


"layer 253:"
-inf 0
865.499 0
3494.75 2629.25
6124 0
inf 0


"layer 254:"
-inf 0
865.499 0
3494.75 2629.25
6124 0
inf 0


"layer 255:"
-inf 0
865.499 0
3494.75 2629.25
6124 0
inf 0


"layer 256:"
-inf 0
865.499 0
3494.75 2629.25
6124 0
inf 0


"layer 257:"
-inf 0
865.499 0
3494.75 2629.25
6124 0
inf 0


"layer 258:"
-inf 0
865.499 0
3494.75 2629.25
6124 0
inf 0


"layer 259:"
-inf 0
865.499 0
3494.75 2629.25
6124 0
inf 0


"layer 260:"
-inf 0
865.499 0
3494.75 2629.25
6124 0
inf 0


"layer 261:"
-inf 0
865.499 0
3494.75 2629.25
6124 0
inf 0


"layer 262:"
-inf 0
865.499 0
3494.75 2629.25
6124 0
inf 0


"layer 263:"
-inf 0
865.499 0
3494.75 2629.25
6124 0
inf 0


"layer 264:"
-inf 0
865.499 0
3494.75 2629.25
6124 0
inf 0


"layer 265:"
-inf 0
866.913 0
3495.46 2628.54
6124 0
inf 0


"layer 266:"
-inf 0
866.913 0
3495.46 2628.54
6124 0
inf 0


"layer 267:"
-inf 0
866.913 0
3495.46 2628.54
6124 0
inf 0


"layer 268:"
-inf 0
866.913 0
3495.46 2628.54
6124 0
inf 0


"layer 269:"
-inf 0
866.913 0
3495.46 2628.54
6124 0
inf 0


"layer 270:"
-inf 0
866.913 0
3495.46 2628.54
6124 0
inf 0


"layer 271:"
-inf 0
866.913 0
3495.46 2628.54
6124 0
inf 0


"layer 272:"
-inf 0
866.913 0
3495.46 2628.54
6124 0
inf 0


"layer 273:"
-inf 0
866.913 0
3495.46 2628.54
6124 0
inf 0


"layer 274:"
-inf 0
866.913 0
3495.46 2628.54
6124 0
inf 0


"layer 275:"
-inf 0
866.913 0
3495.46 2628.54
6124 0
inf 0


"layer 276:"
-inf 0
866.913 0
3495.46 2628.54
6124 0
inf 0


"layer 277:"
-inf 0
866.913 0
3495.46 2628.54
6124 0
inf 0


"layer 278:"
-inf 0
866.913 0
3495.46 2628.54
6124 0
inf 0


"layer 279:"
-inf 0
868.327 0
3496.16 2627.84
6124 0
inf 0


"layer 280:"
-inf 0
868.327 0
3496.16 2627.84
6124 0
inf 0


"layer 281:"
-inf 0
868.327 0
3496.16 2627.84
6124 0
inf 0


"layer 282:"
-inf 0
868.327 0
3496.16 2627.84
6124 0
inf 0


"layer 283:"
-inf 0
868.327 0
3496.16 2627.84
6124 0
inf 0


"layer 284:"
-inf 0
868.327 0
3496.16 2627.84
6124 0
inf 0


"layer 285:"
-inf 0
868.327 0
3496.16 2627.84
6124 0
inf 0


"layer 286:"
-inf 0
868.327 0
3496.16 2627.84
6124 0
inf 0


"layer 287:"
-inf 0
868.327 0
3496.16 2627.84
6124 0
inf 0


"layer 288:"
-inf 0
868.327 0
3496.16 2627.84
6124 0
inf 0


"layer 289:"
-inf 0
868.327 0
3496.16 2627.84
6124 0
inf 0


"layer 290:"
-inf 0
868.327 0
3496.16 2627.84
6124 0
inf 0


"layer 291:"
-inf 0
868.327 0
3496.16 2627.84
6124 0
inf 0


"layer 292:"
-inf 0
869.741 0
3496.87 2627.13
6124 0
inf 0


"layer 293:"
-inf 0
869.741 0
3496.87 2627.13
6124 0
inf 0


"layer 294:"
-inf 0
869.741 0
3496.87 2627.13
6124 0
inf 0


"layer 295:"
-inf 0
869.741 0
3496.87 2627.13
6124 0
inf 0


"layer 296:"
-inf 0
869.741 0
3496.87 2627.13
6124 0
inf 0


"layer 297:"
-inf 0
869.741 0
3496.87 2627.13
6124 0
inf 0


"layer 298:"
-inf 0
869.741 0
3496.87 2627.13
6124 0
inf 0


"layer 299:"
-inf 0
869.741 0
3496.87 2627.13
6124 0
inf 0


"layer 300:"
-inf 0
869.741 0
3496.87 2627.13
6124 0
inf 0


"layer 301:"
-inf 0
869.741 0
3496.87 2627.13
6124 0
inf 0


"layer 302:"
-inf 0
869.741 0
3496.87 2627.13
6124 0
inf 0


"layer 303:"
-inf 0
871.156 0
3497.58 2626.42
6124 0
inf 0


"layer 304:"
-inf 0
871.156 0
3497.58 2626.42
6124 0
inf 0


"layer 305:"
-inf 0
871.156 0
3497.58 2626.42
6124 0
inf 0


"layer 306:"
-inf 0
871.156 0
3497.58 2626.42
6124 0
inf 0


"layer 307:"
-inf 0
871.156 0
3497.58 2626.42
6124 0
inf 0


"layer 308:"
-inf 0
871.156 0
3497.58 2626.42
6124 0
inf 0


"layer 309:"
-inf 0
871.156 0
3497.58 2626.42
6124 0
inf 0


"layer 310:"
-inf 0
872.57 0
3498.28 2625.72
6124 0
inf 0


"layer 311:"
-inf 0
872.57 0
3498.28 2625.72
6124 0
inf 0


"layer 312:"
-inf 0
872.57 0
3498.28 2625.72
6124 0
inf 0


"layer 313:"
-inf 0
872.57 0
3498.28 2625.72
6124 0
inf 0


"layer 314:"
-inf 0
872.57 0
3498.28 2625.72
6124 0
inf 0


"layer 315:"
-inf 0
873.984 0
3498.99 2625.01
6124 0
inf 0


"layer 316:"
-inf 0
873.984 0
3498.99 2625.01
6124 0
inf 0


"layer 317:"
-inf 0
873.984 0
3498.99 2625.01
6124 0
inf 0


"layer 318:"
-inf 0
873.984 0
3498.99 2625.01
6124 0
inf 0


"layer 319:"
-inf 0
875.398 0
3499.7 2624.3
6124 0
inf 0


"layer 320:"
-inf 0
875.398 0
3499.7 2624.3
6124 0
inf 0


"layer 321:"
-inf 0
876.812 0
3500.41 2623.59
6124 0
inf 0


"layer 322:"
-inf 0
876.812 0
3500.41 2623.59
6124 0
inf 0


"layer 323:"
-inf 0
876.812 0
3500.41 2623.59
6124 0
inf 0


"layer 324:"
-inf 0
878.227 0
3501.11 2622.89
6124 0
inf 0


"layer 325:"
-inf 0
879.641 0
3501.82 2622.18
6124 0
inf 0


"layer 326:"
-inf 0
881.055 0
3502.53 2621.47
6124 0
inf 0


"layer 327:"
-inf 0
882.469 0
3503.23 2620.77
6124 0
inf 0


"layer 328:"
-inf 0
885.298 0
3504.65 2619.35
6124 0
inf 0


"layer 329:"
-inf 0
888.126 0
3506.06 2617.94
6124 0
inf 0


"layer 330:"
-inf 0
889.54 0
3506.77 2617.23
6124 0
inf 0


"layer 331:"
-inf 0
890.955 0
3507.48 2616.52
6124 0
inf 0


"layer 332:"
-inf 0
902.268 0
3513.13 2610.87
6124 0
inf 0


