# persistence landscape
# X Y
"layer 0:"
-inf 0
1.41421 0
3062.71 3061.29
6124 0
inf 0


"layer 1:"
-inf 0
1.41421 0
149.2 147.785
296.985 0
inf 0


"layer 2:"
-inf 0
1.41421 0
148.492 147.078
295.571 0
inf 0


"layer 3:"
-inf 0
1.41421 0
148.492 147.078
295.571 0
inf 0


"layer 4:"
-inf 0
1.41421 0
148.492 147.078
295.571 0
inf 0


"layer 5:"
-inf 0
1.41421 0
147.785 146.371
294.156 0
inf 0


"layer 6:"
-inf 0
1.41421 0
147.785 146.371
294.156 0
inf 0


"layer 7:"
-inf 0
1.41421 0
147.785 146.371
294.156 0
inf 0


"layer 8:"
-inf 0
1.41421 0
147.785 146.371
294.156 0
inf 0


"layer 9:"
-inf 0
1.41421 0
147.785 146.371
294.156 0
inf 0


"layer 10:"
-inf 0
1.41421 0
147.785 146.371
294.156 0
inf 0


"layer 11:"
-inf 0
1.41421 0
147.785 146.371
294.156 0
inf 0


"layer 12:"
-inf 0
1.41421 0
147.785 146.371
294.156 0
inf 0


"layer 13:"
-inf 0
1.41421 0
147.785 146.371
294.156 0
inf 0


"layer 14:"
-inf 0
1.41421 0
147.785 146.371
294.156 0
inf 0


"layer 15:"
-inf 0
1.41421 0
147.785 146.371
294.156 0
inf 0


"layer 16:"
-inf 0
1.41421 0
147.785 146.371
294.156 0
inf 0


"layer 17:"
-inf 0
1.41421 0
147.785 146.371
294.156 0
inf 0


"layer 18:"
-inf 0
1.41421 0
147.785 146.371
294.156 0
inf 0


"layer 19:"
-inf 0
1.41421 0
147.785 146.371
294.156 0
inf 0


"layer 20:"
-inf 0
1.41421 0
147.785 146.371
294.156 0
inf 0


"layer 21:"
-inf 0
1.41421 0
147.785 146.371
294.156 0
inf 0


"layer 22:"
-inf 0
1.41421 0
147.785 146.371
294.156 0
inf 0


"layer 23:"
-inf 0
1.41421 0
147.785 146.371
294.156 0
inf 0


"layer 24:"
-inf 0
1.41421 0
147.785 146.371
294.156 0
inf 0


"layer 25:"
-inf 0
1.41421 0
147.785 146.371
294.156 0
inf 0


"layer 26:"
-inf 0
1.41421 0
147.785 146.371
294.156 0
inf 0


"layer 27:"
-inf 0
1.41421 0
147.785 146.371
294.156 0
inf 0


"layer 28:"
-inf 0
1.41421 0
147.785 146.371
294.156 0
inf 0


"layer 29:"
-inf 0
1.41421 0
147.785 146.371
294.156 0
inf 0


"layer 30:"
-inf 0
1.41421 0
147.785 146.371
294.156 0
inf 0


"layer 31:"
-inf 0
1.41421 0
147.785 146.371
294.156 0
inf 0


"layer 32:"
-inf 0
1.41421 0
147.785 146.371
294.156 0
inf 0


"layer 33:"
-inf 0
1.41421 0
147.785 146.371
294.156 0
inf 0


"layer 34:"
-inf 0
1.41421 0
147.785 146.371
294.156 0
inf 0


"layer 35:"
-inf 0
1.41421 0
147.785 146.371
294.156 0
inf 0


"layer 36:"
-inf 0
1.41421 0
147.785 146.371
294.156 0
inf 0


"layer 37:"
-inf 0
1.41421 0
147.785 146.371
294.156 0
inf 0


"layer 38:"
-inf 0
1.41421 0
147.785 146.371
294.156 0
inf 0


"layer 39:"
-inf 0
1.41421 0
147.785 146.371
294.156 0
inf 0


"layer 40:"
-inf 0
1.41421 0
147.785 146.371
294.156 0
inf 0


"layer 41:"
-inf 0
1.41421 0
147.785 146.371
294.156 0
inf 0


"layer 42:"
-inf 0
1.41421 0
147.785 146.371
294.156 0
inf 0


"layer 43:"
-inf 0
1.41421 0
147.785 146.371
294.156 0
inf 0


"layer 44:"
-inf 0
1.41421 0
147.785 146.371
294.156 0
inf 0


"layer 45:"
-inf 0
1.41421 0
147.785 146.371
294.156 0
inf 0


"layer 46:"
-inf 0
1.41421 0
147.785 146.371
294.156 0
inf 0


"layer 47:"
-inf 0
1.41421 0
147.785 146.371
294.156 0
inf 0


"layer 48:"
-inf 0
1.41421 0
147.785 146.371
294.156 0
inf 0


"layer 49:"
-inf 0
1.41421 0
147.785 146.371
294.156 0
inf 0


"layer 50:"
-inf 0
1.41421 0
147.785 146.371
294.156 0
inf 0


"layer 51:"
-inf 0
1.41421 0
147.785 146.371
294.156 0
inf 0


"layer 52:"
-inf 0
1.41421 0
147.785 146.371
294.156 0
inf 0


"layer 53:"
-inf 0
1.41421 0
147.785 146.371
294.156 0
inf 0


"layer 54:"
-inf 0
1.41421 0
147.785 146.371
294.156 0
inf 0


"layer 55:"
-inf 0
1.41421 0
147.785 146.371
294.156 0
inf 0


"layer 56:"
-inf 0
1.41421 0
147.785 146.371
294.156 0
inf 0


"layer 57:"
-inf 0
1.41421 0
147.785 146.371
294.156 0
inf 0


"layer 58:"
-inf 0
1.41421 0
147.785 146.371
294.156 0
inf 0


"layer 59:"
-inf 0
1.41421 0
147.785 146.371
294.156 0
inf 0


"layer 60:"
-inf 0
1.41421 0
147.785 146.371
294.156 0
inf 0


"layer 61:"
-inf 0
1.41421 0
147.785 146.371
294.156 0
inf 0


"layer 62:"
-inf 0
1.41421 0
147.785 146.371
294.156 0
inf 0


"layer 63:"
-inf 0
1.41421 0
147.785 146.371
294.156 0
inf 0


"layer 64:"
-inf 0
1.41421 0
147.785 146.371
294.156 0
inf 0


"layer 65:"
-inf 0
1.41421 0
147.785 146.371
294.156 0
inf 0


"layer 66:"
-inf 0
1.41421 0
147.785 146.371
294.156 0
inf 0


"layer 67:"
-inf 0
1.41421 0
147.785 146.371
294.156 0
inf 0


"layer 68:"
-inf 0
1.41421 0
147.785 146.371
294.156 0
inf 0


"layer 69:"
-inf 0
1.41421 0
147.785 146.371
294.156 0
inf 0


"layer 70:"
-inf 0
1.41421 0
147.785 146.371
294.156 0
inf 0


"layer 71:"
-inf 0
1.41421 0
147.785 146.371
294.156 0
inf 0


"layer 72:"
-inf 0
1.41421 0
147.785 146.371
294.156 0
inf 0


"layer 73:"
-inf 0
1.41421 0
147.785 146.371
294.156 0
inf 0


"layer 74:"
-inf 0
1.41421 0
147.785 146.371
294.156 0
inf 0


"layer 75:"
-inf 0
1.41421 0
147.785 146.371
294.156 0
inf 0


"layer 76:"
-inf 0
1.41421 0
147.785 146.371
294.156 0
inf 0


"layer 77:"
-inf 0
1.41421 0
147.785 146.371
294.156 0
inf 0


"layer 78:"
-inf 0
1.41421 0
147.785 146.371
294.156 0
inf 0


"layer 79:"
-inf 0
1.41421 0
147.785 146.371
294.156 0
inf 0


"layer 80:"
-inf 0
1.41421 0
147.785 146.371
294.156 0
inf 0


"layer 81:"
-inf 0
1.41421 0
147.785 146.371
294.156 0
inf 0


"layer 82:"
-inf 0
1.41421 0
147.785 146.371
294.156 0
inf 0


"layer 83:"
-inf 0
1.41421 0
147.785 146.371
294.156 0
inf 0


"layer 84:"
-inf 0
1.41421 0
147.785 146.371
294.156 0
inf 0


"layer 85:"
-inf 0
1.41421 0
147.785 146.371
294.156 0
inf 0


"layer 86:"
-inf 0
1.41421 0
147.785 146.371
294.156 0
inf 0


"layer 87:"
-inf 0
1.41421 0
147.785 146.371
294.156 0
inf 0


"layer 88:"
-inf 0
1.41421 0
147.785 146.371
294.156 0
inf 0


"layer 89:"
-inf 0
1.41421 0
147.785 146.371
294.156 0
inf 0


"layer 90:"
-inf 0
1.41421 0
147.785 146.371
294.156 0
inf 0


"layer 91:"
-inf 0
1.41421 0
147.785 146.371
294.156 0
inf 0


"layer 92:"
-inf 0
1.41421 0
147.785 146.371
294.156 0
inf 0


"layer 93:"
-inf 0
1.41421 0
147.785 146.371
294.156 0
inf 0


"layer 94:"
-inf 0
1.41421 0
147.785 146.371
294.156 0
inf 0


"layer 95:"
-inf 0
1.41421 0
147.785 146.371
294.156 0
inf 0


"layer 96:"
-inf 0
1.41421 0
147.785 146.371
294.156 0
inf 0


"layer 97:"
-inf 0
1.41421 0
147.785 146.371
294.156 0
inf 0


"layer 98:"
-inf 0
1.41421 0
147.785 146.371
294.156 0
inf 0


"layer 99:"
-inf 0
1.41421 0
147.785 146.371
294.156 0
inf 0


"layer 100:"
-inf 0
1.41421 0
147.785 146.371
294.156 0
inf 0


"layer 101:"
-inf 0
1.41421 0
147.785 146.371
294.156 0
inf 0


"layer 102:"
-inf 0
1.41421 0
105.359 103.945
209.304 0
292.742 0
293.449 0.707107
294.156 0
inf 0


"layer 103:"
-inf 0
1.41421 0
104.652 103.238
207.889 0
inf 0


"layer 104:"
-inf 0
1.41421 0
103.945 102.53
206.475 0
inf 0


"layer 105:"
-inf 0
1.41421 0
103.945 102.53
206.475 0
inf 0


"layer 106:"
-inf 0
1.41421 0
103.238 101.823
205.061 0
inf 0


"layer 107:"
-inf 0
1.41421 0
103.238 101.823
205.061 0
inf 0


"layer 108:"
-inf 0
1.41421 0
103.238 101.823
205.061 0
inf 0


"layer 109:"
-inf 0
1.41421 0
103.238 101.823
205.061 0
inf 0


"layer 110:"
-inf 0
1.41421 0
103.238 101.823
205.061 0
inf 0


"layer 111:"
-inf 0
1.41421 0
102.53 101.116
103.238 100.409
103.945 101.116
205.061 0
inf 0


"layer 112:"
-inf 0
1.41421 0
102.53 101.116
203.647 0
inf 0


"layer 113:"
-inf 0
1.41421 0
102.53 101.116
203.647 0
inf 0


"layer 114:"
-inf 0
1.41421 0
102.53 101.116
203.647 0
inf 0


"layer 115:"
-inf 0
1.41421 0
102.53 101.116
203.647 0
inf 0


"layer 116:"
-inf 0
1.41421 0
102.53 101.116
203.647 0
inf 0


"layer 117:"
-inf 0
1.41421 0
102.53 101.116
203.647 0
inf 0


"layer 118:"
-inf 0
1.41421 0
102.53 101.116
203.647 0
inf 0


"layer 119:"
-inf 0
1.41421 0
101.823 100.409
102.53 99.7021
103.238 100.409
203.647 0
inf 0


"layer 120:"
-inf 0
1.41421 0
101.823 100.409
102.53 99.7021
103.238 100.409
203.647 0
inf 0


"layer 121:"
-inf 0
1.41421 0
101.823 100.409
102.53 99.7021
103.238 100.409
203.647 0
inf 0


"layer 122:"
-inf 0
1.41421 0
101.823 100.409
102.53 99.7021
103.238 100.409
203.647 0
inf 0


"layer 123:"
-inf 0
1.41421 0
101.823 100.409
102.53 99.7021
103.238 100.409
203.647 0
inf 0


"layer 124:"
-inf 0
1.41421 0
101.823 100.409
102.53 99.7021
103.238 100.409
203.647 0
inf 0


"layer 125:"
-inf 0
1.41421 0
101.823 100.409
102.53 99.7021
103.238 100.409
203.647 0
inf 0


"layer 126:"
-inf 0
1.41421 0
101.823 100.409
102.53 99.7021
103.238 100.409
203.647 0
inf 0


"layer 127:"
-inf 0
1.41421 0
101.823 100.409
102.53 99.7021
103.238 100.409
203.647 0
inf 0


"layer 128:"
-inf 0
1.41421 0
101.823 100.409
102.53 99.7021
103.238 100.409
203.647 0
inf 0


"layer 129:"
-inf 0
1.41421 0
101.823 100.409
102.53 99.7021
103.238 100.409
203.647 0
inf 0


"layer 130:"
-inf 0
1.41421 0
101.823 100.409
102.53 99.7021
103.238 100.409
203.647 0
inf 0


"layer 131:"
-inf 0
1.41421 0
101.823 100.409
102.53 99.7021
103.238 100.409
203.647 0
inf 0


"layer 132:"
-inf 0
1.41421 0
101.823 100.409
102.53 99.7021
103.238 100.409
203.647 0
inf 0


"layer 133:"
-inf 0
1.41421 0
101.823 100.409
102.53 99.7021
103.238 100.409
203.647 0
inf 0


"layer 134:"
-inf 0
1.41421 0
101.823 100.409
102.53 99.7021
103.238 100.409
203.647 0
inf 0


"layer 135:"
-inf 0
1.41421 0
101.823 100.409
102.53 99.7021
103.238 100.409
203.647 0
inf 0


"layer 136:"
-inf 0
1.41421 0
101.823 100.409
102.53 99.7021
103.238 100.409
203.647 0
inf 0


"layer 137:"
-inf 0
1.41421 0
101.823 100.409
102.53 99.7021
103.238 100.409
203.647 0
inf 0


"layer 138:"
-inf 0
1.41421 0
101.823 100.409
102.53 99.7021
103.238 100.409
203.647 0
inf 0


"layer 139:"
-inf 0
1.41421 0
101.823 100.409
102.53 99.7021
103.238 100.409
203.647 0
inf 0


"layer 140:"
-inf 0
1.41421 0
101.823 100.409
102.53 99.7021
103.238 100.409
203.647 0
inf 0


"layer 141:"
-inf 0
1.41421 0
101.823 100.409
102.53 99.7021
103.238 100.409
203.647 0
inf 0


"layer 142:"
-inf 0
1.41421 0
101.823 100.409
102.53 99.7021
103.238 100.409
203.647 0
inf 0


"layer 143:"
-inf 0
1.41421 0
101.823 100.409
102.53 99.7021
103.238 100.409
203.647 0
inf 0


"layer 144:"
-inf 0
1.41421 0
101.823 100.409
102.53 99.7021
103.238 100.409
203.647 0
inf 0


"layer 145:"
-inf 0
1.41421 0
101.823 100.409
102.53 99.7021
103.238 100.409
203.647 0
inf 0


"layer 146:"
-inf 0
1.41421 0
101.823 100.409
102.53 99.7021
103.238 100.409
203.647 0
inf 0


"layer 147:"
-inf 0
1.41421 0
101.823 100.409
102.53 99.7021
103.238 100.409
203.647 0
inf 0


"layer 148:"
-inf 0
1.41421 0
101.823 100.409
102.53 99.7021
103.238 100.409
203.647 0
inf 0


"layer 149:"
-inf 0
1.41421 0
10.6066 9.19239
11.3137 8.48528
103.238 100.409
203.647 0
inf 0


"layer 150:"
-inf 0
1.41421 0
10.6066 9.19239
11.3137 8.48528
103.238 100.409
203.647 0
inf 0


"layer 151:"
-inf 0
1.41421 0
9.89949 8.48528
10.6066 7.77817
103.238 100.409
203.647 0
inf 0


"layer 152:"
-inf 0
1.41421 0
9.19239 7.77817
9.89949 7.07107
103.238 100.409
203.647 0
inf 0


"layer 153:"
-inf 0
1.41421 0
8.48528 7.07107
9.19239 6.36396
103.238 100.409
203.647 0
inf 0


"layer 154:"
-inf 0
1.41421 0
8.48528 7.07107
9.19239 6.36396
103.238 100.409
203.647 0
inf 0


"layer 155:"
-inf 0
1.41421 0
7.77817 6.36396
8.48528 5.65685
103.238 100.409
203.647 0
inf 0


"layer 156:"
-inf 0
1.41421 0
7.77817 6.36396
8.48528 5.65685
103.238 100.409
203.647 0
inf 0


"layer 157:"
-inf 0
1.41421 0
7.77817 6.36396
8.48528 5.65685
103.238 100.409
203.647 0
inf 0


"layer 158:"
-inf 0
1.41421 0
7.77817 6.36396
8.48528 5.65685
103.238 100.409
203.647 0
inf 0


"layer 159:"
-inf 0
1.41421 0
6.36396 4.94975
7.07107 4.24264
103.238 100.409
203.647 0
inf 0


"layer 160:"
-inf 0
1.41421 0
6.36396 4.94975
7.07107 4.24264
103.238 100.409
203.647 0
inf 0


"layer 161:"
-inf 0
1.41421 0
6.36396 4.94975
7.07107 4.24264
103.238 100.409
203.647 0
inf 0


"layer 162:"
-inf 0
1.41421 0
6.36396 4.94975
7.07107 4.24264
103.238 100.409
203.647 0
inf 0


"layer 163:"
-inf 0
1.41421 0
6.36396 4.94975
7.07107 4.24264
103.238 100.409
203.647 0
inf 0


"layer 164:"
-inf 0
1.41421 0
5.65685 4.24264
6.36396 3.53553
103.238 100.409
203.647 0
inf 0


"layer 165:"
-inf 0
1.41421 0
5.65685 4.24264
6.36396 3.53553
103.238 100.409
203.647 0
inf 0


"layer 166:"
-inf 0
1.41421 0
5.65685 4.24264
6.36396 3.53553
103.238 100.409
203.647 0
inf 0


"layer 167:"
-inf 0
1.41421 0
5.65685 4.24264
6.36396 3.53553
103.238 100.409
203.647 0
inf 0


"layer 168:"
-inf 0
1.41421 0
5.65685 4.24264
6.36396 3.53553
103.238 100.409
203.647 0
inf 0


"layer 169:"
-inf 0
1.41421 0
5.65685 4.24264
6.36396 3.53553
103.238 100.409
203.647 0
inf 0


"layer 170:"
-inf 0
1.41421 0
4.94975 3.53553
5.65685 2.82843
103.238 100.409
203.647 0
inf 0


"layer 171:"
-inf 0
1.41421 0
4.24264 2.82843
4.94975 2.12132
103.238 100.409
203.647 0
inf 0


"layer 172:"
-inf 0
1.41421 0
4.24264 2.82843
4.94975 2.12132
103.238 100.409
203.647 0
inf 0


"layer 173:"
-inf 0
1.41421 0
4.24264 2.82843
4.94975 2.12132
103.238 100.409
203.647 0
inf 0


"layer 174:"
-inf 0
1.41421 0
4.24264 2.82843
4.94975 2.12132
103.238 100.409
203.647 0
inf 0


"layer 175:"
-inf 0
1.41421 0
3.53553 2.12132
4.24264 1.41421
103.238 100.409
203.647 0
inf 0


"layer 176:"
-inf 0
1.41421 0
3.53553 2.12132
4.24264 1.41421
103.238 100.409
203.647 0
inf 0


"layer 177:"
-inf 0
1.41421 0
3.53553 2.12132
4.24264 1.41421
103.238 100.409
203.647 0
inf 0


"layer 178:"
-inf 0
1.41421 0
3.53553 2.12132
4.24264 1.41421
103.238 100.409
203.647 0
inf 0


"layer 179:"
-inf 0
2.82843 0
103.238 100.409
203.647 0
inf 0


"layer 180:"
-inf 0
2.82843 0
103.238 100.409
203.647 0
inf 0


"layer 181:"
-inf 0
2.82843 0
103.238 100.409
203.647 0
inf 0


"layer 182:"
-inf 0
2.82843 0
103.238 100.409
203.647 0
inf 0


"layer 183:"
-inf 0
2.82843 0
103.238 100.409
203.647 0
inf 0


"layer 184:"
-inf 0
2.82843 0
103.238 100.409
203.647 0
inf 0


"layer 185:"
-inf 0
2.82843 0
103.238 100.409
203.647 0
inf 0


"layer 186:"
-inf 0
2.82843 0
103.238 100.409
203.647 0
inf 0


"layer 187:"
-inf 0
2.82843 0
103.238 100.409
203.647 0
inf 0


"layer 188:"
-inf 0
2.82843 0
103.238 100.409
203.647 0
inf 0


"layer 189:"
-inf 0
2.82843 0
103.238 100.409
203.647 0
inf 0


"layer 190:"
-inf 0
2.82843 0
103.238 100.409
203.647 0
inf 0


"layer 191:"
-inf 0
2.82843 0
103.238 100.409
203.647 0
inf 0


"layer 192:"
-inf 0
2.82843 0
103.238 100.409
203.647 0
inf 0


"layer 193:"
-inf 0
2.82843 0
103.238 100.409
203.647 0
inf 0


"layer 194:"
-inf 0
2.82843 0
103.238 100.409
203.647 0
inf 0


"layer 195:"
-inf 0
2.82843 0
103.238 100.409
203.647 0
inf 0


"layer 196:"
-inf 0
2.82843 0
103.238 100.409
203.647 0
inf 0


"layer 197:"
-inf 0
2.82843 0
103.238 100.409
203.647 0
inf 0


"layer 198:"
-inf 0
2.82843 0
103.238 100.409
203.647 0
inf 0


"layer 199:"
-inf 0
2.82843 0
103.238 100.409
203.647 0
inf 0


"layer 200:"
-inf 0
2.82843 0
103.238 100.409
203.647 0
inf 0


"layer 201:"
-inf 0
2.82843 0
103.238 100.409
203.647 0
inf 0


"layer 202:"
-inf 0
2.82843 0
103.238 100.409
203.647 0
inf 0


"layer 203:"
-inf 0
2.82843 0
102.53 99.7021
202.233 0
inf 0


"layer 204:"
-inf 0
2.82843 0
102.53 99.7021
202.233 0
inf 0


"layer 205:"
-inf 0
2.82843 0
102.53 99.7021
202.233 0
inf 0


"layer 206:"
-inf 0
2.82843 0
102.53 99.7021
202.233 0
inf 0


"layer 207:"
-inf 0
2.82843 0
102.53 99.7021
202.233 0
inf 0


"layer 208:"
-inf 0
2.82843 0
102.53 99.7021
202.233 0
inf 0


"layer 209:"
-inf 0
2.82843 0
102.53 99.7021
202.233 0
inf 0


"layer 210:"
-inf 0
2.82843 0
102.53 99.7021
202.233 0
inf 0


"layer 211:"
-inf 0
2.82843 0
102.53 99.7021
202.233 0
inf 0


"layer 212:"
-inf 0
2.82843 0
102.53 99.7021
202.233 0
inf 0


"layer 213:"
-inf 0
2.82843 0
102.53 99.7021
202.233 0
inf 0


"layer 214:"
-inf 0
2.82843 0
102.53 99.7021
202.233 0
inf 0


"layer 215:"
-inf 0
2.82843 0
102.53 99.7021
202.233 0
inf 0


"layer 216:"
-inf 0
2.82843 0
102.53 99.7021
202.233 0
inf 0


"layer 217:"
-inf 0
2.82843 0
102.53 99.7021
202.233 0
inf 0


"layer 218:"
-inf 0
2.82843 0
102.53 99.7021
202.233 0
inf 0


"layer 219:"
-inf 0
2.82843 0
102.53 99.7021
202.233 0
inf 0


"layer 220:"
-inf 0
2.82843 0
102.53 99.7021
202.233 0
inf 0


"layer 221:"
-inf 0
2.82843 0
102.53 99.7021
202.233 0
inf 0


"layer 222:"
-inf 0
2.82843 0
102.53 99.7021
202.233 0
inf 0


"layer 223:"
-inf 0
2.82843 0
102.53 99.7021
202.233 0
inf 0


"layer 224:"
-inf 0
2.82843 0
102.53 99.7021
202.233 0
inf 0


"layer 225:"
-inf 0
2.82843 0
102.53 99.7021
202.233 0
inf 0


"layer 226:"
-inf 0
2.82843 0
102.53 99.7021
202.233 0
inf 0


"layer 227:"
-inf 0
2.82843 0
102.53 99.7021
202.233 0
inf 0


"layer 228:"
-inf 0
2.82843 0
102.53 99.7021
202.233 0
inf 0


"layer 229:"
-inf 0
2.82843 0
102.53 99.7021
202.233 0
inf 0


"layer 230:"
-inf 0
2.82843 0
102.53 99.7021
202.233 0
inf 0


"layer 231:"
-inf 0
2.82843 0
102.53 99.7021
202.233 0
inf 0


"layer 232:"
-inf 0
2.82843 0
102.53 99.7021
202.233 0
inf 0


"layer 233:"
-inf 0
2.82843 0
11.3137 8.48528
19.799 0
200.818 0
201.525 0.707107
202.233 0
inf 0


"layer 234:"
-inf 0
2.82843 0
11.3137 8.48528
19.799 0
inf 0


"layer 235:"
-inf 0
2.82843 0
10.6066 7.77817
18.3848 0
inf 0


"layer 236:"
-inf 0
2.82843 0
9.89949 7.07107
16.9706 0
inf 0


"layer 237:"
-inf 0
2.82843 0
9.19239 6.36396
15.5563 0
inf 0


"layer 238:"
-inf 0
2.82843 0
9.19239 6.36396
15.5563 0
inf 0


"layer 239:"
-inf 0
2.82843 0
8.48528 5.65685
14.1421 0
inf 0


"layer 240:"
-inf 0
2.82843 0
8.48528 5.65685
14.1421 0
inf 0


"layer 241:"
-inf 0
2.82843 0
8.48528 5.65685
14.1421 0
inf 0


"layer 242:"
-inf 0
2.82843 0
8.48528 5.65685
14.1421 0
inf 0


"layer 243:"
-inf 0
2.82843 0
7.77817 4.94975
12.7279 0
13.435 0.707107
14.1421 0
inf 0


"layer 244:"
-inf 0
2.82843 0
7.07107 4.24264
11.3137 0
inf 0


"layer 245:"
-inf 0
2.82843 0
7.07107 4.24264
11.3137 0
inf 0


"layer 246:"
-inf 0
2.82843 0
7.07107 4.24264
11.3137 0
inf 0


"layer 247:"
-inf 0
2.82843 0
7.07107 4.24264
11.3137 0
inf 0


"layer 248:"
-inf 0
2.82843 0
7.07107 4.24264
11.3137 0
inf 0


"layer 249:"
-inf 0
2.82843 0
6.36396 3.53553
7.07107 2.82843
7.77817 3.53553
11.3137 0
inf 0


"layer 250:"
-inf 0
2.82843 0
6.36396 3.53553
9.89949 0
10.6066 0.707107
11.3137 0
inf 0


"layer 251:"
-inf 0
2.82843 0
6.36396 3.53553
9.89949 0
inf 0


"layer 252:"
-inf 0
2.82843 0
6.36396 3.53553
9.89949 0
inf 0


"layer 253:"
-inf 0
2.82843 0
6.36396 3.53553
9.89949 0
inf 0


"layer 254:"
-inf 0
2.82843 0
6.36396 3.53553
9.89949 0
inf 0


"layer 255:"
-inf 0
2.82843 0
6.36396 3.53553
9.89949 0
inf 0


"layer 256:"
-inf 0
2.82843 0
5.65685 2.82843
6.36396 2.12132
7.07107 2.82843
9.89949 0
inf 0


"layer 257:"
-inf 0
2.82843 0
5.65685 2.82843
7.77817 0.707107
8.48528 1.41421
9.89949 0
inf 0


"layer 258:"
-inf 0
2.82843 0
5.65685 2.82843
8.48528 0
9.19239 0.707107
9.89949 0
inf 0


"layer 259:"
-inf 0
2.82843 0
4.94975 2.12132
5.65685 1.41421
6.36396 2.12132
8.48528 0
9.19239 0.707107
9.89949 0
inf 0


"layer 260:"
-inf 0
2.82843 0
4.94975 2.12132
5.65685 1.41421
6.36396 2.12132
8.48528 0
inf 0


"layer 261:"
-inf 0
2.82843 0
4.94975 2.12132
6.36396 0.707107
7.07107 1.41421
8.48528 0
inf 0


"layer 262:"
-inf 0
2.82843 0
4.94975 2.12132
7.07107 0
7.77817 0.707107
8.48528 0
inf 0


"layer 263:"
-inf 0
2.82843 0
4.94975 2.12132
7.07107 0
7.77817 0.707107
8.48528 0
inf 0


"layer 264:"
-inf 0
2.82843 0
4.24264 1.41421
4.94975 0.707107
5.65685 1.41421
7.07107 0
7.77817 0.707107
8.48528 0
inf 0


"layer 265:"
-inf 0
2.82843 0
4.24264 1.41421
4.94975 0.707107
5.65685 1.41421
7.07107 0
7.77817 0.707107
8.48528 0
inf 0


"layer 266:"
-inf 0
2.82843 0
4.24264 1.41421
4.94975 0.707107
5.65685 1.41421
7.07107 0
7.77817 0.707107
8.48528 0
inf 0


"layer 267:"
-inf 0
2.82843 0
4.24264 1.41421
4.94975 0.707107
5.65685 1.41421
7.07107 0
inf 0


"layer 268:"
-inf 0
2.82843 0
4.24264 1.41421
5.65685 0
6.36396 0.707107
7.07107 0
inf 0


"layer 269:"
-inf 0
2.82843 0
4.24264 1.41421
5.65685 0
6.36396 0.707107
7.07107 0
inf 0


"layer 270:"
-inf 0
2.82843 0
4.24264 1.41421
5.65685 0
6.36396 0.707107
7.07107 0
inf 0


"layer 271:"
-inf 0
2.82843 0
4.24264 1.41421
5.65685 0
6.36396 0.707107
7.07107 0
inf 0


"layer 272:"
-inf 0
2.82843 0
3.53553 0.707107
4.24264 0
4.94975 0.707107
5.65685 0
6.36396 0.707107
7.07107 0
inf 0


"layer 273:"
-inf 0
2.82843 0
3.53553 0.707107
4.24264 0
4.94975 0.707107
5.65685 0
6.36396 0.707107
7.07107 0
inf 0


"layer 274:"
-inf 0
2.82843 0
3.53553 0.707107
4.24264 0
4.94975 0.707107
5.65685 0
inf 0


"layer 275:"
-inf 0
2.82843 0
3.53553 0.707107
4.24264 0
4.94975 0.707107
5.65685 0
inf 0


"layer 276:"
-inf 0
2.82843 0
3.53553 0.707107
4.24264 0
4.94975 0.707107
5.65685 0
inf 0


"layer 277:"
-inf 0
2.82843 0
3.53553 0.707107
4.24264 0
4.94975 0.707107
5.65685 0
inf 0


"layer 278:"
-inf 0
2.82843 0
3.53553 0.707107
4.24264 0
4.94975 0.707107
5.65685 0
inf 0


"layer 279:"
-inf 0
2.82843 0
3.53553 0.707107
4.24264 0
4.94975 0.707107
5.65685 0
inf 0


"layer 280:"
-inf 0
2.82843 0
3.53553 0.707107
4.24264 0
4.94975 0.707107
5.65685 0
inf 0


"layer 281:"
-inf 0
2.82843 0
3.53553 0.707107
4.24264 0
4.94975 0.707107
5.65685 0
inf 0


"layer 282:"
-inf 0
2.82843 0
3.53553 0.707107
4.24264 0
4.94975 0.707107
5.65685 0
inf 0


"layer 283:"
-inf 0
4.24264 0
4.94975 0.707107
5.65685 0
inf 0


"layer 284:"
-inf 0
4.24264 0
4.94975 0.707107
5.65685 0
inf 0


"layer 285:"
-inf 0
4.24264 0
4.94975 0.707107
5.65685 0
inf 0


"layer 286:"
-inf 0
4.24264 0
4.94975 0.707107
5.65685 0
inf 0


