# persistence landscape
# X Y
"layer 0:"
-inf 0
1.41421 0
3062.71 3061.29
6124 0
inf 0


"layer 1:"
-inf 0
1.41421 0
32.5269 31.1127
63.6396 0
inf 0


"layer 2:"
-inf 0
1.41421 0
31.8198 30.4056
33.234 28.9914
33.9411 29.6985
63.6396 0
inf 0


"layer 3:"
-inf 0
1.41421 0
31.8198 30.4056
33.234 28.9914
33.9411 29.6985
63.6396 0
inf 0


"layer 4:"
-inf 0
1.41421 0
31.1127 29.6985
31.8198 28.9914
32.5269 29.6985
62.2254 0
inf 0


"layer 5:"
-inf 0
1.41421 0
31.1127 29.6985
31.8198 28.9914
32.5269 29.6985
62.2254 0
inf 0


"layer 6:"
-inf 0
1.41421 0
31.1127 29.6985
31.8198 28.9914
32.5269 29.6985
62.2254 0
inf 0


"layer 7:"
-inf 0
1.41421 0
31.1127 29.6985
31.8198 28.9914
32.5269 29.6985
62.2254 0
inf 0


"layer 8:"
-inf 0
1.41421 0
31.1127 29.6985
31.8198 28.9914
32.5269 29.6985
62.2254 0
inf 0


"layer 9:"
-inf 0
1.41421 0
31.1127 29.6985
31.8198 28.9914
32.5269 29.6985
62.2254 0
inf 0


"layer 10:"
-inf 0
1.41421 0
31.1127 29.6985
31.8198 28.9914
32.5269 29.6985
62.2254 0
inf 0


"layer 11:"
-inf 0
1.41421 0
31.1127 29.6985
31.8198 28.9914
32.5269 29.6985
62.2254 0
inf 0


"layer 12:"
-inf 0
1.41421 0
31.1127 29.6985
31.8198 28.9914
32.5269 29.6985
62.2254 0
inf 0


"layer 13:"
-inf 0
1.41421 0
31.1127 29.6985
31.8198 28.9914
32.5269 29.6985
62.2254 0
inf 0


"layer 14:"
-inf 0
1.41421 0
31.1127 29.6985
31.8198 28.9914
32.5269 29.6985
62.2254 0
inf 0


"layer 15:"
-inf 0
1.41421 0
31.1127 29.6985
31.8198 28.9914
32.5269 29.6985
62.2254 0
inf 0


"layer 16:"
-inf 0
1.41421 0
31.1127 29.6985
31.8198 28.9914
32.5269 29.6985
62.2254 0
inf 0


"layer 17:"
-inf 0
1.41421 0
31.1127 29.6985
31.8198 28.9914
32.5269 29.6985
62.2254 0
inf 0


"layer 18:"
-inf 0
2.82843 0
32.5269 29.6985
62.2254 0
inf 0


"layer 19:"
-inf 0
2.82843 0
32.5269 29.6985
62.2254 0
inf 0


"layer 20:"
-inf 0
2.82843 0
32.5269 29.6985
62.2254 0
inf 0


"layer 21:"
-inf 0
2.82843 0
32.5269 29.6985
62.2254 0
inf 0


"layer 22:"
-inf 0
2.82843 0
32.5269 29.6985
62.2254 0
inf 0


"layer 23:"
-inf 0
2.82843 0
32.5269 29.6985
62.2254 0
inf 0


"layer 24:"
-inf 0
2.82843 0
32.5269 29.6985
62.2254 0
inf 0


"layer 25:"
-inf 0
2.82843 0
32.5269 29.6985
62.2254 0
inf 0


"layer 26:"
-inf 0
2.82843 0
32.5269 29.6985
62.2254 0
inf 0


"layer 27:"
-inf 0
2.82843 0
32.5269 29.6985
62.2254 0
inf 0


"layer 28:"
-inf 0
2.82843 0
32.5269 29.6985
62.2254 0
inf 0


"layer 29:"
-inf 0
2.82843 0
32.5269 29.6985
62.2254 0
inf 0


"layer 30:"
-inf 0
2.82843 0
32.5269 29.6985
62.2254 0
inf 0


"layer 31:"
-inf 0
2.82843 0
31.8198 28.9914
32.5269 28.2843
33.234 28.9914
62.2254 0
inf 0


"layer 32:"
-inf 0
2.82843 0
31.8198 28.9914
32.5269 28.2843
33.234 28.9914
62.2254 0
inf 0


"layer 33:"
-inf 0
2.82843 0
31.8198 28.9914
60.8112 0
inf 0


"layer 34:"
-inf 0
2.82843 0
31.8198 28.9914
60.8112 0
inf 0


"layer 35:"
-inf 0
2.82843 0
31.8198 28.9914
60.8112 0
inf 0


"layer 36:"
-inf 0
2.82843 0
31.8198 28.9914
60.8112 0
inf 0


"layer 37:"
-inf 0
2.82843 0
31.8198 28.9914
60.8112 0
inf 0


"layer 38:"
-inf 0
2.82843 0
31.8198 28.9914
60.8112 0
inf 0


"layer 39:"
-inf 0
2.82843 0
31.8198 28.9914
60.8112 0
inf 0


"layer 40:"
-inf 0
2.82843 0
31.8198 28.9914
60.8112 0
inf 0


"layer 41:"
-inf 0
2.82843 0
31.8198 28.9914
60.8112 0
inf 0


"layer 42:"
-inf 0
2.82843 0
31.8198 28.9914
60.8112 0
inf 0


"layer 43:"
-inf 0
2.82843 0
31.8198 28.9914
60.8112 0
inf 0


"layer 44:"
-inf 0
2.82843 0
31.8198 28.9914
60.8112 0
inf 0


"layer 45:"
-inf 0
2.82843 0
5.65685 2.82843
6.36396 2.12132
32.5269 28.2843
60.8112 0
inf 0


"layer 46:"
-inf 0
2.82843 0
4.24264 1.41421
4.94975 0.707107
32.5269 28.2843
60.8112 0
inf 0


"layer 47:"
-inf 0
4.24264 0
6.36396 2.12132
8.48528 0
59.397 0
60.1041 0.707107
60.8112 0
inf 0


"layer 48:"
-inf 0
4.24264 0
6.36396 2.12132
8.48528 0
59.397 0
60.1041 0.707107
60.8112 0
inf 0


"layer 49:"
-inf 0
4.24264 0
6.36396 2.12132
8.48528 0
inf 0


"layer 50:"
-inf 0
4.24264 0
5.65685 1.41421
7.07107 0
inf 0


"layer 51:"
-inf 0
4.24264 0
4.94975 0.707107
5.65685 0
6.36396 0.707107
7.07107 0
inf 0


"layer 52:"
-inf 0
4.24264 0
4.94975 0.707107
5.65685 0
inf 0


