# persistence landscape
# X Y
"layer 0:"
-inf 0
9.89949 0
3066.95 3057.05
6124 0
inf 0


"layer 1:"
-inf 0
45.2548 0
3084.63 3039.37
6124 0
inf 0


"layer 2:"
-inf 0
46.669 0
3085.33 3038.67
6124 0
inf 0


"layer 3:"
-inf 0
46.669 0
3085.33 3038.67
6124 0
inf 0


