# persistence landscape
# X Y
"layer 0:"
-inf 0
38.1838 0
134.092 95.9081
230 0
inf 0


"layer 1:"
-inf 0
38.1838 0
134.092 95.9081
230 0
inf 0


"layer 2:"
-inf 0
39.598 0
134.799 95.201
230 0
inf 0


"layer 3:"
-inf 0
39.598 0
134.799 95.201
230 0
inf 0


"layer 4:"
-inf 0
39.598 0
134.799 95.201
230 0
inf 0


"layer 5:"
-inf 0
39.598 0
134.799 95.201
230 0
inf 0


"layer 6:"
-inf 0
39.598 0
134.799 95.201
230 0
inf 0


"layer 7:"
-inf 0
39.598 0
134.799 95.201
230 0
inf 0


"layer 8:"
-inf 0
39.598 0
134.799 95.201
230 0
inf 0


"layer 9:"
-inf 0
39.598 0
134.799 95.201
230 0
inf 0


"layer 10:"
-inf 0
39.598 0
134.799 95.201
230 0
inf 0


"layer 11:"
-inf 0
39.598 0
134.799 95.201
230 0
inf 0


"layer 12:"
-inf 0
39.598 0
134.799 95.201
230 0
inf 0


"layer 13:"
-inf 0
39.598 0
134.799 95.201
230 0
inf 0


"layer 14:"
-inf 0
39.598 0
134.799 95.201
230 0
inf 0


"layer 15:"
-inf 0
39.598 0
134.799 95.201
230 0
inf 0


"layer 16:"
-inf 0
39.598 0
134.799 95.201
230 0
inf 0


"layer 17:"
-inf 0
39.598 0
134.799 95.201
230 0
inf 0


"layer 18:"
-inf 0
41.0122 0
135.506 94.4939
230 0
inf 0


"layer 19:"
-inf 0
41.0122 0
135.506 94.4939
230 0
inf 0


"layer 20:"
-inf 0
41.0122 0
135.506 94.4939
230 0
inf 0


"layer 21:"
-inf 0
41.0122 0
135.506 94.4939
230 0
inf 0


"layer 22:"
-inf 0
42.4264 0
136.213 93.7868
230 0
inf 0


"layer 23:"
-inf 0
48.0833 0
139.042 90.9584
230 0
inf 0


"layer 24:"
-inf 0
50.9117 0
140.456 89.5442
230 0
inf 0


"layer 25:"
-inf 0
70.7107 0
150.355 79.6447
230 0
inf 0


