# persistence landscape
# X Y
"layer 0:"
-inf 0
9.89949 0
3066.95 3057.05
6124 0
inf 0


"layer 1:"
-inf 0
19.799 0
3071.9 3052.1
6124 0
inf 0


"layer 2:"
-inf 0
19.799 0
3071.9 3052.1
6124 0
inf 0


