# persistence landscape
# X Y
"layer 0:"
-inf 0
25.4558 0
3074.73 3049.27
6124 0
inf 0


"layer 1:"
-inf 0
26.8701 0
3075.44 3048.56
6124 0
inf 0


"layer 2:"
-inf 0
26.8701 0
3075.44 3048.56
6124 0
inf 0


"layer 3:"
-inf 0
31.1127 0
3077.56 3046.44
6124 0
inf 0


