# persistence landscape
# X Y
"layer 0:"
-inf 0
11.3137 0
3067.66 3056.34
6124 0
inf 0


"layer 1:"
-inf 0
12.7279 0
3068.36 3055.64
6124 0
inf 0


"layer 2:"
-inf 0
14.1421 0
3069.07 3054.93
6124 0
inf 0


"layer 3:"
-inf 0
18.3848 0
3071.19 3052.81
6124 0
inf 0


"layer 4:"
-inf 0
33.9411 0
3078.97 3045.03
6124 0
inf 0


"layer 5:"
-inf 0
35.3553 0
3079.68 3044.32
6124 0
inf 0


"layer 6:"
-inf 0
35.3553 0
3079.68 3044.32
6124 0
inf 0


"layer 7:"
-inf 0
36.7696 0
3080.38 3043.62
6124 0
inf 0


"layer 8:"
-inf 0
39.598 0
3081.8 3042.2
6124 0
inf 0


