# persistence landscape
# X Y
"layer 0:"
-inf 0
12.7279 0
3068.36 3055.64
6124 0
inf 0


"layer 1:"
-inf 0
18.3848 0
3071.19 3052.81
6124 0
inf 0


"layer 2:"
-inf 0
72.1249 0
3098.06 3025.94
6124 0
inf 0


"layer 3:"
-inf 0
72.1249 0
3098.06 3025.94
6124 0
inf 0


"layer 4:"
-inf 0
72.1249 0
3098.06 3025.94
6124 0
inf 0


"layer 5:"
-inf 0
72.1249 0
3098.06 3025.94
6124 0
inf 0


"layer 6:"
-inf 0
73.5391 0
3098.77 3025.23
6124 0
inf 0


"layer 7:"
-inf 0
73.5391 0
3098.77 3025.23
6124 0
inf 0


"layer 8:"
-inf 0
74.9533 0
3099.48 3024.52
6124 0
inf 0


"layer 9:"
-inf 0
74.9533 0
3099.48 3024.52
6124 0
inf 0


"layer 10:"
-inf 0
77.7817 0
3100.89 3023.11
6124 0
inf 0


"layer 11:"
-inf 0
79.196 0
3101.6 3022.4
6124 0
inf 0


