# persistence landscape
# X Y
"layer 0:"
-inf 0
1.41421 0
3062.71 3061.29
6124 0
inf 0


"layer 1:"
-inf 0
1.41421 0
3062.71 3061.29
6124 0
inf 0


"layer 2:"
-inf 0
1.41421 0
3062.71 3061.29
6124 0
inf 0


"layer 3:"
-inf 0
1.41421 0
7.77817 6.36396
14.1421 0
inf 0


"layer 4:"
-inf 0
1.41421 0
7.77817 6.36396
14.1421 0
inf 0


"layer 5:"
-inf 0
1.41421 0
7.77817 6.36396
14.1421 0
inf 0


"layer 6:"
-inf 0
1.41421 0
7.07107 5.65685
12.7279 0
inf 0


"layer 7:"
-inf 0
1.41421 0
7.07107 5.65685
12.7279 0
inf 0


"layer 8:"
-inf 0
1.41421 0
7.07107 5.65685
12.7279 0
inf 0


"layer 9:"
-inf 0
1.41421 0
7.07107 5.65685
12.7279 0
inf 0


"layer 10:"
-inf 0
1.41421 0
7.07107 5.65685
12.7279 0
inf 0


"layer 11:"
-inf 0
1.41421 0
5.65685 4.24264
6.36396 3.53553
7.07107 4.24264
11.3137 0
12.0208 0.707107
12.7279 0
inf 0


"layer 12:"
-inf 0
1.41421 0
5.65685 4.24264
6.36396 3.53553
7.07107 4.24264
11.3137 0
inf 0


"layer 13:"
-inf 0
1.41421 0
4.94975 3.53553
5.65685 2.82843
7.07107 4.24264
11.3137 0
inf 0


"layer 14:"
-inf 0
1.41421 0
4.24264 2.82843
4.94975 2.12132
6.36396 3.53553
9.89949 0
inf 0


"layer 15:"
-inf 0
1.41421 0
4.24264 2.82843
4.94975 2.12132
6.36396 3.53553
9.89949 0
inf 0


"layer 16:"
-inf 0
1.41421 0
4.24264 2.82843
4.94975 2.12132
5.65685 2.82843
8.48528 0
9.19239 0.707107
9.89949 0
inf 0


"layer 17:"
-inf 0
1.41421 0
3.53553 2.12132
4.24264 1.41421
4.94975 2.12132
7.07107 0
8.48528 0
9.19239 0.707107
9.89949 0
inf 0


"layer 18:"
-inf 0
1.41421 0
2.12132 0.707107
2.82843 0
4.94975 2.12132
7.07107 0
inf 0


"layer 19:"
-inf 0
1.41421 0
2.12132 0.707107
2.82843 0
4.94975 2.12132
7.07107 0
inf 0


"layer 20:"
-inf 0
2.82843 0
4.24264 1.41421
4.94975 0.707107
5.65685 1.41421
7.07107 0
inf 0


"layer 21:"
-inf 0
2.82843 0
4.24264 1.41421
5.65685 0
6.36396 0.707107
7.07107 0
inf 0


"layer 22:"
-inf 0
2.82843 0
4.24264 1.41421
5.65685 0
inf 0


"layer 23:"
-inf 0
2.82843 0
3.53553 0.707107
4.24264 0
4.94975 0.707107
5.65685 0
inf 0


"layer 24:"
-inf 0
2.82843 0
3.53553 0.707107
4.24264 0
4.94975 0.707107
5.65685 0
inf 0


"layer 25:"
-inf 0
4.24264 0
4.94975 0.707107
5.65685 0
inf 0


"layer 26:"
-inf 0
4.24264 0
4.94975 0.707107
5.65685 0
inf 0


