# persistence landscape
# X Y
"layer 0:"
-inf 0
28.2843 0
3076.14 3047.86
6124 0
inf 0


"layer 1:"
-inf 0
28.2843 0
3076.14 3047.86
6124 0
inf 0


"layer 2:"
-inf 0
29.6985 0
3076.85 3047.15
6124 0
inf 0


"layer 3:"
-inf 0
29.6985 0
3076.85 3047.15
6124 0
inf 0


"layer 4:"
-inf 0
31.1127 0
3077.56 3046.44
6124 0
inf 0


