# persistence landscape
# X Y
"layer 0:"
-inf 0
12.7279 0
3068.36 3055.64
6124 0
inf 0


"layer 1:"
-inf 0
42.4264 0
3083.21 3040.79
6124 0
inf 0


"layer 2:"
-inf 0
42.4264 0
3083.21 3040.79
6124 0
inf 0


"layer 3:"
-inf 0
43.8406 0
3083.92 3040.08
6124 0
inf 0


"layer 4:"
-inf 0
43.8406 0
3083.92 3040.08
6124 0
inf 0


"layer 5:"
-inf 0
45.2548 0
3084.63 3039.37
6124 0
inf 0


"layer 6:"
-inf 0
48.0833 0
3086.04 3037.96
6124 0
inf 0


