# persistence landscape
# X Y
"layer 0:"
-inf 0
1.41421 0
3062.71 3061.29
6124 0
inf 0


"layer 1:"
-inf 0
1.41421 0
3062.71 3061.29
6124 0
inf 0


"layer 2:"
-inf 0
1.41421 0
25.4558 24.0416
49.4975 0
inf 0


"layer 3:"
-inf 0
1.41421 0
24.7487 23.3345
48.0833 0
inf 0


"layer 4:"
-inf 0
1.41421 0
24.7487 23.3345
48.0833 0
inf 0


"layer 5:"
-inf 0
1.41421 0
24.7487 23.3345
48.0833 0
inf 0


"layer 6:"
-inf 0
1.41421 0
24.7487 23.3345
48.0833 0
inf 0


"layer 7:"
-inf 0
1.41421 0
24.7487 23.3345
48.0833 0
inf 0


"layer 8:"
-inf 0
1.41421 0
24.7487 23.3345
48.0833 0
inf 0


"layer 9:"
-inf 0
1.41421 0
24.0416 22.6274
46.669 0
inf 0


"layer 10:"
-inf 0
1.41421 0
24.0416 22.6274
46.669 0
inf 0


"layer 11:"
-inf 0
1.41421 0
24.0416 22.6274
46.669 0
inf 0


"layer 12:"
-inf 0
1.41421 0
24.0416 22.6274
46.669 0
inf 0


"layer 13:"
-inf 0
1.41421 0
24.0416 22.6274
46.669 0
inf 0


"layer 14:"
-inf 0
1.41421 0
24.0416 22.6274
46.669 0
inf 0


"layer 15:"
-inf 0
1.41421 0
24.0416 22.6274
46.669 0
inf 0


"layer 16:"
-inf 0
1.41421 0
24.0416 22.6274
46.669 0
inf 0


"layer 17:"
-inf 0
1.41421 0
24.0416 22.6274
46.669 0
inf 0


"layer 18:"
-inf 0
1.41421 0
24.0416 22.6274
46.669 0
inf 0


"layer 19:"
-inf 0
1.41421 0
24.0416 22.6274
46.669 0
inf 0


"layer 20:"
-inf 0
1.41421 0
24.0416 22.6274
46.669 0
inf 0


"layer 21:"
-inf 0
1.41421 0
24.0416 22.6274
46.669 0
inf 0


"layer 22:"
-inf 0
1.41421 0
24.0416 22.6274
46.669 0
inf 0


"layer 23:"
-inf 0
1.41421 0
24.0416 22.6274
46.669 0
inf 0


"layer 24:"
-inf 0
1.41421 0
24.0416 22.6274
46.669 0
inf 0


"layer 25:"
-inf 0
1.41421 0
13.435 12.0208
25.4558 0
45.2548 0
45.9619 0.707107
46.669 0
inf 0


"layer 26:"
-inf 0
1.41421 0
12.0208 10.6066
22.6274 0
inf 0


"layer 27:"
-inf 0
1.41421 0
11.3137 9.89949
21.2132 0
inf 0


"layer 28:"
-inf 0
1.41421 0
10.6066 9.19239
19.799 0
inf 0


"layer 29:"
-inf 0
1.41421 0
9.19239 7.77817
9.89949 7.07107
10.6066 7.77817
18.3848 0
inf 0


"layer 30:"
-inf 0
1.41421 0
9.19239 7.77817
9.89949 7.07107
10.6066 7.77817
18.3848 0
inf 0


"layer 31:"
-inf 0
1.41421 0
8.48528 7.07107
9.19239 6.36396
9.89949 7.07107
16.9706 0
inf 0


"layer 32:"
-inf 0
1.41421 0
7.77817 6.36396
8.48528 5.65685
9.89949 7.07107
16.9706 0
inf 0


"layer 33:"
-inf 0
1.41421 0
7.07107 5.65685
7.77817 4.94975
9.19239 6.36396
15.5563 0
16.2635 0.707107
16.9706 0
inf 0


"layer 34:"
-inf 0
1.41421 0
6.36396 4.94975
7.07107 4.24264
8.48528 5.65685
14.1421 0
inf 0


"layer 35:"
-inf 0
1.41421 0
6.36396 4.94975
7.07107 4.24264
7.77817 4.94975
12.7279 0
inf 0


"layer 36:"
-inf 0
1.41421 0
6.36396 4.94975
11.3137 0
inf 0


"layer 37:"
-inf 0
1.41421 0
6.36396 4.94975
11.3137 0
inf 0


"layer 38:"
-inf 0
1.41421 0
6.36396 4.94975
11.3137 0
inf 0


"layer 39:"
-inf 0
1.41421 0
5.65685 4.24264
6.36396 3.53553
7.07107 4.24264
11.3137 0
inf 0


"layer 40:"
-inf 0
1.41421 0
5.65685 4.24264
6.36396 3.53553
7.07107 4.24264
11.3137 0
inf 0


"layer 41:"
-inf 0
1.41421 0
5.65685 4.24264
9.89949 0
10.6066 0.707107
11.3137 0
inf 0


"layer 42:"
-inf 0
1.41421 0
5.65685 4.24264
9.89949 0
inf 0


"layer 43:"
-inf 0
1.41421 0
5.65685 4.24264
9.89949 0
inf 0


"layer 44:"
-inf 0
1.41421 0
4.94975 3.53553
5.65685 2.82843
6.36396 3.53553
9.89949 0
inf 0


"layer 45:"
-inf 0
1.41421 0
4.24264 2.82843
4.94975 2.12132
6.36396 3.53553
9.89949 0
inf 0


"layer 46:"
-inf 0
1.41421 0
4.24264 2.82843
4.94975 2.12132
5.65685 2.82843
8.48528 0
9.19239 0.707107
9.89949 0
inf 0


"layer 47:"
-inf 0
1.41421 0
3.53553 2.12132
4.24264 1.41421
5.65685 2.82843
8.48528 0
inf 0


"layer 48:"
-inf 0
1.41421 0
3.53553 2.12132
4.24264 1.41421
4.94975 2.12132
7.07107 0
7.77817 0.707107
8.48528 0
inf 0


"layer 49:"
-inf 0
1.41421 0
3.53553 2.12132
4.24264 1.41421
4.94975 2.12132
7.07107 0
7.77817 0.707107
8.48528 0
inf 0


"layer 50:"
-inf 0
1.41421 0
2.82843 1.41421
3.53553 0.707107
4.94975 2.12132
7.07107 0
inf 0


"layer 51:"
-inf 0
2.82843 0
4.94975 2.12132
7.07107 0
inf 0


"layer 52:"
-inf 0
2.82843 0
4.94975 2.12132
7.07107 0
inf 0


"layer 53:"
-inf 0
2.82843 0
4.94975 2.12132
7.07107 0
inf 0


"layer 54:"
-inf 0
2.82843 0
4.24264 1.41421
5.65685 0
6.36396 0.707107
7.07107 0
inf 0


"layer 55:"
-inf 0
2.82843 0
4.24264 1.41421
5.65685 0
6.36396 0.707107
7.07107 0
inf 0


"layer 56:"
-inf 0
2.82843 0
4.24264 1.41421
5.65685 0
inf 0


"layer 57:"
-inf 0
2.82843 0
4.24264 1.41421
5.65685 0
inf 0


"layer 58:"
-inf 0
2.82843 0
3.53553 0.707107
4.24264 0
4.94975 0.707107
5.65685 0
inf 0


"layer 59:"
-inf 0
2.82843 0
3.53553 0.707107
4.24264 0
4.94975 0.707107
5.65685 0
inf 0


"layer 60:"
-inf 0
2.82843 0
3.53553 0.707107
4.24264 0
4.94975 0.707107
5.65685 0
inf 0


"layer 61:"
-inf 0
2.82843 0
3.53553 0.707107
4.24264 0
4.94975 0.707107
5.65685 0
inf 0


"layer 62:"
-inf 0
2.82843 0
3.53553 0.707107
4.24264 0
4.94975 0.707107
5.65685 0
inf 0


"layer 63:"
-inf 0
2.82843 0
3.53553 0.707107
4.24264 0
4.94975 0.707107
5.65685 0
inf 0


"layer 64:"
-inf 0
2.82843 0
3.53553 0.707107
4.24264 0
4.94975 0.707107
5.65685 0
inf 0


"layer 65:"
-inf 0
2.82843 0
3.53553 0.707107
4.24264 0
inf 0


"layer 66:"
-inf 0
2.82843 0
3.53553 0.707107
4.24264 0
inf 0


"layer 67:"
-inf 0
2.82843 0
3.53553 0.707107
4.24264 0
inf 0


