# persistence landscape
# X Y
"layer 0:"
-inf 0
1.41421 0
3062.71 3061.29
6124 0
inf 0


"layer 1:"
-inf 0
1.41421 0
3062.71 3061.29
6124 0
inf 0


"layer 2:"
-inf 0
1.41421 0
12.0208 10.6066
22.6274 0
inf 0


"layer 3:"
-inf 0
1.41421 0
12.0208 10.6066
22.6274 0
inf 0


"layer 4:"
-inf 0
1.41421 0
11.3137 9.89949
21.2132 0
inf 0


"layer 5:"
-inf 0
1.41421 0
10.6066 9.19239
19.799 0
inf 0


"layer 6:"
-inf 0
1.41421 0
10.6066 9.19239
19.799 0
inf 0


"layer 7:"
-inf 0
1.41421 0
10.6066 9.19239
19.799 0
inf 0


"layer 8:"
-inf 0
1.41421 0
10.6066 9.19239
19.799 0
inf 0


"layer 9:"
-inf 0
1.41421 0
10.6066 9.19239
19.799 0
inf 0


"layer 10:"
-inf 0
1.41421 0
10.6066 9.19239
19.799 0
inf 0


"layer 11:"
-inf 0
1.41421 0
10.6066 9.19239
19.799 0
inf 0


"layer 12:"
-inf 0
1.41421 0
10.6066 9.19239
19.799 0
inf 0


"layer 13:"
-inf 0
1.41421 0
10.6066 9.19239
19.799 0
inf 0


"layer 14:"
-inf 0
1.41421 0
3.53553 2.12132
5.65685 0
18.3848 0
19.0919 0.707107
19.799 0
inf 0


"layer 15:"
-inf 0
1.41421 0
3.53553 2.12132
5.65685 0
inf 0


"layer 16:"
-inf 0
1.41421 0
2.12132 0.707107
2.82843 0
3.53553 0.707107
4.24264 0
4.94975 0.707107
5.65685 0
inf 0


"layer 17:"
-inf 0
4.24264 0
4.94975 0.707107
5.65685 0
inf 0


