# persistence landscape
# X Y
"layer 0:"
-inf 0
1.41421 0
3062.71 3061.29
6124 0
inf 0


"layer 1:"
-inf 0
1.41421 0
3062.71 3061.29
6124 0
inf 0


"layer 2:"
-inf 0
1.41421 0
3062.71 3061.29
6124 0
inf 0


"layer 3:"
-inf 0
1.41421 0
54.4472 53.033
107.48 0
inf 0


"layer 4:"
-inf 0
1.41421 0
53.033 51.6188
104.652 0
inf 0


"layer 5:"
-inf 0
1.41421 0
53.033 51.6188
104.652 0
inf 0


"layer 6:"
-inf 0
1.41421 0
53.033 51.6188
104.652 0
inf 0


"layer 7:"
-inf 0
1.41421 0
52.3259 50.9117
103.238 0
inf 0


"layer 8:"
-inf 0
1.41421 0
52.3259 50.9117
103.238 0
inf 0


"layer 9:"
-inf 0
1.41421 0
52.3259 50.9117
103.238 0
inf 0


"layer 10:"
-inf 0
1.41421 0
52.3259 50.9117
103.238 0
inf 0


"layer 11:"
-inf 0
1.41421 0
52.3259 50.9117
103.238 0
inf 0


"layer 12:"
-inf 0
1.41421 0
52.3259 50.9117
103.238 0
inf 0


"layer 13:"
-inf 0
1.41421 0
52.3259 50.9117
103.238 0
inf 0


"layer 14:"
-inf 0
1.41421 0
52.3259 50.9117
103.238 0
inf 0


"layer 15:"
-inf 0
1.41421 0
52.3259 50.9117
103.238 0
inf 0


"layer 16:"
-inf 0
1.41421 0
52.3259 50.9117
103.238 0
inf 0


"layer 17:"
-inf 0
1.41421 0
52.3259 50.9117
103.238 0
inf 0


"layer 18:"
-inf 0
1.41421 0
51.6188 50.2046
52.3259 49.4975
53.033 50.2046
103.238 0
inf 0


"layer 19:"
-inf 0
1.41421 0
51.6188 50.2046
52.3259 49.4975
53.033 50.2046
103.238 0
inf 0


"layer 20:"
-inf 0
1.41421 0
51.6188 50.2046
101.823 0
inf 0


"layer 21:"
-inf 0
1.41421 0
51.6188 50.2046
101.823 0
inf 0


"layer 22:"
-inf 0
1.41421 0
51.6188 50.2046
101.823 0
inf 0


"layer 23:"
-inf 0
1.41421 0
51.6188 50.2046
101.823 0
inf 0


"layer 24:"
-inf 0
1.41421 0
51.6188 50.2046
101.823 0
inf 0


"layer 25:"
-inf 0
1.41421 0
51.6188 50.2046
101.823 0
inf 0


"layer 26:"
-inf 0
1.41421 0
51.6188 50.2046
101.823 0
inf 0


"layer 27:"
-inf 0
1.41421 0
51.6188 50.2046
101.823 0
inf 0


"layer 28:"
-inf 0
1.41421 0
51.6188 50.2046
101.823 0
inf 0


"layer 29:"
-inf 0
1.41421 0
51.6188 50.2046
101.823 0
inf 0


"layer 30:"
-inf 0
1.41421 0
51.6188 50.2046
101.823 0
inf 0


"layer 31:"
-inf 0
1.41421 0
51.6188 50.2046
101.823 0
inf 0


"layer 32:"
-inf 0
1.41421 0
51.6188 50.2046
101.823 0
inf 0


"layer 33:"
-inf 0
1.41421 0
51.6188 50.2046
101.823 0
inf 0


"layer 34:"
-inf 0
1.41421 0
51.6188 50.2046
101.823 0
inf 0


"layer 35:"
-inf 0
1.41421 0
51.6188 50.2046
101.823 0
inf 0


"layer 36:"
-inf 0
1.41421 0
51.6188 50.2046
101.823 0
inf 0


"layer 37:"
-inf 0
1.41421 0
51.6188 50.2046
101.823 0
inf 0


"layer 38:"
-inf 0
1.41421 0
51.6188 50.2046
101.823 0
inf 0


"layer 39:"
-inf 0
1.41421 0
51.6188 50.2046
101.823 0
inf 0


"layer 40:"
-inf 0
1.41421 0
51.6188 50.2046
101.823 0
inf 0


"layer 41:"
-inf 0
1.41421 0
51.6188 50.2046
101.823 0
inf 0


"layer 42:"
-inf 0
1.41421 0
51.6188 50.2046
101.823 0
inf 0


"layer 43:"
-inf 0
1.41421 0
51.6188 50.2046
101.823 0
inf 0


"layer 44:"
-inf 0
1.41421 0
51.6188 50.2046
101.823 0
inf 0


"layer 45:"
-inf 0
1.41421 0
51.6188 50.2046
101.823 0
inf 0


"layer 46:"
-inf 0
1.41421 0
51.6188 50.2046
101.823 0
inf 0


"layer 47:"
-inf 0
1.41421 0
51.6188 50.2046
101.823 0
inf 0


"layer 48:"
-inf 0
1.41421 0
51.6188 50.2046
101.823 0
inf 0


"layer 49:"
-inf 0
1.41421 0
51.6188 50.2046
101.823 0
inf 0


"layer 50:"
-inf 0
1.41421 0
51.6188 50.2046
101.823 0
inf 0


"layer 51:"
-inf 0
1.41421 0
51.6188 50.2046
101.823 0
inf 0


"layer 52:"
-inf 0
1.41421 0
51.6188 50.2046
101.823 0
inf 0


"layer 53:"
-inf 0
1.41421 0
51.6188 50.2046
101.823 0
inf 0


"layer 54:"
-inf 0
1.41421 0
51.6188 50.2046
101.823 0
inf 0


"layer 55:"
-inf 0
1.41421 0
51.6188 50.2046
101.823 0
inf 0


"layer 56:"
-inf 0
1.41421 0
17.6777 16.2635
18.3848 15.5563
52.3259 49.4975
101.823 0
inf 0


"layer 57:"
-inf 0
1.41421 0
16.2635 14.8492
16.9706 14.1421
52.3259 49.4975
101.823 0
inf 0


"layer 58:"
-inf 0
1.41421 0
15.5563 14.1421
16.2635 13.435
18.3848 15.5563
33.9411 0
100.409 0
101.116 0.707107
101.823 0
inf 0


"layer 59:"
-inf 0
1.41421 0
12.7279 11.3137
13.435 10.6066
16.9706 14.1421
31.1127 0
inf 0


"layer 60:"
-inf 0
1.41421 0
12.0208 10.6066
12.7279 9.89949
16.2635 13.435
29.6985 0
inf 0


"layer 61:"
-inf 0
1.41421 0
12.0208 10.6066
12.7279 9.89949
13.435 10.6066
24.0416 0
inf 0


"layer 62:"
-inf 0
1.41421 0
11.3137 9.89949
12.0208 9.19239
12.7279 9.89949
22.6274 0
inf 0


"layer 63:"
-inf 0
1.41421 0
11.3137 9.89949
12.0208 9.19239
12.7279 9.89949
22.6274 0
inf 0


"layer 64:"
-inf 0
1.41421 0
11.3137 9.89949
21.2132 0
inf 0


"layer 65:"
-inf 0
1.41421 0
11.3137 9.89949
21.2132 0
inf 0


"layer 66:"
-inf 0
1.41421 0
11.3137 9.89949
21.2132 0
inf 0


"layer 67:"
-inf 0
1.41421 0
11.3137 9.89949
21.2132 0
inf 0


"layer 68:"
-inf 0
1.41421 0
11.3137 9.89949
21.2132 0
inf 0


"layer 69:"
-inf 0
1.41421 0
10.6066 9.19239
11.3137 8.48528
12.0208 9.19239
21.2132 0
inf 0


"layer 70:"
-inf 0
1.41421 0
10.6066 9.19239
11.3137 8.48528
12.0208 9.19239
21.2132 0
inf 0


"layer 71:"
-inf 0
1.41421 0
9.89949 8.48528
10.6066 7.77817
11.3137 8.48528
19.799 0
20.5061 0.707107
21.2132 0
inf 0


"layer 72:"
-inf 0
1.41421 0
9.89949 8.48528
10.6066 7.77817
11.3137 8.48528
19.799 0
inf 0


"layer 73:"
-inf 0
1.41421 0
9.89949 8.48528
18.3848 0
inf 0


"layer 74:"
-inf 0
1.41421 0
9.19239 7.77817
9.89949 7.07107
10.6066 7.77817
18.3848 0
inf 0


"layer 75:"
-inf 0
1.41421 0
9.19239 7.77817
9.89949 7.07107
10.6066 7.77817
18.3848 0
inf 0


"layer 76:"
-inf 0
1.41421 0
9.19239 7.77817
16.9706 0
inf 0


"layer 77:"
-inf 0
1.41421 0
9.19239 7.77817
16.9706 0
inf 0


"layer 78:"
-inf 0
1.41421 0
9.19239 7.77817
16.9706 0
inf 0


"layer 79:"
-inf 0
1.41421 0
9.19239 7.77817
16.9706 0
inf 0


"layer 80:"
-inf 0
1.41421 0
9.19239 7.77817
16.9706 0
inf 0


"layer 81:"
-inf 0
1.41421 0
8.48528 7.07107
9.19239 6.36396
9.89949 7.07107
16.9706 0
inf 0


"layer 82:"
-inf 0
1.41421 0
8.48528 7.07107
9.19239 6.36396
9.89949 7.07107
16.9706 0
inf 0


"layer 83:"
-inf 0
1.41421 0
8.48528 7.07107
9.19239 6.36396
9.89949 7.07107
16.9706 0
inf 0


"layer 84:"
-inf 0
1.41421 0
8.48528 7.07107
15.5563 0
16.2635 0.707107
16.9706 0
inf 0


"layer 85:"
-inf 0
1.41421 0
8.48528 7.07107
15.5563 0
inf 0


"layer 86:"
-inf 0
1.41421 0
8.48528 7.07107
15.5563 0
inf 0


"layer 87:"
-inf 0
1.41421 0
8.48528 7.07107
15.5563 0
inf 0


"layer 88:"
-inf 0
1.41421 0
8.48528 7.07107
15.5563 0
inf 0


"layer 89:"
-inf 0
1.41421 0
8.48528 7.07107
15.5563 0
inf 0


"layer 90:"
-inf 0
1.41421 0
7.77817 6.36396
8.48528 5.65685
9.19239 6.36396
15.5563 0
inf 0


"layer 91:"
-inf 0
1.41421 0
7.77817 6.36396
8.48528 5.65685
9.19239 6.36396
15.5563 0
inf 0


"layer 92:"
-inf 0
1.41421 0
7.77817 6.36396
8.48528 5.65685
9.19239 6.36396
15.5563 0
inf 0


"layer 93:"
-inf 0
1.41421 0
7.77817 6.36396
10.6066 3.53553
11.3137 4.24264
15.5563 0
inf 0


"layer 94:"
-inf 0
1.41421 0
7.77817 6.36396
14.1421 0
14.8492 0.707107
15.5563 0
inf 0


"layer 95:"
-inf 0
1.41421 0
7.77817 6.36396
14.1421 0
14.8492 0.707107
15.5563 0
inf 0


"layer 96:"
-inf 0
1.41421 0
7.07107 5.65685
7.77817 4.94975
8.48528 5.65685
14.1421 0
inf 0


"layer 97:"
-inf 0
1.41421 0
7.07107 5.65685
7.77817 4.94975
8.48528 5.65685
14.1421 0
inf 0


"layer 98:"
-inf 0
1.41421 0
6.36396 4.94975
7.07107 4.24264
8.48528 5.65685
14.1421 0
inf 0


"layer 99:"
-inf 0
1.41421 0
6.36396 4.94975
7.07107 4.24264
7.77817 4.94975
9.89949 2.82843
10.6066 3.53553
14.1421 0
inf 0


"layer 100:"
-inf 0
1.41421 0
6.36396 4.94975
7.07107 4.24264
7.77817 4.94975
12.7279 0
13.435 0.707107
14.1421 0
inf 0


"layer 101:"
-inf 0
1.41421 0
5.65685 4.24264
6.36396 3.53553
7.07107 4.24264
9.19239 2.12132
9.89949 2.82843
12.7279 0
inf 0


"layer 102:"
-inf 0
1.41421 0
5.65685 4.24264
6.36396 3.53553
7.07107 4.24264
11.3137 0
12.0208 0.707107
12.7279 0
inf 0


"layer 103:"
-inf 0
1.41421 0
5.65685 4.24264
6.36396 3.53553
7.07107 4.24264
11.3137 0
inf 0


"layer 104:"
-inf 0
1.41421 0
5.65685 4.24264
8.48528 1.41421
9.19239 2.12132
11.3137 0
inf 0


"layer 105:"
-inf 0
1.41421 0
4.94975 3.53553
5.65685 2.82843
6.36396 3.53553
9.89949 0
inf 0


"layer 106:"
-inf 0
1.41421 0
4.94975 3.53553
5.65685 2.82843
6.36396 3.53553
9.89949 0
inf 0


"layer 107:"
-inf 0
1.41421 0
4.94975 3.53553
5.65685 2.82843
6.36396 3.53553
9.89949 0
inf 0


"layer 108:"
-inf 0
1.41421 0
4.94975 3.53553
5.65685 2.82843
6.36396 3.53553
9.89949 0
inf 0


"layer 109:"
-inf 0
1.41421 0
4.24264 2.82843
4.94975 2.12132
6.36396 3.53553
9.89949 0
inf 0


"layer 110:"
-inf 0
1.41421 0
3.53553 2.12132
4.24264 1.41421
6.36396 3.53553
9.89949 0
inf 0


"layer 111:"
-inf 0
1.41421 0
3.53553 2.12132
4.24264 1.41421
5.65685 2.82843
6.36396 2.12132
7.07107 2.82843
9.89949 0
inf 0


"layer 112:"
-inf 0
1.41421 0
3.53553 2.12132
4.24264 1.41421
5.65685 2.82843
7.77817 0.707107
8.48528 1.41421
9.89949 0
inf 0


"layer 113:"
-inf 0
1.41421 0
3.53553 2.12132
4.24264 1.41421
5.65685 2.82843
8.48528 0
9.19239 0.707107
9.89949 0
inf 0


"layer 114:"
-inf 0
1.41421 0
2.12132 0.707107
2.82843 0
5.65685 2.82843
8.48528 0
inf 0


"layer 115:"
-inf 0
1.41421 0
2.12132 0.707107
2.82843 0
5.65685 2.82843
8.48528 0
inf 0


"layer 116:"
-inf 0
2.82843 0
5.65685 2.82843
8.48528 0
inf 0


"layer 117:"
-inf 0
2.82843 0
4.94975 2.12132
5.65685 1.41421
6.36396 2.12132
8.48528 0
inf 0


"layer 118:"
-inf 0
2.82843 0
4.94975 2.12132
5.65685 1.41421
6.36396 2.12132
8.48528 0
inf 0


"layer 119:"
-inf 0
2.82843 0
4.94975 2.12132
5.65685 1.41421
6.36396 2.12132
8.48528 0
inf 0


"layer 120:"
-inf 0
2.82843 0
4.24264 1.41421
4.94975 0.707107
6.36396 2.12132
8.48528 0
inf 0


"layer 121:"
-inf 0
2.82843 0
4.24264 1.41421
4.94975 0.707107
5.65685 1.41421
6.36396 0.707107
7.07107 1.41421
8.48528 0
inf 0


"layer 122:"
-inf 0
2.82843 0
4.24264 1.41421
4.94975 0.707107
5.65685 1.41421
7.07107 0
7.77817 0.707107
8.48528 0
inf 0


"layer 123:"
-inf 0
2.82843 0
4.24264 1.41421
4.94975 0.707107
5.65685 1.41421
7.07107 0
7.77817 0.707107
8.48528 0
inf 0


"layer 124:"
-inf 0
2.82843 0
4.24264 1.41421
4.94975 0.707107
5.65685 1.41421
7.07107 0
7.77817 0.707107
8.48528 0
inf 0


"layer 125:"
-inf 0
2.82843 0
4.24264 1.41421
4.94975 0.707107
5.65685 1.41421
7.07107 0
inf 0


"layer 126:"
-inf 0
2.82843 0
4.24264 1.41421
4.94975 0.707107
5.65685 1.41421
7.07107 0
inf 0


"layer 127:"
-inf 0
2.82843 0
4.24264 1.41421
5.65685 0
6.36396 0.707107
7.07107 0
inf 0


"layer 128:"
-inf 0
2.82843 0
4.24264 1.41421
5.65685 0
6.36396 0.707107
7.07107 0
inf 0


"layer 129:"
-inf 0
2.82843 0
4.24264 1.41421
5.65685 0
6.36396 0.707107
7.07107 0
inf 0


"layer 130:"
-inf 0
2.82843 0
4.24264 1.41421
5.65685 0
6.36396 0.707107
7.07107 0
inf 0


"layer 131:"
-inf 0
2.82843 0
4.24264 1.41421
5.65685 0
inf 0


"layer 132:"
-inf 0
2.82843 0
4.24264 1.41421
5.65685 0
inf 0


"layer 133:"
-inf 0
2.82843 0
4.24264 1.41421
5.65685 0
inf 0


"layer 134:"
-inf 0
2.82843 0
4.24264 1.41421
5.65685 0
inf 0


"layer 135:"
-inf 0
2.82843 0
3.53553 0.707107
4.24264 0
4.94975 0.707107
5.65685 0
inf 0


"layer 136:"
-inf 0
2.82843 0
3.53553 0.707107
4.24264 0
4.94975 0.707107
5.65685 0
inf 0


"layer 137:"
-inf 0
2.82843 0
3.53553 0.707107
4.24264 0
4.94975 0.707107
5.65685 0
inf 0


"layer 138:"
-inf 0
2.82843 0
3.53553 0.707107
4.24264 0
4.94975 0.707107
5.65685 0
inf 0


"layer 139:"
-inf 0
2.82843 0
3.53553 0.707107
4.24264 0
4.94975 0.707107
5.65685 0
inf 0


"layer 140:"
-inf 0
2.82843 0
3.53553 0.707107
4.24264 0
4.94975 0.707107
5.65685 0
inf 0


"layer 141:"
-inf 0
2.82843 0
3.53553 0.707107
4.24264 0
4.94975 0.707107
5.65685 0
inf 0


"layer 142:"
-inf 0
2.82843 0
3.53553 0.707107
4.24264 0
4.94975 0.707107
5.65685 0
inf 0


"layer 143:"
-inf 0
2.82843 0
3.53553 0.707107
4.24264 0
4.94975 0.707107
5.65685 0
inf 0


"layer 144:"
-inf 0
2.82843 0
3.53553 0.707107
4.24264 0
4.94975 0.707107
5.65685 0
inf 0


"layer 145:"
-inf 0
2.82843 0
3.53553 0.707107
4.24264 0
4.94975 0.707107
5.65685 0
inf 0


"layer 146:"
-inf 0
2.82843 0
3.53553 0.707107
4.24264 0
4.94975 0.707107
5.65685 0
inf 0


"layer 147:"
-inf 0
2.82843 0
3.53553 0.707107
4.24264 0
4.94975 0.707107
5.65685 0
inf 0


"layer 148:"
-inf 0
2.82843 0
3.53553 0.707107
4.24264 0
4.94975 0.707107
5.65685 0
inf 0


"layer 149:"
-inf 0
2.82843 0
3.53553 0.707107
4.24264 0
4.94975 0.707107
5.65685 0
inf 0


"layer 150:"
-inf 0
2.82843 0
3.53553 0.707107
4.24264 0
4.94975 0.707107
5.65685 0
inf 0


"layer 151:"
-inf 0
2.82843 0
3.53553 0.707107
4.24264 0
4.94975 0.707107
5.65685 0
inf 0


"layer 152:"
-inf 0
2.82843 0
3.53553 0.707107
4.24264 0
4.94975 0.707107
5.65685 0
inf 0


"layer 153:"
-inf 0
2.82843 0
3.53553 0.707107
4.24264 0
inf 0


"layer 154:"
-inf 0
2.82843 0
3.53553 0.707107
4.24264 0
inf 0


