# persistence landscape
# X Y
"layer 0:"
-inf 0
1.41421 0
115.707 114.293
230 0
inf 0


"layer 1:"
-inf 0
1.41421 0
7.77817 6.36396
14.1421 0
inf 0


"layer 2:"
-inf 0
1.41421 0
7.77817 6.36396
14.1421 0
inf 0


"layer 3:"
-inf 0
1.41421 0
7.07107 5.65685
12.7279 0
inf 0


"layer 4:"
-inf 0
1.41421 0
7.07107 5.65685
12.7279 0
inf 0


"layer 5:"
-inf 0
1.41421 0
7.07107 5.65685
12.7279 0
inf 0


"layer 6:"
-inf 0
1.41421 0
7.07107 5.65685
12.7279 0
inf 0


"layer 7:"
-inf 0
1.41421 0
7.07107 5.65685
12.7279 0
inf 0


"layer 8:"
-inf 0
1.41421 0
4.24264 2.82843
7.07107 0
11.3137 0
12.0208 0.707107
12.7279 0
inf 0


"layer 9:"
-inf 0
2.82843 0
4.94975 2.12132
7.07107 0
inf 0


"layer 10:"
-inf 0
2.82843 0
4.24264 1.41421
5.65685 0
inf 0


"layer 11:"
-inf 0
2.82843 0
3.53553 0.707107
4.24264 0
4.94975 0.707107
5.65685 0
inf 0


"layer 12:"
-inf 0
2.82843 0
3.53553 0.707107
4.24264 0
inf 0


