# persistence landscape
# X Y
"layer 0:"
-inf 0
16.9706 0
123.485 106.515
230 0
inf 0


"layer 1:"
-inf 0
16.9706 0
123.485 106.515
230 0
inf 0


"layer 2:"
-inf 0
16.9706 0
123.485 106.515
230 0
inf 0


"layer 3:"
-inf 0
24.0416 0
127.021 102.979
230 0
inf 0


"layer 4:"
-inf 0
28.2843 0
129.142 100.858
230 0
inf 0


"layer 5:"
-inf 0
69.2965 0
149.648 80.3518
230 0
inf 0


"layer 6:"
-inf 0
70.7107 0
150.355 79.6447
230 0
inf 0


"layer 7:"
-inf 0
70.7107 0
150.355 79.6447
230 0
inf 0


"layer 8:"
-inf 0
73.5391 0
151.77 78.2304
230 0
inf 0


"layer 9:"
-inf 0
73.5391 0
151.77 78.2304
230 0
inf 0


"layer 10:"
-inf 0
73.5391 0
151.77 78.2304
230 0
inf 0


"layer 11:"
-inf 0
74.9533 0
152.477 77.5233
230 0
inf 0


"layer 12:"
-inf 0
74.9533 0
152.477 77.5233
230 0
inf 0


"layer 13:"
-inf 0
74.9533 0
152.477 77.5233
230 0
inf 0


"layer 14:"
-inf 0
86.267 0
158.134 71.8665
230 0
inf 0


