# persistence landscape
# X Y
"layer 0:"
-inf 0
1.41421 0
115.707 114.293
230 0
inf 0


"layer 1:"
-inf 0
1.41421 0
115.707 114.293
230 0
inf 0


"layer 2:"
-inf 0
1.41421 0
24.0416 22.6274
46.669 0
inf 0


"layer 3:"
-inf 0
1.41421 0
22.6274 21.2132
43.8406 0
inf 0


"layer 4:"
-inf 0
1.41421 0
22.6274 21.2132
43.8406 0
inf 0


"layer 5:"
-inf 0
1.41421 0
22.6274 21.2132
43.8406 0
inf 0


"layer 6:"
-inf 0
1.41421 0
21.9203 20.5061
42.4264 0
inf 0


"layer 7:"
-inf 0
1.41421 0
21.9203 20.5061
42.4264 0
inf 0


"layer 8:"
-inf 0
1.41421 0
21.9203 20.5061
42.4264 0
inf 0


"layer 9:"
-inf 0
1.41421 0
21.9203 20.5061
42.4264 0
inf 0


"layer 10:"
-inf 0
1.41421 0
21.9203 20.5061
42.4264 0
inf 0


"layer 11:"
-inf 0
1.41421 0
21.9203 20.5061
42.4264 0
inf 0


"layer 12:"
-inf 0
1.41421 0
21.9203 20.5061
42.4264 0
inf 0


"layer 13:"
-inf 0
1.41421 0
21.9203 20.5061
42.4264 0
inf 0


"layer 14:"
-inf 0
1.41421 0
21.9203 20.5061
42.4264 0
inf 0


"layer 15:"
-inf 0
1.41421 0
21.9203 20.5061
42.4264 0
inf 0


"layer 16:"
-inf 0
1.41421 0
21.9203 20.5061
42.4264 0
inf 0


"layer 17:"
-inf 0
1.41421 0
21.9203 20.5061
42.4264 0
inf 0


"layer 18:"
-inf 0
1.41421 0
21.9203 20.5061
42.4264 0
inf 0


"layer 19:"
-inf 0
1.41421 0
21.9203 20.5061
42.4264 0
inf 0


"layer 20:"
-inf 0
1.41421 0
21.9203 20.5061
42.4264 0
inf 0


"layer 21:"
-inf 0
1.41421 0
21.9203 20.5061
42.4264 0
inf 0


"layer 22:"
-inf 0
1.41421 0
21.9203 20.5061
42.4264 0
inf 0


"layer 23:"
-inf 0
1.41421 0
21.9203 20.5061
42.4264 0
inf 0


"layer 24:"
-inf 0
1.41421 0
21.9203 20.5061
42.4264 0
inf 0


"layer 25:"
-inf 0
1.41421 0
9.19239 7.77817
16.9706 0
41.0122 0
41.7193 0.707107
42.4264 0
inf 0


"layer 26:"
-inf 0
1.41421 0
8.48528 7.07107
15.5563 0
inf 0


"layer 27:"
-inf 0
1.41421 0
8.48528 7.07107
15.5563 0
inf 0


"layer 28:"
-inf 0
1.41421 0
7.77817 6.36396
14.1421 0
inf 0


"layer 29:"
-inf 0
1.41421 0
7.77817 6.36396
14.1421 0
inf 0


"layer 30:"
-inf 0
1.41421 0
7.77817 6.36396
14.1421 0
inf 0


"layer 31:"
-inf 0
1.41421 0
7.07107 5.65685
12.7279 0
inf 0


"layer 32:"
-inf 0
1.41421 0
7.07107 5.65685
12.7279 0
inf 0


"layer 33:"
-inf 0
1.41421 0
7.07107 5.65685
12.7279 0
inf 0


"layer 34:"
-inf 0
1.41421 0
7.07107 5.65685
12.7279 0
inf 0


"layer 35:"
-inf 0
1.41421 0
7.07107 5.65685
12.7279 0
inf 0


"layer 36:"
-inf 0
1.41421 0
6.36396 4.94975
11.3137 0
inf 0


"layer 37:"
-inf 0
1.41421 0
6.36396 4.94975
11.3137 0
inf 0


"layer 38:"
-inf 0
1.41421 0
6.36396 4.94975
11.3137 0
inf 0


"layer 39:"
-inf 0
1.41421 0
6.36396 4.94975
11.3137 0
inf 0


"layer 40:"
-inf 0
1.41421 0
5.65685 4.24264
6.36396 3.53553
7.07107 4.24264
11.3137 0
inf 0


"layer 41:"
-inf 0
1.41421 0
5.65685 4.24264
6.36396 3.53553
7.07107 4.24264
11.3137 0
inf 0


"layer 42:"
-inf 0
1.41421 0
5.65685 4.24264
9.89949 0
10.6066 0.707107
11.3137 0
inf 0


"layer 43:"
-inf 0
1.41421 0
5.65685 4.24264
9.89949 0
10.6066 0.707107
11.3137 0
inf 0


"layer 44:"
-inf 0
1.41421 0
5.65685 4.24264
9.89949 0
10.6066 0.707107
11.3137 0
inf 0


"layer 45:"
-inf 0
1.41421 0
4.24264 2.82843
4.94975 2.12132
6.36396 3.53553
9.89949 0
inf 0


"layer 46:"
-inf 0
1.41421 0
4.24264 2.82843
4.94975 2.12132
6.36396 3.53553
9.89949 0
inf 0


"layer 47:"
-inf 0
1.41421 0
3.53553 2.12132
4.24264 1.41421
5.65685 2.82843
7.77817 0.707107
8.48528 1.41421
9.89949 0
inf 0


"layer 48:"
-inf 0
1.41421 0
3.53553 2.12132
4.24264 1.41421
4.94975 2.12132
6.36396 0.707107
7.07107 1.41421
8.48528 0
9.19239 0.707107
9.89949 0
inf 0


"layer 49:"
-inf 0
2.82843 0
4.94975 2.12132
7.07107 0
7.77817 0.707107
8.48528 0
9.19239 0.707107
9.89949 0
inf 0


"layer 50:"
-inf 0
2.82843 0
4.24264 1.41421
4.94975 0.707107
5.65685 1.41421
7.07107 0
8.48528 0
9.19239 0.707107
9.89949 0
inf 0


"layer 51:"
-inf 0
2.82843 0
4.24264 1.41421
5.65685 0
6.36396 0.707107
7.07107 0
inf 0


"layer 52:"
-inf 0
2.82843 0
3.53553 0.707107
4.24264 0
4.94975 0.707107
5.65685 0
6.36396 0.707107
7.07107 0
inf 0


"layer 53:"
-inf 0
2.82843 0
3.53553 0.707107
4.24264 0
4.94975 0.707107
5.65685 0
6.36396 0.707107
7.07107 0
inf 0


"layer 54:"
-inf 0
2.82843 0
3.53553 0.707107
4.24264 0
4.94975 0.707107
5.65685 0
6.36396 0.707107
7.07107 0
inf 0


"layer 55:"
-inf 0
2.82843 0
3.53553 0.707107
4.24264 0
4.94975 0.707107
5.65685 0
inf 0


"layer 56:"
-inf 0
2.82843 0
3.53553 0.707107
4.24264 0
inf 0


"layer 57:"
-inf 0
2.82843 0
3.53553 0.707107
4.24264 0
inf 0


"layer 58:"
-inf 0
2.82843 0
3.53553 0.707107
4.24264 0
inf 0


