# persistence landscape
# X Y
"layer 0:"
-inf 0
52.3259 0
141.163 88.837
230 0
inf 0


"layer 1:"
-inf 0
52.3259 0
141.163 88.837
230 0
inf 0


"layer 2:"
-inf 0
53.7401 0
141.87 88.1299
230 0
inf 0


"layer 3:"
-inf 0
53.7401 0
141.87 88.1299
230 0
inf 0


"layer 4:"
-inf 0
56.5685 0
143.284 86.7157
230 0
inf 0


"layer 5:"
-inf 0
56.5685 0
143.284 86.7157
230 0
inf 0


"layer 6:"
-inf 0
60.8112 0
145.406 84.5944
230 0
inf 0


