# persistence landscape
# X Y
"layer 0:"
-inf 0
1.41421 0
115.707 114.293
230 0
inf 0


"layer 1:"
-inf 0
1.41421 0
115.707 114.293
230 0
inf 0


"layer 2:"
-inf 0
1.41421 0
19.0919 17.6777
36.7696 0
inf 0


"layer 3:"
-inf 0
1.41421 0
18.3848 16.9706
35.3553 0
inf 0


"layer 4:"
-inf 0
1.41421 0
17.6777 16.2635
33.9411 0
inf 0


"layer 5:"
-inf 0
1.41421 0
17.6777 16.2635
33.9411 0
inf 0


"layer 6:"
-inf 0
1.41421 0
17.6777 16.2635
33.9411 0
inf 0


"layer 7:"
-inf 0
1.41421 0
16.9706 15.5563
32.5269 0
inf 0


"layer 8:"
-inf 0
1.41421 0
16.9706 15.5563
32.5269 0
inf 0


"layer 9:"
-inf 0
1.41421 0
16.9706 15.5563
32.5269 0
inf 0


"layer 10:"
-inf 0
1.41421 0
16.9706 15.5563
32.5269 0
inf 0


"layer 11:"
-inf 0
1.41421 0
16.9706 15.5563
32.5269 0
inf 0


"layer 12:"
-inf 0
1.41421 0
16.9706 15.5563
32.5269 0
inf 0


"layer 13:"
-inf 0
1.41421 0
16.9706 15.5563
32.5269 0
inf 0


"layer 14:"
-inf 0
1.41421 0
16.9706 15.5563
32.5269 0
inf 0


"layer 15:"
-inf 0
1.41421 0
16.9706 15.5563
32.5269 0
inf 0


"layer 16:"
-inf 0
1.41421 0
16.9706 15.5563
32.5269 0
inf 0


"layer 17:"
-inf 0
1.41421 0
16.9706 15.5563
32.5269 0
inf 0


"layer 18:"
-inf 0
1.41421 0
16.9706 15.5563
32.5269 0
inf 0


"layer 19:"
-inf 0
1.41421 0
16.9706 15.5563
32.5269 0
inf 0


"layer 20:"
-inf 0
1.41421 0
16.9706 15.5563
32.5269 0
inf 0


"layer 21:"
-inf 0
1.41421 0
16.9706 15.5563
32.5269 0
inf 0


"layer 22:"
-inf 0
1.41421 0
16.9706 15.5563
32.5269 0
inf 0


"layer 23:"
-inf 0
1.41421 0
7.07107 5.65685
12.7279 0
31.1127 0
31.8198 0.707107
32.5269 0
inf 0


"layer 24:"
-inf 0
1.41421 0
6.36396 4.94975
11.3137 0
inf 0


"layer 25:"
-inf 0
1.41421 0
5.65685 4.24264
9.89949 0
inf 0


"layer 26:"
-inf 0
1.41421 0
5.65685 4.24264
9.89949 0
inf 0


"layer 27:"
-inf 0
1.41421 0
5.65685 4.24264
9.89949 0
inf 0


"layer 28:"
-inf 0
1.41421 0
4.94975 3.53553
8.48528 0
9.19239 0.707107
9.89949 0
inf 0


"layer 29:"
-inf 0
1.41421 0
4.24264 2.82843
7.07107 0
inf 0


"layer 30:"
-inf 0
1.41421 0
2.12132 0.707107
2.82843 0
3.53553 0.707107
4.24264 0
4.94975 0.707107
5.65685 0
6.36396 0.707107
7.07107 0
inf 0


"layer 31:"
-inf 0
2.82843 0
3.53553 0.707107
4.24264 0
inf 0


"layer 32:"
-inf 0
2.82843 0
3.53553 0.707107
4.24264 0
inf 0


"layer 33:"
-inf 0
2.82843 0
3.53553 0.707107
4.24264 0
inf 0


"layer 34:"
-inf 0
2.82843 0
3.53553 0.707107
4.24264 0
inf 0


