# persistence landscape
# X Y
"layer 0:"
-inf 0
24.0416 0
127.021 102.979
230 0
inf 0


"layer 1:"
-inf 0
24.0416 0
127.021 102.979
230 0
inf 0


"layer 2:"
-inf 0
24.0416 0
127.021 102.979
230 0
inf 0


"layer 3:"
-inf 0
25.4558 0
127.728 102.272
230 0
inf 0


"layer 4:"
-inf 0
31.1127 0
130.556 99.4437
230 0
inf 0


"layer 5:"
-inf 0
31.1127 0
130.556 99.4437
230 0
inf 0


"layer 6:"
-inf 0
56.5685 0
143.284 86.7157
230 0
inf 0


"layer 7:"
-inf 0
56.5685 0
143.284 86.7157
230 0
inf 0


"layer 8:"
-inf 0
57.9828 0
143.991 86.0086
230 0
inf 0


"layer 9:"
-inf 0
60.8112 0
145.406 84.5944
230 0
inf 0


"layer 10:"
-inf 0
65.0538 0
147.527 82.4731
230 0
inf 0


