# persistence landscape
# X Y
"layer 0:"
-inf 0
11.3137 0
120.657 109.343
230 0
inf 0


"layer 1:"
-inf 0
14.1421 0
122.071 107.929
230 0
inf 0


"layer 2:"
-inf 0
15.5563 0
122.778 107.222
230 0
inf 0


"layer 3:"
-inf 0
15.5563 0
122.778 107.222
230 0
inf 0


"layer 4:"
-inf 0
16.9706 0
123.485 106.515
230 0
inf 0


"layer 5:"
-inf 0
19.799 0
124.899 105.101
230 0
inf 0


"layer 6:"
-inf 0
21.2132 0
125.607 104.393
230 0
inf 0


"layer 7:"
-inf 0
21.2132 0
125.607 104.393
230 0
inf 0


"layer 8:"
-inf 0
22.6274 0
126.314 103.686
230 0
inf 0


"layer 9:"
-inf 0
24.0416 0
127.021 102.979
230 0
inf 0


"layer 10:"
-inf 0
24.0416 0
127.021 102.979
230 0
inf 0


"layer 11:"
-inf 0
24.0416 0
127.021 102.979
230 0
inf 0


"layer 12:"
-inf 0
24.0416 0
127.021 102.979
230 0
inf 0


"layer 13:"
-inf 0
24.0416 0
127.021 102.979
230 0
inf 0


"layer 14:"
-inf 0
25.4558 0
127.728 102.272
230 0
inf 0


"layer 15:"
-inf 0
25.4558 0
127.728 102.272
230 0
inf 0


"layer 16:"
-inf 0
42.4264 0
136.213 93.7868
230 0
inf 0


"layer 17:"
-inf 0
42.4264 0
136.213 93.7868
230 0
inf 0


"layer 18:"
-inf 0
42.4264 0
136.213 93.7868
230 0
inf 0


"layer 19:"
-inf 0
42.4264 0
136.213 93.7868
230 0
inf 0


"layer 20:"
-inf 0
43.8406 0
136.92 93.0797
230 0
inf 0


"layer 21:"
-inf 0
43.8406 0
136.92 93.0797
230 0
inf 0


"layer 22:"
-inf 0
45.2548 0
137.627 92.3726
230 0
inf 0


"layer 23:"
-inf 0
45.2548 0
137.627 92.3726
230 0
inf 0


"layer 24:"
-inf 0
46.669 0
138.335 91.6655
230 0
inf 0


"layer 25:"
-inf 0
52.3259 0
141.163 88.837
230 0
inf 0


"layer 26:"
-inf 0
53.7401 0
141.87 88.1299
230 0
inf 0


