0.0863114	0.0954751
0.10249	0.103116
0.107491	0.20497
0.114579	0.115409
0.115969	0.123794
0.116712	0.152899
0.120468	0.141115
0.122199	0.147307
0.123337	0.171127
0.124572	0.13889
0.125327	0.150108
0.130012	0.131896
0.134905	0.139293
0.134982	0.146341
0.136338	0.156761
0.137742	0.24861
0.138784	0.196219
0.139038	0.157536
0.13948	0.150081
0.139735	0.141373
0.140107	0.188816
0.140125	0.153141
0.143999	0.162794
0.144011	0.150356
0.147368	0.158333
0.147715	0.328762
0.149917	0.219495
0.150172	0.273235
0.151114	0.159833
0.15213	0.16171
0.152429	0.204524
0.155645	0.196005
0.156991	0.160964
0.15715	0.23101
0.159035	0.201988
0.159182	0.168767
0.160273	0.160605
0.160532	0.246213
0.164089	0.327146
0.164668	0.165702
0.165811	0.185645
0.168964	0.300438
0.169021	0.189143
0.169167	0.205723
0.170628	0.288156
0.170908	0.17555
0.171509	0.2636
0.17408	0.241817
0.1746	0.262435
0.176621	0.253805
0.176738	0.212747
0.178136	0.27526
0.1788	0.213863
0.178816	0.234498
0.183683	0.194069
0.185282	0.185758
0.187714	0.197595
0.192261	0.252874
0.194874	0.294564
0.195249	0.196251
0.196066	0.265321
0.198661	0.242367
0.20318	0.234351
0.205551	0.31466
0.206499	0.218455
0.209284	0.223395
0.209346	0.322765
0.21049	0.348243
0.211453	0.243568
0.216824	0.258979
0.219776	0.222829
0.222002	0.343516
0.22431	0.279789
0.22782	0.266176
0.227826	0.294454
0.230262	0.242639
0.230513	0.245536
0.233487	0.24065
0.236496	0.279329
0.243218	0.265069
0.245116	0.269885
0.26194	0.281176
0.266877	0.303459
0.279231	0.285596
