0.0932291	0.115867
0.0977196	0.114801
0.0984874	0.102823
0.0998216	0.149045
0.102149	0.124971
0.109015	0.135493
0.112274	0.121427
0.118619	0.12633
0.119483	0.147477
0.127489	0.147804
0.1275	0.135042
0.12827	0.224044
0.132907	0.137521
0.137826	0.226556
0.140661	0.254815
0.141282	0.161516
0.141303	0.173053
0.142597	0.157975
0.143387	0.185461
0.144361	0.174228
0.148331	0.166038
0.149563	0.150062
0.150962	0.219517
0.151298	0.152405
0.155347	0.19696
0.156414	0.335504
0.157295	0.172432
0.159423	0.222493
0.159978	0.183613
0.161506	0.20732
0.161831	0.248783
0.162269	0.176107
0.163461	0.16675
0.164193	0.187376
0.164584	0.286063
0.16676	0.195829
0.167593	0.196484
0.167842	0.185434
0.168147	0.270437
0.170306	0.332651
0.17142	0.215906
0.171882	0.321059
0.17197	0.221755
0.172114	0.173312
0.172348	0.321678
0.173438	0.186697
0.17464	0.313904
0.17529	0.25879
0.17724	0.272519
0.177309	0.178123
0.178108	0.209632
0.178856	0.187304
0.180144	0.258558
0.18338	0.199683
0.184287	0.275047
0.185676	0.205341
0.1914	0.286178
0.192276	0.239758
0.193593	0.19746
0.198925	0.230481
0.199738	0.207372
0.199931	0.291614
0.200271	0.211813
0.200497	0.282293
0.201066	0.236646
0.203527	0.261418
0.204245	0.2279
0.20683	0.263767
0.207503	0.222709
0.207622	0.249016
0.216506	0.276271
0.225455	0.267697
0.226223	0.321363
0.227646	0.231889
0.228096	0.249881
0.228699	0.275595
0.230279	0.242911
0.249372	0.269799
0.251721	0.252082
0.253965	0.291693
0.273308	0.290456
0.288274	0.295893
