0.0858472	0.0969767
0.0951547	0.119533
0.103167	0.125962
0.108996	0.11166
0.113976	0.122332
0.114705	0.142175
0.116728	0.157341
0.121218	0.155753
0.121987	0.166909
0.12225	0.124946
0.123047	0.133904
0.124241	0.159969
0.126655	0.154408
0.129358	0.131851
0.130387	0.159267
0.131362	0.145218
0.131769	0.143905
0.132124	0.140608
0.133975	0.259532
0.139297	0.201913
0.139708	0.197734
0.142387	0.147558
0.142968	0.18316
0.144083	0.146032
0.144315	0.158274
0.147493	0.196545
0.148431	0.268134
0.153271	0.25241
0.154738	0.209751
0.15667	0.233714
0.159891	0.2058
0.159987	0.174324
0.160262	0.174554
0.161294	0.245845
0.161534	0.239104
0.161732	0.315615
0.16318	0.195015
0.16349	0.170565
0.164527	0.227257
0.165467	0.338958
0.167433	0.195604
0.167672	0.174557
0.169526	0.191595
0.169715	0.175124
0.170371	0.183376
0.171088	0.237416
0.171373	0.186
0.172174	0.179492
0.1749	0.196426
0.175292	0.215028
0.176547	0.307461
0.177832	0.282879
0.178554	0.20938
0.180185	0.310479
0.1803	0.186894
0.180574	0.18159
0.180865	0.1988
0.181904	0.285838
0.183145	0.267478
0.185764	0.203313
0.186664	0.224295
0.187098	0.302782
0.187364	0.268743
0.18806	0.209908
0.188698	0.19087
0.189023	0.245093
0.190129	0.291186
0.190839	0.191069
0.190965	0.195364
0.192641	0.199325
0.198353	0.256864
0.200518	0.243504
0.201148	0.284065
0.201494	0.23945
0.204285	0.246941
0.212373	0.280142
0.218499	0.238445
0.219643	0.240874
0.221352	0.223035
0.225737	0.369847
0.235258	0.264179
0.240799	0.24115
0.260299	0.262315
0.272822	0.335378
0.281468	0.300193
0.295238	0.301804
