0.0805208	0.0919153
0.086067	0.123982
0.0872906	0.0874073
0.0928267	0.115519
0.0955371	0.102883
0.0985118	0.105132
0.118692	0.184388
0.119944	0.179972
0.122637	0.185256
0.124121	0.155379
0.125714	0.147602
0.12629	0.279972
0.127751	0.157301
0.127848	0.128894
0.138697	0.148498
0.142926	0.153286
0.143245	0.197608
0.144807	0.184721
0.14542	0.169498
0.145814	0.179716
0.145836	0.146502
0.147239	0.14977
0.147837	0.376867
0.147926	0.17671
0.149984	0.200811
0.152748	0.192072
0.153621	0.219336
0.153625	0.221675
0.155533	0.171368
0.156712	0.165481
0.15733	0.170572
0.157509	0.312933
0.158377	0.187134
0.158451	0.250729
0.159518	0.224379
0.160059	0.175944
0.160781	0.1867
0.161418	0.381539
0.167225	0.341869
0.167469	0.185954
0.167763	0.176976
0.168905	0.228727
0.169205	0.198769
0.171951	0.229432
0.172291	0.175933
0.175561	0.27376
0.175642	0.177301
0.175767	0.295562
0.178199	0.188738
0.179389	0.20928
0.179395	0.246088
0.182935	0.220437
0.184356	0.185268
0.184514	0.204215
0.186272	0.339742
0.190301	0.244125
0.191193	0.199183
0.191756	0.200677
0.191933	0.200726
0.192316	0.263927
0.192411	0.196117
0.197721	0.210389
0.198562	0.304886
0.201277	0.298494
0.203296	0.238785
0.207609	0.219012
0.209648	0.262104
0.209785	0.239374
0.209912	0.289716
0.216494	0.23272
0.21853	0.246599
0.228412	0.235765
0.232069	0.313875
0.243926	0.250466
0.246314	0.251541
0.253522	0.265286
0.259121	0.267057
0.262188	0.309803
0.269054	0.308605
0.271228	0.29639
0.348132	0.358342
