0.0831809	0.0836982
0.0854155	0.109179
0.0947271	0.107143
0.0998561	0.115087
0.102502	0.136803
0.102861	0.114906
0.120581	0.127362
0.12526	0.139652
0.127243	0.185224
0.127341	0.141664
0.128647	0.14717
0.129133	0.171022
0.13125	0.150572
0.1316	0.219535
0.134263	0.153323
0.140219	0.216048
0.144522	0.209093
0.145707	0.331422
0.1466	0.161504
0.147035	0.292479
0.147254	0.170515
0.147732	0.288341
0.148995	0.244238
0.148996	0.325797
0.149319	0.255516
0.149876	0.150306
0.150758	0.250344
0.151762	0.313151
0.153847	0.188442
0.154138	0.189377
0.15494	0.221649
0.15538	0.155953
0.155959	0.291901
0.159769	0.234446
0.160564	0.256085
0.160975	0.306018
0.161729	0.238733
0.162388	0.171629
0.162576	0.249142
0.163697	0.185053
0.166377	0.244459
0.167765	0.175501
0.168714	0.334054
0.171032	0.208722
0.171275	0.183817
0.173002	0.223758
0.173441	0.282589
0.173854	0.276314
0.174474	0.174874
0.17529	0.217527
0.175911	0.231227
0.176115	0.247513
0.178656	0.181386
0.178935	0.18939
0.181282	0.29246
0.182102	0.261949
0.18495	0.234277
0.185809	0.211527
0.186418	0.19093
0.186717	0.213403
0.189399	0.209801
0.192736	0.197711
0.194227	0.204567
0.196751	0.203944
0.200392	0.213831
0.203477	0.215182
0.208635	0.29082
0.21275	0.238786
0.214439	0.305622
0.216377	0.242863
0.219563	0.266235
0.221119	0.301094
0.223681	0.273386
0.226789	0.285637
0.231862	0.286397
0.233607	0.290488
0.234243	0.27061
0.24356	0.258921
0.298384	0.305534
