0.0838388	0.0910699
0.0864353	0.0903261
0.095744	0.133263
0.107036	0.107827
0.109249	0.122925
0.113656	0.127822
0.114489	0.116822
0.117439	0.137419
0.120293	0.151935
0.131318	0.151173
0.133396	0.164232
0.134667	0.152714
0.135075	0.208003
0.136889	0.137155
0.140174	0.165374
0.140655	0.168261
0.141864	0.146514
0.142541	0.150019
0.148022	0.187161
0.149539	0.262729
0.152938	0.259383
0.154125	0.165065
0.157629	0.173409
0.15998	0.352674
0.160353	0.167237
0.160504	0.176358
0.160887	0.207426
0.162217	0.188647
0.162462	0.347555
0.163306	0.206133
0.163802	0.292794
0.165266	0.324575
0.166429	0.173331
0.166802	0.332781
0.17044	0.174906
0.171156	0.184113
0.171168	0.177437
0.17308	0.266411
0.173599	0.239069
0.175357	0.312519
0.175868	0.270631
0.176312	0.218504
0.176734	0.280125
0.177029	0.18603
0.177119	0.236219
0.177285	0.316844
0.178519	0.184012
0.178828	0.196822
0.178931	0.196877
0.179563	0.207294
0.18019	0.263761
0.181385	0.270516
0.182913	0.270393
0.183188	0.221502
0.183911	0.250489
0.184854	0.197464
0.185793	0.191463
0.191949	0.223411
0.194161	0.262201
0.195716	0.209927
0.19614	0.219423
0.206572	0.25209
0.207496	0.237446
0.214381	0.219834
0.214678	0.228808
0.219545	0.269055
0.220438	0.30743
0.221242	0.251207
0.222491	0.243322
0.223978	0.228263
0.230296	0.249001
0.231489	0.256746
0.241572	0.254967
0.242399	0.243526
0.253059	0.256705
0.27144	0.345319
0.278488	0.348546
