0.0530313	0.0582641
0.0857076	0.0879429
0.0857573	0.0926515
0.0872945	0.100272
0.0885745	0.115672
0.10226	0.113741
0.108033	0.113803
0.108245	0.110477
0.111002	0.114084
0.11199	0.119795
0.115679	0.120522
0.123494	0.15911
0.12649	0.169413
0.129146	0.155509
0.134575	0.172571
0.137846	0.179546
0.139452	0.217084
0.139476	0.243786
0.141022	0.177673
0.142401	0.30958
0.143541	0.168176
0.14429	0.202261
0.144497	0.149668
0.144771	0.294326
0.147127	0.173534
0.147284	0.153566
0.148591	0.153432
0.149871	0.295345
0.152104	0.333069
0.152862	0.1694
0.153512	0.229855
0.15598	0.28781
0.159928	0.213957
0.162593	0.303986
0.163877	0.287473
0.164076	0.281753
0.164172	0.243115
0.164271	0.277875
0.165675	0.234281
0.167092	0.172744
0.169068	0.22711
0.171193	0.287724
0.171597	0.185356
0.172754	0.394446
0.17561	0.182062
0.177301	0.226115
0.178524	0.220839
0.179214	0.369587
0.179677	0.204972
0.180595	0.224458
0.182214	0.229498
0.183835	0.268121
0.184209	0.244534
0.185044	0.207382
0.18611	0.199435
0.186446	0.206027
0.186809	0.260311
0.188179	0.221685
0.191029	0.222278
0.191587	0.253825
0.193797	0.247803
0.194465	0.280953
0.198958	0.207105
0.199262	0.268853
0.200388	0.281455
0.20129	0.204041
0.202707	0.231031
0.206354	0.229881
0.209886	0.263219
0.214322	0.214675
0.228098	0.230374
0.231022	0.236109
0.234295	0.263511
0.235738	0.256468
0.24051	0.256268
0.248115	0.269632
0.249217	0.258661
0.251585	0.2542
0.265586	0.273723
0.277237	0.308803
