0.0808998	0.0852123
0.0829945	0.0914673
0.100603	0.100895
0.109164	0.153667
0.115326	0.137881
0.117391	0.119518
0.117647	0.13501
0.119723	0.141685
0.121677	0.131816
0.124599	0.242586
0.125242	0.168656
0.12738	0.266493
0.127685	0.132142
0.129707	0.130894
0.131459	0.167853
0.132628	0.151538
0.133621	0.157471
0.139252	0.186466
0.145717	0.196421
0.145751	0.232124
0.147483	0.152778
0.148953	0.217365
0.14977	0.231619
0.150608	0.172461
0.152422	0.184936
0.153005	0.179935
0.155221	0.193789
0.155284	0.266083
0.15657	0.172016
0.157417	0.233745
0.158523	0.170633
0.159898	0.160687
0.160567	0.343116
0.161037	0.253107
0.161098	0.18517
0.161182	0.18845
0.161194	0.259984
0.162582	0.257115
0.164105	0.18281
0.164215	0.181329
0.164402	0.24776
0.165094	0.182315
0.165539	0.181177
0.165627	0.256696
0.166903	0.180235
0.167165	0.318502
0.167194	0.193718
0.167779	0.172322
0.16851	0.236982
0.169594	0.192102
0.169748	0.195245
0.17104	0.257157
0.171306	0.21287
0.172033	0.173864
0.17249	0.311469
0.174316	0.190895
0.174653	0.181985
0.175306	0.226265
0.175666	0.225757
0.176285	0.20022
0.179772	0.290293
0.180741	0.205978
0.183054	0.196781
0.18464	0.301009
0.185829	0.269712
0.186133	0.199479
0.188036	0.243046
0.188784	0.190283
0.192235	0.28411
0.19248	0.275223
0.196797	0.305429
0.197829	0.219228
0.199431	0.272827
0.200014	0.301048
0.201282	0.254631
0.208525	0.209288
0.209794	0.220546
0.210834	0.227064
0.221775	0.243826
0.223243	0.251148
0.224249	0.229652
0.224325	0.266462
0.224873	0.241185
0.225167	0.234775
0.226926	0.307368
0.234366	0.244366
0.2473	0.252115
0.331944	0.332337
