0.06302	0.0795218
0.0751369	0.0961369
0.080252	0.0925111
0.102157	0.125651
0.110647	0.133462
0.114632	0.143456
0.114692	0.117067
0.118926	0.167269
0.120751	0.134325
0.121597	0.122722
0.125226	0.139911
0.128489	0.142961
0.130844	0.144438
0.131443	0.146795
0.133061	0.145849
0.138876	0.165862
0.139137	0.160145
0.139918	0.16987
0.140665	0.216873
0.141538	0.168297
0.142622	0.150389
0.146136	0.178913
0.148865	0.205692
0.153409	0.15476
0.153849	0.160229
0.153862	0.166119
0.155336	0.16138
0.157628	0.305611
0.15941	0.239496
0.159577	0.190008
0.162433	0.176638
0.164632	0.401282
0.165883	0.372522
0.16614	0.185093
0.167134	0.208491
0.167321	0.285894
0.168889	0.201257
0.169683	0.256525
0.170439	0.179328
0.170919	0.206681
0.171724	0.285175
0.172963	0.231449
0.17361	0.175661
0.176772	0.246011
0.178156	0.186915
0.17995	0.298793
0.181179	0.229222
0.181579	0.249096
0.181852	0.246476
0.183323	0.233405
0.183353	0.187243
0.184395	0.262852
0.18811	0.201278
0.188126	0.312226
0.188181	0.194874
0.192783	0.200255
0.1937	0.218674
0.193851	0.238056
0.196676	0.344991
0.196824	0.208512
0.197445	0.247337
0.197465	0.224488
0.198268	0.221978
0.199328	0.285077
0.200791	0.24499
0.201885	0.217227
0.203064	0.227946
0.204119	0.352829
0.207129	0.261604
0.208254	0.21979
0.210735	0.216746
0.213582	0.231923
0.218616	0.222565
0.21892	0.229655
0.222354	0.24969
0.227462	0.263312
0.228111	0.312948
0.234094	0.278967
0.23869	0.279483
0.239284	0.291265
0.250121	0.266632
0.25014	0.255415
0.323189	0.327779
