0.0615852	0.0726098
0.100659	0.10969
0.102941	0.10549
0.107926	0.112291
0.111954	0.144941
0.119284	0.122145
0.120794	0.122123
0.122042	0.135473
0.124972	0.12782
0.126828	0.199827
0.133148	0.175469
0.135201	0.142643
0.136419	0.144272
0.137894	0.149013
0.14149	0.152102
0.144958	0.229053
0.146117	0.291591
0.146893	0.196062
0.147553	0.154203
0.148276	0.312959
0.149529	0.179435
0.15243	0.206776
0.15303	0.172723
0.153209	0.265392
0.156443	0.186519
0.159357	0.174543
0.159402	0.171062
0.159668	0.211806
0.160532	0.175509
0.160608	0.262706
0.161595	0.185211
0.162065	0.234094
0.162303	0.336871
0.162703	0.32913
0.162975	0.196339
0.16465	0.195116
0.164655	0.309319
0.165777	0.322771
0.165908	0.193442
0.167213	0.208836
0.168662	0.181558
0.169903	0.205207
0.170119	0.241005
0.171534	0.196223
0.171691	0.20329
0.172768	0.174128
0.174779	0.208725
0.176291	0.186905
0.177943	0.217507
0.18126	0.19916
0.181345	0.210176
0.182144	0.236383
0.186615	0.27466
0.188598	0.207548
0.191704	0.241114
0.200059	0.280512
0.201087	0.215266
0.202378	0.326853
0.206491	0.219578
0.206833	0.268527
0.207762	0.211772
0.211998	0.256458
0.212598	0.386073
0.213158	0.220078
0.216836	0.241402
0.224249	0.229073
0.22463	0.254103
0.227063	0.242129
0.228002	0.231891
0.228838	0.248083
0.235534	0.251796
0.239265	0.243416
0.240611	0.243226
0.243545	0.274124
0.244198	0.246259
0.253725	0.283256
0.254127	0.261132
0.259108	0.297373
0.264502	0.319555
0.302307	0.304538
