0.081526	0.0863447
0.084467	0.0864116
0.0989193	0.104414
0.100903	0.115478
0.100951	0.111672
0.112644	0.136899
0.114436	0.130556
0.117429	0.154253
0.117617	0.134545
0.119465	0.121403
0.134368	0.141472
0.134596	0.163093
0.134748	0.146071
0.135462	0.148594
0.138866	0.143415
0.140872	0.151403
0.141074	0.183646
0.145376	0.179998
0.14546	0.253114
0.146509	0.181727
0.148663	0.171045
0.149863	0.216035
0.150426	0.172377
0.153113	0.20106
0.154785	0.164343
0.155352	0.25336
0.157696	0.163597
0.159239	0.163224
0.159274	0.182114
0.159771	0.165706
0.16341	0.167045
0.163483	0.342441
0.164213	0.218841
0.164718	0.165645
0.164974	0.308075
0.165442	0.207708
0.166952	0.185636
0.169256	0.39088
0.171795	0.327632
0.172146	0.201695
0.173333	0.328295
0.174078	0.27808
0.174938	0.183555
0.1752	0.204498
0.178265	0.316313
0.180733	0.225228
0.18166	0.208331
0.182531	0.317174
0.183778	0.192079
0.184311	0.25677
0.184585	0.216258
0.190535	0.217178
0.190795	0.272268
0.192188	0.236511
0.192342	0.257405
0.194747	0.282433
0.19591	0.231101
0.198274	0.208912
0.198394	0.277832
0.20139	0.251247
0.201498	0.204393
0.204657	0.217865
0.205911	0.246632
0.206175	0.290103
0.206406	0.278565
0.207708	0.231607
0.20893	0.217964
0.216401	0.259381
0.216503	0.267463
0.219357	0.246545
0.233625	0.251547
0.241815	0.327084
0.247985	0.305835
0.261926	0.262053
0.26453	0.325203
0.272365	0.313821
0.275096	0.282596
