0.0711671	0.0833181
0.0739983	0.0896008
0.0786337	0.0788428
0.081446	0.0913306
0.085751	0.101564
0.100787	0.11518
0.103233	0.106968
0.103822	0.108597
0.108757	0.139496
0.110095	0.128782
0.11844	0.11879
0.122169	0.124056
0.125799	0.179662
0.128986	0.218147
0.134889	0.141214
0.135552	0.151505
0.139491	0.194965
0.139924	0.196291
0.14103	0.170537
0.141744	0.254968
0.142802	0.217826
0.145111	0.180689
0.146084	0.154365
0.147817	0.155884
0.14814	0.231955
0.148706	0.245696
0.149304	0.187256
0.150014	0.272328
0.150723	0.188562
0.151769	0.151992
0.153847	0.209367
0.154332	0.341691
0.154878	0.299925
0.155161	0.384428
0.15539	0.206458
0.15551	0.224336
0.156041	0.167449
0.156642	0.187077
0.156704	0.295401
0.160986	0.215238
0.161233	0.189142
0.162209	0.171176
0.16525	0.24847
0.165374	0.226615
0.165902	0.240577
0.169211	0.1709
0.170799	0.239948
0.173776	0.192613
0.175252	0.201723
0.176869	0.19879
0.176938	0.254998
0.177337	0.184086
0.17852	0.313307
0.179144	0.322613
0.179921	0.181566
0.181714	0.242457
0.182994	0.191078
0.185361	0.337229
0.185647	0.186537
0.186271	0.227821
0.186417	0.193106
0.18694	0.188745
0.191925	0.239818
0.196	0.29263
0.196686	0.270124
0.198936	0.209566
0.202062	0.301339
0.207061	0.216583
0.216593	0.217866
0.217764	0.280303
0.21791	0.228366
0.219934	0.252338
0.221795	0.341528
0.222989	0.22788
0.223037	0.244505
0.22316	0.256423
0.229721	0.23116
0.230268	0.277819
0.232099	0.244297
0.233099	0.310717
0.23464	0.282903
0.23636	0.260488
