1	6124
1	20
1	170
1	13
1	170
1	20
1	9
1	8
1	170
1	170
1	170
1	6
1	170
1	170
1	170
1	170
1	170
1	5
1	170
1	170
1	170
1	20
1	170
1	170
1	12
1	170
1	8
1	18
1	170
1	5
1	170
1	170
1	170
1	9
1	13
1	170
1	20
1	170
1	170
1	7
1	6
1	170
1	170
1	170
1	7
1	7
1	9
1	170
1	4
1	9
1	8
1	9
1	7
1	20
1	7
1	9
1	6
1	170
1	5
1	5
1	170
1	6
1	6
1	170
1	170
1	8
1	6
1	170
1	20
1	7
1	170
1	6124
1	170
1	8
1	12
1	170
1	5
1	170
1	6124
1	170
1	170
1	170
1	4
1	170
1	170
1	170
1	5
1	7
1	13
1	20
1	170
1	170
1	170
1	170
1	170
1	170
1	13
1	170
1	170
1	4
1	8
1	170
1	170
1	170
1	170
1	9
1	170
1	20
1	170
1	170
1	7
1	170
1	170
1	8
1	170
1	5
1	170
1	7
1	12
1	170
1	13
1	170
1	170
1	20
1	13
1	20
1	170
1	5
1	8
1	170
1	170
1	170
1	6124
1	170
1	170
1	3
1	170
1	170
1	170
1	7
1	170
1	170
1	5
1	170
1	9
1	170
1	6
1	3
1	8
1	170
1	6124
1	170
1	20
1	6
1	170
1	170
1	170
1	5
1	5
1	5
1	9
1	20
1	6124
1	170
1	170
1	6
1	2
1	8
1	20
1	170
1	11
1	20
1	170
1	5
1	12
1	5
1	170
1	170
1	13
1	12
1	170
1	170
1	170
1	3
1	13
1	170
1	20
1	170
1	170
1	6
1	5
1	170
1	170
1	170
1	7
1	13
1	3
1	170
1	11
1	170
1	170
1	170
1	170
1	170
1	170
1	5
1	170
1	18
1	170
1	12
1	18
1	8
1	170
1	8
1	4
1	5
1	170
1	170
1	170
1	170
1	170
1	170
1	170
1	4
1	170
1	170
1	170
1	170
1	7
1	4
1	18
1	170
1	170
1	170
1	170
1	18
1	170
1	9
1	170
1	7
1	170
1	170
1	6124
1	8
1	2
1	5
1	170
1	20
1	170
1	170
1	170
1	13
1	170
1	8
1	170
1	2
1	170
1	170
1	7
1	170
1	170
1	170
1	3
1	6
1	5
1	170
1	170
1	170
1	4
1	170
1	18
1	170
1	170
1	6
1	13
1	8
1	3
1	170
2	6
2	8
2	170
2	3
2	170
2	4
2	6
2	3
2	6
2	3
2	3
2	6
2	3
2	4
2	10
2	5
2	4
2	9
2	6
2	4
2	3
2	5
2	170
2	5
2	4
2	3
2	5
2	3
2	6
2	4
2	3
2	4
2	4
2	6
2	8
2	5
3	6
3	4
