1	6124
1	16
1	381
1	381
1	11
1	18
1	10
1	21
1	6124
1	12
1	6
1	381
1	9
1	381
1	9
1	381
1	381
1	381
1	21
1	381
1	381
1	18
1	381
1	381
1	381
1	381
1	6
1	6
1	381
1	9
1	381
1	21
1	381
1	32
1	6124
1	381
1	381
1	381
1	14
1	381
1	11
1	381
1	381
1	381
1	11
1	381
1	6124
1	6
1	16
1	6
1	9
1	6
1	14
1	381
1	381
1	381
1	381
1	381
1	21
1	20
1	381
1	381
1	12
1	381
1	32
1	381
1	381
1	6
1	381
1	14
1	32
1	381
1	32
1	381
1	381
1	381
1	381
1	381
1	381
1	32
1	20
1	12
1	381
1	381
1	381
1	381
1	381
1	381
1	381
1	381
1	381
1	381
1	8
1	5
1	381
1	20
1	11
1	21
1	381
1	381
1	381
1	381
1	381
1	381
1	8
1	381
1	381
1	381
1	381
1	381
1	6
1	381
1	10
1	381
1	8
1	9
1	11
1	11
1	3
1	381
1	381
1	381
1	32
1	6
1	381
1	381
1	381
1	381
1	32
1	381
1	381
1	16
1	381
1	381
1	12
1	18
1	381
1	21
1	18
1	381
1	381
1	11
1	16
1	381
1	381
1	381
1	21
1	381
1	9
1	8
1	381
1	16
1	381
1	32
1	6
1	381
1	381
1	8
1	381
1	381
1	11
1	32
1	18
1	381
1	7
1	381
1	5
1	381
1	381
1	381
1	381
1	381
1	8
1	381
1	381
1	381
1	32
1	381
1	6
1	381
1	381
1	381
1	381
1	381
1	381
1	5
1	381
1	381
1	8
1	381
1	16
1	8
1	381
1	381
1	6124
1	11
1	32
1	4
1	21
1	381
1	4
1	381
1	381
1	381
1	381
1	9
1	381
1	381
1	381
1	9
1	381
1	381
1	11
1	381
1	381
1	381
1	381
1	381
1	14
1	5
1	381
1	381
1	11
1	20
1	5
1	381
1	381
1	21
1	381
1	381
1	14
1	3
1	32
1	381
1	381
1	32
1	381
1	381
1	381
1	381
1	381
1	5
1	381
1	32
1	16
1	5
1	18
1	381
1	381
1	381
1	7
1	381
1	32
1	6
1	5
1	381
1	381
1	381
1	6
1	381
1	20
1	10
1	5
1	381
1	18
1	11
1	11
1	381
1	12
1	20
1	381
1	381
1	4
1	7
1	6124
1	381
1	381
1	8
1	5
1	12
1	5
1	381
1	9
1	20
1	9
1	5
1	381
1	11
1	381
1	381
1	5
1	381
1	381
1	381
1	5
1	20
1	32
1	5
1	5
1	381
1	381
1	381
1	381
1	381
1	381
1	11
1	381
1	381
1	381
1	381
1	381
1	5
1	381
1	381
1	381
1	3
1	381
1	381
1	11
1	381
1	381
1	381
1	381
1	381
1	381
1	18
1	7
1	381
1	381
1	381
1	381
1	20
1	32
1	381
1	381
1	381
1	21
1	4
1	381
1	381
1	381
1	381
1	21
1	11
1	381
1	381
1	381
1	3
1	5
1	18
1	381
1	381
1	20
1	32
1	381
1	5
1	381
1	381
1	11
1	32
1	4
1	381
1	381
1	381
1	381
1	381
1	32
1	381
1	6
1	6
1	32
1	381
1	381
1	21
1	381
1	12
1	381
1	5
1	381
1	32
1	381
1	6
1	16
1	6
1	381
1	381
1	5
1	20
1	381
1	381
1	381
1	381
1	381
1	381
1	381
1	381
1	2
1	381
1	381
1	381
1	381
1	381
1	381
1	381
1	3
1	381
1	381
1	3
1	6
1	381
1	6
1	14
1	381
1	381
1	7
1	381
1	21
1	381
1	12
1	381
1	381
1	381
1	381
1	14
1	381
1	32
1	381
1	11
1	11
1	381
1	381
1	20
1	381
1	381
1	381
1	21
1	5
1	18
1	3
1	381
1	381
1	11
1	381
1	20
1	381
1	381
1	381
1	21
1	20
1	381
1	5
1	5
1	381
1	381
1	14
1	16
1	381
1	381
1	381
1	381
1	7
1	381
1	381
1	3
1	381
1	381
1	381
1	4
1	381
1	381
1	381
1	5
1	381
1	381
1	381
1	381
1	381
1	381
1	4
1	381
1	9
1	381
1	381
1	381
1	381
1	8
1	21
1	381
1	5
1	32
1	381
1	381
1	381
1	381
1	381
1	381
1	381
1	381
1	8
1	381
1	5
1	381
1	32
1	381
1	381
1	381
1	3
1	12
1	381
1	4
1	381
1	381
1	4
1	5
1	381
1	381
1	11
1	381
1	381
1	381
1	381
1	4
1	381
1	381
1	381
1	11
1	381
1	381
1	18
1	381
1	6
1	6
1	381
1	381
1	381
1	381
1	381
1	4
1	5
2	8
2	4
2	381
2	5
2	3
2	4
2	4
2	10
2	3
2	4
2	6
2	7
2	4
2	4
2	11
2	4
2	5
2	3
2	8
2	7
2	3
2	6
2	4
2	4
2	12
2	10
2	4
2	21
2	5
2	11
2	10
2	4
2	3
2	381
2	4
2	7
2	11
2	5
2	6
2	4
2	3
2	9
2	3
2	4
2	6
2	4
2	10
2	4
2	4
2	3
2	4
2	11
2	3
2	4
2	3
2	4
2	7
2	3
3	5
3	4
3	7
3	4
3	4
