1	6124
1	27
1	27
1	27
1	429
1	429
1	429
1	429
1	429
1	18
1	5
1	429
1	429
1	429
1	429
1	429
1	3
1	429
1	429
1	429
1	429
1	429
1	429
1	429
1	429
1	6124
1	9
1	429
1	429
1	6124
1	429
1	8
1	429
1	429
1	17
1	429
1	8
1	429
1	429
1	429
1	429
1	429
1	429
1	6
1	13
1	429
1	7
1	27
1	429
1	429
1	8
1	429
1	6124
1	429
1	429
1	429
1	8
1	429
1	429
1	429
1	429
1	10
1	429
1	429
1	429
1	429
1	17
1	429
1	429
1	429
1	429
1	429
1	429
1	429
1	429
1	9
1	429
1	429
1	429
1	6
1	5
1	13
1	429
1	7
1	6124
1	7
1	429
1	429
1	18
1	429
1	429
1	429
1	429
1	429
1	429
1	429
1	429
1	27
1	6124
1	27
1	13
1	429
1	429
1	6
1	6
1	429
1	429
1	429
1	429
1	2
1	8
1	13
1	429
1	6
1	429
1	429
1	8
1	5
1	429
1	5
1	10
1	18
1	3
1	429
1	429
1	7
1	7
1	429
1	429
1	429
1	10
1	4
1	7
1	429
1	429
1	6
1	429
1	429
1	5
1	27
1	429
1	429
1	6124
1	429
1	7
1	429
1	429
1	429
1	429
1	6
1	13
1	429
1	429
1	7
1	429
1	429
1	429
1	429
1	429
1	429
1	429
1	9
1	429
1	429
1	429
1	429
1	4
1	429
1	7
1	13
1	7
1	429
1	429
1	17
1	429
1	27
1	429
1	4
1	7
1	429
1	13
1	27
1	6
1	429
1	4
1	7
1	429
1	429
1	6
1	429
1	9
1	429
1	429
1	429
1	429
1	429
1	429
1	7
1	429
1	429
1	429
1	429
1	429
1	429
1	429
1	17
1	429
1	7
1	8
1	429
1	13
1	429
1	429
1	429
1	429
1	429
1	27
1	5
1	429
1	7
1	429
1	429
1	429
1	7
1	13
1	429
1	429
1	4
1	429
1	429
1	7
1	429
1	429
1	429
1	429
1	429
1	429
1	429
1	429
1	13
1	429
1	429
1	27
1	429
1	7
1	429
1	429
1	429
1	9
1	429
1	429
1	429
1	429
1	4
1	429
1	7
1	429
1	429
1	429
1	429
1	6
1	429
1	429
1	429
1	429
1	429
1	18
1	429
1	429
1	429
1	429
1	6
1	429
1	9
1	429
1	429
1	27
1	429
1	429
1	429
1	4
1	429
1	5
1	429
1	429
1	429
1	6
1	17
1	7
1	429
1	429
1	429
1	429
1	429
1	429
1	8
1	4
1	429
1	13
1	429
1	429
1	429
1	429
1	13
1	429
1	429
1	3
1	429
1	429
1	7
1	13
1	429
1	3
1	429
1	429
1	17
1	429
1	429
1	429
1	7
1	429
1	17
1	4
1	8
1	429
1	429
1	429
1	429
1	27
1	429
1	429
1	429
1	429
1	429
1	429
1	429
1	429
1	429
1	3
1	429
1	429
1	8
1	429
1	429
1	429
1	429
1	429
1	8
1	429
1	429
1	429
1	429
1	429
1	429
1	6124
1	429
1	8
1	429
1	4
1	6124
1	6
1	429
1	429
1	18
1	429
1	429
1	429
1	429
1	429
1	429
1	429
1	4
1	27
1	27
1	429
1	27
1	429
1	27
1	429
1	429
1	429
1	429
1	429
1	429
1	429
1	27
1	8
1	8
1	429
1	429
1	13
1	429
1	429
1	429
1	429
1	429
1	4
1	429
1	18
1	429
1	8
1	429
1	8
1	429
1	5
1	429
1	5
1	429
1	429
1	429
1	429
1	429
1	429
1	429
1	4
1	429
1	429
1	429
1	5
1	429
1	27
1	3
1	3
1	17
1	5
1	6
1	429
1	429
1	429
1	429
1	429
1	429
1	6124
1	17
1	429
1	5
1	5
1	17
1	429
1	429
1	10
1	429
1	27
1	27
1	429
1	429
1	13
1	7
1	429
1	18
1	429
1	27
1	27
1	4
1	5
1	429
1	429
1	429
1	429
1	429
1	429
1	6
1	429
1	429
1	429
1	429
1	429
1	429
1	429
1	7
1	8
1	8
1	429
1	6
1	7
1	429
1	429
1	429
1	13
1	429
1	429
1	4
1	429
1	5
1	429
1	3
1	4
1	5
1	2
1	429
1	429
1	5
1	429
1	429
1	429
1	4
1	429
1	8
1	429
1	429
1	429
1	429
1	5
1	6
1	3
1	9
1	429
1	429
1	429
1	429
1	3
1	7
1	429
1	429
1	429
1	4
1	429
1	429
1	429
1	429
1	429
1	429
1	9
1	429
1	429
1	429
1	429
1	5
1	429
1	5
1	429
1	429
1	429
1	429
1	429
1	429
1	429
1	9
1	429
1	429
1	429
1	429
1	429
1	13
1	17
1	13
1	429
1	429
1	429
1	429
1	429
1	3
1	429
1	429
1	429
1	429
1	429
1	18
1	429
1	429
1	429
2	3
2	8
2	4
2	5
2	6
2	6
2	18
2	4
2	4
2	9
2	5
2	5
2	4
2	8
2	4
2	5
2	429
2	5
2	4
2	3
2	6
2	3
2	5
2	3
2	7
2	4
2	4
2	13
2	7
2	4
2	3
2	4
2	4
2	5
2	8
2	5
2	4
2	5
2	3
2	5
2	3
2	4
2	4
2	3
2	4
3	4
3	4
