1	6124
1	44
1	44
1	44
1	44
1	44
1	44
1	44
1	44
1	44
1	5
1	5
1	4
1	44
1	44
1	44
1	44
1	44
1	5
1	8
1	44
1	8
1	44
1	6
1	5
1	44
1	3
1	5
1	8
1	8
1	3
1	44
1	5
1	44
1	4
1	44
1	4
1	44
1	44
1	4
1	5
1	8
1	44
1	4
1	44
1	4
1	6
1	8
1	5
1	44
1	44
2	3
2	4
2	3
2	4
2	6
2	5
2	5
2	5
2	8
2	5
2	6
2	4
2	5
2	3
