1	6124
1	10
1	10
1	16
1	250
1	6124
1	5
1	250
1	10
1	250
1	7
1	7
1	250
1	250
1	250
1	21
1	19
1	12
1	10
1	250
1	7
1	250
1	250
1	7
1	250
1	250
1	250
1	16
1	250
1	250
1	6
1	250
1	250
1	250
1	11
1	16
1	5
1	250
1	250
1	5
1	6
1	10
1	5
1	250
1	250
1	7
1	6
1	250
1	6124
1	13
1	5
1	250
1	10
1	250
1	250
1	16
1	250
1	5
1	250
1	250
1	250
1	15
1	6
1	16
1	250
1	250
1	10
1	6
1	250
1	250
1	250
1	250
1	11
1	250
1	5
1	250
1	18
1	250
1	250
1	7
1	10
1	10
1	12
1	10
1	250
1	250
1	250
1	6
1	10
1	4
1	250
1	14
1	250
1	250
1	10
1	250
1	6
1	10
1	19
1	6
1	250
1	6124
1	250
1	250
1	16
1	250
1	10
1	4
1	16
1	6
1	19
1	4
1	8
1	10
1	6124
1	250
1	16
1	21
1	250
1	250
1	10
1	19
1	5
1	250
1	250
1	250
1	10
1	14
1	250
1	250
1	5
1	250
1	250
1	4
1	250
1	250
1	250
1	250
1	250
1	250
1	250
1	250
1	250
1	4
1	5
1	250
1	250
1	250
1	16
1	250
1	250
1	10
1	4
1	250
1	250
1	250
1	5
1	19
1	250
1	250
1	5
1	5
1	4
1	6
1	10
1	14
1	5
1	250
1	250
1	5
1	16
1	250
1	250
1	250
1	7
1	16
1	250
1	4
1	15
1	6124
1	6
1	6
1	15
1	3
1	250
1	250
1	250
1	8
1	250
1	10
1	250
1	19
1	4
1	250
1	250
1	250
1	4
1	250
1	7
1	250
1	4
1	4
1	4
1	5
1	5
1	250
1	6
1	250
1	4
1	250
1	250
1	250
1	7
1	8
1	250
1	21
1	6
1	6
1	250
1	250
1	250
1	7
1	250
1	16
1	250
1	4
1	3
1	250
1	6
1	16
1	250
1	250
1	250
1	5
1	6
1	250
1	21
1	5
1	250
1	250
1	10
1	250
1	4
1	250
1	250
1	7
1	250
1	250
1	250
1	21
1	250
1	250
1	250
1	250
1	250
1	250
1	250
1	4
1	250
1	6
1	250
1	10
1	250
1	250
1	250
1	250
1	10
1	10
1	4
1	250
1	5
1	16
1	21
1	7
1	250
1	250
1	10
1	250
1	7
1	250
1	3
1	6
1	250
1	250
1	21
1	10
1	18
1	250
1	250
1	10
1	21
1	16
1	5
1	250
1	5
1	21
1	250
1	250
1	250
1	250
1	4
1	4
1	250
1	16
1	250
1	250
1	250
2	5
2	15
2	4
2	3
2	7
2	5
2	4
2	250
2	5
2	6
2	4
2	7
2	3
2	7
2	10
2	18
2	5
2	6
2	5
2	10
2	3
2	250
2	3
2	250
2	16
2	7
2	7
2	5
2	6
2	4
2	5
2	6
2	18
2	16
2	5
2	4
2	5
2	5
2	12
2	18
2	10
2	7
2	5
2	5
2	4
2	250
2	5
2	10
2	3
2	11
2	4
2	5
2	3
2	4
2	18
2	11
2	10
2	5
2	5
2	4
2	6
2	3
2	5
2	5
2	3
2	3
2	6
2	12
2	7
2	7
2	10
2	16
2	3
2	10
2	7
2	250
2	6
2	7
2	5
2	5
2	4
2	4
2	12
2	5
2	7
2	5
2	10
2	6
2	12
2	5
2	5
3	6
3	5
3	4
3	4
3	5
3	6
3	4
3	4
3	10
4	6
