1	6124
1	6124
1	197
1	197
1	197
1	6124
1	6124
1	23
1	197
1	14
1	197
1	197
1	197
1	13
1	36
1	23
1	197
1	197
1	36
1	18
1	36
1	197
1	197
1	4
1	197
1	197
1	197
1	197
1	197
1	197
1	6
1	197
1	197
1	8
1	36
1	197
1	197
1	6
1	197
1	5
1	197
1	197
1	13
1	197
1	197
1	197
1	197
1	6124
1	23
1	197
1	23
1	5
1	36
1	197
1	6
1	197
1	2
1	14
1	5
1	8
1	197
1	197
1	197
1	197
1	197
1	5
1	197
1	197
1	197
1	36
1	197
1	13
1	36
1	13
1	197
1	23
1	197
1	197
1	197
1	197
1	5
1	197
1	36
1	197
1	14
1	197
1	6124
1	197
1	197
1	197
1	36
1	197
1	197
1	36
1	197
1	6
1	197
1	197
1	197
1	18
1	6
1	3
1	197
1	197
1	197
1	197
1	18
1	197
1	5
1	23
1	23
1	197
1	197
1	197
1	6124
1	197
1	197
1	197
1	36
1	36
1	6
1	4
1	13
1	197
1	197
1	7
1	4
1	5
1	197
1	197
1	13
1	18
1	197
1	197
1	197
1	23
1	3
1	6
1	6124
1	14
1	8
1	197
1	6
1	4
1	197
1	4
1	197
1	6
1	197
1	6
1	6
1	197
1	197
1	18
1	36
1	14
1	197
1	197
1	197
1	197
1	18
1	18
1	10
1	4
1	5
1	197
1	197
1	197
1	5
1	3
1	197
1	36
1	14
1	4
1	6
1	197
1	13
1	197
1	7
1	36
1	197
1	197
1	197
1	36
1	197
1	5
1	197
1	197
1	3
1	23
1	197
1	5
1	197
1	197
1	197
1	6
1	13
1	197
1	4
1	197
1	18
1	36
1	13
1	197
1	23
1	197
1	197
1	3
1	197
1	10
1	197
1	197
1	6
1	197
1	197
1	197
1	23
1	197
1	4
1	7
1	197
1	197
1	13
1	6
1	6
1	197
1	197
1	5
1	197
1	197
1	14
1	13
1	197
1	197
1	197
1	23
1	197
1	14
1	197
1	197
1	197
1	3
1	197
1	197
1	197
1	197
1	197
1	197
1	23
1	197
1	23
1	36
1	3
1	36
1	197
1	197
1	36
1	197
1	5
1	36
1	36
1	197
1	6
1	13
1	5
1	13
1	197
1	197
1	197
1	8
1	197
1	10
1	197
1	197
1	197
1	4
1	197
1	3
1	197
1	6
1	6
1	197
1	197
1	2
1	7
1	197
1	197
1	197
1	13
1	5
1	6
1	197
1	6
1	197
1	197
1	3
1	197
1	36
1	4
1	8
1	197
1	23
1	197
1	197
1	36
1	5
1	197
1	197
1	197
1	197
1	4
1	18
1	197
1	197
1	197
1	197
1	197
1	197
1	10
1	3
1	197
1	23
2	5
2	18
2	3
2	6
2	3
2	3
2	3
2	5
2	5
2	3
2	5
2	3
2	3
2	18
2	4
2	3
2	4
2	14
2	3
2	6
2	3
2	4
2	197
2	3
2	5
2	6
2	3
2	6
2	197
2	3
2	3
2	5
2	7
2	3
2	4
2	3
2	5
2	4
2	5
2	5
3	5
4	5
