1	6124
1	295
1	295
1	17
1	295
1	295
1	19
1	9
1	295
1	295
1	295
1	7
1	295
1	17
1	11
1	295
1	15
1	295
1	15
1	295
1	295
1	9
1	295
1	295
1	29
1	295
1	9
1	4
1	15
1	295
1	17
1	11
1	15
1	7
1	295
1	9
1	295
1	295
1	295
1	295
1	13
1	6124
1	295
1	17
1	295
1	295
1	11
1	295
1	295
1	7
1	13
1	295
1	8
1	295
1	9
1	295
1	295
1	19
1	19
1	295
1	7
1	295
1	6
1	9
1	2
1	15
1	295
1	295
1	295
1	9
1	7
1	295
1	295
1	7
1	9
1	295
1	295
1	10
1	295
1	5
1	295
1	13
1	295
1	295
1	295
1	10
1	9
1	295
1	295
1	13
1	295
1	295
1	6
1	17
1	29
1	295
1	15
1	295
1	10
1	295
1	19
1	295
1	295
1	295
1	11
1	29
1	295
1	295
1	295
1	295
1	295
1	295
1	295
1	9
1	6
1	295
1	295
1	295
1	295
1	295
1	10
1	17
1	295
1	295
1	11
1	295
1	17
1	19
1	295
1	295
1	295
1	295
1	295
1	295
1	5
1	295
1	3
1	295
1	295
1	8
1	17
1	17
1	295
1	295
1	295
1	6
1	5
1	295
1	295
1	29
1	19
1	295
1	11
1	295
1	5
1	295
1	295
1	295
1	9
1	295
1	5
1	295
1	295
1	295
1	295
1	295
1	29
1	295
1	15
1	295
1	295
1	5
1	295
1	29
1	295
1	295
1	295
1	6
1	6
1	295
1	295
1	295
1	17
1	17
1	295
1	295
1	295
1	29
1	15
1	295
1	5
1	17
1	295
1	29
1	29
1	295
1	6
1	295
1	295
1	13
1	295
1	13
1	295
1	3
1	295
1	295
1	8
1	5
1	295
1	295
1	295
1	295
1	295
1	295
1	4
1	295
1	6
1	9
1	3
1	295
1	17
1	17
1	295
1	295
1	295
1	295
1	5
1	295
1	13
1	295
1	13
1	295
1	295
1	295
1	295
1	7
1	295
1	11
1	295
1	295
1	295
1	295
1	295
1	17
1	295
1	295
1	295
1	295
1	295
1	295
1	295
1	295
1	295
1	295
1	295
1	17
1	295
1	13
1	295
1	295
1	295
1	295
1	7
1	295
1	295
1	6
1	295
1	295
1	9
1	17
1	295
1	295
1	8
1	295
1	295
1	295
1	295
1	7
1	295
1	295
1	295
1	13
1	295
1	295
1	6
1	295
1	295
1	9
1	295
1	295
1	295
1	3
1	7
1	5
1	295
1	295
1	295
1	295
1	295
1	295
1	295
1	295
1	19
1	295
1	8
1	295
1	19
1	295
1	17
1	9
1	295
1	9
1	295
1	295
1	295
1	295
1	7
1	9
1	295
1	295
1	29
1	295
1	295
1	295
1	7
1	295
1	295
1	295
1	19
1	9
1	5
1	19
1	3
1	29
1	295
1	295
1	295
1	295
1	6
1	295
1	295
1	295
1	295
1	295
1	9
1	295
1	295
1	15
1	295
1	295
1	295
1	295
1	295
1	295
1	7
1	295
1	295
1	295
1	295
1	295
1	295
1	295
1	9
1	295
1	295
1	17
1	6
1	5
1	3
1	4
1	295
1	6
1	3
1	295
1	7
1	8
1	295
1	295
1	295
1	295
1	295
1	5
2	8
2	5
2	17
2	7
2	6
2	295
2	5
2	6
2	13
2	295
2	295
2	5
2	5
2	295
2	295
2	4
2	3
2	4
2	3
2	11
2	295
2	4
2	8
2	4
2	5
2	7
2	9
2	4
2	5
2	295
2	3
2	5
2	4
2	19
2	6
2	6
2	4
2	17
2	4
2	3
2	4
2	17
2	295
2	3
2	5
2	4
2	5
2	5
2	9
2	5
2	4
2	3
2	3
2	4
2	4
3	11
