1	6124
1	206
1	24
1	206
1	206
1	206
1	13
1	206
1	7
1	206
1	6124
1	206
1	12
1	206
1	206
1	9
1	9
1	206
1	206
1	206
1	206
1	206
1	8
1	206
1	206
1	13
1	8
1	7
1	7
1	206
1	206
1	8
1	7
1	6
1	206
1	206
1	206
1	206
1	206
1	206
1	206
1	7
1	7
1	12
1	6
1	206
1	206
1	7
1	6
1	6
1	206
1	206
1	206
1	13
1	206
1	206
1	6
1	206
1	206
1	206
1	7
1	206
1	206
1	6
1	206
1	24
1	6124
1	206
1	7
1	9
1	4
1	206
1	7
1	206
1	206
1	206
1	7
1	206
1	10
1	206
1	6
1	6
1	206
1	9
1	206
1	206
1	6
1	6
1	206
1	206
1	206
1	206
1	206
1	6
1	206
1	206
1	206
1	5
1	206
1	206
1	206
1	206
1	206
1	206
1	206
1	206
1	4
1	206
1	6
1	7
1	206
1	206
1	6124
1	24
1	9
1	9
1	206
1	206
1	24
1	10
1	24
1	6124
1	6
1	206
1	9
1	13
1	206
1	6
1	6124
1	206
1	7
1	206
1	206
1	206
1	206
1	206
1	206
1	3
1	206
1	206
1	206
1	206
1	7
1	7
1	7
1	206
1	206
1	9
1	206
1	8
1	7
1	206
1	206
1	6
1	2
1	9
1	13
1	206
1	3
1	13
1	9
1	7
1	7
1	206
1	3
1	206
1	6124
1	206
1	8
1	206
1	206
1	7
1	206
1	24
1	206
1	10
1	9
1	6124
1	7
1	9
1	206
1	5
1	6
1	206
1	206
1	206
1	206
1	6
1	206
1	12
1	12
1	7
1	7
1	7
1	206
1	206
1	9
1	3
1	206
1	206
1	206
1	4
1	206
1	206
1	206
1	206
1	206
1	9
1	206
1	7
1	206
1	8
1	206
1	206
1	206
1	7
1	24
1	206
1	3
1	6
1	7
1	4
1	6
1	6
1	206
1	13
1	6
1	206
1	206
1	206
1	24
1	206
1	206
1	206
1	6
1	206
1	206
1	206
1	3
1	206
1	206
1	7
1	206
1	206
1	206
1	12
1	206
1	206
1	206
1	7
1	206
1	6
1	206
1	206
1	206
1	206
1	206
1	206
1	206
1	6
1	206
1	206
1	206
1	24
1	6
1	3
1	206
1	206
1	6
1	206
1	3
1	13
1	4
1	6
2	6
2	4
2	3
2	6
2	6
2	7
2	4
2	7
2	7
2	3
2	24
2	8
2	24
2	6
2	4
2	5
2	206
2	3
2	24
2	3
2	7
2	24
2	6
2	5
2	12
2	24
2	7
2	24
2	24
2	24
2	3
2	3
2	24
2	24
2	7
2	5
2	3
2	6
2	6
2	6
2	3
2	3
2	8
2	5
2	3
2	12
2	12
2	6
3	6
3	4
3	5
3	4
3	4
