1	6124
1	6124
1	10
1	7
1	26
1	128
1	7
1	5
1	15
1	14
1	5
1	5
1	128
1	128
1	7
1	128
1	14
1	128
1	29
1	5
1	10
1	10
1	8
1	29
1	29
1	8
1	15
1	8
1	128
1	6
1	128
1	128
1	8
1	8
1	128
1	4
1	8
1	8
1	7
1	128
1	128
1	15
1	128
1	128
1	128
1	15
1	15
1	6
1	8
1	5
1	128
1	11
1	26
1	128
1	128
1	4
1	128
1	26
1	5
1	4
1	10
1	128
1	26
1	128
1	26
1	26
1	15
1	128
1	128
1	128
1	128
1	8
1	128
1	128
1	128
1	26
1	5
1	7
1	6
1	10
1	128
1	10
1	15
1	128
1	7
1	6
1	128
1	4
1	128
1	26
1	128
1	3
1	9
1	12
1	128
1	128
1	3
1	15
1	8
1	128
1	8
1	128
1	128
1	7
1	6124
1	15
1	128
1	14
1	128
1	6
1	6
1	14
1	5
1	5
1	128
1	15
1	4
1	7
1	6
1	29
1	128
1	4
1	128
1	29
1	10
1	5
1	15
1	12
1	128
1	10
1	128
1	128
1	128
1	128
1	128
1	128
1	128
1	26
1	11
1	6
1	128
1	8
1	10
1	128
1	128
1	8
1	128
1	14
1	5
1	128
1	6124
1	128
1	128
1	5
1	5
1	128
1	3
1	128
1	5
1	6
1	8
1	10
1	10
1	4
1	8
1	4
1	4
1	8
1	128
1	128
1	15
1	10
1	128
1	4
1	6
1	128
1	128
1	29
1	128
1	9
1	8
1	4
1	128
1	15
1	29
1	128
1	6
1	128
1	6
1	4
1	26
1	29
1	4
1	15
1	3
1	7
1	128
1	14
1	8
1	8
1	6
1	11
1	14
1	128
1	15
1	5
1	128
1	128
1	128
1	9
1	128
1	6
1	8
1	128
1	7
1	6
1	4
1	128
1	10
1	9
1	10
1	5
1	29
1	128
1	10
1	6
1	4
1	3
1	5
1	128
1	15
1	128
1	6
1	6
1	15
1	128
1	4
1	26
1	3
1	5
1	3
1	128
1	4
1	8
1	5
1	7
1	128
1	3
1	128
1	3
1	4
1	29
1	26
1	26
1	128
1	128
1	14
1	128
1	10
1	128
1	128
1	26
1	128
1	15
1	29
1	128
1	7
1	128
1	128
1	6
1	15
1	7
1	128
1	29
2	3
2	6
2	15
2	4
2	7
2	5
2	3
2	6
2	4
2	3
2	4
2	29
2	8
2	6
2	5
2	6
2	12
2	5
2	4
2	4
2	4
2	4
2	128
2	4
2	5
2	3
2	8
2	6
2	29
2	5
2	4
2	14
2	3
2	4
2	4
2	3
2	3
2	15
2	7
2	26
2	4
2	6
2	5
2	6
2	6
2	3
3	4
3	4
3	6
3	4
4	6
4	6
