1	6124
1	11
1	312
1	312
1	8
1	312
1	312
1	312
1	312
1	8
1	11
1	312
1	7
1	312
1	312
1	312
1	312
1	312
1	312
1	312
1	5
1	312
1	312
1	312
1	19
1	312
1	11
1	312
1	25
1	312
1	312
1	24
1	312
1	312
1	7
1	312
1	312
1	312
1	312
1	312
1	312
1	312
1	24
1	312
1	312
1	19
1	312
1	312
1	19
1	48
1	312
1	312
1	25
1	312
1	312
1	48
1	312
1	19
1	312
1	312
1	11
1	10
1	9
1	48
1	19
1	6
1	312
1	312
1	19
1	312
1	19
1	312
1	4
1	9
1	25
1	7
1	312
1	11
1	9
1	25
1	25
1	312
1	25
1	6124
1	24
1	312
1	312
1	7
1	312
1	312
1	312
1	9
1	312
1	48
1	8
1	312
1	312
1	48
1	312
1	312
1	4
1	312
1	312
1	19
1	312
1	312
1	312
1	25
1	8
1	312
1	7
1	312
1	312
1	312
1	48
1	312
1	312
1	312
1	312
1	4
1	19
1	312
1	312
1	48
1	312
1	24
1	312
1	19
1	25
1	312
1	312
1	25
1	312
1	312
1	19
1	312
1	312
1	312
1	312
1	312
1	312
1	312
1	312
1	312
1	8
1	312
1	48
1	312
1	312
1	312
1	48
1	312
1	8
1	8
1	4
1	312
1	312
1	312
1	312
1	312
1	312
1	4
1	312
1	312
1	312
1	312
1	312
1	312
1	312
1	312
1	312
1	312
1	11
1	312
1	5
1	312
1	10
1	11
1	48
1	312
1	312
1	312
1	312
1	9
1	312
1	8
1	312
1	312
1	8
1	312
1	312
1	48
1	9
1	48
1	312
1	312
1	312
1	312
1	312
1	25
1	25
1	312
1	312
1	5
1	312
1	6
1	7
1	24
1	8
1	312
1	9
1	312
1	312
1	312
1	5
1	3
1	312
1	19
1	19
1	312
1	312
1	6
1	312
1	312
1	312
1	312
1	312
1	312
1	312
1	5
1	312
1	312
1	312
1	312
1	312
1	312
1	24
1	312
1	312
1	8
1	312
1	11
1	19
1	312
1	48
1	312
1	19
1	25
1	312
1	9
1	25
1	312
1	312
1	5
1	48
1	312
1	312
1	5
1	312
1	4
1	312
1	24
1	312
1	4
1	48
1	312
1	312
1	7
1	312
1	312
1	312
1	312
1	312
1	312
1	312
1	312
1	312
1	312
1	312
1	24
1	312
1	3
1	4
1	312
1	19
1	25
1	5
1	312
1	312
1	8
1	312
1	312
1	312
1	10
1	25
1	312
1	4
1	312
1	312
1	312
1	312
1	312
1	312
1	312
1	312
1	7
1	312
1	48
1	312
1	312
1	312
1	312
1	312
1	312
1	312
1	4
1	8
1	312
1	4
1	5
1	312
1	312
1	312
1	8
1	312
1	5
1	312
1	48
1	312
1	312
1	312
1	4
1	312
1	312
1	7
1	312
1	312
1	312
1	312
1	312
1	312
1	312
1	312
1	11
1	312
1	11
1	312
1	312
1	312
1	25
1	312
1	312
1	19
1	8
1	25
1	25
1	312
1	312
1	312
1	10
1	312
1	312
1	312
1	312
1	312
1	312
1	312
1	312
1	312
1	25
1	312
1	312
1	8
1	312
1	312
1	312
1	312
1	312
1	312
1	5
1	312
1	312
1	5
1	48
1	312
1	312
1	312
1	312
1	312
1	312
1	312
1	4
1	312
1	312
1	312
1	312
1	312
1	312
1	312
1	312
1	312
1	312
1	24
1	312
1	312
1	9
1	19
1	312
1	312
1	312
2	3
2	25
2	312
2	312
2	7
2	4
2	19
2	5
2	5
2	10
2	4
2	312
2	3
2	4
2	7
2	7
2	48
2	5
2	3
2	9
2	312
2	3
2	48
2	5
2	8
2	3
2	3
2	3
2	5
2	19
2	7
2	8
2	10
2	7
2	7
2	8
2	10
2	7
2	11
2	24
2	4
2	3
2	6
2	5
2	5
2	5
2	4
2	5
2	11
2	312
2	7
2	3
2	5
2	3
3	48
3	4
3	4
3	6
3	4
3	5
3	4
3	4
4	5
