1	6124
1	477
1	477
1	477
1	14
1	477
1	477
1	7
1	7
1	477
1	477
1	477
1	477
1	477
1	6
1	11
1	15
1	477
1	6
1	477
1	477
1	477
1	477
1	477
1	477
1	7
1	7
1	477
1	477
1	477
1	477
1	477
1	477
1	477
1	3
1	477
1	477
1	477
1	477
1	477
1	7
1	477
1	11
1	477
1	15
1	477
1	477
1	477
1	477
1	6
1	477
1	477
1	477
1	477
1	477
1	477
1	477
1	477
1	477
1	7
1	9
1	477
1	477
1	6
1	477
1	477
1	14
1	477
1	477
1	477
1	477
1	7
1	477
1	477
1	12
1	477
1	477
1	9
1	11
1	477
1	477
1	477
1	477
1	477
1	477
1	477
1	477
1	30
1	477
1	5
1	477
1	477
1	477
1	477
1	477
1	9
1	477
1	477
1	11
1	477
1	477
1	477
1	477
1	7
1	477
1	477
1	477
1	5
1	477
1	477
1	11
1	11
1	7
1	477
1	477
1	477
1	477
1	15
1	7
1	30
1	477
1	477
1	477
1	477
1	477
1	477
1	477
1	7
1	30
1	477
1	12
1	477
1	477
1	477
1	6
1	6
1	477
1	477
1	30
1	30
1	477
1	4
1	477
1	477
1	477
1	9
1	30
1	477
1	477
1	8
1	477
1	6
1	477
1	11
1	30
1	477
1	5
1	477
1	477
1	477
1	477
1	12
1	477
1	477
1	477
1	477
1	477
1	5
1	477
1	30
1	6
1	477
1	477
1	477
1	477
1	477
1	477
1	477
1	477
1	477
1	477
1	477
1	477
1	477
1	477
1	477
1	477
1	14
1	477
1	477
1	7
1	477
1	477
1	477
1	477
1	477
1	477
1	6
1	477
1	477
1	477
1	6124
1	477
1	477
1	7
1	477
1	477
1	477
1	7
1	4
1	477
1	7
1	477
1	9
1	477
1	477
1	477
1	7
1	477
1	477
1	477
1	477
1	9
1	7
1	477
1	9
1	477
1	477
1	477
1	477
1	477
1	6
1	477
1	477
1	477
1	7
1	477
1	30
1	477
1	477
1	477
1	477
1	5
1	477
1	477
1	477
1	477
1	477
1	477
1	477
1	7
1	477
1	5
1	6
1	477
1	477
1	477
1	477
1	477
1	477
1	477
1	477
1	30
1	477
1	477
1	477
1	477
1	477
1	4
1	7
1	477
1	477
1	477
1	477
1	477
1	477
1	477
1	6
1	477
1	6
1	8
1	477
1	477
1	4
1	477
1	477
1	477
1	477
1	8
1	477
1	6
1	477
1	477
1	477
1	477
1	477
1	15
1	477
1	477
1	12
1	9
1	477
1	6
1	477
1	477
1	7
1	15
1	477
1	2
1	477
1	7
1	30
1	477
1	477
1	477
1	477
1	11
1	477
1	477
1	477
1	477
1	477
1	477
1	477
1	477
1	477
1	477
1	477
1	477
1	477
1	477
1	477
1	9
1	477
1	477
1	477
1	477
1	477
1	477
1	477
1	477
1	477
1	477
1	477
1	477
1	8
1	477
1	477
1	7
1	477
1	477
1	477
1	477
1	477
1	6124
1	477
1	477
1	477
1	477
1	477
1	5
1	477
1	15
1	477
1	6
1	11
1	477
1	477
1	477
1	7
1	477
1	477
1	477
1	477
1	6
1	477
1	30
1	477
1	477
1	7
1	477
1	477
1	477
1	15
1	477
1	5
1	3
1	477
1	5
1	477
1	477
1	477
1	5
1	477
1	477
1	477
1	14
1	477
1	30
1	477
1	477
1	30
1	477
1	6
1	477
1	477
1	6
1	477
1	477
1	6
1	477
1	477
1	477
1	477
1	477
1	6
1	477
1	477
1	477
1	477
1	477
1	477
1	11
1	15
1	477
1	477
1	477
1	477
1	14
1	477
1	30
1	477
1	477
1	477
1	477
1	477
1	477
1	477
1	477
1	477
1	477
1	15
1	477
1	477
1	477
1	477
1	477
1	477
1	477
1	14
1	477
1	477
1	477
1	477
1	477
1	477
1	477
1	477
1	477
1	477
1	477
1	477
1	477
1	477
1	477
1	477
1	6
1	477
1	477
1	477
1	477
1	7
1	5
1	477
1	477
1	477
1	477
1	477
1	477
1	477
1	30
1	477
1	477
1	477
1	9
1	477
1	477
1	7
1	477
1	477
1	477
1	6
1	477
1	477
1	477
1	477
1	6
1	477
1	477
1	477
1	477
1	477
1	477
1	477
1	477
1	477
1	477
1	477
1	14
1	477
1	477
1	477
1	477
1	477
1	477
1	477
1	6
1	11
1	477
1	9
1	477
1	477
1	7
1	477
1	7
1	477
1	477
1	477
1	477
1	477
1	477
1	477
1	477
1	477
1	477
1	477
1	477
1	477
1	5
1	477
1	477
1	477
1	477
1	477
1	477
1	477
1	477
1	477
1	9
1	477
1	477
1	477
1	477
1	477
1	6
1	477
1	477
1	477
1	7
1	477
1	477
1	477
1	477
1	477
1	3
1	4
1	477
1	477
1	477
1	4
1	11
1	477
1	477
1	477
1	6
1	477
2	7
2	7
2	477
2	3
2	6
2	3
2	477
2	3
2	4
2	4
2	6
2	7
2	477
2	3
2	4
2	6
2	7
2	6
2	14
2	477
2	477
2	4
2	5
2	3
2	4
2	9
2	5
2	3
2	5
2	6
2	12
2	5
2	3
2	5
2	5
2	4
2	7
3	6
3	6
3	6
