1	6124
1	18
1	325
1	325
1	18
1	9
1	17
1	325
1	325
1	10
1	325
1	325
1	325
1	325
1	10
1	7
1	9
1	17
1	7
1	7
1	325
1	325
1	15
1	325
1	325
1	325
1	7
1	17
1	9
1	12
1	6124
1	10
1	325
1	9
1	7
1	325
1	325
1	325
1	17
1	9
1	5
1	325
1	325
1	13
1	325
1	17
1	17
1	8
1	325
1	12
1	6
1	6
1	325
1	325
1	7
1	325
1	325
1	18
1	325
1	325
1	10
1	325
1	325
1	325
1	325
1	5
1	17
1	7
1	325
1	325
1	18
1	325
1	15
1	5
1	325
1	325
1	325
1	15
1	6
1	9
1	13
1	3
1	325
1	325
1	325
1	325
1	10
1	325
1	325
1	9
1	8
1	325
1	325
1	6
1	12
1	325
1	325
1	19
1	325
1	13
1	325
1	325
1	13
1	13
1	325
1	5
1	325
1	325
1	325
1	325
1	5
1	325
1	19
1	10
1	325
1	325
1	6
1	325
1	325
1	325
1	325
1	13
1	325
1	6
1	325
1	8
1	325
1	13
1	17
1	13
1	9
1	5
1	325
1	325
1	325
1	5
1	12
1	12
1	325
1	9
1	325
1	7
1	325
1	325
1	325
1	325
1	325
1	325
1	325
1	4
1	8
1	325
1	325
1	325
1	4
1	325
1	325
1	5
1	6
1	8
1	18
1	7
1	325
1	325
1	325
1	325
1	325
1	12
1	325
1	7
1	325
1	325
1	325
1	10
1	325
1	7
1	325
1	325
1	8
1	13
1	325
1	325
1	325
1	325
1	325
1	6124
1	325
1	15
1	19
1	9
1	325
1	325
1	4
1	325
1	325
1	325
1	325
1	3
1	15
1	4
1	5
1	325
1	325
1	9
1	13
1	5
1	5
1	9
1	5
1	325
1	325
1	19
1	325
1	5
1	6
1	6
1	12
1	325
1	325
1	325
1	5
1	8
1	17
1	8
1	6
1	8
1	325
1	325
1	325
1	12
1	325
1	3
1	5
1	4
1	325
1	8
1	3
1	12
1	325
1	325
1	325
1	325
1	8
1	325
1	325
1	13
1	9
1	325
1	9
1	325
1	15
1	325
1	325
1	6
1	9
1	325
1	10
1	18
1	325
1	18
1	325
1	6
1	325
1	325
1	7
1	7
1	7
1	325
1	325
1	325
1	5
1	8
1	6
1	325
1	5
1	12
1	325
1	6
1	325
1	6
1	325
1	325
1	5
1	325
1	4
1	6
1	325
1	8
1	325
1	325
1	325
1	325
1	3
1	4
1	325
1	325
1	325
1	325
1	18
1	325
1	4
1	325
1	15
1	19
1	325
1	5
1	325
1	8
1	5
1	325
1	325
1	19
1	325
1	13
1	325
1	325
1	3
1	6
1	13
1	325
1	325
1	7
1	6
1	6
1	325
1	325
1	325
1	8
1	19
1	6
1	325
1	8
1	5
1	325
1	325
1	325
1	325
1	325
1	325
1	325
1	9
1	5
1	12
1	325
1	325
1	12
1	325
1	6
1	325
1	325
1	325
1	8
1	13
1	325
1	325
1	325
1	15
1	325
1	6
1	325
1	325
1	7
1	325
1	325
1	19
1	8
1	4
1	3
1	325
1	5
1	325
1	15
1	5
1	9
1	12
1	325
1	7
1	325
1	7
1	325
1	17
1	5
1	325
1	18
1	4
1	325
1	4
1	325
1	12
1	5
1	325
1	325
1	325
1	325
1	325
1	325
1	325
1	325
1	12
1	325
1	325
1	7
1	325
1	325
1	4
1	15
1	325
1	8
1	325
1	325
1	325
1	7
1	13
1	325
1	325
1	325
1	325
1	325
1	6
1	325
1	325
1	17
1	6
1	325
1	325
1	19
1	4
1	325
1	12
1	325
1	325
1	325
1	19
1	5
1	10
1	325
1	325
1	325
1	12
1	10
1	325
1	13
1	4
1	5
1	6
1	325
1	325
1	13
1	325
1	5
1	3
1	10
1	4
1	9
1	12
1	5
1	15
1	325
1	325
1	325
1	325
1	325
1	325
1	325
1	19
1	4
1	5
1	325
1	18
1	3
1	18
1	12
1	4
1	325
1	4
1	7
2	4
2	3
2	6
2	4
2	3
2	17
2	5
2	6
2	7
2	6
2	10
2	4
2	4
2	325
2	3
2	8
2	7
2	5
2	4
2	6
2	4
2	6
2	17
2	7
2	5
2	6
2	3
2	3
2	5
2	8
2	5
2	6
2	4
2	6
2	4
2	4
2	3
2	7
2	4
2	6
2	5
2	3
2	3
2	17
2	6
2	7
2	4
2	5
2	6
2	4
2	7
2	5
2	7
2	7
2	5
2	10
2	3
2	7
2	4
2	5
2	3
2	8
2	5
2	17
2	4
2	5
2	3
2	10
2	3
2	5
2	7
2	4
2	10
2	12
2	4
2	5
2	4
2	4
2	3
2	4
2	4
2	13
2	4
2	17
2	6
2	12
3	5
3	6
3	6
3	4
3	4
3	4
3	4
3	4
