1	6124
1	47
1	47
1	47
1	47
1	20
1	47
1	10
1	47
1	7
1	47
1	47
1	7
1	47
1	7
1	47
1	47
1	10
1	47
1	47
1	6
1	20
1	6
1	7
1	6
1	3
1	10
1	7
1	20
1	47
1	47
1	47
1	5
1	8
1	8
1	20
1	4
1	20
1	47
1	47
1	47
1	47
1	7
1	47
1	47
1	6
1	20
1	3
1	6
1	3
1	7
1	47
1	47
1	8
1	10
1	20
1	47
1	47
1	47
1	47
1	20
1	4
1	8
1	6
1	6
1	47
1	20
1	8
1	4
1	8
1	47
1	47
1	5
1	8
2	3
2	4
2	10
2	5
2	3
2	5
2	10
2	6
2	4
2	5
2	3
2	20
2	8
2	6
2	6
2	10
3	4
