1	6124
1	48
1	135
1	7
1	48
1	9
1	135
1	13
1	15
1	18
1	15
1	135
1	7
1	135
1	18
1	9
1	6
1	11
1	135
1	6
1	48
1	6
1	18
1	48
1	135
1	8
1	4
1	5
1	48
1	3
1	13
1	6
1	135
1	13
1	135
1	6
1	135
1	4
1	135
1	8
1	135
1	135
1	9
1	11
1	135
1	6
1	5
1	13
1	5
1	9
1	135
1	135
1	48
1	8
1	135
1	14
1	135
1	18
1	135
1	6
1	6
1	13
1	4
1	135
1	135
1	135
1	18
1	6124
1	13
1	8
1	5
1	135
1	135
1	18
1	48
1	135
1	135
1	135
1	5
1	135
1	13
1	5
1	15
1	11
1	9
1	3
1	48
1	135
1	135
1	135
1	135
1	135
1	8
1	5
1	135
1	48
1	135
1	48
1	11
1	6
1	7
1	11
1	48
1	135
1	48
1	8
1	11
1	11
1	135
1	48
1	6
1	13
1	135
1	48
1	135
1	7
1	135
1	48
1	135
1	135
1	135
1	14
1	11
1	48
1	135
1	6
1	135
1	3
1	7
1	135
1	135
1	135
1	4
1	11
1	6
1	18
1	135
1	48
1	5
1	135
1	135
1	18
1	8
1	135
1	135
1	135
1	135
1	7
1	135
1	13
1	135
1	13
1	8
1	135
1	5
1	135
1	15
1	6
1	135
1	135
1	135
1	135
1	14
1	4
1	135
1	135
1	135
1	6
1	5
1	9
1	135
1	135
1	135
1	7
1	6
1	135
1	135
1	135
1	135
1	135
1	4
1	7
1	6
1	135
1	135
1	135
1	135
1	135
1	11
1	7
1	4
1	48
1	9
1	11
1	135
1	8
1	13
1	7
1	135
1	135
1	4
1	5
1	135
1	135
1	48
1	5
1	6
1	5
1	7
1	8
1	6
1	135
1	4
1	13
1	48
1	135
1	135
1	135
1	14
1	3
1	135
1	11
1	48
1	11
1	7
1	48
1	11
2	6
2	6
2	5
2	6
2	7
2	3
2	18
2	6
2	4
2	4
2	9
2	4
2	5
2	13
2	4
2	7
2	6
2	4
2	8
2	4
2	7
2	7
2	9
2	6
2	5
2	6
2	15
2	3
2	5
2	4
2	9
2	6
2	3
2	4
2	4
2	6
2	3
2	3
2	3
2	14
2	9
2	4
2	3
2	6
2	4
2	7
2	5
3	4
3	5
3	5
3	8
3	6
3	6
3	4
3	4
3	11
3	4
3	5
