1	6124
1	274
1	7
1	274
1	274
1	274
1	274
1	274
1	10
1	274
1	14
1	11
1	274
1	10
1	274
1	11
1	6
1	8
1	274
1	14
1	274
1	8
1	14
1	274
1	274
1	10
1	274
1	274
1	274
1	274
1	6
1	274
1	11
1	274
1	274
1	10
1	10
1	10
1	274
1	6
1	274
1	274
1	274
1	21
1	274
1	274
1	274
1	10
1	274
1	21
1	14
1	274
1	10
1	274
1	274
1	5
1	274
1	15
1	274
1	14
1	274
1	3
1	274
1	274
1	274
1	274
1	274
1	29
1	274
1	274
1	3
1	9
1	14
1	5
1	10
1	8
1	274
1	274
1	6124
1	274
1	274
1	274
1	274
1	8
1	10
1	274
1	7
1	274
1	274
1	274
1	10
1	6
1	14
1	274
1	6
1	274
1	8
1	274
1	10
1	274
1	274
1	11
1	10
1	10
1	274
1	8
1	274
1	274
1	274
1	7
1	274
1	10
1	274
1	11
1	274
1	15
1	12
1	14
1	274
1	274
1	274
1	274
1	14
1	274
1	274
1	7
1	274
1	11
1	274
1	274
1	274
1	274
1	6
1	274
1	11
1	5
1	29
1	274
1	274
1	274
1	274
1	274
1	10
1	274
1	9
1	3
1	274
1	274
1	274
1	9
1	274
1	274
1	15
1	274
1	6
1	274
1	274
1	8
1	15
1	274
1	274
1	29
1	13
1	5
1	274
1	4
1	21
1	12
1	4
1	14
1	14
1	274
1	8
1	15
1	15
1	6
1	9
1	274
1	274
1	14
1	274
1	274
1	4
1	274
1	274
1	29
1	10
1	9
1	274
1	274
1	274
1	274
1	11
1	8
1	14
1	274
1	274
1	6
1	5
1	6
1	4
1	274
1	21
1	274
1	274
1	10
1	274
1	9
1	274
1	13
1	274
1	6
1	274
1	274
1	274
1	274
1	7
1	274
1	8
1	274
1	6
1	274
1	274
1	9
1	21
1	8
1	4
1	274
1	14
1	274
1	7
1	6
1	274
1	274
1	274
1	8
1	274
1	274
1	6
1	274
1	12
1	10
1	8
1	4
1	274
1	10
1	274
1	274
1	21
1	274
1	274
1	13
1	4
1	274
1	274
1	9
1	274
1	14
1	274
1	274
1	6
1	274
1	8
1	12
1	274
1	274
1	29
1	274
1	11
1	274
1	15
1	274
1	274
1	9
1	3
1	6
1	274
1	274
1	8
1	274
1	6124
1	9
1	4
1	5
1	4
1	14
1	10
1	274
1	6
1	6
1	3
1	274
1	274
1	274
1	274
1	9
1	274
1	274
1	274
1	21
1	274
1	6
1	8
1	5
1	10
1	274
1	274
1	274
1	7
1	274
1	10
1	11
1	8
1	5
1	274
1	7
1	274
1	10
1	21
1	9
1	274
1	274
1	10
1	274
1	274
1	6
1	274
1	9
1	4
1	6
1	10
1	5
1	4
1	3
1	274
1	274
1	274
1	7
1	274
1	10
1	10
1	8
1	274
1	3
1	274
1	274
1	274
1	29
1	274
1	274
1	274
1	274
1	274
1	4
1	5
1	274
1	6
1	5
1	274
1	274
1	8
1	274
1	274
1	274
1	12
1	274
1	274
1	274
1	8
1	274
1	274
1	274
1	274
1	10
1	5
1	274
1	10
1	15
1	5
1	5
1	8
1	21
1	3
1	274
1	5
1	21
1	274
1	274
1	274
1	15
1	15
1	11
1	274
1	274
1	274
1	29
1	6
1	274
1	274
1	9
1	274
1	274
1	274
1	274
1	274
1	274
1	14
1	4
1	10
1	21
1	10
1	274
1	14
1	274
1	274
1	14
1	14
1	274
1	3
1	274
1	274
1	3
1	4
1	274
1	274
1	274
1	14
1	274
1	274
1	274
1	274
1	274
1	6
1	274
1	6
1	13
2	9
2	6
2	15
2	4
2	4
2	6
2	11
2	9
2	4
2	6
2	5
2	4
2	6
2	3
2	14
2	5
2	274
2	3
2	12
2	5
2	5
2	3
2	5
2	9
2	3
2	3
2	5
2	9
2	8
2	5
2	8
2	8
2	10
2	3
2	4
2	4
2	5
2	3
2	4
2	5
2	6
2	3
2	5
2	6
2	3
2	8
2	7
2	4
2	7
2	6
2	9
2	274
2	274
2	9
2	14
2	9
2	3
2	4
2	8
2	21
2	6
2	3
2	5
2	3
2	5
2	9
3	7
3	5
3	5
3	5
3	9
3	6
3	4
3	5
3	4
3	6
3	5
4	5
4	5
4	5
