1	6124
1	73
1	73
1	73
1	7
1	31
1	6
1	73
1	7
1	31
1	6124
1	6
1	31
1	31
1	73
1	73
1	73
1	31
1	7
1	6
1	73
1	7
1	73
1	73
1	5
1	7
1	6
1	4
1	73
1	73
1	3
1	73
1	31
1	31
1	73
1	7
1	73
1	7
1	31
1	73
1	73
1	73
1	6
1	6
1	5
1	73
1	73
1	73
1	31
1	4
1	7
1	73
1	4
1	73
1	73
1	73
1	73
1	5
1	4
1	73
1	73
1	73
1	10
1	73
1	73
1	73
1	73
1	73
1	4
1	73
1	31
1	4
1	73
1	73
1	31
1	10
1	73
1	6
1	31
1	5
1	4
1	5
1	3
1	73
1	73
1	73
1	4
1	73
1	73
1	73
1	4
1	31
1	73
1	73
1	73
1	73
1	31
1	73
1	7
1	73
1	73
1	73
1	73
1	3
1	73
1	7
1	31
1	7
1	31
2	3
2	3
2	6
2	5
2	7
2	6
2	73
2	6
2	3
2	73
2	3
2	4
2	7
2	3
2	3
2	4
2	5
2	6
3	6
3	10
