1	6124
1	6124
1	141
1	27
1	12
1	8
1	8
1	12
1	141
1	141
1	8
1	27
1	10
1	24
1	141
1	27
1	24
1	141
1	141
1	141
1	9
1	141
1	141
1	27
1	141
1	24
1	11
1	141
1	141
1	141
1	6
1	9
1	7
1	141
1	141
1	7
1	11
1	8
1	6
1	141
1	141
1	141
1	12
1	6124
1	8
1	27
1	5
1	141
1	141
1	6
1	27
1	27
1	5
1	12
1	8
1	141
1	24
1	141
1	141
1	24
1	7
1	4
1	141
1	141
1	27
1	5
1	8
1	141
1	8
1	6
1	10
1	11
1	141
1	141
1	10
1	9
1	11
1	24
1	141
1	141
1	141
1	8
1	141
1	5
1	141
1	12
1	9
1	141
1	141
1	141
1	141
1	11
1	141
1	9
1	141
1	3
1	11
1	141
1	141
1	27
1	141
1	141
1	6
1	141
1	141
1	141
1	141
1	141
1	9
1	141
1	141
1	141
1	141
1	9
1	4
1	141
1	3
1	6
1	141
1	5
1	141
1	141
1	141
1	141
1	141
1	12
1	141
1	24
1	4
1	6
1	3
1	24
1	5
1	141
1	12
1	24
1	141
1	141
1	141
1	4
1	141
1	4
1	27
1	6
1	141
1	141
1	141
1	141
1	24
1	3
1	9
1	8
1	141
1	141
1	141
1	141
1	141
1	141
1	4
1	27
1	12
1	141
1	141
1	141
1	141
1	141
1	10
1	8
1	141
1	24
1	27
1	5
1	141
1	8
1	5
1	141
1	141
1	141
1	4
1	141
1	11
1	141
1	141
1	12
1	141
1	141
1	141
1	141
1	11
1	141
1	141
1	5
1	141
1	4
1	5
1	4
1	141
1	141
1	5
1	6
1	5
1	9
1	10
1	141
1	141
1	141
1	141
1	24
1	141
1	141
1	141
1	6
1	141
1	27
1	27
1	5
1	6
1	27
1	27
1	141
1	141
1	141
2	3
2	9
2	3
2	9
2	3
2	24
2	141
2	8
2	9
2	4
2	8
2	10
2	4
2	3
2	141
2	7
2	141
2	12
2	5
2	5
2	4
2	8
2	4
2	3
2	141
2	3
2	4
2	4
2	5
2	4
2	3
2	4
2	5
2	6
2	5
3	4
3	8
3	4
4	5
