1	6124
1	154
1	13
1	154
1	154
1	154
1	154
1	6124
1	154
1	154
1	15
1	154
1	13
1	154
1	13
1	10
1	154
1	154
1	154
1	154
1	154
1	154
1	15
1	154
1	154
1	154
1	154
1	154
1	154
1	154
1	15
1	154
1	154
1	11
1	154
1	14
1	154
1	9
1	154
1	11
1	154
1	154
1	9
1	15
1	154
1	4
1	154
1	154
1	154
1	14
1	154
1	14
1	154
1	154
1	10
1	154
1	154
1	154
1	154
1	154
1	154
1	154
1	154
1	154
1	154
1	11
1	5
1	14
1	13
1	10
1	154
1	154
1	6
1	154
1	154
1	14
1	154
1	154
1	154
1	154
1	154
1	13
1	10
1	154
1	154
1	154
1	15
1	8
1	14
1	154
1	154
1	154
1	15
1	154
1	154
1	154
1	6
1	154
1	154
1	154
1	154
1	154
1	154
1	9
1	154
1	15
1	154
1	154
1	154
1	154
1	154
1	154
1	154
1	154
1	154
1	154
1	154
1	13
1	5
1	9
1	154
1	10
1	154
1	154
1	15
1	9
1	154
1	8
1	154
1	10
1	9
1	154
1	154
1	14
1	154
1	154
1	14
1	154
1	11
1	15
1	154
1	154
1	154
1	14
1	13
1	154
1	154
1	154
1	154
1	8
1	154
1	3
1	8
1	154
1	154
1	3
1	9
1	3
1	154
1	154
1	11
1	5
1	9
1	154
1	154
1	4
1	154
1	154
1	4
1	154
1	154
1	15
1	154
1	9
1	154
1	15
1	154
1	11
1	154
1	154
1	154
1	154
1	10
1	14
1	154
1	10
1	154
1	154
1	154
1	13
1	5
1	154
1	154
2	9
2	4
2	6
2	3
2	3
2	5
2	9
2	3
2	3
2	154
2	11
2	3
2	10
2	14
2	5
2	11
2	14
2	8
2	14
2	5
2	3
2	11
2	8
2	5
2	3
2	4
2	10
2	6
2	5
3	5
3	5
3	4
