1	6124
1	90
1	90
1	90
1	90
1	90
1	12
1	90
1	5
1	90
1	90
1	90
1	90
1	90
1	5
1	90
1	4
1	7
1	5
1	8
1	6
1	90
1	90
1	90
1	5
1	5
1	90
1	5
1	5
1	7
1	5
1	90
1	90
1	90
1	90
1	90
1	90
1	8
1	90
1	8
1	90
1	90
1	12
1	5
1	90
1	12
1	4
1	8
1	90
1	5
1	5
1	12
1	90
1	90
1	90
1	4
1	5
1	8
1	90
1	8
1	8
1	5
1	5
1	90
1	8
1	6124
1	90
1	90
1	6
1	5
1	5
1	4
1	90
1	5
1	90
1	5
1	90
1	90
1	90
1	4
1	90
1	90
1	90
1	90
1	90
1	90
1	5
1	90
1	7
1	90
1	7
1	90
1	3
1	90
1	90
1	90
1	5
1	4
1	7
1	3
1	4
1	8
1	6
1	90
1	90
1	90
1	90
1	3
1	2
1	90
1	4
1	5
1	8
1	90
1	8
1	90
1	4
1	12
1	4
1	90
1	90
1	4
1	90
1	90
1	5
1	90
1	90
1	5
1	8
1	4
1	3
1	90
2	3
2	8
2	3
2	5
2	12
2	5
2	5
2	4
2	4
2	4
2	6
2	12
2	8
2	4
2	12
2	8
3	4
