1	6124
1	175
1	175
1	175
1	175
1	175
1	175
1	11
1	11
1	175
1	8
1	175
1	175
1	175
1	175
1	8
1	175
1	7
1	175
1	6
1	175
1	7
1	175
1	175
1	7
1	6
1	3
1	9
1	11
1	17
1	175
1	175
1	11
1	175
1	9
1	175
1	175
1	175
1	6
1	175
1	175
1	11
1	175
1	175
1	175
1	175
1	175
1	6124
1	175
1	6124
1	175
1	175
1	11
1	7
1	175
1	7
1	3
1	175
1	175
1	175
1	17
1	8
1	175
1	7
1	175
1	175
1	7
1	5
1	175
1	175
1	3
1	3
1	11
1	7
1	17
1	5
1	175
1	175
1	5
1	7
1	175
1	175
1	175
1	11
1	6124
1	175
1	175
1	175
1	5
1	175
1	5
1	175
1	175
1	175
1	175
1	175
1	175
1	6
1	175
1	175
1	175
1	175
1	175
1	175
1	17
1	6
1	7
1	175
1	175
1	175
1	175
1	175
1	4
1	6
1	175
1	175
1	7
1	5
1	175
1	175
1	175
1	175
1	175
1	175
1	175
1	175
1	175
1	175
1	11
1	175
1	4
1	175
1	175
1	6
1	6
1	175
1	175
1	175
1	3
1	6
1	175
1	175
1	175
1	175
1	175
1	175
1	175
1	175
1	17
1	175
1	175
1	8
1	175
1	2
1	175
1	175
1	175
1	175
1	6
1	175
1	4
1	17
1	17
1	175
1	7
1	4
1	175
1	175
1	175
1	175
1	17
1	175
1	7
1	175
1	7
1	175
1	4
1	175
1	175
1	175
1	7
1	175
1	175
1	3
1	9
1	175
1	5
1	175
1	175
1	3
1	17
1	175
1	8
1	4
1	175
1	6
1	175
1	175
1	3
1	175
1	6
1	175
1	175
1	5
1	175
1	175
1	175
1	3
1	175
1	175
1	7
1	175
1	175
1	11
1	175
1	175
1	175
1	5
1	11
1	175
1	175
1	175
1	8
1	175
1	7
1	17
1	175
2	4
2	7
2	3
2	4
2	3
2	6
2	7
2	175
2	6
2	4
2	4
2	4
2	4
2	4
2	5
2	3
2	3
2	4
2	3
2	5
2	5
2	3
2	5
2	4
2	5
2	3
2	7
2	11
2	4
2	7
3	5
3	7
