1	6124
1	43
1	12
1	43
1	43
1	43
1	8
1	43
1	43
1	12
1	12
1	43
1	43
1	43
1	12
1	43
1	6
1	43
1	4
1	43
1	43
1	8
1	12
1	8
1	3
1	6
1	8
1	6
1	4
1	8
1	12
1	43
1	12
1	8
1	43
1	6
1	8
1	6
1	3
1	43
1	43
1	43
1	43
1	43
1	43
1	43
1	43
1	43
1	43
1	43
1	4
1	8
1	43
1	6
1	43
1	8
1	6
1	12
1	43
1	43
1	6
2	4
2	4
2	43
2	3
2	6
2	3
2	4
2	3
2	6
2	8
2	8
