1	6124
1	214
1	214
1	10
1	10
1	8
1	10
1	214
1	8
1	15
1	214
1	214
1	214
1	214
1	214
1	214
1	214
1	8
1	214
1	33
1	12
1	214
1	10
1	7
1	214
1	7
1	214
1	214
1	11
1	15
1	7
1	12
1	7
1	214
1	10
1	214
1	8
1	214
1	214
1	8
1	8
1	214
1	8
1	9
1	10
1	214
1	214
1	14
1	214
1	214
1	6
1	214
1	214
1	214
1	214
1	214
1	214
1	33
1	11
1	8
1	214
1	10
1	214
1	214
1	214
1	214
1	11
1	10
1	14
1	214
1	7
1	214
1	8
1	214
1	214
1	7
1	14
1	214
1	214
1	214
1	8
1	214
1	214
1	14
1	214
1	214
1	214
1	214
1	214
1	214
1	214
1	7
1	33
1	214
1	214
1	10
1	214
1	9
1	214
1	14
1	214
1	214
1	33
1	214
1	214
1	214
1	10
1	7
1	214
1	214
1	14
1	8
1	6
1	214
1	214
1	214
1	214
1	214
1	10
1	214
1	14
1	214
1	8
1	11
1	214
1	10
1	7
1	8
1	214
1	214
1	6124
1	8
1	214
1	214
1	10
1	214
1	214
1	214
1	214
1	7
1	214
1	9
1	10
1	214
1	214
1	12
1	3
1	5
1	7
1	214
1	15
1	214
1	214
1	214
1	10
1	33
1	214
1	5
1	214
1	4
1	214
1	8
1	33
1	214
1	6
1	6
1	214
1	11
1	10
1	214
1	14
1	5
1	214
1	10
1	11
1	6
1	214
1	214
1	214
1	11
1	7
1	33
1	214
1	5
1	14
1	11
1	8
1	8
1	214
1	214
1	214
1	214
1	10
1	7
1	214
1	9
1	7
1	214
1	214
1	214
1	214
1	214
1	214
1	7
1	14
1	11
1	10
1	9
1	214
1	6
1	7
1	214
1	33
1	214
1	6
1	214
1	214
1	214
1	10
1	7
1	214
1	214
1	214
1	15
1	214
1	214
1	8
1	214
1	14
1	214
1	15
1	214
1	3
1	14
1	214
1	214
1	214
1	7
1	6
1	214
1	10
1	214
1	214
1	214
1	214
1	214
1	214
1	6
1	214
1	14
1	33
1	7
1	7
1	214
1	15
1	5
1	7
1	3
1	10
1	8
1	214
1	214
1	214
1	214
1	4
1	14
1	214
1	214
1	214
1	214
1	10
1	9
1	214
1	214
1	33
1	214
1	33
1	7
1	10
2	9
2	10
2	9
2	6
2	11
2	3
2	9
2	15
2	6
2	9
2	5
2	7
2	33
2	7
2	4
2	6
2	5
2	9
2	5
2	9
2	7
2	5
2	5
2	5
2	214
2	33
2	3
2	4
2	9
2	9
2	7
2	3
2	4
2	7
2	6
2	7
2	4
2	3
2	6
2	7
2	7
2	4
2	5
2	4
2	5
2	33
2	8
2	6
2	6
2	9
2	5
2	7
2	5
2	10
2	4
2	6
2	4
2	5
2	4
2	4
2	6
2	5
3	4
3	10
3	6
3	4
3	5
4	9
