1	6124
1	590
1	590
1	590
1	590
1	590
1	590
1	590
1	590
1	590
1	590
1	590
1	6124
1	9
1	590
1	590
1	590
1	10
1	590
1	590
1	16
1	590
1	590
1	590
1	590
1	8
1	590
1	20
1	11
1	13
1	590
1	7
1	590
1	590
1	8
1	10
1	6124
1	590
1	590
1	590
1	8
1	590
1	590
1	13
1	6
1	590
1	590
1	590
1	590
1	4
1	590
1	9
1	590
1	590
1	7
1	590
1	590
1	14
1	9
1	590
1	13
1	590
1	590
1	24
1	24
1	590
1	590
1	590
1	590
1	4
1	590
1	20
1	9
1	4
1	590
1	8
1	590
1	590
1	8
1	590
1	590
1	13
1	590
1	590
1	9
1	590
1	590
1	590
1	590
1	9
1	590
1	590
1	590
1	590
1	590
1	590
1	590
1	12
1	590
1	18
1	590
1	9
1	590
1	10
1	11
1	590
1	590
1	590
1	15
1	590
1	9
1	11
1	590
1	590
1	590
1	10
1	9
1	590
1	18
1	590
1	590
1	590
1	590
1	590
1	6
1	590
1	15
1	13
1	8
1	590
1	590
1	590
1	16
1	9
1	24
1	590
1	9
1	7
1	590
1	6
1	590
1	590
1	590
1	590
1	590
1	14
1	13
1	10
1	590
1	590
1	590
1	590
1	590
1	9
1	590
1	7
1	590
1	590
1	6
1	590
1	590
1	6
1	590
1	590
1	7
1	8
1	590
1	10
1	10
1	6
1	7
1	5
1	590
1	9
1	590
1	9
1	590
1	590
1	18
1	590
1	10
1	10
1	590
1	590
1	590
1	590
1	590
1	590
1	590
1	590
1	590
1	6
1	590
1	590
1	9
1	590
1	590
1	590
1	7
1	590
1	13
1	14
1	590
1	590
1	13
1	590
1	590
1	7
1	5
1	590
1	590
1	590
1	9
1	10
1	590
1	15
1	10
1	3
1	8
1	4
1	16
1	590
1	590
1	590
1	10
1	6
1	590
1	590
1	12
1	9
1	590
1	16
1	590
1	590
1	590
1	6124
1	9
1	590
1	590
1	5
1	20
1	10
1	5
1	590
1	13
1	590
1	590
1	590
1	590
1	590
1	590
1	590
1	590
1	24
1	590
1	590
1	590
1	4
1	590
1	590
1	590
1	590
1	16
1	590
1	590
1	590
1	5
1	590
1	590
1	590
1	10
1	590
1	7
1	10
1	590
1	590
1	590
1	12
1	590
1	590
1	20
1	12
1	590
1	590
1	590
1	6
1	590
1	590
1	590
1	590
1	590
1	3
1	590
1	20
1	590
1	590
1	590
1	6
1	590
1	16
1	590
1	13
1	590
1	16
1	9
1	7
1	590
1	5
1	11
1	590
1	8
1	590
1	8
1	590
1	590
1	9
1	590
1	590
1	590
1	8
1	3
1	590
1	9
1	9
1	4
1	2
1	590
1	590
1	590
1	590
1	590
1	590
1	590
1	3
1	4
1	590
1	590
1	590
1	10
1	15
1	9
1	590
1	590
1	590
1	590
1	590
1	8
1	590
1	590
1	590
1	590
1	7
1	590
1	5
1	590
1	590
1	590
1	13
1	590
1	590
1	12
1	6
1	590
1	590
1	590
1	9
1	590
1	9
1	590
1	590
1	590
1	590
1	590
1	590
1	590
1	10
1	590
1	13
1	590
1	8
1	13
1	15
1	590
1	16
1	6
1	590
1	590
1	590
1	590
1	16
1	590
1	590
1	590
1	15
1	590
1	590
1	590
1	10
1	590
1	10
1	7
1	16
1	590
1	590
1	18
1	590
1	590
1	590
1	6
1	590
1	590
1	590
1	18
1	590
1	590
1	13
1	590
1	590
1	8
1	590
1	9
1	590
1	12
1	590
1	6124
1	590
1	9
1	13
1	4
1	6
1	9
1	590
1	13
1	9
1	10
1	16
1	590
1	590
1	590
1	590
1	13
1	590
1	18
1	590
1	590
1	5
1	590
1	16
1	590
1	9
1	16
1	8
1	590
1	590
1	590
1	7
1	590
1	590
1	590
1	590
1	590
1	590
1	590
1	590
1	9
1	590
1	590
1	590
1	590
1	590
1	590
1	10
1	16
1	590
1	590
1	6
1	590
1	590
1	6
1	18
1	590
1	12
1	11
1	10
1	7
1	590
1	590
1	590
1	590
1	590
1	590
1	590
1	9
1	590
1	590
1	13
1	15
1	10
1	10
1	590
1	4
1	590
1	11
1	4
1	24
1	590
1	590
1	590
1	590
1	590
1	590
1	10
1	9
1	11
1	590
1	11
1	590
1	14
1	11
1	590
1	6
1	590
1	590
1	590
1	16
1	590
1	590
1	590
1	590
1	590
1	5
1	590
1	10
1	24
1	590
1	590
1	12
1	590
1	590
1	590
1	590
1	590
1	590
1	15
1	20
1	590
1	590
1	8
1	14
1	590
1	3
1	590
1	590
1	6
1	590
1	590
1	3
1	16
1	15
1	590
1	590
1	16
1	590
1	590
1	590
1	14
1	16
1	590
1	590
1	8
1	590
1	590
1	6
1	590
1	590
1	590
1	590
1	590
1	24
1	590
1	590
1	590
1	590
1	590
1	8
1	24
1	590
1	11
1	590
1	590
1	590
1	590
1	590
1	8
1	590
1	590
1	590
1	13
1	590
1	590
1	590
1	12
1	590
1	590
1	590
1	590
1	590
1	590
1	590
1	590
1	6
1	590
1	8
1	590
1	590
1	13
1	5
1	10
1	15
1	590
1	590
1	590
1	590
1	590
1	10
1	590
1	590
1	11
1	590
1	590
1	590
1	590
1	10
1	7
1	5
1	590
1	590
1	590
1	590
1	590
1	590
1	590
1	16
1	11
1	8
1	590
1	590
1	590
1	590
1	590
1	590
1	590
1	24
1	7
1	590
1	18
1	590
1	5
1	590
1	590
1	24
1	590
1	590
1	12
1	12
1	13
1	590
1	16
1	6
1	590
1	590
1	8
1	590
1	8
1	590
1	590
1	10
1	590
1	590
1	590
1	590
1	11
1	5
1	7
1	8
1	590
1	14
1	590
1	13
1	590
1	590
1	590
1	590
1	590
1	5
1	590
1	590
1	590
1	590
1	590
1	11
1	12
1	590
1	16
1	590
1	590
1	590
1	590
1	590
1	590
1	590
1	590
1	3
1	9
1	9
1	590
1	20
1	10
1	3
1	13
1	24
1	590
1	590
1	590
1	13
1	8
1	11
1	590
1	590
1	9
1	590
1	5
1	10
1	20
1	3
1	18
1	3
1	9
1	590
1	6
1	590
1	7
1	11
1	13
1	590
1	590
1	590
1	590
1	590
1	4
1	590
1	590
1	590
1	590
1	590
1	590
1	11
1	590
1	590
1	590
1	590
1	16
1	590
1	590
1	590
1	9
1	590
1	4
1	12
1	5
1	10
1	590
1	590
1	9
1	15
1	590
1	7
1	590
1	590
1	8
1	4
1	590
1	6
1	590
1	590
1	590
1	590
1	590
1	590
1	590
2	3
2	4
2	590
2	11
2	10
2	3
2	590
2	16
2	14
2	590
2	8
2	6
2	5
2	14
2	4
2	12
2	12
2	14
2	5
2	14
2	8
2	7
2	3
2	12
2	6
2	6
2	3
2	3
2	14
2	3
2	11
2	9
2	7
2	9
2	12
2	6
2	9
2	6
2	5
2	6
2	20
2	3
2	3
2	590
2	16
2	7
2	4
2	4
2	6
2	14
2	6
2	4
2	3
2	4
2	8
2	590
2	9
2	14
2	4
2	11
2	5
2	10
2	4
2	9
2	6
2	3
2	4
2	9
2	4
2	10
2	8
2	4
2	3
2	14
2	4
2	6
2	10
2	5
2	4
2	9
2	12
2	7
2	7
2	4
2	5
2	14
2	3
2	5
2	4
2	3
2	4
2	3
2	10
2	3
2	10
2	13
2	3
2	20
2	3
2	14
2	3
2	4
2	6
2	15
2	15
2	6
2	5
2	9
2	14
2	4
2	5
2	7
2	6
2	12
2	6
2	3
2	12
2	3
2	3
2	3
2	14
2	6
2	12
2	5
2	13
2	14
2	12
2	6
2	6
2	12
3	4
3	5
3	8
3	10
3	7
3	6
3	5
3	4
3	5
3	7
3	6
3	10
3	5
3	7
5	6
