1	6124
1	287
1	287
1	287
1	287
1	287
1	287
1	287
1	287
1	287
1	31
1	287
1	287
1	12
1	287
1	32
1	287
1	287
1	287
1	287
1	287
1	287
1	32
1	287
1	287
1	32
1	287
1	287
1	287
1	287
1	287
1	287
1	287
1	31
1	3
1	6
1	287
1	287
1	6
1	287
1	287
1	7
1	7
1	287
1	287
1	32
1	6
1	6
1	9
1	287
1	287
1	287
1	287
1	287
1	287
1	287
1	287
1	287
1	287
1	287
1	12
1	31
1	7
1	12
1	287
1	31
1	287
1	31
1	287
1	287
1	287
1	287
1	31
1	5
1	287
1	5
1	8
1	287
1	287
1	287
1	6124
1	287
1	6
1	6
1	287
1	287
1	6
1	287
1	287
1	287
1	287
1	287
1	287
1	287
1	31
1	287
1	6
1	287
1	287
1	287
1	287
1	287
1	287
1	32
1	287
1	287
1	287
1	32
1	287
1	287
1	287
1	7
1	287
1	287
1	12
1	287
1	287
1	6
1	287
1	287
1	287
1	287
1	287
1	287
1	287
1	287
1	287
1	287
1	287
1	287
1	287
1	287
1	287
1	287
1	287
1	287
1	287
1	5
1	3
1	287
1	6
1	31
1	287
1	31
1	287
1	287
1	12
1	32
1	287
1	31
1	287
1	287
1	7
1	6
1	287
1	12
1	4
1	287
1	6
1	9
1	5
1	287
1	5
1	287
1	287
1	5
1	6
1	287
1	287
1	5
1	287
1	31
1	287
1	287
1	287
1	287
1	287
1	287
1	287
1	287
1	287
1	287
1	287
1	31
1	32
1	287
1	6
1	31
1	5
1	287
1	287
1	32
1	287
1	287
1	9
1	287
1	287
1	287
1	287
1	287
1	287
1	31
1	287
1	287
1	6
1	287
1	287
1	287
1	287
1	5
1	32
1	287
1	287
1	287
1	32
1	287
1	287
1	287
1	287
1	287
1	32
1	287
1	287
1	287
1	287
1	287
1	287
1	5
1	287
1	287
1	32
1	287
1	287
1	287
1	9
1	287
1	32
1	287
1	6
1	287
1	287
1	287
1	287
1	287
1	9
1	287
1	287
1	287
1	5
1	31
1	287
1	287
1	32
1	287
1	287
1	5
1	31
1	287
1	3
1	287
1	287
1	9
1	6
1	4
1	12
1	287
1	287
1	287
1	287
1	287
1	287
1	287
1	287
1	287
1	32
1	287
1	4
1	6
1	6
1	5
1	4
1	287
1	287
1	287
1	287
1	287
1	287
1	287
1	4
1	287
1	32
1	31
1	287
1	287
1	287
1	3
1	287
1	287
1	287
1	7
1	32
1	287
1	287
1	287
1	9
1	32
1	287
1	287
1	287
1	287
1	287
1	31
1	287
1	287
1	287
1	12
1	287
1	287
1	3
1	32
1	287
1	287
1	287
1	287
1	31
1	287
1	5
1	9
1	287
1	287
1	4
1	287
1	287
1	287
1	287
1	31
1	287
1	5
1	287
1	287
1	287
1	31
1	7
1	287
1	287
1	31
1	287
1	6
1	287
1	287
1	287
1	287
1	287
1	32
1	287
1	287
1	287
1	287
1	7
1	31
1	287
1	287
1	287
2	9
2	5
2	3
2	6
2	3
2	3
2	8
2	4
2	6
2	4
2	8
2	6
2	3
2	6
2	3
2	5
2	8
2	4
2	3
2	3
2	4
2	5
2	8
2	6
2	8
2	8
2	4
2	5
2	6
2	4
2	5
2	6
2	7
2	6
2	3
2	5
2	32
2	9
2	8
2	6
2	3
2	8
3	6
3	4
3	5
