1	6124
1	142
1	142
1	32
1	12
1	11
1	6124
1	142
1	9
1	9
1	9
1	142
1	142
1	11
1	11
1	142
1	14
1	32
1	14
1	142
1	9
1	8
1	32
1	142
1	142
1	11
1	8
1	14
1	7
1	14
1	14
1	11
1	6124
1	142
1	8
1	142
1	14
1	142
1	142
1	142
1	142
1	142
1	142
1	9
1	142
1	11
1	9
1	142
1	32
1	142
1	11
1	14
1	22
1	8
1	3
1	14
1	3
1	6
1	14
1	32
1	142
1	142
1	11
1	3
1	9
1	142
1	8
1	12
1	142
1	32
1	142
1	14
1	142
1	14
1	142
1	142
1	14
1	142
1	8
1	142
1	142
1	14
1	8
1	7
1	142
1	32
1	8
1	142
1	142
1	10
1	3
1	142
1	14
1	9
1	6124
1	142
1	8
1	142
1	142
1	14
1	6
1	11
1	9
1	32
1	4
1	14
1	11
1	142
1	6124
1	142
1	142
1	3
1	142
1	32
1	142
1	142
1	142
1	142
1	8
1	142
1	3
1	2
1	8
1	2
1	14
1	142
1	7
1	142
1	10
1	7
1	22
1	6124
1	14
1	2
1	142
1	6
1	6
1	142
1	142
1	142
1	11
1	4
1	14
1	14
1	6
1	142
1	142
1	5
1	142
1	142
1	142
1	142
1	142
1	142
1	11
1	14
1	14
1	6
1	142
1	32
1	142
1	5
1	5
1	142
1	142
1	4
1	11
1	142
1	5
1	4
1	142
1	142
1	9
1	14
1	14
1	5
1	142
1	32
1	142
1	142
1	5
1	142
1	142
1	32
1	142
1	9
1	142
1	12
1	6
1	5
1	14
1	14
2	6
2	7
2	6
2	7
2	5
2	22
2	3
2	32
2	5
2	12
2	6
2	7
2	4
2	4
2	7
2	11
2	22
2	9
2	5
2	6
2	14
2	22
2	7
2	22
2	7
2	22
2	22
2	11
2	4
2	7
2	3
2	11
2	12
2	6
2	12
2	4
2	3
2	5
2	4
2	6
2	9
2	22
2	3
2	6
2	3
2	14
2	11
2	9
2	7
2	3
2	5
2	3
2	4
2	5
2	5
2	11
2	7
2	7
2	22
2	10
2	7
2	7
2	10
3	6
3	5
3	5
3	5
3	8
3	4
3	7
3	6
3	7
4	9
4	5
