1	6124
1	230
1	24
1	230
1	14
1	230
1	14
1	230
1	230
1	230
1	24
1	14
1	10
1	7
1	22
1	22
1	7
1	7
1	230
1	7
1	6
1	230
1	230
1	8
1	5
1	10
1	230
1	230
1	230
1	230
1	6
1	13
1	230
1	8
1	230
1	8
1	230
1	230
1	6
1	230
1	230
1	230
1	230
1	230
1	230
1	14
1	24
1	3
1	230
1	230
1	26
1	10
1	10
1	7
1	10
1	230
1	6
1	8
1	230
1	5
1	230
1	14
1	26
1	6
1	230
1	7
1	230
1	230
1	230
1	14
1	230
1	22
1	230
1	6
1	10
1	230
1	10
1	230
1	230
1	5
1	230
1	8
1	6
1	230
1	230
1	24
1	230
1	230
1	7
1	6
1	8
1	24
1	230
1	230
1	230
1	230
1	230
1	230
1	230
1	22
1	230
1	230
1	230
1	14
1	230
1	7
1	22
1	230
1	230
1	230
1	230
1	6
1	6
1	230
1	230
1	24
1	24
1	230
1	6
1	26
1	8
1	230
1	10
1	230
1	230
1	13
1	6
1	230
1	230
1	14
1	24
1	230
1	7
1	3
1	230
1	230
1	230
1	14
1	10
1	230
1	3
1	22
1	230
1	230
1	230
1	6
1	230
1	230
1	22
1	8
1	8
1	5
1	230
1	230
1	10
1	7
1	230
1	5
1	230
1	230
1	230
1	5
1	7
1	230
1	5
1	6
1	4
1	230
1	230
1	7
1	230
1	230
1	230
1	24
1	230
1	230
1	26
1	6124
1	26
1	230
1	6
1	230
1	230
1	6
1	5
1	230
1	24
1	22
1	230
1	6
1	6
1	24
1	230
1	230
1	230
1	14
1	230
1	230
1	5
1	3
1	24
1	230
1	230
1	230
1	8
1	24
1	7
1	230
1	4
1	5
1	230
1	4
1	230
1	7
1	230
1	230
1	6124
1	13
1	230
1	14
1	7
1	14
1	230
1	14
1	7
1	14
1	230
1	22
1	24
1	230
1	230
1	230
1	8
1	230
1	7
1	230
1	8
1	230
1	230
1	8
1	230
1	5
1	5
1	230
1	230
1	7
1	230
1	7
1	230
1	5
1	5
1	14
1	230
1	14
1	230
1	230
1	10
1	6
1	7
1	230
1	8
1	230
1	230
1	10
1	7
1	7
1	230
1	5
1	22
1	7
1	4
1	8
1	5
1	230
1	230
1	6
1	8
1	7
1	13
1	230
1	4
1	230
1	230
1	230
1	6
1	230
1	230
1	230
1	24
1	230
1	230
1	13
1	6
1	10
1	230
1	230
1	24
1	5
1	5
1	7
1	230
1	230
1	230
1	5
1	13
1	5
1	13
1	4
1	22
1	230
1	3
1	7
1	5
1	6
1	6
1	7
1	5
1	230
1	6
1	26
1	230
1	5
1	230
1	8
1	230
1	4
1	230
1	8
1	14
1	24
1	230
1	8
1	230
1	14
1	230
1	8
1	230
1	230
1	230
1	230
1	3
1	6
2	5
2	4
2	6
2	3
2	5
2	4
2	5
2	6
2	26
2	6
2	26
2	6
2	6
2	26
2	3
2	26
2	8
2	5
2	230
2	5
2	5
2	4
2	6
2	14
2	4
2	4
2	6
2	7
2	3
2	5
2	26
2	8
2	4
2	5
2	5
2	230
2	26
2	5
2	26
2	4
2	3
2	4
2	5
2	5
2	6
2	3
2	6
2	5
2	26
2	5
2	26
2	26
2	3
2	5
2	4
2	5
2	3
2	13
2	8
2	26
2	7
2	7
2	4
3	4
3	7
3	5
3	5
3	5
3	5
3	6
3	4
3	7
3	4
