1	6124
1	460
1	8
1	460
1	460
1	460
1	460
1	8
1	6124
1	460
1	460
1	460
1	460
1	460
1	460
1	460
1	460
1	460
1	8
1	6124
1	460
1	9
1	460
1	14
1	460
1	460
1	460
1	460
1	460
1	460
1	460
1	460
1	460
1	460
1	7
1	460
1	460
1	460
1	460
1	460
1	460
1	460
1	460
1	460
1	9
1	11
1	460
1	460
1	460
1	6
1	460
1	460
1	460
1	23
1	11
1	13
1	8
1	460
1	460
1	460
1	7
1	4
1	460
1	460
1	460
1	460
1	460
1	460
1	460
1	9
1	7
1	460
1	6
1	8
1	460
1	460
1	460
1	6
1	460
1	460
1	460
1	460
1	7
1	460
1	460
1	460
1	460
1	460
1	460
1	460
1	460
1	460
1	460
1	460
1	460
1	14
1	8
1	23
1	17
1	460
1	460
1	460
1	460
1	6
1	460
1	6124
1	460
1	460
1	11
1	460
1	460
1	460
1	460
1	460
1	13
1	460
1	460
1	13
1	460
1	7
1	460
1	8
1	460
1	460
1	460
1	460
1	5
1	460
1	460
1	460
1	6124
1	460
1	17
1	460
1	8
1	8
1	460
1	460
1	460
1	6
1	460
1	460
1	17
1	460
1	6
1	460
1	6
1	460
1	460
1	460
1	11
1	14
1	23
1	460
1	4
1	460
1	460
1	460
1	14
1	460
1	460
1	460
1	6124
1	5
1	460
1	460
1	17
1	460
1	460
1	6
1	460
1	460
1	460
1	14
1	460
1	460
1	460
1	14
1	2
1	9
1	460
1	460
1	460
1	460
1	460
1	460
1	460
1	460
1	460
1	460
1	460
1	460
1	460
1	460
1	9
1	23
1	8
1	460
1	460
1	460
1	460
1	8
1	4
1	7
1	460
1	460
1	460
1	460
1	460
1	460
1	460
1	460
1	3
1	6
1	8
1	460
1	460
1	4
1	460
1	460
1	7
1	460
1	460
1	460
1	460
1	460
1	460
1	7
1	460
1	460
1	460
1	460
1	460
1	6
1	460
1	460
1	460
1	460
1	6
1	460
1	460
1	14
1	460
1	6
1	460
1	11
1	460
1	460
1	6
1	460
1	7
1	9
1	460
1	460
1	4
1	460
1	460
1	460
1	460
1	460
1	460
1	8
1	14
1	460
1	3
1	6
1	6
1	8
1	460
1	460
1	460
1	460
1	11
1	6
1	6
1	460
1	460
1	17
1	460
1	6
1	460
1	460
1	460
1	23
1	460
1	460
1	14
1	4
1	6
1	3
1	460
1	14
1	460
1	460
1	7
1	23
1	460
1	5
1	6
1	460
1	460
1	460
1	6124
1	460
1	23
1	460
1	13
1	5
1	460
1	460
1	460
1	460
1	11
1	460
1	3
1	6
1	8
1	8
1	460
1	23
1	460
1	460
1	4
1	460
1	460
1	460
1	460
1	13
1	6
1	8
1	460
1	14
1	460
1	460
1	460
1	460
1	460
1	460
1	460
1	460
1	460
1	460
1	460
1	460
1	460
1	6124
1	460
1	17
1	7
1	17
1	460
1	6
1	4
1	460
1	6
1	460
1	460
1	9
1	460
1	460
1	6
1	460
1	5
1	460
1	460
1	460
1	460
1	460
1	6
1	17
1	460
1	4
1	6124
1	23
1	460
1	460
1	460
1	460
1	460
1	460
1	460
1	460
1	460
1	2
1	11
1	460
1	460
1	460
1	460
1	460
1	460
1	460
1	14
1	14
1	4
1	460
1	460
1	6124
1	460
1	460
1	5
1	460
1	13
1	460
1	460
1	17
1	7
1	460
1	460
1	460
1	10
1	460
1	460
1	460
1	460
1	460
1	460
1	5
1	460
1	6
1	460
1	8
1	10
1	13
1	460
1	13
1	11
1	460
1	460
1	460
1	3
1	460
1	460
1	14
1	460
1	460
1	5
1	460
1	460
1	5
1	13
1	13
1	7
1	4
1	8
1	460
1	460
1	460
1	460
1	460
1	460
1	10
1	460
1	460
1	460
1	460
1	17
1	460
1	460
1	460
1	6
1	460
1	460
1	460
1	460
1	460
1	23
1	460
1	460
1	460
1	460
1	460
1	460
1	460
1	460
1	9
1	8
1	460
1	14
1	460
1	13
1	6
1	460
1	460
1	23
1	460
1	13
1	460
1	14
1	460
1	7
1	460
1	460
1	460
1	460
1	460
1	7
1	460
1	460
1	460
1	14
1	17
1	7
1	460
1	460
1	460
1	460
1	460
1	460
1	460
1	5
1	4
1	460
1	5
1	460
1	460
1	460
1	17
1	8
1	8
1	460
1	460
1	2
1	460
1	460
1	460
1	460
1	5
1	460
1	460
1	5
1	460
1	460
1	460
1	460
1	23
1	14
1	460
1	14
1	460
1	460
1	460
1	460
1	460
1	460
1	460
1	9
1	460
1	460
1	460
1	7
1	460
1	4
1	460
1	460
1	11
1	6
1	460
1	460
1	460
1	460
1	9
1	6124
1	460
1	460
1	460
1	2
1	6124
1	460
1	460
1	460
1	460
1	460
1	4
1	460
1	460
1	10
1	460
1	460
1	4
1	460
1	460
1	460
1	460
1	4
1	4
1	5
1	7
1	460
1	460
1	460
1	460
1	460
1	460
1	460
2	4
2	7
2	5
2	5
2	460
2	6
2	3
2	8
2	6
2	5
2	6
2	6
2	3
2	5
2	17
2	13
2	460
2	5
2	23
2	4
2	3
2	5
2	17
2	11
2	3
2	17
2	3
2	3
2	4
2	3
2	460
2	9
2	4
2	8
2	3
2	5
2	7
2	7
2	3
2	4
2	6
2	3
2	460
2	5
2	7
2	5
2	8
2	4
2	3
2	3
2	4
2	3
2	5
2	7
2	6
2	3
2	3
2	5
2	3
2	6
2	4
2	4
2	5
2	4
3	4
3	4
3	4
3	5
3	6
3	4
3	11
4	5
