1	6124
1	564
1	6124
1	564
1	15
1	564
1	11
1	9
1	564
1	8
1	564
1	564
1	564
1	564
1	564
1	564
1	564
1	564
1	6
1	564
1	18
1	564
1	564
1	564
1	564
1	10
1	564
1	564
1	564
1	564
1	564
1	564
1	8
1	564
1	564
1	564
1	564
1	564
1	564
1	564
1	564
1	11
1	564
1	564
1	564
1	564
1	564
1	564
1	11
1	564
1	564
1	15
1	12
1	12
1	564
1	564
1	564
1	564
1	564
1	564
1	564
1	564
1	564
1	564
1	564
1	564
1	564
1	4
1	564
1	12
1	564
1	564
1	564
1	12
1	564
1	12
1	564
1	564
1	9
1	564
1	564
1	564
1	5
1	564
1	564
1	564
1	6
1	12
1	14
1	564
1	564
1	564
1	7
1	564
1	564
1	564
1	564
1	564
1	564
1	10
1	13
1	11
1	4
1	564
1	6124
1	564
1	564
1	564
1	564
1	5
1	18
1	13
1	7
1	4
1	564
1	564
1	564
1	564
1	564
1	5
1	564
1	7
1	564
1	564
1	564
1	10
1	5
1	564
1	564
1	564
1	564
1	564
1	564
1	564
1	564
1	564
1	564
1	564
1	564
1	564
1	564
1	6
1	564
1	564
1	564
1	564
1	5
1	564
1	564
1	564
1	564
1	8
1	564
1	564
1	564
1	564
1	564
1	564
1	564
1	564
1	564
1	564
1	564
1	13
1	564
1	564
1	6
1	564
1	564
1	18
1	5
1	7
1	564
1	8
1	564
1	564
1	564
1	5
1	564
1	564
1	5
1	564
1	564
1	564
1	564
1	564
1	5
1	3
1	564
1	15
1	564
1	11
1	18
1	564
1	8
1	10
1	564
1	564
1	564
1	564
1	564
1	9
1	564
1	564
1	564
1	564
1	564
1	12
1	564
1	564
1	564
1	564
1	564
1	564
1	13
1	15
1	564
1	564
1	6124
1	12
1	564
1	564
1	564
1	18
1	11
1	564
1	564
1	564
1	564
1	564
1	564
1	564
1	11
1	564
1	564
1	564
1	564
1	564
1	564
1	564
1	564
1	5
1	6
1	564
1	564
1	564
1	564
1	6
1	6
1	564
1	564
1	564
1	564
1	564
1	6
1	564
1	6
1	564
1	564
1	564
1	18
1	564
1	6
1	564
1	564
1	4
1	5
1	564
1	6
1	564
1	564
1	564
1	564
1	11
1	564
1	564
1	5
1	564
1	564
1	564
1	564
1	564
1	564
1	564
1	564
1	564
1	564
1	8
1	5
1	9
1	564
1	564
1	564
1	9
1	564
1	564
1	564
1	564
1	564
1	564
1	564
1	13
1	564
1	564
1	564
1	564
1	564
1	564
1	564
1	18
1	564
1	564
1	564
1	18
1	564
1	7
1	564
1	4
1	564
1	564
1	564
1	564
1	564
1	564
1	564
1	564
1	564
1	11
1	564
1	5
1	564
1	564
1	5
1	564
1	564
1	564
1	564
1	564
1	564
1	18
1	5
1	564
1	564
1	5
1	7
1	564
1	18
1	564
1	564
1	564
1	564
1	564
1	15
1	564
1	564
1	5
1	564
1	564
1	564
1	8
1	564
1	564
1	564
1	564
1	18
1	6
1	564
1	564
1	564
1	564
1	564
1	564
1	4
1	564
1	564
1	564
1	564
1	564
1	564
1	4
1	564
1	564
1	564
1	564
1	564
1	7
1	564
1	564
1	564
1	5
1	13
1	9
1	14
1	5
1	564
1	564
1	15
1	564
1	564
1	564
1	564
1	564
1	564
1	564
1	564
1	12
1	4
1	564
1	564
1	564
1	564
1	564
1	564
1	564
1	564
1	564
1	564
1	564
1	564
1	564
1	564
1	564
1	564
1	564
1	6
1	7
1	564
1	564
1	564
1	564
1	564
1	564
1	564
1	564
1	564
1	564
1	564
1	564
1	564
1	564
1	564
1	12
1	564
1	6
1	564
1	10
1	564
1	12
1	564
1	13
1	564
1	564
1	4
1	564
1	564
1	2
1	564
1	564
1	14
1	15
1	564
1	564
1	564
1	564
1	564
1	564
1	5
1	14
1	564
1	564
1	564
1	564
1	564
1	5
1	564
1	5
1	564
1	564
1	564
1	564
1	564
1	564
1	564
1	7
1	564
1	15
1	564
1	11
1	564
1	564
1	5
1	564
1	564
1	13
1	564
1	564
1	564
1	564
1	564
1	564
1	564
1	564
1	13
1	564
1	564
1	564
1	564
1	564
1	564
1	564
1	564
1	564
1	564
1	11
1	564
1	12
1	13
1	564
1	564
1	564
1	564
1	5
1	564
1	564
1	564
1	564
1	564
1	564
1	4
1	8
1	564
1	14
1	564
1	7
1	564
1	564
1	564
1	7
1	564
1	564
1	564
1	564
1	564
1	564
1	564
1	7
1	564
1	18
1	564
1	564
1	564
1	4
1	5
1	564
1	564
1	564
1	564
1	564
1	564
1	564
1	564
1	4
1	564
1	564
1	6
1	564
1	564
1	564
1	10
1	564
1	564
1	564
1	10
1	564
1	564
1	564
1	564
1	564
1	564
1	15
1	564
1	564
1	564
1	564
1	564
1	564
1	564
1	564
1	564
1	564
1	564
1	6
1	564
1	564
1	564
1	5
1	564
1	13
1	564
1	4
1	564
1	7
1	12
1	564
1	564
1	564
1	6
1	564
1	564
1	564
1	564
1	9
1	564
1	564
1	564
1	564
1	564
1	564
1	564
1	564
1	564
1	564
1	564
1	564
1	4
1	564
1	564
1	5
1	10
1	564
1	5
1	564
1	564
1	564
1	6
1	564
1	564
1	12
1	9
1	564
1	564
1	564
1	564
1	564
1	564
1	564
1	11
1	564
1	4
1	564
1	12
1	564
1	564
1	564
1	564
1	7
1	9
1	564
1	5
1	4
1	564
1	564
1	564
1	564
1	6
1	5
1	564
1	8
1	11
1	564
1	564
1	564
1	15
1	564
1	564
1	564
1	564
1	564
1	3
1	564
1	564
1	564
1	564
1	564
1	564
1	564
1	564
2	8
2	564
2	7
2	6
2	10
2	6
2	13
2	12
2	3
2	5
2	3
2	8
2	3
2	3
2	5
2	564
2	11
2	5
2	8
2	8
2	4
2	4
2	5
2	5
2	3
2	4
2	13
2	3
2	3
2	6
2	12
2	3
2	9
2	4
2	11
2	564
2	4
2	5
2	11
2	4
2	5
2	3
2	564
2	6
2	13
2	4
2	3
2	4
2	4
2	12
2	564
2	3
2	13
2	4
2	4
2	14
2	5
2	5
2	3
2	12
2	4
3	5
3	5
3	5
3	10
3	4
3	4
3	4
4	5
