1	6124
1	48
1	48
1	13
1	48
1	48
1	8
1	13
1	48
1	48
1	7
1	48
1	48
1	8
1	8
1	8
1	48
1	48
1	48
1	7
1	3
1	48
1	5
1	13
1	48
1	48
1	48
1	48
1	48
1	48
1	7
1	48
1	7
1	13
1	48
1	48
1	5
1	5
1	3
1	5
1	48
1	6
1	6
1	48
1	48
1	5
1	48
1	48
1	4
1	48
1	48
1	48
1	48
1	6
1	5
1	48
1	3
1	13
1	48
1	5
1	13
1	3
1	13
1	7
1	48
1	6
1	48
1	48
1	3
1	6
1	13
1	48
1	48
1	3
1	48
1	48
1	48
1	13
1	48
1	48
2	6
2	6
2	3
2	4
2	4
2	3
2	4
2	4
2	3
3	6
