1	6124
1	176
1	176
1	176
1	176
1	176
1	176
1	176
1	176
1	176
1	176
1	176
1	176
1	5
1	176
1	176
1	176
1	176
1	176
1	176
1	6
1	176
1	176
1	176
1	176
1	176
1	16
1	176
1	176
1	176
1	5
1	176
1	176
1	176
1	8
1	16
1	176
1	176
1	176
1	16
1	176
1	176
1	176
1	6
1	4
1	176
1	176
1	16
1	176
1	5
1	176
1	4
1	176
1	4
1	176
1	176
1	176
1	16
1	176
1	10
1	6
1	176
1	176
1	176
1	176
1	176
1	176
1	4
1	10
1	10
1	176
1	176
1	16
1	176
1	176
1	176
1	6
1	8
1	4
1	176
1	5
1	176
1	10
1	176
1	176
1	176
1	176
1	3
1	3
1	176
1	176
1	176
1	3
1	176
1	176
1	8
1	176
1	176
1	5
1	176
1	176
1	176
1	10
1	176
1	176
1	176
1	176
1	10
1	10
1	176
1	176
1	176
1	176
1	176
1	16
1	176
1	176
1	176
1	176
1	176
1	6124
1	176
1	176
1	176
1	176
1	3
1	176
1	176
1	5
1	176
1	176
1	176
1	6124
1	176
1	6
1	176
1	176
1	3
1	176
1	176
1	176
1	176
1	176
1	5
1	176
1	176
1	3
1	16
1	176
1	176
1	176
1	176
1	176
1	176
1	176
1	16
1	176
1	176
1	2
1	4
1	176
1	10
1	176
1	8
1	176
1	4
1	176
1	176
1	176
1	176
1	176
1	176
1	176
1	176
1	176
1	176
1	176
1	176
1	176
1	3
1	176
1	4
1	176
1	176
1	176
1	3
1	176
1	176
1	176
1	176
1	176
1	176
1	176
1	176
1	176
1	176
1	176
1	176
1	176
1	5
1	16
1	4
2	6
2	4
2	176
2	4
2	176
2	3
2	8
2	6
2	3
2	6
2	3
2	6
2	4
2	4
2	3
2	6
2	4
2	4
2	176
2	3
2	4
2	6
2	3
2	4
2	4
3	4
