1	6124
1	91
1	91
1	91
1	91
1	91
1	91
1	91
1	91
1	91
1	91
1	91
1	91
1	91
1	8
1	91
1	91
1	7
1	7
1	91
1	7
1	6
1	6
1	91
1	91
1	6
1	91
1	91
1	5
1	8
1	5
1	91
1	91
1	91
1	91
1	91
1	4
1	4
1	91
1	91
1	6
1	91
1	4
1	91
1	8
1	91
1	5
1	91
1	5
1	3
1	5
1	3
1	91
1	91
1	3
1	5
1	91
1	5
1	91
1	91
1	4
1	91
1	8
1	6
1	4
1	6124
1	91
1	91
1	91
1	6124
1	7
1	91
1	91
1	4
1	5
1	5
1	3
1	91
1	91
1	91
1	91
1	5
1	4
1	3
1	3
1	91
1	6124
1	91
1	3
1	91
1	91
1	6124
1	5
1	91
1	91
1	91
1	4
1	91
1	5
1	91
1	91
1	4
1	91
1	91
1	2
1	5
1	91
1	7
1	91
1	91
1	91
1	5
1	4
1	91
1	8
1	3
1	91
1	91
1	91
1	6
1	91
1	6
1	8
1	3
1	5
1	91
1	5
1	91
1	91
2	3
2	5
2	3
2	3
2	5
2	5
2	5
2	3
2	3
2	5
2	5
3	4
