1	6124
1	17
1	101
1	101
1	101
1	101
1	101
1	101
1	8
1	101
1	10
1	7
1	11
1	101
1	8
1	101
1	101
1	8
1	11
1	7
1	11
1	10
1	11
1	13
1	10
1	101
1	6124
1	101
1	8
1	101
1	101
1	101
1	101
1	7
1	101
1	101
1	14
1	15
1	101
1	7
1	101
1	8
1	6
1	6
1	101
1	7
1	5
1	6
1	17
1	101
1	8
1	101
1	101
1	11
1	101
1	101
1	11
1	101
1	101
1	6
1	15
1	101
1	6
1	4
1	8
1	101
1	13
1	11
1	101
1	8
1	17
1	101
1	4
1	101
1	5
1	101
1	4
1	101
1	8
1	6124
1	14
1	4
1	101
1	5
1	17
1	5
1	4
1	101
1	101
1	5
1	5
1	11
1	17
1	7
1	101
1	101
1	101
1	8
1	101
1	3
1	15
1	8
1	101
1	11
1	101
1	17
1	5
1	101
1	5
1	101
1	15
1	101
1	101
1	101
1	15
1	15
1	101
1	101
1	11
1	4
1	8
1	11
1	6
1	4
1	7
1	7
1	5
1	17
1	4
1	15
1	101
1	3
1	17
1	6
1	3
2	14
2	4
2	10
2	4
2	6
2	6
2	101
2	13
2	6
2	7
2	7
2	4
2	7
2	7
2	10
2	14
2	3
2	11
2	11
2	7
2	6
2	8
2	6
2	4
2	11
2	4
2	4
2	3
2	7
2	4
2	7
2	7
2	5
2	4
2	3
2	8
2	4
2	3
2	4
2	15
2	4
2	4
2	5
2	4
2	4
2	3
2	4
2	4
3	4
3	5
3	7
3	5
3	7
3	7
3	7
3	6
3	6
3	4
3	5
