1	6124
1	682
1	15
1	682
1	682
1	13
1	37
1	682
1	682
1	682
1	15
1	682
1	682
1	682
1	31
1	682
1	682
1	682
1	682
1	682
1	31
1	37
1	31
1	682
1	682
1	11
1	682
1	31
1	682
1	682
1	14
1	682
1	682
1	682
1	10
1	682
1	10
1	682
1	682
1	7
1	682
1	682
1	13
1	6124
1	682
1	682
1	682
1	682
1	682
1	682
1	12
1	682
1	25
1	682
1	16
1	32
1	682
1	682
1	32
1	6
1	10
1	682
1	22
1	682
1	16
1	20
1	682
1	8
1	682
1	682
1	682
1	682
1	37
1	32
1	682
1	682
1	8
1	682
1	682
1	682
1	682
1	682
1	682
1	682
1	682
1	682
1	15
1	682
1	682
1	6
1	682
1	682
1	682
1	682
1	682
1	682
1	682
1	682
1	31
1	8
1	6
1	682
1	22
1	682
1	682
1	682
1	682
1	682
1	682
1	682
1	682
1	682
1	682
1	31
1	682
1	37
1	14
1	682
1	8
1	682
1	12
1	37
1	37
1	682
1	9
1	682
1	32
1	8
1	682
1	682
1	682
1	682
1	682
1	6
1	682
1	20
1	682
1	682
1	5
1	682
1	16
1	682
1	682
1	682
1	682
1	682
1	682
1	682
1	682
1	682
1	10
1	682
1	12
1	8
1	682
1	682
1	5
1	682
1	682
1	682
1	682
1	11
1	682
1	14
1	22
1	682
1	682
1	682
1	682
1	9
1	16
1	682
1	15
1	682
1	16
1	14
1	682
1	9
1	8
1	682
1	22
1	682
1	682
1	15
1	20
1	682
1	682
1	682
1	682
1	20
1	682
1	682
1	16
1	32
1	682
1	682
1	16
1	682
1	682
1	682
1	20
1	12
1	682
1	682
1	22
1	682
1	682
1	682
1	682
1	8
1	25
1	13
1	682
1	14
1	682
1	682
1	15
1	682
1	682
1	682
1	31
1	15
1	682
1	20
1	22
1	682
1	682
1	682
1	682
1	682
1	682
1	682
1	682
1	682
1	682
1	682
1	9
1	682
1	682
1	682
1	682
1	5
1	32
1	6
1	682
1	6
1	682
1	6
1	4
1	13
1	16
1	682
1	37
1	5
1	682
1	682
1	682
1	6
1	16
1	682
1	682
1	682
1	10
1	682
1	20
1	14
1	682
1	8
1	682
1	9
1	682
1	682
1	25
1	16
1	12
1	682
1	682
1	682
1	682
1	682
1	682
1	20
1	682
1	682
1	22
1	25
1	31
1	682
1	682
1	7
1	682
1	682
1	682
1	682
1	13
1	682
1	682
1	32
1	13
1	682
1	682
1	37
1	682
1	37
1	16
1	16
1	682
1	682
1	15
1	682
1	8
1	682
1	682
1	6
1	682
1	682
1	25
1	682
1	682
1	682
1	682
1	682
1	8
1	682
1	682
1	682
1	32
1	682
1	682
1	682
1	682
1	4
1	20
1	682
1	6
1	682
1	5
1	682
1	682
1	682
1	15
1	682
1	682
1	682
1	682
1	682
1	5
1	682
1	682
1	20
1	14
1	16
1	682
1	682
1	10
1	25
1	682
1	682
1	682
1	682
1	682
1	682
1	37
1	682
1	8
1	682
1	5
1	682
1	5
1	682
1	682
1	682
1	682
1	20
1	682
1	682
1	682
1	37
1	682
1	8
1	8
1	682
1	8
1	32
1	12
1	682
1	682
1	682
1	682
1	20
1	6
1	682
1	6
1	682
1	682
1	31
1	682
1	682
1	682
1	682
1	16
1	682
1	682
1	682
1	682
1	682
1	682
1	682
1	682
1	16
1	682
1	682
1	682
1	682
1	682
1	15
1	10
1	5
1	682
1	682
1	682
1	682
1	682
1	682
1	3
1	682
1	31
1	5
1	682
1	682
1	16
1	682
1	31
1	682
1	682
1	31
1	682
1	13
1	682
1	682
1	682
1	11
1	682
1	682
1	682
1	682
1	16
1	682
1	682
1	15
1	682
1	682
1	9
1	20
1	8
1	11
1	6
1	8
1	682
1	5
1	682
1	8
1	682
1	14
1	8
1	37
1	682
1	682
1	14
1	682
1	5
1	682
1	682
1	5
1	5
1	4
1	682
1	5
1	682
1	682
1	682
1	6
1	682
1	4
1	682
1	682
1	32
1	682
1	682
1	682
1	32
1	682
1	682
1	5
1	682
1	14
1	6124
1	682
1	682
1	14
1	682
1	682
1	682
1	682
1	682
1	682
1	682
1	37
1	14
1	22
1	15
1	682
1	682
1	682
1	16
1	682
1	682
1	682
1	682
1	25
1	682
1	682
1	682
1	682
1	14
1	11
1	682
1	682
1	682
1	682
1	682
1	682
1	20
1	682
1	682
1	7
1	31
1	682
1	31
1	682
1	682
1	682
1	682
1	682
1	4
1	37
1	682
1	682
1	682
1	682
1	682
1	682
1	682
1	37
1	32
1	682
1	5
1	682
1	682
1	682
1	682
1	4
1	5
1	37
1	8
1	5
1	682
1	682
1	682
1	8
1	682
1	682
1	9
1	682
1	682
1	25
1	682
1	682
1	682
1	14
1	5
1	20
1	16
1	37
1	682
1	682
1	682
1	682
1	5
1	682
1	31
1	682
1	682
1	682
1	6
1	682
1	682
1	682
1	37
1	682
1	682
1	682
1	14
1	31
1	682
1	682
1	682
1	682
1	682
1	7
1	682
1	682
1	25
1	682
1	682
1	682
1	682
1	682
1	682
1	20
1	682
1	22
1	5
1	5
1	20
1	682
1	32
1	682
1	682
1	13
1	8
1	682
1	682
1	37
1	682
1	12
1	682
1	682
1	682
1	682
1	682
1	20
1	682
1	5
1	682
1	12
1	682
1	682
1	682
1	682
1	5
1	682
1	682
1	682
1	4
1	16
1	682
1	3
1	5
1	9
1	682
1	6
1	682
1	682
1	682
1	682
1	3
1	682
1	5
1	682
1	6
1	682
1	12
1	682
1	682
1	682
1	8
1	682
1	682
1	682
1	682
1	682
1	682
1	682
1	682
1	682
1	682
1	8
1	682
1	682
1	682
1	20
1	20
1	682
1	682
1	682
1	8
1	16
1	15
1	682
1	682
1	682
1	682
1	682
1	682
1	682
1	22
1	682
1	682
1	682
1	14
1	3
1	31
1	682
1	20
1	682
1	682
1	15
1	682
1	682
1	682
1	682
1	5
1	682
1	32
1	682
1	682
1	682
1	8
1	682
1	31
1	682
1	5
1	682
1	682
1	14
1	682
1	682
1	682
1	682
1	682
1	682
1	6
1	682
1	6
1	682
1	682
1	682
1	3
1	682
1	682
1	13
1	682
1	682
1	682
1	682
1	15
1	5
1	682
1	20
1	6
1	682
1	682
1	682
1	682
1	682
1	682
1	8
1	682
1	682
1	682
1	9
1	4
1	682
1	682
1	682
1	16
1	6
1	20
1	37
1	682
1	682
1	32
1	37
1	32
1	682
1	682
1	682
1	682
1	682
1	682
1	682
1	682
1	3
1	6
1	25
1	32
1	5
1	682
1	25
1	682
1	12
1	20
1	682
1	682
1	682
1	682
1	3
1	682
1	31
1	37
1	32
1	4
1	11
1	682
1	5
1	682
1	682
1	682
1	682
1	682
1	32
1	682
1	9
1	682
1	3
1	682
1	8
1	6
1	682
1	682
1	682
1	682
1	8
1	8
1	682
1	682
1	682
1	682
1	14
1	682
1	682
1	682
1	22
1	682
1	20
1	682
1	682
1	31
1	682
1	682
1	8
1	682
1	682
1	682
1	682
1	682
1	682
1	682
1	682
1	682
1	682
1	682
1	6
1	682
1	25
1	682
1	682
1	37
1	31
1	15
1	682
1	682
1	682
1	682
1	32
1	682
1	682
1	682
1	682
1	682
1	5
1	20
1	5
1	14
1	682
1	682
1	682
1	682
1	682
1	11
1	37
1	15
1	682
1	8
1	682
1	682
1	4
1	682
1	682
1	682
1	682
1	20
1	682
1	682
1	682
1	682
1	682
1	8
1	682
1	682
1	682
1	6
1	682
1	682
1	682
1	682
1	682
1	682
1	682
1	682
1	5
1	682
1	682
1	682
1	682
1	682
1	682
1	682
1	682
1	682
1	8
1	6
1	682
1	682
1	13
1	682
1	20
1	682
1	682
1	3
1	682
1	22
2	6
2	8
2	16
2	16
2	682
2	5
2	16
2	3
2	4
2	682
2	3
2	37
2	5
2	22
2	6
2	8
2	5
2	682
2	3
2	4
2	4
2	3
2	3
2	16
2	4
2	3
2	6
2	682
2	10
2	682
2	11
2	20
2	3
2	16
2	4
2	4
2	4
2	16
2	4
2	5
2	682
2	3
2	6
2	14
2	4
2	16
2	682
2	3
2	16
2	5
2	16
2	4
2	5
2	3
2	15
2	3
2	4
2	3
2	4
2	16
2	20
2	682
2	37
2	4
2	8
2	14
2	6
2	37
2	3
2	682
2	4
2	3
2	3
2	16
2	3
2	4
2	3
2	3
2	32
2	3
2	5
2	20
2	3
2	3
2	11
3	4
3	15
5	14
