1	6124
1	111
1	13
1	10
1	26
1	26
1	11
1	17
1	7
1	7
1	26
1	13
1	14
1	10
1	111
1	111
1	111
1	111
1	6
1	111
1	111
1	111
1	111
1	10
1	7
1	6
1	10
1	111
1	5
1	11
1	111
1	10
1	10
1	111
1	6
1	111
1	5
1	11
1	5
1	111
1	10
1	4
1	17
1	5
1	4
1	14
1	111
1	11
1	11
1	111
1	26
1	5
1	14
1	5
1	6
1	6
1	111
1	5
1	111
1	14
1	6
1	7
1	7
1	4
1	11
1	6
1	4
1	6
1	4
1	111
1	11
1	10
1	5
1	13
1	111
1	111
1	111
1	111
1	111
1	14
1	3
1	13
1	111
1	111
1	111
1	111
1	17
1	6
1	5
1	5
1	26
1	3
1	14
1	4
1	6
1	26
1	11
1	111
1	6
1	14
1	111
1	11
1	10
1	111
1	111
1	111
1	111
1	6
1	3
1	111
1	7
1	111
1	11
1	11
1	111
1	10
1	6
1	3
1	6
1	7
1	111
1	111
1	17
1	111
1	111
1	111
1	11
1	17
1	26
1	111
1	111
1	11
1	17
1	4
1	4
1	5
1	111
1	11
1	3
1	4
1	111
1	5
1	5
1	4
1	3
1	111
1	13
1	111
1	10
1	5
1	26
1	3
1	5
1	6
1	111
1	4
1	17
1	111
1	26
1	14
1	6
1	6
1	111
1	111
1	111
1	5
1	11
1	3
1	111
1	4
1	6
1	17
1	5
1	11
1	10
1	111
1	4
1	111
1	26
1	111
1	11
1	5
1	111
1	111
1	111
1	17
1	11
1	6
1	7
1	111
1	111
1	111
1	14
1	4
1	6
1	6
1	10
1	4
1	7
1	5
1	14
1	111
1	13
1	4
1	4
1	111
2	7
2	4
2	3
2	5
2	3
2	4
2	7
2	4
2	4
2	4
2	26
2	4
2	6
2	111
2	111
2	3
2	5
2	4
2	4
2	3
2	4
2	4
2	26
2	4
2	3
2	3
2	3
2	5
2	5
2	17
2	5
2	14
2	3
2	3
2	4
2	5
2	4
2	4
2	5
2	26
2	3
2	5
3	5
3	7
3	4
3	4
3	4
