1	6124
1	104
1	104
1	104
1	9
1	104
1	104
1	8
1	104
1	104
1	104
1	6124
1	104
1	9
1	104
1	104
1	6124
1	104
1	104
1	104
1	104
1	104
1	6
1	104
1	104
1	104
1	104
1	104
1	104
1	104
1	104
1	104
1	104
1	104
1	104
1	8
1	6
1	104
1	104
1	104
1	104
1	104
1	104
1	104
1	6
1	4
1	104
1	6124
1	104
1	104
1	104
1	6124
1	104
1	104
1	9
1	6124
1	9
1	10
1	9
1	104
1	104
1	104
1	10
1	9
1	104
1	104
1	9
1	104
1	104
1	8
1	6
1	104
1	3
1	104
1	104
1	104
1	104
1	104
1	5
1	104
1	104
1	4
1	104
1	104
1	104
1	104
1	104
1	104
1	104
1	104
1	5
1	104
1	104
1	104
1	104
1	104
1	104
1	104
1	6124
1	104
1	2
1	104
1	104
1	4
1	104
1	104
1	104
1	2
1	104
1	4
1	5
1	104
1	104
1	104
1	104
1	104
1	104
1	104
1	104
1	104
2	3
2	10
2	4
2	10
2	10
2	4
2	10
2	10
2	4
2	10
2	8
2	10
3	4
