1	6124
1	57
1	6
1	57
1	6
1	57
1	57
1	57
1	57
1	8
1	57
1	57
1	57
1	8
1	57
1	6
1	57
1	5
1	8
1	57
1	57
1	8
1	57
1	57
1	8
1	57
1	57
1	4
1	57
1	57
1	4
1	6
1	16
1	6
1	6
1	8
1	57
1	57
1	57
1	57
1	57
1	6
1	16
1	57
1	57
1	5
1	3
1	57
1	4
1	57
1	57
1	57
1	57
1	6
1	57
1	57
1	57
1	57
1	57
2	6
2	4
2	3
2	6
2	5
2	4
2	57
2	57
2	4
2	16
2	5
2	3
2	4
2	16
2	16
