1	6124
1	128
1	128
1	128
1	9
1	128
1	9
1	4
1	9
1	128
1	128
1	10
1	6
1	128
1	128
1	15
1	128
1	128
1	9
1	128
1	128
1	6124
1	7
1	7
1	128
1	128
1	128
1	5
1	15
1	11
1	128
1	6
1	5
1	128
1	15
1	128
1	128
1	128
1	128
1	128
1	6124
1	128
1	6
1	128
1	5
1	6124
1	128
1	128
1	128
1	128
1	4
1	128
1	6124
1	128
1	128
1	6
1	128
1	128
1	5
1	128
1	5
1	10
1	128
1	15
1	128
1	6
1	7
1	5
1	128
1	128
1	9
1	7
1	128
1	4
1	128
1	128
1	9
1	128
1	15
1	128
1	128
1	9
1	128
1	128
1	128
1	128
1	7
1	7
1	128
1	128
1	6
1	128
1	7
1	6
1	128
1	5
1	128
1	15
1	128
1	128
1	128
1	128
1	9
1	11
1	128
1	128
1	128
1	128
1	128
1	128
1	7
1	128
1	3
1	10
1	6
1	10
1	6
1	11
1	128
1	5
1	10
1	2
1	128
1	128
1	15
1	11
1	5
1	128
1	128
1	11
1	128
1	128
1	3
1	6
1	128
1	128
1	5
1	128
1	4
1	128
1	128
1	5
1	7
1	128
1	128
1	11
1	11
1	6
1	128
1	5
1	128
1	5
1	128
1	3
1	128
1	5
1	15
1	7
1	128
1	7
1	4
1	3
1	5
1	6
1	6
1	128
1	4
1	5
1	128
1	128
1	6
1	5
1	5
1	7
1	5
1	128
1	128
1	15
1	6
1	128
1	128
1	128
1	6
2	4
2	9
2	3
2	4
2	3
2	3
2	128
2	7
2	5
2	7
2	9
2	7
2	5
2	6
2	9
2	4
2	3
2	9
2	5
2	15
2	3
2	5
2	6
2	3
2	4
2	3
2	5
2	6
2	5
2	5
2	7
2	6
3	6
3	4
