1	6124
1	196
1	13
1	7
1	196
1	26
1	26
1	196
1	10
1	12
1	196
1	196
1	196
1	196
1	196
1	26
1	196
1	196
1	196
1	26
1	6
1	26
1	196
1	25
1	8
1	8
1	196
1	196
1	6
1	6
1	6
1	196
1	7
1	25
1	7
1	6
1	7
1	196
1	7
1	196
1	7
1	196
1	196
1	4
1	4
1	5
1	196
1	196
1	196
1	196
1	196
1	196
1	5
1	196
1	196
1	8
1	4
1	26
1	196
1	8
1	8
1	8
1	196
1	196
1	6
1	12
1	25
1	196
1	196
1	196
1	196
1	196
1	5
1	196
1	26
1	196
1	196
1	196
1	6
1	196
1	196
1	25
1	7
1	26
1	196
1	7
1	196
1	6
1	196
1	196
1	196
1	196
1	196
1	196
1	196
1	5
1	11
1	196
1	6
1	196
1	25
1	196
1	196
1	12
1	196
1	7
1	196
1	196
1	26
1	196
1	8
1	3
1	196
1	196
1	12
1	196
1	196
1	196
1	196
1	6
1	196
1	196
1	196
1	196
1	6124
1	196
1	196
1	11
1	6
1	5
1	3
1	196
1	25
1	196
1	196
1	6124
1	196
1	196
1	196
1	25
1	26
1	26
1	6124
1	6
1	196
1	196
1	26
1	196
1	196
1	196
1	196
1	196
1	7
1	196
1	7
1	196
1	196
1	26
1	196
1	196
1	196
1	196
1	12
1	3
1	196
1	4
1	26
1	8
1	7
1	25
1	196
1	25
1	7
1	196
1	7
1	5
1	196
1	196
1	13
1	196
1	25
1	196
1	5
1	6
1	4
1	5
1	7
1	196
1	6
1	196
1	196
1	196
1	25
1	196
1	196
1	11
1	196
1	196
1	196
1	196
1	5
1	196
1	196
1	196
1	4
1	196
1	11
1	196
1	4
1	196
1	196
1	196
1	11
1	7
1	7
1	196
1	5
1	6
1	6124
1	196
1	196
1	196
1	196
1	12
1	3
1	11
1	196
1	5
1	6124
1	196
1	5
1	6
1	196
1	6
1	196
1	26
1	3
1	4
1	12
1	6
1	25
1	8
1	3
1	196
1	25
1	196
1	3
1	26
1	6
1	196
1	196
1	5
1	196
1	8
1	11
1	10
1	196
1	196
1	3
1	6
1	5
1	11
1	196
1	196
1	25
1	196
1	196
1	25
1	11
1	196
1	196
1	196
1	12
1	26
1	196
1	196
1	3
1	2
1	6
1	5
1	13
1	196
1	196
1	6
1	196
1	196
1	26
1	196
1	196
2	196
2	10
2	26
2	196
2	10
2	3
2	10
2	3
2	10
2	3
2	3
2	10
2	3
2	4
2	6
2	3
2	3
2	5
2	6
2	11
2	12
2	7
2	196
2	11
2	5
2	3
2	3
2	12
2	13
2	25
2	10
2	5
2	196
2	3
2	5
2	3
2	7
2	5
2	6
2	5
2	4
2	7
2	5
2	10
2	3
2	25
2	8
2	6
3	5
3	5
3	5
3	5
3	4
