1	6124
1	15
1	121
1	121
1	121
1	121
1	15
1	121
1	10
1	9
1	121
1	12
1	8
1	9
1	8
1	8
1	9
1	15
1	10
1	24
1	6
1	121
1	121
1	12
1	6
1	24
1	8
1	8
1	10
1	8
1	10
1	10
1	15
1	8
1	24
1	24
1	3
1	14
1	121
1	10
1	121
1	5
1	5
1	121
1	9
1	8
1	121
1	6
1	121
1	121
1	8
1	6
1	6
1	12
1	14
1	4
1	121
1	9
1	121
1	15
1	7
1	7
1	8
1	121
1	8
1	121
1	8
1	8
1	8
1	121
1	8
1	9
1	121
1	15
1	4
1	121
1	12
1	121
1	121
1	12
1	6
1	121
1	9
1	4
1	5
1	5
1	121
1	121
1	8
1	15
1	121
1	5
1	8
1	8
1	121
1	121
1	10
1	8
1	121
1	12
1	121
1	121
1	121
1	4
1	6
1	5
1	121
1	121
1	121
1	4
1	121
1	4
1	3
1	121
1	121
1	121
1	121
1	10
1	6
1	6
1	5
1	24
1	5
1	121
1	121
1	7
1	121
1	15
1	8
1	121
1	5
1	6
1	5
1	6
1	121
1	121
1	5
1	5
2	15
2	9
2	5
2	9
2	4
2	13
2	7
2	24
2	5
2	5
2	6
2	6
2	15
2	24
2	6
2	6
2	4
2	8
2	4
2	6
2	6
2	15
2	15
2	13
2	13
2	9
2	8
2	10
2	15
2	4
2	6
2	8
2	15
2	6
2	9
2	6
2	6
2	6
2	3
2	9
2	8
2	9
2	10
2	24
2	24
2	3
2	7
2	9
2	7
2	4
2	3
3	5
3	6
3	9
3	6
3	4
3	4
3	13
3	8
3	7
3	7
3	4
3	4
3	6
3	7
4	6
4	7
4	6
4	7
5	8
5	9
