1	6124
1	209
1	12
1	12
1	8
1	209
1	6
1	6124
1	209
1	8
1	7
1	209
1	8
1	209
1	7
1	209
1	209
1	209
1	21
1	209
1	209
1	209
1	209
1	209
1	7
1	209
1	4
1	12
1	8
1	5
1	7
1	209
1	5
1	209
1	3
1	209
1	209
1	209
1	12
1	209
1	209
1	209
1	209
1	5
1	209
1	209
1	209
1	7
1	209
1	12
1	4
1	209
1	209
1	209
1	209
1	209
1	209
1	209
1	209
1	8
1	12
1	209
1	5
1	209
1	209
1	209
1	209
1	209
1	3
1	209
1	209
1	209
1	5
1	21
1	209
1	209
1	209
1	209
1	209
1	209
1	209
1	4
1	209
1	209
1	209
1	209
1	209
1	21
1	209
1	3
1	5
1	209
1	7
1	209
1	5
1	209
1	209
1	5
1	209
1	209
1	8
1	209
1	8
1	209
1	209
1	209
1	209
1	209
1	209
1	4
1	209
1	209
1	4
1	209
1	209
1	5
1	6
1	209
1	4
1	209
1	3
1	209
1	5
1	12
1	209
1	209
1	209
1	209
1	209
1	6
1	209
1	209
1	4
1	209
1	209
1	7
1	7
1	209
1	209
1	8
1	209
1	209
1	21
1	3
1	209
1	209
1	209
1	209
1	3
1	209
1	21
1	21
1	21
1	209
1	209
1	7
1	209
1	209
1	5
1	209
1	209
1	209
1	7
1	8
1	209
1	209
1	21
1	209
1	209
1	8
1	209
1	209
1	209
1	209
1	7
1	209
1	209
1	209
1	209
1	209
1	209
1	3
1	209
1	209
1	209
1	6
1	3
1	209
1	3
1	209
1	209
1	209
1	5
1	209
1	209
1	21
1	209
1	209
1	7
1	12
1	209
1	209
1	209
1	209
1	21
1	209
1	7
1	209
1	209
1	209
1	3
1	209
1	209
1	209
1	4
1	209
1	209
1	209
1	209
1	5
1	209
1	3
1	3
1	209
1	209
1	209
1	209
1	209
1	209
1	209
1	5
1	21
1	209
1	209
1	4
1	209
1	8
1	209
1	209
1	209
1	21
1	209
1	209
1	209
1	4
1	209
1	21
1	209
1	209
1	209
1	209
1	209
1	4
1	21
1	209
1	209
1	7
1	209
1	6
1	209
1	7
1	209
1	4
1	209
1	7
1	209
1	209
1	209
1	209
1	6
1	209
1	209
1	209
2	209
2	209
2	209
2	3
2	5
2	4
2	7
2	7
2	3
2	3
2	21
2	3
2	3
2	209
2	3
2	21
2	8
2	4
2	209
2	7
2	5
2	3
2	3
2	3
2	3
2	3
2	3
2	3
2	3
2	3
2	3
3	6
