1	6124
1	46
1	46
1	12
1	7
1	6
1	7
1	46
1	6
1	7
1	46
1	46
1	9
1	7
1	6
1	4
1	3
1	46
1	6
1	4
1	46
1	7
1	6124
1	12
1	12
1	6
1	46
1	46
1	46
1	4
1	8
1	46
1	46
1	4
1	46
1	4
1	46
1	46
1	4
1	4
1	5
1	46
1	4
1	8
1	46
1	46
1	5
1	46
1	4
1	12
1	46
1	4
1	46
1	3
1	6124
1	46
1	46
1	8
1	8
1	6
1	9
1	46
1	46
1	46
1	46
1	4
1	8
1	3
1	12
1	12
1	5
1	12
1	46
1	6
1	4
1	12
1	46
1	46
1	4
1	3
1	46
1	4
1	8
1	7
1	46
1	9
1	9
1	46
1	3
1	3
2	7
2	5
2	4
2	5
2	9
2	4
2	3
2	4
2	3
2	6
2	3
2	3
2	4
