1	6124
1	12
1	9
1	10
1	61
1	61
1	61
1	61
1	61
1	61
1	9
1	9
1	3
1	61
1	61
1	61
1	8
1	61
1	8
1	8
1	61
1	8
1	61
1	61
1	9
1	9
1	6
1	7
1	61
1	9
1	6
1	12
1	61
1	11
1	5
1	10
1	61
1	3
1	61
1	11
1	61
1	7
1	5
1	5
1	7
1	5
1	61
1	61
1	8
1	8
1	61
1	8
1	6
1	5
1	7
1	11
1	61
1	6
1	5
1	61
1	7
1	61
1	61
1	9
1	61
1	61
1	6
1	7
1	61
1	61
1	7
1	61
1	61
1	61
1	6124
1	4
1	7
1	10
1	5
1	61
1	7
1	3
1	9
1	5
1	61
1	61
1	3
1	10
1	4
1	61
1	7
1	12
1	61
1	11
1	4
1	3
1	9
1	61
1	6
1	4
1	3
1	10
1	61
1	61
1	7
1	61
1	10
1	5
1	61
1	7
1	9
1	4
1	9
1	5
1	9
2	3
2	3
2	7
2	3
2	3
2	5
2	4
2	4
2	5
2	61
2	5
2	9
2	4
2	8
2	8
2	4
2	4
2	5
2	12
2	9
2	3
2	5
2	5
2	9
2	7
2	4
2	3
2	12
2	7
3	4
3	4
3	5
