1	6124
1	38
1	38
1	7
1	38
1	38
1	38
1	11
1	38
1	38
1	38
1	11
1	38
1	38
1	5
1	38
1	11
1	7
1	38
1	7
1	7
1	5
1	38
1	7
1	8
1	7
1	3
1	11
1	11
1	8
1	38
1	5
1	38
1	11
1	7
1	3
1	7
1	38
1	7
1	8
1	3
1	38
1	38
1	3
1	5
1	7
1	38
1	4
1	4
1	5
1	38
1	4
1	7
1	38
1	8
1	38
1	7
1	38
1	38
1	38
1	7
1	5
1	4
1	38
1	7
1	5
1	8
1	5
1	7
1	38
1	38
1	38
1	5
1	38
1	5
2	4
2	5
2	3
2	3
2	7
2	3
2	3
2	7
2	4
3	7
