1	6124
1	30
1	7
1	30
1	30
1	5
1	7
1	30
1	10
1	10
1	10
1	7
1	10
1	30
1	10
1	30
1	6
1	10
1	7
1	30
1	10
1	9
1	30
1	6
1	10
1	30
1	30
1	30
1	10
1	30
1	3
1	5
1	10
1	9
1	10
1	3
1	6
1	7
1	9
1	30
1	30
1	7
1	3
1	7
1	30
1	4
1	7
1	5
1	10
2	3
2	7
2	4
2	7
2	4
2	3
2	3
2	3
2	7
3	5
4	5
