1	6124
1	22
1	8
1	6
1	6
1	4
1	8
1	26
1	96
1	96
1	14
1	22
1	96
1	96
1	96
1	14
1	14
1	26
1	9
1	14
1	7
1	96
1	96
1	96
1	26
1	96
1	5
1	6
1	96
1	14
1	14
1	5
1	96
1	96
1	16
1	96
1	96
1	96
1	4
1	6
1	13
1	8
1	96
1	26
1	4
1	96
1	8
1	14
1	7
1	5
1	22
1	5
1	96
1	96
1	8
1	96
1	96
1	96
1	96
1	96
1	3
1	96
1	3
1	5
1	4
1	26
1	7
1	96
1	96
1	96
1	96
1	6
1	7
1	4
1	9
1	96
1	26
1	96
1	96
1	22
1	96
1	6
1	8
1	96
1	96
1	96
1	16
1	96
1	7
1	16
1	96
1	22
1	22
1	96
1	5
1	22
1	96
1	8
1	4
1	96
1	8
1	26
1	4
1	96
1	6
1	96
1	96
1	22
1	26
1	7
1	3
1	8
1	26
1	5
1	4
1	96
1	96
1	4
1	96
1	96
1	96
1	96
1	6
1	96
1	96
1	16
1	4
1	96
1	96
1	6
1	4
1	16
1	26
1	96
1	96
1	6
1	96
1	4
1	9
1	16
1	4
1	96
1	8
1	8
1	26
1	96
1	96
1	96
1	4
1	6
1	6124
1	96
1	5
1	96
1	96
1	5
1	2
1	8
1	96
1	14
1	96
1	26
1	4
1	96
1	6
1	13
1	96
1	96
1	96
2	4
2	8
2	4
2	4
2	4
2	7
2	4
2	96
2	4
2	4
2	6
2	8
2	4
2	6
2	7
2	5
2	4
2	3
2	5
2	4
2	5
2	7
2	4
2	6
2	4
2	16
2	5
2	3
2	4
2	3
2	3
2	7
2	8
2	16
2	4
2	5
2	5
2	4
3	4
3	5
3	4
3	6
3	4
3	5
