1	6124
1	87
1	17
1	87
1	6124
1	87
1	17
1	9
1	6
1	9
1	11
1	87
1	13
1	5
1	87
1	8
1	87
1	7
1	87
1	87
1	3
1	4
1	87
1	87
1	13
1	15
1	87
1	10
1	87
1	87
1	6
1	4
1	87
1	87
1	6
1	87
1	87
1	6124
1	87
1	87
1	87
1	4
1	7
1	7
1	87
1	15
1	87
1	87
1	11
1	5
1	87
1	87
1	87
1	87
1	11
1	15
1	87
1	8
1	87
1	5
1	15
1	87
1	5
1	5
1	87
1	13
1	15
1	4
1	87
1	15
1	5
1	4
1	3
1	4
1	10
1	4
1	13
1	87
1	87
1	87
1	87
1	5
1	4
1	87
1	87
1	8
1	5
1	5
1	13
1	87
1	4
1	3
1	4
1	87
1	87
1	4
1	87
1	3
1	15
1	4
1	8
1	87
1	87
1	4
1	87
1	87
1	87
1	87
1	4
1	17
1	87
1	13
1	87
1	87
1	87
1	7
1	87
1	8
1	5
1	87
1	87
1	87
1	4
1	87
1	87
1	13
1	15
1	5
1	5
1	8
1	87
1	87
1	4
1	6
2	4
2	8
2	4
2	3
2	6
2	4
2	4
2	3
2	8
2	7
2	3
2	5
2	6
2	7
2	9
2	4
2	4
2	3
2	4
2	3
2	11
2	3
2	10
2	5
2	3
2	4
2	10
2	5
2	5
2	8
3	5
4	5
