1	6124
1	56
1	56
1	56
1	8
1	56
1	56
1	56
1	56
1	6124
1	32
1	8
1	56
1	56
1	32
1	32
1	56
1	56
1	10
1	56
1	9
1	10
1	56
1	9
1	10
1	9
1	6124
1	56
1	10
1	8
1	56
1	32
1	4
1	10
1	6124
1	56
1	56
1	56
1	5
1	32
1	10
1	6
1	56
1	56
1	7
1	8
1	56
1	4
1	32
1	56
1	5
1	56
1	8
1	56
1	56
1	10
1	4
1	32
1	32
1	3
1	56
1	56
1	32
1	32
1	56
1	32
1	56
1	5
1	32
1	4
1	56
1	5
1	4
1	32
1	9
1	4
1	56
1	9
1	6
1	32
1	5
1	8
1	32
1	56
1	56
1	6
1	9
1	4
1	5
1	4
1	56
1	56
1	56
1	4
1	4
1	56
1	56
1	56
1	8
1	9
1	32
2	6
2	4
2	4
2	4
2	6
2	7
2	4
2	4
2	7
2	4
2	4
2	3
2	7
2	6
2	6
2	6
2	3
2	4
2	4
2	4
2	5
