1	6124
1	63
1	63
1	16
1	16
1	16
1	9
1	15
1	15
1	63
1	6124
1	63
1	63
1	63
1	63
1	11
1	63
1	3
1	15
1	15
1	6124
1	3
1	9
1	63
1	63
1	7
1	7
1	16
1	11
1	15
1	16
1	15
1	16
1	3
1	63
1	7
1	63
1	63
1	11
1	15
1	63
1	7
1	5
1	63
1	11
1	11
1	63
1	5
1	63
1	63
1	11
1	5
1	4
1	63
1	63
1	16
1	16
1	63
1	63
1	9
1	9
1	63
1	15
1	16
1	5
1	15
1	63
1	16
1	7
1	16
1	7
1	63
1	7
1	6
1	16
1	6
1	3
1	16
1	15
1	15
1	63
1	63
1	3
1	63
1	3
1	5
1	63
1	63
1	9
1	7
1	15
1	16
1	3
1	16
1	7
1	63
1	5
1	3
1	15
1	63
1	5
1	15
1	4
1	63
1	63
1	63
1	63
1	63
1	11
1	3
1	4
1	15
1	3
1	5
1	9
1	63
1	15
2	7
2	3
2	63
2	4
2	15
2	3
2	4
2	3
2	5
2	4
2	3
2	7
2	6
2	7
2	3
2	6
2	4
2	11
2	5
2	4
2	4
2	4
2	3
2	15
2	16
2	3
2	4
2	4
