1	6124
1	7
1	5
1	10
1	6
1	12
1	121
1	121
1	121
1	121
1	9
1	19
1	121
1	8
1	121
1	4
1	9
1	6124
1	8
1	5
1	121
1	5
1	5
1	10
1	7
1	121
1	8
1	121
1	12
1	8
1	121
1	121
1	121
1	9
1	8
1	121
1	9
1	121
1	121
1	20
1	6
1	121
1	6
1	19
1	11
1	6
1	6
1	12
1	5
1	121
1	9
1	8
1	12
1	6
1	12
1	12
1	121
1	5
1	121
1	5
1	9
1	121
1	3
1	121
1	121
1	121
1	4
1	20
1	20
1	10
1	121
1	121
1	10
1	121
1	20
1	12
1	121
1	121
1	121
1	121
1	121
1	8
1	121
1	121
1	7
1	121
1	121
1	9
1	121
1	121
1	19
1	121
1	121
1	121
1	19
1	121
1	121
1	121
1	121
1	6
1	4
1	12
1	5
1	121
1	121
1	121
1	121
1	7
1	9
1	5
1	121
1	5
1	121
1	6
1	5
1	8
1	8
1	121
1	7
1	12
1	20
1	121
1	8
1	121
1	8
1	121
1	3
1	121
1	121
1	11
1	5
1	121
1	7
1	121
1	4
1	121
1	121
1	121
1	121
1	121
1	121
1	121
1	121
1	8
1	20
1	5
1	7
1	121
1	5
1	6
1	8
1	121
1	19
1	3
1	121
1	121
1	5
1	12
1	5
1	121
1	8
1	121
1	121
1	20
1	12
1	3
1	121
1	5
1	5
1	20
1	12
1	121
1	121
1	6
1	19
1	121
1	4
1	6
1	11
1	121
1	6
1	11
1	4
1	9
1	6
1	121
1	121
1	121
1	121
1	10
1	6
1	9
1	12
1	121
1	121
1	121
1	121
1	121
1	12
1	20
1	4
1	121
1	5
1	121
1	6
1	5
1	121
1	5
1	121
2	4
2	121
2	3
2	6
2	5
2	8
2	5
2	7
2	3
2	7
2	11
2	11
2	7
2	3
2	3
2	4
2	6
2	5
2	4
2	4
2	3
2	3
2	4
2	6
2	4
2	4
2	5
2	5
2	9
2	8
2	9
2	20
2	6
2	10
2	4
2	8
3	7
3	4
3	6
3	5
4	6
