1	6124
1	10
1	543
1	543
1	543
1	543
1	10
1	543
1	543
1	543
1	543
1	543
1	543
1	15
1	18
1	543
1	19
1	543
1	11
1	543
1	10
1	11
1	10
1	9
1	543
1	9
1	543
1	543
1	543
1	543
1	19
1	17
1	8
1	543
1	543
1	15
1	10
1	9
1	7
1	543
1	543
1	543
1	543
1	10
1	16
1	9
1	543
1	7
1	543
1	9
1	543
1	8
1	543
1	9
1	7
1	543
1	543
1	9
1	8
1	9
1	543
1	543
1	7
1	543
1	543
1	4
1	543
1	543
1	18
1	543
1	543
1	543
1	543
1	8
1	21
1	15
1	7
1	6
1	10
1	7
1	543
1	9
1	543
1	543
1	15
1	543
1	543
1	543
1	543
1	543
1	6
1	543
1	7
1	9
1	543
1	11
1	543
1	17
1	543
1	543
1	543
1	543
1	18
1	543
1	8
1	543
1	12
1	16
1	15
1	543
1	11
1	15
1	21
1	18
1	543
1	9
1	5
1	543
1	543
1	6124
1	543
1	19
1	10
1	543
1	15
1	543
1	543
1	7
1	10
1	7
1	543
1	543
1	543
1	543
1	543
1	4
1	543
1	543
1	543
1	10
1	19
1	543
1	11
1	7
1	19
1	6
1	7
1	543
1	5
1	543
1	15
1	543
1	543
1	6
1	543
1	8
1	543
1	10
1	10
1	543
1	7
1	18
1	10
1	17
1	543
1	8
1	10
1	7
1	15
1	11
1	17
1	5
1	6124
1	11
1	543
1	7
1	7
1	17
1	8
1	543
1	543
1	8
1	543
1	17
1	543
1	6
1	7
1	6
1	14
1	543
1	18
1	5
1	543
1	6
1	21
1	9
1	11
1	7
1	543
1	10
1	543
1	543
1	543
1	15
1	543
1	543
1	11
1	6
1	543
1	8
1	9
1	6124
1	543
1	543
1	543
1	8
1	543
1	17
1	7
1	543
1	7
1	9
1	18
1	6
1	4
1	543
1	10
1	10
1	9
1	543
1	5
1	11
1	5
1	8
1	543
1	543
1	17
1	5
1	543
1	10
1	11
1	543
1	15
1	543
1	7
1	6
1	543
1	543
1	543
1	543
1	7
1	543
1	543
1	543
1	543
1	7
1	9
1	6
1	12
1	543
1	543
1	5
1	18
1	11
1	16
1	9
1	543
1	19
1	543
1	543
1	11
1	10
1	11
1	543
1	4
1	9
1	543
1	18
1	21
1	543
1	543
1	543
1	543
1	5
1	11
1	19
1	14
1	17
1	543
1	15
1	15
1	543
1	543
1	543
1	543
1	543
1	9
1	14
1	6124
1	543
1	15
1	543
1	543
1	5
1	543
1	9
1	543
1	9
1	11
1	543
1	8
1	543
1	543
1	17
1	6124
1	4
1	543
1	543
1	5
1	543
1	543
1	543
1	543
1	21
1	9
1	9
1	5
1	4
1	14
1	543
1	543
1	543
1	543
1	543
1	543
1	543
1	6124
1	6
1	543
1	5
1	10
1	6
1	543
1	543
1	19
1	543
1	543
1	4
1	7
1	543
1	10
1	543
1	543
1	9
1	543
1	4
1	4
1	9
1	5
1	5
1	10
1	21
1	8
1	543
1	11
1	543
1	543
1	543
1	18
1	543
1	17
1	5
1	18
1	5
1	11
1	543
1	15
1	18
1	19
1	11
1	543
1	7
1	543
1	11
1	543
1	543
1	543
1	543
1	10
1	3
1	543
1	543
1	543
1	11
1	7
1	543
1	8
1	6
1	543
1	3
1	9
1	543
1	19
1	543
1	543
1	4
1	543
1	543
1	15
1	543
1	543
1	543
1	4
1	543
1	10
1	10
1	18
1	19
1	11
1	8
1	19
1	543
1	6
1	4
1	19
1	543
1	543
1	15
1	543
1	7
1	4
1	16
1	543
1	543
1	8
1	7
1	543
1	543
1	10
1	543
1	543
1	7
1	5
1	4
1	543
1	6
1	6124
1	9
1	9
1	543
1	9
1	7
1	14
1	17
1	543
1	19
1	543
1	16
1	18
1	543
1	15
1	21
1	543
1	5
1	543
1	10
1	14
1	8
1	543
1	12
1	543
1	5
1	543
1	16
1	5
1	6
1	8
1	543
1	11
1	543
1	543
1	8
1	7
1	543
1	4
1	8
1	18
1	543
1	543
1	14
1	8
1	543
1	10
1	2
1	9
1	9
1	7
1	10
1	5
1	543
1	19
1	5
1	7
1	7
1	9
1	11
1	543
1	543
1	5
1	19
1	11
1	543
1	543
1	543
1	543
1	9
1	5
1	10
1	12
1	19
1	543
1	11
1	18
1	543
1	543
1	11
1	5
1	4
1	8
1	6124
1	7
1	543
1	18
1	4
1	11
1	9
1	543
1	15
1	9
1	543
1	543
1	543
1	543
1	9
1	543
1	543
1	3
1	9
1	543
1	543
1	543
1	5
1	543
1	16
1	543
1	5
1	543
1	5
1	543
1	3
1	15
1	8
1	11
1	543
1	7
1	6
1	543
1	7
1	10
1	15
1	4
1	543
1	5
1	8
1	10
1	543
1	543
1	543
1	6
1	6
1	543
1	543
1	17
1	5
1	6
1	7
1	543
1	11
1	543
1	543
1	12
1	543
1	8
1	543
1	543
1	19
1	15
1	6
1	543
1	7
1	11
1	543
1	15
1	5
1	10
1	8
1	7
1	543
1	15
1	543
1	8
1	10
1	14
1	8
1	543
1	9
1	543
1	4
1	543
1	543
1	4
1	4
1	543
1	543
1	5
1	5
1	5
1	543
1	543
1	543
1	6
1	543
1	543
1	543
1	543
1	19
1	8
1	7
1	543
1	6
1	8
1	11
1	3
1	543
1	10
1	543
1	7
1	6
1	5
1	543
1	8
1	7
1	18
1	19
1	543
1	9
1	15
1	543
1	543
1	5
1	21
1	543
1	543
1	3
1	543
1	5
1	543
1	543
1	543
1	9
1	12
1	2
1	543
1	543
1	19
1	543
1	17
1	543
1	543
1	6
1	543
1	21
1	543
1	543
1	11
1	543
1	543
1	7
1	11
1	9
1	11
1	9
1	7
1	543
1	543
1	11
1	543
1	6
1	543
1	15
1	15
1	543
1	7
1	7
1	543
1	9
1	11
1	15
1	543
1	543
1	4
1	543
1	543
1	8
1	543
1	5
1	12
1	6
1	5
1	543
1	4
1	543
1	543
1	6
1	543
1	543
1	543
1	543
1	5
1	15
1	6
1	543
1	543
1	543
1	543
1	16
1	4
1	4
1	19
1	11
1	16
1	5
1	543
1	10
1	543
1	7
1	543
1	3
1	9
1	9
1	4
1	5
1	543
1	543
1	543
1	543
1	10
1	15
1	5
1	543
1	543
1	7
1	3
1	543
1	7
1	17
1	543
1	10
1	16
1	7
1	543
1	6
1	9
1	4
1	9
1	5
1	19
1	543
1	543
1	543
1	543
1	5
1	5
1	543
1	5
1	543
1	543
1	11
1	11
1	543
1	19
1	12
1	543
1	543
1	6
1	19
1	543
1	543
1	543
1	543
1	543
1	543
1	543
1	8
1	14
1	543
1	3
1	17
1	8
1	543
1	543
1	543
1	10
1	4
1	543
1	543
1	6
1	543
1	543
1	9
1	21
1	9
1	14
1	5
1	21
1	543
1	543
1	14
1	5
1	16
1	10
1	543
1	543
1	10
1	543
1	16
1	543
1	543
1	19
1	543
1	15
1	543
1	19
1	14
1	543
1	11
1	543
1	543
1	543
1	543
1	17
1	9
1	11
1	4
1	5
1	543
1	543
1	543
1	8
1	16
1	5
1	16
1	543
1	7
1	543
1	543
1	543
1	543
1	6
1	14
1	19
1	543
1	543
1	18
1	543
1	16
1	9
1	543
1	543
1	10
1	18
1	19
1	18
1	5
1	10
1	543
1	10
1	10
1	5
1	11
1	543
1	3
1	543
1	17
1	19
1	543
1	2
1	11
1	7
1	543
1	4
1	7
1	11
1	543
1	18
1	3
1	5
1	3
1	9
1	543
1	19
1	3
1	543
1	7
1	543
1	19
1	6
1	18
1	3
1	543
1	11
1	543
1	543
1	17
1	543
1	7
1	8
1	4
1	543
1	6
1	543
1	7
1	543
1	543
1	543
1	543
1	543
1	6
1	543
1	15
1	543
1	10
1	7
1	12
1	3
1	9
1	8
1	15
1	543
1	543
1	6
1	17
1	543
1	543
1	4
1	543
1	543
1	12
1	543
1	543
1	16
1	6
1	543
1	543
1	8
1	6
1	6
1	543
1	10
1	4
1	11
1	9
1	543
1	11
1	4
1	543
1	10
1	10
1	19
1	543
1	6
1	4
1	16
1	21
1	543
1	9
1	543
1	17
1	543
1	543
1	15
1	5
1	4
1	543
1	11
1	9
1	5
1	8
1	543
1	543
2	6
2	5
2	4
2	8
2	11
2	4
2	14
2	11
2	3
2	3
2	9
2	7
2	4
2	4
2	5
2	5
2	4
2	16
2	5
2	5
2	4
2	10
2	10
2	16
2	5
2	8
2	4
2	10
2	11
2	543
2	4
2	7
2	5
2	3
2	4
2	7
2	6
2	5
2	6
2	7
2	11
2	7
2	7
2	6
2	8
2	10
2	543
2	19
2	4
2	9
2	3
2	3
2	11
2	3
2	3
2	5
2	9
2	11
2	10
2	3
2	6
2	3
2	3
2	10
2	5
2	5
2	5
2	3
2	9
2	543
2	12
2	4
2	4
2	4
2	4
2	6
2	7
2	10
2	543
2	5
2	3
2	4
2	4
2	4
2	4
2	5
2	7
2	7
2	3
2	5
2	5
2	4
2	3
2	4
2	5
2	3
2	6
2	7
2	5
2	4
2	4
2	4
2	3
2	5
2	3
2	10
3	9
3	5
3	7
3	9
3	4
3	11
3	6
3	5
3	8
3	5
3	5
3	4
3	5
4	5
4	9
4	6
4	6
4	9
