1	6124
1	15
1	546
1	546
1	546
1	19
1	546
1	546
1	546
1	8
1	18
1	11
1	546
1	546
1	546
1	546
1	546
1	546
1	546
1	546
1	546
1	8
1	546
1	14
1	546
1	11
1	546
1	546
1	13
1	546
1	546
1	7
1	6
1	546
1	546
1	546
1	11
1	19
1	23
1	546
1	546
1	546
1	546
1	9
1	546
1	11
1	19
1	546
1	22
1	546
1	15
1	546
1	546
1	3
1	22
1	546
1	8
1	22
1	546
1	19
1	20
1	546
1	20
1	546
1	546
1	18
1	546
1	6124
1	546
1	546
1	20
1	19
1	546
1	11
1	4
1	14
1	546
1	546
1	546
1	546
1	9
1	546
1	11
1	546
1	546
1	14
1	11
1	16
1	11
1	546
1	22
1	546
1	15
1	546
1	10
1	20
1	9
1	9
1	9
1	546
1	546
1	7
1	6124
1	546
1	9
1	4
1	6
1	6124
1	19
1	546
1	19
1	546
1	23
1	8
1	12
1	8
1	546
1	546
1	7
1	546
1	23
1	19
1	546
1	546
1	19
1	546
1	546
1	546
1	546
1	6
1	546
1	19
1	546
1	19
1	546
1	9
1	6
1	546
1	546
1	6
1	18
1	13
1	546
1	546
1	546
1	13
1	546
1	546
1	546
1	9
1	546
1	10
1	6
1	546
1	14
1	7
1	12
1	10
1	546
1	546
1	6
1	546
1	546
1	18
1	546
1	546
1	5
1	18
1	546
1	4
1	546
1	12
1	7
1	546
1	5
1	546
1	7
1	19
1	546
1	10
1	4
1	9
1	23
1	19
1	23
1	4
1	4
1	546
1	546
1	546
1	19
1	5
1	546
1	8
1	5
1	546
1	8
1	546
1	18
1	546
1	7
1	546
1	14
1	546
1	14
1	546
1	6
1	546
1	546
1	14
1	546
1	8
1	546
1	12
1	546
1	9
1	546
1	6
1	7
1	546
1	546
1	8
1	546
1	6
1	6
1	5
1	7
1	546
1	546
1	10
1	7
1	546
1	546
1	546
1	546
1	546
1	6124
1	546
1	6124
1	546
1	546
1	546
1	546
1	546
1	6124
1	546
1	11
1	5
1	546
1	12
1	546
1	546
1	5
1	546
1	546
1	546
1	5
1	9
1	18
1	546
1	5
1	11
1	5
1	546
1	546
1	546
1	11
1	15
1	546
1	20
1	18
1	16
1	6
1	546
1	6124
1	546
1	8
1	546
1	546
1	546
1	6
1	8
1	15
1	4
1	8
1	546
1	12
1	546
1	11
1	11
1	20
1	22
1	8
1	546
1	18
1	8
1	10
1	6
1	7
1	16
1	5
1	546
1	546
1	19
1	546
1	546
1	546
1	546
1	546
1	546
1	546
1	546
1	4
1	546
1	546
1	7
1	546
1	6
1	5
1	14
1	546
1	546
1	11
1	546
1	546
1	546
1	6
1	11
1	15
1	14
1	546
1	6
1	546
1	4
1	546
1	14
1	19
1	546
1	9
1	546
1	10
1	546
1	19
1	18
1	5
1	18
1	5
1	546
1	546
1	6
1	11
1	546
1	546
1	7
1	546
1	546
1	546
1	546
1	546
1	4
1	546
1	11
1	11
1	9
1	546
1	14
1	8
1	546
1	13
1	546
1	546
1	12
1	546
1	8
1	5
1	546
1	546
1	4
1	546
1	546
1	11
1	546
1	546
1	546
1	7
1	7
1	18
1	546
1	546
1	546
1	6124
1	11
1	18
1	9
1	546
1	546
1	9
1	546
1	7
1	18
1	5
1	546
1	546
1	6
1	6
1	546
1	7
1	546
1	546
1	546
1	18
1	546
1	546
1	546
1	4
1	546
1	7
1	546
1	5
1	546
1	10
1	546
1	18
1	8
1	5
1	546
1	4
1	6
1	23
1	5
1	4
1	9
1	546
1	7
1	5
1	8
1	8
1	546
1	546
1	7
1	546
1	546
1	546
1	7
1	546
1	7
1	8
1	546
1	546
1	14
1	16
1	546
1	546
1	4
1	10
1	11
1	546
1	9
1	8
1	13
1	546
1	546
1	546
1	546
1	546
1	546
1	4
1	4
1	11
1	546
1	546
1	5
1	546
1	15
1	4
1	23
1	4
1	18
1	10
1	5
1	19
1	546
1	546
1	11
1	10
1	546
1	546
1	9
1	546
1	11
1	546
1	5
1	546
1	546
1	546
1	7
1	546
1	3
1	546
1	546
1	15
1	6
1	546
1	546
1	546
1	546
1	546
1	11
1	5
1	546
1	14
1	546
1	10
1	546
1	546
1	7
1	22
1	11
1	9
1	546
1	7
1	14
1	546
1	546
1	7
1	546
1	546
1	546
1	7
1	546
1	23
1	20
1	5
1	546
1	19
1	546
1	3
1	12
1	11
1	546
1	5
1	546
1	546
1	546
1	546
1	546
1	18
1	546
1	546
1	5
1	546
1	11
1	11
1	11
1	7
1	19
1	546
1	4
1	546
1	546
1	15
1	546
1	546
1	546
1	6
1	8
1	546
1	12
1	546
1	546
1	9
1	546
1	546
1	10
1	546
1	546
1	10
1	546
1	15
1	19
1	6
1	11
1	546
1	4
1	5
1	18
1	10
1	546
1	546
1	20
1	6
1	546
1	5
1	9
1	11
1	10
1	546
1	3
1	546
1	12
1	11
1	4
1	4
1	546
1	3
1	9
1	546
1	546
1	546
1	9
1	546
1	11
1	546
1	18
1	546
1	546
1	6
1	546
1	546
1	8
1	546
1	4
1	20
1	546
1	546
1	19
1	14
1	10
1	546
1	6
1	14
1	546
1	10
1	546
1	546
1	8
1	546
1	546
1	546
1	546
1	18
1	7
1	16
1	10
1	6
1	11
1	4
1	7
1	546
1	11
1	3
1	546
1	546
1	7
1	23
1	14
1	9
1	15
1	5
1	14
1	546
1	546
1	10
1	546
1	8
1	7
1	546
1	4
1	546
1	546
1	4
1	546
1	546
1	546
1	11
1	6
1	546
1	546
1	546
1	11
1	10
1	2
1	11
1	546
1	19
1	7
1	546
1	5
1	4
1	10
1	546
1	14
1	546
1	12
1	546
1	10
1	546
1	546
1	546
1	18
1	546
1	546
1	12
1	546
1	10
1	546
1	11
1	4
1	22
1	546
1	546
1	19
1	11
1	13
1	14
1	11
1	546
1	546
1	546
1	6
1	546
1	16
1	16
1	3
1	22
1	22
1	546
1	546
1	546
1	546
1	12
1	5
1	5
1	546
1	18
1	23
1	12
1	9
1	8
1	546
1	546
1	546
1	10
1	546
1	546
1	546
1	6
1	7
1	546
1	546
1	546
1	546
1	546
1	546
1	546
1	9
1	18
1	20
1	546
1	546
1	546
1	16
1	546
1	546
1	546
1	6
1	5
1	20
1	546
1	22
1	546
1	546
1	9
1	3
1	18
1	8
1	546
1	19
1	546
1	5
1	546
1	546
1	546
1	8
1	11
1	16
1	20
1	5
1	546
1	19
1	9
1	546
1	22
1	546
1	18
1	546
1	3
1	546
1	546
1	12
1	9
1	546
1	13
1	546
1	546
1	546
1	11
1	546
1	3
1	7
1	9
1	546
1	18
1	546
1	12
1	5
1	546
1	546
1	546
1	546
1	23
1	5
1	546
1	14
1	546
1	546
1	546
1	546
1	546
1	546
1	11
1	22
1	546
1	546
1	6
1	22
1	14
1	546
1	546
1	18
1	546
1	546
1	6
1	9
1	14
1	546
1	546
1	8
1	12
1	7
1	546
1	6
1	546
1	546
1	546
1	14
1	5
1	19
1	546
1	10
1	546
1	6
1	546
1	3
1	546
1	9
1	546
1	546
1	5
1	20
1	8
1	546
1	546
1	6
1	7
1	546
1	546
1	9
1	7
1	10
1	20
1	19
1	14
1	546
1	546
1	546
1	11
1	546
1	546
1	9
1	546
1	546
1	546
1	546
1	546
1	19
1	546
1	9
1	23
1	5
1	546
1	10
1	4
1	546
1	546
1	20
1	9
1	546
1	3
1	546
1	546
1	546
1	546
1	546
1	3
1	546
1	546
1	6
1	546
1	8
1	15
1	19
1	546
1	4
1	23
1	8
1	546
1	546
1	546
1	546
1	15
1	18
1	546
1	546
1	9
1	18
1	546
1	546
1	8
1	16
1	7
1	546
1	546
1	3
1	18
1	546
2	3
2	14
2	9
2	546
2	11
2	15
2	3
2	4
2	7
2	4
2	4
2	7
2	6
2	5
2	5
2	6
2	9
2	9
2	5
2	5
2	7
2	7
2	5
2	7
2	4
2	22
2	15
2	4
2	4
2	3
2	6
2	15
2	3
2	6
2	3
2	4
2	18
2	15
2	4
2	4
2	9
2	7
2	6
2	3
2	4
2	4
2	15
2	6
2	5
2	9
2	11
2	546
2	11
2	4
2	3
2	9
2	3
2	4
2	5
2	11
2	22
2	11
2	15
2	4
2	5
2	4
2	23
2	9
2	5
2	7
2	3
2	4
2	3
2	5
2	3
2	15
2	4
2	9
2	7
2	9
2	5
2	10
2	5
2	4
2	5
2	4
2	15
2	11
2	5
2	4
2	5
3	4
3	6
3	4
3	4
3	4
3	5
4	5
6	8
