1	6124
1	1930
1	1930
1	1930
1	1930
1	1930
1	1930
1	1930
1	1930
1	1930
1	15
1	1930
1	1930
1	1930
1	8
1	1930
1	11
1	1930
1	1930
1	11
1	1930
1	1930
1	18
1	11
1	20
1	1930
1	1930
1	16
1	17
1	16
1	1930
1	1930
1	1930
1	1930
1	14
1	1930
1	14
1	22
1	1930
1	1930
1	10
1	1930
1	1930
1	1930
1	1930
1	11
1	1930
1	1930
1	17
1	1930
1	21
1	1930
1	9
1	19
1	23
1	1930
1	1930
1	8
1	1930
1	1930
1	1930
1	11
1	1930
1	12
1	1930
1	1930
1	17
1	1930
1	1930
1	1930
1	1930
1	1930
1	1930
1	1930
1	1930
1	10
1	20
1	1930
1	1930
1	1930
1	1930
1	16
1	1930
1	16
1	1930
1	11
1	1930
1	1930
1	1930
1	1930
1	1930
1	1930
1	17
1	1930
1	15
1	18
1	1930
1	1930
1	1930
1	1930
1	1930
1	1930
1	20
1	1930
1	1930
1	17
1	7
1	10
1	1930
1	1930
1	1930
1	1930
1	11
1	1930
1	7
1	1930
1	15
1	1930
1	1930
1	13
1	1930
1	1930
1	12
1	1930
1	1930
1	5
1	21
1	1930
1	1930
1	1930
1	6
1	1930
1	10
1	1930
1	1930
1	1930
1	9
1	1930
1	17
1	1930
1	8
1	20
1	1930
1	1930
1	12
1	1930
1	1930
1	1930
1	1930
1	12
1	1930
1	17
1	1930
1	1930
1	7
1	1930
1	23
1	1930
1	1930
1	1930
1	1930
1	1930
1	15
1	1930
1	1930
1	1930
1	12
1	1930
1	1930
1	14
1	1930
1	9
1	18
1	1930
1	15
1	1930
1	14
1	1930
1	1930
1	1930
1	1930
1	1930
1	1930
1	1930
1	9
1	1930
1	12
1	9
1	1930
1	6
1	1930
1	1930
1	1930
1	1930
1	17
1	1930
1	1930
1	1930
1	1930
1	7
1	11
1	1930
1	1930
1	16
1	1930
1	1930
1	7
1	1930
1	1930
1	12
1	1930
1	21
1	1930
1	1930
1	1930
1	1930
1	1930
1	1930
1	6124
1	1930
1	20
1	11
1	17
1	12
1	1930
1	1930
1	1930
1	1930
1	1930
1	1930
1	1930
1	13
1	1930
1	1930
1	10
1	1930
1	20
1	1930
1	1930
1	1930
1	20
1	1930
1	1930
1	1930
1	1930
1	1930
1	9
1	6
1	16
1	1930
1	1930
1	9
1	1930
1	1930
1	1930
1	17
1	1930
1	1930
1	1930
1	1930
1	20
1	1930
1	1930
1	1930
1	1930
1	1930
1	11
1	1930
1	1930
1	7
1	1930
1	1930
1	1930
1	11
1	10
1	1930
1	12
1	3
1	1930
1	19
1	1930
1	1930
1	7
1	1930
1	1930
1	1930
1	1930
1	1930
1	23
1	1930
1	1930
1	1930
1	1930
1	1930
1	1930
1	1930
1	1930
1	1930
1	1930
1	1930
1	20
1	17
1	1930
1	1930
1	1930
1	1930
1	1930
1	1930
1	1930
1	1930
1	10
1	1930
1	6
1	1930
1	1930
1	1930
1	1930
1	20
1	22
1	10
1	1930
1	1930
1	1930
1	10
1	1930
1	9
1	1930
1	1930
1	1930
1	16
1	1930
1	22
1	1930
1	1930
1	1930
1	1930
1	11
1	1930
1	1930
1	20
1	6
1	11
1	9
1	1930
1	1930
1	1930
1	8
1	9
1	1930
1	11
1	1930
1	1930
1	1930
1	20
1	7
1	17
1	1930
1	1930
1	22
1	7
1	10
1	1930
1	1930
1	1930
1	16
1	1930
1	1930
1	1930
1	1930
1	1930
1	1930
1	1930
1	1930
1	1930
1	1930
1	1930
1	1930
1	22
1	1930
1	1930
1	10
1	6
1	12
1	1930
1	20
1	1930
1	26
1	9
1	1930
1	1930
1	1930
1	15
1	1930
1	1930
1	6
1	1930
1	1930
1	1930
1	1930
1	12
1	1930
1	12
1	20
1	1930
1	1930
1	7
1	1930
1	21
1	1930
1	6
1	1930
1	1930
1	1930
1	1930
1	20
1	1930
1	1930
1	1930
1	1930
1	1930
1	1930
1	1930
1	1930
1	1930
1	1930
1	20
1	16
1	20
1	1930
1	1930
1	1930
1	1930
1	1930
1	1930
1	1930
1	1930
1	1930
1	10
1	1930
1	1930
1	1930
1	1930
1	9
1	1930
1	1930
1	8
1	6
1	1930
1	14
1	1930
1	1930
1	1930
1	1930
1	10
1	1930
1	1930
1	14
1	12
1	1930
1	8
1	1930
1	1930
1	1930
1	1930
1	1930
1	6
1	10
1	6
1	1930
1	1930
1	8
1	1930
1	8
1	20
1	1930
1	9
1	1930
1	1930
1	1930
1	7
1	1930
1	1930
1	10
1	1930
1	11
1	16
1	1930
1	1930
1	20
1	12
1	16
1	22
1	1930
1	1930
1	1930
1	7
1	6
1	7
1	1930
1	1930
1	9
1	1930
1	12
1	1930
1	1930
1	5
1	1930
1	1930
1	1930
1	1930
1	1930
1	20
1	1930
1	6124
1	1930
1	1930
1	1930
1	9
1	10
1	1930
1	1930
1	17
1	1930
1	1930
1	1930
1	1930
1	12
1	1930
1	1930
1	16
1	1930
1	1930
1	7
1	1930
1	1930
1	1930
1	3
1	1930
1	1930
1	1930
1	6
1	1930
1	7
1	12
1	6
1	1930
1	1930
1	1930
1	1930
1	1930
1	1930
1	1930
1	1930
1	1930
1	20
1	1930
1	1930
1	1930
1	1930
1	15
1	10
1	1930
1	1930
1	1930
1	16
1	1930
1	1930
1	1930
1	1930
1	1930
1	17
1	23
1	5
1	1930
1	20
1	1930
1	1930
1	1930
1	1930
1	1930
1	20
1	9
1	1930
1	1930
1	1930
1	1930
1	8
1	1930
1	12
1	6
1	1930
1	8
1	1930
1	1930
1	9
1	1930
1	1930
1	1930
1	9
1	20
1	1930
1	1930
1	1930
1	1930
1	1930
1	1930
1	1930
1	6124
1	1930
1	1930
1	8
1	14
1	1930
1	21
1	1930
1	1930
1	1930
1	16
1	20
1	1930
1	1930
1	20
1	1930
1	1930
1	1930
1	1930
1	1930
1	1930
1	5
1	1930
1	9
1	11
1	21
1	15
1	1930
1	1930
1	1930
1	1930
1	1930
1	7
1	1930
1	1930
1	1930
1	1930
1	12
1	3
1	1930
1	1930
1	1930
1	21
1	1930
1	1930
1	1930
1	1930
1	1930
1	1930
1	4
1	1930
1	1930
1	1930
1	1930
1	1930
1	1930
1	1930
1	1930
1	8
1	1930
1	1930
1	1930
1	1930
1	1930
1	8
1	1930
1	1930
1	7
1	1930
1	1930
1	9
1	1930
1	1930
1	1930
1	1930
1	1930
1	1930
1	1930
1	1930
1	6
1	1930
1	1930
1	1930
1	13
1	1930
1	14
1	6
1	1930
1	1930
1	1930
1	1930
1	1930
1	1930
1	1930
1	1930
1	17
1	1930
1	1930
1	1930
1	1930
1	1930
1	7
1	4
1	12
1	7
1	1930
1	1930
1	1930
1	1930
1	1930
1	1930
1	1930
1	1930
1	8
1	1930
1	7
1	1930
1	14
1	1930
1	1930
1	16
1	5
1	1930
1	1930
1	1930
1	1930
1	4
1	1930
1	9
1	10
1	1930
1	20
1	1930
1	1930
1	8
1	1930
1	1930
1	7
1	7
1	1930
1	1930
1	8
1	6
1	19
1	1930
1	10
1	1930
1	23
1	4
1	1930
1	20
1	12
1	23
1	1930
1	1930
1	1930
1	21
1	1930
1	1930
1	1930
1	1930
1	1930
1	1930
1	1930
1	1930
1	12
1	1930
1	26
1	9
1	20
1	1930
1	10
1	9
1	1930
1	1930
1	1930
1	1930
1	1930
1	1930
1	8
1	1930
1	1930
1	4
1	1930
1	1930
1	1930
1	15
1	1930
1	1930
1	1930
1	1930
1	1930
1	1930
1	1930
1	16
1	1930
1	1930
1	1930
1	1930
1	23
1	1930
1	1930
1	12
1	7
1	1930
1	19
1	1930
1	20
1	1930
1	20
1	1930
1	1930
1	1930
1	1930
1	1930
1	1930
1	1930
1	1930
1	6
1	1930
1	1930
1	1930
1	22
1	1930
1	1930
1	1930
1	7
1	1930
1	1930
1	12
1	1930
1	1930
1	1930
1	1930
1	1930
1	9
1	10
1	3
1	1930
1	1930
1	1930
1	7
1	1930
1	1930
1	1930
1	5
1	13
1	19
1	1930
1	1930
1	1930
1	1930
1	10
1	1930
1	26
1	1930
1	1930
1	1930
1	1930
1	1930
1	1930
1	7
1	1930
1	9
1	1930
1	15
1	1930
1	16
1	5
1	1930
1	1930
1	1930
1	7
1	1930
1	10
1	7
1	11
1	1930
1	20
1	1930
1	1930
1	12
1	1930
1	1930
1	5
1	1930
1	9
1	1930
1	1930
1	1930
1	1930
1	4
1	1930
1	1930
1	1930
1	8
1	9
1	1930
1	1930
1	10
1	10
1	1930
1	10
1	9
1	1930
1	1930
1	11
1	1930
1	1930
1	1930
1	9
1	12
1	8
1	1930
1	1930
1	17
1	9
1	1930
1	1930
1	9
1	26
1	12
1	1930
1	1930
1	1930
1	5
1	1930
1	1930
1	1930
1	4
1	7
1	1930
1	1930
1	1930
1	1930
1	8
1	1930
1	1930
1	1930
1	1930
1	1930
1	1930
1	15
1	21
1	12
1	6
1	26
1	1930
1	1930
1	1930
1	1930
1	5
1	1930
1	1930
1	6
1	1930
1	1930
1	1930
1	7
1	1930
1	1930
1	1930
1	1930
1	1930
1	1930
1	1930
1	1930
1	1930
1	1930
1	1930
1	1930
1	1930
1	1930
1	12
1	1930
1	1930
1	1930
1	1930
1	1930
1	17
1	1930
1	1930
1	20
1	1930
1	1930
1	1930
1	1930
1	1930
1	1930
1	1930
1	1930
1	1930
1	1930
1	20
1	1930
1	1930
1	1930
1	1930
1	10
1	20
1	7
1	1930
1	1930
1	1930
1	5
1	1930
1	1930
1	13
1	1930
1	1930
1	1930
1	1930
1	10
1	1930
1	13
1	1930
1	1930
1	14
1	13
1	8
1	1930
1	7
1	17
1	7
1	1930
1	1930
1	1930
1	1930
1	5
1	1930
1	9
1	1930
1	1930
1	1930
1	9
1	8
1	1930
1	1930
1	1930
1	1930
1	10
1	1930
1	20
1	1930
1	20
1	26
1	22
1	1930
1	8
1	1930
1	1930
1	1930
1	17
1	8
1	1930
1	5
1	23
1	13
1	1930
1	7
1	6
1	1930
1	7
1	1930
1	16
1	1930
1	20
1	1930
1	1930
1	6
1	1930
1	1930
1	1930
1	26
1	14
1	1930
1	1930
1	1930
1	1930
1	1930
1	15
1	1930
1	1930
1	7
1	6
1	1930
1	1930
1	14
1	8
1	1930
1	1930
1	1930
1	4
1	15
1	22
1	15
1	1930
1	8
1	1930
1	1930
1	1930
1	1930
1	1930
1	1930
1	1930
1	1930
1	1930
1	1930
1	7
1	1930
1	1930
1	1930
1	1930
1	1930
1	1930
1	1930
1	20
1	1930
1	1930
1	1930
1	12
1	20
1	1930
1	1930
1	1930
1	1930
1	6
1	1930
1	1930
1	1930
1	22
1	1930
1	1930
1	1930
1	1930
1	15
1	1930
1	6
1	13
1	15
1	1930
1	6
1	1930
1	1930
1	1930
1	1930
1	11
1	1930
1	10
1	7
1	1930
1	1930
1	1930
1	23
1	4
1	3
1	1930
1	1930
1	20
1	1930
1	1930
1	15
1	12
1	1930
1	17
1	1930
1	1930
1	1930
1	1930
1	1930
1	6
1	12
1	1930
1	1930
1	1930
1	1930
1	1930
1	1930
1	20
1	10
1	8
1	1930
1	1930
1	1930
1	1930
1	1930
1	1930
1	26
1	1930
1	1930
1	10
1	6
1	1930
1	1930
1	1930
1	1930
1	1930
1	20
1	1930
1	1930
1	1930
1	1930
1	1930
1	12
1	4
1	1930
1	1930
1	7
1	1930
1	1930
1	6
1	1930
1	1930
1	15
1	1930
1	1930
1	26
1	9
1	20
1	9
1	1930
1	1930
1	1930
1	6
1	1930
1	5
1	1930
1	1930
1	1930
1	7
1	18
1	1930
1	12
1	10
1	12
1	7
1	1930
1	12
1	1930
1	17
1	1930
1	1930
1	1930
1	1930
1	1930
1	1930
1	1930
1	1930
1	1930
1	1930
1	1930
1	12
1	1930
1	1930
1	1930
1	1930
1	13
1	1930
1	23
1	4
1	7
1	1930
1	1930
1	4
1	3
1	15
1	7
1	20
1	1930
1	1930
1	1930
1	15
1	1930
1	1930
1	1930
1	1930
1	1930
1	1930
1	1930
1	7
1	11
1	1930
1	5
1	8
1	10
1	3
1	1930
1	1930
1	1930
1	1930
1	1930
1	1930
1	1930
1	1930
1	1930
1	1930
1	23
1	1930
1	1930
1	1930
1	1930
1	1930
1	18
1	6
1	9
1	1930
1	1930
1	7
1	1930
1	1930
1	1930
1	1930
1	1930
1	1930
1	1930
1	21
1	1930
1	1930
1	23
1	7
1	1930
1	1930
1	1930
1	1930
1	1930
1	1930
1	1930
1	1930
1	7
1	1930
1	1930
1	10
1	1930
1	21
1	20
1	17
1	20
1	17
1	5
1	10
1	1930
1	6
1	1930
1	6
1	23
1	11
1	1930
1	20
1	1930
1	1930
1	12
1	1930
1	1930
1	1930
1	1930
1	1930
1	1930
1	1930
1	1930
1	23
1	9
1	1930
1	1930
1	12
1	10
1	1930
1	1930
1	23
1	1930
1	1930
1	1930
1	4
1	1930
1	12
1	1930
1	6
1	1930
1	1930
1	1930
1	1930
1	1930
1	20
1	5
1	1930
1	1930
1	1930
1	10
1	1930
1	2
1	1930
1	4
1	1930
1	11
1	1930
1	11
1	1930
1	17
1	1930
1	1930
1	1930
1	1930
1	1930
1	17
1	1930
1	5
1	1930
1	1930
1	1930
1	1930
1	1930
1	1930
1	1930
1	1930
1	23
1	1930
1	1930
1	1930
1	6124
1	1930
1	9
1	1930
1	1930
1	1930
1	10
1	1930
1	1930
1	1930
1	1930
1	20
1	1930
1	1930
1	1930
1	1930
1	1930
1	1930
1	1930
1	3
1	19
1	9
1	5
1	1930
1	1930
1	6
1	11
1	1930
1	4
1	1930
1	7
1	1930
1	9
1	1930
1	20
1	21
1	9
1	1930
1	1930
1	8
1	1930
1	16
1	1930
1	1930
1	10
1	1930
1	1930
1	1930
1	1930
1	1930
1	20
1	1930
1	4
1	1930
1	1930
1	1930
1	1930
1	1930
1	21
1	1930
1	7
1	8
1	1930
1	17
1	20
1	1930
1	1930
1	1930
1	4
1	1930
1	1930
1	1930
1	1930
1	10
1	17
1	1930
1	1930
1	10
1	1930
1	4
1	23
1	1930
1	1930
1	1930
1	1930
1	8
1	1930
1	10
1	1930
1	8
1	1930
1	1930
1	1930
1	1930
1	1930
1	6124
1	7
1	1930
1	11
1	1930
1	8
1	7
1	16
1	16
1	1930
1	1930
1	1930
1	9
1	1930
1	1930
1	1930
1	1930
1	17
1	1930
1	5
1	1930
1	1930
1	1930
1	8
1	1930
1	1930
1	13
1	6
1	1930
1	1930
1	1930
1	1930
1	1930
1	1930
1	1930
1	1930
1	1930
1	7
1	1930
1	1930
1	1930
1	1930
1	20
1	20
1	5
1	1930
1	8
1	1930
1	1930
1	8
1	1930
1	3
1	1930
1	7
1	1930
1	1930
1	1930
1	1930
1	1930
1	1930
1	1930
1	8
1	19
1	1930
1	1930
1	1930
1	1930
1	1930
1	1930
1	1930
1	7
1	12
1	1930
1	3
1	5
1	1930
1	14
1	1930
1	1930
1	1930
1	17
1	1930
1	1930
1	1930
1	1930
1	1930
1	1930
1	5
1	1930
1	1930
1	1930
1	1930
1	1930
1	1930
1	1930
1	7
1	1930
1	20
1	1930
1	9
1	1930
1	1930
1	1930
1	1930
1	1930
1	1930
1	10
1	1930
1	6
1	1930
1	1930
1	20
1	1930
1	20
1	1930
1	1930
1	1930
1	1930
1	1930
1	1930
1	1930
1	1930
1	8
1	1930
1	1930
1	6
1	1930
1	1930
1	1930
1	20
1	1930
1	1930
1	8
1	1930
1	1930
1	1930
1	9
1	1930
1	1930
1	1930
1	1930
1	1930
1	1930
1	1930
1	1930
1	1930
1	1930
1	1930
1	14
1	1930
1	1930
1	1930
1	6
1	12
1	1930
1	1930
1	1930
1	1930
1	1930
1	11
1	1930
1	1930
1	4
1	1930
1	1930
1	1930
1	1930
1	1930
1	4
1	1930
1	1930
1	1930
1	1930
1	1930
1	1930
1	23
1	15
1	8
1	1930
1	8
1	1930
1	10
1	1930
1	1930
1	1930
1	1930
1	1930
1	17
1	1930
1	1930
1	1930
1	1930
1	1930
1	1930
1	1930
1	12
1	1930
1	12
1	1930
1	1930
1	1930
1	8
1	1930
1	1930
1	1930
1	1930
1	1930
1	1930
1	20
1	1930
1	1930
1	1930
1	1930
1	1930
1	1930
1	8
1	1930
1	5
1	4
1	1930
1	1930
1	1930
1	1930
1	1930
1	1930
1	1930
1	1930
1	1930
1	1930
1	21
1	1930
1	1930
1	10
1	10
1	23
1	7
1	8
1	11
1	1930
1	1930
1	23
1	1930
1	1930
1	1930
1	1930
1	1930
1	7
1	1930
1	1930
1	1930
1	1930
1	8
1	1930
1	10
1	1930
1	1930
1	1930
1	1930
1	6
1	11
1	1930
1	4
1	1930
1	1930
1	5
1	1930
1	1930
1	1930
1	1930
1	1930
1	1930
1	1930
1	1930
1	1930
1	12
1	1930
1	1930
1	1930
1	1930
1	1930
1	1930
1	14
1	1930
1	10
1	1930
1	8
1	1930
1	1930
1	1930
1	1930
1	1930
1	1930
1	6
1	1930
1	1930
1	7
1	1930
1	3
1	1930
1	1930
1	7
1	1930
1	10
1	6
1	11
1	6
1	1930
1	1930
1	14
1	7
1	1930
1	1930
1	1930
1	1930
1	10
1	3
1	1930
1	12
1	1930
1	6
1	1930
1	1930
1	1930
1	10
1	1930
1	1930
1	1930
1	1930
1	1930
1	1930
1	1930
1	20
1	20
1	1930
1	1930
1	1930
1	20
1	16
1	1930
1	1930
1	1930
1	1930
1	1930
1	1930
1	11
1	1930
1	6
1	1930
1	1930
1	12
1	12
1	1930
1	1930
1	6
1	10
1	1930
1	1930
1	20
1	1930
1	13
1	20
1	7
1	10
1	1930
1	1930
1	1930
1	1930
1	1930
1	1930
1	1930
1	1930
1	1930
1	1930
1	1930
1	1930
1	1930
1	26
1	1930
1	1930
1	6
1	1930
1	1930
1	13
1	1930
1	1930
1	9
1	1930
1	1930
1	9
1	1930
1	1930
1	1930
1	12
1	1930
1	1930
1	1930
1	1930
1	1930
1	7
1	1930
1	1930
1	12
1	1930
1	5
1	23
1	1930
1	1930
1	1930
1	1930
1	1930
1	1930
1	1930
1	1930
1	1930
1	21
1	15
1	23
1	1930
1	1930
1	3
1	1930
1	1930
1	4
1	1930
1	1930
1	1930
1	6
1	1930
1	1930
1	20
1	21
1	4
1	1930
1	1930
1	1930
1	1930
1	1930
1	1930
1	1930
1	1930
1	1930
1	16
1	1930
1	1930
1	1930
1	1930
1	1930
1	1930
1	1930
1	1930
1	9
1	1930
1	10
1	1930
1	1930
1	1930
1	1930
1	1930
1	1930
1	1930
1	1930
1	1930
1	1930
1	1930
1	1930
1	1930
1	1930
1	6
1	1930
1	1930
1	5
1	11
1	1930
1	6
1	1930
1	7
1	1930
1	1930
1	1930
1	1930
1	7
1	6
1	1930
1	1930
1	1930
1	1930
1	1930
1	13
1	1930
1	1930
1	1930
1	1930
1	1930
1	1930
1	1930
1	1930
1	6
1	3
1	1930
1	4
1	1930
1	10
1	1930
1	1930
1	10
1	1930
1	1930
1	1930
1	1930
1	1930
1	6
1	5
1	1930
1	1930
1	1930
1	1930
1	1930
1	1930
1	1930
1	1930
1	10
1	1930
1	17
1	1930
1	11
1	1930
1	1930
1	1930
1	1930
1	1930
1	1930
1	1930
1	1930
1	12
1	20
1	9
1	1930
1	1930
1	1930
1	1930
1	5
1	1930
1	1930
1	1930
1	1930
1	1930
1	1930
1	8
1	1930
1	1930
1	1930
1	1930
1	1930
1	23
1	12
1	3
1	10
1	1930
1	1930
1	1930
1	13
1	1930
1	1930
1	12
1	1930
1	17
1	1930
1	21
1	17
1	1930
1	4
1	1930
1	1930
1	1930
1	22
1	1930
1	1930
1	1930
1	1930
1	26
1	10
1	20
1	16
1	5
1	20
1	1930
1	23
1	10
1	5
1	17
1	1930
1	1930
1	1930
1	1930
1	6
1	5
1	1930
1	8
1	1930
1	1930
1	7
1	1930
1	1930
1	1930
1	23
1	8
1	1930
1	1930
1	1930
1	4
1	1930
1	1930
1	1930
1	1930
1	20
1	1930
1	1930
1	1930
1	23
1	8
1	11
1	7
1	1930
1	1930
1	1930
1	1930
1	1930
1	1930
1	1930
1	1930
1	8
1	1930
1	1930
1	9
1	8
1	1930
1	1930
1	1930
1	1930
1	1930
1	1930
1	1930
1	22
1	1930
1	1930
1	1930
1	1930
1	17
1	1930
1	1930
1	1930
1	7
1	1930
1	1930
1	26
1	1930
1	1930
1	1930
1	1930
1	1930
1	20
1	1930
1	5
1	1930
1	8
1	1930
1	1930
1	7
1	1930
1	1930
1	3
1	1930
1	1930
1	1930
1	1930
1	18
1	1930
1	12
1	23
1	6
1	1930
1	1930
1	1930
1	6
1	19
1	1930
1	1930
1	1930
1	6
1	1930
1	1930
1	5
1	1930
1	10
1	1930
1	5
1	1930
1	1930
1	1930
1	14
1	3
1	1930
1	1930
1	17
1	1930
1	1930
1	1930
1	1930
1	11
1	1930
1	1930
1	23
1	20
1	1930
1	1930
1	1930
1	1930
1	1930
1	17
1	17
1	4
1	1930
1	1930
1	1930
1	17
1	1930
1	1930
1	12
1	15
1	1930
1	1930
1	1930
1	17
1	3
1	1930
1	1930
1	8
1	8
1	10
1	10
1	1930
1	1930
1	1930
1	1930
1	5
1	1930
1	1930
1	1930
1	4
1	1930
1	5
1	1930
1	1930
1	1930
1	12
1	1930
1	12
1	1930
1	6
1	1930
1	26
1	8
1	12
1	1930
1	26
1	1930
1	1930
1	1930
1	1930
1	1930
1	1930
1	17
1	7
1	1930
1	10
1	1930
1	1930
1	1930
1	1930
1	1930
1	1930
1	9
1	12
1	12
1	1930
1	16
1	5
1	1930
1	1930
1	7
1	1930
1	1930
1	1930
1	9
1	1930
1	6
1	1930
1	1930
1	1930
1	12
1	1930
1	1930
1	21
1	1930
1	1930
1	1930
1	20
1	1930
1	1930
1	1930
1	1930
1	1930
1	1930
1	1930
1	1930
1	15
1	1930
1	1930
1	1930
1	1930
1	1930
1	1930
1	1930
1	1930
1	20
1	6
1	1930
1	1930
1	20
1	1930
1	1930
1	1930
1	1930
1	1930
1	1930
1	1930
1	1930
1	6
1	16
1	17
1	15
1	1930
1	7
1	1930
1	1930
1	7
1	1930
1	3
1	1930
1	1930
1	1930
1	1930
1	1930
1	1930
1	1930
1	18
1	6
1	1930
1	1930
1	1930
1	1930
1	1930
1	1930
1	16
1	10
1	1930
1	5
1	1930
1	9
1	1930
1	1930
1	17
1	16
1	1930
1	1930
1	1930
1	8
1	1930
1	26
1	3
1	1930
1	10
1	7
1	10
1	1930
1	4
1	1930
1	1930
1	1930
1	1930
1	1930
1	1930
1	1930
1	1930
1	1930
1	1930
1	1930
1	7
1	5
1	1930
1	6
1	4
1	1930
1	7
1	1930
1	1930
1	1930
1	1930
1	1930
1	1930
1	20
1	18
1	16
1	1930
1	1930
1	1930
1	11
1	1930
1	6
1	15
1	1930
1	1930
1	1930
1	1930
1	10
1	1930
1	6
1	1930
1	11
1	1930
1	1930
1	10
1	1930
1	21
1	1930
1	20
1	1930
1	1930
1	1930
1	1930
1	1930
1	1930
1	1930
1	6
1	1930
1	1930
1	1930
1	8
1	1930
1	1930
1	1930
1	1930
1	17
1	1930
1	1930
1	1930
1	1930
1	20
1	1930
1	1930
1	6
1	1930
1	1930
1	1930
1	1930
1	23
1	18
1	23
1	12
1	1930
1	7
1	12
1	22
1	1930
1	9
1	1930
1	6
1	1930
1	1930
1	5
1	1930
1	1930
1	1930
1	1930
1	1930
1	1930
1	5
1	1930
1	1930
1	5
1	1930
1	4
1	1930
1	1930
1	1930
1	1930
1	1930
1	1930
1	5
1	1930
1	11
1	17
1	1930
1	1930
1	1930
1	1930
1	23
1	1930
1	21
1	1930
1	1930
1	1930
1	1930
1	1930
1	1930
1	1930
1	12
1	5
1	1930
1	1930
1	16
1	4
1	1930
1	5
1	7
1	1930
1	10
1	5
1	1930
1	1930
1	1930
1	1930
1	1930
1	23
1	1930
1	1930
1	5
1	1930
1	1930
1	1930
1	1930
1	3
1	1930
1	1930
1	5
1	1930
1	8
1	1930
1	6
1	6
1	16
1	5
1	10
1	1930
1	1930
1	1930
1	11
1	1930
1	17
1	1930
1	1930
1	1930
1	3
1	1930
1	1930
1	1930
1	1930
1	1930
1	5
1	13
1	1930
1	10
1	1930
1	23
1	1930
1	1930
1	1930
1	1930
2	6
2	4
2	23
2	10
2	7
2	8
2	4
2	5
2	15
2	1930
2	4
2	4
2	21
2	4
2	10
2	8
2	5
2	8
2	1930
2	4
2	6
2	10
2	5
2	8
2	1930
2	1930
2	1930
2	3
2	7
2	3
2	17
2	6
2	17
2	1930
2	12
2	12
2	3
2	3
2	4
2	5
2	3
2	18
2	5
2	3
2	14
2	4
2	7
2	4
2	4
2	4
2	14
2	9
2	4
2	3
2	5
2	19
2	13
2	9
2	4
2	15
2	6
2	6
2	5
2	8
2	12
2	4
2	4
2	8
2	11
2	3
2	11
2	9
2	17
2	8
2	14
2	8
2	1930
2	8
2	6
2	20
2	14
2	17
2	9
2	3
2	6
2	12
2	5
2	10
2	14
2	4
2	23
2	6
2	22
2	1930
2	12
2	20
2	13
2	5
2	3
2	3
2	17
2	7
2	6
2	3
2	14
2	12
2	4
2	21
2	20
2	7
2	4
2	15
2	7
2	4
2	11
2	8
2	3
2	4
2	4
2	3
2	12
2	14
2	14
2	8
2	12
2	3
2	4
2	9
2	5
2	5
2	7
2	8
2	7
2	1930
2	4
2	14
2	5
2	6
2	5
2	10
2	14
2	10
2	4
2	4
2	6
2	8
2	6
2	15
2	6
2	3
2	3
2	8
2	3
2	8
2	3
2	7
2	5
2	8
2	6
2	12
2	20
2	15
2	8
2	4
2	12
2	14
2	3
2	3
2	20
2	9
2	13
2	3
2	17
2	17
2	3
2	14
2	14
2	6
2	10
2	7
2	17
2	14
3	5
3	4
3	4
3	8
3	8
3	6
3	5
3	5
3	5
4	5
5	8
