1	6124
1	470
1	10
1	470
1	6124
1	8
1	8
1	5
1	470
1	470
1	470
1	470
1	7
1	470
1	16
1	16
1	470
1	7
1	7
1	470
1	12
1	470
1	470
1	470
1	470
1	5
1	7
1	20
1	12
1	5
1	8
1	12
1	9
1	470
1	470
1	8
1	16
1	47
1	7
1	17
1	8
1	470
1	8
1	8
1	7
1	12
1	16
1	470
1	470
1	470
1	470
1	6
1	7
1	7
1	47
1	5
1	7
1	23
1	10
1	22
1	16
1	7
1	470
1	18
1	8
1	11
1	16
1	17
1	8
1	18
1	8
1	6124
1	16
1	470
1	7
1	470
1	26
1	5
1	470
1	7
1	10
1	470
1	470
1	11
1	470
1	8
1	470
1	8
1	470
1	9
1	6124
1	11
1	16
1	9
1	6
1	12
1	12
1	19
1	17
1	13
1	16
1	7
1	13
1	470
1	470
1	8
1	17
1	470
1	7
1	12
1	5
1	17
1	3
1	470
1	470
1	18
1	6
1	16
1	470
1	470
1	21
1	16
1	10
1	9
1	470
1	7
1	8
1	8
1	470
1	10
1	18
1	470
1	12
1	7
1	17
1	20
1	470
1	5
1	8
1	9
1	7
1	11
1	470
1	470
1	47
1	8
1	470
1	6
1	20
1	470
1	8
1	16
1	8
1	19
1	17
1	470
1	470
1	47
1	7
1	22
1	26
1	19
1	470
1	7
1	470
1	16
1	470
1	16
1	8
1	470
1	13
1	20
1	470
1	16
1	470
1	470
1	26
1	8
1	14
1	13
1	470
1	16
1	470
1	470
1	470
1	470
1	470
1	12
1	470
1	9
1	470
1	11
1	22
1	18
1	470
1	47
1	12
1	16
1	8
1	470
1	47
1	12
1	12
1	470
1	470
1	470
1	12
1	10
1	470
1	21
1	470
1	5
1	16
1	8
1	470
1	470
1	17
1	470
1	7
1	470
1	470
1	8
1	22
1	12
1	470
1	16
1	6
1	7
1	4
1	11
1	11
1	12
1	6
1	47
1	47
1	9
1	470
1	6124
1	470
1	14
1	16
1	470
1	470
1	5
1	16
1	13
1	14
1	470
1	470
1	470
1	470
1	12
1	470
1	470
1	16
1	4
1	470
1	470
1	9
1	17
1	470
1	17
1	5
1	26
1	8
1	12
1	18
1	21
1	7
1	16
1	470
1	7
1	470
1	470
1	11
1	470
1	47
1	470
1	12
1	10
1	22
1	17
1	470
1	6
1	17
1	470
1	9
1	10
1	470
1	470
1	5
1	14
1	8
1	9
1	4
1	470
1	16
1	470
1	470
1	7
1	5
1	15
1	12
1	470
1	470
1	17
1	17
1	12
1	470
1	26
1	11
1	6
1	16
1	12
1	19
1	470
1	470
1	470
1	470
1	7
1	12
1	9
1	8
1	17
1	9
1	18
1	12
1	8
1	470
1	470
1	16
1	16
1	11
1	18
1	13
1	470
1	16
1	5
1	5
1	17
1	4
1	6
1	470
1	17
1	13
1	13
1	7
1	470
1	16
1	17
1	5
1	16
1	14
1	470
1	9
1	12
1	470
1	470
1	10
1	4
1	470
1	9
1	23
1	9
1	470
1	470
1	16
1	47
1	12
1	8
1	16
1	470
1	7
1	470
1	17
1	3
1	10
1	16
1	7
1	11
1	10
1	12
1	470
1	16
1	8
1	22
1	470
1	5
1	470
1	470
1	17
1	17
1	470
1	17
1	47
1	7
1	10
1	9
1	470
1	10
1	16
1	18
1	16
1	10
1	16
1	26
1	16
1	13
1	8
1	12
1	47
1	470
1	8
1	12
1	47
1	7
1	470
1	26
1	12
1	470
1	7
1	470
1	470
1	16
1	12
1	47
1	11
1	8
1	17
1	8
1	6
1	20
1	47
1	470
1	17
1	470
1	470
1	8
1	10
1	17
1	18
1	14
1	18
1	13
1	7
1	8
1	19
1	470
1	13
1	4
1	11
1	7
1	4
1	16
1	470
1	12
1	3
1	470
1	18
1	470
1	17
1	47
1	18
1	11
1	8
1	470
1	11
1	470
1	3
1	17
1	6
1	10
1	7
1	470
1	21
1	5
1	3
1	10
1	17
1	12
1	470
1	12
1	7
1	470
1	470
1	15
1	20
1	9
1	5
1	8
1	21
1	470
1	470
1	470
1	470
1	4
1	7
1	7
1	470
1	9
1	17
1	13
1	12
1	470
1	12
1	16
1	10
1	470
1	14
1	470
1	16
1	17
1	16
1	18
1	10
1	13
1	18
1	12
1	12
1	14
1	5
1	8
1	16
1	13
1	470
1	470
1	13
1	17
1	15
1	470
1	2
1	22
1	14
1	470
1	470
1	19
1	470
1	7
1	7
1	470
1	21
1	470
1	470
1	470
1	12
1	7
1	470
1	23
1	470
1	470
1	10
1	470
1	470
1	17
1	5
1	470
1	16
1	470
1	17
1	470
1	470
1	16
1	470
1	16
1	470
1	9
1	16
1	8
1	470
1	5
1	17
1	470
1	7
1	470
1	8
1	11
1	12
1	7
1	7
1	10
1	3
1	470
1	470
1	21
1	11
1	16
1	20
1	470
1	470
1	470
1	18
1	7
1	7
1	470
1	3
1	16
1	6
1	470
1	16
1	7
1	6
1	470
1	16
1	470
1	470
1	9
1	10
1	470
1	7
1	470
1	470
1	10
1	19
1	21
1	7
1	6
1	470
1	470
1	18
1	10
1	470
1	7
1	19
1	5
1	5
1	14
1	470
1	7
1	17
1	7
1	17
1	470
1	18
1	470
1	3
1	17
1	470
1	5
1	8
1	12
1	470
1	26
1	470
1	4
1	7
1	47
1	470
1	470
1	7
1	14
1	3
1	12
1	15
1	17
1	17
1	6
1	18
1	7
1	8
1	18
1	20
1	470
1	16
1	470
1	47
1	5
1	470
1	10
1	19
1	8
1	23
1	17
1	4
1	470
1	16
1	7
1	16
1	11
1	8
1	18
1	9
1	8
1	11
1	17
1	47
1	6
1	470
1	13
1	470
1	17
1	17
1	23
1	7
1	470
1	470
1	470
1	470
1	8
1	11
1	470
1	15
1	470
1	470
1	12
1	47
1	26
1	8
1	17
1	7
1	19
1	23
1	8
1	6
1	22
1	16
1	16
1	470
1	5
1	18
1	7
1	13
1	17
1	12
1	470
1	470
1	470
1	470
1	5
1	470
1	470
1	470
1	5
1	13
1	8
1	16
1	12
1	4
1	7
1	470
1	23
1	470
1	7
1	470
1	26
1	470
1	19
1	17
1	47
1	16
1	7
1	470
1	8
1	5
1	4
1	470
1	9
1	5
1	7
1	6124
1	470
1	13
1	20
1	470
1	13
1	19
1	17
1	7
1	7
1	9
1	18
1	8
1	21
1	18
1	470
1	470
1	7
1	470
1	7
1	16
1	5
1	470
1	13
1	7
1	17
1	470
1	11
1	470
1	8
1	7
1	9
1	12
1	470
1	470
1	470
1	16
1	470
1	470
1	47
1	470
1	7
1	21
1	470
1	7
1	26
1	7
1	14
1	26
1	470
1	17
1	17
1	4
1	13
1	11
1	5
1	9
1	470
1	470
1	7
1	470
1	11
1	7
1	16
1	16
1	16
1	3
1	12
1	470
1	7
1	11
1	4
1	7
1	470
1	470
1	470
1	7
1	16
1	7
1	470
1	470
1	470
1	470
1	22
1	9
1	8
1	470
1	3
1	8
1	470
1	15
1	8
1	470
1	9
1	470
1	470
1	470
1	470
1	17
1	6
1	22
1	16
1	3
1	16
1	5
1	16
1	9
1	470
1	470
1	9
1	470
1	9
1	19
1	12
1	4
1	17
1	17
1	19
1	7
1	14
1	5
1	17
1	470
1	6
1	470
1	10
1	470
1	8
1	470
1	470
1	6
1	18
1	8
1	470
1	470
1	470
1	6
1	470
1	10
1	7
1	16
1	5
1	10
1	8
1	21
1	16
1	12
1	470
1	470
1	470
1	470
1	5
1	11
1	10
1	14
1	8
1	6
1	470
1	470
1	470
1	7
1	3
1	470
1	470
1	7
1	12
1	7
1	12
1	18
1	4
1	16
1	470
1	16
1	470
1	470
1	470
1	26
1	18
1	470
1	14
1	470
1	13
1	7
1	470
1	470
1	470
1	16
1	20
1	16
1	3
1	7
1	470
1	11
1	470
1	6
1	470
1	23
1	470
1	7
1	470
1	470
1	7
1	17
1	16
1	9
1	5
1	4
1	18
1	4
1	470
1	7
1	470
1	470
1	17
1	5
1	470
1	7
1	8
1	17
1	16
1	470
1	4
1	7
1	14
1	16
1	16
1	470
1	470
1	5
1	18
1	3
1	15
1	8
1	9
1	26
1	470
1	13
1	17
1	470
1	18
1	470
1	470
1	8
1	19
1	2
1	470
1	9
1	12
1	470
1	11
1	7
1	470
1	6
1	16
1	470
1	47
1	7
1	16
1	16
1	20
1	18
1	26
1	7
1	470
1	7
1	16
1	470
1	470
1	470
1	8
1	7
1	470
1	17
1	21
1	470
1	9
1	5
1	16
1	470
1	470
1	7
1	470
1	470
1	470
1	470
1	8
1	7
1	17
1	7
1	8
1	470
1	11
1	10
1	17
1	470
1	11
1	12
1	17
1	470
1	470
1	470
1	9
1	8
1	8
1	16
1	13
1	14
1	470
1	8
1	16
2	3
2	5
2	7
2	4
2	18
2	4
2	7
2	4
2	7
2	4
2	4
2	9
2	3
2	5
2	16
2	6
2	8
2	6
2	12
2	7
2	7
2	16
2	3
2	13
2	7
2	3
2	14
2	17
2	23
2	4
2	7
2	7
2	470
2	4
2	6
2	3
2	470
2	3
2	5
2	7
2	8
2	8
2	470
2	7
2	6
2	5
2	7
2	3
2	4
2	470
2	4
2	16
2	470
2	4
2	7
2	10
2	3
2	6
2	3
2	16
2	9
2	14
2	3
2	8
2	6
2	15
2	6
2	7
2	6
2	3
2	7
2	47
2	5
2	3
2	11
2	16
2	7
2	5
2	11
2	5
2	16
2	4
2	11
2	4
2	7
2	5
2	17
2	3
2	8
2	4
2	10
2	3
2	4
2	4
2	6
2	3
2	8
2	9
2	3
2	8
2	3
2	18
2	12
2	6
2	7
2	6
2	3
2	5
2	6
2	5
2	7
2	4
2	47
2	3
2	7
2	4
2	3
2	5
2	7
2	3
2	6
2	6
2	16
2	3
2	4
2	5
2	5
2	8
2	6
2	12
2	5
2	17
2	8
2	7
2	20
2	4
2	7
2	7
2	18
2	4
2	3
2	4
2	7
2	7
2	6
2	3
2	5
2	3
2	6
2	3
2	4
2	7
2	6
2	4
2	6
2	6
2	4
2	3
2	3
2	3
2	8
2	3
3	5
3	5
3	5
3	13
3	4
3	5
3	7
3	10
3	6
3	4
4	5
4	5
4	6
