1	6124
1	867
1	867
1	867
1	867
1	867
1	867
1	867
1	867
1	11
1	14
1	13
1	13
1	867
1	867
1	867
1	867
1	867
1	867
1	867
1	8
1	13
1	6124
1	867
1	867
1	867
1	867
1	867
1	867
1	26
1	8
1	867
1	867
1	867
1	867
1	10
1	8
1	13
1	867
1	10
1	867
1	867
1	8
1	21
1	13
1	867
1	21
1	10
1	11
1	867
1	10
1	867
1	867
1	10
1	21
1	867
1	867
1	13
1	8
1	867
1	8
1	867
1	11
1	11
1	867
1	867
1	867
1	867
1	867
1	867
1	867
1	867
1	867
1	867
1	12
1	21
1	867
1	10
1	867
1	11
1	21
1	30
1	867
1	867
1	867
1	7
1	867
1	21
1	30
1	867
1	867
1	867
1	867
1	9
1	867
1	867
1	13
1	867
1	867
1	8
1	30
1	14
1	867
1	8
1	867
1	867
1	8
1	867
1	867
1	867
1	11
1	867
1	22
1	11
1	867
1	867
1	14
1	9
1	867
1	7
1	8
1	10
1	867
1	867
1	867
1	867
1	867
1	5
1	867
1	867
1	867
1	867
1	21
1	867
1	867
1	867
1	867
1	11
1	867
1	867
1	7
1	867
1	21
1	867
1	867
1	9
1	867
1	8
1	8
1	867
1	867
1	867
1	867
1	867
1	867
1	26
1	13
1	11
1	867
1	867
1	867
1	867
1	867
1	867
1	23
1	867
1	867
1	26
1	867
1	10
1	21
1	867
1	5
1	867
1	5
1	867
1	867
1	4
1	867
1	867
1	13
1	867
1	867
1	21
1	14
1	867
1	14
1	867
1	867
1	867
1	7
1	8
1	10
1	8
1	867
1	867
1	4
1	867
1	867
1	867
1	22
1	11
1	867
1	867
1	867
1	9
1	867
1	867
1	867
1	867
1	21
1	5
1	867
1	14
1	867
1	867
1	23
1	22
1	867
1	867
1	17
1	867
1	10
1	11
1	867
1	6
1	867
1	13
1	867
1	867
1	5
1	13
1	867
1	867
1	867
1	867
1	10
1	867
1	12
1	7
1	5
1	7
1	867
1	8
1	3
1	867
1	867
1	867
1	8
1	26
1	867
1	867
1	867
1	867
1	11
1	30
1	867
1	867
1	10
1	17
1	867
1	867
1	867
1	867
1	867
1	13
1	867
1	26
1	867
1	21
1	867
1	23
1	867
1	867
1	867
1	867
1	14
1	867
1	867
1	867
1	867
1	13
1	9
1	867
1	13
1	867
1	8
1	9
1	867
1	8
1	867
1	8
1	11
1	867
1	867
1	8
1	867
1	867
1	8
1	12
1	867
1	8
1	867
1	867
1	867
1	867
1	867
1	867
1	867
1	867
1	867
1	7
1	13
1	13
1	867
1	8
1	867
1	7
1	867
1	867
1	867
1	12
1	13
1	867
1	867
1	6
1	867
1	867
1	867
1	30
1	8
1	13
1	867
1	4
1	14
1	22
1	5
1	10
1	867
1	867
1	867
1	12
1	867
1	7
1	867
1	867
1	867
1	867
1	867
1	867
1	867
1	8
1	14
1	8
1	5
1	14
1	867
1	867
1	8
1	7
1	23
1	11
1	21
1	867
1	867
1	867
1	867
1	7
1	867
1	867
1	867
1	867
1	11
1	11
1	867
1	23
1	867
1	867
1	867
1	867
1	14
1	15
1	867
1	21
1	5
1	867
1	867
1	867
1	867
1	4
1	8
1	867
1	867
1	867
1	867
1	8
1	7
1	867
1	7
1	22
1	867
1	867
1	867
1	8
1	867
1	867
1	867
1	867
1	867
1	867
1	867
1	867
1	867
1	867
1	867
1	867
1	6
1	14
1	30
1	867
1	9
1	21
1	867
1	867
1	867
1	867
1	4
1	867
1	10
1	8
1	867
1	867
1	7
1	11
1	867
1	5
1	867
1	13
1	867
1	8
1	7
1	17
1	867
1	21
1	867
1	867
1	867
1	867
1	867
1	867
1	21
1	867
1	21
1	867
1	867
1	3
1	867
1	13
1	867
1	867
1	867
1	867
1	867
1	8
1	26
1	8
1	8
1	867
1	867
1	867
1	867
1	867
1	867
1	867
1	867
1	8
1	867
1	867
1	7
1	10
1	867
1	867
1	867
1	867
1	867
1	867
1	867
1	867
1	3
1	3
1	867
1	867
1	867
1	867
1	867
1	21
1	22
1	867
1	867
1	6
1	14
1	867
1	13
1	867
1	867
1	867
1	12
1	867
1	11
1	3
1	867
1	21
1	867
1	867
1	867
1	867
1	10
1	867
1	867
1	867
1	867
1	867
1	6
1	867
1	867
1	8
1	14
1	867
1	867
1	867
1	867
1	867
1	867
1	867
1	867
1	11
1	7
1	7
1	867
1	867
1	867
1	26
1	13
1	8
1	7
1	7
1	867
1	867
1	8
1	23
1	867
1	867
1	30
1	867
1	22
1	867
1	867
1	867
1	867
1	7
1	7
1	867
1	867
1	867
1	8
1	8
1	867
1	867
1	867
1	867
1	867
1	867
1	15
1	867
1	867
1	867
1	867
1	867
1	5
1	5
1	867
1	23
1	8
1	10
1	867
1	14
1	11
1	867
1	10
1	13
1	8
1	867
1	867
1	867
1	867
1	867
1	867
1	867
1	5
1	4
1	30
1	17
1	5
1	867
1	867
1	867
1	17
1	21
1	7
1	22
1	867
1	867
1	867
1	867
1	867
1	5
1	21
1	867
1	867
1	867
1	7
1	867
1	867
1	867
1	867
1	867
1	30
1	4
1	867
1	13
1	867
1	867
1	22
1	6
1	4
1	21
1	14
1	6
1	867
1	30
1	867
1	867
1	867
1	867
1	867
1	26
1	867
1	5
1	867
1	867
1	867
1	867
1	22
1	5
1	11
1	867
1	867
1	867
1	7
1	11
1	13
1	8
1	867
1	867
1	867
1	9
1	4
1	14
1	7
1	867
1	23
1	867
1	867
1	30
1	867
1	8
1	867
1	867
1	867
1	867
1	7
1	867
1	23
1	8
1	17
1	8
1	867
1	867
1	867
1	21
1	15
1	867
1	7
1	7
1	4
1	7
1	8
1	867
1	7
1	867
1	8
1	8
1	867
1	867
1	867
1	4
1	21
1	867
1	10
1	13
1	3
1	8
1	17
1	867
1	867
1	867
1	867
1	867
1	867
1	867
1	13
1	867
1	867
1	8
1	867
1	867
1	867
1	6
1	867
1	10
1	867
1	867
1	8
1	9
1	14
1	867
1	4
1	867
1	867
1	867
1	867
1	3
1	13
1	867
1	867
1	867
1	7
1	867
1	867
1	21
1	22
1	7
1	5
1	867
1	11
1	867
1	21
1	867
1	867
1	867
1	867
1	867
1	867
1	867
1	30
1	867
1	26
1	867
1	867
1	867
1	867
1	867
1	13
1	867
1	867
1	22
1	21
1	7
1	867
1	22
1	7
1	867
1	30
1	867
1	867
1	867
1	22
1	867
1	6
1	867
1	867
1	9
1	867
1	7
1	10
1	8
1	867
1	867
1	3
1	4
1	867
1	867
1	867
1	867
1	867
1	867
1	14
1	4
1	7
1	9
1	9
1	867
1	8
1	867
1	11
1	867
1	867
1	867
1	13
1	867
1	867
1	867
1	3
1	867
1	867
1	30
1	867
1	867
1	7
1	867
1	9
1	867
1	9
1	867
1	21
1	13
1	5
1	867
1	867
1	867
1	867
1	11
1	3
1	9
1	867
1	867
1	867
1	21
1	867
1	867
1	867
1	867
1	867
1	867
1	8
1	7
1	867
1	867
1	867
1	867
1	867
1	15
1	867
1	30
1	867
1	867
1	867
1	8
1	7
1	867
1	867
1	867
1	5
1	7
1	867
1	867
1	8
1	867
1	867
1	7
1	867
1	5
1	8
1	867
1	867
1	867
1	867
1	867
1	7
1	867
1	867
1	11
1	867
1	867
1	867
1	21
1	867
1	867
1	26
1	6
1	867
1	867
1	867
1	867
1	5
1	867
1	867
1	6
1	867
1	867
1	867
1	26
1	867
1	22
1	867
1	867
1	8
1	867
1	867
1	5
1	867
1	867
1	21
1	6
1	8
1	7
1	867
1	9
1	3
1	867
1	5
1	8
1	867
1	867
1	867
1	5
1	5
1	13
1	867
1	14
1	17
1	867
1	867
1	867
1	7
1	8
1	867
1	9
1	867
1	8
1	14
1	21
1	867
1	867
1	22
1	5
1	12
1	4
1	3
1	867
1	9
1	867
1	867
1	14
1	867
1	3
1	11
1	867
1	867
1	13
1	8
1	867
1	867
1	12
1	26
1	867
1	30
1	867
1	8
1	867
1	867
1	867
1	23
1	867
1	8
1	4
1	10
1	6
1	15
1	867
1	867
1	867
1	5
1	8
1	7
1	867
1	867
1	867
1	13
1	867
1	867
1	867
1	21
1	867
1	867
1	21
1	867
1	867
1	5
1	867
1	867
1	867
1	867
1	867
1	30
1	867
1	867
1	26
1	23
1	867
1	867
1	867
1	4
1	867
1	867
1	13
1	11
1	867
1	867
1	23
1	30
1	867
1	867
1	11
1	867
1	867
1	867
1	867
1	867
1	867
1	867
1	867
1	867
1	867
1	3
1	867
1	867
1	867
1	867
1	867
1	13
1	5
1	3
1	6
1	867
1	867
1	13
1	867
1	867
1	6
1	867
1	867
1	3
1	867
1	867
1	867
1	867
1	17
1	23
1	8
1	5
1	9
1	867
1	6
1	8
1	867
1	6
1	23
1	867
1	867
1	867
1	867
1	8
1	7
1	4
1	13
1	867
1	5
1	4
1	3
1	867
1	867
1	867
1	867
1	867
1	11
1	867
1	5
1	13
1	3
1	867
1	867
1	867
1	867
1	4
1	867
1	17
1	867
1	867
1	867
1	867
1	867
1	5
1	4
1	867
1	867
1	14
1	867
1	6
1	867
1	867
1	3
1	867
1	867
1	867
1	867
1	867
1	867
1	9
1	5
1	867
1	867
1	867
1	867
1	6
1	867
1	867
1	867
1	14
1	22
1	867
1	5
1	10
1	867
1	867
1	867
1	867
1	867
1	26
1	867
1	867
1	7
1	22
1	867
1	867
1	14
1	867
1	867
1	17
1	867
1	5
1	867
1	867
1	867
1	867
1	14
1	867
1	867
1	8
1	867
1	867
1	867
1	13
1	867
1	867
1	867
1	867
1	3
1	11
1	867
1	867
1	867
1	867
1	6
1	867
1	5
1	867
1	867
1	867
1	13
1	867
1	867
1	867
1	10
1	867
1	867
1	26
1	5
1	867
1	22
1	867
1	867
1	14
1	867
1	867
1	14
1	867
1	867
1	867
1	8
1	6
1	867
1	8
1	5
1	9
1	867
1	13
1	867
1	6
1	867
1	867
1	867
1	4
1	867
1	26
1	867
1	867
1	21
1	867
1	867
1	867
1	21
1	867
1	21
1	867
1	10
1	8
1	867
1	3
1	867
1	10
1	17
1	6
1	8
1	21
1	867
1	867
1	867
1	867
1	7
1	8
1	12
1	867
1	10
1	13
1	7
1	5
1	867
1	867
1	4
1	867
1	22
1	7
1	4
1	21
1	11
1	867
1	13
1	867
1	867
1	867
1	867
1	867
1	867
1	867
1	867
1	15
1	867
1	11
1	30
1	867
1	867
1	4
1	3
1	867
1	8
1	30
1	867
1	867
1	17
1	10
1	21
1	10
1	5
1	11
1	867
1	4
1	867
1	867
1	867
1	867
2	4
2	4
2	8
2	8
2	4
2	867
2	4
2	4
2	4
2	3
2	4
2	7
2	8
2	11
2	11
2	7
2	5
2	867
2	15
2	13
2	21
2	21
2	4
2	4
2	867
2	8
2	4
2	11
2	5
2	5
2	3
2	11
2	867
2	867
2	13
2	867
2	4
2	3
2	3
2	6
2	13
2	12
2	4
2	10
2	4
2	8
2	11
2	8
2	6
2	7
2	5
2	3
2	3
2	4
2	867
2	3
2	13
2	6
2	5
2	4
2	14
2	21
2	5
2	4
2	26
2	10
2	867
2	5
2	11
2	12
2	8
2	5
2	4
2	5
2	6
2	6
2	3
2	4
2	3
2	7
2	5
2	5
2	4
2	3
2	4
2	7
2	7
2	5
2	3
2	7
2	6
2	6
2	4
2	7
2	3
2	6
2	11
2	5
2	3
2	5
2	3
2	5
2	6
2	4
2	7
2	7
2	4
2	4
2	13
2	13
2	8
2	10
2	4
2	3
2	3
2	13
2	6
2	11
2	3
2	7
2	8
3	12
3	7
3	14
3	5
4	5
