1	6124
1	222
1	16
1	17
1	6124
1	19
1	17
1	17
1	16
1	17
1	17
1	26
1	9
1	10
1	9
1	8
1	6124
1	38
1	222
1	20
1	8
1	222
1	222
1	222
1	222
1	29
1	16
1	8
1	222
1	12
1	222
1	38
1	21
1	222
1	12
1	38
1	6124
1	222
1	222
1	222
1	8
1	8
1	20
1	222
1	38
1	38
1	222
1	6124
1	4
1	17
1	222
1	8
1	222
1	26
1	38
1	12
1	38
1	222
1	20
1	6124
1	13
1	7
1	222
1	222
1	15
1	10
1	29
1	222
1	222
1	8
1	17
1	19
1	17
1	26
1	38
1	21
1	9
1	222
1	5
1	26
1	222
1	17
1	6124
1	6
1	8
1	222
1	222
1	11
1	222
1	222
1	17
1	6
1	6124
1	6124
1	13
1	38
1	222
1	222
1	20
1	222
1	4
1	19
1	5
1	222
1	222
1	222
1	17
1	13
1	9
1	8
1	5
1	222
1	17
1	26
1	17
1	6124
1	6
1	12
1	222
1	222
1	222
1	222
1	26
1	16
1	38
1	9
1	26
1	6
1	17
1	5
1	8
1	38
1	17
1	5
1	222
1	20
1	222
1	222
1	222
1	6124
1	15
1	222
1	6
1	6124
1	17
1	222
1	7
1	6124
1	16
1	16
1	222
1	222
1	8
1	6
1	17
1	3
1	6124
1	222
1	222
1	17
1	222
1	7
1	11
1	222
1	7
1	222
1	7
1	6124
1	17
1	222
1	222
1	26
1	222
1	29
1	5
1	222
1	222
1	17
1	10
1	222
1	19
1	4
1	17
1	222
1	6124
1	222
1	15
1	11
1	5
1	222
1	222
1	9
1	17
1	17
1	17
1	6124
1	222
1	222
1	6124
1	29
1	6
1	20
1	20
1	5
1	222
1	222
1	9
1	17
1	3
1	222
1	21
1	10
1	15
1	16
1	9
1	222
1	20
1	222
1	222
1	4
1	222
1	3
1	222
1	21
1	222
1	222
1	222
1	4
1	7
1	5
1	38
1	16
1	29
1	4
1	26
1	4
1	21
1	11
1	6124
1	8
1	4
1	222
1	26
1	5
1	26
1	222
1	222
1	6124
1	5
1	222
1	38
1	222
1	7
1	8
1	20
1	7
1	2
1	7
1	7
1	7
1	11
1	29
1	6
1	222
1	222
1	222
1	13
1	19
1	8
1	6
1	7
1	29
1	6
1	222
1	222
1	7
1	26
1	8
1	21
1	6124
1	8
1	26
1	3
1	5
1	5
1	222
1	17
1	7
1	6
1	4
1	5
1	9
1	17
1	9
1	222
1	17
1	21
1	2
1	26
1	26
1	9
1	222
1	17
1	4
1	222
1	19
1	222
1	15
1	13
1	16
1	29
1	9
1	8
1	222
1	6
1	222
1	222
1	222
1	17
1	11
1	222
1	5
1	26
1	6
1	9
1	6
1	222
1	17
1	9
1	5
1	11
1	29
1	222
1	17
1	222
1	38
1	222
1	6
1	21
1	20
1	29
1	8
1	222
1	13
1	38
1	222
1	222
1	17
1	17
1	222
1	222
1	222
1	20
1	222
1	222
1	222
1	26
1	6
1	222
1	9
1	222
1	222
1	38
1	222
1	38
1	20
1	222
1	29
1	7
1	16
1	5
1	222
1	222
1	2
1	17
1	5
1	38
1	29
1	19
1	8
1	3
1	6
1	4
1	21
1	15
1	20
1	222
1	4
1	222
1	222
1	222
1	3
1	222
1	17
1	17
1	8
1	222
1	222
1	6
1	222
1	5
1	222
1	12
1	17
1	5
1	5
1	15
1	5
1	222
1	13
1	2
1	222
1	222
1	222
1	222
1	5
1	222
1	4
1	222
1	29
1	8
1	222
1	29
1	26
1	222
1	4
1	222
1	2
1	5
1	6124
1	222
1	222
1	13
1	26
1	3
1	3
1	26
1	17
1	222
1	16
1	19
1	222
1	17
1	7
1	19
1	6
1	11
1	7
1	8
1	5
1	3
1	222
1	9
1	8
1	26
1	222
1	4
1	222
1	222
1	222
1	222
1	6
1	13
1	6
1	38
1	8
1	222
1	222
1	8
1	38
1	4
1	4
1	222
1	11
1	15
1	222
1	21
1	222
1	38
1	3
1	15
1	4
1	6
1	222
1	8
1	26
1	8
1	4
1	10
1	222
1	13
1	222
1	222
1	5
1	10
1	222
1	3
1	38
1	4
1	20
1	16
1	4
1	16
1	15
1	222
1	20
1	17
1	11
1	222
1	7
1	29
1	6
1	222
1	17
1	17
1	222
1	9
1	222
1	29
1	20
2	5
2	9
2	6
2	6
2	8
2	6
2	10
2	7
2	8
2	4
2	5
2	9
2	9
2	19
2	6
2	13
2	13
2	7
2	8
2	3
2	3
2	5
2	8
2	4
2	3
2	3
2	7
2	4
2	3
2	3
2	4
2	21
2	7
2	7
2	38
2	6
2	38
2	3
2	6
2	6
2	17
2	4
2	11
2	15
2	3
2	7
2	6
2	20
2	3
2	6
2	4
2	3
2	13
2	8
2	3
2	7
2	3
2	8
2	4
2	26
2	5
2	3
2	6
2	13
2	7
2	12
2	5
2	5
2	4
2	17
2	3
3	4
3	4
3	7
3	5
3	8
3	5
