1	6124
1	40
1	13
1	10
1	8
1	13
1	40
1	11
1	12
1	13
1	201
1	10
1	10
1	35
1	10
1	12
1	201
1	21
1	22
1	8
1	26
1	13
1	11
1	201
1	40
1	40
1	7
1	15
1	5
1	38
1	7
1	201
1	12
1	16
1	201
1	11
1	10
1	16
1	201
1	7
1	12
1	9
1	16
1	11
1	8
1	11
1	8
1	8
1	20
1	201
1	16
1	7
1	10
1	7
1	8
1	8
1	6
1	17
1	19
1	10
1	201
1	7
1	18
1	11
1	23
1	11
1	9
1	16
1	38
1	201
1	10
1	16
1	22
1	6
1	12
1	12
1	11
1	201
1	21
1	201
1	10
1	201
1	21
1	21
1	9
1	18
1	8
1	7
1	6
1	201
1	12
1	12
1	23
1	10
1	6
1	8
1	8
1	16
1	21
1	16
1	32
1	17
1	8
1	6
1	19
1	8
1	18
1	14
1	7
1	9
1	12
1	201
1	201
1	9
1	20
1	201
1	13
1	6
1	201
1	17
1	19
1	8
1	201
1	23
1	7
1	13
1	11
1	26
1	201
1	18
1	10
1	15
1	19
1	23
1	7
1	18
1	22
1	11
1	12
1	11
1	10
1	4
1	21
1	8
1	21
1	17
1	38
1	35
1	13
1	6
1	7
1	7
1	7
1	3
1	8
1	12
1	201
1	11
1	201
1	23
1	4
1	201
1	23
1	16
1	10
1	201
1	16
1	17
1	17
1	12
1	7
1	9
1	8
1	13
1	11
1	16
1	16
1	23
1	6
1	13
1	13
1	6
1	7
1	8
1	16
1	26
1	4
1	8
1	8
1	6
1	6
1	18
1	35
1	4
1	201
1	5
1	19
1	17
1	22
1	32
1	12
1	10
1	5
1	201
1	201
1	8
1	20
1	32
1	11
1	12
1	201
1	22
1	201
1	6
1	16
1	13
1	26
1	7
1	9
1	17
1	10
1	38
1	201
1	26
1	201
1	15
1	18
1	18
1	32
1	4
1	6
1	21
1	201
1	7
1	13
1	38
1	12
1	13
1	201
1	7
1	16
1	13
1	4
1	23
1	23
1	12
1	13
1	22
1	201
1	12
1	38
1	8
1	7
1	15
1	7
1	13
1	38
1	10
1	201
1	4
1	16
1	16
1	7
1	11
1	38
1	16
1	10
1	22
1	23
1	22
1	6
1	201
1	13
1	8
1	201
1	35
1	8
1	6
1	12
1	201
1	10
1	38
1	9
1	38
1	7
1	6124
1	13
1	16
1	5
1	13
1	22
1	6124
1	13
1	7
1	13
1	10
1	15
1	17
1	201
1	16
1	8
1	201
1	17
1	23
1	12
1	32
1	8
1	13
1	13
1	22
1	6
1	23
1	23
1	23
1	19
1	17
1	5
1	18
1	6
1	5
1	5
1	26
1	9
1	13
1	8
1	201
1	38
1	18
1	13
1	8
1	26
1	10
1	201
1	32
1	16
1	7
1	7
1	23
1	13
1	12
1	5
1	201
1	201
1	26
1	40
1	8
1	7
1	23
1	4
1	8
1	8
1	6
1	6124
1	6124
1	201
1	8
1	5
1	40
1	23
1	8
1	6
1	7
1	16
1	7
1	8
1	40
1	4
1	23
1	13
1	10
1	201
1	19
1	38
1	40
1	38
1	18
1	32
1	38
1	15
1	11
1	8
1	5
1	7
1	6
1	15
1	12
1	5
1	8
1	6
1	17
1	5
1	6
1	9
1	7
1	22
1	13
1	7
1	6124
1	13
1	12
1	7
1	6
1	13
1	23
1	5
1	201
1	5
1	26
1	201
1	40
1	8
1	8
1	8
1	5
1	16
1	12
1	11
1	23
1	18
1	16
1	4
1	12
1	201
1	21
1	38
1	11
1	23
1	8
1	21
1	14
1	13
1	26
1	40
1	15
1	17
1	12
1	21
1	6
1	4
1	6
1	23
1	6124
1	5
1	3
1	23
1	9
1	7
1	22
1	10
1	12
1	15
1	35
1	6
1	4
1	9
1	201
1	23
1	11
1	10
1	10
1	23
1	10
1	38
1	16
1	201
1	8
1	18
1	5
1	4
1	12
1	10
1	32
1	11
1	5
1	35
1	201
1	23
1	13
1	4
1	4
1	26
1	13
1	26
1	4
1	6
1	8
1	7
1	22
1	16
1	38
1	4
1	32
1	3
1	32
1	23
1	23
1	15
1	7
1	10
1	6
1	23
1	201
1	12
1	8
1	10
1	4
1	38
1	13
1	13
1	18
1	35
1	10
1	32
1	5
1	10
1	4
1	201
1	11
1	22
1	12
1	26
1	10
1	6
1	35
1	22
1	7
1	11
1	17
1	3
1	6
1	15
1	22
1	17
1	12
1	32
1	4
1	8
1	11
1	18
1	5
1	9
1	12
1	7
1	17
1	16
1	7
1	7
1	11
1	8
1	18
1	7
1	26
1	8
1	16
1	13
1	7
1	5
1	18
1	20
1	13
1	20
1	3
1	8
1	23
1	12
1	5
1	201
1	201
1	32
1	6124
1	32
1	16
1	9
1	3
1	4
1	4
1	7
1	6
1	19
1	4
1	7
1	4
1	6
1	23
1	17
1	22
1	32
1	6
1	12
1	16
1	7
1	12
1	18
1	19
1	6
1	22
1	8
1	5
1	38
1	8
1	10
1	11
1	4
1	16
1	35
1	4
1	8
1	201
1	22
1	17
1	15
1	4
1	201
1	23
1	7
1	7
1	13
1	8
1	8
1	201
1	201
1	20
1	40
1	19
1	12
1	6
1	10
1	17
1	22
1	8
1	4
1	5
1	15
1	13
1	38
1	35
1	7
1	8
1	11
1	12
1	21
1	9
1	23
1	35
1	15
1	6
1	8
1	201
1	7
1	11
1	201
1	201
1	10
1	13
1	201
1	35
1	21
1	13
1	201
1	5
1	4
1	14
1	9
1	12
1	20
1	5
1	12
1	5
1	17
1	19
1	32
1	4
1	40
1	18
1	6
1	15
1	11
1	32
1	23
1	7
1	18
1	23
1	22
1	10
1	12
1	8
1	5
1	5
1	7
1	4
1	40
1	4
1	4
1	6
1	32
1	6124
1	3
1	18
1	7
1	6
1	201
1	3
1	21
1	201
1	201
1	11
1	5
1	11
1	5
1	5
1	5
1	201
1	7
1	13
1	13
1	12
1	23
1	14
1	12
1	12
1	23
1	6
1	38
1	11
1	201
1	8
1	26
1	9
1	22
1	16
1	11
1	4
1	5
1	18
1	8
1	8
1	12
1	8
1	201
1	5
1	10
1	8
1	11
1	8
1	17
1	6
1	18
1	22
1	21
1	8
1	4
1	5
1	23
1	201
1	4
1	16
1	22
1	13
1	201
1	38
1	7
1	5
1	10
1	9
1	5
1	5
1	5
1	12
1	5
1	8
1	8
1	5
1	11
1	21
1	15
1	13
1	9
1	18
1	201
1	18
1	22
1	22
1	4
1	23
1	5
1	5
1	8
1	7
1	201
1	3
1	20
1	23
1	4
1	201
1	18
1	6
1	10
1	20
1	21
1	23
1	4
1	12
1	21
1	11
1	16
1	6
1	5
1	3
1	8
1	17
1	8
1	4
1	10
1	23
1	8
1	4
1	15
1	10
1	201
1	201
1	10
1	4
1	19
1	18
1	6
1	18
1	201
1	8
1	6
1	4
1	4
1	18
1	13
1	16
1	21
1	26
1	17
1	16
1	40
1	21
1	10
1	3
1	3
1	3
1	7
1	23
1	23
1	8
1	3
1	6
1	13
1	7
1	6
1	201
1	201
1	8
1	17
1	21
1	17
1	201
1	38
1	4
1	4
1	17
1	6
1	11
1	8
1	4
1	11
1	35
1	16
1	7
1	12
1	5
1	201
1	23
1	17
1	9
1	8
1	4
1	4
1	6
1	5
1	10
1	3
1	16
1	10
1	12
1	10
1	4
1	12
1	9
1	8
1	22
1	4
1	9
1	40
1	11
1	4
1	11
1	201
1	10
1	14
1	35
1	201
1	21
1	21
1	16
1	6
1	8
1	4
1	26
1	8
1	10
1	201
1	4
1	11
1	4
1	10
1	201
1	21
1	5
1	5
1	3
1	201
1	9
1	6
1	13
1	12
1	32
1	23
1	20
1	7
1	4
1	5
1	5
1	4
1	15
1	7
1	23
1	7
1	16
1	13
1	22
1	8
1	6
1	6
1	201
1	23
1	22
1	19
1	8
1	4
1	4
1	201
1	11
1	4
1	8
2	8
2	6
2	4
2	3
2	4
2	5
2	5
2	4
2	11
2	4
2	5
2	4
2	13
2	7
2	16
2	6
2	8
2	9
2	3
2	4
2	9
2	3
2	5
2	13
2	38
2	5
2	5
2	8
2	4
2	6
2	6
2	15
2	10
2	3
2	9
2	13
2	201
2	22
2	6
2	8
2	5
2	5
2	6
2	7
2	13
2	11
2	10
2	4
2	9
2	6
2	11
2	3
2	10
2	4
2	16
2	7
2	5
2	4
2	6
2	13
2	5
2	8
2	11
2	5
2	15
2	6
2	5
2	5
2	7
2	10
2	4
2	8
2	10
2	18
2	5
2	6
2	16
2	8
2	13
2	6
2	12
2	4
2	9
2	7
2	11
2	7
2	4
2	5
2	5
2	13
2	8
2	4
2	201
2	4
2	10
2	3
2	5
2	4
2	3
2	12
2	3
2	5
2	4
2	5
2	5
2	5
2	3
2	12
2	5
2	5
2	3
2	8
2	5
2	8
2	4
2	4
2	8
2	5
2	12
2	12
2	4
2	9
2	12
2	8
2	8
2	3
2	13
2	3
2	10
2	4
2	7
2	5
2	7
2	9
2	5
2	7
2	5
2	7
2	3
2	12
2	6
2	6
2	5
2	8
2	5
2	18
2	4
2	6
2	14
2	5
2	9
2	6
2	6
2	5
2	9
2	21
2	5
2	3
2	5
2	13
2	6
2	14
2	4
2	4
2	4
2	4
2	3
2	3
2	15
2	3
2	8
2	5
2	6
2	9
2	7
2	7
2	12
2	3
2	13
2	17
2	13
2	4
2	16
2	8
2	7
2	15
2	3
2	8
2	3
2	38
2	8
2	7
2	12
2	5
2	5
2	12
2	8
3	9
3	7
3	4
3	5
3	13
3	4
3	8
3	8
3	6
3	6
3	6
3	4
3	4
3	4
3	5
3	4
3	5
3	7
3	11
3	6
3	5
4	23
4	5
4	6
4	5
4	10
4	8
