1	6124
1	39
1	39
1	8
1	18
1	28
1	8
1	10
1	9
1	8
1	39
1	8
1	6
1	12
1	9
1	10
1	6
1	10
1	16
1	3
1	10
1	8
1	8
1	18
1	12
1	10
1	19
1	12
1	12
1	7
1	9
1	16
1	9
1	10
1	9
1	7
1	10
1	7
1	7
1	8
1	18
1	91
1	4
1	9
1	8
1	7
1	91
1	5
1	5
1	12
1	10
1	91
1	10
1	6
1	8
1	9
1	12
1	18
1	14
1	91
1	18
1	91
1	9
1	39
1	7
1	91
1	5
1	91
1	12
1	91
1	10
1	3
1	9
1	5
1	10
1	8
1	6
1	6
1	91
1	9
1	12
1	6
1	6
1	7
1	19
1	10
1	8
1	7
1	3
1	10
1	91
1	5
1	6
1	39
1	10
1	7
1	5
1	7
1	91
1	91
1	5
1	18
1	7
1	28
1	91
1	5
1	16
1	9
1	14
1	5
1	12
1	12
1	10
1	16
1	6
1	5
1	17
1	7
1	10
1	19
1	12
1	7
1	18
1	10
1	39
1	10
1	39
1	7
1	5
1	17
1	7
1	7
1	12
1	8
1	39
1	10
1	18
1	10
1	6
1	11
1	14
1	18
1	10
1	10
1	5
1	10
1	18
1	4
1	17
1	19
1	91
1	39
1	91
1	91
1	14
1	5
1	39
1	39
1	7
1	11
1	12
1	10
1	19
1	19
1	12
1	6
1	17
1	39
1	18
1	3
1	16
1	10
1	6
1	4
1	28
1	6
1	5
1	16
1	4
1	14
1	10
1	5
1	7
1	4
1	10
1	19
1	91
1	18
1	91
1	6
1	7
1	6
1	4
1	8
1	6124
1	91
1	14
1	3
1	91
1	10
1	6
1	4
1	9
1	7
1	8
1	5
1	11
1	10
1	6
1	9
1	12
1	9
1	28
1	91
1	10
1	3
1	18
1	6
1	4
1	5
1	8
1	91
1	91
1	5
1	5
1	39
1	3
1	10
1	91
1	28
1	91
1	14
1	8
1	3
1	6
1	9
1	7
1	5
1	10
1	5
1	9
1	4
1	8
1	9
1	9
1	3
1	28
1	10
1	91
1	91
1	6
1	5
1	12
1	12
1	39
1	9
1	13
1	8
1	18
1	8
1	9
1	8
1	10
1	9
1	91
1	8
1	14
1	9
1	3
1	7
1	5
1	91
1	10
1	4
1	8
1	5
1	19
1	5
1	12
1	4
1	6
1	16
1	91
1	12
1	8
1	4
1	8
1	91
1	91
1	10
1	4
1	9
1	9
1	9
1	7
1	6
1	6
1	39
1	3
1	6
1	91
1	91
1	28
1	4
1	19
1	6
1	39
1	18
1	91
1	19
1	6
1	39
1	5
1	91
1	6
1	13
1	91
1	28
1	91
1	3
1	91
1	12
1	7
1	6124
1	11
1	10
1	9
1	19
1	10
1	6
1	5
1	5
1	8
1	28
1	9
1	3
1	10
1	4
1	91
1	18
1	10
1	91
1	4
1	18
1	10
1	4
1	5
1	91
1	10
1	18
1	6
1	91
1	5
1	5
1	18
1	4
1	5
1	14
1	7
1	10
1	3
1	6
1	4
1	8
1	10
1	10
1	91
1	6
1	12
1	91
1	11
1	10
1	16
1	6
1	10
1	39
1	13
1	9
1	4
1	91
1	91
1	14
1	28
1	10
1	6
1	9
1	91
1	10
1	12
1	19
1	7
1	39
1	91
1	9
1	5
1	39
1	4
1	5
1	10
1	4
1	9
1	28
1	3
1	6
1	10
1	28
1	17
1	14
1	10
1	91
1	4
1	6
1	5
1	10
1	10
1	7
1	91
1	10
1	12
1	18
1	6
1	4
1	7
1	39
1	3
1	4
1	5
1	91
1	3
1	19
1	10
1	18
1	4
1	91
1	3
2	4
2	3
2	6
2	3
2	10
2	10
2	12
2	9
2	5
2	6
2	4
2	3
2	10
2	6
2	7
2	5
2	4
2	4
2	5
2	6
2	10
2	4
2	9
2	4
2	3
2	9
2	17
2	9
2	13
2	10
2	5
2	3
2	8
2	3
2	6
2	6
2	4
2	5
2	18
2	5
2	8
2	6
2	7
2	12
2	3
2	5
2	5
2	7
2	9
2	4
2	5
2	3
2	4
2	5
2	4
2	3
2	4
2	5
2	6
2	5
2	12
2	8
2	5
2	6
2	8
2	7
2	3
2	5
2	5
2	17
2	6
2	3
2	5
2	3
2	7
2	5
3	6
3	4
3	6
3	5
3	4
3	4
