1	6124
1	19
1	592
1	10
1	24
1	9
1	14
1	17
1	592
1	15
1	592
1	592
1	19
1	592
1	17
1	592
1	10
1	12
1	17
1	10
1	19
1	9
1	592
1	15
1	29
1	7
1	592
1	12
1	10
1	29
1	592
1	592
1	20
1	592
1	10
1	12
1	8
1	592
1	8
1	592
1	10
1	592
1	592
1	592
1	24
1	592
1	10
1	17
1	14
1	17
1	6
1	7
1	14
1	17
1	6
1	9
1	24
1	6
1	10
1	20
1	592
1	592
1	29
1	592
1	592
1	7
1	592
1	592
1	19
1	592
1	592
1	592
1	592
1	592
1	9
1	24
1	592
1	22
1	592
1	592
1	8
1	16
1	14
1	592
1	592
1	592
1	592
1	592
1	22
1	592
1	592
1	592
1	14
1	18
1	9
1	592
1	592
1	592
1	16
1	592
1	592
1	592
1	592
1	22
1	592
1	18
1	5
1	592
1	592
1	21
1	14
1	592
1	8
1	7
1	592
1	16
1	17
1	8
1	6
1	12
1	14
1	22
1	592
1	14
1	592
1	4
1	592
1	8
1	21
1	592
1	592
1	592
1	14
1	592
1	592
1	592
1	11
1	592
1	14
1	8
1	14
1	9
1	7
1	14
1	8
1	592
1	17
1	9
1	592
1	6
1	17
1	24
1	8
1	14
1	4
1	7
1	7
1	11
1	8
1	22
1	29
1	11
1	592
1	592
1	16
1	12
1	592
1	592
1	592
1	9
1	592
1	9
1	24
1	592
1	8
1	14
1	592
1	592
1	6
1	592
1	592
1	592
1	5
1	4
1	592
1	12
1	592
1	592
1	592
1	592
1	16
1	4
1	6
1	6
1	29
1	592
1	592
1	11
1	592
1	16
1	5
1	592
1	12
1	22
1	10
1	10
1	7
1	6
1	592
1	20
1	592
1	10
1	11
1	592
1	14
1	8
1	21
1	3
1	8
1	5
1	16
1	592
1	592
1	8
1	592
1	21
1	592
1	19
1	592
1	592
1	8
1	17
1	24
1	6
1	10
1	24
1	592
1	592
1	592
1	592
1	7
1	15
1	9
1	592
1	592
1	592
1	592
1	592
1	592
1	592
1	9
1	6
1	21
1	592
1	17
1	5
1	592
1	592
1	592
1	592
1	17
1	7
1	6
1	8
1	16
1	592
1	592
1	7
1	592
1	16
1	592
1	8
1	14
1	9
1	13
1	19
1	29
1	9
1	592
1	11
1	5
1	5
1	11
1	592
1	592
1	10
1	4
1	5
1	8
1	19
1	17
1	9
1	592
1	592
1	8
1	14
1	18
1	4
1	7
1	592
1	592
1	592
1	592
1	592
1	5
1	22
1	18
1	10
1	10
1	592
1	592
1	10
1	21
1	592
1	592
1	11
1	16
1	592
1	4
1	592
1	592
1	592
1	8
1	592
1	592
1	16
1	592
1	16
1	24
1	592
1	29
1	9
1	4
1	592
1	592
1	6
1	13
1	7
1	24
1	592
1	592
1	592
1	3
1	592
1	592
1	20
1	21
1	592
1	17
1	6
1	592
1	19
1	12
1	5
1	592
1	12
1	592
1	9
1	10
1	22
1	592
1	592
1	592
1	592
1	11
1	13
1	592
1	17
1	592
1	592
1	17
1	6
1	592
1	592
1	592
1	592
1	592
1	11
1	592
1	20
1	592
1	6
1	592
1	4
1	592
1	592
1	10
1	592
1	592
1	592
1	592
1	6
1	592
1	17
1	592
1	592
1	592
1	5
1	12
1	7
1	6
1	5
1	592
1	10
1	14
1	12
1	22
1	9
1	6
1	12
1	17
1	4
1	5
1	6
1	6
1	6
1	592
1	24
1	592
1	592
1	21
1	9
1	8
1	9
1	19
1	11
1	4
1	9
1	9
1	17
1	592
1	592
1	592
1	592
1	592
1	22
1	592
1	7
1	14
1	4
1	592
1	11
1	5
1	13
1	17
1	9
1	592
1	10
1	7
1	29
1	592
1	7
1	14
1	7
1	12
1	6
1	20
1	592
1	592
1	6
1	592
1	592
1	592
1	14
1	17
1	592
1	592
1	4
1	592
1	7
1	12
1	4
1	17
1	15
1	8
1	29
1	17
1	592
1	592
1	7
1	6
1	5
1	592
1	592
1	14
1	592
1	592
1	5
1	592
1	17
1	9
1	592
1	16
1	592
1	19
1	592
1	14
1	592
1	592
1	10
1	592
1	7
1	592
1	9
1	592
1	19
1	24
1	592
1	14
1	6
1	592
1	592
1	8
1	7
1	17
1	592
1	14
1	592
1	592
1	29
1	16
1	592
1	592
1	12
1	6
1	24
1	6
1	16
1	592
1	9
1	5
1	592
1	18
1	592
1	592
1	7
1	592
1	592
1	24
1	9
1	10
1	18
1	592
1	592
1	12
1	14
1	6
1	592
1	6
1	592
1	592
1	7
1	22
1	7
1	3
1	11
1	592
1	6
1	592
1	19
1	29
1	592
1	592
1	592
1	4
1	11
1	592
1	592
1	592
1	592
1	592
1	592
1	8
1	592
1	10
1	15
1	8
1	592
1	17
1	592
1	592
1	8
1	6
1	592
1	7
1	592
1	7
1	592
1	592
1	8
1	6
1	22
1	592
1	12
1	592
1	18
1	10
1	6
1	592
1	7
1	11
1	592
1	592
1	12
1	7
1	592
1	12
1	592
1	6
1	592
1	592
1	592
1	592
1	5
1	6
1	7
1	592
1	592
1	4
1	592
1	6
1	21
1	592
1	7
1	11
1	592
1	21
1	592
1	8
1	592
1	9
1	592
1	8
1	9
1	592
1	592
1	11
1	21
1	19
1	4
1	11
1	4
1	15
1	592
1	18
1	592
1	6
1	592
1	592
1	592
1	592
1	592
1	5
1	24
1	21
1	592
1	9
1	14
1	592
1	7
1	3
1	17
1	592
1	14
1	9
1	10
1	19
1	12
1	16
1	592
1	592
1	592
1	592
1	8
1	17
1	592
1	592
1	19
1	592
1	11
1	9
1	14
1	592
1	29
1	592
1	592
1	11
1	19
1	19
1	5
1	17
1	15
1	4
1	592
1	592
1	592
1	5
1	4
1	16
1	592
1	13
1	24
1	22
1	8
1	14
1	592
1	592
1	592
1	10
1	4
1	5
1	5
1	3
1	18
1	9
1	592
1	592
1	7
1	24
1	12
1	5
1	592
1	592
1	14
1	592
1	5
1	6
1	11
1	7
1	592
1	592
1	22
1	8
1	592
1	592
1	592
1	10
1	592
1	20
1	22
1	3
1	592
1	592
1	7
1	8
1	592
1	592
1	592
1	14
1	7
1	14
1	7
1	24
1	20
1	6124
1	592
1	7
1	592
1	592
1	10
1	6
1	7
1	592
1	10
1	14
1	16
1	11
1	592
1	592
1	592
1	592
1	17
1	3
1	6
1	16
1	21
1	21
1	592
1	592
1	592
1	6
1	17
1	592
1	592
1	592
1	592
1	3
1	12
1	14
1	592
1	16
1	7
1	9
1	6
1	592
1	12
1	3
1	10
1	14
1	19
1	592
1	592
1	5
1	592
1	11
1	19
1	7
1	592
1	8
1	592
1	17
1	592
1	592
1	9
1	592
1	9
1	592
1	19
1	592
1	592
1	4
1	12
1	16
1	4
1	10
1	592
1	19
1	592
1	12
1	592
1	8
1	29
1	592
1	8
1	29
1	21
1	24
1	4
1	4
1	17
1	8
1	592
1	16
1	3
1	20
1	592
1	592
1	592
1	4
1	22
1	22
1	592
1	29
1	592
1	592
1	592
1	17
1	10
1	592
1	13
1	14
1	4
1	592
1	14
1	592
1	9
1	4
1	592
1	592
1	8
1	592
1	24
1	3
1	10
1	592
1	592
1	592
1	592
1	14
1	16
1	4
1	592
1	14
1	20
1	9
1	592
1	592
1	3
1	592
1	592
1	7
1	19
1	592
1	7
1	20
1	592
1	17
1	592
1	592
1	22
1	592
1	8
1	21
1	592
1	592
1	592
1	592
1	16
1	592
1	592
1	15
1	5
1	10
1	4
1	592
1	8
1	22
1	592
1	9
1	592
1	12
1	24
1	592
1	592
1	22
1	4
1	592
1	592
1	592
1	592
1	592
1	7
1	16
1	592
1	19
1	6
1	14
1	4
1	592
1	592
1	592
1	17
1	6
1	19
1	6
1	4
1	592
1	7
1	7
1	4
1	592
1	6
1	9
1	22
1	592
1	7
1	592
1	592
1	3
1	6
1	19
1	592
1	592
1	17
1	592
1	592
1	9
1	10
1	592
1	592
1	4
1	592
1	16
1	592
1	17
1	592
1	16
1	12
1	592
1	592
1	14
1	9
1	3
1	22
1	6
1	4
1	592
1	11
1	592
1	592
1	592
1	592
1	592
1	8
1	592
1	20
1	2
1	592
1	5
1	592
1	21
1	5
1	14
1	14
1	592
1	19
1	592
1	592
1	16
1	3
1	592
1	6
1	6
1	592
1	592
1	20
1	22
1	9
1	24
1	4
1	592
1	6
1	11
1	5
1	6
1	12
1	24
1	22
1	17
1	592
1	592
1	6
1	16
1	592
1	15
1	10
1	592
1	6
1	21
1	592
1	3
1	14
1	4
1	24
1	592
1	592
1	12
1	592
1	592
1	592
1	19
1	592
1	592
1	16
1	9
1	8
1	4
1	592
1	17
1	592
1	592
1	6
1	592
1	592
1	7
1	6
1	592
1	7
1	4
1	592
1	592
1	592
1	13
1	592
1	8
1	8
1	592
1	7
1	18
1	592
1	19
1	592
1	592
1	16
1	592
1	592
1	9
1	21
1	6
1	4
1	22
1	24
1	17
1	592
1	11
1	592
1	6
1	592
1	592
1	3
1	10
1	5
1	4
1	19
1	11
1	22
1	592
1	592
1	592
2	16
2	6
2	12
2	4
2	592
2	8
2	6
2	5
2	6
2	3
2	6
2	8
2	5
2	6
2	6
2	6
2	6
2	5
2	10
2	4
2	4
2	6
2	11
2	4
2	4
2	4
2	14
2	4
2	3
2	7
2	11
2	9
2	592
2	8
2	4
2	5
2	7
2	10
2	592
2	3
2	3
2	4
2	4
2	19
2	6
2	4
2	11
2	9
2	7
2	13
2	4
2	6
2	6
2	10
2	3
2	10
2	8
2	6
2	4
2	9
2	4
2	7
2	4
2	8
2	3
2	6
2	4
2	3
2	7
2	6
2	20
2	5
2	22
2	5
2	17
2	5
2	4
2	4
2	6
2	21
2	3
2	3
2	12
2	4
2	3
2	21
2	3
2	21
2	29
2	8
2	4
2	4
2	7
2	6
2	6
2	4
2	16
2	4
2	5
2	5
2	8
2	6
2	14
2	3
2	4
2	5
2	7
2	6
2	4
2	3
2	19
2	8
2	21
2	4
2	6
2	14
2	3
2	7
2	6
2	5
2	6
2	3
2	14
2	11
2	4
2	10
2	6
2	3
2	6
2	7
2	3
2	10
2	12
2	13
2	10
2	6
2	16
2	12
2	15
2	9
2	4
2	6
2	5
2	12
2	8
2	7
2	8
2	6
2	3
2	3
2	3
2	5
2	19
2	3
2	8
2	5
2	5
2	3
2	7
3	4
3	4
3	8
3	4
3	6
3	6
3	7
3	6
3	4
3	6
3	8
3	9
3	5
3	4
3	6
3	6
3	5
3	4
3	7
3	4
4	7
4	7
