1	6124
1	15
1	8
1	7
1	7
1	8
1	14
1	11
1	161
1	26
1	14
1	6124
1	10
1	14
1	8
1	15
1	18
1	26
1	6
1	7
1	9
1	17
1	6
1	28
1	22
1	7
1	6
1	161
1	6
1	5
1	14
1	10
1	12
1	20
1	20
1	20
1	161
1	20
1	10
1	14
1	161
1	20
1	10
1	8
1	161
1	10
1	17
1	14
1	15
1	28
1	5
1	17
1	18
1	20
1	8
1	15
1	14
1	13
1	19
1	161
1	5
1	4
1	8
1	11
1	6
1	13
1	7
1	28
1	13
1	10
1	22
1	161
1	25
1	161
1	11
1	20
1	7
1	20
1	18
1	10
1	161
1	4
1	10
1	28
1	20
1	161
1	12
1	161
1	10
1	8
1	4
1	3
1	28
1	10
1	20
1	20
1	161
1	161
1	161
1	161
1	3
1	26
1	28
1	23
1	161
1	9
1	28
1	11
1	20
1	11
1	19
1	18
1	9
1	25
1	4
1	18
1	8
1	161
1	6
1	14
1	17
1	20
1	161
1	8
1	25
1	17
1	11
1	161
1	7
1	17
1	10
1	7
1	20
1	8
1	19
1	161
1	7
1	13
1	14
1	161
1	161
1	7
1	20
1	15
1	161
1	9
1	8
1	19
1	5
1	13
1	161
1	6
1	6
1	20
1	26
1	22
1	161
1	7
1	14
1	15
1	8
1	161
1	26
1	161
1	161
1	22
1	8
1	161
1	9
1	14
1	10
1	4
1	161
1	14
1	19
1	11
1	6
1	161
1	161
1	12
1	161
1	25
1	22
1	23
1	18
1	22
1	10
1	14
1	161
1	25
1	161
1	7
1	20
1	14
1	7
1	10
1	25
1	25
1	161
1	6
1	5
1	161
1	14
1	10
1	161
1	5
1	161
1	17
1	4
1	161
1	22
1	10
1	17
1	5
1	3
1	161
1	15
1	14
1	10
1	15
1	23
1	4
1	3
1	161
1	22
1	5
1	25
1	26
1	10
1	18
1	6
1	8
1	19
1	7
1	5
1	18
1	3
1	28
1	8
1	5
1	9
1	6
1	28
1	6
1	10
1	12
1	7
1	25
1	15
1	161
1	161
1	4
1	6
1	18
1	9
1	161
1	25
1	15
1	22
1	6
1	6
1	8
1	13
1	26
1	14
1	17
1	5
1	7
1	25
1	7
1	18
1	3
1	20
1	28
1	15
1	6
1	10
1	14
1	28
1	17
1	9
1	161
1	4
1	23
1	161
1	13
1	6
1	8
1	161
1	14
1	10
1	19
1	5
1	161
1	12
1	15
1	6
1	161
1	15
1	9
1	8
1	9
1	3
1	19
1	161
1	161
1	22
1	20
1	3
1	3
1	9
1	13
1	5
1	3
1	8
1	4
1	13
1	13
1	6
1	14
1	25
1	4
1	19
1	4
1	28
1	26
1	7
1	9
1	20
1	4
1	18
1	5
1	5
1	20
1	10
1	23
1	17
1	6
1	14
1	6
1	4
1	19
1	5
1	8
1	161
1	4
1	14
1	10
1	23
1	161
1	10
1	161
1	8
1	14
1	10
1	18
1	161
1	8
1	17
1	13
1	8
1	14
1	12
1	13
1	5
1	26
1	5
1	10
1	11
1	5
1	13
1	14
1	3
1	13
1	8
1	20
1	6
1	10
1	5
1	20
1	10
1	161
1	17
1	20
1	10
1	22
1	20
1	161
1	8
1	9
1	6
1	8
1	161
1	5
1	6
1	10
1	161
1	18
1	28
1	9
1	161
1	7
1	161
1	10
1	12
1	22
1	4
1	17
1	23
1	18
1	8
1	10
1	12
1	18
1	161
1	12
1	14
1	5
1	161
1	5
1	161
1	8
1	5
1	161
1	4
1	4
1	3
1	17
1	28
1	5
1	6
1	161
1	19
1	10
1	25
1	4
1	18
1	9
1	17
1	26
1	10
1	20
1	161
1	7
1	161
1	6
1	10
1	9
1	14
1	5
1	23
1	26
1	161
1	22
1	26
1	4
1	18
1	19
1	9
1	4
1	10
1	7
1	12
1	6
1	17
1	6
1	161
1	17
1	9
1	17
1	161
1	8
1	26
1	20
1	161
1	5
1	23
1	18
1	28
1	23
1	161
1	161
1	4
1	9
1	12
1	20
1	13
1	12
1	20
1	10
1	20
1	25
1	25
1	161
1	5
1	14
1	10
1	12
1	5
1	161
1	5
1	6
1	5
1	8
1	5
1	3
1	8
1	17
1	4
1	11
1	18
1	6
1	18
1	12
1	161
1	161
1	6
1	7
1	25
1	17
1	5
1	4
1	161
1	7
1	20
1	18
1	11
1	161
1	15
1	12
1	4
1	28
1	10
1	28
1	18
1	161
1	8
1	17
1	3
1	14
1	17
1	20
1	25
1	26
1	161
1	6
1	12
1	17
1	17
1	26
1	4
1	4
1	7
1	19
1	5
1	5
1	4
1	4
1	4
1	3
1	20
1	161
1	6
1	20
1	9
1	161
1	161
1	19
1	4
1	4
1	6
1	8
1	5
1	7
1	14
1	7
1	7
1	17
1	161
1	22
1	18
1	161
1	4
1	4
1	7
1	15
1	6
1	161
1	18
1	5
1	161
1	8
1	6
1	22
1	10
1	161
1	161
1	14
1	7
1	3
1	10
1	11
1	28
1	3
1	18
1	17
1	161
1	4
1	28
1	161
1	5
1	161
1	23
1	161
1	17
1	25
1	5
1	4
1	5
1	3
1	20
1	161
1	20
1	161
1	13
1	6
1	161
1	7
1	5
1	18
1	15
1	3
1	7
1	13
1	6
1	4
1	28
1	26
1	4
2	4
2	4
2	3
2	5
2	8
2	5
2	4
2	26
2	5
2	3
2	5
2	6
2	3
2	22
2	4
2	5
2	10
2	5
2	6
2	8
2	5
2	5
2	4
2	4
2	3
2	4
2	6
2	5
2	9
2	10
2	3
2	6
2	3
2	4
2	3
2	7
2	15
2	3
2	15
2	6
2	7
2	4
2	5
2	3
2	161
2	6
2	9
2	10
2	4
2	7
2	4
2	6
2	11
2	23
2	5
2	3
2	10
2	3
2	4
2	5
2	3
2	4
2	5
2	7
2	7
2	4
2	14
2	8
2	5
2	4
2	6
2	4
2	3
2	5
2	4
2	4
2	4
2	23
2	7
2	10
2	12
2	3
2	4
2	3
2	4
2	4
2	5
2	6
2	5
2	3
2	17
2	4
2	3
3	17
3	4
3	8
3	5
3	4
3	4
3	4
3	4
3	6
3	5
3	4
3	4
