1	6124
1	658
1	658
1	658
1	22
1	658
1	658
1	658
1	658
1	658
1	25
1	658
1	25
1	658
1	658
1	8
1	658
1	658
1	658
1	658
1	658
1	658
1	13
1	658
1	658
1	10
1	8
1	658
1	16
1	9
1	658
1	27
1	9
1	658
1	14
1	658
1	658
1	658
1	7
1	16
1	658
1	658
1	658
1	14
1	658
1	658
1	658
1	658
1	17
1	658
1	9
1	658
1	658
1	658
1	658
1	12
1	658
1	8
1	4
1	6
1	658
1	22
1	8
1	658
1	658
1	658
1	658
1	11
1	658
1	658
1	25
1	658
1	658
1	24
1	658
1	658
1	658
1	21
1	8
1	8
1	6
1	658
1	10
1	658
1	658
1	24
1	14
1	658
1	658
1	658
1	13
1	8
1	24
1	13
1	25
1	12
1	7
1	27
1	6124
1	658
1	10
1	658
1	6
1	27
1	658
1	658
1	658
1	658
1	12
1	13
1	658
1	658
1	21
1	8
1	658
1	658
1	658
1	658
1	27
1	24
1	658
1	27
1	11
1	24
1	14
1	658
1	7
1	658
1	658
1	658
1	13
1	658
1	11
1	11
1	658
1	25
1	3
1	27
1	658
1	658
1	658
1	6
1	658
1	24
1	658
1	658
1	658
1	10
1	658
1	14
1	8
1	658
1	658
1	12
1	21
1	14
1	658
1	658
1	658
1	658
1	658
1	13
1	658
1	658
1	658
1	658
1	658
1	658
1	658
1	25
1	8
1	658
1	658
1	658
1	658
1	24
1	658
1	14
1	658
1	9
1	22
1	658
1	9
1	658
1	11
1	658
1	658
1	25
1	658
1	5
1	25
1	658
1	658
1	26
1	9
1	18
1	658
1	658
1	658
1	658
1	6
1	25
1	658
1	13
1	658
1	658
1	658
1	10
1	658
1	658
1	4
1	26
1	658
1	21
1	658
1	658
1	658
1	10
1	12
1	658
1	658
1	658
1	13
1	658
1	22
1	8
1	17
1	658
1	658
1	658
1	658
1	8
1	13
1	658
1	4
1	658
1	2
1	658
1	11
1	658
1	8
1	22
1	658
1	658
1	658
1	24
1	9
1	658
1	4
1	9
1	8
1	27
1	7
1	5
1	658
1	21
1	21
1	658
1	5
1	18
1	658
1	658
1	658
1	658
1	658
1	658
1	25
1	658
1	8
1	7
1	18
1	8
1	14
1	658
1	10
1	658
1	6
1	658
1	658
1	8
1	658
1	658
1	658
1	658
1	24
1	11
1	658
1	7
1	658
1	22
1	658
1	658
1	7
1	658
1	24
1	8
1	6
1	24
1	7
1	658
1	658
1	658
1	658
1	658
1	658
1	10
1	21
1	658
1	7
1	21
1	658
1	658
1	658
1	8
1	658
1	658
1	24
1	5
1	25
1	10
1	658
1	12
1	658
1	658
1	10
1	13
1	14
1	658
1	7
1	5
1	24
1	658
1	658
1	9
1	8
1	5
1	8
1	8
1	8
1	658
1	658
1	8
1	5
1	18
1	6
1	658
1	658
1	8
1	5
1	658
1	13
1	6
1	17
1	24
1	658
1	8
1	658
1	658
1	658
1	17
1	658
1	26
1	658
1	24
1	658
1	658
1	658
1	658
1	658
1	658
1	13
1	14
1	658
1	658
1	12
1	658
1	5
1	7
1	658
1	658
1	658
1	658
1	9
1	658
1	24
1	658
1	14
1	658
1	8
1	658
1	658
1	658
1	658
1	658
1	658
1	658
1	658
1	658
1	658
1	658
1	658
1	11
1	12
1	658
1	658
1	658
1	8
1	658
1	658
1	658
1	658
1	658
1	658
1	8
1	10
1	26
1	658
1	658
1	21
1	13
1	26
1	658
1	658
1	6
1	658
1	10
1	658
1	13
1	27
1	21
1	658
1	658
1	6
1	658
1	658
1	26
1	8
1	658
1	14
1	658
1	5
1	658
1	658
1	24
1	5
1	658
1	658
1	13
1	658
1	21
1	5
1	18
1	658
1	6
1	658
1	658
1	3
1	18
1	658
1	22
1	11
1	26
1	13
1	658
1	10
1	17
1	9
1	658
1	658
1	12
1	27
1	658
1	658
1	7
1	658
1	658
1	7
1	658
1	4
1	24
1	9
1	22
1	22
1	13
1	658
1	8
1	658
1	658
1	658
1	8
1	6
1	658
1	6
1	658
1	4
1	658
1	658
1	658
1	658
1	21
1	21
1	24
1	658
1	9
1	21
1	26
1	9
1	18
1	658
1	24
1	658
1	5
1	12
1	658
1	24
1	24
1	24
1	13
1	658
1	658
1	14
1	8
1	658
1	7
1	658
1	6
1	658
1	10
1	14
1	21
1	14
1	658
1	658
1	658
1	13
1	658
1	658
1	6
1	658
1	658
1	658
1	658
1	658
1	26
1	658
1	658
1	9
1	10
1	658
1	658
1	12
1	658
1	26
1	27
1	7
1	658
1	17
1	21
1	26
1	24
1	12
1	16
1	658
1	14
1	658
1	658
1	5
1	6
1	658
1	8
1	18
1	658
1	7
1	658
1	6
1	658
1	7
1	658
1	658
1	24
1	658
1	658
1	6
1	658
1	658
1	658
1	658
1	658
1	658
1	10
1	658
1	11
1	658
1	9
1	658
1	658
1	7
1	8
1	4
1	7
1	658
1	658
1	16
1	658
1	658
1	658
1	658
1	658
1	24
1	16
1	658
1	658
1	658
1	658
1	27
1	24
1	658
1	658
1	658
1	22
1	658
1	658
1	16
1	658
1	658
1	658
1	7
1	7
1	5
1	658
1	658
1	16
1	17
1	658
1	658
1	16
1	658
1	658
1	658
1	658
1	12
1	6
1	658
1	6
1	658
1	658
1	658
1	658
1	5
1	658
1	4
1	7
1	658
1	658
1	24
1	21
1	658
1	658
1	8
1	24
1	7
1	16
1	658
1	5
1	658
1	5
1	658
1	658
1	27
1	7
1	658
1	658
1	7
1	658
1	5
1	658
1	658
1	658
1	658
1	658
1	658
1	7
1	11
1	7
1	658
1	658
1	16
1	658
1	22
1	27
1	658
1	658
1	24
1	658
1	658
1	658
1	4
1	17
1	24
1	658
1	658
1	11
1	21
1	14
1	658
1	658
1	658
1	4
1	658
1	9
1	6
1	658
1	658
1	5
1	658
1	658
1	658
1	24
1	658
1	658
1	658
1	658
1	25
1	658
1	658
1	658
1	658
1	658
1	21
1	658
1	22
1	26
1	25
1	658
1	658
1	12
1	8
1	658
1	658
1	5
1	658
1	658
1	658
1	658
1	658
1	658
1	658
1	658
1	658
1	24
1	658
1	658
1	658
1	658
1	7
1	658
1	9
1	658
1	658
1	26
1	658
1	24
1	9
1	658
1	8
1	11
1	658
1	658
1	658
1	14
1	658
1	13
1	658
1	658
1	658
1	658
1	3
1	658
1	12
1	658
1	8
1	658
1	658
1	4
1	11
1	8
1	658
1	658
1	14
1	8
1	658
1	658
1	658
1	658
1	658
1	7
1	17
1	658
1	5
1	9
1	658
1	25
1	13
1	658
1	658
1	6
1	658
1	658
1	4
1	26
1	658
1	658
1	4
1	14
1	658
1	658
1	27
1	16
1	658
1	8
1	8
1	658
1	658
1	8
1	658
1	658
1	658
1	658
1	9
1	10
1	5
1	4
1	9
1	658
1	21
1	658
1	658
1	7
1	658
1	658
1	658
1	10
1	658
1	16
1	13
1	8
1	658
1	7
1	13
1	658
1	22
1	658
1	658
1	12
1	658
1	658
1	16
1	8
1	658
1	658
1	658
1	658
1	14
1	22
1	10
1	658
1	24
1	658
1	17
1	658
1	658
1	658
1	25
1	658
1	658
1	658
1	24
1	24
1	26
1	658
1	658
1	658
1	658
1	21
1	658
1	27
1	21
1	658
1	658
1	3
1	6
1	658
1	658
1	8
1	658
1	658
1	658
1	658
1	658
1	658
1	658
1	658
1	658
1	658
1	27
1	6
1	14
1	658
1	658
1	12
1	4
1	658
1	12
1	3
1	9
1	658
1	658
1	658
1	3
1	24
1	658
1	22
1	658
1	24
1	658
1	24
1	4
1	658
1	658
1	658
1	658
1	658
1	8
1	3
1	658
1	10
1	658
1	14
1	13
1	658
1	658
1	658
1	658
1	22
1	24
1	21
1	4
1	7
1	8
1	4
1	17
1	658
1	658
1	658
1	7
1	658
1	10
1	658
1	658
1	5
1	658
1	4
1	10
1	658
1	658
1	658
1	658
1	658
1	16
1	10
1	24
1	658
1	21
1	658
1	658
1	8
1	7
1	7
1	16
1	658
1	21
1	658
1	10
1	658
1	658
1	4
1	13
1	658
1	658
1	24
1	4
1	4
1	658
1	21
1	658
1	6
1	658
1	658
1	8
1	658
1	658
1	6
1	16
1	658
1	658
1	658
1	658
1	7
1	658
1	14
1	10
1	11
1	658
1	25
1	3
1	658
1	24
1	658
1	7
1	658
1	658
1	658
1	658
1	658
1	4
1	4
1	658
1	14
1	658
1	658
1	658
1	658
1	13
1	24
1	658
1	8
1	658
1	658
1	658
1	7
1	658
1	658
1	24
1	5
1	658
1	24
1	658
1	5
1	24
1	4
1	658
1	8
1	21
1	24
1	658
1	658
1	7
1	6
2	4
2	21
2	11
2	8
2	8
2	5
2	8
2	6
2	6
2	8
2	11
2	3
2	6
2	26
2	658
2	3
2	26
2	14
2	10
2	6
2	3
2	6
2	8
2	5
2	6
2	6
2	9
2	10
2	3
2	8
2	8
2	6
2	10
2	4
2	13
2	7
2	6
2	4
2	4
2	6
2	8
2	24
2	13
2	3
2	658
2	7
2	8
2	5
2	7
2	11
2	5
2	5
2	3
2	658
2	6
2	22
2	5
2	13
2	21
2	5
2	4
2	4
2	4
2	3
2	11
2	11
2	4
2	4
2	3
2	7
2	12
2	5
2	4
2	4
2	9
2	3
2	3
2	24
2	22
2	5
2	4
2	13
2	3
2	5
2	5
2	5
2	4
2	7
2	11
2	5
2	5
2	4
2	5
3	14
3	6
3	5
3	4
3	7
3	6
3	4
3	21
3	6
4	6
4	5
