1	6124
1	6124
1	8
1	91
1	45
1	10
1	91
1	91
1	45
1	7
1	91
1	91
1	13
1	4
1	91
1	45
1	91
1	10
1	8
1	13
1	8
1	91
1	6124
1	45
1	13
1	7
1	7
1	3
1	7
1	45
1	6124
1	7
1	91
1	6124
1	6
1	3
1	45
1	4
1	6
1	4
1	8
1	7
1	8
1	45
1	4
1	7
1	91
1	9
1	91
1	7
1	91
1	7
1	91
1	91
1	4
1	45
1	91
1	7
1	91
1	13
1	91
1	13
1	45
1	6124
1	6124
1	91
1	45
1	91
1	91
1	3
1	5
1	91
1	91
1	6
1	91
1	7
1	9
1	6
1	91
1	4
1	91
1	10
1	45
1	91
1	3
1	7
1	7
1	91
1	91
1	13
1	91
1	6124
1	9
1	7
1	4
1	91
1	91
1	6124
1	5
1	4
1	6124
1	45
1	45
1	91
1	45
1	45
1	91
1	91
1	7
1	91
1	4
1	4
1	4
1	91
1	45
1	91
1	91
1	4
1	91
1	91
1	91
1	45
1	45
1	7
1	91
1	8
1	5
1	4
1	91
1	2
1	91
1	45
1	91
1	45
1	4
1	91
1	91
1	91
1	91
1	7
1	4
1	91
1	91
1	7
1	91
1	91
1	91
1	10
1	13
1	4
1	6
1	91
1	91
1	45
1	91
1	4
1	7
1	91
1	4
1	91
1	3
1	8
1	6124
1	3
1	91
1	7
1	9
1	6124
1	91
1	45
1	91
1	91
1	91
1	91
1	5
1	5
1	10
1	9
1	91
1	5
1	45
1	6
1	13
1	4
1	7
1	45
1	8
1	45
1	91
1	91
1	3
1	6
1	91
1	6
1	91
1	91
1	45
1	45
1	13
1	91
1	9
2	7
2	4
2	7
2	5
2	4
2	7
2	3
2	7
2	6
2	7
2	3
2	45
2	3
2	3
2	4
2	3
2	8
2	6
2	4
2	5
2	6
2	3
2	5
3	4
3	4
3	4
3	6
