1	6124
1	1050
1	1050
1	1050
1	1050
1	1050
1	1050
1	1050
1	15
1	13
1	1050
1	6124
1	1050
1	1050
1	1050
1	10
1	1050
1	1050
1	22
1	20
1	10
1	1050
1	10
1	1050
1	1050
1	13
1	18
1	1050
1	14
1	1050
1	18
1	1050
1	1050
1	1050
1	1050
1	10
1	8
1	1050
1	13
1	1050
1	10
1	1050
1	1050
1	1050
1	1050
1	1050
1	14
1	12
1	1050
1	1050
1	1050
1	1050
1	1050
1	7
1	6124
1	14
1	14
1	1050
1	1050
1	22
1	1050
1	14
1	1050
1	8
1	6
1	6124
1	1050
1	18
1	1050
1	1050
1	1050
1	6
1	11
1	1050
1	15
1	1050
1	1050
1	1050
1	1050
1	1050
1	1050
1	1050
1	14
1	1050
1	1050
1	1050
1	13
1	1050
1	10
1	1050
1	1050
1	1050
1	1050
1	1050
1	22
1	1050
1	1050
1	6124
1	20
1	11
1	1050
1	1050
1	17
1	1050
1	1050
1	1050
1	22
1	1050
1	20
1	16
1	17
1	19
1	10
1	8
1	1050
1	7
1	1050
1	12
1	1050
1	6
1	1050
1	22
1	1050
1	10
1	1050
1	14
1	1050
1	1050
1	1050
1	6
1	1050
1	10
1	22
1	1050
1	1050
1	24
1	20
1	10
1	1050
1	1050
1	1050
1	1050
1	1050
1	20
1	14
1	1050
1	1050
1	1050
1	1050
1	1050
1	1050
1	9
1	1050
1	1050
1	1050
1	22
1	1050
1	1050
1	1050
1	1050
1	1050
1	1050
1	1050
1	1050
1	17
1	10
1	1050
1	1050
1	1050
1	1050
1	1050
1	1050
1	1050
1	20
1	1050
1	1050
1	1050
1	17
1	18
1	7
1	4
1	1050
1	22
1	15
1	1050
1	1050
1	1050
1	24
1	1050
1	1050
1	20
1	1050
1	10
1	1050
1	1050
1	6124
1	16
1	1050
1	18
1	14
1	1050
1	1050
1	1050
1	10
1	1050
1	1050
1	1050
1	19
1	1050
1	1050
1	1050
1	1050
1	13
1	10
1	1050
1	1050
1	13
1	1050
1	1050
1	9
1	1050
1	13
1	1050
1	1050
1	10
1	1050
1	17
1	1050
1	1050
1	1050
1	9
1	1050
1	14
1	1050
1	1050
1	1050
1	15
1	10
1	8
1	1050
1	1050
1	22
1	1050
1	18
1	1050
1	6
1	1050
1	1050
1	10
1	1050
1	8
1	8
1	1050
1	1050
1	1050
1	1050
1	1050
1	13
1	1050
1	1050
1	1050
1	16
1	1050
1	1050
1	22
1	1050
1	1050
1	1050
1	13
1	1050
1	1050
1	1050
1	1050
1	13
1	5
1	1050
1	14
1	9
1	1050
1	1050
1	1050
1	13
1	19
1	1050
1	1050
1	1050
1	1050
1	6
1	20
1	5
1	1050
1	1050
1	1050
1	9
1	1050
1	1050
1	20
1	10
1	1050
1	1050
1	1050
1	8
1	1050
1	7
1	1050
1	4
1	1050
1	15
1	8
1	1050
1	1050
1	18
1	1050
1	11
1	1050
1	22
1	20
1	8
1	20
1	14
1	9
1	1050
1	6124
1	1050
1	1050
1	1050
1	8
1	22
1	4
1	1050
1	1050
1	22
1	7
1	1050
1	8
1	16
1	19
1	1050
1	1050
1	1050
1	8
1	6
1	1050
1	1050
1	1050
1	6
1	16
1	24
1	22
1	1050
1	1050
1	1050
1	1050
1	14
1	1050
1	10
1	1050
1	18
1	22
1	1050
1	1050
1	24
1	1050
1	1050
1	1050
1	1050
1	1050
1	1050
1	8
1	1050
1	12
1	22
1	1050
1	1050
1	18
1	1050
1	1050
1	4
1	1050
1	1050
1	1050
1	14
1	9
1	1050
1	15
1	1050
1	1050
1	6
1	11
1	20
1	6
1	1050
1	12
1	1050
1	1050
1	1050
1	8
1	1050
1	1050
1	11
1	22
1	1050
1	10
1	1050
1	16
1	1050
1	1050
1	1050
1	12
1	1050
1	6124
1	1050
1	1050
1	6
1	4
1	1050
1	7
1	1050
1	1050
1	14
1	1050
1	1050
1	19
1	1050
1	18
1	13
1	11
1	10
1	8
1	1050
1	1050
1	10
1	1050
1	18
1	8
1	1050
1	20
1	4
1	15
1	6124
1	1050
1	1050
1	18
1	1050
1	1050
1	1050
1	13
1	1050
1	1050
1	1050
1	1050
1	1050
1	13
1	1050
1	22
1	22
1	24
1	20
1	1050
1	24
1	4
1	18
1	1050
1	1050
1	1050
1	1050
1	1050
1	14
1	1050
1	1050
1	1050
1	8
1	1050
1	1050
1	1050
1	8
1	1050
1	1050
1	1050
1	1050
1	1050
1	1050
1	6124
1	8
1	1050
1	11
1	1050
1	6
1	14
1	1050
1	13
1	1050
1	1050
1	1050
1	6124
1	1050
1	6124
1	18
1	1050
1	6
1	10
1	10
1	1050
1	1050
1	6124
1	1050
1	1050
1	1050
1	1050
1	1050
1	1050
1	1050
1	7
1	1050
1	7
1	8
1	1050
1	3
1	1050
1	1050
1	13
1	1050
1	1050
1	14
1	11
1	12
1	1050
1	3
1	1050
1	1050
1	1050
1	1050
1	14
1	18
1	1050
1	1050
1	1050
1	1050
1	13
1	9
1	1050
1	1050
1	2
1	1050
1	19
1	1050
1	1050
1	1050
1	1050
1	15
1	8
1	1050
1	6
1	4
1	1050
1	1050
1	1050
1	1050
1	1050
1	9
1	1050
1	1050
1	8
1	1050
1	1050
1	1050
1	22
1	15
1	1050
1	1050
1	1050
1	22
1	1050
1	1050
1	1050
1	9
1	7
1	9
1	14
1	16
1	12
1	22
1	8
1	1050
1	1050
1	1050
1	6
1	9
1	4
1	14
1	1050
1	12
1	1050
1	18
1	18
1	1050
1	1050
1	1050
1	4
1	1050
1	1050
1	1050
1	1050
1	13
1	1050
1	1050
1	1050
1	1050
1	1050
1	1050
1	12
1	10
1	1050
1	1050
1	1050
1	1050
1	22
1	1050
1	20
1	1050
1	1050
1	4
1	1050
1	9
1	1050
1	1050
1	1050
1	1050
1	7
1	20
1	8
1	16
1	6
1	10
1	8
1	20
1	1050
1	1050
1	1050
1	10
1	1050
1	22
1	1050
1	16
1	10
1	1050
1	1050
1	19
1	6
1	1050
1	14
1	6
1	6
1	1050
1	16
1	6124
1	15
1	1050
1	17
1	9
1	1050
1	5
1	1050
1	1050
1	8
1	1050
1	12
1	1050
1	1050
1	1050
1	5
1	12
1	1050
1	20
1	1050
1	15
1	14
1	15
1	1050
1	12
1	13
1	6
1	1050
1	20
1	8
1	18
1	20
1	1050
1	19
1	6124
1	1050
1	1050
1	1050
1	1050
1	1050
1	1050
1	14
1	14
1	1050
1	1050
1	1050
1	3
1	5
1	1050
1	13
1	9
1	1050
1	22
1	9
1	1050
1	22
1	1050
1	1050
1	1050
1	7
1	1050
1	13
1	8
1	1050
1	1050
1	1050
1	9
1	1050
1	11
1	1050
1	22
1	1050
1	7
1	1050
1	1050
1	16
1	1050
1	1050
1	13
1	15
1	2
1	10
1	1050
1	5
1	1050
1	1050
1	8
1	1050
1	20
1	1050
1	7
1	1050
1	6
1	14
1	7
1	17
1	1050
1	1050
1	20
1	1050
1	20
1	16
1	13
1	19
1	1050
1	1050
1	11
1	1050
1	1050
1	7
1	7
1	1050
1	13
1	1050
1	1050
1	1050
1	14
1	1050
1	1050
1	6
1	13
1	1050
1	13
1	1050
1	1050
1	1050
1	14
1	1050
1	1050
1	1050
1	8
1	10
1	11
1	14
1	1050
1	1050
1	1050
1	1050
1	9
1	13
1	6
1	18
1	6
1	6
1	3
1	1050
1	1050
1	1050
1	1050
1	14
1	1050
1	1050
1	14
1	1050
1	1050
1	18
1	1050
1	1050
1	1050
1	13
1	1050
1	1050
1	1050
1	1050
1	22
1	1050
1	18
1	1050
1	1050
1	1050
1	10
1	1050
1	3
1	19
1	8
1	14
1	1050
1	1050
1	1050
1	8
1	1050
1	13
1	8
1	8
1	20
1	1050
1	1050
1	1050
1	1050
1	1050
1	1050
1	1050
1	4
1	5
1	6
1	1050
1	18
1	20
1	19
1	1050
1	24
1	20
1	19
1	1050
1	9
1	24
1	1050
1	1050
1	14
1	1050
1	1050
1	22
1	1050
1	1050
1	8
1	1050
1	3
1	7
1	1050
1	8
1	22
1	7
1	4
1	13
1	1050
1	18
1	1050
1	1050
1	1050
1	7
1	9
1	1050
1	9
1	4
1	1050
1	1050
1	1050
1	1050
1	17
1	1050
1	1050
1	1050
1	1050
1	1050
1	1050
1	1050
1	1050
1	4
1	22
1	20
1	20
1	14
1	13
1	1050
1	1050
1	6
1	1050
1	22
1	1050
1	1050
1	3
1	3
1	1050
1	20
1	1050
1	10
1	5
1	1050
1	11
1	1050
1	1050
1	1050
1	1050
1	1050
1	16
1	13
1	19
1	20
1	1050
1	1050
1	1050
1	6124
1	1050
1	1050
1	1050
1	1050
1	1050
1	6124
1	12
1	1050
1	1050
1	1050
1	1050
1	1050
1	1050
1	1050
1	1050
1	9
1	1050
1	1050
1	1050
1	1050
1	10
1	1050
1	10
1	7
1	1050
1	6
1	1050
1	1050
1	1050
1	3
1	1050
1	1050
1	1050
1	1050
1	5
1	11
1	1050
1	1050
1	6
1	1050
1	1050
1	1050
1	18
1	1050
1	20
1	1050
1	6
1	1050
1	1050
1	1050
1	10
1	1050
1	1050
1	8
1	1050
1	13
1	1050
1	1050
1	10
1	1050
1	24
1	14
1	1050
1	8
1	1050
1	1050
1	1050
1	1050
1	2
1	22
1	19
1	1050
1	1050
1	1050
1	1050
1	5
1	1050
1	1050
1	1050
1	18
1	5
1	1050
1	1050
1	1050
1	1050
1	1050
1	1050
1	1050
1	1050
1	1050
1	18
1	13
1	1050
1	1050
1	1050
1	1050
1	24
1	11
1	13
1	3
1	16
1	20
1	20
1	1050
1	15
1	8
1	1050
1	19
1	1050
1	11
1	8
1	5
1	1050
1	1050
1	1050
1	8
1	1050
1	1050
1	1050
1	5
1	19
1	7
1	1050
1	8
1	1050
1	24
1	1050
1	7
1	1050
1	1050
1	10
1	4
1	1050
1	1050
1	1050
1	8
1	1050
1	1050
1	1050
1	1050
1	1050
1	18
1	22
1	1050
1	1050
1	8
1	4
1	1050
1	1050
1	1050
1	20
1	5
1	16
1	1050
1	1050
1	5
1	1050
1	18
1	1050
1	1050
1	1050
1	1050
1	1050
1	1050
1	10
1	1050
1	8
1	6
1	3
1	3
1	1050
1	1050
1	8
1	1050
1	5
1	1050
1	1050
1	3
1	22
1	1050
1	1050
1	1050
1	20
1	1050
1	8
1	1050
1	6
1	1050
1	7
1	1050
1	15
1	1050
1	14
1	1050
1	1050
1	14
1	1050
1	1050
1	1050
1	8
1	6
1	1050
1	7
1	1050
1	1050
1	20
1	1050
1	3
1	18
1	8
1	1050
1	15
1	8
1	14
1	14
1	1050
1	4
1	1050
1	1050
1	1050
1	20
1	1050
1	8
1	7
1	1050
1	1050
1	1050
1	1050
1	1050
1	13
1	18
1	14
1	13
1	12
1	7
1	1050
1	10
1	1050
1	1050
1	22
1	1050
1	3
1	1050
1	1050
1	1050
1	8
1	13
1	13
1	1050
1	1050
1	1050
1	15
1	1050
1	16
1	20
1	1050
1	10
1	1050
1	5
1	4
1	1050
1	20
1	1050
1	1050
1	1050
1	8
1	1050
1	2
1	1050
1	1050
1	1050
1	5
1	1050
1	1050
1	1050
1	9
1	5
1	1050
1	1050
1	4
1	1050
1	11
1	6
1	7
1	1050
1	1050
1	1050
1	1050
1	1050
1	18
1	1050
1	1050
1	1050
1	1050
1	1050
1	14
1	7
1	1050
1	22
1	19
1	1050
1	1050
1	1050
1	20
1	13
1	1050
1	1050
1	1050
1	8
1	15
1	1050
1	18
1	7
1	1050
1	14
1	13
1	22
1	10
1	1050
1	1050
1	1050
1	9
1	1050
1	1050
1	1050
1	22
1	1050
1	1050
1	22
1	16
1	1050
1	12
1	1050
1	10
1	1050
1	1050
1	1050
1	3
1	10
1	5
1	1050
1	3
1	1050
1	1050
1	1050
1	1050
1	1050
1	6
1	1050
1	18
1	6
1	8
1	13
1	14
1	1050
1	1050
1	1050
1	8
1	14
1	8
1	1050
1	1050
1	10
1	1050
1	3
1	1050
1	8
1	1050
1	11
1	1050
1	1050
1	1050
1	1050
1	5
1	1050
1	1050
1	1050
1	15
1	1050
1	1050
1	1050
1	1050
1	1050
1	1050
1	8
1	1050
1	14
1	1050
1	1050
1	1050
1	1050
1	3
1	14
1	15
1	3
1	1050
1	1050
1	8
1	20
1	18
1	1050
1	6
1	1050
1	3
1	22
1	14
1	4
1	1050
1	1050
1	1050
1	1050
1	1050
1	15
1	1050
1	15
1	18
1	14
1	1050
1	1050
1	1050
1	1050
1	6
1	11
1	1050
1	14
1	1050
1	1050
1	1050
1	3
1	1050
1	1050
1	14
1	10
1	19
1	1050
1	7
1	12
1	1050
1	1050
1	1050
1	1050
1	1050
1	4
1	1050
1	1050
1	1050
1	1050
1	4
1	1050
1	1050
1	1050
1	14
1	24
1	1050
1	24
1	1050
1	1050
1	1050
1	19
1	1050
1	1050
1	1050
1	13
1	1050
1	1050
1	1050
1	1050
1	1050
1	22
1	1050
1	1050
1	1050
1	1050
1	6
1	4
1	1050
1	1050
1	12
1	1050
1	1050
1	13
1	1050
1	6
1	1050
1	5
1	15
1	1050
1	1050
1	4
1	7
1	1050
1	1050
1	1050
1	1050
1	1050
1	1050
1	1050
1	1050
1	1050
1	4
1	18
1	1050
1	4
1	4
1	12
1	1050
1	1050
1	22
1	12
1	12
1	6
1	19
1	8
1	5
1	1050
1	1050
1	1050
1	1050
1	24
1	1050
1	1050
1	1050
1	1050
1	16
1	4
1	1050
1	1050
1	1050
1	1050
1	1050
1	15
1	1050
1	20
1	2
1	13
1	1050
1	1050
1	4
1	1050
1	1050
1	10
1	13
1	1050
1	1050
1	20
1	5
1	7
1	5
1	1050
1	1050
1	1050
1	6
1	7
1	1050
1	1050
1	1050
1	1050
1	1050
2	1050
2	14
2	6
2	5
2	6
2	4
2	8
2	5
2	14
2	5
2	3
2	4
2	16
2	14
2	1050
2	8
2	14
2	5
2	12
2	4
2	19
2	6
2	10
2	6
2	6
2	12
2	6
2	1050
2	8
2	6
2	4
2	16
2	3
2	10
2	4
2	5
2	6
2	24
2	4
2	14
2	14
2	14
2	1050
2	8
2	14
2	9
2	6
2	17
2	1050
2	6
2	5
2	14
2	3
2	3
2	6
2	7
2	5
2	1050
2	1050
2	16
2	3
2	14
2	4
2	3
2	19
2	4
2	3
2	4
2	4
2	11
2	15
2	9
2	5
2	1050
2	16
2	4
2	7
2	3
2	4
2	4
2	10
2	8
2	6
2	22
2	13
2	14
2	4
2	15
2	3
2	16
2	3
2	14
2	12
2	10
2	16
2	4
2	5
2	6
2	3
2	8
2	11
2	5
2	4
2	8
2	1050
2	9
2	10
2	14
2	22
2	3
2	4
2	19
2	11
2	4
2	14
2	16
2	11
2	19
2	5
2	4
2	5
2	9
2	9
2	18
2	19
2	19
2	3
2	12
2	7
2	6
2	22
2	13
2	4
2	3
2	11
2	15
2	14
2	16
2	8
2	8
2	5
2	10
2	16
2	20
2	13
2	4
2	6
2	7
2	4
2	8
3	4
3	6
3	4
3	6
3	8
3	4
3	6
3	6
3	9
3	10
3	14
3	7
3	7
3	6
3	6
3	5
3	7
3	4
3	4
4	7
5	7
