1	6124
1	6124
1	432
1	432
1	432
1	20
1	19
1	14
1	432
1	432
1	432
1	9
1	432
1	432
1	432
1	38
1	432
1	432
1	432
1	38
1	3
1	11
1	38
1	19
1	8
1	14
1	432
1	432
1	432
1	432
1	432
1	432
1	432
1	432
1	6124
1	432
1	432
1	12
1	432
1	432
1	38
1	7
1	432
1	14
1	19
1	17
1	432
1	432
1	432
1	432
1	4
1	432
1	432
1	432
1	6124
1	432
1	432
1	432
1	432
1	5
1	14
1	432
1	432
1	20
1	19
1	432
1	6124
1	432
1	432
1	17
1	38
1	432
1	38
1	432
1	14
1	4
1	432
1	12
1	5
1	10
1	432
1	8
1	432
1	432
1	432
1	432
1	432
1	432
1	432
1	432
1	4
1	432
1	12
1	432
1	5
1	9
1	11
1	7
1	432
1	432
1	432
1	14
1	432
1	6124
1	432
1	432
1	432
1	5
1	432
1	432
1	432
1	432
1	432
1	432
1	432
1	432
1	19
1	432
1	432
1	38
1	432
1	432
1	432
1	432
1	38
1	6
1	10
1	432
1	432
1	432
1	432
1	432
1	432
1	19
1	432
1	432
1	432
1	38
1	432
1	432
1	432
1	432
1	432
1	9
1	432
1	432
1	432
1	4
1	20
1	432
1	14
1	12
1	38
1	10
1	432
1	432
1	7
1	432
1	6124
1	432
1	11
1	432
1	432
1	12
1	432
1	7
1	19
1	20
1	6124
1	9
1	6124
1	19
1	432
1	19
1	432
1	38
1	11
1	19
1	432
1	19
1	432
1	432
1	8
1	14
1	38
1	38
1	432
1	432
1	18
1	432
1	5
1	432
1	432
1	432
1	432
1	432
1	432
1	432
1	432
1	432
1	17
1	20
1	38
1	12
1	432
1	432
1	432
1	20
1	6
1	20
1	4
1	432
1	432
1	6124
1	9
1	432
1	432
1	14
1	432
1	12
1	432
1	20
1	7
1	432
1	432
1	432
1	18
1	432
1	432
1	20
1	432
1	11
1	38
1	12
1	432
1	3
1	432
1	432
1	432
1	432
1	14
1	432
1	432
1	432
1	4
1	5
1	432
1	432
1	432
1	4
1	6124
1	432
1	432
1	5
1	17
1	12
1	432
1	6
1	432
1	3
1	432
1	7
1	432
1	5
1	432
1	17
1	7
1	432
1	432
1	432
1	432
1	3
1	14
1	20
1	12
1	432
1	9
1	20
1	10
1	432
1	432
1	20
1	4
1	6
1	432
1	12
1	5
1	432
1	432
1	4
1	432
1	6
1	432
1	432
1	432
1	12
1	432
1	18
1	432
1	432
1	432
1	4
1	432
1	432
1	432
1	4
1	10
1	432
1	19
1	2
1	14
1	3
1	432
1	432
1	432
1	432
1	14
1	38
1	432
1	432
1	18
1	11
1	432
1	432
1	432
1	432
1	3
1	432
1	12
1	19
1	3
1	432
1	432
1	3
1	432
1	432
1	432
1	432
1	432
1	19
1	9
1	432
1	432
1	3
1	432
1	9
1	19
1	432
1	432
1	8
1	14
1	432
1	12
1	432
1	9
1	19
1	432
1	432
1	432
1	5
1	6
1	432
1	12
1	432
1	432
1	432
1	18
1	14
1	3
1	432
1	38
1	432
1	4
1	432
1	432
1	3
1	19
1	432
1	19
1	7
1	12
1	432
1	432
1	432
1	432
1	14
1	432
1	38
1	432
1	432
1	432
1	432
1	3
1	432
1	432
1	4
1	6
1	5
1	4
1	7
1	432
1	17
1	432
1	432
1	432
1	432
1	432
1	4
1	432
1	432
1	432
1	432
1	9
1	6
1	10
1	432
1	432
1	432
1	12
1	5
1	432
1	38
1	12
1	432
1	432
1	432
1	432
1	8
1	432
1	432
1	432
1	3
1	20
1	12
1	432
1	432
1	432
1	432
1	432
1	432
1	4
1	20
1	432
1	19
1	432
1	432
1	432
1	432
1	20
1	432
1	432
1	432
1	19
1	432
1	20
1	38
1	38
1	5
1	17
1	432
1	12
1	432
1	17
1	38
1	432
1	432
1	17
1	432
1	4
1	432
1	6
1	432
1	20
1	11
1	12
1	432
1	432
1	19
1	17
1	432
1	432
1	432
1	432
1	5
1	20
1	5
1	432
1	432
1	432
1	432
1	432
1	3
1	432
1	5
1	432
1	432
1	432
1	432
1	4
1	432
1	20
1	432
1	12
1	432
1	432
1	9
1	6
1	19
1	432
1	432
1	6
1	432
1	6
1	5
1	432
1	432
1	432
1	432
1	432
1	432
1	432
1	432
1	432
1	19
1	432
1	432
1	19
1	4
1	432
1	432
1	432
1	19
1	2
1	6
1	6
1	432
1	18
1	432
1	432
1	432
1	19
1	432
1	17
1	5
1	38
1	38
1	432
1	432
1	6
1	6
1	432
1	432
1	5
1	432
1	432
1	20
1	7
1	432
1	432
1	19
1	432
1	432
1	432
1	432
1	432
1	432
1	432
1	11
1	4
1	432
1	12
1	432
1	432
1	432
1	432
1	432
1	3
1	432
1	4
1	14
1	432
1	432
1	432
1	432
1	14
1	8
1	432
1	432
1	432
1	38
1	432
1	20
1	432
1	432
1	432
1	11
1	10
1	432
1	432
1	432
1	432
1	3
1	432
1	3
1	432
1	432
1	432
1	3
1	432
1	10
1	432
1	432
1	432
1	4
1	432
1	14
1	9
1	432
1	19
1	5
1	6
1	432
1	432
1	432
1	4
1	432
1	432
1	7
1	14
1	3
1	38
1	432
1	7
1	432
1	432
1	2
1	432
1	20
1	6
1	3
1	432
1	432
1	432
1	38
2	19
2	5
2	17
2	5
2	7
2	4
2	3
2	5
2	4
2	17
2	7
2	5
2	9
2	432
2	3
2	8
2	432
2	5
2	4
2	432
2	3
2	432
2	9
2	6
2	3
2	3
2	9
2	9
2	6
2	432
2	4
2	6
2	4
2	20
2	4
2	14
2	4
2	6
2	6
2	18
2	4
2	14
3	12
3	7
3	6
3	5
3	9
3	20
3	6
3	6
5	6
