1	6124
1	90
1	90
1	90
1	90
1	90
1	90
1	9
1	8
1	9
1	90
1	90
1	90
1	90
1	90
1	90
1	90
1	90
1	90
1	9
1	6
1	90
1	8
1	90
1	90
1	6
1	5
1	8
1	9
1	90
1	7
1	90
1	90
1	90
1	4
1	90
1	90
1	90
1	9
1	90
1	3
1	7
1	90
1	7
1	90
1	90
1	6
1	5
1	90
1	90
1	6
1	4
1	3
1	3
1	4
1	90
1	4
1	3
1	90
1	6
1	3
1	90
1	90
1	5
1	90
1	3
1	6
1	90
1	3
1	90
1	4
1	90
1	5
1	4
1	7
1	8
1	8
1	90
1	5
1	90
1	6
1	5
1	4
1	4
1	4
1	90
1	90
1	90
1	90
1	90
1	6
1	6
1	6
1	5
1	90
1	6
1	6
1	4
1	90
1	4
1	4
1	90
1	5
1	5
1	90
1	3
1	90
1	4
1	90
1	5
1	90
1	7
1	5
1	4
1	4
1	8
1	3
1	5
1	6
1	90
1	5
1	3
1	90
1	6
1	90
1	6
1	5
1	90
1	90
1	90
1	3
1	4
1	3
1	8
1	7
1	8
1	8
1	3
1	8
1	6
1	3
1	90
1	5
1	90
1	3
1	90
1	3
1	3
1	90
1	5
1	3
1	90
1	3
1	4
1	6
1	3
1	6
1	9
1	6
1	4
1	9
1	6
1	90
1	6
1	6
1	4
1	3
1	5
1	5
1	8
1	7
1	5
1	9
1	3
1	5
1	6
1	4
1	90
1	3
1	5
1	7
1	4
1	5
1	3
1	4
1	4
1	3
1	3
1	5
1	5
1	3
1	8
1	4
1	5
1	3
1	3
1	4
1	4
1	7
1	5
1	6
1	4
1	4
1	4
1	3
1	3
1	7
1	7
1	90
1	3
1	90
1	7
1	6
1	3
1	3
1	90
1	3
1	4
2	4
2	5
2	3
2	3
2	3
2	4
2	3
2	3
2	5
2	3
2	3
2	4
2	6
2	4
2	3
2	3
2	8
2	4
2	3
2	4
2	8
2	3
2	4
3	4
