1	6124
1	11
1	68
1	68
1	9
1	11
1	6
1	9
1	68
1	68
1	7
1	5
1	6
1	68
1	68
1	4
1	68
1	6
1	68
1	5
1	4
1	68
1	5
1	5
1	6
1	7
1	68
1	68
1	6
1	5
1	68
1	11
1	5
1	6
1	9
1	6
1	5
1	68
1	11
1	68
1	6
1	4
1	6
1	11
1	6
1	6
1	7
1	68
1	6
1	5
1	6
1	68
1	6
1	5
1	5
1	11
1	6
1	7
1	5
1	4
1	5
1	9
1	11
1	68
1	68
1	5
1	3
1	68
1	3
1	68
1	4
1	68
1	11
1	5
1	6
1	6
1	68
1	3
1	4
1	7
1	11
1	68
1	3
1	68
1	11
1	4
1	9
1	4
1	68
1	6
1	5
1	5
1	5
1	4
1	5
1	6
1	68
1	5
1	4
1	7
1	4
1	4
1	68
1	3
1	6
1	4
1	6
1	3
1	68
1	7
1	4
1	9
1	68
1	4
1	4
1	6
1	3
1	4
1	6
1	5
1	5
1	68
1	5
1	6
1	68
1	3
1	7
1	4
1	68
1	3
1	4
1	5
1	4
1	3
1	4
1	4
1	6
1	3
1	6
1	9
1	4
1	68
1	11
1	4
1	5
1	4
1	4
1	68
1	6
1	3
1	5
1	4
1	5
1	68
1	3
1	3
1	4
1	4
1	68
1	5
1	5
1	4
1	4
1	4
1	5
1	3
1	68
1	11
1	4
1	4
1	4
1	5
1	68
1	11
1	4
1	5
1	5
1	4
1	7
1	5
1	5
1	3
1	6
1	5
1	68
1	6
1	5
1	68
1	3
1	7
1	5
1	3
1	4
1	3
1	6
1	5
1	4
1	68
1	5
1	4
1	68
1	4
1	68
1	6
1	68
1	5
1	3
1	4
1	4
1	4
1	6
1	4
1	6
1	4
1	68
1	4
1	5
1	5
1	3
1	3
1	6
1	3
1	3
1	4
1	11
1	4
1	4
1	3
1	68
1	3
1	4
1	4
2	3
2	5
2	3
2	3
2	3
2	3
2	5
2	3
2	3
2	3
2	3
2	5
2	4
2	3
2	3
2	4
2	4
2	3
2	3
2	4
