1	6124
1	122
1	8
1	8
1	12
1	6
1	122
1	6
1	122
1	122
1	8
1	122
1	122
1	122
1	14
1	6
1	122
1	8
1	122
1	122
1	10
1	13
1	6
1	122
1	10
1	122
1	5
1	10
1	14
1	122
1	14
1	6
1	122
1	4
1	4
1	122
1	122
1	122
1	122
1	122
1	122
1	122
1	122
1	5
1	122
1	10
1	5
1	13
1	12
1	5
1	122
1	5
1	4
1	7
1	122
1	8
1	122
1	122
1	122
1	122
1	122
1	122
1	6
1	7
1	6
1	122
1	122
1	13
1	122
1	14
1	14
1	122
1	3
1	122
1	6
1	122
1	7
1	122
1	14
1	122
1	122
1	122
1	9
1	6
1	122
1	122
1	8
1	122
1	3
1	5
1	10
1	5
1	122
1	3
1	4
1	7
1	9
1	5
1	3
1	9
1	6
1	122
1	122
1	122
1	6
1	122
1	3
1	4
1	122
1	5
1	8
1	122
1	122
1	122
1	3
1	9
1	122
1	5
1	10
1	122
1	122
1	122
1	122
1	122
1	10
1	8
1	8
1	122
1	4
1	122
1	122
1	122
1	5
1	13
1	122
1	13
1	8
1	122
1	122
1	122
1	122
1	13
1	10
1	9
1	122
1	7
1	6
1	122
1	122
1	122
1	122
1	7
1	122
1	9
1	122
1	122
1	5
1	14
1	10
1	122
1	122
1	122
1	122
1	122
1	3
2	3
2	10
2	13
2	8
2	13
2	13
2	5
2	13
2	9
2	3
2	3
2	4
2	5
2	13
2	7
2	122
2	3
2	5
2	4
2	9
2	5
2	4
2	4
2	4
2	10
2	3
2	8
2	8
2	5
2	3
2	5
2	5
2	3
2	4
2	4
2	3
2	4
2	4
2	4
2	5
2	3
2	3
2	12
3	5
3	4
3	4
