1	6124
1	146
1	146
1	146
1	146
1	146
1	146
1	146
1	146
1	146
1	146
1	146
1	146
1	146
1	29
1	146
1	6
1	146
1	146
1	146
1	146
1	146
1	146
1	146
1	12
1	6
1	146
1	146
1	146
1	7
1	29
1	146
1	146
1	146
1	146
1	146
1	146
1	146
1	146
1	29
1	146
1	146
1	7
1	5
1	146
1	146
1	146
1	146
1	146
1	146
1	146
1	29
1	3
1	146
1	146
1	5
1	146
1	146
1	146
1	146
1	12
1	146
1	146
1	146
1	7
1	146
1	146
1	146
1	146
1	146
1	146
1	146
1	146
1	29
1	29
1	146
1	146
1	146
1	146
1	29
1	146
1	6
1	146
1	4
1	12
1	12
1	146
1	146
1	29
1	146
1	146
1	146
1	5
1	146
1	7
1	146
1	6
1	29
1	5
1	146
1	3
1	146
1	146
1	146
1	146
1	146
1	146
1	146
1	3
1	146
1	146
1	146
1	146
1	7
1	146
1	146
1	146
1	146
1	146
1	146
1	146
1	146
1	146
1	5
1	146
1	146
1	5
1	146
1	146
1	29
1	12
1	146
1	146
1	146
1	146
1	146
1	6
1	146
1	146
1	6
1	7
1	146
1	146
1	146
1	146
1	146
1	146
1	146
1	6
2	29
2	29
2	5
2	4
2	12
2	3
2	3
2	5
2	4
2	6
2	6
2	7
2	3
2	29
2	29
2	4
2	146
2	29
2	5
2	7
2	4
2	3
2	6
2	29
2	3
2	29
3	12
3	4
