1	6124
1	104
1	11
1	11
1	104
1	104
1	11
1	14
1	13
1	13
1	104
1	4
1	9
1	104
1	9
1	9
1	8
1	6
1	104
1	104
1	10
1	11
1	11
1	104
1	11
1	104
1	104
1	104
1	6
1	6
1	104
1	6
1	13
1	6
1	10
1	104
1	13
1	10
1	3
1	104
1	14
1	104
1	104
1	104
1	7
1	7
1	10
1	4
1	6
1	7
1	6
1	6
1	104
1	104
1	8
1	5
1	6
1	6
1	3
1	8
1	9
1	104
1	104
1	11
1	6
1	5
1	6
1	3
1	8
1	6
1	104
1	11
1	11
1	104
1	4
1	7
1	104
1	10
1	7
1	11
1	3
1	5
1	104
1	104
1	7
1	7
1	9
1	6
1	104
1	11
1	104
1	104
1	14
1	7
1	6
1	4
1	7
1	6
1	11
1	104
1	10
1	5
1	3
1	14
1	11
1	5
1	4
1	11
1	11
1	4
1	3
1	5
1	10
1	104
1	11
1	5
1	104
1	6
1	104
1	5
1	9
1	7
1	6
1	6
1	4
1	104
1	6
1	10
1	6
1	104
1	6
1	4
1	7
1	104
1	5
1	11
1	4
1	4
1	5
1	104
1	4
1	104
1	7
1	10
1	7
1	104
1	10
1	11
1	7
1	13
1	10
1	5
1	104
1	11
1	11
1	6
1	11
1	5
1	104
1	6
1	3
1	3
1	6
1	14
1	10
1	8
1	7
1	9
1	9
1	7
1	10
1	8
1	9
1	5
1	11
1	6
1	8
1	8
1	6
1	7
1	6
1	5
1	7
1	6
1	14
1	3
1	14
1	4
1	9
1	7
1	3
1	3
1	6
1	6
1	104
1	6
1	104
1	5
1	3
1	104
1	4
1	11
1	104
1	5
1	104
1	10
1	5
1	6
1	5
1	104
1	3
1	7
1	6
1	104
1	4
1	3
1	5
1	5
1	4
1	7
1	104
1	3
1	3
1	6
1	6
1	8
1	8
1	9
1	104
1	7
1	104
1	7
1	4
1	5
1	104
1	104
1	13
1	4
1	104
1	6
1	104
1	104
1	104
1	104
1	104
1	3
1	3
1	104
1	10
1	4
1	4
1	104
1	4
1	7
1	104
1	6
1	9
1	6
1	14
1	11
1	8
2	3
2	104
2	13
2	3
2	4
2	3
2	4
2	3
2	3
2	3
2	5
2	4
2	3
2	5
2	4
2	3
2	3
2	5
2	3
2	6
2	5
2	6
2	5
2	5
2	9
2	3
3	5
3	4
3	4
