1	6124
1	135
1	14
1	14
1	135
1	12
1	7
1	10
1	4
1	135
1	135
1	12
1	135
1	135
1	135
1	135
1	135
1	14
1	135
1	8
1	7
1	135
1	135
1	135
1	135
1	6
1	14
1	135
1	6
1	14
1	14
1	7
1	135
1	135
1	135
1	10
1	135
1	135
1	12
1	8
1	12
1	135
1	135
1	4
1	12
1	135
1	12
1	10
1	8
1	135
1	135
1	14
1	6
1	6
1	5
1	12
1	135
1	135
1	6
1	6
1	10
1	135
1	6
1	14
1	135
1	14
1	5
1	3
1	3
1	8
1	135
1	6
1	135
1	6
1	135
1	135
1	12
1	14
1	5
1	6
1	135
1	6
1	3
1	135
1	135
1	6
1	5
1	14
1	8
1	135
1	4
1	135
1	6
1	3
1	4
1	6
1	135
1	5
1	14
1	5
1	135
1	4
1	135
1	135
1	8
1	6
1	135
1	6
1	12
1	14
1	6
1	135
1	8
1	135
1	4
1	135
1	135
1	12
1	135
1	6
1	135
1	135
1	135
1	135
1	9
1	135
1	14
1	135
1	6
1	5
1	135
1	12
1	3
1	135
1	4
1	6
1	6
1	9
1	135
1	4
1	6
1	12
1	10
1	6
1	135
1	135
1	135
1	3
1	3
1	135
1	135
1	8
1	135
1	135
1	3
1	4
1	6
1	135
1	135
1	135
1	135
1	135
1	135
1	4
1	14
1	135
1	5
1	8
1	9
1	135
1	8
1	14
1	4
1	6
1	135
1	135
1	6
1	9
1	4
1	135
1	9
1	135
1	6
1	8
1	135
1	135
1	135
1	135
1	10
1	5
1	12
1	6
1	135
1	12
1	6
1	6
1	14
1	4
1	4
1	135
1	4
1	4
1	9
1	135
1	135
1	8
1	3
1	135
1	12
1	6
1	135
1	135
1	14
1	3
1	12
1	135
1	4
1	6
1	135
1	4
1	6
1	135
1	135
2	5
2	4
2	5
2	3
2	5
2	6
2	135
2	3
2	4
2	7
2	4
2	5
2	5
2	3
2	4
2	3
2	6
2	3
2	4
2	3
2	3
2	9
2	6
2	12
2	12
2	4
2	12
2	8
2	5
2	5
2	4
2	5
3	6
3	4
3	6
