1	6124
1	115
1	115
1	115
1	115
1	7
1	115
1	115
1	115
1	115
1	115
1	115
1	115
1	115
1	115
1	115
1	115
1	115
1	115
1	115
1	115
1	115
1	115
1	115
1	115
1	115
1	115
1	115
1	115
1	115
1	115
1	115
1	115
1	115
1	115
1	115
1	115
1	115
1	115
1	3
1	115
1	115
1	115
1	115
1	115
1	115
1	115
1	7
1	115
1	115
1	115
1	115
1	115
1	115
1	115
1	115
1	115
1	115
1	115
1	115
1	115
1	115
1	115
1	115
1	115
1	115
1	4
1	115
1	115
1	115
1	115
1	115
1	115
1	115
1	115
1	115
1	115
1	115
1	115
1	115
1	115
1	115
1	115
1	115
1	115
1	7
1	115
1	115
1	115
1	115
1	115
1	115
1	115
1	115
1	115
1	115
1	115
1	115
1	115
1	115
1	115
1	115
1	115
1	115
1	115
1	115
1	115
2	3
2	115
2	115
2	7
2	115
2	3
2	4
2	7
