1	6124
1	59
1	59
1	59
1	59
1	59
1	59
1	59
1	59
1	59
1	59
1	59
1	59
1	3
1	59
1	59
1	59
1	59
1	59
1	4
1	5
1	59
1	59
1	59
1	59
1	59
1	59
1	59
1	59
1	59
1	59
1	59
1	5
1	59
1	3
1	59
1	59
1	59
1	59
1	59
1	4
1	59
1	59
1	59
1	59
1	59
1	59
1	59
1	59
1	59
1	59
1	59
1	59
1	59
1	59
1	59
1	4
1	59
2	4
2	3
2	59
2	5
2	5
2	3
2	4
2	3
2	3
