1	6124
1	64
1	64
1	64
1	64
1	64
1	64
1	64
1	64
1	64
1	64
1	64
1	64
1	64
1	64
1	64
1	64
1	64
1	64
1	64
1	64
1	64
1	64
1	64
1	64
1	64
1	64
1	64
1	64
1	64
1	6124
1	64
1	64
1	64
1	64
1	64
1	64
1	64
1	64
1	64
1	64
1	64
1	2
1	64
1	64
1	64
1	64
1	64
1	64
1	64
1	64
1	64
1	64
1	64
1	64
1	64
1	64
1	64
1	64
1	64
1	64
1	64
1	64
1	64
2	64
