1	6124
1	86
1	17
1	86
1	4
1	8
1	4
1	86
1	86
1	6
1	8
1	12
1	86
1	17
1	12
1	6
1	86
1	86
1	86
1	8
1	86
1	86
1	5
1	86
1	86
1	8
1	10
1	86
1	5
1	9
1	86
1	86
1	5
1	8
1	86
1	86
1	5
1	12
1	12
1	6
1	86
1	5
1	5
1	6
1	8
1	86
1	86
1	9
1	5
1	9
1	3
1	86
1	10
1	12
1	7
1	86
1	17
1	10
1	8
1	7
1	17
1	5
1	6
1	5
1	5
1	9
1	5
1	17
1	5
1	5
1	6
1	86
1	8
1	7
1	4
1	86
1	17
1	5
1	4
1	9
1	86
1	86
1	5
1	8
1	6
1	3
1	7
1	6
1	5
1	4
1	86
1	4
1	86
1	5
1	8
1	7
1	4
1	3
1	12
1	8
1	4
1	4
1	8
1	17
1	4
1	4
1	8
1	7
1	7
1	3
1	86
1	17
1	6
1	9
1	6
1	86
1	10
1	10
1	5
1	7
1	7
1	6
1	17
1	3
1	4
1	7
1	12
1	7
1	4
1	4
1	17
1	5
1	6
1	4
1	6
1	86
1	5
1	3
1	5
1	86
1	6
1	3
1	5
1	5
1	7
1	9
1	3
1	4
1	86
1	3
1	5
1	5
1	4
1	4
1	6
1	17
1	5
1	10
1	5
1	4
1	4
1	6
1	10
1	4
1	6
1	86
1	6
1	86
1	17
1	86
1	86
1	86
1	86
1	4
1	5
1	86
1	6
1	3
1	3
1	4
1	3
1	86
1	8
1	6
1	86
1	7
1	8
1	6
1	4
1	6
1	8
1	17
1	6
1	6
1	86
1	5
1	5
1	8
1	5
1	4
1	6
1	7
1	3
1	6
1	8
1	86
1	86
1	6
1	3
1	86
1	5
1	5
1	3
1	4
1	4
1	3
1	3
1	12
1	5
1	86
1	4
1	5
1	4
1	6
1	8
1	86
1	17
1	10
1	5
1	7
1	3
1	86
1	86
1	8
1	12
1	5
1	86
1	86
1	8
1	4
1	6
1	4
1	4
2	6
2	4
2	3
2	4
2	3
2	4
2	3
2	3
2	6
2	4
2	4
2	5
2	3
2	3
2	3
2	4
2	4
2	5
2	3
2	3
2	3
2	3
2	3
2	5
3	4
