1	6124
1	135
1	135
1	135
1	4
1	12
1	9
1	135
1	12
1	135
1	135
1	135
1	10
1	135
1	135
1	8
1	135
1	8
1	6124
1	9
1	135
1	5
1	135
1	135
1	135
1	135
1	135
1	135
1	135
1	9
1	12
1	135
1	135
1	12
1	8
1	4
1	135
1	135
1	5
1	135
1	9
1	5
1	135
1	5
1	135
1	3
1	135
1	135
1	135
1	10
1	135
1	135
1	135
1	6
1	135
1	135
1	135
1	135
1	6
1	135
1	135
1	12
1	9
1	5
1	10
1	135
1	3
1	5
1	135
1	5
1	135
1	135
1	135
1	135
1	135
1	5
1	5
1	135
1	135
1	135
1	135
1	135
1	10
1	5
1	135
1	135
1	135
1	135
1	8
1	5
1	8
1	135
1	135
1	5
1	135
1	135
1	10
1	4
1	6
1	3
1	4
1	135
1	5
1	135
1	135
1	9
1	7
1	7
1	135
1	12
1	135
1	135
1	4
1	5
1	3
1	135
1	135
1	135
1	135
1	7
1	5
1	135
1	135
1	4
1	135
1	4
1	135
1	3
1	135
1	135
1	135
1	3
1	7
1	135
1	8
1	3
1	5
1	3
1	135
1	5
1	5
1	7
1	135
1	3
1	135
1	4
1	5
1	135
1	3
1	135
1	3
1	12
1	4
1	8
1	135
1	135
1	5
1	5
1	135
1	7
1	9
1	4
1	135
1	135
1	5
1	3
1	135
1	4
1	4
1	135
1	4
1	4
1	8
1	9
1	135
1	135
1	9
1	12
1	135
1	3
1	4
1	135
1	135
1	135
1	7
1	3
1	4
1	3
1	4
1	4
1	9
1	5
1	135
1	8
1	9
1	5
1	135
1	5
1	5
1	10
1	135
1	5
1	9
1	4
1	5
1	9
1	135
1	135
1	135
1	5
1	4
1	135
1	5
1	5
1	5
1	4
1	4
1	10
1	4
1	3
1	3
1	8
1	3
1	135
1	135
1	135
1	4
1	135
1	5
1	135
1	135
1	8
1	135
1	3
1	135
1	8
1	3
1	3
1	5
1	3
1	9
1	135
1	7
1	7
1	6
1	7
1	3
1	4
1	3
2	4
2	4
2	4
2	3
2	5
2	3
2	3
2	4
2	5
2	4
2	3
2	3
2	5
2	5
2	3
2	3
3	4
