1	6124
1	118
1	118
1	22
1	118
1	6
1	8
1	22
1	118
1	118
1	118
1	118
1	8
1	118
1	118
1	8
1	14
1	8
1	8
1	118
1	118
1	22
1	8
1	118
1	118
1	22
1	22
1	14
1	118
1	118
1	22
1	9
1	22
1	118
1	118
1	118
1	13
1	118
1	118
1	118
1	118
1	6
1	118
1	3
1	13
1	8
1	8
1	118
1	9
1	22
1	118
1	118
1	22
1	7
1	118
1	4
1	9
1	8
1	3
1	118
1	118
1	4
1	8
1	9
1	14
1	118
1	4
1	4
1	11
1	118
1	118
1	118
1	118
1	8
1	118
1	5
1	8
1	14
1	4
1	4
1	118
1	22
1	6
1	118
1	3
1	8
1	9
1	6
1	13
1	14
1	118
1	118
1	8
1	4
1	118
1	8
1	8
1	118
1	118
1	8
1	118
1	8
1	3
1	4
1	6
1	118
1	118
1	8
1	118
1	8
1	118
1	13
1	4
1	118
1	118
1	118
1	4
1	4
1	7
1	8
1	5
1	4
1	8
1	14
1	9
1	118
1	118
1	4
1	7
1	11
1	3
1	14
1	4
1	118
1	8
1	6
1	22
1	8
1	118
1	13
1	13
1	118
1	4
1	7
1	118
1	4
1	9
1	118
1	4
1	7
1	11
1	118
1	8
1	8
1	4
1	118
1	4
1	118
1	118
1	8
1	3
1	7
1	4
1	4
1	4
1	13
1	3
1	6
1	22
1	11
1	8
1	4
1	14
1	118
1	6
1	5
1	14
1	7
1	14
1	118
1	7
1	8
1	118
1	13
1	8
1	118
1	118
1	118
1	8
1	118
1	6
1	5
1	11
1	118
1	118
1	4
1	7
1	3
1	6
1	7
1	8
1	4
1	118
1	9
1	8
1	8
1	118
1	11
1	13
1	3
1	118
1	118
1	4
1	11
1	8
1	8
1	4
1	3
1	8
1	7
1	4
1	4
1	118
1	7
1	118
1	3
1	118
1	118
1	7
1	3
1	9
1	118
1	8
1	4
1	118
1	14
1	9
1	14
1	118
1	9
1	3
1	8
1	11
1	118
1	8
1	3
1	3
1	11
1	3
1	118
1	118
1	6
1	4
1	118
1	118
1	6
1	118
1	118
1	13
1	118
1	4
1	5
2	3
2	22
2	3
2	8
2	22
2	3
2	9
2	8
2	22
2	22
2	3
2	22
2	4
2	4
2	8
2	3
3	4
3	7
