1	6124
1	69
1	7
1	7
1	6
1	9
1	7
1	7
1	6
1	10
1	69
1	15
1	10
1	15
1	69
1	6
1	7
1	5
1	7
1	7
1	69
1	6
1	6
1	6
1	3
1	6
1	11
1	7
1	6
1	69
1	3
1	15
1	3
1	69
1	6
1	7
1	4
1	6
1	6
1	14
1	14
1	69
1	10
1	15
1	8
1	4
1	5
1	6
1	69
1	8
1	9
1	9
1	14
1	69
1	5
1	7
1	5
1	6
1	9
1	7
1	69
1	4
1	6
1	6
1	11
1	69
1	4
1	4
1	14
1	6
1	14
1	4
1	3
1	9
1	6
1	10
1	6
1	6
1	4
1	69
1	5
1	7
1	6
1	69
1	8
1	15
1	6
1	69
1	69
1	7
1	7
1	9
1	6
1	69
1	7
1	11
1	7
1	5
1	69
1	6
1	8
1	14
1	6
1	69
1	5
1	69
1	5
1	69
1	69
1	6
1	8
1	5
1	8
1	10
1	9
1	6
1	11
1	5
1	7
1	6
1	10
1	7
1	10
1	6
1	3
1	14
1	7
1	4
1	69
1	4
1	4
1	6
1	69
1	69
1	11
1	8
1	4
1	7
1	5
1	10
1	7
1	10
1	69
1	5
1	15
1	4
1	3
1	6
1	10
1	5
1	3
1	4
1	5
1	5
1	6
1	14
1	15
1	15
1	5
1	69
1	5
1	3
1	3
1	69
1	14
1	69
1	4
1	5
1	3
1	69
1	69
1	7
1	69
1	10
1	6
1	11
1	7
1	3
1	5
1	5
1	6
1	15
1	3
1	3
1	7
1	5
1	3
1	15
1	69
1	8
1	14
1	7
1	3
1	4
1	5
1	6
1	7
1	6
1	11
1	4
1	3
1	3
1	6
1	9
1	3
1	5
1	5
1	9
1	5
1	7
1	6
1	15
1	5
1	5
1	7
1	15
1	7
1	15
1	3
1	6
1	9
1	69
2	4
2	3
2	5
2	4
2	6
2	7
2	3
2	7
2	5
2	7
2	3
2	4
2	3
2	3
2	3
2	7
2	6
2	3
2	9
2	3
2	3
2	6
2	5
2	3
2	3
3	6
