1	6124
1	9
1	8
1	8
1	9
1	7
1	7
1	8
1	3
1	98
1	12
1	4
1	7
1	7
1	10
1	98
1	12
1	98
1	98
1	98
1	98
1	4
1	10
1	11
1	5
1	11
1	6
1	11
1	5
1	98
1	5
1	98
1	5
1	10
1	10
1	11
1	7
1	10
1	7
1	6
1	6
1	8
1	5
1	11
1	98
1	9
1	98
1	98
1	5
1	98
1	98
1	8
1	98
1	98
1	5
1	4
1	7
1	98
1	4
1	8
1	5
1	5
1	3
1	5
1	12
1	5
1	4
1	5
1	10
1	5
1	98
1	98
1	98
1	5
1	5
1	7
1	4
1	6
1	98
1	5
1	12
1	4
1	7
1	98
1	10
1	5
1	7
1	5
1	11
1	7
1	6
1	9
1	98
1	8
1	5
1	8
1	5
1	98
1	5
1	6
1	5
1	7
1	7
1	8
1	8
1	98
1	4
1	98
1	98
1	6
1	8
1	98
1	7
1	5
1	8
1	5
1	98
1	5
1	4
1	11
1	12
1	8
1	3
1	7
1	98
1	98
1	7
1	5
1	98
1	98
1	3
1	3
1	98
1	7
1	8
1	3
1	98
1	9
1	5
1	98
1	6
1	3
1	98
1	8
1	4
1	8
1	3
1	8
1	12
1	5
1	98
1	5
1	4
1	5
1	98
1	5
1	98
1	98
1	4
1	98
1	98
1	5
1	4
1	3
1	98
1	4
1	98
1	9
1	98
1	3
1	98
1	12
1	8
1	98
1	8
1	98
1	98
1	3
1	3
1	7
1	3
1	8
1	98
1	4
1	3
1	98
1	3
1	10
1	6
1	7
1	3
1	6
1	98
1	5
1	4
1	98
1	8
1	98
1	6
1	5
1	98
1	98
1	3
1	4
1	3
1	98
1	4
1	8
1	98
1	12
1	3
1	98
1	4
1	9
1	8
1	7
2	5
2	3
2	11
2	6
2	4
2	3
2	5
2	6
2	4
2	3
2	3
2	3
2	5
2	4
2	3
2	4
2	4
2	3
2	3
2	3
2	6
2	4
2	11
2	4
2	3
2	5
2	5
2	3
2	4
2	5
2	3
2	3
2	8
3	4
3	7
3	4
