1	6124
1	59
1	59
1	59
1	59
1	59
1	59
1	59
1	59
1	59
1	59
1	59
1	59
1	59
1	59
1	59
1	59
1	59
1	59
1	59
1	59
1	59
1	59
1	59
1	59
1	4
1	59
1	59
1	3
1	59
1	59
1	59
1	3
1	59
1	59
1	59
1	59
1	59
1	59
1	59
1	59
1	59
1	59
1	59
1	59
1	59
1	59
1	59
1	59
1	59
1	59
1	59
1	59
1	59
2	4
2	59
2	4
