1	6124
1	41
1	41
1	41
1	41
1	41
1	41
1	41
1	41
1	41
1	41
1	41
1	41
1	41
1	41
1	41
1	41
1	41
1	41
1	41
1	41
1	41
1	41
1	41
1	41
1	6124
1	41
1	41
1	14
1	41
1	41
2	14
2	14
2	14
2	14
2	14
2	14
2	14
2	14
2	14
2	14
2	14
2	14
