1	6124
1	295
1	295
1	295
1	295
1	8
1	8
1	295
1	295
1	295
1	295
1	295
1	295
1	295
1	5
1	295
1	295
1	6
1	295
1	295
1	8
1	295
1	295
1	295
1	295
1	295
1	8
1	7
1	295
1	295
1	295
1	295
1	295
1	8
1	5
1	295
1	295
1	295
1	295
1	3
1	295
1	295
1	295
1	295
1	295
1	295
1	295
1	295
1	295
1	295
1	295
1	7
1	295
1	295
1	295
1	295
1	295
1	8
1	295
1	295
1	295
1	295
1	5
1	8
1	295
1	8
1	4
1	295
1	295
1	295
1	295
1	295
1	3
1	295
1	295
1	295
1	295
1	295
1	7
1	6
1	4
1	6
1	295
1	295
1	295
1	295
1	295
1	7
1	295
1	295
1	295
1	295
1	295
1	295
1	295
1	6
1	295
1	295
1	295
1	295
1	295
1	295
1	295
1	295
1	295
1	295
1	295
1	8
1	295
1	295
1	295
1	295
1	295
1	295
1	295
1	295
1	8
1	3
1	295
1	8
1	295
1	6
1	295
1	295
1	295
1	295
1	3
1	295
1	295
1	295
1	295
1	4
1	295
1	295
1	295
1	6
1	295
1	295
1	295
1	295
1	295
1	4
1	295
1	295
1	295
1	295
1	295
1	295
1	295
1	295
1	295
1	295
1	295
1	295
1	295
1	295
1	295
1	295
1	295
1	7
1	295
1	295
1	295
1	295
1	295
1	295
1	7
1	295
1	5
1	295
1	4
1	295
1	295
1	295
1	295
1	5
1	295
1	295
1	295
1	295
1	295
1	295
1	295
1	295
1	295
1	295
1	295
1	295
1	295
1	295
1	4
1	295
1	4
1	295
1	295
1	295
1	295
1	295
1	295
1	295
1	295
1	4
1	295
1	295
1	295
1	295
1	295
1	295
1	4
1	295
1	295
1	295
1	295
1	295
1	295
1	295
1	295
1	295
1	295
1	295
1	5
1	295
1	6
1	295
1	295
1	295
1	3
1	295
1	3
1	295
1	295
1	295
1	295
1	295
1	5
1	8
1	6
1	295
1	7
1	295
1	295
1	295
1	295
1	3
1	295
1	8
1	295
1	295
1	295
1	6
1	295
1	295
1	295
1	295
1	295
1	295
1	295
1	295
1	295
1	295
1	295
1	295
1	295
1	295
1	4
1	295
1	295
1	295
1	295
1	295
1	295
1	3
1	295
1	295
1	295
1	295
1	295
1	7
1	295
1	295
1	5
1	295
1	4
1	295
1	295
1	3
1	295
1	295
1	5
1	5
1	295
1	4
1	295
1	295
1	295
1	295
1	295
1	295
1	295
1	295
1	295
1	295
1	295
1	295
1	295
1	295
1	3
1	295
1	6
1	295
1	295
1	295
1	295
1	5
1	295
1	295
1	295
1	295
1	295
1	295
1	295
1	295
1	5
1	8
1	295
1	295
1	295
1	295
1	295
1	295
1	295
1	295
1	5
1	6
1	295
1	295
1	295
1	295
1	8
1	295
1	295
2	6
2	5
2	7
2	3
2	7
2	3
2	7
2	6
2	3
2	3
2	3
2	4
2	4
2	5
2	3
2	7
