1	6124
1	6124
1	104
1	104
1	104
1	104
1	3
1	5
1	3
1	104
1	104
1	8
1	7
1	104
1	104
1	104
1	104
1	4
1	104
1	104
1	5
1	5
1	104
1	5
1	4
1	104
1	6
1	5
1	104
1	4
1	6
1	104
1	104
1	104
1	104
1	5
1	5
1	7
1	6
1	104
1	5
1	104
1	4
1	3
1	104
1	5
1	4
1	6
1	104
1	6
1	104
1	4
1	104
1	104
1	3
1	7
1	104
1	6
1	104
1	5
1	7
1	4
1	104
1	5
1	104
1	4
1	104
1	104
1	104
1	5
1	4
1	104
1	5
1	5
1	7
1	104
1	8
1	104
1	5
1	104
1	5
1	3
1	9
1	7
1	104
1	104
1	4
1	6
1	3
1	6
1	6
1	7
1	104
1	3
1	5
1	104
1	5
1	5
1	6
1	104
1	9
1	4
1	6
1	104
1	6
1	8
1	4
1	5
1	5
1	5
1	4
1	104
1	104
1	4
1	104
1	6
1	7
1	3
1	104
1	4
1	5
1	104
1	4
1	104
1	3
1	4
1	3
1	104
1	3
1	5
1	6
1	3
1	9
1	3
1	7
1	7
1	9
1	7
1	104
1	104
1	7
1	5
1	104
1	4
1	5
1	4
1	4
1	3
1	6
1	4
1	104
1	5
1	4
1	5
1	104
1	4
1	3
1	3
1	104
1	104
1	3
1	5
1	4
1	104
1	104
1	3
1	4
1	5
1	6
1	104
1	5
1	6
1	7
1	4
1	4
1	6
1	9
1	6
1	5
1	6
1	5
1	4
1	6
1	104
1	5
1	4
1	3
1	104
1	7
1	3
1	4
1	9
1	104
1	7
1	5
1	4
1	4
1	104
1	104
1	5
1	4
1	5
1	7
1	8
1	7
1	3
1	4
1	9
2	4
2	7
2	3
2	3
2	7
2	3
2	3
2	4
2	3
2	4
2	4
2	3
2	4
2	4
2	3
2	3
2	3
2	3
2	3
2	3
2	3
2	3
2	4
2	3
2	4
2	4
2	3
2	3
2	3
2	3
2	4
2	5
2	4
2	7
2	3
2	3
3	5
