1	6124
1	52
1	22
1	52
1	52
1	52
1	52
1	52
1	52
1	52
1	52
1	52
1	52
1	22
1	22
1	52
1	52
1	52
1	52
1	22
1	52
1	22
1	52
1	52
1	22
1	52
1	52
1	52
1	5
1	52
1	52
1	22
1	4
1	52
1	52
1	52
1	52
1	52
1	52
2	22
2	22
2	22
2	22
2	22
2	22
2	5
2	22
2	22
2	4
2	5
3	22
3	4
3	4
3	4
3	4
