1	6124
1	73
1	73
1	73
1	73
1	73
1	73
1	30
1	5
1	30
1	8
1	8
1	4
1	73
1	30
1	30
1	5
1	5
1	30
1	73
1	73
1	73
1	73
1	6
1	30
1	73
1	73
1	6
1	30
1	30
1	8
1	73
1	73
1	8
1	73
1	4
1	73
1	30
1	5
1	3
1	6
1	30
1	73
1	5
1	4
1	3
1	73
1	73
1	73
1	7
1	5
1	30
1	8
1	5
1	6
1	3
1	73
1	73
1	73
1	6
1	4
1	6
1	73
1	4
1	5
1	6124
1	30
1	4
1	5
1	8
1	6
1	73
1	8
1	5
1	8
1	3
1	73
1	4
1	3
1	8
1	73
1	5
1	4
1	5
1	5
1	5
1	5
1	4
1	4
1	8
1	7
1	7
1	73
1	4
1	7
1	4
1	4
1	5
1	73
1	4
1	5
1	8
1	5
1	5
1	6
1	3
1	8
1	6
1	5
1	4
1	5
1	30
1	30
1	4
1	3
1	5
1	30
1	73
1	4
1	3
1	7
1	5
1	3
1	7
1	73
1	4
1	73
1	5
1	4
1	8
1	7
1	6
1	5
1	6
1	8
1	6
1	30
1	3
1	8
1	8
1	73
1	8
1	5
1	73
1	73
1	30
1	4
1	73
1	4
1	73
1	4
1	8
1	30
1	4
1	3
1	7
1	3
1	4
1	6
1	73
1	30
1	5
1	8
1	73
1	5
1	4
1	30
1	3
1	3
1	5
1	4
1	73
1	4
1	3
1	4
1	5
1	73
1	6
1	4
1	5
1	7
1	4
1	5
1	3
1	4
1	4
1	6
1	3
1	5
1	5
1	4
1	73
1	5
1	7
1	7
1	3
1	3
1	30
1	7
1	5
1	5
1	6
1	3
1	8
1	73
1	3
1	4
1	30
1	4
1	73
1	8
1	4
1	8
1	73
1	4
1	3
1	8
1	4
1	4
1	3
1	7
1	3
1	3
1	3
1	5
2	3
2	4
2	3
2	4
2	4
2	5
2	5
2	4
2	3
2	4
2	5
2	3
2	5
2	4
2	3
2	4
2	8
2	3
2	3
2	3
2	30
2	3
2	8
3	4
