1	6124
1	14
1	87
1	87
1	87
1	87
1	87
1	14
1	6
1	14
1	6
1	13
1	8
1	14
1	87
1	6
1	7
1	8
1	13
1	87
1	7
1	87
1	87
1	6
1	6
1	5
1	10
1	7
1	3
1	13
1	6
1	87
1	4
1	4
1	87
1	6
1	13
1	4
1	7
1	3
1	87
1	87
1	13
1	4
1	7
1	87
1	8
1	7
1	6
1	87
1	6
1	87
1	87
1	3
1	6
1	9
1	87
1	87
1	10
1	87
1	3
1	87
1	4
1	4
1	6
1	10
1	5
1	3
1	10
1	4
1	14
1	87
1	3
1	87
1	87
1	87
1	4
1	87
1	6
1	8
1	6
1	13
1	87
1	87
1	4
1	3
1	87
1	7
1	4
1	87
1	13
1	6
1	6
1	87
1	4
1	8
1	6
1	87
1	3
1	87
1	6
1	9
1	87
1	5
1	4
1	3
1	6
1	6
1	87
1	3
1	13
1	13
1	87
1	87
1	4
1	4
1	87
1	6
1	9
1	87
1	5
1	6
1	14
1	87
1	87
1	3
1	13
1	7
1	87
1	3
1	87
1	13
1	3
1	6
1	8
1	3
1	13
1	3
1	4
1	6
1	14
1	9
1	4
1	6
1	10
1	6
1	14
1	3
1	7
1	4
1	4
1	4
1	3
1	4
1	7
1	6
1	14
1	6
1	6
1	13
1	13
1	3
1	87
1	4
1	14
1	87
1	6
1	10
1	13
1	87
1	6
1	6
1	87
1	87
1	13
1	3
1	6
1	6
1	6
1	6
1	87
1	4
1	14
1	3
1	4
1	7
1	4
1	7
1	3
1	9
1	13
1	3
1	4
1	87
1	87
1	3
1	7
1	13
1	10
1	3
1	4
1	6
1	6
1	87
1	5
1	4
1	3
1	3
1	87
1	8
1	9
1	3
1	4
1	5
1	4
1	3
1	87
1	5
1	3
1	6
1	87
1	4
1	13
1	6
1	87
1	6
1	6
1	7
1	3
2	3
2	6
2	6
2	6
2	4
2	3
2	3
2	3
2	3
2	4
2	3
2	3
2	3
2	4
2	3
2	6
2	4
2	4
2	6
2	4
2	4
2	6
2	6
2	4
2	4
2	9
2	3
3	6
