1	6124
1	206
1	206
1	206
1	206
1	206
1	206
1	13
1	206
1	8
1	206
1	8
1	206
1	206
1	206
1	206
1	17
1	7
1	10
1	206
1	206
1	206
1	206
1	206
1	206
1	8
1	6124
1	6
1	10
1	206
1	206
1	206
1	13
1	206
1	206
1	7
1	10
1	206
1	206
1	206
1	6
1	206
1	206
1	6
1	206
1	7
1	5
1	206
1	206
1	206
1	7
1	206
1	206
1	206
1	10
1	206
1	5
1	206
1	206
1	5
1	206
1	206
1	7
1	17
1	7
1	8
1	6
1	206
1	206
1	206
1	206
1	206
1	206
1	206
1	206
1	10
1	206
1	206
1	206
1	206
1	206
1	206
1	13
1	206
1	13
1	206
1	206
1	206
1	206
1	206
1	206
1	17
1	7
1	206
1	4
1	206
1	8
1	206
1	206
1	13
1	206
1	206
1	206
1	206
1	206
1	7
1	206
1	4
1	6
1	17
1	206
1	6
1	206
1	7
1	206
1	6
1	206
1	206
1	7
1	206
1	8
1	206
1	206
1	206
1	206
1	206
1	206
1	206
1	206
1	206
1	3
1	206
1	6
1	8
1	206
1	206
1	206
1	206
1	8
1	17
1	206
1	7
1	7
1	13
1	206
1	206
1	206
1	206
1	206
1	206
1	206
1	206
1	206
1	206
1	206
1	206
1	206
1	6
1	206
1	206
1	4
1	6
1	7
1	5
1	206
1	206
1	206
1	206
1	206
1	206
1	206
1	6
1	206
1	206
1	206
1	7
1	206
1	5
1	206
1	206
1	7
1	13
1	206
1	206
1	206
1	13
1	206
1	206
1	6
1	206
1	6
1	4
1	206
1	206
1	206
1	206
1	206
1	206
1	7
1	10
1	13
1	206
1	4
1	206
1	206
1	6
1	206
1	17
1	206
1	206
1	206
1	17
1	17
1	10
1	206
1	7
1	206
1	206
1	17
1	5
1	6
1	206
1	206
1	206
1	206
1	8
1	8
1	206
1	206
1	7
1	206
1	206
1	206
1	206
1	206
1	206
1	6
1	206
1	206
1	206
1	17
1	4
1	206
1	206
1	5
1	206
1	4
1	10
1	5
1	206
1	206
1	206
1	10
1	206
1	4
1	6
1	206
1	3
1	7
1	206
1	4
1	3
1	206
1	206
1	6
1	206
1	6
1	206
2	13
2	5
2	4
2	7
2	4
2	8
2	10
2	6
2	4
2	4
2	6
2	4
2	4
2	13
2	4
2	7
2	17
2	4
2	5
2	4
2	4
2	4
2	5
2	6
