1	6124
1	114
1	23
1	114
1	114
1	10
1	23
1	114
1	9
1	20
1	114
1	23
1	114
1	8
1	20
1	8
1	4
1	8
1	4
1	10
1	114
1	8
1	13
1	114
1	6
1	12
1	114
1	9
1	6
1	114
1	8
1	114
1	6
1	114
1	20
1	8
1	114
1	114
1	12
1	10
1	7
1	3
1	6
1	8
1	114
1	114
1	23
1	10
1	23
1	5
1	13
1	4
1	114
1	20
1	114
1	114
1	6
1	12
1	114
1	7
1	8
1	5
1	5
1	8
1	7
1	7
1	114
1	114
1	5
1	7
1	6
1	6
1	114
1	114
1	6
1	10
1	13
1	10
1	114
1	114
1	5
1	13
1	9
1	5
1	3
1	114
1	12
1	4
1	6
1	114
1	4
1	114
1	114
1	5
1	7
1	7
1	114
1	114
1	114
1	114
1	7
1	7
1	114
1	7
1	5
1	114
1	114
1	6
1	8
1	10
1	4
1	114
1	6
1	114
1	114
1	4
1	10
1	20
1	5
1	114
1	7
1	3
1	114
1	5
1	6
1	5
1	6
1	114
1	6
1	8
1	7
1	3
1	3
1	8
1	114
1	20
1	114
1	114
1	114
1	114
1	23
1	7
1	114
1	114
1	10
1	8
1	4
1	23
1	8
1	6
1	12
1	13
1	23
1	114
1	114
1	9
1	6
1	9
1	7
1	4
1	114
1	4
1	7
1	20
1	114
1	8
1	4
1	23
1	10
1	114
1	114
1	13
1	23
1	114
1	5
1	3
1	5
1	114
1	6
1	23
1	6
1	12
1	10
1	7
1	114
1	5
1	114
1	3
1	6
1	20
1	10
1	7
1	3
1	8
1	114
1	12
1	114
1	10
1	114
1	114
1	6
1	5
1	5
1	6
1	3
1	114
1	114
1	6
1	5
1	5
1	13
1	23
1	5
1	114
1	10
1	8
1	20
1	114
1	5
1	6
1	114
1	114
1	4
1	6
1	5
1	114
1	12
1	114
1	13
1	20
1	7
1	20
1	23
1	4
1	114
1	6
1	114
1	114
1	8
1	114
1	4
1	5
1	8
1	9
1	6
1	114
1	114
1	5
1	10
1	9
1	114
1	114
2	4
2	3
2	3
2	4
2	3
2	6
2	4
2	4
2	8
2	3
2	5
2	13
2	3
2	6
2	5
2	4
2	6
2	5
2	3
2	3
2	5
2	4
2	3
2	6
2	3
2	3
2	5
2	4
3	6
