1	6124
1	109
1	11
1	7
1	7
1	6
1	7
1	109
1	109
1	7
1	109
1	109
1	109
1	109
1	7
1	109
1	109
1	5
1	6
1	7
1	109
1	109
1	5
1	109
1	109
1	4
1	109
1	109
1	11
1	5
1	109
1	109
1	109
1	109
1	6
1	3
1	4
1	6
1	109
1	109
1	7
1	109
1	109
1	109
1	109
1	5
1	4
1	109
1	109
1	6
1	6
1	7
1	4
1	109
1	5
1	7
1	109
1	5
1	109
1	5
1	8
1	4
1	109
1	109
1	109
1	10
1	7
1	109
1	7
1	6
1	109
1	3
1	5
1	6
1	6
1	5
1	6124
1	7
1	109
1	109
1	3
1	109
1	5
1	109
1	109
1	109
1	5
1	4
1	8
1	3
1	109
1	11
1	7
1	6
1	109
1	5
1	109
1	3
1	10
1	5
1	5
1	6
1	5
1	109
1	109
1	4
1	5
1	5
1	4
1	109
1	7
1	7
1	5
1	8
1	109
1	10
1	4
1	3
1	4
1	109
1	109
1	109
1	5
1	10
1	5
1	6
1	109
1	10
1	109
1	5
1	4
1	6
1	109
1	109
1	109
1	11
1	109
1	6
1	109
1	4
1	109
1	4
1	5
1	6
1	3
1	10
1	109
1	4
1	109
1	4
1	109
1	3
1	4
1	3
1	4
1	5
1	109
1	109
1	8
1	11
1	4
1	7
1	5
1	109
1	7
1	5
1	109
1	4
1	5
1	5
1	109
1	10
1	4
1	4
1	109
1	6
1	109
1	3
1	4
1	109
1	3
1	4
1	5
1	109
1	4
1	8
1	109
1	5
1	109
1	109
1	6
1	5
1	3
1	109
1	4
1	5
1	4
1	5
1	109
1	109
1	109
1	4
1	3
1	5
1	8
1	6
1	10
1	11
1	5
1	5
1	109
1	3
1	3
1	4
1	4
1	4
1	109
1	5
1	7
1	109
1	4
1	3
1	109
1	5
1	109
1	7
1	6
1	109
1	11
1	3
1	109
1	7
1	5
1	4
1	6
1	4
1	4
1	5
1	4
1	109
1	11
1	109
2	3
2	5
2	4
2	3
2	5
2	3
2	5
2	4
2	6
2	3
2	3
2	7
2	4
2	4
2	3
