1	6124
1	9
1	93
1	7
1	8
1	9
1	19
1	13
1	4
1	7
1	11
1	6
1	19
1	93
1	6
1	93
1	11
1	93
1	93
1	6
1	16
1	12
1	12
1	93
1	20
1	93
1	93
1	93
1	6
1	93
1	19
1	93
1	93
1	5
1	9
1	4
1	16
1	5
1	19
1	6
1	9
1	19
1	5
1	9
1	93
1	9
1	93
1	11
1	93
1	93
1	93
1	20
1	6124
1	7
1	12
1	12
1	7
1	19
1	5
1	93
1	11
1	93
1	20
1	9
1	7
1	93
1	6
1	6
1	7
1	12
1	7
1	93
1	5
1	93
1	93
1	19
1	11
1	9
1	11
1	11
1	6
1	19
1	19
1	19
1	6
1	93
1	20
1	3
1	5
1	93
1	13
1	6
1	93
1	9
1	6
1	4
1	5
1	9
1	3
1	6
1	8
1	5
1	8
1	93
1	20
1	6
1	93
1	93
1	7
1	3
1	93
1	9
1	7
1	9
1	16
1	93
1	4
1	20
1	13
1	6
1	11
1	8
1	93
1	16
1	3
1	16
1	9
1	5
1	93
1	9
1	6
1	93
1	11
1	5
1	12
1	93
1	11
1	11
1	93
1	6
1	13
1	19
1	20
1	16
1	9
1	93
1	93
1	93
1	13
1	93
1	6
1	13
1	93
1	7
1	6
1	20
1	4
1	20
1	93
1	93
1	20
1	20
1	93
1	93
1	20
1	93
1	93
1	5
1	93
1	4
1	93
1	3
1	4
1	3
1	9
1	4
1	9
1	6
1	5
1	11
1	20
1	3
1	5
1	13
1	20
1	93
1	6
1	19
1	5
1	93
1	4
1	4
1	11
1	93
1	93
1	12
1	9
1	13
1	93
1	93
1	5
1	19
1	12
1	5
1	19
1	93
1	20
1	13
1	16
1	6
1	19
1	3
1	12
1	8
1	6
1	20
1	93
1	7
1	3
2	5
2	4
2	3
2	7
2	6
2	3
2	7
2	3
2	3
2	3
2	4
2	7
2	4
2	5
2	3
2	5
2	3
2	19
2	3
2	6
2	3
2	6
2	5
2	4
2	4
2	16
2	8
2	5
2	3
3	7
3	4
4	8
