1	6124
1	151
1	151
1	151
1	6
1	6
1	151
1	6
1	151
1	6
1	14
1	151
1	16
1	6
1	16
1	8
1	151
1	5
1	5
1	6
1	151
1	151
1	151
1	151
1	17
1	151
1	7
1	151
1	16
1	6124
1	4
1	10
1	151
1	6124
1	151
1	151
1	151
1	151
1	151
1	151
1	151
1	151
1	151
1	151
1	151
1	16
1	5
1	151
1	151
1	151
1	5
1	151
1	151
1	151
1	5
1	4
1	151
1	151
1	5
1	151
1	151
1	151
1	14
1	17
1	151
1	14
1	151
1	6
1	16
1	151
1	4
1	151
1	7
1	151
1	3
1	17
1	8
1	151
1	151
1	6
1	5
1	151
1	151
1	5
1	14
1	151
1	10
1	10
1	151
1	17
1	151
1	151
1	4
1	151
1	151
1	17
1	151
1	6
1	16
1	151
1	151
1	151
1	151
1	17
1	8
1	16
1	17
1	151
1	16
1	6
1	151
1	14
1	151
1	7
1	151
1	6
1	151
1	7
1	151
1	16
1	7
1	7
1	151
1	7
1	6
1	4
1	151
1	5
1	151
1	8
1	151
1	151
1	5
1	151
1	17
1	151
1	14
1	151
1	5
1	4
1	17
1	6
1	151
1	151
1	5
1	151
1	5
1	4
1	151
1	151
1	151
1	151
1	151
1	3
1	14
1	151
1	3
1	6
1	8
1	6
1	151
1	151
1	151
1	16
1	151
1	151
1	151
1	4
1	3
1	14
1	151
1	151
1	5
1	151
1	5
1	14
1	4
1	151
1	3
1	16
1	3
1	151
1	6
1	7
1	6
1	4
1	14
1	151
1	6
1	151
1	151
1	151
1	5
1	7
1	151
1	5
1	151
1	151
1	17
1	10
1	7
1	151
1	16
1	6
1	151
1	151
1	5
1	10
1	6
1	151
1	6
1	6
1	8
1	3
1	151
1	14
1	151
1	151
1	151
1	151
1	151
1	5
1	151
1	151
1	151
1	4
1	151
1	151
1	5
1	6
1	3
2	4
2	6
2	7
2	4
2	3
2	16
2	5
2	4
2	10
2	3
2	3
2	7
2	4
2	4
2	3
2	3
2	16
2	5
2	4
2	5
2	4
2	3
2	5
2	3
2	5
2	7
2	4
2	7
2	7
3	4
3	4
