1	6124
1	8
1	6
1	39
1	39
1	39
1	39
1	39
1	6
1	8
1	39
1	39
1	39
1	6
1	6
1	6
1	39
1	8
1	6
1	39
1	6
1	39
1	39
1	39
1	39
1	39
1	6
1	39
1	6
1	6
1	39
1	39
1	6
1	8
1	39
1	39
1	6
1	39
1	39
1	39
1	39
1	3
1	39
1	39
1	3
1	39
1	39
1	39
1	39
1	8
2	6
2	8
2	8
2	4
2	4
2	4
2	4
