1	6124
1	75
1	7
1	5
1	75
1	9
1	9
1	5
1	75
1	7
1	9
1	10
1	6
1	13
1	6
1	75
1	5
1	9
1	75
1	5
1	75
1	4
1	75
1	75
1	5
1	10
1	5
1	9
1	7
1	75
1	5
1	75
1	9
1	6
1	6
1	6
1	75
1	10
1	4
1	6
1	4
1	4
1	7
1	9
1	4
1	4
1	6
1	6
1	6
1	75
1	75
1	9
1	4
1	4
1	5
1	75
1	6
1	6
1	4
1	4
1	5
1	75
1	5
1	4
1	75
1	75
1	13
1	75
1	75
1	6
1	75
1	5
1	4
1	7
1	7
1	6
1	13
1	5
1	3
1	75
1	5
1	3
1	5
1	5
1	75
1	6
1	75
1	10
1	6
1	6
1	10
1	75
1	6
1	3
1	13
1	9
1	3
1	6
1	3
1	75
1	3
1	75
1	4
1	5
1	9
1	3
1	13
1	3
1	3
1	13
1	10
1	4
1	75
1	4
1	4
1	75
1	3
1	3
1	5
1	13
1	3
1	3
1	75
1	3
1	10
1	3
1	4
1	5
1	75
1	5
1	10
1	4
1	3
1	9
1	7
1	7
1	5
1	5
1	75
1	4
1	5
1	7
1	5
1	75
1	3
1	3
1	5
1	10
1	75
1	75
1	3
1	4
1	3
1	75
1	5
1	3
1	75
1	13
1	6
1	4
1	5
1	3
1	6
1	9
1	75
1	5
1	4
1	75
1	75
1	75
1	3
1	4
1	10
1	4
1	4
1	4
1	75
1	5
1	5
1	75
1	75
1	4
1	13
1	9
1	5
1	4
1	5
1	5
1	3
1	13
1	10
1	6
1	4
1	3
1	3
1	5
1	3
1	9
1	75
1	6
1	7
1	3
1	9
1	4
1	3
1	3
1	3
1	5
1	4
1	4
1	4
2	3
2	4
2	4
2	3
2	3
2	5
2	4
2	3
2	3
2	5
2	6
2	5
2	3
2	3
2	3
2	3
2	3
2	3
2	5
2	6
2	3
2	4
2	3
2	3
2	3
2	4
2	5
2	3
2	3
2	3
3	4
