1	6124
1	142
1	142
1	142
1	142
1	142
1	142
1	142
1	142
1	142
1	142
1	142
1	142
1	142
1	142
1	142
1	142
1	7
1	142
1	142
1	7
1	9
1	6
1	142
1	142
1	142
1	8
1	142
1	142
1	4
1	142
1	142
1	142
1	142
1	142
1	142
1	142
1	142
1	142
1	8
1	142
1	142
1	142
1	6
1	6
1	142
1	142
1	3
1	142
1	142
1	7
1	142
1	9
1	142
1	4
1	142
1	4
1	9
1	3
1	5
1	142
1	142
1	142
1	142
1	142
1	6
1	142
1	7
1	4
1	142
1	4
1	142
1	142
1	7
1	6
1	142
1	5
1	142
1	142
1	4
1	142
1	142
1	3
1	4
1	4
1	7
1	7
1	9
1	4
1	142
1	142
1	142
1	7
1	142
1	3
1	5
1	142
1	4
1	5
1	7
1	142
1	3
1	142
1	7
1	3
1	3
1	7
1	142
1	4
1	4
1	142
1	142
1	3
1	7
1	3
1	5
1	142
1	142
1	5
1	142
1	3
1	142
1	8
1	142
1	142
1	142
1	3
1	142
1	6
1	3
1	3
1	3
1	142
1	4
1	142
1	142
1	142
1	4
1	142
1	7
1	4
1	3
1	4
1	142
1	4
1	3
1	142
1	142
1	142
1	142
1	4
1	6
1	5
1	6
1	3
1	142
1	3
1	142
1	142
1	3
1	7
1	142
1	142
1	3
1	7
1	142
1	4
1	142
1	3
1	4
1	142
1	5
1	142
1	142
1	142
1	142
1	4
1	4
1	4
1	142
1	4
1	5
1	3
1	3
1	142
1	142
1	142
1	142
1	142
1	142
1	7
1	3
1	6
1	142
1	142
1	5
1	142
1	4
1	6
1	3
1	3
1	7
1	142
1	9
1	142
1	4
1	4
1	8
1	7
1	142
1	3
1	4
1	3
1	142
1	4
1	142
1	142
1	4
1	142
1	4
1	4
1	142
1	4
1	142
1	3
1	6
1	3
1	4
1	142
1	4
1	142
1	142
1	9
1	142
1	142
1	142
1	4
1	4
1	4
1	5
1	4
1	5
1	3
1	8
1	4
1	5
1	4
1	142
1	142
1	4
1	142
1	9
1	142
1	3
1	4
1	7
1	5
1	3
1	142
1	4
1	3
1	4
1	3
1	3
1	3
1	142
1	3
2	3
2	3
2	3
2	3
2	3
2	3
2	3
2	3
2	3
2	3
2	3
2	5
2	6
2	3
2	3
2	3
2	4
2	7
