1	6124
1	108
1	108
1	108
1	10
1	108
1	12
1	10
1	108
1	14
1	14
1	7
1	108
1	108
1	10
1	12
1	14
1	8
1	108
1	108
1	108
1	5
1	7
1	5
1	4
1	12
1	6
1	108
1	108
1	108
1	108
1	12
1	5
1	5
1	3
1	108
1	10
1	5
1	5
1	108
1	30
1	30
1	108
1	108
1	108
1	108
1	30
1	5
1	10
1	6
1	108
1	5
1	30
1	7
1	8
1	30
1	108
1	30
1	108
1	30
1	30
1	8
1	6
1	30
1	4
1	108
1	108
1	4
1	5
1	108
1	108
1	108
1	30
1	108
1	4
1	108
1	14
1	5
1	4
1	108
1	4
1	108
1	108
1	108
1	7
1	12
1	108
1	30
1	108
1	6
1	108
1	108
1	108
1	5
1	4
1	6
1	5
1	30
1	14
1	108
1	5
1	108
1	3
1	6
1	4
1	3
1	108
1	3
1	108
1	5
1	5
1	108
1	3
1	5
1	3
1	5
1	3
1	108
1	108
1	4
1	30
1	108
1	4
1	6
1	108
1	108
1	30
1	3
1	14
1	4
1	10
1	3
1	108
1	4
1	12
1	108
1	10
1	14
1	14
1	7
1	5
1	3
1	6
1	7
1	108
1	4
1	5
1	108
1	108
1	108
1	14
1	5
1	7
1	7
1	108
1	108
1	30
1	3
1	108
1	4
1	108
1	108
1	6
1	108
1	3
1	5
1	4
1	108
1	3
1	14
1	5
1	3
1	30
1	7
1	108
1	14
1	4
1	108
1	108
1	5
1	108
1	108
1	5
1	30
1	4
1	5
1	4
1	108
1	3
1	30
1	4
1	108
1	12
1	6
1	6
1	3
1	4
1	108
1	108
1	6
1	108
1	8
1	7
1	108
1	10
1	108
1	108
1	10
1	4
1	3
1	6
1	108
1	30
1	10
1	30
1	108
1	108
1	4
1	4
1	3
1	5
1	3
1	6
1	3
1	12
1	4
1	3
1	3
1	5
1	6
1	4
1	108
1	3
1	3
1	3
1	12
1	108
1	4
1	3
1	3
1	108
1	10
2	3
2	3
2	3
2	5
2	3
2	3
2	5
2	3
2	4
2	5
2	10
2	3
2	4
2	5
2	6
2	3
2	5
2	3
2	7
2	3
2	30
2	3
2	10
2	6
2	7
2	3
2	3
3	7
