1	6124
1	105
1	105
1	105
1	105
1	105
1	16
1	8
1	105
1	10
1	105
1	105
1	105
1	8
1	6124
1	8
1	22
1	8
1	105
1	16
1	8
1	11
1	22
1	105
1	6
1	3
1	8
1	7
1	6124
1	8
1	22
1	10
1	8
1	6
1	5
1	16
1	7
1	6
1	8
1	105
1	10
1	6
1	105
1	16
1	105
1	105
1	5
1	11
1	4
1	6
1	105
1	11
1	5
1	7
1	6
1	5
1	105
1	4
1	105
1	22
1	8
1	4
1	8
1	8
1	105
1	4
1	105
1	5
1	4
1	105
1	16
1	8
1	4
1	16
1	5
1	105
1	4
1	4
1	3
1	105
1	3
1	16
1	7
1	105
1	5
1	4
1	105
1	105
1	5
1	5
1	105
1	11
1	8
1	4
1	4
1	10
1	105
1	7
1	16
1	9
1	22
1	105
1	105
1	105
1	16
1	5
1	105
1	8
1	5
1	4
1	10
1	5
1	8
1	105
1	22
1	5
1	105
1	5
1	7
1	3
1	3
1	3
1	105
1	4
1	105
1	3
1	105
1	105
1	105
1	3
1	105
1	10
1	22
1	8
1	4
1	4
1	22
1	22
1	105
1	4
1	9
1	105
1	2
1	5
1	5
1	105
1	22
1	5
1	22
1	5
1	9
1	105
1	5
1	11
1	11
1	105
1	105
1	16
1	8
1	4
1	16
1	4
1	10
1	5
1	4
1	105
1	7
1	5
1	105
1	105
1	105
1	4
1	22
1	105
1	105
1	22
1	105
1	3
1	9
1	105
1	3
1	105
1	9
1	105
1	105
1	105
1	5
1	4
1	11
1	22
1	105
1	105
1	8
1	105
1	105
1	3
1	105
1	4
1	5
1	11
1	105
1	105
1	105
1	105
1	22
1	105
1	22
1	105
1	9
1	5
1	105
1	8
1	6
1	5
1	105
1	22
1	8
1	105
1	16
1	105
1	105
1	10
2	6
2	6
2	9
2	3
2	11
2	7
2	5
2	4
2	5
2	3
2	4
2	3
2	5
2	5
2	4
2	4
2	4
2	5
2	16
2	3
2	7
2	8
2	4
2	4
2	3
4	5
