1	6124
1	1855
1	1855
1	1855
1	1855
1	1855
1	1855
1	1855
1	1855
1	1855
1	1855
1	1855
1	23
1	1855
1	1855
1	27
1	1855
1	17
1	16
1	1855
1	1855
1	1855
1	14
1	1855
1	1855
1	1855
1	1855
1	14
1	7
1	9
1	1855
1	1855
1	1855
1	1855
1	1855
1	1855
1	1855
1	1855
1	1855
1	1855
1	15
1	7
1	1855
1	1855
1	8
1	1855
1	1855
1	1855
1	1855
1	1855
1	12
1	1855
1	1855
1	14
1	1855
1	1855
1	1855
1	1855
1	1855
1	1855
1	1855
1	1855
1	1855
1	7
1	12
1	1855
1	1855
1	1855
1	1855
1	1855
1	1855
1	1855
1	1855
1	1855
1	1855
1	1855
1	1855
1	14
1	1855
1	1855
1	1855
1	9
1	1855
1	1855
1	1855
1	16
1	1855
1	1855
1	7
1	1855
1	1855
1	1855
1	1855
1	1855
1	1855
1	1855
1	1855
1	1855
1	1855
1	1855
1	1855
1	8
1	1855
1	1855
1	1855
1	29
1	1855
1	1855
1	1855
1	1855
1	8
1	14
1	1855
1	1855
1	1855
1	1855
1	1855
1	1855
1	1855
1	1855
1	1855
1	1855
1	8
1	1855
1	1855
1	14
1	10
1	12
1	8
1	27
1	1855
1	1855
1	1855
1	1855
1	1855
1	27
1	7
1	1855
1	1855
1	1855
1	1855
1	1855
1	12
1	1855
1	1855
1	1855
1	8
1	1855
1	1855
1	1855
1	1855
1	1855
1	1855
1	1855
1	1855
1	1855
1	1855
1	6
1	1855
1	1855
1	1855
1	1855
1	29
1	27
1	1855
1	1855
1	1855
1	1855
1	1855
1	14
1	1855
1	1855
1	1855
1	1855
1	1855
1	1855
1	1855
1	1855
1	1855
1	14
1	1855
1	1855
1	1855
1	1855
1	8
1	1855
1	6124
1	1855
1	1855
1	1855
1	1855
1	3
1	1855
1	16
1	1855
1	15
1	1855
1	9
1	1855
1	1855
1	1855
1	1855
1	10
1	1855
1	1855
1	1855
1	1855
1	1855
1	1855
1	1855
1	1855
1	1855
1	1855
1	1855
1	9
1	29
1	1855
1	1855
1	1855
1	1855
1	1855
1	1855
1	12
1	1855
1	1855
1	1855
1	1855
1	1855
1	14
1	1855
1	1855
1	6124
1	1855
1	1855
1	1855
1	12
1	1855
1	1855
1	10
1	1855
1	1855
1	1855
1	1855
1	1855
1	1855
1	1855
1	7
1	1855
1	1855
1	1855
1	1855
1	1855
1	9
1	1855
1	1855
1	1855
1	1855
1	1855
1	1855
1	14
1	1855
1	1855
1	1855
1	1855
1	1855
1	1855
1	5
1	1855
1	1855
1	1855
1	1855
1	1855
1	1855
1	1855
1	6
1	12
1	1855
1	1855
1	1855
1	1855
1	1855
1	1855
1	1855
1	1855
1	1855
1	23
1	1855
1	8
1	1855
1	1855
1	1855
1	1855
1	1855
1	1855
1	1855
1	1855
1	1855
1	4
1	7
1	1855
1	1855
1	1855
1	1855
1	1855
1	23
1	1855
1	1855
1	7
1	1855
1	16
1	4
1	1855
1	8
1	1855
1	1855
1	1855
1	1855
1	1855
1	1855
1	1855
1	1855
1	1855
1	23
1	1855
1	1855
1	1855
1	1855
1	17
1	1855
1	1855
1	1855
1	8
1	1855
1	1855
1	1855
1	1855
1	12
1	23
1	1855
1	1855
1	3
1	1855
1	1855
1	1855
1	1855
1	8
1	1855
1	1855
1	1855
1	1855
1	1855
1	1855
1	1855
1	1855
1	7
1	1855
1	1855
1	1855
1	1855
1	1855
1	1855
1	14
1	14
1	1855
1	1855
1	1855
1	1855
1	5
1	1855
1	1855
1	1855
1	1855
1	1855
1	1855
1	1855
1	1855
1	1855
1	1855
1	1855
1	1855
1	1855
1	1855
1	1855
1	1855
1	1855
1	1855
1	29
1	1855
1	14
1	1855
1	1855
1	1855
1	1855
1	1855
1	14
1	1855
1	27
1	1855
1	1855
1	5
1	1855
1	1855
1	1855
1	1855
1	1855
1	5
1	1855
1	1855
1	1855
1	1855
1	10
1	1855
1	1855
1	1855
1	1855
1	1855
1	1855
1	21
1	1855
1	1855
1	1855
1	1855
1	16
1	1855
1	1855
1	1855
1	7
1	1855
1	1855
1	1855
1	1855
1	1855
1	1855
1	1855
1	1855
1	1855
1	1855
1	1855
1	1855
1	21
1	1855
1	1855
1	8
1	1855
1	1855
1	1855
1	1855
1	1855
1	1855
1	1855
1	21
1	1855
1	1855
1	1855
1	1855
1	6
1	1855
1	1855
1	1855
1	1855
1	1855
1	1855
1	1855
1	1855
1	1855
1	1855
1	1855
1	1855
1	1855
1	1855
1	1855
1	1855
1	1855
1	1855
1	1855
1	1855
1	1855
1	1855
1	8
1	1855
1	1855
1	1855
1	29
1	1855
1	12
1	1855
1	1855
1	12
1	12
1	1855
1	6
1	1855
1	1855
1	8
1	1855
1	1855
1	1855
1	1855
1	1855
1	6
1	1855
1	7
1	1855
1	1855
1	1855
1	1855
1	1855
1	1855
1	1855
1	1855
1	1855
1	1855
1	7
1	1855
1	1855
1	1855
1	1855
1	3
1	1855
1	21
1	1855
1	1855
1	1855
1	10
1	1855
1	1855
1	1855
1	1855
1	1855
1	1855
1	1855
1	1855
1	1855
1	1855
1	1855
1	1855
1	1855
1	1855
1	1855
1	8
1	1855
1	1855
1	1855
1	1855
1	1855
1	1855
1	1855
1	1855
1	1855
1	1855
1	1855
1	1855
1	1855
1	1855
1	21
1	1855
1	1855
1	1855
1	1855
1	1855
1	1855
1	14
1	1855
1	1855
1	1855
1	1855
1	6
1	1855
1	1855
1	1855
1	1855
1	1855
1	1855
1	1855
1	1855
1	1855
1	1855
1	1855
1	17
1	12
1	1855
1	1855
1	4
1	1855
1	1855
1	1855
1	1855
1	1855
1	7
1	1855
1	1855
1	1855
1	1855
1	1855
1	1855
1	10
1	1855
1	1855
1	1855
1	1855
1	1855
1	1855
1	1855
1	1855
1	1855
1	1855
1	6
1	1855
1	1855
1	1855
1	1855
1	1855
1	1855
1	1855
1	1855
1	1855
1	1855
1	1855
1	1855
1	27
1	1855
1	1855
1	1855
1	1855
1	1855
1	1855
1	1855
1	1855
1	1855
1	1855
1	1855
1	27
1	1855
1	1855
1	1855
1	1855
1	1855
1	1855
1	1855
1	1855
1	1855
1	1855
1	1855
1	1855
1	1855
1	1855
1	12
1	1855
1	1855
1	1855
1	1855
1	1855
1	1855
1	1855
1	1855
1	1855
1	1855
1	1855
1	1855
1	1855
1	1855
1	1855
1	1855
1	5
1	1855
1	1855
1	1855
1	1855
1	1855
1	17
1	1855
1	1855
1	1855
1	4
1	1855
1	1855
1	1855
1	1855
1	1855
1	1855
1	1855
1	1855
1	21
1	1855
1	17
1	1855
1	1855
1	1855
1	1855
1	1855
1	1855
1	1855
1	1855
1	1855
1	1855
1	27
1	1855
1	1855
1	1855
1	1855
1	1855
1	17
1	1855
1	1855
1	1855
1	14
1	1855
1	1855
1	1855
1	1855
1	1855
1	1855
1	15
1	1855
1	1855
1	1855
1	1855
1	1855
1	1855
1	1855
1	1855
1	1855
1	1855
1	1855
1	15
1	1855
1	1855
1	1855
1	1855
1	1855
1	1855
1	21
1	1855
1	12
1	1855
1	1855
1	1855
1	4
1	1855
1	1855
1	12
1	1855
1	1855
1	1855
1	6
1	1855
1	1855
1	1855
1	1855
1	1855
1	1855
1	1855
1	12
1	1855
1	1855
1	1855
1	1855
1	1855
1	1855
1	1855
1	1855
1	1855
1	1855
1	1855
1	1855
1	1855
1	1855
1	1855
1	1855
1	1855
1	1855
1	1855
1	1855
1	1855
1	1855
1	1855
1	1855
1	1855
1	1855
1	1855
1	1855
1	1855
1	1855
1	1855
1	1855
1	1855
1	1855
1	1855
1	1855
1	1855
1	1855
1	1855
1	1855
1	1855
1	1855
1	4
1	1855
1	1855
1	1855
1	1855
1	1855
1	1855
1	1855
1	1855
1	1855
1	1855
1	6124
1	1855
1	1855
1	1855
1	1855
1	1855
1	1855
1	1855
1	1855
1	1855
1	3
1	10
1	1855
1	1855
1	1855
1	1855
1	1855
1	1855
1	1855
1	1855
1	1855
1	3
1	1855
1	1855
1	1855
1	1855
1	1855
1	1855
1	1855
1	1855
1	1855
1	1855
1	1855
1	1855
1	1855
1	1855
1	1855
1	1855
1	1855
1	1855
1	1855
1	1855
1	1855
1	1855
1	1855
1	1855
1	1855
1	1855
1	1855
1	29
1	1855
1	5
1	1855
1	1855
1	1855
1	1855
1	1855
1	1855
1	15
1	1855
1	1855
1	1855
1	1855
1	1855
1	1855
1	1855
1	1855
1	1855
1	1855
1	1855
1	1855
1	1855
1	1855
1	1855
1	1855
1	1855
1	1855
1	1855
1	1855
1	4
1	1855
1	1855
1	1855
1	1855
1	1855
1	1855
1	1855
1	1855
1	1855
1	1855
1	1855
1	1855
1	1855
1	1855
1	1855
1	1855
1	14
1	14
1	1855
1	1855
1	1855
1	1855
1	1855
1	27
1	1855
1	1855
1	1855
1	1855
1	1855
1	1855
1	1855
1	1855
1	1855
1	1855
1	1855
1	1855
1	1855
1	1855
1	1855
1	1855
1	1855
1	29
1	1855
1	1855
1	1855
1	1855
1	1855
1	1855
1	1855
1	1855
1	1855
1	4
1	1855
1	1855
1	1855
1	1855
1	1855
1	4
1	1855
1	1855
1	1855
1	1855
1	16
1	1855
1	3
1	1855
1	1855
1	1855
1	1855
1	1855
1	1855
1	1855
1	9
1	1855
1	1855
1	1855
1	17
1	1855
1	1855
1	1855
1	1855
1	1855
1	14
1	1855
1	7
1	1855
1	1855
1	1855
1	1855
1	17
1	1855
1	5
1	1855
1	1855
1	1855
1	1855
1	10
1	1855
1	1855
1	1855
1	1855
1	1855
1	1855
1	7
1	1855
1	14
1	1855
1	1855
1	1855
1	1855
1	27
1	1855
1	29
1	1855
1	1855
1	1855
1	5
1	1855
1	1855
1	1855
1	1855
1	29
1	1855
1	21
1	1855
1	1855
1	29
1	1855
1	1855
1	1855
1	1855
1	1855
1	1855
1	7
1	1855
1	4
1	1855
1	1855
1	1855
1	1855
1	1855
1	7
1	1855
1	1855
1	1855
1	1855
1	1855
1	1855
1	1855
1	1855
1	1855
1	6124
1	1855
1	4
1	29
1	27
1	1855
1	12
1	1855
1	7
1	1855
1	1855
1	7
1	1855
1	1855
1	1855
1	1855
1	1855
1	1855
1	1855
1	1855
1	1855
1	1855
1	8
1	1855
1	1855
1	1855
1	1855
1	1855
1	1855
1	1855
1	1855
1	1855
1	1855
1	6
1	1855
1	1855
1	1855
1	14
1	1855
1	1855
1	1855
1	1855
1	1855
1	1855
1	1855
1	1855
1	1855
1	1855
1	27
1	1855
1	1855
1	1855
1	1855
1	1855
1	1855
1	1855
1	1855
1	1855
1	1855
1	7
1	1855
1	1855
1	1855
1	1855
1	1855
1	1855
1	1855
1	1855
1	1855
1	1855
1	1855
1	1855
1	1855
1	1855
1	1855
1	1855
1	1855
1	1855
1	1855
1	1855
1	1855
1	1855
1	1855
1	1855
1	1855
1	1855
1	1855
1	1855
1	1855
1	1855
1	1855
1	1855
1	1855
1	1855
1	1855
1	1855
1	16
1	1855
1	1855
1	4
1	1855
1	1855
1	1855
1	1855
1	1855
1	1855
1	1855
1	1855
1	5
1	1855
1	1855
1	1855
1	1855
1	1855
1	1855
1	1855
1	1855
1	1855
1	1855
1	1855
1	12
1	1855
1	1855
1	1855
1	1855
1	1855
1	6
1	1855
1	1855
1	1855
1	1855
1	1855
1	1855
1	1855
1	1855
1	14
1	5
1	1855
1	1855
1	1855
1	1855
1	1855
1	1855
1	1855
1	1855
1	1855
1	1855
1	1855
1	1855
1	1855
1	1855
1	1855
1	1855
1	1855
1	1855
1	1855
1	1855
1	4
1	1855
1	1855
1	1855
1	1855
1	1855
1	1855
1	1855
1	14
1	1855
1	1855
1	1855
1	1855
1	1855
1	1855
1	7
1	1855
1	1855
1	7
1	1855
1	5
1	1855
1	1855
1	9
1	1855
1	1855
1	1855
1	1855
1	1855
1	1855
1	1855
1	1855
1	3
1	1855
1	16
1	1855
1	1855
1	1855
1	1855
1	1855
1	1855
1	6
1	1855
1	1855
1	1855
1	1855
1	1855
1	1855
1	1855
1	6
1	1855
1	1855
1	9
1	1855
1	1855
1	1855
1	5
1	1855
1	1855
1	1855
1	1855
1	1855
1	1855
1	1855
1	1855
1	1855
1	1855
1	1855
1	1855
1	6
1	1855
1	1855
1	1855
1	1855
1	1855
1	1855
1	1855
1	1855
1	1855
1	1855
1	1855
1	1855
1	1855
1	1855
1	1855
1	1855
1	1855
1	1855
1	12
1	1855
1	1855
1	1855
1	1855
1	1855
1	7
1	1855
1	7
1	1855
1	1855
1	1855
1	1855
1	1855
1	23
1	8
1	1855
1	1855
1	1855
1	1855
1	1855
1	1855
1	1855
1	8
1	1855
1	1855
1	1855
1	1855
1	1855
1	17
1	1855
1	1855
1	1855
1	1855
1	3
1	1855
1	1855
1	1855
1	1855
1	4
1	1855
1	1855
1	1855
1	1855
1	1855
1	1855
1	1855
1	1855
1	1855
1	1855
1	1855
1	1855
1	6
1	8
1	1855
1	1855
1	1855
1	1855
1	1855
1	1855
1	1855
1	1855
1	1855
1	1855
1	1855
1	1855
1	1855
1	1855
1	1855
1	1855
1	1855
1	1855
1	1855
1	1855
1	1855
1	1855
1	1855
1	1855
1	1855
1	8
1	1855
1	1855
1	1855
1	1855
1	1855
1	1855
1	1855
1	1855
1	1855
1	1855
1	1855
1	1855
1	1855
1	1855
1	1855
1	3
1	1855
1	1855
1	1855
1	1855
1	3
1	16
1	1855
1	4
1	1855
1	5
1	1855
1	1855
1	23
1	1855
1	1855
1	1855
1	1855
1	16
1	1855
1	1855
1	1855
1	1855
1	1855
1	6124
1	1855
1	1855
1	1855
1	1855
1	1855
1	1855
1	1855
1	1855
1	1855
1	1855
1	1855
1	1855
1	1855
1	1855
1	1855
1	1855
1	1855
1	1855
1	1855
1	1855
1	1855
1	1855
1	29
1	1855
1	1855
1	1855
1	15
1	1855
1	1855
1	1855
1	1855
1	5
1	1855
1	1855
1	1855
1	1855
1	12
1	1855
1	1855
1	8
1	1855
1	1855
1	1855
1	1855
1	1855
1	1855
1	1855
1	1855
1	1855
1	1855
1	1855
1	1855
1	1855
1	1855
1	1855
1	1855
1	1855
1	1855
1	1855
1	14
1	1855
1	1855
1	1855
1	8
1	1855
1	5
1	6
1	1855
1	1855
1	1855
1	1855
1	23
1	1855
1	1855
1	1855
1	7
1	1855
1	1855
1	1855
1	1855
1	1855
1	8
1	5
1	1855
1	1855
1	1855
1	1855
1	1855
1	1855
1	1855
1	1855
1	1855
1	1855
1	1855
1	1855
1	8
1	1855
1	1855
1	1855
1	1855
1	1855
1	3
1	1855
1	1855
1	1855
1	1855
1	1855
1	1855
1	1855
1	1855
1	1855
1	1855
1	1855
1	1855
1	1855
1	1855
1	1855
1	1855
1	1855
1	14
1	1855
1	1855
1	1855
1	1855
1	1855
1	1855
1	1855
1	1855
1	1855
1	1855
1	1855
1	8
1	21
1	1855
1	1855
1	1855
1	1855
1	1855
1	1855
1	29
1	1855
1	1855
1	1855
1	1855
1	1855
1	1855
1	1855
1	1855
1	1855
1	1855
1	3
1	1855
1	1855
1	1855
1	1855
1	1855
1	10
1	1855
1	1855
1	8
1	1855
1	1855
1	1855
1	1855
1	1855
1	1855
1	1855
1	6
1	1855
1	1855
1	1855
1	1855
1	1855
1	23
1	14
1	1855
1	1855
1	1855
1	1855
1	1855
1	4
1	1855
1	7
1	1855
1	1855
1	1855
1	1855
1	1855
1	1855
1	1855
1	1855
1	1855
1	1855
1	1855
1	1855
1	1855
1	1855
1	21
1	1855
1	15
1	1855
1	1855
1	1855
1	1855
1	1855
1	1855
1	1855
1	1855
1	1855
1	1855
1	1855
1	7
1	1855
1	1855
1	1855
1	1855
1	1855
1	1855
1	1855
1	1855
1	1855
1	1855
1	1855
1	1855
1	1855
1	1855
1	1855
1	1855
1	1855
1	1855
1	1855
1	1855
1	1855
1	23
1	1855
1	1855
1	1855
1	21
1	1855
1	5
1	1855
1	1855
1	1855
1	1855
1	1855
1	1855
1	1855
1	1855
1	27
1	1855
1	1855
1	1855
1	1855
1	1855
1	15
1	1855
1	6
1	1855
1	1855
1	1855
1	1855
1	1855
1	4
1	6
1	6
1	1855
1	27
1	1855
1	1855
1	1855
1	1855
1	1855
1	1855
1	1855
1	1855
1	1855
1	1855
1	1855
1	12
1	4
1	14
1	1855
1	1855
1	1855
1	1855
1	1855
1	1855
1	1855
1	1855
1	1855
1	1855
1	1855
1	1855
1	1855
1	7
1	1855
1	1855
1	29
1	1855
1	1855
1	1855
1	1855
1	1855
1	12
1	1855
1	1855
1	1855
1	1855
1	1855
1	1855
1	29
1	1855
1	1855
1	27
1	1855
1	1855
1	1855
1	1855
1	8
1	1855
1	1855
1	4
1	1855
1	1855
1	1855
1	1855
1	1855
1	14
1	1855
1	1855
1	1855
1	7
1	1855
1	29
1	1855
1	5
1	1855
1	1855
1	1855
1	1855
1	1855
1	1855
1	27
1	1855
1	14
1	1855
1	1855
1	1855
1	1855
1	1855
1	1855
1	3
1	1855
1	1855
1	1855
1	1855
1	1855
1	1855
1	6
1	1855
1	1855
1	1855
1	1855
1	1855
1	1855
1	1855
1	1855
1	1855
1	4
1	1855
1	17
1	5
1	1855
1	1855
1	4
1	1855
1	1855
1	1855
1	1855
1	5
1	1855
1	1855
1	1855
1	1855
1	1855
1	1855
1	1855
1	1855
1	1855
1	1855
1	1855
1	1855
1	1855
1	6
1	1855
1	1855
1	1855
1	1855
1	14
1	1855
1	1855
1	1855
1	1855
1	1855
1	6
1	1855
1	1855
1	1855
1	1855
1	1855
1	1855
1	1855
1	1855
1	1855
1	1855
1	1855
1	1855
1	1855
1	1855
1	1855
1	1855
1	1855
1	1855
1	1855
1	1855
1	1855
1	1855
1	1855
1	1855
1	7
1	4
1	1855
1	1855
1	1855
1	1855
1	10
1	1855
1	5
1	1855
1	1855
1	7
1	1855
1	1855
1	8
1	1855
1	4
1	1855
1	1855
1	1855
1	1855
1	6
1	1855
1	1855
1	1855
1	4
1	1855
1	1855
1	1855
1	3
1	1855
1	1855
1	1855
1	1855
1	1855
1	1855
1	1855
1	7
1	1855
1	1855
1	1855
1	6
1	1855
1	1855
1	1855
1	14
1	1855
1	1855
1	1855
1	1855
1	1855
1	1855
1	1855
1	1855
1	1855
1	1855
1	1855
1	1855
1	1855
1	8
1	12
1	1855
1	1855
1	5
1	1855
1	1855
1	1855
1	1855
1	1855
1	5
1	1855
1	1855
1	1855
1	1855
1	1855
1	1855
1	5
1	1855
1	1855
1	1855
1	1855
1	14
1	1855
1	1855
1	12
1	1855
1	1855
1	1855
1	1855
1	1855
1	1855
1	1855
1	14
1	1855
1	1855
1	1855
1	27
1	1855
1	1855
1	1855
1	1855
1	1855
1	1855
1	8
1	1855
1	1855
1	21
1	1855
1	12
1	29
1	14
1	1855
1	1855
1	1855
1	1855
1	1855
1	1855
1	1855
1	1855
1	1855
1	1855
1	1855
1	1855
1	1855
1	1855
1	14
1	1855
1	1855
1	1855
1	16
1	1855
1	3
1	1855
1	1855
1	4
1	1855
1	1855
1	10
1	1855
1	7
1	1855
1	1855
1	1855
1	1855
1	7
1	1855
1	1855
1	1855
1	1855
1	14
1	1855
1	1855
1	1855
1	1855
1	1855
1	1855
1	1855
1	1855
1	4
1	1855
1	1855
1	1855
1	1855
1	1855
1	1855
1	1855
1	1855
1	1855
1	1855
1	3
1	1855
1	1855
1	1855
1	1855
1	1855
1	1855
1	1855
1	1855
1	5
1	1855
1	1855
1	5
1	1855
1	1855
1	1855
2	4
2	14
2	14
2	5
2	5
2	3
2	5
2	1855
2	7
2	3
2	16
2	21
2	1855
2	15
2	12
2	23
2	3
2	5
2	1855
2	4
2	3
2	6
2	3
2	5
2	1855
2	1855
2	1855
2	4
2	3
2	3
2	9
2	10
2	6
2	4
2	23
2	1855
2	3
2	3
2	12
2	4
2	23
2	6
2	3
2	4
2	9
2	6
2	4
2	14
2	10
2	1855
2	3
2	5
2	4
2	6
2	29
2	4
2	4
2	5
2	7
2	5
2	14
2	3
2	3
2	12
2	10
2	10
2	4
2	7
2	8
2	7
2	23
2	21
2	7
2	6
2	4
2	6
2	3
2	3
2	6
2	8
2	12
2	3
2	21
2	5
2	21
2	23
2	3
2	3
2	4
2	3
2	29
2	3
2	3
2	4
2	3
2	3
2	17
2	3
2	4
2	7
2	15
3	5
3	4
3	7
3	5
3	4
3	21
3	6
3	5
3	4
3	4
3	4
3	6
