1	6124
1	1715
1	1715
1	1715
1	1715
1	9
1	1715
1	1715
1	1715
1	7
1	1715
1	8
1	1715
1	9
1	8
1	1715
1	1715
1	7
1	1715
1	1715
1	15
1	1715
1	1715
1	1715
1	1715
1	9
1	1715
1	1715
1	1715
1	9
1	1715
1	6
1	1715
1	1715
1	1715
1	1715
1	1715
1	1715
1	1715
1	1715
1	1715
1	1715
1	1715
1	1715
1	1715
1	1715
1	1715
1	1715
1	1715
1	1715
1	9
1	1715
1	1715
1	1715
1	1715
1	1715
1	1715
1	1715
1	1715
1	1715
1	7
1	1715
1	1715
1	1715
1	1715
1	1715
1	1715
1	1715
1	7
1	9
1	1715
1	1715
1	1715
1	1715
1	1715
1	1715
1	1715
1	1715
1	1715
1	8
1	1715
1	1715
1	1715
1	7
1	1715
1	1715
1	9
1	1715
1	1715
1	1715
1	1715
1	8
1	1715
1	1715
1	1715
1	1715
1	1715
1	1715
1	1715
1	1715
1	1715
1	1715
1	1715
1	1715
1	14
1	1715
1	1715
1	8
1	1715
1	1715
1	1715
1	1715
1	1715
1	1715
1	1715
1	1715
1	1715
1	8
1	1715
1	1715
1	1715
1	7
1	1715
1	15
1	1715
1	1715
1	1715
1	1715
1	1715
1	1715
1	1715
1	1715
1	1715
1	1715
1	8
1	6
1	1715
1	8
1	1715
1	1715
1	1715
1	1715
1	1715
1	1715
1	1715
1	1715
1	1715
1	1715
1	1715
1	1715
1	1715
1	1715
1	18
1	1715
1	1715
1	1715
1	1715
1	1715
1	1715
1	1715
1	1715
1	1715
1	1715
1	1715
1	1715
1	8
1	1715
1	1715
1	1715
1	6
1	1715
1	1715
1	7
1	8
1	9
1	1715
1	1715
1	1715
1	1715
1	1715
1	1715
1	8
1	1715
1	1715
1	7
1	1715
1	1715
1	1715
1	1715
1	10
1	9
1	1715
1	1715
1	1715
1	1715
1	1715
1	1715
1	1715
1	1715
1	1715
1	1715
1	1715
1	1715
1	1715
1	1715
1	1715
1	1715
1	1715
1	1715
1	1715
1	1715
1	11
1	1715
1	1715
1	6
1	1715
1	4
1	20
1	18
1	1715
1	1715
1	1715
1	1715
1	1715
1	1715
1	1715
1	1715
1	1715
1	1715
1	1715
1	1715
1	1715
1	1715
1	1715
1	1715
1	1715
1	1715
1	1715
1	1715
1	1715
1	1715
1	1715
1	1715
1	1715
1	1715
1	1715
1	1715
1	8
1	1715
1	1715
1	1715
1	1715
1	1715
1	1715
1	8
1	6
1	1715
1	1715
1	1715
1	1715
1	5
1	1715
1	7
1	10
1	1715
1	1715
1	1715
1	1715
1	1715
1	1715
1	1715
1	13
1	1715
1	1715
1	1715
1	10
1	1715
1	1715
1	1715
1	8
1	1715
1	1715
1	1715
1	1715
1	1715
1	1715
1	1715
1	1715
1	1715
1	1715
1	6124
1	1715
1	1715
1	1715
1	1715
1	1715
1	14
1	1715
1	7
1	8
1	18
1	4
1	1715
1	9
1	1715
1	6
1	1715
1	1715
1	1715
1	1715
1	1715
1	1715
1	4
1	1715
1	1715
1	6
1	1715
1	5
1	12
1	1715
1	1715
1	8
1	1715
1	8
1	1715
1	1715
1	1715
1	9
1	1715
1	1715
1	1715
1	1715
1	1715
1	10
1	1715
1	1715
1	1715
1	8
1	1715
1	1715
1	1715
1	1715
1	1715
1	1715
1	1715
1	1715
1	1715
1	1715
1	10
1	1715
1	1715
1	1715
1	7
1	1715
1	1715
1	1715
1	1715
1	1715
1	9
1	1715
1	1715
1	1715
1	1715
1	1715
1	1715
1	1715
1	6
1	1715
1	1715
1	15
1	1715
1	6
1	1715
1	1715
1	12
1	1715
1	10
1	1715
1	1715
1	1715
1	1715
1	1715
1	1715
1	15
1	1715
1	1715
1	1715
1	13
1	1715
1	6
1	1715
1	1715
1	1715
1	1715
1	1715
1	1715
1	1715
1	1715
1	1715
1	8
1	4
1	10
1	6
1	1715
1	1715
1	1715
1	10
1	6124
1	1715
1	15
1	1715
1	1715
1	1715
1	6
1	1715
1	1715
1	1715
1	1715
1	1715
1	1715
1	1715
1	1715
1	1715
1	1715
1	1715
1	1715
1	1715
1	5
1	1715
1	1715
1	1715
1	12
1	1715
1	1715
1	1715
1	1715
1	15
1	1715
1	1715
1	1715
1	9
1	1715
1	12
1	1715
1	1715
1	1715
1	1715
1	1715
1	1715
1	4
1	1715
1	1715
1	1715
1	1715
1	1715
1	1715
1	1715
1	1715
1	1715
1	1715
1	1715
1	1715
1	1715
1	1715
1	1715
1	1715
1	1715
1	1715
1	9
1	1715
1	1715
1	1715
1	1715
1	1715
1	1715
1	1715
1	1715
1	6
1	1715
1	1715
1	1715
1	15
1	1715
1	1715
1	1715
1	1715
1	1715
1	9
1	1715
1	1715
1	1715
1	1715
1	1715
1	1715
1	1715
1	1715
1	1715
1	1715
1	1715
1	9
1	1715
1	1715
1	11
1	1715
1	1715
1	1715
1	1715
1	1715
1	1715
1	1715
1	1715
1	1715
1	1715
1	1715
1	1715
1	7
1	15
1	1715
1	1715
1	10
1	1715
1	9
1	1715
1	1715
1	1715
1	5
1	1715
1	1715
1	1715
1	1715
1	1715
1	1715
1	1715
1	1715
1	1715
1	1715
1	1715
1	1715
1	1715
1	1715
1	1715
1	1715
1	6
1	1715
1	1715
1	1715
1	1715
1	1715
1	1715
1	1715
1	1715
1	1715
1	1715
1	1715
1	1715
1	1715
1	1715
1	8
1	10
1	6
1	1715
1	1715
1	1715
1	1715
1	1715
1	18
1	1715
1	1715
1	15
1	1715
1	1715
1	1715
1	1715
1	1715
1	14
1	1715
1	8
1	1715
1	1715
1	1715
1	1715
1	1715
1	1715
1	1715
1	6
1	1715
1	1715
1	1715
1	1715
1	1715
1	1715
1	1715
1	1715
1	1715
1	1715
1	1715
1	1715
1	1715
1	1715
1	1715
1	1715
1	15
1	10
1	1715
1	1715
1	1715
1	1715
1	1715
1	1715
1	1715
1	1715
1	1715
1	8
1	1715
1	1715
1	1715
1	1715
1	1715
1	1715
1	1715
1	1715
1	1715
1	5
1	1715
1	1715
1	1715
1	1715
1	7
1	1715
1	1715
1	9
1	1715
1	1715
1	1715
1	1715
1	1715
1	6
1	1715
1	1715
1	1715
1	1715
1	1715
1	1715
1	1715
1	1715
1	5
1	1715
1	1715
1	1715
1	14
1	7
1	13
1	5
1	1715
1	1715
1	1715
1	1715
1	1715
1	1715
1	1715
1	1715
1	1715
1	1715
1	1715
1	1715
1	1715
1	8
1	1715
1	1715
1	10
1	1715
1	1715
1	1715
1	7
1	1715
1	1715
1	10
1	10
1	6
1	1715
1	1715
1	1715
1	1715
1	1715
1	4
1	1715
1	1715
1	1715
1	1715
1	1715
1	1715
1	1715
1	1715
1	1715
1	7
1	1715
1	1715
1	1715
1	1715
1	1715
1	1715
1	1715
1	1715
1	1715
1	1715
1	1715
1	1715
1	1715
1	1715
1	1715
1	6
1	1715
1	1715
1	1715
1	1715
1	1715
1	1715
1	10
1	8
1	1715
1	1715
1	1715
1	1715
1	1715
1	4
1	1715
1	1715
1	1715
1	8
1	1715
1	1715
1	1715
1	1715
1	1715
1	1715
1	1715
1	1715
1	1715
1	18
1	5
1	1715
1	1715
1	1715
1	1715
1	1715
1	1715
1	1715
1	1715
1	1715
1	9
1	1715
1	1715
1	1715
1	1715
1	1715
1	1715
1	20
1	1715
1	1715
1	1715
1	1715
1	1715
1	1715
1	1715
1	1715
1	1715
1	1715
1	1715
1	1715
1	1715
1	1715
1	1715
1	1715
1	1715
1	1715
1	1715
1	1715
1	1715
1	1715
1	1715
1	8
1	1715
1	1715
1	1715
1	1715
1	1715
1	1715
1	1715
1	9
1	1715
1	1715
1	1715
1	1715
1	1715
1	1715
1	1715
1	1715
1	1715
1	1715
1	1715
1	1715
1	1715
1	1715
1	1715
1	1715
1	1715
1	1715
1	5
1	5
1	1715
1	1715
1	1715
1	1715
1	10
1	1715
1	1715
1	1715
1	1715
1	1715
1	7
1	1715
1	1715
1	1715
1	1715
1	1715
1	1715
1	1715
1	1715
1	1715
1	1715
1	1715
1	1715
1	1715
1	1715
1	5
1	1715
1	1715
1	12
1	5
1	1715
1	1715
1	1715
1	1715
1	1715
1	1715
1	1715
1	1715
1	1715
1	1715
1	1715
1	1715
1	1715
1	3
1	1715
1	1715
1	1715
1	1715
1	1715
1	5
1	1715
1	1715
1	1715
1	1715
1	1715
1	1715
1	1715
1	1715
1	1715
1	14
1	1715
1	1715
1	1715
1	1715
1	1715
1	1715
1	1715
1	1715
1	1715
1	1715
1	1715
1	4
1	5
1	8
1	1715
1	1715
1	1715
1	1715
1	1715
1	4
1	1715
1	1715
1	1715
1	1715
1	1715
1	1715
1	1715
1	1715
1	1715
1	1715
1	1715
1	8
1	9
1	1715
1	1715
1	1715
1	9
1	1715
1	1715
1	1715
1	1715
1	1715
1	1715
1	1715
1	1715
1	1715
1	1715
1	14
1	1715
1	1715
1	1715
1	1715
1	1715
1	1715
1	1715
1	1715
1	9
1	1715
1	1715
1	1715
1	4
1	1715
1	1715
1	8
1	1715
1	1715
1	3
1	1715
1	1715
1	4
1	5
1	1715
1	1715
1	15
1	1715
1	1715
1	1715
1	1715
1	1715
1	1715
1	5
1	1715
1	14
1	10
1	1715
1	1715
1	1715
1	1715
1	9
1	10
1	1715
1	1715
1	1715
1	1715
1	10
1	1715
1	1715
1	1715
1	1715
1	1715
1	1715
1	1715
1	1715
1	1715
1	1715
1	1715
1	1715
1	1715
1	1715
1	1715
1	1715
1	1715
1	1715
1	1715
1	1715
1	1715
1	1715
1	1715
1	1715
1	9
1	1715
1	1715
1	8
1	1715
1	10
1	1715
1	1715
1	1715
1	1715
1	1715
1	8
1	1715
1	1715
1	1715
1	1715
1	1715
1	1715
1	1715
1	1715
1	1715
1	1715
1	6
1	1715
1	11
1	1715
1	1715
1	1715
1	1715
1	1715
1	1715
1	1715
1	1715
1	12
1	1715
1	1715
1	1715
1	1715
1	1715
1	1715
1	1715
1	1715
1	1715
1	1715
1	18
1	1715
1	1715
1	1715
1	1715
1	1715
1	1715
1	1715
1	12
1	1715
1	1715
1	1715
1	8
1	1715
1	1715
1	5
1	1715
1	1715
1	1715
1	1715
1	1715
1	1715
1	4
1	1715
1	1715
1	1715
1	1715
1	1715
1	1715
1	1715
1	1715
1	1715
1	1715
1	1715
1	1715
1	1715
1	1715
1	13
1	1715
1	1715
1	1715
1	1715
1	6
1	1715
1	1715
1	8
1	1715
1	11
1	18
1	1715
1	1715
1	1715
1	1715
1	3
1	4
1	1715
1	1715
1	7
1	1715
1	1715
1	1715
1	1715
1	1715
1	1715
1	1715
1	9
1	10
1	1715
1	1715
1	1715
1	1715
1	1715
1	1715
1	1715
1	1715
1	1715
1	10
1	1715
1	1715
1	1715
1	1715
1	1715
1	5
1	1715
1	1715
1	1715
1	9
1	1715
1	1715
1	1715
1	1715
1	1715
1	13
1	1715
1	10
1	1715
1	1715
1	1715
1	1715
1	1715
1	9
1	1715
1	12
1	1715
1	1715
1	1715
1	1715
1	1715
1	1715
1	1715
1	1715
1	9
1	7
1	7
1	1715
1	3
1	1715
1	1715
1	8
1	1715
1	1715
1	1715
1	1715
1	18
1	1715
1	1715
1	1715
1	1715
1	1715
1	20
1	1715
1	1715
1	1715
1	1715
1	1715
1	1715
1	1715
1	5
1	1715
1	1715
1	1715
1	1715
1	1715
1	1715
1	1715
1	1715
1	1715
1	5
1	10
1	1715
1	8
1	1715
1	1715
1	1715
1	1715
1	1715
1	1715
1	1715
1	15
1	11
1	8
1	7
1	1715
1	1715
1	1715
1	18
1	1715
1	1715
1	1715
1	1715
1	1715
1	1715
1	1715
1	1715
1	1715
1	11
1	1715
1	1715
1	1715
1	1715
1	1715
1	1715
1	1715
1	1715
1	1715
1	1715
1	1715
1	1715
1	1715
1	1715
1	1715
1	6
1	1715
1	1715
1	1715
1	1715
1	1715
1	1715
1	1715
1	1715
1	1715
1	1715
1	1715
1	1715
1	1715
1	1715
1	1715
1	10
1	1715
1	1715
1	1715
1	5
1	1715
1	1715
1	8
1	1715
1	1715
1	1715
1	1715
1	1715
1	8
1	1715
1	1715
1	1715
1	1715
1	9
1	1715
1	13
1	1715
1	1715
1	1715
1	1715
1	1715
1	4
1	1715
1	1715
1	1715
1	1715
1	1715
1	7
1	1715
1	1715
1	1715
1	7
1	1715
1	1715
1	1715
1	1715
1	1715
1	1715
1	1715
1	1715
1	1715
1	1715
1	1715
1	1715
1	1715
1	1715
1	1715
1	1715
1	1715
1	9
1	18
1	7
1	1715
1	1715
1	1715
1	1715
1	1715
1	1715
1	1715
1	1715
1	1715
1	1715
1	1715
1	1715
1	1715
1	1715
1	6
1	1715
1	3
1	1715
1	15
1	1715
1	1715
1	1715
1	1715
1	1715
1	1715
1	3
1	1715
1	18
1	15
1	1715
1	1715
1	20
1	1715
1	1715
1	1715
1	5
1	1715
1	1715
1	1715
1	8
1	1715
1	1715
1	1715
1	1715
1	1715
1	1715
1	1715
1	1715
1	1715
1	1715
1	1715
1	1715
1	1715
1	1715
1	1715
1	1715
1	1715
1	1715
1	1715
1	1715
1	1715
1	1715
1	1715
1	1715
1	1715
1	1715
1	1715
1	1715
1	3
1	12
1	1715
1	1715
1	1715
1	1715
1	1715
1	1715
1	1715
1	1715
1	1715
1	10
1	1715
1	1715
1	9
1	1715
1	1715
1	1715
1	1715
1	1715
1	1715
1	1715
1	1715
1	1715
1	4
1	1715
1	1715
1	1715
1	1715
1	1715
1	4
1	1715
1	1715
1	1715
1	1715
1	9
1	1715
1	1715
1	1715
1	1715
1	1715
1	1715
1	1715
1	1715
1	8
1	5
1	9
1	1715
1	1715
1	1715
1	1715
1	1715
1	9
1	4
1	1715
1	14
1	1715
1	1715
1	1715
1	1715
1	1715
1	6
1	1715
1	1715
1	1715
1	6
1	1715
1	1715
1	1715
1	1715
1	9
1	1715
1	1715
1	1715
1	1715
1	1715
1	1715
1	1715
1	1715
1	1715
1	1715
1	1715
1	8
1	1715
1	1715
1	1715
1	1715
1	1715
1	1715
1	1715
1	1715
1	15
1	1715
1	1715
1	1715
1	1715
1	1715
1	1715
1	1715
1	6
1	1715
1	5
1	1715
1	1715
1	1715
1	1715
1	1715
1	1715
1	1715
1	1715
1	1715
1	1715
1	8
1	1715
1	1715
1	1715
1	1715
1	1715
1	1715
1	1715
1	1715
1	1715
1	1715
1	7
1	6
1	1715
1	1715
1	1715
1	1715
1	1715
1	1715
1	1715
1	1715
1	13
1	1715
1	1715
1	1715
1	1715
1	9
1	1715
1	1715
1	1715
1	1715
1	1715
1	1715
1	1715
1	1715
1	1715
1	1715
1	1715
1	1715
1	1715
1	1715
1	1715
1	5
1	1715
1	1715
1	1715
1	1715
1	1715
1	1715
1	1715
1	1715
1	1715
1	1715
1	1715
1	1715
1	1715
1	1715
1	1715
1	1715
1	6
1	1715
1	1715
1	1715
1	1715
1	1715
1	18
1	1715
1	1715
1	1715
1	1715
1	1715
1	3
1	1715
1	1715
1	1715
1	8
1	1715
1	1715
1	1715
1	1715
1	10
1	1715
1	1715
1	1715
1	1715
1	1715
1	1715
1	8
1	1715
1	1715
1	1715
1	1715
1	1715
1	1715
1	1715
1	1715
1	6
1	7
1	1715
1	1715
1	1715
1	1715
1	1715
1	1715
1	1715
1	1715
1	1715
1	1715
1	1715
1	1715
1	1715
1	1715
1	1715
1	1715
1	1715
1	9
1	20
1	1715
1	9
1	1715
1	1715
1	1715
1	1715
1	1715
1	1715
1	1715
1	1715
1	15
1	9
1	11
1	1715
1	1715
1	1715
1	15
1	1715
1	1715
1	15
1	1715
1	1715
1	1715
1	1715
1	1715
1	1715
1	8
1	1715
1	1715
1	1715
1	1715
1	1715
1	1715
1	1715
1	1715
1	1715
1	1715
1	1715
1	1715
1	1715
1	1715
1	1715
1	1715
1	1715
1	1715
1	1715
1	1715
1	4
1	1715
1	1715
1	1715
1	1715
1	1715
1	1715
1	1715
1	1715
1	1715
1	5
1	1715
1	10
1	7
1	8
1	1715
1	1715
1	1715
1	1715
1	1715
1	1715
1	1715
1	1715
1	1715
1	1715
1	1715
1	1715
1	1715
1	4
1	5
1	12
1	1715
1	1715
1	1715
1	1715
1	1715
1	1715
1	1715
1	1715
1	10
1	1715
1	1715
1	1715
1	9
1	1715
1	8
1	7
1	1715
1	1715
1	1715
1	1715
1	1715
1	1715
1	1715
1	1715
1	1715
1	1715
1	1715
1	1715
1	7
1	5
1	1715
1	1715
1	7
1	1715
1	1715
1	1715
1	8
1	6
1	1715
1	1715
1	9
1	1715
1	1715
1	1715
1	1715
1	1715
1	1715
1	20
1	1715
1	7
1	1715
1	1715
1	1715
1	1715
1	1715
1	1715
1	1715
1	1715
1	1715
1	1715
1	1715
1	1715
1	1715
1	1715
1	9
1	1715
1	1715
1	1715
1	1715
1	9
1	1715
1	1715
1	3
1	1715
1	1715
1	5
1	1715
1	1715
1	1715
1	8
1	1715
1	1715
1	1715
1	1715
1	1715
1	1715
1	1715
1	13
1	1715
1	1715
1	6
1	12
1	1715
1	1715
1	1715
1	1715
1	1715
1	1715
1	1715
1	1715
1	1715
1	1715
1	1715
1	1715
1	6
1	1715
1	1715
1	9
1	1715
1	1715
1	1715
1	1715
1	20
1	18
1	9
1	13
1	1715
1	1715
1	1715
1	1715
1	1715
1	1715
1	1715
1	1715
1	1715
1	1715
1	1715
1	1715
1	1715
1	1715
1	1715
1	1715
1	1715
1	1715
1	1715
1	1715
1	1715
1	1715
1	1715
1	1715
1	1715
1	1715
1	1715
1	5
1	5
1	3
1	1715
1	1715
1	1715
1	1715
1	1715
1	1715
1	9
1	1715
1	1715
1	1715
1	1715
1	1715
1	20
1	10
1	1715
1	1715
1	1715
1	1715
1	1715
1	1715
1	1715
1	13
1	1715
1	1715
1	1715
1	7
1	1715
1	6
1	1715
1	1715
1	4
1	1715
1	12
1	1715
1	1715
1	1715
1	1715
1	1715
1	1715
1	1715
1	12
1	1715
1	7
1	8
1	1715
1	1715
1	1715
1	1715
1	1715
1	1715
1	1715
1	1715
1	7
1	15
1	4
1	1715
1	1715
1	1715
2	1715
2	1715
2	4
2	1715
2	8
2	3
2	6
2	4
2	6
2	3
2	4
2	5
2	12
2	6
2	6
2	20
2	4
2	4
2	6
2	6
2	1715
2	18
2	5
2	6
2	4
2	5
2	7
2	7
2	9
2	7
2	1715
2	4
2	9
2	3
2	4
2	1715
2	9
2	6
2	3
2	1715
2	4
2	7
2	10
2	7
2	3
2	3
2	10
2	3
2	9
2	8
2	1715
2	6
2	3
2	7
2	9
2	8
2	1715
2	3
2	6
2	12
2	1715
2	9
2	4
2	5
2	6
2	1715
2	9
2	4
2	6
2	5
2	1715
2	20
2	7
2	7
2	8
2	6
2	3
2	1715
2	3
2	4
2	8
2	4
2	6
2	4
2	8
2	7
2	4
2	9
2	9
2	9
2	11
2	6
2	5
2	6
2	12
2	9
2	6
2	4
2	3
2	3
2	6
2	6
2	15
2	7
2	5
2	10
2	6
2	4
2	4
2	3
2	6
2	6
2	6
2	6
2	9
2	3
2	5
2	3
2	7
2	7
2	6
3	5
3	6
3	7
3	5
3	4
3	4
3	5
3	8
3	4
3	4
3	5
3	7
3	4
