1	6124
1	464
1	464
1	11
1	464
1	8
1	464
1	10
1	464
1	464
1	464
1	9
1	464
1	464
1	464
1	464
1	464
1	464
1	464
1	464
1	464
1	464
1	464
1	464
1	464
1	14
1	464
1	464
1	9
1	464
1	464
1	464
1	464
1	464
1	464
1	464
1	14
1	464
1	7
1	10
1	464
1	464
1	464
1	464
1	464
1	11
1	464
1	464
1	464
1	464
1	464
1	464
1	464
1	464
1	9
1	464
1	464
1	8
1	9
1	464
1	464
1	464
1	464
1	464
1	464
1	464
1	6124
1	464
1	12
1	464
1	464
1	464
1	464
1	12
1	464
1	464
1	464
1	8
1	464
1	464
1	464
1	464
1	464
1	5
1	9
1	464
1	464
1	464
1	464
1	464
1	464
1	8
1	464
1	464
1	464
1	464
1	464
1	464
1	5
1	464
1	464
1	464
1	464
1	464
1	464
1	464
1	464
1	464
1	464
1	464
1	464
1	464
1	464
1	464
1	464
1	464
1	464
1	464
1	3
1	464
1	464
1	464
1	464
1	16
1	464
1	464
1	464
1	464
1	464
1	464
1	464
1	16
1	464
1	464
1	464
1	464
1	8
1	16
1	7
1	464
1	464
1	464
1	464
1	464
1	9
1	11
1	464
1	16
1	464
1	464
1	464
1	464
1	464
1	464
1	464
1	4
1	12
1	464
1	464
1	9
1	11
1	7
1	464
1	10
1	464
1	4
1	464
1	9
1	464
1	464
1	11
1	464
1	464
1	464
1	464
1	16
1	6
1	464
1	464
1	464
1	7
1	464
1	10
1	464
1	464
1	3
1	464
1	464
1	464
1	9
1	16
1	464
1	464
1	5
1	464
1	3
1	464
1	464
1	464
1	464
1	464
1	5
1	464
1	464
1	464
1	11
1	464
1	464
1	8
1	464
1	5
1	464
1	464
1	464
1	11
1	6
1	9
1	464
1	464
1	464
1	5
1	464
1	464
1	464
1	464
1	464
1	11
1	464
1	464
1	464
1	11
1	464
1	464
1	10
1	464
1	9
1	464
1	464
1	464
1	4
1	464
1	464
1	6124
1	464
1	464
1	464
1	464
1	464
1	464
1	4
1	3
1	464
1	464
1	464
1	464
1	464
1	11
1	8
1	464
1	464
1	464
1	6
1	464
1	464
1	11
1	464
1	464
1	464
1	464
1	464
1	464
1	4
1	464
1	464
1	7
1	464
1	464
1	464
1	464
1	464
1	464
1	464
1	464
1	464
1	464
1	464
1	464
1	464
1	4
1	464
1	12
1	464
1	464
1	464
1	464
1	4
1	11
1	464
1	464
1	464
1	464
1	464
1	464
1	464
1	464
1	464
1	464
1	464
1	464
1	464
1	464
1	464
1	464
1	464
1	464
1	464
1	464
1	464
1	4
1	464
1	464
1	464
1	5
1	464
1	4
1	464
1	464
1	464
1	7
1	464
1	464
1	464
1	6
1	464
1	464
1	464
1	464
1	11
1	464
1	9
1	464
1	464
1	464
1	464
1	464
1	464
1	12
1	4
1	5
1	464
1	464
1	464
1	464
1	464
1	464
1	464
1	464
1	464
1	464
1	9
1	464
1	10
1	16
1	464
1	464
1	464
1	464
1	464
1	10
1	464
1	4
1	464
1	464
1	464
1	464
1	6
1	464
1	464
1	464
1	464
1	464
1	464
1	464
1	464
1	464
1	14
1	6
1	464
1	464
1	6
1	464
1	464
1	464
1	5
1	464
1	464
1	464
1	464
1	464
1	464
1	464
1	464
1	464
1	464
1	464
1	464
1	464
1	11
1	4
1	16
1	464
1	464
1	464
1	464
1	5
1	7
1	464
1	464
1	3
1	4
1	464
1	464
1	464
1	464
1	464
1	464
1	464
1	10
1	464
1	464
1	464
1	3
1	464
1	10
1	14
1	4
1	464
1	464
1	464
1	464
1	464
1	464
1	464
1	464
1	464
1	464
1	3
1	464
1	464
1	464
1	464
1	3
1	5
1	464
1	464
1	464
1	5
1	464
1	464
1	7
1	464
1	464
1	464
1	5
1	464
1	464
1	464
1	6
1	464
1	464
1	464
1	464
1	464
1	6
1	4
1	464
1	464
1	3
1	6
1	3
1	3
1	464
1	3
1	464
1	464
1	464
1	464
1	6
1	464
1	464
1	6
1	12
1	464
1	4
1	464
1	464
1	5
1	4
1	10
1	464
1	464
1	6
1	12
1	464
1	464
1	464
1	464
1	464
2	5
2	8
2	14
2	464
2	3
2	3
2	464
2	4
2	8
2	3
2	8
2	464
2	3
2	4
2	9
2	4
2	4
2	464
2	11
2	4
2	8
2	464
2	3
2	5
2	6
2	14
2	14
2	8
2	14
2	4
2	3
2	3
2	8
2	464
2	4
2	10
2	4
2	10
2	8
2	3
2	5
2	11
2	3
2	4
2	5
2	4
2	3
2	8
2	3
2	3
2	6
2	7
2	3
2	4
2	6
2	14
2	3
3	4
3	10
3	5
3	11
3	7
