1	6124
1	863
1	863
1	863
1	863
1	863
1	863
1	863
1	17
1	863
1	863
1	14
1	863
1	863
1	863
1	863
1	863
1	6124
1	863
1	863
1	863
1	863
1	863
1	863
1	863
1	863
1	863
1	12
1	863
1	863
1	863
1	863
1	8
1	863
1	17
1	17
1	863
1	863
1	863
1	863
1	863
1	863
1	863
1	863
1	17
1	863
1	863
1	863
1	863
1	863
1	863
1	863
1	9
1	863
1	863
1	863
1	863
1	863
1	863
1	12
1	863
1	863
1	863
1	863
1	863
1	863
1	863
1	8
1	863
1	863
1	863
1	10
1	863
1	8
1	7
1	863
1	863
1	863
1	863
1	863
1	863
1	17
1	863
1	863
1	5
1	863
1	863
1	4
1	863
1	863
1	12
1	863
1	863
1	863
1	863
1	17
1	863
1	863
1	863
1	863
1	12
1	863
1	5
1	863
1	863
1	863
1	863
1	8
1	863
1	9
1	863
1	863
1	9
1	863
1	863
1	863
1	863
1	3
1	863
1	10
1	863
1	8
1	863
1	863
1	863
1	863
1	863
1	6124
1	17
1	863
1	863
1	863
1	863
1	863
1	863
1	863
1	863
1	3
1	863
1	863
1	17
1	863
1	863
1	863
1	863
1	863
1	863
1	863
1	863
1	8
1	863
1	863
1	863
1	863
1	863
1	863
1	863
1	863
1	863
1	863
1	863
1	863
1	17
1	863
1	863
1	863
1	863
1	863
1	863
1	863
1	12
1	863
1	863
1	863
1	863
1	863
1	863
1	12
1	863
1	863
1	863
1	863
1	863
1	863
1	863
1	17
1	863
1	863
1	863
1	863
1	9
1	863
1	14
1	863
1	863
1	863
1	863
1	863
1	863
1	863
1	863
1	863
1	863
1	863
1	6
1	863
1	863
1	863
1	9
1	5
1	8
1	863
1	9
1	17
1	863
1	863
1	863
1	863
1	863
1	863
1	863
1	863
1	863
1	863
1	863
1	863
1	863
1	863
1	863
1	863
1	863
1	12
1	4
1	17
1	863
1	863
1	863
1	863
1	863
1	863
1	863
1	9
1	863
1	863
1	863
1	863
1	863
1	863
1	863
1	863
1	4
1	863
1	863
1	863
1	863
1	863
1	863
1	863
1	863
1	5
1	863
1	863
1	863
1	863
1	863
1	863
1	863
1	863
1	863
1	863
1	863
1	863
1	863
1	863
1	863
1	3
1	863
1	863
1	863
1	863
1	863
1	6
1	17
1	863
1	863
1	7
1	7
1	863
1	863
1	863
1	863
1	863
1	863
1	863
1	6
1	863
1	863
1	863
1	863
1	863
1	863
1	863
1	863
1	863
1	863
1	863
1	863
1	863
1	863
1	863
1	863
1	863
1	863
1	8
1	863
1	14
1	863
1	863
1	863
1	17
1	6
1	863
1	863
1	8
1	6
1	863
1	863
1	863
1	863
1	17
1	863
1	863
1	7
1	863
1	17
1	9
1	863
1	10
1	863
1	8
1	863
1	863
1	863
1	863
1	17
1	863
1	863
1	863
1	863
1	863
1	863
1	863
1	863
1	863
1	863
1	863
1	863
1	863
1	863
1	863
1	863
1	4
1	863
1	863
1	5
1	863
1	863
1	863
1	863
1	863
1	4
1	863
1	12
1	863
1	863
1	863
1	863
1	863
1	863
1	863
1	863
1	863
1	863
1	5
1	863
1	863
1	863
1	6
1	863
1	5
1	3
1	863
1	863
1	863
1	863
1	863
1	863
1	863
1	863
1	863
1	863
1	863
1	863
1	863
1	863
1	863
1	863
1	863
1	863
1	863
1	863
1	863
1	863
1	863
1	863
1	863
1	863
1	863
1	863
1	863
1	7
1	863
1	863
1	863
1	863
1	863
1	863
1	863
1	863
1	863
1	5
1	863
1	863
1	863
1	863
1	863
1	7
1	863
1	863
1	14
1	863
1	863
1	863
1	863
1	6
1	863
1	863
1	863
1	863
1	863
1	863
1	7
1	863
1	8
1	863
1	4
1	863
1	8
1	863
1	863
1	863
1	863
1	14
1	863
1	863
1	863
1	5
1	863
1	863
1	863
1	863
1	863
1	863
1	863
1	863
1	863
1	863
1	17
1	863
1	863
1	863
1	5
1	863
1	8
1	863
1	863
1	863
1	863
1	863
1	863
1	863
1	863
1	863
1	863
1	863
1	863
1	863
1	863
1	863
1	3
1	863
1	863
1	863
1	3
1	863
1	863
1	863
1	863
1	9
1	863
1	863
1	863
1	863
1	863
1	863
1	863
1	863
1	863
1	12
1	863
1	863
1	863
1	863
1	863
1	863
1	863
1	5
1	17
1	863
1	863
1	863
1	863
1	863
1	5
1	14
1	863
1	863
1	5
1	863
1	863
1	863
1	863
1	14
1	863
1	863
1	863
1	863
1	6
1	863
1	863
1	6
1	17
1	863
1	863
1	8
1	863
1	863
1	863
1	863
1	863
1	863
1	863
1	863
1	863
1	863
1	863
1	863
1	863
1	863
1	863
1	863
1	863
1	863
1	863
1	6
1	863
1	863
1	863
1	863
1	863
1	863
1	863
1	863
1	5
1	863
1	863
1	863
1	863
1	863
1	863
1	863
1	863
1	863
1	863
1	863
1	863
1	863
1	863
1	863
1	863
1	863
1	863
1	863
1	863
1	863
1	863
1	5
1	863
1	863
1	863
1	863
1	863
1	5
1	863
1	863
1	5
1	863
1	863
1	863
1	863
1	863
1	863
1	863
1	8
1	863
1	863
1	863
1	4
1	863
1	863
1	863
1	863
1	863
1	863
1	863
1	863
1	863
1	863
1	863
1	863
1	863
1	863
1	863
1	863
1	863
1	863
1	863
1	863
1	863
1	863
1	863
1	863
1	863
1	863
1	863
1	863
1	3
1	863
1	863
1	863
1	863
1	863
1	863
1	4
1	863
1	863
1	863
1	3
1	863
1	863
1	863
1	863
1	863
1	863
1	863
1	863
1	5
1	863
1	863
1	863
1	863
1	863
1	863
1	863
1	863
1	863
1	863
1	863
1	863
1	863
1	863
1	863
1	863
1	863
1	863
1	863
1	863
1	863
1	863
1	863
1	863
1	863
1	863
1	863
1	863
1	863
1	863
1	863
1	863
1	863
1	863
1	863
1	863
1	863
1	863
1	863
1	863
1	4
1	863
1	6
1	863
1	863
1	863
1	863
1	863
1	863
1	863
1	863
1	863
1	863
1	8
1	863
1	863
1	863
1	863
1	863
1	863
1	6
1	863
1	863
1	863
1	863
1	4
1	863
1	863
1	863
1	6
1	863
1	6
1	863
1	863
1	863
1	5
1	863
1	863
1	5
1	863
1	14
1	863
1	863
1	863
1	863
1	4
1	863
1	6
1	863
1	863
1	863
1	863
1	863
1	863
1	863
1	14
1	17
1	863
1	8
1	863
1	863
1	863
1	863
1	863
1	863
1	863
1	863
1	863
1	5
1	3
1	863
1	863
1	7
1	6
1	863
1	14
1	6
1	14
1	863
1	863
1	863
1	863
1	863
1	863
1	863
1	863
1	863
1	863
1	863
1	863
1	863
1	863
1	863
1	863
1	863
1	3
1	863
1	863
1	863
1	863
1	863
1	863
1	863
1	17
1	863
1	863
1	863
1	863
1	863
1	863
1	863
1	5
1	863
1	4
1	863
1	863
1	863
1	863
1	863
1	3
1	863
1	863
1	863
1	863
1	863
1	863
1	863
1	863
1	863
1	863
1	863
1	863
1	5
1	863
1	863
1	863
1	863
1	7
1	863
1	863
1	863
1	9
1	863
1	6
1	863
1	863
1	863
1	863
1	863
1	863
1	863
1	863
1	863
1	17
1	863
1	863
1	863
1	5
1	863
1	6
1	863
1	863
1	8
1	863
1	863
1	5
1	863
1	863
1	863
1	863
1	863
1	863
1	863
1	863
1	12
1	863
1	5
1	4
1	863
1	863
1	863
1	863
1	863
1	863
1	863
1	863
1	863
1	3
1	863
1	863
1	863
1	863
1	863
1	863
1	863
1	863
1	863
1	863
1	863
1	863
1	863
1	863
1	863
1	863
1	863
1	4
1	863
1	5
1	863
1	863
1	863
1	863
1	863
1	7
1	863
1	5
1	863
1	863
1	863
1	863
1	4
1	863
1	863
1	863
1	863
1	863
1	863
1	4
2	863
2	4
2	17
2	863
2	12
2	4
2	8
2	3
2	8
2	3
2	6
2	10
2	8
2	7
2	7
2	6
2	5
2	12
2	6
2	8
2	12
2	10
2	3
2	5
2	12
2	4
2	17
2	863
2	12
2	10
2	3
2	12
2	8
2	863
2	863
2	6
2	12
2	5
2	3
2	7
2	4
2	3
2	3
2	4
2	12
2	3
2	6
2	7
2	14
2	3
2	12
2	3
2	12
2	4
3	7
3	5
3	5
