1	6124
1	2585
1	2585
1	2585
1	2585
1	2585
1	2585
1	2585
1	2585
1	2585
1	2585
1	2585
1	2585
1	2585
1	2585
1	2585
1	2585
1	2585
1	2585
1	2585
1	2585
1	2585
1	2585
1	2585
1	2585
1	13
1	2585
1	2585
1	2585
1	26
1	2585
1	2585
1	2585
1	22
1	2585
1	2585
1	12
1	2585
1	2585
1	22
1	17
1	2585
1	2585
1	2585
1	2585
1	2585
1	2585
1	2585
1	2585
1	2585
1	2585
1	2585
1	2585
1	2585
1	2585
1	2585
1	2585
1	2585
1	2585
1	2585
1	2585
1	2585
1	2585
1	2585
1	2585
1	2585
1	2585
1	2585
1	2585
1	2585
1	2585
1	2585
1	2585
1	2585
1	2585
1	2585
1	2585
1	2585
1	2585
1	2585
1	2585
1	2585
1	2585
1	84
1	14
1	2585
1	11
1	2585
1	2585
1	2585
1	26
1	2585
1	2585
1	2585
1	2585
1	2585
1	2585
1	2585
1	2585
1	2585
1	2585
1	2585
1	2585
1	2585
1	2585
1	2585
1	2585
1	2585
1	2585
1	12
1	2585
1	2585
1	2585
1	2585
1	22
1	2585
1	13
1	2585
1	2585
1	2585
1	2585
1	2585
1	2585
1	2585
1	2585
1	2585
1	2585
1	2585
1	2585
1	2585
1	2585
1	12
1	2585
1	2585
1	2585
1	2585
1	2585
1	2585
1	2585
1	7
1	2585
1	2585
1	2585
1	2585
1	2585
1	4
1	22
1	2585
1	7
1	2585
1	17
1	2585
1	2585
1	2585
1	2585
1	2585
1	2585
1	2585
1	2585
1	2585
1	2585
1	84
1	2585
1	2585
1	17
1	84
1	2585
1	11
1	2585
1	2585
1	2585
1	2585
1	2585
1	2585
1	19
1	12
1	2585
1	2585
1	2585
1	2585
1	2585
1	2585
1	4
1	2585
1	2585
1	2585
1	2585
1	2585
1	2585
1	2585
1	2585
1	9
1	2585
1	9
1	2585
1	2585
1	2585
1	2585
1	2585
1	12
1	2585
1	19
1	2585
1	2585
1	2585
1	42
1	2585
1	2585
1	2585
1	2585
1	2585
1	2585
1	2585
1	2585
1	2585
1	2585
1	2585
1	2585
1	2585
1	11
1	18
1	11
1	4
1	2585
1	2585
1	2585
1	2585
1	11
1	22
1	2585
1	2585
1	2585
1	2585
1	2585
1	2585
1	10
1	42
1	2585
1	9
1	2585
1	2585
1	42
1	2585
1	2585
1	2585
1	2585
1	2585
1	2585
1	2585
1	2585
1	2585
1	2585
1	10
1	2585
1	2585
1	2585
1	2585
1	2585
1	2585
1	2585
1	9
1	2585
1	42
1	2585
1	2585
1	2585
1	2585
1	2585
1	2585
1	2585
1	2585
1	2585
1	10
1	7
1	19
1	2585
1	2585
1	2585
1	2585
1	2585
1	2585
1	2585
1	2585
1	2585
1	2585
1	2585
1	2585
1	2585
1	2585
1	2585
1	2585
1	19
1	2585
1	12
1	2585
1	2585
1	2585
1	2585
1	2585
1	2585
1	2585
1	2585
1	2585
1	2585
1	2585
1	10
1	2585
1	2585
1	42
1	14
1	2585
1	2585
1	8
1	2585
1	2585
1	2585
1	2585
1	2585
1	12
1	2585
1	5
1	2585
1	2585
1	2585
1	12
1	2585
1	2585
1	2585
1	2585
1	2585
1	2585
1	2585
1	2585
1	2585
1	5
1	84
1	16
1	2585
1	2585
1	2585
1	2585
1	2585
1	2585
1	2585
1	2585
1	2585
1	12
1	2585
1	2585
1	2585
1	2585
1	2585
1	2585
1	5
1	2585
1	2585
1	2585
1	2585
1	2585
1	2585
1	2585
1	2585
1	2585
1	2585
1	2585
1	2585
1	2585
1	2585
1	2585
1	2585
1	2585
1	2585
1	2585
1	2585
1	2585
1	2585
1	2585
1	2585
1	2585
1	2585
1	2585
1	2585
1	2585
1	2585
1	12
1	2585
1	5
1	2585
1	2585
1	2585
1	2585
1	2585
1	2585
1	2585
1	2585
1	2585
1	2585
1	2585
1	2585
1	2585
1	2585
1	2585
1	2585
1	2585
1	2585
1	2585
1	5
1	2585
1	19
1	2585
1	2585
1	2585
1	2585
1	2585
1	2585
1	2585
1	2585
1	2585
1	42
1	2585
1	2585
1	2585
1	2585
1	2585
1	2585
1	2585
1	2585
1	2585
1	2585
1	15
1	2585
1	2585
1	2585
1	22
1	2585
1	2585
1	2585
1	11
1	2585
1	2585
1	2585
1	2585
1	2585
1	2585
1	2585
1	2585
1	2585
1	2585
1	2585
1	2585
1	7
1	2585
1	2585
1	18
1	42
1	2585
1	2585
1	2585
1	2585
1	2585
1	2585
1	2585
1	2585
1	2585
1	2585
1	2585
1	2585
1	2585
1	2585
1	2585
1	22
1	2585
1	2585
1	2585
1	2585
1	12
1	2585
1	9
1	42
1	42
1	2585
1	2585
1	2585
1	9
1	2585
1	2585
1	2585
1	2585
1	2585
1	84
1	2585
1	2585
1	2585
1	2585
1	2585
1	2585
1	2585
1	2585
1	2585
1	4
1	6
1	2585
1	2585
1	2585
1	2585
1	2585
1	2585
1	2585
1	2585
1	2585
1	2585
1	2585
1	2585
1	2585
1	2585
1	13
1	2585
1	2585
1	2585
1	2585
1	2585
1	12
1	2585
1	2585
1	2585
1	2585
1	6
1	2585
1	2585
1	2585
1	2585
1	2585
1	2585
1	2585
1	2585
1	2585
1	13
1	2585
1	2585
1	2585
1	2585
1	3
1	2585
1	2585
1	2585
1	2585
1	2585
1	3
1	2585
1	2585
1	2585
1	2585
1	2585
1	3
1	13
1	16
1	2585
1	10
1	14
1	2585
1	2585
1	2585
1	2585
1	2585
1	2585
1	2585
1	2585
1	26
1	2585
1	2585
1	2585
1	2585
1	7
1	2585
1	2585
1	2585
1	2585
1	2585
1	2585
1	6
1	2585
1	2585
1	2585
1	7
1	2585
1	2585
1	2585
1	2585
1	2585
1	2585
1	2585
1	2585
1	2585
1	2585
1	2585
1	2585
1	2585
1	2585
1	11
1	2585
1	2585
1	2585
1	6
1	2585
1	2585
1	2585
1	2585
1	17
1	2585
1	2585
1	2585
1	2585
1	7
1	2585
1	2585
1	2585
1	2585
1	2585
1	5
1	2585
1	2585
1	2585
1	2585
1	2585
1	2585
1	2585
1	7
1	2585
1	2585
1	2585
1	2585
1	2585
1	42
1	2585
1	2585
1	2585
1	2585
1	13
1	2585
1	2585
1	2585
1	2585
1	2585
1	4
1	2585
1	2585
1	12
1	10
1	2585
1	2585
1	2585
1	2585
1	2585
1	2585
1	2585
1	8
1	2585
1	2585
1	15
1	2585
1	2585
1	2585
1	2585
1	2585
1	2585
1	13
1	2585
1	2585
1	2585
1	2585
1	2585
1	2585
1	2585
1	2585
1	2585
1	2585
1	2585
1	2585
1	2585
1	7
1	2585
1	2585
1	9
1	2585
1	2585
1	17
1	2585
1	2585
1	2585
1	2585
1	2585
1	10
1	2585
1	2585
1	2585
1	19
1	2585
1	2585
1	2585
1	2585
1	2585
1	2585
1	2585
1	2585
1	2585
1	2585
1	2585
1	2585
1	2585
1	10
1	2585
1	2585
1	2585
1	2585
1	15
1	2585
1	3
1	2585
1	2585
1	2585
1	2585
1	2585
1	2585
1	2585
1	2585
1	2585
1	12
1	2585
1	2585
1	2585
1	2585
1	2585
1	2585
1	12
1	2585
1	2585
1	2585
1	2585
1	2585
1	2585
1	2585
1	2585
1	2585
1	2585
1	2585
1	12
1	2585
1	2585
1	2585
1	12
1	2585
1	2585
1	2585
1	2585
1	2585
1	2585
1	2585
1	2585
1	2585
1	2585
1	2585
1	2585
1	2585
1	12
1	2585
1	2585
1	2585
1	2585
1	2585
1	2585
1	2585
1	2585
1	7
1	2585
1	2585
1	2585
1	2585
1	2585
1	2585
1	2585
1	2585
1	10
1	13
1	2585
1	2585
1	2585
1	2585
1	12
1	2585
1	2585
1	2585
1	2585
1	2585
1	2585
1	42
1	7
1	2585
1	2585
1	5
1	2585
1	2585
1	2585
1	11
1	84
1	2585
1	2585
1	2585
1	2585
1	6
1	2585
1	2585
1	2585
1	2585
1	12
1	2585
1	22
1	2585
1	2585
1	2585
1	2585
1	2585
1	2585
1	2585
1	2585
1	2585
1	84
1	2585
1	2585
1	16
1	2585
1	2585
1	2585
1	2585
1	2585
1	2585
1	18
1	2585
1	2585
1	2585
1	2585
1	2585
1	2585
1	2585
1	19
1	2585
1	17
1	2585
1	2585
1	2585
1	6
1	2585
1	2585
1	9
1	2585
1	2585
1	2585
1	2585
1	2585
1	2585
1	2585
1	2585
1	2585
1	2585
1	10
1	2585
1	4
1	2585
1	22
1	2585
1	2585
1	2585
1	2585
1	2585
1	2585
1	2585
1	2585
1	2585
1	2585
1	2585
1	2585
1	2585
1	2585
1	2585
1	2585
1	2585
1	2585
1	2585
1	2585
1	2585
1	2585
1	7
1	2585
1	18
1	2585
1	2585
1	6
1	2585
1	2585
1	2585
1	2585
1	2585
1	5
1	2585
1	2585
1	2585
1	2585
1	2585
1	5
1	2585
1	2585
1	11
1	2585
1	2585
1	11
1	2585
1	2585
1	2585
1	2585
1	2585
1	19
1	2585
1	2585
1	2585
1	2585
1	2585
1	2585
1	2585
1	2585
1	2585
1	17
1	2585
1	2585
1	2585
1	2585
1	2585
1	2585
1	2585
1	2585
1	2585
1	2585
1	2585
1	2585
1	2585
1	3
1	2585
1	2585
1	2585
1	2585
1	2585
1	2585
1	2585
1	2585
1	2585
1	2585
1	2585
1	2585
1	2585
1	2585
1	2585
1	2585
1	2585
1	2585
1	2585
1	6
1	2585
1	2585
1	2585
1	12
1	2585
1	2585
1	2585
1	2585
1	7
1	2585
1	2585
1	2585
1	2585
1	2585
1	2585
1	2585
1	2585
1	2585
1	2585
1	2585
1	2585
1	2585
1	8
1	2585
1	2585
1	2585
1	2585
1	2585
1	2585
1	2585
1	2585
1	2585
1	2585
1	2585
1	2585
1	16
1	2585
1	2585
1	2585
1	2585
1	2585
1	2585
1	2585
1	2585
1	2585
1	17
1	2585
1	2585
1	2585
1	2585
1	2585
1	12
1	2585
1	14
1	2585
1	2585
1	2585
1	2585
1	2585
1	2585
1	15
1	7
1	2585
1	2585
1	2585
1	5
1	2585
1	42
1	3
1	2585
1	2585
1	2585
1	2585
1	2585
1	2585
1	2585
1	2585
1	2585
1	2585
1	84
1	84
1	2585
1	2585
1	2585
1	2585
1	2585
1	2585
1	2585
1	19
1	2585
1	2585
1	2585
1	2585
1	26
1	2585
1	6
1	2585
1	26
1	2585
1	12
1	2585
1	2585
1	12
1	4
1	2585
1	2585
1	2585
1	14
1	2585
1	2585
1	2585
1	2585
1	10
1	17
1	2585
1	2585
1	2585
1	2585
1	7
1	2585
1	12
1	2585
1	2585
1	2585
1	2585
1	42
1	2585
1	2585
1	2585
1	2585
1	5
1	2585
1	12
1	2585
1	2585
1	14
1	26
1	2585
1	22
1	2585
1	6
1	2585
1	84
1	2585
1	2585
1	2585
1	2585
1	2585
1	2585
1	2585
1	8
1	2585
1	2585
1	4
1	2585
1	2585
1	19
1	12
1	2585
1	8
1	2585
1	2585
1	2585
1	10
1	2585
1	2585
1	2585
1	2585
1	2585
1	2585
1	2585
1	2585
1	2585
1	2585
1	2585
1	17
1	2585
1	2585
1	2585
1	84
1	2585
1	4
1	2585
1	2585
1	2585
1	6124
1	2585
1	19
1	2585
1	2585
1	2585
1	2585
1	2585
1	2585
1	3
1	84
1	2585
1	2585
1	9
1	2585
1	7
1	2585
1	2585
1	2585
1	2585
1	2585
1	2585
1	2585
1	2585
1	2585
1	2585
1	2585
1	2585
1	2585
1	2585
1	8
1	2585
1	2585
1	6
1	2585
1	2585
1	2585
1	2585
1	2585
1	2585
1	2585
1	2585
1	2585
1	2585
1	2585
1	19
1	2585
1	17
1	16
1	84
1	2585
1	2585
1	2585
1	2585
1	2585
1	4
1	2585
1	2585
1	42
1	2585
1	2585
1	18
1	2585
1	2585
1	2585
1	2585
1	2585
1	84
1	2585
1	2585
1	2585
1	2585
1	2585
1	14
1	2585
1	2585
1	5
1	2585
1	26
1	19
1	2585
1	2585
1	2585
1	2585
1	2585
1	84
1	6
1	2585
1	2585
1	2585
1	2585
1	2585
1	2585
1	2585
1	42
1	6
1	2585
1	2585
1	2585
1	2585
1	2585
1	2585
1	2585
1	16
1	42
1	2585
1	2585
1	2585
1	19
1	2585
1	2585
1	15
1	2585
1	2585
1	2585
1	2585
1	2585
1	2585
1	2585
1	2585
1	2585
1	6
1	2585
1	2585
1	2585
1	2585
1	2585
1	2585
1	2585
1	2585
1	12
1	2585
1	2585
1	2585
1	2585
1	2585
1	3
1	2585
1	11
1	2585
1	2585
1	2585
1	2585
1	2585
1	19
1	6
1	2585
1	2585
1	9
1	2585
1	2585
1	19
1	42
1	2585
1	2585
1	2585
1	2585
1	17
1	2585
1	2585
1	2585
1	2585
1	2585
1	2585
1	6
1	2585
1	2585
1	2585
1	2585
1	2585
1	7
1	2585
1	2585
1	9
1	2585
1	2585
1	2585
1	2585
1	2585
1	2585
1	2585
1	2585
1	8
1	2585
1	2585
1	2585
1	2585
1	2585
1	2585
1	2585
1	2585
1	2585
1	2585
1	2585
1	2585
1	2585
1	2585
1	2585
1	2585
1	2585
1	2585
1	42
1	2585
1	6
1	2585
1	2585
1	2585
1	2585
1	4
1	2585
1	2585
1	2585
1	2585
1	2585
1	2585
1	2585
1	5
1	2585
1	2585
1	2585
1	2585
1	7
1	2585
1	2585
1	2585
1	2585
1	2585
1	12
1	2585
1	2585
1	2585
1	84
1	11
1	2585
1	2585
1	2585
1	7
1	2585
1	2585
1	13
1	2585
1	2585
1	2585
1	2585
1	2585
1	2585
1	5
1	2585
1	5
1	2585
1	2585
1	2585
1	2585
1	2585
1	2585
1	2585
1	2585
1	2585
1	42
1	2585
1	2585
1	2585
1	2585
1	8
1	2585
1	2585
1	2585
1	2585
1	2585
1	8
1	2585
1	2585
1	2585
1	2585
1	2585
1	2585
1	12
1	2585
1	11
1	2585
1	2585
1	2585
1	2585
1	2585
1	2585
1	2585
1	6
1	2585
1	2585
1	84
1	2585
1	2585
1	9
1	2585
1	2585
1	2585
1	2585
1	2585
1	2585
1	2585
1	2585
1	2585
1	2585
1	84
1	2585
1	2585
1	2585
1	2585
1	2585
1	2585
1	42
1	2585
1	2585
1	2585
1	2585
1	5
1	3
1	2585
1	2585
1	2585
1	2585
1	2585
1	8
1	2585
1	2585
1	2585
1	2585
1	2585
1	6
1	2585
1	2585
1	11
1	2585
1	2585
1	2585
1	2585
1	2585
1	2585
1	4
1	2585
1	2585
1	2585
1	2585
1	2585
1	2585
1	84
1	2585
1	2585
1	2585
1	2585
1	2585
1	2585
1	11
1	2585
1	2585
1	2585
1	2585
1	8
1	2585
1	2585
1	84
1	2585
1	2585
1	2585
1	2585
1	2585
1	2585
1	2585
1	2585
1	2585
1	2585
1	2585
1	2585
1	2585
1	2585
1	2585
1	2585
1	11
1	12
1	7
1	2585
1	2585
1	2585
1	2585
1	2585
1	2585
1	2585
1	2585
1	2585
1	2585
1	2585
1	6
1	2585
1	2585
1	2585
1	2585
1	2585
1	12
1	2585
1	2585
1	2585
1	2585
1	2585
1	2585
1	2585
1	2585
1	2585
1	2585
1	2585
1	2585
1	2585
1	13
1	2585
1	14
1	2585
1	2585
1	5
1	2585
1	2585
1	10
1	2585
1	2585
1	2585
1	2585
1	2585
1	2585
1	2585
1	2585
1	2585
1	84
1	2585
1	2585
1	2585
1	2585
1	2585
1	12
1	2585
1	14
1	2585
1	2585
1	2585
1	2585
1	9
1	19
1	2585
1	2585
1	2585
1	2585
1	10
1	2585
1	2585
1	15
1	2585
1	2585
1	2585
1	2585
1	2585
1	2585
1	2585
1	2585
1	2585
1	2585
1	7
1	2585
1	2585
1	2585
1	5
1	2585
1	2585
1	2585
1	2585
1	2585
1	2585
1	2585
1	7
1	2585
1	3
1	2585
1	2585
1	2585
1	2585
1	2585
1	2585
1	2585
1	2585
1	84
1	2585
1	2585
1	2585
1	2585
1	2585
1	2585
1	2585
1	2585
1	42
1	2585
1	2585
1	2585
1	2585
1	2585
1	2585
1	2585
1	2585
1	6
1	2585
1	2585
1	2585
1	2585
1	2585
1	17
1	5
1	2585
1	2585
1	26
1	84
1	84
1	2585
1	2585
1	2585
1	2585
1	2585
1	2585
1	2585
1	2585
1	2585
1	2585
1	2585
1	2585
1	2585
1	2585
1	2585
1	14
1	2585
1	2585
1	4
1	2585
1	2585
1	2585
1	84
1	2585
1	17
1	5
1	2585
1	2585
1	2585
1	2585
1	2585
1	2585
1	2585
1	2585
1	2585
1	2585
1	2585
1	2585
1	2585
1	2585
1	2585
1	2585
1	2585
1	2585
1	6
1	2585
1	2585
1	2585
1	2585
1	9
1	2585
1	2585
1	2585
1	2585
1	2585
1	5
1	2585
1	2585
1	2585
1	2585
1	42
1	2585
1	2585
1	2585
1	2585
1	2585
1	2585
1	2585
1	2585
1	2585
1	2585
1	2585
1	2585
1	2585
1	2585
1	2585
1	2585
1	2585
1	2585
1	2585
1	2585
1	2585
1	2585
1	2585
1	11
1	2585
1	2585
1	2585
1	2585
1	2585
1	2585
1	2585
1	2585
1	2585
1	2585
1	2585
1	2585
1	19
1	2585
1	2585
1	2585
1	2585
1	13
1	2585
1	2585
1	2585
1	2585
1	2585
1	19
1	84
1	2585
1	2585
1	2585
1	2585
1	2585
1	2585
1	2585
1	2585
1	2585
1	12
1	2585
1	2585
1	2585
1	2585
1	2585
1	2585
1	2585
1	2585
1	2585
1	2585
1	2585
1	2585
1	2585
1	2585
1	2585
1	2585
1	2585
1	2585
1	2585
1	2585
1	18
1	2585
1	2585
1	2585
1	2585
1	2585
1	2585
1	2585
1	7
1	2585
1	6
1	84
1	5
1	2585
1	84
1	2585
1	5
1	2585
1	6
1	2585
1	2585
1	11
1	2585
1	2585
1	2585
1	2585
1	8
1	2585
1	2585
1	2585
1	2585
1	12
1	2585
1	2585
1	84
1	2585
1	4
1	2585
1	2585
1	19
1	2585
1	2585
1	2585
1	3
1	2585
1	2585
1	42
1	26
1	4
1	6
1	2585
1	2585
1	2585
1	2585
1	2585
1	2585
1	2585
1	2585
1	2585
1	2585
1	2585
1	2585
1	2585
1	2585
1	2585
1	2585
1	2585
1	4
1	2585
1	2585
1	2585
1	2585
1	7
1	42
1	2585
1	13
1	2585
1	2585
1	4
1	2585
1	2585
1	2585
1	7
1	7
1	2585
1	2585
1	2585
1	2585
1	2585
1	2585
1	2585
1	2585
1	2585
1	2585
1	2585
1	2585
1	2585
1	2585
1	2585
1	2585
1	2585
1	2585
1	2585
1	2585
1	2585
1	2585
1	18
1	2585
1	2585
1	2585
1	2585
1	2585
1	2585
1	2585
1	2585
1	2585
1	2585
1	2585
1	2585
1	11
1	2585
1	2585
1	2585
1	2585
1	2585
1	2585
1	2585
1	2585
1	2585
1	2585
1	84
1	2585
1	2585
1	2585
1	2585
1	2585
1	2585
1	2585
1	2585
1	2585
1	2585
1	2585
1	2585
1	2585
1	2585
1	2585
1	2585
1	2585
1	2585
1	2585
1	2585
1	2585
1	2585
1	2585
1	4
1	9
1	2585
1	2585
1	2585
1	7
1	2585
1	2585
1	2585
1	2585
1	2585
1	2585
1	2585
1	2585
1	2585
1	2585
1	4
1	18
1	2585
1	2585
1	6124
1	2585
1	7
1	2585
1	11
1	2585
1	2585
1	2585
1	2585
1	2585
1	2585
1	2585
1	2585
1	2585
1	2585
1	6
1	2585
1	2585
1	3
1	3
1	2585
1	2585
1	2585
1	2585
1	14
1	2585
1	2585
1	2585
1	2585
1	3
1	2585
1	17
1	2585
1	2585
1	2585
1	2585
1	2585
1	2585
1	2585
1	22
1	2585
1	2585
1	2585
1	17
1	17
1	2585
1	2585
1	18
1	2585
1	2585
1	2585
1	2585
1	2585
1	2585
1	2585
1	13
1	2585
1	2585
1	7
1	2585
1	2585
1	2585
1	2585
1	2585
1	6
1	2585
1	4
1	6
1	2585
1	5
1	84
1	2585
1	2585
1	2585
1	2585
1	2585
1	2585
1	2585
1	5
1	2585
1	7
1	7
1	3
1	2585
1	2585
1	2585
1	2585
1	2585
1	2585
1	2585
1	2585
1	2585
1	2585
1	2585
1	2585
1	2585
1	2585
1	4
1	2585
1	7
1	2585
1	2585
1	2585
1	2585
1	16
1	2585
1	2585
1	2585
1	2585
1	2585
1	2585
1	2585
1	2585
1	6
1	2585
1	2585
1	2585
1	5
1	2585
1	2585
1	2585
1	2585
1	2585
1	2585
1	2585
1	2585
1	2585
1	2585
1	2585
1	4
1	2585
1	2585
1	2585
1	2585
1	17
1	2585
1	2585
1	2585
1	2585
1	2585
1	5
1	2585
1	2585
1	2585
1	2585
1	2585
1	2585
1	2585
1	2585
1	2585
1	2585
1	2585
1	2585
1	11
1	14
1	2585
1	2585
1	2585
1	7
1	2585
1	84
1	2585
1	2585
1	12
1	2585
1	2585
1	2585
1	84
1	4
1	2585
1	2585
1	17
1	6
1	2585
1	2585
1	9
1	2585
1	2585
1	2585
1	5
1	2585
1	2585
1	2585
1	2585
1	11
1	2585
1	2585
1	2585
1	2585
1	6
1	2585
1	2585
1	2585
1	2585
1	2585
1	2585
1	2585
1	2585
1	2585
1	2585
1	2585
1	2585
1	2585
1	2585
1	2585
1	19
1	2585
1	2585
1	2585
1	2585
1	2585
1	2585
1	2585
1	5
1	42
1	2585
1	2585
1	2585
1	2585
1	2585
1	10
1	2585
1	2585
1	84
1	2585
1	18
1	2585
1	2585
1	2585
1	2585
1	2585
1	2585
1	2585
1	84
1	7
1	19
1	2585
1	2585
1	2585
1	2585
1	4
1	2585
1	2585
1	2585
1	2585
1	2585
1	2585
1	2585
1	2585
1	42
1	2585
1	2585
1	10
1	14
1	2585
1	2585
1	2585
1	2585
1	2585
1	2585
1	2585
1	2585
1	4
1	2585
1	2585
1	2585
1	2585
1	2585
1	2585
1	2585
1	2585
1	2585
1	2585
1	4
1	12
1	11
1	2585
1	84
1	2585
1	2585
1	2585
1	9
1	2585
1	2585
1	2585
1	2585
1	5
1	2585
1	2585
1	14
1	2585
1	2585
1	2585
1	2585
1	2585
1	2585
1	2585
1	2585
1	84
1	2585
1	2585
1	2585
1	2585
1	7
1	2585
1	2585
1	84
1	2585
1	2585
1	2585
1	14
1	16
1	2585
1	2585
1	2585
1	2585
1	2585
1	2585
1	2585
1	7
1	84
1	2585
1	84
1	2585
1	2585
1	2585
1	2585
1	9
1	2585
1	2585
1	2585
1	2585
1	2585
1	84
1	2585
1	26
1	2585
1	2585
1	2585
1	2585
1	2585
1	26
1	2585
1	10
1	2585
1	2585
1	2585
1	2585
1	2585
1	2585
1	2585
1	2585
1	2585
1	10
1	2585
1	2585
1	2585
1	2585
1	84
1	2585
1	2585
1	2585
1	2585
1	2585
1	2585
1	2585
1	2585
1	2585
1	14
1	2585
1	2585
1	2585
1	2585
1	2585
1	2585
1	2585
1	2585
1	2585
1	2585
1	12
1	2585
1	2585
1	2585
1	2585
1	2585
1	2585
1	2585
1	2585
1	2585
1	2585
1	16
1	2585
1	2585
1	13
1	2585
1	2585
1	2585
1	2585
1	2585
1	2585
1	2585
1	2585
1	2585
1	2585
1	2585
1	2585
1	2585
1	2585
1	2585
1	2585
1	2585
1	2585
1	2585
1	9
1	2585
1	2585
1	2585
1	2585
1	5
1	2585
1	9
1	2585
1	2585
1	2585
1	2585
1	2585
1	12
1	2585
1	2585
1	2585
1	2585
1	2585
1	13
1	2585
1	4
1	2585
1	2585
1	5
1	2585
1	3
1	2585
1	2585
1	2585
1	2585
1	2585
1	2585
1	2585
1	2585
1	2585
1	2585
1	2585
1	2585
1	2585
1	2585
1	42
1	4
1	2585
1	2585
1	6
1	2585
1	2585
1	19
1	2585
1	2585
1	7
1	2585
1	2585
1	2585
1	2585
1	2585
1	2585
1	2585
1	2585
1	2585
1	2585
1	2585
1	8
1	2585
1	2585
1	2585
1	26
1	2585
1	2585
1	2585
1	2585
1	2585
1	2585
1	2585
1	2585
1	2585
1	2585
1	2585
1	3
1	2585
1	2585
1	2585
1	2585
1	2585
1	2585
1	9
1	2585
1	2585
1	2585
1	2585
1	2585
1	3
1	2585
1	2585
1	2585
1	2585
1	2585
1	4
1	9
1	2585
1	2585
1	2585
1	2585
1	16
1	4
1	2585
1	2585
1	2585
1	2585
1	2585
1	16
1	2585
1	2585
1	84
1	2585
1	2585
1	2585
1	2585
1	19
1	2585
1	2585
1	2585
1	2585
1	2585
1	2585
1	2585
1	2585
1	2585
1	2585
1	12
1	2585
1	2585
1	2585
1	2585
1	5
1	2585
1	2585
1	26
1	2585
1	4
1	11
1	2585
1	2585
1	2585
1	2585
1	2585
1	2585
1	2585
1	2585
1	2585
1	18
1	2585
1	4
1	2585
1	2585
1	84
1	2585
1	2585
1	2585
1	2585
1	2585
1	2585
1	2585
1	26
1	2585
1	84
1	2585
1	2585
1	2585
1	2585
1	2585
1	2585
1	2585
1	2585
1	7
1	2585
1	6
1	2585
1	2585
1	2585
1	2585
1	2585
1	2585
1	19
1	2585
1	2585
1	2585
1	2585
1	5
1	2585
1	2585
1	2585
1	2585
1	2585
1	17
1	2585
1	2585
1	5
1	2585
1	2585
1	2585
1	2585
1	2585
1	2585
1	2585
1	2585
1	2585
1	84
1	2585
1	2585
1	2585
1	2585
1	2585
1	2585
1	6
1	2585
1	2585
1	2585
1	2585
1	2585
1	2585
1	8
1	2585
1	2585
1	5
1	2585
1	2585
1	12
1	17
1	2585
1	2585
1	5
1	2585
1	2585
1	2585
1	2585
1	2585
1	2585
1	2585
1	2585
1	2585
1	2585
1	2585
1	2585
1	2585
1	2585
1	2585
1	2585
1	2585
1	2585
1	2585
1	2585
1	2585
1	2585
1	2585
1	10
1	2585
1	2585
1	84
1	2585
1	2585
1	84
1	2585
1	2585
1	2585
1	2585
1	2585
1	2585
1	2585
1	2585
1	2585
1	42
1	14
1	2585
1	2585
1	2585
1	2585
1	2585
1	2585
1	2585
1	2585
1	2585
1	2585
1	2585
1	2585
1	2585
1	2585
1	2585
1	2585
1	2585
1	2585
1	2585
1	2585
1	2585
1	2585
1	2585
1	2585
1	2585
1	16
1	26
1	2585
1	2585
1	19
1	2585
1	5
1	2585
1	2585
1	2585
1	2585
1	2585
1	2585
1	2585
1	3
1	2585
1	7
1	8
1	2585
1	2585
1	2585
1	2585
1	2585
1	2585
1	11
1	2585
1	2585
1	11
1	2585
1	2585
1	2
1	2585
1	2585
1	6124
1	2585
1	2585
1	2585
1	2585
1	2585
1	2585
1	2585
1	2585
1	2585
1	4
1	2585
1	2585
1	2585
1	2585
1	2585
1	2585
1	2585
1	2585
1	2585
1	15
1	2585
1	2585
1	2585
1	2585
1	2585
1	2585
1	2585
1	2585
1	2585
1	2585
1	2585
1	2585
1	2585
1	2585
1	2585
1	26
1	2585
1	2585
1	2585
1	84
1	2585
1	2585
1	2585
1	2585
1	2585
1	2585
1	2585
1	2585
1	2585
1	2585
1	2585
1	2585
1	2585
1	19
1	2585
1	2585
1	84
1	2585
1	2585
1	2585
1	2585
1	2585
1	2585
1	2585
1	2585
1	2585
1	2585
1	2585
1	2585
1	2585
1	2585
1	2585
1	2585
1	2585
1	2585
1	2585
1	2585
1	2585
1	2585
1	2585
1	2585
1	2585
1	2585
1	2585
1	2585
1	22
1	2585
1	2585
1	2585
1	2585
1	2585
1	2585
1	2585
1	42
1	2585
1	17
1	2585
1	2585
1	5
1	2585
1	2585
1	2585
1	2585
1	2585
1	26
1	2585
1	2585
1	2585
1	17
1	2585
1	2585
1	2585
1	2585
1	16
1	2585
1	2585
1	2585
1	2585
1	2585
1	2585
1	2585
1	7
1	2585
1	2585
1	2585
1	5
1	2585
1	2585
1	2585
1	2585
1	2585
1	2585
1	2585
1	2585
1	2585
1	2585
1	2585
1	2585
1	2585
1	2585
1	2585
1	2585
1	2585
1	2585
1	2585
1	2585
1	2585
1	2585
1	3
1	13
1	2585
1	2585
1	2585
1	9
1	7
1	2585
1	5
1	18
1	2585
1	7
1	2585
1	2585
1	3
1	2585
1	2585
1	2585
1	2585
1	84
1	2585
1	2585
1	2585
1	10
1	2585
1	2585
1	10
1	2585
1	2585
1	13
1	2585
1	2585
1	3
1	2585
1	2585
1	4
1	2585
1	2585
1	2585
1	2585
1	2585
1	2585
1	2585
1	2585
1	2585
1	2585
1	2585
1	2585
1	2585
1	2585
1	2585
1	2585
1	2585
1	2585
1	14
1	2585
1	2585
1	2585
1	2585
1	2585
1	2585
1	12
1	2585
1	2585
1	2585
1	11
1	2585
1	2585
1	2585
1	3
1	2585
1	2585
1	2585
1	2585
1	2585
1	2585
1	2585
1	2585
1	2585
1	2585
1	2585
1	2585
1	2585
1	2585
1	2585
1	2585
1	2585
2	4
2	6
2	26
2	5
2	22
2	9
2	18
2	4
2	3
2	6
2	7
2	84
2	7
2	84
2	12
2	9
2	2585
2	19
2	2585
2	4
2	3
2	2585
2	11
2	6
2	17
2	2585
2	6
2	7
2	11
2	3
2	3
2	5
2	8
2	8
2	7
2	4
2	10
2	4
2	42
2	5
2	4
2	5
2	42
2	2585
2	14
2	19
2	2585
2	8
2	4
2	4
2	12
2	3
2	5
2	2585
2	26
2	13
2	4
2	3
2	7
2	7
2	5
2	4
2	13
2	6
2	3
2	10
2	11
2	2585
2	3
2	6
2	5
2	4
2	9
2	7
2	3
2	5
2	26
2	5
2	19
2	3
2	5
2	3
2	3
2	4
2	3
2	9
2	42
2	4
2	9
2	12
2	8
2	4
2	5
2	8
2	6
2	3
2	26
2	5
2	3
2	11
2	3
2	84
2	3
2	6
2	3
2	3
2	11
2	9
2	3
2	3
2	5
2	4
2	7
2	5
2	6
2	14
2	5
2	14
2	3
2	42
2	42
2	3
2	42
3	9
3	5
3	6
3	9
3	8
3	13
3	5
3	19
4	13
