1	6124
1	223
1	223
1	11
1	18
1	14
1	223
1	223
1	6
1	223
1	223
1	18
1	9
1	10
1	223
1	223
1	223
1	223
1	9
1	223
1	6124
1	223
1	10
1	11
1	7
1	223
1	223
1	223
1	10
1	14
1	18
1	223
1	223
1	223
1	6
1	223
1	223
1	223
1	6
1	18
1	223
1	8
1	6
1	11
1	223
1	223
1	223
1	10
1	10
1	223
1	223
1	11
1	6
1	5
1	223
1	223
1	223
1	5
1	7
1	223
1	223
1	223
1	18
1	223
1	11
1	223
1	7
1	5
1	223
1	223
1	4
1	7
1	223
1	18
1	8
1	223
1	223
1	5
1	5
1	223
1	223
1	223
1	223
1	223
1	223
1	223
1	223
1	5
1	223
1	223
1	5
1	4
1	223
1	223
1	223
1	223
1	223
1	223
1	223
1	223
1	223
1	223
1	18
1	223
1	223
1	223
1	223
1	223
1	223
1	10
1	223
1	8
1	223
1	10
1	223
1	223
1	223
1	223
1	223
1	223
1	223
1	223
1	223
1	18
1	223
1	223
1	223
1	223
1	6
1	223
1	10
1	223
1	5
1	18
1	223
1	7
1	5
1	223
1	223
1	14
1	223
1	223
1	18
1	223
1	223
1	223
1	223
1	223
1	223
1	223
1	223
1	6
1	7
1	11
1	5
1	10
1	223
1	7
1	6
1	5
1	4
1	10
1	4
1	6
1	223
1	7
1	6
1	223
1	6
1	6
1	10
1	223
1	4
1	4
1	223
1	10
1	10
1	6
1	223
1	223
1	6
1	223
1	223
1	223
1	223
1	6
1	18
1	18
1	223
1	7
1	5
1	11
1	223
1	223
1	223
1	223
1	7
1	10
1	223
1	223
1	223
1	10
1	5
1	9
1	18
1	14
1	223
1	223
1	223
1	223
1	10
1	11
1	4
1	7
1	223
1	223
1	223
1	223
1	223
1	223
1	7
1	223
1	223
1	10
1	18
1	223
1	6
1	223
1	10
1	4
1	223
1	5
1	6
1	6
1	223
1	223
1	223
1	223
1	10
1	7
1	6
1	223
1	223
1	18
1	223
1	4
1	7
1	223
1	223
1	223
1	223
1	10
1	6
1	223
1	223
1	223
1	10
1	223
1	223
1	9
1	7
1	223
1	223
1	223
1	223
1	10
1	223
1	223
1	223
1	223
1	223
1	223
1	10
1	223
1	223
1	223
1	223
1	223
1	223
1	223
1	223
1	10
1	10
1	223
1	223
1	223
1	10
1	18
1	223
1	7
1	223
1	5
1	5
2	7
2	3
2	4
2	5
2	4
2	4
2	5
2	4
2	223
2	7
2	6
2	5
2	10
2	3
2	9
2	5
2	5
2	5
2	5
2	223
2	10
2	4
2	5
2	5
2	223
2	4
2	5
2	8
2	5
2	5
2	3
2	14
2	5
2	5
2	4
2	223
2	3
2	3
2	3
2	3
2	5
2	14
2	3
2	6
2	4
2	4
2	3
2	5
2	3
2	3
3	4
3	4
3	4
