1	6124
1	1372
1	11
1	1372
1	9
1	1372
1	1372
1	10
1	1372
1	1372
1	12
1	1372
1	1372
1	1372
1	1372
1	1372
1	6
1	1372
1	1372
1	12
1	1372
1	8
1	1372
1	6124
1	34
1	11
1	1372
1	9
1	1372
1	1372
1	7
1	12
1	19
1	1372
1	1372
1	19
1	15
1	1372
1	1372
1	9
1	1372
1	1372
1	1372
1	1372
1	1372
1	1372
1	1372
1	1372
1	1372
1	6124
1	1372
1	1372
1	19
1	1372
1	1372
1	1372
1	1372
1	9
1	15
1	12
1	10
1	1372
1	5
1	1372
1	9
1	1372
1	1372
1	1372
1	10
1	12
1	1372
1	1372
1	1372
1	1372
1	1372
1	26
1	1372
1	1372
1	1372
1	1372
1	1372
1	1372
1	1372
1	1372
1	8
1	1372
1	1372
1	8
1	1372
1	9
1	20
1	1372
1	1372
1	1372
1	20
1	1372
1	1372
1	1372
1	1372
1	1372
1	1372
1	1372
1	6124
1	9
1	12
1	1372
1	1372
1	1372
1	8
1	20
1	1372
1	7
1	23
1	12
1	8
1	1372
1	6
1	1372
1	1372
1	7
1	1372
1	1372
1	1372
1	1372
1	1372
1	1372
1	1372
1	1372
1	26
1	1372
1	1372
1	1372
1	1372
1	19
1	6124
1	1372
1	1372
1	8
1	1372
1	1372
1	1372
1	1372
1	11
1	1372
1	1372
1	1372
1	1372
1	1372
1	1372
1	11
1	1372
1	1372
1	1372
1	1372
1	8
1	1372
1	1372
1	1372
1	1372
1	12
1	4
1	1372
1	17
1	1372
1	1372
1	1372
1	3
1	1372
1	5
1	16
1	1372
1	1372
1	1372
1	20
1	6124
1	8
1	1372
1	1372
1	1372
1	1372
1	1372
1	1372
1	7
1	1372
1	1372
1	1372
1	1372
1	1372
1	11
1	1372
1	1372
1	1372
1	1372
1	1372
1	7
1	19
1	6124
1	1372
1	1372
1	1372
1	1372
1	11
1	1372
1	1372
1	1372
1	1372
1	1372
1	1372
1	1372
1	10
1	1372
1	12
1	8
1	1372
1	1372
1	1372
1	1372
1	1372
1	1372
1	1372
1	23
1	1372
1	1372
1	1372
1	1372
1	1372
1	1372
1	1372
1	1372
1	1372
1	1372
1	1372
1	20
1	1372
1	1372
1	1372
1	1372
1	8
1	1372
1	17
1	1372
1	1372
1	1372
1	1372
1	1372
1	1372
1	1372
1	10
1	1372
1	1372
1	19
1	20
1	7
1	1372
1	1372
1	1372
1	7
1	1372
1	12
1	34
1	5
1	7
1	1372
1	1372
1	1372
1	9
1	1372
1	1372
1	26
1	34
1	1372
1	17
1	1372
1	1372
1	1372
1	10
1	1372
1	1372
1	1372
1	1372
1	1372
1	1372
1	1372
1	1372
1	1372
1	1372
1	23
1	1372
1	10
1	13
1	1372
1	1372
1	1372
1	10
1	1372
1	1372
1	12
1	1372
1	11
1	5
1	1372
1	6
1	6
1	1372
1	11
1	1372
1	1372
1	1372
1	1372
1	10
1	1372
1	1372
1	1372
1	1372
1	1372
1	1372
1	1372
1	1372
1	1372
1	1372
1	9
1	1372
1	8
1	1372
1	1372
1	7
1	1372
1	19
1	1372
1	1372
1	34
1	6
1	1372
1	1372
1	1372
1	1372
1	1372
1	1372
1	5
1	1372
1	4
1	16
1	1372
1	8
1	1372
1	16
1	1372
1	1372
1	1372
1	1372
1	1372
1	8
1	1372
1	1372
1	4
1	1372
1	1372
1	1372
1	1372
1	1372
1	23
1	1372
1	7
1	1372
1	1372
1	4
1	1372
1	1372
1	1372
1	1372
1	1372
1	1372
1	1372
1	6
1	5
1	1372
1	12
1	1372
1	1372
1	1372
1	11
1	1372
1	8
1	5
1	1372
1	1372
1	1372
1	1372
1	1372
1	1372
1	5
1	1372
1	1372
1	1372
1	1372
1	1372
1	1372
1	1372
1	1372
1	6
1	1372
1	1372
1	7
1	6
1	1372
1	7
1	1372
1	1372
1	1372
1	1372
1	1372
1	1372
1	1372
1	34
1	1372
1	4
1	26
1	1372
1	1372
1	1372
1	1372
1	1372
1	19
1	8
1	1372
1	1372
1	1372
1	1372
1	1372
1	1372
1	1372
1	1372
1	1372
1	1372
1	19
1	1372
1	1372
1	1372
1	1372
1	1372
1	1372
1	1372
1	1372
1	1372
1	6
1	6124
1	1372
1	1372
1	1372
1	4
1	1372
1	1372
1	1372
1	12
1	8
1	1372
1	1372
1	1372
1	19
1	1372
1	1372
1	6
1	6124
1	1372
1	1372
1	1372
1	1372
1	1372
1	1372
1	6
1	1372
1	1372
1	1372
1	20
1	1372
1	1372
1	1372
1	1372
1	5
1	11
1	1372
1	1372
1	12
1	1372
1	1372
1	1372
1	1372
1	1372
1	20
1	1372
1	1372
1	1372
1	1372
1	20
1	1372
1	1372
1	1372
1	1372
1	1372
1	1372
1	1372
1	1372
1	1372
1	1372
1	1372
1	1372
1	1372
1	1372
1	1372
1	1372
1	11
1	1372
1	1372
1	5
1	1372
1	1372
1	1372
1	13
1	1372
1	11
1	1372
1	26
1	1372
1	9
1	1372
1	1372
1	12
1	1372
1	26
1	1372
1	19
1	3
1	1372
1	1372
1	1372
1	1372
1	1372
1	16
1	1372
1	1372
1	4
1	6
1	1372
1	1372
1	1372
1	1372
1	1372
1	1372
1	19
1	10
1	6
1	1372
1	1372
1	1372
1	1372
1	1372
1	9
1	1372
1	3
1	1372
1	1372
1	10
1	1372
1	1372
1	6
1	10
1	1372
1	1372
1	1372
1	1372
1	1372
1	34
1	6
1	1372
1	1372
1	1372
1	1372
1	1372
1	1372
1	1372
1	1372
1	1372
1	1372
1	1372
1	6124
1	23
1	1372
1	1372
1	1372
1	13
1	7
1	8
1	1372
1	1372
1	34
1	3
1	1372
1	1372
1	1372
1	1372
1	1372
1	15
1	1372
1	1372
1	5
1	1372
1	5
1	1372
1	1372
1	1372
1	1372
1	1372
1	13
1	1372
1	1372
1	1372
1	6
1	1372
1	34
1	5
1	1372
1	9
1	1372
1	1372
1	9
1	1372
1	1372
1	19
1	1372
1	1372
1	1372
1	1372
1	1372
1	1372
1	1372
1	6
1	1372
1	1372
1	1372
1	1372
1	1372
1	3
1	4
1	17
1	1372
1	7
1	11
1	13
1	1372
1	1372
1	1372
1	17
1	1372
1	4
1	1372
1	10
1	20
1	1372
1	1372
1	1372
1	19
1	4
1	1372
1	20
1	1372
1	1372
1	1372
1	1372
1	1372
1	1372
1	1372
1	1372
1	6124
1	16
1	12
1	1372
1	7
1	1372
1	1372
1	1372
1	8
1	1372
1	8
1	1372
1	1372
1	1372
1	1372
1	16
1	5
1	1372
1	6
1	1372
1	1372
1	1372
1	5
1	4
1	1372
1	9
1	1372
1	1372
1	34
1	6
1	7
1	1372
1	7
1	1372
1	4
1	1372
1	1372
1	1372
1	10
1	6124
1	6
1	7
1	1372
1	3
1	1372
1	4
1	1372
1	6
1	1372
1	1372
1	1372
1	15
1	1372
1	5
1	7
1	1372
1	1372
1	3
1	1372
1	8
1	1372
1	1372
1	1372
1	1372
1	19
1	4
1	10
1	1372
1	10
1	5
1	1372
1	1372
1	1372
1	8
1	5
1	1372
1	5
1	8
1	20
1	1372
1	1372
1	1372
1	1372
1	1372
1	6
1	1372
1	10
1	4
1	1372
1	1372
1	1372
1	1372
1	1372
1	19
1	1372
1	5
1	1372
1	1372
1	1372
1	4
1	13
1	1372
1	7
1	1372
1	1372
1	1372
1	20
1	1372
1	1372
1	1372
1	9
1	1372
1	8
1	1372
1	1372
1	1372
1	1372
1	9
1	1372
1	1372
1	1372
1	5
1	1372
1	4
1	1372
1	1372
1	1372
1	1372
1	1372
1	8
1	4
1	1372
1	3
1	1372
1	1372
1	1372
1	1372
1	1372
1	1372
1	12
1	7
1	1372
1	1372
1	1372
1	1372
1	1372
1	1372
1	1372
1	1372
1	7
1	5
1	1372
1	1372
1	1372
1	16
1	6124
1	1372
1	9
1	1372
1	1372
1	1372
1	1372
1	1372
1	1372
1	1372
1	1372
1	1372
1	1372
1	1372
1	9
1	6
1	1372
1	1372
1	1372
1	23
1	8
1	1372
1	1372
1	1372
1	8
1	19
1	8
1	5
1	1372
1	1372
1	1372
1	12
1	10
1	10
1	3
1	1372
1	1372
1	1372
1	7
1	5
1	1372
1	23
1	7
1	5
1	4
1	1372
1	1372
1	1372
1	1372
1	11
1	1372
1	1372
1	1372
1	1372
1	1372
1	1372
1	1372
1	1372
1	13
1	1372
1	17
1	1372
1	1372
1	23
1	1372
1	1372
1	5
1	3
1	11
1	17
1	1372
1	1372
1	11
1	1372
1	1372
1	1372
1	1372
1	1372
1	4
1	1372
1	1372
1	1372
1	1372
1	20
1	1372
1	1372
1	1372
1	4
1	1372
1	1372
1	1372
1	1372
1	1372
1	1372
1	7
1	1372
1	1372
1	1372
1	1372
1	1372
1	19
1	7
1	9
1	6
1	5
1	1372
1	1372
1	1372
1	1372
1	17
1	17
1	20
1	1372
1	1372
1	8
1	1372
1	10
1	1372
1	1372
1	17
1	1372
1	1372
1	12
1	1372
1	2
1	1372
1	1372
1	1372
1	1372
1	1372
1	1372
1	1372
1	1372
1	19
1	1372
1	1372
1	1372
1	1372
1	13
1	1372
1	1372
1	1372
1	1372
1	1372
1	34
1	1372
1	9
1	1372
1	1372
1	1372
1	3
1	1372
1	1372
1	1372
1	1372
1	17
1	20
1	1372
1	1372
1	13
1	1372
1	1372
1	1372
1	8
1	1372
1	1372
1	1372
1	1372
1	1372
1	15
1	4
1	1372
1	1372
1	1372
1	1372
1	1372
1	11
1	1372
1	13
1	1372
1	34
1	1372
1	1372
1	16
1	1372
1	1372
1	1372
1	11
1	1372
1	5
1	12
1	4
1	1372
1	1372
1	1372
1	1372
1	1372
1	1372
1	4
1	4
1	1372
1	3
1	15
1	1372
1	1372
1	6
1	1372
1	1372
1	1372
1	3
1	1372
1	1372
1	9
1	1372
1	1372
1	1372
1	1372
1	1372
1	1372
1	10
1	1372
1	1372
1	1372
1	1372
1	1372
1	1372
1	1372
1	8
1	9
1	3
1	8
1	26
1	9
1	9
1	8
1	1372
1	1372
1	3
1	1372
1	1372
1	5
1	19
1	1372
1	1372
1	1372
1	9
1	1372
1	1372
1	1372
1	1372
1	7
1	1372
1	1372
1	1372
1	1372
1	34
1	5
1	1372
1	12
1	1372
1	1372
1	1372
1	1372
1	1372
1	1372
1	1372
1	1372
1	1372
1	1372
1	12
1	4
1	1372
1	1372
1	1372
1	1372
1	15
1	1372
1	26
1	1372
1	7
1	4
1	1372
1	19
1	1372
1	1372
1	1372
1	1372
1	1372
1	1372
1	11
1	11
1	5
1	26
1	1372
1	11
1	8
1	1372
1	1372
1	1372
1	1372
1	19
1	1372
1	1372
1	1372
1	1372
1	9
1	1372
1	6124
1	1372
1	1372
1	1372
1	1372
1	3
1	9
1	1372
1	23
1	1372
1	1372
1	1372
1	1372
1	1372
1	4
1	1372
1	1372
1	1372
1	5
1	1372
1	1372
1	1372
1	1372
1	7
1	16
1	1372
1	20
1	1372
1	1372
1	3
1	1372
1	1372
1	5
1	7
1	1372
1	1372
1	1372
1	4
1	4
1	1372
1	1372
1	1372
1	1372
1	1372
1	3
1	7
1	1372
1	1372
1	1372
1	16
1	1372
1	8
1	1372
1	1372
1	1372
1	1372
1	1372
1	1372
1	1372
1	1372
1	8
1	1372
1	1372
1	7
1	1372
1	1372
1	1372
1	1372
1	6
1	4
1	20
1	1372
1	1372
1	1372
1	1372
1	1372
1	1372
1	7
1	1372
1	1372
1	1372
1	1372
1	1372
1	23
1	6
1	1372
1	1372
1	1372
1	1372
1	1372
1	19
1	1372
1	20
1	1372
1	8
1	1372
1	1372
1	8
1	1372
1	4
1	1372
1	4
1	6
1	1372
1	1372
1	1372
1	4
1	12
1	9
1	1372
1	1372
1	1372
1	1372
1	1372
1	1372
1	1372
1	1372
1	1372
1	1372
1	1372
1	1372
1	7
1	1372
1	1372
1	19
1	1372
1	1372
1	1372
1	1372
1	1372
1	4
1	1372
1	1372
1	1372
1	15
1	5
1	12
1	1372
1	1372
1	1372
1	1372
1	1372
1	1372
1	1372
1	1372
1	1372
1	4
1	12
1	1372
1	1372
1	3
1	1372
1	1372
1	1372
1	20
1	5
1	1372
1	1372
1	1372
1	1372
1	1372
1	1372
1	1372
1	1372
1	1372
1	1372
1	34
1	1372
1	1372
1	8
1	1372
1	1372
1	4
1	1372
1	20
1	1372
1	1372
1	7
1	1372
1	1372
1	7
1	1372
1	1372
1	1372
1	12
1	1372
1	1372
1	1372
1	1372
1	6
1	13
1	9
1	2
1	10
1	1372
1	1372
1	1372
1	1372
1	1372
1	5
1	1372
1	16
1	9
1	1372
1	1372
1	1372
1	5
1	1372
1	3
1	1372
1	1372
1	1372
1	1372
1	1372
1	4
1	9
1	1372
1	11
1	34
1	1372
1	12
1	1372
1	1372
1	1372
1	1372
1	1372
1	1372
1	7
1	1372
1	7
1	1372
1	11
1	1372
1	4
1	1372
1	5
1	1372
1	1372
1	5
1	1372
1	1372
1	1372
1	1372
1	1372
1	20
1	1372
1	5
1	5
1	1372
1	1372
1	1372
1	1372
1	1372
1	23
1	5
1	1372
1	1372
1	1372
1	23
1	7
1	1372
1	1372
1	1372
1	4
1	1372
1	1372
1	1372
1	26
1	7
1	1372
1	8
1	1372
1	1372
1	1372
1	1372
1	1372
1	1372
1	11
1	1372
1	1372
1	1372
1	1372
1	1372
1	1372
1	9
1	1372
1	1372
1	19
1	1372
1	1372
1	1372
1	9
1	13
1	1372
1	1372
1	1372
1	19
1	1372
1	26
1	1372
1	10
1	7
1	6
1	1372
1	5
1	5
1	1372
1	1372
1	1372
1	1372
1	5
1	1372
1	7
1	1372
1	4
1	1372
1	19
1	34
1	1372
1	1372
1	1372
1	13
1	1372
1	11
1	1372
1	1372
1	1372
1	10
1	1372
1	1372
1	8
1	1372
1	2
1	1372
1	1372
1	1372
1	1372
1	1372
1	1372
1	1372
1	1372
1	1372
1	1372
1	1372
1	5
1	3
1	1372
1	19
1	1372
1	6
1	1372
1	1372
1	1372
1	1372
1	1372
1	26
1	1372
1	8
1	16
1	15
1	10
1	1372
1	1372
1	1372
1	1372
1	17
1	1372
1	1372
1	1372
1	1372
1	1372
1	12
1	6
1	1372
1	1372
1	1372
1	1372
1	5
1	10
1	1372
1	4
1	19
1	1372
1	1372
1	26
1	1372
1	1372
1	1372
1	5
1	1372
1	1372
1	1372
1	17
1	1372
1	1372
1	1372
1	19
1	1372
1	1372
1	19
1	6
1	1372
1	1372
1	4
1	1372
1	1372
1	1372
1	1372
1	4
1	11
1	1372
1	6
1	1372
1	6
1	1372
1	1372
1	1372
1	1372
1	1372
1	1372
1	1372
1	1372
1	5
1	1372
1	1372
1	5
1	7
1	1372
1	12
1	1372
1	1372
1	1372
1	9
1	1372
1	4
1	5
1	1372
1	1372
1	9
1	1372
1	6
1	1372
1	11
1	1372
1	1372
1	34
1	5
1	1372
1	1372
1	9
1	1372
1	23
1	3
1	1372
1	1372
1	8
1	1372
1	1372
1	10
1	6
1	1372
1	1372
1	1372
1	1372
1	1372
1	1372
1	3
1	11
1	1372
1	1372
1	1372
1	7
1	1372
1	3
1	1372
1	1372
1	1372
1	6
1	26
1	1372
1	10
1	1372
1	20
1	4
1	1372
1	6
1	1372
1	1372
1	20
1	11
1	6
1	23
1	20
1	6
1	1372
1	1372
1	20
1	1372
1	19
1	1372
1	1372
1	1372
1	9
1	6
1	11
1	1372
1	1372
1	1372
1	1372
1	1372
1	10
1	9
1	1372
1	1372
1	26
1	10
1	1372
1	10
1	1372
1	1372
1	23
1	1372
1	1372
1	1372
1	1372
1	1372
1	19
1	1372
1	11
1	1372
1	3
1	1372
1	1372
1	1372
1	4
1	1372
1	1372
1	1372
1	3
1	12
1	1372
1	5
1	1372
1	34
1	1372
1	1372
1	3
1	1372
1	1372
1	10
1	1372
1	4
1	1372
1	1372
1	1372
1	1372
1	1372
1	4
1	1372
1	1372
1	12
1	8
1	1372
1	5
1	1372
1	11
1	7
1	1372
1	1372
1	7
1	1372
1	1372
1	6
1	1372
1	10
1	23
1	1372
1	1372
1	10
1	1372
1	1372
1	1372
1	1372
1	1372
1	9
1	1372
1	1372
1	1372
1	1372
1	12
1	34
1	1372
1	1372
1	1372
1	7
1	10
1	20
1	1372
1	1372
1	9
1	1372
1	1372
1	6
1	1372
1	1372
1	6
1	1372
1	1372
1	1372
1	1372
1	1372
1	1372
1	1372
1	12
1	6
1	5
1	19
1	1372
1	1372
1	7
1	1372
1	5
1	13
1	1372
1	1372
1	1372
1	1372
1	1372
1	1372
1	5
1	23
1	1372
1	1372
1	1372
1	1372
1	1372
1	1372
1	1372
1	1372
1	20
1	34
1	5
1	4
1	1372
1	1372
1	10
1	12
1	19
1	1372
1	7
1	12
1	34
1	1372
1	1372
1	1372
1	4
1	1372
1	6
1	1372
1	1372
1	1372
1	1372
2	10
2	1372
2	5
2	4
2	6
2	7
2	13
2	1372
2	8
2	7
2	1372
2	19
2	4
2	5
2	8
2	5
2	6
2	4
2	4
2	20
2	9
2	3
2	3
2	3
2	5
2	4
2	11
2	4
2	4
2	3
2	5
2	3
2	1372
2	3
2	4
2	6
2	5
2	3
2	4
2	11
2	3
2	6
2	3
2	5
2	4
2	3
2	8
2	5
2	3
2	5
2	34
2	10
2	3
2	5
2	26
2	7
2	7
2	7
2	8
2	11
2	34
2	7
2	4
2	4
2	8
2	34
2	5
2	3
2	20
2	10
2	12
2	6
2	7
2	6
2	1372
2	1372
2	4
2	6
2	19
2	7
2	11
2	3
2	6
2	11
2	34
2	10
2	8
2	6
2	1372
2	4
2	4
2	3
2	6
2	26
2	4
2	23
2	5
2	1372
2	5
2	3
2	4
2	7
2	3
2	6
2	10
2	6
2	5
2	3
2	34
2	9
2	12
2	3
2	3
2	11
2	5
2	4
2	1372
2	4
2	4
2	7
2	5
2	10
2	12
2	3
2	4
2	13
2	3
2	7
2	9
2	5
2	5
2	10
2	4
2	3
2	11
2	3
3	8
3	4
3	4
3	5
3	4
3	5
3	4
3	5
3	4
3	5
4	6
4	5
