1	6124
1	202
1	202
1	202
1	202
1	202
1	202
1	202
1	202
1	202
1	6124
1	202
1	202
1	202
1	202
1	202
1	202
1	202
1	202
1	202
1	6
1	202
1	10
1	202
1	202
1	202
1	202
1	6124
1	6
1	202
1	202
1	202
1	202
1	7
1	202
1	202
1	202
1	4
1	202
1	202
1	202
1	202
1	202
1	202
1	202
1	4
1	7
1	202
1	10
1	9
1	3
1	202
1	202
1	202
1	202
1	202
1	4
1	202
1	202
1	202
1	202
1	202
1	202
1	6124
1	7
1	4
1	202
1	10
1	202
1	202
1	202
1	8
1	4
1	202
1	202
1	6
1	10
1	202
1	202
1	6
1	9
1	202
1	7
1	202
1	202
1	202
1	202
1	202
1	202
1	202
1	202
1	202
1	202
1	202
1	5
1	7
1	6
1	202
1	202
1	4
1	202
1	202
1	9
1	202
1	4
1	3
1	202
1	4
1	202
1	7
1	202
1	202
1	4
1	7
1	202
1	6
1	202
1	6
1	202
1	202
1	202
1	202
1	6
1	9
1	10
1	202
1	4
1	8
1	202
1	5
1	202
1	202
1	202
1	202
1	4
1	3
1	4
1	202
1	202
1	202
1	6
1	4
1	202
1	5
1	202
1	202
1	8
1	202
1	3
1	202
1	5
1	202
1	202
1	202
1	202
1	202
1	202
1	202
1	10
1	202
1	202
1	202
1	3
1	202
1	6
1	202
1	202
1	7
1	202
1	202
1	7
1	202
1	202
1	202
1	202
1	7
1	202
1	202
1	4
1	202
1	202
1	202
1	5
1	202
1	202
1	202
1	6
1	202
1	9
1	9
1	202
1	202
1	5
1	202
1	4
1	202
1	202
1	202
1	5
1	202
1	202
1	202
1	3
1	202
1	202
1	4
1	202
1	6
1	202
1	8
1	202
1	202
1	202
1	202
1	202
1	3
1	2
1	202
1	202
1	202
1	202
1	202
1	6
1	202
1	202
1	202
1	4
1	202
1	7
1	6
1	5
1	7
1	202
1	202
1	202
1	202
1	202
1	8
1	5
1	202
1	202
1	202
1	202
1	5
1	9
1	6
1	5
1	6
1	202
1	202
2	4
2	4
2	4
2	3
2	4
2	10
2	10
2	8
2	7
2	3
2	5
2	6
2	10
2	3
2	3
2	3
2	3
2	202
2	4
2	10
2	5
2	3
2	4
2	4
2	3
2	4
2	3
2	4
2	7
2	3
2	10
2	10
2	3
2	10
2	4
2	3
2	5
3	4
3	5
