1	6124
1	283
1	11
1	283
1	283
1	283
1	283
1	10
1	283
1	283
1	283
1	283
1	283
1	283
1	11
1	283
1	9
1	283
1	283
1	283
1	9
1	283
1	10
1	8
1	8
1	283
1	14
1	7
1	5
1	14
1	283
1	283
1	10
1	283
1	283
1	283
1	283
1	283
1	10
1	7
1	8
1	283
1	8
1	283
1	283
1	3
1	283
1	283
1	5
1	283
1	5
1	283
1	4
1	3
1	283
1	13
1	283
1	283
1	283
1	5
1	283
1	283
1	11
1	283
1	8
1	10
1	283
1	11
1	283
1	283
1	283
1	283
1	8
1	283
1	283
1	8
1	283
1	283
1	283
1	7
1	14
1	283
1	283
1	283
1	283
1	283
1	283
1	283
1	283
1	5
1	283
1	9
1	10
1	283
1	283
1	283
1	283
1	283
1	283
1	283
1	283
1	283
1	283
1	283
1	13
1	14
1	283
1	283
1	3
1	283
1	13
1	283
1	283
1	7
1	4
1	283
1	283
1	283
1	283
1	283
1	283
1	9
1	283
1	283
1	10
1	10
1	283
1	283
1	283
1	283
1	283
1	8
1	283
1	283
1	283
1	283
1	3
1	283
1	283
1	283
1	283
1	5
1	283
1	283
1	14
1	5
1	283
1	283
1	3
1	10
1	283
1	283
1	3
1	283
1	283
1	10
1	283
1	10
1	283
1	283
1	283
1	283
1	283
1	283
1	283
1	6
1	283
1	5
1	3
1	283
1	283
1	283
1	283
1	283
1	283
1	283
1	283
1	283
1	283
1	283
1	283
1	9
1	283
1	283
1	14
1	283
1	283
1	283
1	283
1	283
1	283
1	283
1	11
1	283
1	283
1	283
1	7
1	283
1	283
1	5
1	283
1	283
1	13
1	4
1	283
1	283
1	283
1	283
1	283
1	283
1	283
1	283
1	283
1	5
1	283
1	4
1	9
1	10
1	283
1	283
1	283
1	5
1	283
1	283
1	283
1	13
1	283
1	13
1	283
1	283
1	283
1	283
1	283
1	5
1	283
1	283
1	3
1	283
1	283
1	283
1	11
1	283
1	283
1	283
1	283
1	4
1	283
1	283
1	283
1	10
1	283
1	283
1	283
1	4
1	283
1	13
1	3
1	283
1	283
1	3
1	283
1	10
1	4
1	3
1	3
1	10
1	283
1	283
1	283
1	283
1	283
1	283
1	283
1	283
1	14
1	283
1	5
1	283
1	283
1	283
1	4
1	283
1	283
1	3
1	283
1	283
1	283
1	283
1	5
1	283
1	283
1	283
1	283
1	8
1	283
1	283
1	11
1	283
1	283
1	283
2	283
2	11
2	283
2	10
2	4
2	4
2	10
2	283
2	10
2	283
2	7
2	10
2	283
2	10
2	5
2	7
2	7
2	10
2	3
2	4
2	7
2	3
2	3
2	283
2	10
2	7
2	5
2	4
2	3
2	4
2	10
2	7
2	5
2	7
2	3
2	4
2	7
2	3
2	6
2	7
2	4
2	4
2	10
2	10
2	4
2	10
3	4
3	6
3	4
3	7
