1	6124
1	789
1	789
1	789
1	789
1	789
1	789
1	789
1	789
1	789
1	789
1	789
1	789
1	789
1	789
1	789
1	789
1	789
1	789
1	789
1	789
1	789
1	789
1	789
1	789
1	7
1	789
1	789
1	789
1	789
1	789
1	7
1	789
1	789
1	789
1	6124
1	789
1	789
1	789
1	17
1	789
1	789
1	789
1	789
1	789
1	789
1	789
1	789
1	789
1	789
1	789
1	789
1	789
1	789
1	789
1	7
1	789
1	789
1	789
1	789
1	11
1	16
1	16
1	789
1	789
1	8
1	789
1	789
1	789
1	789
1	789
1	789
1	789
1	789
1	789
1	789
1	789
1	789
1	789
1	789
1	789
1	789
1	789
1	789
1	789
1	789
1	789
1	789
1	789
1	789
1	789
1	789
1	789
1	789
1	789
1	789
1	789
1	789
1	789
1	789
1	789
1	789
1	789
1	789
1	789
1	789
1	789
1	16
1	789
1	789
1	789
1	789
1	789
1	789
1	8
1	789
1	789
1	7
1	789
1	789
1	8
1	789
1	789
1	789
1	789
1	789
1	789
1	789
1	6
1	789
1	4
1	789
1	789
1	789
1	789
1	789
1	789
1	789
1	789
1	789
1	789
1	789
1	11
1	789
1	789
1	789
1	789
1	789
1	789
1	789
1	789
1	789
1	789
1	789
1	789
1	789
1	7
1	789
1	789
1	789
1	789
1	6
1	789
1	789
1	789
1	789
1	789
1	789
1	7
1	789
1	7
1	789
1	789
1	789
1	789
1	789
1	789
1	789
1	789
1	789
1	789
1	789
1	789
1	789
1	789
1	789
1	789
1	789
1	789
1	16
1	789
1	789
1	789
1	789
1	789
1	789
1	789
1	789
1	789
1	4
1	789
1	789
1	789
1	789
1	789
1	789
1	789
1	789
1	789
1	789
1	789
1	789
1	789
1	4
1	789
1	4
1	789
1	789
1	789
1	789
1	789
1	789
1	789
1	789
1	789
1	789
1	789
1	789
1	789
1	789
1	789
1	789
1	789
1	789
1	789
1	789
1	789
1	789
1	789
1	8
1	789
1	789
1	789
1	789
1	789
1	17
1	789
1	789
1	789
1	789
1	789
1	789
1	789
1	16
1	789
1	789
1	3
1	789
1	789
1	789
1	7
1	8
1	789
1	789
1	789
1	789
1	789
1	7
1	789
1	789
1	789
1	789
1	789
1	789
1	789
1	789
1	789
1	789
1	789
1	789
1	789
1	789
1	789
1	789
1	789
1	789
1	789
1	789
1	789
1	789
1	11
1	789
1	789
1	789
1	789
1	789
1	789
1	789
1	789
1	789
1	11
1	789
1	789
1	789
1	7
1	789
1	789
1	789
1	789
1	789
1	789
1	789
1	5
1	789
1	789
1	11
1	789
1	789
1	789
1	789
1	789
1	16
1	6
1	789
1	789
1	789
1	789
1	789
1	789
1	789
1	7
1	789
1	789
1	789
1	17
1	789
1	789
1	789
1	10
1	789
1	789
1	789
1	789
1	789
1	789
1	789
1	7
1	789
1	789
1	5
1	789
1	789
1	789
1	789
1	789
1	789
1	789
1	8
1	789
1	4
1	789
1	789
1	789
1	789
1	789
1	789
1	789
1	789
1	789
1	789
1	789
1	6
1	789
1	16
1	6124
1	789
1	789
1	789
1	789
1	789
1	789
1	789
1	789
1	789
1	789
1	789
1	789
1	789
1	789
1	789
1	7
1	789
1	17
1	11
1	789
1	789
1	789
1	789
1	789
1	789
1	789
1	5
1	7
1	789
1	789
1	4
1	789
1	789
1	8
1	789
1	789
1	16
1	789
1	789
1	789
1	789
1	789
1	789
1	4
1	789
1	789
1	789
1	789
1	16
1	789
1	789
1	789
1	16
1	7
1	789
1	789
1	789
1	789
1	789
1	789
1	7
1	789
1	789
1	789
1	789
1	789
1	789
1	789
1	789
1	789
1	789
1	4
1	789
1	3
1	789
1	7
1	789
1	789
1	7
1	6
1	789
1	789
1	789
1	789
1	789
1	789
1	789
1	789
1	789
1	789
1	789
1	789
1	789
1	789
1	789
1	4
1	789
1	789
1	789
1	4
1	789
1	789
1	789
1	789
1	789
1	789
1	789
1	789
1	789
1	789
1	789
1	789
1	789
1	789
1	17
1	789
1	4
1	789
1	789
1	789
1	789
1	5
1	789
1	789
1	789
1	789
1	789
1	789
1	789
1	789
1	789
1	789
1	789
1	789
1	3
1	789
1	16
1	789
1	16
1	789
1	789
1	7
1	789
1	789
1	789
1	789
1	789
1	789
1	789
1	17
1	789
1	789
1	789
1	789
1	789
1	789
1	789
1	789
1	789
1	789
1	789
1	789
1	3
1	10
1	789
1	789
1	789
1	3
1	789
1	789
1	789
1	789
1	789
1	789
1	789
1	789
1	789
1	789
1	789
1	789
1	789
1	789
1	789
1	789
1	10
1	789
1	789
1	789
1	789
1	7
1	789
1	7
1	789
1	5
1	789
1	789
1	789
1	10
1	789
1	789
1	789
1	789
1	789
1	789
1	789
1	789
1	8
1	8
1	10
1	789
1	789
1	4
1	789
1	4
1	789
1	789
1	6
1	6
1	789
1	3
1	10
1	789
1	789
1	789
1	789
1	10
1	789
1	789
1	789
1	789
1	789
1	789
1	789
1	789
1	789
1	789
1	789
1	789
1	789
1	789
1	789
1	789
1	789
1	789
1	789
1	789
1	5
1	4
1	5
1	789
1	789
1	789
1	789
1	789
1	789
1	789
1	789
1	789
1	7
1	789
1	789
1	789
1	789
1	789
1	789
1	6
1	789
1	7
1	789
1	789
1	789
1	789
1	789
1	789
1	7
1	789
1	789
1	789
1	789
1	789
1	789
1	789
1	789
1	789
1	789
1	4
1	789
1	6
1	789
1	789
1	789
1	789
1	789
1	789
1	789
1	789
1	789
1	789
1	17
1	789
1	789
1	789
1	11
1	789
1	789
1	789
1	789
1	789
1	789
1	8
1	789
1	789
1	789
1	4
1	789
1	789
1	789
1	789
1	789
1	17
1	4
1	789
1	789
1	789
1	789
1	789
1	789
1	789
1	789
1	789
1	5
1	789
1	789
1	789
1	7
1	789
1	789
1	789
1	6
1	5
1	789
1	789
1	789
1	789
1	789
1	789
1	8
1	789
1	789
1	789
1	789
1	789
1	789
1	789
1	789
1	789
1	789
1	789
1	4
1	789
1	3
1	789
1	3
1	6
1	789
1	789
1	789
1	789
1	789
1	789
1	789
1	789
1	789
1	789
1	789
1	789
1	7
1	789
1	789
1	789
1	789
1	789
1	789
1	789
1	7
1	789
1	789
1	789
1	789
1	789
1	16
1	789
1	789
1	789
1	789
1	789
1	789
1	789
1	789
1	789
1	789
1	789
1	789
1	789
1	789
1	7
1	4
1	10
1	789
1	6
1	789
1	789
1	4
1	789
1	789
1	789
1	789
1	789
1	4
1	789
1	789
1	789
1	789
1	789
1	789
1	789
1	789
1	4
1	4
1	789
1	789
1	789
1	789
1	789
1	789
1	789
1	789
1	789
1	789
1	6
1	789
1	789
1	789
1	789
1	789
1	789
1	789
1	789
1	789
1	789
1	17
1	3
1	789
1	789
1	789
1	789
1	789
1	789
1	7
1	789
1	789
1	789
1	789
1	789
1	5
1	789
1	789
1	789
1	7
1	789
1	789
1	789
1	789
1	789
1	789
1	789
1	5
1	789
1	11
1	789
1	789
1	789
1	789
1	789
1	789
1	789
1	789
1	789
1	789
1	789
1	789
1	789
1	6
1	789
1	789
1	789
1	789
1	17
1	789
1	3
1	789
1	789
1	789
1	789
1	789
1	789
1	789
1	789
1	4
1	789
2	3
2	5
2	5
2	789
2	6
2	4
2	3
2	789
2	789
2	3
2	6
2	5
2	4
2	3
2	6
2	3
2	4
2	3
2	6
2	7
2	3
2	4
2	6
2	4
2	17
2	3
2	4
2	6
2	4
2	789
2	8
2	3
2	3
2	17
2	789
2	3
2	16
2	5
2	6
2	4
3	5
