1	6124
1	2271
1	2271
1	2271
1	2271
1	2271
1	2271
1	2271
1	2271
1	2271
1	2271
1	11
1	2271
1	2271
1	8
1	2271
1	2271
1	2271
1	2271
1	2271
1	2271
1	2271
1	2271
1	2271
1	2271
1	2271
1	2271
1	2271
1	2271
1	2271
1	2271
1	2271
1	2271
1	2271
1	11
1	2271
1	2271
1	2271
1	2271
1	2271
1	2271
1	2271
1	2271
1	2271
1	2271
1	2271
1	2271
1	2271
1	2271
1	2271
1	2271
1	15
1	2271
1	2271
1	2271
1	2271
1	2271
1	2271
1	2271
1	2271
1	2271
1	2271
1	2271
1	2271
1	2271
1	2271
1	2271
1	13
1	2271
1	2271
1	2271
1	2271
1	2271
1	2271
1	11
1	2271
1	2271
1	2271
1	2271
1	2271
1	13
1	2271
1	2271
1	2271
1	8
1	2271
1	2271
1	2271
1	2271
1	2271
1	2271
1	2271
1	2271
1	2271
1	2271
1	2271
1	2271
1	2271
1	2271
1	15
1	2271
1	2271
1	2271
1	11
1	2271
1	2271
1	2271
1	2271
1	2271
1	2271
1	2271
1	2271
1	2271
1	2271
1	2271
1	2271
1	2271
1	2271
1	2271
1	5
1	2271
1	2271
1	2271
1	11
1	2271
1	2271
1	2271
1	2271
1	2271
1	2271
1	11
1	2271
1	2271
1	2271
1	2271
1	2271
1	2271
1	2271
1	2271
1	2271
1	2271
1	2271
1	13
1	2271
1	2271
1	2271
1	7
1	2271
1	2271
1	2271
1	2271
1	2271
1	2271
1	2271
1	2271
1	2271
1	2271
1	2271
1	2271
1	2271
1	2271
1	2271
1	2271
1	2271
1	2271
1	2271
1	2271
1	2271
1	2271
1	2271
1	2271
1	2271
1	2271
1	2271
1	2271
1	2271
1	11
1	2271
1	7
1	7
1	2271
1	2271
1	2271
1	2271
1	2271
1	2271
1	2271
1	2271
1	2271
1	2271
1	2271
1	2271
1	2271
1	2271
1	2271
1	2271
1	2271
1	11
1	2271
1	2271
1	2271
1	2271
1	2271
1	2271
1	2271
1	2271
1	29
1	11
1	2271
1	2271
1	2271
1	2271
1	2271
1	13
1	2271
1	2271
1	2271
1	2271
1	2271
1	13
1	2271
1	2271
1	9
1	2271
1	2271
1	2271
1	2271
1	2271
1	2271
1	2271
1	2271
1	2271
1	2271
1	49
1	15
1	2271
1	11
1	2271
1	2271
1	2271
1	2271
1	2271
1	2271
1	2271
1	2271
1	2271
1	2271
1	2271
1	2271
1	6
1	2271
1	2271
1	2271
1	2271
1	2271
1	2271
1	2271
1	2271
1	2271
1	2271
1	2271
1	49
1	2271
1	49
1	2271
1	2271
1	20
1	2271
1	2271
1	2271
1	2271
1	16
1	2271
1	2271
1	2271
1	2271
1	2271
1	2271
1	29
1	2271
1	2271
1	2271
1	2271
1	2271
1	2271
1	2271
1	2271
1	13
1	2271
1	2271
1	2271
1	2271
1	2271
1	2271
1	2271
1	2271
1	2271
1	2271
1	2271
1	2271
1	2271
1	2271
1	2271
1	2271
1	2271
1	2271
1	2271
1	2271
1	15
1	2271
1	2271
1	2271
1	2271
1	2271
1	2271
1	2271
1	2271
1	2271
1	2271
1	2271
1	2271
1	2271
1	20
1	2271
1	4
1	2271
1	2271
1	2271
1	2271
1	2271
1	2271
1	2271
1	2271
1	2271
1	2271
1	2271
1	2271
1	2271
1	2271
1	2271
1	2271
1	49
1	13
1	2271
1	16
1	2271
1	2271
1	2271
1	2271
1	7
1	2271
1	11
1	2271
1	2271
1	2271
1	2271
1	2271
1	2271
1	13
1	2271
1	13
1	2271
1	2271
1	2271
1	15
1	2271
1	2271
1	2271
1	2271
1	2271
1	2271
1	2271
1	11
1	2271
1	13
1	13
1	2271
1	2271
1	2271
1	13
1	2271
1	2271
1	7
1	2271
1	2271
1	2271
1	2271
1	2271
1	2271
1	2271
1	2271
1	2271
1	2271
1	2271
1	2271
1	2271
1	2271
1	2271
1	2271
1	2271
1	2271
1	2271
1	2271
1	2271
1	2271
1	2271
1	2271
1	2271
1	2271
1	2271
1	2271
1	8
1	2271
1	13
1	2271
1	8
1	2271
1	2271
1	2271
1	2271
1	49
1	2271
1	2271
1	13
1	2271
1	2271
1	2271
1	2271
1	2271
1	2271
1	2271
1	2271
1	2271
1	2271
1	2271
1	2271
1	2271
1	2271
1	2271
1	2271
1	2271
1	2271
1	29
1	2271
1	2271
1	2271
1	2271
1	2271
1	2271
1	13
1	8
1	10
1	2271
1	7
1	2271
1	3
1	2271
1	2271
1	2271
1	7
1	2271
1	2271
1	2271
1	2271
1	2271
1	2271
1	2271
1	2271
1	2271
1	2271
1	2271
1	2271
1	2271
1	2271
1	2271
1	2271
1	2271
1	2271
1	2271
1	2271
1	2271
1	2271
1	2271
1	2271
1	7
1	2271
1	2271
1	2271
1	9
1	2271
1	2271
1	20
1	2271
1	2271
1	2271
1	2271
1	2271
1	2271
1	2271
1	2271
1	2271
1	2271
1	2271
1	2271
1	2271
1	2271
1	5
1	2271
1	2271
1	2271
1	24
1	2271
1	2271
1	2271
1	2271
1	2271
1	2271
1	2271
1	2271
1	2271
1	2271
1	2271
1	2271
1	2271
1	2271
1	2271
1	2271
1	2271
1	2271
1	2271
1	20
1	2271
1	7
1	2271
1	2271
1	2271
1	2271
1	2271
1	2271
1	2271
1	2271
1	4
1	2271
1	2271
1	2271
1	2271
1	2271
1	2271
1	2271
1	2271
1	2271
1	2271
1	2271
1	2271
1	2271
1	2271
1	2271
1	2271
1	9
1	2271
1	4
1	2271
1	2271
1	7
1	2271
1	13
1	2271
1	2271
1	2271
1	2271
1	2271
1	2271
1	2271
1	2271
1	2271
1	2271
1	2271
1	2271
1	2271
1	2271
1	2271
1	2271
1	24
1	2271
1	2271
1	2271
1	2271
1	2271
1	2271
1	2271
1	2271
1	2271
1	3
1	2271
1	2271
1	2271
1	2271
1	2271
1	2271
1	2271
1	2271
1	2271
1	2271
1	5
1	2271
1	2271
1	2271
1	2271
1	6
1	2271
1	2271
1	2271
1	2271
1	2271
1	11
1	2271
1	2271
1	2271
1	2271
1	2271
1	2271
1	2271
1	2271
1	2271
1	2271
1	2271
1	2271
1	2271
1	2271
1	2271
1	2271
1	2271
1	2271
1	2271
1	5
1	8
1	11
1	2271
1	2271
1	2271
1	2271
1	2271
1	2271
1	2271
1	2271
1	2271
1	49
1	2271
1	2271
1	13
1	49
1	2271
1	11
1	2271
1	2271
1	2271
1	2271
1	2271
1	16
1	2271
1	2271
1	2271
1	2271
1	2271
1	9
1	2271
1	2271
1	2271
1	2271
1	11
1	29
1	2271
1	2271
1	2271
1	2271
1	29
1	2271
1	2271
1	20
1	2271
1	8
1	2271
1	2271
1	2271
1	2271
1	20
1	2271
1	2271
1	2271
1	2271
1	2271
1	2271
1	2271
1	2271
1	2271
1	2271
1	49
1	2271
1	2271
1	2271
1	9
1	2271
1	2271
1	2271
1	2271
1	2271
1	13
1	2271
1	2271
1	2271
1	2271
1	2271
1	4
1	2271
1	2271
1	2271
1	2271
1	2271
1	2271
1	2271
1	10
1	13
1	2271
1	5
1	2271
1	2271
1	6124
1	2271
1	2271
1	2271
1	2271
1	2271
1	2271
1	2271
1	2271
1	2271
1	2271
1	9
1	2271
1	2271
1	2271
1	2271
1	2271
1	2271
1	5
1	2271
1	4
1	2271
1	2271
1	2271
1	2271
1	2271
1	6
1	2271
1	2271
1	2271
1	2271
1	2271
1	2271
1	2271
1	29
1	9
1	2271
1	2271
1	2271
1	2271
1	2271
1	8
1	2271
1	2271
1	2271
1	2271
1	2271
1	2271
1	2271
1	2271
1	2271
1	16
1	13
1	2271
1	2271
1	2271
1	2271
1	2271
1	2271
1	2271
1	2271
1	2271
1	7
1	11
1	2271
1	3
1	2271
1	2271
1	2271
1	2271
1	2271
1	2271
1	2271
1	2271
1	2271
1	2271
1	15
1	49
1	2271
1	2271
1	2271
1	2271
1	2271
1	2271
1	2271
1	2271
1	2271
1	2271
1	2271
1	2271
1	3
1	2271
1	2271
1	2271
1	2271
1	2271
1	2271
1	2271
1	13
1	2271
1	2271
1	2271
1	2271
1	11
1	2271
1	7
1	2271
1	2271
1	2271
1	2271
1	6
1	8
1	6
1	2271
1	13
1	2271
1	2271
1	2271
1	2271
1	2271
1	2271
1	29
1	2271
1	2271
1	2271
1	2271
1	2271
1	2271
1	2271
1	49
1	2271
1	2271
1	2271
1	2271
1	2271
1	2271
1	2271
1	5
1	2271
1	2271
1	2271
1	49
1	2271
1	2271
1	2271
1	2271
1	6
1	2271
1	6
1	2271
1	2271
1	15
1	2271
1	2271
1	2271
1	2271
1	2271
1	20
1	2271
1	2271
1	2271
1	49
1	2271
1	15
1	2271
1	4
1	4
1	2271
1	2271
1	2271
1	2271
1	2271
1	2271
1	2271
1	2271
1	2271
1	2271
1	2271
1	2271
1	2271
1	49
1	2271
1	11
1	5
1	2271
1	2271
1	2271
1	2271
1	2271
1	2271
1	2271
1	2271
1	2271
1	2271
1	6
1	2271
1	2271
1	2271
1	2271
1	2271
1	2271
1	20
1	2271
1	6
1	3
1	2271
1	2271
1	2271
1	2271
1	7
1	2271
1	2271
1	2271
1	2271
1	2271
1	2271
1	4
1	2271
1	2271
1	2271
1	2271
1	8
1	2271
1	2271
1	16
1	2271
1	2271
1	2271
1	2271
1	2271
1	2271
1	2271
1	2271
1	49
1	2271
1	2271
1	2271
1	2271
1	2271
1	2271
1	2271
1	49
1	2271
1	2271
1	2271
1	2271
1	2271
1	2271
1	2271
1	2271
1	2271
1	2271
1	2271
1	2271
1	2271
1	2271
1	13
1	2271
1	2271
1	5
1	2271
1	2271
1	2271
1	8
1	2271
1	2271
1	5
1	2271
1	2271
1	2
1	2271
1	2271
1	2271
1	2271
1	2271
1	2271
1	2271
1	2271
1	2271
1	2271
1	2271
1	2271
1	2271
1	2271
1	2271
1	2271
1	2271
1	2271
1	2271
1	2271
1	2271
1	2271
1	2271
1	5
1	2271
1	2271
1	5
1	2271
1	2271
1	2271
1	2271
1	2271
1	2271
1	2271
1	2271
1	2271
1	2271
1	2271
1	49
1	2271
1	2271
1	2271
1	2271
1	2271
1	2271
1	2271
1	49
1	2271
1	6
1	2271
1	2271
1	2271
1	6
1	2271
1	2271
1	2271
1	2271
1	2271
1	2271
1	2271
1	2271
1	24
1	2271
1	10
1	29
1	2271
1	2271
1	2271
1	11
1	6
1	20
1	2271
1	13
1	2271
1	2271
1	2271
1	2271
1	2271
1	2271
1	2271
1	2271
1	2271
1	13
1	2271
1	2271
1	2271
1	2271
1	2271
1	2271
1	2271
1	7
1	2271
1	5
1	2271
1	2271
1	2271
1	2271
1	2271
1	2271
1	2271
1	2271
1	2271
1	2271
1	2271
1	2271
1	2271
1	2271
1	2271
1	2271
1	2271
1	2271
1	2271
1	2271
1	2271
1	2271
1	8
1	2271
1	2271
1	2271
1	2271
1	2271
1	2271
1	2271
1	2271
1	2271
1	2271
1	2271
1	2271
1	2271
1	2271
1	2271
1	2271
1	2271
1	4
1	29
1	2271
1	2271
1	2271
1	2271
1	2271
1	2271
1	2271
1	2271
1	2271
1	2271
1	2271
1	2271
1	2271
1	2271
1	2271
1	4
1	2271
1	2271
1	2271
1	2271
1	13
1	11
1	2271
1	2271
1	8
1	9
1	2271
1	2271
1	5
1	7
1	2271
1	2271
1	4
1	2271
1	2271
1	2271
1	2271
1	2271
1	3
1	2271
1	2271
1	2271
1	16
1	2271
1	2271
1	2271
1	2271
1	2271
1	2271
1	2271
1	2271
1	2271
1	2271
1	2271
1	16
1	2271
1	2271
1	2271
1	2271
1	2271
1	2271
1	2271
1	2271
1	2271
1	2271
1	2271
1	2271
1	2271
1	49
1	2271
1	2271
1	2271
1	2271
1	2271
1	2271
1	2271
1	2271
1	2271
1	2271
1	2271
1	2271
1	2271
1	5
1	2271
1	2271
1	2271
1	2271
1	2271
1	2271
1	2271
1	2271
1	2271
1	2271
1	4
1	2271
1	2271
1	7
1	2271
1	4
1	2271
1	2271
1	2271
1	5
1	2271
1	2271
1	2271
1	7
1	2271
1	2271
1	2271
1	2271
1	11
1	2271
1	2271
1	2271
1	10
1	2271
1	2271
1	2271
1	2271
1	9
1	2271
1	2271
1	2271
1	11
1	29
1	2271
1	2271
1	4
1	2271
1	2271
1	2271
1	2271
1	2271
1	2271
1	2271
1	2271
1	2271
1	2271
1	2271
1	2271
1	5
1	13
1	2271
1	2271
1	2271
1	2271
1	4
1	2271
1	2271
1	2271
1	2271
1	11
1	16
1	2271
1	2271
1	2271
1	2271
1	2271
1	2271
1	2271
1	2271
1	2271
1	2271
1	2271
1	2271
1	2271
1	2271
1	2271
1	2271
1	2271
1	2271
1	2271
1	2271
1	2271
1	2271
1	13
1	2271
1	2271
1	2271
1	6
1	2271
1	2271
1	2271
1	2271
1	2271
1	8
1	5
1	2271
1	2271
1	20
1	49
1	15
1	2271
1	2271
1	2271
1	2271
1	2271
1	2271
1	2271
1	2271
1	2271
1	2271
1	2271
1	2271
1	49
1	2271
1	2271
1	2271
1	2271
1	8
1	2271
1	2271
1	2271
1	16
1	2271
1	3
1	2271
1	2271
1	15
1	2271
1	2271
1	2271
1	2271
1	8
1	2271
1	2271
1	5
1	2271
1	2271
1	2271
1	2271
1	2271
1	2271
1	2271
1	2271
1	2271
1	2271
1	2271
1	2271
1	2271
1	2271
1	2271
1	2271
1	2271
1	2271
1	2271
1	13
1	2271
1	5
1	2271
1	2271
1	2271
1	2271
1	2271
1	2271
1	2271
1	2271
1	3
1	2271
1	2271
1	2271
1	2271
1	2271
1	2271
1	2271
1	2271
1	2271
1	2271
1	2271
1	2271
1	2271
1	11
1	2271
1	2271
1	6
1	7
1	2271
1	2271
1	2271
1	2271
1	2271
1	2271
1	2271
1	2271
1	2271
1	2271
1	2271
1	2271
1	2271
1	2271
1	2271
1	49
1	3
1	2271
1	2271
1	2271
1	2271
1	2271
1	2271
1	2271
1	2271
1	2271
1	2271
1	2271
1	2271
1	2271
1	2271
1	2271
1	2271
1	2271
1	2271
1	4
1	2271
1	2271
1	2271
1	2271
1	6
1	2271
1	2271
1	2271
1	2271
1	2271
1	2271
1	2271
1	2271
1	2271
1	6
1	2271
1	2271
1	2271
1	2271
1	2271
1	2271
1	2271
1	2271
1	8
1	2271
1	2271
1	13
1	2271
1	2271
1	2271
1	2271
1	2271
1	2271
1	2271
1	2271
1	2271
1	2271
1	2271
1	2271
1	2271
1	2271
1	2271
1	2271
1	2271
1	29
1	11
1	2271
1	2271
1	2271
1	2271
1	2271
1	2271
1	2271
1	2271
1	5
1	2271
1	2271
1	2271
1	2271
1	2271
1	2271
1	2271
1	2271
1	9
1	2271
1	49
1	2271
1	2271
1	2271
1	2271
1	2271
1	6
1	2271
1	2271
1	2271
1	2271
1	2271
1	2271
1	2271
1	2271
1	13
1	6
1	2271
1	2271
1	2271
1	9
1	2271
1	2271
1	2271
1	2271
1	2271
1	2271
1	2271
1	2271
1	2271
1	2271
1	2271
1	2271
1	2271
1	6
1	2271
1	2271
1	2271
1	2271
1	2271
1	2271
1	2271
1	2271
1	2271
1	2271
1	2271
1	2271
1	2271
1	2271
1	2271
1	2271
1	2271
1	2271
1	2271
1	49
1	2271
1	2271
1	2271
1	2271
1	2271
1	2271
1	2271
1	2271
1	2271
1	2271
1	2271
1	2271
1	2271
1	2271
1	2271
1	2271
1	2271
1	2271
1	2271
1	2271
1	2271
1	2271
1	4
1	2271
1	2271
1	2271
1	2271
1	2271
1	2271
1	2271
1	2271
1	2271
1	2271
1	49
1	2271
1	2271
1	6124
1	2271
1	2271
1	2271
1	2271
1	2271
1	2271
1	2271
1	2271
1	2271
1	2271
1	2271
1	2271
1	2271
1	2271
1	20
1	5
1	2271
1	2271
1	2271
1	2271
1	2271
1	2271
1	2271
1	2271
1	2271
1	2271
1	20
1	2271
1	2271
1	2271
1	13
1	2271
1	2271
1	5
1	2271
1	2271
1	2271
1	2271
1	2271
1	2271
1	2271
1	2271
1	2271
1	2271
1	2271
1	2271
1	2271
1	2271
1	2271
1	2271
1	2271
1	13
1	7
1	8
1	11
1	2271
1	2271
1	13
1	2271
1	15
1	2271
1	2271
1	2271
1	2271
1	2271
1	2271
1	2271
1	5
1	2271
1	2271
1	2271
1	2271
1	2271
1	2271
1	2271
1	2271
1	2271
1	2271
1	16
1	2271
1	2271
1	2271
1	2271
1	2271
1	2271
1	2271
1	2271
1	5
1	2271
1	2271
1	49
1	2271
1	24
1	2271
1	6
1	2271
1	2271
1	2271
1	2271
1	2271
1	2271
1	2271
1	6
1	2271
1	2271
1	2271
1	2271
1	2271
1	2271
1	9
1	2271
1	49
1	2271
1	2271
1	2271
1	2271
1	2271
1	2271
1	11
1	2271
1	2271
1	2271
1	13
1	2271
1	2271
1	2271
1	2271
1	2271
1	2271
1	2271
1	2271
1	2271
1	2271
1	2271
1	2271
1	2271
1	2271
1	2271
1	2271
1	2271
1	2271
1	7
1	2271
1	2271
1	2271
1	2271
1	2271
1	2271
1	2271
1	2271
1	2271
1	2271
1	2271
1	29
1	4
1	2271
1	2271
1	2271
1	5
1	2271
1	2271
1	2271
1	2271
1	2271
1	2271
1	4
1	2271
1	2271
1	2271
1	2271
1	11
1	2271
1	2271
1	2271
1	2271
1	2271
1	2271
1	8
1	2271
1	2271
1	2271
1	2271
1	2271
1	2271
1	2271
1	2271
1	2271
1	2271
1	2271
1	2271
1	2271
1	2271
1	2271
1	2271
1	2271
1	49
1	2271
1	2271
1	2271
1	2271
1	2271
1	4
1	2271
1	2271
1	2271
1	2271
1	2271
1	2271
1	2271
1	2271
1	2271
1	2271
1	2271
1	2271
1	6
1	2271
1	2271
1	2271
1	2271
1	2271
1	2271
1	2271
1	2271
1	2271
1	6
1	2271
1	2271
1	7
1	2271
1	29
1	2271
1	2271
1	2271
1	2271
1	16
1	2271
1	2271
1	2271
1	2271
1	10
1	2271
1	49
1	2271
1	2271
1	2271
1	2271
1	5
1	4
1	2271
1	2271
1	2271
1	2271
1	7
1	2271
1	2271
1	2271
1	2271
1	2271
1	2271
1	24
1	2271
1	2271
1	2271
1	2271
1	2271
1	2271
1	2271
1	7
1	5
1	2271
1	2271
1	2271
1	49
1	2271
1	2271
1	2271
1	2271
1	5
1	2271
1	2271
1	2271
1	2271
1	2271
1	2271
1	2271
1	2271
1	4
1	2271
1	2271
1	2271
1	2271
1	2271
1	2271
1	3
1	2271
1	2271
1	2271
1	2271
1	2271
1	2271
1	2271
1	2271
1	2271
1	2271
1	2271
1	3
1	2271
1	2271
1	2271
1	13
1	2271
1	2271
1	2271
1	2271
1	2271
1	2271
1	8
1	2271
1	2271
1	2271
1	2271
1	29
1	2271
1	2271
1	24
1	2271
1	2271
1	16
1	2271
1	2271
1	2271
1	2271
1	2271
1	2271
1	2271
1	2271
1	11
1	4
1	2271
1	2271
1	2271
1	2271
1	2271
1	2271
1	2271
1	2271
1	2271
1	2271
1	13
1	2271
1	2271
1	5
1	2271
1	49
1	2271
1	2271
1	3
1	2271
1	2271
1	2271
1	2271
1	4
1	2271
1	2271
1	2271
1	16
1	2271
1	2271
1	2271
1	9
1	16
1	2271
1	2271
1	2271
1	2271
1	2271
1	2271
1	2271
1	2271
1	2271
1	2271
1	7
1	15
1	2271
1	2271
1	2271
1	2271
1	2271
1	2271
1	2271
1	2271
1	2271
1	2271
1	2271
1	2271
1	2271
1	2271
1	2271
1	2271
1	10
1	2271
1	7
1	10
1	2271
1	2271
1	49
1	2271
1	5
1	2271
1	2271
1	2271
1	2271
1	2271
1	2271
1	2271
1	2271
1	2271
1	2271
1	2271
1	2271
1	2271
1	2271
1	2271
1	2271
1	11
1	2271
1	2271
1	2271
1	2271
1	3
1	2271
1	2271
1	2271
1	2271
1	2271
1	2271
1	2271
1	2271
1	2271
1	2271
1	2271
1	2271
1	2271
1	2271
1	6
1	2271
1	2271
1	2271
1	2271
1	2271
1	2271
1	11
1	2271
1	2271
1	2271
1	2271
1	2271
1	2271
1	2271
1	2271
1	2271
1	2271
1	2271
1	2271
1	2271
1	2271
1	2271
1	2271
1	2271
1	2271
1	2271
1	2271
1	2271
1	2271
1	3
1	2271
1	2271
1	2271
1	2271
1	2271
1	2271
1	2271
1	2271
1	2271
1	8
1	2271
1	2271
1	2271
1	2271
1	2271
1	2271
1	2271
1	2271
1	2271
1	2271
1	2271
1	2271
1	2271
1	13
1	4
1	2271
1	2271
1	2271
1	2271
1	2271
1	2271
1	2271
1	2271
1	2271
1	2271
1	2271
1	2271
1	2271
1	2271
1	2
1	2271
1	15
1	2271
1	2271
1	2271
1	2271
1	2271
1	2271
1	2271
1	20
1	2271
1	2271
1	2271
1	2271
1	4
1	2271
1	11
1	2271
1	2271
1	2271
1	8
1	2271
1	4
1	2271
1	2271
1	2271
1	2271
1	2271
1	2271
1	2271
1	2271
1	2271
1	2271
1	2271
1	2271
1	2271
1	16
1	2271
1	2271
1	2271
1	2271
1	2271
1	2271
1	2271
1	2271
1	4
1	9
1	2271
1	7
1	2271
1	2271
1	2271
1	2271
1	2271
1	2271
1	2271
1	2271
1	8
1	2271
1	2271
1	2271
1	2271
1	2271
1	2271
1	2271
1	2271
1	2271
1	2271
1	2271
1	11
1	2271
1	2271
1	2271
1	2271
1	2271
1	2271
1	2271
1	2271
1	2271
1	2271
1	2271
1	2271
1	2271
1	2271
1	2271
1	2271
1	2271
1	2271
1	2271
1	8
1	10
1	2271
1	11
1	2271
1	2271
1	2271
1	2271
1	2271
1	2271
1	8
1	2271
1	2271
1	2271
1	5
1	2271
1	2271
1	2271
1	2271
1	15
1	6
1	2271
1	2271
1	5
1	2271
1	2271
1	2271
1	2271
1	2271
1	2271
1	2271
1	2271
1	2271
1	2271
1	2271
1	2271
1	2271
1	2271
1	2271
1	2271
1	2271
1	2271
1	2271
1	2271
1	2271
1	2271
1	2271
1	2271
1	2271
1	2271
1	4
1	2271
1	2271
1	2271
1	2271
1	2271
1	2271
1	2271
1	24
1	2271
1	2271
1	2271
1	2271
1	49
1	2271
1	2271
1	2271
1	2271
1	2271
1	2271
1	2271
1	2271
1	10
1	2271
1	20
1	2271
1	2271
1	2271
1	2271
1	2271
1	2271
1	2271
1	2271
1	7
1	2271
1	7
1	2271
1	2271
1	2271
1	2271
1	2271
1	2271
1	2271
1	2271
1	2271
1	2271
1	2271
1	6
1	2271
1	2271
1	2271
1	2271
1	2271
1	2271
1	2271
1	2271
1	6
1	2271
1	2271
1	2271
1	2271
1	2271
1	2271
1	2271
1	2271
1	2271
1	2271
1	2271
1	13
1	2271
1	2271
1	2271
1	2271
1	2271
1	2271
1	2271
1	2271
1	2271
1	2271
1	2271
1	2271
1	2271
1	2271
1	5
1	2271
1	2271
1	2271
1	2271
1	2271
1	2271
1	2271
1	2271
1	2271
1	3
1	5
1	2271
1	2271
1	2271
1	2271
1	2271
1	2271
1	2271
1	2271
1	2271
1	2271
1	2271
1	2271
1	2271
1	2271
1	2271
1	2271
1	2271
1	8
1	2271
1	2271
1	2271
1	2271
1	2271
1	7
1	24
1	2271
1	3
1	2271
1	2271
1	2271
1	8
1	2271
1	4
1	2271
1	2271
1	2271
1	2271
1	10
1	2271
1	2271
1	2271
1	2271
1	2271
1	2271
1	2271
1	2271
1	2271
1	2271
1	2271
1	9
1	2271
1	2271
1	2271
1	2271
1	2271
1	2271
1	2271
1	2271
1	2271
1	2271
1	2271
1	2271
1	2271
1	2271
1	2271
1	2271
1	2271
1	2271
1	2271
1	2271
1	2271
1	3
1	2271
1	2271
1	2271
1	2271
1	2271
1	2271
1	2271
1	2271
1	2271
1	2271
1	2271
1	2271
1	2271
1	2271
1	2271
1	2271
1	16
1	2271
1	2271
1	2271
1	13
1	2271
1	2271
1	2271
1	2271
1	2271
1	2271
1	2271
1	2271
1	2271
1	2271
1	2271
1	2271
1	2271
1	2271
1	2271
1	2271
1	2271
1	2271
1	2271
1	2271
1	2271
1	2271
1	2271
1	2271
1	2271
1	2271
1	2271
1	2271
1	2271
1	2271
1	2271
1	2271
1	2271
1	2271
1	24
1	2271
1	2271
1	2271
1	13
2	6
2	2271
2	24
2	29
2	3
2	2271
2	3
2	7
2	4
2	5
2	2271
2	3
2	2271
2	7
2	2271
2	5
2	9
2	11
2	4
2	11
2	24
2	5
2	3
2	3
2	13
2	3
2	3
2	29
2	5
2	5
2	9
2	5
2	11
2	10
2	5
2	2271
2	3
2	7
2	10
2	2271
2	3
2	7
2	8
2	5
2	15
2	5
2	49
2	4
2	29
2	5
2	5
2	8
2	3
2	5
2	49
2	6
2	13
2	4
2	8
2	15
2	8
2	3
2	2271
2	5
2	3
2	3
2	6
2	8
2	5
2	11
2	5
2	11
2	7
2	13
2	6
2	8
2	7
2	8
2	4
2	4
2	3
2	7
2	4
2	5
2	5
2	4
2	4
2	4
2	16
2	13
2	10
2	5
2	5
2	13
2	8
2	49
2	3
2	7
2	3
2	4
2	11
2	4
2	11
3	6
3	7
3	8
3	11
3	11
3	5
3	6
3	5
3	5
3	4
3	16
3	7
3	4
4	9
