1	6124
1	209
1	209
1	209
1	209
1	209
1	209
1	7
1	13
1	209
1	209
1	209
1	209
1	209
1	209
1	13
1	209
1	209
1	209
1	6
1	209
1	209
1	209
1	209
1	209
1	209
1	13
1	209
1	209
1	13
1	209
1	209
1	7
1	209
1	209
1	209
1	209
1	209
1	7
1	5
1	209
1	5
1	209
1	209
1	209
1	7
1	209
1	13
1	209
1	209
1	209
1	209
1	7
1	6
1	209
1	4
1	209
1	209
1	209
1	209
1	209
1	209
1	5
1	7
1	6
1	209
1	4
1	209
1	209
1	209
1	209
1	7
1	209
1	7
1	209
1	209
1	209
1	209
1	13
1	209
1	209
1	4
1	209
1	209
1	209
1	209
1	209
1	209
1	209
1	209
1	209
1	209
1	209
1	209
1	209
1	209
1	209
1	209
1	209
1	209
1	209
1	7
1	13
1	7
1	209
1	209
1	3
1	209
1	4
1	209
1	209
1	209
1	209
1	7
1	209
1	209
1	209
1	209
1	209
1	209
1	209
1	209
1	209
1	209
1	209
1	7
1	209
1	209
1	209
1	6
1	209
1	209
1	6
1	4
1	209
1	209
1	209
1	209
1	4
1	209
1	209
1	7
1	7
1	209
1	209
1	209
1	209
1	209
1	209
1	7
1	5
1	209
1	209
1	13
1	209
1	209
1	209
1	209
1	209
1	4
1	4
1	209
1	209
1	209
1	209
1	209
1	209
1	209
1	4
1	5
1	4
1	5
1	209
1	4
1	4
1	209
1	209
1	4
1	209
1	209
1	6
1	209
1	209
1	209
1	209
1	209
1	209
1	209
1	209
1	209
1	209
1	209
1	7
1	7
1	4
1	209
1	209
1	209
1	209
1	209
1	13
1	209
1	13
1	209
1	209
1	209
1	6
1	5
1	3
1	209
1	4
1	209
1	209
1	209
1	209
1	209
1	7
1	209
1	209
1	5
1	209
1	209
1	209
1	209
1	209
1	209
1	209
1	3
1	209
1	209
1	209
1	209
1	209
1	209
1	4
1	7
1	209
1	209
1	209
1	209
1	209
1	5
1	3
1	209
1	209
1	5
1	209
1	4
1	209
1	209
1	13
2	4
2	209
2	3
2	3
2	4
2	3
2	209
2	4
2	4
2	3
2	4
2	5
2	4
2	3
2	4
2	7
2	5
2	7
2	6
3	7
