1	6124
1	510
1	510
1	510
1	7
1	510
1	510
1	510
1	510
1	510
1	510
1	510
1	510
1	510
1	510
1	510
1	12
1	510
1	510
1	510
1	510
1	510
1	510
1	510
1	510
1	510
1	510
1	510
1	510
1	11
1	510
1	510
1	510
1	510
1	510
1	510
1	510
1	510
1	6
1	510
1	510
1	510
1	510
1	510
1	510
1	7
1	12
1	510
1	510
1	11
1	7
1	15
1	510
1	510
1	510
1	510
1	510
1	510
1	510
1	510
1	510
1	510
1	510
1	510
1	510
1	510
1	3
1	510
1	510
1	16
1	510
1	510
1	510
1	510
1	510
1	510
1	510
1	510
1	6
1	510
1	6
1	510
1	510
1	510
1	510
1	510
1	16
1	510
1	510
1	510
1	15
1	510
1	510
1	510
1	510
1	510
1	510
1	510
1	7
1	10
1	510
1	10
1	510
1	510
1	510
1	510
1	510
1	510
1	510
1	510
1	510
1	510
1	510
1	510
1	510
1	510
1	510
1	510
1	510
1	12
1	510
1	510
1	3
1	510
1	510
1	510
1	510
1	4
1	510
1	510
1	510
1	510
1	12
1	510
1	510
1	510
1	510
1	510
1	510
1	14
1	6
1	510
1	510
1	510
1	510
1	510
1	510
1	510
1	510
1	510
1	510
1	510
1	7
1	11
1	6
1	510
1	510
1	510
1	4
1	510
1	510
1	510
1	510
1	510
1	510
1	510
1	7
1	510
1	15
1	4
1	510
1	510
1	510
1	510
1	510
1	510
1	510
1	6
1	510
1	5
1	510
1	510
1	510
1	510
1	510
1	510
1	510
1	510
1	15
1	510
1	14
1	7
1	510
1	5
1	510
1	510
1	6
1	510
1	510
1	510
1	510
1	510
1	510
1	510
1	510
1	510
1	510
1	510
1	12
1	7
1	4
1	510
1	510
1	510
1	510
1	510
1	510
1	510
1	510
1	14
1	510
1	510
1	510
1	510
1	4
1	4
1	10
1	510
1	510
1	5
1	510
1	510
1	510
1	510
1	510
1	6
1	510
1	510
1	510
1	510
1	510
1	510
1	510
1	5
1	510
1	510
1	3
1	510
1	510
1	11
1	510
1	510
1	510
1	4
1	510
1	510
1	15
1	510
1	510
1	510
1	9
1	510
1	510
1	510
1	510
1	510
1	10
1	16
1	510
1	510
1	4
1	510
1	510
1	510
1	510
1	510
1	12
1	510
1	6
1	510
1	510
1	510
1	510
1	6
1	510
1	16
1	9
1	6
1	3
1	510
1	15
1	510
1	510
1	7
1	510
1	10
1	510
1	510
1	510
1	510
1	4
1	510
1	510
1	510
1	6
1	510
1	510
1	510
1	9
1	510
1	510
1	510
1	510
1	510
1	510
1	10
1	5
1	12
1	510
1	510
1	510
1	12
1	510
1	4
1	510
1	510
1	6
1	510
1	510
1	5
1	510
1	510
1	510
1	510
1	510
1	14
1	510
1	510
1	510
1	14
1	510
1	510
1	510
1	510
1	11
1	510
1	510
1	3
1	5
1	510
1	510
1	510
1	510
1	510
1	510
1	510
1	4
1	510
1	510
1	14
1	510
1	510
1	510
1	510
1	510
1	6
1	8
1	510
1	510
1	510
1	5
1	510
1	510
1	510
1	12
1	8
1	10
1	510
1	510
1	510
1	510
1	14
1	7
1	510
1	510
1	510
1	3
1	15
1	510
1	510
1	11
1	510
1	6
1	510
1	510
1	510
1	510
1	4
1	3
1	510
1	510
1	510
1	510
1	510
1	510
1	510
1	510
1	6124
1	510
1	510
1	16
1	510
1	510
1	510
1	510
1	510
1	510
1	5
1	6
1	510
1	510
1	7
1	510
1	510
1	510
1	510
1	9
1	7
1	7
1	510
1	510
1	5
1	510
1	510
1	510
1	510
1	4
1	510
1	510
1	510
1	510
1	510
1	16
1	15
1	510
1	5
1	510
1	510
1	510
1	16
1	510
1	510
1	510
1	510
1	510
1	510
1	510
1	510
1	6
1	510
1	7
1	510
1	16
1	510
1	510
1	510
1	510
1	510
1	510
1	510
1	6
1	510
1	510
1	510
1	9
1	510
1	510
1	510
1	510
1	510
1	510
1	510
1	4
1	510
1	510
1	510
1	510
1	510
1	510
1	510
1	14
1	6
1	3
1	8
1	510
1	510
1	510
1	14
1	510
1	510
1	7
1	510
1	510
1	8
1	6
1	6
1	510
1	510
1	16
1	14
1	510
1	510
1	510
1	4
1	6
1	510
1	5
1	510
1	15
1	16
1	6
1	510
1	510
1	6
1	4
1	510
1	510
1	510
1	510
1	510
1	510
1	510
1	510
1	510
1	510
1	510
1	510
1	510
1	6
1	510
1	4
1	7
1	510
1	4
1	510
1	510
1	510
1	510
1	510
1	510
1	7
1	10
1	510
1	510
1	8
1	510
1	510
1	510
1	510
1	510
1	510
1	4
1	5
1	510
1	510
1	5
1	4
1	510
1	510
1	510
1	510
1	510
1	6
1	510
1	16
1	5
1	510
1	3
1	7
1	510
1	510
1	510
1	510
1	16
1	7
1	5
1	14
1	510
1	510
1	510
1	510
1	510
1	4
1	510
1	510
1	510
1	510
1	510
1	15
1	16
1	510
1	510
1	510
1	4
1	510
1	4
1	510
1	510
1	510
1	7
1	4
1	3
1	510
2	9
2	510
2	7
2	9
2	4
2	5
2	510
2	15
2	8
2	9
2	3
2	4
2	5
2	5
2	3
2	12
2	3
2	3
2	510
2	4
2	4
2	4
2	3
2	7
2	3
2	6
2	16
2	3
2	9
2	7
2	5
2	5
2	3
2	5
2	15
2	9
2	4
2	3
2	5
2	14
2	6
2	3
2	7
3	4
3	6
3	4
3	5
