1	6124
1	265
1	265
1	265
1	265
1	43
1	265
1	265
1	265
1	5
1	265
1	5
1	8
1	265
1	265
1	8
1	22
1	265
1	265
1	265
1	265
1	265
1	265
1	265
1	8
1	49
1	265
1	10
1	265
1	265
1	265
1	49
1	265
1	265
1	265
1	6
1	4
1	265
1	265
1	265
1	265
1	265
1	8
1	265
1	43
1	8
1	43
1	265
1	43
1	14
1	8
1	265
1	6
1	265
1	265
1	49
1	19
1	265
1	265
1	265
1	265
1	265
1	6
1	265
1	265
1	10
1	7
1	265
1	25
1	265
1	4
1	265
1	265
1	265
1	43
1	265
1	265
1	265
1	43
1	265
1	265
1	265
1	43
1	265
1	265
1	265
1	265
1	3
1	265
1	6
1	265
1	265
1	14
1	265
1	265
1	265
1	43
1	8
1	265
1	265
1	6
1	6
1	13
1	14
1	6
1	265
1	265
1	22
1	265
1	265
1	265
1	265
1	43
1	49
1	265
1	43
1	22
1	265
1	265
1	10
1	265
1	5
1	25
1	4
1	6
1	265
1	265
1	265
1	265
1	49
1	265
1	10
1	22
1	4
1	265
1	265
1	265
1	10
1	265
1	7
1	14
1	4
1	4
1	265
1	19
1	5
1	8
1	43
1	49
1	43
1	265
1	7
1	265
1	265
1	14
1	8
1	49
1	265
1	265
1	25
1	265
1	265
1	49
1	265
1	10
1	265
1	19
1	265
1	265
1	8
1	14
1	265
1	8
1	265
1	43
1	265
1	265
1	265
1	265
1	4
1	265
1	265
1	265
1	19
1	265
1	265
1	6
1	43
1	265
1	265
1	265
1	265
1	14
1	265
1	4
1	265
1	265
1	265
1	265
1	265
1	6
1	10
1	265
1	43
1	5
1	265
1	6
1	43
1	265
1	10
1	5
1	265
1	6124
1	265
1	265
1	265
1	5
1	43
1	5
1	265
1	265
1	25
1	10
1	265
1	265
1	4
1	8
1	43
1	265
1	265
1	265
1	265
1	265
1	265
1	25
1	265
1	43
1	265
1	22
1	265
1	43
1	19
1	10
1	265
1	265
1	265
1	265
1	265
1	265
1	265
1	25
1	265
1	265
1	265
1	4
1	10
1	6
1	4
1	3
1	265
1	265
1	265
1	43
1	25
1	265
1	49
1	265
1	22
1	265
1	265
1	265
1	49
1	265
1	43
1	265
1	43
1	3
1	6
1	265
1	5
1	5
1	8
1	265
1	265
1	265
1	265
1	6
1	7
1	265
1	265
1	265
1	49
1	265
1	265
1	49
1	265
1	265
1	265
1	265
1	265
1	43
1	43
1	8
1	22
1	4
1	265
1	43
1	265
1	22
1	265
1	265
1	265
1	6
1	265
1	265
1	265
1	265
1	265
1	265
1	8
1	5
1	7
1	10
1	7
1	265
1	265
1	265
1	10
1	265
1	265
1	7
1	43
1	265
1	265
1	8
1	19
1	6
1	43
1	49
1	5
1	25
1	4
1	6
1	5
1	43
1	4
1	5
1	265
1	265
1	265
1	265
1	6
1	3
1	265
1	19
1	265
1	265
1	265
2	5
2	4
2	6
2	3
2	7
2	5
2	3
2	6
2	6
2	25
2	10
2	5
2	5
2	10
2	5
2	4
2	6
2	6
2	6
2	4
2	5
2	5
2	7
2	4
2	6
2	5
2	19
2	4
2	6
2	8
2	265
2	6
2	3
2	3
2	10
2	6
2	4
2	7
2	49
2	22
2	8
2	3
2	3
2	5
2	4
2	3
2	14
2	8
2	5
2	25
2	4
2	5
2	5
2	3
2	3
2	5
2	6
2	3
2	5
2	3
2	4
2	4
2	4
2	49
2	8
2	8
3	4
3	5
3	7
3	5
3	5
3	10
4	7
4	6
