1	6124
1	794
1	794
1	794
1	794
1	794
1	794
1	794
1	14
1	794
1	794
1	7
1	794
1	10
1	794
1	794
1	794
1	794
1	794
1	794
1	6124
1	8
1	9
1	794
1	794
1	794
1	15
1	794
1	794
1	794
1	794
1	794
1	794
1	794
1	794
1	794
1	794
1	794
1	794
1	794
1	794
1	794
1	794
1	794
1	794
1	794
1	14
1	15
1	794
1	14
1	794
1	794
1	9
1	794
1	14
1	794
1	794
1	794
1	794
1	794
1	794
1	794
1	794
1	794
1	5
1	794
1	8
1	794
1	794
1	794
1	794
1	14
1	794
1	794
1	794
1	6
1	794
1	794
1	794
1	14
1	794
1	794
1	794
1	794
1	794
1	794
1	794
1	794
1	794
1	794
1	14
1	794
1	794
1	5
1	794
1	794
1	794
1	14
1	794
1	14
1	794
1	794
1	794
1	794
1	794
1	794
1	794
1	4
1	794
1	794
1	794
1	794
1	794
1	6
1	794
1	794
1	9
1	794
1	794
1	6
1	794
1	794
1	794
1	794
1	6
1	9
1	10
1	794
1	794
1	794
1	794
1	794
1	794
1	6
1	794
1	794
1	794
1	11
1	6
1	794
1	794
1	9
1	4
1	794
1	794
1	9
1	794
1	794
1	794
1	794
1	11
1	794
1	794
1	6
1	794
1	14
1	794
1	11
1	794
1	8
1	794
1	794
1	794
1	5
1	794
1	794
1	794
1	794
1	9
1	794
1	6
1	794
1	794
1	5
1	794
1	794
1	794
1	794
1	8
1	794
1	794
1	794
1	794
1	794
1	794
1	794
1	794
1	794
1	794
1	5
1	794
1	14
1	794
1	794
1	794
1	794
1	794
1	794
1	794
1	11
1	15
1	794
1	794
1	794
1	794
1	794
1	9
1	794
1	6
1	794
1	794
1	9
1	6
1	794
1	794
1	794
1	794
1	794
1	794
1	794
1	794
1	794
1	794
1	794
1	794
1	794
1	794
1	794
1	794
1	794
1	6
1	794
1	14
1	14
1	794
1	794
1	794
1	4
1	794
1	794
1	794
1	794
1	5
1	794
1	794
1	15
1	794
1	6124
1	794
1	794
1	9
1	794
1	794
1	794
1	6
1	794
1	794
1	794
1	15
1	794
1	794
1	794
1	794
1	794
1	10
1	8
1	794
1	794
1	794
1	794
1	794
1	794
1	794
1	794
1	794
1	794
1	794
1	4
1	794
1	794
1	794
1	11
1	6
1	794
1	794
1	794
1	6
1	794
1	794
1	794
1	794
1	794
1	794
1	794
1	794
1	794
1	794
1	794
1	8
1	5
1	794
1	794
1	794
1	794
1	794
1	794
1	10
1	794
1	14
1	794
1	15
1	794
1	794
1	794
1	794
1	794
1	794
1	794
1	794
1	794
1	6
1	14
1	794
1	794
1	794
1	794
1	6
1	794
1	794
1	6
1	794
1	14
1	794
1	794
1	794
1	794
1	14
1	794
1	794
1	794
1	794
1	794
1	794
1	794
1	794
1	794
1	794
1	794
1	794
1	794
1	794
1	794
1	794
1	794
1	794
1	794
1	794
1	794
1	794
1	794
1	14
1	6
1	794
1	794
1	9
1	794
1	11
1	794
1	6
1	794
1	794
1	5
1	794
1	794
1	794
1	794
1	794
1	794
1	794
1	794
1	794
1	794
1	794
1	794
1	5
1	3
1	794
1	794
1	794
1	794
1	794
1	794
1	794
1	794
1	794
1	10
1	794
1	794
1	794
1	794
1	794
1	6
1	794
1	794
1	794
1	794
1	794
1	794
1	794
1	6
1	4
1	794
1	794
1	794
1	794
1	794
1	794
1	794
1	794
1	794
1	794
1	794
1	794
1	794
1	794
1	794
1	794
1	794
1	794
1	794
1	3
1	6
1	794
1	4
1	5
1	794
1	794
1	794
1	5
1	11
1	794
1	14
1	794
1	794
1	794
1	14
1	15
1	794
1	5
1	794
1	794
1	794
1	14
1	794
1	794
1	794
1	794
1	794
1	794
1	6
1	794
1	4
1	6
1	794
1	8
1	794
1	794
1	794
1	794
1	794
1	8
1	794
1	794
1	4
1	794
1	794
1	794
1	794
1	794
1	794
1	794
1	794
1	5
1	5
1	3
1	9
1	11
1	794
1	794
1	794
1	8
1	6
1	794
1	794
1	794
1	794
1	794
1	794
1	5
1	5
1	794
1	794
1	5
1	794
1	794
1	794
1	4
1	794
1	794
1	794
1	794
1	794
1	794
1	794
1	794
1	794
1	794
1	794
1	794
1	5
1	794
1	794
1	794
1	794
1	794
1	794
1	794
1	5
1	794
1	5
1	794
1	794
1	10
1	794
1	794
1	4
1	4
1	794
1	794
1	6124
1	794
1	794
1	6
1	794
1	794
1	794
1	794
1	794
1	794
1	794
1	794
1	794
1	5
1	794
1	794
1	794
1	5
1	794
1	5
1	3
1	794
1	9
1	4
1	794
1	794
1	794
1	794
1	794
1	794
1	794
1	5
1	794
1	5
1	794
1	14
1	3
1	794
1	794
1	794
1	794
1	7
1	794
1	794
1	794
1	794
1	794
1	794
1	794
1	794
1	5
1	794
1	794
1	794
1	3
1	794
1	794
1	4
1	14
1	794
1	794
1	10
1	794
1	794
1	5
1	794
1	794
1	794
1	3
1	794
1	794
1	794
1	794
1	794
1	794
1	15
1	794
1	794
1	4
1	10
1	3
1	794
1	794
1	794
1	794
1	794
1	794
1	794
1	9
1	794
1	794
1	794
1	9
1	5
1	5
1	794
1	794
1	794
1	794
1	9
1	794
1	794
1	794
1	794
1	794
1	794
1	794
1	14
1	794
1	794
1	794
1	4
1	9
1	794
1	794
1	794
1	794
1	3
1	794
1	794
1	5
1	794
1	5
1	794
1	794
1	794
1	14
1	794
1	794
1	8
1	794
1	794
1	3
1	794
1	794
1	4
1	794
1	794
1	4
1	794
1	14
1	794
1	794
1	3
1	794
1	8
1	10
1	794
1	794
1	794
1	8
1	794
1	794
1	794
1	794
1	794
1	794
1	794
1	794
1	794
1	794
1	794
1	794
1	794
1	794
1	794
1	794
1	3
1	5
1	14
1	4
1	9
1	794
1	794
1	794
1	794
1	794
1	794
1	4
1	794
1	4
1	794
1	794
1	5
1	794
1	794
1	5
1	8
1	794
1	794
1	794
1	4
1	10
1	794
1	794
1	794
1	794
1	794
1	5
1	794
1	794
1	6
1	794
1	794
1	794
1	794
1	794
1	794
1	794
1	8
1	794
1	794
1	6
1	794
1	794
1	4
1	794
1	794
1	794
1	794
1	9
1	794
1	794
1	794
1	3
1	794
1	10
1	794
1	794
1	794
1	794
1	3
1	794
1	5
1	794
1	14
1	794
1	7
1	794
1	794
1	794
1	5
1	794
1	794
1	794
1	794
1	4
1	794
1	794
1	794
1	794
1	4
1	4
1	5
1	794
1	794
1	794
1	794
1	794
1	794
1	794
1	794
1	5
1	794
1	794
1	6
1	5
1	4
1	14
1	794
1	794
1	794
1	794
1	794
1	794
1	9
1	794
1	794
1	794
1	794
1	794
1	794
1	4
1	794
1	10
1	794
1	794
1	6
1	794
1	794
1	794
1	794
1	794
1	794
1	10
1	794
1	794
1	794
1	794
1	794
1	794
1	794
1	794
1	794
1	794
1	5
1	6
1	794
1	794
1	794
1	794
1	794
1	794
1	794
1	794
1	794
1	794
1	10
1	794
1	794
1	794
1	794
1	5
1	794
1	794
1	794
1	794
1	794
1	794
1	794
1	794
1	794
1	794
1	794
1	794
1	794
1	794
1	794
1	794
1	794
1	794
1	6
1	794
1	794
1	794
1	14
1	3
1	794
1	794
1	5
1	15
1	794
1	794
1	794
1	794
1	794
1	794
1	794
1	15
1	3
1	794
1	794
1	14
1	5
1	794
1	794
1	9
1	3
1	4
1	794
1	794
1	794
1	9
1	794
1	5
1	794
1	794
1	9
1	794
1	794
1	794
1	4
1	794
1	794
1	794
1	794
1	794
1	794
1	794
1	794
1	794
1	794
1	794
1	3
1	794
1	7
1	3
1	794
1	4
1	794
1	794
1	794
1	794
1	794
1	794
1	794
1	794
1	794
1	794
1	794
1	794
2	5
2	794
2	3
2	6
2	8
2	6
2	4
2	4
2	6
2	9
2	6
2	3
2	5
2	8
2	9
2	5
2	5
2	3
2	4
2	5
2	5
2	5
2	3
2	3
2	5
2	5
2	4
2	794
2	8
2	3
2	3
2	3
2	9
2	14
2	5
2	3
2	3
2	3
2	4
2	6
2	3
2	4
2	794
2	4
2	4
2	5
2	5
2	3
2	5
2	5
3	5
3	6
3	5
3	5
