1	6124
1	362
1	362
1	362
1	11
1	362
1	362
1	362
1	362
1	362
1	362
1	11
1	362
1	362
1	362
1	9
1	362
1	362
1	362
1	362
1	10
1	362
1	362
1	362
1	11
1	10
1	18
1	362
1	362
1	362
1	362
1	10
1	10
1	362
1	10
1	362
1	362
1	362
1	362
1	362
1	362
1	362
1	362
1	11
1	12
1	362
1	362
1	5
1	362
1	362
1	362
1	362
1	362
1	362
1	4
1	362
1	362
1	9
1	362
1	362
1	7
1	6
1	11
1	362
1	362
1	362
1	362
1	362
1	362
1	362
1	362
1	362
1	362
1	5
1	362
1	362
1	362
1	362
1	362
1	10
1	7
1	362
1	362
1	10
1	362
1	362
1	362
1	362
1	362
1	13
1	8
1	5
1	362
1	5
1	12
1	362
1	362
1	362
1	362
1	362
1	362
1	362
1	362
1	362
1	362
1	6
1	362
1	10
1	362
1	6
1	362
1	362
1	362
1	362
1	362
1	18
1	3
1	362
1	362
1	362
1	8
1	362
1	10
1	362
1	362
1	3
1	362
1	362
1	3
1	362
1	10
1	6
1	6
1	362
1	362
1	362
1	10
1	362
1	10
1	362
1	362
1	362
1	362
1	8
1	362
1	10
1	18
1	362
1	362
1	362
1	362
1	362
1	362
1	18
1	9
1	362
1	362
1	7
1	362
1	362
1	362
1	9
1	362
1	362
1	7
1	362
1	3
1	5
1	362
1	8
1	11
1	362
1	362
1	8
1	362
1	362
1	362
1	4
1	362
1	6
1	362
1	5
1	362
1	362
1	5
1	362
1	362
1	362
1	362
1	362
1	10
1	362
1	362
1	362
1	11
1	362
1	362
1	362
1	362
1	362
1	362
1	362
1	362
1	11
1	362
1	362
1	4
1	7
1	362
1	362
1	362
1	362
1	4
1	362
1	362
1	362
1	362
1	18
1	13
1	362
1	362
1	362
1	362
1	7
1	18
1	362
1	362
1	11
1	362
1	362
1	13
1	362
1	362
1	362
1	362
1	362
1	7
1	362
1	362
1	362
1	362
1	5
1	9
1	362
1	362
1	13
1	6
1	362
1	18
1	10
1	362
1	8
1	362
1	362
1	362
1	362
1	362
1	362
1	5
1	10
1	362
1	6124
1	362
1	362
1	362
1	362
1	362
1	11
1	7
1	362
1	362
1	362
1	362
1	3
1	362
1	362
1	362
1	362
1	362
1	362
1	362
1	362
1	362
1	362
1	362
1	362
1	10
1	11
1	362
1	362
1	5
1	362
1	362
1	362
1	362
1	3
1	362
1	10
1	362
1	362
1	4
1	362
1	362
1	362
1	10
1	362
1	362
1	362
1	362
1	362
1	362
1	362
1	362
1	362
1	362
1	362
1	362
1	362
1	362
1	362
1	362
1	362
1	362
1	18
1	362
1	362
1	13
1	362
1	362
1	362
1	362
1	362
1	362
1	362
1	362
1	362
1	362
1	362
1	362
1	362
1	362
1	362
1	362
1	362
1	362
1	362
1	9
1	9
1	11
1	362
1	362
1	362
1	11
1	11
1	362
1	362
1	362
1	362
1	11
1	362
1	362
1	362
1	362
1	9
1	362
1	362
1	362
1	362
1	18
1	362
1	362
1	362
1	362
1	362
1	362
1	4
1	5
1	10
1	362
1	362
1	362
1	362
1	362
1	362
1	6
1	10
1	9
1	362
1	362
1	362
1	362
1	362
1	7
1	362
1	5
1	5
1	362
1	362
1	362
1	10
1	362
1	10
1	362
1	362
1	362
1	362
1	362
1	4
1	362
1	6
1	362
1	5
1	362
1	362
1	3
1	362
1	362
1	5
1	362
1	362
1	362
1	362
1	5
1	5
1	362
1	6
1	362
1	362
1	9
1	362
1	362
1	362
1	362
1	362
1	5
1	18
1	362
1	362
1	362
2	8
2	4
2	9
2	7
2	3
2	4
2	5
2	3
2	3
2	4
2	18
2	362
2	5
2	362
2	8
2	8
2	5
2	3
2	5
2	4
2	362
2	4
2	7
2	5
2	3
2	5
2	10
2	12
2	7
3	4
3	5
3	5
3	4
