1	6124
1	113
1	16
1	6
1	113
1	10
1	6
1	16
1	113
1	10
1	8
1	113
1	4
1	8
1	16
1	113
1	113
1	113
1	10
1	10
1	6
1	15
1	113
1	113
1	8
1	3
1	113
1	5
1	16
1	113
1	4
1	16
1	113
1	8
1	8
1	5
1	18
1	9
1	16
1	113
1	15
1	113
1	16
1	18
1	113
1	8
1	18
1	8
1	16
1	113
1	113
1	9
1	17
1	6
1	113
1	113
1	17
1	113
1	113
1	113
1	18
1	8
1	6
1	113
1	113
1	5
1	113
1	113
1	113
1	16
1	5
1	8
1	113
1	15
1	18
1	113
1	8
1	4
1	113
1	113
1	15
1	113
1	6
1	113
1	113
1	4
1	16
1	8
1	16
1	7
1	113
1	5
1	4
1	113
1	4
1	4
1	113
1	113
1	18
1	17
1	4
1	10
1	113
1	6
1	7
1	6124
1	16
1	113
1	113
1	3
1	3
1	113
1	8
1	8
1	113
1	18
1	4
1	17
1	10
1	5
1	5
1	15
1	113
1	113
1	113
1	3
1	113
1	16
1	8
1	5
1	4
1	10
1	5
1	9
1	18
1	6
1	7
1	113
1	113
1	8
1	5
1	10
1	113
1	16
1	3
1	6
1	113
1	8
1	3
1	17
1	113
1	18
1	113
1	16
1	113
1	17
1	17
1	15
1	113
1	113
1	4
1	6
1	3
1	3
1	3
1	113
1	18
1	4
1	16
1	9
1	4
1	4
1	17
1	8
1	4
1	3
1	8
1	113
1	113
1	8
1	18
1	3
1	3
1	16
1	5
1	3
1	10
1	113
1	6
1	8
1	113
1	16
1	15
1	4
1	5
1	16
1	17
1	10
1	113
1	113
1	113
1	17
1	113
1	113
1	4
1	5
1	113
1	5
1	113
1	113
1	8
1	113
1	6
1	10
1	8
1	16
1	4
1	5
1	113
1	16
1	4
1	16
1	5
1	113
1	113
1	113
1	113
1	113
1	113
1	3
1	17
1	6
1	4
1	3
1	113
1	4
1	6
1	113
1	113
1	113
1	8
1	113
1	3
1	5
1	113
1	113
1	113
1	113
1	113
1	113
1	4
1	7
1	3
1	4
1	6
1	113
1	113
1	113
1	18
1	113
1	4
1	16
1	5
1	5
1	113
1	113
1	9
1	113
1	4
1	18
1	16
1	4
1	17
1	5
1	6
1	3
1	15
1	3
2	10
2	3
2	5
2	3
2	3
2	5
2	4
2	8
2	8
2	4
2	3
2	3
2	4
2	113
2	113
2	7
2	4
2	4
2	4
2	3
2	3
2	3
2	3
2	3
2	4
2	9
2	3
2	3
2	3
2	4
