1	6124
1	1653
1	1653
1	1653
1	1653
1	1653
1	1653
1	1653
1	1653
1	24
1	17
1	11
1	11
1	11
1	1653
1	1653
1	1653
1	1653
1	1653
1	1653
1	14
1	1653
1	35
1	1653
1	18
1	1653
1	6124
1	1653
1	1653
1	5
1	1653
1	1653
1	1653
1	1653
1	1653
1	1653
1	1653
1	1653
1	1653
1	1653
1	6124
1	1653
1	1653
1	1653
1	1653
1	1653
1	1653
1	1653
1	1653
1	1653
1	1653
1	5
1	1653
1	1653
1	17
1	1653
1	1653
1	11
1	1653
1	1653
1	1653
1	1653
1	1653
1	1653
1	10
1	1653
1	1653
1	7
1	1653
1	1653
1	1653
1	1653
1	6124
1	14
1	1653
1	1653
1	1653
1	1653
1	1653
1	1653
1	1653
1	8
1	1653
1	1653
1	1653
1	1653
1	1653
1	1653
1	1653
1	10
1	1653
1	1653
1	1653
1	1653
1	1653
1	1653
1	1653
1	5
1	1653
1	1653
1	1653
1	1653
1	1653
1	1653
1	9
1	1653
1	1653
1	12
1	1653
1	1653
1	1653
1	1653
1	17
1	1653
1	1653
1	1653
1	35
1	1653
1	1653
1	1653
1	1653
1	1653
1	1653
1	1653
1	1653
1	1653
1	1653
1	1653
1	1653
1	12
1	1653
1	1653
1	1653
1	5
1	1653
1	1653
1	14
1	18
1	1653
1	1653
1	1653
1	13
1	1653
1	14
1	7
1	12
1	1653
1	1653
1	8
1	1653
1	1653
1	1653
1	1653
1	1653
1	1653
1	1653
1	8
1	1653
1	11
1	1653
1	7
1	8
1	1653
1	1653
1	1653
1	14
1	12
1	1653
1	1653
1	1653
1	1653
1	1653
1	1653
1	6
1	1653
1	1653
1	1653
1	1653
1	1653
1	11
1	14
1	1653
1	1653
1	12
1	1653
1	11
1	13
1	1653
1	1653
1	1653
1	1653
1	1653
1	1653
1	1653
1	11
1	1653
1	13
1	1653
1	1653
1	1653
1	1653
1	1653
1	1653
1	1653
1	1653
1	1653
1	14
1	1653
1	1653
1	1653
1	1653
1	1653
1	32
1	14
1	6
1	1653
1	1653
1	14
1	1653
1	1653
1	1653
1	9
1	1653
1	1653
1	1653
1	1653
1	1653
1	1653
1	1653
1	1653
1	1653
1	10
1	1653
1	7
1	1653
1	1653
1	35
1	6
1	14
1	1653
1	1653
1	14
1	13
1	1653
1	1653
1	6
1	1653
1	1653
1	1653
1	28
1	1653
1	14
1	1653
1	1653
1	1653
1	1653
1	1653
1	1653
1	10
1	1653
1	1653
1	1653
1	1653
1	1653
1	7
1	15
1	1653
1	1653
1	14
1	1653
1	10
1	1653
1	1653
1	8
1	1653
1	1653
1	1653
1	1653
1	1653
1	1653
1	1653
1	1653
1	1653
1	1653
1	1653
1	14
1	1653
1	1653
1	12
1	1653
1	1653
1	1653
1	1653
1	11
1	1653
1	1653
1	1653
1	6
1	1653
1	1653
1	1653
1	1653
1	1653
1	12
1	1653
1	1653
1	1653
1	1653
1	13
1	1653
1	1653
1	14
1	1653
1	1653
1	9
1	6
1	1653
1	1653
1	1653
1	1653
1	1653
1	1653
1	1653
1	1653
1	1653
1	32
1	1653
1	1653
1	1653
1	1653
1	1653
1	1653
1	8
1	9
1	7
1	1653
1	14
1	1653
1	1653
1	1653
1	1653
1	1653
1	1653
1	1653
1	1653
1	13
1	5
1	1653
1	1653
1	1653
1	1653
1	1653
1	1653
1	1653
1	1653
1	1653
1	1653
1	1653
1	10
1	14
1	1653
1	1653
1	1653
1	1653
1	11
1	1653
1	1653
1	6
1	35
1	1653
1	6
1	10
1	28
1	1653
1	1653
1	1653
1	1653
1	10
1	1653
1	1653
1	1653
1	14
1	1653
1	32
1	10
1	13
1	14
1	1653
1	8
1	1653
1	1653
1	1653
1	18
1	1653
1	1653
1	6
1	1653
1	6124
1	11
1	1653
1	1653
1	1653
1	18
1	1653
1	1653
1	1653
1	1653
1	1653
1	1653
1	35
1	1653
1	1653
1	1653
1	1653
1	1653
1	13
1	1653
1	8
1	13
1	1653
1	1653
1	1653
1	1653
1	32
1	1653
1	1653
1	1653
1	1653
1	1653
1	1653
1	1653
1	5
1	1653
1	1653
1	9
1	1653
1	1653
1	1653
1	1653
1	1653
1	1653
1	1653
1	1653
1	1653
1	1653
1	35
1	1653
1	1653
1	1653
1	14
1	1653
1	7
1	1653
1	1653
1	1653
1	1653
1	1653
1	1653
1	15
1	1653
1	1653
1	1653
1	1653
1	8
1	6
1	1653
1	1653
1	17
1	1653
1	1653
1	1653
1	1653
1	1653
1	1653
1	1653
1	1653
1	1653
1	1653
1	1653
1	1653
1	1653
1	1653
1	1653
1	1653
1	4
1	1653
1	14
1	1653
1	1653
1	1653
1	8
1	1653
1	1653
1	13
1	1653
1	1653
1	1653
1	1653
1	1653
1	13
1	1653
1	5
1	1653
1	1653
1	1653
1	1653
1	1653
1	1653
1	1653
1	1653
1	8
1	1653
1	1653
1	1653
1	1653
1	1653
1	3
1	1653
1	1653
1	1653
1	13
1	1653
1	1653
1	17
1	1653
1	1653
1	1653
1	1653
1	1653
1	17
1	1653
1	13
1	1653
1	1653
1	1653
1	6
1	1653
1	11
1	1653
1	1653
1	1653
1	1653
1	1653
1	14
1	14
1	1653
1	1653
1	1653
1	1653
1	1653
1	6
1	1653
1	1653
1	1653
1	1653
1	1653
1	1653
1	1653
1	1653
1	1653
1	17
1	1653
1	1653
1	1653
1	14
1	1653
1	1653
1	1653
1	28
1	8
1	14
1	1653
1	1653
1	3
1	1653
1	1653
1	1653
1	1653
1	1653
1	1653
1	1653
1	8
1	17
1	1653
1	13
1	1653
1	1653
1	7
1	1653
1	17
1	14
1	1653
1	1653
1	1653
1	1653
1	1653
1	1653
1	1653
1	14
1	1653
1	1653
1	13
1	1653
1	1653
1	1653
1	1653
1	1653
1	1653
1	1653
1	1653
1	1653
1	8
1	10
1	1653
1	1653
1	1653
1	1653
1	1653
1	7
1	10
1	1653
1	10
1	1653
1	1653
1	1653
1	5
1	1653
1	1653
1	1653
1	5
1	10
1	1653
1	8
1	1653
1	1653
1	1653
1	1653
1	8
1	1653
1	1653
1	1653
1	1653
1	1653
1	1653
1	1653
1	1653
1	1653
1	1653
1	1653
1	1653
1	14
1	1653
1	1653
1	1653
1	1653
1	1653
1	1653
1	8
1	1653
1	1653
1	1653
1	1653
1	1653
1	7
1	1653
1	1653
1	1653
1	1653
1	5
1	32
1	1653
1	1653
1	1653
1	32
1	1653
1	1653
1	1653
1	1653
1	11
1	1653
1	1653
1	1653
1	1653
1	1653
1	1653
1	1653
1	1653
1	1653
1	28
1	15
1	13
1	7
1	1653
1	1653
1	1653
1	1653
1	32
1	1653
1	1653
1	1653
1	7
1	1653
1	1653
1	1653
1	6
1	7
1	10
1	1653
1	6
1	1653
1	1653
1	5
1	1653
1	1653
1	1653
1	1653
1	35
1	1653
1	3
1	1653
1	14
1	1653
1	1653
1	1653
1	1653
1	1653
1	4
1	1653
1	1653
1	1653
1	7
1	1653
1	11
1	1653
1	1653
1	1653
1	11
1	1653
1	1653
1	1653
1	1653
1	1653
1	1653
1	1653
1	6
1	35
1	1653
1	1653
1	1653
1	1653
1	3
1	11
1	8
1	1653
1	1653
1	1653
1	1653
1	11
1	1653
1	1653
1	1653
1	1653
1	32
1	1653
1	8
1	1653
1	1653
1	1653
1	1653
1	28
1	28
1	5
1	1653
1	1653
1	1653
1	1653
1	1653
1	1653
1	1653
1	8
1	14
1	1653
1	1653
1	6
1	1653
1	1653
1	1653
1	1653
1	1653
1	1653
1	1653
1	10
1	1653
1	5
1	13
1	8
1	1653
1	1653
1	9
1	1653
1	1653
1	1653
1	1653
1	1653
1	28
1	1653
1	1653
1	11
1	1653
1	28
1	4
1	1653
1	1653
1	1653
1	1653
1	1653
1	1653
1	1653
1	1653
1	1653
1	28
1	1653
1	1653
1	1653
1	1653
1	4
1	1653
1	1653
1	1653
1	1653
1	1653
1	13
1	1653
1	1653
1	1653
1	1653
1	1653
1	1653
1	1653
1	14
1	1653
1	1653
1	10
1	1653
1	1653
1	1653
1	1653
1	1653
1	1653
1	4
1	28
1	35
1	1653
1	1653
1	1653
1	1653
1	1653
1	1653
1	32
1	1653
1	17
1	17
1	5
1	1653
1	1653
1	1653
1	1653
1	1653
1	4
1	1653
1	9
1	12
1	1653
1	1653
1	3
1	1653
1	1653
1	1653
1	1653
1	14
1	1653
1	1653
1	1653
1	1653
1	3
1	10
1	1653
1	1653
1	1653
1	1653
1	1653
1	1653
1	1653
1	12
1	1653
1	28
1	1653
1	1653
1	14
1	1653
1	1653
1	1653
1	5
1	9
1	15
1	1653
1	1653
1	8
1	1653
1	1653
1	1653
1	1653
1	1653
1	17
1	1653
1	1653
1	10
1	8
1	1653
1	1653
1	14
1	32
1	11
1	1653
1	1653
1	1653
1	1653
1	1653
1	1653
1	5
1	1653
1	1653
1	1653
1	5
1	1653
1	1653
1	1653
1	1653
1	14
1	1653
1	1653
1	1653
1	1653
1	1653
1	1653
1	12
1	1653
1	1653
1	13
1	1653
1	1653
1	1653
1	1653
1	1653
1	1653
1	1653
1	1653
1	6
1	1653
1	1653
1	1653
1	1653
1	1653
1	14
1	1653
1	1653
1	18
1	1653
1	7
1	1653
1	10
1	32
1	1653
1	1653
1	8
1	1653
1	1653
1	9
1	1653
1	1653
1	1653
1	1653
1	11
1	1653
1	8
1	18
1	1653
1	1653
1	1653
1	5
1	10
1	1653
1	14
1	1653
1	1653
1	1653
1	1653
1	1653
1	1653
1	1653
1	1653
1	1653
1	1653
1	28
1	8
1	1653
1	1653
1	1653
1	1653
1	5
1	1653
1	1653
1	15
1	1653
1	1653
1	4
1	1653
1	14
1	17
1	1653
1	1653
1	1653
1	7
1	1653
1	17
1	1653
1	1653
1	14
1	1653
1	1653
1	1653
1	1653
1	8
1	1653
1	1653
1	5
1	1653
1	1653
1	1653
1	1653
1	1653
1	1653
1	1653
1	1653
1	14
1	1653
1	1653
1	13
1	18
1	1653
1	4
1	1653
1	1653
1	1653
1	14
1	1653
1	1653
1	1653
1	1653
1	1653
1	1653
1	1653
1	1653
1	1653
1	7
1	14
1	1653
1	1653
1	1653
1	1653
1	1653
1	1653
1	1653
1	1653
1	1653
1	1653
1	1653
1	1653
1	1653
1	1653
1	14
1	1653
1	1653
1	1653
1	6124
1	7
1	1653
1	1653
1	14
1	1653
1	4
1	1653
1	1653
1	6
1	1653
1	1653
1	1653
1	1653
1	1653
1	13
1	1653
1	1653
1	5
1	1653
1	5
1	1653
1	5
1	1653
1	9
1	7
1	1653
1	12
1	1653
1	1653
1	1653
1	1653
1	1653
1	1653
1	1653
1	1653
1	1653
1	2
1	8
1	3
1	1653
1	1653
1	17
1	1653
1	1653
1	1653
1	4
1	10
1	1653
1	18
1	1653
1	1653
1	1653
1	1653
1	35
1	1653
1	14
1	1653
1	32
1	1653
1	1653
1	1653
1	1653
1	1653
1	3
1	32
1	1653
1	1653
1	1653
1	1653
1	1653
1	8
1	7
1	11
1	7
1	1653
1	10
1	1653
1	1653
1	1653
1	1653
1	1653
1	1653
1	7
1	1653
1	1653
1	17
1	1653
1	4
1	1653
1	1653
1	1653
1	1653
1	1653
1	1653
1	1653
1	1653
1	1653
1	1653
1	6
1	1653
1	1653
1	1653
1	10
1	8
1	1653
1	1653
1	1653
1	1653
1	1653
1	1653
1	1653
1	1653
1	6
1	4
1	1653
1	1653
1	1653
1	1653
1	14
1	1653
1	1653
1	1653
1	1653
1	1653
1	1653
1	1653
1	1653
1	10
1	8
1	1653
1	17
1	1653
1	1653
1	14
1	1653
1	1653
1	35
1	1653
1	6
1	1653
1	1653
1	1653
1	1653
1	3
1	1653
1	1653
1	1653
1	1653
1	6124
1	1653
1	1653
1	32
1	1653
1	1653
1	1653
1	1653
1	1653
1	1653
1	7
1	12
1	1653
1	1653
1	7
1	28
1	1653
1	1653
1	1653
1	14
1	1653
1	1653
1	1653
1	1653
1	5
1	1653
1	1653
1	4
1	1653
1	9
1	1653
1	1653
1	1653
1	1653
1	1653
1	1653
1	1653
1	1653
1	1653
1	1653
1	1653
1	1653
1	1653
1	1653
1	17
1	1653
1	1653
1	1653
1	1653
1	1653
1	32
1	1653
1	11
1	1653
1	1653
1	3
1	1653
1	1653
1	1653
1	1653
1	3
1	14
1	5
1	1653
1	1653
1	1653
1	1653
1	1653
1	1653
1	5
1	6
1	1653
1	1653
1	1653
1	1653
1	1653
1	1653
1	1653
1	14
1	13
1	1653
1	1653
1	1653
1	1653
1	5
1	18
1	1653
1	1653
1	35
1	1653
1	1653
1	5
1	1653
1	1653
1	1653
1	1653
1	8
1	1653
1	1653
1	1653
1	1653
1	10
1	1653
1	1653
1	7
1	1653
1	1653
1	1653
1	1653
1	1653
1	1653
1	10
1	1653
1	17
1	1653
1	6
1	1653
1	1653
1	1653
1	1653
1	1653
1	1653
1	1653
1	1653
1	1653
1	1653
1	1653
1	1653
1	1653
1	1653
1	4
1	1653
1	15
1	1653
1	1653
1	1653
1	1653
1	1653
1	1653
1	1653
1	1653
1	1653
1	4
1	1653
1	8
1	1653
1	1653
1	1653
1	28
1	1653
1	1653
1	1653
1	1653
1	10
1	13
1	1653
1	1653
1	1653
1	10
1	1653
1	4
1	1653
1	1653
1	17
1	1653
1	1653
1	1653
1	1653
1	1653
1	1653
1	1653
1	1653
1	8
1	13
1	1653
1	1653
1	1653
1	1653
1	1653
1	1653
1	17
1	1653
1	1653
1	1653
1	1653
1	1653
1	1653
1	1653
1	32
1	1653
1	8
1	1653
1	1653
1	1653
1	1653
1	1653
1	9
1	1653
1	1653
1	1653
1	1653
1	4
1	1653
1	1653
1	1653
1	1653
1	1653
1	1653
1	1653
1	17
1	1653
1	1653
1	7
1	1653
1	1653
1	1653
1	1653
1	1653
1	1653
1	1653
1	8
1	1653
1	1653
1	7
1	1653
1	1653
1	1653
1	1653
1	1653
1	1653
1	11
1	1653
1	1653
1	1653
1	1653
1	1653
1	10
1	1653
1	14
1	1653
1	1653
1	6
1	1653
1	1653
1	1653
1	1653
1	18
1	1653
1	11
1	1653
1	1653
1	1653
1	1653
1	1653
1	11
1	1653
1	1653
1	1653
1	1653
1	1653
1	1653
1	1653
1	1653
1	1653
1	1653
1	1653
1	12
1	1653
1	1653
1	1653
1	11
1	4
1	1653
1	1653
1	9
1	1653
1	1653
1	11
1	1653
1	3
1	1653
1	1653
1	35
1	1653
1	35
1	1653
1	1653
1	1653
1	1653
1	1653
1	1653
1	1653
1	1653
1	1653
1	1653
1	1653
1	13
1	1653
1	6
1	9
1	1653
1	1653
1	1653
1	4
1	1653
1	32
1	1653
1	1653
1	1653
1	1653
1	1653
1	1653
1	13
1	1653
1	1653
1	1653
1	1653
1	1653
1	14
1	1653
1	1653
1	35
1	1653
1	1653
1	7
1	10
1	1653
1	32
1	1653
1	1653
1	35
1	5
1	14
1	1653
1	1653
1	1653
1	1653
1	1653
1	1653
1	1653
1	1653
1	1653
1	1653
1	1653
1	1653
1	1653
1	1653
1	1653
1	1653
1	1653
1	10
1	1653
1	1653
1	1653
1	6
1	1653
1	1653
1	1653
1	6
1	14
1	1653
1	1653
1	28
1	1653
1	1653
1	7
1	1653
1	1653
1	1653
1	28
1	1653
1	1653
1	6
1	1653
1	1653
1	1653
1	35
1	1653
1	1653
1	1653
1	1653
1	1653
1	14
1	1653
1	1653
1	1653
1	1653
1	6
1	1653
1	1653
1	1653
1	1653
1	1653
1	1653
1	8
1	1653
1	17
1	6
1	14
1	1653
1	1653
1	10
1	1653
1	1653
1	1653
1	9
1	1653
1	1653
1	1653
1	1653
1	1653
1	1653
1	10
1	1653
1	14
1	1653
1	1653
1	1653
1	1653
1	1653
1	1653
1	1653
1	1653
1	1653
1	1653
1	1653
1	3
1	6
1	4
1	1653
1	1653
1	1653
1	8
1	4
1	1653
1	6
1	1653
1	1653
1	1653
1	1653
1	1653
1	1653
1	1653
1	1653
1	1653
1	1653
1	5
1	1653
1	5
1	1653
1	1653
1	10
1	1653
1	1653
1	1653
1	11
1	1653
1	1653
1	1653
1	11
1	15
1	1653
1	7
1	9
1	7
1	1653
1	1653
1	1653
1	9
1	1653
1	1653
1	1653
1	1653
1	1653
1	5
1	11
1	1653
1	1653
1	1653
1	1653
1	1653
1	1653
1	1653
1	1653
1	1653
1	17
1	1653
1	1653
1	10
1	1653
1	1653
1	1653
1	1653
1	1653
1	1653
1	1653
1	1653
1	8
1	1653
1	1653
1	1653
1	3
1	28
1	1653
1	6
1	1653
1	12
1	5
1	1653
1	1653
1	1653
1	1653
1	3
1	1653
1	11
1	1653
1	1653
1	1653
1	7
1	12
1	1653
1	1653
1	1653
1	1653
1	6
1	1653
1	1653
1	1653
1	1653
1	14
1	1653
1	28
1	1653
1	1653
1	6
1	1653
1	1653
1	1653
1	1653
1	1653
1	8
1	1653
1	5
1	1653
1	4
1	1653
1	1653
1	1653
1	1653
1	1653
1	1653
1	1653
1	1653
1	1653
1	1653
1	1653
1	8
1	1653
1	1653
1	11
1	1653
1	14
1	1653
1	1653
1	1653
1	14
1	1653
1	1653
1	1653
1	1653
1	1653
1	1653
1	1653
1	1653
1	11
1	15
1	1653
1	18
1	1653
1	1653
1	14
1	7
1	1653
1	1653
1	1653
1	1653
1	14
1	1653
1	5
1	4
1	1653
1	1653
1	1653
1	1653
1	1653
1	1653
1	1653
1	1653
1	1653
1	1653
1	1653
1	1653
1	1653
1	14
1	1653
1	4
1	1653
1	1653
1	1653
1	4
1	6124
1	1653
1	1653
1	1653
1	1653
1	1653
1	1653
1	1653
1	35
1	14
1	1653
1	1653
1	15
1	1653
1	1653
1	28
1	1653
1	6
1	13
1	1653
1	1653
1	1653
1	1653
1	14
1	1653
1	5
1	1653
1	18
1	1653
1	1653
1	14
1	1653
1	14
1	1653
1	1653
1	1653
1	1653
1	12
1	14
1	1653
1	1653
1	35
1	5
1	1653
1	1653
1	1653
1	8
1	35
1	1653
1	1653
1	1653
1	8
1	1653
1	7
1	1653
1	1653
1	10
1	8
1	13
1	10
1	4
1	1653
1	15
1	14
1	13
1	1653
1	12
1	5
1	1653
1	1653
1	1653
1	1653
1	1653
1	1653
1	1653
1	1653
1	3
1	17
1	1653
1	1653
1	1653
1	1653
1	1653
1	1653
1	1653
1	14
1	6
1	1653
1	11
1	1653
1	1653
1	1653
1	1653
1	11
1	1653
1	1653
1	1653
1	6
1	18
1	1653
1	1653
1	1653
1	1653
1	1653
2	4
2	6
2	7
2	7
2	6
2	4
2	6
2	5
2	3
2	7
2	24
2	4
2	6
2	1653
2	4
2	8
2	4
2	4
2	4
2	9
2	6
2	10
2	3
2	14
2	9
2	4
2	14
2	1653
2	4
2	8
2	3
2	6
2	13
2	4
2	28
2	9
2	4
2	6
2	11
2	7
2	9
2	3
2	3
2	3
2	6
2	6
2	4
2	3
2	3
2	3
2	1653
2	13
2	4
2	3
2	3
2	7
2	6
2	7
2	6
2	7
2	3
2	8
2	8
2	1653
2	6
2	11
2	35
2	6
2	1653
2	7
2	6
2	14
2	5
2	5
2	9
2	7
2	10
2	8
2	32
2	17
2	4
2	3
2	1653
2	7
2	5
2	17
2	3
2	11
2	11
2	14
2	12
2	5
2	8
2	1653
2	13
2	7
2	6
2	9
2	10
2	4
2	1653
2	3
2	7
2	5
2	13
2	14
2	4
2	6
2	3
2	8
2	8
2	8
2	3
2	13
2	14
2	6
2	9
2	4
2	5
2	8
2	28
2	17
2	4
2	18
2	11
2	6
2	8
2	8
2	3
2	6
2	8
2	6
2	10
2	6
2	9
2	5
2	4
2	4
2	6
2	10
2	4
2	3
2	10
2	6
2	8
2	4
2	17
2	4
2	3
2	11
2	3
2	8
2	9
2	6
2	4
2	6
2	5
2	14
2	7
2	4
2	32
2	11
2	9
2	7
2	6
2	3
2	13
2	6
2	5
2	17
2	4
2	5
3	7
3	7
3	4
3	5
3	7
3	6
3	6
3	10
3	8
3	5
3	11
3	13
3	5
3	6
3	10
3	6
3	7
3	5
3	6
4	5
