1	6124
1	132
1	132
1	132
1	82
1	132
1	132
1	132
1	132
1	132
1	132
1	82
1	82
1	132
1	4
1	4
1	132
1	132
1	82
1	7
1	6
1	132
1	5
1	132
1	82
1	82
1	5
1	132
1	132
1	4
1	132
1	132
1	132
1	7
1	132
1	82
1	132
1	5
1	6
1	5
1	132
1	3
1	132
1	132
1	4
1	6
1	3
1	132
1	5
1	82
1	5
1	132
1	132
1	5
1	6
1	4
1	10
1	4
1	132
1	5
1	132
1	132
1	132
1	82
1	132
1	132
1	82
1	4
1	132
1	4
1	4
1	7
1	6124
1	132
1	5
1	4
1	5
1	82
1	4
1	132
1	3
1	7
1	132
1	4
1	82
1	132
1	132
1	4
1	3
1	4
1	82
1	6
1	6124
1	4
1	3
1	82
1	3
1	5
1	4
1	132
1	132
1	132
1	82
1	4
1	82
1	132
1	82
1	132
1	4
1	5
1	132
1	132
1	5
1	4
1	6
1	6
1	6
1	3
1	7
1	3
1	132
1	82
1	4
1	3
1	5
1	82
1	4
1	132
1	5
1	6
1	5
1	132
1	4
1	82
1	82
1	82
1	132
1	3
1	10
1	10
1	132
1	4
1	82
1	4
1	82
1	10
1	132
1	10
1	6
1	5
1	6
1	6
1	3
1	3
1	82
1	5
1	82
1	132
1	10
1	82
1	82
1	82
1	132
1	3
1	6124
1	4
1	5
1	4
1	132
1	4
1	82
1	5
1	82
1	4
1	4
1	2
1	4
1	132
1	6
1	82
1	132
1	3
2	82
2	82
2	82
2	82
2	82
2	10
2	82
2	3
2	4
2	82
2	82
2	3
2	82
2	82
2	82
2	82
2	82
2	82
2	82
2	82
2	82
2	82
2	5
2	82
2	82
2	4
2	3
2	82
2	82
2	82
2	82
2	82
2	4
2	82
2	6
2	82
2	82
2	4
2	82
2	6
2	82
2	82
2	82
2	82
2	82
2	82
2	82
2	3
2	82
2	82
2	82
2	3
2	82
2	82
2	82
2	82
2	82
2	82
2	82
2	82
3	10
