1	6124
1	174
1	174
1	174
1	174
1	174
1	174
1	151
1	151
1	174
1	174
1	174
1	151
1	151
1	151
1	174
1	151
1	151
1	174
1	151
1	174
1	151
1	151
1	174
1	174
1	174
1	174
1	174
1	174
1	174
1	174
1	151
1	174
1	151
1	174
1	174
1	151
1	151
1	6
1	151
1	174
1	174
1	151
1	174
1	3
1	5
1	5
1	174
1	174
1	6
1	174
1	174
1	174
1	174
1	174
1	151
1	151
1	3
1	174
1	174
1	10
1	151
1	6
2	151
2	151
2	10
2	151
2	151
2	151
2	151
2	151
2	151
2	151
2	151
2	151
2	151
2	151
2	151
2	151
2	151
2	151
2	151
2	151
2	151
2	151
2	151
2	151
2	151
2	151
2	151
2	151
2	151
2	151
2	151
2	151
2	151
2	151
2	151
2	151
2	151
2	151
2	151
2	151
2	151
2	151
2	151
2	151
2	151
2	151
2	151
2	151
2	151
2	151
2	151
2	151
2	151
2	151
2	151
2	151
2	151
2	151
2	151
2	151
2	151
2	151
2	151
2	151
2	151
2	151
2	151
2	151
2	151
2	151
2	151
2	151
2	151
2	151
2	151
2	151
2	151
2	151
2	151
2	151
2	151
2	151
2	151
2	151
2	151
2	151
2	151
2	151
2	151
2	151
2	151
2	151
2	151
2	151
2	10
2	151
2	151
2	151
2	151
2	151
2	151
2	151
2	151
2	151
2	151
2	151
2	151
2	151
2	151
2	151
2	151
2	151
2	151
3	10
3	10
3	151
3	6
3	6
3	4
3	10
3	4
3	10
3	6
3	10
4	5
