1	6124
1	242
1	242
1	242
1	242
1	242
1	242
1	242
1	242
1	242
1	242
1	242
1	242
1	242
1	242
1	242
1	74
1	242
1	242
1	242
1	242
1	242
1	242
1	242
1	242
1	74
1	242
1	242
1	74
1	74
1	74
1	242
1	74
1	5
1	242
1	242
1	242
1	242
1	242
1	242
1	74
1	242
1	242
1	242
1	242
1	242
1	242
1	242
1	74
1	242
1	242
1	242
1	242
1	74
1	242
1	242
1	6
1	74
1	242
1	242
1	242
1	74
1	242
1	242
1	242
1	74
1	242
1	242
1	242
1	3
1	242
1	242
1	242
1	242
1	74
1	242
1	242
1	3
1	242
1	242
1	242
1	242
1	9
1	242
1	242
1	242
1	242
1	242
1	242
1	4
1	242
1	242
1	242
1	242
1	242
1	242
1	74
1	242
1	242
1	242
1	242
1	74
1	242
1	242
1	74
1	242
1	242
1	74
1	242
1	242
1	242
1	242
1	242
1	74
1	242
1	242
1	242
1	242
1	242
1	242
1	242
1	242
1	6
1	242
1	74
1	242
1	242
1	242
1	242
1	74
1	242
1	242
1	242
1	74
1	242
1	242
1	242
1	242
1	5
1	242
1	242
1	242
1	74
1	242
1	242
1	242
1	242
1	242
1	242
1	242
1	242
1	242
1	9
1	242
1	6
1	242
1	242
1	242
1	242
1	242
1	242
1	242
1	242
1	242
1	74
1	4
1	242
1	242
1	242
1	9
1	242
1	242
1	74
1	242
1	74
1	242
1	242
1	74
1	74
1	242
1	74
1	242
1	242
1	242
1	242
1	242
1	242
1	4
1	242
1	242
1	242
1	242
1	242
1	242
1	242
1	7
1	242
1	242
1	242
1	242
1	74
1	6
1	74
1	242
1	242
1	242
1	242
1	242
1	242
1	242
1	242
1	6
1	242
1	242
1	242
1	3
1	242
1	242
1	242
1	242
1	242
1	242
1	3
1	242
1	242
1	242
1	6
1	74
1	242
1	242
1	3
1	242
1	242
1	242
1	74
1	242
1	242
1	242
1	242
2	9
2	74
2	3
2	5
2	7
2	4
2	6
2	74
2	74
2	5
2	74
2	9
2	74
2	74
2	74
2	6
2	3
2	74
2	74
2	74
2	74
2	74
2	74
2	74
2	74
2	74
2	242
2	9
2	74
2	74
2	74
2	5
2	74
2	74
2	74
2	74
2	74
2	74
2	74
2	74
2	74
2	74
2	74
2	74
2	3
3	7
