1	6124
1	170
1	170
1	170
1	157
1	157
1	170
1	157
1	170
1	157
1	170
1	157
1	157
1	157
1	170
1	170
1	170
1	157
1	157
1	5
1	170
1	170
1	157
1	157
1	170
1	157
1	157
1	9
1	170
1	170
1	170
1	157
1	170
1	157
1	170
1	170
1	170
1	157
1	157
1	4
1	157
1	157
1	170
1	170
1	170
1	157
1	170
1	157
1	9
1	4
1	170
1	5
1	157
1	170
1	157
1	157
1	157
1	157
1	5
1	157
1	170
1	170
1	170
1	157
1	170
1	157
1	170
1	170
1	170
1	157
1	170
1	157
1	157
1	157
1	9
1	157
1	170
1	9
1	157
1	157
1	4
1	3
1	157
1	157
1	157
1	157
1	5
1	170
1	4
1	170
1	170
1	5
1	157
1	170
1	157
1	170
1	170
1	170
1	157
1	157
1	157
1	170
1	9
1	157
1	157
1	170
1	157
1	3
1	170
1	170
1	170
1	157
1	157
1	157
1	157
1	157
1	157
1	157
1	170
1	170
1	5
1	5
1	157
1	170
1	157
1	3
2	157
2	157
2	157
2	157
2	157
2	157
2	5
2	157
2	3
2	157
2	157
2	157
2	157
2	3
2	157
2	157
2	157
2	157
2	157
2	157
2	157
2	157
2	157
2	157
2	157
2	157
2	157
2	157
2	157
2	157
2	157
2	157
2	157
2	3
2	157
2	9
2	5
2	157
2	157
2	157
2	157
2	157
2	157
2	157
2	157
2	157
2	5
2	157
2	157
2	157
2	157
2	157
2	157
2	157
2	157
2	157
2	157
2	4
2	5
2	157
2	157
2	157
2	4
2	157
2	157
2	157
2	157
2	157
2	157
2	157
2	157
2	157
2	157
2	5
2	157
2	157
2	157
2	157
2	157
2	157
2	157
2	157
2	157
2	157
2	157
2	157
2	157
2	157
2	157
2	157
2	157
2	157
2	157
2	157
2	157
2	157
2	157
2	4
3	157
3	5
3	5
3	5
