1	6124
1	237
1	237
1	237
1	237
1	237
1	88
1	237
1	237
1	237
1	237
1	237
1	237
1	237
1	237
1	88
1	237
1	237
1	5
1	237
1	237
1	237
1	237
1	237
1	237
1	237
1	237
1	237
1	237
1	237
1	237
1	237
1	237
1	88
1	237
1	3
1	88
1	237
1	4
1	237
1	237
1	237
1	237
1	237
1	237
1	88
1	237
1	88
1	237
1	237
1	237
1	237
1	237
1	88
1	237
1	237
1	237
1	237
1	237
1	237
1	237
1	237
1	88
1	237
1	237
1	237
1	237
1	237
1	237
1	237
1	237
1	237
1	237
1	88
1	237
1	237
1	237
1	237
1	237
1	88
1	237
1	237
1	237
1	237
1	237
1	88
1	237
1	237
1	237
1	237
1	237
1	237
1	237
1	88
1	237
1	88
1	237
1	237
1	237
1	237
1	237
1	237
1	237
1	237
1	237
1	237
1	237
1	237
1	237
1	237
1	4
1	237
1	237
1	88
1	88
1	237
1	237
1	237
1	237
1	237
1	88
1	237
1	237
1	237
1	237
1	237
1	237
1	237
1	237
1	4
1	237
1	237
1	237
1	237
1	88
1	237
1	5
1	237
1	88
1	237
1	237
1	237
1	237
1	237
1	237
1	237
1	237
1	237
1	88
1	237
1	237
1	237
1	237
1	237
1	237
1	237
1	237
1	237
1	237
1	88
1	237
1	237
1	237
1	88
1	237
1	88
1	237
1	237
1	237
1	237
1	237
1	237
1	88
1	237
1	237
1	237
1	237
1	88
1	237
1	237
1	88
1	4
1	237
1	237
1	237
1	88
1	237
1	88
1	237
1	237
1	237
1	237
1	237
1	237
1	237
1	237
1	237
1	237
1	237
1	237
1	237
1	237
1	237
1	237
2	88
2	88
2	88
2	237
2	88
2	88
2	88
2	88
2	88
2	88
2	88
2	4
2	88
2	88
2	88
2	88
2	88
2	88
2	88
2	88
2	88
2	88
2	88
2	88
2	88
2	88
2	88
2	88
2	4
2	88
2	88
2	88
2	88
2	88
2	88
2	88
2	88
2	88
2	88
2	88
2	88
2	88
2	4
2	88
2	88
2	88
2	88
2	88
2	88
2	88
2	88
2	88
2	88
2	88
2	88
2	88
2	88
2	4
2	88
2	88
2	88
