1	6124
1	147
1	129
1	129
1	147
1	129
1	6
1	147
1	129
1	129
1	129
1	147
1	129
1	147
1	147
1	129
1	25
1	129
1	13
1	129
1	7
1	129
1	25
1	147
1	147
1	129
1	129
1	25
1	5
1	129
1	129
1	25
1	6
1	129
1	6124
1	147
1	147
1	147
1	11
1	129
1	7
1	129
1	147
1	7
1	4
1	147
1	3
1	3
1	129
1	147
1	147
1	147
1	129
1	13
1	147
1	147
1	5
1	129
1	25
1	13
1	129
1	129
1	147
1	129
1	5
1	129
1	11
1	147
1	129
1	129
1	147
1	25
1	147
1	147
1	129
1	6
1	147
1	129
1	147
1	147
1	129
1	25
1	129
1	147
1	129
1	129
1	25
1	147
1	147
1	129
1	129
1	147
1	7
1	4
1	7
1	147
1	147
1	25
1	147
1	5
1	4
1	147
1	129
1	129
1	147
1	5
1	11
1	7
1	7
1	25
1	129
1	13
1	147
1	147
1	129
1	147
1	4
1	147
1	129
1	13
1	11
1	129
1	7
1	147
1	129
1	129
1	4
1	129
1	129
1	129
1	147
1	13
1	25
1	129
1	129
1	129
1	147
1	147
1	25
1	3
1	129
1	147
1	129
1	129
1	147
1	5
1	147
1	4
1	129
1	25
1	129
1	129
1	25
1	147
1	129
1	129
1	147
1	4
1	11
1	11
1	13
1	25
1	4
1	7
1	129
1	147
1	129
1	5
1	147
1	147
1	129
1	147
1	129
1	4
1	4
1	147
1	25
1	129
1	147
1	147
1	129
1	147
1	129
1	147
1	129
1	25
1	129
1	4
1	13
1	4
1	129
1	11
1	129
1	25
1	129
1	25
1	129
1	147
1	129
1	129
1	25
1	25
1	13
1	5
1	129
1	129
1	11
1	4
1	147
1	129
1	5
1	147
1	129
1	129
1	5
1	3
1	129
1	129
1	4
1	4
1	25
1	147
1	147
1	147
1	129
1	147
1	129
2	129
2	129
2	4
2	129
2	129
2	3
2	129
2	147
2	3
2	129
2	129
2	129
2	147
2	129
2	129
2	129
2	3
2	129
2	129
2	4
2	5
2	4
2	129
2	129
2	129
2	13
2	4
2	129
2	129
2	129
2	129
2	3
2	129
2	129
2	129
2	129
2	129
2	3
2	129
2	129
2	129
2	129
2	129
2	129
2	129
2	129
2	4
2	129
2	3
2	147
2	3
2	129
2	129
2	7
2	129
2	129
2	129
2	129
2	129
2	129
