1	6124
1	224
1	224
1	224
1	224
1	224
1	76
1	224
1	76
1	9
1	224
1	224
1	76
1	224
1	9
1	224
1	224
1	224
1	224
1	224
1	12
1	224
1	224
1	224
1	76
1	224
1	224
1	224
1	224
1	8
1	224
1	224
1	224
1	224
1	224
1	224
1	224
1	224
1	224
1	224
1	224
1	224
1	224
1	76
1	76
1	76
1	224
1	12
1	224
1	224
1	76
1	224
1	224
1	224
1	9
1	224
1	224
1	4
1	224
1	224
1	224
1	12
1	224
1	4
1	224
1	224
1	8
1	224
1	224
1	224
1	224
1	3
1	12
1	224
1	224
1	224
1	6
1	224
1	12
1	224
1	224
1	224
1	224
1	224
1	224
1	224
1	224
1	224
1	224
1	224
1	4
1	224
1	224
1	8
1	5
1	76
1	224
1	224
1	76
1	224
1	224
1	224
1	224
1	8
1	224
1	224
1	224
1	224
1	224
1	224
1	6
1	76
1	224
1	224
1	76
1	76
1	9
1	224
1	224
1	224
1	224
1	224
1	224
1	224
1	76
1	224
1	224
1	224
1	8
1	224
1	224
1	224
1	224
1	224
1	224
1	224
1	224
1	224
1	76
1	224
1	224
1	3
1	9
1	224
1	224
1	76
1	224
1	76
1	224
1	224
1	224
1	224
1	6
1	224
1	8
1	224
1	4
1	76
1	224
1	3
1	76
1	224
1	224
1	76
1	224
1	8
1	224
1	224
1	224
1	224
1	76
1	224
1	224
1	224
1	224
1	8
1	4
1	4
1	76
1	224
1	224
1	224
1	3
1	12
1	224
1	224
1	224
1	224
1	224
1	224
1	224
1	224
1	5
1	4
1	76
1	5
1	4
1	224
1	76
1	224
1	224
1	224
1	224
1	224
1	224
1	224
1	224
1	76
1	224
1	6
1	224
1	76
1	224
1	6
1	224
1	224
1	76
1	224
1	224
1	224
1	224
1	224
1	224
1	224
1	224
1	224
1	224
1	12
1	224
1	224
1	224
1	224
1	224
1	224
1	224
1	224
1	224
1	224
1	224
1	3
1	224
1	4
1	224
1	4
1	224
1	3
1	224
1	224
1	224
1	224
1	3
1	224
1	76
2	3
2	76
2	76
2	4
2	8
2	76
2	76
2	76
2	4
2	76
2	76
2	76
2	3
2	76
2	12
2	3
2	76
2	76
2	3
2	76
2	3
2	76
2	76
2	76
2	3
2	9
2	8
2	76
2	76
2	76
2	76
2	76
2	76
2	76
2	76
2	76
2	6
2	76
2	76
2	76
2	76
2	12
3	4
3	12
