1	6124
1	101
1	101
1	101
1	102
1	101
1	102
1	101
1	101
1	101
1	101
1	101
1	101
1	101
1	102
1	101
1	102
1	9
1	102
1	101
1	102
1	101
1	101
1	6
1	101
1	5
1	6
1	5
1	9
1	101
1	101
1	3
1	102
1	4
1	7
1	101
1	4
1	102
1	101
1	101
1	4
1	101
1	101
1	101
1	102
1	101
1	101
1	102
1	102
1	7
1	102
1	6124
1	3
1	102
1	101
1	102
1	102
1	4
1	101
1	101
1	101
1	101
1	4
1	4
1	102
1	102
1	101
1	102
1	102
1	5
1	102
1	101
1	3
1	101
1	5
1	101
1	101
1	101
1	3
1	6
1	102
1	7
1	3
1	102
1	6124
1	9
1	102
1	4
1	102
1	101
1	6
1	101
1	5
1	4
1	5
1	4
1	102
1	102
1	4
1	101
1	101
1	5
1	3
1	8
1	101
1	101
1	101
1	101
1	4
1	101
1	8
1	102
1	9
1	8
1	5
1	3
1	5
1	6
1	4
1	101
1	102
1	101
1	7
1	102
1	8
1	4
1	102
1	4
1	101
1	6
1	3
1	102
1	5
1	102
1	102
1	3
1	101
1	101
1	4
1	101
1	102
1	101
1	101
1	102
1	102
1	101
1	101
1	102
1	6
1	3
1	3
1	3
1	4
1	102
1	101
1	102
1	102
1	7
1	102
1	101
1	101
1	3
1	102
1	5
1	3
1	9
1	102
1	102
1	101
1	4
1	102
1	3
1	4
1	102
1	3
1	6
1	101
1	102
1	4
1	102
1	102
1	101
1	101
1	4
1	6
1	3
1	101
1	102
1	5
1	101
1	102
1	3
1	4
1	101
1	5
1	101
1	102
1	102
1	102
1	101
1	5
1	101
1	5
1	3
1	5
1	3
1	8
1	5
1	4
1	4
1	5
1	4
1	9
1	4
1	3
1	5
1	102
1	3
1	4
1	6
1	4
1	102
1	102
1	101
1	4
1	5
1	4
1	3
1	9
1	101
2	3
2	101
2	4
2	3
2	6
2	4
2	4
2	4
2	101
2	101
2	101
2	5
2	101
2	101
2	101
2	101
2	101
2	3
2	101
2	101
2	101
2	3
2	4
2	101
2	101
2	3
2	101
2	101
2	3
2	101
2	101
2	101
2	4
2	101
2	9
2	101
2	3
2	101
2	101
2	101
2	101
2	4
