1	6124
1	137
1	106
1	106
1	137
1	106
1	106
1	137
1	4
1	137
1	106
1	106
1	137
1	106
1	137
1	4
1	106
1	106
1	137
1	137
1	137
1	137
1	106
1	5
1	5
1	4
1	106
1	9
1	106
1	137
1	137
1	106
1	137
1	106
1	137
1	137
1	6
1	137
1	137
1	137
1	137
1	6
1	137
1	4
1	106
1	7
1	106
1	106
1	137
1	5
1	3
1	137
1	106
1	5
1	137
1	137
1	4
1	137
1	3
1	137
1	106
1	137
1	137
1	137
1	4
1	106
1	106
1	4
1	137
1	137
1	106
1	137
1	137
1	137
1	137
1	106
1	5
1	106
1	137
1	137
1	9
1	137
1	106
1	106
1	106
1	106
1	4
1	106
1	106
1	137
1	137
1	6
1	137
1	137
1	137
1	106
1	4
1	3
1	106
1	106
1	137
1	137
1	137
1	4
1	4
1	106
1	106
1	106
1	4
1	5
1	4
1	106
1	5
1	5
1	106
1	137
1	106
1	137
1	9
1	137
1	3
1	6
1	106
1	137
1	3
1	137
1	4
1	137
1	3
1	137
1	6
1	106
1	5
1	106
1	137
1	137
1	106
1	3
1	5
1	4
1	5
1	4
1	137
1	106
1	106
1	106
1	9
1	4
1	137
1	137
1	106
1	106
1	106
1	3
1	5
1	137
1	106
1	9
1	3
1	3
1	106
1	4
1	5
1	137
1	137
1	106
1	4
1	7
1	5
1	5
1	106
1	106
1	137
1	5
1	4
1	106
1	106
1	4
1	3
1	106
1	106
1	137
1	5
1	137
1	4
1	4
1	106
1	3
1	137
1	4
1	5
1	4
1	106
1	106
1	9
1	137
1	4
1	106
1	106
1	106
1	137
1	137
1	137
1	106
1	137
1	4
1	4
1	5
1	137
1	106
1	106
1	3
1	137
1	3
1	3
1	9
1	106
1	7
1	106
1	106
1	5
1	4
1	106
1	106
1	137
1	137
1	137
1	3
1	137
1	106
1	4
1	137
1	137
1	4
1	106
1	137
1	4
1	106
1	4
1	4
1	106
1	137
1	4
1	4
1	137
1	3
1	106
1	3
1	106
1	106
1	137
1	4
1	7
1	137
1	137
1	106
1	4
1	137
2	106
2	4
2	4
2	106
2	3
2	106
2	3
2	106
2	106
2	4
2	137
2	106
2	4
2	3
2	3
2	106
2	106
2	106
2	106
2	7
2	3
2	106
2	106
2	4
2	4
2	106
2	3
2	106
2	106
2	106
2	106
2	106
2	106
2	106
2	4
2	3
2	106
2	3
2	3
2	106
3	4
