1	6124
1	138
1	98
1	98
1	9
1	98
1	138
1	10
1	98
1	98
1	4
1	138
1	138
1	98
1	138
1	98
1	17
1	138
1	98
1	138
1	98
1	7
1	138
1	7
1	98
1	17
1	98
1	138
1	138
1	98
1	138
1	6
1	138
1	98
1	138
1	4
1	138
1	10
1	98
1	98
1	98
1	138
1	17
1	98
1	9
1	138
1	7
1	8
1	7
1	4
1	138
1	9
1	138
1	98
1	9
1	138
1	4
1	4
1	98
1	5
1	4
1	98
1	138
1	4
1	98
1	138
1	9
1	98
1	6
1	138
1	4
1	4
1	4
1	98
1	138
1	138
1	138
1	98
1	9
1	138
1	17
1	8
1	3
1	4
1	98
1	98
1	138
1	4
1	9
1	7
1	138
1	138
1	98
1	8
1	5
1	98
1	138
1	7
1	3
1	138
1	4
1	138
1	7
1	3
1	3
1	138
1	98
1	6
1	98
1	138
1	4
1	5
1	138
1	9
1	138
1	98
1	98
1	138
1	9
1	138
1	98
1	138
1	5
1	17
1	138
1	98
1	5
1	17
1	138
1	98
1	5
1	98
1	6
1	98
1	3
1	138
1	138
1	138
1	17
1	6124
1	4
1	8
1	6
1	4
1	138
1	10
1	6
1	138
1	10
1	98
1	138
1	138
1	5
1	98
1	138
1	98
1	138
1	17
1	10
1	7
1	10
1	98
1	98
1	138
1	5
1	4
1	138
1	98
1	98
1	138
1	7
1	7
1	3
1	3
1	138
1	4
1	4
1	17
1	4
1	98
1	138
1	138
1	9
1	5
1	98
1	7
1	3
1	4
1	98
1	138
1	98
1	98
1	138
1	5
1	3
1	6
1	3
1	8
1	98
1	138
1	4
1	138
1	138
1	17
1	98
1	3
1	138
1	9
1	138
1	4
1	138
1	4
1	98
1	4
1	98
1	3
1	98
1	6
1	138
1	98
1	138
1	3
1	138
1	4
1	98
1	98
1	6
1	17
1	7
1	138
1	138
1	10
1	98
2	98
2	5
2	98
2	98
2	138
2	3
2	98
2	6
2	98
2	3
2	98
2	98
2	98
2	98
2	3
2	3
2	3
2	98
2	4
2	98
2	5
2	98
2	4
2	98
2	98
2	98
2	98
2	98
2	3
2	98
2	98
2	98
2	98
2	98
2	3
2	3
2	9
2	98
2	98
2	98
2	4
2	98
2	3
2	7
2	3
2	98
2	98
2	98
2	98
2	5
2	98
2	98
2	3
2	4
2	98
2	98
3	4
