1	6124
1	174
1	136
1	174
1	174
1	174
1	174
1	136
1	136
1	174
1	136
1	174
1	174
1	174
1	136
1	174
1	174
1	174
1	136
1	14
1	174
1	174
1	174
1	136
1	174
1	174
1	136
1	5
1	174
1	174
1	14
1	174
1	10
1	136
1	136
1	174
1	174
1	136
1	136
1	174
1	174
1	174
1	136
1	136
1	136
1	174
1	174
1	174
1	174
1	174
1	136
1	174
1	174
1	174
1	136
1	174
1	174
1	174
1	14
1	174
1	174
1	174
1	174
1	174
1	14
1	5
1	10
1	174
1	174
1	174
1	136
1	174
1	14
1	174
1	136
1	136
1	174
1	174
1	3
1	174
1	136
1	174
1	174
1	174
1	174
1	136
1	10
1	174
1	174
1	136
1	136
1	10
1	174
1	174
1	174
1	174
1	174
1	174
1	136
1	136
1	14
1	136
1	174
1	136
1	174
1	136
1	136
1	174
1	174
1	174
1	10
1	174
1	174
1	174
1	136
1	174
1	174
1	136
1	174
1	174
1	174
1	174
1	136
1	174
1	174
1	136
1	136
1	174
1	174
1	174
1	5
1	136
1	174
1	136
1	174
1	136
1	174
1	174
1	14
1	136
1	174
1	136
1	136
1	136
1	136
1	174
1	174
1	136
1	136
1	136
1	136
1	3
1	174
1	5
1	136
1	174
1	10
1	174
1	174
1	174
1	174
1	136
2	136
2	136
2	10
2	136
2	136
2	136
2	136
2	136
2	136
2	136
2	3
2	14
2	136
2	136
2	136
2	136
2	136
2	136
2	136
2	10
2	136
2	136
2	136
2	4
2	136
2	136
2	136
2	136
2	136
2	136
2	136
2	136
2	174
2	136
2	136
2	136
2	136
2	136
2	136
2	136
2	136
2	136
2	136
2	136
2	136
2	10
2	136
2	136
2	136
2	136
2	136
2	136
2	136
2	136
2	136
2	136
2	136
2	136
2	136
2	136
2	136
2	5
2	136
2	136
2	136
2	3
2	136
2	136
2	136
2	136
2	136
2	136
2	136
2	136
2	136
2	136
2	136
2	10
2	136
3	10
3	10
3	10
4	5
