1	6124
1	72
1	72
1	72
1	72
1	72
1	72
1	72
1	72
1	72
2	48
2	48
2	43
2	43
2	48
2	43
2	48
2	48
2	43
2	48
2	48
2	43
2	48
2	48
2	43
2	43
2	48
2	43
2	48
2	43
2	48
2	48
2	48
2	48
2	48
2	48
2	43
2	43
2	48
2	43
2	48
2	43
3	43
3	43
3	43
3	43
3	43
3	43
3	43
3	43
3	43
3	43
3	43
3	43
3	43
3	43
3	43
3	43
3	43
3	43
3	43
3	43
3	43
3	43
3	43
4	43
4	43
