1	6124
1	73
1	11
1	73
1	73
1	73
1	73
1	73
1	73
1	7
1	6
1	73
1	73
1	73
1	6
1	73
1	73
1	73
1	3
1	12
1	73
1	6124
1	11
1	73
1	73
1	11
1	11
1	6124
1	73
1	7
1	6124
1	73
1	73
1	12
1	73
1	73
1	73
1	73
1	73
1	73
1	11
1	11
1	73
1	11
1	7
1	73
1	12
1	73
1	6124
1	73
1	73
1	11
1	6
1	73
1	73
1	73
1	73
1	73
1	73
1	73
1	73
1	73
1	73
1	7
1	11
1	73
1	73
1	11
1	11
1	73
1	2
1	73
1	12
1	73
1	6
1	11
1	73
1	73
1	73
1	11
1	73
1	73
1	73
1	7
1	73
1	11
1	73
1	73
1	73
1	73
2	4
2	11
2	11
2	12
2	3
2	12
2	3
2	73
2	7
2	3
2	11
2	11
3	7
3	4
