1	6124
1	251
1	251
1	251
1	251
1	251
1	251
1	251
1	251
1	251
1	251
1	251
1	251
1	251
1	251
1	251
1	251
1	251
1	251
1	251
1	251
1	251
1	251
1	251
1	251
1	251
1	251
1	251
1	251
1	251
1	93
1	251
1	251
1	251
1	251
1	251
1	251
1	251
1	251
1	251
1	251
1	251
1	251
1	251
1	251
1	93
1	93
1	251
1	251
1	251
1	251
1	251
1	251
1	251
1	251
1	251
1	251
1	251
1	251
1	251
1	93
1	93
1	251
1	251
1	251
1	251
1	93
1	251
1	251
1	251
1	251
1	251
1	251
1	251
1	93
1	251
1	251
1	251
1	251
1	251
1	251
1	251
1	251
1	251
1	251
1	251
1	251
1	251
1	251
1	251
1	251
1	251
1	251
1	93
1	251
1	93
1	251
1	251
1	251
1	251
1	251
1	251
1	251
1	251
1	251
1	251
1	251
1	251
1	251
1	93
1	93
1	251
1	251
1	93
1	251
1	251
1	251
1	251
1	251
1	251
1	251
1	251
1	251
1	251
1	251
1	251
1	251
1	251
1	251
1	5
1	93
1	251
1	251
1	93
1	251
1	251
1	251
1	251
1	251
1	251
1	251
1	251
1	251
1	251
1	251
1	251
1	251
1	251
1	251
1	251
1	251
1	251
1	251
1	251
1	251
1	251
1	251
1	251
1	251
1	251
1	251
1	251
1	251
1	251
1	251
1	251
1	251
1	251
1	251
1	251
1	251
1	251
1	251
2	93
2	93
2	93
2	93
2	93
2	93
2	93
2	93
2	93
2	93
2	4
2	93
2	93
2	93
2	93
2	93
2	93
2	93
2	93
2	93
2	93
2	93
2	93
2	93
2	93
2	93
2	93
2	93
2	93
2	93
2	93
2	93
2	93
2	93
2	93
2	5
2	93
2	93
2	93
2	251
2	93
2	93
2	93
2	93
2	251
2	93
2	93
2	93
2	93
2	93
2	93
2	93
2	93
2	93
2	93
2	93
2	93
2	93
2	93
2	93
2	93
2	93
2	93
2	93
2	93
2	93
2	93
2	93
3	4
3	4
3	5
3	93
3	93
3	5
3	5
3	4
