1	6124
1	133
1	126
1	126
1	126
1	126
1	126
1	126
1	7
1	133
1	126
1	133
1	126
1	126
1	133
1	126
1	126
1	126
1	6
1	133
1	126
1	8
1	126
1	133
1	126
1	133
1	126
1	126
1	8
1	7
1	133
1	133
1	133
1	133
1	8
1	126
1	126
1	126
1	133
1	126
1	126
1	6
1	133
1	126
1	126
1	133
1	7
1	133
1	133
1	14
1	133
1	126
1	126
1	14
1	133
1	133
1	126
1	7
1	4
1	8
1	6
1	133
1	133
1	133
1	8
1	126
1	126
1	126
1	126
1	14
1	14
1	133
1	5
1	133
1	133
1	133
1	126
1	7
1	133
1	6
1	133
1	126
1	126
1	133
1	126
1	6
1	126
1	126
1	133
1	126
1	126
1	3
1	133
1	133
1	8
1	133
1	126
1	133
1	133
1	6
1	3
1	133
1	3
1	14
1	133
1	3
1	126
1	5
1	133
1	6
1	6
1	126
1	133
1	3
1	4
1	133
1	3
1	14
1	126
1	133
1	133
1	14
1	133
1	4
1	7
1	133
1	14
1	4
1	8
1	133
1	126
1	4
1	5
1	8
1	14
1	133
1	3
1	3
1	133
1	7
1	8
1	133
1	133
1	4
1	6
1	126
1	133
1	126
1	126
1	14
1	4
1	126
1	126
1	3
1	126
1	126
1	4
1	126
1	133
1	133
1	4
1	14
1	133
1	133
1	3
1	5
1	133
1	126
1	126
1	133
1	6
1	126
1	3
1	133
1	126
1	5
1	126
1	126
1	133
1	126
1	133
1	126
1	8
1	126
1	133
1	4
1	8
1	4
1	5
1	126
1	133
1	126
1	133
1	133
1	4
1	126
1	133
1	5
1	126
1	126
1	126
1	133
1	133
1	5
1	4
1	4
1	126
1	133
1	133
1	133
1	133
1	126
1	8
1	5
1	126
1	3
1	133
1	126
1	5
1	14
1	126
1	133
1	126
1	7
1	8
1	133
1	133
1	8
1	3
1	126
1	133
1	133
1	4
1	6
1	6
1	133
1	3
1	8
1	8
1	4
1	3
1	4
1	126
1	8
1	126
1	7
1	4
1	126
1	126
1	126
2	126
2	126
2	5
2	133
2	126
2	126
2	3
2	126
2	126
2	126
2	126
2	5
2	126
2	126
2	126
2	126
2	133
2	126
2	126
2	4
2	126
2	8
2	126
2	126
2	126
2	3
2	126
2	4
2	126
2	126
2	3
2	126
2	126
2	126
2	4
2	126
2	3
2	126
2	126
2	126
2	126
2	126
2	126
2	126
2	126
2	126
2	4
3	6
