1	6124
1	8
1	132
1	153
1	153
1	132
1	8
1	153
1	132
1	153
1	8
1	153
1	153
1	8
1	153
1	10
1	8
1	132
1	153
1	153
1	153
1	153
1	3
1	132
1	153
1	8
1	132
1	153
1	7
1	153
1	7
1	132
1	153
1	153
1	153
1	153
1	132
1	132
1	153
1	7
1	3
1	153
1	10
1	3
1	153
1	153
1	8
1	153
1	5
1	153
1	153
1	153
1	8
1	153
1	132
1	132
1	5
1	8
1	153
1	132
1	153
1	153
1	132
1	153
1	153
1	132
1	153
1	153
1	132
1	132
1	153
1	132
1	7
1	8
1	132
1	153
1	7
1	132
1	153
1	132
1	153
1	7
1	132
1	153
1	132
1	3
1	132
1	132
1	153
1	132
1	153
1	153
1	132
1	153
1	153
1	153
1	132
1	9
1	153
1	153
1	3
1	153
1	153
1	132
1	5
1	3
1	132
1	132
1	132
1	153
1	132
1	8
1	132
1	132
1	153
1	5
1	153
1	132
1	153
1	153
1	153
1	5
1	132
1	132
1	132
1	9
1	153
1	153
1	153
1	132
1	132
1	132
1	153
1	153
1	153
1	153
1	3
1	132
1	3
1	132
1	153
1	153
1	153
1	132
1	9
1	153
1	153
1	8
1	153
1	132
1	7
1	153
1	153
1	153
1	153
1	153
1	132
1	153
1	153
1	9
1	4
1	132
1	8
1	153
1	153
1	132
1	5
1	153
1	132
1	132
1	9
1	132
1	4
1	10
1	7
1	132
1	132
1	10
2	132
2	132
2	132
2	132
2	132
2	132
2	132
2	132
2	132
2	132
2	132
2	132
2	5
2	132
2	132
2	132
2	132
2	132
2	7
2	132
2	4
2	5
2	132
2	132
2	132
2	132
2	132
2	132
2	132
2	9
2	132
2	10
2	3
2	132
2	132
2	132
2	132
2	132
2	132
2	132
2	132
2	132
2	132
2	4
2	132
2	132
2	132
2	7
2	132
2	132
2	132
2	132
2	132
2	132
2	5
2	132
2	132
2	5
2	132
2	7
2	132
3	8
3	7
3	7
3	5
3	5
3	4
3	5
3	7
3	4
