1	6124
1	97
1	9
1	97
1	8
1	97
1	100
1	97
1	100
1	97
1	97
1	100
1	8
1	10
1	6
1	97
1	97
1	7
1	100
1	97
1	6
1	97
1	7
1	7
1	9
1	97
1	7
1	97
1	3
1	10
1	97
1	7
1	7
1	100
1	100
1	100
1	9
1	7
1	5
1	100
1	97
1	6
1	97
1	8
1	6
1	4
1	97
1	9
1	6
1	100
1	9
1	97
1	4
1	100
1	100
1	7
1	97
1	100
1	100
1	4
1	8
1	100
1	100
1	5
1	97
1	100
1	3
1	97
1	97
1	97
1	97
1	8
1	97
1	100
1	6
1	3
1	6
1	97
1	6
1	3
1	7
1	100
1	6
1	100
1	97
1	8
1	97
1	100
1	100
1	100
1	97
1	10
1	8
1	4
1	5
1	97
1	97
1	97
1	97
1	8
1	97
1	97
1	100
1	3
1	6
1	6
1	97
1	97
1	6
1	10
1	97
1	97
1	97
1	4
1	97
1	7
1	100
1	100
1	3
1	7
1	6
1	3
1	8
1	97
1	3
1	7
1	6
1	4
1	5
1	3
1	100
1	5
1	6
1	6
1	100
1	97
1	97
1	5
1	5
1	4
1	8
1	100
1	6
1	5
1	4
1	7
1	6
1	3
1	3
1	97
1	100
1	3
1	3
1	97
1	97
1	6
1	4
1	100
1	97
1	3
1	97
1	6
1	97
1	5
1	97
1	7
1	97
1	7
1	5
1	97
1	9
1	97
1	8
1	3
1	100
1	100
1	97
1	97
1	9
1	3
1	100
1	100
1	97
1	97
1	6
1	100
1	6
2	97
2	3
2	97
2	97
2	4
2	5
2	3
2	4
2	6
2	3
2	97
2	8
2	97
2	97
2	97
2	97
2	4
2	4
2	97
2	97
2	9
2	97
2	97
2	5
2	97
2	97
2	97
2	97
2	97
2	97
2	97
2	97
2	3
2	97
2	5
2	3
2	97
2	97
2	97
2	97
2	4
2	3
2	3
2	97
2	97
2	6
2	6
3	4
3	5
3	5
3	8
