1	6124
1	159
1	159
1	159
1	159
1	159
1	159
1	159
1	159
1	103
1	159
1	159
1	159
1	159
1	159
1	159
1	159
1	6124
1	159
1	159
1	103
1	159
1	103
1	159
1	159
1	6
1	159
1	159
1	103
1	159
1	159
1	159
1	159
1	103
1	159
1	103
1	103
1	103
1	4
1	159
1	103
1	103
1	103
1	5
1	6
1	103
1	159
1	159
1	159
1	159
1	159
1	103
1	4
1	6
1	5
1	159
1	5
1	159
1	5
1	103
1	159
1	159
1	159
1	159
1	103
1	103
1	159
1	159
1	159
1	5
1	159
1	5
1	5
1	4
1	159
1	103
1	159
1	103
1	159
1	6
1	103
1	159
1	159
1	159
1	159
1	103
1	4
1	103
1	103
1	159
1	159
1	4
1	159
1	3
1	103
1	159
1	3
1	103
1	159
1	3
1	159
1	159
1	159
1	159
1	159
1	159
1	159
1	159
1	3
1	159
1	5
2	103
2	4
2	103
2	103
2	3
2	4
2	159
2	103
2	103
2	103
2	103
2	103
2	103
2	103
2	103
2	103
2	103
2	103
2	103
2	5
2	103
2	3
2	103
2	103
2	103
2	103
2	103
2	103
2	103
2	103
2	103
2	103
2	103
2	103
2	3
2	103
2	103
2	103
2	103
2	3
2	103
2	103
2	5
2	103
2	103
2	103
2	103
2	103
2	103
2	103
2	103
2	103
2	103
2	103
2	4
2	103
2	103
2	103
2	103
2	103
2	103
2	103
2	103
2	4
2	103
2	103
2	103
2	103
2	103
2	103
2	103
2	103
2	103
2	103
2	103
2	103
2	103
2	103
2	103
2	103
2	103
2	103
2	103
2	103
2	3
2	103
2	103
2	103
3	103
