1	6124
1	72
1	5
1	57
1	72
1	57
1	57
1	5
1	57
1	72
1	72
1	57
1	57
1	57
1	72
1	5
1	72
1	72
1	57
1	57
1	72
1	57
1	57
1	72
1	57
1	72
1	72
1	72
1	57
1	72
1	72
1	72
1	72
1	72
1	72
1	72
1	57
2	72
2	57
2	57
2	57
2	57
2	57
2	57
2	57
2	57
2	72
2	57
2	57
2	57
2	57
2	57
2	57
2	57
2	57
2	57
2	57
2	57
2	57
2	57
2	57
2	57
2	57
2	57
2	57
2	57
2	57
2	57
2	3
2	57
2	57
2	57
2	57
2	57
2	57
2	57
2	57
2	57
2	57
2	57
2	57
2	3
2	57
