1	6124
1	281
1	281
1	281
1	281
1	281
1	281
1	281
1	281
1	281
1	281
1	281
1	281
1	99
1	281
1	281
1	281
1	281
1	281
1	6
1	281
1	281
1	281
1	99
1	281
1	281
1	281
1	281
1	281
1	281
1	281
1	281
1	281
1	281
1	281
1	281
1	99
1	281
1	99
1	281
1	281
1	281
1	281
1	281
1	99
1	99
1	281
1	99
1	99
1	281
1	281
1	281
1	281
1	281
1	281
1	281
1	99
1	281
1	281
1	99
1	99
1	281
1	281
1	281
1	281
1	99
1	281
1	281
1	281
1	281
1	281
1	281
1	281
1	281
1	4
1	281
1	99
1	281
1	281
1	281
1	281
1	281
1	281
1	99
1	99
1	281
1	281
1	281
1	281
1	281
1	281
1	281
1	99
1	281
1	281
1	281
1	281
1	281
1	281
1	99
1	281
1	5
1	281
1	281
1	281
1	99
1	99
1	281
1	281
1	99
1	281
1	281
1	281
1	281
1	281
1	281
1	281
1	281
1	281
1	281
1	281
1	281
1	281
1	281
1	281
1	281
1	281
1	281
1	281
1	281
1	281
1	281
1	281
1	281
1	281
1	99
1	281
1	99
1	281
1	281
1	281
1	281
1	281
1	99
1	281
1	99
1	281
1	281
1	6
1	281
1	281
1	281
1	99
1	281
1	281
1	281
1	99
1	281
1	281
1	281
1	281
1	281
1	281
1	281
1	281
1	281
1	281
1	281
1	281
1	281
1	281
1	281
1	281
1	281
1	281
1	99
1	281
1	281
1	281
1	281
1	281
1	281
1	281
1	281
1	5
1	4
1	281
1	281
1	281
1	281
1	281
1	281
1	281
1	281
1	281
1	281
1	281
1	281
1	281
1	281
1	281
1	281
1	281
1	281
1	281
1	281
1	281
1	281
1	281
1	281
1	281
1	281
1	99
1	281
1	281
1	281
1	281
1	99
1	281
1	5
1	281
1	281
1	99
1	281
1	281
1	281
1	281
1	281
1	4
1	281
1	99
1	281
1	281
1	281
1	281
1	281
1	281
1	281
1	281
1	99
1	281
1	281
1	281
1	281
1	281
1	281
1	281
1	281
1	281
2	99
2	99
2	99
2	99
2	99
2	99
2	99
2	99
2	99
2	99
2	99
2	99
2	99
2	99
2	99
2	99
2	99
2	99
2	99
2	99
2	6
2	281
2	99
2	99
2	99
2	99
2	99
2	5
2	99
2	99
2	99
2	99
2	99
2	99
2	99
2	99
2	99
2	99
2	99
2	99
2	99
2	99
2	99
2	99
2	99
2	99
2	99
2	99
2	99
2	99
2	99
2	99
2	99
2	99
2	99
2	99
2	99
2	99
2	99
3	5
3	6
3	5
