1	6124
1	113
1	113
1	113
1	25
1	26
1	31
1	113
1	113
1	113
1	6
1	113
1	113
1	31
1	113
1	31
1	25
1	113
1	113
1	45
1	25
1	113
1	25
1	45
1	113
1	113
1	113
1	113
1	31
1	113
1	113
1	113
1	113
1	113
1	113
1	113
1	45
1	31
1	113
1	113
1	26
1	113
1	113
1	3
1	31
1	25
1	113
1	113
1	45
1	7
1	113
1	7
1	113
1	113
1	113
1	113
1	113
1	113
1	113
1	26
1	25
1	113
1	113
1	45
1	113
1	45
1	113
1	113
1	45
1	113
1	113
1	26
1	113
1	113
1	113
1	113
1	113
1	45
1	113
1	113
1	25
1	113
1	31
1	3
1	113
2	25
2	45
2	26
2	45
2	25
2	26
2	4
2	31
2	25
2	31
2	31
2	45
2	25
2	3
2	31
2	25
2	31
2	45
2	26
2	45
2	25
2	25
2	31
2	45
2	25
2	26
2	31
2	25
2	31
2	6
2	45
2	45
2	26
2	31
2	45
2	26
2	45
2	3
2	45
2	26
2	25
3	26
3	25
3	25
3	25
3	26
3	26
3	31
3	25
3	7
3	31
3	26
3	26
3	31
4	26
