1	6124
1	82
1	156
1	156
1	156
1	82
1	54
1	54
1	156
1	156
1	156
1	156
1	54
1	82
1	54
1	156
1	82
1	82
1	54
1	82
1	54
1	82
1	156
1	54
1	11
1	54
1	156
1	54
1	11
1	82
1	156
1	82
1	54
1	82
1	156
1	156
1	156
1	156
1	82
1	156
1	156
1	156
1	156
1	4
1	156
1	11
1	156
1	82
1	54
1	82
1	54
1	82
1	11
1	54
1	54
1	156
1	11
1	9
1	156
1	156
1	11
1	156
1	82
1	156
1	156
1	82
1	82
1	5
1	82
1	8
1	82
1	82
1	156
1	156
1	9
1	156
1	156
1	156
1	54
1	156
1	54
1	156
1	11
1	54
1	156
1	82
1	156
1	156
1	5
1	82
1	156
1	9
1	3
1	82
1	7
1	156
1	156
1	82
1	54
1	156
1	11
1	3
1	11
1	54
1	156
1	11
1	156
1	156
1	5
1	54
1	5
1	54
1	7
1	82
1	156
1	156
1	5
1	7
1	156
1	11
1	82
1	4
1	82
1	9
1	156
1	54
1	156
1	11
1	4
1	11
1	54
1	9
1	156
1	156
1	54
1	3
1	6
1	156
1	82
1	82
1	54
1	156
1	11
1	156
1	54
1	156
1	82
1	5
1	82
1	5
1	156
1	156
1	5
1	4
1	156
1	54
1	156
1	156
1	82
1	156
1	5
1	82
1	156
1	156
1	156
1	11
1	82
1	54
1	8
1	156
1	11
1	7
1	5
1	156
1	156
1	9
1	82
1	156
1	156
1	7
1	54
1	156
1	156
1	156
1	54
1	54
1	156
1	156
1	5
1	11
1	82
1	82
1	11
1	82
1	7
1	8
1	156
1	11
1	82
1	5
1	82
1	156
1	156
1	54
1	5
1	156
1	54
1	156
1	156
1	156
1	156
1	82
1	156
1	9
1	6
1	4
1	11
1	5
1	156
1	54
1	156
1	156
1	54
1	54
1	11
1	4
1	156
1	7
1	6
1	82
1	156
1	156
1	3
1	156
1	54
1	156
1	54
1	54
1	11
1	156
1	5
1	6
1	9
1	156
1	156
1	54
1	156
1	82
1	82
1	54
1	156
1	156
1	5
1	156
1	156
1	7
1	54
1	5
1	7
1	156
1	9
1	8
1	5
1	3
1	156
1	156
1	9
1	156
1	156
1	82
1	9
1	3
1	156
1	156
1	4
1	4
1	82
1	9
1	8
1	156
1	5
1	156
1	54
1	156
1	54
1	156
1	6
1	82
1	156
1	4
1	156
1	54
1	82
1	156
1	54
1	54
1	3
1	156
1	82
1	4
1	156
1	156
1	156
1	3
1	5
1	5
1	11
1	156
1	9
1	82
1	82
1	156
1	3
1	54
1	156
1	156
1	156
1	11
1	156
1	11
1	5
1	54
1	82
1	54
1	156
2	82
2	82
2	82
2	54
2	82
2	82
2	82
2	82
2	82
2	3
2	82
2	7
2	82
2	82
2	6
2	82
2	5
2	82
2	4
2	82
2	82
2	3
2	4
2	3
2	82
2	82
2	82
2	82
