1	6124
1	28
1	6124
1	17
1	7
1	7
1	135
1	135
1	7
1	135
1	14
1	28
1	135
1	135
1	135
1	28
1	135
1	6
1	28
1	135
1	4
1	7
1	135
1	135
1	6
1	6
1	28
1	135
1	6
1	135
1	14
1	7
1	135
1	135
1	135
1	135
1	7
1	135
1	7
1	6
1	6
1	135
1	135
1	135
1	135
1	135
1	135
1	135
1	17
1	135
1	135
1	6
1	17
1	17
1	28
1	135
1	28
1	14
1	5
1	135
1	135
1	14
1	7
1	14
1	135
1	4
1	6
1	28
1	6
1	135
1	14
1	14
1	135
1	135
1	6
1	135
1	135
1	135
1	135
1	28
1	28
1	135
1	5
1	135
1	135
1	135
1	4
1	135
1	6
1	135
1	135
1	6
1	135
1	6
1	6
1	135
1	135
1	135
1	28
1	135
1	135
1	135
1	7
1	28
1	6
1	135
1	6
1	17
1	28
1	135
1	135
1	17
1	135
1	5
1	6
1	135
1	6124
1	135
1	135
1	135
1	135
1	135
1	3
1	135
1	135
1	4
1	6
1	28
1	5
1	135
1	135
1	3
1	28
1	3
1	135
1	14
1	135
1	135
1	135
1	135
1	135
1	135
1	135
1	7
1	135
1	6
1	135
1	14
1	4
1	135
1	6
1	17
1	135
1	135
1	135
1	6
1	28
1	135
1	135
1	135
1	135
1	28
1	135
1	135
1	135
1	7
1	4
1	135
1	4
1	135
1	135
1	3
1	135
1	135
1	135
1	135
1	3
1	135
1	135
2	6
2	3
2	4
2	3
2	3
2	14
2	7
2	6
2	14
2	14
2	14
2	14
2	4
2	6
2	6
2	14
2	6
2	7
2	6
2	4
2	5
2	7
2	5
2	4
2	14
2	7
2	3
2	7
2	3
2	28
2	5
2	14
2	4
2	7
2	14
2	3
2	4
2	5
2	3
3	4
3	5
3	4
