1	6124
1	89
1	79
1	91
1	91
1	91
1	91
1	91
1	79
1	79
1	7
1	91
1	89
1	91
1	91
1	10
1	79
1	91
1	3
1	79
1	91
1	79
1	89
1	7
1	4
1	9
1	91
1	79
1	89
1	9
1	79
1	10
1	79
1	3
1	10
1	4
1	9
1	7
1	79
1	79
1	91
1	4
1	89
1	89
1	9
1	91
1	6
1	79
1	7
1	4
1	7
1	91
1	79
1	3
1	91
1	3
1	10
1	4
1	79
1	5
1	79
1	4
1	9
1	79
1	79
1	91
1	9
1	91
1	79
1	4
1	9
1	91
1	91
1	9
1	4
1	79
1	91
1	9
1	89
1	9
1	79
1	9
1	6
1	89
1	10
1	79
1	4
1	91
1	91
1	9
1	91
1	7
1	79
1	79
1	4
1	4
1	3
1	91
1	91
1	91
1	91
1	79
1	89
1	79
1	3
1	10
1	9
1	91
1	79
1	91
1	3
1	79
1	79
1	4
1	4
1	4
1	79
1	4
1	91
1	89
1	5
1	89
1	4
1	91
1	91
1	89
1	4
1	3
1	79
1	91
1	9
1	89
1	89
1	7
1	91
1	4
1	5
1	4
1	91
1	7
1	79
1	4
1	3
1	89
1	4
1	6
1	6
1	89
1	91
1	5
1	79
1	4
1	9
1	5
1	79
1	3
2	89
2	3
2	89
2	3
2	5
2	79
2	79
2	89
2	79
2	79
2	3
2	5
2	3
2	89
2	79
2	79
2	89
2	89
2	4
2	3
2	79
2	89
2	89
2	3
2	79
2	4
2	79
2	89
2	89
2	3
2	79
2	3
2	79
2	3
2	79
2	79
2	79
2	79
2	5
2	9
2	89
2	3
2	79
2	79
2	6
2	89
2	79
2	3
2	79
2	89
2	4
2	79
2	3
2	89
2	89
2	89
2	79
2	5
2	79
2	89
2	4
2	79
2	79
2	89
2	89
2	4
2	3
2	4
2	3
2	3
2	79
2	4
2	79
2	89
2	79
2	89
2	9
2	5
2	3
2	89
2	79
2	89
2	3
2	89
2	4
2	89
2	89
2	79
2	4
2	3
3	4
3	79
3	79
3	4
