1	6124
1	196
1	196
1	196
1	196
1	196
1	196
1	196
1	196
1	196
1	196
1	105
1	196
1	196
1	105
1	196
1	196
1	105
1	196
1	196
1	196
1	196
1	105
1	196
1	196
1	105
1	196
1	196
1	196
1	196
1	196
1	196
1	105
1	105
1	196
1	196
1	196
1	196
1	105
1	196
1	196
1	196
1	196
1	105
1	196
1	105
1	105
1	196
1	196
1	196
1	105
1	105
1	196
1	105
1	196
1	196
1	105
1	196
1	196
1	196
1	105
1	196
1	196
1	196
1	196
1	196
1	196
1	196
1	196
1	196
1	196
1	105
1	196
1	196
1	196
1	105
1	196
1	196
1	196
1	196
1	196
1	196
1	196
1	196
1	105
1	105
1	196
1	196
1	196
1	196
1	196
1	105
1	4
1	105
1	105
1	105
1	4
1	196
1	196
1	105
1	196
1	196
1	196
1	105
1	196
1	105
1	196
1	8
1	196
1	196
1	196
1	105
1	105
1	196
1	196
1	196
1	4
1	196
1	196
1	4
1	196
1	196
1	196
1	105
1	196
1	196
1	196
1	105
1	196
1	196
1	105
1	105
1	196
1	4
1	105
1	196
1	196
1	196
1	196
1	196
1	105
1	105
1	196
1	196
1	105
1	105
1	196
1	196
1	196
1	105
1	196
1	196
1	196
1	8
1	196
1	4
1	196
1	8
1	196
1	196
1	8
1	196
1	6
1	196
1	105
1	105
1	196
1	196
1	196
1	105
1	105
1	196
1	105
1	105
1	196
1	196
1	105
1	196
1	196
1	196
1	196
2	105
2	105
2	105
2	12
2	105
2	105
2	105
2	12
2	12
2	105
2	12
2	105
2	105
2	105
2	105
2	105
2	3
2	105
2	105
2	105
2	105
2	105
2	12
2	105
2	105
2	105
2	12
2	105
2	105
2	105
2	105
2	6
2	105
2	105
2	105
2	105
2	105
2	105
2	12
2	105
2	105
2	105
2	105
2	105
2	105
2	105
2	105
2	105
2	105
2	105
2	105
2	105
2	12
2	105
2	105
2	6
2	105
2	105
2	8
2	105
2	105
2	105
3	12
3	12
