1	6124
1	7
1	84
1	84
1	6124
1	84
1	7
1	6124
1	6124
1	84
1	23
1	84
1	15
1	23
1	84
1	84
1	6124
1	9
1	19
1	7
1	5
1	84
1	15
1	15
1	84
1	84
1	84
1	23
1	15
1	84
1	15
1	84
1	7
1	84
1	9
1	19
1	84
1	84
1	84
1	3
1	84
1	84
1	8
1	84
1	23
1	84
1	5
1	9
1	84
1	20
1	84
1	15
1	84
1	84
1	2
1	6124
1	7
1	84
1	9
1	84
1	19
1	84
1	4
1	84
1	23
1	4
1	4
1	5
1	84
1	84
1	84
1	19
1	19
1	84
1	84
1	9
1	84
1	3
1	6124
1	19
1	19
1	6124
1	23
1	19
1	84
1	6124
1	84
1	9
1	7
1	9
1	20
1	84
1	84
1	19
1	8
1	84
1	84
1	19
1	19
1	15
1	84
1	3
1	84
1	19
1	84
1	3
1	84
1	84
1	84
1	2
1	84
1	19
1	5
1	4
1	23
1	23
1	84
1	7
1	8
1	9
1	4
2	3
2	84
2	3
2	8
2	23
2	9
2	20
2	9
2	3
2	3
2	3
2	8
2	9
2	15
2	9
2	20
2	3
2	3
2	9
2	20
2	15
2	9
2	20
2	4
2	20
2	20
2	3
2	3
2	4
2	3
2	7
3	4
3	4
