1	6124
1	40
1	40
1	40
1	26
1	26
1	26
1	40
1	40
1	40
1	40
1	8
1	26
1	40
1	5
1	26
1	8
1	40
1	5
1	26
1	40
1	40
1	40
1	8
1	40
1	26
1	40
1	40
1	40
1	26
1	8
1	40
1	40
2	26
2	26
2	26
2	26
2	26
2	26
2	26
2	8
2	8
2	6
2	4
2	26
3	4
3	4
3	6
