1	6124
1	26
1	107
1	96
1	107
1	26
1	107
1	107
1	96
1	96
1	96
1	107
1	11
1	107
1	96
1	26
1	107
1	96
1	11
1	107
1	26
1	107
1	107
1	8
1	26
1	107
1	96
1	8
1	107
1	96
1	107
1	107
1	107
1	96
1	96
1	12
1	6
1	107
1	107
1	8
1	96
1	8
1	8
1	96
1	96
1	8
1	8
1	8
1	96
1	96
1	6
1	96
1	96
1	26
1	4
1	12
1	107
1	8
1	12
1	96
1	7
1	107
1	7
1	107
1	26
1	4
1	96
1	96
1	107
1	8
1	4
1	8
1	8
1	96
1	6
1	107
1	107
1	107
1	96
1	96
1	107
1	26
1	12
1	96
1	96
1	96
1	107
1	107
1	5
1	26
1	96
1	6
1	8
1	5
1	107
1	8
1	107
1	96
1	3
1	107
1	3
1	107
1	26
1	7
1	107
1	26
1	96
1	96
1	26
1	3
1	11
1	4
1	96
1	4
1	96
1	5
1	96
1	26
1	96
1	96
1	107
1	4
1	5
1	4
1	96
1	107
1	5
1	3
1	26
1	107
1	11
1	107
1	96
1	3
1	3
1	107
1	26
1	11
1	12
1	4
1	107
1	4
1	96
1	5
1	107
1	3
1	107
1	5
1	96
1	107
1	107
1	3
1	4
1	12
1	4
1	8
1	6
1	4
1	96
1	5
1	107
1	107
1	107
1	96
1	3
1	107
1	107
1	107
1	107
1	8
1	5
1	107
1	5
1	96
1	96
1	11
1	107
1	96
1	107
1	107
1	5
1	11
1	107
1	107
1	8
1	26
1	11
1	96
1	96
1	5
1	5
1	4
1	4
1	5
1	26
1	5
1	96
1	107
1	26
1	107
1	5
1	26
1	3
1	107
1	12
1	5
1	12
1	4
1	96
1	8
1	4
1	6
1	26
1	6
1	3
1	3
1	3
1	96
1	107
1	107
1	5
1	26
1	12
1	96
1	96
1	107
1	8
1	96
1	96
1	107
1	96
1	107
1	107
1	8
1	107
1	5
2	96
2	3
2	96
2	96
2	96
2	3
2	4
2	4
2	96
2	4
2	96
2	7
2	96
2	96
2	96
2	96
2	96
2	3
2	96
2	96
2	3
2	3
2	26
2	96
2	3
2	11
2	3
2	4
2	96
2	96
2	96
2	96
2	96
2	3
2	96
2	96
2	3
2	7
3	6
3	5
3	8
3	6
