1	6124
1	247
1	247
1	247
1	247
1	247
1	247
1	247
1	247
1	247
1	247
1	247
1	90
1	247
1	247
1	247
1	90
1	90
1	247
1	247
1	247
1	247
1	247
1	247
1	247
1	247
1	247
1	90
1	247
1	247
1	247
1	247
1	247
1	90
1	247
1	90
1	247
1	5
1	90
1	247
1	247
1	247
1	247
1	12
1	247
1	247
1	247
1	247
1	247
1	90
1	90
1	12
1	247
1	247
1	247
1	247
1	247
1	247
1	247
1	247
1	90
1	90
1	12
1	247
1	247
1	247
1	247
1	247
1	247
1	247
1	247
1	247
1	247
1	90
1	247
1	90
1	247
1	90
1	247
1	90
1	247
1	247
1	247
1	90
1	247
1	6
1	247
1	247
1	247
1	247
1	90
1	5
1	247
1	247
1	247
1	247
1	247
1	247
1	247
1	247
1	12
1	90
1	90
1	247
1	247
1	247
1	247
1	90
1	247
1	247
1	90
1	247
1	247
1	247
1	12
1	247
1	247
1	90
1	247
1	4
1	247
1	247
1	247
1	247
1	6
1	3
1	247
1	247
1	12
1	90
1	247
1	90
1	247
1	12
1	247
1	247
1	247
1	247
1	247
1	247
1	247
1	247
1	90
1	247
1	247
1	90
1	90
1	247
1	247
1	247
1	247
1	247
1	247
1	247
1	90
1	247
1	247
1	247
1	247
1	247
1	247
1	247
1	247
1	247
1	247
1	247
1	247
1	247
1	247
1	247
1	247
1	247
1	247
1	90
1	247
1	247
1	247
1	247
1	247
1	247
1	247
1	247
1	247
1	247
1	247
1	3
1	247
1	247
1	247
1	247
1	247
1	247
1	247
1	247
1	12
1	247
1	247
1	247
1	247
1	247
1	247
1	247
1	247
1	247
1	90
1	247
1	247
1	90
1	247
1	247
1	247
1	90
1	247
1	247
1	247
1	90
1	247
1	247
1	247
1	247
1	247
1	247
1	247
1	247
1	247
1	3
1	247
1	247
1	247
1	90
1	90
1	247
1	3
1	247
1	247
1	247
1	12
1	247
1	247
1	247
1	247
1	90
1	90
2	90
2	90
2	90
2	90
2	247
2	90
2	3
2	90
2	90
2	90
2	90
2	90
2	90
2	90
2	90
2	90
2	90
2	12
2	90
2	4
2	90
2	90
2	90
2	90
2	90
2	90
2	3
2	90
2	90
2	6
2	90
2	90
2	90
2	90
2	90
2	90
2	90
2	90
2	90
2	90
2	90
2	90
2	90
2	90
2	90
2	90
2	90
2	90
2	90
2	90
2	90
2	90
2	90
2	90
2	90
3	5
