1	6124
1	37
1	67
1	133
1	133
1	10
1	37
1	133
1	67
1	67
1	5
1	133
1	133
1	67
1	67
1	37
1	67
1	5
1	133
1	133
1	10
1	37
1	16
1	5
1	67
1	133
1	67
1	133
1	133
1	37
1	67
1	133
1	7
1	133
1	6
1	37
1	9
1	16
1	133
1	133
1	133
1	133
1	133
1	4
1	5
1	67
1	67
1	133
1	133
1	133
1	37
1	133
1	133
1	37
1	133
1	133
1	133
1	5
1	37
1	133
1	133
1	37
1	133
1	133
1	67
1	7
1	37
1	133
1	9
1	133
1	133
1	133
1	9
1	133
1	133
1	5
1	133
1	67
1	133
1	4
1	10
1	16
1	133
1	37
1	67
1	4
1	133
1	133
1	37
1	5
1	133
1	6
1	7
1	133
1	37
1	37
1	10
1	5
1	133
1	16
1	67
1	37
1	67
1	37
1	133
1	16
1	67
1	5
1	133
1	67
1	67
1	133
1	67
1	67
1	4
1	37
1	37
1	16
1	10
1	133
1	6
1	133
1	4
1	67
1	6
1	67
1	133
1	133
1	3
1	133
1	10
1	133
1	4
1	133
1	133
1	133
1	133
1	9
1	5
1	133
1	133
1	133
1	133
1	133
1	16
1	4
1	67
1	67
1	133
1	133
1	4
1	133
1	7
1	133
1	37
1	133
1	16
1	7
1	5
1	67
1	4
1	133
1	37
1	5
1	67
1	3
1	3
1	37
1	3
1	10
1	16
1	133
1	133
1	37
1	6
1	133
1	133
1	4
1	133
1	10
1	133
1	133
1	6
1	133
1	37
1	67
1	133
1	133
1	67
1	16
1	4
1	133
1	67
1	133
1	37
1	3
1	37
1	7
1	6
1	133
1	133
1	37
1	37
1	67
1	133
1	7
1	6
1	6
1	133
1	133
1	133
1	4
1	5
1	67
1	5
1	133
1	133
1	37
1	133
1	133
1	37
1	37
1	133
1	133
2	4
2	67
2	5
2	67
2	6
2	4
2	67
2	67
2	67
2	4
2	3
2	67
2	67
2	6
2	133
2	37
2	5
2	7
2	67
2	67
2	4
2	3
2	3
2	133
2	67
2	67
2	67
2	67
2	67
2	67
2	3
2	67
2	3
2	67
2	67
2	3
2	67
2	67
2	6
2	67
3	5
4	5
