1	6124
1	182
1	182
1	182
1	6
1	182
1	182
1	182
1	98
1	182
1	98
1	182
1	4
1	182
1	98
1	182
1	6
1	182
1	5
1	182
1	182
1	182
1	3
1	182
1	4
1	98
1	182
1	98
1	182
1	182
1	98
1	98
1	98
1	182
1	182
1	182
1	98
1	182
1	182
1	98
1	182
1	182
1	182
1	182
1	98
1	4
1	182
1	182
1	5
1	182
1	98
1	182
1	182
1	98
1	182
1	6
1	3
1	98
1	8
1	182
1	182
1	4
1	182
1	182
1	3
1	98
1	182
1	182
1	182
1	8
1	5
1	182
1	182
1	182
1	98
1	5
1	182
1	182
1	3
1	4
1	182
1	182
1	182
1	98
1	182
1	6
1	8
1	3
1	3
1	182
1	182
1	182
1	182
1	182
1	3
1	98
1	182
1	182
1	4
1	98
1	4
1	98
1	182
1	182
1	182
1	182
1	4
1	5
1	3
1	6
1	4
1	3
1	98
1	182
1	3
1	182
1	182
1	182
1	182
1	98
1	182
1	4
1	98
1	3
1	182
1	98
1	182
1	182
1	4
1	98
1	182
1	182
1	182
1	98
1	182
1	3
1	182
1	182
1	98
1	98
1	182
1	182
1	182
1	98
1	182
1	4
1	182
1	182
1	182
1	182
1	4
1	3
1	98
1	182
1	4
1	8
1	4
1	182
1	182
1	5
1	6
1	182
1	182
1	3
2	98
2	98
2	98
2	98
2	98
2	3
2	98
2	98
2	3
2	98
2	98
2	3
2	98
2	3
2	98
2	6
2	98
2	98
2	182
2	98
2	98
2	98
2	98
2	98
2	98
2	98
2	98
2	98
2	98
2	98
2	98
2	98
2	5
2	6
2	98
2	4
2	98
2	98
2	4
2	98
2	98
2	98
2	98
2	98
2	98
2	98
2	98
2	3
2	3
2	3
2	98
2	4
2	98
2	98
2	4
2	98
2	98
2	6
2	3
2	3
2	98
2	4
2	98
2	3
2	98
2	98
2	98
2	98
2	98
2	98
2	98
2	98
2	98
2	98
2	98
2	98
2	98
2	98
2	98
2	98
2	98
2	98
2	98
2	98
2	4
2	8
