1	6124
1	69
1	6
1	7
1	17
1	69
1	19
1	6
1	69
1	6
1	69
1	4
1	69
1	16
1	69
1	69
1	16
1	71
1	69
1	7
1	6
1	69
1	5
1	4
1	69
1	69
1	69
1	6
1	5
1	4
1	71
1	69
1	69
1	12
1	20
1	5
1	69
1	71
1	71
1	69
1	16
1	17
1	5
1	19
1	17
1	5
1	6
1	12
1	16
1	69
1	71
1	4
1	12
1	6
1	69
1	7
1	20
1	7
1	5
1	4
1	4
1	5
1	4
1	7
1	5
1	19
1	71
1	69
1	7
1	12
1	6
1	16
1	20
1	6
1	69
1	7
1	6
1	69
1	69
1	4
1	71
1	16
1	20
1	69
1	71
1	16
1	20
1	69
1	17
1	6
1	71
1	20
1	69
1	17
1	5
1	6124
1	6
1	71
1	5
1	16
1	71
1	17
1	71
1	7
1	12
1	3
1	17
1	6
1	6
1	71
1	71
1	19
1	19
1	5
1	71
1	6
1	4
1	17
1	69
1	5
1	17
1	71
1	19
1	7
1	6
1	20
1	69
1	19
1	6
1	17
1	71
1	5
1	6
1	69
1	5
1	20
1	69
1	3
1	69
1	3
1	69
1	6
1	71
1	71
1	69
1	71
1	19
1	12
1	69
1	69
1	17
1	69
1	4
1	69
1	5
1	4
1	7
1	16
1	6
1	12
1	3
1	7
1	6
1	3
1	19
1	69
1	4
1	12
1	20
1	5
1	19
1	71
1	4
1	6
1	5
1	4
1	2
1	69
1	71
1	5
1	16
1	71
1	3
1	69
1	69
1	71
1	12
1	6
1	6
1	71
1	71
1	5
1	4
1	20
1	3
1	7
1	7
1	71
1	16
1	16
1	4
1	19
1	71
1	12
1	5
2	4
2	69
2	69
2	17
2	6
2	6
2	69
2	3
2	20
2	6
2	4
2	69
2	69
2	3
2	69
2	4
2	3
2	5
2	69
2	4
2	69
2	69
2	69
2	69
2	69
2	69
2	69
2	69
2	3
2	69
2	3
2	3
2	4
2	16
2	5
2	69
2	69
3	7
3	4
3	4
3	4
