1	6124
1	85
1	9
1	85
1	9
1	85
1	85
1	7
1	3
1	85
1	115
1	115
1	13
1	85
1	85
1	85
1	3
1	85
1	115
1	8
1	13
1	9
1	9
1	13
1	8
1	9
1	85
1	85
1	115
1	7
1	3
1	115
1	85
1	4
1	115
1	11
1	3
1	85
1	4
1	85
1	4
1	8
1	115
1	4
1	115
1	4
1	4
1	85
1	9
1	115
1	115
1	115
1	115
1	85
1	115
1	115
1	13
1	8
1	85
1	115
1	6
1	115
1	13
1	4
1	9
1	115
1	85
1	85
1	8
1	85
1	3
1	85
1	85
1	115
1	85
1	9
1	4
1	4
1	115
1	85
1	9
1	5
1	9
1	6
1	115
1	115
1	6
1	6
1	8
1	5
1	8
1	9
1	13
1	4
1	85
1	5
1	115
1	115
1	4
1	8
1	3
1	85
1	115
1	3
1	3
1	4
1	11
1	115
1	115
1	115
1	5
1	85
1	115
1	13
1	9
1	8
1	115
1	85
1	115
1	4
1	8
1	3
1	115
1	85
1	4
1	6
1	3
1	4
1	85
1	6
1	115
1	85
1	9
1	115
1	11
1	5
1	115
1	115
1	11
1	85
1	8
1	115
1	11
1	115
1	5
1	5
1	115
1	4
1	115
1	85
1	3
1	7
1	11
1	13
1	4
1	13
1	3
1	4
1	4
1	8
1	11
1	3
1	85
1	4
1	85
1	115
1	8
1	3
1	115
1	115
1	3
1	115
1	115
1	85
1	5
1	4
1	11
1	7
1	8
1	85
1	115
1	13
1	8
1	115
1	3
1	115
1	5
1	115
1	4
1	4
1	115
1	115
1	115
1	4
2	85
2	4
2	85
2	85
2	4
2	85
2	3
2	6
2	85
2	3
2	85
2	85
2	85
2	115
2	8
2	85
2	85
2	6
2	5
2	85
2	85
2	85
2	8
2	85
2	3
2	9
2	85
2	85
2	85
2	85
2	3
2	3
2	85
2	85
2	85
2	85
2	3
2	85
2	3
2	85
2	3
2	85
2	85
2	85
2	85
2	4
2	3
2	85
2	5
2	85
2	85
2	3
2	85
2	85
2	85
2	3
2	85
2	85
2	85
2	85
2	85
3	85
3	13
