1	6124
1	134
1	134
1	134
1	8
1	105
1	12
1	18
1	105
1	18
1	13
1	134
1	8
1	105
1	134
1	105
1	12
1	105
1	134
1	18
1	105
1	105
1	18
1	105
1	18
1	105
1	134
1	105
1	105
1	134
1	134
1	134
1	134
1	134
1	134
1	7
1	134
1	13
1	18
1	134
1	105
1	134
1	18
1	8
1	105
1	134
1	6
1	3
1	105
1	134
1	134
1	105
1	4
1	13
1	13
1	134
1	5
1	134
1	4
1	134
1	5
1	134
1	13
1	105
1	5
1	3
1	105
1	18
1	7
1	134
1	105
1	5
1	134
1	105
1	5
1	6
1	5
1	13
1	18
1	7
1	12
1	5
1	134
1	13
1	134
1	134
1	7
1	12
1	134
1	134
1	134
1	134
1	105
1	134
1	105
1	105
1	6
1	105
1	134
1	5
1	134
1	134
1	6124
1	13
1	105
1	105
1	105
1	134
1	13
1	18
1	18
1	3
1	105
1	6
1	105
1	5
1	8
1	5
1	6
1	134
1	3
1	13
1	12
1	105
1	6
1	6
1	134
1	134
1	6
1	5
1	105
1	13
1	134
1	4
1	4
1	7
1	6
1	105
1	134
1	134
1	105
1	105
1	134
1	7
1	3
1	7
1	134
1	134
1	134
1	134
1	105
1	13
1	105
1	13
1	5
1	105
1	105
1	8
1	7
1	134
1	105
1	134
1	134
1	3
1	5
1	6
1	13
1	5
1	3
1	7
1	13
1	8
1	105
1	134
1	134
1	12
1	5
1	105
1	105
1	134
1	134
1	105
1	105
1	134
1	134
1	7
1	105
1	6
1	5
1	6
1	105
1	105
1	134
1	6
1	105
1	105
1	134
1	105
1	6
1	18
1	13
1	7
1	3
1	134
1	105
1	105
1	3
1	105
1	6
1	4
1	3
1	134
1	105
1	105
1	134
1	134
1	134
1	6
1	134
1	3
1	5
1	134
1	105
1	13
1	7
1	6
1	3
1	7
1	105
1	105
1	105
1	5
1	6
1	5
1	6
1	5
1	12
2	105
2	105
2	6
2	105
2	105
2	105
2	105
2	105
2	105
2	105
2	5
2	105
2	105
2	13
2	105
2	105
2	105
2	105
2	105
2	105
2	5
2	105
2	4
2	105
2	13
2	3
2	105
2	5
2	105
2	7
2	105
2	105
2	5
2	6
2	6
2	105
2	105
2	105
2	105
2	105
2	3
2	105
2	105
2	105
2	105
2	105
2	105
2	105
2	4
3	5
