1	6124
1	124
1	124
1	252
1	124
1	252
1	252
1	124
1	252
1	252
1	124
1	252
1	252
1	252
1	252
1	124
1	124
1	252
1	252
1	252
1	252
1	252
1	252
1	252
1	252
1	252
1	252
1	7
1	252
1	252
1	124
1	124
1	252
1	124
1	252
1	252
1	252
1	252
1	252
1	252
1	124
1	252
1	124
1	252
1	252
1	252
1	252
1	252
1	124
1	124
1	252
1	252
1	252
1	252
1	124
1	252
1	252
1	124
1	252
1	252
1	252
1	252
1	252
1	252
1	124
1	252
1	252
1	252
1	252
1	252
1	252
1	252
1	124
1	252
1	252
1	252
1	124
1	252
1	252
1	252
1	252
1	252
1	252
1	252
1	252
1	252
1	7
1	4
1	252
1	252
1	252
1	252
1	252
1	124
1	252
1	252
1	252
1	252
1	252
1	252
1	252
1	252
1	252
1	252
1	124
1	252
1	252
1	124
1	252
1	124
1	124
1	252
1	252
1	252
1	252
1	252
1	252
1	252
1	252
1	252
1	252
1	124
1	252
1	252
1	252
1	252
1	252
1	124
1	124
1	252
1	4
1	252
1	124
1	7
1	4
1	124
1	252
1	124
1	4
1	124
1	124
1	252
1	252
1	252
1	124
1	252
1	252
1	252
1	252
1	252
1	252
1	3
1	252
1	124
1	124
1	252
1	252
1	252
1	4
1	252
1	252
1	252
1	252
1	252
1	124
1	252
1	252
1	252
1	124
1	252
1	252
1	252
1	252
1	252
1	252
1	252
1	252
1	124
1	4
1	252
1	252
1	252
1	252
1	252
1	252
1	252
1	252
1	252
1	252
1	124
1	252
1	252
1	252
1	252
1	252
1	124
1	124
1	252
1	4
1	252
1	252
1	252
1	252
1	4
1	7
1	124
1	3
1	252
1	252
1	252
1	7
1	124
1	252
1	252
1	252
1	124
1	252
1	252
1	3
1	3
1	252
2	124
2	124
2	124
2	124
2	124
2	124
2	124
2	124
2	124
2	124
2	252
2	124
2	124
2	124
2	124
2	124
2	124
2	124
2	124
2	124
2	124
2	124
2	124
2	124
2	124
2	124
2	124
2	124
2	124
2	124
2	124
2	4
2	124
2	124
2	124
2	124
2	124
2	124
2	124
2	124
2	124
2	124
2	124
2	124
2	124
2	124
2	124
2	124
2	124
2	124
2	4
2	124
2	124
2	124
2	124
2	124
2	124
2	124
2	124
2	124
2	124
2	124
2	124
2	124
2	124
2	124
2	124
2	124
2	124
2	124
2	124
2	124
2	124
2	124
2	124
2	124
2	124
2	124
2	124
3	4
