1	6124
1	142
1	142
1	154
1	154
1	154
1	10
1	154
1	142
1	154
1	9
1	10
1	154
1	154
1	142
1	142
1	142
1	154
1	10
1	142
1	142
1	142
1	154
1	142
1	154
1	154
1	142
1	154
1	5
1	154
1	154
1	142
1	154
1	5
1	142
1	142
1	142
1	9
1	154
1	142
1	142
1	142
1	142
1	142
1	154
1	154
1	154
1	142
1	4
1	154
1	154
1	154
1	142
1	154
1	142
1	154
1	6
1	154
1	142
1	154
1	142
1	142
1	154
1	154
1	142
1	154
1	154
1	4
1	154
1	4
1	10
1	154
1	142
1	154
1	5
1	142
1	154
1	4
1	154
1	154
1	154
1	154
1	154
1	142
1	154
1	154
1	142
1	154
1	142
1	154
1	154
1	154
1	154
1	4
1	142
1	154
1	154
1	142
1	10
1	154
1	142
1	142
1	142
1	142
1	142
1	154
1	142
1	154
1	154
1	154
1	154
1	154
1	142
1	154
1	154
1	4
1	142
1	154
1	154
1	142
1	154
1	142
1	142
1	142
1	142
1	154
1	154
1	154
1	6
1	4
1	154
1	10
1	142
1	154
1	142
1	3
1	7
1	154
1	142
1	142
1	154
1	154
1	154
1	154
1	142
1	154
1	154
1	142
1	9
1	5
1	154
1	142
1	142
2	142
2	142
2	4
2	142
2	142
2	142
2	142
2	142
2	142
2	142
2	142
2	142
2	142
2	142
2	142
2	4
2	142
2	142
2	142
2	142
2	7
2	142
2	142
2	142
2	142
2	142
2	142
2	142
2	142
2	142
2	142
2	142
2	142
2	4
2	142
2	142
2	142
2	142
2	142
2	142
2	142
2	3
2	142
2	10
2	142
2	3
2	142
2	142
2	142
2	142
2	142
2	142
2	142
2	142
2	142
2	142
2	142
2	3
2	7
2	142
2	142
2	142
2	142
2	142
2	4
2	142
2	142
2	142
2	142
2	142
2	142
2	142
2	142
2	142
3	4
3	142
3	4
3	6
