1	6124
1	183
1	183
1	183
1	183
1	183
1	183
1	183
1	183
1	29
1	92
1	183
1	183
1	183
1	92
1	183
1	183
1	92
1	183
1	92
1	29
1	183
1	29
1	183
1	6
1	183
1	92
1	183
1	183
1	183
1	183
1	92
1	92
1	183
1	92
1	183
1	20
1	183
1	29
1	92
1	20
1	183
1	183
1	183
1	183
1	11
1	183
1	6
1	183
1	11
1	92
1	11
1	183
1	183
1	183
1	92
1	29
1	183
1	29
1	183
1	20
1	29
1	183
1	92
1	6
1	183
1	183
1	183
1	92
1	183
1	183
1	29
1	29
1	20
1	92
1	183
1	183
1	5
1	92
1	183
1	92
1	20
1	20
1	183
1	11
1	183
1	92
1	183
1	183
1	4
1	183
1	183
1	5
1	183
1	183
1	9
1	183
1	183
1	92
1	92
1	183
1	183
1	183
1	183
1	92
1	4
1	183
1	9
1	11
1	183
1	183
1	11
1	183
1	92
1	183
1	183
1	20
1	183
1	183
1	6
1	183
1	183
1	92
1	183
1	183
1	4
1	183
1	29
1	20
1	183
1	92
1	92
1	92
1	11
1	92
1	92
1	183
1	29
1	5
1	183
1	29
1	183
1	183
1	92
1	11
1	183
1	183
1	183
1	11
1	183
1	183
1	92
1	92
1	92
1	5
1	183
1	92
1	92
1	183
1	183
1	183
1	183
1	92
1	183
1	183
1	6
1	183
1	183
1	183
1	11
1	92
1	183
1	92
1	183
1	183
1	183
1	92
1	29
1	11
1	183
1	29
1	183
1	92
1	20
1	92
1	183
1	183
1	92
1	183
1	11
1	183
1	183
1	183
1	29
1	9
1	20
1	183
1	183
1	183
1	92
1	183
1	11
1	183
1	9
1	29
1	183
1	92
1	92
1	5
1	29
1	183
1	183
1	5
1	183
1	183
1	4
1	183
1	183
1	11
1	183
1	5
1	29
1	183
1	183
1	9
1	183
1	183
1	11
1	6
1	183
1	4
1	20
1	183
1	29
1	183
1	183
1	20
1	183
1	20
1	183
1	11
1	183
1	183
1	183
1	4
1	20
1	183
1	29
1	29
1	29
1	29
2	29
2	92
2	92
2	4
2	9
2	3
2	92
2	92
2	92
2	92
2	92
2	4
2	92
2	92
2	92
2	92
2	92
2	92
2	92
2	92
2	92
2	92
2	92
2	92
2	4
2	92
2	92
2	92
2	92
2	20
2	6
2	92
2	92
2	92
2	5
2	4
2	92
2	29
2	92
2	92
2	3
2	4
2	92
2	92
2	92
2	92
2	92
2	92
2	29
2	92
3	11
