1	6124
1	32
1	32
1	32
1	32
1	6
1	32
1	32
1	32
1	6124
1	32
1	32
1	32
1	6124
1	6
1	32
1	32
1	6
1	32
1	32
1	32
1	32
1	4
1	6124
1	6
1	32
1	32
1	32
1	32
1	32
1	3
1	6124
1	32
1	2
1	6
1	32
1	5
1	32
1	2
1	5
1	4
1	32
1	32
1	4
1	5
1	5
1	32
1	32
1	32
1	32
2	4
2	32
2	4
