1	6124
1	39
1	39
1	39
1	39
1	5
1	6
1	39
1	39
1	39
1	39
1	6124
1	39
1	7
1	5
1	3
1	39
1	39
1	5
1	39
1	39
1	39
1	39
1	5
1	39
1	39
1	7
1	5
1	39
1	39
1	7
1	39
1	5
1	39
1	6
1	5
1	39
1	39
1	39
1	3
1	5
1	7
1	6124
1	3
1	7
1	39
1	39
2	5
2	4
2	5
2	4
2	5
2	4
2	6
2	5
3	4
