1	6124
1	38
1	38
1	38
1	4
1	4
1	38
1	38
1	38
1	38
1	38
1	38
1	3
1	38
1	38
1	38
1	38
1	38
1	38
1	38
1	6124
1	38
1	38
1	38
1	38
1	38
1	38
1	38
1	38
1	38
1	38
1	3
1	38
1	38
1	38
1	38
1	38
1	38
2	3
2	3
2	3
2	4
2	4
2	3
2	4
2	4
