1	6124
1	46
1	46
1	46
1	46
1	46
1	46
1	46
1	46
1	46
1	46
1	46
1	46
1	46
1	46
1	46
1	46
1	46
1	46
1	46
1	46
1	46
1	46
1	46
1	4
1	46
1	46
1	46
1	46
1	46
1	46
1	46
1	46
1	46
1	46
1	46
1	46
2	5
2	4
2	5
2	4
2	5
2	3
2	3
