1	6124
1	31
1	31
1	6
1	11
1	31
1	9
1	9
1	9
1	31
1	9
1	3
1	9
1	11
1	6
1	8
1	9
1	31
1	31
1	7
1	10
1	31
1	31
1	5
1	9
1	31
1	8
1	31
1	9
1	31
1	10
1	5
1	7
1	8
1	5
1	31
1	7
1	5
1	10
1	11
1	9
1	6
1	9
1	7
1	8
1	5
1	31
1	8
1	8
1	7
1	31
2	4
2	11
2	6
2	3
2	4
2	6
2	4
2	5
2	8
2	7
3	6
3	4
3	5
4	5
