1	6124
1	29
1	7
1	29
1	29
1	6
1	29
1	29
1	29
1	6
1	6124
1	7
1	7
1	6
1	6
1	29
1	3
1	4
1	6
1	29
1	7
1	29
1	29
1	6
1	29
1	29
1	4
1	29
1	6
1	7
1	29
1	4
1	7
1	29
1	29
1	29
1	29
1	29
1	6
1	6
1	29
1	6
1	7
1	29
1	7
1	29
1	6
1	2
1	29
2	4
2	6
2	5
