1	6124
1	61
1	6
1	61
1	5
1	61
1	5
1	61
1	7
1	3
1	7
1	7
1	61
1	61
1	3
1	7
1	3
1	61
1	7
1	61
1	61
1	5
1	61
1	6
1	61
1	61
1	4
1	5
1	61
1	61
1	61
1	61
1	61
1	3
1	61
1	61
1	61
1	5
1	61
1	61
1	4
1	61
1	61
1	3
1	61
1	61
1	61
1	61
1	61
1	61
1	7
1	61
1	5
1	7
1	61
1	61
1	61
1	61
1	7
1	61
1	61
1	3
1	61
1	61
1	61
1	61
1	7
1	7
1	61
1	61
1	61
1	4
1	4
1	61
2	3
2	7
2	4
2	5
2	7
2	5
2	3
2	3
2	3
2	4
2	3
2	5
2	3
3	4
3	5
