1	6124
1	6124
1	53
1	53
1	53
1	53
1	7
1	53
1	6124
1	53
1	6124
1	53
1	53
1	53
1	6
1	53
1	53
1	53
1	53
1	6124
1	7
1	53
1	3
1	6
1	6
1	53
1	6124
1	53
1	3
1	53
1	5
1	53
1	5
1	53
1	6124
1	5
1	53
1	53
1	53
1	53
1	53
1	53
1	7
1	3
1	6
1	4
1	3
1	5
1	7
1	53
1	53
1	53
1	53
1	4
1	4
1	53
1	53
1	3
1	3
1	3
1	2
1	3
1	53
1	7
1	53
1	53
1	7
1	5
1	7
1	4
1	53
1	4
1	53
1	7
1	4
1	3
1	5
2	6
2	53
2	5
2	6
2	4
2	3
2	7
2	3
2	4
2	5
2	3
3	4
