1	6124
1	6124
1	7
1	39
1	39
1	39
1	12
1	6
1	6124
1	39
1	39
1	7
1	39
1	7
1	12
1	39
1	6
1	4
1	39
1	6
1	39
1	8
1	6
1	39
1	12
1	4
1	39
1	12
1	39
1	4
1	4
1	7
1	4
1	6
1	6
1	3
1	7
1	12
1	4
1	39
1	4
1	39
1	8
1	39
1	7
1	8
1	4
1	4
1	6
1	6
1	8
1	39
1	39
1	4
1	39
2	6
2	39
2	3
2	8
2	4
2	3
2	4
2	4
2	4
3	4
