1	6124
1	23
1	7
1	62
1	6
1	62
1	23
1	18
1	62
1	8
1	62
1	24
1	5
1	6
1	23
1	24
1	23
1	23
1	8
1	7
1	62
1	18
1	62
1	62
1	5
1	7
1	7
1	62
1	62
1	62
1	62
1	7
1	4
1	23
1	62
1	62
1	24
1	11
1	23
1	62
1	5
1	7
1	24
1	62
1	7
1	62
1	62
1	23
1	62
1	18
1	62
1	62
1	5
1	24
1	18
1	11
1	7
1	6
1	3
1	62
1	7
1	24
1	24
1	23
1	62
1	62
1	62
1	5
1	23
1	11
1	6
1	23
1	5
1	7
1	6
1	5
1	7
1	11
1	62
1	24
1	11
1	18
1	24
1	24
1	23
1	62
1	62
1	6
1	62
1	24
1	4
1	23
1	62
1	5
1	24
1	62
1	62
1	62
1	18
1	7
1	6
1	62
1	24
1	7
1	24
1	24
1	4
1	4
1	4
1	7
1	3
1	6
1	62
1	62
1	6
1	62
1	23
1	62
1	5
1	23
1	62
1	62
1	11
1	6
1	24
1	18
1	23
1	5
1	5
2	18
2	5
2	4
2	4
2	18
2	4
2	18
2	8
2	5
2	5
2	6
2	4
2	3
2	4
2	23
2	24
2	3
2	3
2	7
2	4
2	4
3	4
3	6
3	4
3	6
3	4
