1	6124
1	84
1	84
1	6
1	84
1	84
1	84
1	84
1	12
1	84
1	84
1	84
1	84
1	84
1	7
1	84
1	84
1	84
1	12
1	84
1	6
1	4
1	84
1	84
1	12
1	84
1	12
1	84
1	84
1	84
1	7
1	84
1	84
1	84
1	84
1	84
1	12
1	84
1	84
1	84
1	84
1	84
1	84
1	12
1	84
1	84
1	84
1	84
1	12
1	84
1	7
1	3
1	84
1	84
1	84
1	84
1	84
1	84
1	84
1	84
1	84
1	84
1	84
1	84
1	84
1	12
1	12
1	84
1	84
1	84
1	84
1	84
1	84
1	84
1	84
1	84
1	84
1	84
1	84
1	84
1	84
1	84
1	84
1	84
1	84
1	84
1	84
1	4
1	84
1	12
1	84
1	84
2	84
2	7
2	4
2	6
2	4
2	4
2	7
2	3
