1	6124
1	45
1	45
1	3
1	45
1	4
1	45
1	45
1	45
1	45
1	45
1	45
1	45
1	45
1	45
1	45
1	45
1	4
1	45
1	45
1	45
1	45
1	45
1	45
1	45
1	5
1	45
1	45
1	45
1	45
1	45
1	45
1	5
1	4
1	5
1	45
1	45
1	45
1	4
1	45
1	45
1	3
1	45
1	45
1	45
1	45
2	45
2	3
2	3
2	3
2	45
