1	6124
1	44
1	44
1	44
1	44
1	44
1	44
1	44
1	44
1	44
1	44
1	44
1	44
1	44
1	44
1	44
1	44
1	44
1	44
1	44
1	44
1	44
1	44
1	44
1	44
1	44
1	44
1	44
1	44
1	44
1	44
1	44
1	44
1	44
1	44
1	44
1	44
1	44
1	44
1	44
1	44
1	44
2	3
2	3
