1	6124
1	80
1	80
1	80
1	80
1	10
1	10
1	80
1	80
1	80
1	80
1	80
1	80
1	80
1	80
1	80
1	80
1	80
1	80
1	80
1	3
1	80
1	80
1	10
1	80
1	4
1	80
1	80
1	80
1	80
1	5
1	80
1	5
1	80
1	80
1	80
1	80
1	80
1	80
1	80
1	10
1	80
1	4
1	80
1	80
1	80
1	80
1	5
1	80
1	80
1	10
1	80
1	80
1	80
1	6
1	6
1	80
1	80
1	80
1	80
1	6
1	6
1	80
1	80
1	80
1	8
1	80
1	80
1	80
1	80
1	80
1	10
1	80
1	8
1	80
1	80
1	80
1	80
1	80
1	6
1	80
1	8
1	80
1	80
2	6
2	4
2	4
2	8
2	80
2	6
2	6
2	8
2	4
2	4
2	3
