1	6124
1	7
1	42
1	8
1	42
1	42
1	42
1	6
1	42
1	7
1	42
1	42
1	7
1	7
1	42
1	42
1	6
1	42
1	42
1	42
1	42
1	42
1	7
1	42
1	8
1	42
1	42
1	5
1	42
1	14
1	42
1	14
1	3
1	14
1	8
1	14
1	14
1	5
1	42
1	42
1	7
1	14
1	42
1	7
1	42
1	5
1	42
1	8
1	7
1	14
1	42
1	42
1	4
1	42
1	7
2	4
2	5
2	7
2	4
2	6
2	7
2	3
2	3
2	6
2	7
2	3
2	3
2	8
