1	6124
1	109
1	109
1	109
1	109
1	109
1	11
1	109
1	109
1	109
1	109
1	109
1	109
1	109
1	109
1	109
1	109
1	109
1	109
1	10
1	109
1	109
1	109
1	109
1	109
1	11
1	109
1	109
1	109
1	109
1	109
1	109
1	109
1	109
1	11
1	109
1	109
1	109
1	10
1	109
1	109
1	11
1	109
1	109
1	109
1	109
1	109
1	109
1	109
1	109
1	109
1	109
1	109
1	109
1	109
1	109
1	109
1	109
1	10
1	109
1	11
1	109
1	109
1	10
1	109
1	109
1	109
1	109
1	109
1	109
1	109
1	109
1	109
1	109
1	109
1	109
1	109
1	11
1	109
1	109
1	109
1	109
1	109
1	109
1	109
1	109
1	109
1	109
1	109
1	109
1	109
1	109
1	109
1	109
1	109
2	109
2	10
2	11
2	10
2	109
2	6
2	10
2	10
2	3
2	4
2	6
2	109
2	11
2	6
2	3
2	6
