1	6124
1	9
1	21
1	9
1	9
1	13
1	8
1	12
1	6124
1	62
1	21
1	18
1	8
1	5
1	9
1	12
1	62
1	8
1	62
1	9
1	9
1	62
1	8
1	18
1	18
1	13
1	6
1	7
1	7
1	9
1	62
1	6
1	62
1	62
1	15
1	18
1	9
1	8
1	62
1	62
1	62
1	62
1	18
1	6
1	62
1	21
1	7
1	4
1	6124
1	62
1	6124
1	4
1	13
1	62
1	62
1	13
1	62
1	9
1	62
1	18
1	7
1	5
1	6
1	5
1	62
1	21
1	4
1	15
1	5
1	15
1	7
1	9
1	5
1	21
1	21
1	7
1	62
1	15
1	8
1	62
1	5
1	5
1	62
1	9
1	62
1	3
1	13
1	62
1	62
1	6
1	5
1	62
1	9
1	62
1	4
1	62
1	5
1	4
1	21
1	62
1	3
1	7
1	18
1	7
1	9
1	62
1	5
1	5
1	62
1	62
1	62
1	5
2	3
2	7
2	62
2	3
2	7
2	3
2	21
2	9
2	3
2	3
2	7
2	4
2	7
2	8
2	15
2	4
2	5
2	3
2	5
2	7
2	3
2	4
2	9
2	3
2	5
2	3
2	4
2	9
2	4
2	9
3	6
3	7
3	6
3	7
3	6
