1	6124
1	55
1	5
1	7
1	55
1	6124
1	55
1	14
1	55
1	55
1	55
1	14
1	5
1	6124
1	55
1	6124
1	7
1	6124
1	5
1	5
1	6
1	55
1	5
1	14
1	55
1	7
1	55
1	6
1	55
1	55
1	7
1	55
1	55
1	3
1	6124
1	6
1	5
1	55
1	6124
1	55
1	55
1	55
1	55
1	55
1	55
1	6
1	5
1	5
1	55
1	6
1	55
1	55
1	5
1	55
1	55
1	3
1	4
1	2
1	5
1	55
1	5
1	55
1	55
1	6124
1	7
1	55
1	5
1	7
1	55
1	5
1	6
1	55
1	14
1	5
1	5
1	5
1	4
1	55
1	14
1	5
1	4
1	5
1	7
1	55
1	3
1	55
1	5
1	55
1	55
1	55
1	5
1	55
2	5
2	5
2	4
2	3
2	14
2	5
2	4
2	7
2	7
2	4
2	3
2	3
2	4
2	3
3	4
