1	6124
1	54
1	54
1	54
1	54
1	54
1	54
1	54
1	54
1	54
1	54
1	54
1	54
1	54
1	54
1	54
1	54
1	54
1	54
1	54
1	6124
1	54
1	54
1	6
1	54
1	54
1	54
1	54
1	7
1	54
1	54
1	54
1	54
1	54
1	54
1	54
1	54
1	54
1	54
1	54
1	54
1	54
1	6
1	54
1	54
2	7
2	54
2	54
2	54
2	7
2	3
2	7
2	6
