1	6124
1	32
1	32
1	32
1	6
1	5
1	6
1	4
1	32
1	6124
1	4
1	32
1	4
1	7
1	32
1	32
1	4
1	32
1	32
1	32
1	32
1	32
1	32
1	32
1	4
1	2
1	7
1	32
1	3
1	3
1	32
1	32
1	32
1	4
1	7
1	32
1	32
1	7
1	5
1	6
2	5
2	5
2	5
2	3
2	5
