1	6124
1	47
1	6124
1	47
1	47
1	19
1	47
1	47
1	47
1	8
1	47
1	47
1	47
1	11
1	8
1	6
1	6124
1	6
1	19
1	11
1	47
1	8
1	19
1	11
1	47
1	5
1	47
1	11
1	8
1	47
1	47
1	47
1	5
1	4
1	6
1	19
1	47
1	8
1	6124
1	11
1	47
1	19
1	6
1	19
1	47
1	47
1	8
1	19
1	2
1	47
1	8
1	8
1	47
1	19
1	47
1	19
1	47
1	47
1	47
1	8
1	47
1	11
1	47
1	8
1	47
1	47
1	3
1	8
2	8
2	4
2	5
2	19
2	6
2	5
2	4
2	5
3	5
3	5
