0.210459	-0.207437	0.143812
0.046134	0.692716	-0.157375
0.576118	0.330527	0.188517
-0.37396	-0.457814	0.232797
0.000990285	-0.675742	-0.177804
0.302757	0.641587	0.13652
-0.113754	-0.617451	0.21484
0.296437	-0.324448	-0.242564
-0.297743	0.65741	0.115554
-0.314257	-0.0696089	-0.175417
-0.000378844	0.564947	-0.241416
0.264227	0.0840471	-0.113544
0.64173	-0.172858	-0.188164
-0.390988	-0.174195	0.239419
-0.298476	-0.049648	0.153376
-0.019157	-0.65927	0.192469
0.244262	-0.444377	-0.2499
-0.619008	0.180472	0.203811
0.179583	0.288284	-0.191797
0.10561	-0.7372	0.0510807
-0.504737	0.439384	0.18405
0.733626	-0.129072	0.0502718
-0.147931	-0.215082	0.0734836
-0.516864	-0.0180302	0.249409
0.433715	-0.107639	-0.24429
0.622251	0.264853	0.17728
0.688623	-0.146045	0.144598
-0.744829	0.00382912	0.0505359
0.529952	0.178434	0.242893
-0.313076	0.0405724	0.168912
-0.492912	-0.491028	0.155503
-0.133469	0.436808	0.246229
-0.507302	-0.552392	-0.00162405
0.031835	-0.259375	0.0743805
-0.204102	0.708833	0.0776593
-0.541634	0.240701	0.232175
0.238874	0.20371	0.166978
0.0556881	-0.746713	0.0245962
0.0720973	-0.590337	-0.23136
-0.377467	-0.623796	0.10004
0.364057	0.0561977	0.21254
0.287934	-0.52224	0.230685
-0.547031	-0.496556	0.0740209
-0.40548	-0.0179988	0.231606
0.204601	0.156105	0.060187
-0.672577	-0.328728	0.0262944
-0.187064	-0.726265	-0.00392494
-0.68961	-0.212497	-0.115716
-0.589895	-0.433979	-0.0923059
0.616091	0.220189	-0.196736
0.130127	-0.719343	0.0955546
-0.678294	0.315542	0.0307857
-0.703888	0.156512	0.116723
0.11807	-0.688976	0.151298
-0.384719	0.333815	0.249825
-0.183576	0.171827	0.0268408
-0.228582	-0.652875	0.160431
0.522031	-0.315095	-0.224619
0.355386	-0.638789	0.0956154
0.714815	0.0961718	0.116387
-0.664797	0.182107	0.16331
-0.327767	0.189892	-0.218657
0.613381	-0.362661	-0.131579
0.399378	-0.624452	0.0655826
-0.477271	0.574735	-0.0381859
-0.697671	-0.0520302	-0.15052
-0.663793	0.288529	-0.11144
-0.672851	0.281676	-0.0993039
-0.551273	0.502643	0.0444124
0.172668	0.726968	-0.0373601
0.0593875	-0.253945	0.0726745
-0.246348	-0.056036	0.0362399
0.463421	0.539975	0.133184
0.417817	-0.0725704	-0.238191
0.451062	0.597799	0.0236451
-0.0859937	0.244459	0.0669929
0.580536	0.192426	0.22371
0.00247223	-0.43264	-0.240756
-0.0922919	0.743479	-0.020163
-0.188876	-0.185644	0.0848385
-0.554909	0.331926	-0.202501
0.362165	-0.612823	-0.132755
0.173749	-0.43168	-0.247585
0.216798	0.130254	-0.0380875
-0.440836	-0.176873	-0.248746
0.165766	0.427206	0.246487
0.0758969	-0.723998	0.102625
0.653396	-0.149753	-0.18299
-0.502294	-0.510503	0.125565
-0.0271205	0.599672	-0.229004
0.345633	-0.591492	0.168072
-0.224623	-0.561501	0.226991
-0.712076	0.195929	0.0748277
0.464145	-0.544363	-0.126938
-0.328118	0.177693	0.215424
-0.125084	0.719466	0.0973717
0.471042	-0.206896	0.249581
0.65924	-0.111223	0.184632
0.372156	-0.246904	-0.244233
0.546951	-0.49132	0.084681
0.044535	-0.27101	-0.108237
-0.228768	0.234676	0.181172
-0.64668	0.0898252	-0.1978
-0.723258	0.185761	-0.0402898
-0.463255	-0.148588	0.249635
0.255672	0.0505872	0.0721217
0.304032	-0.19173	-0.206742
0.0894241	0.661111	-0.185922
0.731029	0.00826892	-0.0954158
0.396689	0.358778	0.247556
0.134251	-0.234125	-0.0977095
-0.119628	0.382916	0.229635
-0.0994571	-0.548866	-0.243226
-0.45701	0.525116	0.155018
0.171272	0.432707	0.24759
0.711689	-0.188471	-0.0818487
0.472584	-0.364551	-0.230477
-0.729561	0.166678	-0.0286018
0.739737	0.0392152	0.0672822
-0.03588	0.310787	0.165757
0.444668	0.159005	0.248454
0.394187	-0.325044	0.249761
0.375351	0.0719567	0.220499
-0.573393	0.474352	0.0536759
-0.269272	0.409159	0.249792
-0.600348	0.140973	0.221103
-0.229165	-0.569111	0.222741
0.0216086	0.748847	0.0204873
-0.0240818	-0.715398	-0.126211
0.376168	-0.255792	-0.245898
0.138278	-0.673069	-0.165782
0.685054	0.304276	-0.0143481
-0.185181	-0.720554	-0.0545819
0.648397	0.33134	0.10221
-0.214165	0.718225	-0.0161792
0.651679	-0.077301	0.195158
-0.640583	0.188308	-0.185421
-0.112901	-0.705088	0.129128
0.53743	-0.287804	-0.224675
0.307286	-0.258969	0.229931
-0.687264	0.111791	-0.154815
0.159396	0.535872	0.24292
0.134764	-0.667834	-0.172139
-0.508782	-0.169509	-0.247354
0.358351	-0.0903858	0.213282
-0.385866	-0.000663974	0.222426
0.187713	0.682088	-0.13952
-0.603702	-0.0406071	-0.226851
-0.35687	0.0532361	-0.207674
0.373792	-0.478301	0.225928
-0.413906	-0.549184	-0.16514
0.60678	-0.430546	-0.0543935
0.330666	-0.571745	-0.191694
-0.367273	0.415165	0.244031
-0.459108	-0.187224	0.249965
-0.735956	0.0760297	0.0704347
-0.738203	-0.126218	-0.0232546
-0.723854	0.185831	0.0364629
-0.737243	-0.0898778	0.0599681
0.0996619	-0.24814	-0.091652
-0.419869	0.177284	0.246055
0.190569	0.648387	-0.177736
0.148806	-0.373091	0.229851
-0.222557	0.241401	0.181748
0.159759	0.694641	0.13125
0.130873	-0.669416	0.171299
0.500829	0.192262	-0.247326
0.574903	-0.46452	0.0729622
-0.519921	0.446474	0.167804
-0.610468	0.39793	-0.100952
0.719285	0.193049	0.0510077
0.237606	-0.31139	-0.225319
0.457706	-0.592774	-0.0232562
-0.663688	-0.312345	0.0892838
0.0270874	0.443601	0.243745
0.228389	0.714351	-0.00368283
-0.38299	0.331809	0.249909
0.0113467	-0.643037	0.204968
-0.486067	0.504153	0.149589
-0.0777188	-0.619798	-0.216707
-0.118511	0.407838	-0.238393
0.69386	0.271846	0.0486901
-0.0731435	-0.644132	0.201285
-0.33124	-0.463708	-0.24004
-0.270241	0.38662	-0.248394
0.267331	0.66552	-0.123782
-0.503979	0.434311	0.187555
0.70116	-0.260005	0.032977
0.428541	-0.26599	0.249962
-0.0748181	-0.519753	0.248736
0.254106	0.0193424	0.0489609
0.282194	-0.466659	-0.245853
-0.281541	0.140591	0.167812
0.364469	0.581725	-0.16652
-0.675317	-0.22432	-0.133139
0.0254815	-0.269032	0.0985321
-0.0234187	-0.685866	-0.166749
0.507797	0.0616276	-0.249734
-0.386938	0.329815	0.249858
0.0230904	0.326001	0.1803
-0.080729	-0.375115	-0.221303
0.430289	0.120212	-0.244266
-0.292047	0.176191	0.192987
-0.358001	0.185314	-0.230466
-0.361567	-0.0867632	0.214646
-0.671881	0.175144	-0.157271
-0.375342	0.436941	0.238162
0.114274	0.237736	-0.0818376
-0.124116	-0.732352	0.0595863
-0.146534	0.622361	-0.207541
-0.736488	0.0177894	-0.0804486
0.011398	-0.735487	-0.0836922
-0.626261	0.204694	-0.193034
0.0732176	-0.515326	-0.249158
-0.648206	-0.0810078	-0.197522
-0.589162	0.245959	0.208168
0.170136	0.316716	0.206799
-0.261079	-0.314395	0.232718
-0.51084	-0.286301	-0.234889
-0.297819	0.232504	0.218115
-0.386938	-0.11571	0.230779
-0.513378	0.140965	0.247894
0.12873	-0.234435	-0.0917718
-0.558136	0.484496	0.073051
-0.0203985	-0.283025	-0.125458
0.713978	-0.203572	0.0610466
-0.400572	-0.278263	-0.249699
0.00592103	-0.249984	-0.00519414
-0.259164	0.703156	-0.0173685
0.271212	-0.604705	0.189778
-0.166539	-0.266586	0.167411
0.511653	-0.207096	-0.244537
-0.665146	0.260477	0.128695
0.317636	0.452084	-0.244422
-0.502752	0.524389	0.105907
0.172373	-0.183936	-0.0321911
0.03981	-0.282238	-0.127626
-0.719694	0.0375244	-0.11749
0.709112	-0.0264345	-0.136257
-0.662156	0.218334	-0.153632
-0.609043	0.0544035	-0.223774
-0.0541197	0.747437	-0.0173944
-0.152799	0.309122	0.196012
-0.162883	-0.19902	-0.0594715
-0.432389	-0.249226	-0.249998
