# persistence landscape
# X Y
"layer 0:"
-inf 0
0.0685336 0
0.0688164 0.000282788
0.0690992 0
0.0692711 0
0.0717037 0.00243251
0.0726479 0.00148825
0.0726981 0.00153838
0.0736596 0.000576792
0.0747572 0.00167439
0.0764316 0
0.0845162 0
0.0909037 0.00638756
0.0950558 0.00223552
0.106782 0.0139614
0.115211 0.00553236
0.128344 0.0186662
0.130152 0.0168582
0.147971 0.0346766
0.151247 0.0314007
0.154642 0.0347957
0.155542 0.0338957
0.198693 0.0770468
0.201054 0.0746857
0.225582 0.0992137
0.230486 0.0943099
0.295634 0.159458
0.455092 0
inf 0


"layer 1:"
-inf 0
0.0711597 0
0.0726479 0.00148825
0.0736095 0.000526654
0.0736596 0.000576792
0.0742364 0
0.0928203 0
0.0950558 0.00223552
0.0972913 0
0.107925 0
0.108479 0.000554522
0.109034 0
0.109678 0
0.115211 0.00553236
0.116696 0.00404698
0.117075 0.0044261
0.117398 0.00410349
0.130152 0.0168582
0.133428 0.0135823
0.151247 0.0314007
0.152147 0.0305008
0.155542 0.0338957
0.157903 0.0315346
0.201054 0.0746857
0.205958 0.0697818
0.230486 0.0943099
0.231193 0.0936027
0.28622 0.14863
0.43485 0
inf 0


"layer 2:"
-inf 0
0.0730829 0
0.0736095 0.000526654
0.0741362 0
0.112649 0
0.116696 0.00404698
0.117019 0.00372437
0.117398 0.00410349
0.11807 0.00343102
0.127913 0.0132734
0.130516 0.01067
0.133428 0.0135823
0.133937 0.0130735
0.143535 0.0226709
0.143926 0.0222798
0.152147 0.0305008
0.154508 0.0281396
0.157903 0.0315346
0.160078 0.0293595
0.16082 0.0301017
0.162289 0.0286324
0.181858 0.0482013
0.183071 0.0469881
0.185813 0.0497296
0.185859 0.0496833
0.205958 0.0697818
0.206665 0.0690746
0.231193 0.0936027
0.236859 0.0879366
0.251681 0.102759
0.35444 0
0.35829 0
0.363162 0.0048723
0.368034 0
inf 0


"layer 3:"
-inf 0
0.113294 0
0.117019 0.00372437
0.117691 0.0030519
0.11807 0.00343102
0.11994 0.00156172
0.125599 0.00722166
0.126334 0.00648754
0.130516 0.01067
0.131025 0.0101611
0.133937 0.0130735
0.134236 0.0127748
0.134386 0.0129245
0.134478 0.0128321
0.143926 0.0222798
0.14461 0.0215952
0.147508 0.0244925
0.149184 0.0228159
0.154508 0.0281396
0.156683 0.0259646
0.160078 0.0293595
0.161547 0.0278903
0.162289 0.0286324
0.163502 0.0274192
0.183071 0.0469881
0.183118 0.0469418
0.185859 0.0496833
0.185907 0.0496357
0.191725 0.0554541
0.192385 0.0547945
0.206665 0.0690746
0.212331 0.0634085
0.236859 0.0879366
0.324796 0
inf 0


"layer 4:"
-inf 0
0.114639 0
0.117691 0.0030519
0.11956 0.0011826
0.11994 0.00156172
0.120132 0.00136903
0.120177 0.00141375
0.120257 0.00133416
0.120714 0.00179137
0.121176 0.00132954
0.126334 0.00648754
0.126842 0.0059787
0.131025 0.0101611
0.131323 0.00986249
0.134236 0.0127748
0.134328 0.0126824
0.134478 0.0128321
0.135163 0.0121475
0.14461 0.0215952
0.146287 0.0199186
0.149184 0.0228159
0.150649 0.0213506
0.151256 0.0219574
0.151966 0.0212477
0.156683 0.0259646
0.158152 0.0244953
0.161547 0.0278903
0.16276 0.0266771
0.163502 0.0274192
0.163549 0.0273729
0.183118 0.0469418
0.183165 0.0468942
0.185907 0.0496357
0.186566 0.0489761
0.192385 0.0547945
0.1944 0.0527793
0.205222 0.0636012
0.208873 0.0599503
0.212331 0.0634085
0.247634 0.0281058
0.254832 0.0353039
0.290136 0
inf 0


"layer 5:"
-inf 0
0.118378 0
0.11956 0.0011826
0.119753 0.000989904
0.120132 0.00136903
0.120212 0.00128944
0.120257 0.00133416
0.120718 0.000872329
0.121176 0.00132954
0.121684 0.000821359
0.126027 0.00516421
0.126027 0.00516355
0.126842 0.0059787
0.127141 0.00568006
0.131323 0.00986249
0.131416 0.00977007
0.134328 0.0126824
0.135013 0.0119978
0.135163 0.0121475
0.136326 0.0109844
0.142822 0.0174807
0.143335 0.0169672
0.146287 0.0199186
0.147752 0.0184533
0.150649 0.0213506
0.151359 0.0206409
0.151966 0.0212477
0.153435 0.0197784
0.158152 0.0244953
0.159365 0.0232821
0.16276 0.0266771
0.162807 0.0266308
0.163549 0.0273729
0.163596 0.0273253
0.183165 0.0468942
0.183825 0.0462346
0.186566 0.0489761
0.188582 0.0469609
0.1944 0.0527793
0.197211 0.0499684
0.199291 0.0520485
0.200131 0.0512085
0.208873 0.0599503
0.244175 0.0246476
0.247634 0.0281058
0.27574 0
inf 0


"layer 6:"
-inf 0
0.118763 0
0.119753 0.000989904
0.119833 0.000910315
0.120212 0.00128944
0.120674 0.000827608
0.120718 0.000872329
0.121227 0.000364147
0.121684 0.000821359
0.121684 0.000820693
0.126027 0.00516355
0.126326 0.00486491
0.127141 0.00568006
0.127233 0.00558763
0.131416 0.00977007
0.132101 0.00908547
0.135013 0.0119978
0.136176 0.0108347
0.136326 0.0109844
0.136839 0.0104709
0.143335 0.0169672
0.144801 0.0155019
0.147752 0.0184533
0.148462 0.0177436
0.151359 0.0206409
0.152828 0.0191716
0.153435 0.0197784
0.153455 0.0197589
0.153917 0.0202208
0.15511 0.0190271
0.159365 0.0232821
0.159412 0.0232358
0.162807 0.0266308
0.162854 0.0265832
0.163596 0.0273253
0.164148 0.0267731
0.175973 0.0385974
0.17608 0.03849
0.183825 0.0462346
0.18584 0.0442194
0.188582 0.0469609
0.191392 0.0441499
0.197211 0.0499684
0.198051 0.0491284
0.200131 0.0512085
0.21953 0.0318092
0.226915 0.0391943
0.242819 0.0232909
0.244175 0.0246476
0.268823 0
inf 0


"layer 7:"
-inf 0
0.118922 0
0.119833 0.000910315
0.120295 0.000448487
0.120674 0.000827608
0.121182 0.000319426
0.121227 0.000364147
0.121227 0.000363481
0.121684 0.000820693
0.121983 0.000522052
0.126326 0.00486491
0.126418 0.00477248
0.127233 0.00558763
0.127918 0.00490303
0.132101 0.00908547
0.133264 0.00792234
0.136176 0.0108347
0.136689 0.0103212
0.136839 0.0104709
0.137167 0.0101434
0.137676 0.0106528
0.138814 0.00951494
0.144801 0.0155019
0.14551 0.0147922
0.148462 0.0177436
0.149931 0.0162743
0.152828 0.0191716
0.152848 0.0191521
0.153455 0.0197589
0.154648 0.0185652
0.15511 0.0190271
0.155157 0.0189808
0.159412 0.0232358
0.159459 0.0231882
0.162854 0.0265832
0.163406 0.026031
0.164148 0.0267731
0.164256 0.0266657
0.17608 0.03849
0.178095 0.0364748
0.18584 0.0442194
0.188651 0.0414085
0.191392 0.0441499
0.192232 0.0433099
0.198051 0.0491284
0.199994 0.0471854
0.200623 0.0478149
0.21808 0.0303586
0.21953 0.0318092
0.220578 0.0307614
0.225131 0.0353141
0.239986 0.0204585
0.242819 0.0232909
0.26611 0
inf 0


"layer 8:"
-inf 0
0.119846 0
0.120295 0.000448487
0.120743 0
0.120862 0
0.121182 0.000319426
0.121182 0.00031876
0.121227 0.000363481
0.121526 6.48404e-05
0.121983 0.000522052
0.122075 0.000429628
0.126418 0.00477248
0.127103 0.00408788
0.127918 0.00490303
0.129081 0.0037399
0.133264 0.00792234
0.133777 0.00740889
0.136689 0.0103212
0.137017 0.00999373
0.137167 0.0101434
0.138304 0.00900558
0.138814 0.00951494
0.139524 0.00880524
0.14551 0.0147922
0.146899 0.0134036
0.147513 0.0140176
0.147594 0.013937
0.149931 0.0162743
0.149951 0.0162548
0.152848 0.0191521
0.154042 0.0179584
0.154648 0.0185652
0.154695 0.0185189
0.155157 0.0189808
0.155204 0.0189333
0.159459 0.0231882
0.159481 0.0231662
0.159849 0.0235346
0.16038 0.0230043
0.163406 0.026031
0.163514 0.0259236
0.164256 0.0266657
0.165999 0.0249228
0.167399 0.0263231
0.167671 0.0260508
0.178095 0.0364748
0.180906 0.0336639
0.188651 0.0414085
0.189491 0.0405685
0.192232 0.0433099
0.194175 0.041367
0.199994 0.0471854
0.21745 0.0297291
0.21808 0.0303586
0.219128 0.0293107
0.220578 0.0307614
0.235434 0.0159059
0.239986 0.0204585
0.260445 0
inf 0


"layer 9:"
-inf 0
0.120864 0
0.121182 0.00031876
0.121481 2.01193e-05
0.121526 6.48404e-05
0.121591 0
0.121646 0
0.122075 0.000429628
0.122505 0
0.123015 0
0.127103 0.00408788
0.128266 0.00292476
0.129081 0.0037399
0.129595 0.00322646
0.133777 0.00740889
0.134105 0.0070814
0.137017 0.00999373
0.138155 0.00885589
0.138304 0.00900558
0.139014 0.00829589
0.139524 0.00880524
0.14037 0.00795925
0.143797 0.0113871
0.14434 0.0108445
0.146899 0.0134036
0.14698 0.0133229
0.147594 0.013937
0.147613 0.0139175
0.149951 0.0162548
0.151144 0.0150611
0.154042 0.0179584
0.154088 0.0179121
0.154695 0.0185189
0.154742 0.0184713
0.155204 0.0189333
0.155226 0.0189113
0.159481 0.0231662
0.160011 0.022636
0.16038 0.0230043
0.160487 0.0228969
0.163514 0.0259236
0.165257 0.0241806
0.165999 0.0249228
0.166271 0.0246505
0.167671 0.0260508
0.169241 0.0244817
0.179338 0.0345793
0.18058 0.0333375
0.180906 0.0336639
0.181746 0.0328239
0.189491 0.0405685
0.191434 0.0386255
0.194175 0.041367
0.194995 0.0405469
0.195785 0.0413368
0.210991 0.0261312
0.215313 0.0304528
0.216743 0.0290221
0.21745 0.0297291
0.218498 0.0286812
0.219128 0.0293107
0.233983 0.0144552
0.235434 0.0159059
0.25134 0
inf 0


"layer 10:"
-inf 0
0.121461 0
0.121481 2.01193e-05
0.121501 0
0.123564 0
0.126707 0.00314317
0.127596 0.00225447
0.128266 0.00292476
0.128303 0.00288732
0.128345 0.00292888
0.128821 0.00245287
0.129595 0.00322646
0.129922 0.00289896
0.134105 0.0070814
0.135184 0.0060018
0.135895 0.00671262
0.135953 0.00665437
0.138155 0.00885589
0.138864 0.0081462
0.139014 0.00829589
0.13986 0.00744989
0.14037 0.00795925
0.140912 0.00741662
0.14434 0.0108445
0.144421 0.0107638
0.14698 0.0133229
0.146999 0.0133034
0.147613 0.0139175
0.148807 0.0127238
0.151144 0.0150611
0.151191 0.0150148
0.154088 0.0179121
0.154136 0.0178645
0.154742 0.0184713
0.154764 0.0184494
0.155226 0.0189113
0.155756 0.018381
0.160011 0.022636
0.160119 0.0225286
0.160487 0.0228969
0.16223 0.021154
0.165257 0.0241806
0.165529 0.0239084
0.166271 0.0246505
0.166765 0.0241564
0.167328 0.0247194
0.168403 0.0236444
0.169241 0.0244817
0.170482 0.0232399
0.18058 0.0333375
0.18142 0.0324975
0.181746 0.0328239
0.182441 0.0321295
0.190158 0.039847
0.191407 0.0385984
0.191434 0.0386255
0.192254 0.0378055
0.194995 0.0405469
0.195626 0.0399162
0.195768 0.0400582
0.210343 0.0254833
0.210991 0.0261312
0.212422 0.0247005
0.216743 0.0290221
0.217791 0.0279743
0.218498 0.0286812
0.218708 0.0284717
0.218848 0.0286119
0.233494 0.0139659
0.233983 0.0144552
0.248438 0
inf 0


"layer 11:"
-inf 0
0.12367 0
0.124971 0.0013018
0.125807 0.000465984
0.127596 0.00225447
0.127633 0.00221703
0.128303 0.00288732
0.12878 0.00241131
0.128821 0.00245287
0.129149 0.00212538
0.129922 0.00289896
0.131002 0.00181936
0.135184 0.0060018
0.135242 0.00594355
0.135953 0.00665437
0.13652 0.00608808
0.136936 0.00650435
0.137079 0.00636096
0.138864 0.0081462
0.13971 0.0073002
0.13986 0.00744989
0.140403 0.00690726
0.140912 0.00741662
0.140993 0.00733596
0.144421 0.0107638
0.14444 0.0107443
0.146999 0.0133034
0.148193 0.0121097
0.148807 0.0127238
0.148853 0.0126775
0.151191 0.0150148
0.151238 0.0149672
0.154136 0.0178645
0.154157 0.0178426
0.154764 0.0184494
0.155295 0.0179191
0.155756 0.018381
0.155864 0.0182736
0.160119 0.0225286
0.161862 0.0207857
0.16223 0.021154
0.162502 0.0208817
0.165529 0.0239084
0.166023 0.0234142
0.166765 0.0241564
0.16784 0.0230813
0.168403 0.0236444
0.168846 0.0232021
0.168983 0.0233397
0.169783 0.0225402
0.170482 0.0232399
0.171322 0.0223999
0.18142 0.0324975
0.182114 0.0318032
0.182441 0.0321295
0.183689 0.0308809
0.191407 0.0385984
0.192227 0.0377783
0.192254 0.0378055
0.192885 0.0371747
0.195626 0.0399162
0.210201 0.0253413
0.210343 0.0254833
0.211774 0.0240526
0.212422 0.0247005
0.213469 0.0236527
0.217791 0.0279743
0.218001 0.0277648
0.218708 0.0284717
0.233354 0.0138257
0.233494 0.0139659
0.24746 0
inf 0


"layer 12:"
-inf 0
0.125341 0
0.125807 0.000465984
0.125845 0.000428544
0.127633 0.00221703
0.128109 0.00174103
0.12878 0.00241131
0.129107 0.00208381
0.129149 0.00212538
0.130228 0.00104578
0.131002 0.00181936
0.13106 0.00176112
0.135242 0.00594355
0.135809 0.00537726
0.13652 0.00608808
0.136663 0.00594468
0.137079 0.00636096
0.137925 0.00551496
0.13971 0.0073002
0.140253 0.00675757
0.140403 0.00690726
0.140483 0.0068266
0.140993 0.00733596
0.141012 0.00731647
0.14444 0.0107443
0.145634 0.00955063
0.148193 0.0121097
0.148239 0.0120634
0.148853 0.0126775
0.148901 0.0126299
0.151238 0.0149672
0.15126 0.0149453
0.154157 0.0178426
0.154688 0.0173123
0.155295 0.0179191
0.155402 0.0178117
0.155864 0.0182736
0.157607 0.0165307
0.161862 0.0207857
0.162134 0.0205134
0.162502 0.0208817
0.162996 0.0203876
0.166023 0.0234142
0.167098 0.0223392
0.16784 0.0230813
0.168283 0.022639
0.168846 0.0232021
0.169645 0.0224026
0.169783 0.0225402
0.170623 0.0217002
0.171322 0.0223999
0.172017 0.0217055
0.182114 0.0318032
0.183363 0.0305546
0.183689 0.0308809
0.184509 0.0300608
0.192227 0.0377783
0.192858 0.0371476
0.192885 0.0371747
0.20746 0.0225999
0.210201 0.0253413
0.211632 0.0239106
0.211774 0.0240526
0.212822 0.0230048
0.213469 0.0236527
0.213679 0.0234432
0.218001 0.0277648
0.232647 0.0131187
0.233354 0.0138257
0.247179 0
inf 0


"layer 13:"
-inf 0
0.125416 0
0.125845 0.000428544
0.126273 0
0.126368 0
0.128109 0.00174103
0.128437 0.00141353
0.129107 0.00208381
0.130187 0.00100421
0.130228 0.00104578
0.130286 0.000987531
0.13106 0.00176112
0.131626 0.00119482
0.135809 0.00537726
0.135952 0.00523386
0.136663 0.00594468
0.137509 0.00509869
0.137925 0.00551496
0.138468 0.00497233
0.140253 0.00675757
0.140334 0.00667691
0.140483 0.0068266
0.140503 0.00680711
0.141012 0.00731647
0.142206 0.00612276
0.145634 0.00955063
0.14568 0.00950433
0.148239 0.0120634
0.148287 0.0120158
0.148901 0.0126299
0.148923 0.0126079
0.15126 0.0149453
0.15179 0.014415
0.154688 0.0173123
0.154795 0.0172049
0.155402 0.0178117
0.157145 0.0160688
0.157607 0.0165307
0.157879 0.0162584
0.162134 0.0205134
0.162628 0.0200193
0.162996 0.0203876
0.164072 0.0193126
0.167098 0.0223392
0.16754 0.0218969
0.168283 0.022639
0.169082 0.0218395
0.169645 0.0224026
0.170485 0.0215626
0.170623 0.0217002
0.171317 0.0210058
0.172017 0.0217055
0.173265 0.0204569
0.183363 0.0305546
0.184183 0.0297345
0.184509 0.0300608
0.18514 0.0294301
0.192858 0.0371476
0.207433 0.0225727
0.20746 0.0225999
0.207886 0.0221733
0.208171 0.022458
0.209175 0.0214539
0.211632 0.0239106
0.21268 0.0228628
0.212822 0.0230048
0.213031 0.0227953
0.213679 0.0234432
0.219701 0.0174207
0.220249 0.0179681
0.22861 0.00960731
0.230944 0.0119412
0.231206 0.0116784
0.232647 0.0131187
0.245765 0
inf 0


"layer 14:"
-inf 0
0.12694 0
0.127822 0.000882334
0.127864 0.000840819
0.128437 0.00141353
0.129516 0.00033393
0.130187 0.00100421
0.130245 0.000945969
0.130286 0.000987531
0.130853 0.000421233
0.131626 0.00119482
0.13177 0.00105142
0.135952 0.00523386
0.136798 0.00438787
0.137509 0.00509869
0.138052 0.00455606
0.138468 0.00497233
0.138549 0.00489167
0.140334 0.00667691
0.140353 0.00665743
0.140503 0.00680711
0.141697 0.0056134
0.142206 0.00612276
0.142252 0.00607647
0.14568 0.00950433
0.145728 0.00945674
0.148287 0.0120158
0.148309 0.0119939
0.148923 0.0126079
0.149453 0.0120777
0.15179 0.014415
0.151898 0.0143076
0.154795 0.0172049
0.156538 0.015462
0.157145 0.0160688
0.157417 0.0157965
0.157879 0.0162584
0.158373 0.0157643
0.162628 0.0200193
0.163703 0.0189442
0.164072 0.0193126
0.164514 0.0188703
0.16754 0.0218969
0.16834 0.0210974
0.169082 0.0218395
0.169922 0.0209995
0.170485 0.0215626
0.171179 0.0208682
0.171317 0.0210058
0.172566 0.0197573
0.173265 0.0204569
0.174085 0.0196369
0.184183 0.0297345
0.184814 0.0291038
0.18514 0.0294301
0.185725 0.0288457
0.18871 0.0318307
0.2027 0.0178403
0.207433 0.0225727
0.207859 0.0221462
0.207886 0.0221733
0.20889 0.0211692
0.209175 0.0214539
0.210223 0.0204061
0.21268 0.0228628
0.212889 0.0226533
0.213031 0.0227953
0.219054 0.0167728
0.219701 0.0174207
0.228062 0.00905988
0.22861 0.00960731
0.228872 0.00934457
0.231206 0.0116784
0.242885 0
inf 0


"layer 15:"
-inf 0
0.127023 0
0.127864 0.000840819
0.128705 0
0.129182 0
0.129516 0.00033393
0.129575 0.000275685
0.130245 0.000945969
0.130811 0.000379671
0.130853 0.000421233
0.130996 0.000277838
0.13177 0.00105142
0.132616 0.000205429
0.136798 0.00438787
0.137341 0.00384524
0.138052 0.00455606
0.138132 0.00447539
0.138549 0.00489167
0.138568 0.00487218
0.140353 0.00665743
0.141547 0.00546371
0.141697 0.0056134
0.141743 0.00556711
0.142252 0.00607647
0.1423 0.00602888
0.145728 0.00945674
0.14575 0.00943479
0.148309 0.0119939
0.148839 0.0114636
0.149453 0.0120777
0.149561 0.0119703
0.151898 0.0143076
0.153641 0.0125647
0.156538 0.015462
0.15681 0.0151897
0.157417 0.0157965
0.157911 0.0153024
0.158373 0.0157643
0.159448 0.0146893
0.163703 0.0189442
0.164145 0.0185019
0.164514 0.0188703
0.165313 0.0180708
0.16834 0.0210974
0.16918 0.0202574
0.169922 0.0209995
0.170616 0.0203051
0.171179 0.0208682
0.172428 0.0196196
0.172566 0.0197573
0.173386 0.0189372
0.174085 0.0196369
0.174716 0.0190061
0.184814 0.0291038
0.185398 0.0285193
0.185725 0.0288457
0.189466 0.0251038
0.191426 0.027063
0.201674 0.0168145
0.2027 0.0178403
0.203127 0.0174137
0.207859 0.0221462
0.208863 0.0211421
0.20889 0.0211692
0.209938 0.0201213
0.210223 0.0204061
0.210432 0.0201966
0.212889 0.0226533
0.218912 0.0166308
0.219054 0.0167728
0.227414 0.00841199
0.228062 0.00905988
0.228325 0.00879714
0.228872 0.00934457
0.238217 0
inf 0


"layer 16:"
-inf 0
0.129299 0
0.129575 0.000275685
0.12985 0
0.130431 0
0.130811 0.000379671
0.130955 0.000236275
0.130996 0.000277838
0.131274 0
0.13241 0
0.132616 0.000205429
0.132821 0
0.133496 0
0.137341 0.00384524
0.137421 0.00376457
0.138132 0.00447539
0.138152 0.00445591
0.138568 0.00487218
0.139762 0.00367847
0.141547 0.00546371
0.141593 0.00541742
0.141743 0.00556711
0.141791 0.00551952
0.1423 0.00602888
0.142322 0.00600693
0.14575 0.00943479
0.14628 0.00890454
0.148839 0.0114636
0.148946 0.0113562
0.149561 0.0119703
0.151303 0.0102274
0.153641 0.0125647
0.153913 0.0122924
0.15681 0.0151897
0.157304 0.0146956
0.157911 0.0153024
0.158986 0.0142273
0.159448 0.0146893
0.159794 0.0143431
0.162936 0.0174843
0.163032 0.0173882
0.164145 0.0185019
0.164945 0.0177024
0.165313 0.0180708
0.166153 0.0172308
0.16918 0.0202574
0.169874 0.019563
0.170616 0.0203051
0.171865 0.0190566
0.172428 0.0196196
0.173248 0.0187996
0.173386 0.0189372
0.174016 0.0183065
0.174716 0.0190061
0.175301 0.0184217
0.185398 0.0285193
0.18914 0.0247775
0.189466 0.0251038
0.199715 0.0148552
0.201674 0.0168145
0.202101 0.0163879
0.203127 0.0174137
0.204131 0.0164096
0.208863 0.0211421
0.209911 0.0200942
0.209938 0.0201213
0.210148 0.0199118
0.210432 0.0201966
0.216455 0.014174
0.218912 0.0166308
0.227272 0.00827
0.227414 0.00841199
0.227677 0.00814925
0.228325 0.00879714
0.237122 0
inf 0


"layer 17:"
-inf 0
0.130718 0
0.130955 0.000236275
0.131191 0
0.133657 0
0.137421 0.00376457
0.137441 0.00374509
0.138152 0.00445591
0.139345 0.0032622
0.139762 0.00367847
0.139808 0.00363218
0.141593 0.00541742
0.141641 0.00536983
0.141791 0.00551952
0.141812 0.00549757
0.142322 0.00600693
0.142852 0.00547667
0.14628 0.00890454
0.146387 0.00879714
0.148946 0.0113562
0.150689 0.00961331
0.151303 0.0102274
0.151576 0.00995509
0.153913 0.0122924
0.154407 0.0117983
0.157304 0.0146956
0.158379 0.0136206
0.158986 0.0142273
0.159332 0.0138812
0.159794 0.0143431
0.159891 0.014247
0.163032 0.0173882
0.163831 0.0165887
0.164945 0.0177024
0.165785 0.0168624
0.166153 0.0172308
0.166848 0.0165364
0.169874 0.019563
0.171123 0.0183144
0.171865 0.0190566
0.172685 0.0182365
0.173248 0.0187996
0.173879 0.0181688
0.174016 0.0183065
0.174601 0.017722
0.175301 0.0184217
0.176588 0.0171343
0.178339 0.0188858
0.180794 0.0164312
0.18914 0.0247775
0.190547 0.0233711
0.190847 0.0236715
0.199689 0.0148293
0.199715 0.0148552
0.200142 0.0144287
0.202101 0.0163879
0.203105 0.0153838
0.204131 0.0164096
0.205179 0.0153618
0.209911 0.0200942
0.210121 0.0198847
0.210148 0.0199118
0.211707 0.0183528
0.211799 0.0184453
0.216263 0.0139817
0.216455 0.014174
0.220672 0.00995707
0.221663 0.0109481
0.225807 0.00680427
0.227272 0.00827
0.227535 0.00800726
0.227677 0.00814925
0.235826 0
inf 0


"layer 18:"
-inf 0
0.133696 0
0.137441 0.00374509
0.138635 0.00255138
0.139345 0.0032622
0.139392 0.00321591
0.139808 0.00363218
0.139856 0.00358459
0.141641 0.00536983
0.141663 0.00534788
0.141812 0.00549757
0.142343 0.00496731
0.142852 0.00547667
0.142959 0.00536927
0.146387 0.00879714
0.14813 0.00705421
0.150689 0.00961331
0.150962 0.00934103
0.151576 0.00995509
0.15207 0.00946096
0.154407 0.0117983
0.155482 0.0107233
0.158379 0.0136206
0.158726 0.0132744
0.159332 0.0138812
0.159429 0.013785
0.159891 0.014247
0.16069 0.0134475
0.163831 0.0165887
0.164671 0.0157487
0.165785 0.0168624
0.166479 0.016168
0.166848 0.0165364
0.168096 0.0152878
0.171123 0.0183144
0.171943 0.0174944
0.172685 0.0182365
0.173316 0.0176058
0.173879 0.0181688
0.174463 0.0175844
0.174601 0.017722
0.175888 0.0164347
0.176588 0.0171343
0.179043 0.0146798
0.180794 0.0164312
0.1822 0.0150249
0.190547 0.0233711
0.199389 0.0145289
0.199689 0.0148293
0.200116 0.0144028
0.200142 0.0144287
0.201146 0.0134246
0.203105 0.0153838
0.204153 0.014336
0.205179 0.0153618
0.205388 0.0151523
0.210121 0.0198847
0.21168 0.0183257
0.211707 0.0183528
0.21617 0.0138893
0.216263 0.0139817
0.22048 0.00976477
0.220672 0.00995707
0.224816 0.00581327
0.225807 0.00680427
0.226069 0.00654153
0.227535 0.00800726
0.235542 0
inf 0


"layer 19:"
-inf 0
0.136083 0
0.138635 0.00255138
0.138681 0.00250509
0.139392 0.00321591
0.139439 0.00316832
0.139856 0.00358459
0.139878 0.00356264
0.141663 0.00534788
0.142193 0.00481762
0.142343 0.00496731
0.14245 0.00485991
0.142959 0.00536927
0.144379 0.00394934
0.146673 0.00624251
0.146996 0.00591951
0.14813 0.00705421
0.148403 0.00678193
0.150962 0.00934103
0.151456 0.00884691
0.15207 0.00946096
0.153145 0.00838594
0.155482 0.0107233
0.155828 0.0103771
0.158726 0.0132744
0.158822 0.0131782
0.159429 0.013785
0.160228 0.0129855
0.16069 0.0134475
0.16153 0.0126075
0.164671 0.0157487
0.165366 0.0150543
0.166479 0.016168
0.167728 0.0149195
0.168096 0.0152878
0.168916 0.0144678
0.171943 0.0174944
0.172574 0.0168637
0.173316 0.0176058
0.1739 0.0170213
0.174463 0.0175844
0.175751 0.016297
0.175888 0.0164347
0.178343 0.0139801
0.179043 0.0146798
0.179177 0.0145449
0.180021 0.0153889
0.181293 0.0141174
0.1822 0.0150249
0.183483 0.013742
0.187216 0.0174749
0.188993 0.0156976
0.191391 0.018095
0.197173 0.012313
0.199389 0.0145289
0.199815 0.0141024
0.200116 0.0144028
0.20112 0.0133987
0.201146 0.0134246
0.202194 0.0123767
0.204153 0.014336
0.204362 0.0141265
0.205388 0.0151523
0.206947 0.0135933
0.21168 0.0183257
0.216143 0.0138622
0.21617 0.0138893
0.220387 0.00967235
0.22048 0.00976477
0.224623 0.00562096
0.224816 0.00581327
0.225078 0.00555053
0.226069 0.00654153
0.232611 0
inf 0


"layer 20:"
-inf 0
0.136176 0
0.138681 0.00250509
0.138728 0.00245749
0.139439 0.00316832
0.139461 0.00314637
0.139878 0.00356264
0.140408 0.00303238
0.142193 0.00481762
0.1423 0.00471022
0.14245 0.00485991
0.14387 0.00343998
0.144379 0.00394934
0.144702 0.00362635
0.146996 0.00591951
0.147268 0.00564723
0.148403 0.00678193
0.148897 0.00628781
0.151456 0.00884691
0.152531 0.00777188
0.153145 0.00838594
0.153491 0.00803976
0.155828 0.0103771
0.155925 0.0102809
0.158822 0.0131782
0.159621 0.0123788
0.160228 0.0129855
0.161068 0.0121455
0.16153 0.0126075
0.162224 0.0119131
0.165366 0.0150543
0.166614 0.0138057
0.167728 0.0149195
0.168548 0.0140994
0.168916 0.0144678
0.169547 0.013837
0.172574 0.0168637
0.173158 0.0162792
0.1739 0.0170213
0.175188 0.015734
0.175751 0.016297
0.178205 0.0138425
0.178343 0.0139801
0.178478 0.0138452
0.179177 0.0145449
0.180449 0.0132734
0.181293 0.0141174
0.182576 0.0128346
0.183483 0.013742
0.183888 0.0133377
0.186907 0.016357
0.18828 0.014984
0.188993 0.0156976
0.192829 0.0118618
0.194755 0.0137875
0.196701 0.0118413
0.197173 0.012313
0.197599 0.0118865
0.199815 0.0141024
0.200819 0.0130982
0.20112 0.0133987
0.202168 0.0123508
0.202194 0.0123767
0.202403 0.0121672
0.204362 0.0141265
0.205921 0.0125674
0.206947 0.0135933
0.211411 0.00912975
0.216143 0.0138622
0.22036 0.00964524
0.220387 0.00967235
0.224531 0.00552855
0.224623 0.00562096
0.224886 0.00535822
0.225078 0.00555053
0.230629 0
inf 0


"layer 21:"
-inf 0
0.136271 0
0.138728 0.00245749
0.13875 0.00243554
0.139461 0.00314637
0.139992 0.00261611
0.140408 0.00303238
0.140515 0.00292498
0.1423 0.00471022
0.14372 0.00329029
0.14387 0.00343998
0.144193 0.00311699
0.144702 0.00362635
0.144907 0.00342196
0.145882 0.00439745
0.14595 0.00432955
0.147268 0.00564723
0.147762 0.00515311
0.148897 0.00628781
0.149972 0.00521278
0.152531 0.00777188
0.152877 0.0074257
0.153491 0.00803976
0.153587 0.00794362
0.155925 0.0102809
0.155959 0.0102463
0.158164 0.0124515
0.158929 0.0116867
0.159621 0.0123788
0.160461 0.0115388
0.161068 0.0121455
0.161762 0.0114511
0.162224 0.0119131
0.163473 0.0106645
0.166614 0.0138057
0.167434 0.0129857
0.168548 0.0140994
0.169179 0.0134687
0.169547 0.013837
0.170132 0.0132526
0.173158 0.0162792
0.174445 0.0149919
0.175188 0.015734
0.177642 0.0132794
0.178205 0.0138425
0.17834 0.0137076
0.178478 0.0138452
0.179749 0.0125738
0.180449 0.0132734
0.181732 0.0119906
0.182576 0.0128346
0.18298 0.0124302
0.183888 0.0133377
0.185261 0.0119647
0.18828 0.014984
0.192116 0.0111482
0.192829 0.0118618
0.194775 0.00991562
0.196701 0.0118413
0.197128 0.0114148
0.197599 0.0118865
0.198603 0.0108823
0.200819 0.0130982
0.201867 0.0120504
0.202168 0.0123508
0.202377 0.0121413
0.202403 0.0121672
0.203962 0.0106082
0.205921 0.0125674
0.210385 0.00810393
0.211411 0.00912975
0.211868 0.00867222
0.215323 0.0121273
0.219083 0.00836787
0.22036 0.00964524
0.224504 0.00550143
0.224531 0.00552855
0.224794 0.00526581
0.224886 0.00535822
0.230244 0
inf 0


"layer 22:"
-inf 0
0.136315 0
0.13875 0.00243554
0.139281 0.00190529
0.139992 0.00261611
0.140099 0.00250871
0.140515 0.00292498
0.141196 0.00224424
0.141825 0.00287362
0.142565 0.00213443
0.14372 0.00329029
0.144043 0.0029673
0.144193 0.00311699
0.144397 0.0029126
0.144907 0.00342196
0.144975 0.00335406
0.14595 0.00432955
0.146444 0.00383543
0.147762 0.00515311
0.148837 0.00407808
0.149972 0.00521278
0.150318 0.0048666
0.152877 0.0074257
0.152973 0.00732956
0.153587 0.00794362
0.153622 0.00790897
0.155959 0.0102463
0.156724 0.00948147
0.158929 0.0116867
0.159769 0.0108467
0.160461 0.0115388
0.161156 0.0108444
0.161762 0.0114511
0.163011 0.0102026
0.163473 0.0106645
0.164293 0.00984446
0.167434 0.0129857
0.168065 0.012355
0.169179 0.0134687
0.169763 0.0128842
0.170132 0.0132526
0.171419 0.0119652
0.174445 0.0149919
0.1769 0.0125373
0.177642 0.0132794
0.177777 0.0131446
0.17834 0.0137076
0.179612 0.0124361
0.179749 0.0125738
0.181032 0.0112909
0.181732 0.0119906
0.182136 0.0115862
0.18298 0.0124302
0.184353 0.0110572
0.185261 0.0119647
0.189096 0.00812889
0.192116 0.0111482
0.194062 0.009202
0.194775 0.00991562
0.195202 0.00948907
0.197128 0.0114148
0.198132 0.0104107
0.198603 0.0108823
0.199651 0.00983451
0.201867 0.0120504
0.202077 0.0118409
0.202377 0.0121413
0.203936 0.0105823
0.203962 0.0106082
0.204448 0.0101218
0.205705 0.0113784
0.209491 0.00759233
0.20976 0.00786074
0.209951 0.00766973
0.210385 0.00810393
0.210842 0.0076464
0.211868 0.00867222
0.215628 0.00491278
0.219083 0.00836787
0.223226 0.00422407
0.224504 0.00550143
0.224767 0.00523869
0.224794 0.00526581
0.230059 0
inf 0


"layer 23:"
-inf 0
0.137375 0
0.139281 0.00190529
0.139388 0.00179789
0.140099 0.00250871
0.14078 0.00182796
0.141196 0.00224424
0.141935 0.00150505
0.142565 0.00213443
0.142887 0.00181144
0.144043 0.0029673
0.144248 0.00276292
0.144397 0.0029126
0.144465 0.00284471
0.144975 0.00335406
0.145469 0.00285994
0.146444 0.00383543
0.147519 0.0027604
0.148837 0.00407808
0.149183 0.00373191
0.150318 0.0048666
0.150414 0.00477046
0.152973 0.00732956
0.153008 0.00729491
0.153622 0.00790897
0.154387 0.00714414
0.156724 0.00948147
0.157564 0.00864147
0.159769 0.0108467
0.160464 0.0101523
0.161156 0.0108444
0.162404 0.00959579
0.163011 0.0102026
0.163831 0.00938252
0.164293 0.00984446
0.164924 0.00921374
0.168065 0.012355
0.168649 0.0117705
0.169763 0.0128842
0.171051 0.0115969
0.171419 0.0119652
0.173873 0.00951069
0.1769 0.0125373
0.177035 0.0124024
0.177777 0.0131446
0.179048 0.0118731
0.179612 0.0124361
0.180894 0.0111533
0.181032 0.0112909
0.181436 0.0108865
0.182136 0.0115862
0.183509 0.0102132
0.184353 0.0110572
0.188189 0.00722142
0.189096 0.00812889
0.191042 0.00618271
0.194062 0.009202
0.194488 0.00877546
0.195202 0.00948907
0.196206 0.00848494
0.198132 0.0104107
0.19918 0.00936282
0.199651 0.00983451
0.199861 0.00962501
0.202077 0.0118409
0.203636 0.0102819
0.203936 0.0105823
0.204423 0.0100959
0.204448 0.0101218
0.206674 0.00789623
0.206704 0.00792604
0.208264 0.00636553
0.209491 0.00759233
0.209682 0.00740132
0.209951 0.00766973
0.210408 0.00721219
0.210842 0.0076464
0.214602 0.00388696
0.215628 0.00491278
0.219335 0.00120528
0.221815 0.00368539
0.222251 0.00324908
0.223226 0.00422407
0.223489 0.00396133
0.224767 0.00523869
0.230005 0
inf 0


"layer 24:"
-inf 0
0.13759 0
0.139388 0.00179789
0.140069 0.00111714
0.14078 0.00182796
0.141519 0.00108877
0.141935 0.00150505
0.142258 0.00118206
0.142887 0.00181144
0.143092 0.00160705
0.144248 0.00276292
0.144316 0.00269502
0.144465 0.00284471
0.144959 0.00235059
0.145469 0.00285994
0.146544 0.00178492
0.147519 0.0027604
0.147866 0.00241423
0.149183 0.00373191
0.149279 0.00363576
0.150414 0.00477046
0.150449 0.00473581
0.153008 0.00729491
0.153773 0.00653008
0.154387 0.00714414
0.155227 0.00630414
0.157564 0.00864147
0.158258 0.00794707
0.160464 0.0101523
0.161712 0.0089037
0.162404 0.00959579
0.163224 0.00877573
0.163831 0.00938252
0.164462 0.0087518
0.164924 0.00921374
0.165508 0.00862929
0.168649 0.0117705
0.169937 0.0104832
0.171051 0.0115969
0.173505 0.00914233
0.173873 0.00951069
0.174008 0.00937581
0.177035 0.0124024
0.178306 0.011131
0.179048 0.0118731
0.180331 0.0105902
0.180894 0.0111533
0.181299 0.0107489
0.181436 0.0108865
0.182211 0.0101117
0.182867 0.010767
0.183465 0.0101688
0.183509 0.0102132
0.187345 0.00637745
0.188189 0.00722142
0.190135 0.00527525
0.191042 0.00618271
0.191469 0.00575617
0.194488 0.00877546
0.195167 0.00809673
0.195825 0.00875421
0.19615 0.00842882
0.196206 0.00848494
0.197254 0.00743711
0.19918 0.00936282
0.199389 0.00915332
0.199861 0.00962501
0.201166 0.00831938
0.203042 0.0101952
0.203296 0.00994181
0.203636 0.0102819
0.204122 0.00979552
0.204423 0.0100959
0.206648 0.00787034
0.206674 0.00789623
0.208235 0.00633571
0.208264 0.00636553
0.208455 0.00617451
0.209682 0.00740132
0.21014 0.00694379
0.210408 0.00721219
0.214168 0.00345276
0.214602 0.00388696
0.218309 0.000179472
0.219335 0.00120528
0.219771 0.000768972
0.222251 0.00324908
0.222514 0.00298633
0.223489 0.00396133
0.227451 0
inf 0


"layer 25:"
-inf 0
0.138952 0
0.140069 0.00111714
0.140808 0.000377954
0.141519 0.00108877
0.141842 0.000765783
0.142258 0.00118206
0.142462 0.000977674
0.143092 0.00160705
0.14316 0.00153916
0.144316 0.00269502
0.14481 0.0022009
0.144959 0.00235059
0.146034 0.00127556
0.146544 0.00178492
0.14689 0.00143874
0.147866 0.00241423
0.147962 0.00231808
0.149279 0.00363576
0.149314 0.00360111
0.150449 0.00473581
0.151213 0.00397098
0.153773 0.00653008
0.154613 0.00569008
0.155227 0.00630414
0.155921 0.00560974
0.158258 0.00794707
0.159507 0.0066985
0.161712 0.0089037
0.162532 0.00808364
0.163224 0.00877573
0.163855 0.00814501
0.164462 0.0087518
0.164707 0.0085071
0.164918 0.00871874
0.165258 0.00837898
0.165508 0.00862929
0.16569 0.00844764
0.168321 0.0110789
0.169427 0.00997321
0.169937 0.0104832
0.172391 0.00802862
0.173505 0.00914233
0.17364 0.00900745
0.174008 0.00937581
0.17528 0.00810433
0.178306 0.011131
0.179589 0.00984811
0.180331 0.0105902
0.180736 0.0101859
0.181299 0.0107489
0.182074 0.00997404
0.182211 0.0101117
0.182809 0.00951356
0.183465 0.0101688
0.1873 0.00633305
0.187345 0.00637745
0.189291 0.00443127
0.190135 0.00527525
0.190562 0.0048487
0.191469 0.00575617
0.192148 0.00507743
0.195167 0.00809673
0.195492 0.00777133
0.19615 0.00842882
0.197198 0.00738098
0.197254 0.00743711
0.197463 0.00722761
0.199389 0.00915332
0.200695 0.00784769
0.201166 0.00831938
0.20142 0.008066
0.203296 0.00994181
0.203782 0.00945543
0.204122 0.00979552
0.206348 0.00756992
0.206648 0.00787034
0.208209 0.00630982
0.208235 0.00633571
0.208426 0.0061447
0.208455 0.00617451
0.208913 0.00571698
0.21014 0.00694379
0.213899 0.00318435
0.214168 0.00345276
0.21762 0
0.21813 0
0.218309 0.000179472
0.218489 0
0.219002 0
0.219771 0.000768972
0.220034 0.000506232
0.222514 0.00298633
0.224786 0.000714694
0.225612 0.00154043
0.227152 0
inf 0


"layer 26:"
-inf 0
0.14043 0
0.140808 0.000377954
0.141131 5.49617e-05
0.141842 0.000765783
0.142046 0.000561399
0.142462 0.000977674
0.14253 0.000909776
0.14316 0.00153916
0.143654 0.00104504
0.14481 0.0022009
0.145885 0.00112587
0.146034 0.00127556
0.146381 0.00092938
0.14689 0.00143874
0.146986 0.0013426
0.147962 0.00231808
0.147996 0.00228343
0.149314 0.00360111
0.150079 0.00283629
0.151213 0.00397098
0.152053 0.00313098
0.154613 0.00569008
0.155307 0.00499569
0.155921 0.00560974
0.156311 0.00521968
0.15812 0.00702833
0.158978 0.00616982
0.159507 0.0066985
0.160327 0.00587844
0.162532 0.00808364
0.163163 0.00745292
0.163855 0.00814501
0.1641 0.00790031
0.164707 0.0085071
0.165046 0.00816734
0.165258 0.00837898
0.16544 0.00819733
0.16569 0.00844764
0.166796 0.00734193
0.169427 0.00997321
0.170915 0.00848463
0.171063 0.00863234
0.172029 0.00766639
0.172391 0.00802862
0.172526 0.00789373
0.17364 0.00900745
0.174911 0.00773597
0.17528 0.00810433
0.176563 0.00682147
0.179589 0.00984811
0.179994 0.00944374
0.180736 0.0101859
0.181511 0.00941099
0.182074 0.00997404
0.182672 0.00937592
0.182809 0.00951356
0.186645 0.00567777
0.1873 0.00633305
0.189247 0.00438687
0.189291 0.00443127
0.189718 0.00400472
0.190562 0.0048487
0.19124 0.00416997
0.192148 0.00507743
0.192473 0.00475204
0.195492 0.00777133
0.19654 0.00672349
0.197198 0.00738098
0.197407 0.00717148
0.197463 0.00722761
0.198769 0.00592198
0.200695 0.00784769
0.200948 0.00759431
0.20142 0.008066
0.201906 0.00757962
0.203782 0.00945543
0.206008 0.00722983
0.206348 0.00756992
0.207908 0.0060094
0.208209 0.00630982
0.2084 0.00611881
0.208426 0.0061447
0.208883 0.00568717
0.208913 0.00571698
0.212672 0.00195754
0.213899 0.00318435
0.217083 0
0.219528 0
0.220034 0.000506232
0.22054 0
0.224071 0
0.224786 0.000714694
0.225501 0
inf 0


"layer 27:"
-inf 0
0.141076 0
0.141131 5.49617e-05
0.141186 0
0.141485 0
0.142046 0.000561399
0.142114 0.000493501
0.14253 0.000909776
0.143025 0.000415655
0.143654 0.00104504
0.144699 0
0.144759 0
0.145885 0.00112587
0.146231 0.000779691
0.146381 0.00092938
0.146477 0.000833239
0.146986 0.0013426
0.147021 0.00130795
0.147996 0.00228343
0.148761 0.00151861
0.150079 0.00283629
0.150919 0.00199629
0.152053 0.00313098
0.152748 0.00243659
0.155307 0.00499569
0.155697 0.00460563
0.156311 0.00521968
0.15717 0.00436117
0.158978 0.00616982
0.159798 0.00534976
0.160327 0.00587844
0.160958 0.00524772
0.163163 0.00745292
0.163408 0.00720822
0.1641 0.00790031
0.164439 0.00756055
0.165046 0.00816734
0.165228 0.00798569
0.16544 0.00819733
0.166545 0.00709162
0.166796 0.00734193
0.167236 0.00690136
0.1698 0.00946487
0.170848 0.00841686
0.170915 0.00848463
0.171881 0.00751868
0.172029 0.00766639
0.172164 0.0075315
0.172526 0.00789373
0.173798 0.00662226
0.174911 0.00773597
0.176194 0.00645312
0.176563 0.00682147
0.176967 0.0064171
0.179994 0.00944374
0.180768 0.00866887
0.181511 0.00941099
0.182048 0.00887337
0.182561 0.00938578
0.182621 0.00932528
0.182672 0.00937592
0.186508 0.00554014
0.186645 0.00567777
0.188591 0.00373159
0.189247 0.00438687
0.189673 0.00396033
0.189718 0.00400472
0.190396 0.00332599
0.19124 0.00416997
0.191566 0.00384457
0.192473 0.00475204
0.193521 0.0037042
0.19654 0.00672349
0.19675 0.006514
0.197407 0.00717148
0.198713 0.00586585
0.198769 0.00592198
0.199022 0.0056686
0.200948 0.00759431
0.201435 0.00710793
0.201906 0.00757962
0.204132 0.00535402
0.206008 0.00722983
0.207568 0.00566931
0.207908 0.0060094
0.208099 0.00581839
0.2084 0.00611881
0.208857 0.00566128
0.208883 0.00568717
0.212642 0.00192773
0.212672 0.00195754
0.21463 0
inf 0


"layer 28:"
-inf 0
0.141621 0
0.142114 0.000493501
0.142608 0
0.142609 0
0.143025 0.000415655
0.14344 0
0.145451 0
0.146231 0.000779691
0.146327 0.00068355
0.146477 0.000833239
0.146511 0.000798586
0.147021 0.00130795
0.147786 0.000543119
0.148761 0.00151861
0.149601 0.000678605
0.150919 0.00199629
0.151613 0.00130189
0.152748 0.00243659
0.153138 0.00204653
0.155697 0.00460563
0.156556 0.00374711
0.15717 0.00436117
0.15799 0.00354111
0.159798 0.00534976
0.160429 0.00471904
0.160958 0.00524772
0.161202 0.00500303
0.163408 0.00720822
0.163747 0.00686846
0.164439 0.00756055
0.164621 0.0073789
0.165228 0.00798569
0.166334 0.00687998
0.166545 0.00709162
0.166986 0.00665105
0.167236 0.00690136
0.167853 0.00628442
0.170172 0.00860289
0.170603 0.00817182
0.170848 0.00841686
0.171814 0.00745091
0.171881 0.00751868
0.172016 0.0073838
0.172164 0.0075315
0.173435 0.00626003
0.173798 0.00662226
0.175081 0.0053394
0.176194 0.00645312
0.176599 0.00604875
0.176967 0.0064171
0.177742 0.00564224
0.180768 0.00866887
0.181306 0.00813126
0.182048 0.00887337
0.182109 0.00881287
0.182621 0.00932528
0.186457 0.00548949
0.186508 0.00554014
0.188454 0.00359396
0.188591 0.00373159
0.189018 0.00330505
0.189673 0.00396033
0.190352 0.00328159
0.190396 0.00332599
0.190722 0.0030006
0.191566 0.00384457
0.192614 0.00279674
0.193521 0.0037042
0.19373 0.0034947
0.19675 0.006514
0.198055 0.00520837
0.198713 0.00586585
0.198966 0.00561247
0.199022 0.0056686
0.199509 0.00518221
0.201435 0.00710793
0.20366 0.00488233
0.204132 0.00535402
0.204747 0.0047388
0.205599 0.00559099
0.206544 0.00464568
0.207568 0.00566931
0.207759 0.0054783
0.208099 0.00581839
0.208557 0.00536086
0.208857 0.00566128
0.212617 0.00190184
0.212642 0.00192773
0.21457 0
inf 0


"layer 29:"
-inf 0
0.145644 0
0.146327 0.00068355
0.146362 0.000648898
0.146511 0.000798586
0.147276 3.37598e-05
0.147786 0.000543119
0.148329 0
0.148923 0
0.149601 0.000678605
0.15028 0
0.150311 0
0.151613 0.00130189
0.152003 0.000911829
0.153138 0.00204653
0.153996 0.00118802
0.156556 0.00374711
0.157376 0.00292705
0.15799 0.00354111
0.15862 0.00291039
0.160429 0.00471904
0.160674 0.00447435
0.161202 0.00500303
0.161542 0.00466327
0.163747 0.00686846
0.163929 0.00668681
0.164621 0.0073789
0.165727 0.00627319
0.166334 0.00687998
0.166774 0.00643941
0.166986 0.00665105
0.167603 0.00603411
0.167853 0.00628442
0.168284 0.00585335
0.170603 0.00817182
0.171569 0.00720586
0.171814 0.00745091
0.171948 0.00731603
0.172016 0.0073838
0.173288 0.00611232
0.173435 0.00626003
0.174718 0.00497717
0.175081 0.0053394
0.175485 0.00493503
0.176599 0.00604875
0.177373 0.00527388
0.177742 0.00564224
0.178279 0.00510462
0.181306 0.00813126
0.181367 0.00807075
0.182109 0.00881287
0.185944 0.00497708
0.186457 0.00548949
0.188403 0.00354331
0.188454 0.00359396
0.18888 0.00316741
0.189018 0.00330505
0.189697 0.00262631
0.190352 0.00328159
0.190677 0.0029562
0.190722 0.0030006
0.19177 0.00195276
0.192614 0.00279674
0.192823 0.00258724
0.19373 0.0034947
0.194081 0.00314396
0.196404 0.00546667
0.197359 0.00451179
0.198055 0.00520837
0.198309 0.00495499
0.198966 0.00561247
0.199453 0.00512609
0.199509 0.00518221
0.201734 0.00295662
0.20366 0.00488233
0.204275 0.00426711
0.204747 0.0047388
0.205692 0.0037935
0.206544 0.00464568
0.206736 0.00445467
0.207759 0.0054783
0.208217 0.00502077
0.208557 0.00536086
0.212316 0.00160142
0.212617 0.00190184
0.214518 0
inf 0


"layer 30:"
-inf 0
0.145713 0
0.146362 0.000648898
0.147011 0
0.147243 0
0.147276 3.37598e-05
0.14731 0
0.151091 0
0.152003 0.000911829
0.152862 5.33179e-05
0.153996 0.00118802
0.154817 0.000367955
0.157376 0.00292705
0.158006 0.00229633
0.15862 0.00291039
0.158865 0.0026657
0.160674 0.00447435
0.161014 0.00413459
0.161542 0.00466327
0.161724 0.00448162
0.163929 0.00668681
0.165035 0.0055811
0.165727 0.00627319
0.166167 0.00583262
0.166774 0.00643941
0.167391 0.00582248
0.167603 0.00603411
0.168034 0.00560304
0.168284 0.00585335
0.16925 0.0048874
0.171569 0.00720586
0.171703 0.00707098
0.171948 0.00731603
0.17322 0.00604455
0.173288 0.00611232
0.174571 0.00482946
0.174718 0.00497717
0.175123 0.0045728
0.175485 0.00493503
0.17626 0.00416017
0.177373 0.00527388
0.177911 0.00473627
0.178279 0.00510462
0.17834 0.00504412
0.181367 0.00807075
0.185202 0.00423497
0.185944 0.00497708
0.187891 0.0030309
0.188403 0.00354331
0.18883 0.00311677
0.18888 0.00316741
0.189559 0.00248868
0.189697 0.00262631
0.190022 0.00230092
0.190677 0.0029562
0.191725 0.00190836
0.19177 0.00195276
0.191979 0.00174326
0.192823 0.00258724
0.193174 0.00223649
0.194081 0.00314396
0.195036 0.00218908
0.197359 0.00451179
0.197612 0.00425841
0.198309 0.00495499
0.198795 0.0044686
0.199453 0.00512609
0.201678 0.00290049
0.201734 0.00295662
0.20235 0.0023414
0.204275 0.00426711
0.205221 0.00332181
0.205692 0.0037935
0.205883 0.00360249
0.206736 0.00445467
0.207193 0.00399714
0.208217 0.00502077
0.211976 0.00126133
0.212316 0.00160142
0.213598 0.000319732
0.213752 0.000473809
0.214226 0
inf 0


"layer 31:"
-inf 0
0.152808 0
0.152862 5.33179e-05
0.152915 0
0.154449 0
0.154817 0.000367955
0.155184 0
0.155475 0
0.157528 0.00205247
0.157645 0.00193514
0.158006 0.00229633
0.158251 0.00205164
0.158865 0.0026657
0.159205 0.00232594
0.161014 0.00413459
0.161195 0.00395294
0.161724 0.00448162
0.16283 0.00337591
0.165035 0.0055811
0.165475 0.00514053
0.166167 0.00583262
0.166784 0.00521569
0.167391 0.00582248
0.167822 0.00539141
0.168034 0.00560304
0.169 0.00463709
0.16925 0.0048874
0.169385 0.00475251
0.171703 0.00707098
0.172975 0.00579951
0.17322 0.00604455
0.174503 0.00476169
0.174571 0.00482946
0.174975 0.00442509
0.175123 0.0045728
0.175898 0.00379794
0.17626 0.00416017
0.176797 0.00362255
0.177911 0.00473627
0.177972 0.00467577
0.17834 0.00504412
0.179562 0.0038217
0.180953 0.00521229
0.183566 0.00259892
0.185202 0.00423497
0.187149 0.00228879
0.187891 0.0030309
0.188317 0.00260436
0.18883 0.00311677
0.189508 0.00243803
0.189559 0.00248868
0.189884 0.00216329
0.190022 0.00230092
0.19107 0.00125308
0.191725 0.00190836
0.191935 0.00169886
0.191979 0.00174326
0.19233 0.00139251
0.193174 0.00223649
0.194129 0.00128161
0.195036 0.00218908
0.19529 0.0019357
0.197612 0.00425841
0.198099 0.00377203
0.198795 0.0044686
0.201021 0.00224301
0.201678 0.00290049
0.202293 0.00228527
0.20235 0.0023414
0.203295 0.0013961
0.205221 0.00332181
0.205412 0.0031308
0.205883 0.00360249
0.206341 0.00314496
0.207193 0.00399714
0.209757 0.00143332
0.209859 0.00153519
0.211054 0.000339563
0.211976 0.00126133
0.213016 0.000221556
0.213071 0.000276833
0.213313 3.49181e-05
0.213598 0.000319732
0.213918 0
inf 0


"layer 32:"
-inf 0
0.15571 0
0.157645 0.00193514
0.15789 0.00169044
0.158251 0.00205164
0.158591 0.00171188
0.159205 0.00232594
0.159387 0.00214428
0.161195 0.00395294
0.162301 0.00284723
0.16283 0.00337591
0.16327 0.00293534
0.165475 0.00514053
0.166092 0.0045236
0.166784 0.00521569
0.167215 0.00478462
0.167822 0.00539141
0.168788 0.00442545
0.169 0.00463709
0.169135 0.0045022
0.169385 0.00475251
0.170656 0.00348104
0.172975 0.00579951
0.174258 0.00451665
0.174503 0.00476169
0.174907 0.00435732
0.174975 0.00442509
0.17575 0.00365023
0.175898 0.00379794
0.176435 0.00326032
0.176797 0.00362255
0.176858 0.00356205
0.177972 0.00467577
0.179194 0.00345334
0.179562 0.0038217
0.182176 0.00120833
0.183566 0.00259892
0.185513 0.000652743
0.187149 0.00228879
0.187575 0.00186224
0.188317 0.00260436
0.188996 0.00192562
0.189508 0.00243803
0.189834 0.00211264
0.189884 0.00216329
0.190932 0.00111545
0.19107 0.00125308
0.191279 0.00104358
0.191935 0.00169886
0.192285 0.00134812
0.19233 0.00139251
0.193285 0.000437632
0.194129 0.00128161
0.194382 0.00102823
0.19529 0.0019357
0.195776 0.00144931
0.198099 0.00377203
0.200324 0.00154643
0.201021 0.00224301
0.201636 0.00162779
0.202293 0.00228527
0.203239 0.00133997
0.203295 0.0013961
0.203486 0.00120509
0.205412 0.0031308
0.205869 0.00267327
0.206341 0.00314496
0.208905 0.000581141
0.209757 0.00143332
0.210952 0.0002377
0.211054 0.000339563
0.211394 0
0.212794 0
0.213016 0.000221556
0.213237 0
0.213278 0
0.213313 3.49181e-05
0.213348 0
inf 0


"layer 33:"
-inf 0
0.156199 0
0.15789 0.00169044
0.15823 0.00135068
0.158591 0.00171188
0.158772 0.00153023
0.159387 0.00214428
0.160492 0.00103858
0.162301 0.00284723
0.162741 0.00240666
0.16327 0.00293534
0.163887 0.0023184
0.166092 0.0045236
0.166147 0.00446896
0.166546 0.00486802
0.166922 0.00449159
0.167215 0.00478462
0.168181 0.00381866
0.168788 0.00442545
0.168923 0.00429057
0.169135 0.0045022
0.170406 0.00323073
0.170656 0.00348104
0.171939 0.00219818
0.174258 0.00451665
0.174662 0.00411228
0.174907 0.00435732
0.175682 0.00358246
0.17575 0.00365023
0.176287 0.00311261
0.176435 0.00326032
0.176496 0.00319982
0.176858 0.00356205
0.17808 0.00233963
0.179194 0.00345334
0.181807 0.000839977
0.182176 0.00120833
0.183384 0
0.18486 0
0.185513 0.000652743
0.185939 0.000226198
0.187575 0.00186224
0.188254 0.00118351
0.188996 0.00192562
0.189321 0.00160023
0.189834 0.00211264
0.190882 0.0010648
0.190932 0.00111545
0.191142 0.00090595
0.191279 0.00104358
0.19163 0.000692833
0.192285 0.00134812
0.19324 0.000393237
0.193285 0.000437632
0.193538 0.000184251
0.194382 0.00102823
0.194868 0.000541844
0.195776 0.00144931
0.197225 0
0.198778 0
0.200324 0.00154643
0.200939 0.000931214
0.201636 0.00162779
0.202581 0.000682489
0.203239 0.00133997
0.20343 0.00114896
0.203486 0.00120509
0.203943 0.000747554
0.205869 0.00267327
0.208433 0.000109452
0.208905 0.000581141
0.209486 0
0.210715 0
0.210952 0.0002377
0.21119 0
inf 0


"layer 34:"
-inf 0
0.156879 0
0.15823 0.00135068
0.158411 0.00116903
0.158772 0.00153023
0.159878 0.000424521
0.160492 0.00103858
0.160933 0.000598006
0.162741 0.00240666
0.163358 0.00178972
0.163887 0.0023184
0.163942 0.00226376
0.166147 0.00446896
0.166523 0.00409253
0.166922 0.00449159
0.167888 0.00352564
0.168181 0.00381866
0.168316 0.00368378
0.168923 0.00429057
0.170195 0.00301909
0.170406 0.00323073
0.171689 0.00194787
0.171939 0.00219818
0.172344 0.00179381
0.174662 0.00411228
0.175437 0.00333741
0.175682 0.00358246
0.17622 0.00304484
0.176287 0.00311261
0.176348 0.00305211
0.176496 0.00319982
0.177718 0.0019774
0.17808 0.00233963
0.18042 0
0.180967 0
0.181807 0.000839977
0.182647 0
0.185713 0
0.185939 0.000226198
0.186165 0
0.18707 0
0.188254 0.00118351
0.188579 0.000858116
0.189321 0.00160023
0.190369 0.000552393
0.190882 0.0010648
0.191091 0.000855305
0.191142 0.00090595
0.191492 0.000555202
0.19163 0.000692833
0.192323 0
0.192847 0
0.19324 0.000393237
0.193494 0.000139856
0.193538 0.000184251
0.193722 0
0.194327 0
0.194868 0.000541844
0.19541 0
0.200008 0
0.200939 0.000931214
0.201871 0
0.201899 0
0.202581 0.000682489
0.202772 0.000491473
0.20343 0.00114896
0.203887 0.000691427
0.203943 0.000747554
0.204691 0
0.208324 0
0.208433 0.000109452
0.208542 0
0.209285 0
0.209314 2.90062e-05
0.209343 0
inf 0


"layer 35:"
-inf 0
0.157242 0
0.158411 0.00116903
0.159517 6.33239e-05
0.159878 0.000424521
0.160303 0
0.160335 0
0.160933 0.000598006
0.161219 0.000312063
0.161537 0.000630182
0.161868 0.000299189
0.163358 0.00178972
0.163413 0.00173508
0.163942 0.00226376
0.164318 0.00188733
0.166523 0.00409253
0.167489 0.00312657
0.167888 0.00352564
0.168023 0.00339075
0.168316 0.00368378
0.169588 0.0024123
0.170195 0.00301909
0.171477 0.00173624
0.171689 0.00194787
0.172093 0.0015435
0.172344 0.00179381
0.173119 0.00101895
0.175437 0.00333741
0.175975 0.0027998
0.17622 0.00304484
0.17628 0.00298434
0.176348 0.00305211
0.17757 0.00182969
0.177718 0.0019774
0.179695 0
0.187721 0
0.188579 0.000858116
0.189437 0
0.189817 0
0.190369 0.000552393
0.190579 0.000342894
0.191091 0.000855305
0.191442 0.000504556
0.191492 0.000555202
0.192048 0
0.193354 0
0.193494 0.000139856
0.193634 0
0.202281 0
0.202772 0.000491473
0.203121 0.000143106
0.20346 0.000482902
0.20357 0.000373739
0.203887 0.000691427
0.204579 0
inf 0


"layer 36:"
-inf 0
0.159454 0
0.159517 6.33239e-05
0.15958 0
0.160907 0
0.161219 0.000312063
0.161531 0
0.161569 0
0.161868 0.000299189
0.161922 0.000244548
0.163413 0.00173508
0.163789 0.00135865
0.164318 0.00188733
0.165284 0.000921376
0.167489 0.00312657
0.167624 0.00299169
0.168023 0.00339075
0.169295 0.00211928
0.169588 0.0024123
0.170871 0.00112945
0.171477 0.00173624
0.171882 0.00133187
0.172093 0.0015435
0.172505 0.00113172
0.172674 0.00130083
0.173037 0.000937741
0.173119 0.00101895
0.173656 0.000481334
0.175975 0.0027998
0.176035 0.0027393
0.17628 0.00298434
0.177503 0.00176192
0.17757 0.00182969
0.1794 0
0.190236 0
0.190579 0.000342894
0.190922 0
0.190937 0
0.191442 0.000504556
0.191946 0
0.202978 0
0.203121 0.000143106
0.20323 3.39427e-05
0.20357 0.000373739
0.203943 0
inf 0


"layer 37:"
-inf 0
0.161678 0
0.161922 0.000244548
0.162167 0
0.162431 0
0.163789 0.00135865
0.164755 0.000392696
0.165284 0.000921376
0.165419 0.000786493
0.167624 0.00299169
0.168896 0.00172021
0.169295 0.00211928
0.170114 0.00129975
0.170289 0.00147455
0.170752 0.00101123
0.170871 0.00112945
0.171051 0.000948646
0.171187 0.0010843
0.171411 0.00086073
0.171882 0.00133187
0.172294 0.000920086
0.172505 0.00113172
0.172868 0.000768637
0.173037 0.000937741
0.173575 0.000400128
0.173656 0.000481334
0.173717 0.00042083
0.176035 0.0027393
0.177258 0.00151687
0.177503 0.00176192
0.179265 0
0.203196 0
0.20323 3.39427e-05
0.203264 0
inf 0


"layer 38:"
-inf 0
0.164363 0
0.164755 0.000392696
0.16489 0.000257813
0.165419 0.000786493
0.166205 0
0.167175 0
0.168896 0.00172021
0.169715 0.000900682
0.170114 0.00129975
0.170578 0.000836421
0.170752 0.00101123
0.170933 0.000830428
0.171051 0.000948646
0.171275 0.000725077
0.171411 0.00086073
0.171822 0.000448949
0.172294 0.000920086
0.172657 0.000557001
0.172868 0.000768637
0.173406 0.000231023
0.173575 0.000400128
0.173635 0.000339624
0.173717 0.00042083
0.174137 0
0.175741 0
0.177258 0.00151687
0.178774 0
inf 0


"layer 39:"
-inf 0
0.164632 0
0.16489 0.000257813
0.165148 0
0.168814 0
0.169715 0.000900682
0.170178 0.000437355
0.170578 0.000836421
0.170758 0.000655622
0.170933 0.000830428
0.171157 0.000606858
0.171275 0.000725077
0.171646 0.000353943
0.171652 0.000359982
0.171693 0.000319334
0.171822 0.000448949
0.172185 8.58634e-05
0.172657 0.000557001
0.173194 1.93871e-05
0.173406 0.000231023
0.173466 0.000170519
0.173635 0.000339624
0.173975 0
inf 0


"layer 40:"
-inf 0
0.169741 0
0.170178 0.000437355
0.170359 0.000256556
0.170758 0.000655622
0.170982 0.000432053
0.171157 0.000606858
0.171528 0.000235725
0.171646 0.000353943
0.171687 0.000313296
0.171693 0.000319334
0.172012 0
0.1721 0
0.172185 8.58634e-05
0.172271 0
0.173175 0
0.173194 1.93871e-05
0.173214 0
0.173296 0
0.173466 0.000170519
0.173637 0
inf 0


"layer 41:"
-inf 0
0.170103 0
0.170359 0.000256556
0.170583 3.29867e-05
0.170982 0.000432053
0.171353 6.09192e-05
0.171528 0.000235725
0.171569 0.000195077
0.171687 0.000313296
0.172 0
inf 0


"layer 42:"
-inf 0
0.17055 0
0.170583 3.29867e-05
0.170616 0
0.171292 0
0.171353 6.09192e-05
0.171394 2.02717e-05
0.171569 0.000195077
0.171764 0
inf 0


"layer 43:"
-inf 0
0.171373 0
0.171394 2.02717e-05
0.171414 0
inf 0


