# persistence landscape
# X Y
"layer 0:"
-inf 0
0.0588437 0
0.0605835 0.00173986
0.0623234 0
0.078759 0
0.0922461 0.0134871
0.0981586 0.00757465
0.117083 0.0264989
0.125847 0.0177347
0.137907 0.0297951
0.145229 0.0224738
0.149929 0.027174
0.150907 0.0261958
0.281005 0.156293
0.286468 0.15083
0.293497 0.157859
0.451356 0
inf 0


"layer 1:"
-inf 0
0.0809999 0
0.0824854 0.00148551
0.0831056 0.000865302
0.0938998 0.0116595
0.0980716 0.00748766
0.0981586 0.00757465
0.10358 0.00215333
0.104661 0.0032348
0.104728 0.00316777
0.105726 0.00416506
0.109002 0.000889216
0.125847 0.0177347
0.128716 0.0148654
0.12927 0.0154192
0.132253 0.0124362
0.135439 0.0156216
0.13666 0.0144
0.139106 0.0168454
0.139353 0.016598
0.145229 0.0224738
0.146207 0.0214956
0.150907 0.0261958
0.153482 0.0236211
0.165434 0.0355727
0.166778 0.0342283
0.217018 0.0844681
0.218562 0.0829243
0.286468 0.15083
0.437298 0
inf 0


"layer 2:"
-inf 0
0.0822403 0
0.0831056 0.000865302
0.0839709 0
0.0841278 0
0.0920746 0.00794679
0.0953027 0.00471871
0.0980716 0.00748766
0.103493 0.00206634
0.10358 0.00215333
0.103647 0.0020863
0.104728 0.00316777
0.107896 0
0.108112 0
0.109002 0.000889216
0.109846 4.5175e-05
0.11879 0.00898987
0.120816 0.00696463
0.128716 0.0148654
0.131699 0.0118824
0.132253 0.0124362
0.133475 0.0112146
0.13666 0.0144
0.136908 0.0141526
0.139353 0.016598
0.140331 0.0156197
0.146207 0.0214956
0.148782 0.0189209
0.153482 0.0236211
0.154826 0.0222766
0.166778 0.0342283
0.168322 0.0326844
0.218562 0.0829243
0.222943 0.0785429
0.229559 0.0851582
0.314717 0
inf 0


"layer 3:"
-inf 0
0.0896137 0
0.0902684 0.000654697
0.0907535 0.000169571
0.0953027 0.00471871
0.100021 0
0.101427 0
0.103493 0.00206634
0.10356 0.00199931
0.103647 0.0020863
0.105733 0
0.1098 0
0.109846 4.5175e-05
0.109891 0
0.112043 0
0.11942 0.00737689
0.120324 0.00647282
0.120816 0.00696463
0.120831 0.00694938
0.124885 0.0110037
0.127853 0.00803591
0.131699 0.0118824
0.132921 0.0106608
0.133475 0.0112146
0.133722 0.0109672
0.136908 0.0141526
0.137886 0.0131744
0.140331 0.0156197
0.142906 0.013045
0.148782 0.0189209
0.150126 0.0175764
0.154826 0.0222766
0.155118 0.0219847
0.163661 0.0305278
0.164913 0.0292759
0.168322 0.0326844
0.168445 0.0325612
0.188757 0.0528732
0.191125 0.0505054
0.203201 0.0625819
0.205092 0.0606915
0.222943 0.0785429
0.227514 0.0739724
0.233263 0.0797212
0.312984 0
inf 0


"layer 4:"
-inf 0
0.090584 0
0.0907535 0.000169571
0.0909231 0
0.0914294 0
0.0926059 0.00117656
0.0937825 0
0.101561 0
0.10356 0.00199931
0.105559 0
0.113851 0
0.120324 0.00647282
0.120339 0.00645756
0.120831 0.00694938
0.123799 0.00398161
0.127853 0.00803591
0.129074 0.00681429
0.132921 0.0106608
0.133168 0.0104134
0.133722 0.0109672
0.1347 0.00998895
0.137886 0.0131744
0.140461 0.0105997
0.142906 0.013045
0.14425 0.0117006
0.150126 0.0175764
0.150418 0.0172845
0.155118 0.0219847
0.15637 0.0207328
0.164913 0.0292759
0.165037 0.0291527
0.168445 0.0325612
0.168771 0.0322352
0.172509 0.0359728
0.174551 0.033931
0.191125 0.0505054
0.193015 0.048615
0.205092 0.0606915
0.209122 0.0566618
0.219286 0.0668264
0.219827 0.0662856
0.227514 0.0739724
0.234068 0.0674182
0.235897 0.0692478
0.237179 0.0679665
0.240124 0.0709123
0.311037 0
inf 0


"layer 5:"
-inf 0
0.0919024 0
0.0924643 0.000561825
0.0930261 0
0.113881 0
0.120339 0.00645756
0.122166 0.00463083
0.122246 0.00471114
0.123387 0.0035701
0.123799 0.00398161
0.12502 0.00275999
0.129074 0.00681429
0.129322 0.0065669
0.133168 0.0104134
0.134147 0.00943512
0.1347 0.00998895
0.137275 0.00741426
0.140461 0.0105997
0.141805 0.00925523
0.14425 0.0117006
0.144542 0.0114087
0.150418 0.0172845
0.15167 0.0160326
0.15637 0.0207328
0.156493 0.0206096
0.165037 0.0291527
0.165363 0.0288267
0.168771 0.0322352
0.170813 0.0301933
0.174551 0.033931
0.176441 0.0320406
0.193015 0.048615
0.197045 0.0445853
0.209122 0.0566618
0.209662 0.056121
0.219827 0.0662856
0.226381 0.0597314
0.234068 0.0674182
0.235349 0.0661369
0.237179 0.0679665
0.305145 0
0.309274 0
0.309885 0.000610522
0.310495 0
inf 0


"layer 6:"
-inf 0
0.117535 0
0.122166 0.00463083
0.123307 0.00348979
0.123387 0.0035701
0.124609 0.00234848
0.12502 0.00275999
0.125268 0.0025126
0.129322 0.0065669
0.1303 0.00558865
0.134147 0.00943512
0.134579 0.00900277
0.135024 0.00944791
0.137166 0.00730556
0.137275 0.00741426
0.13862 0.00606982
0.141805 0.00925523
0.142097 0.00896332
0.144542 0.0114087
0.145443 0.0105078
0.14888 0.013945
0.149231 0.0135938
0.15167 0.0160326
0.151793 0.0159094
0.156493 0.0206096
0.156819 0.0202836
0.165363 0.0288267
0.167404 0.0267848
0.170813 0.0301933
0.172703 0.028303
0.176441 0.0320406
0.179283 0.0291989
0.17997 0.0298866
0.180745 0.0291115
0.186384 0.03475
0.186797 0.034337
0.197045 0.0445853
0.197586 0.0440445
0.209662 0.056121
0.212256 0.0535271
0.212355 0.0536259
0.216092 0.0498886
0.219098 0.0528941
0.219321 0.0526711
0.226381 0.0597314
0.227662 0.0584502
0.235349 0.0661369
0.301486 0
inf 0


"layer 7:"
-inf 0
0.119817 0
0.123307 0.00348979
0.124528 0.00226818
0.124609 0.00234848
0.124856 0.00210109
0.125268 0.0025126
0.126246 0.00153436
0.1303 0.00558865
0.130732 0.00515631
0.134579 0.00900277
0.136721 0.00686042
0.137166 0.00730556
0.138511 0.00596112
0.13862 0.00606982
0.138823 0.00586635
0.140845 0.00788842
0.140934 0.00779999
0.142097 0.00896332
0.142998 0.00806246
0.145443 0.0105078
0.145794 0.0101567
0.149231 0.0135938
0.149355 0.0134706
0.151793 0.0159094
0.152119 0.0155834
0.156819 0.0202836
0.158337 0.0187662
0.16622 0.0266491
0.166744 0.0261246
0.167404 0.0267848
0.169295 0.0248945
0.172703 0.028303
0.175545 0.0254612
0.179283 0.0291989
0.180058 0.0284238
0.180745 0.0291115
0.181158 0.0286986
0.186797 0.034337
0.187338 0.0337962
0.197586 0.0440445
0.20018 0.0414506
0.212256 0.0535271
0.215994 0.0497898
0.216092 0.0498886
0.216315 0.0496656
0.219321 0.0526711
0.220602 0.0513898
0.227662 0.0584502
0.286113 0
inf 0


"layer 8:"
-inf 0
0.12226 0
0.124528 0.00226818
0.124776 0.00202078
0.124856 0.00210109
0.125834 0.00112285
0.126246 0.00153436
0.126678 0.00110201
0.130732 0.00515631
0.131101 0.00478788
0.133282 0.00696945
0.135056 0.00519552
0.136721 0.00686042
0.138066 0.00551599
0.138511 0.00596112
0.138714 0.00575765
0.138823 0.00586635
0.138911 0.00577792
0.140934 0.00779999
0.141834 0.00689913
0.142998 0.00806246
0.143349 0.00771135
0.145794 0.0101567
0.145917 0.0100335
0.149355 0.0134706
0.14968 0.0131447
0.152119 0.0155834
0.153637 0.014066
0.158337 0.0187662
0.158861 0.0182417
0.166744 0.0261246
0.168635 0.0242343
0.169295 0.0248945
0.172137 0.0220527
0.175545 0.0254612
0.17632 0.0246862
0.180058 0.0284238
0.180471 0.0280109
0.181158 0.0286986
0.181699 0.0281578
0.187338 0.0337962
0.189452 0.0316821
0.196134 0.0383645
0.196614 0.0378848
0.20018 0.0414506
0.203917 0.0377133
0.215994 0.0497898
0.216217 0.0495668
0.216315 0.0496656
0.217597 0.0483844
0.220602 0.0513898
0.221456 0.0505359
0.228056 0.0571358
0.285192 0
inf 0


"layer 9:"
-inf 0
0.122755 0
0.124776 0.00202078
0.125754 0.00104254
0.125834 0.00112285
0.126267 0.0006905
0.126678 0.00110201
0.127047 0.000733587
0.131101 0.00478788
0.132875 0.00301396
0.135056 0.00519552
0.136401 0.00385109
0.138066 0.00551599
0.138269 0.00531252
0.138714 0.00575765
0.138803 0.00566921
0.138911 0.00577792
0.139812 0.00487706
0.141834 0.00689913
0.142186 0.00654802
0.143349 0.00771135
0.143472 0.00758815
0.145917 0.0100335
0.146243 0.00970756
0.14968 0.0131447
0.151198 0.0116273
0.153637 0.014066
0.154161 0.0135415
0.158861 0.0182417
0.160429 0.0166736
0.163223 0.0194668
0.163545 0.0191446
0.168635 0.0242343
0.171476 0.0213925
0.172137 0.0220527
0.172912 0.0212777
0.17632 0.0246862
0.176733 0.0242732
0.180471 0.0280109
0.180478 0.0280032
0.180566 0.0280908
0.181099 0.0275576
0.181699 0.0281578
0.183813 0.0260437
0.189452 0.0316821
0.189931 0.0312024
0.196614 0.0378848
0.200351 0.0341474
0.203917 0.0377133
0.20414 0.0374903
0.216217 0.0495668
0.217498 0.0482856
0.217597 0.0483844
0.21845 0.0475305
0.221456 0.0505359
0.22379 0.048202
0.228976 0.0533885
0.282365 0
inf 0


"layer 10:"
-inf 0
0.124711 0
0.125754 0.00104254
0.126186 0.000610193
0.126267 0.0006905
0.126635 0.000322076
0.127047 0.000733587
0.127697 8.32768e-05
0.130412 0.00279796
0.131535 0.00167434
0.132875 0.00301396
0.133943 0.00194589
0.136073 0.00407552
0.136349 0.00379915
0.136401 0.00385109
0.136604 0.00364761
0.138269 0.00531252
0.138358 0.00522408
0.138803 0.00566921
0.139704 0.00476836
0.139812 0.00487706
0.140163 0.00452594
0.142186 0.00654802
0.142245 0.00648846
0.142586 0.00682966
0.14265 0.00676602
0.143472 0.00758815
0.143798 0.00726217
0.146243 0.00970756
0.147761 0.00819016
0.151198 0.0116273
0.151722 0.0111028
0.154161 0.0135415
0.154739 0.0129636
0.156852 0.0150764
0.157842 0.0140861
0.160429 0.0166736
0.160752 0.0163514
0.163545 0.0191446
0.164291 0.0183983
0.165012 0.0191192
0.167108 0.0170238
0.171476 0.0213925
0.172251 0.0206175
0.172912 0.0212777
0.173325 0.0208647
0.176733 0.0242732
0.176741 0.0242656
0.180478 0.0280032
0.181011 0.0274701
0.181099 0.0275576
0.183213 0.0254435
0.183813 0.0260437
0.184293 0.0255639
0.189931 0.0312024
0.19091 0.0302234
0.19756 0.0368733
0.200319 0.0341149
0.200351 0.0341474
0.200574 0.0339244
0.20414 0.0374903
0.205421 0.0362091
0.217498 0.0482856
0.218352 0.0474317
0.21845 0.0475305
0.220784 0.0451966
0.22379 0.048202
0.265415 0.00657692
0.266266 0.00742818
0.273694 0
inf 0


"layer 11:"
-inf 0
0.125576 0
0.126186 0.000610193
0.126555 0.000241769
0.126635 0.000322076
0.126957 0
0.127614 0
0.127697 8.32768e-05
0.12778 0
0.129861 0
0.131535 0.00167434
0.132603 0.000606277
0.133943 0.00194589
0.134219 0.00166952
0.136349 0.00379915
0.136552 0.00359567
0.136604 0.00364761
0.136693 0.00355918
0.138358 0.00522408
0.139258 0.00432323
0.139704 0.00476836
0.140055 0.00441724
0.140163 0.00452594
0.140223 0.00446638
0.142245 0.00648846
0.142309 0.00642482
0.14265 0.00676602
0.142976 0.00644004
0.143798 0.00726217
0.145315 0.00574477
0.147761 0.00819016
0.148285 0.00766569
0.151722 0.0111028
0.1523 0.0105249
0.154739 0.0129636
0.155345 0.0123576
0.156786 0.0137982
0.15717 0.013414
0.157842 0.0140861
0.158164 0.013764
0.160752 0.0163514
0.161498 0.015605
0.164291 0.0183983
0.166387 0.0163029
0.167108 0.0170238
0.167883 0.0162488
0.172251 0.0206175
0.172664 0.0202045
0.173325 0.0208647
0.173332 0.0208571
0.176741 0.0242656
0.177274 0.0237325
0.181011 0.0274701
0.183126 0.025356
0.183213 0.0254435
0.183693 0.0249637
0.184293 0.0255639
0.185272 0.024585
0.19091 0.0302234
0.193669 0.027465
0.200319 0.0341149
0.200542 0.0338919
0.200574 0.0339244
0.201349 0.0331499
0.202515 0.034316
0.203021 0.0338093
0.205421 0.0362091
0.206275 0.0353552
0.218352 0.0474317
0.220686 0.0450977
0.220784 0.0451966
0.262409 0.0035715
0.265415 0.00657692
0.271992 0
inf 0


"layer 12:"
-inf 0
0.126313 0
0.126555 0.000241769
0.126797 0
0.131997 0
0.132603 0.000606277
0.13288 0.000329908
0.134219 0.00166952
0.134423 0.00146605
0.136552 0.00359567
0.136641 0.00350724
0.136693 0.00355918
0.137594 0.00265832
0.139258 0.00432323
0.13961 0.00397211
0.140055 0.00441724
0.140114 0.00435768
0.140223 0.00446638
0.140287 0.00440275
0.142309 0.00642482
0.142635 0.00609885
0.142976 0.00644004
0.144493 0.00492264
0.145315 0.00574477
0.14584 0.0052203
0.148285 0.00766569
0.148863 0.00708779
0.1523 0.0105249
0.152906 0.00991891
0.155345 0.0123576
0.155729 0.0119733
0.15717 0.013414
0.157492 0.0130918
0.158164 0.013764
0.158911 0.0130176
0.161498 0.015605
0.163593 0.0135096
0.166387 0.0163029
0.167162 0.0155279
0.167883 0.0162488
0.168296 0.0158358
0.172664 0.0202045
0.172672 0.0201969
0.173332 0.0208571
0.173865 0.0203239
0.177274 0.0237325
0.179388 0.0216183
0.183126 0.025356
0.183605 0.0248762
0.183693 0.0249637
0.184672 0.0239848
0.185272 0.024585
0.185724 0.0241329
0.186357 0.0247664
0.187166 0.0239579
0.191908 0.0286999
0.193406 0.0272021
0.193669 0.027465
0.193892 0.027242
0.200542 0.0338919
0.201316 0.0331174
0.201349 0.0331499
0.201855 0.0326432
0.203021 0.0338093
0.203875 0.0329554
0.206275 0.0353552
0.2086 0.0330302
0.21437 0.0388003
0.214379 0.0387914
0.220686 0.0450977
0.262311 0.00347267
0.262409 0.0035715
0.265981 0
inf 0


"layer 13:"
-inf 0
0.13255 0
0.13288 0.000329908
0.133083 0.000126433
0.134423 0.00146605
0.134511 0.00137762
0.136641 0.00350724
0.137542 0.00260638
0.137594 0.00265832
0.137945 0.00230721
0.13961 0.00397211
0.139669 0.00391255
0.140114 0.00435768
0.140178 0.00429404
0.140287 0.00440275
0.140613 0.00407677
0.142635 0.00609885
0.142975 0.00575847
0.143246 0.00602962
0.144423 0.0048526
0.144493 0.00492264
0.145018 0.00439817
0.14584 0.0052203
0.146418 0.0046424
0.148863 0.00708779
0.149232 0.00671921
0.149487 0.00697401
0.149724 0.00673659
0.152906 0.00991891
0.153089 0.00973632
0.154654 0.0113016
0.154856 0.0110999
0.155729 0.0119733
0.156051 0.0116512
0.157492 0.0130918
0.158116 0.0124674
0.15817 0.0125215
0.158292 0.0123995
0.158911 0.0130176
0.161006 0.0109222
0.163593 0.0135096
0.164368 0.0127346
0.167162 0.0155279
0.167575 0.0151149
0.168296 0.0158358
0.168303 0.0158282
0.172672 0.0201969
0.173205 0.0196637
0.173865 0.0203239
0.175979 0.0182098
0.179388 0.0216183
0.179868 0.0211386
0.183605 0.0248762
0.184584 0.0238973
0.184672 0.0239848
0.185124 0.0235328
0.185724 0.0241329
0.186533 0.0233244
0.187166 0.0239579
0.188664 0.0224601
0.193406 0.0272021
0.193629 0.0269791
0.193892 0.027242
0.194666 0.0264675
0.201316 0.0331174
0.201823 0.0326107
0.201855 0.0326432
0.202709 0.0317893
0.203875 0.0329554
0.2062 0.0306304
0.2086 0.0330302
0.208609 0.0330213
0.214379 0.0387914
0.215441 0.0377292
0.216033 0.0383206
0.218827 0.0355268
0.222708 0.039408
0.260477 0.00163896
0.262311 0.00347267
0.265783 0
inf 0


"layer 14:"
-inf 0
0.132957 0
0.133083 0.000126433
0.133172 3.80014e-05
0.134511 0.00137762
0.135412 0.000476758
0.137542 0.00260638
0.137893 0.00225527
0.137945 0.00230721
0.138004 0.00224765
0.139669 0.00391255
0.139733 0.00384891
0.140178 0.00429404
0.140504 0.00396807
0.140613 0.00407677
0.140953 0.0037364
0.142975 0.00575847
0.144152 0.00458144
0.144423 0.0048526
0.144948 0.00432813
0.145018 0.00439817
0.145596 0.00382027
0.146418 0.0046424
0.146786 0.00427382
0.149232 0.00671921
0.149469 0.0064818
0.149724 0.00673659
0.14982 0.00664038
0.152799 0.00961927
0.152885 0.0095329
0.153089 0.00973632
0.153291 0.00953462
0.154856 0.0110999
0.154882 0.0110732
0.154978 0.0111685
0.155273 0.010873
0.156051 0.0116512
0.156676 0.0110268
0.158116 0.0124674
0.158238 0.0123454
0.158292 0.0123995
0.160388 0.0103041
0.161006 0.0109222
0.161781 0.0101472
0.164368 0.0127346
0.164781 0.0123216
0.167575 0.0151149
0.167582 0.0151073
0.168303 0.0158282
0.168836 0.0152951
0.173205 0.0196637
0.175319 0.0175496
0.175979 0.0182098
0.176459 0.0177301
0.179868 0.0211386
0.180847 0.0201597
0.184584 0.0238973
0.185036 0.0234452
0.185124 0.0235328
0.185932 0.0227242
0.186533 0.0233244
0.18803 0.0218266
0.188664 0.0224601
0.188887 0.0222371
0.193629 0.0269791
0.194403 0.0262046
0.194666 0.0264675
0.195173 0.0259608
0.201823 0.0326107
0.202677 0.0317568
0.202709 0.0317893
0.205034 0.0294643
0.2062 0.0306304
0.206209 0.0306214
0.208609 0.0330213
0.209671 0.0319591
0.215441 0.0377292
0.218235 0.0349353
0.218827 0.0355268
0.254354 0
0.258838 0
0.260477 0.00163896
0.262116 0
inf 0


"layer 15:"
-inf 0
0.133134 0
0.133172 3.80014e-05
0.13321 0
0.134935 0
0.135412 0.000476758
0.135763 0.000125644
0.137893 0.00225527
0.137952 0.00219571
0.138004 0.00224765
0.138068 0.00218401
0.139733 0.00384891
0.140059 0.00352294
0.140504 0.00396807
0.140844 0.0036277
0.140953 0.0037364
0.14213 0.00255937
0.144152 0.00458144
0.144677 0.00405697
0.144948 0.00432813
0.145526 0.00375023
0.145596 0.00382027
0.145964 0.00345169
0.146786 0.00427382
0.147024 0.00403641
0.149469 0.0064818
0.149565 0.00638559
0.14982 0.00664038
0.149907 0.00655401
0.152885 0.0095329
0.153087 0.00933121
0.153291 0.00953462
0.153317 0.00950794
0.154882 0.0110732
0.155178 0.0107777
0.155273 0.010873
0.155898 0.0102486
0.156676 0.0110268
0.156798 0.0109048
0.158238 0.0123454
0.160334 0.01025
0.160388 0.0103041
0.161163 0.00952906
0.161781 0.0101472
0.162194 0.00973419
0.164781 0.0123216
0.164789 0.012314
0.167582 0.0151073
0.168115 0.0145741
0.168836 0.0152951
0.170951 0.0131809
0.175319 0.0175496
0.175799 0.0170699
0.176459 0.0177301
0.177438 0.0167511
0.180847 0.0201597
0.181299 0.0197076
0.185036 0.0234452
0.185845 0.0226367
0.185932 0.0227242
0.18743 0.0212264
0.18803 0.0218266
0.188253 0.0216036
0.188887 0.0222371
0.189661 0.0214625
0.194403 0.0262046
0.19491 0.0256979
0.195173 0.0259608
0.196027 0.0251069
0.202677 0.0317568
0.205002 0.0294318
0.205034 0.0294643
0.205043 0.0294554
0.206209 0.0306214
0.207271 0.0295592
0.209671 0.0319591
0.212465 0.0291652
0.218235 0.0349353
0.253171 0
inf 0


"layer 16:"
-inf 0
0.135637 0
0.135763 0.000125644
0.135823 6.60861e-05
0.137952 0.00219571
0.138016 0.00213207
0.138068 0.00218401
0.138394 0.00185804
0.140059 0.00352294
0.140399 0.00318257
0.140844 0.0036277
0.142021 0.00245067
0.14213 0.00255937
0.142654 0.0020349
0.144677 0.00405697
0.145254 0.00347907
0.145526 0.00375023
0.145894 0.00338165
0.145964 0.00345169
0.146202 0.00321428
0.147024 0.00403641
0.14712 0.0039402
0.149565 0.00638559
0.149652 0.00629922
0.149907 0.00655401
0.150108 0.00635231
0.153087 0.00933121
0.153114 0.00930452
0.153317 0.00950794
0.153613 0.00921244
0.155178 0.0107777
0.155802 0.0101533
0.155898 0.0102486
0.15602 0.0101266
0.156798 0.0109048
0.158893 0.0088094
0.160334 0.01025
0.161109 0.00947498
0.161163 0.00952906
0.161576 0.0091161
0.162194 0.00973419
0.162202 0.00972658
0.164789 0.012314
0.165322 0.0117809
0.168115 0.0145741
0.17023 0.01246
0.170951 0.0131809
0.17143 0.0127012
0.175799 0.0170699
0.176778 0.0160909
0.177438 0.0167511
0.17789 0.0162991
0.181299 0.0197076
0.182107 0.018899
0.185845 0.0226367
0.187343 0.0211389
0.18743 0.0212264
0.187653 0.0210034
0.188253 0.0216036
0.189028 0.0208291
0.189661 0.0214625
0.190168 0.0209559
0.19491 0.0256979
0.195764 0.024844
0.196027 0.0251069
0.198352 0.0227819
0.205002 0.0294318
0.205011 0.0294229
0.205043 0.0294554
0.206105 0.0283932
0.207271 0.0295592
0.210065 0.0267654
0.212465 0.0291652
0.21508 0.0265507
0.215884 0.0273554
0.220824 0.0224159
0.224522 0.0261143
0.250637 0
inf 0


"layer 17:"
-inf 0
0.135757 0
0.135823 6.60861e-05
0.135886 2.447e-06
0.138016 0.00213207
0.138342 0.0018061
0.138394 0.00185804
0.138734 0.00151766
0.140399 0.00318257
0.141576 0.00200554
0.142021 0.00245067
0.142546 0.0019262
0.142654 0.0020349
0.143232 0.001457
0.145254 0.00347907
0.145623 0.0031105
0.145894 0.00338165
0.146132 0.00314424
0.146202 0.00321428
0.146298 0.00311807
0.14712 0.0039402
0.147206 0.00385383
0.149652 0.00629922
0.149853 0.00609752
0.150108 0.00635231
0.150135 0.00632563
0.153114 0.00930452
0.153409 0.00900902
0.153613 0.00921244
0.154237 0.0085881
0.155802 0.0101533
0.155924 0.0100313
0.15602 0.0101266
0.158115 0.0080312
0.158893 0.0088094
0.159668 0.00803436
0.161109 0.00947498
0.161522 0.00906202
0.161576 0.0091161
0.161584 0.00910849
0.162202 0.00972658
0.162735 0.00919344
0.165322 0.0117809
0.165856 0.0112466
0.167051 0.0124415
0.168631 0.0108616
0.17023 0.01246
0.170709 0.0119802
0.17143 0.0127012
0.171858 0.0122731
0.175533 0.0159475
0.176084 0.0153967
0.176778 0.0160909
0.17723 0.0156389
0.17789 0.0162991
0.17791 0.0162789
0.178634 0.017003
0.179423 0.0162146
0.182107 0.018899
0.183605 0.0174013
0.187343 0.0211389
0.187566 0.0209159
0.187653 0.0210034
0.188428 0.0202289
0.189028 0.0208291
0.189535 0.0203224
0.190168 0.0209559
0.191022 0.020102
0.195764 0.024844
0.198089 0.022519
0.198352 0.0227819
0.198361 0.022773
0.205011 0.0294229
0.206073 0.0283607
0.206105 0.0283932
0.208899 0.0255993
0.210065 0.0267654
0.21268 0.0241509
0.21508 0.0265507
0.220019 0.0216111
0.220824 0.0224159
0.24324 0
0.243822 0
0.244013 0.000191668
0.244205 0
inf 0


"layer 18:"
-inf 0
0.135884 0
0.135886 2.447e-06
0.135889 0
0.136536 0
0.138342 0.0018061
0.138682 0.00146572
0.138734 0.00151766
0.139671 0.000580665
0.140502 0.00141161
0.140742 0.00117158
0.141576 0.00200554
0.142101 0.00148107
0.142546 0.0019262
0.143124 0.0013483
0.143232 0.001457
0.143601 0.00108842
0.145623 0.0031105
0.14586 0.00287308
0.146132 0.00314424
0.146228 0.00304802
0.146298 0.00311807
0.146384 0.0030317
0.147206 0.00385383
0.147408 0.00365213
0.149853 0.00609752
0.14988 0.00607084
0.150135 0.00632563
0.15043 0.00603013
0.153409 0.00900902
0.154034 0.00838468
0.154237 0.0085881
0.154359 0.0084661
0.155924 0.0100313
0.15802 0.00793592
0.158115 0.0080312
0.15889 0.00725616
0.159668 0.00803436
0.160081 0.0076214
0.161522 0.00906202
0.161529 0.00905441
0.161584 0.00910849
0.162117 0.00857534
0.162735 0.00919344
0.163269 0.00865915
0.165856 0.0112466
0.167436 0.00966673
0.168631 0.0108616
0.169111 0.0103818
0.170709 0.0119802
0.171137 0.0115522
0.171858 0.0122731
0.172409 0.0117223
0.176084 0.0153967
0.176536 0.0149447
0.17723 0.0156389
0.17725 0.0156187
0.17791 0.0162789
0.178699 0.0154905
0.179423 0.0162146
0.180921 0.0147169
0.183605 0.0174013
0.183828 0.0171783
0.187566 0.0209159
0.18834 0.0201413
0.188428 0.0202289
0.188934 0.0197222
0.189535 0.0203224
0.190388 0.0194685
0.191022 0.020102
0.193347 0.017777
0.198089 0.022519
0.198098 0.02251
0.198361 0.022773
0.199423 0.0217108
0.206073 0.0283607
0.208867 0.0255668
0.208899 0.0255993
0.211514 0.0229848
0.21268 0.0241509
0.217619 0.0192113
0.220019 0.0216111
0.221002 0.0206288
0.221071 0.0206983
0.241769 0
inf 0


"layer 19:"
-inf 0
0.137217 0
0.138682 0.00146572
0.139619 0.000528725
0.139671 0.000580665
0.139911 0.000340634
0.140742 0.00117158
0.141267 0.000647109
0.142101 0.00148107
0.142679 0.000903166
0.143124 0.0013483
0.143492 0.000979721
0.143601 0.00108842
0.143838 0.000851008
0.14586 0.00287308
0.145957 0.00277687
0.146228 0.00304802
0.146314 0.00296165
0.146384 0.0030317
0.146586 0.00283
0.147408 0.00365213
0.147435 0.00362545
0.14988 0.00607084
0.150176 0.00577534
0.15043 0.00603013
0.151055 0.00540579
0.154034 0.00838468
0.154156 0.00826268
0.154359 0.0084661
0.156454 0.00637068
0.15802 0.00793592
0.158795 0.00716088
0.15889 0.00725616
0.158973 0.00717288
0.159207 0.00740692
0.159537 0.00707724
0.160081 0.0076214
0.160089 0.00761379
0.161529 0.00905441
0.162063 0.00852127
0.162117 0.00857534
0.162651 0.00804105
0.163269 0.00865915
0.164849 0.00707931
0.167436 0.00966673
0.167916 0.00918697
0.169111 0.0103818
0.169539 0.00995376
0.171137 0.0115522
0.171688 0.0110013
0.172409 0.0117223
0.172861 0.0112702
0.176536 0.0149447
0.176556 0.0149245
0.17725 0.0156187
0.178038 0.0148303
0.178699 0.0154905
0.180196 0.0139927
0.180921 0.0147169
0.181144 0.0144939
0.183828 0.0171783
0.184603 0.0164037
0.18834 0.0201413
0.188847 0.0196347
0.188934 0.0197222
0.189788 0.0188683
0.190388 0.0194685
0.191453 0.0184041
0.191717 0.0186678
0.192977 0.0174072
0.193347 0.017777
0.193356 0.017768
0.198098 0.02251
0.19916 0.0214479
0.199423 0.0217108
0.202217 0.0189169
0.208867 0.0255668
0.211481 0.0229523
0.211514 0.0229848
0.216453 0.0180453
0.217619 0.0192113
0.218602 0.018229
0.221002 0.0206288
0.24163 0
inf 0


"layer 20:"
-inf 0
0.139091 0
0.139619 0.000528725
0.139859 0.000288694
0.139911 0.000340634
0.140252 0
0.14062 0
0.141267 0.000647109
0.141845 6.92074e-05
0.142679 0.000903166
0.143047 0.00053459
0.143492 0.000979721
0.14373 0.000742308
0.143838 0.000851008
0.143935 0.000754793
0.145957 0.00277687
0.146043 0.0026905
0.146314 0.00296165
0.146516 0.00275996
0.146586 0.00283
0.146613 0.00280332
0.147435 0.00362545
0.14773 0.00332995
0.150176 0.00577534
0.1508 0.005151
0.151055 0.00540579
0.151177 0.00528379
0.154156 0.00826268
0.156251 0.00616726
0.156454 0.00637068
0.15723 0.00559564
0.158795 0.00716088
0.158878 0.0070776
0.158973 0.00717288
0.159303 0.0068432
0.159537 0.00707724
0.159545 0.00706963
0.160089 0.00761379
0.160622 0.00708064
0.162063 0.00852127
0.162597 0.00798698
0.162651 0.00804105
0.164231 0.00646121
0.164849 0.00707931
0.165154 0.00677418
0.166022 0.00764217
0.166197 0.00746754
0.167916 0.00918697
0.168344 0.00875888
0.169539 0.00995376
0.17009 0.00940292
0.171688 0.0110013
0.17214 0.0105493
0.172861 0.0112702
0.172881 0.01125
0.176556 0.0149245
0.177344 0.0141361
0.178038 0.0148303
0.179536 0.0133325
0.180196 0.0139927
0.180419 0.0137697
0.181144 0.0144939
0.181918 0.0137193
0.184603 0.0164037
0.185109 0.015897
0.188847 0.0196347
0.189701 0.0187808
0.189788 0.0188683
0.190853 0.0178039
0.191453 0.0184041
0.192713 0.0171435
0.192977 0.0174072
0.192986 0.0173983
0.193356 0.017768
0.194418 0.0167058
0.19916 0.0214479
0.201954 0.018654
0.202217 0.0189169
0.204831 0.0163024
0.211481 0.0229523
0.216421 0.0180128
0.216453 0.0180453
0.217436 0.017063
0.218602 0.018229
0.225447 0.0113834
0.226571 0.0125071
0.239078 0
inf 0


"layer 21:"
-inf 0
0.139571 0
0.139859 0.000288694
0.140148 0
0.141775 0
0.141845 6.92074e-05
0.141914 0
0.142513 0
0.143047 0.00053459
0.143285 0.000297177
0.14373 0.000742308
0.143826 0.000646092
0.143935 0.000754793
0.144021 0.000668426
0.146043 0.0026905
0.146245 0.0024888
0.146516 0.00275996
0.146543 0.00273328
0.146613 0.00280332
0.146908 0.00250782
0.14773 0.00332995
0.148355 0.00270561
0.1508 0.005151
0.150922 0.00502899
0.151177 0.00528379
0.153272 0.00318837
0.156251 0.00616726
0.157026 0.00539223
0.15723 0.00559564
0.157313 0.00551236
0.158878 0.0070776
0.159208 0.00674792
0.159303 0.0068432
0.159311 0.00683559
0.159545 0.00706963
0.160078 0.00653649
0.160622 0.00708064
0.161156 0.00654635
0.162597 0.00798698
0.164177 0.00640714
0.164231 0.00646121
0.164536 0.00615608
0.165154 0.00677418
0.165329 0.00659955
0.166197 0.00746754
0.166625 0.00703945
0.168344 0.00875888
0.168895 0.00820803
0.17009 0.00940292
0.170542 0.00895089
0.17214 0.0105493
0.17216 0.0105291
0.172881 0.01125
0.173502 0.0106291
0.174484 0.011611
0.174652 0.0114436
0.177344 0.0141361
0.178842 0.0126383
0.179536 0.0133325
0.179759 0.0131095
0.180419 0.0137697
0.181194 0.0129952
0.181918 0.0137193
0.182425 0.0132126
0.185109 0.015897
0.185963 0.0150432
0.189701 0.0187808
0.190765 0.0177164
0.190853 0.0178039
0.192113 0.0165433
0.192713 0.0171435
0.192722 0.0171345
0.192986 0.0173983
0.194048 0.0163361
0.194418 0.0167058
0.197212 0.013912
0.201954 0.018654
0.204568 0.0160395
0.204831 0.0163024
0.205742 0.0153914
0.211633 0.021282
0.212947 0.019968
0.213502 0.0205236
0.216217 0.017809
0.216421 0.0180128
0.217403 0.0170305
0.217436 0.017063
0.224281 0.0102174
0.225447 0.0113834
0.236831 0
inf 0


"layer 22:"
-inf 0
0.142987 0
0.143285 0.000297177
0.143381 0.000200962
0.143826 0.000646092
0.143912 0.000559725
0.144021 0.000668426
0.144223 0.000466728
0.146245 0.0024888
0.146271 0.00246212
0.146543 0.00273328
0.146838 0.00243777
0.146908 0.00250782
0.147532 0.00188348
0.148355 0.00270561
0.148477 0.00258361
0.150922 0.00502899
0.153017 0.00293358
0.153272 0.00318837
0.154047 0.00241333
0.157026 0.00539223
0.157109 0.00530894
0.157313 0.00551236
0.157642 0.00518268
0.159208 0.00674792
0.159215 0.00674031
0.159311 0.00683559
0.159844 0.00630245
0.160078 0.00653649
0.160612 0.00600219
0.161156 0.00654635
0.162736 0.00496651
0.164177 0.00640714
0.164482 0.00610201
0.164536 0.00615608
0.164711 0.00598145
0.165329 0.00659955
0.165757 0.00617146
0.166625 0.00703945
0.167176 0.0064886
0.168895 0.00820803
0.169347 0.00775601
0.170542 0.00895089
0.170562 0.00893069
0.17216 0.0105291
0.172781 0.00990813
0.173502 0.0106291
0.17367 0.0104616
0.174652 0.0114436
0.17615 0.00994582
0.178842 0.0126383
0.179065 0.0124153
0.179759 0.0131095
0.180534 0.012335
0.181194 0.0129952
0.181701 0.0124885
0.182425 0.0132126
0.183279 0.0123587
0.185963 0.0150432
0.187027 0.0139788
0.190765 0.0177164
0.192026 0.0164558
0.192113 0.0165433
0.192122 0.0165344
0.192722 0.0171345
0.193785 0.0160723
0.194048 0.0163361
0.196842 0.0135422
0.197212 0.013912
0.199826 0.0112975
0.204568 0.0160395
0.205479 0.0151285
0.205742 0.0153914
0.207056 0.0140774
0.212947 0.019968
0.215662 0.0172534
0.216217 0.017809
0.217199 0.0168267
0.217403 0.0170305
0.224249 0.0101849
0.224281 0.0102174
0.23212 0.00237895
0.233045 0.00330401
0.236349 0
inf 0


"layer 23:"
-inf 0
0.14318 0
0.143381 0.000200962
0.143467 0.000114595
0.143912 0.000559725
0.144114 0.000358027
0.144223 0.000466728
0.144249 0.000440047
0.146271 0.00246212
0.146567 0.00216662
0.146838 0.00243777
0.147462 0.00181343
0.147532 0.00188348
0.147654 0.00176148
0.148477 0.00258361
0.149529 0.00153114
0.150253 0.00225502
0.151296 0.00121207
0.153017 0.00293358
0.153792 0.00215854
0.154047 0.00241333
0.15413 0.00233005
0.157109 0.00530894
0.157439 0.00497926
0.157642 0.00518268
0.15765 0.00517507
0.159215 0.00674031
0.159748 0.00620717
0.159844 0.00630245
0.160378 0.00576816
0.160612 0.00600219
0.162192 0.00442235
0.162736 0.00496651
0.163041 0.00466138
0.164482 0.00610201
0.164656 0.00592738
0.164711 0.00598145
0.165139 0.00555336
0.165757 0.00617146
0.166308 0.00562061
0.167176 0.0064886
0.167628 0.00603658
0.169347 0.00775601
0.169367 0.00773581
0.170562 0.00893069
0.171183 0.00830973
0.172781 0.00990813
0.172949 0.0097407
0.17367 0.0104616
0.175168 0.00896388
0.17615 0.00994582
0.176373 0.00972282
0.179065 0.0124153
0.17984 0.0116408
0.180534 0.012335
0.18104 0.0118283
0.181701 0.0124885
0.182555 0.0116346
0.183279 0.0123587
0.184343 0.0112944
0.187027 0.0139788
0.188288 0.0127182
0.192026 0.0164558
0.192035 0.0164468
0.192122 0.0165344
0.193184 0.0154722
0.193785 0.0160723
0.196578 0.0132785
0.196842 0.0135422
0.199457 0.0109277
0.199826 0.0112975
0.200737 0.0103864
0.205479 0.0151285
0.206793 0.0138145
0.207056 0.0140774
0.209771 0.0113629
0.215662 0.0172534
0.216644 0.0162711
0.217199 0.0168267
0.224045 0.00998112
0.224249 0.0101849
0.232087 0.00234644
0.23212 0.00237895
0.234499 0
inf 0


"layer 24:"
-inf 0
0.143353 0
0.143467 0.000114595
0.143582 0
0.143756 0
0.144114 0.000358027
0.144141 0.000331346
0.144249 0.000440047
0.144545 0.000144544
0.146567 0.00216662
0.147191 0.00154228
0.147462 0.00181343
0.147584 0.00169143
0.147654 0.00176148
0.148707 0.000709009
0.149529 0.00153114
0.150572 0.000488188
0.151296 0.00121207
0.152071 0.000437035
0.153792 0.00215854
0.153876 0.00207526
0.15413 0.00233005
0.15446 0.00200037
0.157439 0.00497926
0.157447 0.00497165
0.15765 0.00517507
0.158183 0.00464193
0.159748 0.00620717
0.160283 0.00567288
0.160378 0.00576816
0.161958 0.00418831
0.162192 0.00442235
0.162497 0.00411722
0.163041 0.00466138
0.163216 0.00448675
0.164656 0.00592738
0.165085 0.00549929
0.165139 0.00555336
0.165689 0.00500252
0.166308 0.00562061
0.16676 0.00516859
0.167628 0.00603658
0.167648 0.00601638
0.169367 0.00773581
0.169988 0.00711485
0.171183 0.00830973
0.17135 0.0081423
0.172949 0.0097407
0.174447 0.00824293
0.175168 0.00896388
0.175391 0.00874088
0.176373 0.00972282
0.177147 0.00894827
0.17984 0.0116408
0.180346 0.0111341
0.18104 0.0118283
0.181894 0.0109744
0.182555 0.0116346
0.183619 0.0105702
0.184343 0.0112944
0.185604 0.0100337
0.188288 0.0127182
0.188297 0.0127092
0.192035 0.0164468
0.193097 0.0153846
0.193184 0.0154722
0.195978 0.0126783
0.196578 0.0132785
0.199193 0.010664
0.199457 0.0109277
0.200368 0.0100167
0.200737 0.0103864
0.202051 0.00907249
0.206793 0.0138145
0.209508 0.0110999
0.209771 0.0113629
0.210753 0.0103806
0.216644 0.0162711
0.223489 0.00942556
0.224045 0.00998112
0.231883 0.00214267
0.232087 0.00234644
0.234434 0
inf 0


"layer 25:"
-inf 0
0.143809 0
0.144141 0.000331346
0.144436 3.58437e-05
0.144545 0.000144544
0.144689 0
0.145649 0
0.147191 0.00154228
0.147313 0.00142028
0.147584 0.00169143
0.148637 0.000638964
0.148707 0.000709009
0.149416 0
0.150084 0
0.150572 0.000488188
0.15106 0
0.151634 0
0.152071 0.000437035
0.152154 0.000353751
0.153876 0.00207526
0.154205 0.00174558
0.15446 0.00200037
0.154468 0.00199276
0.157447 0.00497165
0.15798 0.00443851
0.158183 0.00464193
0.158718 0.00410764
0.160283 0.00567288
0.161863 0.00409303
0.161958 0.00418831
0.162263 0.00388318
0.162497 0.00411722
0.162672 0.00394259
0.163216 0.00448675
0.163644 0.00405866
0.165085 0.00549929
0.165635 0.00494844
0.165689 0.00500252
0.166142 0.00455049
0.16676 0.00516859
0.16678 0.00514839
0.167648 0.00601638
0.168269 0.00539542
0.169988 0.00711485
0.170156 0.00694742
0.17135 0.0081423
0.17229 0.00720325
0.173783 0.00869663
0.174342 0.00813792
0.174447 0.00824293
0.17467 0.00801993
0.175391 0.00874088
0.176165 0.00796633
0.177147 0.00894827
0.177654 0.00844159
0.180346 0.0111341
0.1812 0.0102802
0.181894 0.0109744
0.182959 0.00991004
0.183619 0.0105702
0.18488 0.00930963
0.185604 0.0100337
0.185613 0.0100248
0.188297 0.0127092
0.188898 0.0121086
0.190394 0.0136047
0.190855 0.0131431
0.193097 0.0153846
0.195891 0.0125908
0.195978 0.0126783
0.198593 0.0100638
0.199193 0.010664
0.200104 0.00975295
0.200368 0.0100167
0.201682 0.00870274
0.202051 0.00907249
0.204766 0.00635792
0.209508 0.0110999
0.21049 0.0101176
0.210753 0.0103806
0.211614 0.00952013
0.211833 0.00973929
0.212885 0.00868762
0.217605 0.0134086
0.222539 0.00847509
0.223489 0.00942556
0.231328 0.00158712
0.231883 0.00214267
0.234026 0
inf 0


"layer 26:"
-inf 0
0.1444 0
0.144436 3.58437e-05
0.144472 0
0.145893 0
0.147313 0.00142028
0.148366 0.00036781
0.148637 0.000638964
0.149276 0
0.1518 0
0.152154 0.000353751
0.152484 2.40744e-05
0.154205 0.00174558
0.154213 0.00173797
0.154468 0.00199276
0.155001 0.00145962
0.15798 0.00443851
0.158514 0.00390422
0.158718 0.00410764
0.160297 0.0025278
0.161863 0.00409303
0.162168 0.0037879
0.162263 0.00388318
0.162438 0.00370855
0.162672 0.00394259
0.1631 0.0035145
0.163644 0.00405866
0.164195 0.00350782
0.165635 0.00494844
0.166087 0.00449642
0.166142 0.00455049
0.166162 0.00453029
0.16678 0.00514839
0.167401 0.00452743
0.168269 0.00539542
0.168436 0.00522799
0.170156 0.00694742
0.170718 0.00638532
0.171265 0.00693227
0.171642 0.00655532
0.17229 0.00720325
0.172848 0.00664454
0.174342 0.00813792
0.174565 0.00791492
0.17467 0.00801993
0.175444 0.00724539
0.176165 0.00796633
0.176672 0.00745965
0.177654 0.00844159
0.178508 0.0075877
0.1812 0.0102802
0.182265 0.0092158
0.182959 0.00991004
0.184219 0.00864943
0.18488 0.00930963
0.184889 0.00930068
0.185613 0.0100248
0.186213 0.00942418
0.188898 0.0121086
0.189359 0.011647
0.190855 0.0131431
0.193649 0.0103492
0.195891 0.0125908
0.198505 0.00997628
0.198593 0.0100638
0.199504 0.00915277
0.200104 0.00975295
0.201418 0.008439
0.201682 0.00870274
0.204396 0.00598817
0.204766 0.00635792
0.205038 0.0060863
0.209724 0.0107727
0.210435 0.010062
0.21049 0.0101176
0.211351 0.00925719
0.211614 0.00952013
0.212665 0.00846846
0.212885 0.00868762
0.217818 0.00375415
0.222539 0.00847509
0.230377 0.000636645
0.231328 0.00158712
0.232915 0
inf 0


"layer 27:"
-inf 0
0.147998 0
0.148366 0.00036781
0.148734 0
0.15246 0
0.152484 2.40744e-05
0.152491 1.64623e-05
0.154213 0.00173797
0.154746 0.00120482
0.155001 0.00145962
0.155535 0.000925329
0.158514 0.00390422
0.160094 0.00232438
0.160297 0.0025278
0.160603 0.00222267
0.162168 0.0037879
0.162342 0.00361327
0.162438 0.00370855
0.162866 0.00328046
0.1631 0.0035145
0.163651 0.00296366
0.164195 0.00350782
0.164647 0.00305579
0.166087 0.00449642
0.166108 0.00447622
0.166162 0.00453029
0.166783 0.00390933
0.167401 0.00452743
0.167568 0.00436
0.168436 0.00522799
0.168998 0.00466589
0.170718 0.00638532
0.170861 0.00624164
0.171355 0.00673547
0.171588 0.0065022
0.171642 0.00655532
0.1722 0.0059966
0.172848 0.00664454
0.173071 0.00642154
0.174565 0.00791492
0.175339 0.00714037
0.175444 0.00724539
0.175951 0.00673871
0.176672 0.00745965
0.177526 0.00660576
0.178508 0.0075877
0.179572 0.00652332
0.182265 0.0092158
0.183525 0.00795519
0.184219 0.00864943
0.184228 0.00864048
0.184889 0.00930068
0.185489 0.00870008
0.186213 0.00942418
0.186675 0.0089626
0.189359 0.011647
0.1907 0.0103061
0.190844 0.0104505
0.192297 0.00899748
0.193649 0.0103492
0.196264 0.00773474
0.198505 0.00997628
0.199416 0.00906525
0.199504 0.00915277
0.200818 0.00783882
0.201418 0.008439
0.204132 0.00572442
0.204396 0.00598817
0.204668 0.00571655
0.205038 0.0060863
0.205748 0.00537561
0.210435 0.010062
0.211295 0.00920155
0.211351 0.00925719
0.212402 0.00820552
0.212665 0.00846846
0.217599 0.00353499
0.217818 0.00375415
0.221572 0
0.229741 0
0.230377 0.000636645
0.231014 0
inf 0


"layer 28:"
-inf 0
0.152475 0
0.152491 1.64623e-05
0.152508 0
0.152739 0
0.152838 9.90522e-05
0.152937 0
0.153541 0
0.154746 0.00120482
0.15528 0.000670535
0.155535 0.000925329
0.156461 0
0.15777 0
0.160094 0.00232438
0.160399 0.00201925
0.160603 0.00222267
0.160777 0.00204804
0.162342 0.00361327
0.16277 0.00318518
0.162866 0.00328046
0.163417 0.00272962
0.163651 0.00296366
0.164103 0.00251163
0.164647 0.00305579
0.164667 0.0030356
0.166108 0.00447622
0.166729 0.00385526
0.166783 0.00390933
0.16695 0.0037419
0.167568 0.00436
0.16813 0.0037979
0.168998 0.00466589
0.169142 0.00452221
0.170861 0.00624164
0.171095 0.00600837
0.171588 0.0065022
0.172147 0.00594348
0.1722 0.0059966
0.172423 0.0057736
0.173071 0.00642154
0.173846 0.00564699
0.175339 0.00714037
0.175846 0.00663369
0.175951 0.00673871
0.176805 0.00588482
0.177526 0.00660576
0.17859 0.00554138
0.179572 0.00652332
0.180833 0.00526271
0.183525 0.00795519
0.183534 0.00794623
0.184228 0.00864048
0.184587 0.00828188
0.184779 0.00847384
0.185021 0.00823183
0.185489 0.00870008
0.185951 0.00823849
0.186675 0.0089626
0.188016 0.00762172
0.1907 0.0103061
0.192153 0.00885314
0.192297 0.00899748
0.194912 0.006383
0.196264 0.00773474
0.197175 0.0068237
0.199416 0.00906525
0.20073 0.0077513
0.200818 0.00783882
0.203532 0.00512425
0.204132 0.00572442
0.204404 0.00545281
0.204668 0.00571655
0.205379 0.00500586
0.205748 0.00537561
0.206609 0.00451518
0.211295 0.00920155
0.212347 0.00814988
0.212402 0.00820552
0.217336 0.00327205
0.217599 0.00353499
0.221134 0
inf 0


"layer 29:"
-inf 0
0.15461 0
0.15528 0.000670535
0.155951 0
0.15838 0
0.160399 0.00201925
0.160574 0.00184462
0.160777 0.00204804
0.161205 0.00161995
0.16277 0.00318518
0.163321 0.00263434
0.163417 0.00272962
0.163869 0.00227759
0.164103 0.00251163
0.164123 0.00249144
0.164667 0.0030356
0.165288 0.00241463
0.166729 0.00385526
0.166896 0.00368783
0.16695 0.0037419
0.167512 0.00317981
0.16813 0.0037979
0.168274 0.00365422
0.169142 0.00452221
0.169375 0.00428894
0.171095 0.00600837
0.171653 0.00544966
0.172147 0.00594348
0.17237 0.00572048
0.172423 0.0057736
0.173198 0.00499906
0.173846 0.00564699
0.174352 0.00514031
0.175846 0.00663369
0.1767 0.0057798
0.176805 0.00588482
0.177869 0.00482044
0.17859 0.00554138
0.179851 0.00428076
0.180833 0.00526271
0.180842 0.00525376
0.183534 0.00794623
0.183893 0.00758764
0.184587 0.00828188
0.184829 0.00803987
0.185021 0.00823183
0.185482 0.00777025
0.185951 0.00823849
0.187292 0.00689761
0.188016 0.00762172
0.189469 0.00616872
0.192153 0.00885314
0.194768 0.00623866
0.194912 0.006383
0.195823 0.00547196
0.197175 0.0068237
0.198489 0.00550976
0.20073 0.0077513
0.203445 0.00503672
0.203532 0.00512425
0.203804 0.00485263
0.204404 0.00545281
0.205115 0.00474211
0.205379 0.00500586
0.206239 0.00414543
0.206609 0.00451518
0.20766 0.00346351
0.212347 0.00814988
0.21728 0.00321641
0.217336 0.00327205
0.220608 0
inf 0


"layer 30:"
-inf 0
0.158729 0
0.160574 0.00184462
0.161002 0.00141653
0.161205 0.00161995
0.161756 0.0010691
0.163321 0.00263434
0.163773 0.00218231
0.163869 0.00227759
0.163889 0.0022574
0.164123 0.00249144
0.164744 0.00187048
0.165288 0.00241463
0.165455 0.0022472
0.166896 0.00368783
0.167458 0.00312573
0.167512 0.00317981
0.167539 0.00315301
0.167995 0.00360938
0.168112 0.0034925
0.168274 0.00365422
0.168507 0.00342095
0.169375 0.00428894
0.169934 0.00373023
0.171653 0.00544966
0.171876 0.00522666
0.17237 0.00572048
0.173145 0.00494594
0.173198 0.00499906
0.173705 0.00449238
0.174352 0.00514031
0.175206 0.00428642
0.1767 0.0057798
0.177764 0.00471542
0.177869 0.00482044
0.17913 0.00355982
0.179851 0.00428076
0.17986 0.00427181
0.180842 0.00525376
0.1812 0.00489516
0.183893 0.00758764
0.184135 0.00734563
0.184829 0.00803987
0.185291 0.00757829
0.185482 0.00777025
0.186823 0.00642937
0.187292 0.00689761
0.188745 0.00544461
0.189469 0.00616872
0.192083 0.00355424
0.194768 0.00623866
0.195679 0.00532762
0.195823 0.00547196
0.197137 0.00415801
0.198489 0.00550976
0.201203 0.00279518
0.203445 0.00503672
0.203716 0.0047651
0.203804 0.00485263
0.204515 0.00414194
0.205115 0.00474211
0.205975 0.00388168
0.206239 0.00414543
0.207291 0.00309375
0.20766 0.00346351
0.209964 0.00116028
0.211011 0.00220789
0.213219 0
0.214064 0
0.21728 0.00321641
0.220497 0
inf 0


"layer 31:"
-inf 0
0.159039 0
0.15986 0.000821109
0.160133 0.000547996
0.161002 0.00141653
0.161553 0.000865683
0.161756 0.0010691
0.162208 0.000617079
0.163773 0.00218231
0.163794 0.00216212
0.163889 0.0022574
0.16451 0.00163644
0.164744 0.00187048
0.164911 0.00170304
0.165455 0.0022472
0.166017 0.00168511
0.167458 0.00312573
0.167485 0.00309894
0.167539 0.00315301
0.167656 0.00303613
0.168112 0.0034925
0.168346 0.00325923
0.168507 0.00342095
0.169066 0.00286224
0.169934 0.00373023
0.170157 0.00350723
0.171876 0.00522666
0.172651 0.00445211
0.173145 0.00494594
0.173651 0.00443926
0.173705 0.00449238
0.174558 0.00363849
0.175206 0.00428642
0.176271 0.00322204
0.177764 0.00471542
0.179025 0.0034548
0.17913 0.00355982
0.179139 0.00355087
0.17986 0.00427181
0.180218 0.00391322
0.1812 0.00489516
0.181442 0.00465315
0.184135 0.00734563
0.184596 0.00688405
0.185291 0.00757829
0.186631 0.00623741
0.186823 0.00642937
0.188276 0.00497637
0.188745 0.00544461
0.191359 0.00283013
0.192083 0.00355424
0.192994 0.0026432
0.195679 0.00532762
0.196993 0.00401368
0.197137 0.00415801
0.199851 0.00144344
0.201203 0.00279518
0.201475 0.00252356
0.203716 0.0047651
0.204427 0.00405441
0.204515 0.00414194
0.205375 0.00328151
0.205975 0.00388168
0.207027 0.00283001
0.207291 0.00309375
0.209594 0.000790527
0.209964 0.00116028
0.211124 0
inf 0


"layer 32:"
-inf 0
0.159585 0
0.160133 0.000547996
0.160681 0
0.160687 0
0.161553 0.000865683
0.162005 0.000413659
0.162208 0.000617079
0.162228 0.000596881
0.163794 0.00216212
0.164414 0.00154116
0.16451 0.00163644
0.164677 0.00146901
0.164911 0.00170304
0.165473 0.00114095
0.166017 0.00168511
0.166044 0.00165831
0.167485 0.00309894
0.167602 0.00298205
0.167656 0.00303613
0.167889 0.00280286
0.168346 0.00325923
0.168904 0.00270051
0.169066 0.00286224
0.169289 0.00263923
0.170157 0.00350723
0.170931 0.00273268
0.172651 0.00445211
0.173158 0.00394543
0.173651 0.00443926
0.174505 0.00358537
0.174558 0.00363849
0.175623 0.00257411
0.176271 0.00322204
0.177531 0.00196143
0.179025 0.0034548
0.179034 0.00344585
0.179139 0.00355087
0.179497 0.00319227
0.180218 0.00391322
0.18046 0.00367121
0.181442 0.00465315
0.181904 0.00419157
0.184596 0.00688405
0.185937 0.00554317
0.186631 0.00623741
0.188084 0.00478441
0.188276 0.00497637
0.190891 0.00236189
0.191359 0.00283013
0.19227 0.0019191
0.192994 0.0026432
0.194308 0.00132925
0.196993 0.00401368
0.199707 0.0012991
0.199851 0.00144344
0.200123 0.00117182
0.201475 0.00252356
0.202005 0.00199382
0.202524 0.00251289
0.202705 0.00233194
0.204427 0.00405441
0.205288 0.00319398
0.205375 0.00328151
0.206427 0.00222983
0.207027 0.00283001
0.20933 0.000526783
0.209594 0.000790527
0.210384 0
inf 0


"layer 33:"
-inf 0
0.161591 0
0.162005 0.000413659
0.162025 0.000393461
0.162228 0.000596881
0.162825 0
0.162873 0
0.164414 0.00154116
0.164582 0.00137373
0.164677 0.00146901
0.165239 0.00090691
0.165473 0.00114095
0.1655 0.00111416
0.166044 0.00165831
0.166161 0.00154143
0.167602 0.00298205
0.167835 0.00274878
0.167889 0.00280286
0.168448 0.00224414
0.168904 0.00270051
0.169127 0.00247751
0.169289 0.00263923
0.170063 0.00186469
0.170931 0.00273268
0.171438 0.002226
0.173158 0.00394543
0.174011 0.00309154
0.174505 0.00358537
0.17557 0.00252099
0.175623 0.00257411
0.176883 0.00131349
0.177531 0.00196143
0.17754 0.00195247
0.179034 0.00344585
0.179392 0.00308726
0.179497 0.00319227
0.179739 0.00295027
0.18046 0.00367121
0.180922 0.00320962
0.181904 0.00419157
0.183245 0.00285069
0.185937 0.00554317
0.18739 0.00409016
0.188084 0.00478441
0.190699 0.00216993
0.190891 0.00236189
0.191802 0.00145085
0.19227 0.0019191
0.193584 0.000605148
0.194308 0.00132925
0.195637 0
0.198408 0
0.199707 0.0012991
0.199979 0.00102748
0.200123 0.00117182
0.200653 0.000642076
0.202005 0.00199382
0.202186 0.00181287
0.202705 0.00233194
0.203565 0.00147151
0.205288 0.00319398
0.206339 0.00214231
0.206427 0.00222983
0.208657 0
0.208803 0
0.20933 0.000526783
0.209857 0
inf 0


"layer 34:"
-inf 0
0.161631 0
0.162025 0.000393461
0.162418 0
0.163208 0
0.164582 0.00137373
0.165144 0.00081163
0.165239 0.00090691
0.165266 0.000880116
0.1655 0.00111416
0.165617 0.000997269
0.166161 0.00154143
0.166394 0.00130816
0.167835 0.00274878
0.168394 0.00219007
0.168448 0.00224414
0.168671 0.00202114
0.169127 0.00247751
0.169902 0.00170296
0.170063 0.00186469
0.17057 0.00135801
0.171438 0.002226
0.172292 0.00137211
0.174011 0.00309154
0.175076 0.00202716
0.17557 0.00252099
0.17683 0.00126037
0.176883 0.00131349
0.176892 0.00130454
0.17754 0.00195247
0.177899 0.00159388
0.179392 0.00308726
0.179634 0.00284525
0.179739 0.00295027
0.180201 0.00248868
0.180922 0.00320962
0.182263 0.00186874
0.183245 0.00285069
0.184698 0.00139769
0.18739 0.00409016
0.190005 0.00147569
0.190699 0.00216993
0.19161 0.00125889
0.191802 0.00145085
0.193116 0.000136901
0.193584 0.000605148
0.194189 0
0.198951 0
0.199979 0.00102748
0.200509 0.000497739
0.200653 0.000642076
0.200834 0.000461129
0.202186 0.00181287
0.203046 0.000952441
0.203565 0.00147151
0.204617 0.000419835
0.206339 0.00214231
0.208482 0
inf 0


"layer 35:"
-inf 0
0.164332 0
0.165144 0.00081163
0.165171 0.000784836
0.165266 0.000880116
0.165383 0.000763229
0.165617 0.000997269
0.16585 0.000763997
0.166394 0.00130816
0.16691 0.000792344
0.167982 0.00186436
0.168025 0.00182146
0.168394 0.00219007
0.168617 0.00196706
0.168671 0.00202114
0.1689 0.00179209
0.169035 0.0019268
0.16958 0.0013813
0.169902 0.00170296
0.170408 0.00119628
0.17057 0.00135801
0.171424 0.00050412
0.172292 0.00137211
0.173356 0.00030773
0.175076 0.00202716
0.176336 0.000766544
0.17683 0.00126037
0.176839 0.00125142
0.176892 0.00130454
0.177251 0.000945943
0.177899 0.00159388
0.178141 0.00135187
0.179634 0.00284525
0.180096 0.00238366
0.180201 0.00248868
0.181542 0.0011478
0.182263 0.00186874
0.183716 0.000415743
0.184698 0.00139769
0.18477 0.00132504
0.186532 0.00308715
0.189074 0.000545314
0.190005 0.00147569
0.190916 0.000564648
0.19161 0.00125889
0.192869 0
0.192979 0
0.193116 0.000136901
0.193253 0
0.200011 0
0.200509 0.000497739
0.200689 0.000316792
0.200834 0.000461129
0.201295 0
0.202094 0
0.203046 0.000952441
0.203998 0
0.204197 0
0.204617 0.000419835
0.205037 0
inf 0


"layer 36:"
-inf 0
0.164386 0
0.165171 0.000784836
0.165288 0.000667949
0.165383 0.000763229
0.165616 0.000529958
0.16585 0.000763997
0.166366 0.000248185
0.16691 0.000792344
0.166953 0.000749441
0.168025 0.00182146
0.168248 0.00159845
0.168617 0.00196706
0.168846 0.00173802
0.1689 0.00179209
0.169445 0.00124659
0.16958 0.0013813
0.170026 0.000935418
0.170028 0.000937269
0.170089 0.000876475
0.170408 0.00119628
0.171262 0.000342395
0.171424 0.00050412
0.171928 0
0.173049 0
0.173356 0.00030773
0.173664 0
0.17557 0
0.176336 0.000766544
0.176345 0.000757593
0.176839 0.00125142
0.177198 0.000892824
0.177251 0.000945943
0.177493 0.000703933
0.178141 0.00135187
0.178603 0.000890287
0.180096 0.00238366
0.181437 0.00104278
0.181542 0.0011478
0.18269 0
0.1833 0
0.183716 0.000415743
0.183788 0.000343102
0.18477 0.00132504
0.186095 0
0.188529 0
0.189074 0.000545314
0.18962 0
0.190351 0
0.190916 0.000564648
0.19148 0
0.200373 0
0.200689 0.000316792
0.201006 0
inf 0


"layer 37:"
-inf 0
0.16462 0
0.165288 0.000667949
0.165521 0.000434678
0.165616 0.000529958
0.166132 1.41454e-05
0.166366 0.000248185
0.166409 0.000205282
0.166953 0.000749441
0.167176 0.00052644
0.168248 0.00159845
0.168477 0.00136941
0.168846 0.00173802
0.169391 0.00119252
0.169445 0.00124659
0.169891 0.000800709
0.170026 0.000935418
0.170087 0.000874623
0.170089 0.000876475
0.170943 2.25849e-05
0.171262 0.000342395
0.171605 0
0.175588 0
0.176345 0.000757593
0.176697 0.000405681
0.177119 0.000827432
0.177126 0.000820748
0.177198 0.000892824
0.17744 0.000650814
0.177493 0.000703933
0.17791 0.000286446
0.178374 0.000749885
0.178418 0.00070579
0.178603 0.000890287
0.179493 0
0.180394 0
0.181437 0.00104278
0.18248 0
0.183445 0
0.183788 0.000343102
0.184131 0
inf 0


"layer 38:"
-inf 0
0.165086 0
0.165521 0.000434678
0.165956 0
0.166118 0
0.166132 1.41454e-05
0.166146 0
0.166204 0
0.166409 0.000205282
0.166614 0
0.16665 0
0.167176 0.00052644
0.167405 0.000297395
0.168477 0.00136941
0.169023 0.000823909
0.169391 0.00119252
0.169837 0.000746635
0.169891 0.000800709
0.169952 0.000739914
0.170087 0.000874623
0.170941 2.07338e-05
0.170943 2.25849e-05
0.170965 0
0.176292 0
0.176697 0.000405681
0.176704 0.000398996
0.177126 0.000820748
0.177368 0.000578738
0.17744 0.000650814
0.177857 0.000233327
0.17791 0.000286446
0.177955 0.000242351
0.178418 0.00070579
0.179124 0
0.181468 0
0.181871 0.000403217
0.182274 0
inf 0


"layer 39:"
-inf 0
0.167108 0
0.167405 0.000297395
0.167703 0
0.168199 0
0.169023 0.000823909
0.169469 0.000378024
0.169837 0.000746635
0.169898 0.00068584
0.169952 0.000739914
0.170692 0
0.17092 0
0.170941 2.07338e-05
0.170961 0
0.176305 0
0.176704 0.000398996
0.176946 0.000156987
0.177368 0.000578738
0.177785 0.000161251
0.177857 0.000233327
0.177901 0.000189232
0.177955 0.000242351
0.178197 0
inf 0


"layer 40:"
-inf 0
0.169091 0
0.169469 0.000378024
0.169529 0.00031723
0.169898 0.00068584
0.170584 0
0.176789 0
0.176946 0.000156987
0.177103 0
0.177624 0
0.177785 0.000161251
0.177829 0.000117156
0.177901 0.000189232
0.178091 0
inf 0


"layer 41:"
-inf 0
0.169212 0
0.169529 0.00031723
0.169847 0
0.177712 0
0.177829 0.000117156
0.177947 0
inf 0


