# Persistence diagram </home/jens/Uni/data_topology/Project/Graph_Data/Synthetic_Gnm/gnm_62.gml>
#
# Dimension   : 0
# Entries     : 18
# Betti number: 1
43	inf
45	57
46	56
50	56
50	57
51	55
51	54
51	62
52	55
52	58
52	57
53	54
54	57
55	58
55	56
55	59
56	57
57	59
