# Persistence diagram </home/jens/Uni/data_topology/Project/Graph_Data/Synthetic_Gnm/gnm_73.gml>
#
# Dimension   : 0
# Entries     : 21
# Betti number: 1
47	inf
48	56
49	56
50	56
50	55
50	54
51	53
51	57
51	55
51	55
51	52
52	56
52	53
52	56
53	58
53	54
54	58
55	58
55	56
56	57
57	58
