# Persistence diagram </home/jens/Uni/data_topology/Project/Graph_Data/Synthetic_Gnm/gnm_87.gml>
#
# Dimension   : 0
# Entries     : 22
# Betti number: 1
43	inf
47	58
49	56
50	55
51	55
52	56
52	58
53	56
54	56
54	57
54	58
54	58
55	56
55	56
55	59
55	57
55	57
55	56
55	58
55	57
56	57
57	59
