# Persistence diagram </home/jens/Uni/data_topology/Project/Graph_Data/Synthetic_Gnm/gnm_71.gml>
#
# Dimension   : 0
# Entries     : 21
# Betti number: 1
47	inf
48	59
49	51
49	56
50	51
50	58
51	57
51	57
51	54
51	53
53	55
53	60
53	56
53	58
55	59
55	57
55	59
56	59
57	59
58	59
58	59
