# Persistence diagram </home/jens/Uni/data_topology/Project/Graph_Data/Synthetic_Gnm/gnm_42.gml>
#
# Dimension   : 0
# Entries     : 20
# Betti number: 1
46	inf
48	54
49	59
49	57
50	57
51	56
51	56
52	56
52	56
52	57
53	54
54	57
54	56
54	57
54	57
54	55
55	56
55	56
55	59
55	57
