# Persistence diagram </home/jens/Uni/data_topology/Project/Graph_Data/Synthetic_Gnm/gnm_81.gml>
#
# Dimension   : 0
# Entries     : 23
# Betti number: 1
48	inf
49	58
50	57
51	57
51	56
51	58
52	58
52	53
53	55
53	58
53	58
54	57
54	60
54	57
55	57
55	58
56	57
56	58
56	58
56	57
56	58
56	59
57	58
