# Persistence diagram </home/jens/Uni/data_topology/Project/Graph_Data/Synthetic_Gnm/gnm_13.gml>
#
# Dimension   : 0
# Entries     : 18
# Betti number: 1
46	inf
47	57
49	57
50	55
51	55
51	56
51	55
51	54
52	56
53	54
53	56
54	55
54	56
54	56
57	60
57	58
57	59
60	61
