# Persistence diagram </home/jens/Uni/data_topology/Project/Graph_Data/Synthetic_Gnm/gnm_86.gml>
#
# Dimension   : 0
# Entries     : 17
# Betti number: 1
44	inf
47	56
48	51
50	51
52	56
52	56
53	56
54	56
54	56
54	57
54	58
54	57
55	56
55	57
55	57
56	58
58	59
