# Persistence diagram </home/jens/Uni/data_topology/Project/Graph_Data/Synthetic_Gnm/gnm_32.gml>
#
# Dimension   : 0
# Entries     : 21
# Betti number: 1
43	inf
47	56
48	56
48	55
48	59
48	55
49	55
49	53
50	57
51	58
51	57
51	53
52	58
52	58
52	53
53	55
53	55
54	57
55	56
56	57
57	60
