# Persistence diagram </home/jens/Uni/data_topology/Project/Graph_Data/Synthetic_Erdos-Reny/pdg_58.gml>
#
# Dimension   : 0
# Entries     : 20
# Betti number: 1
45	inf
48	59
49	56
49	55
50	59
51	55
52	53
52	59
53	58
53	58
53	55
53	60
53	56
53	55
54	56
54	58
54	57
56	58
57	58
57	58
