# Persistence diagram </home/jens/Uni/data_topology/Project/Graph_Data/Synthetic_Erdos-Reny/pdg_42.gml>
#
# Dimension   : 0
# Entries     : 24
# Betti number: 1
47	inf
47	55
47	54
48	53
49	55
49	54
50	57
50	53
51	54
51	56
52	57
52	57
52	53
52	56
52	58
52	55
52	53
53	58
53	54
55	56
55	58
56	57
56	57
57	61
