# Persistence diagram </home/jens/Uni/data_topology/Project/Graph_Data/Synthetic_Erdos-Reny/pdg_7.gml>
#
# Dimension   : 0
# Entries     : 21
# Betti number: 1
47	inf
48	55
49	57
50	57
50	56
51	56
51	53
52	53
52	56
52	56
52	55
53	55
53	59
54	57
54	58
54	57
55	57
55	58
55	57
55	56
58	59
