# Persistence diagram </home/jens/Uni/data_topology/Project/Graph_Data/Synthetic_Erdos-Reny/pdg_17.gml>
#
# Dimension   : 0
# Entries     : 23
# Betti number: 1
48	inf
49	54
50	57
50	56
51	58
51	57
52	54
52	54
53	57
53	57
53	55
53	56
53	57
53	56
53	57
53	54
54	57
54	59
55	56
56	58
56	57
57	58
58	59
