# Persistence diagram </home/jens/Uni/data_topology/Project/Graph_Data/Synthetic_Erdos-Reny/pdg_50.gml>
#
# Dimension   : 0
# Entries     : 22
# Betti number: 1
48	inf
51	56
51	55
51	56
52	56
52	56
52	56
52	56
52	57
53	54
53	56
53	57
54	56
54	56
54	55
54	57
55	57
55	57
55	57
55	59
56	58
58	59
