# Persistence diagram </home/jens/Uni/data_topology/Project/Graph_Data/Synthetic_Erdos-Reny/pdg_66.gml>
#
# Dimension   : 0
# Entries     : 26
# Betti number: 1
43	inf
43	58
45	50
48	53
49	57
49	56
49	56
50	56
51	54
51	56
51	55
51	61
52	57
52	54
53	54
53	55
53	59
53	54
54	57
54	57
54	57
55	58
56	59
57	58
57	58
57	58
