# Persistence diagram </home/jens/Uni/data_topology/Project/Graph_Data/Synthetic_Erdos-Reny/pdg_36.gml>
#
# Dimension   : 0
# Entries     : 19
# Betti number: 1
43	inf
47	56
49	56
50	56
50	56
51	57
51	55
51	55
52	55
53	56
53	55
54	57
54	57
54	55
54	56
55	57
55	56
56	57
58	61
