# Persistence diagram </home/jens/Uni/data_topology/Project/Graph_Data/Synthetic_Erdos_Reny_reduced/err_67.gml>
#
# Dimension   : 0
# Entries     : 30
# Betti number: 1
31	inf
31	39
32	38
33	38
33	39
34	43
34	40
34	38
35	40
35	37
36	38
36	41
36	38
36	39
37	41
37	38
37	42
38	40
38	39
38	40
38	40
38	40
38	40
38	39
39	41
39	40
39	41
39	41
39	41
42	43
