# Persistence diagram </home/jens/Uni/data_topology/Project/Graph_Data/Synthetic_Erdos_Reny_reduced/err_7.gml>
#
# Dimension   : 0
# Entries     : 32
# Betti number: 1
18	inf
22	42
31	39
32	40
33	38
34	42
34	40
34	38
34	38
35	37
35	39
35	38
35	37
35	39
35	37
36	39
36	38
36	44
36	41
36	44
36	37
36	40
36	38
36	40
36	40
36	38
37	40
37	38
37	38
39	40
40	41
41	42
