# Persistence diagram </home/jens/Uni/data_topology/Project/Graph_Data/Synthetic_Erdos_Reny_reduced/err_43.gml>
#
# Dimension   : 0
# Entries     : 31
# Betti number: 1
29	inf
31	41
31	41
31	40
33	39
33	39
33	39
33	38
34	36
35	37
35	39
35	40
35	39
36	39
36	41
36	38
36	42
37	39
37	38
37	39
37	40
37	38
37	39
38	39
38	40
38	40
39	40
39	41
40	42
40	41
41	43
