# Persistence diagram </home/jens/Uni/data_topology/Project/Graph_Data/Synthetic_Erdos_Reny_reduced/err_42.gml>
#
# Dimension   : 0
# Entries     : 35
# Betti number: 1
29	inf
30	40
31	40
31	40
32	40
32	39
33	39
33	40
34	39
34	39
34	39
35	38
35	36
35	39
36	38
36	40
36	38
36	39
36	37
36	40
37	38
37	38
37	40
37	42
37	40
37	39
37	41
37	40
37	38
38	40
38	39
38	39
39	41
40	44
40	41
