# Persistence diagram </home/jens/Uni/data_topology/Project/Graph_Data/Synthetic_Erdos_Reny_reduced/err_0.gml>
#
# Dimension   : 0
# Entries     : 33
# Betti number: 1
30	inf
31	43
32	41
33	40
33	40
34	41
34	37
35	40
36	42
36	38
36	42
36	41
36	40
36	41
36	42
36	42
37	38
37	42
37	38
37	42
37	39
37	40
38	43
38	40
38	40
38	40
38	40
38	41
39	41
39	41
39	42
40	42
40	41
