# Persistence diagram </home/jens/Uni/data_topology/Project/Graph_Data/Synthetic_Erdos_Reny_reduced/err_74.gml>
#
# Dimension   : 0
# Entries     : 39
# Betti number: 1
30	inf
30	40
31	41
31	40
32	39
32	39
33	39
33	40
33	39
33	34
33	42
34	42
34	39
35	38
35	40
35	41
35	39
35	41
35	41
35	38
36	40
36	38
36	40
36	38
36	38
37	41
37	38
37	40
37	38
37	38
37	39
37	39
37	39
37	43
38	40
38	43
38	39
40	41
41	42
