# Persistence diagram </home/jens/Uni/data_topology/Project/Graph_Data/Synthetic_Erdos_Reny_reduced/err_56.gml>
#
# Dimension   : 0
# Entries     : 32
# Betti number: 1
31	inf
31	39
31	41
31	39
32	39
33	39
33	40
34	40
34	40
34	40
35	40
35	39
35	38
36	39
36	42
37	38
37	39
37	39
37	41
37	42
38	42
38	39
38	39
38	41
39	40
39	40
39	41
39	42
40	41
40	41
41	43
41	42
