# Persistence diagram </home/jens/Uni/data_topology/Project/Graph_Data/Synthetic_Erdos_Reny_reduced/err_26.gml>
#
# Dimension   : 0
# Entries     : 33
# Betti number: 1
28	inf
30	41
31	39
32	39
32	36
33	39
33	35
33	42
33	40
33	42
34	35
34	39
34	40
36	39
36	40
36	39
36	41
36	40
37	43
37	38
37	39
37	39
38	40
38	39
39	41
39	41
39	42
39	40
40	41
40	41
41	42
41	42
42	43
