# Persistence diagram </home/jens/Uni/data_topology/Project/Graph_Data/Synthetic_Erdos_Reny_reduced/err_15.gml>
#
# Dimension   : 0
# Entries     : 28
# Betti number: 1
27	inf
30	38
31	38
32	37
35	41
36	39
36	39
36	38
36	38
37	41
37	38
37	41
38	40
38	40
38	40
38	40
38	40
38	41
38	40
38	41
39	40
39	41
39	41
39	43
39	40
40	41
40	41
40	41
