# Persistence diagram </home/jens/Uni/data_topology/Project/Graph_Data/Synthetic_Erdos-Reny/pdg_14.gml>
#
# Dimension   : 0
# Entries     : 23
# Betti number: 1
47	inf
48	52
48	57
49	57
49	57
49	57
50	58
50	55
50	55
50	57
51	58
52	55
52	56
53	55
53	56
53	56
53	58
53	57
53	58
55	57
56	57
57	58
59	60
