# Persistence diagram </home/jens/Uni/data_topology/Project/Graph_Data/Synthetic_Erdos-Reny/pdg_55.gml>
#
# Dimension   : 0
# Entries     : 23
# Betti number: 1
47	inf
49	56
49	56
50	58
52	57
52	57
52	54
53	55
53	56
53	56
53	56
53	56
53	58
53	57
53	59
53	59
54	55
54	57
54	58
55	57
55	56
55	56
56	59
