# Persistence diagram </home/jens/Uni/data_topology/Project/Graph_Data/Synthetic_Erdos-Reny/pdg_95.gml>
#
# Dimension   : 0
# Entries     : 22
# Betti number: 1
45	inf
48	56
49	57
51	57
51	59
51	55
51	57
51	54
51	56
52	59
52	58
53	55
53	59
53	56
55	56
55	56
55	56
55	56
55	57
56	59
56	60
57	60
