# Persistence diagram </home/jens/Uni/data_topology/Project/Graph_Data/Synthetic_Erdos-Reny/pdg_73.gml>
#
# Dimension   : 0
# Entries     : 24
# Betti number: 1
42	inf
48	57
48	56
49	56
49	59
49	56
51	56
51	58
51	53
51	58
51	58
51	56
52	55
52	58
53	55
53	57
54	58
55	56
55	56
55	57
55	56
56	58
56	59
58	59
