# Persistence diagram </home/jens/Uni/data_topology/Project/Graph_Data/Synthetic_Erdos-Reny/pdg_56.gml>
#
# Dimension   : 0
# Entries     : 21
# Betti number: 1
50	inf
51	60
51	57
52	57
53	57
53	55
53	55
53	57
54	57
54	56
54	57
54	57
54	58
54	57
54	56
55	56
55	58
56	57
56	57
58	60
59	60
