# Persistence diagram </home/jens/Uni/data_topology/Project/Graph_Data/Synthetic_Erdos-Reny/pdg_64.gml>
#
# Dimension   : 0
# Entries     : 22
# Betti number: 1
45	inf
47	57
49	55
50	57
50	54
51	59
52	57
53	56
53	60
53	56
53	55
54	55
54	57
54	57
54	56
55	56
55	57
55	56
56	60
56	57
57	58
58	60
