<?xml version="1.0" encoding="UTF-8" standalone="no"?>
<svg
   xmlns:dc="http://purl.org/dc/elements/1.1/"
   xmlns:cc="http://creativecommons.org/ns#"
   xmlns:rdf="http://www.w3.org/1999/02/22-rdf-syntax-ns#"
   xmlns:svg="http://www.w3.org/2000/svg"
   xmlns="http://www.w3.org/2000/svg"
   xmlns:xlink="http://www.w3.org/1999/xlink"
   xmlns:sodipodi="http://sodipodi.sourceforge.net/DTD/sodipodi-0.dtd"
   xmlns:inkscape="http://www.inkscape.org/namespaces/inkscape"
   width="268.94858"
   height="118.44195"
   viewBox="0 0 268.94857 118.44195"
   id="svg7898"
   version="1.1"
   inkscape:version="0.91 r13725"
   sodipodi:docname="Persistent_homology_distance_calculation_02.svg">
  <sodipodi:namedview
     pagecolor="#ffffff"
     bordercolor="#666666"
     borderopacity="1"
     objecttolerance="10"
     gridtolerance="10"
     guidetolerance="10"
     inkscape:pageopacity="0"
     inkscape:pageshadow="2"
     inkscape:window-width="1796"
     inkscape:window-height="1145"
     id="namedview8025"
     showgrid="false"
     inkscape:zoom="11.313708"
     inkscape:cx="135.61931"
     inkscape:cy="27.424071"
     inkscape:window-x="122"
     inkscape:window-y="32"
     inkscape:window-maximized="1"
     inkscape:current-layer="svg7898"
     fit-margin-top="0"
     fit-margin-left="0"
     fit-margin-right="0"
     fit-margin-bottom="0"
     showguides="true"
     inkscape:guide-bbox="true"
     inkscape:snap-object-midpoints="true"
     inkscape:snap-center="true"
     inkscape:snap-global="false" />
  <metadata
     id="metadata8029">
    <rdf:RDF>
      <cc:Work
         rdf:about="">
        <dc:format>image/svg+xml</dc:format>
        <dc:type
           rdf:resource="http://purl.org/dc/dcmitype/StillImage" />
        <dc:title>Gnuplot</dc:title>
      </cc:Work>
    </rdf:RDF>
  </metadata>
  <defs
     id="defs8027">
    <inkscape:path-effect
       is_visible="true"
       id="path-effect6117"
       effect="spiro" />
    <inkscape:path-effect
       is_visible="true"
       id="path-effect6113"
       effect="spiro" />
    <inkscape:path-effect
       is_visible="true"
       id="path-effect6109"
       effect="spiro" />
    <inkscape:path-effect
       is_visible="true"
       id="path-effect6105"
       effect="spiro" />
    <defs
       id="defs7907">
      <circle
         r="0.5"
         id="gpDot"
         cx="0"
         cy="0"
         style="stroke-width:0.5" />
      <path
         d="M -1,0 1,0 M 0,-1 0,1"
         id="gpPt0"
         inkscape:connector-curvature="0"
         style="stroke:currentColor;stroke-width:0.222" />
      <path
         d="M -1,-1 1,1 M 1,-1 -1,1"
         id="gpPt1"
         inkscape:connector-curvature="0"
         style="stroke:currentColor;stroke-width:0.222" />
      <path
         d="M -1,0 1,0 M 0,-1 0,1 m -1,-2 2,2 m -2,0 2,-2"
         id="gpPt2"
         inkscape:connector-curvature="0"
         style="stroke:currentColor;stroke-width:0.222" />
      <rect
         height="2"
         width="2"
         y="-1"
         x="-1"
         id="gpPt3"
         style="stroke:currentColor;stroke-width:0.222" />
      <rect
         height="2"
         width="2"
         y="-1"
         x="-1"
         id="gpPt4"
         style="fill:currentColor;stroke:currentColor;stroke-width:0.222" />
      <circle
         r="1"
         cy="0"
         cx="0"
         id="gpPt5"
         style="stroke:currentColor;stroke-width:0.222" />
      <use
         id="gpPt6"
         xlink:href="#gpPt5"
         style="fill:currentColor;stroke:none"
         x="0"
         y="0"
         width="600"
         height="480" />
      <path
         d="m 0,-1.33 -1.33,2 2.66,0 z"
         id="gpPt7"
         inkscape:connector-curvature="0"
         style="stroke:currentColor;stroke-width:0.222" />
      <use
         id="gpPt8"
         xlink:href="#gpPt7"
         style="fill:currentColor;stroke:none"
         x="0"
         y="0"
         width="600"
         height="480" />
      <use
         transform="scale(-1,-1)"
         id="gpPt9"
         xlink:href="#gpPt7"
         style="stroke:currentColor"
         x="0"
         y="0"
         width="600"
         height="480" />
      <use
         id="gpPt10"
         xlink:href="#gpPt9"
         style="fill:currentColor;stroke:none"
         x="0"
         y="0"
         width="600"
         height="480" />
      <use
         transform="matrix(0.70710678,0.70710678,-0.70710678,0.70710678,0,0)"
         id="gpPt11"
         xlink:href="#gpPt3"
         style="stroke:currentColor"
         x="0"
         y="0"
         width="600"
         height="480" />
      <use
         id="gpPt12"
         xlink:href="#gpPt11"
         style="fill:currentColor;stroke:none"
         x="0"
         y="0"
         width="600"
         height="480" />
    </defs>
    <marker
       style="overflow:visible"
       id="TriangleInM"
       refX="0"
       refY="0"
       orient="auto"
       inkscape:stockid="TriangleInM">
      <path
         inkscape:connector-curvature="0"
         transform="scale(-0.4,-0.4)"
         style="fill-rule:evenodd;stroke:#000000;stroke-width:1pt"
         d="m 5.77,0 -8.65,5 0,-10 8.65,5 z"
         id="path5027" />
    </marker>
    <marker
       style="overflow:visible"
       id="TriangleOutM"
       refX="0"
       refY="0"
       orient="auto"
       inkscape:stockid="TriangleOutM">
      <path
         inkscape:connector-curvature="0"
         transform="scale(0.4,0.4)"
         style="fill-rule:evenodd;stroke:#000000;stroke-width:1pt"
         d="m 5.77,0 -8.65,5 0,-10 8.65,5 z"
         id="path5036" />
    </marker>
    <marker
       style="overflow:visible"
       id="TriangleInM-6"
       refX="0"
       refY="0"
       orient="auto"
       inkscape:stockid="TriangleInM">
      <path
         inkscape:connector-curvature="0"
         transform="scale(-0.4,-0.4)"
         style="fill-rule:evenodd;stroke:#000000;stroke-width:1pt"
         d="m 5.77,0 -8.65,5 0,-10 8.65,5 z"
         id="path5027-6" />
    </marker>
    <marker
       style="overflow:visible"
       id="TriangleOutM-6"
       refX="0"
       refY="0"
       orient="auto"
       inkscape:stockid="TriangleOutM">
      <path
         inkscape:connector-curvature="0"
         transform="scale(0.4,0.4)"
         style="fill-rule:evenodd;stroke:#000000;stroke-width:1pt"
         d="m 5.77,0 -8.65,5 0,-10 8.65,5 z"
         id="path5036-5" />
    </marker>
    <marker
       style="overflow:visible"
       id="StopL"
       refX="0"
       refY="0"
       orient="auto"
       inkscape:stockid="StopL">
      <path
         inkscape:connector-curvature="0"
         transform="scale(0.8,0.8)"
         style="fill:none;stroke:#000000;stroke-width:1pt"
         d="M 0,5.65 0,-5.65"
         id="path5807" />
    </marker>
    <marker
       style="overflow:visible"
       id="marker5540"
       refX="0"
       refY="0"
       orient="auto"
       inkscape:stockid="StopL">
      <path
         inkscape:connector-curvature="0"
         transform="scale(0.8,0.8)"
         style="fill:none;stroke:#000000;stroke-width:1pt"
         d="M 0,5.65 0,-5.65"
         id="path5542" />
    </marker>
    <marker
       inkscape:stockid="DotM6"
       orient="auto"
       refY="0"
       refX="0"
       id="DotM6"
       style="overflow:visible">
      <path
         id="path5401"
         d="m -2.5,-1 c 0,2.76 -2.24,5 -5,5 -2.76,0 -5,-2.24 -5,-5 0,-2.76 2.24,-5 5,-5 2.76,0 5,2.24 5,5 z"
         style="fill:#ff0000;fill-rule:evenodd;stroke:#ff0000;stroke-width:1pt"
         transform="matrix(0.4,0,0,0.4,2.96,0.4)"
         inkscape:connector-curvature="0" />
    </marker>
    <marker
       inkscape:stockid="DotMw"
       orient="auto"
       refY="0"
       refX="0"
       id="DotMw"
       style="overflow:visible">
      <path
         id="path5404"
         d="m -2.5,-1 c 0,2.76 -2.24,5 -5,5 -2.76,0 -5,-2.24 -5,-5 0,-2.76 2.24,-5 5,-5 2.76,0 5,2.24 5,5 z"
         style="fill:#ff0000;fill-rule:evenodd;stroke:#ff0000;stroke-width:1pt"
         transform="matrix(0.4,0,0,0.4,2.96,0.4)"
         inkscape:connector-curvature="0" />
    </marker>
    <marker
       inkscape:stockid="DotM6D"
       orient="auto"
       refY="0"
       refX="0"
       id="DotM6D"
       style="overflow:visible">
      <path
         id="path4407"
         d="m -2.5,-1 c 0,2.76 -2.24,5 -5,5 -2.76,0 -5,-2.24 -5,-5 0,-2.76 2.24,-5 5,-5 2.76,0 5,2.24 5,5 z"
         style="fill:#0055d4;fill-rule:evenodd;stroke:#0055d4;stroke-width:1pt"
         transform="matrix(0.4,0,0,0.4,2.96,0.4)"
         inkscape:connector-curvature="0" />
    </marker>
    <marker
       inkscape:stockid="DotMwT"
       orient="auto"
       refY="0"
       refX="0"
       id="DotMwT"
       style="overflow:visible">
      <path
         id="path4410"
         d="m -2.5,-1 c 0,2.76 -2.24,5 -5,5 -2.76,0 -5,-2.24 -5,-5 0,-2.76 2.24,-5 5,-5 2.76,0 5,2.24 5,5 z"
         style="fill:#0055d4;fill-rule:evenodd;stroke:#0055d4;stroke-width:1pt"
         transform="matrix(0.4,0,0,0.4,2.96,0.4)"
         inkscape:connector-curvature="0" />
    </marker>
    <marker
       inkscape:stockid="DotM6DO"
       orient="auto"
       refY="0"
       refX="0"
       id="DotM6DO"
       style="overflow:visible">
      <path
         id="path5296"
         d="m -2.5,-1 c 0,2.76 -2.24,5 -5,5 -2.76,0 -5,-2.24 -5,-5 0,-2.76 2.24,-5 5,-5 2.76,0 5,2.24 5,5 z"
         style="fill:#ff0000;fill-rule:evenodd;stroke:#ff0000;stroke-width:1pt"
         transform="matrix(0.4,0,0,0.4,2.96,0.4)"
         inkscape:connector-curvature="0" />
    </marker>
    <marker
       inkscape:stockid="DotMwT1"
       orient="auto"
       refY="0"
       refX="0"
       id="DotMwT1"
       style="overflow:visible">
      <path
         id="path5299"
         d="m -2.5,-1 c 0,2.76 -2.24,5 -5,5 -2.76,0 -5,-2.24 -5,-5 0,-2.76 2.24,-5 5,-5 2.76,0 5,2.24 5,5 z"
         style="fill:#ff0000;fill-rule:evenodd;stroke:#ff0000;stroke-width:1pt"
         transform="matrix(0.4,0,0,0.4,2.96,0.4)"
         inkscape:connector-curvature="0" />
    </marker>
    <marker
       style="overflow:visible"
       id="TriangleInMW"
       refX="0"
       refY="0"
       orient="auto"
       inkscape:stockid="TriangleInMW">
      <path
         inkscape:connector-curvature="0"
         transform="scale(-0.4,-0.4)"
         style="fill:#ff0000;fill-rule:evenodd;stroke:#ff0000;stroke-width:1pt"
         d="m 5.77,0 -8.65,5 0,-10 8.65,5 z"
         id="path5760" />
    </marker>
    <marker
       style="overflow:visible"
       id="TriangleOutMN"
       refX="0"
       refY="0"
       orient="auto"
       inkscape:stockid="TriangleOutMN">
      <path
         inkscape:connector-curvature="0"
         transform="scale(0.4,0.4)"
         style="fill:#ff0000;fill-rule:evenodd;stroke:#ff0000;stroke-width:1pt"
         d="m 5.77,0 -8.65,5 0,-10 8.65,5 z"
         id="path5763" />
    </marker>
    <marker
       style="overflow:visible"
       id="TriangleInMm"
       refX="0"
       refY="0"
       orient="auto"
       inkscape:stockid="TriangleInMm">
      <path
         inkscape:connector-curvature="0"
         transform="scale(-0.4,-0.4)"
         style="fill:#ff0000;fill-rule:evenodd;stroke:#ff0000;stroke-width:1pt"
         d="m 5.77,0 -8.65,5 0,-10 8.65,5 z"
         id="path6088" />
    </marker>
    <marker
       style="overflow:visible"
       id="TriangleOutMf"
       refX="0"
       refY="0"
       orient="auto"
       inkscape:stockid="TriangleOutMf">
      <path
         inkscape:connector-curvature="0"
         transform="scale(0.4,0.4)"
         style="fill:#ff0000;fill-rule:evenodd;stroke:#ff0000;stroke-width:1pt"
         d="m 5.77,0 -8.65,5 0,-10 8.65,5 z"
         id="path6091" />
    </marker>
    <marker
       style="overflow:visible"
       id="TriangleInMW7"
       refX="0"
       refY="0"
       orient="auto"
       inkscape:stockid="TriangleInMW7">
      <path
         inkscape:connector-curvature="0"
         transform="scale(-0.4,-0.4)"
         style="fill:#000000;fill-rule:evenodd;stroke:#000000;stroke-width:1pt"
         d="m 5.77,0 -8.65,5 0,-10 8.65,5 z"
         id="path6460" />
    </marker>
    <marker
       style="overflow:visible"
       id="TriangleOutMN0"
       refX="0"
       refY="0"
       orient="auto"
       inkscape:stockid="TriangleOutMN0">
      <path
         inkscape:connector-curvature="0"
         transform="scale(0.4,0.4)"
         style="fill:#000000;fill-rule:evenodd;stroke:#000000;stroke-width:1pt"
         d="m 5.77,0 -8.65,5 0,-10 8.65,5 z"
         id="path6463" />
    </marker>
    <marker
       style="overflow:visible"
       id="TriangleInMma"
       refX="0"
       refY="0"
       orient="auto"
       inkscape:stockid="TriangleInMma">
      <path
         inkscape:connector-curvature="0"
         transform="scale(-0.4,-0.4)"
         style="fill:#000000;fill-rule:evenodd;stroke:#000000;stroke-width:1pt"
         d="m 5.77,0 -8.65,5 0,-10 8.65,5 z"
         id="path6466" />
    </marker>
    <marker
       style="overflow:visible"
       id="TriangleOutMfs"
       refX="0"
       refY="0"
       orient="auto"
       inkscape:stockid="TriangleOutMfs">
      <path
         inkscape:connector-curvature="0"
         transform="scale(0.4,0.4)"
         style="fill:#000000;fill-rule:evenodd;stroke:#000000;stroke-width:1pt"
         d="m 5.77,0 -8.65,5 0,-10 8.65,5 z"
         id="path6469" />
    </marker>
    <marker
       inkscape:stockid="DotM6Z"
       orient="auto"
       refY="0"
       refX="0"
       id="DotM6Z"
       style="overflow:visible">
      <path
         inkscape:connector-curvature="0"
         id="path67627"
         d="m -2.5,-1 c 0,2.76 -2.24,5 -5,5 -2.76,0 -5,-2.24 -5,-5 0,-2.76 2.24,-5 5,-5 2.76,0 5,2.24 5,5 z"
         style="fill:#dc4d51;fill-rule:evenodd;stroke:#dc4d51;stroke-width:1pt"
         transform="matrix(0.4,0,0,0.4,2.96,0.4)" />
    </marker>
    <marker
       inkscape:stockid="DotMwf"
       orient="auto"
       refY="0"
       refX="0"
       id="DotMwf"
       style="overflow:visible">
      <path
         inkscape:connector-curvature="0"
         id="path67630"
         d="m -2.5,-1 c 0,2.76 -2.24,5 -5,5 -2.76,0 -5,-2.24 -5,-5 0,-2.76 2.24,-5 5,-5 2.76,0 5,2.24 5,5 z"
         style="fill:#dc4d51;fill-rule:evenodd;stroke:#dc4d51;stroke-width:1pt"
         transform="matrix(0.4,0,0,0.4,2.96,0.4)" />
    </marker>
    <marker
       inkscape:stockid="DotM6Z"
       orient="auto"
       refY="0"
       refX="0"
       id="DotM6Z-9"
       style="overflow:visible">
      <path
         inkscape:connector-curvature="0"
         id="path67627-5"
         d="m -2.5,-1 c 0,2.76 -2.24,5 -5,5 -2.76,0 -5,-2.24 -5,-5 0,-2.76 2.24,-5 5,-5 2.76,0 5,2.24 5,5 z"
         style="fill:#dc4d51;fill-rule:evenodd;stroke:#dc4d51;stroke-width:1pt"
         transform="matrix(0.4,0,0,0.4,2.96,0.4)" />
    </marker>
    <marker
       inkscape:stockid="DotMwf"
       orient="auto"
       refY="0"
       refX="0"
       id="DotMwf-8"
       style="overflow:visible">
      <path
         inkscape:connector-curvature="0"
         id="path67630-5"
         d="m -2.5,-1 c 0,2.76 -2.24,5 -5,5 -2.76,0 -5,-2.24 -5,-5 0,-2.76 2.24,-5 5,-5 2.76,0 5,2.24 5,5 z"
         style="fill:#dc4d51;fill-rule:evenodd;stroke:#dc4d51;stroke-width:1pt"
         transform="matrix(0.4,0,0,0.4,2.96,0.4)" />
    </marker>
    <marker
       style="overflow:visible"
       id="TriangleInMW7x"
       refX="0"
       refY="0"
       orient="auto"
       inkscape:stockid="TriangleInMW7x">
      <path
         inkscape:connector-curvature="0"
         transform="scale(-0.4,-0.4)"
         style="fill:#ffffff;fill-rule:evenodd;stroke:#ffffff;stroke-width:1pt"
         d="m 5.77,0 -8.65,5 0,-10 8.65,5 z"
         id="path4903" />
    </marker>
    <marker
       style="overflow:visible"
       id="TriangleOutMN07"
       refX="0"
       refY="0"
       orient="auto"
       inkscape:stockid="TriangleOutMN07">
      <path
         inkscape:connector-curvature="0"
         transform="scale(0.4,0.4)"
         style="fill:#ffffff;fill-rule:evenodd;stroke:#ffffff;stroke-width:1pt"
         d="m 5.77,0 -8.65,5 0,-10 8.65,5 z"
         id="path4906" />
    </marker>
    <marker
       style="overflow:visible"
       id="TriangleInMmai"
       refX="0"
       refY="0"
       orient="auto"
       inkscape:stockid="TriangleInMmai">
      <path
         inkscape:connector-curvature="0"
         transform="scale(-0.4,-0.4)"
         style="fill:#ffffff;fill-rule:evenodd;stroke:#ffffff;stroke-width:1pt"
         d="m 5.77,0 -8.65,5 0,-10 8.65,5 z"
         id="path4909" />
    </marker>
    <marker
       style="overflow:visible"
       id="TriangleOutMfsD"
       refX="0"
       refY="0"
       orient="auto"
       inkscape:stockid="TriangleOutMfsD">
      <path
         inkscape:connector-curvature="0"
         transform="scale(0.4,0.4)"
         style="fill:#ffffff;fill-rule:evenodd;stroke:#ffffff;stroke-width:1pt"
         d="m 5.77,0 -8.65,5 0,-10 8.65,5 z"
         id="path4912" />
    </marker>
    <defs
       id="defs7907-8">
      <circle
         style="stroke-width:0.5"
         cy="0"
         cx="0"
         id="gpDot-6"
         r="0.5" />
      <path
         style="stroke:currentColor;stroke-width:0.222"
         inkscape:connector-curvature="0"
         id="gpPt0-5"
         d="M -1,0 1,0 M 0,-1 0,1" />
      <path
         style="stroke:currentColor;stroke-width:0.222"
         inkscape:connector-curvature="0"
         id="gpPt1-1"
         d="M -1,-1 1,1 M 1,-1 -1,1" />
      <path
         style="stroke:currentColor;stroke-width:0.222"
         inkscape:connector-curvature="0"
         id="gpPt2-9"
         d="M -1,0 1,0 M 0,-1 0,1 m -1,-2 2,2 m -2,0 2,-2" />
      <rect
         style="stroke:currentColor;stroke-width:0.222"
         id="gpPt3-9"
         x="-1"
         y="-1"
         width="2"
         height="2" />
      <rect
         style="fill:currentColor;stroke:currentColor;stroke-width:0.222"
         id="gpPt4-3"
         x="-1"
         y="-1"
         width="2"
         height="2" />
      <circle
         style="stroke:currentColor;stroke-width:0.222"
         id="gpPt5-0"
         cx="0"
         cy="0"
         r="1" />
      <use
         height="480"
         width="600"
         y="0"
         x="0"
         style="fill:currentColor;stroke:none"
         xlink:href="#gpPt5-0"
         id="gpPt6-1" />
      <path
         style="stroke:currentColor;stroke-width:0.222"
         inkscape:connector-curvature="0"
         id="gpPt7-5"
         d="m 0,-1.33 -1.33,2 2.66,0 z" />
      <use
         height="480"
         width="600"
         y="0"
         x="0"
         style="fill:currentColor;stroke:none"
         xlink:href="#gpPt7-5"
         id="gpPt8-3" />
      <use
         height="480"
         width="600"
         y="0"
         x="0"
         style="stroke:currentColor"
         xlink:href="#gpPt7-5"
         id="gpPt9-8"
         transform="scale(-1,-1)" />
      <use
         height="480"
         width="600"
         y="0"
         x="0"
         style="fill:currentColor;stroke:none"
         xlink:href="#gpPt9-8"
         id="gpPt10-1" />
      <use
         height="480"
         width="600"
         y="0"
         x="0"
         style="stroke:currentColor"
         xlink:href="#gpPt3-9"
         id="gpPt11-9"
         transform="matrix(0.70710678,0.70710678,-0.70710678,0.70710678,0,0)" />
      <use
         height="480"
         width="600"
         y="0"
         x="0"
         style="fill:currentColor;stroke:none"
         xlink:href="#gpPt11-9"
         id="gpPt12-4" />
    </defs>
    <marker
       inkscape:stockid="TriangleInM"
       orient="auto"
       refY="0"
       refX="0"
       id="TriangleInM-4"
       style="overflow:visible">
      <path
         id="path5027-2"
         d="m 5.77,0 -8.65,5 0,-10 8.65,5 z"
         style="fill-rule:evenodd;stroke:#000000;stroke-width:1pt"
         transform="scale(-0.4,-0.4)"
         inkscape:connector-curvature="0" />
    </marker>
    <marker
       inkscape:stockid="TriangleOutM"
       orient="auto"
       refY="0"
       refX="0"
       id="TriangleOutM-1"
       style="overflow:visible">
      <path
         id="path5036-9"
         d="m 5.77,0 -8.65,5 0,-10 8.65,5 z"
         style="fill-rule:evenodd;stroke:#000000;stroke-width:1pt"
         transform="scale(0.4,0.4)"
         inkscape:connector-curvature="0" />
    </marker>
    <marker
       inkscape:stockid="TriangleInM"
       orient="auto"
       refY="0"
       refX="0"
       id="TriangleInM-6-7"
       style="overflow:visible">
      <path
         id="path5027-6-6"
         d="m 5.77,0 -8.65,5 0,-10 8.65,5 z"
         style="fill-rule:evenodd;stroke:#000000;stroke-width:1pt"
         transform="scale(-0.4,-0.4)"
         inkscape:connector-curvature="0" />
    </marker>
    <marker
       inkscape:stockid="TriangleOutM"
       orient="auto"
       refY="0"
       refX="0"
       id="TriangleOutM-6-3"
       style="overflow:visible">
      <path
         id="path5036-5-8"
         d="m 5.77,0 -8.65,5 0,-10 8.65,5 z"
         style="fill-rule:evenodd;stroke:#000000;stroke-width:1pt"
         transform="scale(0.4,0.4)"
         inkscape:connector-curvature="0" />
    </marker>
    <marker
       inkscape:stockid="StopL"
       orient="auto"
       refY="0"
       refX="0"
       id="StopL-3"
       style="overflow:visible">
      <path
         id="path5807-3"
         d="M 0,5.65 0,-5.65"
         style="fill:none;stroke:#000000;stroke-width:1pt"
         transform="scale(0.8,0.8)"
         inkscape:connector-curvature="0" />
    </marker>
    <marker
       inkscape:stockid="StopL"
       orient="auto"
       refY="0"
       refX="0"
       id="marker5540-1"
       style="overflow:visible">
      <path
         id="path5542-3"
         d="M 0,5.65 0,-5.65"
         style="fill:none;stroke:#000000;stroke-width:1pt"
         transform="scale(0.8,0.8)"
         inkscape:connector-curvature="0" />
    </marker>
    <marker
       style="overflow:visible"
       id="DotM6-5"
       refX="0"
       refY="0"
       orient="auto"
       inkscape:stockid="DotM6">
      <path
         inkscape:connector-curvature="0"
         transform="matrix(0.4,0,0,0.4,2.96,0.4)"
         style="fill:#ff0000;fill-rule:evenodd;stroke:#ff0000;stroke-width:1pt"
         d="m -2.5,-1 c 0,2.76 -2.24,5 -5,5 -2.76,0 -5,-2.24 -5,-5 0,-2.76 2.24,-5 5,-5 2.76,0 5,2.24 5,5 z"
         id="path5401-8" />
    </marker>
    <marker
       style="overflow:visible"
       id="DotMw-9"
       refX="0"
       refY="0"
       orient="auto"
       inkscape:stockid="DotMw">
      <path
         inkscape:connector-curvature="0"
         transform="matrix(0.4,0,0,0.4,2.96,0.4)"
         style="fill:#ff0000;fill-rule:evenodd;stroke:#ff0000;stroke-width:1pt"
         d="m -2.5,-1 c 0,2.76 -2.24,5 -5,5 -2.76,0 -5,-2.24 -5,-5 0,-2.76 2.24,-5 5,-5 2.76,0 5,2.24 5,5 z"
         id="path5404-6" />
    </marker>
    <marker
       style="overflow:visible"
       id="DotM6D-6"
       refX="0"
       refY="0"
       orient="auto"
       inkscape:stockid="DotM6D">
      <path
         inkscape:connector-curvature="0"
         transform="matrix(0.4,0,0,0.4,2.96,0.4)"
         style="fill:#0055d4;fill-rule:evenodd;stroke:#0055d4;stroke-width:1pt"
         d="m -2.5,-1 c 0,2.76 -2.24,5 -5,5 -2.76,0 -5,-2.24 -5,-5 0,-2.76 2.24,-5 5,-5 2.76,0 5,2.24 5,5 z"
         id="path4407-5" />
    </marker>
    <marker
       style="overflow:visible"
       id="DotMwT-3"
       refX="0"
       refY="0"
       orient="auto"
       inkscape:stockid="DotMwT">
      <path
         inkscape:connector-curvature="0"
         transform="matrix(0.4,0,0,0.4,2.96,0.4)"
         style="fill:#0055d4;fill-rule:evenodd;stroke:#0055d4;stroke-width:1pt"
         d="m -2.5,-1 c 0,2.76 -2.24,5 -5,5 -2.76,0 -5,-2.24 -5,-5 0,-2.76 2.24,-5 5,-5 2.76,0 5,2.24 5,5 z"
         id="path4410-0" />
    </marker>
    <marker
       style="overflow:visible"
       id="DotM6DO-6"
       refX="0"
       refY="0"
       orient="auto"
       inkscape:stockid="DotM6DO">
      <path
         inkscape:connector-curvature="0"
         transform="matrix(0.4,0,0,0.4,2.96,0.4)"
         style="fill:#ff0000;fill-rule:evenodd;stroke:#ff0000;stroke-width:1pt"
         d="m -2.5,-1 c 0,2.76 -2.24,5 -5,5 -2.76,0 -5,-2.24 -5,-5 0,-2.76 2.24,-5 5,-5 2.76,0 5,2.24 5,5 z"
         id="path5296-2" />
    </marker>
    <marker
       style="overflow:visible"
       id="DotMwT1-3"
       refX="0"
       refY="0"
       orient="auto"
       inkscape:stockid="DotMwT1">
      <path
         inkscape:connector-curvature="0"
         transform="matrix(0.4,0,0,0.4,2.96,0.4)"
         style="fill:#ff0000;fill-rule:evenodd;stroke:#ff0000;stroke-width:1pt"
         d="m -2.5,-1 c 0,2.76 -2.24,5 -5,5 -2.76,0 -5,-2.24 -5,-5 0,-2.76 2.24,-5 5,-5 2.76,0 5,2.24 5,5 z"
         id="path5299-7" />
    </marker>
    <marker
       inkscape:stockid="TriangleInMW"
       orient="auto"
       refY="0"
       refX="0"
       id="TriangleInMW-4"
       style="overflow:visible">
      <path
         id="path5760-1"
         d="m 5.77,0 -8.65,5 0,-10 8.65,5 z"
         style="fill:#ff0000;fill-rule:evenodd;stroke:#ff0000;stroke-width:1pt"
         transform="scale(-0.4,-0.4)"
         inkscape:connector-curvature="0" />
    </marker>
    <marker
       inkscape:stockid="TriangleOutMN"
       orient="auto"
       refY="0"
       refX="0"
       id="TriangleOutMN-2"
       style="overflow:visible">
      <path
         id="path5763-2"
         d="m 5.77,0 -8.65,5 0,-10 8.65,5 z"
         style="fill:#ff0000;fill-rule:evenodd;stroke:#ff0000;stroke-width:1pt"
         transform="scale(0.4,0.4)"
         inkscape:connector-curvature="0" />
    </marker>
    <marker
       inkscape:stockid="TriangleInMm"
       orient="auto"
       refY="0"
       refX="0"
       id="TriangleInMm-2"
       style="overflow:visible">
      <path
         id="path6088-4"
         d="m 5.77,0 -8.65,5 0,-10 8.65,5 z"
         style="fill:#ff0000;fill-rule:evenodd;stroke:#ff0000;stroke-width:1pt"
         transform="scale(-0.4,-0.4)"
         inkscape:connector-curvature="0" />
    </marker>
    <marker
       inkscape:stockid="TriangleOutMf"
       orient="auto"
       refY="0"
       refX="0"
       id="TriangleOutMf-9"
       style="overflow:visible">
      <path
         id="path6091-6"
         d="m 5.77,0 -8.65,5 0,-10 8.65,5 z"
         style="fill:#ff0000;fill-rule:evenodd;stroke:#ff0000;stroke-width:1pt"
         transform="scale(0.4,0.4)"
         inkscape:connector-curvature="0" />
    </marker>
    <marker
       inkscape:stockid="TriangleInMW7"
       orient="auto"
       refY="0"
       refX="0"
       id="TriangleInMW7-6"
       style="overflow:visible">
      <path
         id="path6460-0"
         d="m 5.77,0 -8.65,5 0,-10 8.65,5 z"
         style="fill:#000000;fill-rule:evenodd;stroke:#000000;stroke-width:1pt"
         transform="scale(-0.4,-0.4)"
         inkscape:connector-curvature="0" />
    </marker>
    <marker
       inkscape:stockid="TriangleOutMN0"
       orient="auto"
       refY="0"
       refX="0"
       id="TriangleOutMN0-6"
       style="overflow:visible">
      <path
         id="path6463-5"
         d="m 5.77,0 -8.65,5 0,-10 8.65,5 z"
         style="fill:#000000;fill-rule:evenodd;stroke:#000000;stroke-width:1pt"
         transform="scale(0.4,0.4)"
         inkscape:connector-curvature="0" />
    </marker>
    <marker
       inkscape:stockid="TriangleInMma"
       orient="auto"
       refY="0"
       refX="0"
       id="TriangleInMma-6"
       style="overflow:visible">
      <path
         id="path6466-1"
         d="m 5.77,0 -8.65,5 0,-10 8.65,5 z"
         style="fill:#000000;fill-rule:evenodd;stroke:#000000;stroke-width:1pt"
         transform="scale(-0.4,-0.4)"
         inkscape:connector-curvature="0" />
    </marker>
    <marker
       inkscape:stockid="TriangleOutMfs"
       orient="auto"
       refY="0"
       refX="0"
       id="TriangleOutMfs-3"
       style="overflow:visible">
      <path
         id="path6469-0"
         d="m 5.77,0 -8.65,5 0,-10 8.65,5 z"
         style="fill:#000000;fill-rule:evenodd;stroke:#000000;stroke-width:1pt"
         transform="scale(0.4,0.4)"
         inkscape:connector-curvature="0" />
    </marker>
    <marker
       style="overflow:visible"
       id="DotM6Z-4"
       refX="0"
       refY="0"
       orient="auto"
       inkscape:stockid="DotM6Z">
      <path
         transform="matrix(0.4,0,0,0.4,2.96,0.4)"
         style="fill:#dc4d51;fill-rule:evenodd;stroke:#dc4d51;stroke-width:1pt"
         d="m -2.5,-1 c 0,2.76 -2.24,5 -5,5 -2.76,0 -5,-2.24 -5,-5 0,-2.76 2.24,-5 5,-5 2.76,0 5,2.24 5,5 z"
         id="path67627-7"
         inkscape:connector-curvature="0" />
    </marker>
    <marker
       style="overflow:visible"
       id="DotMwf-5"
       refX="0"
       refY="0"
       orient="auto"
       inkscape:stockid="DotMwf">
      <path
         transform="matrix(0.4,0,0,0.4,2.96,0.4)"
         style="fill:#dc4d51;fill-rule:evenodd;stroke:#dc4d51;stroke-width:1pt"
         d="m -2.5,-1 c 0,2.76 -2.24,5 -5,5 -2.76,0 -5,-2.24 -5,-5 0,-2.76 2.24,-5 5,-5 2.76,0 5,2.24 5,5 z"
         id="path67630-2"
         inkscape:connector-curvature="0" />
    </marker>
    <marker
       style="overflow:visible"
       id="DotM6Z-9-5"
       refX="0"
       refY="0"
       orient="auto"
       inkscape:stockid="DotM6Z">
      <path
         transform="matrix(0.4,0,0,0.4,2.96,0.4)"
         style="fill:#dc4d51;fill-rule:evenodd;stroke:#dc4d51;stroke-width:1pt"
         d="m -2.5,-1 c 0,2.76 -2.24,5 -5,5 -2.76,0 -5,-2.24 -5,-5 0,-2.76 2.24,-5 5,-5 2.76,0 5,2.24 5,5 z"
         id="path67627-5-7"
         inkscape:connector-curvature="0" />
    </marker>
    <marker
       style="overflow:visible"
       id="DotMwf-8-8"
       refX="0"
       refY="0"
       orient="auto"
       inkscape:stockid="DotMwf">
      <path
         transform="matrix(0.4,0,0,0.4,2.96,0.4)"
         style="fill:#dc4d51;fill-rule:evenodd;stroke:#dc4d51;stroke-width:1pt"
         d="m -2.5,-1 c 0,2.76 -2.24,5 -5,5 -2.76,0 -5,-2.24 -5,-5 0,-2.76 2.24,-5 5,-5 2.76,0 5,2.24 5,5 z"
         id="path67630-5-3"
         inkscape:connector-curvature="0" />
    </marker>
    <marker
       inkscape:stockid="TriangleInMW7x"
       orient="auto"
       refY="0"
       refX="0"
       id="TriangleInMW7x-2"
       style="overflow:visible">
      <path
         id="path4903-2"
         d="m 5.77,0 -8.65,5 0,-10 8.65,5 z"
         style="fill:#ffffff;fill-rule:evenodd;stroke:#ffffff;stroke-width:1pt"
         transform="scale(-0.4,-0.4)"
         inkscape:connector-curvature="0" />
    </marker>
    <marker
       inkscape:stockid="TriangleOutMN07"
       orient="auto"
       refY="0"
       refX="0"
       id="TriangleOutMN07-5"
       style="overflow:visible">
      <path
         id="path4906-9"
         d="m 5.77,0 -8.65,5 0,-10 8.65,5 z"
         style="fill:#ffffff;fill-rule:evenodd;stroke:#ffffff;stroke-width:1pt"
         transform="scale(0.4,0.4)"
         inkscape:connector-curvature="0" />
    </marker>
    <marker
       inkscape:stockid="TriangleInMmai"
       orient="auto"
       refY="0"
       refX="0"
       id="TriangleInMmai-4"
       style="overflow:visible">
      <path
         id="path4909-9"
         d="m 5.77,0 -8.65,5 0,-10 8.65,5 z"
         style="fill:#ffffff;fill-rule:evenodd;stroke:#ffffff;stroke-width:1pt"
         transform="scale(-0.4,-0.4)"
         inkscape:connector-curvature="0" />
    </marker>
    <marker
       inkscape:stockid="TriangleOutMfsD"
       orient="auto"
       refY="0"
       refX="0"
       id="TriangleOutMfsD-8"
       style="overflow:visible">
      <path
         id="path4912-8"
         d="m 5.77,0 -8.65,5 0,-10 8.65,5 z"
         style="fill:#ffffff;fill-rule:evenodd;stroke:#ffffff;stroke-width:1pt"
         transform="scale(0.4,0.4)"
         inkscape:connector-curvature="0" />
    </marker>
    <marker
       inkscape:isstock="true"
       style="overflow:visible"
       id="DotM"
       refX="0"
       refY="0"
       orient="auto"
       inkscape:stockid="DotM">
      <path
         transform="matrix(0.4,0,0,0.4,2.96,0.4)"
         style="fill:#c04000;fill-opacity:1;fill-rule:evenodd;stroke:#c04000;stroke-width:1pt;stroke-opacity:1"
         d="m -2.5,-1 c 0,2.76 -2.24,5 -5,5 -2.76,0 -5,-2.24 -5,-5 0,-2.76 2.24,-5 5,-5 2.76,0 5,2.24 5,5 z"
         id="path4279"
         inkscape:connector-curvature="0" />
    </marker>
    <marker
       inkscape:isstock="true"
       style="overflow:visible"
       id="marker3380"
       refX="0"
       refY="0"
       orient="auto"
       inkscape:stockid="DotM">
      <path
         transform="matrix(0.4,0,0,0.4,2.96,0.4)"
         style="fill:#c04000;fill-opacity:1;fill-rule:evenodd;stroke:#c04000;stroke-width:1pt;stroke-opacity:1"
         d="m -2.5,-1 c 0,2.76 -2.24,5 -5,5 -2.76,0 -5,-2.24 -5,-5 0,-2.76 2.24,-5 5,-5 2.76,0 5,2.24 5,5 z"
         id="path3382"
         inkscape:connector-curvature="0" />
    </marker>
  </defs>
  <title
     id="title7900">Gnuplot</title>
  <desc
     id="desc7902">Produced by GNUPLOT 4.6 patchlevel 5 </desc>
  <g
     id="g7923"
     style="color:#ffffff;fill:none;stroke:#000000;stroke-width:1;stroke-linecap:butt;stroke-linejoin:miter"
     transform="translate(-146.2437,-874.11398)" />
  <g
     id="g7923-3"
     style="color:#ffffff;fill:none;stroke:#000000;stroke-width:1;stroke-linecap:butt;stroke-linejoin:miter"
     transform="translate(-147.10059,-836.63328)" />
  <g
     id="g7923-5"
     style="color:#ffffff;fill:none;stroke:#000000;stroke-width:1;stroke-linecap:butt;stroke-linejoin:miter"
     transform="translate(-122.68103,-926.98634)" />
  <g
     id="g7923-3-2"
     style="color:#ffffff;fill:none;stroke:#000000;stroke-width:1;stroke-linecap:butt;stroke-linejoin:miter"
     transform="translate(-123.53792,-889.50564)" />
  <rect
     y="4.9999999e-06"
     x="4.9999999e-06"
     height="118.44194"
     width="268.94858"
     id="rect24287-6-3-7-55-8-4-3-2-9-7"
     style="display:inline;fill:#2f2f2f;fill-opacity:1;stroke:#dc143c;stroke-width:0;stroke-miterlimit:4;stroke-dasharray:none;stroke-dashoffset:0;stroke-opacity:0.54751132" />
  <path
     style="color:#000000;display:inline;fill:#454545;fill-opacity:1;stroke:none"
     inkscape:connector-curvature="0"
     id="path4099-2-5-1-6-8-6-4-0-4"
     d="m 161.1511,0.51110464 0,107.21020536 107.21016,0 0,-107.21020536 -107.21016,0 z" />
  <rect
     y="0.57093549"
     x="7.1367393"
     height="107.08793"
     width="141.75171"
     id="rect66416-9-1-2-4-1-5-6-6-8"
     style="color:#000000;display:inline;overflow:visible;visibility:visible;fill:#454545;fill-opacity:1;fill-rule:nonzero;stroke:none;stroke-width:0.162506;marker:none;enable-background:accumulate" />
  <path
     d="m 161.68715,107.18531 1.06809,-1.0681 1.06809,-1.0681 1.06808,-1.0681 1.09293,-1.0929 1.06809,-1.0681 1.06809,-1.0681 1.06809,-1.068105 1.06808,-1.068 1.06809,-1.0681 1.09292,-1.093 1.06809,-1.068 1.06809,-1.0681 1.06809,-1.0681 1.06809,-1.0681 1.06808,-1.0681 1.09293,-1.0929 1.06809,-1.0681 1.06808,-1.0681 1.06809,-1.0681 1.06808,-1.0681 1.06809,-1.0681 1.09293,-1.0929 1.06809,-1.0681 1.06809,-1.0681 1.06808,-1.0681 1.06809,-1.068 1.06809,-1.0681 1.09292,-1.093 1.06809,-1.068 1.06808,-1.0681 1.06809,-1.0681 1.0681,-1.0681 1.06808,-1.0681 1.06809,-1.0681 1.09292,-1.0929 1.06809,-1.0681 1.06809,-1.0681 1.06808,-1.0681 1.06809,-1.0681 1.06809,-1.0681 1.09293,-1.0929 1.06808,-1.0681 1.06809,-1.0681 1.06809,-1.068 1.06808,-1.0681 1.06809,-1.0681 1.09292,-1.0929 1.06809,-1.0681 1.06809,-1.0681 1.06809,-1.0681 1.06809,-1.0681 1.06808,-1.0681 1.09293,-1.0929 1.06809,-1.0681 1.06808,-1.0681 1.06809,-1.0681 1.06808,-1.0681 1.06809,-1.068 1.09293,-1.093 1.06809,-1.0681 1.06809,-1.0681 1.06808,-1.0681 1.06809,-1.0681 1.06808,-1.0681 1.09293,-1.0929 1.06809,-1.0681 1.06808,-1.0681 1.0681,-1.068 1.06808,-1.0681 1.06809,-1.0681 1.06808,-1.0681 1.09293,-1.0929 1.06809,-1.0681 1.06808,-1.0681 1.06809,-1.0681 1.06808,-1.0681 1.0681,-1.0681 1.09293,-1.0929 1.06808,-1.0681 1.06809,-1.0681 1.06808,-1.0681 1.06809,-1.0681 1.06809,-1.068 1.09292,-1.093 1.06809,-1.0681 1.06808,-1.068 1.0681,-1.0681 1.06809,-1.0681 1.06808,-1.0681 1.09294,-1.0929 1.06808,-1.0681004 1.06809,-1.0681 1.06808,-1.0681 1.06808,-1.0681 1.06809,-1.0681 1.09294,-1.0929 1.06808,-1.0681 1.06809,-1.0681 1.06808,-1.0681"
     id="path4095-6-0-13-5-4-35-3-5-1"
     inkscape:connector-curvature="0"
     style="color:#008000;display:inline;fill:none;stroke:#2f2f2f;stroke-width:1.4849999;stroke-linecap:round;stroke-linejoin:miter;stroke-miterlimit:4;stroke-dasharray:none;stroke-opacity:1" />
  <path
     d="m 20.968628,57.577405 0.7163,2.2039 0.71629,1.8183 0.71629,1.3775 0.7163,0.9642 0.71629,0.5235 0.74385,0.1102 0.71629,-0.2755 0.71629,-0.6337 0.7163,-0.9642 0.716288,-1.2673 0.74384,-1.5152 0.7163,-1.7081 0.35815,-0.9229 m 0,0 0.35814,-0.9229 0.71629,-1.9285 0.7163,-1.956 0.74384,-1.901 0.71629,-1.8183 0.7163,-1.6805 0.71629,-1.4877 0.71629,-1.2397 0.7163,-0.9367 0.743839,-0.6061 0.71629,-0.248 0.71629,0.1102 0.7163,0.5235 0.71629,0.9091 0.74384,1.2949 0.7163,1.7081 0.71629,2.0662 0.71629,2.3968 0.7163,2.6999 0.71629,2.9754 m 7.58996,34.1203 0.37192,1.1984 0.71629,2.0387 0.71629,1.6805 0.7163,1.2398 0.71629,0.854 0.71629,0.4133 0.4069,-0.015 m 0,0 0.33695,-0.012 0.71629,-0.4408 0.71629,-0.8265 0.7163,-1.2122 0.71629,-1.5428 1.10199,-2.893 1.07444,-3.3614 0.71629,-2.4519 0.7163,-2.5621 0.74384,-2.5897 0.71629,-2.5621 0.7163,-2.4795 0.71629,-2.3693 0.71629,-2.1764 0.7163,-1.9285 0.74384,-1.653 0.71629,-1.3223 0.7163,-0.9918 0.71629,-0.6061 0.71629,-0.1929 m 22.370403,26.0897 0.71629,-3.058 0.71629,-3.1958 0.74385,-3.2233 0.71629,-3.2234 0.71629,-3.1406 0.7163,-3.0305 0.71629,-2.8652 0.74384,-2.6172 0.71629,-2.3693 0.35814,-1.0194 m -19.47766,28.7758 0.35815,1.3913 0.71629,2.5896 0.83568,2.8399 0.98261,2.615005 0.35814,0.9091 0.7163,1.4877 0.71629,1.102 0.71629,0.7163 0.7163,0.303 0.74384,-0.1377 0.71629,-0.5786 0.7163,-0.9642 0.71629,-1.405 0.71629,-1.7632 0.77541,-2.338405 0.68473,-2.1798 0.71629,-2.6999 0.7163,-2.9202 m -22.370403,-26.0896 0.74385,0.1653 0.71629,0.5785 0.71629,0.9918 0.7163,1.3224 0.71629,1.6805 0.71629,2.0112 0.74385,2.2866 0.71629,2.507 0.71629,2.6999 0.716303,2.8101 0.71629,2.9202 0.74384,2.8928 0.7163,2.8651 0.35814,1.3913 m -35.167243,-28.7414 0.17907,0.8472 0.71629,3.4713 0.71629,3.5539 0.7163,3.5539 0.74384,3.4713 0.71629,3.3886 0.7163,3.1958 0.71629,3.0029 0.71629,2.6999 0.37193,1.1984 m 73.571585,-28.39 0.35815,-1.8458 0.83337,-4.284 0.26862,-1.4463 0.17907,-0.9643 0.17908,-0.9642 0.71629,-3.8845 0.71629,-3.8019 0.80928,-4.16 0.27894,-1.3224 0.18596,-0.8816 0.18596,-0.8816 0.71629,-3.3335 0.7163,-3.0581 0.71629,-2.7549 0.71629,-2.4244 0.74385,-2.0663 0.71629,-1.6529 0.71629,-1.2949 0.7163,-0.8816 0.71629,-0.4683 0.71629,-0.1102 0.74385,0.2479 0.71629,0.5786 0.71629,0.8816 0.7163,1.1295 0.71629,1.3499 0.74384,1.4877 0.71629,1.5979 0.7163,1.6255 0.71629,1.5978 0.71629,1.5428 0.74385,1.4051 0.71629,1.2122 0.17907,0.241 0.17907,0.2411 m -38.23903,27.2329 0.35815,0.9092 0.71629,2.0111 0.7163,2.1764 0.74384,2.2316 0.71629,2.2866 0.7163,2.2315 0.71629,2.1489 0.71629,2.0111 0.74385,1.8183 0.71629,1.5428 0.71629,1.2673 0.7163,0.9091 0.71629,0.551 0.71629,0.1653 0.74385,-0.2479 0.71629,-0.6888 0.71629,-1.102 0.7163,-1.5427 0.71629,-1.9285 0.74383,-2.3417 0.7163,-2.6724 0.71629,-3.0029 0.71629,-3.2784 0.7163,-3.4988 0.35814,-1.8459 m -25.235572,-0.028 0.358152,-1.0193 0.7163,-1.708 0.7163,-1.3224 0.74384,-0.9643 0.7163,-0.551 0.71629,-0.1377 0.71629,0.2479 0.7163,0.6061 0.71629,0.9918 0.74384,1.2949 0.7163,1.5703 0.35814,0.9091 m -63.860315,-5.6197 0.74384,3.1957 0.35815,1.6943 0.17908,0.8471 m -31.744198,-43.2737 0.18596,1.0056 0.71629,4.16 0.7163,4.1875 0.71629,4.1876 0.716291,4.1049 0.833385,4.47 0.268605,1.4257 0.17907,0.9504 0.17908,0.9505 0.71629,3.5539 0.7163,3.306 0.71629,2.9478 0.74384,2.6173 M 10.857877,5.7287046 l 0.71629,3.4162 0.71629,3.6641004 0.7163,3.8845 0.18596,1.0056 0.18596,1.0055 0.18596,1.0056"
     style="color:#ff0000;display:inline;fill:none;stroke:#ffffff;stroke-width:2;stroke-linecap:round;stroke-linejoin:round;stroke-miterlimit:4;stroke-dasharray:none;stroke-opacity:1"
     id="path5433-7-6"
     inkscape:connector-curvature="0" />
  <ellipse
     ry="1.5215369"
     rx="1.5215394"
     cy="57.043331"
     cx="183.41414"
     id="use4084-8-6-3-2-5-2-0-4"
     style="color:#ff0000;display:inline;fill:#ffffff;fill-opacity:1;stroke:#ffffff;stroke-width:0.67500001;stroke-linecap:butt;stroke-linejoin:miter;stroke-miterlimit:4;stroke-dasharray:none;stroke-opacity:1" />
  <ellipse
     ry="1.5215369"
     rx="1.5215394"
     cy="41.595455"
     cx="203.14458"
     id="use4084-8-6-3-2-5-2-0-5-7"
     style="color:#ff0000;display:inline;fill:#ffffff;fill-opacity:1;stroke:#ffffff;stroke-width:0.67500001;stroke-linecap:butt;stroke-linejoin:miter;stroke-miterlimit:4;stroke-dasharray:none;stroke-opacity:1" />
  <ellipse
     ry="1.5545856"
     rx="1.5545876"
     cy="63.024166"
     cx="169.83078"
     id="use4082-4-8-2-4-6-3-5-3"
     style="color:#ff0000;display:inline;fill:#ffffff;fill-opacity:1;stroke:#ffffff;stroke-width:0.67500001;stroke-linecap:butt;stroke-linejoin:miter;stroke-miterlimit:4;stroke-dasharray:none;stroke-opacity:1" />
  <ellipse
     ry="1.5215369"
     rx="1.5215394"
     cy="19.595594"
     cx="231.93544"
     id="use4084-8-6-3-2-5-2-0-5-7-1"
     style="color:#ff0000;display:inline;fill:#ffffff;fill-opacity:1;stroke:#ffffff;stroke-width:0.67500001;stroke-linecap:butt;stroke-linejoin:miter;stroke-miterlimit:4;stroke-dasharray:none;stroke-opacity:1" />
  <path
     style="color:#008000;fill:none;stroke:#ffbf00;stroke-width:1;stroke-linecap:butt;stroke-linejoin:miter;stroke-miterlimit:4;stroke-dasharray:none;stroke-opacity:1"
     inkscape:connector-curvature="0"
     id="path8019-4"
     d="m 10.189727,4.3432046 0.719231,10.0581604 0.75192,1.75401 0.719229,-0.38369 0.719231,10.85294 0.751916,3.80951 0.719228,3.94651 0.751924,-1.12366 0.719231,6.55013 0.751916,9.20856 0.71923,-7.20789 0.751923,12.41511 0.719228,-1.42513 0.719226,-1.91845 0.751926,9.8663 0.719227,-3.23395 0.751924,6.44051 0.719224,-7.75601 0.751921,5.70053 0.719231,0.38369 0.751922,3.0147 0.719228,-6.8516 0.751918,-3.04211 0.719229,8.77005 0.719233,-1.91845 0.751921,-10.08556 0.719233,7.29011 0.751921,-2.35696 0.719237,-0.73996 0.75192,-1.78141 0.719233,-3.78209 0.751918,-0.82219 0.719233,-10.52406 0.71923,6.90642 0.751922,-9.42782 0.719229,8.77006 0.751918,-3.04212 0.719229,2.00067 0.751922,-6.38569 0.71923,1.42513 0.751922,-1.01403 0.719225,4.35762 0.719232,9.18114 0.751919,-2.52139 0.719228,-1.94584 0.751923,11.29143 0.719226,2.13771 0.751921,1.45254 0.71923,3.8643 0.75192,6.35829 0.719225,-1.06885 0.719235,7.75602 0.751917,-1.12366 0.719227,2.93248 0.751921,8.13971 0.71923,1.6992 0.751918,-3.86431 0.719229,6.30348 0.751925,-4.22059 0.719224,2.87767 0.751925,2.43918 0.71923,-0.4111 0.719229,0.43851 0.751918,-5.86499 0.71923,7.18048 0.751919,-2.32954 0.719229,2.52139 0.751925,-5.04277 0.719223,0.21924 0.751926,-11.59291 0.71923,3.56282 0.719229,-0.5207 0.751918,-2.02808 0.71923,-6.60495 0.751918,-0.38369 0.719231,-4.54947 0.751924,0.8496 0.719223,0.27407 0.751926,-9.20856 0.719231,-1.56217 0.719224,-2.11029 0.751921,6.05682 0.719231,-3.69987 0.751923,1.58958 0.719224,6.82419 0.751925,-1.17847 0.719231,-0.90442 0.751918,4.74131 0.719223,0.98663 0.719229,-0.10962 0.751919,-3.06952 0.719236,11.67514 0.751919,-2.52139 0.719222,7.97526 0.751932,-0.13703 0.71923,-3.89171 0.751919,6.55013 0.719223,7.12568 0.751925,-0.57554 0.719229,0.43851 0.71923,-3.37099 0.751918,11.976595 0.71923,-8.523395 0.751918,0.46591 0.71923,11.017365 0.751929,-4.71389 0.71923,-3.398395 0.751913,5.618315 0.71923,-2.16511 0.71923,-1.97326 0.751912,-1.342915 0.71924,-3.48061 0.751913,-8.11231 0.719234,0.21925 0.751922,-7.94785 0.719225,-1.01405 0.751922,5.15242 0.71924,-3.86431 0.71922,-6.65975 0.75192,-4.52207 0.71923,-7.89305 0.751918,8.57821 0.71923,-11.48328 0.751923,1.67178 0.71923,2.60361 0.75193,-4.79612 0.71922,-4.90575 0.71921,-0.79481 0.75191,-0.0822 0.71923,7.59158 0.75191,-3.72727 0.71923,4.13836 0.75193,1.17849 0.71923,2.30214 0.75192,-1.2607 0.71923,3.4258 0.75191,-1.06885 0.71923,0.0822 0.71923,8.35896 0.75191,-2.5488 0.71924,-0.52072 0.75192,0.4385 0.71922,5.23462 0.75193,1.06885 0.71923,3.94653 0.75191,-2.5488 0.71923,5.75535 0.71924,3.89172 0.75191,-0.19185 0.71924,-1.12366 0.75191,-11.42847 0.71923,8.63301 0.75192,-7.50936 0.71924,1.86364 0.75193,-10.79813 0.71923,4.16577 0.71922,-0.27406 0.75192,-7.45455 0.71923,0.10962 0.75192,-9.94852 0.71923,3.64505 0.75193,-13.59359 0.71923,-1.91843 0.75191,-5.86499 0.71923,2.82286 0.71923,-5.67313 0.75192,-2.76804 0.71923,-5.78275 0.75192,7.18047 0.71923,-3.78207 0.75192,0.57552 0.71923,-2.30214 0.75192,-15.10093 0.71923,13.97727 0.75192,-6.8242 0.71923,-0.4659 0.71923,3.0147 0.75191,0.87701 0.71923,-1.72661 0.75193,0.98663 0.71924,9.48263 0.75191,1.83622 0.71923,-5.04277 0.75192,0.90441 0.71923,8.1397 0.71923,-3.04211 0.75191,7.09826 0.71923,-0.76739 0.75192,-6.98864 0.71923,-1.20587"
     sodipodi:nodetypes="cccccccccccccccccccccccccccccccccccccccccccccccccccccccccccccccccccccccccccccccccccccccccccccccccccccccccccccccccccccccccccccccccccccccccccccccccccccccccccccccccccccccccccccccccccccccccccccc" />
  <ellipse
     style="color:#555555;fill:#ffbf00;fill-opacity:1;stroke:#ffbf00;stroke-width:0.25608987;stroke-linecap:butt;stroke-linejoin:miter;stroke-opacity:1"
     id="use3609-0-3-5-5"
     cx="168.6481"
     cy="94.233444"
     rx="1.6615949"
     ry="1.6615928" />
  <ellipse
     style="color:#555555;fill:#ffbf00;fill-opacity:1;stroke:#ffbf00;stroke-width:0.25608987;stroke-linecap:butt;stroke-linejoin:miter;stroke-opacity:1"
     id="use3611-1-0-7-1"
     cx="169.04718"
     cy="91.2901"
     rx="1.6615949"
     ry="1.6615928" />
  <ellipse
     style="color:#555555;fill:#ffbf00;fill-opacity:1;stroke:#ffbf00;stroke-width:0.25608987;stroke-linecap:butt;stroke-linejoin:miter;stroke-opacity:1"
     id="use3613-4-6-2-8"
     cx="176.53021"
     cy="90.816162"
     rx="1.6615949"
     ry="1.6615928" />
  <ellipse
     style="color:#555555;fill:#ffbf00;fill-opacity:1;stroke:#ffbf00;stroke-width:0.25608987;stroke-linecap:butt;stroke-linejoin:miter;stroke-opacity:1"
     id="use3615-4-7-0-3"
     cx="177.15381"
     cy="90.242493"
     rx="1.6615949"
     ry="1.6615928" />
  <ellipse
     style="color:#555555;fill:#ffbf00;fill-opacity:1;stroke:#ffbf00;stroke-width:0.25608987;stroke-linecap:butt;stroke-linejoin:miter;stroke-opacity:1"
     id="use3617-5-4-4-0"
     cx="175.98148"
     cy="89.718643"
     rx="1.6615949"
     ry="1.6615928" />
  <ellipse
     style="color:#555555;fill:#ffbf00;fill-opacity:1;stroke:#ffbf00;stroke-width:0.25608987;stroke-linecap:butt;stroke-linejoin:miter;stroke-opacity:1"
     id="use3627-3-5-7-4"
     cx="183.31485"
     cy="84.231064"
     rx="1.6615949"
     ry="1.6615928" />
  <ellipse
     style="color:#555555;fill:#ffbf00;fill-opacity:1;stroke:#ffbf00;stroke-width:0.25608987;stroke-linecap:butt;stroke-linejoin:miter;stroke-opacity:1"
     id="use3629-2-6-4-1"
     cx="180.22185"
     cy="84.15625"
     rx="1.6615949"
     ry="1.6615928" />
  <ellipse
     style="color:#555555;fill:#ffbf00;fill-opacity:1;stroke:#ffbf00;stroke-width:0.25608987;stroke-linecap:butt;stroke-linejoin:miter;stroke-opacity:1"
     id="use3631-1-2-4-8"
     cx="184.81145"
     cy="79.416946"
     rx="1.6615949"
     ry="1.6615928" />
  <ellipse
     style="color:#555555;fill:#ffbf00;fill-opacity:1;stroke:#ffbf00;stroke-width:0.25608987;stroke-linecap:butt;stroke-linejoin:miter;stroke-opacity:1"
     id="use3633-0-0-1-7"
     cx="187.00648"
     cy="77.621002"
     rx="1.6615949"
     ry="1.6615928" />
  <ellipse
     style="color:#555555;fill:#ffbf00;fill-opacity:1;stroke:#ffbf00;stroke-width:0.25608987;stroke-linecap:butt;stroke-linejoin:miter;stroke-opacity:1"
     id="use3635-0-2-0-8"
     cx="186.63235"
     cy="76.62326"
     rx="1.6615949"
     ry="1.6615928" />
  <ellipse
     style="color:#555555;fill:#ffbf00;fill-opacity:1;stroke:#ffbf00;stroke-width:0.25608987;stroke-linecap:butt;stroke-linejoin:miter;stroke-opacity:1"
     id="use3637-8-1-7-3"
     cx="190.37386"
     cy="76.398788"
     rx="1.6615949"
     ry="1.6615928" />
  <ellipse
     style="color:#555555;fill:#ffbf00;fill-opacity:1;stroke:#ffbf00;stroke-width:0.25608987;stroke-linecap:butt;stroke-linejoin:miter;stroke-opacity:1"
     id="use3639-6-4-7-3"
     cx="189.5507"
     cy="75.974731"
     rx="1.6615949"
     ry="1.6615928" />
  <ellipse
     style="color:#555555;fill:#ffbf00;fill-opacity:1;stroke:#ffbf00;stroke-width:0.25608987;stroke-linecap:butt;stroke-linejoin:miter;stroke-opacity:1"
     id="use3641-1-5-4-5"
     cx="189.67543"
     cy="75.825073"
     rx="1.6615949"
     ry="1.6615928" />
  <ellipse
     style="color:#555555;fill:#ffbf00;fill-opacity:1;stroke:#ffbf00;stroke-width:0.25608987;stroke-linecap:butt;stroke-linejoin:miter;stroke-opacity:1"
     id="use3643-0-9-5-4"
     cx="191.99519"
     cy="74.128906"
     rx="1.6615949"
     ry="1.6615928" />
  <ellipse
     style="color:#555555;fill:#ffbf00;fill-opacity:1;stroke:#ffbf00;stroke-width:0.25608987;stroke-linecap:butt;stroke-linejoin:miter;stroke-opacity:1"
     id="use3645-8-9-6-7"
     cx="187.08133"
     cy="73.131134"
     rx="1.6615949"
     ry="1.6615928" />
  <ellipse
     style="color:#555555;fill:#ffbf00;fill-opacity:1;stroke:#ffbf00;stroke-width:0.25608987;stroke-linecap:butt;stroke-linejoin:miter;stroke-opacity:1"
     id="use3647-1-7-4-0"
     cx="196.1857"
     cy="70.611862"
     rx="1.6615949"
     ry="1.6615928" />
  <ellipse
     style="color:#555555;fill:#ffbf00;fill-opacity:1;stroke:#ffbf00;stroke-width:0.25608987;stroke-linecap:butt;stroke-linejoin:miter;stroke-opacity:1"
     id="use3649-2-1-3-4"
     cx="196.33534"
     cy="68.766022"
     rx="1.6615949"
     ry="1.6615928" />
  <ellipse
     style="color:#555555;fill:#ffbf00;fill-opacity:1;stroke:#ffbf00;stroke-width:0.25608987;stroke-linecap:butt;stroke-linejoin:miter;stroke-opacity:1"
     id="use3651-4-9-4-8"
     cx="198.28096"
     cy="68.466705"
     rx="1.6615949"
     ry="1.6615928" />
  <ellipse
     style="color:#555555;fill:#ffbf00;fill-opacity:1;stroke:#ffbf00;stroke-width:0.25608987;stroke-linecap:butt;stroke-linejoin:miter;stroke-opacity:1"
     id="use3653-7-0-5-1"
     cx="196.95894"
     cy="68.017731"
     rx="1.6615949"
     ry="1.6615928" />
  <ellipse
     style="color:#555555;fill:#ffbf00;fill-opacity:1;stroke:#ffbf00;stroke-width:0.25608987;stroke-linecap:butt;stroke-linejoin:miter;stroke-opacity:1"
     id="use3655-4-8-9-8"
     cx="197.7821"
     cy="66.346497"
     rx="1.6615949"
     ry="1.6615928" />
  <ellipse
     style="color:#555555;fill:#ffbf00;fill-opacity:1;stroke:#ffbf00;stroke-width:0.25608987;stroke-linecap:butt;stroke-linejoin:miter;stroke-opacity:1"
     id="use3659-4-9-1-2"
     cx="202.7209"
     cy="64.07666"
     rx="1.6615949"
     ry="1.6615928" />
  <ellipse
     style="color:#555555;fill:#ffbf00;fill-opacity:1;stroke:#ffbf00;stroke-width:0.25608987;stroke-linecap:butt;stroke-linejoin:miter;stroke-opacity:1"
     id="use3661-3-8-6-2"
     cx="204.41705"
     cy="63.253506"
     rx="1.6615949"
     ry="1.6615928" />
  <ellipse
     style="color:#555555;fill:#ffbf00;fill-opacity:1;stroke:#ffbf00;stroke-width:0.25608987;stroke-linecap:butt;stroke-linejoin:miter;stroke-opacity:1"
     id="use3663-7-7-3-6"
     cx="204.61661"
     cy="62.031277"
     rx="1.6615949"
     ry="1.6615928" />
  <ellipse
     style="color:#555555;fill:#ffbf00;fill-opacity:1;stroke:#ffbf00;stroke-width:0.25608987;stroke-linecap:butt;stroke-linejoin:miter;stroke-opacity:1"
     id="use3665-1-2-1-8"
     cx="199.12903"
     cy="61.133297"
     rx="1.6615949"
     ry="1.6615928" />
  <ellipse
     style="color:#555555;fill:#ffbf00;fill-opacity:1;stroke:#ffbf00;stroke-width:0.25608987;stroke-linecap:butt;stroke-linejoin:miter;stroke-opacity:1"
     id="use3667-1-7-5-1"
     cx="204.24246"
     cy="60.285213"
     rx="1.6615949"
     ry="1.6615928" />
  <ellipse
     style="color:#555555;fill:#ffbf00;fill-opacity:1;stroke:#ffbf00;stroke-width:0.25608987;stroke-linecap:butt;stroke-linejoin:miter;stroke-opacity:1"
     id="use3677-3-5-1-9"
     cx="208.00894"
     cy="56.493816"
     rx="1.6615949"
     ry="1.6615928" />
  <ellipse
     style="color:#555555;fill:#ffbf00;fill-opacity:1;stroke:#ffbf00;stroke-width:0.25608987;stroke-linecap:butt;stroke-linejoin:miter;stroke-opacity:1"
     id="use3681-3-7-0-7"
     cx="209.90463"
     cy="54.672939"
     rx="1.6615949"
     ry="1.6615928" />
  <ellipse
     style="color:#555555;fill:#ffbf00;fill-opacity:1;stroke:#ffbf00;stroke-width:0.25608987;stroke-linecap:butt;stroke-linejoin:miter;stroke-opacity:1"
     id="use3683-7-2-7-3"
     cx="207.8593"
     cy="53.525524"
     rx="1.6615949"
     ry="1.6615928" />
  <ellipse
     style="color:#555555;fill:#ffbf00;fill-opacity:1;stroke:#ffbf00;stroke-width:0.25608987;stroke-linecap:butt;stroke-linejoin:miter;stroke-opacity:1"
     id="use3687-8-5-0-0"
     cx="212.42392"
     cy="52.403057"
     rx="1.6615949"
     ry="1.6615928" />
  <ellipse
     style="color:#555555;fill:#ffbf00;fill-opacity:1;stroke:#ffbf00;stroke-width:0.25608987;stroke-linecap:butt;stroke-linejoin:miter;stroke-opacity:1"
     id="use3689-9-5-4-1"
     cx="214.14505"
     cy="49.684216"
     rx="1.6615949"
     ry="1.6615928" />
  <ellipse
     style="color:#555555;fill:#ffbf00;fill-opacity:1;stroke:#ffbf00;stroke-width:0.25608987;stroke-linecap:butt;stroke-linejoin:miter;stroke-opacity:1"
     id="use3693-4-2-2-6"
     cx="216.96367"
     cy="44.520885"
     rx="1.6615949"
     ry="1.6615928" />
  <ellipse
     style="color:#555555;fill:#ffbf00;fill-opacity:1;stroke:#ffbf00;stroke-width:0.25608987;stroke-linecap:butt;stroke-linejoin:miter;stroke-opacity:1"
     id="use3695-8-0-6-7"
     cx="219.2834"
     cy="42.475506"
     rx="1.6615949"
     ry="1.6615928" />
  <ellipse
     style="color:#555555;fill:#ffbf00;fill-opacity:1;stroke:#ffbf00;stroke-width:0.25608987;stroke-linecap:butt;stroke-linejoin:miter;stroke-opacity:1"
     id="use3697-1-7-3-4"
     cx="225.07028"
     cy="41.802044"
     rx="1.6615949"
     ry="1.6615928" />
  <ellipse
     style="color:#555555;fill:#ffbf00;fill-opacity:1;stroke:#ffbf00;stroke-width:0.25608987;stroke-linecap:butt;stroke-linejoin:miter;stroke-opacity:1"
     id="use3699-8-0-6-4"
     cx="219.83217"
     cy="41.427868"
     rx="1.6615949"
     ry="1.6615928" />
  <ellipse
     style="color:#555555;fill:#ffbf00;fill-opacity:1;stroke:#ffbf00;stroke-width:0.25608987;stroke-linecap:butt;stroke-linejoin:miter;stroke-opacity:1"
     id="use3703-2-9-6-0"
     cx="226.04309"
     cy="39.232845"
     rx="1.6615949"
     ry="1.6615928" />
  <ellipse
     style="color:#555555;fill:#ffbf00;fill-opacity:1;stroke:#ffbf00;stroke-width:0.25608987;stroke-linecap:butt;stroke-linejoin:miter;stroke-opacity:1"
     id="use3705-8-3-7-5"
     cx="229.70978"
     cy="37.06274"
     rx="1.6615949"
     ry="1.6615928" />
  <ellipse
     style="color:#555555;fill:#ffbf00;fill-opacity:1;stroke:#ffbf00;stroke-width:0.25608987;stroke-linecap:butt;stroke-linejoin:miter;stroke-opacity:1"
     id="use3707-2-6-3-1"
     cx="228.21317"
     cy="36.888149"
     rx="1.6615949"
     ry="1.6615928" />
  <ellipse
     style="color:#555555;fill:#ffbf00;fill-opacity:1;stroke:#ffbf00;stroke-width:0.25608987;stroke-linecap:butt;stroke-linejoin:miter;stroke-opacity:1"
     id="use3711-6-8-0-3"
     cx="234.97289"
     cy="32.273586"
     rx="1.6615949"
     ry="1.6615928" />
  <ellipse
     style="color:#555555;fill:#ffbf00;fill-opacity:1;stroke:#ffbf00;stroke-width:0.25608987;stroke-linecap:butt;stroke-linejoin:miter;stroke-opacity:1"
     id="use3717-9-5-3-5"
     cx="240.90944"
     cy="25.339277"
     rx="1.6615949"
     ry="1.6615928" />
  <ellipse
     style="color:#555555;fill:#ffbf00;fill-opacity:1;stroke:#ffbf00;stroke-width:0.25608987;stroke-linecap:butt;stroke-linejoin:miter;stroke-opacity:1"
     id="use3721-2-6-7-0"
     cx="245.54892"
     cy="21.847166"
     rx="1.6615949"
     ry="1.6615928" />
  <ellipse
     style="color:#555555;fill:#ffbf00;fill-opacity:1;stroke:#ffbf00;stroke-width:0.25608987;stroke-linecap:butt;stroke-linejoin:miter;stroke-opacity:1"
     id="use3725-7-0-3-2"
     cx="259.56717"
     cy="7.8787508"
     rx="1.6615949"
     ry="1.6615928" />
  <ellipse
     style="color:#555555;fill:#ffbf00;fill-opacity:1;stroke:#ffbf00;stroke-width:0.25608987;stroke-linecap:butt;stroke-linejoin:miter;stroke-opacity:1"
     id="use3727-7-9-0-0"
     cx="262.86115"
     cy="3.9166386"
     rx="1.6615949"
     ry="1.6615928" />
  <ellipse
     style="color:#555555;fill:#ffbf00;fill-opacity:1;stroke:#ffbf00;stroke-width:0.25608987;stroke-linecap:butt;stroke-linejoin:miter;stroke-opacity:1"
     id="use3729-0-2-6-4"
     cx="173.96608"
     cy="65.809998"
     rx="1.6615949"
     ry="1.6615928" />
  <ellipse
     style="color:#ff0000;fill:#ffbf00;fill-opacity:1;stroke:#ffbf00;stroke-width:0.25608987;stroke-linecap:butt;stroke-linejoin:miter;stroke-opacity:1"
     id="use3598-0-8-9-9"
     cx="187.72115"
     cy="59.766338"
     rx="1.6615949"
     ry="1.6615928" />
  <ellipse
     style="color:#ff0000;fill:#ffbf00;fill-opacity:1;stroke:#ffbf00;stroke-width:0.25608987;stroke-linecap:butt;stroke-linejoin:miter;stroke-opacity:1"
     id="use3600-0-2-7-5"
     cx="207.24602"
     cy="43.931454"
     rx="1.6615949"
     ry="1.6615928" />
  <ellipse
     inkscape:transform-center-y="-5.3125"
     inkscape:transform-center-x="-0.0625"
     style="color:#ff0000;fill:#ffbf00;fill-opacity:1;stroke:#ffbf00;stroke-width:0.25608987;stroke-linecap:butt;stroke-linejoin:miter;stroke-opacity:1"
     id="use3602-1-5-2-1"
     cx="236.64584"
     cy="20.838438"
     rx="1.6615949"
     ry="1.6615928" />
  <ellipse
     style="color:#555555;fill:#ffbf00;fill-opacity:1;stroke:#ffbf00;stroke-width:0.25608987;stroke-linecap:butt;stroke-linejoin:miter;stroke-opacity:1"
     id="use3691-4-3-3-9"
     cx="220.7301"
     cy="45.244244"
     rx="1.6615949"
     ry="1.6615928" />
  <ellipse
     style="color:#555555;fill:#ffbf00;fill-opacity:1;stroke:#ffbf00;stroke-width:0.25608987;stroke-linecap:butt;stroke-linejoin:miter;stroke-opacity:1"
     id="use3679-7-6-0-9"
     cx="203.74358"
     cy="56.344158"
     rx="1.6615949"
     ry="1.6615928" />
  <ellipse
     style="color:#555555;fill:#ffbf00;fill-opacity:1;stroke:#ffbf00;stroke-width:0.25608987;stroke-linecap:butt;stroke-linejoin:miter;stroke-opacity:1"
     id="use3675-3-4-7-1"
     cx="203.96806"
     cy="57.042553"
     rx="1.6615949"
     ry="1.6615928" />
  <ellipse
     style="color:#555555;fill:#ffbf00;fill-opacity:1;stroke:#ffbf00;stroke-width:0.25608987;stroke-linecap:butt;stroke-linejoin:miter;stroke-opacity:1"
     id="use3669-7-4-0-2"
     cx="205.38986"
     cy="58.61401"
     rx="1.6615949"
     ry="1.6615928" />
  <ellipse
     style="color:#555555;fill:#ffbf00;fill-opacity:1;stroke:#ffbf00;stroke-width:0.25608987;stroke-linecap:butt;stroke-linejoin:miter;stroke-opacity:1"
     id="use3673-1-3-9-7"
     cx="206.73682"
     cy="58.189953"
     rx="1.6615949"
     ry="1.6615928" />
  <ellipse
     style="color:#555555;fill:#ffbf00;fill-opacity:1;stroke:#ffbf00;stroke-width:0.25608987;stroke-linecap:butt;stroke-linejoin:miter;stroke-opacity:1"
     id="use3657-6-8-0-5"
     cx="200.15172"
     cy="65.797745"
     rx="1.6615949"
     ry="1.6615928" />
  <ellipse
     style="color:#555555;fill:#ffbf00;fill-opacity:1;stroke:#ffbf00;stroke-width:0.25608987;stroke-linecap:butt;stroke-linejoin:miter;stroke-opacity:1"
     id="use3621-6-1-8-5"
     cx="180.02231"
     cy="87.548569"
     rx="1.6615949"
     ry="1.6615928" />
  <ellipse
     style="color:#555555;fill:#ffbf00;fill-opacity:1;stroke:#ffbf00;stroke-width:0.25608987;stroke-linecap:butt;stroke-linejoin:miter;stroke-opacity:1"
     id="use3623-1-0-2-6"
     cx="178.10164"
     cy="85.952179"
     rx="1.6615949"
     ry="1.6615928" />
  <ellipse
     style="color:#555555;fill:#ffbf00;fill-opacity:1;stroke:#ffbf00;stroke-width:0.25608987;stroke-linecap:butt;stroke-linejoin:miter;stroke-opacity:1"
     id="use3625-8-2-4-3"
     cx="177.15381"
     cy="85.503189"
     rx="1.6615949"
     ry="1.6615928" />
  <ellipse
     style="color:#555555;fill:#ffbf00;fill-opacity:1;stroke:#ffbf00;stroke-width:0.25608987;stroke-linecap:butt;stroke-linejoin:miter;stroke-opacity:1"
     id="use3619-3-3-5-8"
     cx="176.4055"
     cy="88.271942"
     rx="1.6615949"
     ry="1.6615928" />
  <g
     style="fill:#ffffff;fill-opacity:1;stroke:#000000;stroke-width:0.55721718;stroke-opacity:1"
     transform="matrix(1.7946324,0,0,1.7946322,52.083754,-151.16059)"
     id="g3666">
    <g
       style="font-style:normal;font-variant:normal;font-weight:normal;font-stretch:normal;letter-spacing:normal;word-spacing:normal;text-anchor:start;fill:#ffffff;fill-opacity:1;fill-rule:evenodd;stroke:#000000;stroke-width:0.55721718;stroke-linecap:butt;stroke-linejoin:miter;stroke-miterlimit:10.43299961;stroke-dasharray:none;stroke-dashoffset:0;stroke-opacity:1"
       id="content"
       transform="matrix(0.16920279,0,0,-0.16920279,-29.610488,201.71143)"
       xml:space="preserve"
       stroke-miterlimit="10.433"
       font-style="normal"
       font-variant="normal"
       font-weight="normal"
       font-stretch="normal"
       font-size-adjust="none"
       letter-spacing="normal"
       word-spacing="normal"><path
         style="fill:#ffffff;fill-opacity:1;stroke:#000000;stroke-width:0;stroke-opacity:1"
         inkscape:connector-curvature="0"
         d="m 487,439.68 0,0.75 -4.73,-0.65 c -0.44,-1.05 -7.31,-10.91 -8.97,-12.55 l -0.44,0 -7.32,13.25 c -2.25,-0.16 -6.04,-0.36 -7.29,-0.41 l -0.34,-0.29 0,-1.25 c 2.05,-0.55 4.14,-1.05 5.23,-2.94 2.35,-4.08 6.97,-12.2 7.22,-12.2 l -13.5,-16.39 0,-0.8 4.69,0.55 c 1.8,3.78 7.33,11.61 9.47,14.2 l 0.59,0 7.13,-11.91 c 0.64,-1.09 1.39,-2.2 2.3,-3.09 l 0.68,-0.3 5.49,1.35 0,0.79 -0.25,0.21 c -0.41,0.09 -1.5,0.79 -1.85,1.14 l -2.98,3.59 c -2,2.39 -7.74,11.8 -7.78,12.41 0.2,0.34 1.84,2.53 3.34,4.28 z"
         id="path3669" /></g>  </g>
  <g
     id="g3795"
     transform="matrix(1.7818426,0,0,1.7818426,53.075965,-137.45863)"
     style="fill:#ffbf00;fill-opacity:1">
    <g
       word-spacing="normal"
       letter-spacing="normal"
       font-size-adjust="none"
       font-stretch="normal"
       font-weight="normal"
       font-variant="normal"
       font-style="normal"
       stroke-miterlimit="10.433"
       xml:space="preserve"
       transform="matrix(0.16920279,0,0,-0.16920279,-29.610488,201.71143)"
       id="g3797"
       style="font-style:normal;font-variant:normal;font-weight:normal;font-stretch:normal;letter-spacing:normal;word-spacing:normal;text-anchor:start;fill:#ffbf00;fill-opacity:1;fill-rule:evenodd;stroke:#000000;stroke-width:0.56121677;stroke-linecap:butt;stroke-linejoin:miter;stroke-miterlimit:10.43299961;stroke-dasharray:none;stroke-dashoffset:0;stroke-opacity:1"><path
         id="path3799"
         d="m 468.38,421.09 0,-3.74 -0.02,-3.75 -0.02,-1.88 -0.03,-1.88 -0.04,-1.87 -0.05,-1.86 0.55,-0.46 4.48,1.44 -0.45,14.36 c 4.14,6.37 7.83,11.16 13.36,18.37 l -0.2,0.91 -4.24,-0.86 c -1.79,-2.83 -5.97,-10.06 -6.37,-10.75 -1.5,-2.69 -3.24,-5.33 -3.49,-5.33 -0.29,0 -0.54,0.3 -0.59,0.39 l -7.03,16.19 -7.22,0 -0.36,-0.34 0,-1.39 c 2,-0.3 3.14,-0.61 4.3,-2.85 z"
         inkscape:connector-curvature="0"
         style="fill:#ffbf00;fill-opacity:1;stroke-width:0" /></g>  </g>
</svg>
