# persistence landscape
# X Y
"layer 0:"
-inf 0
5 0
3064.5 3059.5
6124 0
inf 0


"layer 1:"
-inf 0
6 0
3065 3059
6124 0
inf 0


"layer 2:"
-inf 0
6 0
3065 3059
6124 0
inf 0


"layer 3:"
-inf 0
7 0
3065.5 3058.5
6124 0
inf 0


"layer 4:"
-inf 0
7 0
3065.5 3058.5
6124 0
inf 0


"layer 5:"
-inf 0
7 0
3065.5 3058.5
6124 0
inf 0


"layer 6:"
-inf 0
7 0
3065.5 3058.5
6124 0
inf 0


"layer 7:"
-inf 0
7 0
3065.5 3058.5
6124 0
inf 0


"layer 8:"
-inf 0
7 0
3065.5 3058.5
6124 0
inf 0


"layer 9:"
-inf 0
8 0
3066 3058
6124 0
inf 0


"layer 10:"
-inf 0
8 0
3066 3058
6124 0
inf 0


"layer 11:"
-inf 0
8 0
3066 3058
6124 0
inf 0


"layer 12:"
-inf 0
8 0
3066 3058
6124 0
inf 0


"layer 13:"
-inf 0
8 0
3066 3058
6124 0
inf 0


"layer 14:"
-inf 0
8 0
3066 3058
6124 0
inf 0


"layer 15:"
-inf 0
8 0
3066 3058
6124 0
inf 0


"layer 16:"
-inf 0
9 0
3066.5 3057.5
6124 0
inf 0


"layer 17:"
-inf 0
9 0
3066.5 3057.5
6124 0
inf 0


"layer 18:"
-inf 0
9 0
3066.5 3057.5
6124 0
inf 0


"layer 19:"
-inf 0
9 0
3066.5 3057.5
6124 0
inf 0


"layer 20:"
-inf 0
9 0
3066.5 3057.5
6124 0
inf 0


"layer 21:"
-inf 0
10 0
3067 3057
6124 0
inf 0


"layer 22:"
-inf 0
10 0
3067 3057
6124 0
inf 0


"layer 23:"
-inf 0
23 0
3073.5 3050.5
6124 0
inf 0


"layer 24:"
-inf 0
23 0
3073.5 3050.5
6124 0
inf 0


"layer 25:"
-inf 0
23 0
3073.5 3050.5
6124 0
inf 0


"layer 26:"
-inf 0
23 0
3073.5 3050.5
6124 0
inf 0


"layer 27:"
-inf 0
23 0
3073.5 3050.5
6124 0
inf 0


"layer 28:"
-inf 0
23 0
3073.5 3050.5
6124 0
inf 0


"layer 29:"
-inf 0
23 0
3073.5 3050.5
6124 0
inf 0


"layer 30:"
-inf 0
23 0
3073.5 3050.5
6124 0
inf 0


"layer 31:"
-inf 0
23 0
3073.5 3050.5
6124 0
inf 0


"layer 32:"
-inf 0
23 0
3073.5 3050.5
6124 0
inf 0


"layer 33:"
-inf 0
23 0
3073.5 3050.5
6124 0
inf 0


"layer 34:"
-inf 0
23 0
3073.5 3050.5
6124 0
inf 0


"layer 35:"
-inf 0
23 0
3073.5 3050.5
6124 0
inf 0


"layer 36:"
-inf 0
23 0
3073.5 3050.5
6124 0
inf 0


"layer 37:"
-inf 0
23 0
3073.5 3050.5
6124 0
inf 0


"layer 38:"
-inf 0
23 0
3073.5 3050.5
6124 0
inf 0


"layer 39:"
-inf 0
23 0
3073.5 3050.5
6124 0
inf 0


"layer 40:"
-inf 0
23 0
3073.5 3050.5
6124 0
inf 0


"layer 41:"
-inf 0
51 0
3087.5 3036.5
6124 0
inf 0


"layer 42:"
-inf 0
51 0
3087.5 3036.5
6124 0
inf 0


"layer 43:"
-inf 0
51 0
3087.5 3036.5
6124 0
inf 0


"layer 44:"
-inf 0
51 0
3087.5 3036.5
6124 0
inf 0


"layer 45:"
-inf 0
51 0
3087.5 3036.5
6124 0
inf 0


"layer 46:"
-inf 0
51 0
3087.5 3036.5
6124 0
inf 0


"layer 47:"
-inf 0
51 0
3087.5 3036.5
6124 0
inf 0


"layer 48:"
-inf 0
51 0
3087.5 3036.5
6124 0
inf 0


"layer 49:"
-inf 0
51 0
3087.5 3036.5
6124 0
inf 0


"layer 50:"
-inf 0
51 0
3087.5 3036.5
6124 0
inf 0


"layer 51:"
-inf 0
51 0
3087.5 3036.5
6124 0
inf 0


"layer 52:"
-inf 0
51 0
3087.5 3036.5
6124 0
inf 0


"layer 53:"
-inf 0
51 0
3087.5 3036.5
6124 0
inf 0


"layer 54:"
-inf 0
51 0
3087.5 3036.5
6124 0
inf 0


"layer 55:"
-inf 0
51 0
3087.5 3036.5
6124 0
inf 0


"layer 56:"
-inf 0
51 0
3087.5 3036.5
6124 0
inf 0


"layer 57:"
-inf 0
51 0
3087.5 3036.5
6124 0
inf 0


"layer 58:"
-inf 0
51 0
3087.5 3036.5
6124 0
inf 0


"layer 59:"
-inf 0
51 0
3087.5 3036.5
6124 0
inf 0


"layer 60:"
-inf 0
51 0
3087.5 3036.5
6124 0
inf 0


