# persistence landscape
# X Y
"layer 0:"
-inf 0
4 0
3064 3060
6124 0
inf 0


"layer 1:"
-inf 0
7 0
3065.5 3058.5
6124 0
inf 0


"layer 2:"
-inf 0
7 0
3065.5 3058.5
6124 0
inf 0


"layer 3:"
-inf 0
7 0
3065.5 3058.5
6124 0
inf 0


"layer 4:"
-inf 0
7 0
3065.5 3058.5
6124 0
inf 0


"layer 5:"
-inf 0
7 0
3065.5 3058.5
6124 0
inf 0


"layer 6:"
-inf 0
8 0
3066 3058
6124 0
inf 0


"layer 7:"
-inf 0
8 0
3066 3058
6124 0
inf 0


"layer 8:"
-inf 0
8 0
3066 3058
6124 0
inf 0


"layer 9:"
-inf 0
9 0
3066.5 3057.5
6124 0
inf 0


"layer 10:"
-inf 0
9 0
3066.5 3057.5
6124 0
inf 0


"layer 11:"
-inf 0
11 0
3067.5 3056.5
6124 0
inf 0


"layer 12:"
-inf 0
11 0
3067.5 3056.5
6124 0
inf 0


"layer 13:"
-inf 0
11 0
3067.5 3056.5
6124 0
inf 0


"layer 14:"
-inf 0
11 0
3067.5 3056.5
6124 0
inf 0


"layer 15:"
-inf 0
11 0
3067.5 3056.5
6124 0
inf 0


"layer 16:"
-inf 0
11 0
3067.5 3056.5
6124 0
inf 0


"layer 17:"
-inf 0
11 0
3067.5 3056.5
6124 0
inf 0


"layer 18:"
-inf 0
11 0
3067.5 3056.5
6124 0
inf 0


"layer 19:"
-inf 0
11 0
3067.5 3056.5
6124 0
inf 0


"layer 20:"
-inf 0
11 0
3067.5 3056.5
6124 0
inf 0


"layer 21:"
-inf 0
12 0
3068 3056
6124 0
inf 0


"layer 22:"
-inf 0
12 0
3068 3056
6124 0
inf 0


"layer 23:"
-inf 0
12 0
3068 3056
6124 0
inf 0


"layer 24:"
-inf 0
12 0
3068 3056
6124 0
inf 0


"layer 25:"
-inf 0
13 0
3068.5 3055.5
6124 0
inf 0


"layer 26:"
-inf 0
13 0
3068.5 3055.5
6124 0
inf 0


"layer 27:"
-inf 0
13 0
3068.5 3055.5
6124 0
inf 0


"layer 28:"
-inf 0
13 0
3068.5 3055.5
6124 0
inf 0


"layer 29:"
-inf 0
13 0
3068.5 3055.5
6124 0
inf 0


"layer 30:"
-inf 0
13 0
3068.5 3055.5
6124 0
inf 0


"layer 31:"
-inf 0
13 0
3068.5 3055.5
6124 0
inf 0


"layer 32:"
-inf 0
13 0
3068.5 3055.5
6124 0
inf 0


"layer 33:"
-inf 0
13 0
3068.5 3055.5
6124 0
inf 0


"layer 34:"
-inf 0
13 0
3068.5 3055.5
6124 0
inf 0


"layer 35:"
-inf 0
20 0
3072 3052
6124 0
inf 0


"layer 36:"
-inf 0
20 0
3072 3052
6124 0
inf 0


"layer 37:"
-inf 0
20 0
3072 3052
6124 0
inf 0


"layer 38:"
-inf 0
20 0
3072 3052
6124 0
inf 0


"layer 39:"
-inf 0
20 0
3072 3052
6124 0
inf 0


"layer 40:"
-inf 0
25 0
3074.5 3049.5
6124 0
inf 0


"layer 41:"
-inf 0
25 0
3074.5 3049.5
6124 0
inf 0


"layer 42:"
-inf 0
25 0
3074.5 3049.5
6124 0
inf 0


"layer 43:"
-inf 0
25 0
3074.5 3049.5
6124 0
inf 0


"layer 44:"
-inf 0
25 0
3074.5 3049.5
6124 0
inf 0


"layer 45:"
-inf 0
25 0
3074.5 3049.5
6124 0
inf 0


"layer 46:"
-inf 0
25 0
3074.5 3049.5
6124 0
inf 0


"layer 47:"
-inf 0
27 0
3075.5 3048.5
6124 0
inf 0


"layer 48:"
-inf 0
27 0
3075.5 3048.5
6124 0
inf 0


"layer 49:"
-inf 0
27 0
3075.5 3048.5
6124 0
inf 0


"layer 50:"
-inf 0
27 0
3075.5 3048.5
6124 0
inf 0


"layer 51:"
-inf 0
27 0
3075.5 3048.5
6124 0
inf 0


"layer 52:"
-inf 0
27 0
3075.5 3048.5
6124 0
inf 0


"layer 53:"
-inf 0
27 0
3075.5 3048.5
6124 0
inf 0


"layer 54:"
-inf 0
27 0
3075.5 3048.5
6124 0
inf 0


"layer 55:"
-inf 0
27 0
3075.5 3048.5
6124 0
inf 0


"layer 56:"
-inf 0
174 0
3149 2975
6124 0
inf 0


"layer 57:"
-inf 0
174 0
3149 2975
6124 0
inf 0


"layer 58:"
-inf 0
174 0
3149 2975
6124 0
inf 0


"layer 59:"
-inf 0
174 0
3149 2975
6124 0
inf 0


"layer 60:"
-inf 0
174 0
3149 2975
6124 0
inf 0


"layer 61:"
-inf 0
174 0
3149 2975
6124 0
inf 0


"layer 62:"
-inf 0
174 0
3149 2975
6124 0
inf 0


"layer 63:"
-inf 0
174 0
3149 2975
6124 0
inf 0


"layer 64:"
-inf 0
174 0
3149 2975
6124 0
inf 0


"layer 65:"
-inf 0
174 0
3149 2975
6124 0
inf 0


"layer 66:"
-inf 0
174 0
3149 2975
6124 0
inf 0


"layer 67:"
-inf 0
174 0
3149 2975
6124 0
inf 0


"layer 68:"
-inf 0
174 0
3149 2975
6124 0
inf 0


"layer 69:"
-inf 0
174 0
3149 2975
6124 0
inf 0


"layer 70:"
-inf 0
174 0
3149 2975
6124 0
inf 0


"layer 71:"
-inf 0
174 0
3149 2975
6124 0
inf 0


"layer 72:"
-inf 0
174 0
3149 2975
6124 0
inf 0


"layer 73:"
-inf 0
174 0
3149 2975
6124 0
inf 0


"layer 74:"
-inf 0
174 0
3149 2975
6124 0
inf 0


"layer 75:"
-inf 0
174 0
3149 2975
6124 0
inf 0


"layer 76:"
-inf 0
174 0
3149 2975
6124 0
inf 0


"layer 77:"
-inf 0
174 0
3149 2975
6124 0
inf 0


"layer 78:"
-inf 0
174 0
3149 2975
6124 0
inf 0


"layer 79:"
-inf 0
174 0
3149 2975
6124 0
inf 0


"layer 80:"
-inf 0
174 0
3149 2975
6124 0
inf 0


"layer 81:"
-inf 0
174 0
3149 2975
6124 0
inf 0


"layer 82:"
-inf 0
174 0
3149 2975
6124 0
inf 0


"layer 83:"
-inf 0
174 0
3149 2975
6124 0
inf 0


"layer 84:"
-inf 0
174 0
3149 2975
6124 0
inf 0


"layer 85:"
-inf 0
174 0
3149 2975
6124 0
inf 0


"layer 86:"
-inf 0
174 0
3149 2975
6124 0
inf 0


"layer 87:"
-inf 0
174 0
3149 2975
6124 0
inf 0


"layer 88:"
-inf 0
174 0
3149 2975
6124 0
inf 0


"layer 89:"
-inf 0
174 0
3149 2975
6124 0
inf 0


"layer 90:"
-inf 0
174 0
3149 2975
6124 0
inf 0


"layer 91:"
-inf 0
174 0
3149 2975
6124 0
inf 0


"layer 92:"
-inf 0
174 0
3149 2975
6124 0
inf 0


"layer 93:"
-inf 0
174 0
3149 2975
6124 0
inf 0


"layer 94:"
-inf 0
174 0
3149 2975
6124 0
inf 0


"layer 95:"
-inf 0
174 0
3149 2975
6124 0
inf 0


"layer 96:"
-inf 0
174 0
3149 2975
6124 0
inf 0


"layer 97:"
-inf 0
174 0
3149 2975
6124 0
inf 0


"layer 98:"
-inf 0
174 0
3149 2975
6124 0
inf 0


"layer 99:"
-inf 0
174 0
3149 2975
6124 0
inf 0


"layer 100:"
-inf 0
174 0
3149 2975
6124 0
inf 0


