# persistence landscape
# X Y
"layer 0:"
-inf 0
4 0
3064 3060
6124 0
inf 0


"layer 1:"
-inf 0
5 0
3064.5 3059.5
6124 0
inf 0


"layer 2:"
-inf 0
5 0
3064.5 3059.5
6124 0
inf 0


"layer 3:"
-inf 0
28 0
3076 3048
6124 0
inf 0


"layer 4:"
-inf 0
28 0
3076 3048
6124 0
inf 0


"layer 5:"
-inf 0
96 0
3110 3014
6124 0
inf 0


"layer 6:"
-inf 0
96 0
3110 3014
6124 0
inf 0


"layer 7:"
-inf 0
96 0
3110 3014
6124 0
inf 0


"layer 8:"
-inf 0
96 0
3110 3014
6124 0
inf 0


"layer 9:"
-inf 0
96 0
3110 3014
6124 0
inf 0


"layer 10:"
-inf 0
96 0
3110 3014
6124 0
inf 0


"layer 11:"
-inf 0
96 0
3110 3014
6124 0
inf 0


