# persistence landscape
# X Y
"layer 0:"
-inf 0
21 0
3072.5 3051.5
6124 0
inf 0


"layer 1:"
-inf 0
21 0
3072.5 3051.5
6124 0
inf 0


"layer 2:"
-inf 0
21 0
3072.5 3051.5
6124 0
inf 0


"layer 3:"
-inf 0
21 0
3072.5 3051.5
6124 0
inf 0


"layer 4:"
-inf 0
21 0
3072.5 3051.5
6124 0
inf 0


