# persistence landscape
# X Y
"layer 0:"
-inf 0
4 0
3064 3060
6124 0
inf 0


"layer 1:"
-inf 0
4 0
3064 3060
6124 0
inf 0


"layer 2:"
-inf 0
5 0
3064.5 3059.5
6124 0
inf 0


"layer 3:"
-inf 0
5 0
3064.5 3059.5
6124 0
inf 0


"layer 4:"
-inf 0
5 0
3064.5 3059.5
6124 0
inf 0


"layer 5:"
-inf 0
7 0
3065.5 3058.5
6124 0
inf 0


"layer 6:"
-inf 0
8 0
3066 3058
6124 0
inf 0


"layer 7:"
-inf 0
8 0
3066 3058
6124 0
inf 0


"layer 8:"
-inf 0
8 0
3066 3058
6124 0
inf 0


"layer 9:"
-inf 0
8 0
3066 3058
6124 0
inf 0


"layer 10:"
-inf 0
8 0
3066 3058
6124 0
inf 0


"layer 11:"
-inf 0
8 0
3066 3058
6124 0
inf 0


"layer 12:"
-inf 0
8 0
3066 3058
6124 0
inf 0


"layer 13:"
-inf 0
8 0
3066 3058
6124 0
inf 0


"layer 14:"
-inf 0
8 0
3066 3058
6124 0
inf 0


"layer 15:"
-inf 0
9 0
3066.5 3057.5
6124 0
inf 0


"layer 16:"
-inf 0
9 0
3066.5 3057.5
6124 0
inf 0


"layer 17:"
-inf 0
9 0
3066.5 3057.5
6124 0
inf 0


"layer 18:"
-inf 0
9 0
3066.5 3057.5
6124 0
inf 0


"layer 19:"
-inf 0
9 0
3066.5 3057.5
6124 0
inf 0


"layer 20:"
-inf 0
9 0
3066.5 3057.5
6124 0
inf 0


"layer 21:"
-inf 0
16 0
3070 3054
6124 0
inf 0


"layer 22:"
-inf 0
19 0
3071.5 3052.5
6124 0
inf 0


"layer 23:"
-inf 0
19 0
3071.5 3052.5
6124 0
inf 0


"layer 24:"
-inf 0
19 0
3071.5 3052.5
6124 0
inf 0


"layer 25:"
-inf 0
21 0
3072.5 3051.5
6124 0
inf 0


"layer 26:"
-inf 0
21 0
3072.5 3051.5
6124 0
inf 0


"layer 27:"
-inf 0
21 0
3072.5 3051.5
6124 0
inf 0


"layer 28:"
-inf 0
21 0
3072.5 3051.5
6124 0
inf 0


"layer 29:"
-inf 0
21 0
3072.5 3051.5
6124 0
inf 0


"layer 30:"
-inf 0
21 0
3072.5 3051.5
6124 0
inf 0


"layer 31:"
-inf 0
21 0
3072.5 3051.5
6124 0
inf 0


"layer 32:"
-inf 0
21 0
3072.5 3051.5
6124 0
inf 0


"layer 33:"
-inf 0
21 0
3072.5 3051.5
6124 0
inf 0


"layer 34:"
-inf 0
24 0
3074 3050
6124 0
inf 0


"layer 35:"
-inf 0
24 0
3074 3050
6124 0
inf 0


"layer 36:"
-inf 0
24 0
3074 3050
6124 0
inf 0


"layer 37:"
-inf 0
24 0
3074 3050
6124 0
inf 0


"layer 38:"
-inf 0
24 0
3074 3050
6124 0
inf 0


"layer 39:"
-inf 0
24 0
3074 3050
6124 0
inf 0


"layer 40:"
-inf 0
24 0
3074 3050
6124 0
inf 0


"layer 41:"
-inf 0
24 0
3074 3050
6124 0
inf 0


"layer 42:"
-inf 0
24 0
3074 3050
6124 0
inf 0


"layer 43:"
-inf 0
24 0
3074 3050
6124 0
inf 0


"layer 44:"
-inf 0
30 0
3077 3047
6124 0
inf 0


"layer 45:"
-inf 0
30 0
3077 3047
6124 0
inf 0


"layer 46:"
-inf 0
30 0
3077 3047
6124 0
inf 0


"layer 47:"
-inf 0
30 0
3077 3047
6124 0
inf 0


"layer 48:"
-inf 0
30 0
3077 3047
6124 0
inf 0


"layer 49:"
-inf 0
30 0
3077 3047
6124 0
inf 0


"layer 50:"
-inf 0
30 0
3077 3047
6124 0
inf 0


"layer 51:"
-inf 0
30 0
3077 3047
6124 0
inf 0


"layer 52:"
-inf 0
30 0
3077 3047
6124 0
inf 0


"layer 53:"
-inf 0
30 0
3077 3047
6124 0
inf 0


"layer 54:"
-inf 0
30 0
3077 3047
6124 0
inf 0


"layer 55:"
-inf 0
30 0
3077 3047
6124 0
inf 0


"layer 56:"
-inf 0
30 0
3077 3047
6124 0
inf 0


"layer 57:"
-inf 0
30 0
3077 3047
6124 0
inf 0


"layer 58:"
-inf 0
30 0
3077 3047
6124 0
inf 0


"layer 59:"
-inf 0
257 0
3190.5 2933.5
6124 0
inf 0


"layer 60:"
-inf 0
257 0
3190.5 2933.5
6124 0
inf 0


"layer 61:"
-inf 0
257 0
3190.5 2933.5
6124 0
inf 0


"layer 62:"
-inf 0
257 0
3190.5 2933.5
6124 0
inf 0


"layer 63:"
-inf 0
257 0
3190.5 2933.5
6124 0
inf 0


"layer 64:"
-inf 0
257 0
3190.5 2933.5
6124 0
inf 0


"layer 65:"
-inf 0
257 0
3190.5 2933.5
6124 0
inf 0


"layer 66:"
-inf 0
257 0
3190.5 2933.5
6124 0
inf 0


"layer 67:"
-inf 0
257 0
3190.5 2933.5
6124 0
inf 0


"layer 68:"
-inf 0
257 0
3190.5 2933.5
6124 0
inf 0


"layer 69:"
-inf 0
257 0
3190.5 2933.5
6124 0
inf 0


"layer 70:"
-inf 0
257 0
3190.5 2933.5
6124 0
inf 0


"layer 71:"
-inf 0
257 0
3190.5 2933.5
6124 0
inf 0


"layer 72:"
-inf 0
257 0
3190.5 2933.5
6124 0
inf 0


"layer 73:"
-inf 0
257 0
3190.5 2933.5
6124 0
inf 0


"layer 74:"
-inf 0
257 0
3190.5 2933.5
6124 0
inf 0


"layer 75:"
-inf 0
257 0
3190.5 2933.5
6124 0
inf 0


"layer 76:"
-inf 0
257 0
3190.5 2933.5
6124 0
inf 0


"layer 77:"
-inf 0
257 0
3190.5 2933.5
6124 0
inf 0


"layer 78:"
-inf 0
257 0
3190.5 2933.5
6124 0
inf 0


"layer 79:"
-inf 0
257 0
3190.5 2933.5
6124 0
inf 0


"layer 80:"
-inf 0
257 0
3190.5 2933.5
6124 0
inf 0


"layer 81:"
-inf 0
257 0
3190.5 2933.5
6124 0
inf 0


"layer 82:"
-inf 0
257 0
3190.5 2933.5
6124 0
inf 0


"layer 83:"
-inf 0
257 0
3190.5 2933.5
6124 0
inf 0


"layer 84:"
-inf 0
257 0
3190.5 2933.5
6124 0
inf 0


"layer 85:"
-inf 0
257 0
3190.5 2933.5
6124 0
inf 0


"layer 86:"
-inf 0
257 0
3190.5 2933.5
6124 0
inf 0


"layer 87:"
-inf 0
257 0
3190.5 2933.5
6124 0
inf 0


"layer 88:"
-inf 0
257 0
3190.5 2933.5
6124 0
inf 0


"layer 89:"
-inf 0
257 0
3190.5 2933.5
6124 0
inf 0


"layer 90:"
-inf 0
257 0
3190.5 2933.5
6124 0
inf 0


"layer 91:"
-inf 0
257 0
3190.5 2933.5
6124 0
inf 0


"layer 92:"
-inf 0
257 0
3190.5 2933.5
6124 0
inf 0


"layer 93:"
-inf 0
257 0
3190.5 2933.5
6124 0
inf 0


"layer 94:"
-inf 0
257 0
3190.5 2933.5
6124 0
inf 0


"layer 95:"
-inf 0
257 0
3190.5 2933.5
6124 0
inf 0


"layer 96:"
-inf 0
257 0
3190.5 2933.5
6124 0
inf 0


"layer 97:"
-inf 0
257 0
3190.5 2933.5
6124 0
inf 0


"layer 98:"
-inf 0
257 0
3190.5 2933.5
6124 0
inf 0


"layer 99:"
-inf 0
257 0
3190.5 2933.5
6124 0
inf 0


"layer 100:"
-inf 0
257 0
3190.5 2933.5
6124 0
inf 0


"layer 101:"
-inf 0
257 0
3190.5 2933.5
6124 0
inf 0


"layer 102:"
-inf 0
257 0
3190.5 2933.5
6124 0
inf 0


"layer 103:"
-inf 0
257 0
3190.5 2933.5
6124 0
inf 0


"layer 104:"
-inf 0
257 0
3190.5 2933.5
6124 0
inf 0


"layer 105:"
-inf 0
257 0
3190.5 2933.5
6124 0
inf 0


"layer 106:"
-inf 0
257 0
3190.5 2933.5
6124 0
inf 0


"layer 107:"
-inf 0
257 0
3190.5 2933.5
6124 0
inf 0


"layer 108:"
-inf 0
257 0
3190.5 2933.5
6124 0
inf 0


"layer 109:"
-inf 0
257 0
3190.5 2933.5
6124 0
inf 0


"layer 110:"
-inf 0
257 0
3190.5 2933.5
6124 0
inf 0


"layer 111:"
-inf 0
257 0
3190.5 2933.5
6124 0
inf 0


"layer 112:"
-inf 0
257 0
3190.5 2933.5
6124 0
inf 0


"layer 113:"
-inf 0
257 0
3190.5 2933.5
6124 0
inf 0


"layer 114:"
-inf 0
257 0
3190.5 2933.5
6124 0
inf 0


"layer 115:"
-inf 0
257 0
3190.5 2933.5
6124 0
inf 0


"layer 116:"
-inf 0
257 0
3190.5 2933.5
6124 0
inf 0


"layer 117:"
-inf 0
257 0
3190.5 2933.5
6124 0
inf 0


"layer 118:"
-inf 0
257 0
3190.5 2933.5
6124 0
inf 0


"layer 119:"
-inf 0
257 0
3190.5 2933.5
6124 0
inf 0


"layer 120:"
-inf 0
257 0
3190.5 2933.5
6124 0
inf 0


"layer 121:"
-inf 0
257 0
3190.5 2933.5
6124 0
inf 0


"layer 122:"
-inf 0
257 0
3190.5 2933.5
6124 0
inf 0


"layer 123:"
-inf 0
257 0
3190.5 2933.5
6124 0
inf 0


"layer 124:"
-inf 0
257 0
3190.5 2933.5
6124 0
inf 0


"layer 125:"
-inf 0
257 0
3190.5 2933.5
6124 0
inf 0


"layer 126:"
-inf 0
257 0
3190.5 2933.5
6124 0
inf 0


"layer 127:"
-inf 0
257 0
3190.5 2933.5
6124 0
inf 0


"layer 128:"
-inf 0
257 0
3190.5 2933.5
6124 0
inf 0


"layer 129:"
-inf 0
257 0
3190.5 2933.5
6124 0
inf 0


"layer 130:"
-inf 0
257 0
3190.5 2933.5
6124 0
inf 0


