# persistence landscape
# X Y
"layer 0:"
-inf 0
4 0
3064 3060
6124 0
inf 0


"layer 1:"
-inf 0
30 0
3077 3047
6124 0
inf 0


"layer 2:"
-inf 0
30 0
3077 3047
6124 0
inf 0


"layer 3:"
-inf 0
30 0
3077 3047
6124 0
inf 0


"layer 4:"
-inf 0
30 0
3077 3047
6124 0
inf 0


"layer 5:"
-inf 0
30 0
3077 3047
6124 0
inf 0


"layer 6:"
-inf 0
30 0
3077 3047
6124 0
inf 0


"layer 7:"
-inf 0
30 0
3077 3047
6124 0
inf 0


