# persistence landscape
# X Y
"layer 0:"
-inf 0
7 0
3065.5 3058.5
6124 0
inf 0


"layer 1:"
-inf 0
70 0
3097 3027
6124 0
inf 0


"layer 2:"
-inf 0
70 0
3097 3027
6124 0
inf 0


"layer 3:"
-inf 0
70 0
3097 3027
6124 0
inf 0


"layer 4:"
-inf 0
70 0
3097 3027
6124 0
inf 0


"layer 5:"
-inf 0
70 0
3097 3027
6124 0
inf 0


"layer 6:"
-inf 0
70 0
3097 3027
6124 0
inf 0


