# persistence landscape
# X Y
"layer 0:"
-inf 0
1 0
3062.5 3061.5
6124 0
inf 0


"layer 1:"
-inf 0
1 0
11 10
21 0
inf 0


"layer 2:"
-inf 0
1 0
11 10
21 0
inf 0


"layer 3:"
-inf 0
1 0
11 10
21 0
inf 0


"layer 4:"
-inf 0
1 0
11 10
21 0
inf 0


"layer 5:"
-inf 0
1 0
11 10
21 0
inf 0


"layer 6:"
-inf 0
1 0
11 10
21 0
inf 0


"layer 7:"
-inf 0
1 0
11 10
21 0
inf 0


"layer 8:"
-inf 0
1 0
11 10
21 0
inf 0


"layer 9:"
-inf 0
1 0
11 10
21 0
inf 0


"layer 10:"
-inf 0
1 0
11 10
21 0
inf 0


"layer 11:"
-inf 0
1 0
11 10
21 0
inf 0


"layer 12:"
-inf 0
1 0
11 10
21 0
inf 0


"layer 13:"
-inf 0
1 0
11 10
21 0
inf 0


"layer 14:"
-inf 0
1 0
11 10
21 0
inf 0


"layer 15:"
-inf 0
1 0
11 10
21 0
inf 0


"layer 16:"
-inf 0
1 0
11 10
21 0
inf 0


"layer 17:"
-inf 0
1 0
6.5 5.5
12 0
inf 0


"layer 18:"
-inf 0
1 0
6.5 5.5
12 0
inf 0


"layer 19:"
-inf 0
1 0
6.5 5.5
12 0
inf 0


"layer 20:"
-inf 0
1 0
6.5 5.5
12 0
inf 0


"layer 21:"
-inf 0
1 0
6.5 5.5
12 0
inf 0


"layer 22:"
-inf 0
1 0
6.5 5.5
12 0
inf 0


"layer 23:"
-inf 0
1 0
6.5 5.5
12 0
inf 0


"layer 24:"
-inf 0
1 0
6.5 5.5
12 0
inf 0


"layer 25:"
-inf 0
1 0
3 2
3.5 1.5
7 5
12 0
inf 0


"layer 26:"
-inf 0
1 0
3 2
5 0
inf 0


"layer 27:"
-inf 0
1 0
3 2
5 0
inf 0


"layer 28:"
-inf 0
1 0
2.5 1.5
3 1
3.5 1.5
5 0
inf 0


"layer 29:"
-inf 0
1 0
2 1
2.5 0.5
3 1
4 0
inf 0


"layer 30:"
-inf 0
2 0
2.5 0.5
3 0
inf 0


"layer 31:"
-inf 0
2 0
2.5 0.5
3 0
inf 0


"layer 32:"
-inf 0
2 0
2.5 0.5
3 0
inf 0


