# persistence landscape
# X Y
"layer 0:"
-inf 0
1 0
3062.5 3061.5
6124 0
inf 0


"layer 1:"
-inf 0
1 0
10 9
19 0
inf 0


"layer 2:"
-inf 0
1 0
10 9
19 0
inf 0


"layer 3:"
-inf 0
1 0
10 9
19 0
inf 0


"layer 4:"
-inf 0
1 0
10 9
19 0
inf 0


"layer 5:"
-inf 0
1 0
10 9
19 0
inf 0


"layer 6:"
-inf 0
1 0
10 9
19 0
inf 0


"layer 7:"
-inf 0
1 0
10 9
19 0
inf 0


"layer 8:"
-inf 0
1 0
10 9
19 0
inf 0


"layer 9:"
-inf 0
1 0
10 9
19 0
inf 0


"layer 10:"
-inf 0
1 0
10 9
19 0
inf 0


"layer 11:"
-inf 0
1 0
10 9
19 0
inf 0


"layer 12:"
-inf 0
1 0
10 9
19 0
inf 0


"layer 13:"
-inf 0
1 0
10 9
19 0
inf 0


"layer 14:"
-inf 0
1 0
10 9
19 0
inf 0


"layer 15:"
-inf 0
1 0
10 9
19 0
inf 0


"layer 16:"
-inf 0
1 0
10 9
19 0
inf 0


"layer 17:"
-inf 0
2 0
3 1
4 0
inf 0


"layer 18:"
-inf 0
2 0
3 1
4 0
inf 0


"layer 19:"
-inf 0
2 0
3 1
4 0
inf 0


