# persistence landscape
# X Y
"layer 0:"
-inf 0
1 0
3062.5 3061.5
6124 0
inf 0


"layer 1:"
-inf 0
1 0
7 6
13 0
inf 0


"layer 2:"
-inf 0
1 0
7 6
13 0
inf 0


"layer 3:"
-inf 0
1 0
7 6
13 0
inf 0


"layer 4:"
-inf 0
1 0
7 6
13 0
inf 0


"layer 5:"
-inf 0
1 0
7 6
13 0
inf 0


"layer 6:"
-inf 0
1 0
7 6
13 0
inf 0


"layer 7:"
-inf 0
1 0
7 6
13 0
inf 0


"layer 8:"
-inf 0
1 0
7 6
13 0
inf 0


"layer 9:"
-inf 0
1 0
2.5 1.5
3 1
7.5 5.5
13 0
inf 0


"layer 10:"
-inf 0
2 0
3 1
4 0
inf 0


"layer 11:"
-inf 0
2 0
3 1
4 0
inf 0


