# Persistence diagram </home/jens/Uni/data_topology/Project/Graph_Data/Synthetic_Barabasi-Albert/bag_16.gml>
#
# Dimension   : 0
# Entries     : 62
# Betti number: 1
35	inf
35	40
35	41
35	39
35	39
35	38
35	38
35	38
35	39
35	39
35	37
35	37
35	38
35	37
35	38
35	38
35	38
35	37
35	39
35	38
35	38
35	37
35	37
35	38
35	37
35	37
35	38
35	37
35	39
35	38
35	37
35	37
35	37
35	37
35	40
35	37
35	37
35	39
35	37
35	39
35	37
35	37
35	37
35	37
35	37
35	37
35	37
35	38
35	39
35	38
35	37
35	37
35	37
36	39
36	39
36	39
36	38
36	37
36	37
36	37
37	39
37	39
