# Persistence diagram </home/jens/Uni/data_topology/Project/Graph_Data/Synthetic_Barabasi-Albert/bag_5.gml>
#
# Dimension   : 0
# Entries     : 64
# Betti number: 1
34	inf
35	50
35	39
35	40
35	39
35	37
35	38
35	38
35	40
35	40
35	38
35	38
35	40
35	37
35	37
35	39
35	40
35	39
35	38
35	39
35	38
35	37
35	38
35	38
35	38
35	38
35	37
35	38
35	37
35	37
35	38
35	37
35	42
35	37
35	37
35	37
35	37
35	37
35	38
35	37
35	37
35	38
35	37
35	37
35	37
35	37
35	38
35	38
35	38
35	38
35	38
35	37
36	38
36	37
36	39
36	38
36	38
36	37
36	37
36	37
36	37
36	37
36	37
37	39
