# Persistence diagram </home/jens/Uni/data_topology/Project/Graph_Data/Synthetic_Gnm/gnm_29.gml>
#
# Dimension   : 0
# Entries     : 19
# Betti number: 1
46	inf
47	56
48	57
49	55
50	55
52	59
52	57
52	57
52	55
53	59
53	57
53	56
54	56
55	56
55	56
55	58
56	57
56	58
56	57
