# Persistence diagram </home/jens/Uni/data_topology/Project/Graph_Data/Synthetic_Gnm/gnm_90.gml>
#
# Dimension   : 0
# Entries     : 22
# Betti number: 1
47	inf
48	59
48	57
49	57
50	57
50	56
52	59
52	58
52	59
52	57
53	58
54	57
54	58
54	55
55	58
55	57
55	57
55	59
56	58
56	59
56	57
57	60
