# Persistence diagram </home/jens/Uni/data_topology/Project/Graph_Data/Synthetic_Gnm/gnm_9.gml>
#
# Dimension   : 0
# Entries     : 20
# Betti number: 1
47	inf
47	57
47	52
48	57
49	53
50	55
50	53
51	58
51	53
52	58
52	53
53	57
53	54
54	57
54	55
55	60
56	61
56	58
57	58
58	59
