# Persistence diagram </home/jens/Uni/data_topology/Project/Graph_Data/Synthetic_Gnm/gnm_58.gml>
#
# Dimension   : 0
# Entries     : 30
# Betti number: 1
47	inf
50	59
50	57
51	56
51	57
51	60
52	57
52	56
53	59
53	54
53	56
54	57
54	57
54	56
54	57
54	55
54	57
54	59
55	58
55	57
55	57
55	59
56	58
56	59
56	57
57	58
57	58
57	61
60	61
60	62
