# Persistence diagram </home/jens/Uni/data_topology/Project/Graph_Data/Synthetic_Gnm/gnm_99.gml>
#
# Dimension   : 0
# Entries     : 22
# Betti number: 1
48	inf
50	57
50	53
50	56
50	56
51	56
51	56
52	56
53	56
53	54
53	56
54	56
54	56
54	57
54	55
54	56
55	57
55	56
55	57
57	58
57	60
58	59
