# Persistence diagram </home/jens/Uni/data_topology/Project/Graph_Data/Synthetic_Gnm/gnm_64.gml>
#
# Dimension   : 0
# Entries     : 23
# Betti number: 1
46	inf
48	58
48	56
49	58
50	53
51	58
51	53
51	54
51	53
52	56
52	58
52	53
52	57
53	57
53	55
53	58
53	57
54	55
55	56
55	57
56	58
56	58
57	60
