# Persistence diagram </home/jens/Uni/data_topology/Project/Graph_Data/Synthetic_Gnm/gnm_94.gml>
#
# Dimension   : 0
# Entries     : 16
# Betti number: 1
44	inf
45	58
46	57
48	57
50	52
50	53
52	55
52	55
52	56
52	58
53	57
53	58
54	56
55	56
55	56
56	57
