# Persistence diagram </home/jens/Uni/data_topology/Project/Graph_Data/Synthetic_Gnm/gnm_20.gml>
#
# Dimension   : 0
# Entries     : 14
# Betti number: 1
45	inf
49	59
49	57
50	53
50	56
50	54
51	53
51	54
52	54
52	57
53	57
53	60
56	58
56	58
