# Persistence diagram </home/jens/Uni/data_topology/Project/Graph_Data/Synthetic_Gnm/gnm_57.gml>
#
# Dimension   : 0
# Entries     : 19
# Betti number: 1
45	inf
47	52
48	56
49	56
49	61
51	57
51	52
51	57
52	55
52	56
52	54
53	55
53	57
53	58
55	56
55	60
57	58
57	58
57	61
