0.0737033	0.0822207
0.0923605	0.0988719
0.0930268	0.103943
0.0941316	0.112842
0.0993094	0.122543
0.100402	0.101981
0.102004	0.156089
0.102741	0.103793
0.10413	0.112346
0.104306	0.104487
0.108638	0.133622
0.110381	0.112964
0.111605	0.137611
0.113546	0.116204
0.113675	0.120911
0.113858	0.12686
0.114568	0.12421
0.114655	0.14889
0.11509	0.126551
0.115869	0.161545
0.118106	0.126292
0.118176	0.190446
0.119485	0.20342
0.120263	0.202697
0.122887	0.167845
0.124693	0.223875
0.125096	0.129237
0.126751	0.132433
0.12706	0.138585
0.12783	0.205113
0.127957	0.140866
0.128038	0.145055
0.128199	0.132168
0.12953	0.159014
0.130486	0.169758
0.130512	0.215681
0.130522	0.135694
0.130699	0.180451
0.130824	0.435153
0.130836	0.25765
0.131853	0.175051
0.131958	0.134257
0.134465	0.293079
0.134835	0.135033
0.13505	0.291909
0.135229	0.154377
0.136628	0.241358
0.136636	0.144299
0.136689	0.316009
0.136856	0.167383
0.137824	0.146663
0.137869	0.198101
0.138209	0.160263
0.138992	0.286999
0.139251	0.194625
0.139405	0.175104
0.140365	0.255692
0.141152	0.145736
0.141656	0.144471
0.143008	0.174221
0.14377	0.196415
0.145547	0.232723
0.14576	0.223495
0.146035	0.201343
0.147788	0.1615
0.148433	0.24541
0.148577	0.453788
0.150838	0.269017
0.150946	0.17443
0.151842	0.221428
0.15232	0.160107
0.15294	0.181181
0.153342	0.235795
0.153645	0.202105
0.154418	0.157364
0.155934	0.17395
0.160031	0.166548
0.160034	0.182324
0.160246	0.194119
0.160282	0.195377
0.161539	0.171972
0.162676	0.179133
0.168874	0.19728
0.169091	0.182692
0.171787	0.191457
0.172982	0.223192
0.174587	0.224276
0.178064	0.24732
0.181734	0.198857
0.182881	0.286259
0.18382	0.192705
0.185265	0.200829
0.18562	0.222154
0.185811	0.18872
0.187213	0.190402
0.18932	0.269472
0.195701	0.214477
0.201526	0.233704
0.204498	0.205587
0.215135	0.221798
0.216178	0.233438
0.217876	0.253563
0.218665	0.225357
0.219526	0.342217
0.236271	0.253457
0.242729	0.242821
