0.0472465	0.0486474
0.0579329	0.0597689
0.0698952	0.10291
0.0781152	0.0859334
0.0792761	0.0893525
0.0799881	0.0932939
0.0858428	0.0872266
0.0870951	0.0904626
0.0905512	0.108451
0.0932303	0.107324
0.0946543	0.100828
0.0973605	0.0989182
0.100668	0.109558
0.102014	0.120482
0.103597	0.143888
0.109414	0.12452
0.111948	0.14959
0.112318	0.159799
0.113805	0.119284
0.115149	0.167908
0.117969	0.132837
0.119114	0.134196
0.12162	0.134132
0.121976	0.139676
0.12453	0.17208
0.125266	0.170297
0.126177	0.1397
0.127507	0.155748
0.128982	0.233667
0.132937	0.225459
0.133506	0.153915
0.134641	0.14475
0.135478	0.185872
0.135598	0.152949
0.135914	0.475979
0.138872	0.437544
0.139398	0.265323
0.139649	0.147979
0.139949	0.241259
0.141258	0.321985
0.1422	0.251385
0.14262	0.179433
0.143186	0.171453
0.143234	0.149168
0.14347	0.311858
0.145408	0.173011
0.147066	0.15336
0.149423	0.166196
0.150509	0.295985
0.150568	0.154272
0.150762	0.167777
0.150988	0.326365
0.152852	0.176189
0.156535	0.159081
0.159227	0.21092
0.159468	0.218247
0.160094	0.281137
0.161451	0.209633
0.163662	0.254409
0.164729	0.170002
0.167667	0.247736
0.169305	0.207019
0.170237	0.17345
0.170903	0.266787
0.173207	0.240817
0.176047	0.191129
0.176055	0.208202
0.176897	0.225912
0.177307	0.22925
0.178034	0.191745
0.183051	0.201183
0.183302	0.191369
0.185391	0.245459
0.185556	0.278383
0.187524	0.304984
0.187989	0.224451
0.188538	0.189151
0.188975	0.240779
0.193295	0.216017
0.194826	0.203864
0.195017	0.266921
0.195456	0.226866
0.196117	0.211949
0.197322	0.216738
0.197359	0.207927
0.197726	0.202866
0.199136	0.2224
0.199323	0.22111
0.199875	0.259054
0.200999	0.220075
0.20833	0.208517
0.212481	0.226308
0.214615	0.223981
0.215701	0.256101
0.219373	0.265059
0.22274	0.274349
0.227027	0.24118
0.23008	0.239433
0.233723	0.234996
0.237732	0.248938
0.270545	0.323884
