0.0792917	0.0870359
0.0870294	0.0949193
0.0958005	0.11882
0.0977042	0.098198
0.0986153	0.111972
0.0991092	0.111343
0.0992646	0.108034
0.101348	0.116882
0.10303	0.123666
0.104242	0.110351
0.106403	0.112593
0.107463	0.137421
0.107684	0.148008
0.108221	0.119006
0.11121	0.11996
0.112694	0.159664
0.114044	0.435547
0.114452	0.122521
0.115208	0.150391
0.115299	0.117847
0.115538	0.187606
0.116393	0.135957
0.11661	0.227379
0.116783	0.164534
0.117094	0.155803
0.11784	0.184172
0.119879	0.156003
0.12075	0.136963
0.121516	0.123768
0.122218	0.122471
0.122368	0.132771
0.122712	0.134729
0.122726	0.153385
0.123122	0.127491
0.12503	0.160307
0.125831	0.13262
0.12666	0.163303
0.126773	0.130354
0.126814	0.132184
0.128337	0.161801
0.128476	0.152989
0.12864	0.150956
0.128966	0.192572
0.129799	0.237742
0.130017	0.143798
0.130163	0.319885
0.13142	0.166447
0.131596	0.206929
0.132157	0.447243
0.133502	0.142355
0.13359	0.268396
0.133662	0.156235
0.135906	0.212058
0.135973	0.266682
0.136496	0.157492
0.137069	0.268482
0.139167	0.200865
0.139623	0.141013
0.140189	0.179509
0.140535	0.329078
0.140631	0.200896
0.141646	0.175727
0.144436	0.187824
0.145006	0.16933
0.145395	0.254886
0.145817	0.175491
0.146025	0.155561
0.146317	0.229928
0.149693	0.154316
0.150601	0.204452
0.15201	0.171552
0.152307	0.185827
0.152488	0.217144
0.15283	0.220045
0.153093	0.209943
0.155223	0.217693
0.15551	0.211682
0.15574	0.207794
0.156352	0.213407
0.156726	0.213494
0.157153	0.166626
0.159461	0.248437
0.160769	0.210666
0.161226	0.177371
0.161466	0.165904
0.161544	0.169424
0.162706	0.165558
0.162741	0.179347
0.162784	0.240891
0.167265	0.201633
0.167833	0.291896
0.169021	0.17197
0.169537	0.207856
0.171473	0.195992
0.171666	0.218718
0.173451	0.197161
0.173586	0.179557
0.174621	0.183703
0.178452	0.188455
0.17891	0.303441
0.182708	0.21797
0.184142	0.207425
0.184148	0.189267
0.1844	0.188443
0.18527	0.224777
0.18531	0.185741
0.186851	0.189846
0.189784	0.190556
0.192271	0.197887
0.195148	0.206258
0.195863	0.207216
0.195965	0.239618
0.195992	0.213196
0.197204	0.239368
0.197459	0.201793
0.200553	0.200705
0.20175	0.202784
0.207347	0.22438
0.212662	0.233137
0.218511	0.234036
0.236996	0.246036
0.299935	0.309524
