0.0268888	0.0282867
0.093185	0.10893
0.095317	0.102198
0.0976159	0.125093
0.11115	0.180625
0.112455	0.20337
0.112491	0.118177
0.113751	0.143084
0.114302	0.115978
0.117039	0.123649
0.118026	0.17084
0.119177	0.127353
0.121313	0.139766
0.12312	0.190625
0.124251	0.144381
0.124307	0.144867
0.12531	0.151479
0.12533	0.135687
0.12565	0.134941
0.125971	0.132004
0.126063	0.146742
0.127075	0.16038
0.127585	0.177383
0.127615	0.135015
0.130739	0.443681
0.131005	0.197501
0.131218	0.203744
0.131937	0.195978
0.133041	0.145336
0.133055	0.147491
0.133109	0.184957
0.133139	0.43582
0.133152	0.177651
0.133642	0.23314
0.134437	0.14968
0.134849	0.260978
0.13495	0.152952
0.135297	0.182328
0.135873	0.295382
0.136017	0.252101
0.13737	0.283853
0.137827	0.141304
0.137855	0.157711
0.138291	0.154794
0.138386	0.157502
0.13866	0.167255
0.139291	0.211907
0.139766	0.271872
0.141343	0.208201
0.141573	0.174005
0.142441	0.151069
0.143045	0.162677
0.143296	0.157826
0.14367	0.21735
0.14528	0.257478
0.145504	0.176917
0.145965	0.166254
0.147146	0.192515
0.148156	0.244611
0.148689	0.160937
0.148796	0.236405
0.149302	0.152991
0.149569	0.18835
0.151029	0.205833
0.151515	0.155493
0.151956	0.179199
0.152643	0.254553
0.152848	0.196238
0.153326	0.179778
0.15447	0.168738
0.155065	0.160996
0.155462	0.210855
0.155594	0.199014
0.155725	0.175018
0.155737	0.160466
0.158652	0.209571
0.158777	0.161536
0.158815	0.19105
0.158851	0.183785
0.159211	0.16632
0.160985	0.186532
0.16131	0.17521
0.161501	0.232852
0.162313	0.17058
0.162765	0.194616
0.163711	0.168023
0.165162	0.235025
0.165247	0.187966
0.165636	0.221995
0.166165	0.172517
0.16621	0.204494
0.166611	0.171692
0.167346	0.176975
0.169618	0.18384
0.170082	0.176396
0.170258	0.196013
0.172294	0.174597
0.173418	0.200949
0.176024	0.252959
0.178473	0.308704
0.180303	0.181164
0.181582	0.191782
0.182174	0.184993
0.182716	0.209863
0.182791	0.183567
0.188806	0.197208
0.189729	0.224153
0.195198	0.234799
0.197536	0.228767
0.202076	0.259705
0.202804	0.219981
0.21447	0.215302
0.215049	0.235838
0.217988	0.224397
0.225073	0.230336
0.226549	0.280307
0.228211	0.246776
0.240314	0.254695
