0.0659469	0.0811993
0.068264	0.0967081
0.0703908	0.0795128
0.0710919	0.0742736
0.0827686	0.104912
0.0943943	0.138632
0.0944909	0.100093
0.0945958	0.104237
0.0952175	0.0996209
0.0955112	0.105917
0.0994286	0.119447
0.106957	0.144397
0.109119	0.179069
0.110138	0.117349
0.112094	0.206471
0.113519	0.128575
0.113786	0.151821
0.113983	0.185171
0.117726	0.127695
0.118043	0.166706
0.119372	0.127473
0.119381	0.130785
0.119644	0.127649
0.123818	0.149735
0.123967	0.146623
0.124467	0.161992
0.126163	0.436931
0.126391	0.147761
0.127844	0.148427
0.128611	0.23956
0.129131	0.44032
0.129419	0.234186
0.130085	0.213963
0.130207	0.294983
0.130255	0.239447
0.130865	0.161915
0.131049	0.158808
0.13341	0.22153
0.133932	0.232029
0.133981	0.144666
0.134461	0.28255
0.134764	0.220073
0.135212	0.204528
0.136701	0.176098
0.137612	0.280031
0.138678	0.142553
0.139332	0.262827
0.139936	0.143994
0.140269	0.191602
0.140308	0.173495
0.140427	0.227398
0.140878	0.158263
0.141556	0.19111
0.141905	0.176861
0.142137	0.160568
0.142444	0.21535
0.143055	0.15001
0.146636	0.148545
0.148072	0.221781
0.148986	0.241762
0.149994	0.156081
0.150228	0.184359
0.151111	0.30153
0.151447	0.159878
0.151933	0.196271
0.153067	0.190098
0.15313	0.164782
0.153265	0.267553
0.153551	0.207448
0.154681	0.174222
0.155976	0.276458
0.156367	0.239531
0.159217	0.204002
0.159301	0.189681
0.159495	0.172724
0.160438	0.198346
0.161629	0.212613
0.16177	0.228698
0.163362	0.17085
0.164158	0.186265
0.166386	0.185513
0.167801	0.224714
0.170458	0.227667
0.171073	0.179265
0.173044	0.195996
0.175551	0.283537
0.175798	0.252745
0.176058	0.204587
0.177288	0.275556
0.178163	0.190527
0.17931	0.191102
0.179371	0.228195
0.18032	0.199775
0.18296	0.192443
0.186292	0.205649
0.187628	0.191173
0.190252	0.194655
0.192958	0.194871
0.196738	0.248883
0.201908	0.203925
0.206856	0.229815
0.210158	0.211346
0.224646	0.271743
0.226232	0.236319
0.228707	0.229276
0.241473	0.260935
0.244409	0.245839
0.246355	0.265516
0.252809	0.264386
0.269381	0.286749
0.288227	0.288597
