0.0581432	0.0592848
0.064445	0.0710059
0.0867049	0.0911304
0.0920759	0.113122
0.0946378	0.116246
0.0969753	0.122683
0.101592	0.111328
0.104954	0.1091
0.105392	0.166652
0.10544	0.11073
0.105648	0.202401
0.10647	0.11139
0.108267	0.124407
0.11157	0.123136
0.114685	0.133219
0.116576	0.120151
0.116773	0.139177
0.120579	0.259166
0.120654	0.156223
0.120793	0.127059
0.120796	0.140765
0.123271	0.186733
0.124265	0.158362
0.124577	0.128179
0.125862	0.159779
0.127755	0.132927
0.128894	0.129755
0.129568	0.226385
0.13048	0.437047
0.131023	0.153147
0.131759	0.148799
0.131998	0.194138
0.132613	0.140225
0.134233	0.243776
0.134508	0.196362
0.134717	0.221993
0.135684	0.222942
0.135833	0.173326
0.136865	0.293846
0.137042	0.13935
0.137089	0.149832
0.138047	0.21207
0.138884	0.161031
0.13952	0.144701
0.141296	0.17728
0.141673	0.142948
0.141812	0.190927
0.142059	0.273815
0.142386	0.225978
0.142921	0.258581
0.144278	0.171512
0.144464	0.440306
0.144626	0.152006
0.145932	0.158322
0.145966	0.198221
0.148276	0.16943
0.148506	0.273843
0.148624	0.210842
0.148749	0.170473
0.150756	0.169594
0.15198	0.267625
0.152308	0.234716
0.15253	0.165089
0.152544	0.185208
0.153194	0.183716
0.154996	0.171907
0.156059	0.160257
0.158336	0.201535
0.158781	0.202507
0.159223	0.217487
0.159388	0.255873
0.160633	0.268957
0.161127	0.186078
0.163454	0.166489
0.163611	0.176113
0.163888	0.177893
0.164209	0.251133
0.165956	0.203204
0.168165	0.206952
0.172058	0.199173
0.173347	0.202911
0.17377	0.222075
0.174781	0.264254
0.174972	0.202094
0.175709	0.188388
0.17625	0.220188
0.177022	0.290458
0.178093	0.183392
0.180099	0.213028
0.181726	0.202521
0.183379	0.233779
0.184638	0.203767
0.186964	0.277724
0.187147	0.246255
0.189904	0.193551
0.196615	0.206775
0.202068	0.248467
0.202189	0.229632
0.202388	0.21207
0.207534	0.214027
0.211792	0.217002
0.216121	0.220608
0.218254	0.279504
0.22661	0.260059
0.235471	0.244987
0.239003	0.24936
0.281317	0.286741
