0.0608102	0.0720102
0.0857693	0.0947157
0.0931863	0.1058
0.0955303	0.13598
0.0996234	0.130139
0.0997264	0.126689
0.101814	0.131589
0.104584	0.105279
0.107976	0.12364
0.110217	0.138878
0.11273	0.118652
0.116698	0.126323
0.118632	0.12904
0.119577	0.125052
0.119884	0.178706
0.120233	0.172593
0.120592	0.124396
0.12147	0.155274
0.121564	0.158879
0.122941	0.124211
0.124172	0.134461
0.128751	0.144071
0.132912	0.437232
0.133382	0.167837
0.134575	0.253798
0.13628	0.173911
0.138235	0.143253
0.140133	0.207827
0.141213	0.189489
0.14145	0.177449
0.141459	0.154817
0.143674	0.144583
0.143988	0.236841
0.147445	0.161438
0.147677	0.234591
0.147771	0.190264
0.148398	0.189534
0.148409	0.254627
0.150306	0.156467
0.150863	0.174381
0.151021	0.165528
0.151906	0.172924
0.152637	0.22521
0.152661	0.456193
0.1537	0.222914
0.154139	0.185963
0.154583	0.229297
0.155105	0.268165
0.155194	0.167541
0.156539	0.200426
0.156577	0.170557
0.157291	0.166335
0.157841	0.244492
0.158795	0.214348
0.159648	0.205861
0.160349	0.20122
0.161018	0.17804
0.161617	0.196739
0.162602	0.165688
0.162714	0.257174
0.163013	0.209565
0.163407	0.165926
0.163418	0.267692
0.163614	0.220625
0.164524	0.20297
0.165551	0.308677
0.166005	0.16997
0.166183	0.166823
0.166739	0.168718
0.167997	0.169368
0.168924	0.177756
0.169019	0.200852
0.169033	0.218619
0.169418	0.215516
0.170314	0.192192
0.170447	0.188801
0.170457	0.182177
0.170822	0.244457
0.171413	0.185977
0.172382	0.187183
0.173368	0.191895
0.1735	0.181002
0.173524	0.233693
0.174366	0.246668
0.174919	0.182572
0.175284	0.17737
0.176409	0.178937
0.176922	0.261559
0.17738	0.213294
0.17843	0.230055
0.178947	0.201019
0.17914	0.266502
0.180989	0.224052
0.181176	0.204624
0.184359	0.215328
0.1869	0.204686
0.187376	0.203466
0.191396	0.252611
0.191449	0.20188
0.19398	0.201938
0.19578	0.239202
0.196506	0.286446
0.198345	0.2206
0.201677	0.207547
0.202096	0.209505
0.208703	0.227526
0.20924	0.212155
0.217455	0.222411
0.221816	0.229265
0.224012	0.226552
0.239807	0.248934
