0.0712764	0.0734397
0.0784907	0.0977134
0.0807663	0.0851254
0.0846133	0.0868865
0.0850964	0.0903264
0.0919682	0.101932
0.0923539	0.0951314
0.0951856	0.100206
0.0972898	0.118223
0.0976163	0.104687
0.100731	0.104939
0.100801	0.117825
0.10201	0.102937
0.111055	0.161093
0.111242	0.113387
0.112837	0.118058
0.117333	0.143102
0.117725	0.13197
0.118215	0.157146
0.12055	0.13339
0.12063	0.122683
0.122409	0.142747
0.122638	0.128134
0.122906	0.14252
0.123413	0.205324
0.123416	0.435102
0.124233	0.226032
0.125557	0.160456
0.126345	0.153195
0.127395	0.248407
0.12804	0.244677
0.128063	0.128834
0.128354	0.198922
0.128931	0.222627
0.129223	0.168461
0.130324	0.15962
0.133588	0.155691
0.13532	0.463556
0.136869	0.214274
0.137271	0.274149
0.137521	0.271001
0.137532	0.142185
0.137687	0.158739
0.139954	0.266058
0.140484	0.159176
0.140484	0.295206
0.142319	0.274201
0.1424	0.180496
0.142899	0.155978
0.144002	0.22178
0.144224	0.147962
0.14491	0.148167
0.145133	0.160249
0.145729	0.168876
0.148962	0.183212
0.149042	0.212017
0.14918	0.246743
0.150083	0.167306
0.150653	0.182825
0.151035	0.160384
0.151091	0.175559
0.151238	0.152046
0.151281	0.292259
0.152379	0.158805
0.152515	0.248937
0.153026	0.172361
0.153092	0.168017
0.153978	0.179384
0.155146	0.222461
0.155743	0.177925
0.156526	0.204679
0.157883	0.25031
0.158659	0.158868
0.158715	0.226883
0.159107	0.159392
0.159361	0.26582
0.160502	0.16855
0.161405	0.255657
0.161451	0.242624
0.161868	0.174983
0.163396	0.200492
0.163783	0.196771
0.165565	0.200896
0.166428	0.267981
0.167693	0.221846
0.168651	0.182308
0.168905	0.207348
0.169535	0.173206
0.17016	0.212075
0.172993	0.24657
0.174608	0.238166
0.175887	0.22246
0.177906	0.181823
0.181691	0.194354
0.182786	0.260627
0.183331	0.236736
0.1852	0.241808
0.185876	0.2309
0.196141	0.198776
0.198451	0.22077
0.198922	0.200415
0.200135	0.208096
0.200814	0.210759
0.201088	0.256367
0.201702	0.211344
0.203132	0.220571
0.206612	0.212921
0.219983	0.223725
0.223769	0.227422
0.239933	0.246365
