0.0417941	0.046982
0.078071	0.0861225
0.0818518	0.0861767
0.0833915	0.0871612
0.0860838	0.0945681
0.0901393	0.0986441
0.0905992	0.124258
0.0906893	0.106417
0.0923374	0.12723
0.0950819	0.103664
0.0966781	0.120548
0.0971402	0.0973473
0.104898	0.148138
0.106646	0.108188
0.106791	0.108422
0.106948	0.114622
0.108365	0.115978
0.109708	0.123851
0.111771	0.127844
0.112453	0.138115
0.114153	0.167591
0.117078	0.143671
0.117129	0.121906
0.1231	0.176121
0.125902	0.14301
0.127424	0.132231
0.128114	0.168519
0.12834	0.306113
0.129667	0.15576
0.132105	0.150047
0.132155	0.139706
0.13295	0.144216
0.133559	0.167796
0.134183	0.159053
0.135839	0.142653
0.135864	0.176517
0.136579	0.451973
0.136741	0.153207
0.137733	0.159061
0.138342	0.193078
0.138808	0.437392
0.139952	0.140071
0.140775	0.149667
0.14078	0.162215
0.14135	0.1595
0.141571	0.167446
0.14242	0.160504
0.145852	0.322521
0.146492	0.224793
0.146505	0.275875
0.146998	0.148733
0.147239	0.153254
0.147763	0.151207
0.147939	0.27001
0.148272	0.169835
0.148341	0.149356
0.14915	0.150326
0.149504	0.254428
0.151317	0.324591
0.151787	0.156545
0.152684	0.183643
0.153222	0.25226
0.153944	0.164276
0.154232	0.161617
0.154332	0.314611
0.154635	0.172997
0.154869	0.203346
0.1559	0.159984
0.156596	0.179377
0.157314	0.16344
0.158331	0.170616
0.159644	0.176068
0.16081	0.195025
0.160831	0.262177
0.161031	0.200249
0.161447	0.175667
0.161595	0.212049
0.161798	0.20455
0.162129	0.289162
0.163515	0.182714
0.164288	0.167915
0.164528	0.207333
0.165779	0.257715
0.166981	0.266694
0.168026	0.267053
0.168198	0.264626
0.168615	0.265824
0.170477	0.189791
0.171212	0.174841
0.174283	0.252623
0.174856	0.19454
0.17541	0.181847
0.176938	0.180189
0.177527	0.189616
0.18006	0.231209
0.180061	0.183206
0.180751	0.207075
0.182567	0.21399
0.183368	0.237891
0.184746	0.191473
0.187531	0.251863
0.191043	0.210733
0.194215	0.231457
0.1969	0.199644
0.201859	0.264806
0.203814	0.204706
0.206206	0.271793
0.206417	0.257299
0.209967	0.214935
0.217149	0.234408
0.221039	0.244053
0.229361	0.230749
0.244943	0.260611
0.24857	0.257006
0.26615	0.271437
