\relax 
\providecommand\hyper@newdestlabel[2]{}
\@writefile{toc}{\contentsline {section}{\numberline {4}Algorithmen auf Persistenzlandschaften}{30}{section.4}}
\newlabel{sec:Algorithmen}{{4}{30}{Algorithmen auf Persistenzlandschaften}{section.4}{}}
\newlabel{sec:Algorithmen@cref}{{[section][4][]4}{30}}
\@writefile{toc}{\contentsline {subsection}{\numberline {4.1}Konstruktion von Persistenzlandschaften}{30}{subsection.4.1}}
\newlabel{def:defAlgoSort}{{32}{30}{}{defi.32}{}}
\newlabel{def:defAlgoSort@cref}{{[defi][32][]32}{30}}
\@writefile{lof}{\contentsline {figure}{\numberline {15}{\ignorespaces Der Algorithmus bestimmt schrittweise die obere Einh\IeC {\"u}llende und modifiziert die Liste der noch zu bearbeitenden Intervalle so, dass die Intervalle in der Liste die verbliebenen Dreiecksfunktionen repr\IeC {\"a}sentieren.\relax }}{31}{figure.caption.18}}
\newlabel{fig:construction}{{15}{31}{Der Algorithmus bestimmt schrittweise die obere Einhüllende und modifiziert die Liste der noch zu bearbeitenden Intervalle so, dass die Intervalle in der Liste die verbliebenen Dreiecksfunktionen repräsentieren.\relax }{figure.caption.18}{}}
\newlabel{fig:construction@cref}{{[figure][15][]15}{31}}
\@writefile{loa}{\contentsline {algorithm}{\numberline {1}{\ignorespaces Berechnung der Persistenzlandschaft\relax }}{33}{algorithm.1}}
\@writefile{toc}{\contentsline {subsection}{\numberline {4.2}Linearkombinationen von Persistenzlandschaften}{34}{subsection.4.2}}
\@writefile{loa}{\contentsline {algorithm}{\numberline {2}{\ignorespaces Linearkombination von Persistenzlandschaften~\cite {landscapeToolbox}\relax }}{34}{algorithm.2}}
\newlabel{algoLinComb}{{2}{34}{Linearkombination von Persistenzlandschaften~\cite {landscapeToolbox}\relax }{algorithm.2}{}}
\newlabel{algoLinComb@cref}{{[algorithm][2][]2}{34}}
\@writefile{toc}{\contentsline {subsection}{\numberline {4.3}Normen auf Persistenzlandschaften}{35}{subsection.4.3}}
\@writefile{toc}{\contentsline {subsection}{\numberline {4.4}Unendliche Persistenz}{35}{subsection.4.4}}
\newlabel{inftPers}{{4.4}{35}{Unendliche Persistenz}{subsection.4.4}{}}
\newlabel{inftPers@cref}{{[subsection][4][4]4.4}{35}}
\@writefile{loa}{\contentsline {algorithm}{\numberline {3}{\ignorespaces Norm einer Persistenzlandschaft\relax }}{36}{algorithm.3}}
\newlabel{alg:algoNorm}{{3}{36}{Norm einer Persistenzlandschaft\relax }{algorithm.3}{}}
\newlabel{alg:algoNorm@cref}{{[algorithm][3][]3}{36}}
\@writefile{lof}{\contentsline {figure}{\numberline {16}{\ignorespaces Performanz der Distanzen von Persistenzlandschaften gegen\IeC {\"u}ber Wassersteindistanzen.\relax }}{37}{figure.caption.19}}
\newlabel{fig:landscPerformance}{{16}{37}{Performanz der Distanzen von Persistenzlandschaften gegenüber Wassersteindistanzen.\relax }{figure.caption.19}{}}
\newlabel{fig:landscPerformance@cref}{{[figure][16][]16}{37}}
\@writefile{toc}{\contentsline {subsection}{\numberline {4.5}Effizienz von Persistenzlandschaften}{37}{subsection.4.5}}
\newlabel{subsec:performance}{{4.5}{37}{Effizienz von Persistenzlandschaften}{subsection.4.5}{}}
\newlabel{subsec:performance@cref}{{[subsection][5][4]4.5}{37}}
\@writefile{lof}{\contentsline {figure}{\numberline {17}{\ignorespaces Distanzberechnungen von Persistenzlandschaften sind auch schon f\IeC {\"u}r kleine Beispiele deutlich effizienter als Wassersteindistanzen.\relax }}{38}{figure.caption.20}}
\newlabel{fig:performancePlot}{{17}{38}{Distanzberechnungen von Persistenzlandschaften sind auch schon für kleine Beispiele deutlich effizienter als Wassersteindistanzen.\relax }{figure.caption.20}{}}
\newlabel{fig:performancePlot@cref}{{[figure][17][]17}{38}}
\@setckpt{Sources/Algorithmen_Persistenzlandschaft}{
\setcounter{page}{39}
\setcounter{equation}{2}
\setcounter{enumi}{2}
\setcounter{enumii}{0}
\setcounter{enumiii}{0}
\setcounter{enumiv}{0}
\setcounter{footnote}{1}
\setcounter{mpfootnote}{0}
\setcounter{part}{0}
\setcounter{section}{4}
\setcounter{subsection}{5}
\setcounter{subsubsection}{0}
\setcounter{paragraph}{0}
\setcounter{subparagraph}{0}
\setcounter{figure}{17}
\setcounter{table}{0}
\setcounter{FBcaption@count}{0}
\setcounter{tabx@nest}{0}
\setcounter{listtotal}{0}
\setcounter{listcount}{0}
\setcounter{liststart}{0}
\setcounter{liststop}{0}
\setcounter{citecount}{0}
\setcounter{citetotal}{0}
\setcounter{multicitecount}{0}
\setcounter{multicitetotal}{0}
\setcounter{instcount}{38}
\setcounter{maxnames}{99}
\setcounter{minnames}{1}
\setcounter{maxitems}{3}
\setcounter{minitems}{1}
\setcounter{citecounter}{0}
\setcounter{savedcitecounter}{0}
\setcounter{uniquelist}{0}
\setcounter{uniquename}{0}
\setcounter{refsection}{0}
\setcounter{refsegment}{0}
\setcounter{maxextratitle}{0}
\setcounter{maxextratitleyear}{0}
\setcounter{maxextradate}{0}
\setcounter{maxextraalpha}{0}
\setcounter{abbrvpenalty}{50}
\setcounter{highnamepenalty}{50}
\setcounter{lownamepenalty}{25}
\setcounter{maxparens}{3}
\setcounter{parenlevel}{0}
\setcounter{mincomprange}{10}
\setcounter{maxcomprange}{100000}
\setcounter{mincompwidth}{1}
\setcounter{afterword}{0}
\setcounter{savedafterword}{0}
\setcounter{annotator}{0}
\setcounter{savedannotator}{0}
\setcounter{author}{0}
\setcounter{savedauthor}{0}
\setcounter{bookauthor}{0}
\setcounter{savedbookauthor}{0}
\setcounter{commentator}{0}
\setcounter{savedcommentator}{0}
\setcounter{editor}{0}
\setcounter{savededitor}{0}
\setcounter{editora}{0}
\setcounter{savededitora}{0}
\setcounter{editorb}{0}
\setcounter{savededitorb}{0}
\setcounter{editorc}{0}
\setcounter{savededitorc}{0}
\setcounter{foreword}{0}
\setcounter{savedforeword}{0}
\setcounter{holder}{0}
\setcounter{savedholder}{0}
\setcounter{introduction}{0}
\setcounter{savedintroduction}{0}
\setcounter{namea}{0}
\setcounter{savednamea}{0}
\setcounter{nameb}{0}
\setcounter{savednameb}{0}
\setcounter{namec}{0}
\setcounter{savednamec}{0}
\setcounter{translator}{0}
\setcounter{savedtranslator}{0}
\setcounter{shortauthor}{0}
\setcounter{savedshortauthor}{0}
\setcounter{shorteditor}{0}
\setcounter{savedshorteditor}{0}
\setcounter{labelname}{0}
\setcounter{savedlabelname}{0}
\setcounter{institution}{0}
\setcounter{savedinstitution}{0}
\setcounter{lista}{0}
\setcounter{savedlista}{0}
\setcounter{listb}{0}
\setcounter{savedlistb}{0}
\setcounter{listc}{0}
\setcounter{savedlistc}{0}
\setcounter{listd}{0}
\setcounter{savedlistd}{0}
\setcounter{liste}{0}
\setcounter{savedliste}{0}
\setcounter{listf}{0}
\setcounter{savedlistf}{0}
\setcounter{location}{0}
\setcounter{savedlocation}{0}
\setcounter{organization}{0}
\setcounter{savedorganization}{0}
\setcounter{origlocation}{0}
\setcounter{savedoriglocation}{0}
\setcounter{origpublisher}{0}
\setcounter{savedorigpublisher}{0}
\setcounter{publisher}{0}
\setcounter{savedpublisher}{0}
\setcounter{language}{0}
\setcounter{savedlanguage}{0}
\setcounter{origlanguage}{0}
\setcounter{savedoriglanguage}{0}
\setcounter{pageref}{0}
\setcounter{savedpageref}{0}
\setcounter{textcitecount}{0}
\setcounter{textcitetotal}{0}
\setcounter{textcitemaxnames}{0}
\setcounter{biburlnumpenalty}{0}
\setcounter{biburlucpenalty}{0}
\setcounter{biburllcpenalty}{0}
\setcounter{smartand}{1}
\setcounter{bbx:relatedcount}{0}
\setcounter{bbx:relatedtotal}{0}
\setcounter{ContinuedFloat}{0}
\setcounter{subfigure}{0}
\setcounter{subtable}{0}
\setcounter{float@type}{8}
\setcounter{algorithm}{3}
\setcounter{ALG@line}{10}
\setcounter{ALG@rem}{10}
\setcounter{ALG@nested}{0}
\setcounter{ALG@Lnr}{2}
\setcounter{ALG@blocknr}{10}
\setcounter{ALG@storecount}{0}
\setcounter{ALG@tmpcounter}{0}
\setcounter{Item}{5}
\setcounter{Hfootnote}{1}
\setcounter{bookmark@seq@number}{0}
\setcounter{parentequation}{0}
\setcounter{svg@param@lastpage}{0}
\setcounter{svg@param@currpage}{-1}
\setcounter{defi}{32}
\setcounter{satz}{3}
\setcounter{lemma}{2}
\setcounter{section@level}{2}
}
