\relax 
\providecommand\hyper@newdestlabel[2]{}
\@writefile{lof}{\contentsline {figure}{\numberline {18}{\ignorespaces Der Torus hat in Dimension 1 zwei "`L\IeC {\"o}cher"'. Auf einer Sph\IeC {\"a}re l\IeC {\"a}sst sich jeder Kreis der Dimension 1 auf einen Punkt zusammenziehen Sie hat damit keine Features in Dimension 1.\footnotemark \relax }}{39}{figure.caption.21}}
\@writefile{toc}{\contentsline {section}{\numberline {5}Persistenzlandschaften auf synthetischen Daten}{39}{section.5}}
\newlabel{sec:synthSample}{{5}{39}{Persistenzlandschaften auf synthetischen Daten}{section.5}{}}
\newlabel{sec:synthSample@cref}{{[section][5][]5}{39}}
\@writefile{toc}{\contentsline {subsection}{\numberline {5.1}Torus und Sph\IeC {\"a}re}{39}{subsection.5.1}}
\@writefile{lof}{\contentsline {figure}{\numberline {19}{\ignorespaces Persistenzdiagramme von Punktmengen, die aus einer Sph\IeC {\"a}re gew\IeC {\"a}hlt wurden sowie die dazugeh\IeC {\"o}rigen Persistenzlandschaften.\relax }}{41}{figure.caption.22}}
\newlabel{fig:diagramsAndLandscapes}{{19}{41}{Persistenzdiagramme von Punktmengen, die aus einer Sphäre gewählt wurden sowie die dazugehörigen Persistenzlandschaften.\relax }{figure.caption.22}{}}
\newlabel{fig:diagramsAndLandscapes@cref}{{[figure][19][]19}{41}}
\@writefile{lof}{\contentsline {figure}{\numberline {20}{\ignorespaces Persistenzdiagramme von zuf\IeC {\"a}llig gew\IeC {\"a}hlten Samples eines Torus sowie die jeweiligen Persistenzlandschaften.\relax }}{41}{figure.caption.23}}
\newlabel{fig:diagramsAndLandscapesTorus}{{20}{41}{Persistenzdiagramme von zufällig gewählten Samples eines Torus sowie die jeweiligen Persistenzlandschaften.\relax }{figure.caption.23}{}}
\newlabel{fig:diagramsAndLandscapesTorus@cref}{{[figure][20][]20}{41}}
\@writefile{lof}{\contentsline {figure}{\numberline {21}{\ignorespaces Die mittleren Persistenzlandschaften von Torus und Sph\IeC {\"a}re im Vergleich.\relax }}{42}{figure.caption.24}}
\newlabel{fig:meanSphereTorus}{{21}{42}{Die mittleren Persistenzlandschaften von Torus und Sphäre im Vergleich.\relax }{figure.caption.24}{}}
\newlabel{fig:meanSphereTorus@cref}{{[figure][21][]21}{42}}
\@writefile{lof}{\contentsline {figure}{\numberline {22}{\ignorespaces Persistenzlandschaften von Tori mit unterschiedlichen Sampledichten. $300$ (links)  $500$ (mitte) $800$ (rechts)\relax }}{43}{figure.caption.25}}
\newlabel{fig:TorusScaleImage}{{22}{43}{Persistenzlandschaften von Tori mit unterschiedlichen Sampledichten. $300$ (links)  $500$ (mitte) $800$ (rechts)\relax }{figure.caption.25}{}}
\newlabel{fig:TorusScaleImage@cref}{{[figure][22][]22}{43}}
\@writefile{lof}{\contentsline {figure}{\numberline {23}{\ignorespaces Distanzmatrix der paarweisen Persistenzlandschaften von Torus und Sph\IeC {\"a}re jeweils ohne \emph  {unpaired points}\relax }}{43}{figure.caption.26}}
\newlabel{fig:distancesTorusSphere800}{{23}{43}{Distanzmatrix der paarweisen Persistenzlandschaften von Torus und Sphäre jeweils ohne \emph {unpaired points}\relax }{figure.caption.26}{}}
\newlabel{fig:distancesTorusSphere800@cref}{{[figure][23][]23}{43}}
\@writefile{toc}{\contentsline {subsection}{\numberline {5.2}Fazit}{44}{subsection.5.2}}
\@setckpt{Sources/Berechnung_Synthetische_Daten}{
\setcounter{page}{45}
\setcounter{equation}{2}
\setcounter{enumi}{2}
\setcounter{enumii}{0}
\setcounter{enumiii}{0}
\setcounter{enumiv}{0}
\setcounter{footnote}{2}
\setcounter{mpfootnote}{0}
\setcounter{part}{0}
\setcounter{section}{5}
\setcounter{subsection}{2}
\setcounter{subsubsection}{0}
\setcounter{paragraph}{0}
\setcounter{subparagraph}{0}
\setcounter{figure}{23}
\setcounter{table}{0}
\setcounter{FBcaption@count}{0}
\setcounter{tabx@nest}{0}
\setcounter{listtotal}{0}
\setcounter{listcount}{0}
\setcounter{liststart}{0}
\setcounter{liststop}{0}
\setcounter{citecount}{0}
\setcounter{citetotal}{0}
\setcounter{multicitecount}{0}
\setcounter{multicitetotal}{0}
\setcounter{instcount}{40}
\setcounter{maxnames}{99}
\setcounter{minnames}{1}
\setcounter{maxitems}{3}
\setcounter{minitems}{1}
\setcounter{citecounter}{0}
\setcounter{savedcitecounter}{0}
\setcounter{uniquelist}{0}
\setcounter{uniquename}{0}
\setcounter{refsection}{0}
\setcounter{refsegment}{0}
\setcounter{maxextratitle}{0}
\setcounter{maxextratitleyear}{0}
\setcounter{maxextradate}{0}
\setcounter{maxextraalpha}{0}
\setcounter{abbrvpenalty}{50}
\setcounter{highnamepenalty}{50}
\setcounter{lownamepenalty}{25}
\setcounter{maxparens}{3}
\setcounter{parenlevel}{0}
\setcounter{mincomprange}{10}
\setcounter{maxcomprange}{100000}
\setcounter{mincompwidth}{1}
\setcounter{afterword}{0}
\setcounter{savedafterword}{0}
\setcounter{annotator}{0}
\setcounter{savedannotator}{0}
\setcounter{author}{0}
\setcounter{savedauthor}{0}
\setcounter{bookauthor}{0}
\setcounter{savedbookauthor}{0}
\setcounter{commentator}{0}
\setcounter{savedcommentator}{0}
\setcounter{editor}{0}
\setcounter{savededitor}{0}
\setcounter{editora}{0}
\setcounter{savededitora}{0}
\setcounter{editorb}{0}
\setcounter{savededitorb}{0}
\setcounter{editorc}{0}
\setcounter{savededitorc}{0}
\setcounter{foreword}{0}
\setcounter{savedforeword}{0}
\setcounter{holder}{0}
\setcounter{savedholder}{0}
\setcounter{introduction}{0}
\setcounter{savedintroduction}{0}
\setcounter{namea}{0}
\setcounter{savednamea}{0}
\setcounter{nameb}{0}
\setcounter{savednameb}{0}
\setcounter{namec}{0}
\setcounter{savednamec}{0}
\setcounter{translator}{0}
\setcounter{savedtranslator}{0}
\setcounter{shortauthor}{0}
\setcounter{savedshortauthor}{0}
\setcounter{shorteditor}{0}
\setcounter{savedshorteditor}{0}
\setcounter{labelname}{0}
\setcounter{savedlabelname}{0}
\setcounter{institution}{0}
\setcounter{savedinstitution}{0}
\setcounter{lista}{0}
\setcounter{savedlista}{0}
\setcounter{listb}{0}
\setcounter{savedlistb}{0}
\setcounter{listc}{0}
\setcounter{savedlistc}{0}
\setcounter{listd}{0}
\setcounter{savedlistd}{0}
\setcounter{liste}{0}
\setcounter{savedliste}{0}
\setcounter{listf}{0}
\setcounter{savedlistf}{0}
\setcounter{location}{0}
\setcounter{savedlocation}{0}
\setcounter{organization}{0}
\setcounter{savedorganization}{0}
\setcounter{origlocation}{0}
\setcounter{savedoriglocation}{0}
\setcounter{origpublisher}{0}
\setcounter{savedorigpublisher}{0}
\setcounter{publisher}{0}
\setcounter{savedpublisher}{0}
\setcounter{language}{0}
\setcounter{savedlanguage}{0}
\setcounter{origlanguage}{0}
\setcounter{savedoriglanguage}{0}
\setcounter{pageref}{0}
\setcounter{savedpageref}{0}
\setcounter{textcitecount}{0}
\setcounter{textcitetotal}{0}
\setcounter{textcitemaxnames}{0}
\setcounter{biburlnumpenalty}{0}
\setcounter{biburlucpenalty}{0}
\setcounter{biburllcpenalty}{0}
\setcounter{smartand}{1}
\setcounter{bbx:relatedcount}{0}
\setcounter{bbx:relatedtotal}{0}
\setcounter{ContinuedFloat}{0}
\setcounter{subfigure}{0}
\setcounter{subtable}{0}
\setcounter{float@type}{8}
\setcounter{algorithm}{3}
\setcounter{ALG@line}{10}
\setcounter{ALG@rem}{10}
\setcounter{ALG@nested}{0}
\setcounter{ALG@Lnr}{2}
\setcounter{ALG@blocknr}{10}
\setcounter{ALG@storecount}{0}
\setcounter{ALG@tmpcounter}{0}
\setcounter{Item}{5}
\setcounter{Hfootnote}{2}
\setcounter{bookmark@seq@number}{0}
\setcounter{parentequation}{0}
\setcounter{svg@param@lastpage}{0}
\setcounter{svg@param@currpage}{-1}
\setcounter{defi}{33}
\setcounter{satz}{3}
\setcounter{lemma}{2}
\setcounter{section@level}{2}
}
