\relax 
\providecommand\hyper@newdestlabel[2]{}
\@writefile{toc}{\contentsline {section}{\numberline {3}Mathematische Grundlagen}{12}{section.3}}
\newlabel{sec:mathIntro}{{3}{12}{Mathematische Grundlagen}{section.3}{}}
\newlabel{sec:mathIntro@cref}{{[section][3][]3}{12}}
\@writefile{toc}{\contentsline {subsection}{\numberline {3.1}Algebraische Topologie}{12}{subsection.3.1}}
\@writefile{lof}{\contentsline {figure}{\numberline {1}{\ignorespaces Ein topologischer Raum besteht sowohl aus der Punktmenge $\mdmathbb  {X}$ (links) als auch den, durch Teilmengen von $\mdmathbb  {X}$ repr\IeC {\"a}sentierten Nachbarschaftsrelationen.\relax }}{13}{figure.caption.4}}
\@writefile{lof}{\contentsline {figure}{\numberline {2}{\ignorespaces Hom\IeC {\"o}morphismen ver\IeC {\"a}ndern Objekte durch stetige Verformungen. Im zweiten Fall ist die Verformung nicht stetig.\relax }}{13}{figure.caption.5}}
\providecommand*\caption@xref[2]{\@setref\relax\@undefined{#1}}
\newlabel{simplex_2}{{3a}{14}{$2$-Simplex\relax }{figure.caption.6}{}}
\newlabel{simplex_2@cref}{{[subfigure][1][3]3a}{14}}
\newlabel{sub@simplex_2}{{a}{14}{$2$-Simplex\relax }{figure.caption.6}{}}
\newlabel{sub@simplex_2@cref}{{[subfigure][1][3]3a}{14}}
\newlabel{simplex_3}{{3b}{14}{$3$-Simplex\relax }{figure.caption.6}{}}
\newlabel{simplex_3@cref}{{[subfigure][2][3]3b}{14}}
\newlabel{sub@simplex_3}{{b}{14}{$3$-Simplex\relax }{figure.caption.6}{}}
\newlabel{sub@simplex_3@cref}{{[subfigure][2][3]3b}{14}}
\@writefile{lof}{\contentsline {figure}{\numberline {3}{\ignorespaces Der $2$-dimensionale Simplex $\{A,B,C\}$ kann als Fl\IeC {\"a}che eines Dreiecks \subref  {simplex_2} visualisiert werden. Einen $3$-dimensionalen Simplex fasst man analog als Raum eines Polyeders \subref  {simplex_3} im $\mdmathbb  {R}^3$ auf.\relax }}{14}{figure.caption.6}}
\@writefile{toc}{\contentsline {subsection}{\numberline {3.2}Simpliziale Homologie}{14}{subsection.3.2}}
\newlabel{def:simplicialComplex}{{4}{14}{Abstrakter simplizialer Komplex}{defi.4}{}}
\newlabel{def:simplicialComplex@cref}{{[defi][4][]4}{14}}
\@writefile{lof}{\contentsline {figure}{\numberline {4}{\ignorespaces Zwei Elemente (Simplizes) eines simplizialen Komplexes k\IeC {\"o}nnen sich nur in gemeinsamen Teilmengen \IeC {\"u}berschneiden. F\IeC {\"u}r die geometrische Anschauung bedeutet dies, dass sich zwei Simplizes immer in einer Fl\IeC {\"a}che treffen m\IeC {\"u}ssen.\relax }}{15}{figure.caption.7}}
\newlabel{fig:simplicialComplexOverlap}{{4}{15}{Zwei Elemente (Simplizes) eines simplizialen Komplexes können sich nur in gemeinsamen Teilmengen überschneiden. Für die geometrische Anschauung bedeutet dies, dass sich zwei Simplizes immer in einer Fläche treffen müssen.\relax }{figure.caption.7}{}}
\newlabel{fig:simplicialComplexOverlap@cref}{{[figure][4][]4}{15}}
\@writefile{lof}{\contentsline {figure}{\numberline {5}{\ignorespaces Die Abbildung zeigt das $1$-Skelett des simplizialen Komlexes aus \autoref  {fig:simplicialComplexOverlap}\relax }}{15}{figure.caption.8}}
\@writefile{lof}{\contentsline {figure}{\numberline {6}{\ignorespaces Obwohl die Elemente der Kettengruppe Ketten genannt werden, m\IeC {\"u}ssen sie nicht aus zusammenh\IeC {\"a}ngenden Simplizes bestehen. Hier sieht man die Addition von zwei Elementen der $1$-Gruppe.\relax }}{17}{figure.caption.9}}
\@writefile{lof}{\contentsline {figure}{\numberline {7}{\ignorespaces Durch Anwendung des Randoperators wird der Simplex $\{abc\}$ zun\IeC {\"a}chst durch den Randoperator auf die $1$-dimensionalen Simplizes $\{ab\}$, $\{bc\}$, $\{ac\}$ abgebildet. Bei erneuter Anwendung sehen wir, dass jeder $0$-dimensionale Simplex als Rand zweier $1$-dimensionaler Simplizes auftaucht. Die Summe \IeC {\"u}ber $\mdmathbb  {Z}_2$ ergibt damit wie in Lemma 2 beschrieben die leere Menge.\relax }}{18}{figure.caption.10}}
\@writefile{lof}{\contentsline {figure}{\numberline {8}{\ignorespaces Sowohl das Dreieck um den Simplex mit Dimension 2 herum als auch das Quadrat bilden Zykel, doch nur das Dreieck ist ein Element der Randgruppe.\relax }}{19}{figure.caption.11}}
\@writefile{lof}{\contentsline {figure}{\numberline {9}{\ignorespaces Bez\IeC {\"u}glich der ersten Homologiegruppe unterscheiden sich die hier dargestellten Komplexe nicht, da die Kanten, in denen sie sich unterscheiden in der Randgruppe liegen. \relax }}{20}{figure.caption.12}}
\@writefile{toc}{\contentsline {subsection}{\numberline {3.3}Berechnung simplizialer Homologie}{20}{subsection.3.3}}
\@writefile{toc}{\contentsline {subsection}{\numberline {3.4}Persistente Homologie}{20}{subsection.3.4}}
\@writefile{lof}{\contentsline {figure}{\numberline {10}{\ignorespaces Gegeben ist eine Menge von Punkten sowie eine zugeh\IeC {\"o}rige \IeC {\"U}berdeckung $\mathcal  {U}$ (links) sowie der zugeh\IeC {\"o}rige Nerv (rechts).\relax }}{21}{figure.caption.13}}
\newlabel{fig:example\IeC {\"U}berdeckung}{{10}{21}{Gegeben ist eine Menge von Punkten sowie eine zugehörige Überdeckung $\mathcal {U}$ (links) sowie der zugehörige Nerv (rechts).\relax }{figure.caption.13}{}}
\newlabel{fig:example\IeC {\"U}berdeckung@cref}{{[figure][10][]10}{21}}
\@writefile{lof}{\contentsline {figure}{\numberline {11}{\ignorespaces Im Gegensatz zum st\IeC {\"a}rkeren Begriff der Hom\IeC {\"o}omorphie schlie\IeC {\ss }t Homotopie\IeC {\"a}quivalenz viele Verformungen ein, die eine hom\IeC {\"o}omorphe Transformation nicht abdeckt. Allerdings erh\IeC {\"a}lt auch sie die Homologiegruppen, was sie zu einem n\IeC {\"u}tzlichen Kriterium f\IeC {\"u}r die topologische Datenanalyse macht.\relax }}{22}{figure.caption.14}}
\@writefile{lof}{\contentsline {figure}{\numberline {12}{\ignorespaces F\IeC {\"u}r kleine Radien (a) ergeben sich nur wenige \IeC {\"U}berschneidungen und der zugeh\IeC {\"o}rige Vietoris-Rips-Komplex enth\IeC {\"a}lt vor allem Simplizes mit niedriger Dimension (b). Die Expansion eines VR-Komplexes erstellt St\IeC {\"u}ck f\IeC {\"u}r St\IeC {\"u}ck immer komplexere Strukturen bis ein Simplex aus allen im Datensatz enthaltenen Punkten entsteht. \IeC {\"U}ber die Reihenfolge, in der diese Strukturen entstehen, die \emph  {Filtration}, k\IeC {\"o}nnen hinterher Aussagen \IeC {\"u}ber die Topologie des Datensatzes getroffen werden. W\IeC {\"a}hlt man den Radius gr\IeC {\"o}\IeC {\ss }er (c) entstehen mehr Strukturen im Vietoris-Rips-Komplex (d).\relax }}{24}{figure.caption.15}}
\@writefile{lof}{\contentsline {figure}{\numberline {13}{\ignorespaces Die oben angedeutete Funktion bildet jeden Simplex im Komplex auf einen Wert in $\mdmathbb  {R}$ ab. Dabei ist kein Wert einer Fl\IeC {\"a}che gr\IeC {\"o}\IeC {\ss }er als der Wert der zugeh\IeC {\"o}rigen Ko-Fl\IeC {\"a}che. Die Funktion ist damit kompatibel zu dem abgebildeten Simplex.\relax }}{25}{figure.caption.16}}
\newlabel{fig:monotoneFunction}{{13}{25}{Die oben angedeutete Funktion bildet jeden Simplex im Komplex auf einen Wert in $\mathbb {R}$ ab. Dabei ist kein Wert einer Fläche größer als der Wert der zugehörigen Ko-Fläche. Die Funktion ist damit kompatibel zu dem abgebildeten Simplex.\relax }{figure.caption.16}{}}
\newlabel{fig:monotoneFunction@cref}{{[figure][13][]13}{25}}
\newlabel{def:TriFunc}{{26}{27}{Stückweise lineare Dreiecksfunktion}{defi.26}{}}
\newlabel{def:TriFunc@cref}{{[defi][26][]26}{27}}
\@writefile{lof}{\contentsline {figure}{\numberline {14}{\ignorespaces Die \IeC {\"U}berlagerung der Dreiecksfunktionen zu den Intervallen $ \{[1,6]$, $[1,5]$, $[2,7]$, $[2,3] \}$.\relax }}{28}{figure.caption.17}}
\newlabel{fig:superposition}{{14}{28}{Die Überlagerung der Dreiecksfunktionen zu den Intervallen $ \{[1,6]$, $[1,5]$, $[2,7]$, $[2,3] \}$.\relax }{figure.caption.17}{}}
\newlabel{fig:superposition@cref}{{[figure][14][]14}{28}}
\newlabel{defLandscape}{{27}{28}{Persistenzlandschaft}{defi.27}{}}
\newlabel{defLandscape@cref}{{[defi][27][]27}{28}}
\newlabel{def:LinComb}{{28}{28}{Linearkombinationen von Persistenzlandschaften}{defi.28}{}}
\newlabel{def:LinComb@cref}{{[defi][28][]28}{28}}
\newlabel{def:defLanNorm}{{29}{29}{Norm von Persistenzlandschaften}{defi.29}{}}
\newlabel{def:defLanNorm@cref}{{[defi][29][]29}{29}}
\@setckpt{Sources/Mathematische_Grundlagen}{
\setcounter{page}{30}
\setcounter{equation}{0}
\setcounter{enumi}{2}
\setcounter{enumii}{0}
\setcounter{enumiii}{0}
\setcounter{enumiv}{0}
\setcounter{footnote}{1}
\setcounter{mpfootnote}{0}
\setcounter{part}{0}
\setcounter{section}{3}
\setcounter{subsection}{4}
\setcounter{subsubsection}{0}
\setcounter{paragraph}{0}
\setcounter{subparagraph}{0}
\setcounter{figure}{14}
\setcounter{table}{0}
\setcounter{FBcaption@count}{0}
\setcounter{tabx@nest}{0}
\setcounter{listtotal}{0}
\setcounter{listcount}{0}
\setcounter{liststart}{0}
\setcounter{liststop}{0}
\setcounter{citecount}{0}
\setcounter{citetotal}{0}
\setcounter{multicitecount}{0}
\setcounter{multicitetotal}{0}
\setcounter{instcount}{32}
\setcounter{maxnames}{99}
\setcounter{minnames}{1}
\setcounter{maxitems}{3}
\setcounter{minitems}{1}
\setcounter{citecounter}{0}
\setcounter{savedcitecounter}{0}
\setcounter{uniquelist}{0}
\setcounter{uniquename}{0}
\setcounter{refsection}{0}
\setcounter{refsegment}{0}
\setcounter{maxextratitle}{0}
\setcounter{maxextratitleyear}{0}
\setcounter{maxextradate}{0}
\setcounter{maxextraalpha}{0}
\setcounter{abbrvpenalty}{50}
\setcounter{highnamepenalty}{50}
\setcounter{lownamepenalty}{25}
\setcounter{maxparens}{3}
\setcounter{parenlevel}{0}
\setcounter{mincomprange}{10}
\setcounter{maxcomprange}{100000}
\setcounter{mincompwidth}{1}
\setcounter{afterword}{0}
\setcounter{savedafterword}{0}
\setcounter{annotator}{0}
\setcounter{savedannotator}{0}
\setcounter{author}{0}
\setcounter{savedauthor}{0}
\setcounter{bookauthor}{0}
\setcounter{savedbookauthor}{0}
\setcounter{commentator}{0}
\setcounter{savedcommentator}{0}
\setcounter{editor}{0}
\setcounter{savededitor}{0}
\setcounter{editora}{0}
\setcounter{savededitora}{0}
\setcounter{editorb}{0}
\setcounter{savededitorb}{0}
\setcounter{editorc}{0}
\setcounter{savededitorc}{0}
\setcounter{foreword}{0}
\setcounter{savedforeword}{0}
\setcounter{holder}{0}
\setcounter{savedholder}{0}
\setcounter{introduction}{0}
\setcounter{savedintroduction}{0}
\setcounter{namea}{0}
\setcounter{savednamea}{0}
\setcounter{nameb}{0}
\setcounter{savednameb}{0}
\setcounter{namec}{0}
\setcounter{savednamec}{0}
\setcounter{translator}{0}
\setcounter{savedtranslator}{0}
\setcounter{shortauthor}{0}
\setcounter{savedshortauthor}{0}
\setcounter{shorteditor}{0}
\setcounter{savedshorteditor}{0}
\setcounter{labelname}{0}
\setcounter{savedlabelname}{0}
\setcounter{institution}{0}
\setcounter{savedinstitution}{0}
\setcounter{lista}{0}
\setcounter{savedlista}{0}
\setcounter{listb}{0}
\setcounter{savedlistb}{0}
\setcounter{listc}{0}
\setcounter{savedlistc}{0}
\setcounter{listd}{0}
\setcounter{savedlistd}{0}
\setcounter{liste}{0}
\setcounter{savedliste}{0}
\setcounter{listf}{0}
\setcounter{savedlistf}{0}
\setcounter{location}{0}
\setcounter{savedlocation}{0}
\setcounter{organization}{0}
\setcounter{savedorganization}{0}
\setcounter{origlocation}{0}
\setcounter{savedoriglocation}{0}
\setcounter{origpublisher}{0}
\setcounter{savedorigpublisher}{0}
\setcounter{publisher}{0}
\setcounter{savedpublisher}{0}
\setcounter{language}{0}
\setcounter{savedlanguage}{0}
\setcounter{origlanguage}{0}
\setcounter{savedoriglanguage}{0}
\setcounter{pageref}{0}
\setcounter{savedpageref}{0}
\setcounter{textcitecount}{0}
\setcounter{textcitetotal}{0}
\setcounter{textcitemaxnames}{0}
\setcounter{biburlnumpenalty}{0}
\setcounter{biburlucpenalty}{0}
\setcounter{biburllcpenalty}{0}
\setcounter{smartand}{1}
\setcounter{bbx:relatedcount}{0}
\setcounter{bbx:relatedtotal}{0}
\setcounter{ContinuedFloat}{0}
\setcounter{subfigure}{0}
\setcounter{subtable}{0}
\setcounter{float@type}{8}
\setcounter{algorithm}{0}
\setcounter{ALG@line}{0}
\setcounter{ALG@rem}{0}
\setcounter{ALG@nested}{0}
\setcounter{ALG@Lnr}{2}
\setcounter{ALG@blocknr}{10}
\setcounter{ALG@storecount}{0}
\setcounter{ALG@tmpcounter}{0}
\setcounter{Item}{5}
\setcounter{Hfootnote}{1}
\setcounter{bookmark@seq@number}{0}
\setcounter{parentequation}{0}
\setcounter{svg@param@lastpage}{0}
\setcounter{svg@param@currpage}{-1}
\setcounter{defi}{30}
\setcounter{satz}{3}
\setcounter{lemma}{2}
\setcounter{section@level}{2}
}
