\relax 
\providecommand\hyper@newdestlabel[2]{}
\@writefile{toc}{\contentsline {section}{\numberline {6}Persistente Homologie von Netzwerken}{45}{section.6}}
\newlabel{sec:PHofNetworks}{{6}{45}{Persistente Homologie von Netzwerken}{section.6}{}}
\newlabel{sec:PHofNetworks@cref}{{[section][6][]6}{45}}
\@writefile{toc}{\contentsline {subsection}{\numberline {6.1}Berechnung persistenter Homologie auf Netzwerken}{45}{subsection.6.1}}
\@writefile{lof}{\contentsline {figure}{\numberline {24}{\ignorespaces Von links nach rechts: Ein Pfad, ein Kreis und ein Bin\IeC {\"a}rbaum (oben) sowie die Einteilung der jeweiligen Graphen in ihre Expansionsschritte $i = 1,\dots  ,3$ bez\IeC {\"u}glich der Grad-Filtration (unten).\relax }}{47}{figure.caption.27}}
\newlabel{fig:PHExampleGraphs}{{24}{47}{Von links nach rechts: Ein Pfad, ein Kreis und ein Binärbaum (oben) sowie die Einteilung der jeweiligen Graphen in ihre Expansionsschritte $i = 1,\dots ,3$ bezüglich der Grad-Filtration (unten).\relax }{figure.caption.27}{}}
\newlabel{fig:PHExampleGraphs@cref}{{[figure][24][]24}{47}}
\@writefile{toc}{\contentsline {subsubsection}{\numberline {6.1.1}Persistente Homologie in Dimension 0}{48}{subsubsection.6.1.1}}
\@writefile{toc}{\contentsline {subsubsection}{\numberline {6.1.2}Persistente Homologie in Dimension 1}{48}{subsubsection.6.1.2}}
\@writefile{lof}{\contentsline {figure}{\numberline {25}{\ignorespaces Die Persistenzdiagramme der Graphen aus \autoref  {fig:PHExampleGraphs}. Da Pfade und B\IeC {\"a}ume per Definition keine Zykel enthalten, gibt es keine Persistenzdiagramme dieser Graphen f\IeC {\"u}r Dimension $1$.\relax }}{49}{figure.caption.28}}
\@writefile{toc}{\contentsline {subsubsection}{\numberline {6.1.3}Ausdruckskraft der Grad-Filtration}{49}{subsubsection.6.1.3}}
\@writefile{lof}{\contentsline {figure}{\numberline {26}{\ignorespaces In Dimension $0$ f\IeC {\"a}llt die persistente Homologie dieser Graphen zusammen.\relax }}{50}{figure.caption.29}}
\newlabel{fig:pathological}{{26}{50}{In Dimension $0$ fällt die persistente Homologie dieser Graphen zusammen.\relax }{figure.caption.29}{}}
\newlabel{fig:pathological@cref}{{[figure][26][]26}{50}}
\@writefile{toc}{\contentsline {subsection}{\numberline {6.2}Persistenzlandschaften von Netzwerkmodellen}{50}{subsection.6.2}}
\newlabel{subsecPersNetw}{{6.2}{50}{Persistenzlandschaften von Netzwerkmodellen}{subsection.6.2}{}}
\newlabel{subsecPersNetw@cref}{{[subsection][2][6]6.2}{50}}
\@writefile{toc}{\contentsline {subsubsection}{\numberline {6.2.1}Netzwerkmodelle}{51}{subsubsection.6.2.1}}
\@writefile{lof}{\contentsline {figure}{\numberline {27}{\ignorespaces Zwei einfache Beispiele f\IeC {\"u}r Netzwerke nach dem Barab\IeC {\'a}si-Albert- sowie dem Erd\IeC {\H o}s-R\IeC {\'e}nyi-Modell. Das Barab\IeC {\'a}si-Albert-Netzwerk hat eine zentrale Struktur, w\IeC {\"a}hrend die Kanten im Erd\IeC {\H o}s-R\IeC {\'e}nyi-Netzwerk gleichm\IeC {\"a}\IeC {\ss }ig \IeC {\"u}ber den Graphen verteilt sind.\relax }}{52}{figure.caption.30}}
\@writefile{toc}{\contentsline {subsubsection}{\numberline {6.2.2}Analyse der persistenten Homologie von Netzwerken}{52}{subsubsection.6.2.2}}
\newlabel{subsec:analysePHnetzwerke}{{6.2.2}{52}{Analyse der persistenten Homologie von Netzwerken}{subsubsection.6.2.2}{}}
\newlabel{subsec:analysePHnetzwerke@cref}{{[subsubsection][2][6,2]6.2.2}{52}}
\@writefile{lof}{\contentsline {figure}{\numberline {28}{\ignorespaces width=0.8\linewidth }}{53}{figure.caption.31}}
\newlabel{fig:gnm-vs-gnm-red}{{28}{53}{width=0.8\linewidth }{figure.caption.31}{}}
\newlabel{fig:gnm-vs-gnm-red@cref}{{[figure][28][]28}{53}}
\@writefile{lof}{\contentsline {figure}{\numberline {29}{\ignorespaces width=0.8\linewidth }}{54}{figure.caption.32}}
\newlabel{fig:ba-vs-er}{{29}{54}{width=0.8\linewidth }{figure.caption.32}{}}
\newlabel{fig:ba-vs-er@cref}{{[figure][29][]29}{54}}
\@writefile{toc}{\contentsline {subsection}{\numberline {6.3}Mittlere Persistenzlandschaften}{54}{subsection.6.3}}
\@writefile{lof}{\contentsline {figure}{\numberline {30}{\ignorespaces width=0.8\linewidth }}{55}{figure.caption.33}}
\newlabel{fig:gnm-vs-gnp-equal}{{30}{55}{width=0.8\linewidth }{figure.caption.33}{}}
\newlabel{fig:gnm-vs-gnp-equal@cref}{{[figure][30][]30}{55}}
\@writefile{lof}{\contentsline {figure}{\numberline {31}{\ignorespaces Hier sind die mittleren Persistenzlandschaften von Graphen nach $G_{np}(0.07)$, $G_{np}(0.05)$, $G_{nm}$ und Barabasi-Albert Modell zu sehen.\relax }}{55}{figure.caption.34}}
\newlabel{fig:meansWithUnpaired}{{31}{55}{Hier sind die mittleren Persistenzlandschaften von Graphen nach $G_{np}(0.07)$, $G_{np}(0.05)$, $G_{nm}$ und Barabasi-Albert Modell zu sehen.\relax }{figure.caption.34}{}}
\newlabel{fig:meansWithUnpaired@cref}{{[figure][31][]31}{55}}
\@writefile{toc}{\contentsline {subsubsection}{\numberline {6.3.1}Vergleich: $G_{np}(0.07)$ Netzwerke - $G_{np}(0.05)$ Netzwerke}{56}{subsubsection.6.3.1}}
\@writefile{lof}{\contentsline {figure}{\numberline {32}{\ignorespaces Die Abbildung zeigt die mittleren Persistenzlandschaften der Graphen nach den vorher beschriebenen Modellen, jeweils ohne die oberste Ebene. Man erkennt klar, dass sich die Landschaften nach dem $G_{np}$- und $G_{nm}$-Modell kaum bzw. nur in der Position unterscheiden, w\IeC {\"a}hrend das $BA$-Modell zu einer g\IeC {\"a}nzlich anderen Persistenzlandschaft f\IeC {\"u}hrt.\relax }}{57}{figure.caption.35}}
\newlabel{fig:meansOfSyntheticGraphs}{{32}{57}{Die Abbildung zeigt die mittleren Persistenzlandschaften der Graphen nach den vorher beschriebenen Modellen, jeweils ohne die oberste Ebene. Man erkennt klar, dass sich die Landschaften nach dem $G_{np}$- und $G_{nm}$-Modell kaum bzw. nur in der Position unterscheiden, während das $BA$-Modell zu einer gänzlich anderen Persistenzlandschaft führt.\relax }{figure.caption.35}{}}
\newlabel{fig:meansOfSyntheticGraphs@cref}{{[figure][32][]32}{57}}
\@writefile{toc}{\contentsline {subsubsection}{\numberline {6.3.2}Vergleich: $G_{np}$-Netzwerke - $G_{nm}$-Netzwerke}{58}{subsubsection.6.3.2}}
\@writefile{toc}{\contentsline {subsubsection}{\numberline {6.3.3}Vergleich: $G_{nm}$-Netzwerke - Barabasi-Albert-Netzwerke}{58}{subsubsection.6.3.3}}
\@writefile{toc}{\contentsline {subsection}{\numberline {6.4}Persistente Homologie von Graphen mit gemeinsamer Grad-Sequenz}{59}{subsection.6.4}}
\@writefile{toc}{\contentsline {subsubsection}{\numberline {6.4.1}Netzwerkmodelle mit fester Grad-Sequenz}{59}{subsubsection.6.4.1}}
\@writefile{toc}{\contentsline {subsubsection}{\numberline {6.4.2}Distanzen von Graphen mit fester Grad-Sequenz}{60}{subsubsection.6.4.2}}
\@writefile{toc}{\contentsline {subsection}{\numberline {6.5}Kernel-PCA auf synthetischen Daten}{60}{subsection.6.5}}
\newlabel{subsec:kpca}{{6.5}{60}{Kernel-PCA auf synthetischen Daten}{subsection.6.5}{}}
\newlabel{subsec:kpca@cref}{{[subsection][5][6]6.5}{60}}
\@writefile{lof}{\contentsline {figure}{\numberline {33}{\ignorespaces Distanzmatrizen zwischen Graphen mit fest gew\IeC {\"a}hlter Sequenz von Knotengraden. Links werden zuf\IeC {\"a}llig erzeugte Graphen einer festen Sequenz mit einem Baum derselben Sequenz verglichen, rechts werden dieselben Graphen mit dem Graphen nach dem Havel-Hakimi Modell verglichen. B\IeC {\"a}ume sowie Havel-Hakimi werden dabei nach einem Deterministischen Algorithmus erstellt, daher repr\IeC {\"a}sentieren die entsprechenden Indizes in der Distanzmatrix alle denselben Graph.\relax }}{61}{figure.caption.36}}
\newlabel{fig:degSeqDist}{{33}{61}{Distanzmatrizen zwischen Graphen mit fest gewählter Sequenz von Knotengraden. Links werden zufällig erzeugte Graphen einer festen Sequenz mit einem Baum derselben Sequenz verglichen, rechts werden dieselben Graphen mit dem Graphen nach dem Havel-Hakimi Modell verglichen. Bäume sowie Havel-Hakimi werden dabei nach einem Deterministischen Algorithmus erstellt, daher repräsentieren die entsprechenden Indizes in der Distanzmatrix alle denselben Graph.\relax }{figure.caption.36}{}}
\newlabel{fig:degSeqDist@cref}{{[figure][33][]33}{61}}
\@writefile{toc}{\contentsline {subsubsection}{\numberline {6.5.1}Grundlagen}{61}{subsubsection.6.5.1}}
\@writefile{toc}{\contentsline {subsubsection}{\numberline {6.5.2}Einbettung von Netzwerken}{63}{subsubsection.6.5.2}}
\@writefile{toc}{\contentsline {subsubsection}{\numberline {6.5.3}Fazit}{63}{subsubsection.6.5.3}}
\newlabel{subfig:BA-Gnm_sing_dist}{{34a}{64}{Barabasi-Albert - $G_{nm}$\relax }{figure.caption.37}{}}
\newlabel{subfig:BA-Gnm_sing_dist@cref}{{[subfigure][1][34]34a}{64}}
\newlabel{sub@subfig:BA-Gnm_sing_dist}{{a}{64}{Barabasi-Albert - $G_{nm}$\relax }{figure.caption.37}{}}
\newlabel{sub@subfig:BA-Gnm_sing_dist@cref}{{[subfigure][1][34]34a}{64}}
\newlabel{subfig:Gnp-Gnp_sing_dist}{{34b}{64}{$G_{np}(0.07)$ - $G_{np}(0.05)$\relax }{figure.caption.37}{}}
\newlabel{subfig:Gnp-Gnp_sing_dist@cref}{{[subfigure][2][34]34b}{64}}
\newlabel{sub@subfig:Gnp-Gnp_sing_dist}{{b}{64}{$G_{np}(0.07)$ - $G_{np}(0.05)$\relax }{figure.caption.37}{}}
\newlabel{sub@subfig:Gnp-Gnp_sing_dist@cref}{{[subfigure][2][34]34b}{64}}
\newlabel{subfig:Gnp-Gnm_sing_dist}{{34c}{64}{$G_{np}$ - $G_{nm}$\relax }{figure.caption.37}{}}
\newlabel{subfig:Gnp-Gnm_sing_dist@cref}{{[subfigure][3][34]34c}{64}}
\newlabel{sub@subfig:Gnp-Gnm_sing_dist}{{c}{64}{$G_{np}$ - $G_{nm}$\relax }{figure.caption.37}{}}
\newlabel{sub@subfig:Gnp-Gnm_sing_dist@cref}{{[subfigure][3][34]34c}{64}}
\@writefile{lof}{\contentsline {figure}{\numberline {34}{\ignorespaces Die Verteilung der Werte der \emph  {Hauptkomponenten} von Barabasi-Albert Graphen gegen\IeC {\"u}ber Erd\IeC {\H o}s-R\IeC {\'e}nyi Graphen \subref  {subfig:BA-Gnm_sing_dist} sowie die Verteilung von Erd\IeC {\H o}s-R\IeC {\'e}nyi Graphen unterschiedlicher Dichte \subref  {subfig:Gnp-Gnp_sing_dist} und zwischen Erd\IeC {\H o}s-R\IeC {\'e}nyi Graphen aus dem $G_{nm}$ sowie dem $G_{np}$ Modell \subref  {subfig:Gnp-Gnm_sing_dist}.\relax }}{64}{figure.caption.37}}
\newlabel{fig:kpcaNetworksSingleComp}{{34}{64}{Die Verteilung der Werte der \emph {Hauptkomponenten} von Barabasi-Albert Graphen gegenüber Erdős-Rényi Graphen \subref {subfig:BA-Gnm_sing_dist} sowie die Verteilung von Erdős-Rényi Graphen unterschiedlicher Dichte \subref {subfig:Gnp-Gnp_sing_dist} und zwischen Erdős-Rényi Graphen aus dem $G_{nm}$ sowie dem $G_{np}$ Modell \subref {subfig:Gnp-Gnm_sing_dist}.\relax }{figure.caption.37}{}}
\newlabel{fig:kpcaNetworksSingleComp@cref}{{[figure][34][]34}{64}}
\newlabel{subfig:BA-Gnm_proj}{{35a}{64}{Barabsi Albert - $G_{nm}$\relax }{figure.caption.38}{}}
\newlabel{subfig:BA-Gnm_proj@cref}{{[subfigure][1][35]35a}{64}}
\newlabel{sub@subfig:BA-Gnm_proj}{{a}{64}{Barabsi Albert - $G_{nm}$\relax }{figure.caption.38}{}}
\newlabel{sub@subfig:BA-Gnm_proj@cref}{{[subfigure][1][35]35a}{64}}
\newlabel{subfig:Gnp-Gnp_proj}{{35b}{64}{$G_{np}(0.7)$ - $G_{np}(0.5)$\relax }{figure.caption.38}{}}
\newlabel{subfig:Gnp-Gnp_proj@cref}{{[subfigure][2][35]35b}{64}}
\newlabel{sub@subfig:Gnp-Gnp_proj}{{b}{64}{$G_{np}(0.7)$ - $G_{np}(0.5)$\relax }{figure.caption.38}{}}
\newlabel{sub@subfig:Gnp-Gnp_proj@cref}{{[subfigure][2][35]35b}{64}}
\newlabel{subfig:Gnp-Gnm_proj}{{35c}{64}{$G_{np}$ - $G_{nm}$\relax }{figure.caption.38}{}}
\newlabel{subfig:Gnp-Gnm_proj@cref}{{[subfigure][3][35]35c}{64}}
\newlabel{sub@subfig:Gnp-Gnm_proj}{{c}{64}{$G_{np}$ - $G_{nm}$\relax }{figure.caption.38}{}}
\newlabel{sub@subfig:Gnp-Gnm_proj@cref}{{[subfigure][3][35]35c}{64}}
\@writefile{lof}{\contentsline {figure}{\numberline {35}{\ignorespaces Die Ergebnisse der Kernel-PCA best\IeC {\"a}tigen die Ergebnisse des vorangegangenen Kapitels. Barabasi-Albert und Erd\IeC {\H o}s-R\IeC {\'e}nyi Graphen bilden gut unterscheidbare Cluster \subref  {subfig:BA-Gnm_proj},\subref  {subfig:Gnp-Gnp_proj}, w\IeC {\"a}hrend das Verhalten von $G_{nm}$ und $G_{np}$ Graphen kaum unterscheidbar ist \subref  {subfig:Gnp-Gnm_proj}.\relax }}{64}{figure.caption.38}}
\newlabel{fig:kpcaProjection}{{35}{64}{Die Ergebnisse der Kernel-PCA bestätigen die Ergebnisse des vorangegangenen Kapitels. Barabasi-Albert und Erdős-Rényi Graphen bilden gut unterscheidbare Cluster \subref {subfig:BA-Gnm_proj},\subref {subfig:Gnp-Gnp_proj}, während das Verhalten von $G_{nm}$ und $G_{np}$ Graphen kaum unterscheidbar ist \subref {subfig:Gnp-Gnm_proj}.\relax }{figure.caption.38}{}}
\newlabel{fig:kpcaProjection@cref}{{[figure][35][]35}{64}}
\@setckpt{Sources/Persistente_Homologie_Netzwerke}{
\setcounter{page}{66}
\setcounter{equation}{2}
\setcounter{enumi}{2}
\setcounter{enumii}{0}
\setcounter{enumiii}{0}
\setcounter{enumiv}{0}
\setcounter{footnote}{2}
\setcounter{mpfootnote}{0}
\setcounter{part}{0}
\setcounter{section}{6}
\setcounter{subsection}{5}
\setcounter{subsubsection}{3}
\setcounter{paragraph}{0}
\setcounter{subparagraph}{0}
\setcounter{figure}{35}
\setcounter{table}{0}
\setcounter{FBcaption@count}{0}
\setcounter{tabx@nest}{0}
\setcounter{listtotal}{0}
\setcounter{listcount}{0}
\setcounter{liststart}{0}
\setcounter{liststop}{0}
\setcounter{citecount}{0}
\setcounter{citetotal}{0}
\setcounter{multicitecount}{0}
\setcounter{multicitetotal}{0}
\setcounter{instcount}{56}
\setcounter{maxnames}{99}
\setcounter{minnames}{1}
\setcounter{maxitems}{3}
\setcounter{minitems}{1}
\setcounter{citecounter}{0}
\setcounter{savedcitecounter}{0}
\setcounter{uniquelist}{0}
\setcounter{uniquename}{0}
\setcounter{refsection}{0}
\setcounter{refsegment}{0}
\setcounter{maxextratitle}{0}
\setcounter{maxextratitleyear}{0}
\setcounter{maxextradate}{0}
\setcounter{maxextraalpha}{0}
\setcounter{abbrvpenalty}{50}
\setcounter{highnamepenalty}{50}
\setcounter{lownamepenalty}{25}
\setcounter{maxparens}{3}
\setcounter{parenlevel}{0}
\setcounter{mincomprange}{10}
\setcounter{maxcomprange}{100000}
\setcounter{mincompwidth}{1}
\setcounter{afterword}{0}
\setcounter{savedafterword}{0}
\setcounter{annotator}{0}
\setcounter{savedannotator}{0}
\setcounter{author}{0}
\setcounter{savedauthor}{0}
\setcounter{bookauthor}{0}
\setcounter{savedbookauthor}{0}
\setcounter{commentator}{0}
\setcounter{savedcommentator}{0}
\setcounter{editor}{0}
\setcounter{savededitor}{0}
\setcounter{editora}{0}
\setcounter{savededitora}{0}
\setcounter{editorb}{0}
\setcounter{savededitorb}{0}
\setcounter{editorc}{0}
\setcounter{savededitorc}{0}
\setcounter{foreword}{0}
\setcounter{savedforeword}{0}
\setcounter{holder}{0}
\setcounter{savedholder}{0}
\setcounter{introduction}{0}
\setcounter{savedintroduction}{0}
\setcounter{namea}{0}
\setcounter{savednamea}{0}
\setcounter{nameb}{0}
\setcounter{savednameb}{0}
\setcounter{namec}{0}
\setcounter{savednamec}{0}
\setcounter{translator}{0}
\setcounter{savedtranslator}{0}
\setcounter{shortauthor}{0}
\setcounter{savedshortauthor}{0}
\setcounter{shorteditor}{0}
\setcounter{savedshorteditor}{0}
\setcounter{labelname}{0}
\setcounter{savedlabelname}{0}
\setcounter{institution}{0}
\setcounter{savedinstitution}{0}
\setcounter{lista}{0}
\setcounter{savedlista}{0}
\setcounter{listb}{0}
\setcounter{savedlistb}{0}
\setcounter{listc}{0}
\setcounter{savedlistc}{0}
\setcounter{listd}{0}
\setcounter{savedlistd}{0}
\setcounter{liste}{0}
\setcounter{savedliste}{0}
\setcounter{listf}{0}
\setcounter{savedlistf}{0}
\setcounter{location}{0}
\setcounter{savedlocation}{0}
\setcounter{organization}{0}
\setcounter{savedorganization}{0}
\setcounter{origlocation}{0}
\setcounter{savedoriglocation}{0}
\setcounter{origpublisher}{0}
\setcounter{savedorigpublisher}{0}
\setcounter{publisher}{0}
\setcounter{savedpublisher}{0}
\setcounter{language}{0}
\setcounter{savedlanguage}{0}
\setcounter{origlanguage}{0}
\setcounter{savedoriglanguage}{0}
\setcounter{pageref}{0}
\setcounter{savedpageref}{0}
\setcounter{textcitecount}{0}
\setcounter{textcitetotal}{0}
\setcounter{textcitemaxnames}{0}
\setcounter{biburlnumpenalty}{0}
\setcounter{biburlucpenalty}{0}
\setcounter{biburllcpenalty}{0}
\setcounter{smartand}{1}
\setcounter{bbx:relatedcount}{0}
\setcounter{bbx:relatedtotal}{0}
\setcounter{ContinuedFloat}{0}
\setcounter{subfigure}{3}
\setcounter{subtable}{0}
\setcounter{float@type}{8}
\setcounter{algorithm}{3}
\setcounter{ALG@line}{10}
\setcounter{ALG@rem}{10}
\setcounter{ALG@nested}{0}
\setcounter{ALG@Lnr}{2}
\setcounter{ALG@blocknr}{10}
\setcounter{ALG@storecount}{0}
\setcounter{ALG@tmpcounter}{0}
\setcounter{Item}{5}
\setcounter{Hfootnote}{2}
\setcounter{bookmark@seq@number}{0}
\setcounter{parentequation}{0}
\setcounter{svg@param@lastpage}{0}
\setcounter{svg@param@currpage}{-1}
\setcounter{defi}{42}
\setcounter{satz}{3}
\setcounter{lemma}{2}
\setcounter{section@level}{3}
}
