\relax 
\providecommand\hyper@newdestlabel[2]{}
\@writefile{toc}{\contentsline {section}{\numberline {7}Berechnung von Persistenzlandschaften auf Reddit-Graphen}{66}{section.7}}
\@writefile{toc}{\contentsline {subsection}{\numberline {7.1}Die Daten}{66}{subsection.7.1}}
\@writefile{toc}{\contentsline {subsection}{\numberline {7.2}Distanzmatrizen der Reddit Graphen}{66}{subsection.7.2}}
\newlabel{dist_reddit_0}{{36a}{67}{Distanzmatrix in Dimension $0$\relax }{figure.caption.39}{}}
\newlabel{dist_reddit_0@cref}{{[subfigure][1][36]36a}{67}}
\newlabel{sub@dist_reddit_0}{{a}{67}{Distanzmatrix in Dimension $0$\relax }{figure.caption.39}{}}
\newlabel{sub@dist_reddit_0@cref}{{[subfigure][1][36]36a}{67}}
\newlabel{dist_reddit_1}{{36b}{67}{Distanzmatrix in Dimension $1$\relax }{figure.caption.39}{}}
\newlabel{dist_reddit_1@cref}{{[subfigure][2][36]36b}{67}}
\newlabel{sub@dist_reddit_1}{{b}{67}{Distanzmatrix in Dimension $1$\relax }{figure.caption.39}{}}
\newlabel{sub@dist_reddit_1@cref}{{[subfigure][2][36]36b}{67}}
\@writefile{lof}{\contentsline {figure}{\numberline {36}{\ignorespaces width=0.8\linewidth }}{67}{figure.caption.39}}
\newlabel{fig:redditDistance}{{36}{67}{width=0.8\linewidth }{figure.caption.39}{}}
\newlabel{fig:redditDistance@cref}{{[figure][36][]36}{67}}
\@writefile{toc}{\contentsline {subsection}{\numberline {7.3}Kernel-PCA der Reddit-Graphen}{67}{subsection.7.3}}
\newlabel{sec:redditEvalPca}{{7.3}{67}{Kernel-PCA der Reddit-Graphen}{subsection.7.3}{}}
\newlabel{sec:redditEvalPca@cref}{{[subsection][3][7]7.3}{67}}
\@writefile{lof}{\contentsline {figure}{\numberline {37}{\ignorespaces Die Verteilung der Reddit-Graphen bez\IeC {\"u}glich der ersten $10$ Dimensionen der Kernel-PCA zeigt, dass sich beide Klassen sehr \IeC {\"a}hnlich verhalten. In dieser Abbildung wurden die Knoten mit $99\%$ Transparenz versehen, bei Werten die einen vollst\IeC {\"a}ndig Roten bzw. blauen Punkt zeigen, h\IeC {\"a}ufen sich also mindestens $100$ Punkte der jeweiligen Klasse. Um dieses Verhalten besser zu visualisieren wurden die Klassen in jeder Dimension untereinander eingezeichnet.\relax }}{68}{figure.caption.40}}
\newlabel{fig:kpcaSingleDimReddit}{{37}{68}{Die Verteilung der Reddit-Graphen bezüglich der ersten $10$ Dimensionen der Kernel-PCA zeigt, dass sich beide Klassen sehr ähnlich verhalten. In dieser Abbildung wurden die Knoten mit $99\%$ Transparenz versehen, bei Werten die einen vollständig Roten bzw. blauen Punkt zeigen, häufen sich also mindestens $100$ Punkte der jeweiligen Klasse. Um dieses Verhalten besser zu visualisieren wurden die Klassen in jeder Dimension untereinander eingezeichnet.\relax }{figure.caption.40}{}}
\newlabel{fig:kpcaSingleDimReddit@cref}{{[figure][37][]37}{68}}
\@writefile{lof}{\contentsline {figure}{\numberline {38}{\ignorespaces Die ersten $10$ Dimensionen der Kernel-PCA erkl\IeC {\"a}ren insgesamt ca. $81\%$ der Varianz des Datensatzes.\relax }}{69}{figure.caption.41}}
\newlabel{fig:kpcaVarTableReddit}{{38}{69}{Die ersten $10$ Dimensionen der Kernel-PCA erklären insgesamt ca. $81\%$ der Varianz des Datensatzes.\relax }{figure.caption.41}{}}
\newlabel{fig:kpcaVarTableReddit@cref}{{[figure][38][]38}{69}}
\@writefile{toc}{\contentsline {subsection}{\numberline {7.4}Voraussagen mithilfe von Support Vektor Maschinen}{69}{subsection.7.4}}
\@writefile{toc}{\contentsline {subsection}{\numberline {7.5}Fazit}{70}{subsection.7.5}}
\@setckpt{Sources/Persistenzlandschaften_auf_Reddit_Graphen}{
\setcounter{page}{71}
\setcounter{equation}{2}
\setcounter{enumi}{2}
\setcounter{enumii}{0}
\setcounter{enumiii}{0}
\setcounter{enumiv}{0}
\setcounter{footnote}{2}
\setcounter{mpfootnote}{0}
\setcounter{part}{0}
\setcounter{section}{7}
\setcounter{subsection}{5}
\setcounter{subsubsection}{0}
\setcounter{paragraph}{0}
\setcounter{subparagraph}{0}
\setcounter{figure}{38}
\setcounter{table}{0}
\setcounter{FBcaption@count}{0}
\setcounter{tabx@nest}{0}
\setcounter{listtotal}{0}
\setcounter{listcount}{0}
\setcounter{liststart}{0}
\setcounter{liststop}{0}
\setcounter{citecount}{0}
\setcounter{citetotal}{0}
\setcounter{multicitecount}{0}
\setcounter{multicitetotal}{0}
\setcounter{instcount}{60}
\setcounter{maxnames}{99}
\setcounter{minnames}{1}
\setcounter{maxitems}{3}
\setcounter{minitems}{1}
\setcounter{citecounter}{0}
\setcounter{savedcitecounter}{0}
\setcounter{uniquelist}{0}
\setcounter{uniquename}{0}
\setcounter{refsection}{0}
\setcounter{refsegment}{0}
\setcounter{maxextratitle}{0}
\setcounter{maxextratitleyear}{0}
\setcounter{maxextradate}{0}
\setcounter{maxextraalpha}{0}
\setcounter{abbrvpenalty}{50}
\setcounter{highnamepenalty}{50}
\setcounter{lownamepenalty}{25}
\setcounter{maxparens}{3}
\setcounter{parenlevel}{0}
\setcounter{mincomprange}{10}
\setcounter{maxcomprange}{100000}
\setcounter{mincompwidth}{1}
\setcounter{afterword}{0}
\setcounter{savedafterword}{0}
\setcounter{annotator}{0}
\setcounter{savedannotator}{0}
\setcounter{author}{0}
\setcounter{savedauthor}{0}
\setcounter{bookauthor}{0}
\setcounter{savedbookauthor}{0}
\setcounter{commentator}{0}
\setcounter{savedcommentator}{0}
\setcounter{editor}{0}
\setcounter{savededitor}{0}
\setcounter{editora}{0}
\setcounter{savededitora}{0}
\setcounter{editorb}{0}
\setcounter{savededitorb}{0}
\setcounter{editorc}{0}
\setcounter{savededitorc}{0}
\setcounter{foreword}{0}
\setcounter{savedforeword}{0}
\setcounter{holder}{0}
\setcounter{savedholder}{0}
\setcounter{introduction}{0}
\setcounter{savedintroduction}{0}
\setcounter{namea}{0}
\setcounter{savednamea}{0}
\setcounter{nameb}{0}
\setcounter{savednameb}{0}
\setcounter{namec}{0}
\setcounter{savednamec}{0}
\setcounter{translator}{0}
\setcounter{savedtranslator}{0}
\setcounter{shortauthor}{0}
\setcounter{savedshortauthor}{0}
\setcounter{shorteditor}{0}
\setcounter{savedshorteditor}{0}
\setcounter{labelname}{0}
\setcounter{savedlabelname}{0}
\setcounter{institution}{0}
\setcounter{savedinstitution}{0}
\setcounter{lista}{0}
\setcounter{savedlista}{0}
\setcounter{listb}{0}
\setcounter{savedlistb}{0}
\setcounter{listc}{0}
\setcounter{savedlistc}{0}
\setcounter{listd}{0}
\setcounter{savedlistd}{0}
\setcounter{liste}{0}
\setcounter{savedliste}{0}
\setcounter{listf}{0}
\setcounter{savedlistf}{0}
\setcounter{location}{0}
\setcounter{savedlocation}{0}
\setcounter{organization}{0}
\setcounter{savedorganization}{0}
\setcounter{origlocation}{0}
\setcounter{savedoriglocation}{0}
\setcounter{origpublisher}{0}
\setcounter{savedorigpublisher}{0}
\setcounter{publisher}{0}
\setcounter{savedpublisher}{0}
\setcounter{language}{0}
\setcounter{savedlanguage}{0}
\setcounter{origlanguage}{0}
\setcounter{savedoriglanguage}{0}
\setcounter{pageref}{0}
\setcounter{savedpageref}{0}
\setcounter{textcitecount}{0}
\setcounter{textcitetotal}{0}
\setcounter{textcitemaxnames}{0}
\setcounter{biburlnumpenalty}{0}
\setcounter{biburlucpenalty}{0}
\setcounter{biburllcpenalty}{0}
\setcounter{smartand}{1}
\setcounter{bbx:relatedcount}{0}
\setcounter{bbx:relatedtotal}{0}
\setcounter{ContinuedFloat}{0}
\setcounter{subfigure}{0}
\setcounter{subtable}{0}
\setcounter{float@type}{8}
\setcounter{algorithm}{3}
\setcounter{ALG@line}{10}
\setcounter{ALG@rem}{10}
\setcounter{ALG@nested}{0}
\setcounter{ALG@Lnr}{2}
\setcounter{ALG@blocknr}{10}
\setcounter{ALG@storecount}{0}
\setcounter{ALG@tmpcounter}{0}
\setcounter{Item}{5}
\setcounter{Hfootnote}{2}
\setcounter{bookmark@seq@number}{0}
\setcounter{parentequation}{0}
\setcounter{svg@param@lastpage}{0}
\setcounter{svg@param@currpage}{-1}
\setcounter{defi}{42}
\setcounter{satz}{3}
\setcounter{lemma}{2}
\setcounter{section@level}{2}
}
