# Persistence diagram </home/jens/Uni/data_topology/Project/Graph_Data/Synthetic_Gnm/gnm_11.gml>
#
# Dimension   : 0
# Entries     : 21
# Betti number: 1
48	inf
48	58
49	57
50	57
51	56
51	57
51	59
53	55
54	55
54	58
54	59
55	57
55	63
55	58
56	61
56	58
56	58
56	59
57	58
57	59
57	58


