# Persistence diagram </home/jens/Uni/data_topology/Project/Graph_Data/Synthetic_Gnm/gnm_80.gml>
#
# Dimension   : 0
# Entries     : 16
# Betti number: 1
47	inf
48	56
49	56
49	61
49	54
50	54
52	55
52	54
53	56
54	55
54	57
55	57
55	57
56	57
57	58
58	60


