# Persistence diagram </home/jens/Uni/data_topology/Project/Graph_Data/Synthetic_Gnm/gnm_96.gml>
#
# Dimension   : 0
# Entries     : 21
# Betti number: 1
47	inf
48	55
48	57
48	56
49	55
50	55
50	57
51	55
51	55
51	56
51	54
52	56
53	55
53	55
53	56
54	59
54	55
56	59
57	59
58	59
60	61


