# Persistence diagram </home/jens/Uni/data_topology/Project/Graph_Data/Synthetic_Gnm/gnm_48.gml>
#
# Dimension   : 0
# Entries     : 16
# Betti number: 1
46	inf
46	54
47	58
48	54
50	55
53	54
53	56
53	55
53	58
53	59
53	56
53	57
54	56
54	57
55	56
56	59


