# Persistence diagram </home/jens/Uni/data_topology/Project/Graph_Data/Synthetic_Gnm/gnm_66.gml>
#
# Dimension   : 0
# Entries     : 29
# Betti number: 1
46	inf
49	58
49	61
49	58
50	57
50	57
51	57
52	58
52	58
52	57
53	58
53	59
53	57
53	57
54	58
54	61
54	56
54	60
54	57
55	58
55	57
55	56
55	58
55	57
56	57
56	58
56	58
56	57
56	58


