# Persistence diagram </home/jens/Uni/data_topology/Project/Graph_Data/Synthetic_Gnm/gnm_76.gml>
#
# Dimension   : 0
# Entries     : 21
# Betti number: 1
44	inf
46	57
46	56
47	58
47	52
48	55
48	56
51	55
52	54
53	57
53	57
53	57
54	57
54	59
54	58
54	57
55	58
55	59
56	57
56	57
58	60


