<?xml version="1.0" encoding="utf-8" standalone="no"?>
<!DOCTYPE svg PUBLIC "-//W3C//DTD SVG 1.1//EN"
  "http://www.w3.org/Graphics/SVG/1.1/DTD/svg11.dtd">
<!-- Created with matplotlib (http://matplotlib.org/) -->
<svg height="288pt" version="1.1" viewBox="0 0 432 288" width="432pt" xmlns="http://www.w3.org/2000/svg" xmlns:xlink="http://www.w3.org/1999/xlink">
 <defs>
  <style type="text/css">
*{stroke-linecap:butt;stroke-linejoin:round;}
  </style>
 </defs>
 <g id="figure_1">
  <g id="patch_1">
   <path d="M 0 288 
L 432 288 
L 432 0 
L 0 0 
z
" style="fill:#ffffff;"/>
  </g>
  <g id="axes_1">
   <g id="patch_2">
    <path d="M 54 252 
L 388.8 252 
L 388.8 34.56 
L 54 34.56 
z
" style="fill:#ffffff;"/>
   </g>
   <g id="matplotlib.axis_1">
    <g id="xtick_1">
     <g id="line2d_1">
      <defs>
       <path d="M 0 0 
L 0 3.5 
" id="m9e18ab4f6d" style="stroke:#000000;stroke-width:0.8;"/>
      </defs>
      <g>
       <use style="stroke:#000000;stroke-width:0.8;" x="54" xlink:href="#m9e18ab4f6d" y="252"/>
      </g>
     </g>
     <g id="text_1">
      <!-- 0 -->
      <defs>
       <path d="M 31.78125 66.40625 
Q 24.171875 66.40625 20.328125 58.90625 
Q 16.5 51.421875 16.5 36.375 
Q 16.5 21.390625 20.328125 13.890625 
Q 24.171875 6.390625 31.78125 6.390625 
Q 39.453125 6.390625 43.28125 13.890625 
Q 47.125 21.390625 47.125 36.375 
Q 47.125 51.421875 43.28125 58.90625 
Q 39.453125 66.40625 31.78125 66.40625 
z
M 31.78125 74.21875 
Q 44.046875 74.21875 50.515625 64.515625 
Q 56.984375 54.828125 56.984375 36.375 
Q 56.984375 17.96875 50.515625 8.265625 
Q 44.046875 -1.421875 31.78125 -1.421875 
Q 19.53125 -1.421875 13.0625 8.265625 
Q 6.59375 17.96875 6.59375 36.375 
Q 6.59375 54.828125 13.0625 64.515625 
Q 19.53125 74.21875 31.78125 74.21875 
z
" id="DejaVuSans-30"/>
      </defs>
      <g transform="translate(50.81875 266.598437)scale(0.1 -0.1)">
       <use xlink:href="#DejaVuSans-30"/>
      </g>
     </g>
    </g>
    <g id="xtick_2">
     <g id="line2d_2">
      <g>
       <use style="stroke:#000000;stroke-width:0.8;" x="118.384615" xlink:href="#m9e18ab4f6d" y="252"/>
      </g>
     </g>
     <g id="text_2">
      <!-- 50 -->
      <defs>
       <path d="M 10.796875 72.90625 
L 49.515625 72.90625 
L 49.515625 64.59375 
L 19.828125 64.59375 
L 19.828125 46.734375 
Q 21.96875 47.46875 24.109375 47.828125 
Q 26.265625 48.1875 28.421875 48.1875 
Q 40.625 48.1875 47.75 41.5 
Q 54.890625 34.8125 54.890625 23.390625 
Q 54.890625 11.625 47.5625 5.09375 
Q 40.234375 -1.421875 26.90625 -1.421875 
Q 22.3125 -1.421875 17.546875 -0.640625 
Q 12.796875 0.140625 7.71875 1.703125 
L 7.71875 11.625 
Q 12.109375 9.234375 16.796875 8.0625 
Q 21.484375 6.890625 26.703125 6.890625 
Q 35.15625 6.890625 40.078125 11.328125 
Q 45.015625 15.765625 45.015625 23.390625 
Q 45.015625 31 40.078125 35.4375 
Q 35.15625 39.890625 26.703125 39.890625 
Q 22.75 39.890625 18.8125 39.015625 
Q 14.890625 38.140625 10.796875 36.28125 
z
" id="DejaVuSans-35"/>
      </defs>
      <g transform="translate(112.022115 266.598437)scale(0.1 -0.1)">
       <use xlink:href="#DejaVuSans-35"/>
       <use x="63.623047" xlink:href="#DejaVuSans-30"/>
      </g>
     </g>
    </g>
    <g id="xtick_3">
     <g id="line2d_3">
      <g>
       <use style="stroke:#000000;stroke-width:0.8;" x="182.769231" xlink:href="#m9e18ab4f6d" y="252"/>
      </g>
     </g>
     <g id="text_3">
      <!-- 100 -->
      <defs>
       <path d="M 12.40625 8.296875 
L 28.515625 8.296875 
L 28.515625 63.921875 
L 10.984375 60.40625 
L 10.984375 69.390625 
L 28.421875 72.90625 
L 38.28125 72.90625 
L 38.28125 8.296875 
L 54.390625 8.296875 
L 54.390625 0 
L 12.40625 0 
z
" id="DejaVuSans-31"/>
      </defs>
      <g transform="translate(173.225481 266.598437)scale(0.1 -0.1)">
       <use xlink:href="#DejaVuSans-31"/>
       <use x="63.623047" xlink:href="#DejaVuSans-30"/>
       <use x="127.246094" xlink:href="#DejaVuSans-30"/>
      </g>
     </g>
    </g>
    <g id="xtick_4">
     <g id="line2d_4">
      <g>
       <use style="stroke:#000000;stroke-width:0.8;" x="247.153846" xlink:href="#m9e18ab4f6d" y="252"/>
      </g>
     </g>
     <g id="text_4">
      <!-- 150 -->
      <g transform="translate(237.610096 266.598437)scale(0.1 -0.1)">
       <use xlink:href="#DejaVuSans-31"/>
       <use x="63.623047" xlink:href="#DejaVuSans-35"/>
       <use x="127.246094" xlink:href="#DejaVuSans-30"/>
      </g>
     </g>
    </g>
    <g id="xtick_5">
     <g id="line2d_5">
      <g>
       <use style="stroke:#000000;stroke-width:0.8;" x="311.538462" xlink:href="#m9e18ab4f6d" y="252"/>
      </g>
     </g>
     <g id="text_5">
      <!-- 200 -->
      <defs>
       <path d="M 19.1875 8.296875 
L 53.609375 8.296875 
L 53.609375 0 
L 7.328125 0 
L 7.328125 8.296875 
Q 12.9375 14.109375 22.625 23.890625 
Q 32.328125 33.6875 34.8125 36.53125 
Q 39.546875 41.84375 41.421875 45.53125 
Q 43.3125 49.21875 43.3125 52.78125 
Q 43.3125 58.59375 39.234375 62.25 
Q 35.15625 65.921875 28.609375 65.921875 
Q 23.96875 65.921875 18.8125 64.3125 
Q 13.671875 62.703125 7.8125 59.421875 
L 7.8125 69.390625 
Q 13.765625 71.78125 18.9375 73 
Q 24.125 74.21875 28.421875 74.21875 
Q 39.75 74.21875 46.484375 68.546875 
Q 53.21875 62.890625 53.21875 53.421875 
Q 53.21875 48.921875 51.53125 44.890625 
Q 49.859375 40.875 45.40625 35.40625 
Q 44.1875 33.984375 37.640625 27.21875 
Q 31.109375 20.453125 19.1875 8.296875 
z
" id="DejaVuSans-32"/>
      </defs>
      <g transform="translate(301.994712 266.598437)scale(0.1 -0.1)">
       <use xlink:href="#DejaVuSans-32"/>
       <use x="63.623047" xlink:href="#DejaVuSans-30"/>
       <use x="127.246094" xlink:href="#DejaVuSans-30"/>
      </g>
     </g>
    </g>
    <g id="xtick_6">
     <g id="line2d_6">
      <g>
       <use style="stroke:#000000;stroke-width:0.8;" x="375.923077" xlink:href="#m9e18ab4f6d" y="252"/>
      </g>
     </g>
     <g id="text_6">
      <!-- 250 -->
      <g transform="translate(366.379327 266.598437)scale(0.1 -0.1)">
       <use xlink:href="#DejaVuSans-32"/>
       <use x="63.623047" xlink:href="#DejaVuSans-35"/>
       <use x="127.246094" xlink:href="#DejaVuSans-30"/>
      </g>
     </g>
    </g>
   </g>
   <g id="matplotlib.axis_2">
    <g id="ytick_1">
     <g id="line2d_7">
      <defs>
       <path d="M 0 0 
L -3.5 0 
" id="mbebc956f59" style="stroke:#000000;stroke-width:0.8;"/>
      </defs>
      <g>
       <use style="stroke:#000000;stroke-width:0.8;" x="54" xlink:href="#mbebc956f59" y="252"/>
      </g>
     </g>
     <g id="text_7">
      <!-- 0 -->
      <g transform="translate(40.6375 255.799219)scale(0.1 -0.1)">
       <use xlink:href="#DejaVuSans-30"/>
      </g>
     </g>
    </g>
    <g id="ytick_2">
     <g id="line2d_8">
      <g>
       <use style="stroke:#000000;stroke-width:0.8;" x="54" xlink:href="#mbebc956f59" y="210.582857"/>
      </g>
     </g>
     <g id="text_8">
      <!-- 20 -->
      <g transform="translate(34.275 214.382076)scale(0.1 -0.1)">
       <use xlink:href="#DejaVuSans-32"/>
       <use x="63.623047" xlink:href="#DejaVuSans-30"/>
      </g>
     </g>
    </g>
    <g id="ytick_3">
     <g id="line2d_9">
      <g>
       <use style="stroke:#000000;stroke-width:0.8;" x="54" xlink:href="#mbebc956f59" y="169.165714"/>
      </g>
     </g>
     <g id="text_9">
      <!-- 40 -->
      <defs>
       <path d="M 37.796875 64.3125 
L 12.890625 25.390625 
L 37.796875 25.390625 
z
M 35.203125 72.90625 
L 47.609375 72.90625 
L 47.609375 25.390625 
L 58.015625 25.390625 
L 58.015625 17.1875 
L 47.609375 17.1875 
L 47.609375 0 
L 37.796875 0 
L 37.796875 17.1875 
L 4.890625 17.1875 
L 4.890625 26.703125 
z
" id="DejaVuSans-34"/>
      </defs>
      <g transform="translate(34.275 172.964933)scale(0.1 -0.1)">
       <use xlink:href="#DejaVuSans-34"/>
       <use x="63.623047" xlink:href="#DejaVuSans-30"/>
      </g>
     </g>
    </g>
    <g id="ytick_4">
     <g id="line2d_10">
      <g>
       <use style="stroke:#000000;stroke-width:0.8;" x="54" xlink:href="#mbebc956f59" y="127.748571"/>
      </g>
     </g>
     <g id="text_10">
      <!-- 60 -->
      <defs>
       <path d="M 33.015625 40.375 
Q 26.375 40.375 22.484375 35.828125 
Q 18.609375 31.296875 18.609375 23.390625 
Q 18.609375 15.53125 22.484375 10.953125 
Q 26.375 6.390625 33.015625 6.390625 
Q 39.65625 6.390625 43.53125 10.953125 
Q 47.40625 15.53125 47.40625 23.390625 
Q 47.40625 31.296875 43.53125 35.828125 
Q 39.65625 40.375 33.015625 40.375 
z
M 52.59375 71.296875 
L 52.59375 62.3125 
Q 48.875 64.0625 45.09375 64.984375 
Q 41.3125 65.921875 37.59375 65.921875 
Q 27.828125 65.921875 22.671875 59.328125 
Q 17.53125 52.734375 16.796875 39.40625 
Q 19.671875 43.65625 24.015625 45.921875 
Q 28.375 48.1875 33.59375 48.1875 
Q 44.578125 48.1875 50.953125 41.515625 
Q 57.328125 34.859375 57.328125 23.390625 
Q 57.328125 12.15625 50.6875 5.359375 
Q 44.046875 -1.421875 33.015625 -1.421875 
Q 20.359375 -1.421875 13.671875 8.265625 
Q 6.984375 17.96875 6.984375 36.375 
Q 6.984375 53.65625 15.1875 63.9375 
Q 23.390625 74.21875 37.203125 74.21875 
Q 40.921875 74.21875 44.703125 73.484375 
Q 48.484375 72.75 52.59375 71.296875 
z
" id="DejaVuSans-36"/>
      </defs>
      <g transform="translate(34.275 131.54779)scale(0.1 -0.1)">
       <use xlink:href="#DejaVuSans-36"/>
       <use x="63.623047" xlink:href="#DejaVuSans-30"/>
      </g>
     </g>
    </g>
    <g id="ytick_5">
     <g id="line2d_11">
      <g>
       <use style="stroke:#000000;stroke-width:0.8;" x="54" xlink:href="#mbebc956f59" y="86.331429"/>
      </g>
     </g>
     <g id="text_11">
      <!-- 80 -->
      <defs>
       <path d="M 31.78125 34.625 
Q 24.75 34.625 20.71875 30.859375 
Q 16.703125 27.09375 16.703125 20.515625 
Q 16.703125 13.921875 20.71875 10.15625 
Q 24.75 6.390625 31.78125 6.390625 
Q 38.8125 6.390625 42.859375 10.171875 
Q 46.921875 13.96875 46.921875 20.515625 
Q 46.921875 27.09375 42.890625 30.859375 
Q 38.875 34.625 31.78125 34.625 
z
M 21.921875 38.8125 
Q 15.578125 40.375 12.03125 44.71875 
Q 8.5 49.078125 8.5 55.328125 
Q 8.5 64.0625 14.71875 69.140625 
Q 20.953125 74.21875 31.78125 74.21875 
Q 42.671875 74.21875 48.875 69.140625 
Q 55.078125 64.0625 55.078125 55.328125 
Q 55.078125 49.078125 51.53125 44.71875 
Q 48 40.375 41.703125 38.8125 
Q 48.828125 37.15625 52.796875 32.3125 
Q 56.78125 27.484375 56.78125 20.515625 
Q 56.78125 9.90625 50.3125 4.234375 
Q 43.84375 -1.421875 31.78125 -1.421875 
Q 19.734375 -1.421875 13.25 4.234375 
Q 6.78125 9.90625 6.78125 20.515625 
Q 6.78125 27.484375 10.78125 32.3125 
Q 14.796875 37.15625 21.921875 38.8125 
z
M 18.3125 54.390625 
Q 18.3125 48.734375 21.84375 45.5625 
Q 25.390625 42.390625 31.78125 42.390625 
Q 38.140625 42.390625 41.71875 45.5625 
Q 45.3125 48.734375 45.3125 54.390625 
Q 45.3125 60.0625 41.71875 63.234375 
Q 38.140625 66.40625 31.78125 66.40625 
Q 25.390625 66.40625 21.84375 63.234375 
Q 18.3125 60.0625 18.3125 54.390625 
z
" id="DejaVuSans-38"/>
      </defs>
      <g transform="translate(34.275 90.130647)scale(0.1 -0.1)">
       <use xlink:href="#DejaVuSans-38"/>
       <use x="63.623047" xlink:href="#DejaVuSans-30"/>
      </g>
     </g>
    </g>
    <g id="ytick_6">
     <g id="line2d_12">
      <g>
       <use style="stroke:#000000;stroke-width:0.8;" x="54" xlink:href="#mbebc956f59" y="44.914286"/>
      </g>
     </g>
     <g id="text_12">
      <!-- 100 -->
      <g transform="translate(27.9125 48.713504)scale(0.1 -0.1)">
       <use xlink:href="#DejaVuSans-31"/>
       <use x="63.623047" xlink:href="#DejaVuSans-30"/>
       <use x="127.246094" xlink:href="#DejaVuSans-30"/>
      </g>
     </g>
    </g>
   </g>
   <g id="line2d_13">
    <path clip-path="url(#pd5ee4db8bf)" d="M 77.178462 252 
L 84.904615 251.875749 
L 86.192308 251.834331 
L 88.767692 251.627246 
L 90.055385 251.358034 
L 91.343077 250.716069 
L 92.630769 249.804891 
L 93.918462 248.458834 
L 95.206154 246.657189 
L 96.493846 244.60704 
L 177.618462 114.14304 
L 178.262308 113.12832 
L 178.906154 112.134309 
L 180.193846 110.187703 
L 180.837692 109.317943 
L 181.481538 108.551726 
L 182.125385 107.90976 
L 182.769231 107.412754 
L 183.413077 107.226377 
L 184.056923 107.18496 
L 184.700769 107.371337 
L 185.344615 107.868343 
L 185.988462 108.468891 
L 186.632308 109.152274 
L 187.276154 109.918491 
L 187.92 110.788251 
L 189.851538 113.70816 
L 265.181538 234.853303 
L 270.332308 242.971063 
L 275.483077 249.432137 
L 280.633846 251.585829 
L 285.784615 251.917166 
L 290.935385 252 
" style="fill:none;stroke:#1f77b4;stroke-linecap:square;stroke-width:1.5;"/>
   </g>
   <g id="line2d_14">
    <path clip-path="url(#pd5ee4db8bf)" d="M 82.329231 252 
L 88.767692 251.896457 
L 90.055385 251.85504 
L 91.343077 251.792914 
L 92.630769 251.668663 
L 93.918462 250.98528 
L 95.206154 249.68064 
L 96.493846 248.023954 
L 97.137692 247.102423 
L 97.781538 246.2016 
L 98.425385 245.311131 
L 99.069231 244.544914 
L 99.713077 243.944366 
L 100.356923 243.73728 
L 101.000769 243.820114 
L 101.644615 244.089326 
L 102.288462 244.420663 
L 102.932308 244.814126 
L 103.576154 245.166171 
L 104.22 245.704594 
L 104.863846 246.408686 
L 105.507692 246.967817 
L 106.151538 247.630491 
L 106.795385 248.438126 
L 107.439231 249.256114 
L 108.083077 250.094811 
L 108.726923 250.747131 
L 109.370769 251.461577 
L 110.014615 251.627246 
L 110.658462 251.896457 
L 111.946154 251.979291 
L 113.233846 252 
" style="fill:none;stroke:#ff7f0e;stroke-linecap:square;stroke-width:1.5;"/>
   </g>
   <g id="line2d_15">
    <path clip-path="url(#pd5ee4db8bf)" d="M 92.630769 252 
L 93.918462 251.85504 
L 95.206154 251.109531 
L 96.493846 249.763474 
L 97.781538 247.920411 
L 98.425385 246.9264 
L 99.069231 246.015223 
L 99.713077 245.435383 
L 100.356923 245.104046 
L 101.000769 245.207589 
L 101.644615 245.33184 
L 102.288462 245.725303 
L 102.932308 246.139474 
L 103.576154 246.595063 
L 104.22 247.195611 
L 104.863846 247.754743 
L 105.507692 248.458834 
L 106.151538 249.111154 
L 106.795385 249.8256 
L 107.439231 250.5504 
L 108.083077 251.295909 
L 108.726923 251.502994 
L 109.370769 251.896457 
L 110.014615 251.937874 
L 110.658462 252 
" style="fill:none;stroke:#2ca02c;stroke-linecap:square;stroke-width:1.5;"/>
   </g>
   <g id="line2d_16">
    <path clip-path="url(#pd5ee4db8bf)" d="M 92.630769 252 
L 93.918462 251.979291 
L 95.206154 251.71008 
L 96.493846 250.716069 
L 97.781538 249.1008 
L 98.425385 248.065371 
L 99.069231 247.154194 
L 99.713077 246.367269 
L 100.356923 246.118766 
L 101.000769 246.015223 
L 101.644615 246.180891 
L 102.288462 246.553646 
L 102.932308 246.988526 
L 103.576154 247.402697 
L 104.22 247.920411 
L 104.863846 248.438126 
L 105.507692 249.017966 
L 106.151538 249.763474 
L 106.795385 250.633234 
L 107.439231 251.026697 
L 108.083077 251.647954 
L 108.726923 251.761851 
L 109.370769 252 
" style="fill:none;stroke:#d62728;stroke-linecap:square;stroke-width:1.5;"/>
   </g>
   <g id="line2d_17">
    <path clip-path="url(#pd5ee4db8bf)" d="M 92.630769 252 
L 93.918462 251.979291 
L 95.206154 251.875749 
L 95.85 251.627246 
L 96.493846 251.378743 
L 97.781538 250.074103 
L 98.425385 249.162926 
L 99.069231 248.23104 
L 99.713077 247.464823 
L 100.356923 246.864274 
L 101.000769 246.657189 
L 101.644615 246.822857 
L 102.288462 247.154194 
L 102.932308 247.568366 
L 103.576154 247.961829 
L 104.22 248.417417 
L 104.863846 249.059383 
L 105.507692 249.514971 
L 106.151538 250.219063 
L 106.795385 251.068114 
L 107.439231 251.378743 
L 108.083077 251.917166 
L 108.726923 251.937874 
L 109.370769 252 
" style="fill:none;stroke:#9467bd;stroke-linecap:square;stroke-width:1.5;"/>
   </g>
   <g id="line2d_18">
    <path clip-path="url(#pd5ee4db8bf)" d="M 93.918462 252 
L 95.206154 251.979291 
L 96.493846 251.689371 
L 97.137692 251.233783 
L 97.781538 250.757486 
L 98.425385 249.908434 
L 99.069231 249.204343 
L 99.713077 248.324229 
L 100.356923 247.609783 
L 101.000769 247.319863 
L 101.644615 247.299154 
L 102.288462 247.589074 
L 102.932308 248.065371 
L 103.576154 248.52096 
L 104.22 248.914423 
L 104.863846 249.53568 
L 105.507692 250.074103 
L 106.151538 250.519337 
L 106.795385 251.337326 
L 107.439231 251.554766 
L 108.083077 251.937874 
L 108.726923 251.958583 
L 109.370769 252 
" style="fill:none;stroke:#8c564b;stroke-linecap:square;stroke-width:1.5;"/>
   </g>
   <g id="line2d_19">
    <path clip-path="url(#pd5ee4db8bf)" d="M 93.918462 252 
L 95.206154 251.979291 
L 95.85 251.948229 
L 96.493846 251.937874 
L 97.137692 251.6376 
L 97.781538 251.316617 
L 98.425385 250.581463 
L 99.069231 249.887726 
L 99.713077 248.95584 
L 100.356923 248.251749 
L 101.000769 247.858286 
L 101.644615 247.878994 
L 102.288462 247.982537 
L 102.932308 248.313874 
L 103.576154 248.873006 
L 104.22 249.411429 
L 104.863846 249.887726 
L 105.507692 250.446857 
L 106.151538 250.933509 
L 106.795385 251.544411 
L 107.439231 251.679017 
L 108.083077 252 
L 108.726923 251.968937 
L 109.370769 252 
" style="fill:none;stroke:#e377c2;stroke-linecap:square;stroke-width:1.5;"/>
   </g>
   <g id="line2d_20">
    <path clip-path="url(#pd5ee4db8bf)" d="M 95.206154 252 
L 96.493846 251.979291 
L 97.781538 251.482286 
L 98.425385 250.871383 
L 99.069231 250.26048 
L 99.713077 249.494263 
L 100.356923 248.935131 
L 101.000769 248.438126 
L 101.644615 248.210331 
L 102.288462 248.458834 
L 102.932308 248.686629 
L 103.576154 249.121509 
L 104.22 249.701349 
L 104.863846 250.156937 
L 105.507692 250.757486 
L 106.151538 251.109531 
L 106.795385 251.730789 
L 107.439231 251.792914 
L 108.083077 252 
" style="fill:none;stroke:#7f7f7f;stroke-linecap:square;stroke-width:1.5;"/>
   </g>
   <g id="line2d_21">
    <path clip-path="url(#pd5ee4db8bf)" d="M 96.493846 252 
L 97.137692 251.865394 
L 97.781538 251.751497 
L 98.425385 251.264846 
L 99.069231 250.84032 
L 99.713077 250.177646 
L 100.356923 249.514971 
L 101.000769 248.831589 
L 101.644615 248.603794 
L 102.288462 248.748754 
L 102.932308 248.95584 
L 103.576154 249.328594 
L 104.22 249.929143 
L 104.863846 250.446857 
L 105.507692 250.964571 
L 106.151538 251.233783 
L 106.795385 251.834331 
L 107.439231 251.865394 
L 108.083077 252 
" style="fill:none;stroke:#bcbd22;stroke-linecap:square;stroke-width:1.5;"/>
   </g>
   <g id="line2d_22">
    <path clip-path="url(#pd5ee4db8bf)" d="M 96.493846 252 
L 97.137692 251.948229 
L 97.781538 251.917166 
L 98.425385 251.575474 
L 99.069231 251.213074 
L 99.713077 250.457211 
L 100.356923 249.8256 
L 101.000769 249.256114 
L 101.644615 248.914423 
L 102.288462 249.017966 
L 102.932308 249.24576 
L 103.576154 249.577097 
L 104.22 250.136229 
L 104.863846 250.664297 
L 105.507692 251.316617 
L 106.151538 251.368389 
L 106.795385 251.896457 
L 107.439231 251.896457 
L 108.083077 252 
" style="fill:none;stroke:#17becf;stroke-linecap:square;stroke-width:1.5;"/>
   </g>
   <g id="line2d_23">
    <path clip-path="url(#pd5ee4db8bf)" d="M 96.493846 252 
L 97.137692 251.979291 
L 97.781538 252 
L 98.425385 251.761851 
L 99.069231 251.56512 
L 99.713077 250.923154 
L 100.356923 250.446857 
L 101.000769 249.732411 
L 101.644615 249.452846 
L 102.288462 249.266469 
L 102.932308 249.597806 
L 103.576154 249.918789 
L 104.22 250.281189 
L 104.863846 250.819611 
L 105.507692 251.523703 
L 106.151538 251.56512 
L 106.795385 251.917166 
L 107.439231 251.92752 
L 108.083077 252 
" style="fill:none;stroke:#1f77b4;stroke-linecap:square;stroke-width:1.5;"/>
   </g>
   <g id="line2d_24">
    <path clip-path="url(#pd5ee4db8bf)" d="M 97.781538 252 
L 98.425385 251.896457 
L 99.069231 251.813623 
L 99.713077 251.295909 
L 100.356923 250.964571 
L 101.000769 250.177646 
L 101.644615 249.804891 
L 102.288462 249.566743 
L 102.932308 249.8256 
L 103.576154 250.167291 
L 104.22 250.5504 
L 104.863846 250.974926 
L 105.507692 251.627246 
L 106.151538 251.658309 
L 106.795385 252 
L 107.439231 251.989646 
L 108.083077 252 
" style="fill:none;stroke:#ff7f0e;stroke-linecap:square;stroke-width:1.5;"/>
   </g>
   <g id="line2d_25">
    <path clip-path="url(#pd5ee4db8bf)" d="M 97.781538 252 
L 98.425385 251.937874 
L 99.069231 251.958583 
L 99.713077 251.575474 
L 100.356923 251.316617 
L 101.000769 250.581463 
L 101.644615 250.11552 
L 102.288462 249.929143 
L 102.932308 250.074103 
L 103.576154 250.312251 
L 104.22 250.861029 
L 104.863846 251.109531 
L 105.507692 251.772206 
L 106.151538 251.751497 
L 106.795385 252 
L 107.439231 251.989646 
L 108.083077 252 
" style="fill:none;stroke:#2ca02c;stroke-linecap:square;stroke-width:1.5;"/>
   </g>
   <g id="line2d_26">
    <path clip-path="url(#pd5ee4db8bf)" d="M 97.781538 252 
L 98.425385 251.989646 
L 99.069231 252 
L 99.713077 251.699726 
L 100.356923 251.502994 
L 101.000769 250.933509 
L 101.644615 250.508983 
L 102.288462 250.239771 
L 102.932308 250.26048 
L 103.576154 250.5504 
L 104.22 251.026697 
L 104.863846 251.192366 
L 105.507692 251.813623 
L 106.151538 251.803269 
L 106.795385 252 
L 107.439231 251.989646 
L 108.083077 252 
" style="fill:none;stroke:#d62728;stroke-linecap:square;stroke-width:1.5;"/>
   </g>
   <g id="line2d_27">
    <path clip-path="url(#pd5ee4db8bf)" d="M 99.069231 252 
L 99.713077 251.803269 
L 100.356923 251.689371 
L 101.000769 251.244137 
L 101.644615 250.798903 
L 102.288462 250.508983 
L 102.932308 250.467566 
L 103.576154 250.788549 
L 104.22 251.2752 
L 104.863846 251.264846 
L 105.507692 251.875749 
L 106.151538 251.875749 
L 106.795385 252 
L 107.439231 251.989646 
L 108.083077 252 
" style="fill:none;stroke:#9467bd;stroke-linecap:square;stroke-width:1.5;"/>
   </g>
   <g id="line2d_28">
    <path clip-path="url(#pd5ee4db8bf)" d="M 99.069231 252 
L 99.713077 251.937874 
L 100.356923 251.937874 
L 101.000769 251.42016 
L 101.644615 251.192366 
L 102.288462 250.819611 
L 102.932308 250.736777 
L 103.576154 250.923154 
L 104.22 251.42016 
L 104.863846 251.378743 
L 105.507692 251.896457 
L 106.151538 251.896457 
L 106.795385 252 
" style="fill:none;stroke:#8c564b;stroke-linecap:square;stroke-width:1.5;"/>
   </g>
   <g id="line2d_29">
    <path clip-path="url(#pd5ee4db8bf)" d="M 99.069231 252 
L 100.356923 251.958583 
L 101.000769 251.554766 
L 101.644615 251.440869 
L 102.288462 250.954217 
L 102.932308 251.005989 
L 103.576154 251.078469 
L 104.22 251.523703 
L 104.863846 251.461577 
L 105.507692 251.917166 
L 106.151538 251.937874 
L 106.795385 252 
" style="fill:none;stroke:#e377c2;stroke-linecap:square;stroke-width:1.5;"/>
   </g>
   <g id="line2d_30">
    <path clip-path="url(#pd5ee4db8bf)" d="M 99.069231 252 
L 100.356923 251.958583 
L 101.000769 251.627246 
L 101.644615 251.668663 
L 102.288462 251.037051 
L 102.932308 251.213074 
L 103.576154 251.213074 
L 104.22 251.627246 
L 104.863846 251.616891 
L 105.507692 251.958583 
L 106.151538 251.958583 
L 106.795385 252 
" style="fill:none;stroke:#7f7f7f;stroke-linecap:square;stroke-width:1.5;"/>
   </g>
   <g id="line2d_31">
    <path clip-path="url(#pd5ee4db8bf)" d="M 99.069231 252 
L 99.713077 251.979291 
L 100.356923 251.979291 
L 101.000769 251.772206 
L 101.644615 251.772206 
L 102.288462 251.20272 
L 102.932308 251.56512 
L 103.576154 251.316617 
L 104.22 251.730789 
L 104.863846 251.699726 
L 105.507692 251.979291 
L 106.151538 251.958583 
L 106.795385 252 
" style="fill:none;stroke:#bcbd22;stroke-linecap:square;stroke-width:1.5;"/>
   </g>
   <g id="line2d_32">
    <path clip-path="url(#pd5ee4db8bf)" d="M 99.069231 252 
L 99.713077 251.989646 
L 100.356923 252 
L 101.000769 251.823977 
L 101.644615 251.875749 
L 102.288462 251.389097 
L 102.932308 251.647954 
L 103.576154 251.389097 
L 104.22 251.813623 
L 104.863846 251.761851 
L 105.507692 252 
L 106.151538 251.968937 
L 106.795385 252 
" style="fill:none;stroke:#17becf;stroke-linecap:square;stroke-width:1.5;"/>
   </g>
   <g id="line2d_33">
    <path clip-path="url(#pd5ee4db8bf)" d="M 100.356923 252 
L 101.000769 251.906811 
L 101.644615 251.917166 
L 102.288462 251.56512 
L 102.932308 251.772206 
L 103.576154 251.440869 
L 104.22 251.875749 
L 104.863846 251.813623 
L 105.507692 252 
L 106.151538 251.979291 
L 106.795385 252 
" style="fill:none;stroke:#1f77b4;stroke-linecap:square;stroke-width:1.5;"/>
   </g>
   <g id="line2d_34">
    <path clip-path="url(#pd5ee4db8bf)" d="M 100.356923 252 
L 101.000769 251.968937 
L 101.644615 251.958583 
L 102.288462 251.730789 
L 102.932308 251.875749 
L 103.576154 251.596183 
L 104.22 251.896457 
L 104.863846 251.834331 
L 105.507692 252 
" style="fill:none;stroke:#ff7f0e;stroke-linecap:square;stroke-width:1.5;"/>
   </g>
   <g id="line2d_35">
    <path clip-path="url(#pd5ee4db8bf)" d="M 100.356923 252 
L 101.000769 251.979291 
L 101.644615 251.979291 
L 102.288462 251.85504 
L 102.932308 251.917166 
L 103.576154 251.679017 
L 104.22 251.917166 
L 104.863846 251.865394 
L 105.507692 252 
" style="fill:none;stroke:#2ca02c;stroke-linecap:square;stroke-width:1.5;"/>
   </g>
   <g id="line2d_36">
    <path clip-path="url(#pd5ee4db8bf)" d="M 100.356923 252 
L 101.000769 251.979291 
L 101.644615 251.979291 
L 102.288462 251.917166 
L 102.932308 251.958583 
L 103.576154 251.803269 
L 104.22 251.937874 
L 104.863846 251.896457 
L 105.507692 252 
" style="fill:none;stroke:#d62728;stroke-linecap:square;stroke-width:1.5;"/>
   </g>
   <g id="line2d_37">
    <path clip-path="url(#pd5ee4db8bf)" d="M 100.356923 252 
L 101.000769 251.989646 
L 101.644615 252 
L 102.288462 251.937874 
L 102.932308 251.979291 
L 103.576154 251.85504 
L 104.22 251.958583 
L 104.863846 251.917166 
L 105.507692 252 
" style="fill:none;stroke:#9467bd;stroke-linecap:square;stroke-width:1.5;"/>
   </g>
   <g id="line2d_38">
    <path clip-path="url(#pd5ee4db8bf)" d="M 100.356923 252 
L 101.000769 251.989646 
L 101.644615 252 
L 102.288462 251.968937 
L 102.932308 252 
L 103.576154 251.85504 
L 104.22 252 
L 104.863846 251.948229 
L 105.507692 252 
" style="fill:none;stroke:#8c564b;stroke-linecap:square;stroke-width:1.5;"/>
   </g>
   <g id="line2d_39">
    <path clip-path="url(#pd5ee4db8bf)" d="M 101.644615 252 
L 102.288462 251.968937 
L 102.932308 252 
L 103.576154 251.906811 
L 104.22 252 
L 104.863846 251.958583 
L 105.507692 252 
" style="fill:none;stroke:#e377c2;stroke-linecap:square;stroke-width:1.5;"/>
   </g>
   <g id="line2d_40">
    <path clip-path="url(#pd5ee4db8bf)" d="M 101.644615 252 
L 102.288462 251.989646 
L 102.932308 252 
L 103.576154 251.92752 
L 104.22 252 
L 104.863846 251.968937 
L 105.507692 252 
" style="fill:none;stroke:#7f7f7f;stroke-linecap:square;stroke-width:1.5;"/>
   </g>
   <g id="line2d_41">
    <path clip-path="url(#pd5ee4db8bf)" d="M 101.644615 252 
L 102.288462 251.989646 
L 102.932308 252 
L 103.576154 251.948229 
L 104.22 252 
L 104.863846 251.989646 
L 105.507692 252 
" style="fill:none;stroke:#bcbd22;stroke-linecap:square;stroke-width:1.5;"/>
   </g>
   <g id="line2d_42">
    <path clip-path="url(#pd5ee4db8bf)" d="M 101.644615 252 
L 102.288462 251.989646 
L 102.932308 252 
L 103.576154 251.968937 
L 104.22 252 
" style="fill:none;stroke:#17becf;stroke-linecap:square;stroke-width:1.5;"/>
   </g>
   <g id="line2d_43">
    <path clip-path="url(#pd5ee4db8bf)" d="M 101.644615 252 
L 102.288462 251.989646 
L 102.932308 252 
" style="fill:none;stroke:#1f77b4;stroke-linecap:square;stroke-width:1.5;"/>
   </g>
   <g id="line2d_44">
    <path clip-path="url(#pd5ee4db8bf)" d="M 101.644615 252 
L 102.288462 251.989646 
L 102.932308 252 
" style="fill:none;stroke:#ff7f0e;stroke-linecap:square;stroke-width:1.5;"/>
   </g>
   <g id="line2d_45">
    <path clip-path="url(#pd5ee4db8bf)" d="M 101.644615 252 
L 102.288462 251.989646 
L 102.932308 252 
" style="fill:none;stroke:#2ca02c;stroke-linecap:square;stroke-width:1.5;"/>
   </g>
   <g id="patch_3">
    <path d="M 54 252 
L 54 34.56 
" style="fill:none;stroke:#000000;stroke-linecap:square;stroke-linejoin:miter;stroke-width:0.8;"/>
   </g>
   <g id="patch_4">
    <path d="M 388.8 252 
L 388.8 34.56 
" style="fill:none;stroke:#000000;stroke-linecap:square;stroke-linejoin:miter;stroke-width:0.8;"/>
   </g>
   <g id="patch_5">
    <path d="M 54 252 
L 388.8 252 
" style="fill:none;stroke:#000000;stroke-linecap:square;stroke-linejoin:miter;stroke-width:0.8;"/>
   </g>
   <g id="patch_6">
    <path d="M 54 34.56 
L 388.8 34.56 
" style="fill:none;stroke:#000000;stroke-linecap:square;stroke-linejoin:miter;stroke-width:0.8;"/>
   </g>
  </g>
 </g>
 <defs>
  <clipPath id="pd5ee4db8bf">
   <rect height="217.44" width="334.8" x="54" y="34.56"/>
  </clipPath>
 </defs>
</svg>
