<?xml version="1.0" encoding="utf-8" standalone="no"?>
<!DOCTYPE svg PUBLIC "-//W3C//DTD SVG 1.1//EN"
  "http://www.w3.org/Graphics/SVG/1.1/DTD/svg11.dtd">
<!-- Created with matplotlib (http://matplotlib.org/) -->
<svg height="288pt" version="1.1" viewBox="0 0 432 288" width="432pt" xmlns="http://www.w3.org/2000/svg" xmlns:xlink="http://www.w3.org/1999/xlink">
 <defs>
  <style type="text/css">
*{stroke-linecap:butt;stroke-linejoin:round;}
  </style>
 </defs>
 <g id="figure_1">
  <g id="patch_1">
   <path d="M 0 288 
L 432 288 
L 432 0 
L 0 0 
z
" style="fill:#ffffff;"/>
  </g>
  <g id="axes_1">
   <g id="patch_2">
    <path d="M 54 252 
L 388.8 252 
L 388.8 34.56 
L 54 34.56 
z
" style="fill:#ffffff;"/>
   </g>
   <g id="matplotlib.axis_1">
    <g id="xtick_1">
     <g id="line2d_1">
      <defs>
       <path d="M 0 0 
L 0 3.5 
" id="mdf3e985b72" style="stroke:#000000;stroke-width:0.8;"/>
      </defs>
      <g>
       <use style="stroke:#000000;stroke-width:0.8;" x="54" xlink:href="#mdf3e985b72" y="252"/>
      </g>
     </g>
     <g id="text_1">
      <!-- 0 -->
      <defs>
       <path d="M 31.78125 66.40625 
Q 24.171875 66.40625 20.328125 58.90625 
Q 16.5 51.421875 16.5 36.375 
Q 16.5 21.390625 20.328125 13.890625 
Q 24.171875 6.390625 31.78125 6.390625 
Q 39.453125 6.390625 43.28125 13.890625 
Q 47.125 21.390625 47.125 36.375 
Q 47.125 51.421875 43.28125 58.90625 
Q 39.453125 66.40625 31.78125 66.40625 
z
M 31.78125 74.21875 
Q 44.046875 74.21875 50.515625 64.515625 
Q 56.984375 54.828125 56.984375 36.375 
Q 56.984375 17.96875 50.515625 8.265625 
Q 44.046875 -1.421875 31.78125 -1.421875 
Q 19.53125 -1.421875 13.0625 8.265625 
Q 6.59375 17.96875 6.59375 36.375 
Q 6.59375 54.828125 13.0625 64.515625 
Q 19.53125 74.21875 31.78125 74.21875 
z
" id="DejaVuSans-30"/>
      </defs>
      <g transform="translate(50.81875 266.598437)scale(0.1 -0.1)">
       <use xlink:href="#DejaVuSans-30"/>
      </g>
     </g>
    </g>
    <g id="xtick_2">
     <g id="line2d_2">
      <g>
       <use style="stroke:#000000;stroke-width:0.8;" x="118.384615" xlink:href="#mdf3e985b72" y="252"/>
      </g>
     </g>
     <g id="text_2">
      <!-- 50 -->
      <defs>
       <path d="M 10.796875 72.90625 
L 49.515625 72.90625 
L 49.515625 64.59375 
L 19.828125 64.59375 
L 19.828125 46.734375 
Q 21.96875 47.46875 24.109375 47.828125 
Q 26.265625 48.1875 28.421875 48.1875 
Q 40.625 48.1875 47.75 41.5 
Q 54.890625 34.8125 54.890625 23.390625 
Q 54.890625 11.625 47.5625 5.09375 
Q 40.234375 -1.421875 26.90625 -1.421875 
Q 22.3125 -1.421875 17.546875 -0.640625 
Q 12.796875 0.140625 7.71875 1.703125 
L 7.71875 11.625 
Q 12.109375 9.234375 16.796875 8.0625 
Q 21.484375 6.890625 26.703125 6.890625 
Q 35.15625 6.890625 40.078125 11.328125 
Q 45.015625 15.765625 45.015625 23.390625 
Q 45.015625 31 40.078125 35.4375 
Q 35.15625 39.890625 26.703125 39.890625 
Q 22.75 39.890625 18.8125 39.015625 
Q 14.890625 38.140625 10.796875 36.28125 
z
" id="DejaVuSans-35"/>
      </defs>
      <g transform="translate(112.022115 266.598437)scale(0.1 -0.1)">
       <use xlink:href="#DejaVuSans-35"/>
       <use x="63.623047" xlink:href="#DejaVuSans-30"/>
      </g>
     </g>
    </g>
    <g id="xtick_3">
     <g id="line2d_3">
      <g>
       <use style="stroke:#000000;stroke-width:0.8;" x="182.769231" xlink:href="#mdf3e985b72" y="252"/>
      </g>
     </g>
     <g id="text_3">
      <!-- 100 -->
      <defs>
       <path d="M 12.40625 8.296875 
L 28.515625 8.296875 
L 28.515625 63.921875 
L 10.984375 60.40625 
L 10.984375 69.390625 
L 28.421875 72.90625 
L 38.28125 72.90625 
L 38.28125 8.296875 
L 54.390625 8.296875 
L 54.390625 0 
L 12.40625 0 
z
" id="DejaVuSans-31"/>
      </defs>
      <g transform="translate(173.225481 266.598437)scale(0.1 -0.1)">
       <use xlink:href="#DejaVuSans-31"/>
       <use x="63.623047" xlink:href="#DejaVuSans-30"/>
       <use x="127.246094" xlink:href="#DejaVuSans-30"/>
      </g>
     </g>
    </g>
    <g id="xtick_4">
     <g id="line2d_4">
      <g>
       <use style="stroke:#000000;stroke-width:0.8;" x="247.153846" xlink:href="#mdf3e985b72" y="252"/>
      </g>
     </g>
     <g id="text_4">
      <!-- 150 -->
      <g transform="translate(237.610096 266.598437)scale(0.1 -0.1)">
       <use xlink:href="#DejaVuSans-31"/>
       <use x="63.623047" xlink:href="#DejaVuSans-35"/>
       <use x="127.246094" xlink:href="#DejaVuSans-30"/>
      </g>
     </g>
    </g>
    <g id="xtick_5">
     <g id="line2d_5">
      <g>
       <use style="stroke:#000000;stroke-width:0.8;" x="311.538462" xlink:href="#mdf3e985b72" y="252"/>
      </g>
     </g>
     <g id="text_5">
      <!-- 200 -->
      <defs>
       <path d="M 19.1875 8.296875 
L 53.609375 8.296875 
L 53.609375 0 
L 7.328125 0 
L 7.328125 8.296875 
Q 12.9375 14.109375 22.625 23.890625 
Q 32.328125 33.6875 34.8125 36.53125 
Q 39.546875 41.84375 41.421875 45.53125 
Q 43.3125 49.21875 43.3125 52.78125 
Q 43.3125 58.59375 39.234375 62.25 
Q 35.15625 65.921875 28.609375 65.921875 
Q 23.96875 65.921875 18.8125 64.3125 
Q 13.671875 62.703125 7.8125 59.421875 
L 7.8125 69.390625 
Q 13.765625 71.78125 18.9375 73 
Q 24.125 74.21875 28.421875 74.21875 
Q 39.75 74.21875 46.484375 68.546875 
Q 53.21875 62.890625 53.21875 53.421875 
Q 53.21875 48.921875 51.53125 44.890625 
Q 49.859375 40.875 45.40625 35.40625 
Q 44.1875 33.984375 37.640625 27.21875 
Q 31.109375 20.453125 19.1875 8.296875 
z
" id="DejaVuSans-32"/>
      </defs>
      <g transform="translate(301.994712 266.598437)scale(0.1 -0.1)">
       <use xlink:href="#DejaVuSans-32"/>
       <use x="63.623047" xlink:href="#DejaVuSans-30"/>
       <use x="127.246094" xlink:href="#DejaVuSans-30"/>
      </g>
     </g>
    </g>
    <g id="xtick_6">
     <g id="line2d_6">
      <g>
       <use style="stroke:#000000;stroke-width:0.8;" x="375.923077" xlink:href="#mdf3e985b72" y="252"/>
      </g>
     </g>
     <g id="text_6">
      <!-- 250 -->
      <g transform="translate(366.379327 266.598437)scale(0.1 -0.1)">
       <use xlink:href="#DejaVuSans-32"/>
       <use x="63.623047" xlink:href="#DejaVuSans-35"/>
       <use x="127.246094" xlink:href="#DejaVuSans-30"/>
      </g>
     </g>
    </g>
   </g>
   <g id="matplotlib.axis_2">
    <g id="ytick_1">
     <g id="line2d_7">
      <defs>
       <path d="M 0 0 
L -3.5 0 
" id="m287b4305e4" style="stroke:#000000;stroke-width:0.8;"/>
      </defs>
      <g>
       <use style="stroke:#000000;stroke-width:0.8;" x="54" xlink:href="#m287b4305e4" y="252"/>
      </g>
     </g>
     <g id="text_7">
      <!-- 0 -->
      <g transform="translate(40.6375 255.799219)scale(0.1 -0.1)">
       <use xlink:href="#DejaVuSans-30"/>
      </g>
     </g>
    </g>
    <g id="ytick_2">
     <g id="line2d_8">
      <g>
       <use style="stroke:#000000;stroke-width:0.8;" x="54" xlink:href="#m287b4305e4" y="210.582857"/>
      </g>
     </g>
     <g id="text_8">
      <!-- 20 -->
      <g transform="translate(34.275 214.382076)scale(0.1 -0.1)">
       <use xlink:href="#DejaVuSans-32"/>
       <use x="63.623047" xlink:href="#DejaVuSans-30"/>
      </g>
     </g>
    </g>
    <g id="ytick_3">
     <g id="line2d_9">
      <g>
       <use style="stroke:#000000;stroke-width:0.8;" x="54" xlink:href="#m287b4305e4" y="169.165714"/>
      </g>
     </g>
     <g id="text_9">
      <!-- 40 -->
      <defs>
       <path d="M 37.796875 64.3125 
L 12.890625 25.390625 
L 37.796875 25.390625 
z
M 35.203125 72.90625 
L 47.609375 72.90625 
L 47.609375 25.390625 
L 58.015625 25.390625 
L 58.015625 17.1875 
L 47.609375 17.1875 
L 47.609375 0 
L 37.796875 0 
L 37.796875 17.1875 
L 4.890625 17.1875 
L 4.890625 26.703125 
z
" id="DejaVuSans-34"/>
      </defs>
      <g transform="translate(34.275 172.964933)scale(0.1 -0.1)">
       <use xlink:href="#DejaVuSans-34"/>
       <use x="63.623047" xlink:href="#DejaVuSans-30"/>
      </g>
     </g>
    </g>
    <g id="ytick_4">
     <g id="line2d_10">
      <g>
       <use style="stroke:#000000;stroke-width:0.8;" x="54" xlink:href="#m287b4305e4" y="127.748571"/>
      </g>
     </g>
     <g id="text_10">
      <!-- 60 -->
      <defs>
       <path d="M 33.015625 40.375 
Q 26.375 40.375 22.484375 35.828125 
Q 18.609375 31.296875 18.609375 23.390625 
Q 18.609375 15.53125 22.484375 10.953125 
Q 26.375 6.390625 33.015625 6.390625 
Q 39.65625 6.390625 43.53125 10.953125 
Q 47.40625 15.53125 47.40625 23.390625 
Q 47.40625 31.296875 43.53125 35.828125 
Q 39.65625 40.375 33.015625 40.375 
z
M 52.59375 71.296875 
L 52.59375 62.3125 
Q 48.875 64.0625 45.09375 64.984375 
Q 41.3125 65.921875 37.59375 65.921875 
Q 27.828125 65.921875 22.671875 59.328125 
Q 17.53125 52.734375 16.796875 39.40625 
Q 19.671875 43.65625 24.015625 45.921875 
Q 28.375 48.1875 33.59375 48.1875 
Q 44.578125 48.1875 50.953125 41.515625 
Q 57.328125 34.859375 57.328125 23.390625 
Q 57.328125 12.15625 50.6875 5.359375 
Q 44.046875 -1.421875 33.015625 -1.421875 
Q 20.359375 -1.421875 13.671875 8.265625 
Q 6.984375 17.96875 6.984375 36.375 
Q 6.984375 53.65625 15.1875 63.9375 
Q 23.390625 74.21875 37.203125 74.21875 
Q 40.921875 74.21875 44.703125 73.484375 
Q 48.484375 72.75 52.59375 71.296875 
z
" id="DejaVuSans-36"/>
      </defs>
      <g transform="translate(34.275 131.54779)scale(0.1 -0.1)">
       <use xlink:href="#DejaVuSans-36"/>
       <use x="63.623047" xlink:href="#DejaVuSans-30"/>
      </g>
     </g>
    </g>
    <g id="ytick_5">
     <g id="line2d_11">
      <g>
       <use style="stroke:#000000;stroke-width:0.8;" x="54" xlink:href="#m287b4305e4" y="86.331429"/>
      </g>
     </g>
     <g id="text_11">
      <!-- 80 -->
      <defs>
       <path d="M 31.78125 34.625 
Q 24.75 34.625 20.71875 30.859375 
Q 16.703125 27.09375 16.703125 20.515625 
Q 16.703125 13.921875 20.71875 10.15625 
Q 24.75 6.390625 31.78125 6.390625 
Q 38.8125 6.390625 42.859375 10.171875 
Q 46.921875 13.96875 46.921875 20.515625 
Q 46.921875 27.09375 42.890625 30.859375 
Q 38.875 34.625 31.78125 34.625 
z
M 21.921875 38.8125 
Q 15.578125 40.375 12.03125 44.71875 
Q 8.5 49.078125 8.5 55.328125 
Q 8.5 64.0625 14.71875 69.140625 
Q 20.953125 74.21875 31.78125 74.21875 
Q 42.671875 74.21875 48.875 69.140625 
Q 55.078125 64.0625 55.078125 55.328125 
Q 55.078125 49.078125 51.53125 44.71875 
Q 48 40.375 41.703125 38.8125 
Q 48.828125 37.15625 52.796875 32.3125 
Q 56.78125 27.484375 56.78125 20.515625 
Q 56.78125 9.90625 50.3125 4.234375 
Q 43.84375 -1.421875 31.78125 -1.421875 
Q 19.734375 -1.421875 13.25 4.234375 
Q 6.78125 9.90625 6.78125 20.515625 
Q 6.78125 27.484375 10.78125 32.3125 
Q 14.796875 37.15625 21.921875 38.8125 
z
M 18.3125 54.390625 
Q 18.3125 48.734375 21.84375 45.5625 
Q 25.390625 42.390625 31.78125 42.390625 
Q 38.140625 42.390625 41.71875 45.5625 
Q 45.3125 48.734375 45.3125 54.390625 
Q 45.3125 60.0625 41.71875 63.234375 
Q 38.140625 66.40625 31.78125 66.40625 
Q 25.390625 66.40625 21.84375 63.234375 
Q 18.3125 60.0625 18.3125 54.390625 
z
" id="DejaVuSans-38"/>
      </defs>
      <g transform="translate(34.275 90.130647)scale(0.1 -0.1)">
       <use xlink:href="#DejaVuSans-38"/>
       <use x="63.623047" xlink:href="#DejaVuSans-30"/>
      </g>
     </g>
    </g>
    <g id="ytick_6">
     <g id="line2d_12">
      <g>
       <use style="stroke:#000000;stroke-width:0.8;" x="54" xlink:href="#m287b4305e4" y="44.914286"/>
      </g>
     </g>
     <g id="text_12">
      <!-- 100 -->
      <g transform="translate(27.9125 48.713504)scale(0.1 -0.1)">
       <use xlink:href="#DejaVuSans-31"/>
       <use x="63.623047" xlink:href="#DejaVuSans-30"/>
       <use x="127.246094" xlink:href="#DejaVuSans-30"/>
      </g>
     </g>
    </g>
   </g>
   <g id="line2d_13">
    <path clip-path="url(#p813a9a1865)" d="M 101.644615 252 
L 102.932308 251.979291 
L 104.22 251.917166 
L 105.507692 251.813623 
L 106.795385 251.689371 
L 108.083077 251.544411 
L 109.370769 251.295909 
L 110.658462 250.84032 
L 111.946154 250.239771 
L 113.233846 249.225051 
L 114.521538 248.003246 
L 115.809231 246.512229 
L 117.096923 244.731291 
L 118.384615 242.763977 
L 119.672308 240.713829 
L 230.413846 62.620114 
L 231.057692 61.605394 
L 232.345385 59.700206 
L 232.989231 58.830446 
L 233.633077 58.022811 
L 234.276923 57.256594 
L 234.920769 56.531794 
L 235.564615 55.889829 
L 236.208462 55.330697 
L 236.852308 54.937234 
L 237.496154 54.70944 
L 238.14 54.688731 
L 238.783846 54.730149 
L 239.427692 54.916526 
L 240.071538 55.206446 
L 240.715385 55.703451 
L 241.359231 56.304 
L 242.003077 57.0288 
L 242.646923 57.877851 
L 243.290769 58.76832 
L 244.578462 60.756343 
L 245.222308 61.771063 
L 352.744615 234.687634 
L 357.895385 242.556891 
L 363.046154 248.355291 
L 368.196923 251.42016 
L 373.347692 252 
" style="fill:none;stroke:#1f77b4;stroke-linecap:square;stroke-width:1.5;"/>
   </g>
   <g id="line2d_14">
    <path clip-path="url(#p813a9a1865)" d="M 105.507692 252 
L 109.370769 251.937874 
L 110.658462 251.896457 
L 111.946154 251.751497 
L 113.233846 251.482286 
L 114.521538 250.861029 
L 115.165385 250.364023 
L 115.809231 249.887726 
L 117.096923 248.603794 
L 117.740769 247.765097 
L 118.384615 246.884983 
L 119.028462 246.025577 
L 119.672308 245.249006 
L 120.316154 244.617394 
L 120.96 244.151451 
L 121.603846 243.820114 
L 122.247692 243.675154 
L 122.891538 243.799406 
L 123.535385 243.985783 
L 124.179231 244.441371 
L 124.823077 244.876251 
L 125.466923 245.207589 
L 126.110769 245.787429 
L 126.754615 246.429394 
L 127.398462 247.21632 
L 128.042308 247.951474 
L 128.686154 248.748754 
L 129.33 249.4632 
L 129.973846 250.11552 
L 130.617692 250.633234 
L 131.261538 251.192366 
L 131.905385 251.471931 
L 132.549231 251.85504 
L 133.836923 252 
" style="fill:none;stroke:#ff7f0e;stroke-linecap:square;stroke-width:1.5;"/>
   </g>
   <g id="line2d_15">
    <path clip-path="url(#p813a9a1865)" d="M 110.658462 252 
L 111.946154 251.979291 
L 113.233846 251.896457 
L 114.521538 251.751497 
L 115.165385 251.502994 
L 115.809231 251.2752 
L 116.453077 250.829966 
L 117.096923 250.40544 
L 117.740769 249.649577 
L 118.384615 248.935131 
L 119.028462 248.106789 
L 119.672308 247.36128 
L 120.316154 246.626126 
L 120.96 246.015223 
L 121.603846 245.828846 
L 122.247692 245.663177 
L 122.891538 245.704594 
L 123.535385 246.160183 
L 124.179231 246.429394 
L 124.823077 246.822857 
L 125.466923 247.112777 
L 126.110769 247.526949 
L 126.754615 248.127497 
L 127.398462 248.81088 
L 128.042308 249.566743 
L 128.686154 250.343314 
L 129.33 250.726423 
L 129.973846 251.461577 
L 130.617692 251.647954 
L 131.261538 251.937874 
L 131.905385 251.958583 
L 132.549231 252 
" style="fill:none;stroke:#2ca02c;stroke-linecap:square;stroke-width:1.5;"/>
   </g>
   <g id="line2d_16">
    <path clip-path="url(#p813a9a1865)" d="M 113.233846 252 
L 114.521538 251.979291 
L 115.809231 251.875749 
L 117.096923 251.399451 
L 117.740769 250.954217 
L 118.384615 250.467566 
L 119.028462 249.711703 
L 119.672308 248.976549 
L 120.316154 248.210331 
L 120.96 247.50624 
L 121.603846 246.967817 
L 122.247692 246.802149 
L 122.891538 246.905691 
L 123.535385 247.050651 
L 124.179231 247.381989 
L 124.823077 247.713326 
L 125.466923 248.106789 
L 126.110769 248.645211 
L 126.754615 249.183634 
L 127.398462 249.68064 
L 128.042308 250.33296 
L 128.686154 251.005989 
L 129.33 251.316617 
L 129.973846 251.834331 
L 130.617692 251.844686 
L 131.261538 251.979291 
L 132.549231 252 
" style="fill:none;stroke:#d62728;stroke-linecap:square;stroke-width:1.5;"/>
   </g>
   <g id="line2d_17">
    <path clip-path="url(#p813a9a1865)" d="M 114.521538 252 
L 115.809231 251.958583 
L 117.096923 251.772206 
L 117.740769 251.399451 
L 118.384615 251.068114 
L 119.028462 250.446857 
L 119.672308 249.929143 
L 120.316154 249.121509 
L 120.96 248.52096 
L 121.603846 247.847931 
L 122.247692 247.630491 
L 122.891538 247.599429 
L 123.535385 247.713326 
L 124.179231 248.003246 
L 124.823077 248.355291 
L 125.466923 248.790171 
L 126.110769 249.328594 
L 126.754615 249.89808 
L 127.398462 250.467566 
L 128.042308 250.809257 
L 128.686154 251.502994 
L 129.33 251.596183 
L 129.973846 251.937874 
L 130.617692 251.958583 
L 131.261538 252 
" style="fill:none;stroke:#9467bd;stroke-linecap:square;stroke-width:1.5;"/>
   </g>
   <g id="line2d_18">
    <path clip-path="url(#p813a9a1865)" d="M 114.521538 252 
L 115.809231 251.979291 
L 117.096923 251.937874 
L 118.384615 251.461577 
L 119.028462 251.037051 
L 119.672308 250.69536 
L 120.316154 250.094811 
L 120.96 249.53568 
L 121.603846 248.821234 
L 122.247692 248.562377 
L 122.891538 248.44848 
L 123.535385 248.396709 
L 124.179231 248.603794 
L 124.823077 248.852297 
L 125.466923 249.193989 
L 126.110769 249.722057 
L 126.754615 250.312251 
L 127.398462 250.943863 
L 128.042308 251.223429 
L 128.686154 251.71008 
L 129.33 251.792914 
L 129.973846 251.979291 
L 131.261538 252 
" style="fill:none;stroke:#8c564b;stroke-linecap:square;stroke-width:1.5;"/>
   </g>
   <g id="line2d_19">
    <path clip-path="url(#p813a9a1865)" d="M 115.809231 252 
L 117.096923 251.958583 
L 117.740769 251.875749 
L 118.384615 251.834331 
L 119.672308 251.192366 
L 120.316154 250.62288 
L 120.96 250.219063 
L 121.603846 249.556389 
L 122.247692 249.121509 
L 122.891538 249.02832 
L 123.535385 248.95584 
L 124.179231 249.1008 
L 124.823077 249.432137 
L 125.466923 249.784183 
L 126.110769 250.156937 
L 126.754615 250.653943 
L 127.398462 251.378743 
L 128.042308 251.471931 
L 128.686154 251.917166 
L 129.33 251.875749 
L 129.973846 252 
" style="fill:none;stroke:#e377c2;stroke-linecap:square;stroke-width:1.5;"/>
   </g>
   <g id="line2d_20">
    <path clip-path="url(#p813a9a1865)" d="M 117.096923 252 
L 118.384615 251.937874 
L 119.028462 251.71008 
L 119.672308 251.502994 
L 120.316154 251.099177 
L 120.96 250.757486 
L 121.603846 250.229417 
L 122.247692 249.846309 
L 122.891538 249.4632 
L 123.535385 249.514971 
L 124.179231 249.494263 
L 124.823077 249.867017 
L 125.466923 250.063749 
L 126.110769 250.5504 
L 126.754615 250.954217 
L 127.398462 251.647954 
L 128.042308 251.689371 
L 128.686154 252 
L 129.33 251.968937 
L 129.973846 252 
" style="fill:none;stroke:#7f7f7f;stroke-linecap:square;stroke-width:1.5;"/>
   </g>
   <g id="line2d_21">
    <path clip-path="url(#p813a9a1865)" d="M 117.096923 252 
L 118.384615 251.979291 
L 119.028462 251.865394 
L 119.672308 251.792914 
L 120.316154 251.482286 
L 120.96 251.171657 
L 121.603846 250.716069 
L 122.247692 250.446857 
L 122.891538 250.022331 
L 123.535385 249.991269 
L 124.179231 250.011977 
L 124.823077 250.26048 
L 125.466923 250.47792 
L 126.110769 250.902446 
L 126.754615 251.150949 
L 127.398462 251.751497 
L 128.042308 251.751497 
L 128.686154 252 
" style="fill:none;stroke:#bcbd22;stroke-linecap:square;stroke-width:1.5;"/>
   </g>
   <g id="line2d_22">
    <path clip-path="url(#p813a9a1865)" d="M 118.384615 252 
L 119.672308 251.917166 
L 120.316154 251.627246 
L 120.96 251.461577 
L 121.603846 251.109531 
L 122.247692 250.881737 
L 122.891538 250.540046 
L 123.535385 250.364023 
L 124.179231 250.436503 
L 124.823077 250.508983 
L 125.466923 250.757486 
L 126.110769 251.254491 
L 126.754615 251.285554 
L 127.398462 251.834331 
L 128.042308 251.85504 
L 128.686154 252 
" style="fill:none;stroke:#17becf;stroke-linecap:square;stroke-width:1.5;"/>
   </g>
   <g id="line2d_23">
    <path clip-path="url(#p813a9a1865)" d="M 118.384615 252 
L 119.672308 251.958583 
L 120.316154 251.813623 
L 120.96 251.689371 
L 121.603846 251.337326 
L 122.247692 251.233783 
L 122.891538 250.84032 
L 123.535385 250.778194 
L 124.179231 250.736777 
L 124.823077 250.778194 
L 125.466923 251.005989 
L 126.110769 251.627246 
L 126.754615 251.49264 
L 127.398462 251.958583 
L 128.042308 251.875749 
L 128.686154 252 
" style="fill:none;stroke:#1f77b4;stroke-linecap:square;stroke-width:1.5;"/>
   </g>
   <g id="line2d_24">
    <path clip-path="url(#p813a9a1865)" d="M 118.384615 252 
L 119.672308 251.979291 
L 120.316154 251.937874 
L 120.96 251.958583 
L 121.603846 251.699726 
L 122.247692 251.523703 
L 122.891538 251.161303 
L 123.535385 251.088823 
L 124.179231 250.892091 
L 124.823077 251.150949 
L 125.466923 251.161303 
L 126.110769 251.772206 
L 126.754615 251.6376 
L 127.398462 252 
L 128.042308 251.958583 
L 128.686154 252 
" style="fill:none;stroke:#ff7f0e;stroke-linecap:square;stroke-width:1.5;"/>
   </g>
   <g id="line2d_25">
    <path clip-path="url(#p813a9a1865)" d="M 119.672308 252 
L 120.316154 251.989646 
L 120.96 252 
L 121.603846 251.813623 
L 122.247692 251.751497 
L 122.891538 251.49264 
L 123.535385 251.523703 
L 124.179231 251.140594 
L 124.823077 251.440869 
L 125.466923 251.389097 
L 126.110769 251.896457 
L 126.754615 251.761851 
L 127.398462 252 
L 128.042308 251.989646 
L 128.686154 252 
" style="fill:none;stroke:#2ca02c;stroke-linecap:square;stroke-width:1.5;"/>
   </g>
   <g id="line2d_26">
    <path clip-path="url(#p813a9a1865)" d="M 120.96 252 
L 121.603846 251.937874 
L 122.247692 251.958583 
L 122.891538 251.647954 
L 123.535385 251.730789 
L 124.179231 251.378743 
L 124.823077 251.71008 
L 125.466923 251.513349 
L 126.110769 251.896457 
L 126.754615 251.875749 
L 127.398462 252 
" style="fill:none;stroke:#d62728;stroke-linecap:square;stroke-width:1.5;"/>
   </g>
   <g id="line2d_27">
    <path clip-path="url(#p813a9a1865)" d="M 120.96 252 
L 121.603846 251.968937 
L 122.247692 251.979291 
L 122.891538 251.792914 
L 123.535385 251.834331 
L 124.179231 251.575474 
L 124.823077 251.85504 
L 125.466923 251.647954 
L 126.110769 251.917166 
L 126.754615 251.937874 
L 127.398462 252 
" style="fill:none;stroke:#9467bd;stroke-linecap:square;stroke-width:1.5;"/>
   </g>
   <g id="line2d_28">
    <path clip-path="url(#p813a9a1865)" d="M 120.96 252 
L 121.603846 251.979291 
L 122.247692 251.979291 
L 122.891538 251.875749 
L 123.535385 251.937874 
L 124.179231 251.751497 
L 124.823077 251.937874 
L 125.466923 251.813623 
L 126.110769 251.958583 
L 126.754615 251.948229 
L 127.398462 252 
" style="fill:none;stroke:#8c564b;stroke-linecap:square;stroke-width:1.5;"/>
   </g>
   <g id="line2d_29">
    <path clip-path="url(#p813a9a1865)" d="M 120.96 252 
L 121.603846 251.989646 
L 122.247692 252 
L 122.891538 251.958583 
L 123.535385 251.958583 
L 124.179231 251.875749 
L 124.823077 252 
L 125.466923 251.865394 
L 126.110769 251.979291 
L 126.754615 251.958583 
L 127.398462 252 
" style="fill:none;stroke:#e377c2;stroke-linecap:square;stroke-width:1.5;"/>
   </g>
   <g id="line2d_30">
    <path clip-path="url(#p813a9a1865)" d="M 122.247692 252 
L 122.891538 251.979291 
L 123.535385 251.979291 
L 124.179231 251.958583 
L 124.823077 252 
L 125.466923 251.896457 
L 126.110769 251.979291 
L 126.754615 251.968937 
L 127.398462 252 
" style="fill:none;stroke:#7f7f7f;stroke-linecap:square;stroke-width:1.5;"/>
   </g>
   <g id="line2d_31">
    <path clip-path="url(#p813a9a1865)" d="M 123.535385 252 
L 124.179231 251.989646 
L 124.823077 252 
L 125.466923 251.968937 
L 126.110769 252 
L 126.754615 251.979291 
L 127.398462 252 
" style="fill:none;stroke:#bcbd22;stroke-linecap:square;stroke-width:1.5;"/>
   </g>
   <g id="line2d_32">
    <path clip-path="url(#p813a9a1865)" d="M 123.535385 252 
L 124.179231 251.989646 
L 124.823077 252 
L 125.466923 251.979291 
L 126.110769 252 
L 126.754615 251.979291 
L 127.398462 252 
" style="fill:none;stroke:#17becf;stroke-linecap:square;stroke-width:1.5;"/>
   </g>
   <g id="line2d_33">
    <path clip-path="url(#p813a9a1865)" d="M 126.110769 252 
L 126.754615 251.989646 
L 127.398462 252 
" style="fill:none;stroke:#1f77b4;stroke-linecap:square;stroke-width:1.5;"/>
   </g>
   <g id="patch_3">
    <path d="M 54 252 
L 54 34.56 
" style="fill:none;stroke:#000000;stroke-linecap:square;stroke-linejoin:miter;stroke-width:0.8;"/>
   </g>
   <g id="patch_4">
    <path d="M 388.8 252 
L 388.8 34.56 
" style="fill:none;stroke:#000000;stroke-linecap:square;stroke-linejoin:miter;stroke-width:0.8;"/>
   </g>
   <g id="patch_5">
    <path d="M 54 252 
L 388.8 252 
" style="fill:none;stroke:#000000;stroke-linecap:square;stroke-linejoin:miter;stroke-width:0.8;"/>
   </g>
   <g id="patch_6">
    <path d="M 54 34.56 
L 388.8 34.56 
" style="fill:none;stroke:#000000;stroke-linecap:square;stroke-linejoin:miter;stroke-width:0.8;"/>
   </g>
  </g>
 </g>
 <defs>
  <clipPath id="p813a9a1865">
   <rect height="217.44" width="334.8" x="54" y="34.56"/>
  </clipPath>
 </defs>
</svg>
