-0.460297	-0.406279	0.141295
-0.417228	0.0112818	0.471904
0.507403	-0.197116	-0.317155
-0.0974079	0.573204	-0.242587
-0.535151	0.317731	0.0977766
0.567816	-0.244743	0.120771
0.0432316	-0.206671	-0.593564
-0.0772772	-0.59984	0.17641
0.501499	0.291343	0.246005
0.296128	-0.533437	-0.157015
0.554592	0.00268353	0.298866
0.619594	0.103783	-0.0472486
0.117492	0.445676	0.429498
-0.156391	-0.036066	-0.609214
-0.201443	0.574561	0.161865
0.44834	0.103217	0.430392
0.518839	-0.353356	-0.0533393
0.258	-0.26589	0.509548
0.0711485	0.0968411	0.618433
0.622186	-0.0974728	0.0168589
0.15872	-0.546584	0.2701
-0.0157454	0.62648	-0.0646111
-0.0411326	-0.111948	-0.618608
-0.449177	-0.154864	-0.413712
-0.551631	0.0214589	-0.303551
0.0196227	-0.43658	-0.453777
-0.406207	-0.393096	0.278157
0.325754	0.358457	-0.402856
-0.0254448	-0.624176	0.0815916
0.113062	0.467185	-0.407253
0.382361	-0.384505	-0.320712
0.173295	-0.111806	-0.595288
-0.372687	0.304468	-0.406575
0.415528	0.438875	0.177836
-0.418156	-0.372175	0.289018
-0.010687	-0.629908	-0.00112241
0.10463	0.513026	0.350367
-0.365463	-0.214952	-0.465975
-0.0345677	-0.334478	0.532757
0.0204883	0.333799	0.533909
0.125296	0.0338467	-0.616486
0.30712	-0.511203	0.203096
0.387256	-0.420135	-0.265367
0.620179	0.00850058	0.110481
-0.215189	0.188757	-0.561217
-0.598353	0.194953	0.0294366
0.399544	-0.395255	0.284672
0.0485944	-0.606753	-0.162446
-0.379516	-0.177951	-0.47032
0.514434	-0.362618	0.0276689
0.394128	0.252932	-0.421412
0.206308	0.258698	0.536109
0.295272	-0.555497	0.0337306
0.478307	-0.127156	0.389812
0.492352	-0.376335	0.113406
-0.449061	-0.421431	0.132817
-0.459966	0.425376	0.0662348
0.0226255	0.21426	-0.592014
-0.491222	0.394425	0.00549001
-0.520847	0.291309	0.201886
-0.0170144	-0.378886	0.503047
0.536506	0.321866	-0.0739162
0.0780322	-0.564612	0.268374
-0.605774	-0.0440338	0.167328
0.128416	-0.0978388	0.608964
0.047462	0.624796	-0.0654014
-0.286297	-0.495753	0.262989
-0.484403	-0.388823	-0.105216
0.34376	0.328267	0.413484
-0.28774	-0.550556	-0.104851
0.0311115	0.488783	0.396261
0.474018	-0.322091	0.261657
0.598664	-0.102514	0.167311
0.109644	0.397913	-0.475966
0.400497	-0.272362	-0.402891
0.172473	0.54286	-0.269177
0.164181	0.386707	-0.46947
-0.356758	-0.374385	-0.359805
-0.0670767	0.171138	0.602588
-0.45743	-0.357192	-0.245095
-0.0811686	-0.321172	-0.535873
0.563622	0.115586	0.256653
-0.46967	0.395912	-0.13987
-0.112587	-0.55336	0.279314
-0.166201	0.402718	-0.455077
0.110906	-0.23671	0.573209
-0.38619	-0.00611803	-0.497715
0.215288	0.432277	0.404583
0.623274	0.0722836	-0.0566134
0.598389	-0.13174	-0.146544
0.170401	-0.499922	-0.343426
-0.19095	-0.190538	-0.569327
-0.505331	0.362513	-0.100623
0.127476	-0.243618	0.566833
0.29037	-0.25405	0.49804
0.0315336	0.317538	-0.543208
0.555493	-0.0502522	0.29292
0.0285135	0.546146	0.312749
0.559035	0.20047	-0.210217
-0.457434	0.245888	0.356641
0.390849	-0.360325	-0.338088
-0.480022	0.363109	-0.186092
0.475845	0.0778296	-0.405479
0.21347	0.321748	-0.497804
-0.558905	0.29006	0.0197623
-0.0179645	-0.558096	0.291729
0.178543	0.46882	-0.381092
0.532604	0.303526	0.145277
-0.623553	-0.062642	-0.0644782
0.368019	0.289333	-0.421602
-0.0554016	0.191329	-0.597682
-0.026469	0.533141	-0.334604
-0.546047	0.236403	-0.206992
-0.163565	-0.00260421	-0.608391
-0.413769	0.42083	0.220448
-0.265074	-0.504926	-0.267742
-0.0340321	0.389266	0.49418
0.463268	-0.180522	-0.386904
-0.463132	0.389262	-0.175738
-0.512836	0.244356	0.272377
-0.378284	-0.253754	0.435213
-0.602562	-0.0670907	-0.171223
-0.456765	-0.277542	-0.333521
-0.399288	0.487278	-0.00544249
0.265047	0.571351	-0.0144312
-0.579546	0.102245	-0.224884
-0.361422	0.0536298	-0.513223
-0.359102	-0.33973	-0.390549
-0.611525	-0.106528	-0.107649
0.444129	0.445185	0.0382029
0.478196	-0.244055	-0.329644
0.56811	0.144371	-0.230886
-0.485532	0.0334532	0.400049
0.183496	0.276482	0.535525
0.417218	0.471978	0.00811368
0.280139	0.496923	-0.267376
0.144671	-0.539467	-0.291454
-0.00499804	-0.130506	-0.616314
0.117665	0.564162	0.254511
-0.142078	-0.315573	-0.526429
0.00776895	0.370329	0.509604
-0.256824	-0.456476	-0.350101
-0.098699	-0.615816	-0.0890457
-0.55542	-0.156628	0.252739
0.591465	0.207983	-0.0617472
0.550161	0.0936453	-0.292324
-0.315356	0.513855	0.182766
-0.281858	-0.276295	-0.491037
0.475118	-0.0749563	0.406872
0.185988	-0.599986	-0.0482212
0.0822759	-0.365512	0.506489
0.0516863	-0.556435	-0.290877
0.0455639	0.539099	0.322795
0.583777	0.0951912	-0.216893
-0.321321	-0.180406	-0.510985
-0.0804325	0.624818	0.00579407
0.290955	0.508795	-0.231025
0.438724	0.446381	-0.0718689
0.0720804	-0.124246	-0.613406
0.19049	0.414942	0.434093
-0.564123	-0.232558	-0.156786
0.515162	-0.33724	-0.133334
-0.0236602	-0.213068	0.592404
-0.536077	-0.243279	-0.224359
-0.386607	0.223173	0.444554
0.0948558	-0.508305	-0.3599
-0.625403	0.0648165	-0.0396188
0.335838	-0.0804853	-0.526911
-0.38254	0.428959	-0.257987
0.51647	-0.09465	-0.348139
0.361187	0.112162	-0.503849
-0.143759	-0.579323	0.201541
-0.540459	0.0111476	-0.323542
-0.62672	-0.0358156	0.0532885
0.29003	-0.474755	-0.295618
0.239693	0.500799	-0.297738
0.306665	0.29441	0.464951
0.0685502	0.232788	0.581387
-0.60242	0.0445536	-0.178899
-0.578139	-0.233112	0.0911823
-0.0993846	0.622109	0.00169681
0.359093	-0.448599	-0.258285
-0.607282	0.100363	0.134299
-0.407414	0.159946	0.453134
0.202558	-0.428833	0.414695
-0.197311	-0.5967	-0.043787
0.217746	0.588938	-0.0513703
0.534674	0.294387	-0.156077
-0.566812	0.207025	0.181011
-0.509772	-0.0905247	0.35894
0.0560301	-0.554623	0.293519
-0.00429728	0.620601	-0.10833
-0.439346	-0.172454	-0.417294
-0.0552982	-0.623924	0.0675312
-0.0963287	-0.590404	-0.197596
0.288198	0.469825	0.305134
-0.0178314	0.198974	0.597488
-0.607822	0.0105022	0.165356
-0.16296	-0.355501	0.493926
0.544789	0.248541	-0.195787
-0.506034	-0.287108	0.241658
-0.179572	-0.523869	-0.300359
0.301857	0.214324	-0.509752
-0.113108	-0.017711	-0.61951
0.228476	0.0177991	-0.58684
0.412009	-0.226745	0.419207
-0.46947	-0.366696	-0.205018
0.322892	0.0876347	0.533817
0.0498049	-0.0153797	0.62784
-0.0227982	-0.138081	0.614259
-0.222637	0.313954	-0.498764
0.465448	-0.134822	-0.402593
-0.557158	-0.209417	-0.206445
-0.281948	0.515092	0.228221
-0.512092	0.340373	0.137142
0.312836	0.356871	0.414339
-0.258182	-0.441013	-0.368443
0.572428	-0.217914	0.147445
-0.181196	-0.109422	0.593376
-0.34895	-0.513175	-0.108557
-0.152228	-0.529336	-0.305827
0.0244903	-0.469388	-0.419494
-0.0297721	-0.567562	0.271822
-0.238985	-0.539949	-0.219639
-0.406032	-0.23207	-0.422115
-0.327794	-0.371229	0.38941
0.299859	0.194113	-0.518946
-0.43876	0.399576	0.211491
0.0450603	0.294606	0.555047
0.586029	-0.222374	-0.0634037
-0.208648	-0.37875	-0.458164
-0.185987	-0.582668	0.151018
-0.324055	0.523996	0.13159
0.46003	-0.115184	-0.414735
0.608587	0.16221	-0.0144861
0.577373	0.225195	-0.11326
0.206598	0.252172	0.539098
0.46983	0.172147	0.382786
0.291419	-0.348949	0.43613
0.497411	0.330106	0.201276
0.590181	0.117839	-0.186279
0.248441	0.359806	0.45356
-0.246835	0.036407	-0.578487
0.373352	0.381151	0.335011
0.115853	-0.00153845	-0.619254
-0.0380522	0.478609	0.407904
0.615868	-0.117296	-0.0620373
-0.549205	-0.177801	-0.252309
-0.429484	0.402432	-0.224705
0.421302	0.387859	-0.262621
0.351838	-0.152375	-0.499892
-0.295071	0.340197	-0.440566
-0.526751	-0.279804	0.202837
0.349047	-0.433275	0.295531
-0.0163225	-0.53401	-0.333867
0.346707	0.290128	-0.438771
-0.14765	0.500304	-0.353264
0.50757	-0.313776	-0.202032
0.129462	0.0251337	-0.616042
0.00282771	0.291088	0.558713
0.279656	-0.56026	0.0692888
0.226704	0.205684	-0.550636
0.274735	-0.0693087	0.562687
-0.440972	-0.11703	-0.434451
0.0787431	-0.614686	0.113404
0.569115	0.159016	-0.218453
-0.0960365	-0.622254	0.0218475
0.473081	-0.356078	-0.215181
0.47936	0.192063	0.360868
-0.217722	-0.532285	0.257236
0.339808	0.518199	0.11358
0.471117	-0.29832	-0.29318
0.614431	0.116954	0.0754704
-0.446478	-0.391824	0.209836
-0.568466	0.235992	0.134366
-0.621168	-0.0775665	-0.0709491
0.537977	-0.073664	0.319459
-0.406668	0.298747	-0.377189
0.627638	0.0331775	-0.0432416
-0.0704547	0.613994	0.122258
-0.562958	-0.271692	-0.0784983
0.442267	-0.385111	-0.230195
0.622686	0.0943698	-0.0159973
0.318629	0.443927	-0.313535
0.0776571	-0.166998	-0.602479
0.518782	0.0962076	-0.344252
0.347155	0.493228	0.181961
0.00756761	-0.62151	0.102803
-0.173513	0.474993	-0.375733
0.222187	0.166256	-0.56559
0.550883	0.140445	0.271484
0.0685034	0.465676	0.418752
0.220227	0.322218	-0.494546
0.585809	-0.187234	-0.136644
-0.342531	-0.28125	0.447739
-0.590902	-0.0957493	0.196384
-0.379889	0.319268	-0.388139
-0.425597	-0.142815	0.442008
0.14919	-0.129607	-0.598201
0.566073	0.112482	-0.252606
