-0.0811172	-0.0957158	-0.61738
0.184587	-0.572394	0.187597
-0.262328	-0.462014	0.338567
0.236674	-0.475538	0.338746
0.00169206	0.462618	-0.427646
-0.0800032	-0.620685	0.0724573
0.459879	-0.330075	0.276518
-0.628316	-0.0272011	0.0371429
0.32315	-0.456189	-0.290458
-0.227923	-0.30887	-0.49955
-0.014508	-0.497653	-0.386046
0.566543	-0.00866119	-0.275416
-0.414045	0.352438	-0.318205
-0.590236	-0.158936	-0.152515
-0.296258	0.0136999	-0.555827
0.283704	0.221131	-0.517217
-0.586316	-0.0832183	-0.214962
-0.560865	0.137739	0.25171
0.0877943	0.497146	-0.37688
0.316608	-0.421645	-0.344781
0.00636993	-0.555873	0.296419
-0.391447	-0.155904	-0.468363
-0.62679	-0.0396349	-0.0496266
-0.258214	-0.45971	-0.344808
-0.350637	0.397624	-0.340366
-0.376472	-0.430777	0.263819
0.4682	-0.222251	-0.358181
0.379124	0.475097	-0.165673
-0.216764	-0.528963	0.264786
0.32299	0.310149	-0.443153
0.074341	0.580646	-0.23286
0.517347	0.35943	0.00788977
0.287803	0.0981605	0.551755
0.484856	-0.329622	-0.230573
-0.612881	-0.0708689	0.127493
0.453874	0.416978	0.13049
-0.386931	-0.407282	0.285142
-0.201604	0.4053	0.438164
0.534437	0.0943829	-0.319952
0.373414	0.482371	0.157419
0.528726	0.284312	0.191091
0.317216	-0.522579	0.152265
0.557134	0.0856557	-0.281362
0.529635	0.331896	0.0789405
0.325461	-0.378798	-0.38404
0.514863	-0.22476	0.285129
-0.537803	-0.104681	0.310982
-0.243938	-0.089149	0.573974
-0.569136	0.20696	0.173644
0.463121	0.410752	0.117054
0.37025	0.217596	0.460941
-0.174225	-0.57165	0.199404
0.151119	0.0549147	0.609137
-0.113664	0.572011	-0.238293
-0.319909	-0.363952	-0.402613
-0.205371	-0.0244519	-0.595084
0.0805994	-0.443775	-0.439849
-0.441438	-0.174576	0.414193
-0.200449	0.00379129	0.597249
0.548607	0.22333	-0.214602
-0.415433	-0.434052	0.18951
-0.445703	-0.420453	-0.14652
-0.581658	0.216468	0.108237
-0.602682	-0.133883	0.125499
0.52235	-0.119068	-0.331472
0.011563	-0.559193	0.289948
-0.345735	0.494375	0.18155
-0.605825	0.134811	0.108173
-0.120205	-0.610241	-0.100283
-0.239811	-0.542437	-0.212493
0.251604	-0.434043	0.381053
-0.579215	0.131939	0.209766
-0.55567	-0.261159	0.141164
0.411369	0.271533	0.392359
-0.591992	0.195918	-0.08979
-0.563595	0.136623	0.24616
-0.52141	0.0318913	0.352157
-0.256211	0.0980822	0.56713
-0.538529	-0.154319	0.288222
0.097284	-0.58796	0.204302
0.546764	-0.0239558	0.31205
-0.400405	0.256464	0.413282
0.371785	-0.484169	0.155744
-0.365365	-0.180879	0.480303
0.279875	-0.452488	0.337379
-0.354516	0.0935016	0.512324
0.208592	-0.51	-0.305434
-0.0982729	-0.489732	-0.383933
-0.528436	-0.293527	-0.177475
-0.281596	-0.20348	-0.525547
-0.274535	-0.534329	-0.189797
0.232388	-0.578711	-0.0893855
0.420207	0.469367	-0.00456
-0.3589	-0.506758	-0.10624
0.259404	0.0557339	0.571405
-0.401331	0.374418	0.309265
0.559788	-0.191212	-0.216737
0.346915	0.492822	0.18351
0.210411	-0.397048	-0.441565
0.622872	0.0636591	0.0698407
-0.473723	0.337543	0.241974
0.316577	-0.165993	0.518773
0.232181	0.0880431	0.579
-0.0303833	-0.326344	-0.53803
-0.571726	0.263531	0.0240987
-0.395297	0.428835	0.238203
-0.306638	0.471742	0.283431
0.499711	0.377868	0.0663678
-0.261017	0.21347	0.532166
0.254498	0.260925	0.513857
0.211488	0.543885	-0.237406
0.555204	0.0546032	0.292688
0.467108	-0.350588	0.236216
0.050402	0.365843	-0.51041
0.158926	-0.606667	-0.059975
-0.451945	0.0432677	0.436776
0.412591	-0.137173	-0.455908
0.601285	0.0848806	-0.167784
-0.404617	-0.408948	-0.2568
0.625887	-0.0535706	-0.0479183
0.378747	0.0698862	-0.498565
0.477859	0.0665601	-0.405118
-0.420305	-0.370224	-0.288406
0.609631	-0.158289	0.0139383
0.0871408	0.61888	0.0793348
0.382344	-0.498618	0.0457521
0.176126	0.511191	0.323362
0.164734	0.361879	-0.488678
0.117431	-0.253211	-0.564796
-0.165533	-0.369926	0.482342
-0.325701	0.096309	-0.530607
0.42516	-0.386198	-0.258825
0.158624	0.121145	0.597547
0.604891	0.151788	0.0892563
-0.401277	0.389194	-0.290525
0.0320171	0.328779	-0.536451
-0.541263	-0.183657	-0.264962
-0.161407	0.468041	0.389596
-0.122393	0.616934	-0.0362256
0.565773	-0.0550115	0.271615
-0.311614	0.51358	-0.189822
-0.149336	0.368849	0.488415
-0.621303	-0.0184306	0.102678
-0.542023	-0.21737	0.23635
-0.527855	-0.0856449	-0.333067
0.517195	0.308639	-0.1848
0.462506	0.358976	-0.232647
0.390404	0.482309	0.108916
0.252785	0.0539212	-0.574536
-0.497379	-0.23693	0.30558
-0.131302	0.551514	0.274759
-0.170887	-0.019133	-0.606079
-0.103569	0.468091	0.408735
-0.171212	0.00777284	-0.606239
-0.364294	0.052607	0.511295
-0.0465936	-0.611235	0.14533
0.339309	-0.485062	0.215602
-0.498722	0.175193	0.342759
0.0368717	0.250685	0.576799
0.362824	-0.284453	-0.429354
0.332557	0.18081	-0.5036
-0.514994	0.0257049	0.361967
-0.445173	0.272816	0.352551
0.211127	0.5083	0.306524
-0.400086	-0.30332	0.380563
0.358885	-0.442212	0.26935
-0.590605	-0.0158836	0.21871
-0.543045	-0.109059	-0.30018
0.419569	-0.29011	0.369726
0.439639	-0.202519	-0.403242
-0.178952	-0.592834	0.115863
0.456987	0.34955	-0.256665
0.377453	0.0759555	-0.498658
0.33552	0.177436	-0.502835
-0.324323	0.528404	0.111822
0.44208	-0.334891	-0.298853
-0.0485881	-0.523926	-0.346469
0.333268	-0.337533	-0.414612
0.399416	-0.186146	-0.450241
0.289136	0.234708	0.508146
0.101235	0.360427	0.506699
0.333578	-0.530479	-0.064942
0.404116	-0.481459	-0.0422791
-0.0646087	0.0352198	0.625688
-0.409712	0.466191	-0.108175
-0.114444	-0.438421	0.437709
-0.403689	0.0941417	-0.474418
0.513851	-0.333018	0.148178
-0.481449	-0.155307	-0.375482
-0.358046	-0.000835128	0.518365
-0.337956	0.246761	0.470951
-0.620172	-0.091313	-0.0628422
-0.231174	-0.0719417	-0.581621
-0.51013	0.321172	-0.183073
0.58876	-0.115179	-0.192342
-0.373325	0.388202	0.326845
0.319615	0.274835	0.468201
0.555775	0.131211	-0.266079
0.379767	0.363591	0.347101
0.0661613	0.487838	-0.393112
0.232457	0.552193	-0.194798
0.34591	-0.16786	-0.499069
0.0120913	-0.131424	0.616021
0.434254	-0.0176738	0.456083
0.295934	-0.504057	-0.235053
0.37442	-0.201892	0.464703
0.236454	0.581125	0.0573055
-0.43028	0.129725	0.441509
-0.154281	0.0798552	-0.605575
0.392283	-0.240641	-0.43024
0.170406	0.553177	-0.24871
0.0445635	-0.189708	0.599104
0.123284	0.577431	-0.219714
0.0368108	0.286502	-0.559876
0.307215	-0.430175	0.342738
0.168273	-0.11876	-0.595382
0.155658	0.487288	0.367725
-0.508844	0.289878	-0.232268
-0.364675	0.118626	0.49984
-0.624852	0.0613936	-0.0518698
0.427935	-0.4622	-0.0119493
-0.403392	0.241702	-0.419232
-0.387408	0.459364	-0.189207
-0.545137	-0.308876	0.0657354
-0.334362	0.068504	0.529537
0.427131	-0.322452	0.33239
0.455013	0.412375	0.140748
0.0903699	-0.473848	-0.405217
0.562164	0.130969	0.252427
0.446433	-0.441591	0.0509413
-0.531843	-0.329014	-0.0761104
0.461505	0.114448	-0.413297
0.508473	-0.338043	-0.155186
-0.0948824	-0.577265	0.233801
0.0773017	-0.262724	0.567363
0.151901	0.581085	-0.190174
0.216379	0.28727	0.517258
-0.0934691	0.620888	0.0515915
-0.51801	0.0521464	-0.354748
0.408528	0.414716	0.240865
0.29214	-0.557218	0.032589
0.390547	-0.411521	0.273904
-0.342609	0.502417	-0.164609
0.492763	0.156069	0.360176
-0.185835	0.419045	0.432165
0.171689	0.577088	0.185453
-0.34384	-0.0641054	0.523989
0.391259	0.38331	-0.311271
-0.503932	-0.373392	-0.0594194
0.586876	0.149842	-0.173273
0.610261	-0.121417	-0.0986872
-0.394429	-0.491249	0.000827288
0.0197074	0.602726	-0.182298
-0.317184	-0.19787	0.507092
-0.029419	-0.594638	-0.20601
-0.518569	0.0236624	0.356968
0.148179	0.121545	0.600142
0.373721	0.50415	-0.0553669
0.262221	-0.188757	0.540843
-0.162961	-0.187705	-0.578887
-0.113651	0.517539	-0.340788
-0.256685	-0.52432	-0.236858
0.541835	-0.183914	0.263611
-0.578862	0.00753619	-0.248519
-0.377676	-0.503697	0.0234582
0.216607	0.0715547	-0.587249
-0.00953957	0.165363	0.607835
0.049687	-0.547652	0.307423
0.203693	-0.560001	0.204471
-0.167862	0.600227	-0.0919242
-0.252469	0.557781	-0.148458
-0.522357	-0.184846	-0.299791
0.314489	0.457376	-0.297999
-0.125476	0.0595021	-0.614504
-0.571464	-0.073009	0.254947
0.235676	-0.391959	0.433272
-0.035249	-0.114164	-0.618566
0.214915	0.57393	0.145999
0.0839761	0.511032	0.358739
0.250236	0.577316	0.0314454
-0.459389	0.0308065	-0.430015
0.336366	-0.101767	-0.522878
0.0398511	-0.623176	-0.0834514
-0.325044	-0.266597	0.469226
-0.208714	0.374684	-0.461465
-0.0387031	-0.431772	-0.457138
0.388589	-0.0867995	-0.488226
-0.523959	0.325707	-0.127603
0.269628	-0.320897	0.470347
0.20961	0.471295	0.361725
-0.159675	0.297933	0.531639
-0.521862	0.171279	0.308582
-0.0316598	-0.0494674	0.627256
0.455327	-0.435351	0.0068511
-0.503704	-0.376237	0.0403496
0.112255	0.104485	0.61105
-0.262833	-0.184623	-0.541971
0.181313	0.428957	-0.424289
0.391259	0.440325	-0.223451
-0.305787	0.264627	0.48308
