-0.121058	-0.496965	0.367791
-0.129885	0.394623	0.473606
0.602161	0.13304	0.128852
-0.380019	0.0768561	0.496567
-0.24243	-0.465681	0.348237
0.536265	-0.325503	-0.0580333
-0.613273	0.124235	-0.0732217
-0.276515	0.0599655	-0.562889
-0.517829	-0.32259	-0.157126
-0.427799	-0.240551	0.394998
0.149838	-0.426719	0.438588
0.446018	0.0261367	-0.444168
0.231599	-0.29859	0.50409
-0.239184	-0.057362	-0.580001
-0.0662257	-0.607378	-0.153641
-0.309027	0.547568	0.0396494
-0.415035	-0.471748	0.0458281
-0.616748	0.115786	0.055811
-0.121652	-0.351236	-0.508659
-0.482741	0.0773119	-0.397346
0.175403	0.0831302	0.599352
0.346835	0.238843	0.468571
-0.356779	-0.397344	0.334255
0.620936	-0.0977345	0.0422591
-0.610562	-0.152938	0.0269065
0.392291	0.49175	-0.0344947
0.0212932	0.158406	-0.609388
0.0632322	0.131313	-0.61291
-0.322902	-0.200479	0.502437
-0.381012	-0.453098	-0.215482
-0.209106	-0.263427	0.532711
0.0758295	-0.317752	-0.538687
0.196143	0.00323114	0.59868
0.245659	-0.451869	-0.363821
-0.0805138	-0.320034	0.536652
0.418193	0.00538351	0.471153
-0.129528	0.592583	-0.170198
0.0820218	0.288774	0.553879
0.341256	0.129105	-0.513591
-0.588126	-0.0412415	-0.222052
0.143614	0.552845	-0.265776
0.34672	-0.436664	0.293274
-0.0783602	0.563202	0.271225
0.00349907	0.582167	-0.240768
-0.332876	0.419011	-0.332451
0.365091	0.49185	-0.147283
-0.219724	0.484374	-0.337643
-0.14641	0.502972	-0.349976
0.248991	0.148051	-0.55945
0.522455	0.203776	-0.287082
-0.42102	-0.13974	-0.447342
-0.0417082	0.106201	0.619582
0.363943	-0.475063	0.196876
-0.527639	-0.342103	0.038247
-0.0600768	0.301448	-0.549927
-0.501683	-0.166931	0.342562
0.213861	-0.544206	-0.234527
-0.357807	-0.16174	-0.49266
0.529949	0.290809	-0.177439
0.592067	0.091179	-0.195047
-0.381856	0.429961	0.257332
-0.4278	-0.462289	0.0132644
-0.168596	0.459301	0.396886
-0.410535	-0.150748	-0.453471
-0.0573904	-0.623941	0.0656047
0.0993733	0.326959	-0.529266
-0.529682	0.0242974	0.340215
-0.250971	-0.424937	0.39159
-0.233522	0.581631	-0.0638174
0.0710249	0.0831259	-0.62044
0.35171	0.52248	0.0146673
0.00365353	-0.192514	0.599854
-0.41822	0.470288	0.0286633
0.0155783	0.57588	0.254989
0.572136	0.160313	0.209428
0.0844952	-0.61516	-0.106486
-0.45206	-0.00720192	-0.438736
-0.053866	-0.602712	-0.175319
-0.51592	0.205915	0.297196
-0.203769	0.236257	0.547321
-0.00725369	0.092327	0.623156
-0.158222	-0.606168	-0.0665337
-0.381353	-0.394131	0.310049
-0.409099	0.430032	0.211213
-0.397138	0.452711	-0.185024
-0.124485	-0.617455	-0.01236
-0.173356	-0.533996	0.285825
-0.121956	-0.233031	0.572471
-0.0988333	0.564384	0.261922
0.109039	-0.489759	0.380981
-0.577204	-0.183073	-0.173839
0.605008	0.100324	0.144222
-0.519164	-0.309311	-0.17803
-0.182464	-0.542307	-0.263648
-0.40567	-0.163306	0.453501
0.00796191	0.18474	0.602252
-0.00242383	0.226573	-0.587842
-0.491611	0.347646	0.185367
-0.163181	0.467288	-0.389761
0.376788	0.492977	-0.109107
0.324455	-0.236539	0.485467
0.268289	-0.568549	-0.0409039
0.15847	-0.348215	0.500533
-0.533446	0.250047	0.223185
-0.202809	-0.192455	-0.564561
0.313277	0.5261	-0.148245
0.261737	0.448039	-0.357288
0.453868	-0.390465	-0.196064
-0.321016	0.393825	0.372493
0.275323	-0.331431	0.45962
-0.203034	0.591022	-0.0798099
-0.59422	-0.179909	0.106937
0.532651	0.158449	0.296777
-0.0922031	-0.614513	-0.103787
-0.0398954	0.609675	-0.153639
0.0177224	-0.537168	-0.328689
-0.215352	0.573474	-0.147143
-0.599841	0.125122	-0.146409
0.129306	0.335922	0.517046
0.0270622	-0.473074	0.415173
0.515858	0.0579748	0.356972
-0.249833	-0.0916732	0.571034
-0.0439051	0.552437	0.299643
0.561838	0.0469306	0.281133
-0.242417	-0.541485	-0.211962
0.124352	0.382857	0.48462
-0.514212	0.27291	-0.240845
0.452746	0.119519	0.42147
-0.214617	-0.204833	-0.555772
-0.378886	-0.360877	-0.350875
-0.153204	0.562901	0.237846
-0.245823	-0.379879	-0.438365
0.235965	0.581742	-0.0528866
-0.16079	-0.448176	0.412534
0.517575	0.0491278	-0.355812
-0.345415	0.515241	-0.110069
-0.605788	0.172756	0.00876887
0.557843	-0.278359	-0.0907036
0.26292	-0.384467	-0.424215
0.395987	0.0422821	-0.488167
-0.37877	0.165055	-0.475594
0.486835	-0.398866	0.0282357
-0.143685	0.551242	-0.269049
0.437783	0.352032	0.285166
0.554613	0.188417	-0.231957
-0.553462	0.0754459	-0.291355
-0.00293744	0.236665	-0.58385
-0.0873433	-0.435346	0.446928
0.451711	0.363149	0.246941
0.527599	-0.110344	0.326135
0.506547	-0.124016	0.353455
0.508278	0.350568	0.125121
0.207805	-0.165153	-0.571351
0.382908	-0.249826	-0.433438
0.325513	-0.289592	-0.455058
-0.387307	0.363617	-0.338638
-0.314242	0.000534811	0.546033
-0.164499	0.167726	-0.584558
-0.575166	-0.201811	-0.159238
-0.38201	0.343841	0.364338
0.102524	0.613615	0.0993224
-0.458143	0.276316	-0.332649
0.57863	-0.0700432	-0.239125
-0.242234	0.452194	-0.365709
-0.259558	-0.263573	0.50996
-0.451	-0.439029	-0.0274325
0.57255	-0.217407	-0.147718
0.250592	0.418383	0.398823
0.608989	0.0415108	-0.155914
0.200367	0.593644	0.0658743
-0.049569	-0.602927	0.175847
0.372535	0.163866	0.4809
-0.110004	0.293078	0.546721
0.0404241	-0.615868	-0.126382
-0.594592	-0.188806	-0.0878213
-0.273117	-0.361959	-0.43737
0.440174	0.196581	0.40559
-0.619857	-0.112585	-0.00122333
0.168295	-0.588018	-0.151035
0.612545	-0.0128264	0.146713
-0.0197366	-0.0324388	0.628855
0.428883	-0.371228	-0.274134
0.165179	-0.372624	-0.480382
0.0501376	-0.604062	0.171741
0.0101442	0.583652	0.236956
0.484524	0.367803	0.163881
-0.058524	-0.538265	0.322096
-0.326	-0.537861	0.0364647
-0.42983	-0.303366	-0.346577
0.556558	0.10497	0.275907
0.245093	0.529105	0.238489
-0.430877	-0.0155132	0.459352
0.342743	0.528274	0.0188067
-0.496627	-0.0476206	0.3847
-0.274815	0.270709	-0.49809
-0.467735	0.420593	-0.0350081
-0.538416	-0.310744	0.102206
0.366753	0.176306	-0.480945
0.510835	-0.368527	-0.0116428
-0.521958	-0.33524	-0.109883
-0.0890989	-0.620832	0.0594061
-0.614943	0.0401549	0.130892
-0.263837	-0.28409	-0.496571
-0.340535	-0.502364	0.169015
0.490487	-0.282274	0.276847
0.173459	-0.320421	-0.513948
-0.176526	-0.369382	0.478848
-0.448711	0.237312	-0.37315
-0.617171	-0.116493	0.0492901
-0.196012	-0.260807	0.538943
0.139972	-0.17316	0.589341
0.054089	-0.509212	-0.366984
-0.0921842	-0.491307	0.383431
-0.235681	0.189191	-0.552776
-0.423313	-0.306163	0.352095
-0.0319385	-0.36575	0.511964
0.274142	0.541787	0.167967
-0.577354	-0.248748	0.041076
-0.000524036	0.608845	-0.161888
0.470423	-0.195876	-0.370451
0.109466	-0.384359	0.487016
-0.395353	-0.446158	-0.203811
0.62166	0.0789812	0.0648114
0.59549	0.107494	-0.17532
0.29394	-0.483998	0.276126
0.593129	0.183135	-0.107515
0.136177	-0.488303	-0.374054
-0.332214	0.397235	-0.358801
-0.210189	0.522363	-0.282591
0.489728	0.351924	0.182252
-0.445886	-0.29689	0.331575
-0.459505	-0.227148	-0.366277
0.112345	-0.603313	-0.142448
-0.486026	-0.368636	-0.157437
-0.0432485	0.326093	0.537301
0.458716	0.408866	0.138955
0.315554	-0.486879	-0.245509
0.151872	0.362657	0.492254
-0.342338	0.464759	-0.252396
-0.505986	0.2015	-0.316664
0.210685	0.592546	-0.0374362
-0.285568	-0.50429	0.247068
-0.51408	0.264265	0.25057
0.173861	-0.449163	0.40611
0.0364714	0.0436518	0.627427
0.425301	0.399222	-0.237994
-0.590061	0.122726	0.183483
-0.000271979	-0.314587	0.545834
0.443197	0.33293	-0.299389
0.45051	-0.0519109	0.437317
-0.19888	-0.456783	0.385612
0.379722	0.394487	0.311595
-0.031781	-0.111766	-0.619192
0.0201292	0.62448	-0.0807404
0.0256823	0.57069	-0.265618
0.433269	0.351219	-0.292956
0.168069	-0.413973	-0.444161
0.232654	-0.443547	-0.382149
0.57572	-0.240574	-0.087011
-0.00690537	-0.121196	0.618194
-0.0715863	0.157955	-0.605661
0.186228	-0.584273	0.144376
-0.59629	-0.12493	-0.160406
-0.0823455	0.615335	-0.107157
0.468776	0.293814	-0.301368
-0.537979	0.288373	-0.155947
-0.259157	0.553754	0.151967
0.479662	0.391238	0.117288
-0.0475072	-0.149167	0.61024
0.461725	0.315872	0.289715
-0.555058	0.163147	-0.249386
0.370987	-0.498639	0.10309
-0.382594	-0.289256	0.408476
0.263266	0.494598	-0.288034
0.256896	0.0497495	0.573088
0.377421	-0.308195	0.399336
-0.111823	0.130114	0.60619
0.337097	-0.0274885	0.531517
0.550585	0.194515	0.236474
-0.0740599	0.523805	0.342115
0.20845	-0.529529	-0.270272
-0.0371121	0.518204	-0.356352
-0.534965	-0.296045	-0.151886
-0.135381	-0.379808	0.484064
-0.451127	-0.168898	0.406027
0.0856516	-0.465227	0.416086
0.621443	0.100013	0.0265728
-0.489173	-0.0414202	-0.394835
-0.488	0.389727	-0.082879
-0.0556335	-0.542925	0.314701
0.49721	-0.0818678	0.378127
-0.525353	-0.185843	0.293882
-0.232587	-0.537451	-0.232271
-0.3173	-0.28161	-0.465743
0.00459606	-0.45449	-0.436254
0.513275	-0.316583	0.182273
0.52474	-0.293261	-0.188535
0.0151424	-0.144669	-0.612978
0.513329	-0.17844	-0.318673
-0.528601	-0.31121	-0.143629
