-0.0573312	-0.478229	0.406091
0.42975	-0.357866	0.290082
0.289939	-0.514741	0.218807
-0.00634684	-0.627061	0.0604541
0.585765	0.0638925	0.222928
-0.0599203	-0.347056	0.522362
0.0882127	-0.273164	0.560803
0.213599	0.37999	0.454844
-0.267147	-0.459134	-0.338717
-0.0104299	0.018038	-0.629655
0.439336	-0.304052	0.333821
-0.0103823	-0.577671	-0.251175
0.488511	-0.380257	-0.116883
-0.271285	0.456958	0.338369
0.375536	-0.464343	0.200646
0.0702327	-0.518989	-0.350168
0.487123	0.127063	-0.378769
-0.569452	0.165411	0.212752
0.330531	0.334229	-0.419452
-0.211753	0.523251	0.279766
-0.0881449	-0.615841	0.0993475
0.263986	0.0150761	0.571825
-0.497449	0.36698	0.121534
0.485814	-0.38573	0.109989
-0.254385	-0.267522	-0.51051
0.309269	0.0957251	0.540453
-0.313749	0.263612	0.478508
-0.184661	0.580896	0.159251
-0.605142	0.141503	0.103342
0.432717	-0.171868	0.424403
-0.169282	0.00149188	0.606829
0.0958409	-0.602343	-0.157791
0.151479	0.227176	-0.567755
-0.539909	0.126212	-0.299114
0.0753371	0.244156	0.575858
0.33164	-0.406552	0.348756
0.233265	0.520638	-0.267251
-0.472015	0.415414	0.0391613
-0.222408	0.439775	0.39247
-0.577156	-0.0360058	-0.249989
-0.478253	0.385376	0.140211
-0.00688709	0.600816	0.189401
-0.344577	-0.0428922	-0.525668
-0.583303	0.217327	-0.0970877
-0.0508607	0.28679	-0.558628
0.137442	0.196801	-0.582476
0.474166	0.234866	0.341913
0.556145	-0.241554	-0.171038
-0.609598	0.11383	-0.111051
0.27636	-0.532602	0.191992
-0.208063	-0.575892	-0.148181
-0.155781	-0.602225	-0.0997881
0.23723	0.531648	0.240775
-0.100906	-0.586127	0.207781
0.389665	0.445106	-0.21666
-0.121092	0.0429135	-0.616762
0.549278	0.292227	0.0989809
0.0970706	0.205517	-0.587571
0.231905	-0.521491	-0.266772
0.396417	-0.244165	0.424425
-0.416079	0.468483	0.0655836
0.548267	-0.0670522	0.302997
-0.289285	0.524865	-0.194245
0.0256117	0.338671	0.530609
0.106627	0.260697	0.563532
-0.514363	-0.00351106	-0.363757
0.0393722	-0.164539	0.606858
-0.105884	0.620861	0.0148252
0.0671825	0.548511	-0.302527
0.362088	-0.391363	0.3356
0.0544077	0.29255	0.555296
0.105231	-0.0243282	-0.620673
-0.360864	0.445282	0.261536
0.0961349	-0.489029	-0.385369
0.177715	-0.369775	0.478104
0.49252	-0.118074	0.374677
0.194209	0.599286	-0.00624606
-0.337695	0.0868828	-0.524703
0.537809	-0.258029	-0.202689
-0.529155	-0.12091	-0.319805
0.494723	0.265431	0.285824
-0.489295	0.0505986	-0.393611
0.347747	0.441104	0.285307
-0.347828	0.522222	0.0565705
0.0420257	-0.534145	-0.331396
-0.356364	0.495324	-0.156713
0.0751074	-0.289359	0.554554
0.15424	-0.15074	-0.591935
-0.548044	0.0797374	0.300316
0.395018	0.490458	-0.017668
0.0958992	0.621592	-0.0364192
-0.0380357	-0.628772	-0.00992301
0.559646	-0.239853	-0.161762
-0.339446	0.317522	0.425272
-0.580585	-0.176188	0.169644
0.479072	-0.0993015	0.3969
-0.100392	0.340329	-0.520574
0.411133	-0.223711	0.421691
-0.168551	-0.424961	-0.433473
0.465312	-0.398924	0.145753
0.24315	-0.329673	0.478637
-0.428131	-0.435303	0.155292
-0.222714	-0.495222	-0.319458
-0.395015	-0.128907	0.473546
0.441091	-0.415902	0.171359
-0.288647	0.559701	-0.0178034
-0.230619	-0.338812	-0.478457
-0.500293	-0.0198293	0.38238
0.150221	0.237218	-0.563969
-0.266009	0.398663	-0.40891
0.28614	-0.369407	-0.422566
-0.0075145	-0.282627	-0.562997
0.482044	-0.397453	0.0810228
0.381772	0.204802	-0.457391
0.0406499	-0.535497	-0.329379
-0.2696	-0.0545309	0.566782
0.17251	-0.512178	-0.32375
0.315673	-0.408789	-0.360752
-0.24819	-0.512202	0.270095
-0.6121	0.0631059	-0.135098
-0.126526	-0.00654108	0.617129
-0.375085	0.479113	0.163284
-0.332953	-0.0459752	-0.532849
0.214936	-0.283054	0.520176
-0.190943	-0.036065	0.599283
0.350345	-0.195512	0.48573
-0.151329	-0.440288	-0.424437
-0.519214	0.271823	0.231146
0.337569	0.524788	0.0868595
-0.598277	0.137456	-0.14167
0.165366	0.41267	0.446383
0.42714	0.192037	0.421394
0.429412	-0.366654	-0.279411
-0.0552859	-0.293133	-0.554902
0.578853	0.0520358	-0.243148
0.0645224	0.0494584	0.624733
-0.282854	-0.502365	-0.254014
0.165871	-0.405108	-0.453072
-0.282876	0.380919	-0.414466
-0.293286	-0.541887	-0.13131
0.260332	0.526887	0.226974
0.0119012	-0.180937	-0.603341
0.271215	-0.568453	0.0142553
-0.363741	-0.0328898	0.513333
0.0190637	0.396124	-0.489513
0.0335548	-0.395352	-0.489358
0.392606	0.480254	0.110074
0.563834	-0.255909	0.116197
0.25148	0.0232017	-0.577165
-0.222488	-0.126157	-0.575746
-0.442561	0.226678	-0.386855
0.558997	0.127352	-0.261159
-0.446071	-0.0936171	-0.434921
-0.349606	-0.253726	-0.458584
0.576534	-0.167211	-0.191178
0.342641	-0.263123	0.458545
0.0710474	0.400198	0.481346
0.345982	-0.201145	-0.486557
-0.197049	0.3913	0.452721
0.375741	0.427037	-0.270847
-0.327707	0.45789	0.282569
0.100403	-0.529802	-0.325775
-0.280039	0.540284	-0.163008
-0.140779	0.613334	-0.0300422
-0.263626	0.401175	-0.407995
0.400908	-0.460732	-0.154593
0.078922	-0.54097	0.313086
0.457282	-0.269369	0.33946
0.0892756	-0.115013	0.612945
-0.197992	0.433098	0.412463
0.580265	-0.243197	-0.0323722
-0.402152	0.259369	0.409758
-0.189737	0.226262	-0.556512
-0.0236953	0.253398	-0.576306
0.258479	-0.565197	0.103159
-0.444283	0.44373	-0.0511501
-0.446989	0.279662	-0.344804
0.272329	-0.539824	-0.176994
0.623509	-0.0216204	0.0875715
-0.409248	-0.039746	-0.477322
-0.576221	0.123268	0.222878
0.559654	0.284607	-0.0518333
-0.547178	-0.307561	-0.0538801
-0.383506	0.419425	-0.271856
0.100134	0.235223	0.575798
0.116872	-0.458915	0.415497
0.135491	-0.468746	0.398522
-0.0913584	0.179608	0.596904
0.585442	-0.0898681	-0.214667
0.491569	-0.031186	-0.392794
-0.496784	-0.0988033	-0.374625
0.143777	0.39318	0.470784
0.0211402	0.58473	0.233547
-0.369802	0.422772	0.285326
-0.586382	0.136487	0.185548
-0.126624	0.577124	0.21862
-0.562757	0.147543	-0.241736
0.165101	0.405653	0.452866
-0.382854	0.498989	0.0365076
0.385899	-0.480622	0.130325
0.445932	0.303184	0.325767
0.102804	0.0993993	-0.613556
0.0814833	0.403915	0.476564
-0.0743249	-0.567902	-0.262417
0.373202	0.386154	-0.329401
-0.225115	0.509442	0.294435
-0.0454752	-0.627187	-0.038315
-0.5535	-0.280445	0.109032
-0.613867	-0.133178	0.0482775
-0.311661	-0.140933	0.529061
-0.359172	0.293488	0.426334
0.398898	0.284837	-0.395788
0.212293	-0.439339	0.398514
0.306925	-0.0873078	-0.543207
0.336187	0.388158	-0.364981
-0.323236	0.535746	0.0734471
0.454222	-0.138003	0.414171
0.409852	-0.264304	-0.398829
-0.0810469	-0.107077	0.615521
-0.278964	0.473963	-0.307307
0.114117	-0.322209	0.529205
0.122257	-0.467689	-0.404005
-0.513124	-0.32359	0.16998
-0.135765	-0.601666	-0.128321
0.474829	0.364107	-0.197137
0.240355	-0.145004	-0.564006
0.600165	0.174521	-0.079024
-0.439295	-0.151344	-0.425459
0.337137	-0.473493	0.242987
-0.278591	-0.0788628	-0.559524
0.117443	0.434319	0.440993
-0.460121	-0.391913	0.177744
-0.0669704	0.179628	0.600124
0.354583	-0.243167	-0.460479
0.014032	-0.558292	0.291571
0.487204	0.390206	-0.0852735
0.335365	0.187299	0.499349
-0.520212	0.296738	0.195513
0.456345	-0.225511	0.371206
-0.496316	0.182289	0.34255
-0.183415	-0.206247	-0.566323
-0.390994	-0.175092	0.461916
0.124541	0.531084	-0.315181
-0.0747439	0.435588	0.448973
0.3684	-0.35917	-0.363563
-0.229774	-0.307586	-0.499494
0.621997	-0.00652147	-0.0998863
0.187101	0.450918	0.398203
-0.424233	0.400572	-0.237632
-0.0892923	0.0211667	0.623281
0.553024	-0.134654	0.270062
0.00657536	0.471648	0.417618
0.476637	-0.397779	-0.107185
-0.404785	-0.0755041	0.476811
-0.239156	0.47464	-0.338262
0.0210756	-0.623582	-0.0871841
0.193513	0.372933	-0.46944
-0.28245	-0.0337008	-0.562126
-0.258797	0.406346	0.405965
-0.47978	0.18355	-0.36472
0.426999	0.403706	-0.227142
-0.01282	0.621994	-0.0992916
0.076666	0.488491	0.390383
-0.167904	-0.607213	0.000180143
0.270368	0.568942	-0.0102945
-0.540641	-0.262323	-0.189191
0.130545	-0.288589	0.544586
-0.563232	-0.207939	-0.19087
-0.243165	0.540311	-0.214092
0.0657615	0.13971	0.610784
0.106339	-0.142109	-0.604481
0.57607	-0.188306	0.172001
-0.358613	0.203261	0.476426
-0.260923	-0.135381	0.557217
0.583963	0.234894	-0.0266765
0.157801	0.313701	-0.523059
0.594248	-0.15945	0.135444
-0.524926	-0.285506	0.199597
0.407936	-0.21724	-0.42813
-0.236748	0.0313111	0.582984
-0.0274166	-0.585599	-0.230699
0.20691	-0.593406	0.0442467
0.288643	0.524038	0.197408
0.445859	-0.0476052	-0.442542
0.103595	0.132229	-0.607193
-0.602672	0.138869	0.120005
-0.528554	-0.229907	0.254309
0.585594	-0.117678	-0.200329
0.219349	-0.568856	0.158709
0.447715	-0.32611	0.300172
-0.0336703	0.611138	-0.149252
0.043928	0.129004	-0.615084
0.583846	0.186775	-0.145394
-0.0331464	0.115211	0.618488
0.340941	0.206982	0.487666
-0.00886779	-0.0693846	-0.626105
-0.533803	0.166884	0.290007
-0.518037	0.318505	0.164597
-0.442394	-0.23195	0.383911
0.160388	0.389785	0.468235
