0.213945	-0.25441	0.535166
0.132212	-0.147636	-0.598016
-0.535842	0.148001	-0.296428
0.273968	0.525849	0.212894
-0.126623	-0.617066	0.00979105
0.579013	-0.143279	-0.202767
-0.0024344	-0.35026	0.523652
0.226006	-0.121102	-0.575461
-0.283044	-0.511048	-0.23583
0.490042	-0.140145	-0.370295
0.5598	0.0155286	0.288587
0.420629	0.261103	-0.38961
0.350644	0.283327	0.440085
0.23256	-0.188915	-0.55419
-0.0164874	0.184474	0.602161
0.179239	-0.474802	-0.373278
0.556614	0.228767	0.186404
0.26856	0.199269	0.533917
-0.568711	-0.246763	-0.11214
-0.292282	0.440555	-0.342612
-0.305268	-0.548392	0.0545654
0.383327	0.210107	0.453669
0.51197	-0.0341667	-0.36554
-0.0807302	-0.519039	-0.347823
-0.588277	0.0833869	-0.209468
-0.126915	-0.0821037	-0.611598
0.565746	0.26379	-0.0851275
-0.387833	-0.0468093	-0.494261
-0.567327	-0.0983992	0.255652
-0.298824	0.283038	0.476963
-0.392559	0.140054	0.472422
-0.252797	0.0753936	-0.57211
-0.435851	0.403697	-0.209672
0.577297	-0.172395	0.184141
-0.376607	0.459019	0.210639
-0.617534	0.0197297	-0.123135
0.211814	-0.257015	0.534769
-0.0455892	-0.610926	-0.146938
-0.56219	-0.0907459	-0.269459
-0.370993	0.46107	-0.216052
0.183778	-0.185486	-0.573342
-0.328382	-0.459527	-0.279106
-0.0510322	0.624128	-0.0689942
0.257742	-0.0692133	0.570682
-0.254663	0.575301	0.0327974
0.527515	0.325196	-0.11347
0.196358	-0.538452	-0.26156
-0.194486	0.585285	0.128516
-0.530789	-0.338903	-0.0175396
0.106243	-0.0903076	-0.614375
0.388039	0.458299	0.190494
0.402517	-0.439702	-0.203819
0.142992	-0.583469	0.189781
0.58167	0.217834	-0.105393
0.29331	0.0545133	0.554885
0.0531103	0.0035825	0.627747
0.2254	-0.57472	0.125665
0.603212	-0.149602	0.103221
-0.506598	-0.210973	-0.309433
0.454342	-0.00407056	0.436414
-0.529764	0.340931	-0.00400153
0.160492	-0.336039	0.508154
0.420336	0.438883	0.16613
-0.121221	-0.390911	0.478951
0.0896807	0.0286386	0.622926
-0.305134	-0.505778	0.219048
0.232502	-0.495729	0.311601
-0.0968221	0.551322	0.289085
0.413962	0.246155	0.406133
0.421225	0.0357214	-0.467112
0.547009	-0.243595	-0.195814
0.020096	0.629417	0.018171
-0.164284	-0.0201948	0.607868
-0.624796	-0.00821039	-0.0803892
-0.543924	-0.113862	0.296787
-0.610715	0.132058	-0.0805477
-0.294973	0.415964	-0.369953
-0.246714	-0.545422	0.196334
0.321764	0.224058	0.493119
0.272841	0.388604	0.414059
-0.431791	-0.0137048	-0.45855
-0.492105	-0.391347	-0.0397478
0.110637	-0.400339	-0.473696
-0.544136	0.314419	-0.0442409
-0.337331	-0.31472	-0.429021
0.0931989	0.61281	-0.112598
-0.234711	0.3349	0.479221
0.0547397	0.142446	0.611239
-0.505635	0.362978	0.0973692
-0.419277	0.469898	0.0174129
-0.330895	0.364923	-0.392734
0.306402	0.0486358	-0.548318
-0.169867	0.605943	-0.0296328
0.0195616	0.269579	0.569073
0.194712	-0.278134	-0.530687
-0.601078	-0.024542	0.187091
0.117817	-0.154623	0.599259
0.390365	-0.0649237	0.490204
-0.620714	-0.0443773	0.0982052
0.521797	-0.326516	-0.13422
0.551705	-0.266752	-0.146167
0.248804	0.197539	0.544036
-0.324864	0.411652	0.349151
-0.083021	-0.585126	-0.218254
0.589332	-0.203947	-0.089406
-0.585953	0.23039	0.0219076
-0.280909	0.237555	0.511427
-0.580406	-0.0471418	0.240431
-0.457922	-0.205066	0.380993
0.506838	0.25529	-0.273573
-0.101698	0.244991	0.571434
-0.617848	0.0114163	0.122614
0.584611	-0.212333	0.100224
0.149624	-0.473139	0.38814
0.0412663	0.619722	-0.105555
0.588964	0.213552	0.0664579
-0.493981	0.264454	-0.288005
-0.176162	0.509103	0.32662
-0.627591	-0.0534589	-0.0130894
0.156175	-0.585559	-0.172133
0.558994	-0.168874	0.236448
-0.410067	-0.0558723	-0.474998
-0.363911	0.328342	0.395803
-0.220014	0.364694	-0.464211
-0.447467	-0.393953	-0.203652
-0.349243	0.0205563	-0.523934
0.167454	-0.326866	-0.511877
0.5518	0.263072	-0.152349
0.286782	0.345672	-0.441777
-0.252292	0.538076	-0.2091
-0.324974	0.0387764	0.53832
-0.386332	-0.0520141	-0.494917
0.0231673	-0.471597	0.417085
-0.339493	0.201433	0.490988
0.39135	0.0932273	-0.484823
-0.453741	0.0950771	-0.42659
0.215675	-0.101242	0.58321
-0.390244	-0.494056	-0.0227792
0.0645526	-0.592031	0.205504
0.138467	-0.396906	-0.469246
-0.501452	0.204213	0.322091
0.00117324	-0.363368	-0.514648
-0.0143902	0.391835	-0.493111
0.559453	0.137834	0.254783
-0.621587	0.10017	0.0222631
-0.614362	0.112368	-0.082658
-0.419045	0.211654	0.420124
-0.242439	-0.506044	0.286431
0.278777	0.537829	-0.172985
-0.015211	0.617907	0.121902
0.313242	-0.260364	0.480614
-0.0574661	0.247599	0.576448
-0.157053	-0.30885	0.526162
0.557795	-0.273152	-0.105607
-0.553286	-0.126233	-0.273569
0.266858	0.35299	0.448425
0.309637	-0.401571	0.373852
0.40394	0.405425	-0.263369
-0.520482	0.187286	0.301534
0.597163	0.109493	-0.16825
0.562425	-0.0902421	0.269136
0.0434219	0.606249	-0.165761
0.532062	-0.170385	0.291168
0.0953728	-0.339247	0.522222
0.589595	-0.0935928	-0.201292
-0.156879	-0.119331	-0.598372
0.35244	0.522147	0.00699279
-0.26741	-0.326313	-0.46788
-0.271585	-0.557692	0.110096
0.106473	-0.326539	-0.528144
0.292481	0.347611	-0.436488
-0.00076823	0.627537	0.0556518
-0.613246	-0.0586571	-0.131866
0.0699878	0.586632	-0.218781
0.599693	0.103588	-0.162904
-0.581048	-0.032069	0.241361
0.0142808	0.329412	0.536828
0.51096	-0.29212	0.224691
-0.108359	-0.18083	-0.593682
0.212749	0.550123	0.221364
0.595032	-0.188697	-0.085028
0.404752	0.0431767	0.480845
-0.154906	-0.33685	-0.509349
0.417195	-0.418575	0.218273
0.304932	0.304316	0.459683
-0.0810627	-0.320357	-0.536377
-0.387423	0.48244	0.118553
0.280742	0.497199	-0.266228
0.0620023	-0.441193	-0.445426
-0.624244	0.0704196	-0.0475437
-0.073994	-0.335764	0.527908
0.237235	-0.477457	-0.335639
0.331761	-0.429516	0.319924
0.488417	0.218063	0.332862
0.351382	0.522499	-0.0206353
0.55483	0.167205	0.247197
-0.0716806	-0.0979787	0.618193
0.298929	0.0427854	-0.552911
-0.119924	0.587625	0.192913
-0.22908	-0.585843	0.0347879
0.0937153	0.532454	0.323435
0.197642	0.27239	-0.53258
-0.447279	-0.439497	0.0606956
0.595965	0.16108	0.125613
-0.475375	-0.0546711	-0.409792
0.417872	0.00305743	0.471459
0.180797	0.459587	-0.391142
-0.605364	-0.132963	-0.112937
-0.571073	0.120873	-0.236993
0.141974	-0.512031	-0.338479
0.473491	-0.23223	0.344638
-0.119921	0.549781	-0.283301
-0.499959	0.271147	-0.270962
0.300718	-0.334183	0.44135
-0.232967	0.310399	-0.496265
0.550848	0.148867	0.26703
-0.58825	0.149963	-0.168445
-0.307862	0.244044	0.492507
-0.487535	-0.0876901	-0.389256
-0.572844	-0.123295	-0.231404
0.50221	0.355981	0.134026
0.512082	0.36602	0.0264792
-0.150625	0.448358	0.416158
-0.561055	0.106601	-0.265996
-0.136656	0.28464	0.545165
0.596424	0.153341	0.132912
0.512293	-0.206458	-0.303037
0.0828678	-0.494471	-0.381485
0.0519921	0.281228	-0.561345
-0.016078	-0.412192	-0.476172
0.250851	-0.57589	-0.0482169
-0.0884708	-0.485757	0.391296
0.115019	0.41836	-0.456777
-0.623501	-0.0771111	-0.0469147
-0.403646	-0.00233775	-0.483699
-0.358562	0.427212	0.292956
0.273028	0.499612	-0.269709
0.0931332	-0.612727	0.113103
0.0234148	0.54392	-0.317022
-0.477358	-0.411085	-0.00619849
-0.463938	-0.403259	0.138002
0.217918	0.590643	0.0234983
-0.0941394	0.340738	0.521475
-0.288854	-0.149774	-0.539473
-0.308908	0.493261	0.241182
0.0141273	0.335393	0.533115
0.220836	0.302817	-0.506393
0.0934925	0.415073	-0.464622
0.0884509	-0.107491	-0.614428
-0.114098	0.418247	0.457111
0.120504	0.61444	0.0695903
0.282606	-0.550628	-0.117654
0.55809	0.234527	0.174449
0.0164568	-0.1306	0.616095
0.0464498	-0.426843	0.461029
0.0570576	-0.571383	-0.259164
-0.0401144	0.0176478	0.628474
0.19872	0.537602	0.261523
0.140433	0.463255	-0.403204
0.266213	-0.19624	-0.536209
-0.365273	-0.409256	0.309815
0.101964	-0.621348	-0.020727
-0.393381	-0.479428	0.110906
-0.522643	0.0422452	-0.349227
-0.186925	-0.258004	-0.543501
-0.307336	0.0686487	0.545648
0.490753	-0.313069	-0.240934
0.425525	-0.389265	0.253576
-0.305465	0.39227	0.38693
-0.527826	-0.200624	0.279373
-0.476535	0.242561	-0.333134
0.510705	0.20086	-0.309412
0.562504	0.03292	-0.28179
0.00735634	-0.195047	-0.599001
0.107436	-0.113102	0.610381
-0.02801	-0.299416	-0.553593
0.579911	0.238912	0.0593647
-0.551803	-0.212059	0.217818
0.48785	0.364843	0.160598
0.341442	0.393986	-0.353684
-0.225715	-0.500874	-0.308347
-0.22805	-0.568967	0.145496
-0.281793	0.537309	0.169682
-0.424828	-0.135571	0.445019
0.279882	-0.392704	-0.405401
-0.367751	-0.487216	-0.155819
0.433596	0.301156	-0.343801
-0.169342	0.586983	0.153863
-0.625193	-0.0524444	0.057302
-0.551514	-0.252543	-0.170158
-0.58764	0.202574	-0.102678
0.0618401	0.0762228	0.622307
-0.0415616	0.62788	-0.0306539
0.286934	-0.35711	0.432482
-0.604082	0.0420719	0.173824
-0.33984	0.367273	-0.382778
0.260992	-0.0218012	-0.572981
0.14443	0.613203	0.00473957
-0.298148	-0.521911	0.188723
-0.289084	0.422856	0.366775
