-0.348805	0.44424	-0.279081
0.0834233	-0.212633	0.587135
0.50615	0.263628	-0.266856
-0.0152132	0.470116	-0.419118
0.431617	0.397053	0.230121
0.194958	0.519233	-0.298812
0.586758	-0.0545774	-0.222793
-0.24384	0.0262034	-0.580306
-0.48897	-0.397013	0.0137618
-0.376752	-0.0785228	-0.498791
0.455926	-0.398214	-0.17452
0.509141	-0.351671	0.118335
0.00494397	0.345509	0.526782
0.526998	0.0538224	0.340993
-0.346819	0.481802	-0.21091
0.271592	-0.491011	0.286437
0.342487	0.522894	0.0786393
0.586793	-0.0583428	-0.221744
0.443613	0.299789	-0.332014
0.375649	-0.00681184	0.505709
0.422679	0.464569	0.0491764
0.0714117	0.613219	-0.125551
0.55574	-0.0996362	-0.27951
0.346014	0.36282	-0.381493
0.451367	-0.293185	0.327429
-0.10418	-0.504483	-0.362689
-0.603614	0.12066	0.134133
0.567376	0.271824	0.0331084
0.378318	-0.429014	-0.26405
0.578147	-0.0140956	-0.249895
-0.0302035	-0.605568	-0.171101
-0.302202	-0.464671	0.299424
0.0061395	-0.629073	-0.033615
-0.350932	-0.519235	0.0643559
0.475041	0.0711919	0.407637
-0.143052	-0.613012	0.0255337
0.0648661	0.105881	-0.617642
-0.132117	-0.112082	-0.605709
0.461199	-0.419023	0.0928164
-0.349864	0.375481	-0.365389
0.353796	0.380246	-0.356569
0.439186	0.0340339	0.450397
-0.312344	-0.45752	0.300028
-0.119863	0.545892	-0.290749
-0.334937	-0.194284	-0.496961
-0.197837	-0.463685	0.377832
0.420161	-0.225694	-0.411615
0.477294	0.407599	-0.0543443
0.47455	-0.0672227	0.40888
0.355302	0.361223	0.374403
-0.547788	0.251988	0.182566
0.472661	-0.158423	-0.38522
-0.030338	-0.309411	0.547946
-0.587351	-0.146344	-0.174649
-0.0114418	0.568233	-0.271809
-0.141841	0.352292	-0.502664
-0.396743	-0.475603	0.11531
0.0291677	0.513625	-0.363647
0.080612	-0.594663	0.191774
0.487056	-0.371368	0.14752
-0.555246	-0.166139	0.246982
-0.161075	0.354422	-0.495318
-0.296548	-0.383508	-0.402345
0.294642	-0.414436	-0.371926
-0.0189948	-0.11037	-0.619966
-0.0645782	-0.39117	-0.489608
0.235212	0.285487	-0.509973
0.0714637	-0.411462	-0.471691
-0.548894	0.303216	-0.0606221
-0.3874	0.469211	0.163286
0.380396	0.482998	-0.137518
0.539083	-0.324702	0.0292912
0.0622851	0.508472	0.36671
0.277826	0.517586	-0.227635
0.034098	-0.109006	0.61956
-0.14836	0.053137	-0.609972
0.271875	-0.525087	0.217411
-0.0471271	-0.626412	0.0478189
-0.108355	-0.416963	0.459675
0.536946	0.295437	-0.145966
-0.338981	-0.0206734	0.530627
-0.0760849	-0.598597	-0.181087
0.0450083	0.610436	0.149139
-0.561091	-0.283564	0.0408489
0.0361132	0.19623	0.59757
0.129035	-0.158104	0.596031
-0.0160818	0.13831	-0.61442
0.448986	-0.385827	0.215522
-0.427567	0.0794094	0.45583
-0.0626483	0.51244	0.361082
0.35407	0.420877	-0.307241
0.356476	-0.514095	-0.0743718
-0.336847	-0.154903	0.509352
0.553631	0.269762	0.132744
-0.105127	0.322165	0.531091
0.109395	0.604567	-0.139398
0.385087	-0.275047	-0.415881
-0.362036	-0.145331	-0.494681
0.0841882	-0.370623	0.502445
0.0148091	-0.519693	0.355809
-0.189724	0.599819	-0.0334988
-0.596595	-0.0275503	0.200538
0.546794	-0.301916	-0.0822384
0.0121113	0.620906	-0.105966
-0.00225444	0.118316	0.618786
-0.304814	0.258189	0.487163
-0.421884	0.45514	-0.108449
0.307576	-0.0359582	-0.548638
0.0711687	0.623248	-0.0582877
0.453054	0.191534	0.393645
0.464843	-0.413073	-0.100951
-0.00952698	-0.329784	-0.536704
0.0455419	-0.563379	0.278263
-0.471539	-0.409545	-0.0826047
0.375398	0.444173	0.242253
-0.171119	0.370434	0.479997
0.612256	0.14408	0.0358334
0.384098	-0.36513	0.340658
0.611426	0.150211	0.0222588
0.607086	-0.0349634	-0.164693
0.52014	0.322324	0.149871
0.575296	0.162695	-0.198657
0.406319	0.19878	0.43851
-0.251881	-0.506473	0.277382
-0.50751	0.268403	0.25941
-0.624878	-0.0612727	-0.0517076
-0.620872	-0.100836	0.0353546
-0.172557	0.473448	0.378115
-0.500617	0.216797	0.31509
-0.363507	-0.46844	0.2129
0.468372	0.230542	-0.352673
0.293627	0.535847	-0.153465
0.242982	-0.471602	-0.339782
0.606428	-0.0678754	-0.156646
0.537277	-0.267056	0.192131
-0.263433	0.42831	0.379545
0.319416	-0.360846	0.405788
0.58927	0.222817	0.00373625
-0.0175919	-0.153172	-0.610843
-0.101891	0.315617	0.535634
0.537392	0.314692	0.0952833
0.0689451	0.577752	0.241557
0.362196	0.467819	-0.216469
0.112538	-0.360037	-0.504588
0.449367	0.00380132	-0.441537
-0.600444	0.132861	0.136801
-0.196795	0.382187	-0.460549
0.387204	-0.454832	-0.200251
0.0474672	0.620474	0.0982783
0.497538	-0.193874	0.334319
-0.210003	-0.23057	0.547391
-0.468918	-0.400182	-0.129887
-0.160498	0.455052	-0.405054
-0.116151	0.51043	-0.350528
-0.39536	0.25935	0.416327
-0.617224	0.12077	-0.0367348
0.214545	0.200785	-0.557275
0.534383	-0.301354	0.14325
0.450494	-0.314259	-0.30854
0.178238	-0.472293	0.376922
0.608301	0.0765072	0.14497
-0.603939	0.0775149	-0.161708
-0.351893	-0.37753	0.361307
0.0236441	-0.14711	0.612127
-0.517918	-0.00496205	0.358659
-0.139517	0.157696	0.593773
-0.220544	-0.472325	0.353793
0.196162	0.420428	0.426217
-0.116803	0.062536	0.615911
-0.342721	-0.0649297	0.52462
0.168358	-0.377137	-0.475734
-0.312328	0.520901	-0.167371
0.132786	0.614288	-0.0437997
-0.253585	0.27142	-0.508847
-0.240978	-0.370171	0.449225
0.286765	0.555232	-0.0798979
-0.551942	-0.0439781	-0.300542
-0.364139	0.371498	-0.355375
0.248752	0.43944	-0.376716
-0.378953	0.169108	-0.474022
-0.395152	0.357213	0.336382
0.239581	0.203756	0.54588
-0.464973	0.392763	0.162595
0.225702	0.371239	0.456224
0.470774	-0.181979	-0.377035
-0.547265	-0.274913	0.147732
-0.185256	0.4958	0.341705
0.101702	0.156909	0.601611
-0.235406	-0.37273	0.450063
-0.593982	0.104075	-0.182355
0.275117	0.381954	0.418714
-0.125711	-0.588466	-0.186558
-0.25087	0.193024	-0.544707
-0.15155	-0.294364	-0.535988
0.368415	-0.257615	0.441367
-0.229482	0.456374	0.368729
-0.0307406	-0.254484	-0.575494
-0.230626	-0.400535	-0.428116
0.250661	0.316846	0.483402
-0.147723	0.474051	0.387755
0.598378	0.190938	0.0488514
-0.305225	0.140778	-0.532841
0.120056	0.557557	0.267613
0.617842	-0.0892589	-0.0848791
0.436688	0.336978	-0.304384
0.4536	0.434884	0.0449809
0.182953	-0.384088	0.464655
-0.250035	0.0835466	-0.572191
0.549656	0.285479	0.115239
0.165703	-0.15663	-0.58729
-0.21173	0.356229	0.474522
0.218207	0.517539	0.285375
0.254856	-0.562484	-0.124739
-0.158891	-0.15814	0.588766
0.601422	0.115612	-0.147735
-0.445529	-0.362236	-0.259208
0.17221	0.4101	-0.446163
0.124786	0.191342	-0.587126
-0.354409	0.0730871	0.515706
-0.125986	-0.300734	-0.539061
-0.585462	-0.223467	0.0647871
-0.290331	0.558607	0.0238049
-0.336563	0.135257	-0.515103
-0.465576	0.302296	-0.29792
0.0202743	0.102898	-0.621209
0.109804	-0.541851	0.30206
-0.410351	-0.463613	0.116512
-0.598596	-0.150651	-0.126046
0.545745	0.162116	-0.269779
-0.143867	-0.502174	-0.352169
-0.307155	0.438673	0.331846
-0.0954696	-0.176337	0.597236
0.323217	-0.52059	-0.146345
-0.418653	0.460954	0.0956587
-0.0358897	-0.511836	-0.365562
0.279286	-0.103289	0.555185
0.451116	0.370975	0.236162
0.0610859	0.252242	-0.574058
-0.427449	-0.439279	0.145675
-0.557681	-0.162385	-0.243973
-0.200127	0.576725	0.155684
0.0601909	0.625685	0.0423694
0.6146	-0.0309381	-0.134944
-0.489668	-0.395075	0.0322745
-0.130555	-0.615939	-0.0217961
0.434155	0.0787463	0.449676
-0.281149	-0.562001	-0.0448397
0.484445	-0.295291	0.273892
0.161791	-0.315391	-0.520819
0.0516839	0.0260117	-0.627337
0.0649019	0.0657658	0.623187
-0.114297	-0.505439	0.358284
0.556812	-0.216539	0.199927
-0.40792	-0.360776	0.316769
-0.085444	-0.546126	0.302235
0.369188	0.502847	-0.0880081
-0.191097	-0.501223	-0.33039
0.486803	0.398453	0.0340331
0.0295353	0.575431	-0.254767
0.577903	0.117969	0.221385
-0.116748	0.559765	-0.264448
0.240591	-0.0955252	0.574361
0.318569	0.424502	-0.339429
-0.209501	0.527339	0.273721
-0.01509	-0.603469	-0.180269
-0.0307297	-0.546008	-0.31278
0.332651	-0.5038	0.180081
-0.152814	0.192908	-0.579943
-0.488543	0.366247	0.155208
0.430115	0.436362	-0.146593
0.340469	-0.0662924	-0.525915
-0.312508	0.221796	-0.500045
0.624578	0.0159523	-0.0809208
-0.222664	-0.342902	0.479311
0.253974	0.0972459	-0.568278
-0.337179	0.318645	0.426234
-0.3066	-0.0874993	0.54336
-0.504893	0.295409	-0.233916
-0.15378	-0.508945	0.337974
0.503621	0.240142	-0.292571
0.0511735	-0.483057	-0.40117
0.341881	0.438644	0.295988
0.224363	-0.0465761	-0.586849
-0.402635	-0.462796	-0.143545
-0.260945	0.464912	-0.335656
-0.368781	-0.117641	-0.497052
-0.122931	0.154996	0.598134
0.032148	-0.136326	-0.614233
0.271007	-0.532453	0.199872
0.389045	-0.0250207	-0.494892
0.592072	-0.18593	0.108538
0.5806	-0.205728	-0.132209
0.291881	0.37281	-0.415594
-0.167753	0.567749	-0.215452
0.490648	-0.321615	0.229627
-0.0969468	-0.404698	-0.472992
-0.244573	-0.304218	-0.494505
0.380627	-0.333553	-0.375187
-0.136457	-0.409037	-0.459313
0.119723	0.436322	-0.438394
