0.508509	0.24546	0.279407
-0.00409138	0.469272	0.420318
0.108999	0.50071	-0.366481
-0.532118	0.315703	0.118669
0.514136	0.129017	0.340469
-0.355693	0.103108	-0.509658
0.443738	-0.115031	0.432162
-0.151151	-0.220756	0.570369
-0.554996	-0.157369	-0.253208
0.127414	0.409722	-0.461295
-0.293849	0.556591	-0.0275431
-0.62719	0.0574661	0.01519
0.126961	-0.585483	0.194911
0.154201	-0.124535	-0.598008
0.361234	0.239853	-0.457034
-0.362553	0.446863	-0.256454
-0.570488	0.147435	-0.222948
0.187554	-0.0332203	0.600516
-0.27937	0.0260911	-0.564067
-0.571219	-0.114774	-0.239657
-0.0400503	0.423435	-0.464757
0.363099	-0.481982	-0.180976
-0.239411	-0.101164	-0.573889
0.1257	-0.029912	0.616608
-0.21597	-0.320538	-0.497506
-0.0584453	0.246061	-0.577008
0.198274	-0.0399434	0.59665
-0.38334	0.493922	-0.0774103
0.260486	-0.542612	-0.186063
0.177999	-0.439767	0.414513
-0.322387	-0.537262	0.065703
0.432125	-0.443601	0.115699
0.570034	0.26545	0.0387013
-0.143408	0.0143847	-0.613292
0.542931	-0.0817189	-0.308946
0.15649	0.370304	0.485062
0.617406	0.0694795	-0.104319
0.534947	-0.321137	0.0871931
-0.0441295	0.184273	-0.600829
-0.395308	0.394244	-0.291896
0.446764	0.289013	-0.337303
-0.116058	-0.584428	-0.204632
0.252616	0.0476439	-0.575165
0.615027	-0.102748	-0.0899119
0.538227	0.205673	0.254776
-0.366095	0.347611	-0.376884
-0.621356	0.025016	-0.100948
-0.333858	0.532164	0.047332
0.568313	-0.242621	0.1227
-0.108693	0.515378	-0.345647
-0.581465	0.242331	0.00861931
0.36324	0.384118	-0.342651
0.197083	0.483538	-0.35249
0.203189	0.588515	-0.09625
-0.516274	-0.316668	0.173442
-0.553978	-0.299997	0.00327183
0.0872134	-0.377589	0.496709
0.211991	0.412999	0.425901
0.0709765	-0.365777	-0.508006
0.408515	0.359091	0.317913
0.179348	-0.60179	-0.0508248
0.219509	-0.426623	0.4083
0.283265	-0.24846	0.504905
-0.145199	0.587436	0.175319
-0.256682	0.457076	-0.349421
-0.19974	0.593029	-0.072938
-0.0213657	-0.0335883	0.628741
0.100098	0.239981	0.573837
-0.453658	-0.296031	0.321652
0.146509	0.594981	-0.146397
-0.149353	-0.106172	0.602761
-0.51514	0.362669	-0.00105577
-0.545017	0.0907102	0.302702
-0.585563	0.103557	-0.208066
-0.38229	-0.0172398	-0.500457
0.596523	-0.103658	0.174111
0.555745	0.0555964	-0.291472
0.493827	-0.0104439	0.391057
0.00113622	0.387433	0.496784
-0.30447	0.366496	-0.412163
-0.0578145	-0.620357	0.093353
-0.421015	-0.455495	0.110323
-0.261313	-0.571126	0.0492986
-0.499229	-0.366161	0.116603
0.175162	-0.586476	-0.149212
0.612302	0.138389	0.053238
-0.291029	0.549932	0.0988783
-0.255786	0.371466	0.439871
0.358035	0.483029	-0.188133
0.559708	0.287039	-0.0351509
0.207523	0.40638	0.434384
-0.592459	-0.0398392	-0.210489
0.38771	0.261033	-0.422425
0.562457	0.170982	-0.22651
-0.160554	0.606898	0.0528846
-0.46295	0.0858312	0.418581
-0.239828	0.336294	0.475698
-0.0956765	0.192157	-0.592302
0.356307	0.184275	0.485786
0.268408	0.567698	0.050752
-0.487164	-0.141517	-0.373556
0.550047	-0.267559	-0.150867
-0.389869	0.0381337	0.493404
0.386225	-0.132601	0.479736
0.288671	0.101884	-0.550626
-0.436103	0.394696	0.225676
0.366894	-0.0458761	0.510083
-0.0355551	-0.181641	-0.602198
0.260042	-0.325229	-0.472762
0.611752	0.0657326	-0.135422
0.621373	0.103886	-0.00171531
0.0766387	0.384043	-0.493496
-0.104941	-0.398345	0.476664
0.0963687	-0.126119	0.609678
-0.519273	0.101909	0.341863
-0.104415	-0.15773	-0.600931
0.415306	-0.473718	0.00343522
0.506392	-0.157628	0.34003
-0.568687	-0.179521	-0.203145
0.50029	-0.179602	-0.338161
0.0214324	-0.450754	0.439616
-0.399186	0.39884	0.280138
-0.469726	-0.27691	-0.31556
-0.133592	-0.0932281	0.608574
0.409147	-0.21406	-0.428576
0.574683	0.0366657	0.255529
0.521638	-0.336919	-0.106204
-0.457482	-0.402983	-0.158793
-0.603369	-0.160661	-0.0838651
-0.128335	0.568193	0.239973
-0.310303	-0.485509	0.254741
0.219409	0.500831	-0.312935
-0.593249	0.0109987	0.211743
0.542755	-0.178977	-0.265112
-0.551246	-0.292065	-0.0878972
0.264565	-0.507188	-0.263943
-0.220305	0.444249	0.388598
0.61917	-0.00267369	0.116279
-0.239105	-0.254407	0.52441
0.431949	-0.43084	-0.157152
-0.528825	0.342084	0.0149124
-0.205325	-0.579756	0.136471
-0.39507	0.116457	0.476716
-0.531451	-0.272992	0.199838
0.546484	-0.026252	0.312356
0.457476	0.338501	0.270246
0.571983	-0.262457	0.0291826
-0.107156	0.12456	-0.608196
0.226708	0.163272	-0.564664
-0.285109	0.458915	-0.324053
-0.321662	0.359419	-0.40528
-0.0285849	0.603828	0.17741
0.291867	-0.539311	-0.14442
-0.254318	0.486756	0.308692
-0.595274	-0.0219739	-0.205099
-0.412636	0.146486	-0.45296
-0.123439	-0.591007	-0.179928
0.547124	0.226376	0.215195
0.333596	0.227473	-0.483601
-0.546402	-0.291537	0.115545
0.411368	0.413734	-0.237697
-0.227877	0.585448	-0.0471515
0.241672	-0.568902	0.121841
0.0857691	-0.536404	0.319083
0.289724	-0.525195	0.192691
0.378316	0.290259	0.411736
0.0515156	-0.36151	0.513378
0.1505	0.145694	0.594158
-0.420965	-0.194294	0.426542
-0.46836	-0.216174	0.361674
0.498401	-0.382015	-0.0506091
-0.557216	0.28167	-0.084098
0.522343	0.332413	-0.116446
-0.396189	-0.294765	-0.391214
-0.076584	-0.291387	-0.553289
0.39713	-0.398314	-0.283785
-0.432502	0.194334	-0.414821
0.508317	-0.0629176	-0.366818
0.0233696	-0.0135408	0.629421
0.484352	-0.387962	-0.108572
0.522654	0.299383	-0.18467
-0.424968	-0.369862	-0.281964
0.0950291	-0.371741	-0.499678
0.053545	0.487471	0.395481
-0.25116	0.577272	0.0239859
0.499994	-0.0529681	0.379606
-0.0311081	0.350335	-0.522683
-0.471556	0.362894	0.206985
0.27349	-0.564492	0.0587499
0.3704	-0.103598	0.49897
-0.474372	-0.386285	0.150515
0.241379	0.578613	0.061991
-0.452562	-0.229133	0.373612
0.158822	0.481998	-0.3733
0.0991942	-0.154069	-0.602763
-0.626471	0.0428416	0.0509799
-0.087331	-0.607732	-0.141193
0.401891	-0.479144	0.0761924
0.190338	0.441974	0.406609
-0.324879	-0.537303	0.051572
0.274923	0.0308882	0.566006
-0.436244	0.440413	-0.112371
-0.485047	0.310084	-0.255886
-0.437429	-0.452948	0.0198528
0.295187	0.179413	-0.526855
0.600245	-0.0860818	-0.170869
0.302189	-0.269989	0.482377
-0.375089	-0.00992495	0.506073
0.104292	0.398679	-0.476527
-0.46902	-0.165406	-0.386732
-0.0846211	0.607988	0.141738
-0.32134	0.255758	-0.477732
0.597999	0.158846	0.118596
0.33563	-0.000418035	0.533153
0.47024	-0.401662	0.120177
0.277618	0.219609	-0.521153
0.0475604	0.23167	-0.583924
-0.0988243	0.0575291	-0.619535
-0.382097	0.017892	-0.500581
-0.378731	0.139587	-0.483713
0.560739	-0.248229	0.14441
0.622222	0.0804001	-0.0572299
-0.118345	0.463327	-0.41015
-0.500616	-0.380096	0.042558
-0.0711793	-0.459897	-0.424651
-0.568672	0.0276707	-0.269717
0.0565981	-0.308574	0.546332
0.576142	-0.247631	-0.0603295
0.529656	-0.227801	0.253913
-0.415069	-0.379017	-0.284542
0.382228	-0.16391	-0.473218
-0.224753	-0.207597	-0.550717
0.318418	0.286322	-0.462093
0.550061	0.303286	-0.0484797
0.174564	0.580586	0.17131
-0.268996	0.222571	-0.524408
0.348768	0.102607	-0.514522
0.451048	-0.411355	0.155701
0.0902306	-0.615909	-0.097026
-0.599073	-0.054582	-0.18717
-0.0941278	-0.198205	0.590555
-0.570697	0.0582577	-0.260405
0.0327814	-0.1237	0.616866
0.127636	0.599486	-0.145692
0.491411	-0.356103	0.169133
-0.317329	-0.479405	-0.25763
-0.363678	0.469419	-0.210439
0.251158	-0.577771	-0.00098252
0.403728	0.202112	0.439379
0.102066	-0.571417	0.244878
0.387988	-0.344318	0.357506
-0.390345	-0.033202	0.493385
-0.00224751	0.629818	-0.0149541
0.189993	-0.406976	0.441784
0.169809	0.600887	0.0836643
0.504744	0.353957	0.129798
-0.428994	-0.435515	0.152283
-0.37823	-0.501771	0.0454715
-0.426565	-0.451226	-0.106474
-0.386652	-0.296563	-0.399313
0.443617	-0.426714	-0.134234
-0.502531	0.351709	0.143748
-0.155627	-0.573802	0.208402
-0.538642	-0.318513	-0.072899
0.49365	0.391345	-0.00768756
0.41914	0.189939	-0.430284
-0.414853	0.0397792	0.472456
-0.428559	-0.460395	0.0356851
0.532457	-0.328185	0.0753973
-0.524959	-0.300671	0.175828
0.0108844	0.4966	-0.387517
-0.0255055	-0.18283	-0.602348
0.52013	0.0633606	0.349786
-0.464785	0.374534	-0.201493
0.13919	0.46365	-0.403181
0.618694	0.0644496	0.0998209
0.590485	0.123733	-0.181432
-0.498706	-0.325841	-0.204988
0.338129	-0.18662	-0.497736
0.603849	-0.162332	-0.0769047
0.133087	-0.0340186	0.614842
-0.589981	-0.167899	0.143641
-0.497332	-0.0605926	-0.381955
-0.114806	-0.136445	-0.604237
0.221012	0.538189	-0.241674
-0.0199521	-0.188133	-0.600923
-0.269116	0.440661	-0.360963
0.232363	0.0957245	-0.577706
0.620788	0.030657	0.102869
-0.58037	0.121937	0.212608
0.245183	0.299193	-0.497261
0.000864172	-0.475677	0.413075
0.000293506	-0.608341	-0.16377
-0.152305	-0.270138	0.548388
0.0175407	-0.259801	0.573669
-0.60306	-0.179705	-0.0304094
-0.509968	0.349499	0.121175
-0.41982	-0.203413	-0.423408
-0.217833	-0.103018	0.582096
0.0998484	0.200343	0.588891
