-0.466286	0.364974	0.215107
-0.19824	-0.334071	-0.495981
0.192594	0.599034	0.0310879
-0.300735	0.540303	0.120544
0.185576	-0.599573	0.054533
0.1255	-0.477223	0.391673
0.119769	-0.0100093	0.61843
0.20883	-0.537573	-0.253585
0.585253	0.0415339	0.229464
-0.503875	-0.178909	0.333168
0.541	0.0484597	-0.319172
0.181388	0.550384	-0.247136
-0.231162	-0.237041	-0.535981
0.472749	-0.359502	0.210159
0.402926	0.222616	0.430108
0.450548	0.183859	-0.400128
-0.0426674	-0.356932	0.517377
-0.361825	0.245785	0.453401
-0.238958	-0.404638	-0.419603
0.0820738	0.615915	0.103985
-0.211655	-0.410323	0.428645
0.475806	0.000975232	-0.412926
0.480696	-0.40705	0.0118807
-0.363238	0.335907	-0.390032
0.432441	0.455753	-0.0467285
0.276444	0.373066	0.425794
0.334698	0.0740593	0.528576
-0.137596	0.496105	0.363108
-0.317281	-0.516883	0.170485
0.264553	0.520026	0.237666
0.499797	0.0702209	0.377057
-0.0807211	0.231824	0.580209
-0.125594	-0.182494	-0.589764
0.00149417	0.538026	0.327758
0.0184682	0.619437	-0.11339
-0.156418	-0.251252	-0.556153
0.391604	-0.213408	-0.444976
-0.0257096	0.452943	0.437128
-0.524115	-0.227041	0.265811
-0.628345	0.0373639	-0.0262065
-0.0172356	0.576231	0.254089
0.42989	-0.447635	0.108248
-0.0264569	-0.628721	-0.0301707
-0.490887	0.0326105	0.393531
0.250415	-0.401703	-0.415725
-0.497191	-0.372391	-0.105002
-0.0473085	-0.0773375	-0.623443
0.434123	0.109711	-0.443172
0.18808	0.591508	-0.107907
-0.457147	0.396219	0.175859
0.627777	0.0526338	-0.00504933
0.247191	0.362176	0.452356
0.363412	-0.435932	-0.273486
0.534981	0.30984	-0.121221
-0.343177	-0.0184417	0.528005
0.56099	-0.0466742	0.282862
-0.575087	0.226001	0.122874
0.560159	-0.288308	0.000721554
-0.278267	0.0665218	-0.561286
-0.341959	-0.0749965	-0.523775
-0.513103	0.343918	0.123878
-0.23287	0.582735	-0.0556017
0.402042	0.476227	0.0920309
0.298574	0.539823	0.127846
0.245578	0.316806	0.48603
-0.0754559	0.61111	0.133232
0.00494566	-0.235306	0.584386
0.332217	0.315137	-0.43269
0.0806761	-0.420846	-0.461822
0.46964	0.388879	0.158467
-0.122405	0.28195	0.549928
-0.0675833	-0.592485	-0.20321
-0.36755	-0.507317	0.0666064
0.575791	0.189266	0.17188
0.135983	0.573516	0.22246
-0.453657	0.0232145	0.436527
-0.517629	0.353847	-0.0612579
0.2755	-0.50823	-0.250403
-0.170561	-0.00668471	-0.606436
0.59605	0.174972	-0.104922
0.208972	0.47635	0.355416
0.240082	-0.563241	-0.148394
-0.544567	0.261212	-0.179207
-0.306076	-0.471895	0.283783
-0.506696	-0.289227	0.237713
0.104987	-0.540274	0.306565
-0.376143	-0.392603	-0.318245
-0.440169	0.278445	-0.354429
-0.617132	-0.0918215	0.0872719
-0.478047	-0.159352	-0.378125
0.402428	-0.140209	-0.463997
-0.623792	0.0409832	0.0781236
-0.501751	-0.303529	-0.230252
0.0440983	-0.378407	-0.501761
-0.552477	0.241215	0.182987
0.378885	0.503264	0.00846658
0.150112	-0.597632	0.131158
0.418446	-0.162201	-0.442147
0.360949	-0.509233	0.0854271
0.0875129	0.623868	0.00552815
0.286242	0.19659	0.52566
0.402888	-0.268826	0.402882
-0.481541	-0.38867	-0.118126
0.512759	-0.0634996	0.360481
0.380876	0.388545	0.317595
0.0444463	-0.62785	0.0269931
0.219138	0.521422	0.277484
-0.165771	-0.604979	0.0584826
-0.258381	0.57113	-0.0628451
-0.433351	-0.455765	0.0372197
-0.16423	0.0370243	-0.60709
-0.616529	-0.114566	0.0605569
-0.513671	-0.310277	0.191755
0.558839	0.065044	-0.283493
-0.604666	0.0459492	-0.170785
0.357288	-0.513895	0.0718116
0.53428	0.333827	0.00214634
0.363265	0.497106	0.133509
-0.19655	0.373129	0.46802
0.561386	0.257089	-0.125102
0.243779	-0.496349	-0.301843
0.600138	0.162658	0.101371
0.256081	0.197146	0.540792
0.615875	0.127791	0.0355996
0.326803	0.280885	-0.459569
0.113947	0.193818	0.588516
0.040814	0.481373	0.404369
0.461341	-0.248474	-0.34975
-0.349923	0.347956	-0.391638
0.490497	0.297767	0.260091
-0.541706	0.281858	0.154952
-0.450338	0.364552	-0.247382
0.0529212	0.312868	0.544254
0.31222	0.52303	0.160806
0.540373	0.280905	0.161214
-0.195374	0.484147	0.352606
0.0258245	0.575797	-0.254345
-0.467785	-0.376798	0.190002
-0.558963	0.213592	0.197075
0.370546	0.158726	0.48415
-0.00237296	-0.608587	0.162837
0.106006	-0.215459	0.582443
0.528062	0.330048	-0.0954935
-0.0843557	-0.509289	-0.361121
0.135849	-0.372441	0.489625
-0.56996	-0.0448276	0.264644
0.0162696	0.376375	-0.504953
-0.52837	0.278873	0.199887
-0.561809	0.27063	-0.0896089
0.082658	0.301542	0.546937
0.435239	-0.114064	0.440972
0.146777	-0.594925	0.146357
-0.179545	0.144079	0.586434
0.15283	0.0943323	-0.603858
0.444216	-0.232931	-0.381202
-0.0469291	-0.613644	-0.134682
-0.514032	0.315268	0.182419
0.628948	-0.0344408	-0.0117723
0.0963542	-0.622542	0.00755968
-0.00519985	-0.629899	-0.0100274
0.465723	-0.297743	0.302244
0.234543	-0.0363436	0.583583
-0.513895	0.299398	-0.207779
-0.61492	0.0480161	0.128327
-0.177389	0.456948	0.395767
0.436667	-0.320071	0.322144
-0.306875	-0.503886	-0.220967
0.283934	-0.172494	-0.535282
0.0746478	0.0979502	-0.617846
-0.0558032	0.62676	-0.0309462
0.25139	-0.577469	-0.0152624
0.0860358	0.555317	0.284817
-0.278399	0.415598	-0.382978
0.186877	-0.59905	-0.0558255
-0.338435	0.46492	0.257316
0.488662	-0.0582688	-0.393337
-0.368675	0.474872	0.188349
0.193086	-0.128146	-0.58583
0.163116	-0.524219	0.309011
0.354463	-0.152045	-0.498135
0.231553	-0.0399112	-0.584543
0.0073687	-0.558012	-0.292349
0.163365	0.606096	0.0534789
0.152455	-0.285623	-0.540442
-0.0784222	-0.167711	0.602182
-0.267124	0.57048	-0.00987106
0.336805	-0.492411	-0.202468
-0.304138	-0.429452	-0.346368
-0.579087	-0.0373415	-0.245283
0.607809	0.0872444	0.140911
-0.371869	0.186347	0.473168
-0.511967	-0.346664	0.120885
0.539362	0.110407	-0.306266
-0.119982	0.465685	0.406992
-0.592776	0.211254	0.0298114
-0.590334	-0.0269987	0.21835
-0.294962	0.321856	0.454209
-0.627607	-0.0422642	0.0349811
-0.210665	0.528219	0.271117
-0.136643	-0.582056	0.198595
-0.00633466	0.531601	0.338024
0.490672	0.120151	0.376437
0.556568	-0.29307	-0.0352394
-0.620528	-0.10677	0.0211107
0.610337	0.0229363	-0.154477
0.394338	-0.111197	-0.478574
-0.438927	-0.085187	0.443832
0.113095	-0.51927	-0.338331
0.0907233	-0.176446	-0.597943
-0.107946	0.048476	0.618787
0.629664	0.00773936	0.0190461
-0.0291805	-0.588479	-0.223028
0.452147	0.270299	-0.345546
0.531717	0.337503	-0.0163926
0.0235458	0.338662	-0.530711
-0.397294	0.0209913	0.488484
0.00568589	-0.624952	0.0793875
0.144547	-0.486457	0.373317
0.240066	-0.132907	0.567102
0.182511	0.573594	0.185956
0.458884	-0.381471	0.202005
-0.311664	0.0291328	-0.546733
0.074627	-0.200479	-0.59257
-0.612763	0.136249	-0.0534524
0.00842523	0.0906901	-0.623381
0.0415354	0.0772449	0.623865
-0.00755921	-0.56563	0.277319
0.454433	0.367359	-0.235453
-0.0466989	-0.626961	-0.0404927
0.201782	0.539567	-0.255052
-0.46086	-0.330877	0.273915
0.0861572	0.546527	0.301305
0.413849	-0.217905	-0.422074
0.176668	0.468811	0.381975
-0.456484	0.434072	-0.010213
0.178348	-0.148084	-0.585801
-0.272199	0.466498	-0.324327
0.126306	0.615123	0.0507023
-0.178562	-0.42281	-0.431564
0.471296	-0.387399	0.157168
0.233388	-0.479755	-0.33506
0.559147	-0.246483	-0.153301
-0.0287764	0.224887	0.58779
-0.594883	0.177493	-0.107283
-0.238223	-0.482885	-0.327065
0.431195	-0.0542676	-0.456098
0.211268	-0.362797	-0.469727
-0.323887	-0.257742	-0.474938
0.415968	-0.0159166	0.472882
0.543225	0.29636	-0.118225
0.0219255	0.579685	-0.245732
0.0617302	-0.508027	-0.367421
0.128198	-0.429889	-0.442336
0.129935	-0.589419	-0.180561
0.379378	0.497567	0.0734802
-0.492907	0.382056	-0.0893064
-0.418447	-0.231422	0.410179
0.524593	-0.276357	-0.212906
0.483169	-0.365878	-0.171991
0.403889	0.358128	0.324836
-0.434615	-0.0281287	-0.455213
-0.00895366	0.493995	0.390882
0.0318106	0.482588	-0.403729
-0.0779888	-0.19643	0.593492
0.0538227	0.420791	-0.465766
0.499893	-0.382644	-0.0243146
-0.526457	-0.267223	0.219852
0.0409997	-0.247282	-0.577988
-0.453889	0.172423	0.401442
-0.358746	0.163133	0.491517
-0.532992	-0.332852	0.0450479
-0.402159	0.0583645	-0.481416
0.621068	-0.0888393	-0.0572887
-0.3781	0.495994	0.0890507
0.0355798	0.615304	0.130519
-0.41387	-0.450039	-0.15191
-0.449265	-0.211905	-0.387501
-0.0929901	-0.23372	-0.577605
-0.223498	-0.579067	0.10784
0.0159936	0.623294	-0.090274
-0.215512	0.561338	0.188026
0.408681	-0.237566	-0.416464
0.618291	-0.0862489	0.084721
0.303854	-0.540033	0.113745
-0.241343	0.544875	0.204363
0.546745	-0.22603	0.216517
0.162771	0.443502	-0.416787
0.00819428	0.328321	-0.537622
0.371305	-0.319325	0.396313
0.46495	-0.424049	-0.0300618
0.0207793	-0.537958	0.327215
-0.289885	0.0152	-0.559138
0.00411534	-0.0785051	-0.625076
0.235513	0.0973132	-0.576163
0.22494	0.546019	0.219467
-0.450922	-0.278558	0.340551
0.236844	-0.532356	-0.239588
0.13633	-0.468048	0.399056
0.459519	-0.172186	0.395088
0.0924298	-0.573043	0.244904
