0.411511	0.0514802	-0.474245
-0.522072	0.0794957	-0.343543
-0.575768	0.234993	-0.100847
0.50607	0.37484	-0.0169605
0.177589	-0.569968	0.201244
-0.109433	0.143411	0.60362
-0.47901	0.103835	-0.395812
0.302384	-0.500638	-0.234147
-0.116593	0.291957	0.545955
-0.079358	-0.60738	0.147283
0.118429	0.473025	-0.398901
0.349168	-0.336761	0.401962
0.421589	0.235203	0.404774
0.628214	0.0473769	-0.00175922
0.347141	-0.510955	-0.123766
-0.0624676	-0.142952	0.610379
0.432764	0.372927	0.265595
0.29725	0.42741	-0.354772
-0.254063	0.554013	-0.159441
0.0636445	0.498666	-0.379712
0.497066	-0.357313	0.148839
-0.440913	0.317121	-0.319265
-0.531482	0.289112	0.175616
0.0925637	-0.209229	0.586988
-0.480128	0.405314	-0.0457919
0.143074	-0.604836	-0.10297
-0.269102	-0.331308	0.463378
-0.180037	-0.597977	0.0831274
0.0244003	0.48604	0.400088
-0.164507	-0.236512	0.560268
-0.159062	-0.595259	-0.1314
0.111626	-0.505748	-0.35869
-0.54138	-0.319516	-0.0414344
0.395569	0.47905	-0.104576
-0.064583	-0.220029	0.586785
-0.296833	-0.435002	0.345779
0.552442	0.154125	-0.260679
0.265249	-0.2997	0.486542
0.39643	0.366128	-0.325105
0.497012	0.379701	0.0755421
-0.142785	-0.607505	0.086317
-0.140785	-0.160361	-0.59276
0.609483	-0.117388	0.107935
0.138756	-0.614503	-0.00570044
0.419048	-0.46041	0.0965468
0.12456	-0.406635	-0.464793
-0.531572	0.30573	0.14443
0.468475	-0.408558	0.102527
-0.378978	-0.250791	-0.436325
0.429943	-0.245293	0.389719
0.311767	-0.133194	0.531
0.287652	0.00336289	0.560487
0.257545	-0.327832	0.472331
-0.230954	-0.585954	0.0147692
0.106585	-0.154841	0.601302
-0.066594	-0.600262	-0.179307
0.373884	-0.25927	-0.435764
0.37992	0.0277355	0.501788
-0.514967	-0.0765697	0.354748
0.393239	-0.489621	-0.0503414
0.5791	0.0185246	-0.247387
0.591139	0.13952	0.167299
-0.586335	-0.142966	-0.180755
0.0337007	-0.304367	0.550568
-0.230336	-0.456078	-0.368562
0.409212	0.343977	0.333355
-0.610494	0.135239	0.076863
0.121008	0.61624	-0.0500561
0.471384	0.198451	0.367851
0.27822	0.0278378	0.564552
-0.139459	-0.306028	0.532727
-0.269664	0.480497	-0.305456
0.406541	-0.304077	-0.373043
-0.26906	0.290223	-0.490181
-0.49765	0.246277	0.297644
0.380184	-0.258481	0.430752
-0.116621	-0.151777	-0.600219
-0.203921	-0.262988	0.534933
0.541031	-0.322663	0.00859633
-0.369286	-0.186587	0.475093
0.253691	0.0437934	0.574998
-0.27334	0.330147	-0.461723
0.393488	0.119173	0.477352
0.557589	0.262929	0.129855
-0.0997339	0.573689	-0.240487
-0.0827746	-0.086617	-0.618503
-0.258533	0.492189	0.296329
0.477266	-0.0189585	-0.410802
-0.018434	0.608215	0.163201
-0.622778	-0.0402575	-0.086182
-0.187605	0.553465	-0.235332
-0.308881	-0.396849	-0.379478
0.245215	0.442415	0.375551
-0.285391	0.451553	0.333994
0.105473	0.144406	0.604088
0.0806887	-0.546703	-0.302499
-0.146483	0.406754	-0.458251
-0.207225	0.535702	-0.258808
0.376343	0.501611	-0.0604381
0.544693	-0.201044	-0.244522
0.559083	-0.185224	-0.223647
-0.609129	0.160309	0.0127405
0.495188	0.388757	-0.0236091
-0.16626	0.284095	-0.537166
-0.245631	0.573785	0.0856511
0.108164	-0.37544	-0.494212
-0.387476	-0.19866	-0.455298
0.419175	-0.312927	0.351097
0.265609	0.245632	-0.515768
-0.00638676	-0.0509033	-0.627908
0.100467	0.366835	0.502234
0.436651	-0.414202	0.186205
0.184378	0.577245	0.172316
-0.558933	-0.204351	-0.206724
-0.611846	0.14842	0.0227254
-0.107139	-0.391164	-0.482091
-0.264607	-0.394101	0.414208
0.418376	0.450555	-0.137337
0.193719	0.357348	0.481327
0.190706	0.600186	0.0175372
-0.575086	0.0836411	-0.24327
0.413192	-0.462423	-0.111073
-0.324229	-0.470425	0.265473
0.242872	0.259339	-0.520247
-0.549616	0.0339984	0.306049
-0.328035	0.418735	0.337571
-0.21624	0.320186	-0.497616
0.0228301	0.624446	0.0802844
-0.147205	0.609143	0.0646226
0.451249	-0.381972	0.21765
0.207371	0.196975	0.561336
-0.00803978	0.218036	-0.591013
-0.503588	0.268724	0.266622
-0.359423	-0.510244	-0.0858286
0.117674	-0.566026	-0.250335
0.365684	-0.465835	-0.21488
-0.376267	-0.0979565	0.495709
-0.334123	0.112968	-0.522016
0.125998	-0.616735	0.0257332
0.465738	-0.420093	-0.0592469
0.03924	-0.29911	0.553076
0.373864	-0.206995	-0.462903
-0.0170806	0.184484	0.602141
-0.317138	0.47661	-0.262995
-0.441436	-0.251247	0.372706
-0.571684	-0.240573	-0.110463
0.101033	-0.398573	-0.477318
-0.0765866	-0.625141	-0.0152638
0.408333	0.298292	-0.375747
-0.574481	0.166548	-0.197822
0.447593	0.400258	-0.190665
-0.596899	0.195057	0.0506412
-0.0123642	0.622448	-0.0964644
-0.235056	-0.121077	0.57183
0.290136	-0.555504	0.0643126
0.342695	-0.0113886	-0.528517
-0.193823	0.107113	0.589796
-0.286601	0.3684	0.423133
-0.271945	0.20127	0.531448
-0.465214	-0.12615	0.405662
-0.029579	0.324026	-0.539474
0.318727	-0.294538	-0.456684
-0.0627813	-0.536896	0.323575
-0.438256	0.0996864	-0.441468
-0.304666	-0.409476	-0.369335
0.540558	-0.268563	-0.180475
0.301156	0.397601	0.384862
-0.259727	0.210641	0.533922
0.0302352	0.625984	0.0642675
-0.220027	0.374615	0.456237
-0.0226426	0.0538548	-0.627285
-0.226402	-0.571031	0.139877
-0.118472	-0.182052	-0.591373
0.136584	0.148611	-0.596791
-0.359801	0.0234062	-0.516619
-0.0897592	0.176738	0.598003
0.379221	-0.421746	0.274266
-0.33928	0.277558	0.452494
-0.562803	0.271198	0.0812694
-0.518568	0.176904	-0.310954
-0.128133	0.574374	0.224893
0.400868	-0.401344	-0.274094
-0.548064	0.297312	-0.0901759
0.537561	-0.321633	-0.0669322
-0.544032	-0.155391	0.277098
0.196991	-0.596666	-0.0456496
-0.205471	0.0681258	0.591642
0.440063	-0.446645	0.061263
0.495751	-0.110364	-0.372761
-0.158529	-0.605529	0.0714389
-0.328298	-0.467005	0.266509
0.0619044	-0.0197521	0.62664
0.57512	0.0459787	-0.253029
-0.125495	-0.0993607	-0.609326
-0.468068	-0.405352	0.116201
-0.472808	-0.343223	0.235693
0.0393946	0.496424	0.385891
0.437503	0.187582	0.41268
-0.280457	-0.106621	-0.553964
0.190433	0.568646	0.193072
-0.012688	0.270053	0.569043
-0.366307	0.310671	0.40768
0.565517	0.241396	0.13718
0.582857	0.112276	-0.211121
-0.469571	0.41917	-0.0264468
-0.539446	0.189113	-0.264829
0.145389	0.612984	0.00361949
-0.134693	-0.199987	-0.582034
0.464075	0.262198	-0.335836
-0.126993	0.47876	-0.389309
0.0798853	0.36473	-0.507435
-0.126126	-0.56363	0.251622
-0.269102	0.552426	0.13896
-0.271277	-0.128851	-0.553811
-0.580937	0.199649	-0.13983
0.0222311	0.516324	0.360298
-0.48212	0.046228	0.402894
0.230398	0.173246	0.560181
-0.362096	0.2525	0.449478
-0.00789551	0.50433	0.377478
-0.149267	0.606143	-0.0849126
-0.22931	0.582357	0.0719533
0.453341	-0.0271223	-0.43663
0.248	0.38879	0.42923
0.136091	0.193451	-0.583914
0.291372	0.556755	-0.0450164
0.571498	-0.220881	0.146636
0.0835855	0.489939	-0.387134
-0.0587187	-0.600117	0.182514
0.615345	-0.110989	-0.0770166
-0.213262	-0.546728	-0.229145
0.625341	-0.0142987	-0.075131
0.167519	0.173439	-0.582028
-0.427844	0.398748	-0.2342
-0.395939	0.397227	0.286954
0.309008	-0.415959	-0.358319
0.101299	-0.475395	0.400797
0.259415	-0.522163	0.238641
-0.0446018	-0.48957	-0.393994
-0.0957883	-0.23099	-0.578246
-0.42404	-0.158752	0.43805
0.272215	-0.258234	-0.506077
0.0250486	0.463158	-0.42633
0.333371	0.475825	0.243627
0.393948	0.433666	-0.231602
0.507878	-0.207503	0.309682
-0.599462	-0.146964	-0.126283
-0.415149	0.369342	0.296879
0.325421	0.401828	-0.359911
0.0447764	-0.588255	0.221022
-0.203348	0.494115	-0.333766
-0.573224	0.101185	0.240989
0.256744	-0.435537	0.375886
-0.311395	0.330668	-0.436568
-0.511731	0.319578	-0.181386
0.572212	0.253694	-0.0715008
0.352936	0.484333	-0.194313
-0.158392	-0.608623	0.0372831
-0.434652	-0.455534	0.0215969
-0.331319	0.511888	0.158426
0.06266	0.329881	-0.533059
0.407989	-0.249888	0.409879
-0.460412	-0.192776	0.384394
-0.0171597	0.25109	-0.577546
-0.143357	0.189477	-0.583479
-0.475498	-0.103126	-0.400208
-0.243962	0.335362	0.474252
-0.244127	-0.564199	-0.137771
-0.0450546	0.39515	-0.488597
-0.325543	-0.508261	-0.180534
-0.213949	0.587332	0.0785304
-0.0572566	-0.193871	0.596687
-0.231169	0.246324	-0.531776
-0.00172901	-0.182656	0.602938
-0.623929	0.0762484	0.0424152
0.220837	0.163824	0.566827
-0.59375	-0.136104	0.160736
0.456785	-0.044972	-0.431538
-0.365721	0.302879	0.41402
-0.0262626	0.287919	-0.559744
-0.380569	-0.176337	-0.470077
0.496368	0.0977892	-0.375442
-0.563126	0.0987947	-0.264629
-0.0884228	-0.212934	-0.586294
0.214037	0.49098	-0.331702
0.322899	-0.272363	0.467391
0.375342	-0.314302	-0.396526
0.0531523	-0.228662	-0.584627
0.232431	-0.392029	-0.434959
-0.199776	0.548904	0.235996
0.256788	0.399314	0.414136
-0.408307	0.43521	-0.201935
-0.609761	0.0131078	-0.157862
-0.210902	-0.209328	-0.55552
0.119151	-0.45392	-0.420309
-0.129968	-0.166254	-0.593606
-0.539091	0.000892118	-0.326005
-0.531302	0.274715	-0.197863
0.411649	-0.416514	-0.232295
0.399659	0.388279	-0.293959
