0.534132	-0.28164	0.179672
-0.0681691	-0.300239	0.549645
-0.0727301	-0.566215	-0.266479
0.490268	-0.0487752	-0.39263
-0.0200092	-0.605496	0.172842
0.47092	0.288525	-0.30313
0.556983	0.136157	0.261019
0.345713	-0.0796539	0.520613
0.597811	-0.0972972	0.173364
-0.0572961	0.172681	-0.603157
-0.112848	0.552994	-0.279933
0.21282	0.0352365	-0.591917
0.0427208	-0.616043	-0.124766
0.213293	0.533074	-0.259303
-0.0213773	-0.616601	-0.12746
-0.571526	-0.206803	0.165803
-0.432832	-0.264241	0.373809
0.455738	0.0184894	0.434581
0.528935	-0.341735	0.0185893
0.508645	0.106231	0.356224
-0.565061	0.273714	-0.0518261
-0.568796	0.27004	-0.0211981
0.601418	-0.11826	-0.145639
-0.197143	-0.226029	-0.554026
-0.223664	-0.584534	0.072072
-0.263537	-0.520499	0.237759
0.0956774	-0.0328236	-0.621827
-0.0158987	0.161466	0.608749
-0.341474	-0.442643	0.290452
0.338998	0.484031	0.21839
-0.405409	-0.375502	0.302559
-0.337885	-0.358564	-0.392639
-0.628234	-0.0463338	0.00869703
0.474646	-0.278308	-0.306848
-0.363154	-0.4712	0.207339
0.26577	0.218828	-0.527618
0.458704	-0.153162	-0.403773
0.262218	0.30165	0.48698
0.223108	-0.0667756	0.585375
-0.262991	0.325321	0.471064
-0.0686618	0.606543	0.155856
0.561193	-0.284429	0.0325924
0.418429	0.414009	0.224529
-0.32352	-0.537801	-0.0548204
-0.386207	-0.0843681	-0.490536
0.0612045	-0.596212	0.194127
-0.210936	0.590951	0.0564115
-0.00425356	0.588765	-0.224139
-0.0267593	-0.11692	-0.618477
0.36895	0.474396	0.189007
-0.605553	-0.151725	0.0847657
0.258437	-0.514008	0.256722
-0.00897476	0.125746	0.617258
0.365763	0.393652	0.328871
0.18252	-0.025773	0.60243
-0.621713	-0.096561	-0.0323882
-0.0745552	0.339731	-0.525285
-0.397033	0.4869	0.0468338
0.15578	0.51038	0.334881
-0.330898	0.530512	-0.077224
0.129658	0.551011	0.276542
-0.547089	0.309818	0.0400893
-0.39375	-0.424406	-0.248476
-0.361734	0.00792943	0.515738
-0.384004	-0.402661	0.295475
-0.0473063	0.0377118	0.627088
-0.54016	-0.0868753	0.312378
-0.0347687	-0.149153	-0.611101
-0.449672	-0.386411	0.21303
0.613787	0.0732817	0.121638
0.0467924	0.549762	0.304092
0.219474	0.0858897	-0.584255
0.176882	0.207632	0.567892
0.233966	-0.457927	0.363954
-0.103632	-0.213665	-0.58353
-0.541087	0.301198	0.115779
0.0766148	-0.441995	-0.442346
-0.239271	0.293075	0.503743
-0.133606	0.442214	0.428365
0.380549	0.452071	0.218436
0.389496	0.463451	-0.174371
-0.595654	-0.122368	-0.164688
0.548778	-0.22551	-0.211868
0.334835	0.369859	-0.384695
-0.175592	-0.207101	-0.568486
-0.548304	-0.124178	0.284328
-0.113616	-0.565306	-0.253812
-0.225186	0.579514	-0.101759
0.154387	0.595088	-0.137606
0.342906	-0.501507	-0.166752
-0.27005	-0.498695	0.274364
-0.230673	-0.092441	0.578917
0.345313	-0.526688	0.0160736
-0.0970333	0.615814	-0.0908713
-0.436348	-0.31544	0.327106
-0.416793	-0.394173	0.260406
-0.28161	-0.433512	0.360087
0.565834	0.247499	0.124404
0.0937147	-0.442295	-0.438739
0.461457	-0.129687	-0.408825
-0.299942	0.513615	-0.207689
0.141892	0.55764	-0.256524
0.529587	-0.207002	0.27127
0.0854879	-0.288756	-0.553364
0.194002	0.516174	0.304677
-0.379424	0.371576	-0.338923
-0.286836	0.366128	-0.424942
-0.345553	-0.0901469	-0.519006
-0.453786	0.146025	-0.411892
0.476584	-0.0757724	0.405002
-0.295956	0.189047	0.52304
0.00684411	-0.454216	-0.43651
0.311949	0.45735	0.300697
-0.336939	0.497325	0.189841
0.291578	-0.217788	-0.514248
0.425035	-0.162113	0.435849
0.445577	0.274971	-0.350361
-0.106307	0.274981	0.556762
0.0235554	-0.523897	0.349108
0.591863	0.215414	-0.0139467
-0.546511	0.192492	0.24733
0.404661	0.482247	-0.0242416
-0.37573	0.0711989	0.500657
0.286309	0.154969	-0.539362
-0.505856	0.340716	0.15787
0.0487505	0.456284	0.431658
-0.386791	-0.16652	0.468577
-0.0951876	0.528899	-0.328794
0.493913	-0.383204	0.0781315
0.561803	-0.283779	-0.0273205
0.123333	-0.589178	0.185898
-0.0429212	-0.0949856	-0.621318
-0.485218	0.0465851	-0.399116
0.550066	0.0608113	-0.301047
0.326628	0.412077	-0.346997
-0.317032	0.198147	-0.507079
0.536153	0.25786	0.207238
-0.444769	-0.164411	-0.414789
-0.201421	0.585683	-0.115349
0.33935	-0.39556	0.35394
0.397949	-0.168777	-0.458314
-0.11124	-0.549464	0.287428
0.452998	0.283671	0.333502
0.363603	-0.506255	-0.0916454
0.441624	0.361509	-0.266795
0.304931	-0.482907	-0.265928
0.100255	0.258979	0.56549
0.0690152	0.317182	-0.539938
0.601955	-0.0465617	-0.179951
-0.516419	-0.336377	0.130622
0.0718931	0.39274	-0.487326
0.298867	0.54853	0.0818117
-0.310603	0.351991	-0.420153
0.215532	0.395558	-0.440431
-0.198624	0.331482	0.497562
0.530847	-0.0141528	-0.338971
-0.558514	0.290786	0.0201471
0.152798	-0.472722	-0.38741
0.255223	0.315657	-0.48179
-0.0302733	-0.267139	-0.569755
-0.102543	0.0786801	-0.616599
0.582539	0.0447942	-0.235674
0.150343	0.55896	-0.248718
-0.0208372	0.58953	0.221178
0.234306	0.546182	0.209013
-0.404088	-0.329441	0.353668
0.17095	0.566104	0.217261
0.247088	0.487671	0.313089
-0.48683	0.190472	0.351593
0.221604	-0.53395	0.250377
0.612588	-0.119249	0.0861115
0.446846	-0.213189	-0.389589
0.48183	-0.0990131	0.393619
-0.537558	0.326286	-0.0383244
-0.571783	-0.237932	0.115551
-0.118838	0.475076	-0.396333
0.246207	-0.566361	0.124568
-0.6223	0.0876095	-0.0443588
-0.437317	0.171113	0.419969
-0.517771	-0.341671	-0.109883
-0.359142	0.15068	-0.495189
0.0145303	-0.368653	-0.51067
0.174668	0.555513	-0.24041
-0.385152	0.48635	0.109643
0.378304	0.36378	-0.348497
-0.287695	0.475369	-0.296911
-0.532268	0.0398531	-0.334667
0.440104	0.00999731	-0.450676
0.208964	0.298737	-0.5138
-0.281725	-0.463797	0.320037
0.193257	0.466472	-0.37677
-0.388122	-0.05456	0.493239
0.286421	0.304395	0.471388
-0.401852	0.385598	0.294497
-0.487169	0.388948	-0.0910229
0.249616	-0.491934	0.304291
0.527614	-0.0405487	-0.341876
0.453257	-0.0861424	-0.428996
0.503507	-0.301872	-0.228592
-0.0348564	-0.509305	0.369179
0.350024	-0.523411	-0.0206016
0.170827	-0.598279	-0.0988934
-0.0968812	-0.567447	0.255965
-0.416223	0.302926	-0.363173
-0.29351	0.547902	-0.102736
-0.61139	0.0506733	0.143298
0.156726	0.604855	0.0805441
0.512183	0.0264449	0.365882
-0.575461	-0.163716	-0.197336
-0.163727	-0.434646	0.425648
0.245908	0.43077	-0.388415
-0.368972	-0.506745	0.0630043
0.442797	0.238616	-0.379332
-0.18227	-0.188607	-0.572804
-0.51855	-0.10393	-0.342351
0.450391	-0.0284723	0.439587
0.300008	-0.039465	0.552574
0.188851	0.512882	-0.313349
-0.519249	0.34715	0.0822647
-0.52251	-0.0297123	0.350714
0.360769	0.296823	0.42266
-0.107498	-0.277615	0.555224
0.195816	-0.560368	-0.211054
-0.0113208	-0.623984	-0.0861145
0.163806	0.356763	-0.492735
0.323183	-0.53982	-0.03236
0.0531933	0.542914	-0.315143
-0.151589	-0.189015	0.581544
-0.250222	0.448207	-0.365239
0.269757	-0.342745	0.454595
-0.336857	-0.515616	-0.132543
0.096678	-0.59935	0.168323
0.108075	-0.610054	0.114256
-0.524217	0.285139	-0.20197
-0.379621	0.109672	0.490673
-0.578271	-0.241565	-0.0644091
-0.473899	-0.314485	0.27096
0.210698	0.379047	-0.456979
-0.0458945	-0.621919	0.0895012
0.196446	-0.299864	-0.518064
-0.555811	-0.2966	0.00175115
-0.384209	-0.435568	0.244058
-0.560907	-0.120553	-0.260288
-0.375127	-0.446029	-0.239245
-0.0736843	-0.60248	0.168785
0.152724	-0.231831	-0.565535
0.330574	0.204277	-0.495874
0.574736	0.246675	0.0756962
0.16017	0.571151	0.212207
0.575902	0.0778363	-0.243267
0.569745	0.199834	0.17988
0.0850459	0.0598479	0.621358
-0.575163	-0.244864	-0.0782926
0.264101	0.506779	0.265189
0.363484	0.512837	0.0421604
-0.342202	-0.523211	-0.077768
-0.071297	-0.225457	0.58394
-0.461347	0.306489	-0.300205
0.169729	0.560653	0.231863
-0.123883	0.308799	-0.534973
0.043718	0.204655	-0.594227
0.484821	-0.394604	-0.0783326
-0.14632	0.0672859	0.609067
0.31833	0.539571	0.0665522
-0.168346	-0.394785	-0.461199
0.518033	-0.340005	0.113744
0.0611213	-0.582683	-0.231614
-0.041433	0.0850125	-0.622861
-0.082076	0.416721	0.465303
-0.293514	-0.473589	0.294045
0.255015	-0.512914	-0.262272
-0.0205437	0.613119	-0.143399
0.327187	0.133444	-0.521576
-0.323723	-0.539068	-0.0388502
0.587252	0.223602	-0.0451363
-0.170021	0.55618	-0.242191
-0.0254745	-0.315218	-0.544875
-0.55597	-0.0864683	-0.283408
0.00754179	0.0109898	0.629859
0.097348	-0.300258	0.545223
-0.24415	0.575633	0.0770542
0.426928	-0.0776905	0.456724
-0.138536	0.55753	-0.258589
-0.0763008	0.131377	-0.611407
0.615329	-0.135165	-0.000671813
0.183053	0.102485	-0.594044
-0.437017	-0.442144	0.102103
-0.248309	0.56763	-0.114185
-0.536634	0.294958	0.148066
0.31001	0.102918	-0.538704
-0.54587	-0.298372	-0.0995011
0.166032	-0.415424	-0.443572
0.601107	0.0759116	-0.172649
0.581778	-0.227842	0.0807589
0.0631236	0.626223	0.0275654
-0.0596973	0.613923	0.1282
0.205309	0.549573	-0.229604
-0.297302	0.542812	-0.117754
0.226445	0.300865	-0.505077
0.436096	-0.398882	-0.218205
