7	6124
10	6124
11	6124
12	6124
12	6124
12	6124
12	6124
13	6124
13	6124
14	6124
14	6124
14	6124
14	6124
15	6124
16	6124
17	6124
18	6124
18	6124
19	6124
20	6124
21	6124
24	6124
38	6124
38	6124
39	6124
39	6124
39	6124
39	6124
39	6124
39	6124
40	6124
40	6124
40	6124
40	6124
40	6124
41	6124
44	6124
44	6124
44	6124
46	6124
47	6124
260	6124
260	6124
260	6124
260	6124
260	6124
260	6124
260	6124
260	6124
260	6124
260	6124
260	6124
260	6124
260	6124
260	6124
260	6124
260	6124
260	6124
260	6124
260	6124
260	6124
260	6124
260	6124
260	6124
260	6124
261	6124
261	6124
261	6124
261	6124
261	6124
261	6124
261	6124
261	6124
261	6124
261	6124
261	6124
261	6124
261	6124
261	6124
262	6124
262	6124
262	6124
262	6124
262	6124
262	6124
262	6124
263	6124
263	6124
263	6124
263	6124
264	6124
264	6124
264	6124
265	6124
266	6124
266	6124
266	6124
266	6124
272	6124
294	6124
