1	6124
1	593
1	15
1	592
1	592
1	17
1	592
1	592
1	19
1	592
1	593
1	13
1	13
1	23
1	592
1	592
1	592
1	16
1	592
1	15
1	592
1	592
1	592
1	592
1	592
1	15
1	18
1	592
1	592
1	27
1	592
1	12
1	592
1	592
1	12
1	22
1	26
1	15
1	592
1	16
1	592
1	6124
1	17
1	592
1	592
1	592
1	592
1	11
1	18
1	15
1	592
1	13
1	11
1	593
1	11
1	18
1	17
1	10
1	592
1	592
1	592
1	592
1	6124
1	592
1	592
1	592
1	10
1	592
1	33
1	14
1	592
1	592
1	9
1	13
1	7
1	12
1	22
1	592
1	24
1	592
1	592
1	592
1	592
1	10
1	592
1	593
1	592
1	13
1	592
1	593
1	592
1	592
1	17
1	17
1	12
1	13
1	592
1	592
1	10
1	592
1	592
1	592
1	592
1	10
1	9
1	592
1	14
1	592
1	593
1	592
1	13
1	11
1	15
1	16
1	593
1	29
1	593
1	592
1	593
1	592
1	29
1	592
1	10
1	14
1	592
1	21
1	12
1	28
1	6124
1	6
1	592
1	12
1	592
1	592
1	592
1	22
1	592
1	17
1	12
1	592
1	592
1	39
1	28
1	26
1	592
1	13
1	592
1	592
1	10
1	592
1	592
1	592
1	9
1	17
1	16
1	592
1	592
1	3
1	592
1	14
1	6
1	592
1	8
1	20
1	8
1	592
1	19
1	592
1	8
1	592
1	592
1	592
1	592
1	593
1	592
1	592
1	41
1	13
1	592
1	592
1	592
1	592
1	24
1	12
1	16
1	592
1	8
1	10
1	592
1	13
1	27
1	8
1	592
1	10
1	592
1	9
1	11
1	592
1	23
1	592
1	592
1	12
1	592
1	10
1	12
1	592
1	592
1	19
1	10
1	10
1	592
1	9
1	6
1	592
1	592
1	28
1	592
1	15
1	592
1	11
1	5
1	12
1	6
1	592
1	27
1	592
1	28
1	15
1	592
1	593
1	592
1	592
1	14
1	11
1	12
1	2
1	11
1	592
1	592
1	27
1	16
1	11
1	8
1	592
1	17
1	592
1	6
1	592
1	592
1	32
1	592
1	6124
1	12
1	5
1	592
1	12
1	12
1	592
1	592
1	592
1	592
1	13
1	7
1	592
1	22
1	13
1	592
1	592
1	592
1	592
1	6124
1	11
1	13
1	592
1	592
1	13
1	592
1	592
1	16
1	10
1	592
1	592
1	592
1	31
1	592
1	592
1	592
1	592
1	12
1	592
1	10
1	5
1	12
1	19
1	15
1	17
1	592
1	10
1	592
1	11
1	22
1	8
1	592
1	11
1	11
1	592
1	592
1	8
1	592
1	592
1	9
1	11
1	22
1	17
1	592
1	32
1	22
1	592
1	29
1	592
1	592
1	592
1	592
1	592
1	592
1	592
1	592
1	592
1	592
1	592
1	8
1	13
1	592
1	592
1	15
1	8
1	8
1	8
1	28
1	13
1	592
1	592
1	592
1	6
1	10
1	592
1	592
1	592
1	592
1	592
1	13
1	592
1	14
1	592
1	17
1	593
1	592
1	17
1	593
1	19
1	8
1	26
1	11
1	8
1	592
1	592
1	592
1	592
1	592
1	10
1	9
1	592
1	8
1	6124
1	592
1	42
1	592
1	10
1	592
1	8
1	592
1	592
1	592
1	592
1	592
1	592
1	592
1	17
1	6124
1	12
1	12
1	592
1	592
1	11
1	12
1	592
1	592
1	22
1	40
1	592
1	592
1	592
1	592
1	12
1	13
1	14
1	592
1	593
1	19
1	17
1	9
1	592
1	7
1	592
1	10
1	592
1	10
1	11
1	592
1	12
1	592
1	21
1	592
1	592
1	17
1	13
1	15
1	592
1	592
1	592
1	593
1	9
1	592
1	592
1	10
1	592
1	7
1	592
1	14
1	592
1	8
1	22
1	592
1	592
1	14
1	592
1	592
1	592
1	592
1	11
1	8
1	592
1	592
1	593
1	11
1	592
1	592
1	592
1	22
1	592
1	592
1	8
1	592
1	27
1	592
1	592
1	592
1	7
1	592
1	11
1	592
1	592
1	16
1	592
1	12
1	592
1	592
1	592
1	5
1	27
1	592
1	592
1	592
1	11
1	14
1	592
1	592
1	14
1	8
1	5
1	592
1	8
1	592
1	592
1	593
1	592
1	22
1	592
1	7
1	16
1	592
1	592
1	7
1	4
1	592
1	592
1	592
1	592
1	9
1	592
1	592
1	27
1	592
1	592
1	11
1	14
1	592
1	9
1	592
1	11
1	592
1	12
1	4
1	592
1	592
1	17
1	592
1	27
1	592
1	592
1	592
1	28
1	22
1	9
1	28
1	12
1	15
1	592
1	592
1	592
1	592
1	592
1	592
1	11
1	592
1	592
1	8
1	592
1	12
1	592
1	592
1	592
1	12
1	592
1	592
1	12
1	592
1	10
1	16
1	17
1	592
1	592
1	13
1	9
1	592
1	22
1	592
1	2
1	12
1	592
1	592
1	592
1	593
1	592
1	13
1	592
1	592
1	15
1	592
1	9
1	9
1	593
1	592
1	7
1	592
1	11
1	9
1	10
1	6
1	6
1	592
1	10
1	592
1	5
1	592
1	592
1	11
1	592
1	592
1	592
1	12
1	9
1	12
1	22
1	27
1	6
1	592
1	592
1	592
1	592
1	592
1	592
1	17
1	592
1	10
1	593
1	5
1	15
1	12
1	6
1	4
1	592
1	592
1	592
1	592
1	10
1	592
1	10
1	31
1	17
1	13
1	8
1	11
1	593
1	17
1	4
1	592
1	5
1	592
1	592
1	15
1	11
1	2
1	2
1	15
1	14
1	13
1	592
1	592
1	13
1	22
1	12
1	8
1	9
1	14
1	12
1	6
1	592
1	592
1	8
1	593
1	10
1	17
1	592
1	592
1	592
1	10
1	592
1	592
1	592
1	592
1	593
1	9
1	10
1	592
1	19
1	26
1	22
1	592
1	17
1	6
1	592
1	592
1	592
1	6
1	592
1	22
1	7
1	592
1	592
1	7
1	12
1	593
1	592
1	592
1	592
1	14
1	593
1	31
1	27
1	13
1	12
1	19
1	592
1	27
1	12
1	10
1	592
1	592
1	28
1	5
1	12
1	593
1	592
1	11
1	592
1	592
1	16
1	11
1	17
1	592
1	8
1	592
1	11
1	14
1	592
1	592
1	13
1	592
1	8
1	15
1	9
1	592
1	9
1	22
1	592
1	592
1	15
1	592
1	7
1	7
1	592
1	12
1	4
1	11
1	10
1	593
1	592
1	592
1	5
1	592
1	15
1	16
1	11
1	592
1	39
1	11
1	27
1	15
1	6
1	592
1	592
1	13
1	26
1	15
1	9
1	9
1	10
1	11
1	5
1	6
1	592
1	592
1	12
1	12
1	592
1	19
1	10
1	592
1	593
1	6
1	592
1	9
1	13
1	592
1	6
1	9
1	8
1	592
1	4
1	9
1	592
1	9
1	5
1	592
1	593
1	592
1	26
1	592
1	9
1	592
1	22
1	592
1	592
1	593
1	592
1	7
1	592
1	38
1	592
1	9
1	5
1	10
1	593
1	592
1	12
1	592
1	592
1	7
1	592
1	592
1	592
1	592
1	592
1	592
1	12
1	592
1	8
1	7
1	2
1	592
1	592
1	592
1	593
1	12
1	8
1	592
1	5
1	592
1	593
1	592
1	592
1	8
2	593
2	9
2	12
2	8
2	3
2	9
2	11
2	3
2	9
2	8
2	14
2	3
2	7
2	3
2	4
2	9
2	39
2	3
2	8
2	6
2	5
2	6
2	593
2	9
2	3
2	9
2	3
2	7
2	8
2	16
2	10
2	3
2	23
2	3
2	5
2	7
2	8
2	3
2	4
2	6
2	7
2	3
2	14
2	593
2	13
2	3
2	10
2	8
2	10
2	23
2	7
2	14
2	39
2	9
2	4
2	3
2	5
2	3
2	3
2	9
2	11
2	3
2	6
2	4
2	5
2	16
2	4
2	10
2	3
2	13
2	14
2	11
2	9
2	3
2	3
2	3
2	3
2	7
2	3
2	6
2	8
2	8
2	3
2	8
2	8
2	4
2	8
2	27
2	12
2	10
2	3
2	15
2	10
2	5
2	5
2	32
2	12
2	16
2	8
2	5
2	9
2	39
2	10
2	6
2	4
2	3
2	7
2	11
2	12
2	3
2	3
2	593
2	3
2	5
2	7
2	3
2	7
2	3
2	9
2	3
2	16
2	9
2	12
2	3
2	4
2	13
2	11
2	3
2	7
2	3
2	4
2	14
2	3
2	4
2	5
2	7
2	9
2	17
2	5
2	593
2	8
2	10
2	8
2	7
2	3
2	4
2	4
2	18
2	7
2	3
2	6
2	32
2	3
2	3
2	13
2	17
2	3
2	39
2	16
2	4
2	13
2	5
2	6
2	4
2	9
2	3
2	5
2	3
2	4
2	6
2	4
2	6
2	6
2	5
2	8
2	9
2	4
2	3
2	3
2	11
2	3
2	6
2	7
2	39
2	9
2	7
2	6
2	3
2	4
2	3
2	4
2	4
2	4
2	12
2	7
2	4
2	4
2	13
2	7
2	6
2	4
2	6
2	6
2	11
2	13
2	6
2	6
2	23
2	3
2	39
2	3
2	13
2	6
2	3
2	6
2	3
2	16
2	3
2	10
2	4
2	8
2	3
2	3
2	4
2	39
2	3
2	10
2	4
2	13
2	39
2	10
3	9
3	5
3	4
3	6
3	4
3	4
3	6
3	8
3	8
3	4
3	4
3	11
3	5
3	5
3	5
3	14
3	5
3	9
3	5
3	4
3	11
3	4
3	4
3	5
3	5
3	4
3	5
3	4
3	5
3	4
3	8
3	4
3	5
3	29
3	5
3	5
3	4
3	4
3	4
3	5
3	10
3	6
3	4
3	6
3	4
3	8
3	10
3	4
3	4
3	5
3	5
3	5
3	5
3	6
3	4
3	15
3	5
3	4
3	5
3	4
3	4
3	4
3	4
3	5
3	5
3	4
3	4
3	4
3	4
3	4
3	4
3	5
3	4
3	4
3	6
3	7
3	6
3	4
3	9
3	4
3	8
3	5
3	4
4	14
4	5
4	5
4	7
4	7
4	5
4	6
4	6
4	7
4	5
4	7
4	6
4	6
4	7
4	5
4	5
4	6
4	7
4	5
4	5
4	7
4	5
4	5
4	9
4	5
4	6
4	6
4	5
4	5
4	5
4	5
4	5
4	6
4	6
4	5
4	6
4	6
4	10
4	5
4	6
4	5
4	5
4	5
4	10
4	7
4	12
4	5
4	6
4	10
4	6
4	7
4	5
4	8
4	5
4	5
4	6
4	5
5	7
5	6
5	9
5	6
5	7
5	6
5	6
5	7
5	6
5	6
5	7
5	7
5	6
5	9
5	6
5	6
5	6
5	6
5	6
5	6
5	7
5	6
5	7
5	7
5	6
6	8
6	7
6	10
6	7
6	7
6	8
6	7
6	7
6	7
6	8
6	7
6	7
6	7
6	7
6	7
6	7
6	7
6	7
6	7
7	8
7	8
7	8
7	10
7	8
7	8
7	8
7	8
7	8
7	8
7	8
7	8
8	10
8	9
8	10
8	9
8	9
8	9
8	9
8	9
8	9
9	10
9	10
9	10
9	10
9	10
10	11
10	11
10	11
10	11
10	13
10	13
10	12
10	11
10	11
10	11
11	13
11	12
11	12
11	12
11	12
11	12
11	12
11	12
12	13
12	13
12	13
12	14
12	13
13	14
14	15
14	15
14	15
14	15
15	16
16	17
16	17
18	19
21	22
21	22
25	26
26	27
27	28
30	31
37	38
591	592
