1	6124
1	102
1	101
1	102
1	12
1	102
1	101
1	101
1	101
1	11
1	11
1	101
1	101
1	101
1	12
1	101
1	12
1	11
1	12
1	101
1	15
1	101
1	11
1	101
1	101
1	101
1	9
1	10
1	11
1	101
1	10
1	101
1	102
1	8
1	11
1	102
1	9
1	11
1	14
1	7
1	101
1	101
1	14
1	101
1	101
1	101
1	6
1	101
1	101
1	9
1	101
1	101
1	101
1	101
1	11
1	14
1	15
1	101
1	11
1	7
1	101
1	101
1	101
1	101
1	101
1	101
1	101
1	101
1	101
1	8
1	8
1	101
1	7
1	9
1	101
1	101
1	10
1	6
1	101
1	9
1	101
1	11
1	9
1	8
1	102
1	101
1	101
1	101
1	6
1	14
1	7
1	101
1	9
1	9
1	10
1	101
1	101
1	7
1	14
1	9
1	9
1	101
1	101
1	8
1	14
1	101
1	101
1	14
1	101
1	101
1	102
1	101
1	9
1	8
1	9
1	101
1	101
1	101
1	101
1	14
1	11
1	101
1	101
1	11
1	101
1	8
1	101
1	101
1	101
1	101
1	6
1	7
1	10
1	101
1	11
1	101
1	101
1	7
1	9
1	101
1	101
1	101
2	3
2	8
2	8
2	3
2	3
2	102
2	7
2	10
2	5
2	4
2	9
2	3
2	3
2	3
2	5
2	6
2	3
2	3
2	3
2	7
2	5
2	3
2	3
2	3
2	6
2	6
2	5
2	10
2	3
2	3
2	5
2	9
2	3
2	4
2	3
2	3
2	4
2	8
2	4
3	4
3	6
3	5
3	10
3	5
3	5
3	4
3	5
3	4
3	5
3	6
3	4
3	6
3	9
3	5
3	8
3	5
3	5
4	5
4	6
4	7
4	6
5	6
5	8
5	6
5	8
5	6
6	7
6	7
6	7
6	8
7	8
7	8
7	8
8	9
8	9
8	9
8	9
8	9
9	10
10	11
13	14
100	101
