1	6124
1	23
1	17
1	23
1	22
1	18
1	14
1	10
1	6124
1	129
1	22
1	13
1	128
1	10
1	17
1	24
1	9
1	9
1	128
1	6124
1	128
1	10
1	129
1	17
1	128
1	128
1	129
1	7
1	7
1	18
1	128
1	8
1	128
1	128
1	128
1	22
1	128
1	12
1	128
1	128
1	128
1	128
1	15
1	128
1	8
1	128
1	27
1	15
1	9
1	129
1	13
1	7
1	128
1	128
1	6
1	128
1	8
1	8
1	129
1	128
1	13
1	6
1	8
1	7
1	10
1	128
1	131
1	128
1	22
1	130
1	22
1	128
1	13
1	129
1	128
1	22
1	128
1	128
1	9
1	130
1	5
1	6
1	13
1	128
1	128
1	6
1	7
1	128
1	128
1	15
1	128
1	128
1	22
1	128
1	129
1	128
1	22
1	128
1	128
1	5
1	128
1	129
1	128
1	15
1	15
1	128
1	128
1	129
1	128
1	128
1	17
1	128
1	5
1	10
1	128
1	128
1	128
1	128
1	128
1	7
1	128
1	128
1	128
1	128
1	9
1	15
1	15
1	129
1	4
1	23
1	13
1	5
1	15
1	128
1	128
1	128
1	128
1	5
1	128
1	22
1	129
1	16
1	128
1	128
1	14
1	7
1	9
1	128
1	6
1	128
1	128
1	7
1	128
1	128
1	128
1	22
1	129
1	128
1	4
1	15
1	9
1	22
1	22
1	5
1	8
1	15
1	128
1	7
1	6
1	128
1	128
1	3
1	129
1	128
1	5
1	128
1	9
1	128
1	128
1	128
1	128
1	128
1	7
1	4
1	128
1	129
1	129
1	5
1	22
1	129
1	128
1	128
1	128
1	128
1	15
1	128
1	7
1	128
1	4
1	7
1	5
1	128
1	22
1	128
1	128
1	128
1	128
2	4
2	3
2	5
2	5
2	7
2	8
2	3
2	8
2	3
2	3
2	3
2	3
2	3
2	8
2	5
2	3
2	5
2	3
2	3
2	3
2	3
2	3
2	8
2	3
2	7
2	4
2	4
2	3
2	3
2	5
2	3
2	7
2	3
2	4
2	3
2	3
2	3
2	3
2	3
2	3
2	3
2	3
2	3
2	4
2	3
2	7
2	3
2	3
2	3
2	3
2	7
3	4
3	4
3	4
3	4
3	5
3	4
3	4
3	4
3	4
3	4
3	4
3	4
3	4
3	6
3	5
3	4
3	4
3	4
3	6
3	8
3	5
4	5
4	6
4	5
4	6
4	5
4	5
4	5
4	5
4	5
4	5
4	5
4	5
5	6
5	6
5	7
5	7
5	6
5	6
6	7
6	7
6	8
6	7
6	7
12	13
14	15
14	15
21	22
127	128
