7	6124
8	6124
9	6124
10	6124
10	6124
11	6124
11	6124
11	6124
13	6124
13	6124
14	6124
14	6124
16	6124
16	6124
16	6124
18	6124
19	6124
19	6124
19	6124
20	6124
21	6124
22	6124
22	6124
23	6124
23	6124
23	6124
23	6124
26	6124
26	6124
26	6124
27	6124
27	6124
32	6124
35	6124
36	6124
37	6124
37	6124
40	6124
46	6124
383	6124
383	6124
383	6124
383	6124
383	6124
383	6124
383	6124
383	6124
383	6124
383	6124
383	6124
383	6124
383	6124
383	6124
383	6124
383	6124
383	6124
383	6124
383	6124
383	6124
383	6124
383	6124
383	6124
383	6124
384	6124
384	6124
384	6124
384	6124
384	6124
384	6124
384	6124
384	6124
384	6124
384	6124
384	6124
384	6124
384	6124
384	6124
384	6124
384	6124
384	6124
384	6124
385	6124
385	6124
385	6124
385	6124
385	6124
386	6124
386	6124
386	6124
386	6124
386	6124
386	6124
387	6124
388	6124
388	6124
390	6124
390	6124
395	6124
399	6124
401	6124
413	6124
