1	6124
1	210
1	211
1	210
1	9
1	210
1	210
1	212
1	210
1	210
1	8
1	210
1	210
1	210
1	210
1	210
1	210
1	8
1	210
1	9
1	210
1	19
1	6124
1	10
1	210
1	8
1	8
1	210
1	7
1	15
1	210
1	12
1	11
1	210
1	210
1	210
1	210
1	6124
1	8
1	210
1	210
1	210
1	16
1	15
1	13
1	210
1	210
1	210
1	210
1	210
1	210
1	15
1	211
1	211
1	210
1	210
1	15
1	6124
1	5
1	9
1	8
1	210
1	210
1	14
1	7
1	210
1	210
1	9
1	13
1	210
1	210
1	210
1	210
1	210
1	210
1	210
1	14
1	6
1	210
1	210
1	210
1	210
1	210
1	210
1	210
1	210
1	7
1	210
1	210
1	210
1	210
1	5
1	210
1	210
1	211
1	11
1	9
1	210
1	8
1	210
1	7
1	6
1	210
1	210
1	210
1	210
1	210
1	14
1	210
1	210
1	211
1	14
1	210
1	4
1	210
1	210
1	11
1	210
1	210
1	210
1	6
1	8
1	14
1	8
1	9
1	14
1	210
1	10
1	15
1	210
1	210
1	210
1	7
1	210
1	210
1	210
1	11
1	210
1	210
1	210
1	2
1	14
1	11
1	210
1	14
1	15
1	8
1	210
1	6
1	210
1	210
1	210
1	9
1	210
1	210
1	7
1	210
1	8
1	9
1	210
1	9
1	210
1	6
1	9
1	210
1	210
1	210
1	8
1	210
1	210
1	6
1	210
1	12
1	12
1	15
1	210
1	210
1	210
1	210
1	210
1	11
1	210
1	8
1	14
1	8
1	6
1	210
1	11
1	210
1	210
1	9
1	210
1	210
1	9
1	210
1	210
1	9
1	210
1	7
1	210
1	210
1	11
1	210
1	210
1	210
1	15
1	210
1	210
1	7
1	15
1	210
1	12
1	210
1	210
1	210
1	210
1	210
1	4
1	14
1	210
1	210
1	7
1	210
1	210
1	8
1	4
1	210
2	3
2	11
2	3
2	8
2	7
2	6
2	9
2	5
2	19
2	10
2	8
2	8
2	4
2	8
2	18
2	18
2	7
2	12
2	6
2	8
2	6
2	7
2	6
2	8
2	18
2	4
2	9
2	8
2	5
2	5
2	3
2	6
2	3
2	3
2	8
2	9
2	6
2	8
2	15
2	3
2	7
2	4
2	4
2	12
2	3
2	18
2	8
2	18
2	6
2	8
2	8
2	5
2	4
2	7
2	8
2	4
2	3
2	3
2	4
2	7
2	5
2	18
2	5
2	18
2	6
2	6
2	4
2	6
2	18
2	6
2	5
2	7
2	8
2	6
2	6
2	8
2	7
3	6
3	7
3	8
3	4
3	5
3	4
3	6
3	5
3	5
3	7
3	4
3	9
3	5
3	4
3	5
3	4
3	7
3	6
3	7
3	4
3	4
3	4
3	6
3	7
3	4
3	6
3	5
3	4
3	5
3	4
3	9
3	7
3	6
3	7
3	5
3	5
3	4
3	5
4	5
4	6
4	7
4	5
4	7
4	5
4	6
4	5
4	8
4	6
4	5
4	6
4	6
4	7
4	6
4	5
4	5
4	6
4	6
4	6
4	5
4	5
4	6
4	5
4	6
4	7
4	7
4	5
4	6
4	7
4	5
4	6
5	6
5	6
5	6
5	6
5	7
5	6
5	7
5	7
5	6
6	7
6	7
6	7
6	7
6	7
6	7
6	8
6	7
6	7
7	8
8	9
8	9
9	10
9	10
10	11
10	11
13	14
13	14
14	15
16	18
209	210
