1	6124
1	76
1	74
1	14
1	74
1	74
1	74
1	74
1	7
1	74
1	74
1	74
1	75
1	11
1	74
1	74
1	74
1	74
1	74
1	74
1	74
1	74
1	74
1	10
1	74
1	74
1	74
1	74
1	74
1	74
1	10
1	12
1	74
1	74
1	74
1	74
1	7
1	74
1	6
1	74
1	75
1	74
1	74
1	74
1	74
1	74
1	74
1	74
1	74
1	74
1	6
1	74
1	6
1	74
1	74
1	11
1	74
1	11
1	75
1	74
1	74
1	74
1	74
1	11
1	74
1	74
1	75
1	74
1	74
1	10
1	6
1	74
1	74
1	74
1	7
1	6
1	11
1	74
1	74
1	74
1	74
1	6
1	10
1	74
1	74
1	74
1	74
1	74
1	6
2	6
2	12
2	6
2	6
2	3
2	6
2	5
2	3
2	4
2	3
2	3
2	4
2	75
2	4
2	4
2	3
2	4
2	3
2	4
2	3
2	6
2	4
3	4
3	5
3	4
3	5
3	5
3	4
3	4
3	4
3	5
3	5
4	6
4	5
4	6
4	5
5	6
9	10
10	11
73	74
