1	6124
1	35
1	29
1	35
1	431
1	430
1	430
1	430
1	430
1	21
1	8
1	430
1	430
1	430
1	430
1	430
1	4
1	430
1	430
1	430
1	431
1	430
1	430
1	430
1	430
1	6124
1	16
1	430
1	430
1	6124
1	430
1	11
1	430
1	430
1	19
1	430
1	11
1	430
1	430
1	430
1	430
1	430
1	430
1	10
1	18
1	430
1	10
1	28
1	430
1	431
1	9
1	430
1	6124
1	430
1	431
1	430
1	11
1	430
1	432
1	2
1	430
1	430
1	19
1	430
1	430
1	432
1	430
1	18
1	430
1	430
1	430
1	430
1	430
1	430
1	430
1	430
1	13
1	430
1	430
1	430
1	7
1	7
1	17
1	430
1	11
1	6124
1	12
1	430
1	430
1	19
1	430
1	430
1	430
1	430
1	430
1	430
1	430
1	430
1	28
1	6124
1	29
1	14
1	430
1	430
1	10
1	7
1	430
1	430
1	430
1	430
1	3
1	14
1	14
1	430
1	10
1	430
1	430
1	11
1	7
1	430
1	9
1	12
1	20
1	4
1	430
1	430
1	12
1	9
1	430
1	430
1	430
1	11
1	7
1	8
1	430
1	430
1	9
1	430
1	430
1	7
1	28
1	430
1	430
1	6124
1	430
1	9
1	430
1	430
1	431
1	430
1	11
1	20
1	431
1	430
1	8
1	430
1	431
1	430
1	431
1	430
1	430
1	430
1	15
1	430
1	430
1	430
1	430
1	7
1	430
1	10
1	14
1	8
1	430
1	430
1	18
1	430
1	28
1	430
1	6
1	8
1	430
1	14
1	28
1	7
1	430
1	7
1	8
1	430
1	430
1	11
1	430
1	10
1	430
1	430
1	430
1	430
1	430
1	431
1	10
1	430
1	430
1	430
1	430
1	430
1	430
1	430
1	18
1	430
1	9
1	9
1	430
1	17
1	430
1	430
1	430
1	430
1	430
1	30
1	6
1	430
1	8
1	430
1	430
1	430
1	8
1	14
1	430
1	430
1	5
1	430
1	430
1	8
1	430
1	430
1	430
1	430
1	430
1	430
1	430
1	430
1	14
1	430
1	430
1	29
1	430
1	8
1	430
1	430
1	430
1	12
1	430
1	430
1	430
1	430
1	7
1	430
1	8
1	430
1	430
1	430
1	430
1	11
1	430
1	430
1	430
1	430
1	430
1	19
1	430
1	430
1	431
1	430
1	8
1	430
1	10
1	430
1	430
1	28
1	430
1	431
1	430
1	6
1	430
1	9
1	430
1	430
1	431
1	8
1	18
1	8
1	430
1	430
1	430
1	430
1	430
1	430
1	13
1	5
1	430
1	14
1	430
1	430
1	430
1	430
1	14
1	430
1	430
1	4
1	430
1	430
1	8
1	14
1	430
1	6
1	430
1	430
1	19
1	430
1	430
1	430
1	8
1	430
1	18
1	8
1	13
1	430
1	430
1	430
1	430
1	28
1	430
1	430
1	430
1	430
1	430
1	430
1	430
1	430
1	430
1	4
1	430
1	430
1	9
1	430
1	430
1	430
1	430
1	430
1	13
1	430
1	430
1	430
1	430
1	430
1	430
1	6124
1	430
1	11
1	430
1	7
1	6124
1	9
1	430
1	430
1	19
1	430
1	430
1	430
1	430
1	430
1	430
1	430
1	6
1	28
1	28
1	430
1	28
1	430
1	28
1	430
1	430
1	430
1	430
1	430
1	430
1	430
1	28
1	11
1	9
1	430
1	430
1	14
1	430
1	430
1	430
1	430
1	430
1	7
1	431
1	19
1	430
1	10
1	430
1	9
1	430
1	8
1	2
1	431
1	8
1	430
1	430
1	430
1	430
1	430
1	430
1	430
1	7
1	430
1	430
1	430
1	6
1	430
1	28
1	4
1	6
1	18
1	9
1	10
1	430
1	430
1	430
1	430
1	430
1	430
1	6124
1	18
1	430
1	6
1	8
1	2
1	18
1	430
1	430
1	11
1	430
1	28
1	28
1	430
1	430
1	14
1	8
1	430
1	19
1	430
1	28
1	28
1	6
1	10
1	430
1	2
1	430
1	430
1	431
1	430
1	430
1	7
1	430
1	430
1	430
1	430
1	430
1	430
1	430
1	2
1	8
1	11
1	9
1	430
1	7
1	9
1	430
1	430
1	430
1	14
1	430
1	430
1	5
1	430
1	6
1	430
1	4
1	6
1	6
1	3
1	432
1	430
1	6
1	430
1	430
1	430
1	6
1	430
1	2
1	9
1	430
1	430
1	430
1	430
1	9
1	2
1	7
1	4
1	10
1	430
1	430
1	430
1	430
1	6
1	8
1	430
1	430
1	430
1	5
1	430
1	430
1	430
1	430
1	430
1	430
1	10
1	430
1	430
1	430
1	430
1	6
1	430
1	6
1	430
1	430
1	430
1	430
1	430
1	430
1	430
1	10
1	430
1	430
1	430
1	430
1	430
1	14
1	18
1	14
1	430
1	431
1	430
1	430
1	430
1	6
1	430
1	430
1	430
1	431
1	430
1	19
1	430
1	430
1	430
2	6
2	11
2	3
2	3
2	7
2	3
2	7
2	8
2	3
2	8
2	3
2	20
2	6
2	3
2	3
2	8
2	3
2	13
2	7
2	3
2	10
2	6
2	10
2	6
2	3
2	8
2	431
2	7
2	3
2	4
2	6
2	5
2	8
2	3
2	3
2	3
2	5
2	8
2	3
2	3
2	5
2	4
2	11
2	6
2	6
2	3
2	15
2	9
2	6
2	5
2	3
2	6
2	6
2	3
2	7
2	3
2	10
2	7
2	3
2	3
2	3
2	3
2	4
2	3
2	6
2	3
2	7
2	4
2	4
2	4
2	4
2	5
2	7
2	5
2	3
2	6
2	6
2	5
2	4
2	3
2	3
2	6
2	3
3	5
3	4
3	6
3	5
3	5
3	5
3	4
3	5
3	5
3	4
3	4
3	4
3	4
3	4
3	7
3	5
3	4
3	7
3	4
3	4
3	6
3	4
3	4
3	6
3	4
3	4
3	6
3	6
3	4
3	4
3	4
3	6
3	4
3	4
3	4
3	4
3	4
3	5
3	4
3	4
4	5
4	5
4	5
4	5
4	5
4	5
4	6
4	6
4	5
4	5
4	5
4	8
4	5
4	5
4	5
4	8
4	5
4	5
4	5
4	5
4	5
4	5
4	6
4	6
5	6
5	6
5	6
5	6
5	6
5	6
5	9
5	7
5	6
5	6
5	6
5	7
6	7
6	7
6	8
6	7
6	7
6	7
7	8
7	8
7	8
7	8
7	8
7	8
7	9
8	9
8	9
8	9
8	9
8	9
9	10
9	10
10	11
13	14
13	14
17	18
18	19
27	28
429	430
