10	6124
11	6124
12	6124
12	6124
12	6124
13	6124
14	6124
14	6124
14	6124
15	6124
15	6124
16	6124
16	6124
17	6124
17	6124
17	6124
17	6124
19	6124
20	6124
20	6124
20	6124
20	6124
21	6124
21	6124
22	6124
22	6124
23	6124
27	6124
27	6124
28	6124
28	6124
28	6124
28	6124
28	6124
29	6124
29	6124
29	6124
29	6124
30	6124
30	6124
30	6124
31	6124
33	6124
33	6124
42	6124
176	6124
176	6124
176	6124
176	6124
176	6124
176	6124
176	6124
176	6124
176	6124
176	6124
176	6124
176	6124
176	6124
176	6124
176	6124
176	6124
176	6124
176	6124
176	6124
176	6124
176	6124
176	6124
176	6124
177	6124
177	6124
177	6124
177	6124
177	6124
177	6124
177	6124
177	6124
177	6124
177	6124
177	6124
178	6124
178	6124
178	6124
178	6124
178	6124
178	6124
179	6124
179	6124
179	6124
180	6124
180	6124
180	6124
180	6124
181	6124
182	6124
182	6124
186	6124
189	6124
191	6124
