1	6124
1	176
1	175
1	15
1	19
1	9
1	175
1	176
1	175
1	19
1	175
1	175
1	17
1	22
1	17
1	175
1	175
1	175
1	15
1	175
1	20
1	8
1	15
1	27
1	15
1	10
1	175
1	175
1	11
1	175
1	11
1	175
1	175
1	175
1	18
1	28
1	178
1	13
1	13
1	13
1	8
1	176
1	175
1	11
1	175
1	4
1	175
1	175
1	175
1	175
1	175
1	175
1	175
1	175
1	17
1	9
1	175
1	17
1	12
1	17
1	175
1	11
1	175
1	6
1	175
1	10
1	9
1	175
1	10
1	9
1	175
1	7
1	10
1	175
1	13
1	175
1	12
1	175
1	6
1	10
1	175
1	8
1	8
1	175
1	16
1	18
1	175
1	175
1	17
1	6124
1	175
1	175
1	175
1	175
1	175
1	4
1	18
1	8
1	5
1	175
1	175
1	17
1	13
1	13
1	175
1	9
1	175
1	12
1	175
1	6
1	9
1	7
1	176
1	18
1	175
1	175
1	175
1	175
1	13
1	11
1	12
1	175
1	175
1	175
1	16
1	6
1	175
1	175
1	6
1	175
1	175
1	175
1	9
1	7
1	11
1	175
1	175
1	175
1	175
1	176
1	175
1	175
1	175
1	18
1	9
1	175
1	175
1	175
1	8
1	17
1	175
1	6
1	175
1	175
1	8
1	10
1	175
1	175
1	175
1	175
1	175
1	177
1	17
1	175
1	6
1	8
1	175
1	16
1	175
1	17
1	175
1	26
1	175
1	5
1	175
1	10
1	175
1	175
1	175
1	175
1	175
1	176
1	175
1	175
1	175
1	7
1	175
1	10
1	5
1	176
1	16
1	175
1	5
1	5
1	7
1	175
1	6
1	9
1	10
1	10
1	175
1	175
1	175
1	175
1	6
1	5
1	8
1	175
1	175
1	175
1	175
1	7
1	175
1	175
1	18
1	175
1	4
1	8
1	175
1	175
1	8
1	7
1	7
1	6
1	10
1	16
2	8
2	3
2	4
2	11
2	176
2	5
2	5
2	3
2	27
2	3
2	176
2	27
2	3
2	8
2	27
2	3
2	3
2	27
2	4
2	8
2	6
2	3
2	27
2	12
2	3
2	18
2	8
2	18
2	17
2	5
2	11
2	176
2	9
2	11
2	4
2	5
2	27
2	11
2	5
2	6
2	3
2	6
2	4
2	4
2	5
2	4
2	3
2	7
2	4
2	4
2	6
2	7
2	8
2	3
2	6
2	4
2	4
2	7
2	4
2	27
2	3
2	3
2	7
2	5
3	5
3	4
3	5
3	5
3	11
3	4
3	4
3	8
3	4
3	4
3	5
3	8
3	6
3	5
3	5
3	4
3	4
3	9
3	5
3	13
3	8
3	4
3	9
3	4
3	4
3	4
3	4
3	4
3	4
3	5
4	5
4	5
4	5
4	5
4	5
4	5
4	5
4	5
4	7
4	5
4	6
4	5
5	6
5	7
5	7
5	6
5	8
5	7
5	7
5	6
5	11
5	6
5	6
5	6
5	6
6	9
6	7
6	7
6	7
6	7
6	7
6	7
6	7
7	8
8	9
8	11
9	11
9	10
9	10
10	11
12	13
15	16
16	17
17	18
25	26
174	175
