10	6124
11	6124
13	6124
14	6124
15	6124
16	6124
17	6124
27	6124
30	6124
30	6124
31	6124
32	6124
32	6124
190	6124
190	6124
190	6124
190	6124
190	6124
190	6124
190	6124
190	6124
190	6124
190	6124
190	6124
190	6124
190	6124
190	6124
190	6124
191	6124
191	6124
191	6124
191	6124
191	6124
191	6124
191	6124
191	6124
191	6124
191	6124
191	6124
191	6124
191	6124
191	6124
191	6124
191	6124
191	6124
192	6124
192	6124
192	6124
193	6124
193	6124
193	6124
193	6124
195	6124
195	6124
195	6124
196	6124
196	6124
198	6124
206	6124
215	6124
