1	6124
1	249
1	17
1	6124
1	17
1	12
1	14
1	13
1	11
1	248
1	248
1	249
1	248
1	249
1	13
1	16
1	9
1	10
1	10
1	15
1	248
1	12
1	248
1	9
1	6124
1	9
1	6124
1	21
1	248
1	14
1	14
1	248
1	248
1	15
1	5
1	248
1	248
1	13
1	248
1	248
1	17
1	11
1	15
1	12
1	248
1	249
1	9
1	13
1	8
1	248
1	10
1	248
1	13
1	248
1	6124
1	14
1	12
1	21
1	248
1	12
1	250
1	248
1	7
1	7
1	12
1	6
1	248
1	12
1	2
1	248
1	14
1	248
1	10
1	11
1	11
1	12
1	14
1	15
1	10
1	248
1	248
1	13
1	10
1	248
1	248
1	10
1	10
1	249
1	248
1	248
1	248
1	18
1	21
1	248
1	13
1	8
1	8
1	248
1	10
1	10
1	15
1	7
1	248
1	10
1	21
1	10
1	251
1	18
1	17
1	248
1	9
1	9
1	7
1	15
1	248
1	248
1	249
1	8
1	12
1	8
1	3
1	248
1	11
1	248
1	9
1	248
1	8
1	9
1	18
1	15
1	9
1	248
1	15
1	248
1	248
1	6124
1	9
1	14
1	11
1	10
1	248
1	5
1	248
1	248
1	248
1	5
1	15
1	16
1	248
1	12
1	10
1	11
1	9
1	10
1	18
1	14
1	11
1	9
1	16
1	18
1	248
1	248
1	10
1	9
1	12
1	248
1	6
1	6124
1	248
1	248
1	248
1	248
1	6
1	8
1	6
1	17
1	12
1	8
1	6124
1	248
1	248
1	9
1	248
1	10
1	248
1	13
1	248
1	248
1	12
1	18
1	8
1	248
1	9
1	12
1	249
1	248
1	248
1	6
1	9
1	10
1	5
1	248
1	9
1	248
1	248
1	4
1	10
1	8
1	248
1	10
1	248
1	11
1	248
1	9
1	250
1	248
1	248
1	248
1	248
1	11
1	248
1	18
1	7
1	12
1	248
1	248
1	248
1	4
1	5
1	248
1	12
1	11
1	7
1	9
1	13
1	248
1	9
1	16
1	248
1	248
1	15
1	249
1	2
1	5
1	248
1	11
1	10
1	5
1	8
1	20
1	248
1	248
1	248
1	18
1	9
1	248
1	248
1	248
1	248
1	7
1	12
1	4
1	12
1	4
1	248
1	13
1	11
1	10
1	248
1	8
1	7
1	6
1	248
1	248
1	8
1	7
1	7
1	6
1	10
1	248
1	15
1	3
1	13
1	9
1	6
1	248
1	10
1	12
1	7
1	248
1	12
1	11
1	248
1	2
1	6
1	11
1	2
1	248
1	12
1	248
1	8
1	13
1	11
1	248
1	6
1	248
1	248
1	15
1	6
1	248
1	248
1	11
1	5
1	6
1	248
1	248
1	14
1	11
1	6
1	248
1	10
1	8
1	6
1	6
1	7
1	7
1	8
1	249
1	6
1	248
1	14
1	248
1	5
1	248
1	11
1	248
1	11
1	248
1	10
1	248
1	249
1	248
1	15
1	7
1	248
1	248
1	248
1	7
1	248
1	6
1	8
1	15
1	248
1	8
1	5
1	248
1	248
1	13
1	248
1	8
1	6
1	6
1	248
1	13
1	7
1	248
1	248
1	9
1	10
1	5
1	248
1	7
1	14
1	7
1	248
1	248
1	248
1	9
1	248
1	7
1	7
1	248
1	11
1	18
1	15
1	248
1	18
1	248
1	11
1	248
1	248
1	10
1	20
1	10
1	248
1	248
1	248
1	5
1	248
1	248
1	9
1	8
1	14
1	9
1	9
2	8
2	6
2	7
2	7
2	12
2	6
2	11
2	9
2	5
2	3
2	3
2	3
2	3
2	9
2	8
2	10
2	8
2	8
2	3
2	5
2	11
2	8
2	3
2	3
2	10
2	4
2	14
2	8
2	11
2	7
2	3
2	7
2	9
2	9
2	3
2	3
2	249
2	9
2	11
2	7
2	9
2	6
2	3
2	9
2	3
2	3
2	6
2	3
2	3
2	4
2	12
2	6
2	5
2	3
2	5
2	8
2	8
2	3
2	3
2	9
2	3
2	6
2	7
2	9
2	4
2	7
2	3
2	4
2	4
2	6
2	7
2	4
2	8
2	7
2	8
2	3
2	3
2	5
2	10
2	9
2	4
2	6
2	16
2	12
2	8
2	5
2	7
2	5
2	8
2	6
2	7
2	3
2	3
2	6
2	8
2	5
2	12
2	4
2	8
2	4
2	3
2	3
2	3
2	8
2	8
2	7
2	4
2	5
2	3
2	5
2	3
2	8
2	7
2	7
2	9
2	8
2	8
2	4
2	3
2	8
2	6
2	3
2	3
2	6
2	8
2	11
2	4
2	10
3	5
3	7
3	5
3	7
3	8
3	5
3	5
3	4
3	7
3	4
3	4
3	4
3	5
3	6
3	7
3	4
3	5
3	6
3	5
3	9
3	8
3	4
3	4
3	11
3	4
3	4
3	4
3	5
3	6
3	5
3	8
3	5
3	6
3	6
3	4
3	4
3	8
3	6
3	5
3	5
3	9
3	5
3	5
3	6
3	5
3	4
3	5
3	4
3	4
3	4
3	4
3	4
3	13
3	5
3	4
3	4
3	6
4	5
4	5
4	7
4	5
4	5
4	6
4	5
4	7
4	10
4	5
4	5
4	6
4	6
4	5
4	5
4	5
4	6
4	6
4	6
4	5
4	5
4	5
4	5
4	6
4	5
4	6
4	5
4	5
4	5
4	6
4	5
5	9
5	6
5	6
5	6
5	6
5	6
5	6
5	8
5	6
5	6
5	6
5	6
5	7
5	7
5	7
5	6
5	6
5	6
5	6
5	7
5	7
5	6
5	6
5	7
5	6
5	6
5	6
5	6
5	7
5	7
6	7
6	7
6	8
6	7
6	7
6	7
6	7
6	8
6	7
6	7
6	7
6	7
6	7
6	8
6	7
6	7
7	9
7	8
7	8
7	9
7	8
8	9
8	9
8	9
8	9
8	9
8	9
9	10
9	10
9	10
9	10
9	10
10	11
10	11
10	11
10	11
10	11
10	11
11	12
12	13
13	14
13	14
14	15
14	15
14	15
17	18
19	20
247	248
