7	6124
8	6124
11	6124
12	6124
14	6124
14	6124
16	6124
16	6124
16	6124
17	6124
17	6124
20	6124
20	6124
25	6124
33	6124
33	6124
33	6124
33	6124
35	6124
35	6124
36	6124
36	6124
43	6124
236	6124
236	6124
236	6124
236	6124
236	6124
236	6124
236	6124
236	6124
236	6124
236	6124
236	6124
236	6124
236	6124
236	6124
236	6124
236	6124
236	6124
236	6124
236	6124
236	6124
236	6124
236	6124
236	6124
236	6124
236	6124
236	6124
236	6124
236	6124
237	6124
237	6124
237	6124
237	6124
237	6124
237	6124
237	6124
237	6124
237	6124
237	6124
237	6124
237	6124
237	6124
237	6124
237	6124
237	6124
237	6124
237	6124
237	6124
238	6124
238	6124
238	6124
238	6124
238	6124
239	6124
240	6124
240	6124
240	6124
243	6124
244	6124
246	6124
264	6124
