7	6124
10	6124
10	6124
11	6124
11	6124
11	6124
12	6124
12	6124
12	6124
12	6124
12	6124
13	6124
13	6124
13	6124
13	6124
14	6124
15	6124
15	6124
16	6124
16	6124
18	6124
18	6124
19	6124
19	6124
20	6124
20	6124
20	6124
21	6124
21	6124
21	6124
23	6124
106	6124
106	6124
106	6124
106	6124
106	6124
106	6124
106	6124
106	6124
106	6124
106	6124
106	6124
106	6124
106	6124
107	6124
107	6124
107	6124
107	6124
107	6124
107	6124
107	6124
107	6124
107	6124
107	6124
107	6124
107	6124
108	6124
108	6124
108	6124
108	6124
108	6124
108	6124
108	6124
109	6124
109	6124
111	6124
111	6124
112	6124
117	6124
119	6124
