1	6124
1	6124
1	199
1	198
1	198
1	6124
1	6124
1	25
1	198
1	17
1	198
1	198
1	198
1	15
1	39
1	25
1	198
1	198
1	38
1	21
1	37
1	198
1	198
1	7
1	198
1	198
1	198
1	198
1	198
1	198
1	12
1	198
1	198
1	12
1	37
1	198
1	198
1	11
1	198
1	9
1	198
1	199
1	15
1	198
1	198
1	198
1	198
1	6124
1	24
1	198
1	24
1	9
1	37
1	198
1	9
1	198
1	4
1	15
1	10
1	12
1	198
1	198
1	198
1	198
1	198
1	7
1	198
1	198
1	198
1	37
1	198
1	14
1	37
1	14
1	198
1	24
1	198
1	198
1	198
1	198
1	6
1	198
1	37
1	198
1	15
1	198
1	6124
1	198
1	198
1	198
1	37
1	198
1	198
1	37
1	198
1	7
1	198
1	198
1	198
1	20
1	9
1	5
1	198
1	198
1	199
1	198
1	19
1	198
1	6
1	26
1	24
1	199
1	198
1	198
1	6124
1	198
1	198
1	198
1	38
1	37
1	11
1	7
1	14
1	198
1	198
1	12
1	5
1	6
1	198
1	198
1	14
1	22
1	198
1	198
1	199
1	24
1	4
1	9
1	6124
1	16
1	13
1	198
1	8
1	5
1	198
1	5
1	198
1	7
1	198
1	7
1	10
1	198
1	199
1	19
1	37
1	18
1	198
1	198
1	198
1	200
1	21
1	19
1	12
1	8
1	6
1	198
1	2
1	198
1	198
1	8
1	4
1	198
1	37
1	15
1	6
1	2
1	8
1	199
1	16
1	199
1	8
1	37
1	198
1	2
1	198
1	200
1	37
1	198
1	6
1	198
1	198
1	4
1	25
1	198
1	6
1	200
1	198
1	199
1	10
1	14
1	198
1	8
1	198
1	20
1	37
1	14
1	198
1	24
1	198
1	198
1	6
1	198
1	11
1	198
1	198
1	7
1	198
1	198
1	198
1	24
1	198
1	5
1	10
1	198
1	198
1	14
1	7
1	7
1	198
1	198
1	9
1	198
1	198
1	15
1	14
1	198
1	198
1	198
1	24
1	198
1	15
1	198
1	198
1	198
1	4
1	198
1	198
1	198
1	198
1	198
1	198
1	24
1	198
1	24
1	38
1	4
1	37
1	199
1	198
1	38
1	198
1	6
1	37
1	37
1	198
1	8
1	15
1	10
1	14
1	198
1	198
1	198
1	10
1	198
1	12
1	198
1	198
1	198
1	6
1	198
1	4
1	198
1	9
1	9
1	198
1	198
1	4
1	8
1	198
1	198
1	198
1	14
1	7
1	9
1	198
1	9
1	198
1	198
1	4
1	198
1	37
1	6
1	9
1	198
1	24
1	198
1	198
1	37
1	6
1	198
1	198
1	198
1	198
1	5
1	19
1	198
1	198
1	198
1	198
1	198
1	198
1	11
1	4
1	198
1	25
2	7
2	20
2	3
2	6
2	3
2	8
2	3
2	5
2	5
2	3
2	5
2	4
2	3
2	7
2	3
2	7
2	5
2	4
2	7
2	5
2	5
2	20
2	7
2	5
2	3
2	4
2	3
2	3
2	3
2	3
2	3
2	3
2	3
2	3
2	4
2	6
2	3
2	16
2	5
2	8
2	4
2	3
2	3
2	3
2	4
2	4
2	5
2	6
2	200
2	6
2	8
2	4
2	8
2	5
2	8
2	199
2	4
2	4
2	5
2	5
2	4
2	7
2	4
2	3
2	3
2	3
2	10
2	5
2	7
2	3
2	5
2	7
2	7
2	7
2	3
2	7
2	4
2	3
3	4
3	4
3	5
3	4
3	6
3	5
3	5
3	6
3	4
3	5
3	4
3	4
3	5
3	5
3	4
3	4
3	4
3	4
3	4
3	4
3	4
3	4
3	4
3	4
3	4
3	4
3	4
3	5
3	4
3	5
3	4
3	4
3	4
3	4
3	8
4	5
4	9
4	5
4	6
4	7
4	5
4	5
4	5
4	5
4	5
4	6
4	6
4	5
5	6
5	6
5	6
5	6
5	9
5	7
5	7
5	6
5	6
5	6
5	6
6	7
6	7
6	7
6	7
6	7
6	7
6	7
7	8
8	9
10	11
13	14
13	14
14	15
18	19
23	24
36	37
197	198
