13	6124
14	6124
14	6124
14	6124
16	6124
16	6124
17	6124
18	6124
18	6124
19	6124
24	6124
24	6124
113	6124
113	6124
113	6124
113	6124
113	6124
113	6124
113	6124
114	6124
115	6124
115	6124
116	6124
116	6124
116	6124
120	6124
