1	6124
1	208
1	27
1	207
1	208
1	207
1	15
1	208
1	13
1	207
1	6124
1	207
1	17
1	208
1	207
1	11
1	13
1	208
1	207
1	207
1	207
1	207
1	12
1	207
1	207
1	14
1	11
1	10
1	11
1	207
1	207
1	10
1	9
1	11
1	207
1	207
1	207
1	207
1	207
1	207
1	208
1	11
1	10
1	14
1	8
1	207
1	208
1	11
1	10
1	10
1	207
1	207
1	207
1	14
1	207
1	207
1	9
1	207
1	207
1	207
1	8
1	207
1	207
1	10
1	207
1	27
1	6124
1	207
1	8
1	11
1	5
1	207
1	8
1	207
1	208
1	207
1	8
1	207
1	12
1	207
1	9
1	7
1	207
1	11
1	207
1	207
1	7
1	10
1	207
1	207
1	207
1	207
1	207
1	7
1	207
1	207
1	207
1	8
1	208
1	207
1	207
1	207
1	207
1	207
1	207
1	207
1	7
1	207
1	9
1	13
1	207
1	207
1	6124
1	27
1	10
1	10
1	208
1	207
1	27
1	12
1	27
1	6124
1	8
1	207
1	10
1	14
1	210
1	7
1	6124
1	207
1	8
1	207
1	208
1	207
1	207
1	207
1	208
1	5
1	207
1	207
1	207
1	207
1	12
1	2
1	8
1	9
1	207
1	207
1	10
1	207
1	9
1	9
1	207
1	207
1	7
1	4
1	11
1	14
1	207
1	5
1	14
1	11
1	8
1	8
1	207
1	4
1	208
1	6124
1	207
1	9
1	207
1	207
1	8
1	207
1	27
1	208
1	11
1	11
1	6124
1	10
1	15
1	207
1	2
1	9
1	7
1	207
1	207
1	207
1	207
1	8
1	207
1	14
1	13
1	8
1	9
1	8
1	2
1	208
1	208
1	10
1	6
1	207
1	207
1	207
1	6
1	207
1	208
1	207
1	207
1	207
1	10
1	207
1	12
1	207
1	11
1	207
1	207
1	207
1	8
1	27
1	207
1	6
1	7
1	11
1	7
1	7
1	8
1	207
1	14
1	10
1	207
1	207
1	207
1	27
1	207
1	207
1	208
1	7
1	207
1	207
1	207
1	6
1	207
1	208
1	9
1	207
1	207
1	207
1	13
1	2
1	207
1	208
1	208
1	8
1	207
1	7
1	207
1	207
1	207
1	208
1	207
1	207
1	207
1	7
1	207
1	207
1	207
1	27
1	7
1	4
1	207
1	207
1	7
1	207
1	5
1	14
1	5
1	7
2	3
2	9
2	3
2	7
2	5
2	10
2	9
2	3
2	11
2	7
2	3
2	9
2	3
2	9
2	5
2	26
2	3
2	10
2	26
2	11
2	6
2	3
2	3
2	3
2	8
2	4
2	3
2	3
2	208
2	3
2	3
2	5
2	3
2	26
2	3
2	4
2	5
2	9
2	4
2	26
2	8
2	3
2	7
2	3
2	3
2	15
2	3
2	3
2	4
2	4
2	26
2	3
2	3
2	3
2	3
2	3
2	3
2	9
2	26
2	3
2	26
2	26
2	5
2	6
2	26
2	26
2	3
2	4
2	3
2	9
2	7
2	4
2	3
2	6
2	8
2	8
2	4
2	8
2	5
2	3
2	4
2	4
2	6
2	3
2	10
2	7
2	3
2	3
2	3
2	5
2	3
2	4
2	14
2	3
2	3
2	14
2	4
2	3
2	3
2	3
2	8
3	5
3	4
3	4
3	5
3	4
3	4
3	9
3	7
3	4
3	4
3	4
3	4
3	6
3	4
3	8
3	5
3	6
3	5
3	6
3	4
3	7
3	7
3	4
3	4
3	5
3	4
3	6
3	4
3	4
3	4
3	4
3	5
3	4
3	4
3	4
3	5
3	4
3	6
4	5
4	8
4	6
4	7
4	5
4	5
4	6
4	6
4	5
4	6
4	5
4	5
5	7
5	6
5	6
5	7
6	7
6	7
6	8
6	7
6	7
6	7
6	8
6	7
6	7
6	7
7	8
7	8
7	8
7	9
7	8
7	8
7	9
7	8
8	9
8	9
8	9
9	10
9	10
9	10
10	11
12	13
13	14
24	25
206	207
