8	6124
10	6124
11	6124
11	6124
12	6124
12	6124
12	6124
12	6124
12	6124
12	6124
12	6124
12	6124
12	6124
12	6124
13	6124
13	6124
13	6124
13	6124
13	6124
13	6124
14	6124
14	6124
14	6124
14	6124
14	6124
14	6124
15	6124
15	6124
15	6124
15	6124
15	6124
15	6124
15	6124
15	6124
15	6124
15	6124
15	6124
15	6124
15	6124
15	6124
16	6124
16	6124
16	6124
16	6124
16	6124
16	6124
16	6124
16	6124
16	6124
16	6124
16	6124
16	6124
16	6124
16	6124
16	6124
17	6124
17	6124
17	6124
17	6124
17	6124
17	6124
17	6124
17	6124
17	6124
17	6124
17	6124
17	6124
17	6124
17	6124
17	6124
18	6124
18	6124
18	6124
18	6124
18	6124
18	6124
18	6124
18	6124
18	6124
19	6124
19	6124
19	6124
19	6124
19	6124
19	6124
19	6124
19	6124
19	6124
20	6124
20	6124
20	6124
21	6124
21	6124
21	6124
21	6124
21	6124
21	6124
22	6124
22	6124
22	6124
22	6124
22	6124
22	6124
22	6124
22	6124
22	6124
23	6124
23	6124
23	6124
23	6124
23	6124
23	6124
23	6124
23	6124
23	6124
23	6124
23	6124
23	6124
23	6124
23	6124
23	6124
23	6124
23	6124
23	6124
23	6124
24	6124
24	6124
24	6124
24	6124
24	6124
25	6124
25	6124
25	6124
25	6124
26	6124
26	6124
26	6124
26	6124
26	6124
26	6124
27	6124
27	6124
27	6124
28	6124
28	6124
29	6124
29	6124
30	6124
31	6124
32	6124
32	6124
34	6124
35	6124
36	6124
36	6124
37	6124
37	6124
38	6124
39	6124
40	6124
40	6124
40	6124
40	6124
40	6124
40	6124
40	6124
41	6124
41	6124
41	6124
49	6124
54	6124
281	6124
281	6124
281	6124
281	6124
281	6124
281	6124
281	6124
281	6124
281	6124
281	6124
281	6124
281	6124
281	6124
281	6124
281	6124
281	6124
281	6124
281	6124
281	6124
281	6124
281	6124
281	6124
281	6124
281	6124
281	6124
281	6124
281	6124
281	6124
281	6124
281	6124
281	6124
281	6124
281	6124
281	6124
281	6124
281	6124
281	6124
282	6124
282	6124
282	6124
282	6124
282	6124
282	6124
282	6124
282	6124
282	6124
282	6124
282	6124
282	6124
282	6124
282	6124
282	6124
282	6124
282	6124
282	6124
282	6124
282	6124
283	6124
283	6124
283	6124
283	6124
283	6124
283	6124
283	6124
284	6124
284	6124
284	6124
284	6124
284	6124
285	6124
285	6124
285	6124
285	6124
285	6124
285	6124
285	6124
285	6124
286	6124
286	6124
286	6124
286	6124
286	6124
286	6124
286	6124
286	6124
286	6124
287	6124
287	6124
287	6124
287	6124
287	6124
288	6124
288	6124
288	6124
288	6124
289	6124
290	6124
293	6124
293	6124
293	6124
293	6124
299	6124
299	6124
