1	6124
1	153
1	153
1	154
1	15
1	153
1	153
1	153
1	153
1	154
1	153
1	14
1	12
1	153
1	10
1	10
1	11
1	153
1	154
1	13
1	8
1	153
1	154
1	8
1	8
1	153
1	153
1	153
1	153
1	153
1	155
1	153
1	153
1	12
1	12
1	153
1	153
1	5
1	8
1	155
1	9
1	153
1	153
1	153
1	153
1	153
1	6
1	153
1	153
1	153
1	153
1	153
1	7
1	153
1	8
1	153
1	153
1	154
1	13
1	153
1	8
1	153
1	153
1	153
1	7
1	153
1	11
1	6
1	9
1	153
1	153
1	13
1	153
1	13
1	9
1	153
1	153
1	153
1	153
1	153
1	153
1	153
1	14
1	153
1	153
1	10
1	153
1	153
1	6
1	153
1	153
1	153
1	13
1	153
1	153
1	10
1	9
1	153
1	12
1	13
1	153
1	153
1	9
1	153
1	13
1	153
1	153
1	153
1	153
1	153
1	13
1	153
1	156
1	153
1	8
1	153
1	153
1	7
1	10
1	153
1	153
1	8
1	153
1	153
1	5
1	153
1	154
1	4
1	9
1	13
1	153
1	8
1	153
1	153
1	153
1	153
1	153
1	10
1	9
1	154
1	154
1	153
1	153
1	153
1	11
1	153
1	7
1	7
1	153
1	153
1	153
1	4
1	153
1	10
1	7
1	13
1	154
1	153
1	153
1	6
1	6
1	153
1	153
1	153
1	7
1	5
1	153
1	153
1	153
1	153
1	153
1	153
1	153
1	8
1	154
1	5
1	13
1	153
1	6
1	153
1	153
1	153
1	6
1	10
1	153
1	153
1	153
1	153
1	8
2	3
2	3
2	6
2	3
2	6
2	3
2	9
2	4
2	7
2	3
2	7
2	3
2	9
2	4
2	14
2	5
2	3
2	8
2	5
2	154
2	5
2	154
2	4
2	3
2	4
2	6
2	6
2	3
2	5
2	7
2	5
2	5
2	4
2	4
2	6
2	3
2	3
2	3
2	7
2	7
2	7
2	4
2	4
2	3
2	5
2	3
2	3
2	7
2	4
3	6
3	4
3	4
3	5
3	4
3	4
3	5
3	5
3	5
3	4
3	5
3	4
3	4
3	4
3	5
3	5
3	4
3	4
3	5
3	5
3	4
4	5
4	5
4	5
4	6
4	5
4	5
4	5
4	6
4	5
4	8
5	6
5	7
5	6
5	6
5	6
5	6
6	9
6	7
6	7
6	7
6	7
7	8
7	8
7	8
9	10
12	13
12	13
152	153
