8	6124
10	6124
10	6124
12	6124
12	6124
15	6124
16	6124
16	6124
16	6124
17	6124
18	6124
19	6124
19	6124
21	6124
154	6124
154	6124
154	6124
154	6124
154	6124
154	6124
154	6124
154	6124
154	6124
154	6124
154	6124
154	6124
154	6124
155	6124
155	6124
155	6124
155	6124
155	6124
156	6124
156	6124
156	6124
156	6124
157	6124
157	6124
158	6124
158	6124
158	6124
159	6124
