1	6124
1	368
1	369
1	368
1	16
1	369
1	368
1	12
1	15
1	11
1	32
1	20
1	7
1	17
1	368
1	12
1	368
1	368
1	368
1	13
1	368
1	368
1	368
1	15
1	11
1	368
1	19
1	368
1	369
1	25
1	10
1	368
1	368
1	368
1	9
1	368
1	368
1	9
1	9
1	368
1	12
1	31
1	10
1	368
1	368
1	368
1	368
1	18
1	7
1	14
1	13
1	6124
1	368
1	368
1	11
1	11
1	368
1	12
1	9
1	22
1	8
1	368
1	12
1	368
1	11
1	368
1	8
1	368
1	12
1	368
1	14
1	9
1	369
1	368
1	9
1	370
1	368
1	5
1	368
1	368
1	26
1	368
1	368
1	368
1	368
1	368
1	368
1	368
1	368
1	22
1	5
1	368
1	15
1	9
1	16
1	7
1	368
1	8
1	368
1	368
1	8
1	15
1	368
1	368
1	15
1	368
1	368
1	368
1	368
1	19
1	368
1	368
1	369
1	368
1	5
1	30
1	368
1	368
1	368
1	9
1	15
1	368
1	368
1	368
1	7
1	9
1	368
1	368
1	368
1	9
1	20
1	4
1	8
1	368
1	14
1	368
1	368
1	14
1	10
1	26
1	369
1	15
1	13
1	9
1	368
1	6124
1	21
1	368
1	368
1	368
1	368
1	368
1	368
1	8
1	368
1	9
1	368
1	369
1	14
1	17
1	368
1	368
1	21
1	19
1	368
1	6124
1	30
1	12
1	11
1	368
1	368
1	368
1	368
1	368
1	9
1	8
1	14
1	369
1	368
1	369
1	17
1	368
1	23
1	368
1	19
1	12
1	368
1	8
1	368
1	368
1	18
1	368
1	368
1	368
1	368
1	7
1	368
1	368
1	7
1	368
1	3
1	368
1	9
1	368
1	368
1	14
1	368
1	368
1	369
1	368
1	368
1	17
1	368
1	368
1	30
1	14
1	368
1	30
1	7
1	368
1	19
1	10
1	369
1	368
1	9
1	369
1	368
1	368
1	368
1	368
1	8
1	368
1	9
1	368
1	368
1	368
1	8
1	30
1	4
1	368
1	19
1	19
1	368
1	368
1	368
1	20
1	368
1	368
1	6124
1	24
1	8
1	30
1	369
1	7
1	8
1	368
1	11
1	19
1	368
1	24
1	8
1	5
1	368
1	368
1	31
1	368
1	368
1	7
1	368
1	368
1	4
1	31
1	8
1	368
1	368
1	14
1	30
1	15
1	368
1	368
1	368
1	8
1	9
1	21
1	8
1	17
1	24
1	9
1	368
1	7
1	368
1	368
1	21
1	30
1	368
1	16
1	368
1	368
1	9
1	368
1	24
1	368
1	368
1	368
1	368
1	368
1	21
1	21
1	7
1	8
1	368
1	369
1	30
1	9
1	9
1	12
1	368
1	368
1	5
1	369
1	9
1	368
1	19
1	368
1	368
1	368
1	6
1	8
1	368
1	18
1	8
1	368
1	368
1	368
1	8
1	8
1	368
1	8
1	368
1	9
1	9
1	368
1	7
1	8
1	4
1	368
1	8
1	11
1	18
1	14
1	368
1	8
1	8
1	2
1	10
1	9
1	368
1	7
1	368
1	11
1	368
1	4
1	10
1	368
1	368
1	368
1	368
1	6
1	368
1	11
1	6
1	368
1	368
1	9
1	369
1	368
1	368
1	18
1	368
1	12
1	17
1	368
1	368
1	368
1	4
1	21
1	368
1	368
1	6
1	14
1	15
1	368
1	368
1	6124
1	5
1	368
1	368
1	14
1	6
1	368
1	368
1	24
1	368
1	368
1	368
1	368
1	21
1	30
1	368
1	368
1	30
1	368
1	368
1	7
1	8
1	7
1	368
1	368
1	7
1	368
1	14
1	6
1	368
1	17
1	368
1	5
1	30
1	17
1	368
1	3
1	368
1	369
1	368
1	368
1	30
1	368
1	368
1	8
1	368
1	8
1	11
1	3
1	368
1	17
1	368
1	368
1	30
1	5
1	21
1	368
1	17
1	368
1	368
1	368
1	368
1	8
1	368
1	10
1	368
1	368
1	368
1	368
1	25
1	368
1	368
1	368
1	15
1	11
1	11
1	368
1	368
1	31
1	368
1	24
1	368
1	368
1	368
1	368
1	4
1	17
1	368
1	5
1	368
1	368
1	369
1	368
1	19
1	368
1	6
1	15
1	14
1	368
1	25
1	368
1	368
1	368
1	368
1	368
1	368
2	9
2	3
2	7
2	3
2	15
2	10
2	3
2	3
2	19
2	9
2	15
2	6
2	3
2	3
2	7
2	10
2	3
2	15
2	3
2	369
2	8
2	15
2	4
2	5
2	3
2	3
2	5
2	3
2	19
2	5
2	3
2	3
2	25
2	15
2	14
2	3
2	14
2	14
2	3
2	20
2	31
2	8
2	8
2	6
2	3
2	3
2	3
2	8
2	3
2	6
2	369
2	4
2	15
2	9
2	3
2	369
2	3
2	10
2	7
2	6
2	3
2	7
2	20
2	3
2	11
2	4
2	8
2	5
2	19
2	3
2	4
2	11
2	4
2	8
2	8
2	3
2	13
2	16
2	3
2	15
2	369
2	4
2	7
2	4
2	3
2	7
2	22
2	25
2	8
2	5
2	16
2	8
2	3
2	16
2	10
2	4
2	3
2	13
2	3
2	7
2	6
2	4
2	5
2	15
2	7
2	10
2	3
2	5
2	4
2	8
2	4
2	6
2	10
2	5
2	4
2	10
2	4
2	5
2	3
2	15
2	8
2	5
2	6
2	8
2	3
2	3
2	4
2	3
2	12
2	10
2	5
2	3
2	8
2	4
2	3
2	3
2	7
2	7
3	5
3	16
3	6
3	4
3	6
3	4
3	4
3	4
3	9
3	6
3	7
3	4
3	4
3	5
3	4
3	5
3	9
3	4
3	4
3	6
3	4
3	4
3	4
3	5
3	4
3	5
3	5
3	4
3	6
3	4
3	6
3	5
3	5
3	4
3	5
3	6
3	5
3	4
3	5
3	4
3	5
3	6
3	8
3	4
3	11
3	5
3	7
3	5
3	4
3	9
3	4
3	4
3	6
3	4
3	4
3	4
3	8
3	5
3	4
3	5
3	4
4	5
4	6
4	5
4	6
4	7
4	5
4	5
4	8
4	5
4	6
4	5
4	6
4	8
4	5
4	8
4	5
4	6
4	7
4	6
4	5
4	5
4	7
4	5
4	6
4	5
4	5
4	7
4	6
4	5
4	5
5	7
5	7
5	7
5	6
5	6
5	6
5	6
5	11
5	6
5	6
5	7
5	6
5	6
5	6
6	8
6	7
6	7
6	7
6	7
6	7
6	7
6	7
6	7
6	7
6	7
6	7
6	9
7	9
7	8
7	8
7	8
7	8
7	8
8	9
8	9
8	9
8	9
8	10
8	9
9	13
10	11
10	11
10	11
11	13
13	14
13	14
13	14
13	14
14	15
14	15
16	17
17	18
18	19
20	21
23	24
29	30
367	368
