1	6124
1	14
1	378
1	377
1	14
1	14
1	14
1	377
1	377
1	17
1	377
1	14
1	377
1	17
1	32
1	10
1	16
1	377
1	377
1	13
1	377
1	19
1	29
1	21
1	377
1	377
1	377
1	377
1	377
1	377
1	377
1	377
1	29
1	377
1	377
1	13
1	30
1	377
1	14
1	377
1	377
1	377
1	11
1	20
1	29
1	377
1	13
1	12
1	23
1	377
1	25
1	377
1	18
1	377
1	377
1	377
1	377
1	15
1	17
1	377
1	377
1	377
1	377
1	13
1	16
1	13
1	377
1	17
1	8
1	377
1	377
1	14
1	377
1	16
1	12
1	377
1	377
1	377
1	9
1	377
1	378
1	10
1	11
1	377
1	377
1	377
1	14
1	377
1	377
1	377
1	8
1	7
1	377
1	16
1	12
1	10
1	377
1	377
1	377
1	377
1	377
1	17
1	13
1	377
1	377
1	377
1	5
1	14
1	6124
1	377
1	377
1	7
1	377
1	377
1	11
1	17
1	377
1	377
1	377
1	377
1	377
1	6124
1	28
1	377
1	12
1	377
1	377
1	377
1	377
1	13
1	17
1	377
1	5
1	377
1	377
1	15
1	377
1	17
1	377
1	377
1	6124
1	377
1	377
1	8
1	377
1	378
1	14
1	377
1	377
1	377
1	377
1	16
1	10
1	377
1	16
1	378
1	377
1	7
1	3
1	6124
1	12
1	377
1	377
1	377
1	377
1	378
1	10
1	377
1	377
1	6124
1	9
1	377
1	28
1	16
1	377
1	377
1	377
1	377
1	377
1	377
1	377
1	377
1	9
1	377
1	8
1	377
1	377
1	377
1	13
1	377
1	9
1	29
1	377
1	377
1	377
1	377
1	4
1	377
1	12
1	28
1	25
1	377
1	377
1	377
1	377
1	377
1	9
1	15
1	377
1	22
1	9
1	378
1	5
1	377
1	377
1	377
1	377
1	15
1	377
1	377
1	9
1	377
1	10
1	23
1	9
1	17
1	9
1	377
1	377
1	10
1	7
1	17
1	377
1	377
1	377
1	377
1	13
1	377
1	377
1	12
1	377
1	7
1	377
1	377
1	377
1	377
1	377
1	9
1	8
1	28
1	377
1	377
1	378
1	16
1	377
1	377
1	379
1	377
1	13
1	377
1	13
1	5
1	377
1	7
1	377
1	377
1	377
1	377
1	9
1	378
1	13
1	377
1	377
1	377
1	377
1	6124
1	377
1	377
1	377
1	377
1	378
1	377
1	377
1	377
1	377
1	377
1	377
1	377
1	8
1	377
1	377
1	377
1	377
1	377
1	15
1	8
1	377
1	377
1	377
1	377
1	377
1	17
1	377
1	377
1	5
1	11
1	10
1	10
1	12
1	7
1	377
1	7
1	377
1	4
1	16
1	9
1	28
1	7
1	377
1	377
1	2
1	377
1	13
1	10
1	377
1	5
1	377
1	377
1	11
1	377
1	5
1	28
1	377
1	14
1	377
1	12
1	378
1	2
1	377
1	12
1	377
1	377
1	377
1	9
1	377
1	377
1	22
1	10
1	377
1	25
1	377
1	12
1	377
1	9
1	16
1	377
1	10
1	10
1	17
1	377
1	5
1	377
1	377
1	16
1	377
1	3
1	12
1	377
1	377
1	377
1	377
1	2
1	5
1	377
1	377
1	21
1	377
1	377
1	377
1	377
1	377
1	18
1	377
1	377
1	17
1	8
1	377
1	377
1	377
1	7
1	8
1	24
1	11
1	377
1	377
1	22
1	7
1	377
1	12
1	377
1	377
1	377
1	7
1	13
1	11
1	377
1	377
1	377
1	378
1	377
1	377
1	377
1	377
1	9
1	13
1	377
1	377
1	11
1	377
1	377
1	377
1	377
1	5
1	377
1	9
1	377
1	377
1	23
1	6
1	377
1	377
1	377
1	377
1	377
1	378
1	377
1	5
1	6
1	377
1	377
1	6
1	22
1	377
1	6
1	377
1	10
1	377
1	377
1	377
1	377
1	377
1	8
1	7
1	15
1	377
1	377
2	9
2	378
2	17
2	13
2	3
2	24
2	3
2	9
2	13
2	10
2	11
2	3
2	3
2	13
2	7
2	8
2	3
2	11
2	10
2	3
2	31
2	4
2	3
2	10
2	3
2	7
2	4
2	3
2	3
2	4
2	8
2	5
2	7
2	12
2	13
2	3
2	30
2	5
2	3
2	3
2	14
2	10
2	378
2	11
2	14
2	4
2	3
2	6
2	3
2	3
2	3
2	8
2	3
2	10
2	3
2	3
2	4
2	3
2	13
2	14
2	9
2	8
2	24
2	6
2	13
2	4
2	6
2	10
2	10
2	5
2	16
2	3
2	14
2	12
2	3
2	4
2	13
2	3
2	5
2	3
2	3
2	3
2	11
2	4
2	378
2	24
2	6
2	6
2	4
2	10
2	3
2	8
2	7
2	3
2	4
2	9
2	18
2	3
2	3
2	378
2	3
2	11
2	3
2	3
2	12
2	17
2	4
2	6
2	17
2	29
2	4
2	4
2	8
2	24
2	5
2	6
2	4
2	13
2	18
2	4
2	6
2	8
2	3
2	4
2	8
2	10
2	24
3	4
3	4
3	12
3	6
3	8
3	5
3	4
3	4
3	11
3	4
3	5
3	4
3	4
3	4
3	4
3	4
3	7
3	17
3	4
3	6
3	14
3	5
3	4
3	4
3	6
3	8
3	5
3	5
3	6
3	8
3	4
3	5
3	4
3	6
3	12
3	5
3	9
3	6
3	5
3	5
3	6
3	5
3	5
3	5
3	4
3	4
3	4
3	4
3	9
3	4
3	4
3	13
3	4
3	11
3	5
3	8
3	4
4	10
4	5
4	5
4	5
4	6
4	5
4	8
4	5
4	8
4	5
4	6
4	6
4	5
4	5
4	6
4	5
4	7
4	5
4	5
4	7
4	6
5	6
5	7
5	6
5	6
5	6
5	7
5	6
5	6
5	7
5	7
5	6
5	7
6	7
6	7
6	7
6	9
6	8
6	7
6	7
6	7
6	7
6	8
6	8
6	7
7	8
7	9
7	8
8	9
8	9
8	10
8	9
8	9
8	9
8	9
9	10
9	10
9	10
9	11
10	11
10	12
10	12
11	12
11	12
11	12
12	13
14	15
14	15
15	16
15	16
16	17
21	22
22	23
27	28
27	28
376	377
