1	6124
1	254
1	254
1	24
1	253
1	253
1	16
1	253
1	24
1	16
1	253
1	253
1	12
1	12
1	19
1	253
1	27
1	11
1	253
1	253
1	24
1	253
1	253
1	43
1	253
1	23
1	253
1	11
1	253
1	253
1	255
1	253
1	253
1	253
1	42
1	4
1	253
1	254
1	254
1	42
1	253
1	253
1	9
1	8
1	253
1	253
1	253
1	253
1	253
1	10
1	14
1	253
1	253
1	253
1	15
1	10
1	253
1	23
1	253
1	253
1	253
1	253
1	43
1	23
1	253
1	253
1	45
1	253
1	13
1	253
1	254
1	9
1	253
1	42
1	254
1	253
1	23
1	253
1	43
1	253
1	253
1	253
1	11
1	253
1	253
1	255
1	16
1	253
1	11
1	253
1	253
1	253
1	253
1	253
1	253
1	253
1	4
1	253
1	253
1	253
1	253
1	11
1	9
1	253
1	253
1	11
1	253
1	42
1	253
1	253
1	16
1	253
1	253
1	253
1	253
1	253
1	253
1	16
1	253
1	253
1	10
1	253
1	42
1	253
1	253
1	253
1	23
1	253
1	253
1	253
1	253
1	9
1	6
1	253
1	253
1	253
1	13
1	4
1	42
1	253
1	253
1	11
1	253
1	253
1	5
1	253
1	9
1	253
1	9
1	253
1	9
1	253
1	254
1	253
1	25
1	253
1	16
1	253
1	5
1	9
1	12
1	11
1	253
1	45
1	8
1	253
1	42
1	253
1	14
1	253
1	253
1	253
1	253
1	9
1	253
1	253
1	6
1	253
1	253
1	253
1	253
1	253
1	9
1	7
1	253
1	253
1	253
1	253
1	5
1	9
1	253
1	253
1	254
1	253
1	253
1	9
1	23
1	253
1	254
1	16
1	16
1	4
1	253
1	8
1	253
1	253
1	12
1	253
1	253
1	12
1	253
1	253
1	253
1	253
1	253
1	253
1	9
1	253
1	253
1	253
1	23
1	14
1	253
1	253
1	9
1	253
1	253
1	253
1	253
1	253
1	253
1	253
1	253
1	253
1	253
1	253
1	253
1	8
1	253
1	253
1	253
1	16
1	253
1	253
1	253
1	253
1	6
1	14
1	25
1	253
1	26
1	253
1	253
1	253
1	253
1	7
1	5
1	14
1	42
1	7
1	9
1	25
1	42
1	253
1	42
1	11
1	6
1	12
1	253
1	6
1	42
1	6
1	253
1	4
1	253
1	26
1	5
1	253
1	253
1	253
1	253
1	253
1	253
1	5
1	253
1	7
1	7
1	9
1	16
1	11
1	42
1	253
1	253
1	24
1	9
1	253
1	253
1	253
1	4
1	253
1	253
1	253
1	13
1	6
1	253
1	9
1	253
1	9
1	253
1	253
1	253
1	253
1	253
2	3
2	6
2	6
2	3
2	25
2	43
2	254
2	10
2	10
2	7
2	3
2	6
2	10
2	3
2	3
2	7
2	43
2	254
2	43
2	254
2	25
2	13
2	25
2	5
2	8
2	4
2	5
2	3
2	25
2	3
2	5
2	12
2	5
2	11
2	25
2	3
2	3
2	4
2	4
2	12
2	25
2	3
2	43
2	12
2	25
2	3
2	7
2	15
2	4
2	12
2	3
2	3
2	5
2	3
2	4
2	12
2	3
2	25
2	25
2	4
2	3
2	25
2	13
2	6
2	8
2	4
2	12
2	7
2	5
2	9
2	8
2	7
2	6
2	12
2	3
2	44
3	18
3	4
3	4
3	4
3	4
3	9
3	4
3	4
3	4
3	4
3	5
3	4
3	13
3	6
3	5
3	5
3	4
3	4
3	4
3	4
3	4
3	5
3	5
3	4
3	4
3	10
3	5
3	4
3	5
3	5
3	4
3	4
3	5
3	5
3	4
3	4
4	7
4	5
4	5
4	5
4	5
4	9
4	5
4	5
4	5
4	7
4	5
4	5
4	5
4	12
4	5
4	5
4	12
5	7
5	6
5	6
5	6
5	6
5	6
6	8
6	7
6	7
6	7
7	9
7	9
8	9
8	9
8	9
8	9
8	9
8	9
9	11
10	12
10	11
13	14
15	16
22	23
23	24
41	42
252	253
