1	6124
1	391
1	392
1	391
1	391
1	392
1	391
1	16
1	15
1	24
1	6124
1	391
1	391
1	391
1	391
1	10
1	17
1	391
1	18
1	391
1	15
1	391
1	391
1	24
1	391
1	23
1	4
1	10
1	17
1	14
1	391
1	9
1	14
1	391
1	20
1	391
1	391
1	6
1	10
1	391
1	391
1	391
1	391
1	8
1	391
1	392
1	391
1	391
1	391
1	391
1	391
1	391
1	391
1	391
1	5
1	10
1	23
1	23
1	11
1	23
1	7
1	391
1	29
1	391
1	391
1	391
1	6124
1	391
1	391
1	22
1	391
1	7
1	391
1	392
1	8
1	9
1	391
1	391
1	6
1	391
1	391
1	391
1	391
1	391
1	6
1	391
1	391
1	391
1	14
1	391
1	391
1	391
1	7
1	14
1	10
1	22
1	391
1	391
1	9
1	391
1	391
1	391
1	7
1	9
1	11
1	25
1	6
1	12
1	391
1	391
1	391
1	391
1	391
1	391
1	391
1	391
1	391
1	16
1	391
1	391
1	391
1	23
1	391
1	391
1	391
1	391
1	391
1	391
1	13
1	391
1	391
1	391
1	391
1	391
1	16
1	391
1	14
1	391
1	8
1	15
1	19
1	391
1	5
1	23
1	391
1	391
1	391
1	22
1	391
1	391
1	391
1	9
1	391
1	15
1	391
1	391
1	391
1	391
1	13
1	11
1	391
1	17
1	13
1	391
1	17
1	391
1	391
1	391
1	6
1	10
1	13
1	391
1	391
1	391
1	391
1	392
1	391
1	8
1	391
1	391
1	391
1	8
1	23
1	391
1	391
1	391
1	391
1	391
1	391
1	22
1	391
1	392
1	391
1	391
1	17
1	391
1	391
1	391
1	391
1	391
1	22
1	391
1	391
1	6
1	18
1	391
1	391
1	391
1	391
1	391
1	23
1	391
1	4
1	391
1	14
1	391
1	391
1	13
1	2
1	391
1	391
1	7
1	391
1	391
1	391
1	391
1	391
1	391
1	391
1	393
1	16
1	17
1	391
1	391
1	6124
1	391
1	391
1	13
1	391
1	391
1	391
1	391
1	391
1	9
1	391
1	391
1	391
1	391
1	7
1	391
1	22
1	391
1	23
1	391
1	391
1	8
1	391
1	391
1	11
1	391
1	392
1	10
1	13
1	392
1	391
1	391
1	391
1	391
1	19
1	391
1	391
1	8
1	391
1	391
1	2
1	391
1	6
1	391
1	391
1	391
1	391
1	16
1	391
1	391
1	391
1	8
1	23
1	391
1	391
1	23
1	391
1	392
1	391
1	10
1	391
1	8
1	391
1	391
1	22
1	6
1	391
1	391
1	391
1	6
1	4
1	391
1	392
1	391
1	391
1	10
1	391
1	391
1	23
1	392
1	17
1	391
1	11
1	26
1	391
1	15
1	391
1	391
1	391
1	391
1	391
1	391
1	391
1	391
1	391
1	23
1	391
1	391
1	391
1	391
1	13
1	392
1	391
1	10
1	391
1	22
1	391
1	391
1	23
1	7
1	391
1	391
1	5
1	391
1	391
1	391
1	391
1	391
1	391
1	391
1	8
1	391
1	391
1	5
1	8
1	8
1	17
1	391
1	391
1	391
1	391
1	7
1	4
1	391
1	391
1	391
1	391
1	391
1	391
1	13
1	391
1	391
1	8
1	4
1	391
1	391
1	391
1	391
1	392
1	391
1	8
1	391
1	392
1	8
1	391
1	4
1	391
1	391
1	391
1	391
1	10
1	22
1	7
1	23
1	7
1	391
1	4
1	391
1	11
1	391
1	391
1	391
1	391
1	391
1	391
1	391
1	391
1	22
1	6
1	391
1	391
1	392
1	391
1	22
1	391
1	391
1	391
1	391
1	5
1	391
1	17
1	392
1	391
1	11
1	391
1	391
1	391
1	391
1	391
1	392
1	391
1	391
1	391
1	391
1	391
1	16
1	391
1	391
1	391
1	7
1	391
1	391
1	391
1	25
1	391
1	391
1	391
1	4
1	5
1	391
1	391
1	391
1	391
1	23
1	391
1	391
1	391
1	391
1	391
1	23
1	391
1	391
1	391
1	7
1	7
1	391
1	391
1	391
2	3
2	3
2	5
2	5
2	3
2	19
2	3
2	4
2	26
2	6
2	30
2	8
2	7
2	18
2	3
2	4
2	26
2	18
2	5
2	3
2	18
2	18
2	11
2	4
2	14
2	4
2	392
2	5
2	11
2	19
2	18
2	18
2	18
2	5
2	18
2	7
2	18
2	4
2	5
2	8
2	6
2	11
2	4
2	9
2	4
2	4
2	11
2	6
2	15
2	3
2	9
2	3
2	392
2	6
2	4
2	3
2	26
2	26
2	4
2	3
2	11
2	8
2	3
2	26
2	7
2	4
2	4
2	4
2	5
2	4
2	3
2	4
2	14
2	4
2	4
2	6
2	14
2	3
2	3
2	9
2	7
2	18
2	3
2	8
2	18
2	18
2	7
2	18
2	3
2	3
2	4
2	3
2	4
2	24
2	3
2	4
2	18
2	3
2	3
2	4
2	3
2	10
2	4
2	3
2	3
2	8
2	3
2	3
2	5
2	5
2	7
2	6
2	8
3	5
3	5
3	4
3	15
3	5
3	7
3	4
3	10
3	4
3	5
3	4
3	4
3	6
3	4
3	5
3	5
3	10
3	6
3	4
3	5
3	4
3	6
3	4
3	7
3	4
3	4
3	5
3	5
3	6
3	5
3	6
3	4
3	8
3	4
3	10
3	4
3	4
3	4
3	6
3	4
3	4
3	4
4	5
4	5
4	6
4	5
4	5
4	5
4	5
4	5
4	5
4	6
4	6
4	6
4	6
4	6
4	5
4	5
4	5
4	5
4	5
4	5
4	6
4	7
4	6
5	6
5	6
5	6
5	6
5	8
5	6
5	6
5	6
5	8
5	6
6	7
6	7
6	7
6	8
6	7
6	8
6	8
6	7
6	7
7	8
7	8
7	9
9	10
9	10
12	13
12	13
12	13
13	14
15	16
16	18
16	17
21	22
22	23
24	25
390	391
