1	6124
1	272
1	11
1	14
1	272
1	272
1	271
1	273
1	271
1	14
1	271
1	271
1	14
1	271
1	271
1	271
1	271
1	271
1	272
1	271
1	11
1	271
1	271
1	271
1	271
1	13
1	271
1	13
1	271
1	12
1	271
1	271
1	271
1	13
1	271
1	271
1	17
1	271
1	271
1	271
1	9
1	10
1	272
1	272
1	11
1	271
1	271
1	271
1	13
1	12
1	17
1	13
1	272
1	271
1	9
1	272
1	271
1	271
1	271
1	271
1	271
1	271
1	271
1	8
1	11
1	10
1	271
1	271
1	272
1	271
1	271
1	12
1	6
1	271
1	13
1	6
1	271
1	11
1	271
1	271
1	271
1	271
1	271
1	16
1	271
1	271
1	271
1	271
1	8
1	271
1	6
1	271
1	271
1	271
1	11
1	271
1	271
1	271
1	271
1	10
1	13
1	271
1	271
1	271
1	10
1	271
1	271
1	271
1	271
1	6
1	271
1	271
1	272
1	271
1	271
1	6
1	271
1	271
1	271
1	271
1	271
1	271
1	271
1	271
1	271
1	6
1	4
1	13
1	271
1	271
1	271
1	271
1	8
1	271
1	7
1	7
1	271
1	272
1	273
1	16
1	10
1	271
1	271
1	6
1	271
1	271
1	271
1	271
1	271
1	271
1	13
1	11
1	271
1	271
1	271
1	8
1	8
1	271
1	271
1	271
1	271
1	271
1	271
1	13
1	271
1	272
1	12
1	271
1	271
1	9
1	13
1	271
1	271
1	7
1	8
1	271
1	8
1	271
1	6
1	12
1	271
1	271
1	16
1	271
1	271
1	271
1	9
1	271
1	271
1	8
1	271
1	271
1	7
1	10
1	271
1	6
1	271
1	271
1	271
1	10
1	12
1	272
1	271
1	271
1	271
1	271
1	271
1	271
1	271
1	271
1	6
1	271
1	271
1	271
1	271
1	10
1	271
1	10
1	7
1	271
1	12
1	271
1	271
1	10
1	14
1	10
1	271
1	16
1	271
1	271
1	8
1	271
1	8
1	11
1	271
1	271
1	271
1	271
1	271
1	271
1	271
1	7
1	271
1	271
1	271
1	271
1	10
1	4
1	6
1	271
1	9
1	6
1	271
1	271
1	16
1	271
1	271
1	13
1	271
1	16
1	8
1	6
1	271
1	271
1	271
1	271
1	271
1	12
1	272
1	8
1	13
1	11
1	271
1	10
1	271
1	271
1	9
1	271
1	271
1	271
1	271
1	271
1	271
1	271
1	7
1	7
1	271
1	12
1	271
1	271
1	271
1	271
1	271
1	8
1	5
1	13
1	271
1	271
1	4
1	271
1	271
1	272
1	271
1	12
1	11
1	5
1	271
1	271
1	9
1	271
1	272
1	271
1	272
1	271
1	9
1	271
1	10
1	271
1	271
1	9
1	271
1	5
1	271
1	271
1	271
1	271
1	11
1	271
1	271
1	271
1	13
1	271
1	271
1	271
1	271
1	11
1	271
1	271
1	271
1	13
1	6
2	272
2	3
2	3
2	13
2	3
2	7
2	6
2	7
2	7
2	13
2	6
2	5
2	5
2	3
2	7
2	10
2	272
2	3
2	8
2	7
2	3
2	4
2	3
2	7
2	8
2	3
2	7
2	6
2	3
2	5
2	272
2	4
2	3
2	4
2	8
2	8
2	272
2	3
2	3
2	3
2	272
2	3
2	6
2	4
2	3
2	4
2	5
2	7
2	5
2	3
2	4
2	4
2	9
2	3
2	272
2	4
2	272
2	3
2	4
2	8
2	3
2	3
2	4
2	3
2	4
2	3
2	5
2	5
2	5
2	8
2	9
2	3
2	3
2	3
2	7
2	3
2	10
2	4
2	3
2	4
2	9
2	4
2	11
2	3
2	13
2	3
2	6
2	8
2	5
3	4
3	7
3	4
3	6
3	4
3	5
3	4
3	4
3	4
3	5
3	5
3	6
3	4
3	4
3	4
3	4
3	5
3	4
3	4
3	5
3	5
3	5
3	5
3	4
3	4
3	5
4	5
4	5
4	5
4	6
4	5
4	6
4	8
4	7
4	5
4	5
4	5
4	5
4	6
5	6
5	6
5	6
5	6
5	7
5	7
5	6
5	6
5	6
5	6
5	6
6	10
6	7
6	7
6	7
6	7
7	8
7	8
7	8
8	9
8	9
8	9
9	10
9	10
10	11
11	12
11	12
11	12
11	12
12	13
15	16
270	271
