1	6124
1	290
1	291
1	20
1	16
1	290
1	290
1	12
1	17
1	290
1	290
1	11
1	13
1	11
1	290
1	290
1	290
1	290
1	6
1	290
1	13
1	10
1	290
1	290
1	11
1	28
1	290
1	13
1	27
1	290
1	290
1	290
1	12
1	12
1	290
1	290
1	290
1	290
1	11
1	290
1	290
1	290
1	290
1	290
1	290
1	9
1	290
1	290
1	290
1	12
1	290
1	20
1	290
1	290
1	8
1	290
1	290
1	291
1	290
1	7
1	290
1	290
1	290
1	290
1	290
1	28
1	10
1	290
1	290
1	27
1	27
1	290
1	290
1	290
1	290
1	8
1	290
1	290
1	9
1	290
1	27
1	290
1	11
1	290
1	290
1	290
1	290
1	290
1	21
1	19
1	290
1	11
1	9
1	8
1	290
1	290
1	290
1	6124
1	290
1	290
1	290
1	20
1	11
1	290
1	10
1	290
1	11
1	20
1	290
1	290
1	6124
1	290
1	10
1	291
1	290
1	19
1	27
1	27
1	7
1	290
1	290
1	290
1	28
1	18
1	290
1	31
1	290
1	290
1	290
1	290
1	290
1	18
1	290
1	290
1	11
1	290
1	290
1	13
1	27
1	27
1	6
1	15
1	290
1	290
1	19
1	290
1	290
1	13
1	290
1	11
1	290
1	290
1	290
1	20
1	290
1	290
1	10
1	290
1	290
1	9
1	20
1	10
1	5
1	8
1	290
1	11
1	290
1	18
1	12
1	291
1	5
1	290
1	290
1	290
1	290
1	6
1	15
1	290
1	290
1	290
1	9
1	11
1	290
1	290
1	27
1	290
1	290
1	290
1	290
1	290
1	290
1	291
1	290
1	290
1	11
1	290
1	290
1	290
1	290
1	7
1	290
1	290
1	290
1	11
1	290
1	291
1	20
1	290
1	290
1	15
1	15
1	11
1	11
1	290
1	290
1	18
1	290
1	290
1	6
1	19
1	290
1	290
1	10
1	27
1	290
1	18
1	290
1	8
1	5
1	290
1	291
1	12
1	290
1	290
1	9
1	290
1	290
1	11
1	4
1	290
1	290
1	290
1	15
1	27
1	290
1	290
1	10
1	290
1	6124
1	12
1	290
1	11
1	9
1	290
1	6124
1	10
1	290
1	290
1	290
1	7
1	290
1	7
1	290
1	290
1	290
1	18
1	6
1	290
1	290
1	290
1	3
1	290
1	4
1	10
1	290
1	10
1	6
1	290
1	290
1	7
1	10
1	27
1	292
1	290
1	290
1	6
1	27
1	9
1	9
1	291
1	290
1	290
1	10
1	290
1	290
1	290
1	290
1	27
1	290
1	290
1	290
1	290
1	290
1	11
1	10
1	4
1	290
1	290
1	7
1	290
1	2
1	290
1	7
1	18
1	290
1	290
1	10
1	6
1	2
1	290
1	10
1	15
1	290
1	290
1	290
1	10
1	290
1	290
1	290
1	291
1	290
1	290
1	290
1	10
1	18
1	2
1	290
1	8
1	290
1	290
1	290
1	8
1	290
1	290
1	290
1	290
1	7
1	7
1	290
1	290
1	27
1	15
1	20
1	290
1	290
1	290
1	8
1	290
1	291
1	290
1	290
1	290
1	290
1	290
1	8
1	7
1	290
1	6
1	290
1	290
1	27
2	8
2	291
2	8
2	6
2	3
2	4
2	20
2	4
2	291
2	5
2	10
2	3
2	291
2	11
2	13
2	7
2	4
2	7
2	3
2	3
2	8
2	3
2	8
2	4
2	6
2	7
2	3
2	4
2	11
2	291
2	3
2	7
2	6
2	20
2	11
2	8
2	7
2	3
2	11
2	3
2	3
2	7
2	7
2	4
2	9
2	4
2	8
2	9
2	7
2	3
2	5
2	3
2	9
2	8
2	9
2	8
2	7
2	8
2	20
2	6
2	11
2	291
2	8
2	7
2	3
2	11
2	20
2	4
2	7
2	4
2	3
2	8
2	5
2	4
2	11
2	4
2	4
2	8
2	16
2	4
2	3
2	3
2	6
2	4
2	6
2	3
2	4
2	8
2	20
2	21
2	5
2	3
2	8
2	9
2	5
3	6
3	6
3	5
3	5
3	6
3	5
3	6
3	7
3	8
3	12
3	4
3	4
3	4
3	4
3	4
3	5
3	5
3	4
3	4
3	4
3	5
3	4
3	6
3	6
3	4
3	9
3	4
3	4
3	5
3	5
3	4
3	4
3	4
3	5
4	5
4	8
4	5
4	7
4	5
4	5
4	5
4	8
4	7
4	5
4	5
4	5
4	5
4	5
4	5
4	5
4	5
4	6
4	5
5	7
5	6
5	6
5	7
5	7
5	7
5	6
5	6
5	6
6	7
6	8
6	7
6	7
6	7
6	7
6	7
6	7
7	8
7	8
7	8
7	8
7	9
8	9
9	10
9	10
9	10
9	10
9	10
9	10
10	11
14	15
17	18
18	19
19	20
26	27
289	290
