1	6124
1	695
1	694
1	694
1	694
1	15
1	21
1	12
1	13
1	15
1	12
1	694
1	35
1	694
1	694
1	694
1	694
1	15
1	694
1	694
1	14
1	48
1	14
1	23
1	694
1	33
1	694
1	18
1	695
1	694
1	696
1	14
1	13
1	694
1	16
1	694
1	21
1	13
1	19
1	694
1	19
1	21
1	694
1	694
1	694
1	694
1	694
1	24
1	47
1	18
1	14
1	694
1	6124
1	694
1	12
1	21
1	694
1	12
1	8
1	30
1	694
1	694
1	695
1	694
1	25
1	14
1	7
1	694
1	12
1	694
1	694
1	694
1	33
1	694
1	694
1	7
1	695
1	20
1	36
1	15
1	31
1	694
1	694
1	16
1	694
1	694
1	694
1	17
1	12
1	9
1	694
1	694
1	12
1	10
1	694
1	694
1	694
1	11
1	695
1	22
1	694
1	694
1	13
1	694
1	13
1	9
1	694
1	694
1	694
1	47
1	18
1	15
1	10
1	694
1	9
1	694
1	694
1	17
1	694
1	694
1	14
1	694
1	694
1	10
1	5
1	17
1	18
1	21
1	694
1	11
1	694
1	7
1	694
1	9
1	694
1	13
1	12
1	18
1	694
1	694
1	9
1	9
1	8
1	694
1	694
1	694
1	14
1	18
1	694
1	34
1	694
1	694
1	694
1	19
1	20
1	694
1	694
1	23
1	13
1	14
1	694
1	11
1	694
1	25
1	22
1	16
1	694
1	16
1	694
1	694
1	20
1	11
1	694
1	694
1	694
1	696
1	5
1	694
1	33
1	13
1	694
1	694
1	8
1	11
1	11
1	18
1	694
1	9
1	14
1	694
1	695
1	694
1	14
1	694
1	694
1	694
1	694
1	694
1	694
1	694
1	9
1	694
1	694
1	13
1	694
1	7
1	694
1	694
1	694
1	13
1	12
1	694
1	694
1	694
1	14
1	694
1	14
1	2
1	16
1	11
1	21
1	694
1	694
1	694
1	13
1	694
1	694
1	694
1	694
1	12
1	694
1	19
1	22
1	694
1	15
1	694
1	694
1	694
1	695
1	694
1	694
1	13
1	13
1	694
1	13
1	695
1	47
1	10
1	9
1	694
1	694
1	9
1	14
1	694
1	694
1	15
1	695
1	7
1	10
1	6
1	694
1	11
1	694
1	694
1	16
1	694
1	694
1	694
1	694
1	694
1	13
1	694
1	14
1	9
1	21
1	12
1	694
1	16
1	22
1	694
1	15
1	13
1	13
1	24
1	15
1	32
1	694
1	8
1	6
1	694
1	695
1	694
1	694
1	694
1	13
1	694
1	694
1	15
1	7
1	5
1	21
1	13
1	5
1	694
1	694
1	694
1	694
1	11
1	694
1	694
1	694
1	11
1	11
1	8
1	694
1	694
1	6
1	15
1	694
1	17
1	694
1	13
1	7
1	21
1	22
1	694
1	4
1	9
1	694
1	5
1	15
1	8
1	21
1	10
1	13
1	21
1	694
1	694
1	694
1	694
1	16
1	695
1	694
1	694
1	694
1	11
1	14
1	6
1	694
1	694
1	14
1	13
1	17
1	14
1	694
1	9
1	7
1	694
1	694
1	694
1	694
1	22
1	694
1	9
1	14
1	694
1	694
1	11
1	8
1	15
1	17
1	694
1	21
1	5
1	13
1	20
1	694
1	694
1	10
1	694
1	9
1	694
1	694
1	23
1	22
1	11
1	18
1	694
1	694
1	16
1	15
1	27
1	14
1	694
1	694
1	13
1	694
1	695
1	694
1	8
1	694
1	12
1	694
1	10
1	694
1	5
1	5
1	14
1	694
1	694
1	11
1	36
1	694
1	22
1	695
1	17
1	694
1	694
1	694
1	38
1	694
1	694
1	13
1	694
1	694
1	24
1	694
1	694
1	13
1	694
1	694
1	47
1	694
1	694
1	5
1	13
1	694
1	16
1	48
1	694
1	694
1	21
1	694
1	11
1	694
1	10
1	694
1	694
1	694
1	13
1	10
1	694
1	694
1	25
1	7
1	19
1	21
1	11
1	694
1	694
1	694
1	694
1	6
1	8
1	20
1	694
1	694
1	694
1	694
1	695
1	694
1	16
1	9
1	8
1	23
1	694
1	15
1	21
1	9
1	694
1	34
1	47
1	694
1	9
1	6
1	45
1	694
1	5
1	694
1	4
1	16
1	694
1	694
1	21
1	29
1	694
1	694
1	694
1	11
1	694
1	14
1	15
1	694
1	18
1	694
1	20
1	13
1	13
1	694
1	694
1	16
1	15
1	11
1	694
1	694
1	694
1	694
1	5
1	17
1	5
1	694
1	694
1	15
1	694
1	12
1	694
1	694
1	14
1	694
1	5
1	694
1	695
1	25
1	17
1	694
1	694
1	694
1	16
1	694
1	694
1	694
1	694
1	12
1	694
1	694
1	694
1	694
1	15
1	13
1	694
1	11
1	15
1	694
1	694
1	13
1	16
1	6
2	30
2	11
2	24
2	3
2	3
2	16
2	20
2	14
2	9
2	6
2	3
2	10
2	3
2	48
2	18
2	3
2	38
2	7
2	7
2	43
2	10
2	9
2	8
2	18
2	7
2	32
2	26
2	8
2	12
2	35
2	15
2	3
2	15
2	3
2	6
2	9
2	12
2	3
2	8
2	3
2	4
2	9
2	18
2	6
2	3
2	8
2	4
2	16
2	14
2	7
2	6
2	12
2	11
2	3
2	35
2	13
2	32
2	4
2	10
2	9
2	16
2	16
2	11
2	8
2	12
2	16
2	5
2	9
2	4
2	6
2	9
2	3
2	17
2	25
2	14
2	35
2	48
2	3
2	35
2	35
2	16
2	3
2	36
2	4
2	20
2	14
2	35
2	36
2	16
2	3
2	14
2	5
2	3
2	23
2	35
2	3
2	12
2	9
2	4
2	15
2	16
2	16
2	5
2	3
2	14
2	35
2	11
2	16
2	10
2	695
2	12
2	26
2	18
2	23
2	36
2	3
2	10
2	8
2	41
2	3
2	45
2	12
2	5
2	15
2	4
2	695
2	26
2	3
2	3
2	39
2	7
2	14
2	4
2	3
2	4
2	39
2	17
2	5
2	3
2	17
2	16
2	4
2	42
2	11
2	3
2	37
2	11
2	12
2	9
2	12
2	3
2	6
2	9
2	12
2	15
2	39
2	4
2	12
2	14
2	39
2	3
2	6
2	10
2	11
2	3
2	11
2	5
2	9
2	48
2	695
2	19
2	3
2	7
2	7
2	3
2	3
2	39
2	8
2	9
2	11
2	4
2	4
2	7
2	4
2	45
2	14
2	4
2	3
2	4
2	35
2	15
2	14
2	28
2	12
2	9
2	4
2	4
2	4
2	4
2	12
2	35
2	11
2	12
2	39
2	9
2	4
2	4
2	7
2	9
2	10
2	13
2	42
2	13
2	16
2	3
2	3
2	4
2	13
2	3
2	4
2	3
2	4
2	16
2	11
2	3
2	14
2	15
2	12
3	12
3	7
3	4
3	6
3	17
3	10
3	8
3	4
3	12
3	4
3	4
3	4
3	15
3	10
3	5
3	9
3	10
3	4
3	6
3	9
3	4
3	8
3	13
3	27
3	33
3	10
3	15
3	7
3	8
3	6
3	5
3	17
3	17
3	9
3	19
3	4
3	12
3	12
3	12
3	12
3	36
3	4
3	16
3	15
3	5
3	14
3	24
3	13
3	14
3	9
3	13
3	19
3	17
3	4
3	4
3	8
3	4
3	5
3	6
3	4
3	10
3	5
3	4
3	6
3	10
3	6
3	4
3	7
3	5
3	5
3	10
3	4
3	5
3	5
3	5
3	20
3	5
3	6
3	9
3	4
3	9
3	5
3	13
3	14
3	18
3	4
3	17
3	15
3	11
3	9
3	4
3	6
3	5
3	8
3	33
3	5
3	5
3	6
3	4
3	10
3	22
3	18
3	8
3	4
3	5
3	13
3	5
3	9
3	8
3	4
3	7
3	12
3	12
3	9
3	9
3	4
3	7
3	10
3	4
3	17
3	15
3	6
3	12
3	16
3	15
4	5
4	6
4	5
4	9
4	7
4	28
4	5
4	10
4	7
4	5
4	6
4	10
4	5
4	6
4	5
4	7
4	7
4	5
4	5
4	6
4	6
4	5
4	7
4	6
4	5
4	7
4	6
4	7
4	7
4	7
4	10
4	7
4	10
4	5
4	8
4	6
4	7
4	6
4	5
4	7
4	11
4	6
4	5
4	5
4	6
4	6
4	5
4	5
4	5
4	8
4	7
4	5
4	5
4	5
4	5
4	5
4	7
4	25
4	5
4	5
4	5
4	12
4	9
4	5
4	13
4	12
5	12
5	9
5	9
5	12
5	6
5	8
5	7
5	15
5	8
5	11
5	6
5	7
5	10
5	9
5	6
5	7
5	6
5	7
5	7
5	16
5	6
5	11
5	9
5	9
5	8
5	8
5	6
5	6
5	6
5	6
5	6
5	8
5	6
5	12
5	7
5	11
5	9
5	6
5	9
5	12
5	7
5	8
5	8
5	6
5	7
6	8
6	7
6	7
6	9
6	9
6	9
6	9
6	11
6	15
6	9
6	8
6	7
6	7
6	9
6	8
6	7
6	8
6	15
6	8
6	11
6	9
6	9
6	7
6	12
6	7
6	16
6	7
6	9
6	7
6	9
6	8
6	8
6	7
6	11
6	7
6	7
6	12
7	9
7	10
7	8
7	13
7	9
7	8
7	8
7	9
7	8
7	8
7	8
7	8
7	11
7	9
7	10
7	11
8	10
8	9
8	9
8	11
8	9
8	9
8	10
8	10
8	9
8	9
8	9
8	9
8	10
8	12
9	10
9	10
9	10
9	11
9	11
9	10
9	14
9	10
9	10
9	11
9	13
9	11
9	11
9	10
9	12
10	12
10	11
10	11
10	13
10	12
10	12
10	11
10	11
10	11
10	12
10	12
11	14
11	13
11	12
11	18
11	12
12	13
12	13
12	14
12	13
12	13
12	14
12	13
12	13
12	13
12	15
12	13
12	13
12	13
12	13
13	15
13	14
13	14
13	14
13	14
13	15
14	15
14	17
14	16
14	15
14	16
14	16
14	15
14	15
14	15
15	16
15	18
15	16
15	17
15	16
16	17
16	17
16	18
17	19
19	20
20	21
20	21
21	23
21	22
21	22
21	23
22	23
24	25
27	29
28	29
28	30
29	31
30	31
33	34
33	34
34	35
35	37
37	39
40	42
43	44
46	47
693	694
