8	6124
9	6124
11	6124
11	6124
11	6124
13	6124
13	6124
13	6124
14	6124
14	6124
14	6124
14	6124
15	6124
15	6124
16	6124
16	6124
16	6124
16	6124
16	6124
16	6124
16	6124
17	6124
18	6124
19	6124
20	6124
20	6124
21	6124
21	6124
21	6124
21	6124
22	6124
22	6124
22	6124
22	6124
22	6124
22	6124
23	6124
23	6124
24	6124
24	6124
24	6124
25	6124
25	6124
26	6124
26	6124
26	6124
26	6124
27	6124
27	6124
28	6124
34	6124
39	6124
397	6124
397	6124
397	6124
397	6124
397	6124
397	6124
397	6124
397	6124
397	6124
397	6124
397	6124
397	6124
397	6124
397	6124
397	6124
397	6124
397	6124
397	6124
397	6124
397	6124
397	6124
397	6124
397	6124
397	6124
397	6124
398	6124
398	6124
398	6124
398	6124
398	6124
398	6124
398	6124
398	6124
398	6124
398	6124
399	6124
399	6124
399	6124
399	6124
399	6124
399	6124
399	6124
400	6124
400	6124
400	6124
400	6124
401	6124
402	6124
403	6124
403	6124
403	6124
405	6124
408	6124
412	6124
414	6124
