1	6124
1	243
1	242
1	242
1	242
1	242
1	36
1	242
1	242
1	242
1	242
1	12
1	243
1	242
1	242
1	32
1	31
1	242
1	242
1	31
1	242
1	242
1	242
1	242
1	242
1	242
1	242
1	242
1	31
1	242
1	242
1	242
1	242
1	13
1	242
1	242
1	242
1	243
1	242
1	242
1	11
1	242
1	242
1	242
1	31
1	17
1	242
1	242
1	242
1	242
1	9
1	8
1	8
1	242
1	14
1	242
1	11
1	10
1	242
1	242
1	11
1	13
1	242
1	242
1	243
1	242
1	242
1	242
1	10
1	242
1	12
1	242
1	242
1	242
1	242
1	242
1	31
1	5
1	242
1	242
1	242
1	243
1	242
1	242
1	242
1	11
1	242
1	242
1	242
1	242
1	242
1	242
1	12
1	242
1	13
1	242
1	242
1	8
1	242
1	7
1	242
1	242
1	242
1	242
1	242
1	242
1	242
1	242
1	10
1	242
1	242
1	242
1	242
1	31
1	242
1	242
1	242
1	12
1	11
1	5
1	242
1	242
1	242
1	243
1	8
1	242
1	242
1	242
1	242
1	242
1	6
1	242
1	242
1	242
1	242
1	242
1	242
1	242
1	242
1	242
1	242
1	242
1	7
1	242
1	242
1	242
1	6
1	12
1	242
1	242
1	242
1	242
1	242
1	12
1	12
1	242
1	242
1	242
1	242
1	242
1	9
1	31
1	6
1	242
1	243
1	242
1	242
1	242
1	242
1	8
1	242
1	242
1	7
1	242
1	242
1	242
1	242
1	242
1	31
1	242
1	242
1	242
1	242
1	12
1	9
1	242
1	242
1	242
1	242
1	242
1	242
1	242
1	8
1	242
1	242
1	242
1	242
1	242
1	242
1	242
1	242
1	7
1	8
1	242
1	242
1	242
1	242
1	242
1	242
1	242
1	242
1	242
1	242
1	242
1	9
1	242
1	8
1	242
1	242
1	242
1	9
1	242
1	12
1	242
1	242
1	242
1	242
1	242
1	242
1	242
1	242
1	8
1	242
1	242
1	242
1	242
1	242
1	242
1	242
1	242
1	10
1	242
1	31
1	242
1	5
1	242
1	242
1	242
1	242
1	12
1	242
1	244
1	242
1	242
1	242
1	242
1	242
1	5
1	242
1	7
1	12
1	12
1	9
1	8
1	242
1	243
1	5
1	6
1	242
1	32
1	242
1	242
1	242
1	242
1	31
1	243
1	242
1	242
1	9
1	242
1	242
1	242
1	242
1	6
1	242
1	242
1	242
1	242
1	242
1	242
1	5
1	242
1	6
2	9
2	6
2	5
2	3
2	7
2	8
2	5
2	4
2	5
2	9
2	3
2	3
2	7
2	3
2	9
2	3
2	6
2	7
2	5
2	243
2	4
2	7
2	3
2	4
2	4
2	3
2	3
2	4
2	3
2	4
2	9
2	4
2	4
2	5
2	4
2	7
2	3
2	6
2	4
2	7
2	9
2	4
2	8
2	8
2	11
2	32
2	3
2	3
2	9
2	5
2	4
2	3
2	3
2	5
2	10
2	4
2	3
2	32
3	5
3	5
3	5
3	5
3	5
3	4
3	4
3	4
3	4
3	5
3	5
3	4
3	5
4	5
4	5
4	8
4	5
4	8
4	5
4	6
4	5
4	5
4	6
5	6
5	6
5	6
6	8
6	7
6	7
6	7
7	8
7	8
7	8
8	9
9	10
11	12
11	12
30	31
241	242
