1	6124
1	154
1	153
1	153
1	153
1	48
1	47
1	24
1	19
1	153
1	11
1	154
1	153
1	47
1	153
1	49
1	153
1	153
1	153
1	153
1	12
1	153
1	11
1	153
1	153
1	153
1	153
1	47
1	21
1	153
1	155
1	153
1	153
1	11
1	11
1	153
1	153
1	154
1	153
1	20
1	153
1	47
1	47
1	47
1	153
1	154
1	153
1	17
1	155
1	153
1	153
1	9
1	47
1	153
1	20
1	153
1	154
1	153
1	9
1	23
1	18
1	23
1	48
1	24
1	153
1	153
1	153
1	153
1	14
1	16
1	47
1	153
1	4
1	12
1	20
1	12
1	153
1	153
1	47
1	153
1	8
1	12
1	153
1	6124
1	10
1	4
1	24
1	153
1	47
1	153
1	154
1	153
1	8
1	47
1	23
1	8
1	153
1	154
1	153
1	153
1	4
1	153
1	50
1	153
1	18
1	11
1	153
1	8
1	8
1	153
1	5
1	6124
1	47
1	153
1	23
1	6
1	153
1	153
1	155
1	4
1	153
1	7
1	6124
1	23
1	153
1	6124
1	153
1	47
1	153
1	154
1	16
1	5
1	153
1	153
1	7
1	8
1	154
1	4
1	47
1	7
1	16
1	153
1	48
1	47
1	47
1	23
1	153
1	153
1	153
1	11
1	154
1	153
1	20
1	153
1	153
1	7
1	153
1	153
1	153
1	153
1	153
1	153
1	6
1	4
1	47
1	153
1	153
1	5
1	153
1	153
1	23
1	10
1	47
1	153
1	47
1	153
1	47
1	153
1	153
1	153
1	154
1	47
1	153
1	47
1	48
1	153
1	153
1	153
1	8
1	4
1	6
1	153
1	153
1	8
1	153
1	4
1	47
1	47
1	23
1	153
1	6
1	7
1	7
1	153
1	23
1	153
1	8
1	153
1	8
1	10
1	2
1	23
1	6
1	12
1	7
1	153
1	153
1	153
1	16
1	153
1	153
1	47
1	153
1	24
1	4
1	153
1	153
1	2
1	25
1	153
1	4
1	156
1	153
1	153
1	7
1	2
1	153
1	8
1	153
1	23
1	153
1	10
1	153
1	8
1	6
1	6
2	3
2	19
2	3
2	8
2	7
2	20
2	7
2	3
2	7
2	8
2	3
2	6
2	5
2	6
2	4
2	7
2	5
2	3
2	9
2	5
2	4
2	3
2	4
2	19
2	8
2	6
2	4
2	6
2	5
2	9
2	3
2	3
2	4
2	3
2	3
2	4
2	3
2	3
2	9
2	19
2	3
2	4
2	7
2	6
2	6
2	4
2	5
2	3
2	7
2	7
2	3
2	7
2	3
2	3
2	3
2	9
2	10
2	7
2	8
2	3
2	4
2	3
2	4
2	9
2	154
2	4
2	3
2	6
2	7
2	3
2	5
2	4
2	4
2	7
2	3
2	19
2	4
2	3
2	3
2	4
2	3
2	17
2	5
2	17
2	4
2	4
2	4
2	10
3	4
3	4
3	5
3	5
3	4
3	4
3	4
3	8
3	5
3	4
3	4
3	4
3	4
3	5
3	10
3	4
3	4
3	5
3	4
3	10
3	6
3	4
3	4
3	4
3	4
3	5
3	5
3	5
3	10
3	4
3	4
3	4
4	5
4	5
4	6
4	6
4	5
4	6
4	5
4	5
4	5
4	6
4	5
5	6
5	6
5	6
5	6
5	7
5	6
5	7
5	6
6	7
6	7
7	9
7	8
7	9
7	8
8	9
8	9
10	11
15	16
17	18
22	23
46	47
152	153
