11	6124
11	6124
11	6124
11	6124
11	6124
11	6124
13	6124
14	6124
14	6124
15	6124
15	6124
15	6124
16	6124
16	6124
17	6124
18	6124
18	6124
18	6124
19	6124
19	6124
19	6124
19	6124
20	6124
20	6124
20	6124
20	6124
20	6124
20	6124
21	6124
22	6124
24	6124
26	6124
28	6124
167	6124
167	6124
167	6124
167	6124
167	6124
167	6124
167	6124
167	6124
167	6124
167	6124
167	6124
167	6124
168	6124
168	6124
168	6124
168	6124
168	6124
168	6124
168	6124
168	6124
168	6124
168	6124
168	6124
169	6124
169	6124
169	6124
169	6124
169	6124
170	6124
170	6124
170	6124
170	6124
170	6124
171	6124
171	6124
172	6124
172	6124
172	6124
172	6124
173	6124
174	6124
174	6124
177	6124
178	6124
182	6124
182	6124
