1	6124
1	243
1	243
1	243
1	244
1	243
1	34
1	243
1	243
1	243
1	243
1	243
1	243
1	33
1	243
1	243
1	243
1	12
1	243
1	243
1	7
1	246
1	7
1	13
1	243
1	15
1	243
1	243
1	243
1	31
1	243
1	30
1	243
1	243
1	243
1	10
1	12
1	243
1	10
1	243
1	243
1	247
1	8
1	243
1	243
1	243
1	243
1	244
1	243
1	6124
1	243
1	11
1	243
1	243
1	243
1	243
1	243
1	243
1	243
1	243
1	10
1	9
1	13
1	30
1	6124
1	243
1	243
1	6124
1	243
1	243
1	30
1	244
1	243
1	243
1	243
1	6124
1	6124
1	243
1	243
1	243
1	10
1	245
1	243
1	243
1	243
1	244
1	243
1	243
1	10
1	243
1	243
1	243
1	243
1	243
1	243
1	243
1	243
1	243
1	6
1	243
1	243
1	7
1	243
1	243
1	243
1	243
1	243
1	243
1	243
1	243
1	16
1	243
1	243
1	243
1	10
1	7
1	30
1	243
1	243
1	6
1	30
1	243
1	243
1	243
1	243
1	243
1	243
1	6124
1	243
1	243
1	244
1	7
1	243
1	244
1	7
1	32
1	243
1	243
1	243
1	243
1	243
1	243
1	243
1	243
1	243
1	243
1	243
1	243
1	243
1	243
1	243
1	243
1	243
1	243
1	9
1	243
1	9
1	243
1	6
1	12
1	243
1	11
1	9
1	6
1	243
1	243
1	243
1	243
1	243
1	9
1	243
1	9
1	6
1	243
1	243
1	243
1	243
1	243
1	5
1	243
1	243
1	243
1	7
1	243
1	243
1	243
1	243
1	30
1	243
1	6
1	30
1	243
1	243
1	243
1	6
1	243
1	243
1	7
1	243
1	30
1	5
1	243
1	243
1	243
1	6
1	243
1	243
1	243
1	243
1	243
1	10
1	6
1	243
1	6
1	9
1	30
1	3
1	243
1	243
1	243
1	243
1	8
1	243
1	243
1	243
1	243
1	243
1	243
1	243
1	243
1	30
1	243
1	243
1	243
1	243
1	244
1	244
1	243
1	243
1	243
1	30
1	243
1	243
1	4
1	243
1	243
1	243
1	9
1	243
1	30
1	6124
1	2
1	243
1	243
1	6
1	243
1	7
1	243
1	243
1	243
1	2
1	6
1	243
1	243
1	243
1	243
1	243
1	9
1	243
1	243
1	5
1	243
1	31
1	243
1	243
1	30
1	30
1	243
1	243
1	243
1	7
1	243
1	5
1	243
1	243
1	243
1	5
1	8
1	30
1	2
1	4
1	243
1	6
1	30
1	243
1	4
1	243
1	3
1	243
1	2
1	243
1	243
1	243
1	243
1	5
1	243
1	243
1	243
1	243
1	30
1	244
1	243
1	243
1	243
1	30
2	3
2	3
2	5
2	8
2	3
2	5
2	5
2	3
2	3
2	3
2	7
2	7
2	5
2	6
2	4
2	3
2	3
2	10
2	6
2	244
2	5
2	3
2	9
2	9
2	4
2	3
2	4
2	3
2	3
2	6
2	3
2	7
2	8
2	3
2	3
2	7
2	3
2	3
2	4
2	4
2	6
2	4
2	3
2	10
2	4
2	4
2	3
2	3
2	244
2	4
3	6
3	5
3	4
3	5
3	4
3	4
3	4
3	4
3	4
3	4
3	4
3	4
3	5
3	4
3	6
3	4
4	5
4	5
4	6
4	5
4	5
4	6
4	5
4	5
5	6
5	6
5	6
5	6
5	6
5	6
5	6
6	7
6	7
6	7
7	8
8	9
8	9
10	11
29	30
242	243
