9	6124
11	6124
12	6124
13	6124
14	6124
14	6124
14	6124
14	6124
15	6124
15	6124
16	6124
16	6124
16	6124
16	6124
17	6124
18	6124
22	6124
23	6124
23	6124
23	6124
24	6124
24	6124
25	6124
29	6124
101	6124
101	6124
101	6124
101	6124
101	6124
101	6124
101	6124
101	6124
101	6124
101	6124
101	6124
101	6124
101	6124
102	6124
102	6124
102	6124
102	6124
102	6124
102	6124
102	6124
102	6124
102	6124
103	6124
103	6124
103	6124
103	6124
103	6124
104	6124
105	6124
105	6124
111	6124
118	6124
