1	6124
1	15
1	205
1	20
1	13
1	203
1	202
1	204
1	202
1	6124
1	10
1	202
1	10
1	8
1	202
1	203
1	202
1	9
1	202
1	13
1	202
1	202
1	202
1	202
1	11
1	202
1	203
1	202
1	202
1	202
1	12
1	19
1	202
1	202
1	11
1	19
1	202
1	12
1	19
1	202
1	16
1	202
1	202
1	202
1	202
1	11
1	202
1	202
1	10
1	202
1	202
1	202
1	10
1	12
1	8
1	12
1	202
1	8
1	202
1	202
1	202
1	202
1	10
1	202
1	12
1	203
1	7
1	202
1	9
1	202
1	11
1	202
1	8
1	202
1	9
1	202
1	202
1	202
1	202
1	8
1	9
1	202
1	202
1	7
1	202
1	202
1	202
1	8
1	6
1	202
1	11
1	9
1	202
1	202
1	202
1	8
1	10
1	8
1	202
1	202
1	20
1	6124
1	202
1	9
1	203
1	9
1	202
1	8
1	8
1	202
1	7
1	19
1	5
1	202
1	202
1	6124
1	202
1	202
1	12
1	202
1	202
1	202
1	203
1	204
1	6
1	202
1	202
1	202
1	202
1	202
1	202
1	10
1	202
1	202
1	202
1	202
1	202
1	202
1	204
1	202
1	202
1	203
1	202
1	202
1	202
1	4
1	202
1	202
1	20
1	11
1	12
1	202
1	202
1	9
1	202
1	202
1	5
1	202
1	202
1	202
1	202
1	202
1	202
1	202
1	6
1	202
1	202
1	9
1	202
1	202
1	202
1	19
1	8
1	202
1	202
1	20
1	7
1	6
1	202
1	203
1	203
1	202
1	202
1	12
1	2
1	8
1	12
1	8
1	6
1	202
1	19
1	20
1	6
1	202
1	202
1	5
1	202
1	9
1	202
1	19
1	202
1	8
1	202
1	202
1	202
1	10
1	202
1	4
1	202
1	202
1	9
1	7
1	7
1	202
1	11
1	202
1	202
1	4
1	202
1	7
1	202
1	12
1	5
1	5
1	12
1	202
1	8
1	202
1	202
1	9
1	10
1	12
1	6
1	202
1	202
1	19
1	202
1	202
1	5
1	202
1	202
1	202
1	7
1	202
1	202
1	4
1	8
1	7
1	202
1	6
1	19
1	202
1	7
1	10
1	7
1	202
1	5
1	202
1	6
1	202
1	5
1	6
1	202
1	202
1	6
1	202
1	202
1	6
1	202
1	4
1	202
1	19
1	202
1	202
1	202
1	6
1	5
1	8
1	202
1	202
2	12
2	7
2	11
2	6
2	5
2	6
2	6
2	6
2	13
2	3
2	3
2	3
2	3
2	6
2	6
2	7
2	4
2	3
2	7
2	11
2	3
2	7
2	11
2	3
2	3
2	203
2	8
2	3
2	4
2	9
2	8
2	7
2	4
2	7
2	3
2	3
2	3
2	4
2	4
2	3
2	4
2	11
2	7
2	4
2	11
2	6
2	6
2	3
2	4
2	13
2	4
2	4
2	4
2	5
2	8
2	4
2	3
2	10
2	3
2	5
2	6
2	4
2	5
2	3
2	3
2	3
2	4
2	3
2	4
2	4
2	3
3	4
3	4
3	4
3	4
3	5
3	4
3	5
3	4
3	4
3	4
3	5
3	5
3	4
3	4
3	6
3	4
3	7
3	4
3	6
3	4
3	5
3	5
3	6
3	4
3	8
3	4
3	4
3	10
3	4
3	5
4	7
4	6
4	5
4	5
4	5
4	5
4	5
4	6
4	5
4	6
4	5
4	5
4	5
4	5
4	5
4	5
4	6
5	6
5	6
5	6
5	6
5	6
5	7
5	7
5	6
5	7
6	7
6	7
6	7
7	8
7	8
7	8
7	8
7	8
8	9
8	9
9	10
9	11
9	10
9	11
11	12
18	19
201	202
