1	6124
1	148
1	148
1	11
1	148
1	6124
1	147
1	147
1	147
1	147
1	147
1	147
1	147
1	6124
1	147
1	147
1	8
1	147
1	147
1	6124
1	16
1	6124
1	147
1	15
1	147
1	147
1	147
1	147
1	147
1	6
1	147
1	15
1	147
1	147
1	12
1	148
1	2
1	147
1	147
1	147
1	148
1	147
1	147
1	147
1	10
1	147
1	147
1	7
1	13
1	147
1	147
1	9
1	9
1	147
1	147
1	14
1	147
1	147
1	147
1	147
1	147
1	13
1	147
1	10
1	8
1	147
1	13
1	147
1	148
1	13
1	147
1	147
1	147
1	147
1	148
1	15
1	147
1	6
1	147
1	147
1	147
1	13
1	8
1	147
1	7
1	5
1	147
1	147
1	147
1	2
1	10
1	12
1	13
1	147
1	147
1	9
1	9
1	147
1	147
1	147
1	147
1	147
1	147
1	2
1	13
1	147
1	147
1	5
1	13
1	13
1	14
1	4
1	7
1	147
1	147
1	147
1	147
1	15
1	147
1	147
1	13
1	6
1	12
1	148
1	147
1	8
1	147
1	147
1	12
1	147
1	12
1	147
1	147
1	4
1	6
1	6
1	147
1	147
1	5
1	147
1	147
1	7
1	147
1	147
1	147
1	6
1	147
1	13
1	147
1	148
1	147
1	6
1	12
1	147
1	147
1	147
1	9
1	147
1	7
1	147
1	147
1	7
1	13
1	147
1	147
1	147
1	5
1	147
1	147
1	147
1	147
1	147
1	147
1	14
1	4
1	13
1	12
1	14
1	147
1	147
1	147
1	147
1	147
1	147
1	147
1	3
1	147
1	147
2	148
2	15
2	3
2	4
2	3
2	3
2	10
2	7
2	3
2	4
2	6
2	7
2	6
2	8
2	3
2	3
2	14
2	10
2	6
2	13
2	10
2	148
2	5
2	10
2	6
2	7
2	6
2	3
2	8
2	3
2	4
2	5
2	4
2	3
2	5
2	4
2	3
2	148
2	4
2	3
2	7
2	4
2	5
2	10
2	4
2	4
2	4
2	8
2	3
2	4
2	5
2	4
2	3
2	7
2	6
2	6
2	4
2	3
2	3
2	4
3	4
3	4
3	5
3	4
3	4
3	5
3	5
3	5
3	4
3	5
3	4
3	4
3	4
3	4
3	5
4	6
4	5
4	5
4	5
4	5
4	5
4	5
4	6
4	5
5	6
5	6
5	6
5	6
5	7
5	6
6	7
8	9
8	9
11	12
11	12
12	13
13	14
146	147
