7	6124
8	6124
8	6124
9	6124
9	6124
11	6124
11	6124
12	6124
12	6124
13	6124
13	6124
13	6124
14	6124
14	6124
15	6124
15	6124
15	6124
15	6124
16	6124
17	6124
17	6124
17	6124
17	6124
17	6124
18	6124
18	6124
18	6124
18	6124
19	6124
20	6124
21	6124
21	6124
25	6124
25	6124
28	6124
31	6124
215	6124
215	6124
215	6124
215	6124
215	6124
215	6124
215	6124
215	6124
215	6124
215	6124
215	6124
215	6124
215	6124
215	6124
215	6124
216	6124
216	6124
216	6124
216	6124
216	6124
216	6124
216	6124
216	6124
216	6124
217	6124
217	6124
218	6124
218	6124
218	6124
219	6124
219	6124
219	6124
219	6124
221	6124
222	6124
222	6124
223	6124
225	6124
227	6124
230	6124
