9	6124
9	6124
10	6124
12	6124
12	6124
12	6124
13	6124
14	6124
14	6124
15	6124
16	6124
16	6124
17	6124
17	6124
18	6124
18	6124
18	6124
18	6124
21	6124
21	6124
22	6124
28	6124
80	6124
80	6124
80	6124
80	6124
80	6124
80	6124
80	6124
80	6124
80	6124
80	6124
81	6124
81	6124
81	6124
81	6124
81	6124
81	6124
81	6124
81	6124
82	6124
82	6124
83	6124
84	6124
84	6124
85	6124
89	6124
94	6124
