10	6124
11	6124
12	6124
12	6124
12	6124
12	6124
13	6124
13	6124
14	6124
14	6124
14	6124
15	6124
15	6124
15	6124
15	6124
17	6124
17	6124
18	6124
19	6124
21	6124
22	6124
24	6124
25	6124
25	6124
26	6124
26	6124
27	6124
27	6124
27	6124
28	6124
29	6124
30	6124
30	6124
32	6124
37	6124
37	6124
37	6124
37	6124
37	6124
38	6124
38	6124
38	6124
39	6124
39	6124
41	6124
41	6124
43	6124
45	6124
57	6124
115	6124
115	6124
115	6124
115	6124
115	6124
115	6124
115	6124
116	6124
116	6124
116	6124
116	6124
117	6124
117	6124
117	6124
117	6124
118	6124
120	6124
121	6124
121	6124
122	6124
148	6124
