1	6124
1	114
1	115
1	12
1	13
1	114
1	114
1	14
1	11
1	114
1	38
1	8
1	114
1	114
1	114
1	114
1	12
1	7
1	114
1	114
1	11
1	9
1	8
1	114
1	4
1	114
1	115
1	15
1	114
1	6
1	114
1	114
1	114
1	115
1	114
1	37
1	11
1	10
1	114
1	114
1	114
1	115
1	36
1	114
1	10
1	10
1	37
1	36
1	37
1	114
1	114
1	114
1	114
1	8
1	6124
1	9
1	114
1	37
1	114
1	114
1	114
1	10
1	8
1	114
1	2
1	10
1	12
1	10
1	36
1	114
1	114
1	114
1	24
1	114
1	11
1	114
1	36
1	114
1	114
1	7
1	114
1	114
1	10
1	114
1	114
1	114
1	14
1	8
1	114
1	114
1	114
1	114
1	114
1	114
1	36
1	114
1	114
1	8
1	10
1	23
1	114
1	5
1	14
1	9
1	114
1	36
1	114
1	114
1	7
1	114
1	114
1	10
1	8
1	14
1	10
1	114
1	7
1	114
1	115
1	114
1	36
1	114
1	36
1	114
1	36
1	7
1	4
1	7
1	9
1	7
1	114
1	114
1	9
1	114
1	114
1	114
1	9
1	6
1	115
1	6
1	114
1	114
1	115
1	114
1	114
1	24
1	114
1	114
1	8
1	9
1	114
1	8
1	6
1	115
1	114
1	7
1	5
1	7
1	4
1	14
1	24
1	9
1	23
1	6
1	114
1	114
1	114
1	114
1	115
1	37
1	14
1	7
1	14
1	114
1	12
1	114
1	36
1	114
1	4
1	8
1	23
1	114
1	9
2	5
2	37
2	3
2	4
2	8
2	8
2	5
2	6
2	5
2	7
2	9
2	10
2	7
2	3
2	3
2	12
2	3
2	4
2	6
2	3
2	4
2	9
2	10
2	3
2	4
2	9
2	6
2	4
2	3
2	3
2	10
2	6
2	3
2	4
2	4
2	3
2	3
2	3
2	3
2	5
2	4
2	24
2	3
2	4
2	7
2	9
2	7
2	6
2	7
2	4
2	4
2	37
2	4
2	4
2	3
2	4
2	3
2	7
2	4
2	4
2	12
2	4
2	3
3	6
3	4
3	8
3	6
3	7
3	4
3	4
3	4
3	7
3	4
3	4
3	4
3	5
3	4
3	4
3	4
3	7
3	5
3	5
3	4
3	4
3	6
3	4
4	7
4	5
4	5
4	6
4	5
4	6
4	7
4	6
4	5
4	5
4	6
4	5
4	5
4	5
5	6
5	6
5	6
5	6
5	7
5	6
5	6
6	7
6	7
6	7
6	7
6	7
6	7
7	8
7	8
7	8
8	10
8	9
8	9
9	10
10	11
13	14
22	23
35	36
113	114
