9	6124
10	6124
10	6124
11	6124
12	6124
14	6124
15	6124
15	6124
15	6124
16	6124
16	6124
16	6124
17	6124
19	6124
21	6124
149	6124
149	6124
149	6124
149	6124
149	6124
150	6124
150	6124
150	6124
150	6124
150	6124
150	6124
150	6124
150	6124
150	6124
150	6124
150	6124
150	6124
150	6124
151	6124
151	6124
151	6124
151	6124
151	6124
151	6124
152	6124
152	6124
153	6124
153	6124
157	6124
158	6124
