12	6124
12	6124
16	6124
17	6124
18	6124
18	6124
18	6124
21	6124
21	6124
23	6124
24	6124
25	6124
25	6124
29	6124
29	6124
29	6124
30	6124
34	6124
39	6124
46	6124
69	6124
69	6124
69	6124
69	6124
69	6124
69	6124
69	6124
70	6124
71	6124
71	6124
71	6124
72	6124
72	6124
72	6124
72	6124
77	6124
77	6124
86	6124
