1	6124
1	6124
1	45
1	45
1	28
1	16
1	16
1	16
1	18
1	16
1	10
1	9
1	10
1	6
1	16
1	44
1	15
1	15
1	15
1	8
1	44
1	15
1	5
1	16
1	8
1	16
1	44
1	13
1	12
1	7
1	44
1	11
1	44
1	8
1	7
1	44
1	15
1	15
1	15
1	44
1	16
1	44
1	15
1	15
1	15
1	15
1	15
1	44
1	15
1	5
1	15
1	10
1	8
1	15
1	15
1	44
1	11
1	8
1	15
1	44
1	15
1	6
1	15
1	45
1	8
1	6
1	44
1	45
1	15
1	16
1	44
1	15
1	5
1	44
1	15
1	7
1	6
1	44
1	45
1	7
1	44
1	5
1	4
1	6
1	10
1	6
1	7
1	6
2	3
2	8
2	4
2	3
2	3
2	16
2	3
2	3
2	3
2	3
2	3
2	7
2	16
2	3
2	16
2	5
2	3
2	5
2	8
2	6
2	3
2	3
2	4
2	4
2	3
2	6
2	16
2	7
2	4
2	4
2	7
2	3
2	7
2	4
2	3
2	4
2	5
2	8
2	5
2	9
2	4
2	9
2	8
2	8
2	8
2	4
2	3
2	4
2	3
2	3
3	4
3	5
3	4
3	5
3	5
3	5
3	7
3	5
3	4
3	5
3	5
3	5
4	5
4	6
4	6
4	6
4	6
4	6
4	6
4	5
4	5
4	5
4	5
5	6
5	6
5	6
6	7
6	8
6	7
7	8
9	10
14	15
14	15
14	15
14	15
43	44
