7	6124
8	6124
9	6124
10	6124
12	6124
12	6124
12	6124
13	6124
13	6124
13	6124
13	6124
13	6124
13	6124
14	6124
14	6124
16	6124
16	6124
16	6124
16	6124
17	6124
17	6124
18	6124
18	6124
18	6124
18	6124
20	6124
31	6124
31	6124
32	6124
32	6124
32	6124
32	6124
32	6124
33	6124
33	6124
33	6124
35	6124
37	6124
43	6124
167	6124
167	6124
167	6124
167	6124
167	6124
167	6124
167	6124
167	6124
167	6124
167	6124
167	6124
167	6124
168	6124
168	6124
168	6124
168	6124
168	6124
168	6124
168	6124
168	6124
169	6124
169	6124
170	6124
170	6124
170	6124
171	6124
171	6124
171	6124
172	6124
172	6124
172	6124
173	6124
174	6124
179	6124
