9	6124
10	6124
11	6124
12	6124
17	6124
20	6124
92	6124
92	6124
92	6124
92	6124
92	6124
92	6124
92	6124
92	6124
92	6124
92	6124
93	6124
93	6124
93	6124
94	6124
94	6124
95	6124
95	6124
95	6124
95	6124
97	6124
98	6124
98	6124
98	6124
102	6124
