1	6124
1	133
1	16
1	132
1	132
1	15
1	15
1	132
1	12
1	135
1	132
1	12
1	13
1	10
1	12
1	24
1	6
1	6124
1	16
1	16
1	18
1	13
1	15
1	10
1	10
1	13
1	132
1	10
1	2
1	9
1	132
1	132
1	15
1	17
1	133
1	13
1	17
1	133
1	14
1	132
1	132
1	12
1	11
1	132
1	132
1	10
1	7
1	133
1	8
1	11
1	16
1	13
1	17
1	20
1	18
1	14
1	17
1	6
1	12
1	20
1	132
1	10
1	132
1	133
1	132
1	5
1	132
1	132
1	132
1	5
1	132
1	132
1	132
1	17
1	12
1	134
1	12
1	6
1	10
1	4
1	6
1	11
1	12
1	132
1	21
1	132
1	132
1	11
1	132
1	10
1	15
1	132
1	6
1	15
1	132
1	8
1	15
1	14
1	132
1	18
1	4
1	14
1	9
1	11
1	11
1	11
1	10
1	12
1	132
1	19
1	5
1	133
1	19
1	8
1	14
1	13
1	7
1	16
1	132
1	132
1	7
1	19
1	9
1	12
1	7
1	8
1	132
1	8
1	8
1	19
1	16
1	133
1	132
1	9
1	12
1	11
1	132
1	11
1	9
1	133
1	10
1	5
1	10
1	132
1	15
1	14
1	5
1	8
1	132
1	132
1	10
1	14
1	11
1	18
1	8
1	6
1	20
1	9
1	11
1	9
1	17
1	6
1	6124
1	11
1	14
1	7
1	7
1	132
1	132
1	133
1	12
1	15
1	9
1	132
1	15
1	10
1	10
1	132
1	12
1	6
1	132
1	11
1	13
1	13
1	8
1	8
1	5
1	15
1	6
1	132
1	132
1	6
1	11
1	132
1	6
1	132
1	8
1	10
1	17
1	8
1	19
1	5
1	16
1	132
1	132
1	10
1	5
1	7
1	10
1	132
1	7
1	7
1	17
1	132
1	7
1	132
1	10
1	19
1	132
1	12
1	10
1	4
1	132
1	132
1	132
1	10
1	132
1	132
1	13
1	133
1	18
1	7
1	132
1	7
1	10
1	7
1	6
1	132
1	19
1	8
1	8
1	11
1	10
1	132
1	8
1	8
1	11
1	132
1	4
1	6
1	9
1	132
1	132
1	5
1	132
1	8
1	5
1	2
1	132
1	132
1	7
1	132
1	20
1	132
1	8
1	132
1	132
1	132
1	6
1	17
1	132
1	12
1	132
1	132
1	19
1	5
1	7
1	133
1	9
1	18
1	12
1	132
1	18
1	13
1	9
1	7
1	14
1	132
1	6
1	8
1	11
1	6
1	8
1	132
2	3
2	7
2	6
2	3
2	3
2	3
2	3
2	8
2	4
2	3
2	9
2	5
2	5
2	5
2	4
2	9
2	3
2	3
2	9
2	4
2	3
2	4
2	6
2	3
2	3
2	3
2	3
2	7
2	4
2	4
2	8
2	8
2	6
2	3
2	3
2	3
2	3
2	5
2	3
2	4
2	3
2	8
2	8
2	11
2	3
2	4
2	3
2	13
2	10
2	5
2	3
2	3
2	3
2	3
2	3
2	5
2	8
2	4
2	8
2	3
2	3
2	11
2	19
2	3
2	4
2	4
2	3
2	4
2	3
2	12
2	5
2	3
2	3
2	6
2	8
2	5
2	3
2	5
2	3
2	4
2	4
2	6
2	3
2	8
2	3
2	3
2	3
2	11
2	3
3	4
3	4
3	4
3	4
3	4
3	6
3	5
3	4
3	7
3	4
3	9
3	4
3	4
3	6
3	6
3	4
3	5
3	4
3	4
3	4
3	4
3	4
3	5
3	4
3	7
3	4
3	6
3	7
3	4
3	4
3	5
3	6
3	9
3	10
3	4
3	4
3	4
3	4
4	5
4	6
4	7
4	5
4	5
4	5
4	6
4	6
4	5
4	5
4	5
4	5
4	7
4	5
4	5
4	7
4	5
4	7
4	5
4	6
4	5
4	5
4	5
4	5
5	6
5	8
5	6
5	6
5	6
5	6
5	8
5	6
5	6
5	6
6	7
6	8
6	7
6	7
6	7
6	7
6	7
6	8
6	7
6	7
6	8
6	7
6	7
6	7
7	8
7	8
7	8
8	9
8	9
8	9
8	9
9	10
9	10
9	10
9	10
9	10
10	11
10	11
11	12
11	12
12	13
13	14
13	14
14	15
16	17
17	18
18	19
131	132
