1	6124
1	135
1	35
1	11
1	134
1	8
1	134
1	13
1	6
1	134
1	36
1	134
1	134
1	30
1	134
1	134
1	36
1	12
1	14
1	14
1	19
1	29
1	12
1	134
1	134
1	14
1	17
1	16
1	134
1	134
1	9
1	134
1	14
1	11
1	34
1	6124
1	11
1	134
1	9
1	34
1	18
1	134
1	8
1	34
1	134
1	6
1	134
1	34
1	134
1	11
1	9
1	6124
1	11
1	134
1	9
1	135
1	13
1	134
1	9
1	35
1	2
1	134
1	134
1	134
1	134
1	22
1	11
1	134
1	134
1	134
1	8
1	6
1	9
1	10
1	6
1	22
1	5
1	29
1	8
1	134
1	22
1	21
1	134
1	134
1	6
1	29
1	14
1	14
1	134
1	15
1	10
1	134
1	8
1	10
1	7
1	9
1	8
1	134
1	34
1	8
1	21
1	10
1	134
1	29
1	134
1	134
1	134
1	6
1	134
1	10
1	29
1	9
1	34
1	10
1	134
1	10
1	134
1	35
1	21
1	10
1	29
1	10
1	134
1	134
1	134
1	13
1	13
1	9
1	134
1	134
1	8
1	12
1	21
1	134
1	8
1	134
1	29
1	7
1	9
1	9
1	134
1	34
1	7
1	10
1	134
1	135
1	5
1	134
1	135
1	29
1	134
1	134
1	134
1	12
1	134
1	134
1	134
1	6
1	8
1	29
1	13
1	9
1	7
1	134
1	134
1	134
1	21
1	134
1	9
1	134
1	134
1	5
1	134
1	134
1	134
1	34
1	134
1	9
1	134
1	134
1	34
1	29
1	134
1	34
1	134
1	134
1	34
1	134
1	30
1	134
1	134
1	134
1	17
1	17
1	6
1	13
1	8
1	6
1	7
1	7
1	134
1	13
1	9
1	134
1	7
1	134
1	9
1	134
1	8
1	29
1	8
1	7
1	8
1	134
1	10
1	9
1	8
1	134
1	34
1	3
1	7
1	5
1	13
1	6
1	10
1	23
1	134
1	134
1	5
1	22
1	6
1	134
1	134
1	11
1	8
1	134
1	134
1	5
1	134
1	134
1	6
1	10
1	29
2	18
2	3
2	15
2	9
2	5
2	18
2	4
2	3
2	9
2	7
2	3
2	7
2	22
2	135
2	7
2	22
2	3
2	6
2	3
2	3
2	18
2	3
2	8
2	14
2	11
2	3
2	3
2	6
2	3
2	6
2	3
2	4
2	3
2	3
2	6
2	6
2	7
2	5
2	18
2	11
2	8
2	3
2	5
2	7
2	9
2	4
2	5
2	7
2	4
2	10
2	5
2	3
2	6
2	3
2	4
2	3
2	4
2	4
2	3
2	6
2	18
2	4
2	5
2	7
2	3
2	14
2	22
2	7
2	4
2	6
2	18
2	7
2	9
2	5
2	9
3	9
3	5
3	7
3	4
3	6
3	4
3	6
3	6
3	4
3	4
3	4
3	10
3	5
3	4
3	7
3	6
3	9
3	4
3	4
3	4
3	4
3	7
3	4
3	10
3	5
3	4
3	5
3	4
3	4
3	4
3	5
3	5
3	6
4	5
4	5
4	5
4	5
4	5
4	7
4	7
4	5
4	6
4	5
4	5
4	5
4	6
4	5
4	8
4	5
5	6
5	6
5	6
5	7
5	6
5	7
5	6
6	7
6	7
6	9
6	7
7	8
7	8
7	8
7	9
7	8
7	8
7	8
7	8
8	9
8	9
8	9
9	10
9	10
9	10
12	13
12	13
16	17
20	21
28	29
33	34
133	134
