1	6124
1	129
1	129
1	129
1	129
1	130
1	129
1	8
1	13
1	129
1	129
1	130
1	10
1	129
1	129
1	8
1	129
1	20
1	19
1	132
1	129
1	129
1	129
1	129
1	10
1	129
1	129
1	129
1	131
1	129
1	129
1	8
1	129
1	129
1	129
1	8
1	129
1	129
1	129
1	8
1	129
1	129
1	129
1	9
1	129
1	21
1	129
1	129
1	11
1	7
1	130
1	20
1	7
1	129
1	129
1	7
1	129
1	129
1	129
1	129
1	130
1	129
1	129
1	129
1	129
1	129
1	9
1	7
1	131
1	129
1	129
1	130
1	129
1	129
1	129
1	4
1	6124
1	129
1	5
1	6
1	129
1	129
1	129
1	19
1	129
1	129
1	129
1	129
1	131
1	129
1	129
1	4
1	130
1	129
1	129
1	19
1	7
1	129
1	5
1	129
1	129
1	129
1	129
1	129
1	129
1	7
1	129
1	20
1	129
1	129
1	129
1	9
1	131
1	5
1	6
1	131
1	129
1	5
1	129
1	130
1	129
1	129
1	129
1	6
1	5
1	129
1	129
1	129
1	7
1	129
1	129
1	129
1	19
1	129
1	129
1	7
1	19
1	19
1	129
1	129
1	129
1	129
1	129
1	6
1	6
1	8
1	129
1	6
1	4
1	129
1	9
1	8
1	6
1	3
1	9
1	129
1	4
2	5
2	8
2	4
2	8
2	3
2	8
2	4
2	10
2	7
2	3
2	10
2	7
2	5
2	130
2	7
2	4
2	3
2	3
2	130
2	6
2	3
2	3
2	130
2	4
2	5
2	4
2	4
2	4
2	3
2	3
2	8
2	4
2	8
2	7
2	6
2	6
2	5
2	3
2	4
2	3
2	4
2	3
2	7
3	4
3	4
3	4
3	4
3	5
3	5
3	4
3	4
3	4
3	4
3	4
3	5
3	4
3	5
3	4
3	4
3	5
3	8
3	6
3	4
3	4
4	6
4	5
4	5
4	5
4	7
4	9
4	5
4	10
4	5
4	5
4	6
5	6
5	6
5	6
5	6
6	7
6	7
6	7
6	7
6	8
8	9
8	9
18	19
128	129
