1	6124
1	49
1	51
1	49
1	49
1	50
1	13
1	11
1	49
1	12
1	11
1	49
1	49
1	50
1	49
1	49
1	11
1	50
1	6
1	12
1	52
1	49
1	9
1	10
1	10
1	49
1	49
1	49
1	5
1	49
1	49
1	51
1	49
1	5
1	4
1	49
1	49
1	49
1	7
1	50
1	9
1	11
1	50
1	49
1	49
1	10
1	5
1	49
1	10
1	8
1	7
1	11
1	11
1	8
1	9
1	49
1	49
1	10
1	10
1	6
1	49
1	49
1	9
1	49
1	10
1	8
1	5
1	11
1	6
1	49
1	10
1	4
1	7
1	7
1	5
1	9
1	49
1	49
1	7
1	9
1	7
1	9
1	6
1	50
1	49
2	8
2	3
2	5
2	3
2	8
2	3
2	4
2	3
2	3
2	3
2	6
2	3
2	4
2	5
2	3
2	5
2	3
2	8
2	3
2	3
2	5
2	3
3	5
3	5
3	4
3	4
3	4
3	4
3	4
3	8
3	4
3	6
3	5
3	4
3	4
4	5
4	5
4	5
4	5
4	5
5	7
5	6
5	6
5	7
6	8
6	7
6	7
7	8
7	8
8	9
9	10
9	10
48	49
