1	6124
1	38
1	36
1	14
1	35
1	35
1	35
1	35
1	10
1	11
1	11
1	13
1	35
1	35
1	10
1	35
1	12
1	10
1	8
1	10
1	10
1	10
1	7
1	7
1	13
1	8
1	12
1	12
1	5
1	10
1	11
1	35
1	6
1	35
1	10
1	35
1	7
1	36
1	35
1	10
1	35
1	35
1	8
1	8
1	7
1	5
1	11
1	35
1	35
1	7
1	7
1	9
1	35
1	35
1	11
2	9
2	8
2	3
2	11
2	3
2	10
2	8
2	3
2	3
2	5
2	3
2	5
2	11
2	3
3	8
3	6
3	4
3	5
3	4
3	5
3	5
3	9
3	4
4	5
4	7
5	6
5	6
5	6
6	7
6	7
6	7
6	7
6	7
6	7
7	8
7	8
9	10
9	11
11	12
34	35
