6	6124
9	6124
10	6124
11	6124
11	6124
11	6124
13	6124
13	6124
16	6124
16	6124
16	6124
16	6124
18	6124
19	6124
20	6124
20	6124
22	6124
26	6124
54	6124
54	6124
54	6124
54	6124
54	6124
54	6124
54	6124
54	6124
54	6124
54	6124
54	6124
54	6124
54	6124
55	6124
55	6124
55	6124
56	6124
57	6124
58	6124
58	6124
58	6124
59	6124
