1	6124
1	95
1	94
1	94
1	12
1	94
1	94
1	19
1	94
1	94
1	24
1	13
1	94
1	11
1	94
1	10
1	23
1	9
1	10
1	94
1	9
1	95
1	94
1	6124
1	94
1	14
1	94
1	11
1	16
1	14
1	7
1	15
1	6
1	94
1	5
1	8
1	15
1	94
1	15
1	94
1	94
1	12
1	10
1	12
1	94
1	96
1	23
1	9
1	94
1	8
1	94
1	12
1	94
1	11
1	21
1	95
1	94
1	94
1	17
1	94
1	94
1	2
1	6
1	8
1	94
1	23
1	23
1	11
1	4
1	6
1	8
1	94
1	9
1	8
1	9
1	13
1	15
1	13
1	24
1	11
1	14
1	6
1	94
1	94
1	94
1	94
1	15
1	5
1	8
1	12
1	94
1	8
1	94
1	6124
1	14
1	19
1	6
1	94
1	94
1	94
1	94
1	10
1	94
1	23
1	9
1	94
1	94
1	23
1	8
1	94
1	94
1	94
1	18
1	8
1	5
1	94
1	94
1	12
1	95
1	94
1	94
1	94
1	6
1	2
1	8
1	4
1	9
1	6124
1	94
1	7
1	9
1	9
1	7
1	7
1	8
1	23
1	8
1	6
1	10
1	94
1	17
1	8
1	10
1	94
1	6
1	2
1	23
1	94
1	4
1	94
1	94
1	94
1	7
1	94
1	94
1	8
1	5
1	7
1	11
1	8
1	7
1	6
1	94
1	23
1	94
1	94
1	10
1	8
1	11
1	94
1	8
2	3
2	3
2	3
2	9
2	3
2	10
2	5
2	5
2	3
2	8
2	7
2	7
2	95
2	7
2	6
2	3
2	3
2	8
2	10
2	4
2	7
2	4
2	9
2	6
2	3
2	4
2	8
2	13
2	3
2	4
2	8
2	5
2	16
2	15
2	4
2	7
2	7
2	6
2	24
2	5
2	3
2	4
2	3
2	6
2	8
2	9
2	4
2	3
2	4
2	4
2	19
2	7
2	4
2	7
2	5
2	4
2	8
2	4
2	3
3	8
3	5
3	5
3	7
3	5
3	4
3	4
3	4
3	4
3	4
3	4
3	5
3	4
3	7
3	5
3	4
3	4
3	5
3	4
3	4
3	4
3	4
3	4
3	5
4	5
4	7
4	6
4	5
4	5
4	5
4	5
4	6
4	5
4	5
5	6
5	6
5	6
5	6
5	6
5	6
5	6
5	6
5	6
5	6
5	6
5	6
6	7
6	7
6	7
6	7
7	8
7	8
7	8
7	8
7	8
8	9
8	9
10	11
10	11
11	12
13	14
14	15
17	18
22	23
93	94
