1	6124
1	56
1	56
1	57
1	56
1	56
1	9
1	56
1	57
1	6124
1	10
1	6124
1	58
1	6124
1	57
1	56
1	10
1	56
1	56
1	56
1	56
1	57
1	9
1	5
1	56
1	7
1	56
1	57
1	5
1	56
1	6
1	9
1	10
1	4
1	56
1	56
1	4
1	56
1	56
1	56
1	56
1	56
1	9
1	56
1	56
1	3
1	4
1	56
1	56
1	9
1	6
1	6
1	56
1	56
1	6
1	19
1	56
1	5
1	18
1	56
1	56
1	56
1	57
1	56
1	56
1	10
1	6
1	9
1	9
1	4
1	9
1	6
1	8
1	56
1	4
1	6
1	56
2	7
2	8
2	9
2	6
2	3
2	57
2	7
2	8
2	4
2	3
2	6
2	6
2	19
2	6
2	8
2	5
2	5
2	19
2	4
2	4
2	9
2	8
2	5
2	4
2	5
2	3
2	4
2	7
2	3
2	5
2	3
2	3
2	9
3	4
3	4
3	4
3	4
3	5
3	6
3	5
3	4
3	4
3	4
3	5
3	5
3	4
3	5
3	6
3	4
3	5
3	6
3	4
3	5
3	6
3	6
3	4
3	5
4	6
4	8
4	7
4	5
4	5
4	5
5	6
5	6
5	8
5	6
5	6
6	8
6	7
6	8
6	7
6	7
6	9
7	8
7	9
17	18
55	56
