1	6124
1	76
1	75
1	10
1	9
1	75
1	20
1	75
1	75
1	19
1	9
1	19
1	11
1	8
1	75
1	75
1	7
1	9
1	75
1	8
1	75
1	75
1	7
1	75
1	75
1	9
1	75
1	7
1	76
1	8
1	10
1	75
1	75
1	75
1	8
1	76
1	75
1	75
1	8
1	6
1	19
1	13
1	76
1	8
1	75
1	75
1	8
1	75
1	75
1	75
1	75
1	19
1	12
1	75
1	8
1	8
1	19
1	7
1	75
1	75
1	19
1	8
1	19
1	75
1	75
1	9
1	75
1	7
1	75
1	10
1	7
1	19
1	5
1	75
1	7
1	19
1	10
1	75
1	7
1	75
1	5
1	7
1	75
1	8
1	75
1	75
1	8
1	6
1	5
1	7
1	8
1	8
1	6
1	10
1	75
1	75
1	75
1	19
1	19
1	7
1	75
1	75
1	8
1	19
1	5
1	75
1	75
1	75
1	8
2	11
2	20
2	6
2	11
2	8
2	76
2	7
2	6
2	6
2	7
2	9
2	6
2	4
2	3
2	3
2	10
2	5
2	3
2	7
2	7
2	4
2	5
2	4
2	3
2	4
2	4
2	4
2	11
2	3
2	3
2	6
2	3
2	4
2	7
2	7
2	4
2	6
2	3
2	8
2	3
2	10
2	3
3	4
3	5
3	4
3	4
3	4
3	5
3	4
4	5
4	6
4	5
4	7
4	6
4	6
4	5
4	5
4	6
4	5
4	6
5	7
5	6
5	6
5	6
5	7
5	7
6	8
6	7
6	7
6	7
6	7
7	8
7	8
7	8
9	10
18	19
74	75
