1	6124
1	191
1	6124
1	28
1	11
1	10
1	190
1	5
1	190
1	11
1	13
1	190
1	14
1	13
1	14
1	190
1	191
1	190
1	190
1	14
1	11
1	190
1	190
1	25
1	190
1	26
1	190
1	190
1	190
1	26
1	190
1	190
1	190
1	8
1	190
1	12
1	26
1	190
1	14
1	190
1	190
1	194
1	11
1	5
1	13
1	24
1	190
1	190
1	190
1	6
1	9
1	190
1	190
1	190
1	12
1	190
1	190
1	190
1	190
1	190
1	8
1	191
1	190
1	11
1	10
1	11
1	6
1	12
1	10
1	190
1	190
1	190
1	11
1	11
1	10
1	14
1	190
1	190
1	190
1	191
1	26
1	190
1	5
1	190
1	190
1	190
1	190
1	190
1	190
1	7
1	190
1	190
1	190
1	190
1	190
1	9
1	24
1	13
1	6
1	11
1	13
1	26
1	191
1	24
1	190
1	24
1	190
1	11
1	13
1	190
1	190
1	7
1	191
1	190
1	14
1	190
1	190
1	27
1	6
1	10
1	11
1	190
1	190
1	190
1	190
1	190
1	11
1	190
1	24
1	190
1	8
1	8
1	190
1	190
1	24
1	190
1	190
1	5
1	9
1	190
1	190
1	11
1	190
1	190
1	190
1	13
1	190
1	190
1	11
1	190
1	190
1	13
1	190
1	24
1	13
1	24
1	24
1	10
1	190
1	190
1	26
1	26
1	8
1	14
1	11
1	190
1	190
1	26
1	6
1	190
1	7
1	6
1	190
1	4
1	24
1	6
1	190
1	12
1	190
1	190
1	190
1	190
1	190
1	191
1	9
1	12
1	190
1	7
1	10
1	190
1	11
1	190
1	190
1	190
1	190
1	191
1	190
1	11
1	190
1	12
1	190
1	6
1	9
1	6
1	24
1	190
1	7
1	190
1	190
1	7
1	5
1	9
1	190
1	7
1	190
1	11
1	190
1	7
1	9
1	190
1	9
1	190
1	5
1	13
1	7
1	7
1	190
1	190
1	190
1	190
1	190
1	190
1	190
1	190
1	190
1	9
1	26
1	190
1	190
1	7
1	8
1	190
1	190
1	190
1	190
1	190
1	13
1	10
1	7
1	190
1	8
1	9
1	190
1	190
1	8
1	190
1	190
1	190
1	190
1	24
1	190
1	190
1	5
1	190
1	12
1	190
1	13
1	12
1	9
1	10
1	7
1	190
1	13
1	190
1	12
1	7
1	190
1	9
1	8
1	190
1	190
1	190
1	12
1	8
1	26
1	190
1	14
1	8
1	190
2	5
2	11
2	6
2	8
2	12
2	11
2	6
2	8
2	9
2	6
2	5
2	7
2	7
2	3
2	3
2	4
2	3
2	3
2	3
2	6
2	10
2	9
2	5
2	5
2	12
2	4
2	8
2	8
2	3
2	4
2	3
2	4
2	6
2	11
2	7
2	7
2	6
2	6
2	3
2	9
2	8
2	12
2	7
2	4
2	6
2	4
2	3
2	3
2	9
2	3
2	4
2	8
2	6
2	5
2	4
2	3
2	12
2	3
2	12
2	12
2	6
2	4
2	7
2	3
2	4
2	6
2	3
2	4
2	4
2	3
2	4
2	4
3	6
3	5
3	5
3	5
3	4
3	6
3	6
3	6
3	4
3	4
3	6
3	4
3	4
3	4
3	4
3	5
3	4
3	15
3	4
3	4
3	5
3	5
3	6
3	6
3	6
3	4
3	9
3	4
4	5
4	5
4	5
4	6
4	6
4	6
4	5
4	5
4	5
4	5
4	6
4	5
4	5
4	5
4	5
4	5
4	5
4	5
5	6
5	6
5	6
5	6
5	6
5	6
5	6
5	7
5	7
6	7
6	7
6	7
6	7
6	7
6	7
7	8
7	8
7	8
7	8
7	8
7	8
7	8
8	9
9	10
9	10
9	10
10	11
10	11
11	12
12	13
12	13
23	24
25	26
189	190
