1	6124
1	6124
1	6124
1	212
1	212
1	213
1	11
1	212
1	12
1	213
1	13
1	23
1	13
1	212
1	13
1	212
1	212
1	12
1	213
1	12
1	212
1	212
1	212
1	12
1	212
1	212
1	212
1	9
1	212
1	10
1	212
1	10
1	212
1	212
1	9
1	212
1	9
1	13
1	11
1	212
1	212
1	212
1	22
1	212
1	213
1	212
1	11
1	212
1	10
1	212
1	212
1	214
1	212
1	212
1	212
1	6
1	22
1	12
1	7
1	212
1	212
1	7
1	212
1	2
1	22
1	10
1	212
1	212
1	212
1	14
1	5
1	22
1	212
1	212
1	213
1	212
1	212
1	212
1	212
1	9
1	22
1	212
1	212
1	212
1	212
1	212
1	212
1	212
1	213
1	212
1	22
1	213
1	212
1	212
1	214
1	212
1	214
1	22
1	212
1	212
1	213
1	212
1	212
1	10
1	212
1	212
1	212
1	6
1	4
1	10
1	212
1	212
1	212
1	212
1	22
1	212
1	212
1	212
1	212
1	212
1	9
1	212
1	212
1	212
1	22
1	212
1	212
1	7
1	213
1	12
1	212
1	4
1	212
1	9
1	212
1	8
1	9
1	212
1	212
1	212
1	212
1	12
1	212
1	212
1	212
1	212
1	212
1	212
1	7
1	212
1	8
1	7
1	212
1	212
1	2
1	212
1	212
1	8
1	212
1	212
1	212
1	212
1	9
1	212
1	13
1	212
1	215
1	5
1	213
1	212
1	212
1	9
1	212
1	212
1	212
1	212
1	212
1	212
1	8
1	5
1	4
1	212
1	212
1	212
1	212
1	4
1	212
1	212
1	10
1	212
1	212
1	212
1	212
1	212
1	7
1	212
1	212
1	212
1	212
1	212
1	10
1	212
1	7
1	212
1	22
1	10
1	212
1	4
1	11
1	212
1	212
1	212
1	212
1	7
1	212
1	7
1	212
1	212
1	212
1	10
1	212
1	212
1	212
1	212
1	212
1	212
1	11
1	212
1	9
1	212
1	5
1	212
1	212
1	212
1	6
1	7
1	212
1	5
1	212
1	212
1	212
1	10
1	212
1	212
1	5
1	212
1	212
1	212
2	10
2	9
2	213
2	9
2	7
2	4
2	6
2	11
2	11
2	7
2	3
2	6
2	7
2	7
2	5
2	5
2	10
2	7
2	3
2	3
2	10
2	3
2	3
2	7
2	6
2	9
2	4
2	4
2	3
2	6
2	3
2	4
2	4
2	7
2	6
2	6
2	9
2	5
2	7
2	213
2	9
2	3
2	3
2	4
2	5
2	6
2	7
2	3
2	10
2	4
2	12
2	4
2	7
2	12
2	8
2	6
2	8
2	5
2	6
2	4
2	4
2	4
2	3
2	6
2	5
2	3
3	5
3	5
3	5
3	4
3	8
3	4
3	10
3	5
3	5
3	5
3	4
3	5
3	4
3	5
3	6
3	8
3	4
3	4
3	5
3	5
3	4
3	7
3	4
3	4
3	4
3	4
3	7
3	4
3	4
3	5
4	5
4	5
4	5
4	5
4	5
4	5
4	5
4	5
4	5
4	6
5	7
5	7
5	7
5	6
5	7
5	6
5	6
5	7
6	7
6	7
6	7
6	7
6	7
6	7
7	8
7	8
7	8
7	8
8	9
8	9
8	10
9	10
10	11
11	12
21	22
211	212
