12	6124
12	6124
13	6124
14	6124
14	6124
14	6124
15	6124
15	6124
16	6124
16	6124
16	6124
17	6124
17	6124
17	6124
17	6124
17	6124
18	6124
19	6124
20	6124
21	6124
21	6124
21	6124
21	6124
21	6124
22	6124
22	6124
23	6124
23	6124
24	6124
27	6124
27	6124
28	6124
28	6124
28	6124
30	6124
30	6124
32	6124
33	6124
34	6124
35	6124
35	6124
35	6124
35	6124
36	6124
37	6124
37	6124
38	6124
39	6124
40	6124
44	6124
45	6124
376	6124
376	6124
376	6124
376	6124
376	6124
376	6124
376	6124
376	6124
376	6124
376	6124
376	6124
376	6124
376	6124
376	6124
376	6124
376	6124
376	6124
376	6124
376	6124
376	6124
376	6124
376	6124
376	6124
376	6124
376	6124
376	6124
376	6124
376	6124
376	6124
376	6124
376	6124
376	6124
376	6124
376	6124
376	6124
376	6124
376	6124
376	6124
376	6124
376	6124
377	6124
377	6124
377	6124
377	6124
377	6124
377	6124
377	6124
377	6124
377	6124
377	6124
377	6124
377	6124
378	6124
378	6124
378	6124
378	6124
379	6124
380	6124
381	6124
382	6124
382	6124
383	6124
384	6124
384	6124
393	6124
404	6124
406	6124
