1	6124
1	43
1	35
1	42
1	43
1	34
1	10
1	11
1	42
1	35
1	42
1	42
1	42
1	34
1	34
1	34
1	34
1	35
1	34
1	43
1	42
1	34
1	34
1	8
1	34
1	11
1	34
1	42
1	34
1	42
1	42
1	43
1	34
1	34
1	34
1	42
1	7
1	42
1	6
1	9
1	34
1	42
1	35
1	10
1	6
1	42
1	34
1	42
1	42
1	6
1	9
1	34
1	8
1	42
1	34
1	42
1	34
1	34
1	34
1	34
1	42
1	42
2	5
2	35
2	5
2	3
2	3
2	6
2	3
2	3
2	3
2	43
2	7
2	6
2	4
2	3
2	5
2	7
2	35
2	7
2	3
2	4
2	5
3	4
3	5
3	4
3	7
3	4
3	4
3	4
3	6
3	6
3	4
4	7
4	5
4	6
4	6
5	6
5	6
8	9
33	34
41	42
