7	6124
9	6124
10	6124
10	6124
10	6124
11	6124
11	6124
11	6124
12	6124
12	6124
12	6124
12	6124
12	6124
13	6124
14	6124
14	6124
14	6124
14	6124
14	6124
14	6124
15	6124
15	6124
16	6124
16	6124
16	6124
17	6124
17	6124
18	6124
18	6124
18	6124
19	6124
19	6124
19	6124
19	6124
19	6124
20	6124
20	6124
21	6124
21	6124
22	6124
22	6124
26	6124
27	6124
28	6124
29	6124
31	6124
35	6124
152	6124
152	6124
152	6124
152	6124
152	6124
152	6124
152	6124
152	6124
152	6124
152	6124
152	6124
152	6124
152	6124
152	6124
153	6124
153	6124
153	6124
153	6124
153	6124
153	6124
153	6124
154	6124
154	6124
154	6124
154	6124
154	6124
154	6124
156	6124
161	6124
166	6124
174	6124
