1	6124
1	52
1	52
1	51
1	12
1	51
1	11
1	6124
1	13
1	51
1	9
1	11
1	51
1	13
1	51
1	14
1	9
1	51
1	51
1	13
1	7
1	6
1	13
1	51
1	51
1	13
1	51
1	8
1	51
1	51
1	12
1	8
1	12
1	13
1	7
1	52
1	11
1	8
1	5
1	11
1	51
1	10
1	51
1	9
1	51
1	12
1	3
1	9
1	7
1	51
1	51
1	51
1	11
1	9
1	12
1	52
1	9
1	12
1	9
1	6
1	7
1	7
1	15
1	51
1	51
1	7
1	51
1	6
1	8
1	9
1	51
1	51
1	12
1	8
1	10
1	4
1	7
1	10
1	51
1	8
1	51
1	11
1	6
1	9
1	10
1	4
1	12
1	8
1	8
1	51
2	12
2	3
2	10
2	9
2	52
2	3
2	13
2	9
2	4
2	3
2	4
2	6
2	4
2	3
2	6
2	10
2	3
2	3
2	6
2	4
2	4
2	3
2	3
2	3
2	3
2	3
2	7
2	3
2	8
3	11
3	7
3	4
3	5
3	6
3	4
3	6
3	4
3	6
3	4
3	8
3	4
3	7
3	4
3	5
3	5
3	4
4	5
4	5
4	9
4	6
4	5
4	5
4	5
4	5
4	6
4	6
4	5
5	7
5	6
5	6
5	7
5	6
5	7
5	6
5	7
5	8
6	7
7	8
7	8
7	8
8	9
8	9
8	9
10	11
10	11
11	12
12	13
50	51
