1	6124
1	50
1	6124
1	6124
1	50
1	6124
1	49
1	50
1	2
1	49
1	49
1	49
1	10
1	49
1	7
1	49
1	50
1	49
1	3
1	6124
1	9
1	49
1	49
1	49
1	49
1	6124
1	51
1	49
1	49
1	49
1	6
1	50
1	49
1	6124
1	9
1	49
1	2
1	8
1	49
1	8
1	50
1	5
1	50
1	6
1	50
1	9
1	49
1	49
1	4
1	5
1	8
1	2
1	49
1	2
1	49
1	49
1	8
1	5
1	49
1	8
1	49
1	49
1	49
1	49
1	8
2	3
2	3
2	50
2	3
2	8
2	5
2	3
2	50
2	3
2	4
2	5
2	5
2	3
2	3
2	7
2	3
2	3
2	4
2	4
2	5
2	4
2	4
2	3
2	5
2	5
2	3
2	3
2	8
2	4
3	4
3	6
3	5
3	4
3	5
3	4
3	4
3	4
3	4
3	4
3	4
4	5
5	6
6	7
7	8
48	49
