1	6124
1	404
1	403
1	403
1	403
1	13
1	403
1	403
1	13
1	16
1	403
1	403
1	404
1	12
1	13
1	404
1	403
1	403
1	403
1	11
1	403
1	403
1	403
1	18
1	7
1	403
1	403
1	403
1	6124
1	15
1	403
1	9
1	403
1	10
1	26
1	403
1	403
1	403
1	403
1	403
1	10
1	403
1	403
1	11
1	403
1	6124
1	12
1	15
1	11
1	403
1	403
1	403
1	15
1	29
1	403
1	11
1	403
1	6124
1	403
1	403
1	403
1	405
1	403
1	403
1	403
1	403
1	403
1	12
1	11
1	405
1	403
1	10
1	403
1	403
1	403
1	403
1	404
1	7
1	403
1	403
1	10
1	11
1	11
1	13
1	8
1	403
1	403
1	4
1	403
1	405
1	403
1	5
1	403
1	403
1	25
1	11
1	14
1	11
1	403
1	403
1	9
1	11
1	403
1	403
1	9
1	403
1	11
1	6124
1	403
1	403
1	7
1	403
1	403
1	7
1	404
1	403
1	403
1	403
1	403
1	403
1	7
1	9
1	403
1	403
1	403
1	403
1	403
1	403
1	25
1	403
1	403
1	4
1	28
1	403
1	403
1	403
1	403
1	14
1	403
1	12
1	403
1	403
1	7
1	12
1	403
1	403
1	404
1	12
1	10
1	403
1	15
1	403
1	10
1	2
1	403
1	12
1	8
1	403
1	5
1	12
1	25
1	403
1	403
1	403
1	403
1	403
1	403
1	403
1	403
1	403
1	403
1	403
1	8
1	403
1	403
1	403
1	403
1	7
1	12
1	403
1	2
1	403
1	403
1	403
1	9
1	403
1	10
1	10
1	13
1	403
1	403
1	403
1	403
1	403
1	403
1	403
1	12
1	403
1	403
1	403
1	403
1	12
1	403
1	13
1	5
1	9
1	403
1	403
1	12
1	403
1	403
1	403
1	403
1	403
1	14
1	25
1	14
1	10
1	403
1	403
1	11
1	403
1	10
1	403
1	403
1	403
1	5
1	403
1	403
1	403
1	13
1	403
1	25
1	12
1	17
1	26
1	403
1	403
1	10
1	11
1	403
1	403
1	403
1	403
1	403
1	11
1	403
1	403
1	12
1	403
1	403
1	403
1	403
1	9
1	403
1	11
1	403
1	403
1	403
1	11
1	403
1	403
1	403
1	403
1	17
1	403
1	403
1	11
1	403
1	403
1	403
1	403
1	14
1	403
1	403
1	12
1	403
1	5
1	405
1	403
1	11
1	403
1	7
1	403
1	403
1	12
1	403
1	403
1	11
1	25
1	403
1	10
1	403
1	9
1	403
1	404
1	403
1	403
1	403
1	9
1	403
1	403
1	403
1	403
1	10
1	403
1	403
1	403
1	403
1	11
1	403
1	403
1	403
1	8
1	11
1	403
1	4
1	403
1	403
1	403
1	8
1	403
1	403
1	403
1	6
1	403
1	403
1	403
1	403
1	403
1	17
1	4
1	403
1	403
1	403
1	403
1	403
1	403
1	17
1	403
1	403
1	403
1	403
1	403
1	10
1	403
1	403
1	403
1	7
1	6
1	403
1	10
1	403
1	403
1	4
1	403
1	9
1	403
1	6
1	6
1	13
1	403
1	403
1	403
1	403
1	7
1	4
1	403
1	9
1	403
1	403
1	403
1	403
1	403
1	403
1	8
1	8
1	5
1	403
1	403
1	403
1	403
1	403
1	403
1	403
1	14
1	403
1	403
1	7
1	403
1	404
1	403
1	403
1	6
1	12
1	5
1	403
1	403
1	10
1	403
1	12
1	403
1	403
1	403
1	12
1	8
1	403
1	403
1	403
1	403
1	10
1	403
1	11
1	25
1	403
1	8
1	403
1	403
1	6
1	13
1	403
1	403
1	403
1	403
1	7
1	403
1	403
1	403
1	403
1	9
1	403
1	403
1	403
1	14
1	25
1	403
1	9
1	403
1	403
1	403
1	6
1	403
1	8
1	8
1	403
1	403
1	403
1	403
1	6
1	403
1	403
1	403
1	5
1	403
1	403
1	403
1	15
1	403
1	403
1	403
1	403
1	403
1	403
1	5
1	7
1	403
1	2
1	403
1	403
1	403
1	403
1	25
1	403
1	403
1	12
1	403
1	403
1	403
1	6
1	403
1	9
1	403
1	403
1	403
1	11
1	403
1	26
1	6
1	404
1	403
1	5
1	8
1	403
1	403
1	8
1	8
1	403
1	403
1	6
1	403
1	403
1	403
1	403
1	13
1	403
1	403
1	5
1	403
1	403
1	403
1	403
1	404
1	403
1	403
1	12
1	403
1	403
1	14
1	8
1	8
1	9
1	9
1	403
1	4
1	404
1	403
1	403
1	6
1	6
1	403
2	3
2	404
2	8
2	5
2	5
2	3
2	7
2	404
2	26
2	8
2	3
2	3
2	11
2	12
2	3
2	6
2	3
2	7
2	9
2	6
2	3
2	15
2	5
2	3
2	7
2	7
2	8
2	5
2	6
2	7
2	9
2	5
2	7
2	6
2	3
2	4
2	3
2	3
2	6
2	3
2	404
2	3
2	9
2	4
2	3
2	10
2	5
2	4
2	5
2	4
2	14
2	9
2	3
2	4
2	15
2	4
2	3
2	8
2	6
2	3
2	3
2	4
2	7
2	14
2	3
2	9
2	6
2	4
2	6
2	5
2	4
2	3
2	6
2	3
2	5
2	13
2	3
2	9
2	4
2	3
2	3
2	5
2	9
2	6
2	404
2	3
2	3
2	4
2	4
2	4
2	5
2	5
2	4
2	3
2	3
2	4
2	7
2	4
2	4
2	4
2	13
2	6
2	3
3	5
3	5
3	7
3	4
3	4
3	8
3	5
3	5
3	6
3	5
3	4
3	5
3	5
3	9
3	4
3	4
3	4
3	5
3	4
3	4
3	6
3	5
3	5
3	4
3	5
3	5
3	4
3	4
3	8
3	4
3	4
3	4
3	4
3	4
3	4
3	6
3	4
3	7
3	4
3	4
3	4
3	4
3	4
3	5
3	4
3	9
3	4
3	4
3	4
3	5
3	5
3	4
3	4
3	5
3	4
3	4
3	4
3	8
3	6
3	4
3	9
3	4
3	4
3	6
3	5
3	6
3	4
3	4
3	5
4	5
4	6
4	5
4	5
4	5
4	6
4	9
4	5
4	5
4	5
4	5
4	7
4	7
4	7
4	5
4	5
4	5
5	6
5	7
5	6
5	6
5	8
5	6
5	7
5	6
5	6
5	8
5	6
5	6
5	6
5	8
5	8
5	6
5	6
5	6
6	7
6	8
6	9
6	7
6	7
6	7
6	7
6	7
7	9
7	8
7	8
7	8
7	8
7	8
8	9
8	9
9	10
9	10
9	10
9	11
10	11
10	11
11	12
11	14
11	12
12	13
12	13
13	14
13	15
16	17
24	25
402	403
