1	6124
1	57
1	56
1	56
1	56
1	14
1	57
1	57
1	6124
1	56
1	56
1	10
1	58
1	56
1	9
1	56
1	56
1	56
1	57
1	56
1	7
1	56
1	56
1	56
1	56
1	6
1	57
1	56
1	4
1	56
1	57
1	8
1	56
1	56
1	56
1	6
1	2
1	10
1	56
1	56
1	6
1	8
1	56
1	56
1	56
1	56
1	57
1	56
1	56
1	5
1	9
1	56
1	56
1	7
1	56
1	56
1	56
1	7
1	56
1	57
1	56
2	3
2	3
2	5
2	7
2	4
2	4
2	8
2	3
2	3
2	5
2	6
2	3
2	3
2	3
2	7
2	3
2	10
2	8
2	3
2	4
2	5
2	4
2	4
3	8
3	6
3	4
3	5
3	4
3	5
3	5
4	6
4	5
5	6
5	6
5	6
6	7
8	9
55	56
