1	6124
1	153
1	153
1	154
1	153
1	153
1	36
1	17
1	15
1	13
1	6124
1	12
1	18
1	153
1	153
1	12
1	35
1	153
1	153
1	12
1	10
1	153
1	15
1	34
1	153
1	12
1	35
1	12
1	153
1	153
1	11
1	153
1	10
1	8
1	35
1	12
1	153
1	14
1	11
1	153
1	12
1	8
1	9
1	7
1	154
1	6124
1	153
1	9
1	6
1	153
1	153
1	153
1	153
1	7
1	15
1	33
1	153
1	153
1	11
1	14
1	153
1	153
1	153
1	153
1	10
1	35
1	153
1	8
1	153
1	9
1	12
1	153
1	153
1	4
1	153
1	7
1	154
1	153
1	13
1	153
1	12
1	11
1	153
1	7
1	153
1	14
1	17
1	7
1	11
1	153
1	153
1	16
1	154
1	153
1	153
1	35
1	153
1	2
1	5
1	35
1	7
1	154
1	153
1	35
1	153
1	153
1	11
1	9
1	6
1	33
1	153
1	153
1	9
1	9
1	153
1	153
1	16
1	153
1	153
1	13
1	36
1	4
1	153
1	8
1	153
1	4
1	9
1	153
1	11
1	6
1	6
1	153
1	153
1	6124
1	153
1	153
1	153
1	11
1	153
1	9
1	10
1	153
1	7
1	10
1	14
1	4
1	153
1	153
1	9
1	153
1	153
1	7
1	8
1	8
1	9
1	153
1	35
1	35
1	7
1	8
1	6
1	153
1	153
1	153
1	9
1	153
1	153
1	4
1	155
1	154
1	4
1	153
1	35
1	12
1	36
1	153
1	13
1	10
1	9
1	35
1	153
1	13
1	35
1	153
1	154
1	10
1	153
1	35
1	6
1	9
1	7
1	153
1	5
1	7
1	7
1	153
1	153
1	7
1	10
1	10
1	5
1	7
1	153
1	7
1	7
1	153
1	153
1	153
1	6
1	153
1	5
1	35
1	8
1	5
1	153
1	35
1	35
1	10
1	153
1	153
1	153
1	36
2	8
2	7
2	5
2	32
2	3
2	3
2	3
2	32
2	8
2	5
2	9
2	11
2	3
2	7
2	3
2	9
2	32
2	6
2	7
2	3
2	5
2	9
2	7
2	9
2	4
2	3
2	5
2	3
2	154
2	7
2	3
2	8
2	9
2	4
2	9
2	5
2	9
2	5
2	6
2	3
2	5
2	9
2	4
2	11
2	3
2	3
2	5
2	7
2	11
2	3
2	4
2	9
2	3
2	3
2	4
2	32
2	4
2	4
2	6
2	9
2	4
2	4
2	4
2	4
2	6
2	32
2	3
2	3
2	13
2	5
2	3
2	32
2	9
2	3
2	32
2	6
2	14
2	4
2	32
2	3
2	5
2	5
2	4
2	8
2	4
2	3
2	4
2	5
2	7
2	8
2	5
2	5
3	4
3	4
3	10
3	5
3	4
3	5
3	4
3	8
3	4
3	7
3	8
3	9
3	4
3	5
3	4
3	7
3	6
3	6
3	4
3	4
3	4
3	4
3	4
3	5
3	6
3	4
3	5
3	4
3	4
3	4
3	33
3	4
3	4
3	5
3	5
3	4
3	4
3	4
3	4
3	4
3	5
3	4
3	6
3	4
3	7
3	4
4	6
4	5
4	6
4	5
4	5
4	5
4	5
4	5
4	9
4	6
4	6
4	5
4	6
4	5
4	5
4	5
4	5
4	6
4	8
5	6
5	6
5	7
5	6
5	8
5	6
5	7
5	6
5	6
5	6
6	7
6	7
6	7
6	7
6	7
7	8
7	9
7	8
7	10
7	9
7	8
7	9
8	9
9	10
9	10
9	10
9	10
11	12
12	13
12	13
14	15
30	32
34	35
152	153
