1	6124
1	250
1	250
1	251
1	15
1	13
1	10
1	250
1	19
1	15
1	250
1	250
1	12
1	20
1	14
1	250
1	250
1	251
1	17
1	250
1	16
1	252
1	250
1	250
1	250
1	250
1	250
1	250
1	14
1	11
1	14
1	250
1	250
1	11
1	14
1	8
1	250
1	18
1	9
1	250
1	250
1	250
1	14
1	250
1	11
1	14
1	6124
1	250
1	7
1	250
1	250
1	22
1	250
1	9
1	251
1	17
1	250
1	250
1	11
1	250
1	8
1	250
1	250
1	14
1	12
1	250
1	14
1	7
1	14
1	250
1	250
1	6124
1	250
1	17
1	250
1	250
1	10
1	250
1	250
1	250
1	10
1	10
1	250
1	14
1	250
1	10
1	8
1	6124
1	250
1	250
1	250
1	250
1	250
1	12
1	250
1	18
1	250
1	250
1	15
1	250
1	11
1	18
1	9
1	250
1	250
1	250
1	21
1	8
1	251
1	250
1	8
1	251
1	250
1	9
1	250
1	250
1	250
1	250
1	7
1	250
1	250
1	250
1	250
1	15
1	7
1	250
1	8
1	21
1	250
1	20
1	17
1	6
1	250
1	11
1	250
1	9
1	250
1	250
1	16
1	250
1	12
1	250
1	15
1	250
1	250
1	5
1	250
1	250
1	12
1	250
1	11
1	250
1	251
1	21
1	250
1	250
1	250
1	21
1	9
1	250
1	250
1	250
1	12
1	12
1	6124
1	6
1	250
1	250
1	250
1	9
1	250
1	250
1	250
1	250
1	252
1	250
1	250
1	10
1	7
1	250
1	14
1	250
1	250
1	250
1	14
1	250
1	250
1	4
1	250
1	5
1	14
1	250
1	250
1	250
1	21
1	250
1	17
1	10
1	250
1	5
1	250
1	15
1	6
1	251
1	250
1	250
1	18
1	6
1	7
1	250
1	18
1	250
1	250
1	250
1	9
1	21
1	14
1	250
1	250
1	15
1	15
1	250
1	250
1	7
1	2
1	17
1	250
1	250
1	14
1	9
1	250
1	9
1	4
1	5
1	250
1	250
1	250
1	9
1	250
1	250
1	4
1	15
1	250
1	250
1	7
1	18
1	11
1	15
1	8
1	250
1	4
1	250
1	8
1	250
1	17
1	250
1	250
1	14
1	21
1	250
1	14
1	250
1	250
1	17
1	5
1	8
1	16
1	2
1	250
1	15
1	6124
1	7
1	250
1	250
1	8
1	3
1	4
1	21
1	250
1	250
1	250
1	250
1	14
1	250
1	250
1	250
1	7
1	250
1	250
1	250
1	5
1	250
1	250
1	251
1	250
1	13
1	9
1	6
1	250
1	250
1	15
1	250
1	15
1	250
1	18
1	6
1	250
1	21
1	250
1	250
1	10
1	250
1	9
1	250
1	250
1	5
1	7
1	250
1	6
1	250
1	250
1	21
1	250
1	14
1	250
1	14
1	250
1	14
1	250
1	250
1	250
1	4
1	250
1	250
1	8
1	251
1	250
1	250
1	250
1	250
1	9
1	250
1	250
1	250
1	250
1	21
1	21
1	8
1	250
1	251
1	250
1	12
2	3
2	251
2	18
2	15
2	3
2	3
2	3
2	251
2	13
2	15
2	251
2	7
2	251
2	251
2	15
2	10
2	4
2	5
2	3
2	8
2	16
2	8
2	3
2	3
2	3
2	251
2	7
2	7
2	16
2	5
2	4
2	251
2	3
2	7
2	4
2	9
2	6
2	12
2	22
2	8
2	3
2	4
2	4
2	4
2	11
2	8
2	5
2	15
2	13
2	3
2	3
2	4
2	8
2	3
2	4
2	5
2	3
2	7
2	4
2	5
2	3
2	5
2	4
2	5
2	17
2	3
2	3
2	3
2	6
2	3
2	4
2	6
2	8
2	7
2	8
2	4
2	4
2	3
2	5
2	3
2	7
2	7
2	3
2	5
2	3
2	4
2	4
2	7
2	3
2	6
2	4
2	3
2	5
2	4
3	4
3	4
3	4
3	4
3	6
3	4
3	4
3	6
3	4
3	5
3	4
3	4
3	4
3	7
3	4
3	5
3	5
3	4
3	4
3	5
3	5
3	6
3	5
3	4
3	8
3	6
3	7
3	8
3	4
3	4
4	5
4	5
4	5
4	5
4	5
4	8
4	5
4	5
4	6
4	5
4	5
4	5
4	5
4	6
4	5
4	6
4	5
5	6
5	8
5	6
5	6
5	7
5	6
5	7
5	6
5	6
5	7
5	6
6	7
6	7
6	7
6	7
6	7
6	7
6	7
7	8
7	8
8	9
8	9
10	11
11	12
13	14
13	14
13	14
13	14
14	15
16	17
17	18
20	21
249	250
