1	6124
1	274
1	273
1	13
1	275
1	29
1	12
1	10
1	19
1	273
1	21
1	28
1	13
1	273
1	273
1	273
1	17
1	273
1	12
1	12
1	274
1	273
1	15
1	17
1	12
1	273
1	273
1	14
1	12
1	273
1	16
1	12
1	20
1	273
1	9
1	4
1	15
1	273
1	274
1	273
1	13
1	20
1	11
1	20
1	273
1	16
1	13
1	28
1	273
1	11
1	273
1	273
1	16
1	273
1	16
1	274
1	28
1	273
1	273
1	13
1	273
1	12
1	273
1	273
1	273
1	273
1	273
1	12
1	27
1	273
1	13
1	273
1	27
1	14
1	273
1	273
1	273
1	273
1	273
1	11
1	12
1	19
1	273
1	23
1	274
1	273
1	273
1	14
1	10
1	273
1	13
1	11
1	273
1	27
1	10
1	10
1	273
1	273
1	273
1	273
1	273
1	6
1	24
1	7
1	273
1	273
1	28
1	12
1	273
1	273
1	11
1	13
1	273
1	273
1	273
1	273
1	13
1	20
1	273
1	273
1	11
1	13
1	273
1	5
1	11
1	24
1	273
1	274
1	273
1	11
1	16
1	28
1	16
1	273
1	273
1	12
1	7
1	10
1	12
1	273
1	273
1	11
1	13
1	12
1	274
1	273
1	273
1	273
1	11
1	28
1	8
1	273
1	4
1	16
1	9
1	7
1	273
1	12
1	273
1	273
1	276
1	273
1	273
1	11
1	13
1	273
1	10
1	11
1	27
1	273
1	273
1	9
1	9
1	11
1	15
1	5
1	11
1	28
1	27
1	19
1	19
1	11
1	273
1	273
1	273
1	273
1	28
1	13
1	273
1	10
1	273
1	273
1	16
1	273
1	273
1	14
1	19
1	5
1	11
1	273
1	8
1	20
1	10
1	273
1	23
1	274
1	13
1	19
1	11
1	273
1	273
1	16
1	13
1	9
1	273
1	28
1	273
1	273
1	273
1	11
1	9
1	10
1	273
1	273
1	16
1	273
1	273
1	273
1	14
1	274
1	5
1	273
1	273
1	6
1	274
1	12
1	8
1	30
1	273
1	273
1	273
1	19
1	27
1	7
1	29
1	8
1	273
1	273
1	5
1	273
1	28
1	9
1	273
1	12
1	19
1	10
1	7
1	13
1	273
1	273
1	21
1	273
1	19
1	273
1	10
1	7
1	16
1	28
1	273
1	273
1	273
1	273
1	16
1	7
1	8
1	19
1	5
1	6
1	14
1	273
1	28
1	273
1	274
1	15
1	8
1	10
1	273
1	273
1	273
1	16
1	273
1	6
1	274
1	273
1	10
1	11
1	14
1	11
1	7
1	273
1	20
1	273
1	10
1	4
1	273
1	19
1	274
1	273
1	11
1	23
1	15
1	28
1	28
1	6
1	8
1	273
1	7
1	5
1	274
1	273
1	273
1	273
1	273
1	273
1	7
1	8
1	7
1	273
1	7
1	11
1	19
1	7
1	8
1	14
1	273
1	5
1	16
1	7
1	273
1	273
1	273
1	28
1	273
1	28
1	10
1	19
1	273
1	273
1	4
1	8
1	273
1	11
1	7
1	28
1	273
1	273
1	4
1	20
1	28
1	20
1	273
1	273
1	273
1	11
1	273
1	23
1	16
1	273
1	273
1	273
1	7
1	20
1	10
1	273
1	20
1	16
1	19
1	7
1	7
1	273
1	273
1	28
1	7
1	10
1	7
1	273
1	273
1	10
1	16
1	273
1	7
1	274
1	273
1	11
1	6
1	273
1	5
1	273
1	7
1	28
1	273
1	5
1	273
1	273
1	13
1	273
1	23
1	273
1	20
1	273
1	273
1	273
1	273
1	273
1	273
1	273
1	273
1	273
1	7
1	11
1	273
1	12
1	273
1	7
1	11
1	7
1	13
1	273
1	273
1	27
1	273
1	16
1	11
1	8
1	15
1	273
1	273
1	273
1	273
1	26
1	7
1	273
1	273
1	7
1	11
1	273
1	7
1	7
2	28
2	6
2	7
2	3
2	28
2	3
2	11
2	21
2	20
2	3
2	3
2	8
2	28
2	9
2	4
2	3
2	3
2	3
2	9
2	9
2	9
2	10
2	6
2	274
2	4
2	274
2	274
2	274
2	4
2	4
2	7
2	5
2	9
2	5
2	3
2	274
2	9
2	274
2	4
2	9
2	21
2	16
2	3
2	24
2	8
2	7
2	7
2	6
2	13
2	3
2	29
2	3
2	3
2	274
2	7
2	17
2	9
2	6
2	3
2	274
2	5
2	12
2	4
2	4
2	3
2	5
2	3
2	5
2	9
2	4
2	4
2	3
2	5
2	5
2	3
2	4
2	7
2	4
2	274
2	3
2	6
2	4
2	4
2	10
2	3
2	3
2	5
2	6
2	5
2	8
2	6
2	3
2	7
2	6
2	4
2	3
2	3
2	4
2	14
2	3
2	3
2	5
2	3
2	8
2	4
2	3
2	5
2	4
2	3
2	9
2	11
2	3
2	8
2	3
3	6
3	9
3	5
3	4
3	4
3	5
3	4
3	4
3	4
3	5
3	6
3	9
3	5
3	7
3	5
3	11
3	4
3	5
3	5
3	4
3	5
3	4
3	8
3	10
3	10
3	7
3	5
3	5
3	4
3	5
3	5
3	4
3	4
3	4
3	4
3	5
3	6
3	4
3	5
3	6
3	6
3	6
3	4
3	4
3	4
3	6
3	5
3	4
3	4
4	5
4	7
4	5
4	5
4	7
4	5
4	5
4	5
4	6
4	5
4	5
4	5
4	5
4	5
4	8
4	5
4	5
4	5
4	5
4	5
4	7
4	5
4	5
4	5
4	5
4	5
5	7
5	6
5	6
5	6
5	6
5	6
5	6
5	6
5	6
5	7
6	7
6	7
6	7
6	7
6	7
6	7
6	8
6	7
6	7
6	7
6	7
6	9
6	7
6	7
6	7
7	9
7	8
7	8
7	8
7	8
7	8
7	9
8	9
8	9
9	10
9	10
10	11
10	11
10	11
10	11
10	12
10	11
11	12
12	13
12	13
13	14
14	15
15	16
15	16
18	19
18	19
19	20
22	23
26	27
27	28
272	273
