1	6124
1	114
1	17
1	14
1	28
1	27
1	15
1	19
1	12
1	11
1	28
1	18
1	17
1	13
1	113
1	112
1	114
1	113
1	10
1	112
1	112
1	112
1	112
1	13
1	12
1	10
1	12
1	112
1	9
1	13
1	114
1	12
1	12
1	112
1	10
1	112
1	6
1	14
1	6
1	112
1	11
1	8
1	18
1	9
1	7
1	16
1	112
1	15
1	13
1	112
1	27
1	9
1	15
1	8
1	9
1	10
1	113
1	6
1	112
1	15
1	8
1	10
1	12
1	7
1	12
1	8
1	7
1	9
1	7
1	113
1	12
1	11
1	6
1	17
1	112
1	112
1	112
1	112
1	112
1	16
1	4
1	15
1	112
1	112
1	112
1	112
1	18
1	7
1	9
1	9
1	27
1	5
1	15
1	5
1	9
1	28
1	12
1	112
1	9
1	15
1	112
1	12
1	11
1	112
1	112
1	112
1	112
1	8
1	4
1	112
1	11
1	113
1	12
1	12
1	112
1	12
1	7
1	6
1	7
1	10
1	112
1	112
1	19
1	112
1	112
1	112
1	12
1	18
1	27
1	112
1	112
1	12
1	18
1	5
1	6
1	8
1	112
1	13
1	5
1	5
1	112
1	9
1	9
1	7
1	5
1	112
1	14
1	112
1	13
1	8
1	27
1	6
1	6
1	7
1	112
1	5
1	18
1	112
1	27
1	16
1	8
1	8
1	112
1	112
1	113
1	8
1	13
1	4
1	112
1	5
1	7
1	18
1	6
1	12
1	11
1	112
1	7
1	112
1	27
1	112
1	12
1	7
1	113
1	112
1	112
1	19
1	12
1	7
1	8
1	112
1	112
1	112
1	15
1	6
1	7
1	7
1	11
1	5
1	10
1	9
1	15
1	112
1	14
1	8
1	5
1	113
2	3
2	11
2	7
2	5
2	4
2	4
2	3
2	3
2	7
2	5
2	3
2	3
2	6
2	9
2	3
2	6
2	4
2	6
2	3
2	3
2	6
2	3
2	28
2	6
2	8
2	113
2	113
2	5
2	7
2	3
2	6
2	3
2	6
2	6
2	7
2	7
2	3
2	3
2	4
2	28
2	8
2	4
2	5
2	5
2	5
2	7
2	3
2	7
2	19
2	3
2	7
2	16
2	4
2	3
2	4
2	3
2	5
2	4
2	4
2	6
2	4
2	7
2	3
2	3
2	7
2	6
2	4
2	6
2	4
2	4
2	3
2	3
2	7
2	4
2	4
2	3
2	28
2	3
2	3
2	4
2	5
2	7
2	3
3	4
3	5
3	8
3	10
3	4
3	4
3	4
3	4
3	7
3	5
3	6
3	4
3	4
3	5
3	4
3	5
3	4
3	4
3	5
3	4
3	4
3	7
3	6
3	4
3	4
3	6
3	5
3	4
3	6
3	5
3	5
3	4
3	5
3	5
3	6
3	5
3	4
3	7
3	5
3	5
3	6
3	4
3	4
4	5
4	6
4	5
4	6
4	5
4	6
4	5
4	6
4	5
4	5
4	5
4	5
4	5
4	5
4	5
4	5
4	6
4	6
4	5
4	7
4	5
4	6
4	6
4	5
4	5
4	5
5	6
5	6
5	6
5	6
5	6
5	6
5	6
5	6
5	6
5	6
6	7
6	7
6	7
6	7
6	7
6	7
7	9
7	8
7	8
10	11
10	11
10	11
11	12
11	12
11	12
13	14
14	15
17	18
26	27
111	112
