1	6124
1	261
1	262
1	14
1	261
1	261
1	262
1	261
1	261
1	261
1	261
1	261
1	261
1	261
1	13
1	265
1	261
1	261
1	261
1	261
1	13
1	10
1	11
1	262
1	262
1	18
1	263
1	265
1	17
1	262
1	261
1	15
1	261
1	17
1	5
1	261
1	261
1	261
1	261
1	261
1	12
1	261
1	261
1	17
1	261
1	12
1	261
1	261
1	261
1	261
1	261
1	261
1	261
1	261
1	10
1	261
1	10
1	10
1	261
1	261
1	261
1	261
1	261
1	10
1	261
1	261
1	261
1	261
1	261
1	17
1	15
1	261
1	12
1	261
1	261
1	13
1	261
1	10
1	8
1	10
1	261
1	16
1	261
1	261
1	261
1	8
1	261
1	261
1	13
1	12
1	8
1	261
1	261
1	261
1	261
1	261
1	261
1	7
1	9
1	13
1	13
1	261
1	7
1	261
1	262
1	261
1	261
1	261
1	261
1	261
1	16
1	10
1	261
1	261
1	7
1	9
1	8
1	6
1	8
1	9
1	16
1	261
1	261
1	261
1	13
1	261
1	261
1	261
1	261
1	11
1	261
1	261
1	10
1	261
1	261
1	9
1	261
1	6
1	261
1	18
1	261
1	261
1	261
1	261
1	261
1	6124
1	262
1	261
1	261
1	261
1	261
1	261
1	261
1	261
1	19
1	261
1	11
1	6
1	7
1	7
1	261
1	8
1	261
1	10
1	261
1	261
1	9
1	17
1	261
1	7
1	16
1	261
1	261
1	261
1	9
1	6
1	261
1	261
1	261
1	261
1	261
1	10
1	262
1	261
1	17
1	11
1	261
1	261
1	261
1	261
1	16
1	261
1	9
1	16
1	5
1	8
1	261
1	262
1	4
1	261
1	261
1	261
1	261
1	10
1	261
1	6
1	5
1	13
1	261
1	261
1	7
1	261
1	16
1	261
1	261
1	261
1	261
1	5
1	262
1	9
1	261
1	5
1	9
1	13
1	2
1	261
1	261
1	5
1	261
1	12
1	13
1	9
1	5
1	8
1	261
1	261
1	261
1	5
1	262
1	261
1	261
1	261
1	261
1	262
1	261
1	261
1	261
1	261
1	261
1	6
1	8
1	9
1	6
1	261
1	10
1	261
1	261
1	15
1	4
1	261
1	11
1	261
1	6
1	18
1	261
1	17
1	261
1	261
1	261
1	261
1	6
1	261
1	261
1	261
1	262
1	261
1	261
1	261
1	261
1	16
1	12
1	13
1	261
1	261
1	261
1	261
1	12
1	261
1	6
1	261
1	261
1	13
1	261
1	261
1	261
1	261
1	261
1	261
1	6
1	261
1	4
1	14
1	16
1	261
1	261
1	14
1	262
1	261
1	5
1	261
1	261
1	261
1	261
1	261
1	16
1	7
1	261
1	261
1	261
1	7
1	261
1	5
1	261
1	261
1	261
1	9
1	5
2	17
2	3
2	4
2	5
2	262
2	4
2	262
2	7
2	4
2	4
2	3
2	5
2	4
2	5
2	3
2	4
2	4
2	5
2	6
2	8
2	13
2	5
2	4
2	8
2	7
2	4
2	8
2	5
2	5
2	5
2	262
2	7
2	8
2	9
2	3
2	4
2	3
2	11
2	14
2	10
2	4
2	5
2	7
2	3
2	4
2	262
2	9
2	4
2	3
2	262
2	8
2	18
2	3
2	9
2	4
2	3
2	8
2	4
2	7
2	262
2	7
2	3
2	5
2	8
2	4
2	3
2	3
2	4
2	5
2	3
2	3
2	3
2	4
2	5
2	5
2	9
2	7
2	3
2	3
2	7
2	3
2	3
2	3
2	4
2	3
2	4
2	6
2	3
2	3
2	3
2	5
2	6
2	3
2	3
2	4
2	3
2	6
2	3
2	7
2	3
2	7
2	3
2	4
3	4
3	5
3	5
3	4
3	4
3	4
3	5
3	5
3	5
3	5
3	4
3	5
3	5
3	4
3	4
3	5
3	5
3	4
3	5
3	4
3	4
3	4
3	7
3	4
3	5
3	4
3	5
3	5
3	4
3	5
3	5
3	5
3	4
4	6
4	7
4	5
4	5
4	5
4	5
4	6
4	6
4	5
4	5
4	5
4	5
4	6
4	6
4	5
4	5
5	6
5	6
5	6
5	6
5	6
5	7
5	6
5	6
5	6
6	7
6	8
6	7
6	7
6	7
7	8
7	8
8	9
8	9
9	10
9	10
9	10
11	12
12	13
12	13
15	16
16	17
260	261
