6	6124
6	6124
9	6124
9	6124
9	6124
10	6124
10	6124
11	6124
11	6124
11	6124
13	6124
13	6124
14	6124
14	6124
16	6124
16	6124
51	6124
51	6124
51	6124
51	6124
52	6124
52	6124
52	6124
52	6124
53	6124
53	6124
53	6124
53	6124
54	6124
54	6124
55	6124
56	6124
57	6124
61	6124
