8	6124
9	6124
9	6124
11	6124
11	6124
11	6124
12	6124
12	6124
12	6124
12	6124
12	6124
13	6124
13	6124
13	6124
14	6124
14	6124
14	6124
14	6124
14	6124
14	6124
14	6124
15	6124
15	6124
15	6124
15	6124
16	6124
16	6124
16	6124
17	6124
17	6124
17	6124
18	6124
18	6124
18	6124
18	6124
19	6124
19	6124
19	6124
20	6124
20	6124
21	6124
22	6124
22	6124
22	6124
22	6124
22	6124
22	6124
23	6124
23	6124
23	6124
24	6124
24	6124
25	6124
25	6124
25	6124
30	6124
30	6124
30	6124
31	6124
32	6124
32	6124
32	6124
33	6124
33	6124
37	6124
37	6124
37	6124
38	6124
38	6124
38	6124
38	6124
38	6124
38	6124
39	6124
39	6124
40	6124
41	6124
41	6124
42	6124
46	6124
46	6124
50	6124
457	6124
457	6124
457	6124
457	6124
457	6124
457	6124
457	6124
457	6124
457	6124
457	6124
457	6124
457	6124
457	6124
457	6124
457	6124
457	6124
457	6124
457	6124
457	6124
457	6124
457	6124
457	6124
457	6124
457	6124
458	6124
458	6124
458	6124
458	6124
458	6124
458	6124
458	6124
458	6124
458	6124
458	6124
458	6124
458	6124
458	6124
458	6124
458	6124
459	6124
459	6124
459	6124
459	6124
459	6124
459	6124
459	6124
459	6124
459	6124
459	6124
460	6124
460	6124
460	6124
460	6124
460	6124
460	6124
460	6124
460	6124
460	6124
461	6124
461	6124
461	6124
461	6124
461	6124
462	6124
462	6124
463	6124
463	6124
463	6124
464	6124
466	6124
466	6124
474	6124
475	6124
482	6124
490	6124
