1	6124
1	9
1	9
1	5
1	15
1	8
1	6
1	9
1	11
1	6
1	13
1	11
1	8
1	6
1	12
1	12
1	8
1	7
1	12
1	8
1	8
2	7
2	5
2	4
2	7
2	8
2	6
2	8
2	5
2	6
2	7
2	3
2	3
2	14
2	7
2	8
2	4
2	6
3	7
3	5
3	4
3	4
4	5
4	6
4	6
4	5
4	5
5	6
5	6
5	7
5	6
6	7
6	8
7	8
9	10
11	12
