13	6124
14	6124
15	6124
15	6124
15	6124
16	6124
16	6124
17	6124
18	6124
18	6124
20	6124
51	6124
51	6124
51	6124
51	6124
51	6124
52	6124
52	6124
52	6124
52	6124
52	6124
53	6124
57	6124
57	6124
59	6124
62	6124
