7	6124
8	6124
9	6124
10	6124
10	6124
10	6124
10	6124
11	6124
12	6124
13	6124
13	6124
14	6124
14	6124
15	6124
15	6124
18	6124
104	6124
104	6124
104	6124
104	6124
104	6124
104	6124
104	6124
104	6124
104	6124
105	6124
105	6124
106	6124
106	6124
106	6124
106	6124
106	6124
107	6124
107	6124
108	6124
110	6124
111	6124
115	6124
