9	6124
9	6124
9	6124
10	6124
11	6124
11	6124
15	6124
15	6124
15	6124
16	6124
19	6124
62	6124
62	6124
62	6124
62	6124
62	6124
62	6124
62	6124
63	6124
63	6124
63	6124
64	6124
64	6124
65	6124
67	6124
73	6124
