1	6124
1	48
1	152
1	41
1	40
1	152
1	13
1	151
1	12
1	11
1	40
1	28
1	151
1	13
1	47
1	48
1	26
1	48
1	151
1	47
1	10
1	10
1	41
1	151
1	33
1	18
1	151
1	25
1	25
1	12
1	47
1	25
1	6
1	151
1	13
1	47
1	9
1	10
1	47
1	23
1	151
1	151
1	151
1	40
1	11
1	151
1	151
1	17
1	32
1	151
1	41
1	47
1	8
1	9
1	151
1	25
1	25
1	22
1	151
1	7
1	32
1	25
1	14
1	25
1	17
1	9
1	11
1	40
1	151
1	151
1	151
1	151
1	22
1	151
1	23
1	151
1	151
1	151
1	10
1	151
1	19
1	9
1	10
1	47
1	11
1	14
1	151
1	151
1	15
1	25
1	11
1	152
1	13
1	7
1	40
1	17
1	6
1	32
1	25
1	10
1	9
1	47
1	40
1	151
1	22
1	32
1	10
1	47
1	17
1	47
1	151
1	12
1	14
1	8
1	11
1	21
1	152
1	5
1	12
1	25
1	151
1	151
1	40
1	10
1	151
1	151
1	10
1	152
1	14
1	17
1	32
1	151
1	151
1	13
1	10
1	155
1	12
1	12
1	13
1	10
1	9
1	151
1	152
1	47
1	47
1	151
1	151
1	5
1	8
1	47
1	47
1	151
1	32
1	10
1	8
1	32
1	151
1	11
1	40
1	8
1	151
1	151
1	14
1	13
1	151
1	151
1	10
1	22
1	5
1	151
1	32
1	6
1	151
1	6
1	11
1	151
1	5
1	7
1	13
1	7
1	11
1	41
1	47
1	151
1	8
1	9
1	151
1	10
1	48
1	9
1	151
1	10
1	6
1	151
1	151
1	151
1	40
1	151
1	9
1	6
1	40
1	13
1	47
1	7
1	25
1	151
1	23
1	9
1	151
1	22
1	151
1	151
1	32
1	10
1	10
1	5
1	47
1	151
1	13
1	17
1	151
1	22
1	151
1	151
1	6
1	151
1	10
1	151
1	10
1	5
1	6
1	6
1	151
1	9
1	47
1	4
1	6
1	4
1	32
1	10
1	10
1	153
1	22
1	47
1	151
1	151
1	6
1	6
1	151
1	151
1	19
1	15
1	4
1	47
1	13
1	151
1	151
1	151
1	11
1	11
1	151
1	151
1	151
1	151
1	47
1	9
1	152
1	9
1	6
1	151
1	151
1	151
1	151
1	151
1	151
1	151
1	151
1	22
1	151
1	5
1	8
1	47
1	11
1	10
1	8
1	5
1	9
1	13
1	5
1	151
1	151
1	5
2	3
2	8
2	3
2	7
2	18
2	11
2	3
2	5
2	6
2	152
2	12
2	3
2	13
2	6
2	152
2	8
2	8
2	7
2	5
2	8
2	6
2	18
2	8
2	3
2	10
2	5
2	14
2	6
2	7
2	9
2	3
2	5
2	13
2	4
2	14
2	5
2	3
2	3
2	3
2	7
2	3
2	33
2	11
2	9
2	6
2	4
2	3
2	8
2	5
2	11
2	8
2	18
2	5
2	4
2	4
2	3
2	10
2	8
2	5
2	4
2	3
2	10
2	3
2	17
2	14
2	5
2	6
2	10
2	4
2	7
2	8
2	4
2	3
2	15
2	3
2	3
2	3
2	8
2	4
2	8
2	3
2	4
2	9
2	8
2	3
2	8
2	3
2	7
2	3
2	6
2	9
2	3
2	7
2	9
2	10
2	4
2	9
2	3
2	11
2	11
2	6
2	14
2	4
3	5
3	4
3	8
3	10
3	5
3	10
3	4
3	6
3	4
3	4
3	5
3	4
3	5
3	7
3	5
3	10
3	5
3	8
3	4
3	4
3	5
3	5
3	4
3	4
3	4
3	6
3	4
3	5
3	5
3	4
3	4
3	5
3	5
3	6
3	4
3	4
3	5
3	4
3	5
3	4
3	4
3	4
3	4
3	8
3	5
3	6
3	4
3	4
4	6
4	6
4	7
4	5
4	5
4	5
4	5
4	5
4	5
4	7
4	5
4	6
4	7
4	5
4	5
4	13
4	5
4	5
4	5
4	8
4	12
4	5
4	6
5	6
5	6
5	6
5	7
5	6
5	7
5	7
5	6
5	6
5	8
5	7
5	6
5	6
5	8
5	6
5	6
5	6
6	7
6	7
6	7
6	7
6	7
6	7
6	7
7	9
7	8
7	9
7	10
7	8
7	9
7	8
8	10
8	10
8	9
8	10
8	9
8	9
9	10
9	10
9	10
9	10
10	11
12	13
12	13
12	13
15	16
16	17
21	22
24	25
31	32
39	40
46	47
150	151
