7	6124
8	6124
10	6124
11	6124
11	6124
11	6124
12	6124
12	6124
12	6124
13	6124
13	6124
14	6124
14	6124
14	6124
14	6124
14	6124
14	6124
15	6124
15	6124
15	6124
15	6124
16	6124
16	6124
16	6124
16	6124
16	6124
16	6124
17	6124
17	6124
17	6124
17	6124
18	6124
18	6124
19	6124
19	6124
19	6124
19	6124
20	6124
21	6124
21	6124
22	6124
22	6124
23	6124
23	6124
23	6124
24	6124
24	6124
25	6124
26	6124
28	6124
32	6124
32	6124
32	6124
33	6124
33	6124
33	6124
33	6124
33	6124
33	6124
34	6124
34	6124
35	6124
35	6124
36	6124
36	6124
38	6124
40	6124
46	6124
47	6124
103	6124
103	6124
103	6124
103	6124
103	6124
103	6124
103	6124
103	6124
103	6124
103	6124
103	6124
103	6124
103	6124
104	6124
104	6124
104	6124
104	6124
104	6124
104	6124
104	6124
104	6124
105	6124
105	6124
105	6124
105	6124
105	6124
105	6124
106	6124
106	6124
107	6124
107	6124
107	6124
108	6124
110	6124
110	6124
111	6124
114	6124
117	6124
118	6124
131	6124
