1	6124
1	19
1	123
1	129
1	122
1	123
1	17
1	122
1	15
1	12
1	122
1	15
1	12
1	15
1	12
1	10
1	11
1	17
1	12
1	26
1	9
1	122
1	122
1	14
1	11
1	27
1	9
1	12
1	13
1	9
1	16
1	11
1	18
1	11
1	27
1	27
1	4
1	16
1	122
1	11
1	122
1	9
1	6
1	123
1	12
1	10
1	122
1	8
1	122
1	122
1	9
1	7
1	10
1	13
1	15
1	8
1	122
1	11
1	122
1	16
1	9
1	9
1	11
1	122
1	9
1	123
1	9
1	9
1	10
1	122
1	13
1	10
1	122
1	16
1	5
1	122
1	13
1	122
1	122
1	15
1	11
1	122
1	10
1	5
1	8
1	10
1	122
1	122
1	9
1	16
1	122
1	8
1	9
1	9
1	122
1	122
1	11
1	12
1	122
1	14
1	122
1	122
1	122
1	5
1	7
1	8
1	122
1	123
1	122
1	8
1	122
1	5
1	6
1	122
1	122
1	122
1	123
1	11
1	7
1	10
1	10
1	25
1	8
1	122
1	122
1	10
1	122
1	17
1	11
1	122
1	6
1	9
1	6
1	11
1	122
1	123
1	8
1	8
2	17
2	12
2	7
2	3
2	11
2	8
2	16
2	9
2	26
2	8
2	8
2	8
2	3
2	8
2	17
2	4
2	3
2	26
2	9
2	9
2	3
2	7
2	11
2	6
2	8
2	8
2	17
2	4
2	17
2	15
2	3
2	17
2	11
2	10
2	12
2	17
2	3
2	4
2	6
2	8
2	3
2	11
2	17
2	4
2	8
2	3
2	3
2	11
2	4
2	8
2	10
2	3
2	10
2	6
2	4
2	11
2	10
2	11
2	12
2	3
2	26
2	4
2	26
2	5
2	10
2	11
2	4
2	4
2	9
2	6
2	5
2	4
2	3
3	4
3	5
3	8
3	4
3	9
3	4
3	4
3	4
3	4
3	5
3	12
3	4
3	4
3	4
3	9
3	5
3	6
3	5
3	5
3	5
3	4
3	6
3	7
3	7
3	16
3	5
3	4
3	11
3	10
3	4
3	4
3	10
3	5
3	6
3	8
3	5
3	7
3	4
3	9
3	10
4	6
4	5
4	10
4	8
4	5
4	6
4	7
4	5
4	5
4	6
4	5
4	5
4	5
4	7
4	5
4	11
4	10
4	5
4	11
4	6
4	8
5	13
5	6
5	6
5	8
5	9
5	14
5	6
5	9
5	8
5	6
5	6
5	6
6	8
6	7
6	8
6	7
6	11
6	7
6	8
6	7
6	8
6	7
7	9
7	9
7	8
7	8
8	9
8	10
8	9
8	9
8	9
8	9
9	12
9	10
9	11
9	10
9	10
10	11
10	11
10	11
12	13
13	15
14	15
15	16
15	16
15	16
24	25
121	122
