1	6124
1	80
1	79
1	79
1	12
1	79
1	7
1	16
1	16
1	10
1	20
1	15
1	13
1	9
1	15
1	6124
1	15
1	14
1	13
1	8
1	15
1	79
1	79
1	79
1	79
1	12
1	79
1	79
1	79
1	79
1	79
1	10
1	80
1	79
1	19
1	20
1	15
1	9
1	79
1	15
1	19
1	14
1	13
1	80
1	9
1	15
1	79
1	8
1	79
1	23
1	79
1	79
1	79
1	81
1	79
1	79
1	8
1	11
1	8
1	8
1	14
1	15
1	13
1	15
1	79
1	6
1	11
1	79
1	19
1	79
1	79
1	19
1	15
1	79
1	11
1	19
1	6124
1	79
1	79
1	11
1	79
1	11
1	11
1	79
1	79
1	8
1	6124
1	13
1	79
1	79
1	79
1	8
1	7
1	79
1	79
1	79
1	15
1	79
1	79
1	79
1	5
1	15
1	79
1	14
1	8
1	5
1	6
1	8
1	14
1	2
1	11
1	4
1	79
1	7
1	80
1	9
1	13
1	19
1	15
1	79
1	79
1	7
1	14
1	7
1	79
1	11
1	6
1	79
1	7
1	19
1	19
1	79
1	79
1	12
1	13
1	3
1	15
1	79
2	8
2	4
2	10
2	9
2	8
2	3
2	3
2	8
2	10
2	12
2	7
2	9
2	8
2	10
2	8
2	10
2	3
2	5
2	9
2	3
2	4
2	8
2	4
2	5
2	3
2	10
2	3
2	6
2	3
2	3
2	5
2	5
2	3
2	4
2	6
2	3
2	4
2	9
2	3
2	4
2	4
2	3
2	8
2	3
2	7
2	3
2	5
2	3
2	8
2	7
2	10
2	7
3	4
3	5
3	4
3	4
3	5
3	4
3	5
3	5
3	4
3	5
3	4
3	5
3	4
3	9
3	4
3	4
3	5
4	5
4	5
4	6
4	5
4	6
4	7
5	6
5	6
5	6
5	6
5	7
5	7
5	6
6	8
6	8
6	8
6	8
6	7
6	7
6	7
6	7
7	8
7	9
7	8
7	8
8	10
9	10
10	11
12	13
13	14
14	15
14	15
18	19
78	79
