1	6124
1	250
1	250
1	251
1	250
1	250
1	250
1	6124
1	12
1	250
1	251
1	250
1	250
1	250
1	250
1	250
1	250
1	250
1	250
1	254
1	250
1	250
1	11
1	250
1	250
1	22
1	250
1	250
1	10
1	250
1	250
1	250
1	250
1	250
1	250
1	250
1	250
1	250
1	250
1	12
1	8
1	250
1	21
1	250
1	250
1	250
1	11
1	250
1	21
1	250
1	250
1	250
1	250
1	250
1	250
1	22
1	250
1	250
1	250
1	22
1	251
1	250
1	251
1	250
1	250
1	250
1	250
1	250
1	250
1	250
1	253
1	251
1	8
1	11
1	250
1	250
1	250
1	250
1	250
1	250
1	11
1	9
1	250
1	251
1	250
1	12
1	9
1	10
1	250
1	250
1	250
1	250
1	6
1	9
1	250
1	250
1	250
1	250
1	251
1	6124
1	250
1	250
1	251
1	10
1	250
1	250
1	250
1	250
1	250
1	250
1	7
1	7
1	21
1	21
1	250
1	9
1	251
1	250
1	250
1	250
1	5
1	250
1	250
1	250
1	250
1	250
1	250
1	250
1	6
1	251
1	8
1	250
1	8
1	252
1	250
1	9
1	250
1	250
1	250
1	250
1	250
1	7
1	250
1	8
1	250
1	251
1	250
1	250
1	6
1	8
1	21
1	250
1	250
1	6
1	250
1	250
1	250
1	21
1	250
1	250
1	250
1	250
1	250
1	250
1	8
1	250
1	21
1	250
1	250
1	250
1	250
1	250
1	250
1	250
1	250
1	250
1	250
1	250
1	250
1	250
1	250
1	250
1	250
1	2
1	6
1	250
1	250
1	250
1	7
1	21
1	250
1	7
1	250
1	7
1	250
1	6
1	251
1	7
1	250
1	6124
1	250
1	4
1	6
1	250
1	251
1	7
1	251
1	250
1	250
1	250
1	250
1	7
1	250
1	8
1	250
1	250
1	250
1	6
1	250
1	250
1	250
1	2
1	250
1	250
1	250
1	250
1	250
1	9
1	6
1	250
1	250
1	250
1	6
1	4
1	250
1	250
1	250
1	250
1	250
1	250
1	250
1	250
1	250
1	9
1	8
1	250
1	21
1	6
1	250
1	250
1	250
1	250
1	250
1	6
1	7
1	250
1	250
1	250
1	251
1	251
1	7
1	250
1	21
1	250
1	21
1	250
1	6
1	250
1	250
1	21
1	250
1	250
1	250
1	250
1	9
1	250
1	250
1	251
1	3
1	250
1	8
2	5
2	5
2	4
2	9
2	8
2	3
2	3
2	3
2	7
2	10
2	4
2	6
2	3
2	3
2	3
2	8
2	4
2	3
2	5
2	3
2	8
2	7
2	8
2	7
2	5
2	3
2	10
2	3
2	8
2	9
2	4
2	5
2	251
2	4
2	8
2	4
2	3
2	3
2	3
2	7
2	6
2	3
2	7
2	7
2	3
2	8
2	3
2	4
2	3
2	4
2	5
2	5
2	9
2	3
2	3
2	6
2	4
2	3
2	5
2	4
3	4
3	5
3	4
3	4
3	4
3	5
3	4
3	5
3	8
3	4
3	6
3	4
3	6
3	5
3	4
3	4
3	5
3	5
3	5
3	4
3	4
3	4
3	5
4	5
4	6
4	5
4	5
4	5
4	10
4	6
4	5
5	6
5	6
5	6
5	6
5	6
5	6
5	6
5	7
6	7
6	7
6	7
6	7
6	7
7	8
7	8
7	8
8	9
20	21
249	250
