1	6124
1	33
1	8
1	33
1	32
1	8
1	10
1	31
1	12
1	14
1	11
1	12
1	16
1	31
1	11
1	31
1	8
1	12
1	8
1	31
1	11
1	12
1	31
1	7
1	12
1	31
1	32
1	31
1	11
1	32
1	5
1	9
1	11
1	11
1	12
1	4
1	7
1	8
1	12
1	31
1	31
1	9
1	4
1	9
1	31
1	7
1	10
1	8
1	11
2	3
2	5
2	11
2	6
2	4
2	9
2	7
2	3
2	3
2	4
2	4
2	5
2	3
2	4
2	3
2	3
2	3
2	5
2	5
2	4
2	9
3	4
3	4
3	4
3	8
3	6
3	6
3	4
3	4
3	4
3	5
3	4
3	4
3	5
3	6
4	5
4	5
4	6
4	9
5	7
5	7
5	6
6	7
7	8
7	8
7	8
9	10
10	11
10	11
30	31
