1	6124
1	26
1	13
1	10
1	11
1	5
1	11
1	28
1	98
1	98
1	16
1	24
1	98
1	97
1	97
1	15
1	15
1	27
1	11
1	16
1	10
1	97
1	98
1	97
1	27
1	97
1	8
1	7
1	97
1	18
1	15
1	9
1	100
1	97
1	20
1	99
1	97
1	98
1	6
1	10
1	15
1	10
1	97
1	27
1	5
1	97
1	11
1	15
1	8
1	6
1	23
1	7
1	98
1	97
1	10
1	97
1	97
1	97
1	97
1	97
1	4
1	97
1	5
1	10
1	7
1	27
1	10
1	97
1	97
1	97
1	98
1	9
1	8
1	8
1	11
1	97
1	27
1	97
1	97
1	23
1	97
1	10
1	13
1	97
1	98
1	97
1	18
1	97
1	9
1	17
1	97
1	23
1	23
1	97
1	6
1	23
1	97
1	9
1	7
1	97
1	10
1	27
1	5
1	97
1	8
1	97
1	97
1	23
1	27
1	10
1	6
1	9
1	27
1	8
1	8
1	97
1	97
1	5
1	97
1	97
1	97
1	97
1	10
1	97
1	98
1	17
1	8
1	97
1	97
1	10
1	5
1	17
1	27
1	98
1	97
1	8
1	97
1	7
1	10
1	18
1	7
1	97
1	13
1	10
1	27
1	98
1	97
1	97
1	8
1	10
1	6124
1	97
1	6
1	97
1	97
1	8
1	4
1	9
1	98
1	17
1	98
1	27
1	5
1	97
1	9
1	14
1	97
1	97
1	97
2	8
2	10
2	3
2	4
2	6
2	3
2	3
2	6
2	6
2	9
2	6
2	98
2	3
2	3
2	7
2	3
2	3
2	4
2	4
2	4
2	6
2	9
2	10
2	3
2	4
2	7
2	4
2	8
2	9
2	4
2	7
2	6
2	5
2	7
2	6
2	9
2	3
2	9
2	6
2	3
2	8
2	6
2	3
2	18
2	3
2	7
2	3
2	5
2	4
2	4
2	4
2	3
2	6
2	3
2	5
2	3
2	6
2	3
2	9
2	3
2	4
2	10
2	3
2	19
2	4
2	6
2	4
2	3
2	7
2	4
2	7
2	6
2	3
2	3
3	5
3	5
3	4
3	5
3	5
3	4
3	7
3	4
3	4
3	5
3	4
3	9
3	7
3	4
3	4
3	5
3	5
3	4
3	5
3	4
3	9
3	7
3	6
3	8
4	8
4	7
4	5
4	5
4	5
4	5
4	5
4	5
4	7
4	5
4	5
4	5
4	5
4	5
4	6
4	5
4	7
4	5
4	6
4	8
4	5
4	5
4	7
4	8
4	5
4	5
5	6
5	6
5	6
5	6
5	7
5	6
5	6
5	6
6	8
6	7
6	7
6	7
6	7
6	7
7	9
7	8
7	9
8	9
8	9
8	9
8	9
9	10
13	14
14	15
16	17
22	23
26	27
96	97
