8	6124
9	6124
9	6124
11	6124
13	6124
14	6124
14	6124
14	6124
15	6124
15	6124
15	6124
15	6124
15	6124
16	6124
16	6124
16	6124
16	6124
16	6124
16	6124
16	6124
17	6124
17	6124
17	6124
17	6124
18	6124
18	6124
18	6124
18	6124
18	6124
18	6124
19	6124
19	6124
19	6124
19	6124
19	6124
19	6124
19	6124
19	6124
19	6124
19	6124
19	6124
20	6124
20	6124
21	6124
21	6124
21	6124
22	6124
22	6124
22	6124
23	6124
23	6124
23	6124
24	6124
24	6124
26	6124
26	6124
29	6124
31	6124
33	6124
33	6124
103	6124
103	6124
103	6124
103	6124
103	6124
103	6124
103	6124
103	6124
103	6124
103	6124
103	6124
103	6124
103	6124
103	6124
103	6124
103	6124
104	6124
104	6124
104	6124
104	6124
104	6124
104	6124
104	6124
105	6124
105	6124
105	6124
105	6124
105	6124
105	6124
106	6124
106	6124
106	6124
106	6124
107	6124
107	6124
110	6124
112	6124
113	6124
117	6124
