6	6124
9	6124
11	6124
12	6124
13	6124
15	6124
16	6124
16	6124
16	6124
17	6124
17	6124
18	6124
18	6124
18	6124
39	6124
159	6124
159	6124
159	6124
159	6124
159	6124
159	6124
159	6124
159	6124
159	6124
159	6124
159	6124
159	6124
160	6124
160	6124
160	6124
160	6124
160	6124
160	6124
160	6124
160	6124
160	6124
160	6124
161	6124
161	6124
161	6124
161	6124
161	6124
162	6124
162	6124
162	6124
162	6124
163	6124
163	6124
166	6124
169	6124
170	6124
170	6124
184	6124
