8	6124
10	6124
10	6124
10	6124
10	6124
11	6124
11	6124
11	6124
11	6124
11	6124
12	6124
12	6124
12	6124
12	6124
13	6124
13	6124
13	6124
13	6124
13	6124
14	6124
15	6124
15	6124
15	6124
16	6124
16	6124
18	6124
18	6124
18	6124
19	6124
19	6124
20	6124
20	6124
20	6124
22	6124
25	6124
28	6124
31	6124
32	6124
33	6124
35	6124
42	6124
161	6124
161	6124
161	6124
161	6124
161	6124
161	6124
161	6124
161	6124
161	6124
161	6124
161	6124
161	6124
161	6124
161	6124
161	6124
161	6124
161	6124
161	6124
161	6124
161	6124
161	6124
161	6124
161	6124
162	6124
162	6124
162	6124
162	6124
162	6124
163	6124
163	6124
163	6124
163	6124
164	6124
164	6124
164	6124
164	6124
165	6124
166	6124
167	6124
167	6124
175	6124
185	6124
