9	6124
9	6124
11	6124
11	6124
11	6124
12	6124
12	6124
12	6124
12	6124
13	6124
13	6124
13	6124
13	6124
13	6124
13	6124
13	6124
13	6124
13	6124
13	6124
13	6124
13	6124
14	6124
14	6124
14	6124
14	6124
14	6124
15	6124
15	6124
15	6124
15	6124
15	6124
16	6124
16	6124
17	6124
17	6124
18	6124
18	6124
18	6124
19	6124
19	6124
20	6124
20	6124
20	6124
20	6124
20	6124
20	6124
21	6124
21	6124
22	6124
22	6124
24	6124
24	6124
26	6124
26	6124
26	6124
27	6124
27	6124
27	6124
27	6124
27	6124
28	6124
28	6124
29	6124
29	6124
29	6124
31	6124
31	6124
33	6124
34	6124
35	6124
48	6124
48	6124
49	6124
49	6124
49	6124
49	6124
50	6124
50	6124
50	6124
52	6124
52	6124
53	6124
53	6124
53	6124
54	6124
57	6124
62	6124
69	6124
189	6124
189	6124
189	6124
189	6124
189	6124
189	6124
189	6124
189	6124
189	6124
189	6124
189	6124
189	6124
189	6124
189	6124
189	6124
189	6124
189	6124
189	6124
189	6124
189	6124
189	6124
189	6124
189	6124
189	6124
189	6124
189	6124
189	6124
189	6124
189	6124
189	6124
189	6124
189	6124
189	6124
189	6124
189	6124
190	6124
190	6124
190	6124
190	6124
190	6124
190	6124
190	6124
190	6124
190	6124
190	6124
190	6124
191	6124
191	6124
191	6124
192	6124
192	6124
192	6124
192	6124
193	6124
193	6124
194	6124
194	6124
194	6124
195	6124
195	6124
195	6124
196	6124
196	6124
198	6124
201	6124
210	6124
