1	6124
1	29
1	29
1	29
1	28
1	28
1	8
1	29
1	28
1	28
1	28
1	8
1	7
1	7
1	28
1	8
1	8
1	7
1	7
1	6
1	8
1	28
1	8
1	29
1	6
1	8
1	28
1	7
1	7
1	28
1	28
1	4
1	28
1	5
2	3
2	5
2	3
2	3
2	4
2	5
2	7
2	7
2	7
2	7
2	5
2	6
2	4
2	3
2	6
2	3
2	6
3	4
3	4
3	4
3	5
3	7
3	4
3	6
3	4
4	5
4	6
4	5
4	5
4	6
4	7
4	6
5	6
5	6
5	6
6	7
27	28
