1	6124
1	26
1	26
1	25
1	16
1	11
1	25
1	15
1	11
1	15
1	26
1	13
1	25
1	9
1	5
1	14
1	8
1	25
1	14
1	14
1	14
1	25
1	25
1	14
1	11
1	10
1	11
1	11
1	25
1	25
1	27
1	8
1	8
1	5
1	11
1	25
1	8
1	11
1	25
1	5
1	6
2	3
2	5
2	6
2	5
2	6
2	7
2	6
2	7
2	15
2	4
2	4
2	3
2	3
2	4
2	8
2	4
3	4
3	4
3	5
3	4
4	5
4	5
4	5
4	7
5	6
6	8
7	8
10	11
13	14
24	25
