8	6124
8	6124
10	6124
11	6124
11	6124
12	6124
12	6124
12	6124
12	6124
12	6124
12	6124
13	6124
13	6124
13	6124
13	6124
13	6124
14	6124
14	6124
14	6124
14	6124
14	6124
14	6124
14	6124
14	6124
15	6124
15	6124
15	6124
15	6124
15	6124
15	6124
15	6124
15	6124
16	6124
16	6124
16	6124
16	6124
16	6124
16	6124
17	6124
17	6124
17	6124
17	6124
17	6124
17	6124
18	6124
18	6124
18	6124
19	6124
19	6124
19	6124
19	6124
19	6124
19	6124
20	6124
20	6124
20	6124
20	6124
20	6124
21	6124
22	6124
23	6124
24	6124
24	6124
26	6124
64	6124
64	6124
64	6124
64	6124
64	6124
64	6124
64	6124
64	6124
64	6124
64	6124
65	6124
65	6124
65	6124
65	6124
65	6124
65	6124
65	6124
66	6124
66	6124
66	6124
67	6124
67	6124
67	6124
67	6124
67	6124
68	6124
68	6124
71	6124
71	6124
73	6124
73	6124
75	6124
