11	6124
11	6124
11	6124
11	6124
11	6124
11	6124
12	6124
12	6124
13	6124
13	6124
13	6124
14	6124
14	6124
14	6124
15	6124
15	6124
15	6124
15	6124
15	6124
16	6124
16	6124
16	6124
17	6124
17	6124
17	6124
18	6124
20	6124
112	6124
112	6124
112	6124
112	6124
112	6124
112	6124
112	6124
112	6124
112	6124
113	6124
113	6124
113	6124
113	6124
113	6124
113	6124
113	6124
113	6124
114	6124
114	6124
114	6124
114	6124
115	6124
116	6124
117	6124
118	6124
118	6124
118	6124
118	6124
119	6124
119	6124
120	6124
120	6124
