1	6124
1	143
1	142
1	30
1	142
1	142
1	142
1	28
1	142
1	142
1	15
1	142
1	28
1	28
1	142
1	28
1	142
1	142
1	142
1	28
1	142
1	142
1	142
1	142
1	142
1	28
1	142
1	142
1	142
1	143
1	28
1	142
1	142
1	142
1	142
1	142
1	142
1	30
1	29
1	142
1	142
1	142
1	142
1	142
1	142
1	142
1	28
1	142
1	142
1	142
1	142
1	28
1	142
1	12
1	142
1	142
1	143
1	142
1	142
1	15
1	142
1	142
1	10
1	142
1	29
1	142
1	142
1	142
1	12
1	10
1	142
1	142
1	142
1	9
1	7
1	142
1	142
1	142
1	142
1	142
1	28
1	144
1	142
1	142
1	142
1	142
1	142
1	28
1	142
1	142
1	142
1	7
1	142
1	142
1	142
1	10
1	28
1	142
1	142
1	142
1	7
1	142
1	5
1	142
1	142
1	142
1	142
1	142
1	7
1	142
1	142
1	142
1	142
1	4
1	12
1	28
1	142
1	142
1	4
1	142
1	142
1	142
1	6
1	142
1	142
1	142
1	142
1	142
1	142
1	7
1	10
1	7
1	142
1	142
1	6
1	28
1	142
1	142
1	142
1	6
1	142
1	142
1	28
1	142
1	143
1	143
1	142
1	10
1	142
1	142
1	142
1	142
1	28
1	142
1	142
1	142
1	142
1	142
1	142
1	142
1	142
1	142
1	9
1	142
1	13
1	142
2	29
2	3
2	6
2	7
2	3
2	4
2	143
2	10
2	3
2	12
2	3
2	8
2	4
2	7
2	3
2	12
2	29
2	4
2	3
2	6
2	4
2	3
2	4
2	12
2	12
2	12
2	4
2	4
2	6
2	4
2	8
3	4
3	4
3	4
3	4
3	4
3	4
3	5
3	4
4	6
4	6
4	5
4	5
4	5
4	6
5	7
6	7
6	7
6	7
9	10
10	11
27	28
141	142
