5	6124
6	6124
8	6124
8	6124
8	6124
9	6124
10	6124
11	6124
13	6124
14	6124
14	6124
14	6124
14	6124
14	6124
15	6124
15	6124
15	6124
15	6124
16	6124
16	6124
17	6124
17	6124
18	6124
18	6124
19	6124
20	6124
20	6124
21	6124
21	6124
21	6124
23	6124
23	6124
24	6124
25	6124
25	6124
33	6124
33	6124
34	6124
34	6124
34	6124
34	6124
35	6124
35	6124
35	6124
39	6124
211	6124
211	6124
211	6124
211	6124
211	6124
211	6124
211	6124
211	6124
211	6124
211	6124
211	6124
211	6124
211	6124
211	6124
211	6124
212	6124
212	6124
212	6124
212	6124
212	6124
212	6124
212	6124
212	6124
212	6124
212	6124
213	6124
213	6124
213	6124
213	6124
214	6124
214	6124
214	6124
214	6124
216	6124
216	6124
216	6124
218	6124
219	6124
220	6124
225	6124
229	6124
