1	6124
1	14
1	545
1	544
1	544
1	544
1	15
1	544
1	544
1	544
1	544
1	544
1	544
1	19
1	20
1	544
1	21
1	544
1	16
1	544
1	15
1	17
1	13
1	12
1	544
1	14
1	544
1	547
1	544
1	544
1	23
1	19
1	12
1	544
1	545
1	17
1	13
1	13
1	12
1	544
1	544
1	544
1	548
1	15
1	19
1	15
1	544
1	13
1	544
1	12
1	544
1	11
1	544
1	11
1	8
1	544
1	544
1	12
1	12
1	13
1	544
1	544
1	12
1	544
1	544
1	5
1	544
1	544
1	19
1	544
1	544
1	544
1	544
1	10
1	23
1	16
1	12
1	9
1	12
1	11
1	544
1	12
1	544
1	544
1	17
1	544
1	544
1	544
1	544
1	545
1	10
1	544
1	13
1	15
1	544
1	18
1	544
1	24
1	546
1	545
1	545
1	544
1	19
1	544
1	11
1	544
1	15
1	17
1	16
1	544
1	12
1	25
1	22
1	20
1	544
1	11
1	6
1	544
1	544
1	6124
1	544
1	20
1	15
1	544
1	16
1	544
1	544
1	12
1	14
1	11
1	544
1	544
1	544
1	544
1	544
1	7
1	544
1	544
1	544
1	11
1	20
1	544
1	13
1	9
1	21
1	9
1	8
1	544
1	9
1	545
1	16
1	544
1	544
1	11
1	544
1	11
1	544
1	13
1	11
1	544
1	8
1	19
1	13
1	20
1	544
1	13
1	13
1	11
1	16
1	13
1	18
1	6
1	6124
1	14
1	544
1	12
1	12
1	18
1	9
1	545
1	544
1	9
1	544
1	20
1	544
1	8
1	8
1	10
1	16
1	544
1	19
1	9
1	544
1	8
1	22
1	10
1	12
1	10
1	544
1	11
1	544
1	544
1	544
1	16
1	544
1	546
1	14
1	11
1	544
1	9
1	12
1	6124
1	544
1	544
1	544
1	10
1	544
1	18
1	10
1	550
1	8
1	10
1	19
1	10
1	5
1	544
1	11
1	12
1	13
1	544
1	8
1	14
1	10
1	13
1	544
1	544
1	18
1	8
1	544
1	11
1	12
1	544
1	16
1	544
1	11
1	10
1	544
1	544
1	544
1	544
1	8
1	544
1	544
1	544
1	544
1	8
1	12
1	9
1	14
1	544
1	544
1	6
1	19
1	12
1	20
1	13
1	545
1	22
1	544
1	544
1	15
1	11
1	12
1	544
1	5
1	12
1	544
1	19
1	22
1	544
1	544
1	544
1	544
1	6
1	14
1	20
1	18
1	18
1	544
1	16
1	16
1	544
1	544
1	544
1	544
1	544
1	10
1	22
1	6124
1	544
1	16
1	545
1	544
1	9
1	544
1	10
1	544
1	11
1	13
1	544
1	12
1	544
1	544
1	18
1	6124
1	7
1	544
1	544
1	9
1	544
1	544
1	544
1	544
1	22
1	10
1	10
1	10
1	5
1	15
1	544
1	544
1	544
1	544
1	544
1	544
1	544
1	6124
1	8
1	544
1	10
1	13
1	2
1	7
1	545
1	544
1	20
1	544
1	544
1	7
1	9
1	544
1	11
1	544
1	545
1	10
1	544
1	7
1	7
1	10
1	6
1	8
1	11
1	22
1	9
1	544
1	12
1	545
1	545
1	544
1	21
1	544
1	19
1	7
1	19
1	9
1	12
1	544
1	16
1	19
1	20
1	12
1	544
1	8
1	544
1	12
1	544
1	544
1	544
1	544
1	11
1	4
1	544
1	544
1	544
1	12
1	11
1	544
1	9
1	9
1	544
1	4
1	10
1	544
1	20
1	544
1	544
1	5
1	544
1	544
1	16
1	544
1	544
1	544
1	5
1	544
1	11
1	11
1	19
1	21
1	12
1	9
1	20
1	544
1	7
1	7
1	20
1	544
1	544
1	16
1	544
1	10
1	7
1	18
1	544
1	544
1	10
1	8
1	544
1	544
1	11
1	544
1	544
1	9
1	8
1	6
1	544
1	7
1	6124
1	13
1	14
1	544
1	11
1	8
1	15
1	18
1	544
1	20
1	544
1	20
1	19
1	544
1	16
1	22
1	544
1	6
1	544
1	11
1	15
1	15
1	544
1	13
1	544
1	6
1	544
1	17
1	8
1	9
1	9
1	544
1	12
1	544
1	544
1	9
1	10
1	544
1	5
1	9
1	19
1	544
1	544
1	15
1	9
1	544
1	11
1	3
1	13
1	10
1	9
1	11
1	9
1	545
1	20
1	6
1	8
1	8
1	11
1	12
1	544
1	544
1	8
1	20
1	13
1	544
1	544
1	544
1	544
1	10
1	10
1	11
1	14
1	20
1	544
1	12
1	19
1	544
1	544
1	12
1	7
1	5
1	9
1	6124
1	9
1	544
1	19
1	5
1	13
1	10
1	544
1	16
1	10
1	544
1	544
1	544
1	544
1	12
1	544
1	544
1	4
1	10
1	544
1	544
1	544
1	6
1	544
1	17
1	544
1	6
1	544
1	6
1	544
1	5
1	16
1	9
1	12
1	544
1	8
1	7
1	544
1	8
1	11
1	16
1	5
1	544
1	9
1	9
1	11
1	544
1	544
1	544
1	7
1	7
1	544
1	544
1	19
1	6
1	7
1	11
1	544
1	12
1	544
1	544
1	13
1	544
1	10
1	544
1	544
1	20
1	16
1	2
1	7
1	545
1	8
1	13
1	544
1	16
1	9
1	11
1	9
1	8
1	544
1	16
1	544
1	9
1	11
1	15
1	9
1	544
1	10
1	544
1	5
1	544
1	544
1	5
1	5
1	544
1	544
1	9
1	6
1	6
1	544
1	544
1	544
1	11
1	544
1	544
1	545
1	544
1	20
1	9
1	8
1	544
1	8
1	11
1	12
1	4
1	544
1	13
1	544
1	8
1	7
1	6
1	544
1	9
1	8
1	19
1	20
1	544
1	10
1	16
1	545
1	544
1	8
1	22
1	544
1	544
1	4
1	544
1	6
1	544
1	544
1	544
1	10
1	13
1	4
1	544
1	544
1	2
1	20
1	544
1	18
1	544
1	544
1	7
1	544
1	22
1	544
1	544
1	12
1	545
1	544
1	9
1	12
1	10
1	12
1	10
1	8
1	544
1	544
1	12
1	544
1	11
1	544
1	16
1	16
1	544
1	10
1	8
1	544
1	12
1	12
1	16
1	544
1	544
1	8
1	544
1	544
1	9
1	545
1	6
1	13
1	9
1	6
1	544
1	6
1	544
1	544
1	7
1	544
1	544
1	544
1	544
1	6
1	16
1	9
1	544
1	544
1	544
1	544
1	17
1	7
1	5
1	20
1	12
1	17
1	6
1	544
1	11
1	544
1	8
1	544
1	4
1	10
1	10
1	5
1	7
1	544
1	544
1	544
1	544
1	11
1	16
1	6
1	544
1	544
1	8
1	6
1	544
1	8
1	18
1	544
1	11
1	17
1	8
1	544
1	7
1	10
1	6
1	12
1	6
1	20
1	544
1	544
1	544
1	544
1	6
1	6
1	544
1	9
1	544
1	544
1	12
1	13
1	544
1	20
1	13
1	544
1	544
1	9
1	20
1	544
1	544
1	544
1	544
1	544
1	544
1	544
1	9
1	16
1	544
1	4
1	18
1	10
1	544
1	544
1	544
1	11
1	6
1	544
1	544
1	7
1	546
1	544
1	10
1	24
1	11
1	15
1	6
1	22
1	544
1	544
1	15
1	6
1	17
1	11
1	544
1	544
1	11
1	544
1	17
1	544
1	544
1	20
1	544
1	16
1	544
1	20
1	15
1	544
1	13
1	544
1	544
1	544
1	544
1	18
1	10
1	12
1	5
1	7
1	544
1	545
1	544
1	9
1	17
1	6
1	17
1	544
1	8
1	544
1	544
1	544
1	544
1	9
1	15
1	20
1	544
1	544
1	19
1	545
1	17
1	10
1	544
1	544
1	11
1	19
1	20
1	19
1	8
1	11
1	544
1	11
1	11
1	6
1	12
1	544
1	4
1	544
1	18
1	20
1	544
1	3
1	12
1	10
1	544
1	5
1	8
1	12
1	544
1	19
1	4
1	7
1	4
1	10
1	544
1	20
1	4
1	544
1	8
1	544
1	20
1	10
1	19
1	6
1	544
1	12
1	544
1	544
1	18
1	544
1	8
1	9
1	5
1	544
1	7
1	544
1	8
1	544
1	544
1	544
1	544
1	544
1	7
1	544
1	16
1	544
1	11
1	8
1	13
1	4
1	10
1	9
1	16
1	544
1	544
1	8
1	18
1	544
1	544
1	5
1	545
1	544
1	13
1	544
1	544
1	17
1	7
1	544
1	544
1	9
1	7
1	7
1	544
1	11
1	5
1	12
1	10
1	544
1	12
1	5
1	544
1	11
1	12
1	20
1	544
1	7
1	5
1	17
1	22
1	544
1	10
1	544
1	18
1	544
1	2
1	545
1	16
1	7
1	5
1	544
1	13
1	10
1	7
1	11
1	544
1	544
2	8
2	7
2	6
2	10
2	14
2	3
2	6
2	17
2	3
2	13
2	6
2	5
2	3
2	4
2	11
2	9
2	3
2	6
2	6
2	7
2	7
2	3
2	3
2	6
2	18
2	3
2	3
2	8
2	7
2	6
2	12
2	3
2	12
2	3
2	18
2	8
2	3
2	11
2	6
2	3
2	13
2	13
2	4
2	545
2	6
2	9
2	4
2	3
2	3
2	7
2	5
2	6
2	3
2	9
2	8
2	7
2	8
2	4
2	9
2	3
2	13
2	3
2	4
2	9
2	9
2	3
2	8
2	4
2	10
2	12
2	545
2	21
2	6
2	3
2	3
2	11
2	3
2	5
2	6
2	13
2	6
2	5
2	3
2	7
2	11
2	13
2	3
2	4
2	12
2	5
2	4
2	3
2	3
2	8
2	6
2	5
2	12
2	7
2	8
2	3
2	4
2	7
2	6
2	11
2	3
2	3
2	4
2	4
2	3
2	545
2	4
2	14
2	3
2	6
2	7
2	6
2	6
2	4
2	8
2	3
2	3
2	4
2	4
2	4
2	9
2	4
2	12
2	4
2	545
2	7
2	5
2	4
2	7
2	7
2	3
2	6
2	6
2	3
2	8
2	9
2	3
2	3
2	3
2	3
2	3
2	9
2	5
2	4
2	4
2	8
2	4
2	3
2	3
2	7
2	6
2	6
2	6
2	7
2	3
2	5
2	3
2	3
2	8
2	3
2	4
2	10
2	3
2	4
2	7
2	6
2	4
2	4
2	3
2	3
2	6
2	3
2	4
2	6
2	3
2	3
2	5
2	3
2	3
2	9
2	5
2	12
3	6
3	4
3	5
3	5
3	5
3	4
3	4
3	12
3	8
3	5
3	4
3	5
3	4
3	4
3	4
3	4
3	4
3	4
3	6
3	5
3	4
3	10
3	5
3	4
3	6
3	4
3	4
3	4
3	4
3	4
3	6
3	4
3	4
3	4
3	12
3	4
3	4
3	5
3	5
3	4
3	4
3	7
3	4
3	4
3	14
3	4
3	4
3	5
3	5
3	9
3	6
3	8
3	4
3	5
3	4
3	11
3	5
3	4
3	4
3	8
3	4
3	8
3	4
3	4
3	5
3	4
3	4
3	4
3	7
3	5
3	5
3	5
3	8
3	4
3	4
3	4
3	5
3	4
3	6
3	5
4	5
4	9
4	6
4	5
4	5
4	5
4	5
4	5
4	5
4	5
4	6
4	5
4	6
4	5
4	6
4	13
4	5
4	5
4	6
4	5
4	5
4	5
4	10
4	5
4	5
4	5
4	5
4	5
4	5
4	10
4	7
4	6
4	5
4	13
4	5
4	8
4	5
4	5
4	5
4	6
4	6
4	5
4	5
4	5
5	6
5	9
5	6
5	7
5	6
5	6
5	6
5	6
5	6
5	6
5	6
5	7
5	6
5	6
5	6
5	6
5	6
5	6
5	6
5	7
5	6
5	6
5	6
5	6
5	7
5	6
5	6
5	6
5	6
5	6
5	7
5	6
5	6
5	6
5	6
6	7
6	7
6	7
6	7
6	7
6	7
6	7
6	7
6	10
6	7
6	11
6	9
6	7
6	8
6	8
6	7
6	7
7	8
7	8
7	8
7	8
7	8
7	8
7	8
7	8
7	8
7	8
7	9
7	8
7	8
7	8
7	8
7	8
8	9
8	9
8	9
8	9
8	9
8	11
8	9
8	9
8	9
9	10
9	10
9	10
9	10
9	10
9	10
9	10
9	10
9	10
9	10
9	10
10	11
10	11
10	11
10	11
10	11
10	11
10	11
10	11
10	11
11	18
11	12
11	12
11	12
11	12
11	12
11	12
11	12
11	12
11	12
12	13
12	13
14	15
14	15
15	16
15	16
15	16
16	17
16	17
17	18
17	18
18	19
18	19
19	20
19	20
19	20
21	22
543	544
