1	6124
1	29
1	25
1	306
1	308
1	17
1	305
1	305
1	17
1	13
1	12
1	6124
1	13
1	305
1	305
1	305
1	305
1	30
1	24
1	12
1	22
1	13
1	83
1	306
1	305
1	9
1	16
1	82
1	305
1	12
1	14
1	17
1	14
1	305
1	305
1	5
1	305
1	305
1	13
1	308
1	13
1	11
1	23
1	305
1	7
1	16
1	19
1	305
1	17
1	12
1	27
1	19
1	305
1	9
1	12
1	308
1	11
1	305
1	18
1	305
1	82
1	12
1	305
1	26
1	6124
1	17
1	16
1	10
1	306
1	83
1	306
1	18
1	17
1	305
1	9
1	305
1	14
1	305
1	22
1	305
1	19
1	6124
1	16
1	305
1	82
1	10
1	82
1	5
1	9
1	19
1	17
1	19
1	305
1	82
1	306
1	18
1	305
1	15
1	305
1	12
1	14
1	307
1	88
1	307
1	21
1	307
1	13
1	20
1	13
1	7
1	84
1	18
1	20
1	305
1	83
1	16
1	26
1	14
1	305
1	6124
1	14
1	305
1	15
1	10
1	82
1	305
1	12
1	306
1	12
1	10
1	9
1	12
1	10
1	82
1	305
1	27
1	305
1	18
1	305
1	305
1	14
1	7
1	10
1	20
1	11
1	82
1	8
1	26
1	82
1	18
1	8
1	5
1	23
1	83
1	26
1	23
1	5
1	17
1	305
1	15
1	305
1	7
1	14
1	9
1	6124
1	12
1	305
1	23
1	18
1	7
1	305
1	22
1	12
1	305
1	11
1	305
1	8
1	305
1	305
1	305
1	6
1	10
1	8
1	12
1	13
1	305
1	18
1	12
1	6
1	305
1	22
1	16
1	26
1	305
1	82
1	9
1	14
1	12
1	14
1	8
1	9
1	12
1	14
1	305
1	305
1	305
1	17
1	305
1	9
1	4
1	82
1	11
1	5
1	82
1	305
1	305
1	305
1	306
1	20
1	305
1	14
1	26
1	9
1	18
1	15
1	18
1	4
1	305
1	4
1	306
1	306
1	9
1	13
1	305
1	9
1	8
1	14
1	4
1	18
1	13
1	82
1	9
1	21
1	18
1	82
1	15
1	24
1	8
1	12
1	308
1	305
1	10
1	82
1	85
1	305
1	12
1	12
1	7
1	7
1	12
1	26
1	85
1	6
1	306
1	11
1	14
1	305
1	11
1	305
1	17
1	12
1	13
1	305
1	11
1	305
1	26
1	5
1	11
1	7
1	18
1	14
1	7
1	12
1	11
1	8
1	11
1	305
1	305
1	7
1	82
1	7
1	12
1	305
1	9
1	305
1	8
1	305
1	305
1	12
1	305
1	305
1	8
1	16
1	5
1	305
1	7
1	18
1	305
1	305
1	306
1	13
1	14
1	82
1	9
1	20
1	15
1	307
1	18
1	7
1	18
1	305
1	16
1	26
1	5
1	11
1	305
1	12
1	8
1	18
1	305
1	305
1	9
1	12
1	6
1	305
1	305
1	7
1	23
1	305
1	305
1	82
1	20
1	12
1	20
1	305
1	5
1	311
1	8
1	7
1	15
1	14
1	18
1	16
1	21
1	12
1	7
1	305
1	13
1	9
1	305
1	305
1	306
1	305
1	5
1	305
1	10
1	15
1	9
1	7
1	20
1	305
1	13
1	305
1	305
1	9
1	5
1	305
1	12
1	7
1	82
1	305
1	26
1	18
1	305
1	82
1	8
1	305
1	82
1	83
1	5
1	14
1	17
1	305
1	305
1	11
1	9
1	13
1	305
1	5
1	11
1	4
1	18
1	19
1	7
1	306
1	9
1	82
1	20
1	26
1	306
1	19
1	12
1	305
1	9
1	305
1	7
1	5
1	13
1	7
1	17
1	305
1	21
1	11
1	5
1	23
1	19
1	20
1	17
1	20
1	5
1	306
1	5
1	17
1	13
1	305
1	82
1	82
1	11
1	305
1	305
1	6
1	4
1	9
1	20
1	5
1	305
1	12
1	23
1	6
1	8
1	305
1	305
1	10
1	11
1	306
1	27
1	305
1	305
1	26
1	9
1	305
1	305
1	305
1	13
1	8
1	305
1	7
1	305
1	23
1	12
1	305
1	305
1	17
1	82
1	7
1	305
1	305
1	7
1	12
1	305
1	305
1	18
1	305
1	7
1	305
1	7
1	82
1	21
1	8
1	305
1	9
1	18
1	9
1	10
1	10
1	305
1	305
1	16
1	305
1	9
1	305
1	5
1	18
1	5
1	15
1	11
1	305
1	82
1	26
1	305
1	305
1	305
1	7
1	305
1	82
1	9
1	2
1	21
1	12
1	14
1	21
1	305
1	6
1	5
1	8
1	8
1	12
1	8
1	305
1	9
1	305
1	8
1	82
1	11
1	14
1	12
1	8
1	13
1	5
1	305
1	305
1	10
1	305
1	18
1	305
1	306
1	4
1	305
1	14
1	12
1	17
1	18
1	7
1	82
1	9
1	6
1	7
1	13
1	305
1	23
1	305
1	7
1	7
1	306
1	305
1	7
1	305
1	82
1	82
1	11
1	82
1	305
1	5
1	14
1	13
1	6
1	17
1	305
1	14
1	6
1	21
1	15
1	9
1	305
1	305
1	305
1	15
1	11
1	9
1	16
1	10
1	305
1	10
1	23
1	11
1	19
1	305
1	11
1	305
1	305
1	13
1	7
1	82
1	6
1	7
1	305
1	11
1	306
1	305
1	83
1	2
1	9
1	306
1	7
1	13
1	5
1	305
1	10
1	305
1	15
1	13
1	5
1	9
1	82
1	8
1	16
1	23
1	6
1	13
1	305
1	6
1	305
1	12
1	8
1	18
1	6
1	305
1	305
1	17
1	21
1	9
1	305
1	305
1	18
1	305
1	7
1	82
1	18
1	305
1	11
1	305
1	11
1	16
1	8
1	18
1	305
1	305
1	8
1	305
1	17
1	82
1	11
1	305
1	15
1	27
1	305
1	8
1	11
1	10
1	18
1	306
1	82
1	14
1	305
1	26
1	23
1	23
1	10
1	10
1	305
1	305
1	305
1	83
1	12
1	9
1	7
1	13
1	9
1	11
1	4
1	83
1	20
1	305
1	4
1	18
1	82
1	18
1	305
1	11
1	12
1	4
1	305
1	5
1	20
1	82
1	305
1	9
1	306
1	305
1	305
1	82
1	6
1	12
1	305
1	305
1	82
1	13
1	4
1	12
1	4
1	305
1	5
1	4
1	82
1	305
1	15
1	10
1	9
1	13
1	306
1	13
1	13
1	82
1	18
1	11
1	11
1	305
1	305
1	17
1	9
1	4
1	305
1	7
1	305
1	13
1	9
1	10
1	4
1	9
1	305
1	26
1	14
1	82
1	18
1	5
1	305
1	9
1	305
1	305
1	23
1	305
1	7
1	16
1	82
1	305
1	2
1	7
1	13
1	10
1	305
1	13
1	10
1	10
1	7
1	18
1	3
1	11
1	6
1	11
1	306
1	305
1	305
1	18
1	18
1	305
1	305
1	82
1	18
1	9
1	10
1	7
1	305
1	7
1	305
1	6
1	18
1	14
1	7
1	305
1	18
1	11
1	9
1	17
1	4
1	9
1	21
1	305
1	11
1	11
1	7
1	8
1	82
1	12
1	11
1	305
1	305
1	9
1	305
1	305
1	305
1	13
1	7
1	305
1	305
1	15
1	306
1	305
1	9
1	8
1	305
1	11
1	82
1	6
2	306
2	12
2	4
2	11
2	12
2	3
2	3
2	10
2	3
2	8
2	6
2	12
2	6
2	7
2	6
2	3
2	4
2	8
2	3
2	12
2	15
2	15
2	3
2	8
2	7
2	4
2	3
2	8
2	7
2	3
2	10
2	3
2	3
2	4
2	3
2	3
2	3
2	3
2	6
2	3
2	3
2	3
2	4
2	15
2	3
2	8
2	3
2	8
2	3
2	3
2	11
2	14
2	15
2	9
2	6
2	10
2	8
2	6
2	6
2	10
2	5
2	8
2	3
2	3
2	17
2	3
2	3
2	4
2	7
2	3
2	3
2	24
2	5
2	3
2	3
2	3
2	15
2	10
2	3
2	7
2	6
2	3
2	4
2	8
2	4
2	3
2	7
2	7
2	3
2	9
2	4
2	3
2	3
2	16
2	3
2	6
2	11
2	3
2	8
2	8
2	6
2	3
2	3
2	3
2	3
2	3
2	3
2	14
2	3
2	3
2	3
2	4
2	19
2	3
2	3
2	5
2	4
2	11
2	4
2	4
2	7
2	8
2	4
2	6
2	7
2	3
2	7
2	5
2	3
2	10
2	3
2	9
2	4
2	17
2	5
2	3
2	10
2	3
2	3
2	8
2	3
2	3
2	5
2	3
2	6
2	4
2	5
2	3
2	3
2	6
2	7
2	4
2	7
2	6
2	15
2	8
2	7
2	6
2	4
2	6
2	3
2	3
2	3
2	8
2	3
2	3
2	6
2	24
2	3
2	3
2	4
2	5
2	3
2	11
2	4
2	4
2	8
2	5
2	3
2	3
2	7
2	7
2	6
2	6
2	12
2	3
2	3
2	3
2	4
2	3
2	4
2	9
2	9
2	5
3	4
3	7
3	13
3	4
3	5
3	4
3	5
3	6
3	4
3	4
3	5
3	4
3	4
3	4
3	4
3	4
3	4
3	4
3	5
3	4
3	4
3	4
3	4
3	4
3	4
3	4
3	4
3	5
3	7
3	5
3	4
3	6
3	5
3	5
3	4
3	4
3	5
3	4
3	4
3	7
3	4
3	4
3	4
3	6
3	8
3	5
3	4
3	7
3	4
3	4
3	4
4	6
4	5
4	5
4	5
4	6
4	5
4	5
4	5
4	5
4	5
4	5
4	5
4	5
4	6
4	5
4	5
4	5
4	6
4	5
4	5
4	5
4	7
4	5
4	5
4	5
4	5
4	5
4	5
4	6
4	5
4	5
4	6
4	5
4	5
4	5
4	5
4	5
4	5
5	6
5	6
5	6
5	6
5	6
5	6
5	6
5	6
5	6
5	6
5	6
5	6
5	6
5	6
5	6
5	6
5	6
5	6
6	7
6	7
6	7
6	8
6	7
6	7
6	7
6	7
6	7
6	7
6	7
6	7
6	7
6	7
6	7
6	7
6	7
6	7
6	7
6	7
7	8
7	9
7	8
7	8
7	9
7	8
7	8
8	9
8	9
8	9
8	9
8	9
8	9
8	9
8	9
8	9
9	10
9	10
9	10
9	10
10	11
10	11
10	11
10	11
10	11
10	11
10	11
10	11
11	12
11	12
11	12
12	13
12	13
12	13
12	13
13	14
13	14
13	14
14	15
14	15
15	16
16	17
16	17
17	18
17	18
17	18
19	20
20	21
22	23
25	26
81	82
304	305
