7	6124
8	6124
9	6124
10	6124
10	6124
11	6124
11	6124
11	6124
11	6124
11	6124
12	6124
12	6124
12	6124
13	6124
13	6124
13	6124
14	6124
14	6124
14	6124
15	6124
15	6124
15	6124
15	6124
16	6124
16	6124
16	6124
16	6124
16	6124
16	6124
16	6124
17	6124
17	6124
17	6124
17	6124
18	6124
18	6124
18	6124
18	6124
18	6124
19	6124
19	6124
19	6124
19	6124
19	6124
20	6124
21	6124
21	6124
21	6124
22	6124
23	6124
23	6124
23	6124
23	6124
23	6124
23	6124
24	6124
24	6124
24	6124
26	6124
28	6124
28	6124
29	6124
29	6124
31	6124
32	6124
33	6124
34	6124
34	6124
34	6124
36	6124
36	6124
36	6124
38	6124
39	6124
43	6124
45	6124
47	6124
47	6124
47	6124
48	6124
48	6124
48	6124
48	6124
49	6124
49	6124
50	6124
51	6124
51	6124
51	6124
54	6124
56	6124
56	6124
56	6124
57	6124
57	6124
57	6124
57	6124
57	6124
57	6124
58	6124
58	6124
59	6124
60	6124
61	6124
62	6124
62	6124
62	6124
63	6124
63	6124
64	6124
64	6124
64	6124
64	6124
64	6124
64	6124
65	6124
65	6124
65	6124
65	6124
65	6124
65	6124
66	6124
66	6124
66	6124
67	6124
67	6124
67	6124
68	6124
68	6124
68	6124
68	6124
69	6124
71	6124
71	6124
72	6124
72	6124
72	6124
72	6124
74	6124
75	6124
87	6124
87	6124
93	6124
114	6124
1193	6124
1193	6124
1193	6124
1193	6124
1193	6124
1193	6124
1193	6124
1193	6124
1193	6124
1193	6124
1193	6124
1193	6124
1193	6124
1193	6124
1193	6124
1193	6124
1193	6124
1193	6124
1193	6124
1193	6124
1193	6124
1193	6124
1193	6124
1193	6124
1193	6124
1193	6124
1193	6124
1193	6124
1193	6124
1193	6124
1193	6124
1193	6124
1193	6124
1193	6124
1193	6124
1193	6124
1193	6124
1193	6124
1193	6124
1193	6124
1193	6124
1193	6124
1193	6124
1193	6124
1194	6124
1194	6124
1194	6124
1194	6124
1194	6124
1194	6124
1194	6124
1195	6124
1195	6124
1195	6124
1195	6124
1195	6124
1195	6124
1195	6124
1195	6124
1196	6124
1196	6124
1196	6124
1197	6124
1197	6124
1197	6124
1197	6124
1198	6124
1198	6124
1198	6124
1199	6124
1200	6124
1200	6124
1202	6124
1202	6124
1202	6124
1202	6124
1204	6124
1206	6124
1209	6124
1210	6124
1210	6124
1212	6124
1244	6124
1252	6124
