1	6124
1	674
1	673
1	673
1	33
1	673
1	673
1	673
1	673
1	673
1	673
1	29
1	24
1	20
1	673
1	673
1	673
1	673
1	17
1	21
1	673
1	673
1	673
1	16
1	16
1	674
1	673
1	15
1	17
1	16
1	673
1	673
1	673
1	16
1	673
1	19
1	673
1	23
1	17
1	674
1	18
1	673
1	673
1	9
1	673
1	26
1	673
1	674
1	673
1	19
1	673
1	13
1	21
1	673
1	15
1	673
1	7
1	673
1	673
1	18
1	15
1	673
1	673
1	20
1	673
1	673
1	673
1	673
1	13
1	30
1	12
1	8
1	24
1	7
1	673
1	9
1	673
1	673
1	18
1	25
1	673
1	21
1	21
1	673
1	28
1	16
1	673
1	674
1	673
1	16
1	7
1	27
1	12
1	673
1	673
1	674
1	17
1	12
1	24
1	673
1	673
1	23
1	673
1	18
1	673
1	9
1	673
1	11
1	10
1	673
1	15
1	673
1	673
1	673
1	673
1	19
1	673
1	21
1	46
1	8
1	673
1	673
1	674
1	31
1	22
1	673
1	12
1	673
1	673
1	675
1	6124
1	673
1	19
1	21
1	673
1	673
1	28
1	20
1	673
1	673
1	673
1	673
1	673
1	677
1	15
1	673
1	13
1	19
1	24
1	20
1	15
1	12
1	673
1	12
1	673
1	24
1	22
1	28
1	20
1	28
1	21
1	22
1	11
1	9
1	673
1	673
1	673
1	673
1	28
1	28
1	18
1	11
1	673
1	3
1	673
1	18
1	673
1	5
1	673
1	673
1	673
1	673
1	673
1	673
1	673
1	674
1	18
1	17
1	673
1	675
1	20
1	14
1	673
1	15
1	673
1	673
1	11
1	32
1	21
1	673
1	18
1	24
1	7
1	673
1	673
1	10
1	673
1	21
1	673
1	11
1	18
1	673
1	673
1	673
1	9
1	673
1	28
1	19
1	673
1	673
1	673
1	673
1	673
1	21
1	10
1	673
1	673
1	7
1	10
1	673
1	673
1	17
1	19
1	673
1	673
1	673
1	673
1	10
1	18
1	7
1	673
1	28
1	673
1	673
1	4
1	17
1	673
1	673
1	26
1	674
1	15
1	7
1	10
1	673
1	14
1	5
1	673
1	673
1	16
1	18
1	12
1	19
1	16
1	673
1	673
1	673
1	673
1	16
1	10
1	15
1	21
1	673
1	673
1	17
1	10
1	673
1	16
1	673
1	673
1	15
1	6124
1	11
1	2
1	673
1	20
1	673
1	19
1	673
1	21
1	673
1	21
1	31
1	673
1	11
1	673
1	6
1	673
1	673
1	14
1	13
1	21
1	10
1	673
1	13
1	20
1	17
1	673
1	4
1	673
1	673
1	673
1	11
1	18
1	673
1	673
1	9
1	673
1	673
1	673
1	673
1	11
1	673
1	14
1	9
1	673
1	24
1	673
1	11
1	10
1	20
1	673
1	673
1	5
1	673
1	673
1	7
1	15
1	673
1	18
1	673
1	24
1	673
1	21
1	8
1	18
1	673
1	11
1	673
1	673
1	11
1	4
1	673
1	673
1	8
1	8
1	21
1	673
1	14
1	673
1	673
1	673
1	19
1	673
1	673
1	673
1	9
1	673
1	33
1	24
1	6
1	674
1	19
1	4
1	13
1	673
1	15
1	673
1	673
1	22
1	673
1	673
1	673
1	7
1	6
1	6
1	673
1	9
1	673
1	17
1	13
1	673
1	673
1	17
1	673
1	673
1	18
1	673
1	673
1	673
1	19
1	673
1	12
1	12
1	673
1	673
1	7
1	6
1	17
1	11
1	673
1	13
1	673
1	673
1	673
1	12
1	18
1	28
1	11
1	673
1	674
1	22
1	673
1	673
1	673
1	9
1	8
1	7
1	12
1	673
1	673
1	673
1	673
1	9
1	673
1	673
1	673
1	673
1	673
1	17
1	673
1	14
1	674
1	8
1	673
1	673
1	12
1	673
1	31
1	673
1	673
1	8
1	9
1	9
1	673
1	673
1	26
1	19
1	20
1	673
1	673
1	16
1	673
1	673
1	6
1	15
1	4
1	673
1	673
1	20
1	9
1	23
1	673
1	673
1	673
1	673
1	13
1	15
1	7
1	22
1	673
1	13
1	673
1	673
1	19
1	673
1	673
1	9
1	9
1	18
1	673
1	6
1	673
1	673
1	21
1	17
1	673
1	9
1	6
1	673
1	16
1	10
1	673
1	673
1	16
1	673
1	13
1	12
1	22
1	673
1	10
1	11
1	10
1	22
1	20
1	24
1	673
1	17
1	28
1	11
1	673
1	673
1	14
1	13
1	673
1	9
1	673
1	11
1	16
1	673
1	6
1	674
1	673
1	673
1	673
1	14
1	673
1	673
1	673
1	13
1	13
1	674
1	673
1	24
1	18
1	12
1	673
1	7
1	18
1	22
1	22
1	673
1	673
1	28
1	14
1	674
1	673
1	673
1	30
1	21
1	673
1	673
1	673
1	673
1	673
1	7
1	4
1	18
1	10
1	13
1	20
1	673
1	7
1	673
1	12
1	673
1	673
1	8
1	12
1	673
1	673
1	12
1	12
1	673
1	16
1	17
1	5
1	673
1	6
1	14
1	22
1	8
1	673
1	673
1	21
1	6124
1	673
1	673
1	673
1	673
1	673
1	673
1	673
1	29
1	673
1	19
1	673
1	674
1	17
1	673
1	13
1	6
1	16
1	5
1	673
1	673
1	673
1	674
1	7
1	21
1	7
1	673
1	673
1	6
1	673
1	16
1	10
1	10
1	673
1	19
1	13
1	5
1	18
1	18
1	12
1	6
1	19
1	673
1	6
1	16
1	673
1	4
1	13
1	673
1	673
1	28
1	674
1	673
1	8
1	11
1	5
1	673
1	673
1	30
1	8
1	28
1	5
1	24
1	673
1	12
1	5
1	10
1	6
1	24
1	21
1	7
1	673
1	12
1	673
1	12
1	673
1	8
1	5
1	19
1	673
1	673
1	6
1	5
1	673
1	673
1	673
1	673
1	13
1	673
1	673
1	17
1	673
1	673
1	673
1	12
1	673
1	7
1	18
1	673
1	673
1	30
1	23
1	21
1	20
1	7
1	673
1	673
1	673
1	673
1	673
1	673
1	10
1	673
1	673
1	673
1	6
1	7
1	674
1	11
1	673
1	12
1	28
1	7
1	7
1	7
1	673
1	18
1	673
1	673
1	10
1	673
1	673
1	18
1	20
1	673
1	7
1	22
1	17
1	673
1	19
1	673
1	17
1	673
1	673
1	673
1	7
1	673
1	20
1	25
1	673
1	673
1	21
1	12
1	673
1	10
1	673
1	28
1	20
1	673
1	673
1	673
1	10
1	13
1	673
1	673
1	13
1	20
1	673
1	673
1	6
1	19
1	673
1	673
1	673
1	673
1	673
1	674
1	673
1	28
1	673
1	17
1	12
1	11
1	673
1	10
1	25
1	673
1	7
1	673
1	673
1	4
1	673
1	673
1	673
1	10
1	4
1	673
1	5
1	18
1	9
1	673
1	674
1	674
1	9
1	673
1	30
1	22
1	7
1	8
1	18
1	12
1	24
1	673
1	673
1	16
1	673
1	8
1	6
1	22
1	673
1	673
1	673
1	16
1	23
1	673
1	9
1	11
1	4
1	17
1	9
1	7
1	6
1	673
1	10
1	6
1	673
1	11
1	673
1	673
1	11
1	10
1	8
1	4
1	673
1	673
1	673
1	673
1	6
1	673
1	17
1	6
1	16
1	673
1	673
1	6
1	673
1	673
1	16
1	19
1	9
1	673
1	10
1	10
1	11
1	673
1	673
1	673
1	9
1	18
1	673
1	6
1	673
1	673
1	673
1	673
1	11
1	673
1	12
1	21
1	673
1	673
1	673
1	17
1	673
1	673
1	673
1	673
1	17
1	674
1	674
1	20
1	673
1	673
1	17
1	673
1	673
1	16
1	12
1	7
1	673
1	673
1	673
1	6
1	673
1	6
1	20
1	10
1	7
1	673
1	673
1	673
1	19
1	21
1	673
1	673
1	28
1	14
1	10
1	5
1	673
1	673
1	16
1	12
1	10
1	673
1	673
1	673
1	6
1	24
1	5
1	673
1	673
1	673
1	6
1	5
1	673
1	10
1	12
1	673
1	673
1	14
1	674
1	30
1	673
1	674
1	673
1	673
1	673
1	673
1	8
1	674
1	673
1	19
1	673
1	673
1	673
1	4
1	674
1	16
1	673
1	673
1	5
1	673
1	673
1	673
1	673
1	673
1	7
1	18
1	673
1	7
1	673
1	18
1	5
1	10
1	673
1	16
1	30
1	9
1	673
1	19
1	5
1	10
1	31
1	10
1	673
1	8
1	673
1	673
1	7
1	673
1	673
1	673
1	673
1	18
1	6
1	673
1	673
1	673
1	673
1	674
1	22
1	673
1	673
1	673
1	16
1	7
1	22
1	673
1	673
1	673
1	673
1	12
1	16
1	673
1	673
1	674
1	673
1	674
1	673
1	16
1	673
1	673
1	18
1	673
1	673
1	673
1	673
1	14
1	673
1	673
1	5
1	13
1	30
1	674
1	673
1	6
1	673
1	673
1	673
1	673
1	30
1	17
1	673
1	673
1	673
1	673
1	6
1	17
1	9
1	673
1	8
1	673
1	21
1	673
1	673
1	673
1	674
1	20
1	5
1	673
1	673
1	9
1	4
1	673
1	31
1	4
1	673
1	16
1	14
1	673
1	673
1	18
1	673
1	673
1	673
1	10
1	5
1	30
1	673
1	18
1	673
1	673
1	6
1	5
1	21
1	11
1	673
1	12
1	13
1	10
1	673
1	4
1	7
1	673
1	673
1	673
1	674
1	12
1	673
1	673
1	673
1	673
1	673
1	673
1	7
1	673
1	9
1	19
1	9
1	5
1	2
1	6
1	6
1	673
1	673
1	673
1	19
1	673
1	673
1	6
1	16
1	673
1	673
1	30
1	9
1	24
1	10
1	673
1	673
1	9
1	673
1	673
1	673
1	10
1	20
1	10
1	21
1	673
1	673
1	673
1	673
1	21
1	7
1	673
1	9
1	673
1	10
1	673
1	673
1	21
1	673
1	673
1	16
1	673
1	673
1	18
1	17
1	5
1	10
1	7
1	673
1	673
1	673
1	19
1	673
1	22
1	673
1	6
1	673
1	673
1	10
1	7
1	7
1	673
1	673
1	673
1	9
1	673
1	673
1	673
1	5
1	11
1	673
2	3
2	15
2	6
2	3
2	3
2	3
2	3
2	6
2	3
2	3
2	3
2	3
2	3
2	3
2	7
2	7
2	3
2	3
2	6
2	5
2	6
2	3
2	11
2	674
2	3
2	5
2	4
2	7
2	6
2	4
2	3
2	5
2	4
2	3
2	8
2	3
2	8
2	14
2	6
2	3
2	3
2	7
2	7
2	8
2	4
2	21
2	22
2	5
2	14
2	7
2	3
2	5
2	7
2	3
2	4
2	3
2	9
2	10
2	3
2	3
2	7
2	4
2	3
2	3
2	4
2	8
2	17
2	3
2	3
2	3
2	8
2	3
2	3
2	10
2	9
2	3
2	3
2	3
2	22
2	3
2	17
2	5
2	9
2	4
2	3
2	6
2	6
2	3
2	3
2	4
2	3
2	674
2	3
2	8
2	4
2	3
2	4
2	4
2	4
2	12
2	3
2	674
2	3
2	3
2	6
2	3
2	6
2	674
2	4
2	4
2	3
2	5
2	4
2	3
2	4
2	4
2	9
2	3
2	4
2	5
2	4
2	3
2	3
2	4
2	25
2	3
2	3
2	20
2	4
2	3
2	9
2	3
2	6
2	3
2	3
2	4
2	5
2	674
2	3
2	3
2	3
2	4
2	9
2	7
2	7
2	6
2	3
2	3
2	3
2	5
2	4
2	3
2	19
2	3
2	6
2	12
2	14
2	4
2	4
2	4
2	3
2	3
2	3
2	3
2	3
2	3
2	3
2	3
2	3
2	3
2	3
2	5
2	4
2	5
2	5
2	3
2	4
2	4
2	4
2	4
2	4
2	3
2	5
2	7
2	8
2	4
2	4
2	3
2	8
2	3
2	3
2	4
2	3
2	3
2	3
2	3
2	3
2	4
2	6
2	8
2	7
2	3
2	6
2	3
2	3
2	4
2	4
2	4
2	12
2	3
2	4
2	3
2	3
2	3
2	3
2	6
2	6
2	4
2	7
2	3
2	4
3	4
3	4
3	4
3	4
3	5
3	5
3	4
3	4
3	4
3	4
3	4
3	4
3	4
3	4
3	5
3	4
3	4
3	11
3	4
3	5
3	4
3	4
3	4
3	5
3	8
3	4
3	4
3	4
3	4
3	8
3	5
3	4
3	9
3	4
3	4
3	4
3	9
3	6
3	4
3	4
3	4
3	4
3	5
3	4
3	4
3	4
3	4
3	4
3	4
3	4
3	4
3	5
3	6
3	4
3	4
3	4
3	4
4	7
4	5
4	5
4	5
4	5
4	5
4	5
4	6
4	5
4	5
4	5
4	5
4	5
4	5
4	5
4	5
4	6
4	6
4	5
4	5
4	5
4	5
4	5
4	7
4	5
4	7
4	7
4	5
4	5
4	5
4	5
4	6
4	5
4	5
4	5
5	6
5	6
5	6
5	6
5	6
5	6
5	6
5	6
5	6
5	6
5	6
5	6
5	6
5	6
5	6
5	6
5	6
5	6
5	6
5	6
5	6
6	7
6	7
6	7
6	7
6	7
6	8
6	7
6	7
6	8
6	7
6	7
6	7
6	7
6	7
6	7
6	7
7	8
7	8
7	9
7	8
8	9
8	9
8	9
8	9
8	9
8	9
8	9
8	9
8	9
9	10
9	10
9	10
9	10
9	10
9	10
9	10
10	11
10	11
11	12
11	12
11	12
11	12
12	13
12	13
12	13
13	14
15	16
15	16
15	16
16	17
16	17
17	18
17	18
17	18
18	19
18	19
19	20
19	20
20	21
20	21
21	22
23	24
27	28
29	30
672	673
