11	6124
12	6124
13	6124
13	6124
14	6124
14	6124
15	6124
15	6124
15	6124
15	6124
16	6124
16	6124
16	6124
17	6124
17	6124
17	6124
17	6124
18	6124
18	6124
18	6124
18	6124
18	6124
18	6124
19	6124
19	6124
19	6124
19	6124
19	6124
19	6124
21	6124
22	6124
23	6124
23	6124
23	6124
24	6124
24	6124
24	6124
25	6124
25	6124
25	6124
26	6124
26	6124
26	6124
26	6124
26	6124
26	6124
26	6124
26	6124
27	6124
27	6124
27	6124
27	6124
27	6124
28	6124
28	6124
29	6124
29	6124
29	6124
29	6124
30	6124
30	6124
30	6124
32	6124
32	6124
32	6124
32	6124
33	6124
33	6124
34	6124
34	6124
44	6124
44	6124
44	6124
44	6124
44	6124
44	6124
45	6124
46	6124
47	6124
47	6124
48	6124
48	6124
51	6124
51	6124
51	6124
51	6124
52	6124
54	6124
61	6124
63	6124
65	6124
347	6124
347	6124
347	6124
347	6124
347	6124
347	6124
347	6124
347	6124
347	6124
347	6124
347	6124
347	6124
347	6124
347	6124
347	6124
347	6124
347	6124
347	6124
347	6124
347	6124
347	6124
347	6124
347	6124
347	6124
347	6124
347	6124
347	6124
347	6124
347	6124
347	6124
347	6124
347	6124
347	6124
347	6124
347	6124
347	6124
347	6124
347	6124
347	6124
347	6124
347	6124
347	6124
347	6124
347	6124
347	6124
347	6124
347	6124
347	6124
347	6124
347	6124
347	6124
348	6124
348	6124
348	6124
348	6124
348	6124
348	6124
348	6124
348	6124
348	6124
348	6124
348	6124
348	6124
348	6124
348	6124
348	6124
348	6124
348	6124
348	6124
349	6124
349	6124
349	6124
349	6124
349	6124
349	6124
349	6124
349	6124
349	6124
349	6124
350	6124
350	6124
350	6124
350	6124
350	6124
350	6124
351	6124
351	6124
351	6124
351	6124
351	6124
352	6124
352	6124
354	6124
354	6124
354	6124
354	6124
354	6124
355	6124
355	6124
356	6124
359	6124
360	6124
365	6124
366	6124
368	6124
