1	6124
1	21
1	11
1	17
1	25
1	20
1	18
1	13
1	111
1	110
1	13
1	18
1	111
1	16
1	15
1	110
1	17
1	13
1	13
1	28
1	15
1	16
1	9
1	12
1	11
1	11
1	7
1	23
1	9
1	10
1	17
1	38
1	26
1	110
1	10
1	18
1	18
1	12
1	17
1	14
1	16
1	13
1	6
1	17
1	23
1	110
1	38
1	10
1	15
1	27
1	41
1	19
1	110
1	11
1	8
1	13
1	12
1	10
1	13
1	16
1	110
1	7
1	10
1	24
1	110
1	15
1	18
1	10
1	24
1	110
1	9
1	18
1	14
1	10
1	10
1	18
1	9
1	12
1	17
1	113
1	16
1	17
1	16
1	10
1	10
1	39
1	16
1	110
1	23
1	12
1	11
1	13
1	20
1	27
1	21
1	10
1	12
1	17
1	20
1	20
1	18
1	8
1	10
1	21
1	24
1	12
1	15
1	24
1	4
1	19
1	11
1	8
1	13
1	110
1	7
1	10
1	27
1	16
1	16
1	110
1	27
1	110
1	13
1	7
1	110
1	15
1	16
1	6124
1	17
1	24
1	8
1	17
1	13
1	9
1	10
1	16
1	12
1	17
1	10
1	17
1	20
1	7
1	8
1	10
1	15
1	23
1	10
1	110
1	9
1	11
1	110
1	113
1	16
1	10
1	110
1	16
1	24
1	110
1	14
1	9
1	13
1	12
1	12
1	6
1	17
1	38
1	20
1	14
1	9
1	110
1	110
1	16
1	17
1	15
1	10
1	13
1	9
1	7
1	7
1	9
1	10
1	24
1	6
1	111
1	12
1	5
1	10
1	17
1	10
1	27
1	10
1	12
1	6
1	6
1	15
1	13
1	9
1	7
1	10
1	16
1	12
1	16
1	110
1	110
1	8
1	7
1	7
1	12
1	37
1	10
1	8
1	17
1	20
1	15
1	15
1	7
1	16
1	7
1	10
1	10
1	15
1	9
1	8
1	111
1	16
1	7
1	7
1	7
1	39
1	8
1	16
1	13
1	12
1	20
1	8
1	9
1	8
1	15
1	110
1	27
1	16
1	20
1	24
1	9
1	8
1	13
1	10
1	110
1	11
1	6
1	20
1	110
1	27
1	8
1	110
1	110
1	6
1	14
1	8
1	10
1	8
1	111
1	110
1	17
1	18
1	12
1	9
1	27
1	11
1	112
1	16
1	4
1	4
1	24
1	22
1	20
1	14
1	20
1	9
1	9
1	5
1	7
1	11
1	110
1	9
1	6
1	17
1	8
1	22
1	7
1	12
1	6
1	9
1	8
1	9
1	7
1	8
1	9
1	110
1	13
1	16
1	6
1	8
1	20
1	9
1	11
1	16
1	110
1	11
1	22
1	5
1	12
1	110
1	7
1	5
1	2
1	22
1	110
1	11
1	10
1	12
1	15
1	37
1	7
1	9
1	15
1	37
1	8
1	10
1	10
1	11
1	8
1	15
1	10
1	111
1	10
1	4
1	7
1	7
1	8
1	16
1	4
1	5
1	12
1	27
1	21
1	110
1	10
1	110
1	13
1	24
1	10
1	6
1	9
1	27
1	17
1	20
1	7
1	20
1	16
1	27
1	22
1	11
1	7
1	15
1	4
1	9
1	8
1	13
1	7
1	111
1	14
1	20
1	21
1	6
1	11
1	110
1	27
1	14
1	20
1	9
1	15
1	11
1	9
1	16
1	7
1	110
1	6
1	9
1	11
1	10
1	12
1	6
1	20
1	5
1	110
1	17
1	11
1	111
1	110
1	11
1	17
1	6
1	110
1	8
1	5
1	110
1	5
1	8
1	113
1	110
1	9
1	7
1	7
1	4
1	7
1	5
1	9
1	22
1	8
1	17
1	7
1	5
1	8
1	8
1	20
1	22
1	110
1	5
1	22
1	14
1	9
1	9
1	7
1	27
1	17
1	16
1	110
1	12
1	111
1	20
1	20
1	37
1	11
1	7
1	7
1	110
1	7
1	20
1	20
1	12
1	7
1	110
1	4
1	16
1	9
1	16
1	15
1	4
1	10
1	13
1	12
1	5
1	12
1	110
1	17
1	5
1	110
1	20
1	110
1	20
1	8
1	5
1	111
1	17
1	21
1	6
1	24
1	27
1	6
1	4
1	6
1	10
1	20
1	10
1	9
1	10
1	5
1	110
1	6
1	12
1	17
1	22
1	20
1	9
1	7
1	5
1	8
1	19
1	8
1	6
1	15
1	17
1	5
1	9
1	24
1	37
1	5
1	13
1	6
1	4
1	7
1	21
1	9
1	6
1	17
1	11
1	17
1	24
1	11
1	22
1	7
1	27
1	6
1	23
1	16
1	9
1	6
1	12
1	6
1	18
1	12
1	12
1	27
1	4
1	11
1	110
1	110
1	4
1	111
1	7
1	6
1	16
1	6
1	6
1	5
1	13
1	9
1	24
1	27
1	22
1	5
1	13
1	15
1	37
1	8
1	27
1	5
1	5
1	27
1	27
1	7
1	15
1	4
1	110
1	5
1	110
1	4
1	110
1	6
1	110
1	17
1	10
1	9
1	17
1	6
1	24
2	9
2	3
2	6
2	4
2	5
2	7
2	3
2	3
2	7
2	12
2	5
2	5
2	11
2	14
2	4
2	6
2	5
2	3
2	11
2	3
2	3
2	7
2	14
2	6
2	3
2	3
2	5
2	7
2	9
2	7
2	3
2	3
2	5
2	5
2	7
2	6
2	3
2	5
2	8
2	3
2	111
2	8
2	5
2	6
2	3
2	16
2	5
2	5
2	3
2	3
2	14
2	3
2	18
2	4
2	6
2	4
2	3
2	4
2	3
2	5
2	10
2	4
2	10
2	4
2	3
2	3
2	11
2	3
2	5
2	3
2	5
2	14
2	4
2	4
2	3
2	7
2	5
2	4
2	3
2	3
2	6
2	3
2	6
2	23
2	5
2	10
2	7
2	5
2	4
2	4
2	9
2	3
2	3
2	3
2	5
2	11
2	9
2	3
2	5
2	3
2	4
2	3
2	4
2	7
2	13
2	6
2	6
2	4
2	3
2	4
2	5
2	9
2	3
2	5
2	3
2	6
2	4
2	3
2	5
2	6
2	14
2	3
2	4
2	6
2	4
2	4
2	9
2	4
2	4
2	3
2	7
2	5
2	4
2	10
2	3
2	3
2	5
2	6
2	3
2	5
2	4
2	3
2	4
2	14
2	3
2	4
2	3
2	4
2	3
2	14
2	4
2	5
2	14
2	5
2	3
2	6
2	3
2	3
2	3
2	8
2	4
2	3
2	5
2	3
2	3
2	3
2	5
2	11
2	5
2	9
2	4
2	3
2	3
2	3
2	4
2	3
2	3
2	7
2	5
2	3
3	5
3	4
3	4
3	6
3	4
3	4
3	4
3	5
3	4
3	4
3	5
3	4
3	5
3	4
3	4
3	5
3	7
3	4
3	5
3	8
3	4
3	5
3	8
3	4
3	4
3	5
3	4
3	8
3	4
3	4
3	4
3	4
3	4
3	4
3	4
3	5
3	4
3	5
3	4
3	6
3	4
3	4
3	4
3	6
3	4
3	4
3	4
3	6
3	4
3	4
3	4
3	4
3	6
3	4
3	5
3	4
3	4
3	4
3	4
3	4
3	4
3	4
3	4
3	5
3	4
3	5
3	5
3	4
3	4
3	6
3	5
3	4
3	4
3	5
3	8
3	4
3	5
3	4
3	4
3	4
3	4
3	4
3	4
3	5
3	4
3	6
3	7
3	8
3	5
3	4
4	5
4	5
4	6
4	5
4	5
4	5
4	6
4	5
4	5
4	5
4	5
4	5
4	7
4	5
4	5
4	5
4	7
4	5
4	5
4	5
4	5
4	6
4	5
4	5
4	5
4	6
4	7
4	5
4	6
4	6
4	5
4	5
4	6
4	5
4	5
4	5
4	5
4	5
4	5
4	6
4	9
4	5
4	13
5	6
5	6
5	6
5	6
5	6
5	6
5	7
5	6
5	6
5	6
5	7
5	6
5	6
5	6
5	6
5	6
6	7
6	7
6	7
6	7
6	8
6	7
6	7
6	7
6	7
6	7
6	7
7	8
7	8
7	8
7	8
7	8
7	8
7	8
7	8
7	8
7	8
7	8
8	9
8	9
8	9
8	9
8	9
8	9
9	10
9	10
9	10
9	10
9	10
9	10
9	10
10	11
10	11
10	11
11	12
11	12
11	12
11	12
11	12
12	13
12	13
12	13
13	14
14	15
14	15
15	16
15	16
15	16
16	17
16	17
16	17
19	20
19	20
19	20
21	22
23	24
26	27
36	37
109	110
