9	6124
13	6124
13	6124
14	6124
14	6124
14	6124
15	6124
15	6124
16	6124
16	6124
16	6124
16	6124
17	6124
17	6124
17	6124
17	6124
17	6124
22	6124
28	6124
29	6124
30	6124
32	6124
32	6124
32	6124
33	6124
34	6124
35	6124
36	6124
36	6124
43	6124
356	6124
356	6124
356	6124
356	6124
356	6124
356	6124
356	6124
356	6124
356	6124
357	6124
357	6124
358	6124
358	6124
358	6124
358	6124
359	6124
360	6124
360	6124
361	6124
361	6124
362	6124
363	6124
365	6124
379	6124
384	6124
