1	6124
1	23
1	594
1	14
1	27
1	12
1	24
1	19
1	594
1	17
1	593
1	593
1	24
1	593
1	20
1	593
1	13
1	15
1	20
1	13
1	21
1	12
1	593
1	16
1	31
1	13
1	593
1	15
1	11
1	30
1	593
1	593
1	22
1	595
1	12
1	18
1	12
1	593
1	11
1	593
1	11
1	593
1	596
1	593
1	26
1	593
1	16
1	19
1	17
1	19
1	10
1	11
1	17
1	18
1	11
1	14
1	26
1	8
1	11
1	21
1	593
1	593
1	31
1	593
1	593
1	11
1	593
1	593
1	21
1	593
1	593
1	593
1	593
1	593
1	14
1	26
1	593
1	24
1	593
1	593
1	11
1	20
1	16
1	593
1	593
1	593
1	593
1	593
1	23
1	593
1	593
1	593
1	16
1	20
1	11
1	593
1	593
1	593
1	18
1	593
1	593
1	593
1	593
1	24
1	593
1	19
1	7
1	593
1	593
1	23
1	18
1	594
1	12
1	12
1	593
1	17
1	19
1	9
1	11
1	14
1	16
1	23
1	593
1	16
1	593
1	8
1	593
1	10
1	23
1	593
1	593
1	593
1	17
1	594
1	593
1	593
1	15
1	593
1	16
1	10
1	20
1	13
1	10
1	16
1	11
1	593
1	19
1	12
1	593
1	10
1	18
1	26
1	12
1	15
1	7
1	13
1	10
1	14
1	10
1	24
1	30
1	12
1	594
1	594
1	17
1	14
1	593
1	593
1	593
1	12
1	593
1	11
1	26
1	593
1	11
1	16
1	595
1	593
1	10
1	593
1	593
1	593
1	6
1	5
1	593
1	13
1	593
1	593
1	593
1	593
1	18
1	7
1	9
1	11
1	30
1	594
1	594
1	12
1	593
1	18
1	7
1	593
1	13
1	23
1	12
1	14
1	9
1	8
1	594
1	21
1	594
1	11
1	12
1	593
1	15
1	11
1	22
1	5
1	15
1	9
1	17
1	593
1	593
1	14
1	593
1	22
1	593
1	21
1	593
1	593
1	9
1	18
1	26
1	12
1	11
1	25
1	593
1	594
1	593
1	593
1	10
1	16
1	14
1	594
1	593
1	593
1	593
1	593
1	593
1	594
1	14
1	9
1	22
1	593
1	18
1	7
1	593
1	593
1	593
1	593
1	18
1	10
1	11
1	9
1	17
1	593
1	593
1	9
1	594
1	18
1	593
1	9
1	15
1	11
1	15
1	21
1	30
1	11
1	593
1	13
1	6
1	8
1	13
1	593
1	593
1	15
1	8
1	6
1	11
1	20
1	18
1	11
1	594
1	593
1	9
1	15
1	19
1	5
1	11
1	593
1	593
1	593
1	595
1	594
1	6
1	30
1	19
1	13
1	15
1	593
1	593
1	11
1	22
1	593
1	593
1	12
1	17
1	593
1	7
1	593
1	593
1	593
1	9
1	593
1	593
1	17
1	593
1	17
1	25
1	593
1	30
1	10
1	8
1	593
1	593
1	8
1	14
1	10
1	25
1	593
1	594
1	593
1	4
1	593
1	593
1	21
1	22
1	593
1	18
1	7
1	593
1	20
1	14
1	6
1	593
1	14
1	593
1	10
1	11
1	23
1	593
1	593
1	593
1	593
1	12
1	14
1	593
1	18
1	593
1	593
1	18
1	10
1	593
1	593
1	593
1	594
1	593
1	12
1	594
1	21
1	593
1	7
1	593
1	5
1	593
1	593
1	11
1	593
1	593
1	593
1	593
1	7
1	593
1	18
1	593
1	593
1	593
1	9
1	13
1	10
1	8
1	8
1	593
1	11
1	15
1	13
1	23
1	12
1	9
1	13
1	21
1	5
1	6
1	7
1	9
1	9
1	593
1	25
1	593
1	593
1	22
1	10
1	9
1	10
1	22
1	12
1	6
1	10
1	10
1	18
1	593
1	594
1	593
1	593
1	593
1	23
1	593
1	8
1	15
1	6
1	601
1	12
1	10
1	14
1	19
1	11
1	593
1	13
1	10
1	30
1	593
1	8
1	15
1	11
1	13
1	10
1	21
1	593
1	593
1	7
1	593
1	593
1	594
1	17
1	18
1	593
1	593
1	5
1	593
1	11
1	13
1	5
1	18
1	16
1	9
1	30
1	18
1	593
1	593
1	8
1	7
1	9
1	594
1	594
1	15
1	593
1	593
1	9
1	593
1	18
1	10
1	593
1	17
1	593
1	20
1	593
1	16
1	593
1	593
1	11
1	593
1	9
1	593
1	10
1	593
1	21
1	25
1	593
1	15
1	8
1	593
1	593
1	9
1	10
1	18
1	594
1	18
1	593
1	593
1	30
1	17
1	593
1	593
1	13
1	7
1	25
1	7
1	17
1	593
1	10
1	6
1	593
1	19
1	593
1	593
1	11
1	593
1	593
1	25
1	12
1	12
1	21
1	593
1	593
1	13
1	15
1	8
1	593
1	9
1	593
1	593
1	8
1	23
1	9
1	4
1	12
1	593
1	7
1	594
1	20
1	30
1	593
1	593
1	593
1	5
1	14
1	593
1	593
1	593
1	593
1	593
1	593
1	10
1	593
1	12
1	16
1	9
1	593
1	18
1	593
1	594
1	10
1	7
1	593
1	8
1	596
1	10
1	593
1	593
1	9
1	7
1	23
1	593
1	13
1	593
1	19
1	11
1	7
1	593
1	8
1	13
1	593
1	593
1	13
1	8
1	593
1	13
1	593
1	7
1	593
1	594
1	593
1	593
1	8
1	7
1	8
1	593
1	593
1	7
1	593
1	7
1	22
1	593
1	9
1	14
1	593
1	22
1	593
1	9
1	593
1	10
1	593
1	10
1	10
1	593
1	593
1	15
1	22
1	20
1	6
1	14
1	7
1	16
1	593
1	19
1	593
1	7
1	593
1	593
1	593
1	593
1	593
1	9
1	25
1	22
1	593
1	11
1	15
1	593
1	10
1	6
1	18
1	593
1	16
1	13
1	14
1	20
1	14
1	18
1	593
1	593
1	593
1	593
1	9
1	18
1	593
1	593
1	20
1	593
1	12
1	11
1	15
1	593
1	30
1	593
1	593
1	12
1	20
1	20
1	6
1	18
1	18
1	7
1	593
1	593
1	593
1	6
1	5
1	17
1	593
1	14
1	25
1	23
1	11
1	15
1	593
1	593
1	593
1	11
1	7
1	8
1	9
1	4
1	19
1	10
1	593
1	593
1	8
1	25
1	13
1	9
1	593
1	593
1	15
1	593
1	6
1	7
1	12
1	9
1	593
1	593
1	23
1	10
1	593
1	593
1	593
1	11
1	593
1	21
1	23
1	4
1	593
1	593
1	8
1	10
1	593
1	593
1	593
1	15
1	9
1	15
1	8
1	25
1	21
1	6124
1	593
1	8
1	593
1	593
1	11
1	7
1	8
1	593
1	11
1	15
1	17
1	12
1	593
1	593
1	593
1	593
1	18
1	6
1	7
1	18
1	22
1	22
1	593
1	593
1	593
1	7
1	18
1	593
1	593
1	593
1	593
1	4
1	13
1	15
1	593
1	17
1	10
1	10
1	10
1	594
1	13
1	5
1	12
1	15
1	20
1	593
1	593
1	6
1	593
1	12
1	20
1	8
1	593
1	9
1	593
1	18
1	593
1	593
1	11
1	593
1	10
1	593
1	20
1	593
1	593
1	5
1	13
1	17
1	7
1	11
1	593
1	20
1	593
1	13
1	593
1	9
1	30
1	593
1	9
1	30
1	22
1	25
1	5
1	5
1	18
1	9
1	593
1	17
1	4
1	21
1	593
1	593
1	593
1	6
1	23
1	23
1	593
1	30
1	594
1	594
1	593
1	18
1	11
1	593
1	14
1	15
1	5
1	593
1	19
1	593
1	10
1	5
1	593
1	593
1	9
1	593
1	25
1	4
1	12
1	593
1	593
1	593
1	593
1	15
1	17
1	7
1	593
1	15
1	21
1	10
1	595
1	594
1	4
1	593
1	593
1	11
1	20
1	593
1	8
1	21
1	593
1	18
1	593
1	593
1	23
1	593
1	9
1	24
1	593
1	593
1	593
1	593
1	17
1	593
1	593
1	16
1	6
1	11
1	5
1	594
1	9
1	23
1	593
1	10
1	593
1	13
1	26
1	593
1	593
1	23
1	5
1	593
1	593
1	593
1	593
1	593
1	8
1	17
1	593
1	20
1	7
1	15
1	5
1	593
1	593
1	594
1	18
1	7
1	20
1	10
1	5
1	593
1	9
1	10
1	7
1	593
1	7
1	10
1	24
1	593
1	8
1	593
1	593
1	4
1	7
1	20
1	593
1	593
1	18
1	593
1	593
1	10
1	11
1	593
1	593
1	5
1	594
1	17
1	593
1	18
1	593
1	17
1	13
1	593
1	593
1	15
1	10
1	4
1	24
1	10
1	5
1	593
1	12
1	593
1	593
1	593
1	593
1	594
1	9
1	593
1	21
1	3
1	593
1	7
1	593
1	22
1	6
1	15
1	15
1	593
1	20
1	593
1	593
1	17
1	4
1	593
1	7
1	7
1	593
1	593
1	21
1	23
1	10
1	25
1	5
1	593
1	7
1	13
1	7
1	7
1	13
1	25
1	23
1	18
1	594
1	594
1	11
1	17
1	593
1	16
1	11
1	593
1	7
1	22
1	593
1	4
1	15
1	6
1	25
1	593
1	593
1	13
1	593
1	593
1	593
1	20
1	593
1	593
1	17
1	10
1	9
1	5
1	593
1	18
1	593
1	593
1	12
1	593
1	593
1	8
1	7
1	593
1	8
1	5
1	594
1	593
1	593
1	14
1	594
1	9
1	9
1	593
1	11
1	19
1	593
1	22
1	593
1	593
1	17
1	593
1	593
1	10
1	22
1	7
1	6
1	23
1	25
1	18
1	593
1	12
1	593
1	10
1	593
1	593
1	4
1	11
1	6
1	5
1	20
1	12
1	23
1	593
1	593
1	593
2	18
2	8
2	3
2	14
2	3
2	6
2	4
2	594
2	10
2	9
2	7
2	8
2	3
2	3
2	5
2	3
2	8
2	10
2	7
2	9
2	3
2	8
2	8
2	8
2	3
2	4
2	7
2	3
2	12
2	6
2	6
2	8
2	3
2	4
2	13
2	8
2	3
2	6
2	3
2	3
2	6
2	16
2	6
2	6
2	9
2	13
2	3
2	11
2	594
2	10
2	6
2	3
2	8
2	9
2	12
2	594
2	3
2	5
2	5
2	3
2	3
2	3
2	3
2	6
2	6
2	4
2	21
2	8
2	7
2	13
2	11
2	9
2	15
2	3
2	3
2	6
2	8
2	8
2	3
2	12
2	4
2	4
2	3
2	6
2	12
2	3
2	3
2	11
2	4
2	3
2	3
2	3
2	3
2	3
2	3
2	3
2	9
2	6
2	11
2	6
2	9
2	3
2	6
2	10
2	5
2	8
2	6
2	5
2	9
2	3
2	8
2	3
2	22
2	7
2	4
2	24
2	8
2	3
2	19
2	3
2	7
2	3
2	6
2	6
2	8
2	23
2	4
2	5
2	5
2	14
2	7
2	3
2	3
2	3
2	5
2	23
2	5
2	23
2	31
2	10
2	7
2	7
2	3
2	3
2	4
2	10
2	8
2	3
2	3
2	3
2	4
2	3
2	8
2	3
2	6
2	18
2	3
2	6
2	7
2	7
2	3
2	4
2	10
2	3
2	8
2	3
2	4
2	3
2	16
2	3
2	3
2	3
2	4
2	5
2	6
2	3
2	3
2	8
2	9
2	8
2	6
2	3
2	4
2	3
2	3
2	5
2	21
2	10
2	23
2	3
2	3
2	3
2	6
2	3
2	4
2	4
2	8
2	16
2	5
2	4
2	4
2	9
2	4
2	8
2	7
2	4
2	9
2	6
2	3
2	16
2	3
2	3
2	13
2	7
2	13
2	8
2	5
2	4
2	8
2	4
2	10
2	5
2	12
2	14
2	15
2	12
2	8
2	3
2	18
2	4
2	14
2	17
2	4
2	11
2	6
2	8
2	3
2	4
2	7
2	3
2	4
2	3
2	15
2	10
2	9
2	4
2	10
2	8
2	4
2	5
2	3
2	3
2	6
2	3
2	5
2	3
2	8
2	21
2	5
2	10
2	4
2	8
2	3
2	3
2	4
2	9
2	3
2	3
2	5
2	4
2	3
2	9
3	7
3	5
3	4
3	6
3	5
3	4
3	7
3	4
3	5
3	6
3	4
3	6
3	11
3	4
3	4
3	4
3	5
3	4
3	4
3	4
3	4
3	7
3	5
3	6
3	5
3	4
3	4
3	4
3	4
3	4
3	5
3	6
3	5
3	6
3	4
3	4
3	6
3	4
3	5
3	5
3	4
3	10
3	4
3	5
3	6
3	4
3	4
3	6
3	5
3	9
3	4
3	4
3	5
3	10
3	9
3	4
3	7
3	4
3	4
3	9
3	6
3	5
3	4
3	4
3	4
3	4
3	5
3	4
3	4
3	4
3	5
3	4
3	4
3	4
3	5
3	4
3	4
3	4
3	11
3	12
3	4
3	4
3	4
3	4
3	4
3	5
3	4
3	4
3	8
3	4
3	4
3	5
3	7
3	9
3	9
3	5
3	4
3	8
3	4
3	7
3	10
3	4
3	7
4	8
4	5
4	5
4	5
4	5
4	5
4	5
4	5
4	5
4	5
4	6
4	5
4	5
4	5
4	5
4	5
4	5
4	6
4	5
4	7
4	6
4	5
4	5
4	5
4	6
4	5
4	11
4	5
4	5
4	5
4	5
4	7
4	5
4	5
4	5
4	5
4	5
4	5
4	6
4	5
4	5
4	5
4	7
4	5
4	6
4	5
4	7
4	11
4	5
4	5
4	6
4	5
4	5
4	5
4	6
4	5
5	7
5	6
5	6
5	6
5	6
5	7
5	6
5	6
5	6
5	8
5	6
5	6
5	6
5	7
5	6
5	6
5	6
5	6
5	6
5	6
5	6
5	6
6	7
6	7
6	7
6	7
6	7
6	9
6	8
6	7
6	8
6	7
6	7
6	7
6	7
6	7
6	7
6	7
6	7
6	7
6	7
6	7
6	7
6	7
6	8
6	8
6	7
6	7
7	8
7	8
7	8
7	8
7	8
7	8
7	8
7	8
7	8
7	8
7	8
7	8
7	8
7	8
7	9
8	9
8	9
8	9
8	9
8	9
8	9
8	9
8	9
8	9
8	9
9	10
9	10
9	10
9	10
9	10
9	10
9	10
9	10
9	10
10	11
10	11
10	11
10	11
10	11
10	11
11	12
11	12
11	12
11	12
12	13
12	13
12	13
12	13
12	13
13	14
14	15
14	15
14	15
14	15
14	15
14	15
15	16
16	17
16	17
16	17
17	18
17	18
17	18
17	18
18	19
19	20
19	20
19	20
20	21
21	22
21	22
22	23
22	23
24	25
24	25
29	30
592	593
