11	6124
12	6124
13	6124
13	6124
15	6124
16	6124
16	6124
16	6124
16	6124
16	6124
16	6124
16	6124
17	6124
17	6124
17	6124
17	6124
18	6124
18	6124
18	6124
18	6124
18	6124
18	6124
18	6124
18	6124
18	6124
19	6124
19	6124
19	6124
19	6124
20	6124
20	6124
20	6124
20	6124
20	6124
20	6124
20	6124
20	6124
20	6124
20	6124
20	6124
20	6124
21	6124
21	6124
22	6124
22	6124
22	6124
23	6124
24	6124
24	6124
24	6124
24	6124
29	6124
29	6124
30	6124
30	6124
30	6124
31	6124
31	6124
32	6124
32	6124
33	6124
33	6124
33	6124
34	6124
34	6124
36	6124
1218	6124
1218	6124
1218	6124
1218	6124
1218	6124
1218	6124
1218	6124
1218	6124
1218	6124
1218	6124
1218	6124
1218	6124
1218	6124
1218	6124
1218	6124
1218	6124
1218	6124
1218	6124
1218	6124
1218	6124
1218	6124
1218	6124
1218	6124
1218	6124
1218	6124
1218	6124
1218	6124
1218	6124
1218	6124
1218	6124
1218	6124
1218	6124
1218	6124
1218	6124
1218	6124
1218	6124
1218	6124
1218	6124
1219	6124
1219	6124
1219	6124
1219	6124
1219	6124
1219	6124
1219	6124
1219	6124
1219	6124
1219	6124
1219	6124
1219	6124
1219	6124
1219	6124
1219	6124
1219	6124
1219	6124
1219	6124
1220	6124
1220	6124
1220	6124
1220	6124
1220	6124
1220	6124
1220	6124
1220	6124
1220	6124
1220	6124
1220	6124
1220	6124
1220	6124
1220	6124
1220	6124
1220	6124
1221	6124
1221	6124
1221	6124
1221	6124
1221	6124
1222	6124
1222	6124
1222	6124
1222	6124
1222	6124
1222	6124
1224	6124
1225	6124
1225	6124
1226	6124
1226	6124
1227	6124
1227	6124
1228	6124
1228	6124
1229	6124
1230	6124
1232	6124
1232	6124
1232	6124
1234	6124
1235	6124
1244	6124
