10	6124
10	6124
10	6124
11	6124
11	6124
12	6124
12	6124
12	6124
13	6124
13	6124
13	6124
14	6124
14	6124
14	6124
14	6124
14	6124
14	6124
14	6124
14	6124
15	6124
15	6124
15	6124
15	6124
15	6124
15	6124
15	6124
15	6124
15	6124
15	6124
15	6124
15	6124
16	6124
16	6124
16	6124
16	6124
16	6124
16	6124
16	6124
16	6124
16	6124
17	6124
17	6124
17	6124
17	6124
17	6124
17	6124
17	6124
17	6124
17	6124
17	6124
18	6124
18	6124
18	6124
18	6124
18	6124
18	6124
18	6124
18	6124
19	6124
19	6124
19	6124
19	6124
19	6124
19	6124
19	6124
19	6124
19	6124
19	6124
19	6124
19	6124
19	6124
20	6124
20	6124
20	6124
20	6124
20	6124
20	6124
20	6124
20	6124
20	6124
20	6124
20	6124
20	6124
20	6124
20	6124
21	6124
21	6124
21	6124
21	6124
21	6124
21	6124
21	6124
21	6124
21	6124
21	6124
21	6124
21	6124
21	6124
22	6124
22	6124
22	6124
22	6124
22	6124
22	6124
22	6124
22	6124
22	6124
22	6124
22	6124
22	6124
22	6124
23	6124
23	6124
23	6124
23	6124
23	6124
23	6124
23	6124
23	6124
24	6124
24	6124
24	6124
24	6124
24	6124
24	6124
24	6124
24	6124
25	6124
25	6124
25	6124
25	6124
25	6124
25	6124
25	6124
25	6124
25	6124
26	6124
26	6124
27	6124
27	6124
27	6124
27	6124
27	6124
27	6124
27	6124
27	6124
27	6124
27	6124
27	6124
27	6124
28	6124
28	6124
28	6124
28	6124
28	6124
29	6124
29	6124
29	6124
29	6124
29	6124
29	6124
29	6124
29	6124
30	6124
30	6124
30	6124
30	6124
30	6124
30	6124
30	6124
30	6124
30	6124
30	6124
31	6124
31	6124
31	6124
32	6124
33	6124
33	6124
33	6124
33	6124
35	6124
35	6124
35	6124
35	6124
35	6124
36	6124
36	6124
37	6124
37	6124
37	6124
37	6124
41	6124
41	6124
41	6124
42	6124
42	6124
42	6124
53	6124
56	6124
56	6124
56	6124
56	6124
56	6124
56	6124
56	6124
57	6124
57	6124
57	6124
58	6124
58	6124
58	6124
58	6124
59	6124
63	6124
64	6124
66	6124
71	6124
72	6124
75	6124
79	6124
1407	6124
1407	6124
1407	6124
1407	6124
1407	6124
1407	6124
1407	6124
1407	6124
1407	6124
1407	6124
1407	6124
1407	6124
1407	6124
1407	6124
1407	6124
1407	6124
1407	6124
1407	6124
1407	6124
1407	6124
1407	6124
1407	6124
1407	6124
1407	6124
1407	6124
1407	6124
1407	6124
1407	6124
1407	6124
1407	6124
1407	6124
1407	6124
1407	6124
1407	6124
1407	6124
1407	6124
1407	6124
1407	6124
1407	6124
1407	6124
1407	6124
1407	6124
1407	6124
1407	6124
1407	6124
1407	6124
1407	6124
1407	6124
1407	6124
1407	6124
1407	6124
1407	6124
1407	6124
1407	6124
1407	6124
1407	6124
1407	6124
1407	6124
1407	6124
1407	6124
1407	6124
1407	6124
1407	6124
1407	6124
1407	6124
1407	6124
1407	6124
1407	6124
1407	6124
1407	6124
1407	6124
1407	6124
1407	6124
1408	6124
1408	6124
1408	6124
1408	6124
1408	6124
1408	6124
1408	6124
1408	6124
1408	6124
1408	6124
1408	6124
1408	6124
1408	6124
1408	6124
1408	6124
1408	6124
1408	6124
1408	6124
1408	6124
1408	6124
1408	6124
1408	6124
1408	6124
1408	6124
1408	6124
1408	6124
1408	6124
1408	6124
1408	6124
1408	6124
1408	6124
1408	6124
1408	6124
1408	6124
1408	6124
1408	6124
1409	6124
1409	6124
1409	6124
1409	6124
1409	6124
1409	6124
1409	6124
1409	6124
1409	6124
1409	6124
1409	6124
1409	6124
1409	6124
1409	6124
1409	6124
1409	6124
1409	6124
1409	6124
1409	6124
1409	6124
1409	6124
1409	6124
1409	6124
1409	6124
1409	6124
1410	6124
1410	6124
1410	6124
1410	6124
1410	6124
1410	6124
1410	6124
1410	6124
1410	6124
1410	6124
1410	6124
1410	6124
1410	6124
1410	6124
1411	6124
1411	6124
1411	6124
1411	6124
1411	6124
1411	6124
1411	6124
1411	6124
1411	6124
1411	6124
1411	6124
1412	6124
1412	6124
1412	6124
1412	6124
1412	6124
1412	6124
1412	6124
1412	6124
1412	6124
1412	6124
1413	6124
1413	6124
1413	6124
1413	6124
1413	6124
1413	6124
1413	6124
1413	6124
1413	6124
1413	6124
1414	6124
1414	6124
1414	6124
1414	6124
1414	6124
1414	6124
1414	6124
1414	6124
1414	6124
1415	6124
1415	6124
1416	6124
1416	6124
1416	6124
1416	6124
1416	6124
1417	6124
1417	6124
1417	6124
1418	6124
1418	6124
1418	6124
1419	6124
1419	6124
1419	6124
1419	6124
1419	6124
1419	6124
1421	6124
1421	6124
1421	6124
1421	6124
1421	6124
1422	6124
1422	6124
1423	6124
1423	6124
1423	6124
1426	6124
1459	6124
