8	6124
10	6124
11	6124
11	6124
12	6124
13	6124
13	6124
13	6124
14	6124
14	6124
15	6124
16	6124
16	6124
16	6124
16	6124
17	6124
17	6124
17	6124
18	6124
19	6124
19	6124
19	6124
19	6124
19	6124
19	6124
19	6124
20	6124
20	6124
20	6124
20	6124
20	6124
20	6124
20	6124
20	6124
21	6124
21	6124
21	6124
21	6124
22	6124
22	6124
22	6124
23	6124
24	6124
24	6124
25	6124
26	6124
27	6124
28	6124
28	6124
29	6124
30	6124
30	6124
32	6124
32	6124
33	6124
34	6124
36	6124
36	6124
39	6124
40	6124
40	6124
41	6124
41	6124
42	6124
42	6124
42	6124
43	6124
44	6124
44	6124
45	6124
45	6124
47	6124
48	6124
49	6124
49	6124
54	6124
55	6124
605	6124
605	6124
605	6124
605	6124
605	6124
605	6124
605	6124
605	6124
605	6124
605	6124
605	6124
605	6124
605	6124
605	6124
605	6124
605	6124
605	6124
605	6124
605	6124
605	6124
605	6124
605	6124
605	6124
605	6124
605	6124
605	6124
605	6124
605	6124
605	6124
605	6124
605	6124
605	6124
605	6124
605	6124
605	6124
605	6124
605	6124
605	6124
606	6124
606	6124
606	6124
606	6124
606	6124
606	6124
606	6124
606	6124
606	6124
606	6124
606	6124
606	6124
606	6124
606	6124
606	6124
606	6124
606	6124
606	6124
606	6124
606	6124
607	6124
607	6124
607	6124
607	6124
607	6124
607	6124
607	6124
607	6124
608	6124
608	6124
608	6124
609	6124
609	6124
610	6124
610	6124
610	6124
611	6124
611	6124
611	6124
612	6124
613	6124
613	6124
614	6124
615	6124
618	6124
619	6124
619	6124
620	6124
620	6124
622	6124
623	6124
633	6124
642	6124
