5	6124
5	6124
8	6124
10	6124
11	6124
11	6124
12	6124
12	6124
13	6124
13	6124
14	6124
14	6124
14	6124
14	6124
14	6124
15	6124
15	6124
15	6124
15	6124
15	6124
15	6124
15	6124
15	6124
16	6124
16	6124
16	6124
16	6124
16	6124
16	6124
16	6124
16	6124
16	6124
16	6124
16	6124
16	6124
16	6124
17	6124
17	6124
17	6124
17	6124
17	6124
17	6124
17	6124
17	6124
17	6124
18	6124
18	6124
18	6124
18	6124
18	6124
18	6124
18	6124
18	6124
18	6124
19	6124
19	6124
19	6124
19	6124
19	6124
19	6124
19	6124
19	6124
19	6124
19	6124
19	6124
19	6124
19	6124
20	6124
20	6124
20	6124
20	6124
20	6124
20	6124
20	6124
20	6124
20	6124
20	6124
21	6124
21	6124
21	6124
21	6124
21	6124
21	6124
21	6124
21	6124
21	6124
22	6124
22	6124
22	6124
22	6124
22	6124
22	6124
22	6124
22	6124
23	6124
23	6124
23	6124
23	6124
24	6124
24	6124
24	6124
24	6124
24	6124
24	6124
25	6124
25	6124
25	6124
25	6124
25	6124
25	6124
25	6124
26	6124
26	6124
26	6124
26	6124
26	6124
26	6124
26	6124
26	6124
26	6124
27	6124
27	6124
27	6124
27	6124
27	6124
28	6124
28	6124
28	6124
28	6124
28	6124
28	6124
28	6124
28	6124
28	6124
29	6124
29	6124
29	6124
29	6124
29	6124
30	6124
30	6124
30	6124
30	6124
30	6124
31	6124
31	6124
32	6124
32	6124
32	6124
32	6124
32	6124
33	6124
33	6124
33	6124
33	6124
33	6124
34	6124
35	6124
35	6124
35	6124
35	6124
36	6124
36	6124
36	6124
38	6124
38	6124
39	6124
39	6124
40	6124
41	6124
41	6124
42	6124
48	6124
54	6124
55	6124
61	6124
61	6124
61	6124
61	6124
61	6124
61	6124
62	6124
62	6124
62	6124
63	6124
63	6124
63	6124
63	6124
64	6124
64	6124
64	6124
65	6124
65	6124
65	6124
66	6124
71	6124
72	6124
73	6124
75	6124
82	6124
650	6124
650	6124
650	6124
650	6124
650	6124
650	6124
650	6124
650	6124
650	6124
650	6124
650	6124
650	6124
650	6124
650	6124
650	6124
650	6124
650	6124
650	6124
650	6124
650	6124
650	6124
650	6124
650	6124
650	6124
650	6124
650	6124
650	6124
650	6124
650	6124
650	6124
650	6124
650	6124
650	6124
650	6124
650	6124
651	6124
651	6124
651	6124
651	6124
651	6124
651	6124
651	6124
651	6124
651	6124
651	6124
651	6124
651	6124
651	6124
651	6124
651	6124
651	6124
651	6124
652	6124
652	6124
652	6124
652	6124
652	6124
652	6124
652	6124
652	6124
652	6124
652	6124
652	6124
652	6124
653	6124
653	6124
653	6124
653	6124
654	6124
654	6124
654	6124
655	6124
655	6124
655	6124
656	6124
656	6124
656	6124
657	6124
657	6124
657	6124
659	6124
659	6124
659	6124
659	6124
659	6124
659	6124
659	6124
659	6124
660	6124
661	6124
662	6124
663	6124
664	6124
666	6124
669	6124
671	6124
672	6124
673	6124
678	6124
707	6124
