1	6124
1	2538
1	2539
1	2538
1	2538
1	2538
1	2539
1	2538
1	2538
1	20
1	2538
1	2538
1	13
1	2538
1	2538
1	13
1	2538
1	2538
1	2538
1	2538
1	2538
1	22
1	2538
1	13
1	2538
1	2538
1	2538
1	21
1	2538
1	2538
1	2538
1	2538
1	2538
1	2538
1	2538
1	2538
1	2538
1	2538
1	2538
1	20
1	13
1	2538
1	18
1	2538
1	2538
1	2538
1	2538
1	2538
1	26
1	2538
1	2538
1	2538
1	25
1	22
1	2538
1	2539
1	2538
1	2538
1	2538
1	2540
1	23
1	10
1	2538
1	2538
1	2538
1	2538
1	2538
1	2538
1	2538
1	2538
1	2538
1	2538
1	18
1	17
1	2538
1	14
1	2538
1	2538
1	2538
1	20
1	15
1	2538
1	2538
1	2538
1	2538
1	2539
1	20
1	13
1	16
1	2538
1	6124
1	2538
1	37
1	2538
1	2538
1	2538
1	30
1	21
1	2538
1	2538
1	20
1	20
1	2538
1	2538
1	2538
1	2538
1	2538
1	2538
1	2538
1	2538
1	2539
1	2538
1	2538
1	2538
1	2538
1	2538
1	2538
1	2538
1	16
1	2538
1	13
1	17
1	2538
1	2538
1	2538
1	2538
1	2538
1	2538
1	2538
1	14
1	2538
1	18
1	15
1	18
1	2538
1	2538
1	2538
1	16
1	2538
1	2538
1	12
1	14
1	19
1	2538
1	2538
1	2538
1	2538
1	10
1	26
1	2538
1	2538
1	2538
1	2538
1	2538
1	2538
1	2538
1	2538
1	2538
1	16
1	2538
1	2538
1	2538
1	2538
1	2538
1	2538
1	2538
1	2538
1	2538
1	2538
1	13
1	2538
1	2538
1	2538
1	12
1	16
1	2538
1	2538
1	2538
1	2538
1	2538
1	4
1	2538
1	15
1	2538
1	2538
1	2538
1	2538
1	2538
1	2538
1	2538
1	2538
1	2538
1	15
1	2538
1	2538
1	20
1	10
1	2538
1	24
1	2538
1	2538
1	16
1	2538
1	2538
1	2538
1	2538
1	8
1	2538
1	2538
1	2538
1	2538
1	2539
1	2538
1	2538
1	2538
1	17
1	2538
1	2538
1	2538
1	2538
1	2538
1	7
1	2538
1	2538
1	2539
1	2538
1	2538
1	2538
1	2538
1	31
1	2538
1	2538
1	17
1	16
1	2538
1	2538
1	2538
1	2538
1	2538
1	2538
1	13
1	2538
1	2539
1	2538
1	2538
1	2538
1	12
1	2538
1	2538
1	2538
1	2538
1	2538
1	2538
1	2538
1	18
1	2538
1	2538
1	2538
1	2539
1	2538
1	12
1	2538
1	2538
1	2538
1	29
1	2538
1	2538
1	2538
1	2538
1	2538
1	16
1	2538
1	2538
1	11
1	15
1	2538
1	2538
1	2538
1	2538
1	2538
1	2538
1	24
1	2538
1	2538
1	2538
1	2538
1	2538
1	2538
1	16
1	2538
1	2538
1	26
1	2538
1	2538
1	13
1	2538
1	2538
1	2538
1	2538
1	15
1	11
1	2538
1	2538
1	2538
1	2538
1	2538
1	2539
1	9
1	7
1	2538
1	2538
1	2538
1	20
1	2538
1	13
1	13
1	2538
1	2538
1	20
1	2538
1	14
1	19
1	2538
1	12
1	15
1	2539
1	2538
1	2538
1	15
1	2538
1	2538
1	2538
1	19
1	2538
1	2538
1	2538
1	2538
1	2538
1	18
1	2538
1	2538
1	14
1	2538
1	14
1	2538
1	2538
1	2538
1	2538
1	2538
1	2538
1	2538
1	2538
1	2538
1	22
1	2538
1	2538
1	2538
1	2538
1	7
1	2538
1	19
1	2538
1	16
1	21
1	2538
1	2538
1	2538
1	2538
1	2538
1	2538
1	2538
1	2538
1	2538
1	22
1	18
1	2538
1	2538
1	2538
1	2538
1	20
1	2538
1	2538
1	2538
1	2538
1	2538
1	2538
1	2538
1	2538
1	2538
1	19
1	2538
1	2538
1	2538
1	23
1	2538
1	2538
1	2538
1	2538
1	2538
1	2538
1	18
1	2538
1	2538
1	2538
1	13
1	2538
1	2538
1	2539
1	11
1	2538
1	2539
1	2538
1	2538
1	2538
1	2538
1	2538
1	2538
1	19
1	2538
1	2538
1	2538
1	2538
1	2538
1	2538
1	6124
1	2538
1	2538
1	2538
1	2538
1	2538
1	2539
1	2538
1	2538
1	10
1	24
1	2538
1	2538
1	2538
1	2538
1	2538
1	2538
1	2538
1	2538
1	2538
1	16
1	2538
1	2538
1	2539
1	17
1	11
1	2538
1	2538
1	2538
1	2538
1	18
1	2538
1	2538
1	23
1	2538
1	2538
1	2538
1	2538
1	11
1	2538
1	2538
1	2538
1	2538
1	2538
1	2538
1	2538
1	18
1	15
1	22
1	7
1	2538
1	21
1	2538
1	2538
1	2538
1	2538
1	2538
1	2538
1	2538
1	2538
1	2538
1	2538
1	2538
1	2538
1	9
1	2538
1	2538
1	11
1	2538
1	2538
1	2538
1	2538
1	2538
1	2538
1	2538
1	6124
1	2538
1	2538
1	23
1	2538
1	2538
1	13
1	19
1	2538
1	2538
1	2538
1	2538
1	19
1	25
1	17
1	2538
1	2538
1	2538
1	11
1	2538
1	2538
1	2538
1	17
1	2538
1	13
1	13
1	2538
1	13
1	9
1	10
1	2538
1	14
1	2538
1	2538
1	2538
1	8
1	13
1	2538
1	2538
1	2538
1	21
1	17
1	2538
1	2538
1	2538
1	2538
1	2538
1	2538
1	25
1	9
1	2538
1	15
1	2538
1	2538
1	2538
1	2538
1	7
1	2538
1	2538
1	6124
1	2538
1	19
1	14
1	2538
1	20
1	2538
1	2538
1	23
1	14
1	2538
1	2538
1	2538
1	2538
1	12
1	2538
1	19
1	2538
1	2538
1	13
1	14
1	2538
1	10
1	2538
1	2538
1	11
1	16
1	2538
1	18
1	2538
1	2538
1	19
1	2538
1	2538
1	22
1	2538
1	2538
1	2538
1	2538
1	2538
1	2538
1	14
1	2538
1	2538
1	2538
1	2538
1	9
1	2538
1	2539
1	2538
1	2538
1	2538
1	2538
1	2538
1	2538
1	2538
1	2538
1	2538
1	2538
1	2538
1	22
1	2538
1	9
1	2538
1	2538
1	2538
1	2538
1	2538
1	2538
1	2538
1	17
1	2538
1	2538
1	2538
1	2538
1	2538
1	6124
1	2538
1	2538
1	2538
1	2538
1	2539
1	17
1	16
1	2538
1	2538
1	2538
1	2538
1	28
1	2538
1	2538
1	2538
1	19
1	2538
1	14
1	11
1	2538
1	2538
1	2538
1	5
1	20
1	2538
1	2538
1	17
1	2538
1	18
1	2538
1	2538
1	2538
1	19
1	2538
1	2538
1	16
1	2538
1	2538
1	2538
1	13
1	2538
1	2538
1	2538
1	2538
1	2538
1	2538
1	2538
1	2538
1	2538
1	2538
1	2538
1	18
1	2538
1	2538
1	2538
1	2538
1	2538
1	2538
1	2538
1	2538
1	2538
1	2538
1	20
1	2538
1	2538
1	23
1	2538
1	2538
1	28
1	2538
1	23
1	9
1	2538
1	2538
1	20
1	2538
1	2538
1	19
1	2538
1	15
1	11
1	2538
1	14
1	2538
1	11
1	2538
1	2538
1	10
1	2538
1	2538
1	2538
1	2538
1	2539
1	2538
1	2538
1	2539
1	10
1	2538
1	2538
1	2538
1	2538
1	2538
1	20
1	2538
1	16
1	2538
1	2538
1	2538
1	2538
1	2538
1	2538
1	18
1	2538
1	2538
1	20
1	2538
1	14
1	2538
1	17
1	2538
1	2538
1	2538
1	2538
1	2538
1	2538
1	2538
1	2538
1	2538
1	5
1	2538
1	2538
1	2538
1	18
1	2538
1	2538
1	2538
1	2538
1	2538
1	2538
1	2538
1	23
1	21
1	2538
1	2538
1	2538
1	2538
1	2538
1	2538
1	2538
1	2538
1	18
1	2538
1	2538
1	2538
1	2538
1	2539
1	2538
1	17
1	2538
1	2538
1	2538
1	2538
1	8
1	2538
1	2538
1	28
1	2538
1	2538
1	2538
1	19
1	2538
1	2538
1	2538
1	2538
1	21
1	2538
1	2538
1	2538
1	2539
1	2538
1	21
1	2538
1	2538
1	2538
1	16
1	2538
1	2538
1	2538
1	2538
1	2538
1	2538
1	2538
1	2538
1	2538
1	16
1	2538
1	2538
1	2538
1	2538
1	2538
1	2538
1	2538
1	13
1	2538
1	17
1	2538
1	2538
1	2538
1	2538
1	2538
1	2538
1	2538
1	2538
1	2538
1	2538
1	2538
1	2538
1	2538
1	2538
1	2538
1	2538
1	2538
1	2538
1	2538
1	2538
1	2538
1	18
1	13
1	2538
1	2538
1	2538
1	2538
1	11
1	2538
1	2538
1	28
1	2538
1	2538
1	2538
1	2538
1	2538
1	2538
1	2538
1	2538
1	2538
1	2538
1	12
1	10
1	2538
1	2538
1	2538
1	2538
1	2538
1	2538
1	2538
1	2538
1	2538
1	2538
1	16
1	14
1	2539
1	2538
1	17
1	2538
1	2538
1	2538
1	2538
1	12
1	2538
1	12
1	19
1	2538
1	2538
1	2538
1	2538
1	2538
1	9
1	12
1	2538
1	2538
1	2538
1	13
1	2538
1	2538
1	2538
1	2538
1	2538
1	2538
1	2538
1	14
1	2538
1	2538
1	2538
1	2538
1	2538
1	2538
1	2538
1	2538
1	14
1	2538
1	2538
1	2538
1	9
1	2539
1	11
1	2538
1	9
1	2538
1	2538
1	2538
1	2538
1	2538
1	2538
1	2538
1	2538
1	2538
1	8
1	2538
1	6
1	16
1	15
1	2538
1	2539
1	2538
1	2538
1	2538
1	2538
1	2538
1	17
1	13
1	2538
1	21
1	2538
1	2538
1	2538
1	2538
1	2538
1	2538
1	2538
1	9
1	20
1	2538
1	2538
1	2538
1	23
1	2538
1	2538
1	28
1	23
1	2538
1	2538
1	2538
1	2538
1	2538
1	2538
1	12
1	2538
1	2538
1	2538
1	2538
1	2538
1	2538
1	2538
1	2538
1	13
1	2538
1	2538
1	8
1	16
1	2538
1	2538
1	2538
1	17
1	2538
1	2538
1	2538
1	2538
1	17
1	2538
1	14
1	16
1	2538
1	2538
1	2538
1	2538
1	2538
1	2538
1	2538
1	2538
1	2538
1	13
1	2538
1	2538
1	20
1	2538
1	2538
1	2538
1	2538
1	2538
1	4
1	2538
1	2538
1	21
1	2538
1	2538
1	2538
1	2538
1	2538
1	13
1	2538
1	2538
1	28
1	2538
1	2538
1	2538
1	2538
1	2538
1	2538
1	9
1	17
1	2538
1	2538
1	2538
1	2538
1	2538
1	2538
1	2538
1	2539
1	2538
1	2538
1	2538
1	2538
1	2538
1	2538
1	2538
1	2538
1	7
1	12
1	2538
1	5
1	17
1	2538
1	2538
1	10
1	4
1	2538
1	14
1	2538
1	2538
1	2538
1	6124
1	7
1	2538
1	2538
1	2538
1	2538
1	18
1	2538
1	2538
1	7
1	10
1	2538
1	2538
1	2538
1	2538
1	2538
1	2538
1	2538
1	2538
1	2538
1	2538
1	2538
1	2538
1	8
1	2539
1	2538
1	2538
1	2538
1	2538
1	2538
1	2538
1	2538
1	2538
1	2538
1	2538
1	2538
1	2538
1	6
1	2538
1	2538
1	2538
1	7
1	2538
1	11
1	2538
1	2538
1	17
1	21
1	2538
1	2538
1	4
1	2538
1	2538
1	2538
1	28
1	2538
1	2538
1	2538
1	2538
1	2538
1	2538
1	2538
1	2538
1	2538
1	13
1	2538
1	2538
1	2538
1	2538
1	2538
1	2538
1	25
1	2538
1	2538
1	2538
1	8
1	2538
1	2538
1	2538
1	8
1	2538
1	19
1	2541
1	8
1	2538
1	2538
1	2538
1	2538
1	2538
1	2538
1	2538
1	2538
1	2538
1	2538
1	2538
1	21
1	2538
1	23
1	23
1	16
1	2538
1	11
1	20
1	9
1	2538
1	2538
1	2538
1	2540
1	2538
1	21
1	2538
1	2538
1	2538
1	2538
1	12
1	2538
1	2538
1	6
1	2538
1	18
1	2538
1	2538
1	2538
1	2538
1	2538
1	2538
1	2539
1	2538
1	12
1	18
1	2538
1	2538
1	2538
1	2538
1	2538
1	2538
1	6
1	2538
1	14
1	2538
1	2538
1	8
1	2538
1	2538
1	2538
1	2538
1	2538
1	2538
1	2538
1	2538
1	2538
1	17
1	12
1	17
1	2538
1	2538
1	2538
1	2538
1	2538
1	2538
1	2538
1	13
1	2538
1	2538
1	2538
1	2538
1	2538
1	2538
1	2538
1	2538
1	9
1	6124
1	2538
1	19
1	2538
1	2538
1	2538
1	12
1	2538
1	2538
1	2538
1	10
1	2538
1	2538
1	2538
1	28
1	2538
1	2538
1	2538
1	2538
1	2538
1	2538
1	12
1	2538
1	2538
1	2538
1	15
1	2538
1	13
1	2538
1	2538
1	2538
1	2538
1	2538
1	2538
1	2538
1	2538
1	2538
1	2538
1	2538
1	2539
1	19
1	11
1	2538
1	2538
1	2538
1	9
1	2538
1	2538
1	2538
1	2538
1	2538
1	2538
1	13
1	2538
1	2538
1	19
1	2538
1	2538
1	2538
1	2538
1	2538
1	2538
1	2538
1	19
1	18
1	2538
1	2538
1	2538
1	18
1	2538
1	2538
1	2538
1	2538
1	5
1	2538
1	2538
1	2538
1	2538
1	2538
1	10
1	25
1	2538
1	2538
1	2538
1	2538
1	6
1	8
1	8
1	2538
1	26
1	19
1	2538
1	2538
1	16
1	20
1	12
1	2538
1	2538
1	10
1	2538
1	2538
1	2
1	2538
1	2538
1	2538
1	9
1	2538
1	2538
1	2538
1	21
1	20
1	2538
1	2538
1	2538
1	2538
1	2538
1	2538
1	2538
1	2538
1	8
1	2538
1	2538
1	10
1	2538
1	15
1	2538
1	2538
1	2538
1	2538
1	2538
1	2538
1	2538
1	2538
1	2538
1	2538
1	17
1	12
1	2538
1	2538
1	9
1	2538
1	2538
1	2539
1	2538
1	2538
1	2538
1	2538
1	2538
1	16
1	2538
1	18
1	2538
1	2538
1	8
1	2538
1	2538
1	2538
1	2538
1	2538
1	2538
1	2538
1	2538
1	2538
1	2538
1	2538
1	11
1	8
1	2538
1	2538
1	2538
1	2538
1	2538
1	2538
1	2538
1	2538
1	6
1	13
1	15
1	4
1	2538
1	2538
1	2538
1	2538
1	2538
1	13
1	16
1	2538
1	2538
1	2538
1	2538
1	7
1	9
1	2538
1	2538
1	21
1	2538
1	2538
1	2538
1	2538
1	2538
1	2538
1	2538
1	2538
1	2538
1	5
1	8
1	7
1	2538
1	6124
1	2538
1	10
1	13
1	2538
1	2538
1	2538
1	2538
1	19
1	2539
1	2538
1	23
1	13
1	2538
1	2538
1	20
1	18
1	2538
1	2538
1	2538
1	2538
1	21
1	2538
1	2538
1	9
1	2538
1	2538
1	2538
1	2538
1	2538
1	2538
1	13
1	2538
1	2538
1	13
1	2538
1	2538
1	2538
1	2538
1	2538
1	2538
1	12
1	8
1	2538
1	2538
1	2538
1	2538
1	2538
1	2538
1	2538
1	2538
1	2538
1	2538
1	2538
1	2538
1	19
1	2538
1	2538
1	2538
1	2538
1	2538
1	2538
1	23
1	2538
1	11
1	2538
1	11
1	28
1	2538
1	2538
1	13
1	13
1	2538
1	2539
1	2538
1	2538
1	2538
1	2538
1	2538
1	9
1	2538
1	16
1	2538
1	2538
1	2538
1	2538
1	2538
1	2538
1	2538
1	2538
1	2538
1	15
1	2538
1	2538
1	2538
1	9
1	15
1	6
1	2538
1	2538
1	2538
1	2538
1	2538
1	2538
1	2538
1	2538
1	2538
1	8
1	5
1	2538
1	2538
1	2538
1	9
1	2538
1	2538
1	2538
1	2538
1	2538
1	11
1	2538
1	2538
1	2538
1	2538
1	2538
1	2538
1	2538
1	2538
1	14
1	2538
1	2538
1	2538
1	17
1	2538
1	2538
1	22
1	2538
1	13
1	2538
1	2538
1	6
1	2538
1	2538
1	2538
1	17
1	2538
1	2538
1	2538
1	2538
1	2538
1	2538
1	2538
1	2538
1	2538
1	2538
1	2538
1	2538
1	2538
1	2538
1	2538
1	2539
1	20
1	2538
1	2538
1	2538
1	2538
1	2538
1	2538
1	2538
1	2538
1	2538
1	2538
1	2538
1	2538
1	2538
1	2538
1	2538
1	2538
1	19
1	2538
1	4
1	2538
1	2538
1	25
1	15
1	9
1	2538
1	2538
1	2538
1	2538
1	2538
1	22
1	2538
1	11
1	9
1	2538
1	2538
1	2538
1	2538
1	6
1	2538
1	2538
1	9
1	2538
1	2538
1	2538
1	8
1	2538
1	16
1	2538
1	2538
1	23
1	25
1	2538
1	2538
1	2538
1	18
1	2538
1	19
1	12
1	2538
1	2538
1	2538
1	2538
1	23
1	2538
1	16
1	2538
1	2538
1	2538
1	13
1	17
1	2538
1	2538
1	2538
1	2538
1	2
1	2538
1	7
1	2538
1	2538
1	2538
1	2538
1	16
1	18
1	2538
1	2538
1	2538
1	15
1	2538
1	2538
1	2538
1	21
1	2538
1	23
1	2538
1	2538
1	2538
1	2538
1	2538
1	2538
1	2538
1	12
1	8
1	2538
1	2538
1	16
1	25
1	2538
1	8
1	2538
1	7
1	2538
1	2538
1	2538
1	11
1	22
1	2538
1	2538
1	17
1	10
1	2538
1	2538
1	2538
1	8
1	19
1	25
1	7
1	8
1	2538
1	2538
1	2538
1	2538
1	2538
1	2538
1	2538
1	20
1	2538
1	23
1	2538
1	10
1	4
1	2538
1	2538
1	2538
1	2538
1	2538
1	2538
1	2538
1	2538
1	2538
1	2538
1	2538
1	2538
1	2538
1	2538
1	2538
1	2538
1	2538
1	2538
1	2538
1	2538
1	2538
1	11
1	2538
1	2538
1	2538
1	10
1	2538
1	2538
1	6
1	2538
1	13
1	2538
1	2538
1	2538
1	2538
1	22
1	2538
1	2538
1	2538
1	2538
1	2538
1	2538
1	2538
1	2538
1	2538
1	11
1	2538
1	2538
1	2538
1	2538
1	9
1	18
1	2538
1	2538
1	2538
1	20
1	2538
1	2538
1	2538
1	2538
1	2538
1	2538
1	20
1	12
1	2538
1	2538
1	2538
1	2538
1	12
1	2538
1	25
1	2538
1	2538
1	16
1	2538
1	2539
1	17
1	2538
1	2538
1	2538
1	2538
1	2538
1	2538
1	2538
1	2538
1	2538
1	2538
1	2538
1	23
1	2538
1	2538
1	2538
1	2538
1	2538
1	2538
1	2538
1	2538
1	2538
1	9
1	2538
1	8
1	2538
1	2538
1	2538
1	10
1	2538
1	2538
1	2538
1	2538
1	2538
1	6
1	7
1	2538
1	2538
1	2538
1	2538
1	2538
1	2538
1	2538
1	2538
1	2538
1	13
1	13
1	2538
1	2538
1	2538
1	2538
1	2538
1	2538
1	9
1	2538
1	2538
1	2538
1	2538
1	2538
1	2538
1	20
1	2538
1	2538
1	2538
1	2538
1	2538
1	2538
1	2538
1	2538
1	2538
1	2538
1	8
1	2538
1	2538
1	2538
1	9
1	28
1	2538
1	2538
1	2538
1	2538
1	9
1	2538
1	2538
1	2538
1	15
1	2538
1	2538
1	2538
1	2538
1	2538
1	2538
1	2538
1	2538
1	2538
1	2538
1	2538
1	2538
1	2538
1	5
1	2538
1	2538
1	2538
1	2538
1	12
1	2538
1	11
1	2538
1	28
1	15
1	2538
1	20
1	2538
1	2538
1	2538
1	2538
1	2538
1	17
1	2538
1	2538
1	2538
1	2538
1	4
1	2538
1	18
1	2538
1	2538
1	2538
1	2538
1	2539
1	8
1	2538
1	7
1	2538
1	2538
1	2538
1	2538
1	2538
1	2538
1	2538
1	21
1	2538
1	2538
1	2538
1	17
1	2538
1	2538
1	2538
1	2538
1	20
1	2538
1	6
1	2538
1	2538
1	2538
1	25
1	18
1	2538
1	2538
1	2538
1	2538
1	2538
1	2538
1	2538
1	2538
1	9
1	2539
1	2538
1	2538
1	2538
1	13
1	16
1	2538
1	9
1	2538
1	2538
1	2538
1	2538
1	2538
1	2538
1	2538
1	2538
1	2538
1	2538
1	18
1	2538
1	2538
1	2538
1	2538
1	2538
1	2538
1	2538
1	2538
1	2538
1	13
1	2538
1	10
1	18
1	2538
1	2538
1	2538
1	2538
1	2538
1	8
1	2538
1	2538
1	2538
1	2538
1	2538
1	2538
1	16
1	2538
1	2538
1	2538
1	2538
1	2538
1	2538
1	19
1	2538
1	2538
1	2538
1	2538
1	2538
1	7
1	2538
1	12
1	2538
1	2538
1	2538
1	2538
1	10
1	2538
1	2538
1	2538
1	16
1	2538
1	2538
1	2538
1	15
1	2538
1	10
1	2538
1	2538
1	2538
1	2538
1	2538
1	2538
1	2538
1	13
1	2538
1	2538
1	2538
1	13
1	2538
1	2538
1	2538
1	7
1	2538
1	2539
1	2538
1	11
1	2538
1	2538
1	2538
1	2538
1	8
1	2538
1	2538
1	2538
1	2538
1	2539
1	2538
1	28
1	21
1	2538
1	6
1	2538
1	2538
1	6
1	2538
1	2538
1	11
1	18
1	19
1	2538
1	6124
1	2538
1	2538
1	9
1	11
1	2538
1	2538
1	18
1	2538
1	2538
1	13
1	2538
1	2538
1	12
1	2538
1	8
1	9
1	2538
1	2538
1	2538
1	2538
1	2538
1	2538
1	2538
1	2538
1	2538
1	18
1	9
1	2538
1	2538
1	20
1	2538
1	11
1	2538
1	2538
1	8
1	2538
1	7
1	2538
1	22
1	13
1	2538
1	2538
1	4
1	2538
1	2538
1	2538
1	2538
1	2538
1	12
1	2538
1	2538
1	11
1	2538
1	9
1	12
1	2538
1	23
1	2538
1	2538
1	6
1	2538
1	2538
1	2538
1	2538
1	19
1	8
1	8
1	2538
1	2538
1	2538
1	12
1	2538
1	2538
1	2538
1	13
1	2538
1	14
1	2538
1	2538
1	2538
1	14
1	2538
1	2538
1	13
1	2538
1	8
1	2538
1	2538
1	2538
1	2538
1	2538
1	2538
1	2538
1	2538
1	14
1	2538
1	2538
1	2538
1	2538
1	14
1	2539
1	2538
1	2538
1	18
1	2538
1	2538
1	15
1	2538
1	14
1	2538
1	2538
1	2538
1	2538
1	2538
1	2538
1	2538
1	5
1	2538
1	2538
1	2538
1	2538
1	6
1	2538
1	2538
1	2539
1	2538
1	2538
1	2538
1	2538
1	2538
1	2538
1	17
1	16
1	2538
1	2538
1	2538
1	2538
1	2538
1	11
1	2538
1	2539
1	2538
1	18
1	11
1	2538
1	2538
1	2538
1	2538
1	19
1	2538
1	2538
1	9
1	28
1	2538
1	2538
1	2538
1	8
1	2538
1	2538
1	10
1	2538
1	9
1	2538
1	17
1	2538
1	2538
1	2538
1	12
1	13
1	2538
1	2538
1	2538
1	2538
1	2538
1	2538
1	11
1	2538
1	2538
1	2538
1	18
1	2538
1	2
1	17
1	18
1	2538
1	20
1	2538
1	2538
1	2538
1	2538
1	2538
1	2538
1	2538
1	13
1	2538
1	2538
1	17
1	2538
1	9
1	2538
1	18
1	2538
1	10
1	2538
1	2538
1	2538
1	2538
1	13
1	2538
1	2538
1	2538
1	2538
1	2538
1	2538
1	2538
1	6
1	2538
1	2538
1	2538
1	2538
1	2538
1	4
1	2538
1	2538
1	2538
1	2538
1	8
1	16
1	2538
1	2538
1	20
1	2538
1	2538
1	21
1	17
1	2538
1	16
1	18
1	2538
1	17
1	11
1	2538
1	2538
1	2538
1	2538
1	9
1	2538
1	2538
1	21
1	2539
1	2538
1	2538
1	2538
1	2538
1	2538
1	6
1	9
1	2538
1	2538
1	17
1	2538
1	12
1	2538
1	2538
1	2538
1	2538
1	2538
1	2538
1	15
1	6
1	24
1	2538
1	6
1	2538
1	2538
1	2538
1	4
1	2538
1	2538
1	2538
1	2538
1	20
1	2538
1	2538
1	2538
1	12
1	2538
1	25
1	2538
1	11
1	2538
1	2538
1	8
1	2538
1	2538
1	2538
1	13
1	2538
1	2538
1	2538
1	10
1	2538
1	14
1	2538
1	2538
1	2538
1	2538
1	6
1	2538
1	2538
1	2538
1	2538
1	7
1	2538
1	2538
1	2538
1	2538
1	9
1	20
1	17
1	16
1	2538
1	2538
1	2538
1	2538
1	2538
1	2538
1	2538
1	2538
1	18
1	2538
1	2538
1	2538
1	2538
1	2538
1	17
1	2538
1	2538
1	2538
1	2538
1	22
1	2538
1	2538
1	2538
1	2538
1	2538
1	2538
1	2538
1	2538
1	2538
1	2
1	2539
1	2538
1	2538
1	2538
1	2538
1	2538
1	2538
1	2538
1	2538
1	2538
1	2538
1	2538
1	2538
1	2538
1	2538
1	2538
1	2538
1	2538
1	2538
1	2538
1	18
1	2
1	2538
1	2538
1	2538
1	2538
1	6
1	2538
1	2538
1	2538
1	2538
1	2538
1	15
1	2538
1	5
1	10
1	2538
1	2538
1	2538
1	2538
1	2538
1	2538
1	21
1	2538
1	2538
1	2538
1	9
1	2538
1	2538
1	4
1	2538
1	2538
1	2538
1	9
1	2538
1	2538
1	2538
1	2538
1	2538
1	2538
1	7
1	2538
1	2538
1	6
1	2538
1	4
1	2538
1	10
1	2538
1	21
1	2538
1	2538
1	2538
1	2538
1	2538
1	2538
1	10
1	20
1	2538
1	2538
1	2538
1	2538
1	22
1	2538
1	8
1	19
1	2538
1	2538
1	2538
1	8
1	12
1	2538
1	2538
1	17
1	18
1	20
1	2538
1	2538
1	13
1	2538
1	13
1	2538
1	15
1	2538
1	2538
1	2538
1	2538
1	12
1	2538
1	2538
1	5
1	2539
1	2538
1	2538
1	2538
1	2538
1	17
1	2538
1	2538
1	2538
1	17
1	9
1	2538
1	2538
1	2538
1	2538
1	2538
1	22
1	2538
1	13
1	2538
1	2538
1	2538
1	12
1	2538
1	2538
1	23
1	2538
1	18
1	2538
1	2538
1	2538
1	18
1	2538
1	4
1	18
1	9
1	2538
1	2538
1	23
1	6
1	2538
1	6
1	20
1	2538
1	2538
1	2538
1	2538
1	2538
1	2538
1	16
1	2538
1	2538
1	2538
1	2538
1	2538
1	2538
1	2538
1	2538
1	2538
1	2538
1	14
1	2538
1	2538
1	2538
1	8
1	7
1	2538
1	2538
1	2538
1	2538
1	2538
1	2538
1	12
1	2538
1	12
1	2538
1	2538
1	2538
1	2538
1	2538
1	2538
1	4
1	2538
1	2538
1	2538
1	2538
1	25
1	2538
1	29
1	7
1	2538
1	2538
1	2538
1	2539
1	2538
1	6
1	2538
1	2538
1	23
1	11
1	10
1	10
1	2538
1	2538
1	9
1	8
1	16
1	18
1	2538
1	2538
1	5
1	8
1	2538
1	2538
1	2538
1	2538
1	5
1	2538
1	2538
1	2538
1	2538
1	2538
1	2538
1	10
1	2538
1	2538
1	20
1	12
1	2538
1	7
1	2539
1	8
1	2538
1	2538
1	9
1	2538
1	7
1	10
1	2538
1	2538
1	2538
1	2538
1	2538
1	2538
1	2538
1	2538
1	2538
1	2538
1	2538
1	2538
1	2538
1	2538
1	2538
1	2538
1	2538
1	2
1	13
1	2538
1	2538
1	2538
1	2538
1	2538
1	13
1	2538
1	2538
1	2538
1	9
1	2538
1	2538
1	2538
1	17
1	18
1	2538
1	2538
1	9
1	2538
1	2538
1	2538
1	2538
1	2538
1	9
1	2538
1	2538
1	2538
1	11
1	20
1	2538
1	4
1	2538
1	5
1	2538
1	4
1	2538
1	2538
1	2538
1	23
1	2538
1	8
1	2538
1	18
1	2538
1	2538
1	2538
1	12
1	2538
1	2538
1	12
1	2538
1	2538
1	16
1	6
1	2538
1	2538
1	2538
1	2538
1	6
1	19
1	2538
1	2538
1	2538
1	2538
1	2538
1	2538
1	2538
1	10
1	2538
1	2538
1	18
1	2538
1	2538
1	20
1	2538
1	2538
1	2538
1	2538
1	2538
1	2538
1	2538
1	13
1	2538
1	2538
1	2538
1	2538
1	2538
1	2538
1	2538
1	16
1	2538
1	2538
1	2538
1	2538
1	2538
1	2538
1	2539
1	2538
1	2538
1	2538
1	2538
1	13
1	2538
1	5
1	2538
1	2538
1	9
1	2538
1	2538
1	17
1	2538
1	10
1	2538
1	2538
1	11
1	10
1	2538
1	15
1	13
1	23
1	9
1	18
1	21
1	2538
1	2538
1	2538
1	2538
1	5
1	2538
1	2538
1	2538
1	2538
1	7
1	2538
1	17
1	2538
1	2538
1	6
1	8
1	2538
1	6
1	2538
1	2538
1	2538
1	2538
1	13
1	2538
1	2538
1	2538
1	2538
1	2538
1	2538
1	2538
1	2538
1	2538
1	2538
1	2538
1	2538
1	6
1	2538
1	23
1	2538
1	2538
1	2538
1	2538
1	2538
1	2538
1	2538
1	2538
1	2538
1	8
1	2538
1	12
1	2538
1	2538
1	2538
1	2538
1	2538
1	2538
1	2538
1	2538
1	16
1	2538
1	2538
1	11
1	18
1	2538
1	2538
1	2538
1	2538
1	2538
1	2538
1	2538
1	2538
1	2538
1	2538
1	2538
1	2538
1	2538
1	2538
1	2538
1	2538
1	28
1	2538
1	2538
1	2538
1	2538
1	2538
1	2538
1	2538
1	8
1	2538
1	2538
1	2538
1	10
1	2538
1	2538
1	2538
1	2538
1	5
1	2538
1	2538
1	2538
1	6
1	2538
1	6
1	16
1	2538
1	2538
1	2538
1	2538
1	2538
1	2538
1	2538
1	2538
1	5
1	2538
1	2538
1	16
1	2538
1	2538
1	2538
1	2538
1	14
1	2538
1	2538
1	2538
1	2538
1	2538
1	17
1	19
1	2538
1	2538
1	2538
1	2538
1	2539
1	2538
1	8
1	2538
1	2538
1	2538
1	2538
1	2538
1	2538
1	2538
1	2
1	16
1	2538
1	2538
1	2538
1	2538
1	16
1	2538
1	2538
1	2538
1	2538
1	2538
1	15
1	12
1	2538
1	2538
1	2538
1	2538
1	2538
1	2538
1	2538
1	2538
1	2539
1	2538
1	2538
1	17
1	2538
1	2538
1	2538
1	12
1	2538
1	2538
1	2538
1	2538
1	2538
1	2538
1	2538
1	16
1	8
1	2538
1	18
1	2538
1	17
1	5
1	23
1	2538
1	2538
1	2538
1	2538
1	12
1	2538
1	2538
1	2538
1	2538
1	2538
1	23
1	2538
1	8
1	2538
1	2538
1	2538
1	2538
1	2538
1	15
1	2538
1	7
1	2538
1	2538
1	2539
1	2538
1	5
1	19
1	2538
1	12
1	2538
1	2538
1	2538
1	2538
1	18
1	2538
1	2538
1	2538
1	12
1	2538
1	2538
1	2538
1	2538
1	2538
1	2538
1	2538
1	16
1	2538
1	2538
1	2538
1	2538
1	2538
1	2538
1	2538
1	2538
1	2538
1	20
1	23
1	2538
1	2538
1	2538
1	2538
1	5
1	2538
1	23
1	2538
1	2538
1	2538
1	17
1	2538
1	2538
1	18
1	2538
1	2538
1	2538
1	2538
1	2538
1	10
1	2538
1	2538
1	10
1	2538
1	2538
1	2538
1	2538
1	2538
1	7
1	11
1	6
1	17
1	2539
1	8
1	2538
1	2538
1	2538
1	2538
1	2538
1	18
1	2538
1	8
1	6
1	2538
1	2538
1	2538
1	2538
1	2538
1	2538
1	2538
1	2538
1	2538
1	8
1	2538
1	2538
1	18
1	2538
1	7
1	2538
1	2538
1	2538
1	2538
1	8
1	2538
1	2538
1	2538
1	2538
1	2538
1	2538
1	20
1	2538
1	2538
1	2538
1	2538
1	2538
1	2538
1	2538
1	9
2	6
2	7
2	17
2	20
2	3
2	3
2	3
2	15
2	2539
2	7
2	7
2	16
2	3
2	6
2	3
2	7
2	5
2	29
2	3
2	17
2	2539
2	12
2	8
2	14
2	4
2	10
2	7
2	2539
2	18
2	2539
2	10
2	8
2	4
2	3
2	5
2	3
2	18
2	17
2	3
2	7
2	19
2	5
2	3
2	4
2	3
2	8
2	7
2	9
2	3
2	3
2	3
2	7
2	3
2	5
2	7
2	16
2	6
2	3
2	6
2	12
2	3
2	2539
2	3
2	9
2	10
2	3
2	8
2	4
2	5
2	10
2	7
2	3
2	6
2	7
2	3
2	9
2	7
2	13
2	12
2	3
2	3
2	13
2	8
2	6
2	3
2	24
2	9
2	16
2	3
2	3
2	5
2	4
2	3
2	3
2	10
2	4
2	3
2	3
2	2539
2	4
2	4
2	6
2	4
2	7
2	3
2	7
2	4
2	6
2	3
2	14
2	21
2	3
2	19
2	5
2	3
2	3
2	3
2	7
2	22
2	5
2	3
2	5
2	2539
2	4
2	3
2	6
2	22
2	7
2	3
2	6
2	9
2	3
2	3
2	3
2	3
2	3
2	11
2	3
2	26
2	3
2	5
2	4
2	14
2	4
2	3
2	18
2	4
2	3
2	3
2	5
2	12
2	12
2	3
2	12
2	9
2	4
2	4
2	4
2	3
2	2539
2	5
2	6
2	4
2	4
2	3
2	12
2	9
2	5
2	24
2	7
2	8
2	3
2	10
2	7
2	10
2	4
2	4
2	13
2	3
2	18
2	3
2	5
2	7
2	4
2	16
2	6
2	2540
2	3
2	3
2	3
2	7
2	3
2	3
2	3
2	9
2	5
2	22
2	3
2	21
2	2539
2	4
2	6
2	9
2	3
2	4
2	3
2	5
2	5
2	4
2	7
2	5
2	3
2	4
2	3
2	20
2	4
2	7
2	19
2	20
2	7
2	2539
2	4
2	9
2	6
2	4
2	22
2	2539
2	21
2	5
2	7
2	3
2	3
2	3
2	6
2	3
2	17
2	4
2	6
2	4
2	4
2	19
2	18
2	3
2	6
2	3
2	5
2	9
2	4
2	18
2	3
2	5
2	2539
2	3
2	6
2	3
2	11
2	4
2	3
2	5
2	9
2	8
2	3
2	9
2	12
2	6
2	3
2	7
2	3
2	3
2	6
2	4
2	3
2	3
2	3
2	6
2	10
2	8
2	3
2	3
2	4
2	3
2	3
2	17
2	4
2	4
2	3
2	4
2	7
2	4
2	3
2	3
2	4
2	3
2	3
2	9
2	7
2	7
2	3
2	9
2	3
2	3
2	7
2	11
2	3
2	3
2	4
2	5
2	3
2	4
2	9
2	3
2	4
2	9
2	12
2	3
2	3
2	4
2	3
2	5
2	9
3	4
3	4
3	4
3	4
3	4
3	4
3	5
3	4
3	4
3	5
3	5
3	10
3	10
3	4
3	4
3	4
3	4
3	4
3	4
3	4
3	4
3	6
3	4
3	4
3	5
3	4
3	7
3	4
3	4
3	4
3	4
3	5
3	5
3	4
3	4
3	5
3	5
3	5
3	5
3	4
3	4
3	5
3	4
3	12
3	6
3	5
3	5
3	4
3	4
3	11
3	4
3	5
3	5
3	5
3	5
3	5
3	5
3	4
3	4
3	5
3	9
3	5
3	4
3	4
3	4
3	4
3	4
3	5
3	11
3	5
3	5
3	7
3	4
3	4
3	4
3	4
3	4
3	4
3	5
3	6
3	4
3	4
3	5
3	6
4	6
4	7
4	5
4	5
4	7
4	5
4	5
4	6
4	5
4	5
4	5
4	5
4	6
4	5
4	5
4	5
4	9
4	5
4	5
4	6
4	5
4	5
4	6
4	6
4	5
4	5
4	5
4	10
4	5
4	5
4	6
4	5
4	6
4	5
4	6
4	7
4	5
4	5
4	5
4	5
4	5
4	6
4	6
4	5
4	5
4	5
4	5
4	5
4	6
4	5
4	7
4	5
5	6
5	6
5	7
5	6
5	9
5	9
5	6
5	6
5	6
5	6
5	6
5	6
5	6
5	6
5	6
5	6
5	6
5	12
5	7
5	6
5	7
5	6
5	6
5	6
5	6
5	6
5	6
5	6
5	6
5	6
5	7
5	6
5	6
6	7
6	7
6	7
6	7
6	8
6	7
6	7
6	7
6	7
6	7
6	7
6	7
7	8
7	8
7	8
7	8
7	8
7	8
7	8
7	8
7	8
7	8
7	8
7	8
7	8
7	8
7	8
7	8
7	8
8	9
8	9
8	9
8	9
8	9
8	9
8	9
8	9
8	9
8	9
9	10
9	10
9	10
9	10
9	13
9	10
9	10
10	11
10	11
10	11
10	11
10	12
10	11
10	11
10	11
11	12
11	12
11	12
11	12
11	12
11	12
12	13
12	13
12	13
12	13
12	13
12	13
12	13
12	13
12	13
13	14
13	14
14	15
14	15
15	16
15	16
15	16
15	16
15	16
16	17
16	17
16	17
16	17
16	17
17	18
17	18
17	18
17	18
17	18
18	19
18	19
18	19
19	20
19	20
19	20
20	21
20	21
21	22
22	23
22	23
24	25
27	28
2537	2538
