1	6124
1	483
1	18
1	16
1	482
1	11
1	23
1	12
1	482
1	43
1	482
1	23
1	12
1	482
1	16
1	11
1	12
1	482
1	12
1	11
1	15
1	43
1	482
1	14
1	13
1	28
1	16
1	32
1	26
1	12
1	12
1	14
1	19
1	482
1	20
1	482
1	482
1	482
1	482
1	482
1	18
1	482
1	16
1	12
1	22
1	27
1	37
1	29
1	12
1	24
1	12
1	482
1	11
1	14
1	483
1	14
1	19
1	13
1	43
1	8
1	11
1	25
1	17
1	482
1	482
1	482
1	21
1	13
1	482
1	40
1	13
1	19
1	482
1	18
1	15
1	11
1	10
1	28
1	12
1	482
1	482
1	11
1	482
1	18
1	9
1	10
1	11
1	10
1	11
1	482
1	12
1	482
1	29
1	482
1	17
1	7
1	25
1	14
1	482
1	19
1	15
1	18
1	482
1	16
1	482
1	26
1	482
1	482
1	23
1	11
1	482
1	17
1	482
1	18
1	9
1	19
1	7
1	16
1	482
1	17
1	482
1	28
1	10
1	17
1	12
1	482
1	28
1	10
1	482
1	16
1	10
1	482
1	16
1	21
1	16
1	28
1	484
1	9
1	11
1	12
1	14
1	14
1	23
1	21
1	13
1	10
1	17
1	27
1	8
1	42
1	14
1	482
1	21
1	33
1	10
1	36
1	19
1	36
1	18
1	10
1	31
1	16
1	20
1	13
1	7
1	482
1	25
1	13
1	482
1	482
1	11
1	10
1	482
1	19
1	28
1	482
1	12
1	36
1	482
1	9
1	24
1	20
1	482
1	18
1	482
1	14
1	482
1	482
1	31
1	9
1	16
1	19
1	26
1	17
1	482
1	23
1	21
1	9
1	33
1	482
1	21
1	482
1	9
1	10
1	10
1	12
1	26
1	16
1	482
1	484
1	482
1	482
1	11
1	9
1	11
1	17
1	16
1	13
1	12
1	20
1	10
1	25
1	482
1	12
1	482
1	14
1	9
1	28
1	32
1	11
1	20
1	17
1	16
1	18
1	482
1	16
1	16
1	8
1	12
1	27
1	13
1	20
1	18
1	484
1	482
1	11
1	19
1	14
1	11
1	483
1	20
1	21
1	15
1	13
1	14
1	25
1	25
1	482
1	29
1	482
1	11
1	11
1	17
1	8
1	20
1	27
1	14
1	482
1	18
1	13
1	6
1	482
1	14
1	42
1	482
1	13
1	482
1	10
1	482
1	4
1	13
1	10
1	8
1	17
1	482
1	8
1	36
1	20
1	26
1	484
1	14
1	482
1	17
1	482
1	13
1	7
1	482
1	27
1	10
1	482
1	482
1	11
1	12
1	11
1	10
1	10
1	19
1	4
1	14
1	9
1	9
1	11
1	25
1	482
1	482
1	11
1	11
1	16
1	18
1	28
1	482
1	10
1	22
1	11
1	8
1	4
1	19
1	482
1	482
1	482
1	11
1	11
1	23
1	482
1	18
1	482
1	22
1	22
1	482
1	18
1	11
1	25
1	18
1	12
1	9
1	11
1	482
1	31
1	25
1	482
1	11
1	10
1	12
1	42
1	6
1	482
1	17
1	482
1	8
1	14
1	16
1	16
1	17
1	26
1	482
1	12
1	22
1	18
1	482
1	483
1	16
1	10
1	482
1	21
1	482
1	18
1	19
1	31
1	482
1	482
1	23
1	482
1	482
1	482
1	483
1	16
1	16
1	482
1	10
1	13
1	17
1	17
1	18
1	8
1	14
1	482
1	19
1	6
1	10
1	482
1	482
1	18
1	482
1	482
1	482
1	482
1	14
1	42
1	9
1	13
1	482
1	483
1	17
1	20
1	36
1	13
1	10
1	11
1	9
1	9
1	16
1	17
1	482
1	482
1	6
1	21
1	17
1	7
1	18
1	11
1	7
1	6124
1	10
1	36
1	482
1	482
1	482
1	5
1	25
1	482
1	482
1	31
1	13
1	32
1	482
1	8
1	7
1	23
1	17
1	482
1	11
1	11
1	11
1	482
1	18
1	22
1	22
1	16
1	10
1	9
1	11
1	482
1	17
1	26
1	4
1	21
1	9
1	11
1	482
1	482
1	4
1	28
1	4
1	8
1	482
1	8
1	7
1	6
1	8
1	16
1	7
1	22
1	482
1	482
1	8
1	482
1	482
1	8
1	482
1	482
1	6
1	482
1	6
1	482
1	7
1	13
1	19
1	10
1	15
1	482
1	482
1	8
1	21
1	482
1	22
1	31
1	36
1	482
1	482
1	9
1	482
1	482
1	17
1	482
1	14
1	5
1	12
1	4
1	18
1	32
1	11
1	482
1	482
1	42
1	21
1	8
1	14
1	9
1	482
1	18
1	17
1	13
1	10
1	482
1	18
1	482
1	9
1	482
1	26
1	19
1	9
1	482
1	17
1	27
1	13
1	26
1	27
1	9
1	42
1	482
1	483
1	26
1	27
1	482
1	17
1	8
1	21
1	22
1	10
1	482
1	17
1	18
1	17
1	17
1	8
1	11
1	16
1	26
1	8
1	25
1	483
1	42
1	28
1	482
1	20
1	8
1	15
1	8
1	10
1	7
1	482
1	11
1	12
1	27
1	11
1	42
1	17
1	482
1	16
1	482
1	482
1	14
1	482
1	28
1	15
1	14
1	12
1	24
1	26
1	482
1	20
1	482
1	12
1	9
1	482
1	19
1	482
1	11
1	482
1	6124
1	17
1	8
1	10
1	9
1	8
1	482
1	482
1	9
1	482
1	16
1	482
1	16
1	482
1	42
1	17
1	13
1	7
1	13
1	18
1	25
1	6
1	6124
1	26
1	482
1	31
1	17
1	482
1	15
1	9
1	482
1	9
1	482
1	8
1	16
1	482
1	20
1	482
1	14
1	482
1	6
1	15
1	7
1	7
1	482
1	482
1	20
1	8
1	12
1	12
1	11
1	9
1	9
1	9
1	19
1	8
1	13
1	22
1	482
1	42
1	482
1	42
1	15
1	482
1	11
1	11
1	14
1	16
1	8
1	16
1	482
1	27
1	11
1	7
1	18
1	11
1	5
1	42
1	7
1	482
1	9
1	9
1	482
1	10
1	482
1	5
1	9
1	12
1	14
1	7
1	16
1	483
1	12
1	19
1	482
1	482
1	483
1	10
1	482
1	11
1	11
1	13
1	8
1	22
1	16
1	17
1	9
1	2
1	6
1	482
1	16
1	11
1	27
1	6
1	12
1	16
1	13
1	482
1	36
1	8
1	6
1	25
1	10
1	12
1	9
1	17
1	8
1	482
1	482
1	27
1	6
1	8
1	5
1	482
1	11
1	14
1	8
1	12
1	483
1	11
1	10
1	32
1	12
1	11
1	7
1	10
1	23
1	23
1	482
1	482
1	15
1	482
1	9
1	482
1	482
1	31
1	28
1	28
1	20
1	11
1	482
1	13
1	8
1	482
1	482
1	15
1	21
1	17
1	36
1	5
1	21
1	18
1	14
1	28
1	18
1	14
1	25
1	482
1	25
1	14
1	19
1	18
1	22
1	6
1	5
1	26
1	36
1	23
1	7
1	36
1	7
1	482
1	25
1	11
1	7
1	10
1	18
1	14
1	7
1	11
1	16
1	11
1	482
1	16
1	10
1	9
1	6
1	9
1	9
1	11
1	22
1	16
1	14
1	14
1	9
1	17
1	2
1	18
1	12
1	18
1	19
1	10
1	482
1	9
1	482
1	43
1	482
1	29
1	9
1	18
1	26
1	32
1	12
1	482
1	482
1	482
1	482
1	482
1	31
1	482
1	9
1	42
1	42
1	482
1	42
1	8
1	18
1	4
1	9
1	482
1	16
1	18
1	13
1	13
1	482
1	9
1	6
1	10
1	42
1	483
1	18
1	482
1	9
1	483
1	483
1	8
1	11
1	27
1	42
1	482
1	482
1	482
1	482
1	482
1	14
1	11
1	14
1	482
1	482
1	19
1	10
1	31
1	17
1	27
1	482
1	482
1	482
1	8
1	19
1	12
1	11
1	10
1	14
1	18
1	9
1	482
1	6
1	22
1	482
1	14
1	482
1	11
1	12
1	6
1	12
1	28
1	22
1	18
1	9
1	16
1	18
1	25
1	25
1	20
1	9
1	482
1	9
1	9
1	483
1	14
1	6
1	482
1	14
1	11
1	482
1	482
1	14
1	10
1	482
1	482
1	14
1	483
1	9
1	482
1	12
1	9
1	31
1	483
1	482
1	25
1	483
1	22
1	482
1	4
1	482
1	17
1	23
1	8
1	482
1	17
1	5
1	12
1	482
1	24
1	32
1	8
1	12
1	482
1	5
1	14
1	17
1	482
1	482
1	482
1	9
1	24
1	28
1	16
1	482
1	482
1	482
1	31
1	25
1	13
1	13
1	482
1	12
1	21
1	482
1	32
1	16
1	12
1	27
1	482
1	42
1	482
1	17
1	14
1	482
1	14
1	482
1	22
1	23
1	483
1	482
1	12
1	9
1	9
1	7
1	9
1	7
1	9
1	28
1	18
1	18
1	11
1	9
1	12
1	482
1	13
1	14
1	11
1	28
1	19
1	22
1	482
1	17
1	9
1	32
1	482
1	22
1	22
1	9
1	14
1	9
1	482
1	11
1	482
1	6
1	11
1	10
1	11
1	11
1	27
1	482
1	5
1	19
1	482
1	482
1	483
1	7
1	14
1	18
1	36
1	482
1	14
1	2
1	482
1	31
1	9
1	19
1	15
1	17
1	9
1	12
1	8
1	8
1	19
1	13
1	482
1	11
1	8
1	9
1	4
1	482
1	21
1	482
1	17
1	20
1	13
1	14
1	10
1	16
1	14
1	17
1	482
1	482
1	23
1	482
1	25
1	13
1	20
1	27
1	482
1	16
1	18
1	13
1	12
1	482
1	482
1	25
1	482
1	482
1	10
1	10
1	482
1	37
1	7
1	27
1	5
1	482
1	482
1	7
1	7
1	13
1	22
1	5
1	32
1	6124
1	16
1	5
1	7
1	482
1	6
1	8
1	10
1	482
1	13
1	14
1	482
1	33
1	7
1	37
1	10
1	16
1	32
1	16
1	36
1	27
1	17
1	482
1	42
1	13
1	14
1	482
1	15
1	16
1	482
1	32
1	482
1	25
1	482
1	9
1	482
1	482
1	483
1	16
1	10
1	13
1	13
1	4
1	6
1	5
1	2
1	482
1	4
1	482
1	483
1	21
1	36
1	12
1	27
1	4
1	42
1	22
1	8
1	6
1	12
1	16
1	482
1	482
1	14
1	22
1	20
1	20
1	42
1	13
1	17
1	482
1	12
1	10
1	6
1	482
1	482
1	5
1	22
1	11
1	482
1	482
1	17
1	18
1	9
1	32
1	8
1	482
1	27
1	7
1	482
1	10
1	10
1	482
1	9
1	5
1	16
1	482
1	17
1	4
1	14
1	10
1	13
1	27
1	7
1	27
1	482
1	9
1	14
1	27
1	482
1	23
1	8
1	6
1	482
1	12
1	15
1	482
1	18
1	5
1	16
1	16
1	482
1	10
1	482
1	22
1	16
1	8
1	482
1	26
1	482
1	482
1	20
1	4
1	15
1	5
1	28
1	7
1	7
1	482
1	482
1	17
1	5
1	482
1	6
1	8
1	18
1	32
1	483
1	6
1	17
1	10
1	482
1	482
1	482
1	482
2	13
2	483
2	12
2	11
2	19
2	37
2	15
2	10
2	3
2	15
2	3
2	6
2	43
2	9
2	3
2	4
2	15
2	3
2	5
2	10
2	12
2	10
2	4
2	18
2	12
2	3
2	10
2	6
2	3
2	6
2	10
2	3
2	4
2	23
2	4
2	483
2	4
2	10
2	10
2	7
2	7
2	6
2	3
2	3
2	11
2	23
2	17
2	23
2	3
2	7
2	3
2	3
2	12
2	17
2	3
2	3
2	14
2	13
2	10
2	11
2	6
2	10
2	3
2	6
2	7
2	10
2	4
2	3
2	3
2	9
2	5
2	5
2	3
2	3
2	10
2	9
2	17
2	7
2	3
2	14
2	9
2	5
2	28
2	3
2	5
2	9
2	5
2	3
2	3
2	7
2	8
2	11
2	3
2	3
2	18
2	11
2	10
2	7
2	9
2	13
2	29
2	8
2	11
2	7
2	7
2	3
2	7
2	5
2	3
2	7
2	17
2	6
2	6
2	9
2	9
2	4
2	10
2	3
2	4
2	10
2	9
2	3
2	11
2	4
2	8
2	10
2	7
2	3
2	8
2	3
2	6
2	7
2	17
2	7
2	23
2	9
2	17
2	12
2	5
2	11
2	6
2	8
2	20
2	3
2	10
2	8
2	4
2	8
2	3
2	13
2	13
2	4
2	4
2	4
2	8
2	12
2	3
2	5
2	3
2	3
2	12
2	9
2	4
2	4
2	4
2	11
2	3
2	6
2	6
2	8
2	10
2	3
2	5
2	3
2	7
2	17
2	11
2	4
2	483
2	3
2	7
2	3
2	4
2	3
2	12
2	5
2	3
2	10
2	3
2	6
2	10
2	3
2	5
2	5
2	3
2	4
2	6
2	10
2	3
2	3
2	3
2	13
2	4
2	483
2	9
2	4
2	3
2	3
2	4
2	4
2	3
2	5
2	10
2	4
2	9
2	10
2	4
2	6
2	11
2	14
2	3
2	9
2	4
2	15
2	10
2	3
2	4
2	5
2	4
2	7
2	4
2	11
2	7
2	4
2	4
2	5
2	9
2	4
2	7
2	16
2	4
2	3
2	4
2	9
2	5
2	7
2	3
2	4
2	10
2	28
2	7
2	3
2	6
2	9
2	4
2	8
2	3
2	9
2	4
2	8
2	3
2	4
2	4
2	7
2	13
2	6
2	4
2	3
2	17
2	3
2	3
2	7
2	7
2	3
2	3
2	8
2	8
2	3
2	3
2	3
2	7
2	14
2	3
2	4
2	4
2	8
2	5
2	27
2	3
2	9
2	4
2	6
2	15
2	6
2	5
2	4
2	4
2	3
2	8
2	11
2	6
2	4
2	11
2	3
2	17
2	10
2	11
2	10
2	3
2	5
2	4
2	4
2	4
2	6
2	3
2	4
2	3
2	4
2	15
2	3
2	3
2	3
2	7
2	4
2	4
2	8
2	3
2	3
2	7
2	9
2	4
2	8
2	7
2	3
2	3
2	3
2	6
2	8
2	8
2	23
2	10
2	11
2	4
2	3
2	3
2	4
2	7
2	4
2	3
2	9
2	3
2	3
2	6
2	4
2	9
2	8
2	7
2	3
2	10
2	4
2	4
2	8
2	6
2	10
3	4
3	4
3	5
3	8
3	4
3	5
3	4
3	4
3	7
3	5
3	7
3	5
3	9
3	9
3	4
3	4
3	5
3	4
3	5
3	4
3	4
3	8
3	4
3	4
3	4
3	5
3	4
3	10
3	4
3	9
3	4
3	5
3	12
3	6
3	20
3	5
3	4
3	9
3	6
3	7
3	5
3	8
3	6
3	4
3	4
3	4
3	7
3	6
3	10
3	4
3	4
3	5
3	4
3	5
3	12
3	8
3	6
3	8
3	4
3	10
3	5
3	5
3	5
3	5
3	9
3	5
3	4
3	6
3	6
3	6
3	5
3	5
3	5
3	5
3	5
3	4
3	4
3	10
3	4
3	8
3	5
3	7
3	5
3	15
3	4
3	4
3	4
3	8
3	5
3	5
3	4
3	5
3	4
3	4
3	5
3	4
3	4
3	4
3	17
3	8
3	4
3	4
3	4
3	5
3	5
3	6
3	5
3	4
3	6
3	4
3	10
3	4
3	4
3	4
3	4
3	4
3	4
3	10
3	6
3	4
3	4
3	4
4	5
4	9
4	5
4	7
4	6
4	5
4	5
4	6
4	6
4	6
4	8
4	5
4	5
4	5
4	5
4	6
4	5
4	6
4	5
4	7
4	6
4	5
4	5
4	6
4	5
4	5
4	8
4	5
4	5
4	5
4	5
4	6
4	11
4	6
4	6
4	5
4	5
4	6
4	8
4	6
4	5
4	5
4	6
4	5
4	5
4	5
4	5
4	8
4	5
4	5
4	6
4	7
4	5
4	5
4	6
5	8
5	7
5	16
5	6
5	7
5	8
5	6
5	7
5	6
5	6
5	7
5	6
5	6
5	6
5	6
5	6
5	10
5	6
5	6
5	6
5	6
5	6
5	6
5	7
5	6
5	6
5	6
5	6
5	6
5	6
5	6
5	6
5	6
5	6
5	6
5	6
5	6
5	13
5	7
5	6
5	6
5	8
5	6
5	7
6	7
6	8
6	7
6	10
6	8
6	7
6	7
6	7
6	7
6	7
6	7
6	7
6	9
6	8
6	8
6	7
6	7
6	8
6	9
6	7
6	9
6	7
6	7
6	7
6	7
6	7
6	9
7	9
7	8
7	8
7	8
7	8
7	8
7	8
7	8
7	8
7	8
7	8
7	8
7	8
7	8
7	8
7	8
7	8
7	9
8	9
8	9
8	9
8	9
8	9
8	9
8	9
8	9
8	9
8	9
8	9
8	9
8	9
8	9
8	9
8	9
8	10
8	9
8	9
8	9
8	9
8	9
8	9
8	10
8	10
8	9
8	9
9	10
9	11
9	10
9	10
9	10
9	10
9	10
9	10
9	10
9	10
9	10
9	11
9	10
9	10
10	11
10	11
10	11
10	11
10	11
10	11
10	11
10	11
11	12
11	12
11	13
11	12
11	12
11	12
11	12
12	13
12	13
12	13
12	13
13	14
13	14
13	14
13	14
13	14
13	14
13	14
13	14
14	15
15	16
15	16
15	16
15	16
15	16
15	16
15	16
15	16
16	17
16	17
16	17
16	17
16	17
16	17
17	18
17	18
17	18
17	18
18	19
18	19
19	20
19	20
20	21
20	21
21	22
21	22
21	22
22	23
24	25
24	25
25	26
26	27
26	27
27	28
30	31
31	32
35	36
41	42
481	482
