7	6124
7	6124
9	6124
10	6124
10	6124
10	6124
11	6124
11	6124
11	6124
12	6124
12	6124
12	6124
12	6124
12	6124
12	6124
12	6124
13	6124
13	6124
14	6124
14	6124
15	6124
15	6124
15	6124
16	6124
16	6124
16	6124
16	6124
16	6124
17	6124
17	6124
18	6124
18	6124
18	6124
19	6124
19	6124
19	6124
19	6124
19	6124
19	6124
19	6124
19	6124
19	6124
20	6124
20	6124
20	6124
20	6124
20	6124
20	6124
20	6124
20	6124
21	6124
21	6124
21	6124
21	6124
21	6124
21	6124
22	6124
22	6124
23	6124
23	6124
23	6124
24	6124
24	6124
24	6124
24	6124
24	6124
25	6124
26	6124
27	6124
27	6124
31	6124
32	6124
32	6124
32	6124
32	6124
33	6124
33	6124
34	6124
34	6124
37	6124
37	6124
38	6124
39	6124
39	6124
40	6124
42	6124
42	6124
48	6124
134	6124
134	6124
134	6124
134	6124
134	6124
135	6124
135	6124
135	6124
135	6124
135	6124
135	6124
135	6124
135	6124
135	6124
135	6124
135	6124
135	6124
135	6124
136	6124
136	6124
136	6124
136	6124
136	6124
137	6124
137	6124
138	6124
138	6124
139	6124
140	6124
140	6124
148	6124
153	6124
1117	6124
1117	6124
1117	6124
1117	6124
1117	6124
1117	6124
1117	6124
1117	6124
1117	6124
1117	6124
1117	6124
1117	6124
1117	6124
1117	6124
1117	6124
1117	6124
1117	6124
1117	6124
1117	6124
1117	6124
1117	6124
1117	6124
1117	6124
1117	6124
1117	6124
1117	6124
1117	6124
1117	6124
1117	6124
1117	6124
1117	6124
1117	6124
1117	6124
1117	6124
1117	6124
1117	6124
1117	6124
1117	6124
1117	6124
1117	6124
1117	6124
1117	6124
1117	6124
1117	6124
1117	6124
1117	6124
1117	6124
1117	6124
1117	6124
1117	6124
1117	6124
1117	6124
1117	6124
1117	6124
1117	6124
1117	6124
1117	6124
1117	6124
1117	6124
1117	6124
1117	6124
1117	6124
1117	6124
1117	6124
1117	6124
1117	6124
1117	6124
1117	6124
1117	6124
1117	6124
1117	6124
1117	6124
1117	6124
1117	6124
1117	6124
1117	6124
1117	6124
1117	6124
1117	6124
1117	6124
1117	6124
1117	6124
1117	6124
1117	6124
1117	6124
1117	6124
1117	6124
1117	6124
1117	6124
1117	6124
1117	6124
1118	6124
1118	6124
1118	6124
1118	6124
1118	6124
1118	6124
1118	6124
1118	6124
1118	6124
1118	6124
1118	6124
1118	6124
1118	6124
1118	6124
1118	6124
1118	6124
1118	6124
1118	6124
1118	6124
1118	6124
1118	6124
1118	6124
1118	6124
1119	6124
1119	6124
1119	6124
1119	6124
1119	6124
1119	6124
1119	6124
1119	6124
1119	6124
1119	6124
1120	6124
1120	6124
1120	6124
1120	6124
1120	6124
1120	6124
1121	6124
1121	6124
1121	6124
1121	6124
1121	6124
1123	6124
1123	6124
1123	6124
1125	6124
1127	6124
1129	6124
1129	6124
1130	6124
1130	6124
1132	6124
1132	6124
1149	6124
1247	6124
