1	6124
1	557
1	14
1	556
1	556
1	556
1	12
1	6124
1	556
1	556
1	70
1	18
1	556
1	556
1	556
1	556
1	13
1	556
1	556
1	556
1	18
1	556
1	556
1	556
1	13
1	556
1	9
1	556
1	556
1	10
1	6124
1	13
1	557
1	556
1	556
1	556
1	69
1	15
1	557
1	16
1	14
1	556
1	556
1	557
1	69
1	556
1	556
1	556
1	556
1	69
1	556
1	556
1	6124
1	560
1	557
1	556
1	556
1	23
1	556
1	556
1	556
1	42
1	69
1	556
1	39
1	556
1	556
1	13
1	556
1	9
1	556
1	13
1	14
1	14
1	556
1	556
1	556
1	12
1	556
1	556
1	556
1	556
1	556
1	70
1	556
1	556
1	12
1	17
1	557
1	556
1	70
1	6124
1	11
1	17
1	556
1	556
1	556
1	22
1	557
1	556
1	556
1	556
1	22
1	556
1	24
1	10
1	556
1	556
1	38
1	7
1	556
1	556
1	13
1	556
1	556
1	11
1	11
1	556
1	556
1	15
1	556
1	556
1	10
1	556
1	556
1	6
1	11
1	16
1	14
1	12
1	556
1	556
1	556
1	556
1	556
1	556
1	556
1	556
1	7
1	556
1	556
1	556
1	556
1	556
1	556
1	9
1	556
1	556
1	556
1	556
1	556
1	12
1	556
1	556
1	14
1	556
1	556
1	19
1	9
1	556
1	12
1	11
1	556
1	556
1	556
1	557
1	7
1	556
1	11
1	17
1	556
1	556
1	556
1	5
1	13
1	9
1	556
1	556
1	556
1	10
1	556
1	556
1	556
1	556
1	556
1	556
1	556
1	556
1	556
1	556
1	556
1	556
1	15
1	556
1	556
1	556
1	556
1	556
1	14
1	556
1	8
1	19
1	556
1	556
1	7
1	556
1	8
1	556
1	9
1	38
1	556
1	556
1	16
1	15
1	556
1	15
1	556
1	556
1	69
1	12
1	35
1	556
1	556
1	12
1	556
1	556
1	23
1	556
1	12
1	556
1	69
1	556
1	16
1	557
1	556
1	12
1	13
1	556
1	557
1	16
1	556
1	556
1	556
1	5
1	10
1	556
1	556
1	10
1	38
1	10
1	556
1	556
1	9
1	7
1	69
1	556
1	35
1	556
1	556
1	69
1	556
1	11
1	9
1	69
1	556
1	556
1	34
1	556
1	556
1	7
1	556
1	556
1	557
1	11
1	9
1	556
1	7
1	556
1	7
1	556
1	10
1	14
1	556
1	19
1	12
1	556
1	556
1	13
1	556
1	18
1	556
1	8
1	556
1	69
1	9
1	19
1	38
1	5
1	559
1	556
1	556
1	69
1	556
1	10
1	556
1	13
1	556
1	556
1	12
1	12
1	556
1	557
1	8
1	8
1	9
1	556
1	12
1	21
1	8
1	556
1	556
1	556
1	556
1	556
1	11
1	9
1	38
1	16
1	556
1	70
1	9
1	556
1	556
1	556
1	5
1	9
1	556
1	556
1	556
1	12
1	556
1	556
1	15
1	14
1	556
1	34
1	7
1	556
1	556
1	556
1	12
1	556
1	556
1	8
1	556
1	70
1	38
1	556
1	556
1	556
1	13
1	556
1	6
1	556
1	69
1	12
1	10
1	556
1	556
1	556
1	556
1	557
1	38
1	556
1	556
1	12
1	556
1	556
1	38
1	556
1	7
1	556
1	9
1	2
1	556
1	556
1	556
1	556
1	556
1	556
1	69
1	8
1	5
1	7
1	558
1	556
1	6
1	556
1	556
1	69
1	556
1	11
1	556
1	556
1	6
1	557
1	6
1	556
1	556
1	556
1	7
1	556
1	556
1	6124
1	38
1	556
1	556
1	556
1	556
1	556
1	556
1	12
1	6
1	556
1	8
1	556
1	556
1	13
1	6124
1	556
1	38
1	6
1	12
1	7
1	556
1	556
1	23
1	556
1	556
1	12
1	556
1	9
1	9
1	556
1	556
1	556
1	7
1	556
1	23
1	556
1	12
1	556
1	9
1	556
1	556
1	556
1	9
1	556
1	556
1	12
1	9
1	34
1	557
1	556
1	34
1	556
1	6
1	39
1	556
1	556
1	556
1	556
1	556
1	556
1	6
1	7
1	556
1	556
1	10
1	5
1	5
1	556
1	12
1	9
1	11
1	556
1	556
1	23
1	556
1	556
1	70
1	8
1	556
1	556
1	556
1	14
1	556
1	556
1	556
1	10
1	556
1	556
1	556
1	556
1	556
1	69
1	8
1	69
1	12
1	34
1	556
1	556
1	20
1	38
1	556
1	556
1	556
1	8
1	8
1	556
1	2
1	4
1	7
1	556
1	556
1	38
1	556
1	556
1	69
1	556
1	17
1	69
1	38
1	556
1	69
1	556
1	557
1	556
1	2
1	556
1	15
1	556
1	556
1	556
1	4
1	556
1	556
1	556
1	556
1	556
1	8
1	557
1	69
1	556
1	34
1	556
1	556
1	556
1	556
1	8
1	15
1	3
1	556
1	556
1	7
1	556
1	556
1	556
1	9
1	556
1	9
1	556
1	556
1	556
1	556
1	556
1	556
1	9
1	5
1	556
1	556
1	556
1	14
1	7
1	38
1	556
1	15
1	19
1	23
1	10
1	2
1	556
1	12
1	557
1	556
1	557
1	556
1	556
1	4
1	556
1	23
1	6
1	556
1	9
1	556
1	10
1	8
1	5
1	5
1	556
1	556
1	34
1	34
1	556
1	556
1	5
1	6
1	12
1	34
1	557
1	5
1	556
1	4
1	556
1	556
1	69
1	556
1	556
1	556
1	556
1	556
1	69
1	556
1	556
1	4
1	556
1	2
1	6
1	19
1	34
1	556
1	38
1	556
1	556
1	15
1	10
1	556
1	556
1	23
1	556
1	556
1	19
1	556
1	557
1	38
1	6
1	34
1	12
1	19
1	556
1	11
1	556
1	556
1	6
1	7
1	556
1	12
1	556
1	7
1	11
1	556
1	556
1	556
1	34
1	12
1	8
1	556
1	13
1	556
1	556
1	556
1	4
1	556
1	557
1	556
1	556
1	556
1	34
1	556
1	6
1	11
1	12
1	6
1	556
1	556
1	12
1	556
1	34
1	556
1	556
1	556
1	556
1	557
1	556
1	556
1	556
1	7
1	34
1	557
1	16
1	9
1	556
1	23
1	6
1	556
1	69
1	556
1	38
1	556
1	19
1	10
1	69
1	556
1	11
1	11
1	556
1	5
1	556
1	556
1	556
1	4
1	556
1	15
1	556
1	6
1	556
1	556
1	10
1	15
1	556
1	6
1	11
1	556
1	9
1	556
1	556
1	556
1	556
1	556
1	556
1	556
1	556
1	69
1	15
1	556
1	9
1	556
1	556
1	15
1	556
1	556
1	11
1	556
1	556
1	9
1	556
1	556
1	556
1	556
1	19
1	69
1	556
1	556
1	556
1	556
1	556
1	5
1	556
1	5
1	70
1	8
1	34
1	556
1	69
1	556
1	556
1	6
1	12
1	556
1	556
1	4
1	7
1	6
1	556
1	556
1	4
1	557
1	9
1	11
1	556
1	556
1	556
1	10
2	7
2	6
2	3
2	3
2	6
2	3
2	3
2	7
2	11
2	12
2	8
2	3
2	7
2	6
2	3
2	5
2	13
2	5
2	557
2	3
2	3
2	12
2	10
2	3
2	3
2	557
2	4
2	557
2	3
2	3
2	3
2	3
2	6
2	3
2	4
2	7
2	3
2	10
2	3
2	6
2	7
2	6
2	5
2	6
2	3
2	3
2	4
2	24
2	6
2	5
2	10
2	13
2	5
2	24
2	6
2	3
2	7
2	6
2	6
2	4
2	24
2	39
2	5
2	5
2	5
2	557
2	6
2	6
2	4
2	3
2	9
2	4
2	8
2	7
2	7
2	7
2	13
2	3
2	3
2	4
2	12
2	4
2	5
2	10
2	3
2	4
2	70
2	3
2	6
2	3
2	3
2	3
2	4
2	12
2	3
2	8
2	6
2	3
2	5
2	5
2	3
2	3
2	7
2	3
2	557
2	4
2	3
2	5
2	5
2	12
2	3
2	11
2	3
2	4
2	6
2	12
2	6
2	5
2	4
2	7
2	9
2	12
2	3
2	6
2	5
2	16
2	3
2	7
2	3
2	9
2	4
2	4
2	3
2	3
2	3
2	4
2	6
2	12
2	24
2	4
2	3
2	3
2	3
2	5
2	5
2	11
2	5
2	11
2	4
2	13
2	6
2	4
2	6
2	4
2	5
2	3
2	3
2	4
2	3
2	3
2	4
2	4
2	3
2	5
2	4
2	4
2	24
2	7
2	12
2	3
2	3
2	4
2	3
2	3
2	12
2	4
2	3
2	4
3	4
3	5
3	7
3	5
3	4
3	5
3	4
3	5
3	7
3	4
3	6
3	4
3	5
3	4
3	4
3	5
3	9
3	7
3	4
3	4
3	4
3	4
3	4
3	12
3	4
3	4
3	4
3	5
3	4
3	6
3	4
3	4
3	5
3	7
3	4
3	5
3	6
3	5
3	5
3	6
3	4
3	4
3	5
3	4
3	10
3	6
3	6
3	6
3	9
3	5
3	4
3	4
3	4
3	4
3	4
3	4
3	4
3	8
3	4
3	4
3	4
3	7
3	6
3	4
3	4
3	4
3	4
3	7
3	4
3	7
3	5
3	5
3	4
3	4
4	5
4	5
4	5
4	7
4	5
4	5
4	5
4	6
4	5
4	5
4	5
4	5
4	5
4	5
4	5
4	5
4	5
4	5
4	5
4	5
4	5
4	5
4	12
4	6
4	5
4	6
4	6
4	5
4	5
4	5
4	5
4	5
4	6
4	5
4	5
4	5
4	6
4	5
4	5
5	7
5	6
5	6
5	6
5	9
5	6
5	6
5	6
5	6
5	6
5	7
5	6
5	6
5	6
5	6
5	6
5	6
5	8
5	6
5	6
5	6
5	7
5	7
5	6
6	7
6	7
6	7
6	9
6	7
6	7
6	7
6	7
6	8
7	8
7	8
7	8
7	8
8	9
8	9
8	9
8	9
8	9
8	9
8	9
9	10
9	10
10	11
10	11
10	11
10	12
10	11
10	11
10	11
11	12
11	12
11	12
11	12
13	16
13	14
14	15
14	15
18	19
22	23
33	34
37	38
68	69
555	556
