9	6124
11	6124
11	6124
11	6124
12	6124
13	6124
13	6124
13	6124
14	6124
14	6124
14	6124
15	6124
15	6124
15	6124
16	6124
16	6124
16	6124
16	6124
17	6124
17	6124
17	6124
17	6124
17	6124
17	6124
17	6124
18	6124
18	6124
18	6124
18	6124
18	6124
18	6124
19	6124
19	6124
19	6124
19	6124
19	6124
19	6124
19	6124
19	6124
19	6124
19	6124
20	6124
20	6124
20	6124
20	6124
20	6124
20	6124
20	6124
20	6124
20	6124
21	6124
21	6124
21	6124
21	6124
21	6124
21	6124
22	6124
22	6124
22	6124
22	6124
22	6124
22	6124
22	6124
22	6124
22	6124
23	6124
23	6124
23	6124
23	6124
23	6124
23	6124
23	6124
23	6124
23	6124
23	6124
23	6124
23	6124
23	6124
24	6124
24	6124
24	6124
24	6124
24	6124
25	6124
25	6124
25	6124
26	6124
26	6124
26	6124
26	6124
26	6124
26	6124
26	6124
26	6124
26	6124
27	6124
27	6124
27	6124
27	6124
28	6124
28	6124
28	6124
28	6124
28	6124
28	6124
29	6124
29	6124
30	6124
30	6124
30	6124
30	6124
32	6124
32	6124
32	6124
33	6124
33	6124
34	6124
1052	6124
1052	6124
1052	6124
1052	6124
1052	6124
1052	6124
1052	6124
1052	6124
1052	6124
1052	6124
1052	6124
1052	6124
1052	6124
1052	6124
1052	6124
1052	6124
1052	6124
1052	6124
1052	6124
1052	6124
1052	6124
1052	6124
1052	6124
1052	6124
1052	6124
1052	6124
1052	6124
1052	6124
1052	6124
1052	6124
1052	6124
1052	6124
1052	6124
1052	6124
1052	6124
1052	6124
1052	6124
1052	6124
1052	6124
1052	6124
1052	6124
1052	6124
1052	6124
1052	6124
1052	6124
1052	6124
1052	6124
1052	6124
1052	6124
1052	6124
1052	6124
1052	6124
1052	6124
1052	6124
1052	6124
1052	6124
1052	6124
1052	6124
1052	6124
1052	6124
1052	6124
1052	6124
1052	6124
1052	6124
1052	6124
1052	6124
1052	6124
1052	6124
1052	6124
1052	6124
1052	6124
1052	6124
1052	6124
1052	6124
1052	6124
1052	6124
1052	6124
1052	6124
1052	6124
1053	6124
1053	6124
1053	6124
1053	6124
1053	6124
1053	6124
1053	6124
1053	6124
1053	6124
1053	6124
1053	6124
1053	6124
1053	6124
1053	6124
1053	6124
1053	6124
1053	6124
1053	6124
1053	6124
1053	6124
1053	6124
1053	6124
1053	6124
1053	6124
1053	6124
1053	6124
1053	6124
1053	6124
1053	6124
1053	6124
1053	6124
1053	6124
1053	6124
1053	6124
1054	6124
1054	6124
1054	6124
1054	6124
1054	6124
1054	6124
1054	6124
1054	6124
1054	6124
1054	6124
1054	6124
1054	6124
1054	6124
1054	6124
1054	6124
1055	6124
1055	6124
1055	6124
1055	6124
1055	6124
1055	6124
1055	6124
1055	6124
1056	6124
1056	6124
1056	6124
1056	6124
1056	6124
1057	6124
1057	6124
1058	6124
1058	6124
1058	6124
1058	6124
1059	6124
1059	6124
1060	6124
1060	6124
1060	6124
1060	6124
1060	6124
1060	6124
1060	6124
1061	6124
1061	6124
1061	6124
1061	6124
1062	6124
1062	6124
1062	6124
1063	6124
1063	6124
1063	6124
1063	6124
1063	6124
1064	6124
1064	6124
1064	6124
1064	6124
1064	6124
1064	6124
1064	6124
1065	6124
1065	6124
1066	6124
1067	6124
1068	6124
1068	6124
1068	6124
1069	6124
1069	6124
1070	6124
1070	6124
1070	6124
1072	6124
1072	6124
1072	6124
1074	6124
