9	6124
9	6124
11	6124
11	6124
11	6124
12	6124
13	6124
13	6124
13	6124
14	6124
14	6124
79	6124
79	6124
80	6124
80	6124
80	6124
80	6124
80	6124
80	6124
80	6124
80	6124
80	6124
80	6124
81	6124
81	6124
81	6124
81	6124
81	6124
82	6124
82	6124
82	6124
82	6124
82	6124
82	6124
83	6124
83	6124
85	6124
