11	6124
11	6124
13	6124
15	6124
15	6124
16	6124
17	6124
18	6124
18	6124
18	6124
18	6124
19	6124
20	6124
20	6124
20	6124
20	6124
20	6124
21	6124
21	6124
22	6124
22	6124
30	6124
120	6124
120	6124
120	6124
120	6124
120	6124
120	6124
120	6124
120	6124
120	6124
120	6124
121	6124
121	6124
121	6124
121	6124
122	6124
122	6124
122	6124
122	6124
123	6124
123	6124
123	6124
123	6124
123	6124
123	6124
123	6124
124	6124
124	6124
124	6124
124	6124
126	6124
126	6124
127	6124
128	6124
129	6124
131	6124
132	6124
133	6124
133	6124
134	6124
