1	6124
1	172
1	173
1	178
1	172
1	171
1	171
1	172
1	171
1	171
1	171
1	171
1	172
1	172
1	16
1	173
1	172
1	171
1	171
1	16
1	173
1	171
1	177
1	10
1	14
1	171
1	172
1	9
1	171
1	12
1	171
1	172
1	12
1	10
1	171
1	171
1	9
1	8
1	171
1	171
1	171
1	174
1	171
1	8
1	171
1	171
1	5
1	11
1	8
1	171
1	171
1	13
1	14
1	172
1	171
1	8
1	171
1	171
1	171
1	171
1	4
1	8
1	171
1	171
1	171
1	8
1	8
1	171
1	171
1	7
1	172
1	13
1	7
1	171
1	10
1	171
1	7
1	171
1	171
1	171
1	6
1	175
1	171
1	172
1	6
1	14
1	15
1	171
1	172
1	4
1	13
1	9
1	172
1	7
1	14
1	13
1	6
1	171
1	171
1	173
1	171
1	6
1	8
1	171
1	6
1	7
1	172
1	171
1	171
1	171
1	171
1	171
1	7
1	8
1	171
1	172
1	172
1	171
1	5
1	171
1	5
1	8
1	9
1	171
1	171
1	9
1	12
1	5
1	172
1	6124
1	11
1	9
1	8
1	173
1	6
1	171
1	171
1	171
1	171
1	171
1	8
1	171
1	6
1	10
1	173
1	8
1	172
1	172
1	8
1	171
1	9
1	6
1	171
1	7
1	5
1	8
1	171
1	171
1	6
1	171
1	5
1	5
1	171
1	6
1	5
1	5
1	10
1	171
1	171
1	171
1	171
1	171
1	10
1	8
1	4
1	6
1	171
1	9
1	171
1	171
1	171
1	11
1	11
1	6
1	5
1	171
1	172
1	8
1	171
1	171
1	7
1	8
1	5
1	12
1	172
1	8
1	9
1	171
1	9
1	171
1	5
1	171
1	171
1	8
1	9
1	9
1	2
1	171
1	9
1	10
1	8
1	171
1	173
1	171
1	4
1	8
1	9
1	171
1	10
1	9
1	171
1	171
1	8
1	5
1	10
1	171
1	171
1	8
1	7
1	8
1	171
1	7
1	171
1	7
1	171
1	11
1	5
1	8
1	6
1	4
1	8
1	12
1	6
1	4
1	9
1	9
1	7
1	4
1	171
1	171
1	171
1	8
1	171
1	5
1	171
1	172
1	171
1	6
2	172
2	3
2	5
2	7
2	9
2	3
2	3
2	3
2	6
2	4
2	3
2	5
2	4
2	4
2	5
2	3
2	9
2	4
2	3
2	4
2	4
2	5
2	3
2	5
2	4
2	10
2	3
2	3
2	10
2	3
2	4
2	4
2	3
2	3
2	3
2	3
2	9
2	3
2	3
2	4
2	4
2	6
2	3
2	7
2	3
2	7
2	5
2	4
2	5
2	3
2	3
2	4
2	6
2	3
2	3
2	10
2	6
2	3
2	3
2	3
2	3
2	7
2	3
2	3
2	6
2	4
2	3
2	7
2	3
2	5
2	3
2	3
2	7
2	3
2	4
3	4
3	4
3	4
3	4
3	4
3	4
3	4
3	5
3	4
3	4
3	4
3	4
3	4
3	4
3	4
3	4
3	4
3	4
3	4
3	4
3	5
3	4
3	4
3	7
3	5
3	7
3	4
3	4
3	4
3	4
3	5
3	4
3	4
3	4
3	4
3	8
3	4
3	5
4	5
4	5
4	7
4	5
4	6
4	5
4	5
4	5
4	7
4	5
4	5
4	5
4	5
4	5
4	5
5	6
5	6
5	6
5	6
5	6
5	6
5	6
5	6
5	6
5	6
6	7
6	7
6	7
6	7
7	8
7	8
7	8
7	8
8	9
8	9
8	9
8	9
9	10
11	12
170	171
