14	6124
14	6124
17	6124
113	6124
114	6124
114	6124
114	6124
114	6124
114	6124
114	6124
114	6124
115	6124
115	6124
115	6124
115	6124
115	6124
115	6124
115	6124
115	6124
115	6124
115	6124
115	6124
115	6124
116	6124
116	6124
116	6124
116	6124
117	6124
117	6124
117	6124
117	6124
118	6124
118	6124
119	6124
119	6124
119	6124
119	6124
122	6124
