15	6124
15	6124
16	6124
34	6124
35	6124
35	6124
35	6124
35	6124
36	6124
36	6124
36	6124
37	6124
37	6124
39	6124
160	6124
160	6124
160	6124
160	6124
160	6124
160	6124
160	6124
160	6124
160	6124
160	6124
160	6124
160	6124
160	6124
160	6124
161	6124
161	6124
161	6124
161	6124
161	6124
161	6124
161	6124
161	6124
161	6124
161	6124
161	6124
161	6124
161	6124
161	6124
162	6124
162	6124
162	6124
162	6124
162	6124
162	6124
162	6124
162	6124
162	6124
162	6124
162	6124
163	6124
163	6124
163	6124
163	6124
163	6124
163	6124
163	6124
164	6124
164	6124
164	6124
165	6124
165	6124
165	6124
165	6124
166	6124
166	6124
173	6124
