1	6124
1	96
1	98
1	96
1	96
1	96
1	96
1	96
1	96
1	96
1	96
1	96
1	96
1	97
1	96
1	96
1	96
1	96
1	96
1	96
1	7
1	96
1	97
1	97
1	96
1	96
1	96
1	96
1	96
1	96
1	7
1	5
1	96
1	96
1	96
1	96
1	96
1	96
1	96
1	96
1	96
1	96
1	96
1	97
1	96
1	96
1	96
1	97
1	96
1	96
1	96
1	96
1	96
1	96
1	96
1	96
1	97
1	96
1	96
1	96
1	96
1	96
1	96
1	96
1	96
1	96
1	96
1	96
1	96
1	96
1	96
1	96
1	96
1	96
1	96
1	96
1	96
1	96
1	96
1	96
1	96
1	97
1	96
2	97
2	97
2	3
2	4
2	3
2	97
2	97
2	6
2	6
2	97
2	6
2	4
2	4
2	3
2	4
2	3
2	3
2	3
2	3
3	4
3	4
3	4
3	5
4	6
4	5
95	96
