1	6124
1	198
1	13
1	197
1	199
1	197
1	197
1	198
1	197
1	197
1	197
1	197
1	197
1	197
1	13
1	197
1	201
1	197
1	197
1	6124
1	197
1	197
1	14
1	11
1	197
1	8
1	197
1	199
1	197
1	201
1	197
1	7
1	14
1	14
1	197
1	11
1	12
1	8
1	10
1	7
1	197
1	12
1	197
1	200
1	7
1	197
1	197
1	197
1	197
1	11
1	9
1	197
1	12
1	7
1	197
1	16
1	8
1	197
1	198
1	197
1	197
1	197
1	197
1	12
1	197
1	197
1	197
1	7
1	9
1	197
1	197
1	10
1	9
1	8
1	197
1	197
1	11
1	197
1	198
1	5
1	5
1	197
1	198
1	11
1	197
1	198
1	197
1	9
1	7
1	197
1	197
1	197
1	4
1	197
1	8
1	197
1	197
1	7
1	8
1	7
1	197
1	197
1	7
1	5
1	197
1	197
1	12
1	6
1	197
1	6
1	12
1	197
1	197
1	8
1	197
1	197
1	12
1	197
1	197
1	197
1	11
1	8
1	6
1	197
1	10
1	197
1	199
1	12
1	197
1	10
1	5
1	197
1	4
1	11
1	197
1	197
1	197
1	9
1	11
1	197
1	197
1	197
1	8
1	8
1	197
1	9
1	197
1	7
1	197
1	197
1	197
1	197
1	8
1	197
1	197
1	197
1	197
1	12
1	5
1	197
1	11
1	9
1	7
1	197
1	197
1	197
1	11
1	197
1	197
1	197
1	198
1	197
1	12
1	9
1	7
1	197
1	197
1	6
1	6
1	197
1	197
1	10
1	5
1	197
1	5
1	7
1	197
1	197
1	8
1	197
1	197
1	12
1	7
1	7
1	197
1	5
1	197
1	197
1	197
1	197
1	197
1	197
1	6
1	197
1	12
1	9
1	197
1	197
1	11
1	6
1	197
1	197
1	197
1	2
1	197
1	198
1	197
1	197
1	197
1	197
1	198
1	12
1	7
1	197
1	197
1	7
1	5
1	197
1	7
1	11
1	198
1	197
1	197
1	5
1	197
1	6
1	197
1	9
1	197
1	6
1	9
1	10
1	197
1	197
2	5
2	10
2	3
2	3
2	4
2	7
2	8
2	3
2	6
2	3
2	4
2	3
2	3
2	13
2	3
2	8
2	8
2	13
2	4
2	6
2	3
2	11
2	7
2	3
2	8
2	3
2	8
2	6
2	4
2	3
2	3
2	5
2	6
2	3
2	7
2	4
2	4
2	4
2	5
2	10
2	3
2	3
2	7
2	8
2	4
2	3
2	13
2	3
2	4
2	3
2	3
2	4
2	6
2	3
2	4
2	10
2	3
2	4
2	4
2	4
2	5
2	3
2	3
2	4
2	7
2	3
2	5
2	4
2	4
2	3
2	5
2	3
2	3
2	5
3	4
3	4
3	4
3	4
3	4
3	4
3	4
3	5
3	5
3	6
3	5
3	4
3	4
3	4
3	4
3	5
3	4
3	4
3	5
3	5
3	5
3	4
3	6
3	4
3	6
3	11
3	5
3	4
3	4
3	5
3	8
3	4
4	5
4	5
4	7
4	5
4	6
4	5
4	5
4	5
4	5
4	5
4	5
4	5
4	6
5	6
5	6
5	7
5	6
5	6
5	6
5	10
5	7
5	6
5	6
5	6
6	7
6	7
6	7
6	7
6	7
6	7
6	8
7	8
7	8
8	9
8	9
9	10
10	11
11	12
11	12
196	197
