1	6124
1	26
1	18
1	11
1	88
1	23
1	13
1	90
1	22
1	89
1	11
1	87
1	16
1	88
1	87
1	87
1	15
1	10
1	10
1	16
1	14
1	22
1	9
1	6
1	9
1	16
1	8
1	89
1	6
1	23
1	15
1	87
1	15
1	87
1	9
1	87
1	15
1	87
1	9
1	87
1	22
1	22
1	5
1	26
1	10
1	93
1	87
1	11
1	91
1	7
1	10
1	15
1	12
1	9
1	87
1	89
1	14
1	87
1	88
1	6
1	7
1	11
1	6
1	9
1	87
1	6
1	10
1	14
1	87
1	6
1	7
1	7
1	13
1	11
1	25
1	14
1	7
1	7
1	7
1	22
1	8
1	9
1	90
1	87
1	87
1	87
1	8
1	89
1	5
1	15
1	10
1	5
1	7
1	87
1	14
1	6
1	22
1	7
1	6
1	7
1	87
1	25
1	87
1	6
1	26
1	13
1	5
1	7
1	9
1	13
1	4
1	7
1	8
1	5
1	25
1	10
1	14
1	87
1	87
1	87
1	8
1	7
1	8
1	6
1	9
1	25
1	87
1	8
1	88
1	87
1	22
1	5
1	8
1	14
1	10
1	10
1	8
1	7
1	8
1	9
1	14
1	6
1	87
1	87
1	10
1	7
1	88
1	6
1	13
1	4
1	87
1	7
1	87
1	87
1	4
1	88
1	5
1	6
1	5
1	87
1	8
1	12
1	6
1	13
1	4
1	87
1	25
1	23
1	87
1	5
1	5
1	8
1	4
1	6
1	11
1	9
1	15
1	8
1	6
1	87
1	8
1	5
1	25
1	8
1	87
1	25
1	8
1	22
1	7
1	25
1	14
1	5
1	5
1	87
1	87
1	8
1	6
1	5
1	5
1	10
1	7
1	7
1	10
1	87
1	9
1	4
1	87
1	87
1	9
1	4
1	7
1	10
1	6
1	6
1	4
1	14
1	87
1	13
1	25
1	6
1	6
1	7
2	3
2	4
2	3
2	4
2	5
2	3
2	3
2	4
2	6
2	7
2	3
2	4
2	3
2	6
2	3
2	5
2	3
2	6
2	4
2	3
2	6
2	4
2	4
2	4
2	4
2	3
2	4
2	5
2	4
2	3
2	3
2	6
2	4
2	5
2	8
2	3
2	6
2	11
2	4
2	6
2	4
2	3
2	3
2	4
2	4
2	4
2	3
2	4
2	3
2	5
2	4
2	3
2	4
2	3
2	3
2	4
2	5
2	4
2	5
2	4
2	4
2	4
2	7
2	3
2	3
2	3
2	3
2	4
2	4
2	3
2	4
2	6
2	3
2	3
2	3
2	4
2	6
2	3
2	6
2	4
2	3
2	3
2	5
2	3
2	3
3	4
3	7
3	6
3	4
3	5
3	8
3	7
3	4
3	4
3	4
3	5
3	5
3	4
3	4
3	4
3	4
3	4
3	4
3	4
3	4
3	4
3	4
3	5
3	4
3	4
3	5
3	4
3	5
3	4
3	4
3	4
3	6
3	4
4	5
4	7
4	5
4	5
4	6
4	5
4	5
4	5
4	6
4	5
4	8
4	5
4	6
4	5
4	5
4	5
4	5
4	5
4	5
4	5
4	5
4	5
4	5
5	6
5	7
5	6
5	6
5	6
5	6
5	6
5	6
5	6
5	7
5	6
5	6
6	7
6	7
6	7
6	9
6	9
6	7
6	7
6	7
7	8
7	8
7	8
8	9
8	9
9	10
12	13
13	14
13	14
21	22
24	25
86	87
