1	6124
1	202
1	202
1	201
1	13
1	201
1	202
1	201
1	13
1	13
1	201
1	201
1	201
1	5
1	9
1	201
1	201
1	201
1	201
1	203
1	205
1	7
1	13
1	201
1	203
1	202
1	6
1	201
1	7
1	201
1	201
1	201
1	201
1	8
1	201
1	201
1	201
1	10
1	202
1	201
1	201
1	205
1	201
1	12
1	203
1	201
1	201
1	201
1	11
1	205
1	13
1	201
1	202
1	201
1	201
1	201
1	201
1	201
1	8
1	11
1	201
1	204
1	201
1	206
1	201
1	201
1	201
1	11
1	201
1	201
1	201
1	201
1	9
1	201
1	203
1	201
1	9
1	201
1	10
1	6
1	7
1	201
1	201
1	6
1	202
1	9
1	13
1	201
1	201
1	201
1	4
1	201
1	201
1	201
1	201
1	201
1	203
1	9
1	201
1	11
1	4
1	201
1	10
1	201
1	201
1	201
1	201
1	10
1	201
1	7
1	201
1	201
1	201
1	203
1	4
1	7
1	6124
1	7
1	201
1	8
1	201
1	9
1	201
1	6
1	201
1	2
1	6
1	204
1	4
1	7
1	201
1	201
1	6
1	7
1	11
1	6
1	201
1	7
1	201
1	6
1	4
1	201
1	201
1	201
1	201
1	6124
1	203
1	201
1	5
1	201
1	7
1	201
1	201
1	201
1	201
1	201
1	202
1	9
1	202
1	202
1	201
1	8
1	3
1	4
1	10
1	7
1	201
1	201
1	5
1	8
1	201
1	8
1	201
1	201
1	201
1	201
1	6
1	201
1	201
1	9
1	11
1	202
1	201
1	9
1	204
1	8
1	201
1	201
1	201
1	5
1	201
1	6
1	201
1	201
1	9
1	201
1	5
1	4
1	201
1	8
1	5
1	201
1	201
1	201
1	201
1	4
1	7
1	201
1	6
1	201
1	4
1	11
1	201
1	6
1	201
1	10
1	202
1	11
1	11
1	201
1	201
1	11
1	201
1	201
1	9
1	203
1	202
1	4
1	201
1	13
1	201
1	201
1	201
1	201
1	201
1	7
1	7
1	8
1	201
1	201
1	5
1	202
1	9
1	201
1	9
1	201
1	202
1	7
1	6
1	13
1	201
1	201
1	201
1	201
1	201
1	5
1	201
1	201
1	4
1	6
1	202
1	201
1	201
1	10
1	6
1	201
1	201
1	5
1	201
1	5
1	5
1	201
1	201
1	8
1	8
1	10
1	8
1	6
1	4
1	10
1	4
1	8
1	201
1	201
1	4
1	12
1	201
1	9
1	201
1	4
1	10
1	7
1	6
1	7
1	6
1	6
1	6
1	11
1	5
1	201
1	201
1	201
1	202
1	201
1	201
1	6
1	5
2	3
2	6
2	4
2	3
2	5
2	4
2	5
2	3
2	5
2	4
2	5
2	5
2	3
2	5
2	3
2	3
2	3
2	5
2	3
2	4
2	5
2	3
2	3
2	5
2	4
2	3
2	4
2	3
2	3
2	3
2	3
2	4
2	3
2	7
2	3
2	4
2	3
2	4
2	4
2	9
2	4
2	3
2	5
2	5
2	6
2	4
2	3
2	4
2	3
2	5
2	4
2	3
2	4
2	3
2	3
2	5
2	3
2	4
2	3
2	3
2	4
2	3
2	5
2	4
2	5
2	6
2	4
3	4
3	4
3	4
3	4
3	4
3	4
3	4
3	4
3	4
3	5
3	4
3	4
3	4
3	4
3	4
3	4
3	4
3	4
3	4
3	4
3	5
3	8
3	4
3	4
3	5
3	4
3	4
3	4
3	4
3	5
3	4
3	6
3	4
3	4
3	4
3	4
3	4
3	4
3	4
3	4
3	4
3	4
3	5
3	4
3	4
3	4
3	4
4	5
4	5
4	6
4	5
4	5
4	5
4	5
4	5
4	5
4	5
5	8
5	6
5	6
5	6
5	6
5	6
5	6
5	6
5	6
5	6
5	6
6	7
6	7
6	7
7	8
7	8
7	8
8	9
8	9
10	11
10	11
200	201
