7	6124
9	6124
9	6124
11	6124
14	6124
15	6124
17	6124
18	6124
19	6124
20	6124
21	6124
22	6124
24	6124
27	6124
27	6124
36	6124
63	6124
63	6124
64	6124
64	6124
65	6124
67	6124
68	6124
70	6124
74	6124
82	6124
