1	6124
1	273
1	272
1	272
1	19
1	272
1	13
1	14
1	272
1	272
1	272
1	272
1	6124
1	272
1	272
1	272
1	272
1	7
1	272
1	272
1	272
1	12
1	272
1	6
1	272
1	272
1	272
1	273
1	272
1	274
1	272
1	272
1	273
1	13
1	272
1	272
1	273
1	272
1	275
1	272
1	272
1	272
1	272
1	272
1	272
1	272
1	13
1	272
1	11
1	272
1	13
1	13
1	272
1	272
1	5
1	272
1	272
1	272
1	272
1	272
1	272
1	273
1	272
1	272
1	13
1	272
1	272
1	272
1	272
1	272
1	8
1	273
1	272
1	272
1	272
1	272
1	6
1	6
1	273
1	272
1	273
1	272
1	10
1	273
1	272
1	272
1	272
1	16
1	272
1	272
1	272
1	10
1	272
1	272
1	272
1	9
1	10
1	272
1	272
1	272
1	10
1	272
1	10
1	272
1	272
1	272
1	4
1	272
1	8
1	9
1	272
1	10
1	272
1	272
1	272
1	272
1	272
1	272
1	272
1	13
1	272
1	272
1	272
1	272
1	274
1	272
1	272
1	272
1	272
1	273
1	272
1	272
1	272
1	14
1	272
1	272
1	272
1	272
1	272
1	13
1	272
1	272
1	272
1	272
1	272
1	6
1	272
1	272
1	12
1	11
1	9
1	272
1	5
1	272
1	13
1	273
1	6
1	272
1	276
1	11
1	272
1	272
1	272
1	272
1	272
1	272
1	272
1	6
1	272
1	10
1	10
1	272
1	272
1	10
1	272
1	272
1	273
1	272
1	272
1	272
1	272
1	272
1	272
1	8
1	272
1	272
1	272
1	272
1	272
1	272
1	272
1	272
1	272
1	11
1	6
1	272
1	272
1	272
1	272
1	272
1	272
1	272
1	272
1	272
1	272
1	272
1	6
1	272
1	272
1	4
1	6
1	272
1	272
1	272
1	272
1	272
1	272
1	272
1	272
1	14
1	272
1	272
1	272
1	272
1	8
1	6
1	10
1	272
1	10
1	272
1	272
1	6
1	9
1	272
1	272
1	272
1	11
1	272
1	272
1	272
1	272
1	272
1	272
1	272
1	272
1	6
1	272
1	272
1	5
1	272
1	272
1	8
1	272
1	4
1	272
1	272
1	272
1	272
1	272
1	272
1	272
1	274
1	272
1	7
1	272
1	272
1	13
1	272
1	272
1	6
1	272
1	272
1	8
1	272
1	272
1	273
1	272
1	5
1	8
1	272
1	5
1	272
1	272
1	272
1	273
1	272
1	272
1	272
1	272
1	272
1	272
1	272
1	272
1	6
1	272
1	272
1	272
1	272
1	10
1	7
1	272
1	272
1	9
1	272
1	5
1	272
1	272
1	272
1	272
1	272
1	8
1	4
1	272
1	273
1	5
1	272
1	5
1	272
1	272
2	3
2	5
2	4
2	3
2	10
2	6
2	5
2	3
2	3
2	3
2	3
2	4
2	273
2	3
2	3
2	3
2	3
2	5
2	12
2	5
2	3
2	4
2	3
2	4
2	3
2	5
2	4
2	4
2	4
2	3
2	4
2	3
2	4
2	3
2	3
2	9
2	3
2	9
2	4
2	9
2	6
2	3
2	3
2	12
2	6
2	5
2	6
2	3
2	9
2	3
2	3
2	3
2	3
2	3
2	8
2	4
2	3
2	4
3	4
3	5
3	4
3	4
3	4
3	4
3	5
3	5
3	4
3	5
3	5
3	4
3	6
3	4
3	4
3	6
3	4
3	4
3	4
3	5
3	4
3	5
3	4
3	4
3	5
3	4
3	4
3	4
4	5
4	5
4	6
4	5
4	5
4	5
5	6
5	6
5	6
5	6
6	7
7	8
7	8
7	8
7	8
7	9
9	10
10	11
12	13
271	272
