1	6124
1	43
1	44
1	11
1	44
1	43
1	10
1	43
1	43
1	43
1	43
1	6
1	43
1	43
1	43
1	43
1	43
1	14
1	43
1	43
1	43
1	44
1	43
1	43
1	10
1	7
1	7
1	43
1	43
1	43
1	43
1	9
1	8
1	43
1	43
1	43
1	43
1	43
1	43
2	3
2	3
2	5
2	7
2	6
2	9
2	3
2	4
2	6
2	3
2	4
2	9
2	9
3	4
3	4
3	4
3	5
3	4
4	7
4	6
5	7
5	6
7	9
7	8
42	43
