1	6124
1	17
1	18
1	150
1	147
1	148
1	149
1	146
1	145
1	147
1	146
1	17
1	145
1	16
1	146
1	145
1	19
1	145
1	11
1	148
1	146
1	16
1	8
1	145
1	7
1	147
1	16
1	12
1	145
1	145
1	145
1	8
1	145
1	145
1	145
1	145
1	15
1	10
1	9
1	146
1	11
1	10
1	9
1	145
1	5
1	145
1	150
1	7
1	147
1	146
1	10
1	146
1	145
1	145
1	145
1	11
1	10
1	16
1	15
1	147
1	148
1	149
1	13
1	8
1	7
1	145
1	16
1	13
1	9
1	145
1	4
1	145
1	8
1	8
1	9
1	145
1	145
1	7
1	145
1	9
1	145
1	9
1	145
1	145
1	11
1	7
1	16
1	16
1	15
1	145
1	145
1	9
1	8
1	10
1	15
1	16
1	8
1	150
1	6
1	10
1	11
1	146
1	6
1	6
1	145
1	145
1	12
1	9
1	148
1	6
1	6
1	9
1	147
1	11
1	145
1	7
1	145
1	5
1	5
1	145
1	5
1	145
1	145
1	145
1	9
1	9
1	146
1	15
1	6
1	145
1	6
1	145
1	145
1	11
1	12
1	6
1	10
1	145
1	7
1	4
1	7
1	7
1	145
1	5
1	6
1	145
1	146
1	10
1	145
1	15
1	8
1	145
1	145
1	7
1	11
1	16
1	9
1	7
1	7
1	16
1	145
1	145
1	7
1	15
1	8
1	145
1	6
1	5
1	145
1	8
1	147
1	146
1	9
1	6
1	6
1	145
1	8
1	6
1	16
1	145
1	145
1	145
1	7
1	8
1	9
1	4
1	146
1	145
1	7
1	145
1	8
1	8
1	5
1	7
1	6
1	145
1	6
1	145
1	145
1	7
1	145
1	146
1	7
1	16
1	145
1	146
1	11
1	6
1	145
1	5
1	145
1	8
1	8
1	17
1	9
1	9
1	15
1	8
1	145
1	146
1	6
1	7
1	8
1	8
1	10
1	9
1	7
1	8
1	9
1	147
1	7
1	4
1	6
1	7
1	7
1	8
1	7
1	8
1	7
1	145
1	145
1	5
1	9
1	8
1	7
1	145
1	6
1	16
1	5
1	4
1	7
1	145
1	7
1	145
1	6
1	7
1	11
1	10
1	15
1	7
1	5
1	145
1	6
1	146
1	7
1	7
1	145
1	4
1	15
1	7
1	7
1	4
1	6
2	5
2	6
2	3
2	4
2	3
2	10
2	7
2	9
2	6
2	3
2	3
2	5
2	3
2	3
2	3
2	4
2	8
2	6
2	5
2	7
2	3
2	4
2	3
2	3
2	4
2	4
2	3
2	3
2	8
2	4
2	3
2	3
2	3
2	7
2	7
2	3
2	6
2	3
2	3
2	3
2	3
2	4
2	8
2	4
2	3
2	5
2	5
2	4
2	3
2	3
2	6
2	3
2	6
2	3
2	3
2	4
2	8
2	3
2	4
2	3
2	5
2	3
2	4
2	9
2	4
2	8
2	3
2	3
2	3
2	3
2	6
2	3
2	3
2	6
2	3
2	4
2	4
2	3
2	3
2	3
2	3
2	4
2	8
2	6
2	4
2	3
2	3
2	3
3	5
3	4
3	4
3	4
3	4
3	5
3	4
3	4
3	5
3	4
3	4
3	4
3	4
3	4
3	5
3	5
3	4
3	4
3	4
3	5
3	4
3	4
3	4
3	4
3	4
3	4
3	4
3	5
3	4
3	5
3	4
3	4
3	4
4	5
4	5
4	5
4	5
4	5
4	5
4	5
4	5
4	5
4	5
4	5
4	5
4	5
4	5
4	5
5	6
5	6
5	6
5	6
5	6
5	6
5	6
5	6
5	6
6	7
6	7
6	7
6	7
6	7
6	7
6	7
6	7
6	7
6	7
6	7
6	7
6	7
7	8
7	8
7	9
7	8
8	9
8	9
8	9
10	11
14	15
15	16
144	145
