8	6124
9	6124
10	6124
11	6124
11	6124
12	6124
13	6124
13	6124
14	6124
15	6124
16	6124
16	6124
17	6124
17	6124
17	6124
17	6124
17	6124
18	6124
18	6124
19	6124
19	6124
19	6124
19	6124
21	6124
21	6124
25	6124
148	6124
148	6124
148	6124
148	6124
148	6124
148	6124
148	6124
148	6124
148	6124
148	6124
149	6124
149	6124
149	6124
149	6124
149	6124
149	6124
149	6124
150	6124
150	6124
150	6124
150	6124
150	6124
150	6124
151	6124
151	6124
151	6124
151	6124
151	6124
151	6124
151	6124
151	6124
151	6124
152	6124
152	6124
152	6124
152	6124
153	6124
154	6124
156	6124
158	6124
159	6124
159	6124
161	6124
