1	6124
1	303
1	303
1	303
1	303
1	303
1	304
1	303
1	303
1	303
1	303
1	303
1	303
1	303
1	305
1	9
1	12
1	303
1	303
1	303
1	305
1	303
1	303
1	303
1	303
1	303
1	303
1	303
1	16
1	303
1	10
1	303
1	303
1	303
1	303
1	303
1	303
1	303
1	303
1	303
1	303
1	303
1	303
1	12
1	8
1	303
1	303
1	16
1	303
1	305
1	303
1	303
1	303
1	303
1	303
1	12
1	8
1	14
1	303
1	303
1	303
1	303
1	303
1	7
1	303
1	303
1	13
1	303
1	303
1	303
1	303
1	13
1	303
1	11
1	303
1	303
1	303
1	303
1	303
1	303
1	303
1	303
1	303
1	303
1	6
1	303
1	303
1	303
1	303
1	6
1	303
1	303
1	304
1	303
1	303
1	5
1	303
1	11
1	11
1	303
1	303
1	303
1	303
1	303
1	303
1	303
1	303
1	303
1	303
1	5
1	10
1	303
1	303
1	6
1	8
1	303
1	303
1	303
1	303
1	303
1	303
1	303
1	303
1	303
1	303
1	303
1	303
1	14
1	16
1	303
1	303
1	303
1	303
1	305
1	303
1	303
1	303
1	303
1	303
1	303
1	303
1	303
1	303
1	303
1	303
1	303
1	303
1	303
1	303
1	11
1	303
1	303
1	303
1	12
1	303
1	303
1	303
1	9
1	303
1	303
1	303
1	303
1	6
1	303
1	303
1	303
1	303
1	304
1	303
1	303
1	303
1	303
1	303
1	303
1	303
1	303
1	303
1	303
1	303
1	303
1	5
1	306
1	303
1	4
1	303
1	304
1	303
1	9
1	303
1	303
1	5
1	303
1	303
1	8
1	11
1	303
1	8
1	303
1	6
1	303
1	303
1	303
1	4
1	303
1	304
1	303
1	303
1	11
1	303
1	304
1	303
1	303
1	303
1	303
1	6124
1	303
1	303
1	303
1	4
1	8
1	7
1	304
1	303
1	303
1	303
1	303
1	303
1	303
1	303
1	5
1	303
1	303
1	303
1	12
1	303
1	303
1	303
1	303
1	303
1	14
1	303
1	303
1	303
1	303
1	2
1	303
1	12
1	303
1	303
1	13
1	303
1	8
1	303
1	7
1	303
1	303
1	303
1	12
1	303
1	303
1	16
1	303
1	303
1	303
1	303
1	11
1	303
1	303
1	6
1	303
1	11
1	5
1	303
1	303
1	303
1	304
1	303
1	11
1	303
1	303
1	303
1	303
1	303
1	303
1	303
1	5
1	303
1	303
1	303
1	303
1	303
1	303
1	11
1	304
1	303
1	303
1	303
1	303
1	304
1	303
1	303
1	303
1	303
1	303
1	303
1	303
1	303
1	303
1	303
1	303
1	303
1	303
1	303
1	303
1	303
1	303
1	4
1	303
1	6
1	303
1	303
1	6
1	304
1	303
1	303
1	303
1	8
1	303
1	303
1	303
1	303
1	303
1	303
1	303
1	303
1	303
2	8
2	304
2	12
2	3
2	3
2	3
2	3
2	4
2	3
2	8
2	3
2	6
2	15
2	304
2	3
2	4
2	5
2	15
2	3
2	3
2	3
2	3
2	11
2	5
2	8
2	5
2	5
2	4
2	9
2	6
2	3
2	4
2	3
2	3
2	8
2	9
2	4
3	4
3	4
3	4
3	4
3	4
3	4
3	4
3	7
3	4
3	4
3	5
3	5
3	5
3	4
3	4
3	4
3	4
3	5
4	5
4	5
4	5
4	5
4	5
4	6
5	7
5	6
5	6
5	6
5	6
6	7
6	7
6	7
6	7
7	9
7	8
10	11
10	11
13	14
302	303
