8	6124
12	6124
16	6124
16	6124
19	6124
23	6124
26	6124
29	6124
31	6124
35	6124
84	6124
84	6124
84	6124
84	6124
84	6124
84	6124
85	6124
85	6124
85	6124
85	6124
86	6124
86	6124
86	6124
86	6124
87	6124
87	6124
88	6124
88	6124
88	6124
88	6124
89	6124
89	6124
90	6124
90	6124
90	6124
92	6124
92	6124
