1	6124
1	57
1	57
1	57
1	57
1	57
1	57
1	57
1	58
1	57
1	57
1	57
1	57
1	57
1	58
1	58
1	58
1	58
1	57
1	57
1	57
1	57
1	58
1	57
1	57
1	57
1	58
1	57
1	57
1	57
1	57
1	6
1	58
1	57
1	10
1	57
1	57
1	8
1	8
1	57
1	57
1	57
1	57
1	57
1	57
1	57
1	57
1	57
1	57
1	58
1	57
1	57
1	57
2	3
2	58
2	9
2	4
2	5
2	7
2	4
2	3
2	3
2	3
2	3
2	9
2	3
2	9
2	4
2	3
2	3
2	4
3	4
3	5
4	5
7	8
56	57
