5	6124
8	6124
17	6124
23	6124
23	6124
23	6124
25	6124
106	6124
106	6124
106	6124
107	6124
107	6124
107	6124
108	6124
108	6124
108	6124
108	6124
109	6124
109	6124
109	6124
110	6124
110	6124
110	6124
110	6124
110	6124
110	6124
111	6124
112	6124
112	6124
112	6124
112	6124
112	6124
114	6124
117	6124
123	6124
