1	6124
1	113
1	20
1	8
1	20
1	97
1	13
1	117
1	13
1	6
1	12
1	12
1	12
1	96
1	24
1	95
1	6124
1	24
1	14
1	13
1	20
1	20
1	12
1	95
1	96
1	20
1	12
1	12
1	9
1	5
1	98
1	8
1	24
1	8
1	11
1	11
1	20
1	95
1	95
1	24
1	95
1	95
1	95
1	8
1	95
1	97
1	98
1	7
1	95
1	10
1	99
1	9
1	13
1	6
1	95
1	4
1	7
1	25
1	95
1	8
1	24
1	95
1	13
1	11
1	8
1	24
1	95
1	9
1	5
1	7
1	96
1	98
1	9
1	95
1	11
1	9
1	11
1	97
1	6
1	12
1	95
1	95
1	11
1	95
1	95
1	95
1	95
1	4
1	11
1	5
1	95
1	9
1	11
1	12
1	8
1	6
1	95
1	24
1	5
1	95
1	11
1	7
1	22
1	7
1	16
1	20
1	20
1	95
1	11
1	6
1	20
1	9
1	95
1	97
1	5
1	95
1	20
1	95
1	97
1	11
1	12
1	8
1	95
1	6124
1	6
1	10
1	6
1	7
1	95
1	95
1	7
1	20
1	95
1	24
1	95
1	12
1	8
1	95
1	4
1	20
1	4
1	11
1	3
1	95
1	5
1	96
1	95
1	20
1	24
1	9
1	95
1	24
1	5
1	7
1	95
1	6
1	95
1	8
1	7
1	5
1	6
1	11
1	11
1	25
1	6
1	95
1	10
1	24
1	16
1	5
1	10
1	6
1	5
1	97
1	7
1	15
1	4
1	8
1	96
1	8
1	12
1	5
1	95
1	5
1	11
1	24
1	5
1	8
1	16
1	7
1	24
1	20
1	6
1	5
1	5
1	7
1	95
1	24
1	96
1	11
1	10
1	24
1	6
1	12
1	11
1	6
1	7
1	24
1	24
1	6
1	8
1	95
1	20
1	7
1	9
1	7
1	7
1	5
1	95
1	95
1	95
1	20
1	95
1	95
1	95
1	95
1	95
1	95
1	96
1	24
1	24
1	11
1	5
1	4
1	96
1	9
1	95
1	6
1	7
1	11
1	20
1	9
1	15
1	95
1	95
1	5
1	95
1	4
1	9
1	8
1	7
1	4
1	5
1	6
2	3
2	3
2	4
2	3
2	3
2	6
2	4
2	3
2	3
2	7
2	7
2	3
2	3
2	4
2	5
2	11
2	4
2	3
2	5
2	3
2	3
2	5
2	4
2	3
2	4
2	5
2	3
2	4
2	3
2	5
2	4
2	4
2	4
2	3
2	4
2	3
2	5
2	6
2	7
2	3
2	5
2	3
2	7
2	3
2	4
2	3
2	5
2	4
2	4
2	4
2	7
2	4
2	6
2	3
2	4
2	4
2	3
2	4
2	4
2	4
2	3
2	3
2	3
2	3
2	3
2	4
2	3
2	4
2	4
2	3
2	4
2	3
2	3
2	7
2	4
2	3
2	5
2	4
2	3
2	6
2	3
2	3
2	3
2	5
3	5
3	4
3	4
3	4
3	4
3	4
3	4
3	4
3	4
3	4
3	4
3	4
3	6
3	4
3	5
3	4
3	4
3	4
3	7
3	4
3	4
3	4
3	5
3	4
3	4
3	4
3	4
3	4
3	5
3	4
3	4
3	4
3	4
3	4
3	4
3	4
4	6
4	5
4	5
4	5
4	5
4	5
4	5
4	6
4	5
4	5
4	5
4	5
4	5
4	5
4	5
5	7
5	6
5	7
5	6
5	6
5	6
5	7
5	6
6	7
6	7
6	7
6	7
6	7
6	7
7	8
8	9
8	9
8	9
9	10
9	10
9	10
10	11
10	11
14	15
19	20
23	24
94	95
