5	6124
9	6124
11	6124
20	6124
22	6124
25	6124
37	6124
39	6124
39	6124
42	6124
42	6124
107	6124
107	6124
107	6124
107	6124
108	6124
108	6124
108	6124
109	6124
110	6124
110	6124
110	6124
110	6124
111	6124
111	6124
111	6124
111	6124
112	6124
112	6124
114	6124
122	6124
125	6124
140	6124
