1	6124
1	296
1	296
1	296
1	297
1	11
1	10
1	296
1	296
1	296
1	296
1	296
1	296
1	296
1	9
1	296
1	296
1	11
1	298
1	297
1	11
1	296
1	296
1	296
1	296
1	296
1	10
1	12
1	296
1	296
1	296
1	296
1	296
1	11
1	7
1	296
1	296
1	296
1	296
1	4
1	296
1	296
1	296
1	296
1	296
1	296
1	296
1	296
1	296
1	296
1	296
1	14
1	296
1	296
1	296
1	296
1	296
1	11
1	296
1	297
1	296
1	296
1	8
1	9
1	296
1	10
1	7
1	296
1	296
1	298
1	296
1	296
1	6
1	296
1	296
1	296
1	296
1	296
1	8
1	10
1	7
1	8
1	296
1	296
1	296
1	296
1	296
1	8
1	296
1	296
1	296
1	296
1	296
1	296
1	296
1	10
1	296
1	297
1	296
1	296
1	296
1	296
1	296
1	296
1	296
1	296
1	296
1	9
1	296
1	296
1	296
1	297
1	296
1	296
1	296
1	296
1	9
1	6
1	296
1	9
1	298
1	8
1	296
1	296
1	296
1	296
1	6
1	296
1	296
1	296
1	296
1	6
1	296
1	296
1	296
1	10
1	296
1	296
1	296
1	296
1	296
1	6
1	296
1	296
1	296
1	296
1	296
1	296
1	296
1	296
1	296
1	296
1	296
1	296
1	296
1	296
1	296
1	296
1	296
1	10
1	296
1	296
1	296
1	296
1	296
1	296
1	8
1	296
1	7
1	297
1	7
1	296
1	296
1	296
1	296
1	6
1	296
1	296
1	296
1	296
1	296
1	296
1	296
1	296
1	296
1	296
1	296
1	296
1	296
1	296
1	5
1	296
1	6
1	296
1	296
1	296
1	296
1	296
1	297
1	296
1	296
1	6
1	296
1	297
1	296
1	296
1	296
1	296
1	8
1	296
1	297
1	296
1	296
1	297
1	296
1	296
1	296
1	296
1	296
1	296
1	6
1	296
1	7
1	296
1	296
1	296
1	6
1	296
1	4
1	296
1	296
1	296
1	296
1	296
1	8
1	9
1	9
1	296
1	9
1	296
1	296
1	296
1	296
1	5
1	296
1	9
1	296
1	296
1	296
1	7
1	296
1	296
1	296
1	296
1	296
1	296
1	296
1	296
1	296
1	296
1	296
1	296
1	296
1	296
1	7
1	296
1	296
1	296
1	296
1	296
1	296
1	4
1	296
1	296
1	296
1	296
1	296
1	9
1	296
1	296
1	6
1	296
1	5
1	296
1	296
1	4
1	296
1	296
1	8
1	7
1	296
1	5
1	296
1	296
1	296
1	297
1	296
1	296
1	296
1	296
1	296
1	296
1	296
1	296
1	296
1	296
1	4
1	296
1	7
1	296
1	296
1	296
1	296
1	8
1	296
1	296
1	296
1	296
1	296
1	296
1	296
1	296
1	6
1	10
1	296
1	296
1	296
1	296
1	296
1	296
1	296
1	296
1	8
1	8
1	296
1	296
1	296
1	296
1	9
1	296
1	296
2	8
2	4
2	7
2	11
2	4
2	3
2	3
2	6
2	9
2	4
2	3
2	4
2	5
2	3
2	9
2	3
2	4
2	8
2	3
2	3
2	3
2	4
2	5
2	4
2	4
2	3
2	4
2	4
2	3
2	3
2	5
2	5
2	4
2	8
2	6
2	3
2	4
2	3
2	7
2	3
2	3
2	3
2	3
2	3
2	3
2	5
2	3
2	3
2	9
2	4
3	5
3	6
3	5
3	4
3	4
3	4
3	4
3	6
3	4
3	4
3	4
3	4
3	4
3	4
3	4
3	4
3	4
3	4
3	4
3	5
3	5
3	4
3	4
3	4
4	5
4	5
4	6
4	5
4	5
4	5
4	5
4	5
5	6
5	7
5	6
5	6
5	6
6	7
6	7
6	7
6	8
7	9
7	8
7	8
8	9
8	9
8	9
295	296
