1	6124
1	13
1	11
1	12
1	96
1	93
1	95
1	10
1	17
1	10
1	92
1	11
1	16
1	16
1	11
1	91
1	91
1	93
1	92
1	13
1	94
1	9
1	96
1	6
1	8
1	91
1	92
1	15
1	91
1	10
1	5
1	10
1	91
1	92
1	10
1	8
1	91
1	91
1	91
1	10
1	9
1	7
1	15
1	91
1	11
1	91
1	14
1	10
1	6
1	15
1	93
1	6
1	94
1	91
1	4
1	6
1	10
1	7
1	7
1	7
1	7
1	91
1	9
1	10
1	8
1	10
1	6
1	9
1	8
1	9
1	91
1	13
1	6
1	12
1	6
1	91
1	7
1	13
1	92
1	9
1	91
1	6
1	4
1	91
1	7
1	91
1	14
1	5
1	91
1	4
1	9
1	91
1	8
1	9
1	5
1	10
1	11
1	11
1	10
1	7
1	8
1	91
1	4
1	7
1	8
1	6
1	91
1	91
1	10
1	7
1	9
1	9
1	8
1	9
1	9
1	5
1	91
1	10
1	91
1	7
1	11
1	8
1	91
1	9
1	10
1	12
1	9
1	91
1	8
1	5
1	9
1	93
1	12
1	7
1	7
1	5
1	6
1	9
1	7
1	7
1	8
1	91
1	6
1	5
1	7
1	5
1	91
1	7
1	5
1	5
1	5
1	17
1	6
1	9
1	5
1	15
1	9
1	91
1	9
1	8
1	14
1	10
1	7
1	9
1	4
1	92
1	6
1	92
1	15
1	6
1	8
1	7
1	6
1	8
1	11
1	7
1	6
1	4
1	7
1	7
1	91
1	8
1	91
1	7
1	91
1	14
1	6
1	92
1	7
1	7
1	92
1	91
1	8
1	6
1	4
1	10
1	8
1	91
1	7
1	7
1	9
1	14
1	5
1	8
1	9
1	91
1	4
1	9
1	6
1	8
1	4
1	92
1	6
1	9
1	5
1	7
1	8
1	7
1	7
1	6
1	11
1	7
1	5
1	9
1	91
1	13
1	8
1	7
1	8
1	10
1	4
1	5
1	91
1	91
1	6
2	6
2	3
2	5
2	3
2	3
2	5
2	3
2	3
2	5
2	4
2	3
2	8
2	3
2	4
2	3
2	6
2	4
2	6
2	6
2	4
2	6
2	5
2	3
2	7
2	7
2	4
2	3
2	3
2	3
2	3
2	5
2	6
2	3
2	3
2	3
2	4
2	3
2	3
2	4
2	3
2	3
2	3
2	15
2	3
2	3
2	4
2	3
2	3
2	8
2	4
2	4
2	3
2	4
2	9
2	3
2	3
2	3
2	4
2	3
2	7
2	6
2	5
2	4
2	4
2	3
2	4
2	4
2	3
2	4
2	4
2	3
2	3
2	4
2	3
2	5
2	9
2	3
2	3
2	4
2	3
2	3
2	3
2	4
2	4
2	4
2	3
2	6
2	3
2	3
2	3
2	4
2	3
2	3
2	3
2	4
2	3
3	4
3	4
3	4
3	4
3	4
3	4
3	4
3	4
3	4
3	4
3	9
3	5
3	4
3	4
3	4
3	8
3	4
3	6
3	4
3	7
3	5
3	4
3	4
3	4
3	4
3	4
3	4
3	5
3	8
3	4
3	6
3	4
3	4
3	4
3	5
3	4
3	5
3	4
3	4
3	4
3	4
4	6
4	5
4	5
4	5
4	5
4	5
4	5
4	5
4	5
4	5
4	5
4	5
4	5
4	5
4	6
4	6
4	6
4	5
4	5
4	5
4	5
5	6
5	6
5	6
5	6
5	7
5	6
5	6
5	6
5	6
5	6
5	6
5	6
5	6
5	6
6	7
6	7
6	7
6	7
6	7
6	7
6	7
6	7
7	8
7	8
7	8
7	8
7	8
7	8
7	8
8	9
10	11
10	11
12	13
13	14
90	91
