7	6124
10	6124
11	6124
12	6124
12	6124
14	6124
14	6124
14	6124
14	6124
14	6124
15	6124
15	6124
15	6124
16	6124
16	6124
16	6124
18	6124
19	6124
20	6124
20	6124
25	6124
25	6124
27	6124
126	6124
127	6124
127	6124
127	6124
127	6124
127	6124
127	6124
128	6124
128	6124
128	6124
128	6124
128	6124
128	6124
129	6124
129	6124
129	6124
129	6124
129	6124
130	6124
130	6124
131	6124
131	6124
131	6124
131	6124
131	6124
131	6124
131	6124
133	6124
133	6124
133	6124
133	6124
133	6124
133	6124
134	6124
134	6124
135	6124
