1	6124
1	199
1	196
1	204
1	196
1	203
1	197
1	11
1	19
1	15
1	201
1	196
1	196
1	14
1	197
1	196
1	10
1	199
1	198
1	196
1	14
1	15
1	196
1	196
1	196
1	196
1	196
1	9
1	202
1	196
1	6
1	4
1	12
1	8
1	14
1	196
1	7
1	197
1	199
1	196
1	9
1	196
1	6
1	196
1	196
1	196
1	196
1	196
1	8
1	196
1	11
1	199
1	199
1	196
1	196
1	8
1	11
1	8
1	197
1	196
1	5
1	196
1	196
1	10
1	196
1	6
1	196
1	196
1	14
1	5
1	7
1	5
1	6
1	196
1	7
1	7
1	196
1	198
1	196
1	196
1	9
1	196
1	196
1	196
1	9
1	196
1	197
1	10
1	196
1	7
1	11
1	8
1	196
1	10
1	7
1	196
1	196
1	196
1	8
1	12
1	200
1	196
1	199
1	8
1	7
1	196
1	11
1	7
1	7
1	7
1	8
1	196
1	198
1	196
1	196
1	6
1	196
1	196
1	196
1	196
1	9
1	196
1	196
1	8
1	196
1	6
1	7
1	13
1	6
1	196
1	196
1	200
1	196
1	7
1	4
1	5
1	196
1	4
1	198
1	196
1	10
1	196
1	8
1	4
1	7
1	196
1	196
1	5
1	7
1	8
1	5
1	196
1	197
1	6
1	8
1	14
1	7
1	14
1	196
1	196
1	196
1	4
1	196
1	196
1	10
1	196
1	196
1	196
1	196
1	7
1	8
1	6
1	196
1	196
1	6
1	196
1	196
1	4
1	198
1	196
1	7
1	10
1	196
1	7
1	196
1	6
1	196
1	196
1	10
1	196
1	196
1	196
1	5
1	196
1	196
1	196
1	196
1	7
1	4
1	196
1	196
1	196
1	196
1	196
1	8
1	198
1	5
1	4
1	13
1	6
1	196
1	11
1	196
1	196
1	196
1	12
1	196
1	196
1	6
1	196
1	197
1	5
1	10
1	196
1	196
1	196
1	197
1	196
1	13
1	196
1	196
1	196
1	198
1	6
1	196
1	198
1	197
1	196
1	196
1	11
1	6
1	196
1	6
1	196
1	196
1	6
1	8
1	196
1	5
1	4
1	196
1	196
1	196
1	6
1	4
1	196
1	9
1	4
1	196
1	196
1	5
1	7
1	7
1	6
1	7
1	6
1	196
1	7
1	9
1	4
1	4
1	8
1	5
1	196
1	196
1	5
1	6
1	196
1	6
1	197
1	13
1	196
1	196
1	196
1	5
1	4
1	6
1	4
1	5
1	196
1	10
1	196
1	196
1	196
1	196
1	196
1	196
1	10
1	196
1	196
2	4
2	3
2	3
2	3
2	5
2	3
2	8
2	4
2	12
2	4
2	197
2	3
2	5
2	5
2	12
2	3
2	3
2	5
2	5
2	8
2	6
2	3
2	4
2	5
2	4
2	5
2	4
2	3
2	3
2	7
2	5
2	3
2	4
2	4
2	5
2	8
2	5
2	5
2	4
2	4
2	3
2	3
2	6
2	3
2	3
2	6
2	4
2	3
2	4
2	3
2	3
2	7
2	6
2	8
2	3
2	7
2	12
2	6
2	3
2	4
2	3
2	4
2	4
2	3
2	3
2	5
2	3
2	4
2	4
2	3
2	3
2	3
3	4
3	4
3	4
3	5
3	4
3	4
3	5
3	4
3	4
3	4
3	4
3	4
3	4
3	6
3	5
3	4
3	4
3	5
3	4
3	5
3	4
3	4
3	5
3	4
3	4
3	5
3	4
3	4
3	4
3	4
3	4
3	4
3	4
3	5
4	5
4	5
4	6
4	5
4	5
4	5
4	5
4	5
4	5
4	5
4	5
4	5
4	5
4	5
4	5
4	5
4	5
4	5
4	5
5	6
5	6
5	6
5	6
5	6
5	6
5	6
5	6
6	7
6	7
6	7
6	7
7	8
7	8
7	8
8	9
9	10
9	10
10	11
12	13
195	196
