9	6124
36	6124
378	6124
378	6124
378	6124
378	6124
378	6124
378	6124
378	6124
378	6124
378	6124
378	6124
378	6124
378	6124
378	6124
378	6124
378	6124
378	6124
378	6124
378	6124
378	6124
378	6124
378	6124
378	6124
378	6124
378	6124
378	6124
378	6124
378	6124
378	6124
378	6124
378	6124
379	6124
379	6124
379	6124
379	6124
379	6124
379	6124
380	6124
380	6124
380	6124
381	6124
381	6124
381	6124
381	6124
382	6124
