7	6124
12	6124
13	6124
14	6124
14	6124
16	6124
168	6124
168	6124
168	6124
168	6124
168	6124
168	6124
168	6124
168	6124
168	6124
169	6124
169	6124
169	6124
169	6124
169	6124
169	6124
169	6124
169	6124
169	6124
169	6124
169	6124
170	6124
170	6124
171	6124
171	6124
172	6124
173	6124
174	6124
175	6124
