1	6124
1	257
1	257
1	257
1	257
1	258
1	257
1	258
1	257
1	257
1	6124
1	24
1	257
1	257
1	12
1	11
1	260
1	257
1	257
1	257
1	257
1	5
1	257
1	257
1	257
1	257
1	257
1	257
1	257
1	257
1	257
1	257
1	257
1	11
1	257
1	257
1	13
1	23
1	257
1	257
1	28
1	257
1	9
1	257
1	11
1	257
1	257
1	13
1	257
1	258
1	257
1	14
1	257
1	257
1	257
1	257
1	257
1	257
1	9
1	257
1	257
1	257
1	257
1	257
1	12
1	23
1	12
1	257
1	13
1	257
1	257
1	5
1	258
1	257
1	13
1	257
1	258
1	257
1	257
1	257
1	257
1	257
1	257
1	257
1	257
1	257
1	259
1	12
1	257
1	12
1	13
1	257
1	257
1	257
1	257
1	257
1	10
1	257
1	11
1	257
1	257
1	257
1	257
1	5
1	257
1	257
1	257
1	23
1	257
1	257
1	257
1	11
1	257
1	257
1	4
1	257
1	257
1	257
1	257
1	257
1	257
1	257
1	257
1	12
1	257
1	257
1	257
1	257
1	257
1	257
1	257
1	257
1	257
1	10
1	257
1	257
1	257
1	257
1	257
1	257
1	11
1	258
1	257
1	257
1	257
1	257
1	24
1	257
1	257
1	10
1	23
1	257
1	257
1	13
1	257
1	257
1	257
1	11
1	257
1	257
1	11
1	10
1	257
1	257
1	7
1	257
1	257
1	257
1	257
1	257
1	257
1	7
1	257
1	257
1	11
1	257
1	257
1	7
1	257
1	257
1	257
1	9
1	11
1	257
1	4
1	257
1	11
1	257
1	257
1	14
1	12
1	257
1	257
1	257
1	11
1	257
1	257
1	257
1	10
1	13
1	23
1	257
1	257
1	257
1	257
1	257
1	257
1	257
1	258
1	257
1	5
1	257
1	11
1	7
1	257
1	257
1	257
1	257
1	257
1	10
1	10
1	257
1	257
1	257
1	257
1	10
1	257
1	257
1	257
1	257
1	257
1	9
1	257
1	4
1	257
1	257
1	257
1	10
1	257
1	5
1	257
1	12
1	257
1	257
1	23
1	257
1	257
1	257
1	257
1	257
1	257
1	11
1	257
1	257
1	11
1	11
1	8
1	257
1	257
1	257
1	257
1	6
1	11
1	3
1	257
1	5
1	257
1	7
1	257
1	257
1	257
1	257
1	257
1	257
1	257
1	257
1	257
1	257
1	257
1	7
1	257
1	257
1	257
1	8
1	257
1	4
1	257
1	9
1	257
1	257
1	8
1	257
1	257
1	257
1	257
1	11
1	5
1	257
1	257
1	257
1	257
1	257
1	257
1	11
2	10
2	10
2	7
2	25
2	3
2	3
2	8
2	3
2	5
2	24
2	5
2	4
2	5
2	10
2	7
2	12
2	7
2	5
2	3
2	13
2	12
2	4
2	4
2	24
2	3
2	24
2	3
2	12
2	5
2	3
2	12
2	12
2	4
2	13
2	6
2	11
2	3
2	3
2	9
2	6
2	258
2	3
2	6
2	4
3	7
3	5
3	4
3	4
3	11
3	4
3	7
3	4
3	4
3	5
3	4
3	6
3	4
3	4
3	5
3	5
3	4
3	5
3	5
3	9
3	5
3	4
3	4
3	6
3	4
3	4
3	4
4	6
4	5
4	5
4	5
4	5
4	5
4	5
5	6
6	7
6	9
6	7
7	8
7	8
7	8
8	9
8	9
9	10
10	11
10	11
10	11
10	11
11	12
11	12
22	23
256	257
