7	6124
25	6124
31	6124
32	6124
32	6124
32	6124
33	6124
33	6124
33	6124
35	6124
36	6124
97	6124
98	6124
98	6124
98	6124
99	6124
99	6124
99	6124
99	6124
100	6124
100	6124
100	6124
100	6124
100	6124
100	6124
100	6124
100	6124
100	6124
100	6124
100	6124
100	6124
101	6124
101	6124
101	6124
101	6124
101	6124
102	6124
103	6124
104	6124
105	6124
111	6124
122	6124
