8	6124
11	6124
11	6124
11	6124
12	6124
14	6124
16	6124
16	6124
16	6124
17	6124
17	6124
17	6124
18	6124
18	6124
18	6124
19	6124
19	6124
19	6124
19	6124
20	6124
20	6124
20	6124
21	6124
21	6124
22	6124
23	6124
23	6124
23	6124
23	6124
24	6124
24	6124
25	6124
25	6124
26	6124
26	6124
27	6124
28	6124
28	6124
37	6124
37	6124
37	6124
37	6124
37	6124
37	6124
38	6124
38	6124
39	6124
40	6124
40	6124
40	6124
41	6124
42	6124
42	6124
42	6124
47	6124
47	6124
50	6124
52	6124
80	6124
80	6124
80	6124
80	6124
80	6124
80	6124
80	6124
80	6124
80	6124
80	6124
80	6124
81	6124
81	6124
81	6124
81	6124
81	6124
81	6124
82	6124
82	6124
82	6124
82	6124
83	6124
83	6124
83	6124
84	6124
84	6124
84	6124
84	6124
85	6124
85	6124
85	6124
86	6124
89	6124
90	6124
95	6124
99	6124
