1	6124
1	348
1	346
1	346
1	346
1	346
1	346
1	346
1	347
1	346
1	346
1	347
1	346
1	346
1	346
1	346
1	346
1	347
1	346
1	346
1	346
1	346
1	347
1	346
1	346
1	347
1	346
1	346
1	346
1	346
1	346
1	346
1	346
1	346
1	346
1	346
1	346
1	346
1	346
1	346
1	346
1	346
1	346
1	346
1	346
1	6
1	346
1	346
1	346
1	346
1	349
1	346
1	346
1	346
1	346
1	346
1	346
1	346
1	346
1	346
1	346
1	346
1	347
1	346
1	346
1	346
1	346
1	346
1	346
1	346
1	346
1	348
1	8
1	346
1	346
1	346
1	346
1	347
1	11
1	346
1	346
1	346
1	348
1	346
1	350
1	346
1	346
1	346
1	346
1	346
1	346
1	346
1	347
1	346
1	346
1	346
1	346
1	346
1	346
1	348
1	346
1	346
1	346
1	346
1	7
1	346
1	346
1	346
1	346
1	346
1	346
1	346
1	346
1	346
1	346
1	346
1	346
1	346
1	9
1	346
1	346
1	346
1	9
1	5
1	9
1	346
1	346
1	346
1	346
1	346
1	7
1	346
1	346
1	346
1	349
1	9
1	346
1	346
1	346
1	346
1	346
1	346
1	346
1	346
1	346
1	346
1	346
1	11
1	6
1	346
1	346
1	346
1	6
1	346
1	346
1	5
1	346
1	346
1	5
1	346
1	346
1	346
1	5
1	346
1	346
1	346
1	346
1	346
1	346
1	9
1	7
1	348
1	346
1	346
1	346
1	346
1	346
1	5
1	346
1	346
1	346
1	346
1	346
1	346
1	346
1	11
1	346
1	10
1	346
1	346
1	346
1	346
1	346
1	346
1	346
1	346
1	346
1	346
1	346
1	346
1	346
1	8
1	346
1	346
1	346
1	346
1	5
1	346
1	346
1	346
1	346
1	346
1	346
1	347
1	346
1	346
1	9
1	10
1	7
1	346
1	346
1	346
1	346
1	346
1	346
1	347
1	346
1	346
1	346
1	346
1	346
1	346
1	346
1	346
1	346
1	5
1	346
1	346
1	346
1	346
1	346
1	346
1	346
1	346
1	346
1	346
1	346
1	346
1	346
1	346
1	346
1	346
1	7
1	346
1	346
1	5
1	346
1	346
1	346
1	346
1	346
1	346
1	346
1	346
1	346
1	346
1	346
1	346
1	346
1	346
1	8
1	346
1	9
1	346
1	346
1	346
1	346
1	346
1	346
1	346
1	346
1	7
1	346
1	346
1	346
1	346
1	346
1	346
1	346
1	4
1	346
1	346
1	346
1	346
1	346
1	346
1	346
1	346
1	346
1	346
1	346
1	346
1	346
1	346
1	346
1	346
1	346
1	346
1	346
1	346
1	346
1	346
1	346
1	346
1	10
1	346
1	346
1	346
1	346
1	346
1	346
1	346
1	346
1	346
1	346
1	346
1	346
1	346
1	346
1	346
1	346
1	346
1	346
1	346
1	346
1	346
1	346
1	346
1	346
1	346
1	7
1	346
1	346
1	346
1	346
1	346
1	346
1	346
1	10
1	346
1	346
1	346
1	346
1	346
1	346
1	346
1	346
1	346
1	5
1	346
1	5
1	346
1	346
1	346
1	346
1	346
1	346
1	346
1	8
1	346
1	346
1	346
1	346
1	346
1	346
2	6
2	3
2	4
2	3
2	6
2	9
2	3
2	3
2	3
2	3
2	4
2	6
2	8
2	10
2	3
2	3
2	3
2	3
2	4
2	3
2	6
2	3
2	3
2	12
2	3
2	3
3	4
3	6
3	4
3	4
3	4
3	5
3	5
3	4
3	4
3	4
3	4
3	5
3	4
4	5
4	5
4	6
4	5
4	5
4	5
5	6
6	7
6	7
7	8
8	9
9	10
345	346
