1	6124
1	135
1	134
1	133
1	133
1	132
1	5
1	21
1	11
1	132
1	133
1	136
1	132
1	9
1	19
1	17
1	142
1	17
1	132
1	132
1	132
1	134
1	132
1	132
1	132
1	11
1	14
1	132
1	134
1	17
1	16
1	11
1	7
1	10
1	132
1	132
1	16
1	6
1	6
1	14
1	17
1	132
1	9
1	8
1	13
1	132
1	8
1	133
1	13
1	132
1	132
1	8
1	13
1	12
1	21
1	9
1	132
1	16
1	132
1	7
1	138
1	132
1	10
1	132
1	13
1	4
1	134
1	6
1	16
1	9
1	8
1	133
1	12
1	133
1	132
1	132
1	134
1	25
1	132
1	11
1	8
1	8
1	132
1	132
1	132
1	6
1	10
1	133
1	135
1	135
1	8
1	10
1	6
1	132
1	132
1	132
1	132
1	132
1	7
1	14
1	132
1	4
1	132
1	133
1	10
1	132
1	133
1	132
1	18
1	10
1	132
1	5
1	132
1	136
1	20
1	6
1	133
1	4
1	8
1	8
1	132
1	133
1	4
1	132
1	9
1	132
1	5
1	6
1	11
1	9
1	132
1	133
1	6
1	12
1	11
1	132
1	23
1	132
1	132
1	6
1	6
1	8
1	6
1	4
1	21
1	137
1	16
1	133
1	8
1	12
1	4
1	6
1	132
1	23
1	133
1	6
1	5
1	8
1	134
1	13
1	132
1	4
1	10
1	132
1	4
1	10
1	4
1	8
1	132
1	132
1	5
1	6
1	8
1	132
1	12
1	6
1	133
1	132
1	132
1	132
1	132
1	6
1	13
1	13
1	7
1	7
1	132
1	6
1	13
1	7
1	6
1	10
1	132
1	5
1	6
1	133
1	11
1	8
1	133
1	16
1	9
1	5
1	6
1	6
1	132
1	6
1	132
1	132
1	13
1	6
1	16
1	6
1	6
1	132
1	20
1	6
1	5
1	5
1	133
1	5
1	9
1	7
1	7
1	133
1	7
1	20
1	6
1	4
1	13
1	16
1	13
1	7
1	133
1	4
1	5
1	133
1	132
1	132
1	12
1	7
1	13
1	132
1	6
1	7
1	6
1	10
1	132
1	132
1	5
1	7
1	133
1	7
1	5
1	20
1	132
1	133
1	8
1	133
1	20
1	5
1	7
1	133
1	7
1	5
1	6
1	7
1	6
2	4
2	3
2	4
2	5
2	11
2	3
2	5
2	3
2	3
2	3
2	3
2	3
2	3
2	3
2	6
2	6
2	3
2	3
2	7
2	8
2	3
2	3
2	6
2	3
2	3
2	3
2	9
2	6
2	5
2	3
2	21
2	3
2	3
2	8
2	3
2	6
2	21
2	3
2	3
2	3
2	3
2	3
2	3
2	3
2	5
2	5
2	3
2	3
2	4
2	3
2	8
2	4
2	4
2	4
2	3
2	3
2	4
2	4
2	4
2	8
2	6
2	3
2	3
2	3
2	3
2	4
2	3
2	3
2	3
2	4
2	3
2	3
2	4
2	6
2	3
2	4
2	3
2	3
2	4
2	3
2	3
2	4
2	4
2	4
2	3
2	4
2	3
2	4
2	3
2	3
3	5
3	9
3	4
3	4
3	4
3	4
3	4
3	5
3	4
3	4
3	5
3	4
3	4
3	4
3	5
3	4
3	5
3	4
3	4
3	5
3	6
3	4
3	4
3	4
3	5
3	5
3	4
3	4
3	4
3	5
3	4
3	4
3	5
3	4
3	5
3	4
4	5
4	5
4	5
4	5
4	5
4	5
4	6
4	5
4	5
4	5
4	5
4	5
4	5
4	5
4	5
4	5
5	6
5	6
5	6
5	6
5	6
5	6
5	6
5	6
5	6
5	6
5	6
5	6
5	6
6	7
6	7
6	7
6	7
6	7
7	8
7	8
8	9
9	10
9	10
11	12
12	13
15	16
19	20
131	132
