1	6124
1	17
1	154
1	13
1	13
1	12
1	153
1	153
1	13
1	153
1	153
1	153
1	17
1	153
1	153
1	13
1	16
1	18
1	23
1	7
1	18
1	9
1	11
1	15
1	15
1	9
1	153
1	6
1	153
1	153
1	155
1	153
1	153
1	14
1	153
1	12
1	154
1	16
1	19
1	15
1	153
1	10
1	153
1	22
1	12
1	11
1	9
1	153
1	153
1	155
1	153
1	21
1	153
1	12
1	12
1	6
1	8
1	10
1	13
1	153
1	153
1	21
1	9
1	9
1	4
1	21
1	16
1	15
1	9
1	153
1	11
1	153
1	156
1	153
1	153
1	153
1	10
1	8
1	16
1	153
1	14
1	20
1	17
1	15
1	153
1	12
1	153
1	11
1	154
1	21
1	153
1	12
1	153
1	9
1	5
1	9
1	14
1	11
1	153
1	11
1	153
1	153
1	7
1	17
1	155
1	156
1	17
1	153
1	17
1	153
1	12
1	6
1	21
1	153
1	9
1	153
1	155
1	9
1	10
1	153
1	21
1	10
1	8
1	16
1	21
1	7
1	5
1	153
1	153
1	10
1	153
1	6
1	4
1	154
1	8
1	5
1	153
1	153
1	153
1	5
1	11
1	15
1	21
1	12
1	16
1	15
1	153
1	12
1	153
1	153
1	8
1	153
1	153
1	153
1	153
1	153
1	9
1	4
1	153
1	8
1	9
1	153
1	6
1	21
1	12
1	8
1	153
1	13
1	10
1	16
1	16
1	8
1	13
1	15
1	6
1	7
1	153
1	6
1	154
1	153
1	9
1	6
1	6
1	153
1	21
1	153
1	154
1	9
1	11
1	12
1	9
1	8
1	153
1	5
1	15
1	153
1	153
1	153
1	153
1	8
1	9
1	7
1	7
1	153
1	16
1	153
1	7
1	8
1	5
1	8
1	13
1	153
1	153
1	154
1	153
1	21
1	11
1	153
1	5
1	153
1	8
1	21
1	153
1	8
1	153
1	7
1	8
1	4
1	153
1	5
1	21
1	8
1	6
1	8
1	153
1	8
1	153
1	8
1	9
1	9
1	153
1	17
1	8
1	5
1	11
1	4
1	10
1	8
1	153
1	15
1	153
1	153
1	153
1	153
1	153
1	153
1	153
1	153
1	15
1	4
1	16
1	11
2	9
2	10
2	3
2	11
2	10
2	18
2	3
2	3
2	13
2	13
2	3
2	3
2	3
2	9
2	3
2	7
2	3
2	4
2	5
2	6
2	9
2	3
2	4
2	5
2	3
2	8
2	3
2	6
2	6
2	9
2	3
2	9
2	12
2	3
2	9
2	9
2	5
2	3
2	9
2	3
2	3
2	6
2	7
2	3
2	4
2	3
2	4
2	6
2	3
2	11
2	9
3	4
3	4
3	5
3	4
3	7
3	5
3	8
3	8
3	7
3	4
3	4
3	4
3	4
3	6
3	4
3	5
3	5
3	4
3	4
3	4
3	4
3	4
4	5
4	5
4	7
4	5
4	5
4	5
4	5
4	5
4	5
4	5
4	5
4	5
4	5
4	6
4	6
4	5
4	5
4	6
4	10
4	7
4	5
4	5
4	5
5	6
5	7
5	6
5	6
5	6
5	6
5	6
5	6
5	6
6	7
6	7
6	7
6	7
6	8
6	7
6	9
7	8
7	8
7	8
7	8
7	8
8	9
8	9
8	9
9	10
9	10
10	11
10	11
11	12
11	12
12	14
14	15
15	16
15	16
20	21
152	153
