1	6124
1	88
1	87
1	87
1	87
1	87
1	87
1	87
1	9
1	87
1	87
1	89
1	87
1	87
1	88
1	87
1	87
1	87
1	87
1	88
1	88
1	87
1	87
1	87
1	87
1	87
1	87
1	87
1	88
1	87
1	14
1	87
1	87
1	88
1	87
1	88
1	87
1	87
1	87
1	87
1	87
1	10
1	87
1	4
1	87
1	87
1	87
1	87
1	87
1	87
1	11
1	87
1	9
1	87
1	5
1	87
1	87
1	87
1	87
1	87
1	88
1	87
1	87
1	87
1	87
1	87
1	87
1	87
1	87
1	87
1	6
1	7
1	87
2	3
2	6
2	7
2	7
2	8
2	88
2	5
2	88
2	3
2	5
2	4
2	3
2	3
2	5
2	6
2	6
2	3
2	7
2	6
2	4
2	8
2	8
2	7
2	4
2	6
2	5
3	6
3	6
3	4
3	5
3	5
3	5
3	5
3	6
3	4
4	5
4	5
4	6
5	7
5	6
6	7
8	9
86	87
