1	6124
1	45
1	46
1	47
1	45
1	46
1	45
1	45
1	13
1	9
1	45
1	45
1	11
1	45
1	9
1	45
1	9
1	45
1	8
1	10
1	45
1	7
1	4
1	7
1	46
1	45
1	9
1	46
1	45
1	46
1	45
1	9
1	8
1	45
1	45
1	8
1	45
1	45
1	45
1	45
1	9
1	45
1	45
1	6
1	45
1	45
2	8
2	3
2	3
2	7
2	4
2	3
2	7
2	3
2	7
2	3
2	3
2	7
2	5
3	4
3	4
3	5
3	7
3	7
3	5
3	6
4	6
4	5
4	7
5	6
5	6
5	6
5	6
7	8
8	9
44	45
