1	6124
1	120
1	119
1	119
1	119
1	119
1	11
1	122
1	10
1	119
1	9
1	119
1	119
1	119
1	10
1	14
1	119
1	122
1	119
1	119
1	119
1	119
1	6
1	121
1	9
1	119
1	119
1	119
1	9
1	8
1	120
1	8
1	119
1	5
1	119
1	119
1	119
1	119
1	119
1	8
1	119
1	119
1	119
1	119
1	5
1	119
1	5
1	13
1	119
1	119
1	119
1	119
1	119
1	6
1	8
1	119
1	10
1	119
1	119
1	119
1	119
1	119
1	9
1	8
1	119
1	119
1	120
1	7
1	119
1	9
1	119
1	8
1	12
1	119
1	5
1	119
1	120
1	8
1	120
1	119
1	119
1	119
1	119
1	119
1	119
1	120
1	119
1	119
1	6
1	8
1	119
1	119
1	8
1	119
1	5
1	7
1	8
1	119
1	119
1	119
1	119
1	119
1	119
1	10
1	4
2	8
2	120
2	5
2	8
2	6
2	5
2	4
2	3
2	6
2	6
2	6
2	8
2	3
2	120
2	7
2	7
2	3
2	4
2	4
2	3
2	120
2	3
2	8
2	6
2	13
2	4
2	8
2	7
2	120
2	4
2	3
2	5
2	4
2	7
2	3
2	120
2	6
2	4
2	3
2	4
2	4
2	3
3	6
3	4
3	5
3	5
3	9
3	5
3	5
3	6
3	4
3	4
3	5
3	5
3	6
3	4
3	4
3	5
3	7
3	4
3	4
3	4
4	5
4	5
4	5
4	6
4	5
4	5
4	5
4	5
4	5
4	5
4	5
4	7
4	5
5	7
5	6
5	7
5	6
6	7
6	7
6	7
6	7
11	12
118	119
