1	6124
1	116
1	14
1	115
1	115
1	116
1	8
1	116
1	12
1	116
1	8
1	9
1	115
1	12
1	115
1	116
1	12
1	115
1	115
1	11
1	11
1	116
1	9
1	12
1	11
1	10
1	115
1	115
1	9
1	115
1	118
1	115
1	11
1	16
1	12
1	115
1	115
1	8
1	10
1	8
1	115
1	115
1	120
1	10
1	10
1	8
1	10
1	9
1	115
1	116
1	116
1	8
1	10
1	14
1	118
1	8
1	115
1	4
1	8
1	6
1	7
1	115
1	9
1	115
1	8
1	5
1	8
1	7
1	115
1	8
1	8
1	115
1	115
1	8
1	6
1	7
1	4
1	115
1	6
1	6
1	13
1	10
1	9
1	119
1	8
1	115
1	7
1	13
1	116
1	5
1	5
1	6
1	5
1	115
1	9
1	11
1	115
1	10
1	115
1	117
1	9
1	8
1	116
1	7
1	115
1	115
1	12
1	11
1	115
1	11
1	7
1	115
1	8
1	6
1	115
1	115
1	5
1	115
1	115
1	115
1	115
1	10
1	116
1	115
1	115
1	8
1	6
1	9
1	115
1	5
1	12
1	115
1	9
1	9
1	5
1	7
1	6
1	8
1	6
1	115
1	6
1	9
1	8
1	5
1	4
1	7
1	115
1	115
1	8
1	5
1	6
1	116
1	8
1	8
1	9
1	115
1	10
1	115
1	6
1	7
1	9
1	6
1	6
1	4
1	10
1	6
1	7
1	115
1	7
1	5
1	5
1	5
1	8
1	9
1	10
1	7
1	6
1	116
1	5
1	8
1	7
1	12
1	115
1	7
1	9
1	7
1	6
1	115
1	5
1	9
1	11
1	5
1	115
1	115
1	115
1	6
1	6
1	9
1	11
1	7
1	9
1	116
1	7
1	6
1	5
1	6
1	6
1	116
1	9
1	115
1	5
1	9
1	9
1	8
1	11
1	8
1	12
1	6
1	7
1	116
1	11
1	6
1	7
1	8
1	8
1	7
1	8
1	115
1	115
1	7
1	5
1	7
1	10
1	9
1	7
1	4
1	115
1	4
1	115
1	8
1	9
1	5
1	5
1	7
1	7
1	115
1	9
2	3
2	3
2	3
2	3
2	3
2	3
2	3
2	4
2	3
2	3
2	3
2	3
2	3
2	3
2	3
2	3
2	3
2	3
2	6
2	3
2	3
2	7
2	5
2	7
2	4
2	3
2	5
2	4
2	8
2	4
2	7
2	3
2	3
2	7
2	3
2	3
2	5
2	3
2	4
2	6
2	4
2	3
2	4
2	7
2	9
2	4
2	5
2	3
2	4
2	3
2	3
2	4
2	5
2	3
2	5
2	4
2	3
2	8
2	3
2	3
2	3
2	7
2	3
2	3
2	4
2	3
2	3
2	3
2	4
2	3
2	7
2	3
2	4
2	7
2	5
2	3
2	4
2	8
2	3
2	4
2	3
2	4
2	9
2	5
3	4
3	5
3	4
3	4
3	4
3	5
3	6
3	4
3	4
3	4
3	4
3	4
3	4
3	5
3	4
3	6
3	4
3	5
3	4
3	4
3	8
3	4
3	5
3	8
3	4
3	4
3	4
3	4
3	4
3	4
4	5
4	5
4	5
4	5
4	6
4	5
4	5
4	5
4	5
4	5
4	5
4	5
4	5
4	5
4	5
4	7
4	5
4	6
4	5
4	5
4	6
4	6
4	5
5	6
5	6
5	6
5	6
5	6
5	7
5	6
5	6
5	6
5	6
5	6
5	6
5	6
6	7
6	8
6	7
6	7
6	7
6	7
6	7
6	7
7	8
7	8
7	8
7	8
7	8
7	8
7	8
8	9
8	9
8	9
9	10
10	11
114	115
