1	6124
1	25
1	13
1	20
1	185
1	187
1	184
1	184
1	184
1	186
1	184
1	184
1	184
1	184
1	184
1	185
1	24
1	24
1	185
1	184
1	184
1	184
1	184
1	184
1	17
1	184
1	23
1	184
1	184
1	184
1	9
1	184
1	12
1	184
1	15
1	15
1	23
1	8
1	13
1	23
1	184
1	6
1	22
1	184
1	11
1	11
1	11
1	184
1	18
1	185
1	185
1	10
1	185
1	9
1	23
1	10
1	15
1	184
1	11
1	11
1	9
1	184
1	22
1	5
1	186
1	15
1	11
1	184
1	14
1	184
1	10
1	15
1	184
1	15
1	185
1	9
1	6
1	185
1	184
1	22
1	184
1	11
1	184
1	184
1	4
1	12
1	184
1	184
1	13
1	184
1	6
1	187
1	13
1	184
1	184
1	184
1	12
1	12
1	184
1	10
1	184
1	6
1	184
1	10
1	185
1	184
1	184
1	23
1	184
1	7
1	184
1	184
1	10
1	184
1	184
1	11
1	10
1	8
1	9
1	15
1	11
1	184
1	184
1	184
1	11
1	184
1	14
1	184
1	13
1	9
1	184
1	184
1	184
1	184
1	13
1	184
1	184
1	13
1	184
1	184
1	11
1	18
1	9
1	184
1	184
1	184
1	13
1	18
1	13
1	16
1	184
1	184
1	184
1	184
1	185
1	10
1	185
1	184
1	184
1	184
1	5
1	184
1	13
1	15
1	184
1	184
1	22
1	184
1	13
1	10
1	6
1	14
1	184
1	14
1	184
1	4
1	8
1	15
1	184
1	21
1	184
1	15
1	184
1	11
1	185
1	184
1	8
1	184
1	4
1	184
1	184
1	14
1	14
1	9
1	184
1	8
1	184
1	5
1	184
1	10
1	21
1	10
1	184
1	7
1	21
1	184
1	184
1	7
1	11
1	184
1	6
1	5
1	12
1	5
1	11
1	184
1	6
1	184
1	5
1	22
1	184
1	22
1	13
1	184
1	184
1	5
1	184
1	184
1	13
1	6
1	184
1	184
1	13
1	23
1	184
1	7
1	10
1	184
1	11
1	184
1	10
1	6
1	11
1	7
1	184
1	184
1	10
1	9
1	5
1	11
1	184
1	184
1	184
1	184
1	14
1	9
1	184
1	7
1	22
1	184
1	22
1	15
1	22
1	13
1	22
1	184
1	13
1	7
1	184
1	184
1	22
1	16
1	184
1	10
1	7
1	184
1	184
1	4
1	21
1	5
1	184
1	184
1	10
1	184
1	184
1	5
1	184
1	184
1	5
2	6
2	5
2	3
2	3
2	3
2	3
2	16
2	3
2	16
2	14
2	3
2	9
2	15
2	22
2	4
2	4
2	4
2	3
2	10
2	3
2	3
2	22
2	5
2	3
2	4
2	5
2	16
2	6
2	4
2	5
2	4
2	5
2	3
2	8
2	3
2	3
2	3
2	23
2	3
2	10
2	3
2	6
2	3
2	3
2	10
2	5
2	3
2	3
2	6
2	15
2	3
2	7
2	5
2	3
2	4
2	3
2	3
2	3
2	3
2	8
3	4
3	4
3	5
3	4
3	4
3	4
3	4
3	4
3	5
3	11
3	6
3	4
3	6
3	5
3	6
3	5
3	4
3	5
3	5
3	4
3	8
3	4
4	5
4	5
4	5
4	5
4	5
4	5
4	5
4	5
4	6
4	5
4	5
4	5
4	5
4	5
5	6
5	6
5	6
5	6
5	7
6	8
6	7
6	7
7	8
7	8
8	9
8	9
8	9
8	9
9	10
9	10
9	10
10	11
10	11
12	13
12	13
13	14
14	15
20	21
21	22
183	184
