1	6124
1	11
1	12
1	24
1	13
1	16
1	5
1	11
1	8
1	6
1	11
1	76
1	16
1	8
1	21
1	13
1	76
1	15
1	10
1	11
1	23
1	9
1	8
1	10
1	75
1	14
1	11
1	77
1	10
1	76
1	75
1	10
1	15
1	8
1	9
1	7
1	20
1	11
1	4
1	9
1	75
1	10
1	23
1	75
1	75
1	75
1	8
1	8
1	7
1	6
1	13
1	12
1	75
1	11
1	23
1	8
1	9
1	12
1	75
1	12
1	75
1	12
1	15
1	20
1	10
1	11
1	75
1	12
1	7
1	10
1	20
1	13
1	13
1	23
1	9
1	8
1	10
1	15
1	75
1	8
1	23
1	75
1	15
1	76
1	13
1	10
1	20
1	7
1	13
1	12
1	75
1	7
1	11
1	12
1	23
1	7
1	12
1	6
1	8
1	8
1	10
1	9
1	10
1	12
1	8
1	10
1	6
1	7
1	12
1	15
1	8
1	75
1	5
1	75
1	75
1	75
1	9
1	10
1	11
1	5
1	75
1	15
1	15
1	8
1	4
1	11
1	23
1	8
1	20
1	76
1	6
1	10
1	7
1	75
1	10
1	9
1	6
1	8
1	12
1	6
1	16
1	4
1	23
1	75
1	11
1	20
1	10
1	15
1	15
1	75
1	15
1	75
1	8
1	7
1	75
1	75
1	8
1	75
1	9
1	5
1	75
1	10
1	6
1	9
1	6
1	75
1	4
1	75
1	9
1	6
1	6
1	6
1	7
1	12
1	75
1	75
1	6
1	7
1	5
1	8
1	15
1	6
1	9
2	3
2	7
2	13
2	6
2	3
2	6
2	7
2	3
2	4
2	11
2	3
2	3
2	3
2	6
2	3
2	9
2	21
2	4
2	3
2	6
2	6
2	8
2	5
2	3
2	10
2	3
2	7
2	5
2	7
2	5
2	3
2	9
2	6
2	8
2	12
2	4
2	6
2	3
2	7
2	5
2	5
2	6
2	5
2	13
2	4
2	4
2	3
2	3
2	8
2	12
2	4
2	6
3	7
3	5
3	7
3	8
3	4
3	8
3	6
3	4
3	4
3	5
3	4
3	4
3	7
3	4
3	7
3	4
3	4
3	4
3	6
3	8
3	4
3	4
3	5
3	4
3	4
3	4
3	5
3	4
3	4
3	4
3	6
4	5
4	5
4	5
4	5
4	11
4	5
4	5
4	5
4	5
4	5
4	7
4	9
4	5
4	5
4	5
4	5
4	5
4	5
4	6
4	6
4	5
4	7
4	9
4	5
5	9
5	7
5	6
5	6
5	6
5	6
5	7
5	6
5	6
5	6
5	6
5	6
5	6
5	6
5	6
5	6
5	8
5	6
5	6
6	7
6	7
6	7
6	7
6	7
6	8
7	10
7	8
7	8
7	8
7	10
8	9
8	10
8	9
9	10
9	10
9	10
10	11
10	11
11	12
11	12
14	15
14	15
19	20
22	23
74	75
