9	6124
10	6124
10	6124
19	6124
20	6124
22	6124
23	6124
89	6124
89	6124
89	6124
89	6124
89	6124
90	6124
90	6124
90	6124
90	6124
90	6124
90	6124
90	6124
90	6124
91	6124
91	6124
91	6124
91	6124
91	6124
92	6124
92	6124
92	6124
93	6124
93	6124
93	6124
93	6124
94	6124
94	6124
100	6124
100	6124
101	6124
