1	6124
1	132
1	34
1	131
1	32
1	34
1	134
1	11
1	131
1	31
1	10
1	31
1	131
1	30
1	9
1	5
1	13
1	133
1	131
1	131
1	8
1	8
1	132
1	131
1	9
1	131
1	30
1	132
1	32
1	7
1	15
1	8
1	131
1	6
1	5
1	131
1	131
1	133
1	7
1	5
1	131
1	20
1	31
1	131
1	8
1	5
1	11
1	7
1	134
1	131
1	136
1	131
1	131
1	10
1	134
1	131
1	131
1	6
1	6
1	8
1	15
1	8
1	31
1	16
1	16
1	15
1	131
1	131
1	131
1	8
1	5
1	6
1	7
1	134
1	133
1	6
1	131
1	30
1	131
1	10
1	9
1	6
1	5
1	5
1	131
1	6
1	134
1	131
1	133
1	6
1	5
1	34
1	8
1	131
1	4
1	29
1	15
1	7
1	12
1	4
1	7
1	131
1	10
1	7
1	7
1	6
1	131
1	9
1	5
1	131
1	13
1	132
1	7
1	5
1	131
1	7
1	8
1	131
1	135
1	6
1	7
1	7
1	131
1	131
1	15
1	135
1	131
1	6
1	131
1	30
1	8
1	11
1	7
1	6
1	131
1	5
1	131
1	6
1	131
1	7
1	11
1	131
1	9
1	131
1	131
1	131
1	7
1	131
1	4
1	29
1	11
1	6
1	7
1	15
1	131
1	131
1	30
1	131
1	8
1	9
1	7
1	6
1	4
1	6
1	9
1	9
1	7
1	6
1	131
1	131
1	6
1	131
1	6
1	131
1	131
1	132
1	4
1	8
1	131
1	7
1	7
1	30
1	4
1	15
1	12
1	131
1	131
1	6
1	5
1	11
1	6
1	6
1	133
1	131
1	15
1	8
1	131
1	134
1	9
1	131
1	9
1	7
1	7
1	7
1	8
1	5
1	132
1	5
1	6
1	131
1	29
1	5
1	6
1	5
1	131
1	132
1	8
1	4
1	9
1	4
1	6
1	6
1	131
1	7
1	5
1	7
1	29
1	131
1	5
1	5
1	131
1	131
1	5
1	9
1	131
1	131
1	7
1	5
1	131
1	4
1	131
1	6
1	4
1	131
1	6
1	131
1	133
1	7
1	131
1	5
1	131
1	6
1	7
1	131
1	131
1	131
1	6
1	4
1	4
1	131
2	3
2	3
2	3
2	6
2	6
2	30
2	3
2	3
2	4
2	3
2	9
2	3
2	5
2	3
2	4
2	3
2	3
2	3
2	4
2	7
2	3
2	5
2	6
2	16
2	7
2	3
2	5
2	7
2	3
2	3
2	4
2	3
2	16
2	4
2	3
2	3
2	5
2	3
2	4
2	3
2	4
2	3
2	3
2	6
2	7
2	3
2	3
2	4
2	7
2	6
2	4
2	3
2	3
2	5
2	4
2	3
2	3
2	3
2	3
2	7
2	3
2	4
2	4
2	4
2	4
2	4
2	12
2	3
2	5
2	4
2	6
2	4
2	3
2	3
2	3
2	3
3	4
3	4
3	4
3	5
3	4
3	5
3	4
3	4
3	4
3	4
3	4
3	4
3	4
3	4
3	5
3	4
3	7
3	7
3	4
3	4
3	4
3	5
3	4
3	4
3	5
3	4
3	4
3	4
3	4
3	6
3	4
3	6
3	5
3	4
3	4
3	6
4	5
4	5
4	5
4	5
4	5
4	5
4	5
4	5
4	6
4	5
4	6
4	5
4	5
4	5
4	5
4	5
4	5
4	5
4	5
4	5
4	6
4	5
4	5
4	8
4	5
4	5
4	5
4	6
4	5
4	5
4	5
5	6
5	6
5	6
5	6
5	6
5	6
5	6
5	6
5	6
5	6
6	7
6	7
6	7
6	7
6	7
6	7
6	7
6	7
8	9
10	11
14	15
28	29
130	131
