1	6124
1	165
1	164
1	13
1	163
1	20
1	163
1	12
1	163
1	163
1	27
1	163
1	163
1	5
1	166
1	163
1	164
1	168
1	163
1	164
1	9
1	163
1	163
1	163
1	163
1	163
1	163
1	163
1	12
1	163
1	163
1	12
1	163
1	14
1	7
1	163
1	17
1	163
1	163
1	11
1	11
1	163
1	26
1	163
1	6
1	12
1	5
1	10
1	165
1	12
1	163
1	164
1	10
1	163
1	25
1	163
1	5
1	26
1	163
1	9
1	9
1	164
1	10
1	26
1	163
1	163
1	10
1	11
1	163
1	8
1	7
1	163
1	163
1	17
1	8
1	12
1	17
1	12
1	163
1	163
1	6
1	12
1	7
1	163
1	163
1	25
1	163
1	12
1	163
1	9
1	8
1	24
1	7
1	7
1	4
1	24
1	163
1	4
1	163
1	5
1	24
1	9
1	163
1	8
1	24
1	163
1	8
1	11
1	163
1	164
1	9
1	163
1	24
1	24
1	163
1	164
1	163
1	7
1	11
1	163
1	163
1	167
1	7
1	163
1	163
1	163
1	5
1	24
1	163
1	10
1	163
1	163
1	12
1	163
1	167
1	9
1	163
1	163
1	6
1	163
1	9
1	165
1	17
1	5
1	6
1	163
1	9
1	163
1	5
1	17
1	6
1	11
1	7
1	163
1	163
1	6
1	17
1	165
1	10
1	6
1	5
1	10
1	4
1	164
1	10
1	19
1	6
1	6124
1	17
1	9
1	163
1	163
1	163
1	5
1	163
1	163
1	6
1	11
1	6
1	10
1	11
1	165
1	8
1	17
1	163
1	26
1	10
1	11
1	166
1	163
1	163
1	163
1	163
1	7
1	4
1	6
1	163
1	7
1	163
1	163
1	163
1	25
1	163
1	5
1	6
1	11
1	8
1	17
1	2
1	5
1	163
1	163
1	11
1	6
1	163
1	12
1	11
1	163
1	163
1	8
1	4
1	17
1	163
1	163
1	9
1	163
1	164
1	11
1	10
1	163
1	10
1	4
1	164
1	163
1	163
1	5
1	163
1	6
1	6
1	163
1	6
1	163
1	163
1	8
1	6
1	163
1	6
1	163
1	4
1	163
1	24
1	163
2	14
2	3
2	5
2	7
2	9
2	4
2	3
2	3
2	5
2	3
2	7
2	3
2	4
2	3
2	3
2	7
2	8
2	3
2	3
2	13
2	4
2	4
2	3
2	3
2	5
2	4
2	3
2	5
2	4
2	4
2	3
2	4
2	10
2	5
2	164
2	5
2	3
2	5
2	13
2	5
2	3
2	3
2	4
2	3
2	3
2	8
2	4
2	4
2	4
2	4
2	12
2	8
2	3
2	3
2	6
2	3
2	4
2	4
2	3
2	3
2	7
2	3
2	4
2	3
2	4
2	3
2	8
3	6
3	4
3	4
3	4
3	4
3	4
3	4
3	5
3	4
3	5
3	5
3	8
3	6
3	7
3	4
3	4
3	4
3	4
3	4
3	4
3	5
3	4
3	4
3	4
3	4
3	4
3	4
3	5
3	5
3	4
3	4
3	4
3	4
3	4
3	5
3	5
3	4
3	4
3	4
4	5
4	5
4	5
4	5
4	5
4	5
4	7
4	5
4	5
4	5
4	5
4	5
4	5
4	5
4	5
4	6
4	5
4	5
4	5
5	7
5	6
5	6
5	6
5	8
5	6
5	6
5	6
5	6
5	6
6	7
6	7
6	7
6	7
7	8
7	8
9	10
9	10
9	11
10	11
10	11
11	12
16	17
23	24
162	163
