1	6124
1	337
1	337
1	337
1	340
1	338
1	337
1	337
1	337
1	337
1	337
1	337
1	338
1	337
1	337
1	337
1	337
1	6
1	337
1	338
1	337
1	337
1	338
1	340
1	337
1	337
1	337
1	337
1	338
1	337
1	337
1	337
1	337
1	7
1	337
1	337
1	337
1	337
1	337
1	337
1	337
1	337
1	337
1	338
1	337
1	337
1	337
1	337
1	337
1	337
1	337
1	10
1	337
1	337
1	338
1	337
1	337
1	337
1	337
1	339
1	337
1	337
1	10
1	337
1	338
1	337
1	7
1	337
1	12
1	337
1	337
1	337
1	339
1	337
1	8
1	337
1	337
1	337
1	337
1	337
1	337
1	337
1	337
1	337
1	337
1	337
1	339
1	337
1	337
1	338
1	337
1	337
1	337
1	337
1	337
1	337
1	337
1	337
1	337
1	338
1	337
1	337
1	337
1	337
1	337
1	337
1	337
1	337
1	337
1	337
1	337
1	337
1	9
1	337
1	337
1	337
1	337
1	337
1	337
1	337
1	337
1	337
1	337
1	337
1	337
1	337
1	337
1	7
1	338
1	337
1	337
1	337
1	337
1	337
1	337
1	337
1	337
1	337
1	7
1	337
1	337
1	337
1	8
1	337
1	337
1	337
1	337
1	338
1	337
1	337
1	337
1	7
1	4
1	338
1	337
1	337
1	337
1	7
1	11
1	337
1	337
1	337
1	6
1	337
1	337
1	337
1	8
1	337
1	337
1	337
1	337
1	337
1	337
1	337
1	337
1	337
1	337
1	8
1	4
1	337
1	337
1	337
1	337
1	337
1	337
1	337
1	337
1	337
1	337
1	338
1	337
1	337
1	337
1	337
1	337
1	8
1	337
1	337
1	337
1	6
1	337
1	337
1	337
1	337
1	338
1	337
1	337
1	7
1	337
1	337
1	8
1	337
1	337
1	337
1	337
1	7
1	337
1	337
1	337
1	337
1	337
1	337
1	337
1	337
1	337
1	337
1	10
1	337
1	337
1	337
1	9
1	337
1	337
1	7
1	337
1	337
1	337
1	8
1	337
1	337
1	337
1	337
1	337
1	7
1	337
1	337
1	337
1	5
1	337
1	337
1	337
1	337
1	337
1	337
1	337
1	337
1	337
1	337
1	337
1	7
1	337
1	337
1	337
1	337
1	337
1	337
1	337
1	337
1	337
1	337
1	337
1	337
1	337
1	337
1	337
1	338
1	7
1	5
1	337
1	337
1	337
1	7
1	337
1	337
1	8
1	337
1	4
1	337
1	337
1	337
1	337
1	337
1	337
1	8
1	5
1	9
1	337
1	337
1	337
1	337
1	337
1	337
1	4
1	337
1	337
1	6
1	337
1	337
1	337
1	337
1	338
1	337
1	337
1	337
1	337
1	337
1	6
1	337
1	337
1	337
1	337
1	337
1	337
1	337
1	337
1	6
1	337
1	337
1	337
1	337
1	337
1	337
1	337
1	337
1	337
1	7
1	337
1	337
1	337
1	337
1	337
1	6
1	337
1	337
1	5
1	337
1	5
1	338
1	337
1	337
1	6
1	337
2	338
2	8
2	8
2	3
2	7
2	9
2	338
2	4
2	7
2	3
2	338
2	8
2	4
2	338
2	338
2	3
2	4
2	6
2	3
2	3
2	3
2	3
2	6
2	8
2	3
2	4
2	3
2	4
2	3
2	6
2	5
2	3
2	3
2	3
2	5
2	7
2	3
2	4
2	4
2	3
2	6
2	4
2	4
2	4
2	5
2	5
2	4
2	6
2	4
2	3
2	3
2	4
2	3
2	8
2	4
3	4
3	4
3	4
3	4
3	5
3	4
3	5
3	5
3	4
3	4
3	4
3	4
3	5
3	5
3	4
4	5
4	6
4	5
4	5
4	6
4	6
4	5
4	5
4	5
5	6
5	6
5	7
6	7
6	7
6	7
6	7
6	7
7	8
7	8
336	337
