1	6124
1	133
1	132
1	15
1	11
1	132
1	11
1	132
1	132
1	10
1	133
1	132
1	132
1	134
1	132
1	133
1	132
1	133
1	132
1	133
1	132
1	132
1	12
1	132
1	132
1	132
1	10
1	132
1	15
1	13
1	132
1	10
1	132
1	132
1	132
1	16
1	15
1	132
1	15
1	6
1	132
1	132
1	132
1	8
1	132
1	132
1	132
1	132
1	14
1	10
1	132
1	132
1	132
1	132
1	132
1	132
1	133
1	133
1	133
1	132
1	133
1	132
1	132
1	5
1	132
1	132
1	7
1	15
1	132
1	11
1	132
1	132
1	132
1	133
1	132
1	132
1	132
1	132
1	132
1	12
1	132
1	132
1	14
1	6
1	132
1	9
1	132
1	8
1	12
1	132
1	133
1	12
1	132
1	132
1	132
1	132
1	132
1	132
1	10
1	132
1	132
1	132
1	132
1	4
1	10
1	8
1	132
1	9
1	132
1	132
1	14
1	14
1	132
1	132
1	9
1	132
1	10
1	7
1	132
1	9
1	132
1	132
1	14
2	133
2	8
2	7
2	5
2	7
2	6
2	13
2	7
2	6
2	3
2	10
2	8
2	6
2	8
2	4
2	8
2	3
2	8
2	3
2	7
2	7
2	3
2	3
2	5
2	3
2	10
2	4
2	3
2	7
2	6
2	3
2	4
2	3
2	6
2	9
2	3
2	13
2	3
2	5
2	4
2	3
2	3
2	4
2	3
2	9
2	3
2	10
2	5
2	3
3	4
3	5
3	5
3	8
3	5
3	7
3	4
3	4
3	7
3	7
3	4
3	4
3	5
3	5
3	6
3	4
3	7
3	5
3	6
4	6
4	5
4	6
4	8
4	6
4	5
4	6
4	6
4	7
4	7
4	5
4	5
4	5
4	5
5	6
5	7
5	6
5	7
5	6
5	6
5	7
6	8
6	7
6	8
7	8
7	9
7	8
8	9
8	9
11	12
11	12
13	14
131	132
