10	6124
10	6124
11	6124
11	6124
12	6124
13	6124
13	6124
13	6124
14	6124
14	6124
14	6124
14	6124
15	6124
15	6124
156	6124
156	6124
156	6124
156	6124
156	6124
156	6124
156	6124
156	6124
156	6124
156	6124
156	6124
156	6124
156	6124
156	6124
156	6124
156	6124
156	6124
157	6124
157	6124
157	6124
157	6124
157	6124
157	6124
157	6124
157	6124
157	6124
157	6124
158	6124
158	6124
158	6124
158	6124
158	6124
158	6124
158	6124
158	6124
158	6124
158	6124
159	6124
159	6124
159	6124
159	6124
159	6124
160	6124
160	6124
160	6124
160	6124
160	6124
160	6124
161	6124
163	6124
