1	6124
1	149
1	148
1	10
1	148
1	148
1	148
1	148
1	148
1	148
1	16
1	10
1	12
1	12
1	148
1	10
1	148
1	148
1	10
1	148
1	14
1	22
1	15
1	148
1	148
1	149
1	10
1	148
1	148
1	148
1	14
1	12
1	25
1	10
1	148
1	148
1	7
1	13
1	148
1	10
1	148
1	10
1	13
1	7
1	10
1	10
1	151
1	150
1	149
1	13
1	10
1	148
1	148
1	9
1	12
1	9
1	10
1	148
1	10
1	14
1	148
1	13
1	9
1	7
1	148
1	149
1	7
1	149
1	148
1	12
1	10
1	148
1	148
1	148
1	9
1	148
1	148
1	8
1	8
1	148
1	9
1	148
1	9
1	148
1	148
1	151
1	6
1	7
1	14
1	148
1	12
1	9
1	10
1	148
1	9
1	12
1	149
1	148
1	21
1	148
1	148
1	8
1	5
1	148
1	5
1	149
1	10
1	7
1	12
1	148
1	12
1	7
1	148
1	148
1	7
1	11
1	149
1	148
1	21
1	148
1	7
1	9
1	9
1	148
1	7
1	148
1	148
1	148
1	9
1	9
1	9
1	148
1	148
1	16
1	6
1	14
1	148
1	148
1	5
1	148
1	6
1	9
1	5
1	148
1	148
1	8
1	148
1	7
1	10
1	12
1	4
1	7
1	12
1	148
1	7
1	148
1	7
1	149
1	148
1	148
1	12
1	8
1	7
1	10
1	148
1	148
1	7
1	11
1	7
1	148
1	148
1	148
1	148
1	8
1	9
1	148
1	148
1	148
1	148
1	9
1	9
1	9
1	148
1	148
1	148
1	5
1	9
1	148
1	5
1	148
1	149
1	148
1	5
1	10
1	148
1	148
1	8
1	9
1	14
1	148
1	5
2	21
2	3
2	5
2	9
2	8
2	4
2	8
2	3
2	4
2	8
2	8
2	8
2	3
2	3
2	4
2	10
2	11
2	9
2	7
2	3
2	21
2	149
2	4
2	3
2	4
2	9
2	3
2	8
2	4
2	7
2	8
2	3
2	10
2	3
2	3
2	3
2	5
2	21
2	8
2	9
2	4
2	3
2	7
2	3
2	3
2	3
2	4
2	3
2	6
2	5
2	7
2	15
2	3
2	4
2	3
2	6
2	6
3	4
3	9
3	6
3	4
3	7
3	4
3	4
3	4
3	4
3	4
3	5
3	4
3	8
3	4
3	5
3	5
3	5
3	8
3	6
3	4
3	5
3	4
3	5
3	9
3	4
3	9
3	4
4	5
4	7
4	5
4	7
4	5
4	6
4	5
4	5
4	5
4	5
4	6
4	6
4	6
4	8
4	5
4	5
4	8
4	5
4	6
5	7
5	6
5	6
5	6
5	7
5	6
5	6
5	6
5	7
5	6
5	8
5	9
5	6
6	7
6	7
6	7
6	8
6	7
6	7
6	7
6	7
6	7
6	7
6	7
6	7
6	7
6	7
7	9
7	8
8	9
8	9
8	9
9	10
9	10
9	10
9	10
11	12
11	12
13	14
19	20
147	148
