1	6124
1	23
1	22
1	12
1	130
1	129
1	18
1	15
1	15
1	12
1	21
1	18
1	10
1	13
1	129
1	13
1	15
1	19
1	132
1	11
1	9
1	8
1	11
1	13
1	15
1	129
1	6
1	13
1	6
1	10
1	6
1	133
1	8
1	14
1	4
1	130
1	131
1	14
1	129
1	11
1	129
1	20
1	129
1	22
1	13
1	13
1	15
1	12
1	11
1	131
1	11
1	6
1	129
1	12
1	15
1	129
1	12
1	9
1	6
1	20
1	5
1	7
1	129
1	12
1	7
1	11
1	129
1	14
1	14
1	6
1	8
1	9
1	10
1	21
1	131
1	131
1	7
1	4
1	17
1	131
1	9
1	129
1	10
1	129
1	6
1	12
1	131
1	9
1	15
1	130
1	129
1	9
1	16
1	8
1	6
1	129
1	19
1	6
1	7
1	129
1	129
1	9
1	8
1	129
1	5
1	22
1	129
1	129
1	130
1	12
1	11
1	7
1	12
1	6
1	7
1	11
1	9
1	9
1	8
1	129
1	132
1	129
1	6
1	133
1	131
1	129
1	129
1	5
1	14
1	9
1	129
1	10
1	21
1	17
1	6
1	129
1	16
1	6
1	10
1	4
1	129
1	10
1	129
1	7
1	8
1	129
1	6
1	6
1	9
1	9
1	129
1	129
1	10
1	5
1	5
1	129
1	6
1	130
1	11
1	21
1	6
1	129
1	129
1	129
1	131
1	7
1	6
1	10
1	8
1	5
1	9
1	6
1	9
1	130
1	7
1	8
1	131
1	129
1	7
1	21
1	129
1	131
1	8
1	129
1	7
1	13
1	10
1	9
1	8
1	5
1	12
1	5
1	129
1	130
1	8
1	9
1	8
1	5
1	129
1	6
1	129
1	21
1	130
1	9
1	21
1	4
1	4
1	16
1	129
1	129
1	129
1	6
1	129
1	129
1	12
1	129
1	129
1	9
1	129
1	8
1	12
1	4
1	12
1	5
1	21
1	5
1	129
1	5
1	6
1	9
1	5
1	5
1	9
1	129
1	8
1	5
1	129
1	130
1	8
1	18
1	129
1	4
1	10
1	129
1	9
1	5
1	129
1	6
1	12
1	129
1	13
1	6
1	129
1	21
1	8
1	4
1	13
1	9
1	130
1	12
1	8
1	5
1	14
1	6
1	21
2	3
2	4
2	3
2	3
2	6
2	10
2	3
2	3
2	3
2	3
2	10
2	3
2	4
2	130
2	10
2	3
2	6
2	10
2	3
2	6
2	3
2	3
2	3
2	6
2	3
2	6
2	7
2	4
2	4
2	3
2	7
2	8
2	4
2	3
2	3
2	4
2	3
2	9
2	6
2	3
2	6
2	3
2	3
2	17
2	3
2	130
2	5
2	5
2	7
2	3
2	5
2	4
2	3
2	3
2	3
2	4
2	3
2	3
2	3
2	5
2	7
2	4
2	3
2	4
2	4
2	4
2	4
2	4
2	4
2	3
2	5
2	4
2	3
2	4
3	4
3	4
3	5
3	4
3	4
3	7
3	4
3	4
3	5
3	4
3	5
3	4
3	4
3	4
3	4
3	4
3	4
3	4
3	4
3	4
3	4
3	7
3	4
3	4
3	4
3	4
3	4
3	4
3	5
3	4
3	4
3	4
3	4
3	4
4	6
4	5
4	5
4	5
4	5
4	5
4	5
4	5
4	5
4	5
4	5
4	5
4	5
4	5
4	5
4	5
4	5
4	5
4	5
4	5
5	6
5	6
5	6
5	6
5	6
5	6
5	6
5	6
5	6
5	6
5	6
5	6
5	6
5	6
6	7
6	7
6	7
7	8
7	8
7	8
7	8
8	9
8	9
8	9
8	9
8	9
8	9
9	10
10	11
11	12
11	12
13	14
15	16
20	21
128	129
