1	6124
1	193
1	195
1	192
1	194
1	192
1	193
1	192
1	192
1	191
1	56
1	15
1	8
1	54
1	54
1	10
1	191
1	191
1	18
1	194
1	193
1	191
1	191
1	191
1	191
1	194
1	54
1	194
1	191
1	54
1	9
1	31
1	5
1	191
1	54
1	7
1	191
1	191
1	191
1	54
1	7
1	191
1	191
1	9
1	8
1	16
1	191
1	192
1	12
1	191
1	191
1	191
1	191
1	9
1	191
1	27
1	26
1	193
1	191
1	194
1	191
1	7
1	193
1	191
1	191
1	8
1	7
1	191
1	191
1	54
1	12
1	191
1	191
1	55
1	191
1	191
1	27
1	26
1	54
1	191
1	191
1	191
1	191
1	191
1	10
1	191
1	56
1	191
1	191
1	191
1	191
1	6
1	26
1	191
1	191
1	191
1	191
1	54
1	191
1	26
1	54
1	7
1	5
1	10
1	191
1	191
1	8
1	29
1	54
1	5
1	191
1	191
1	191
1	8
1	5
1	191
1	4
1	191
1	191
1	54
1	191
1	54
1	191
1	191
1	192
1	191
1	191
1	6
1	10
1	191
1	54
1	54
1	54
1	5
1	7
1	191
1	6
1	9
1	191
1	191
1	15
1	26
1	191
1	4
1	191
1	191
1	9
1	26
1	193
1	193
1	191
1	191
1	5
1	191
1	5
1	192
1	5
1	191
1	191
1	191
1	54
1	7
1	14
1	191
1	6
1	54
1	18
1	54
1	54
1	54
1	191
1	191
1	191
1	54
1	191
1	7
1	7
1	6
1	192
1	191
1	54
1	54
1	7
1	191
1	191
1	14
1	14
1	6
1	6
1	191
1	8
1	192
1	5
1	26
1	191
1	5
1	191
1	191
1	191
1	7
1	191
1	8
1	26
1	191
1	191
1	10
1	5
1	191
1	191
1	191
1	191
1	54
1	26
1	191
1	54
1	191
1	8
1	6
1	191
1	191
1	191
1	191
1	191
1	191
1	54
1	54
1	54
1	54
1	6
1	191
1	54
1	54
1	54
1	8
1	54
1	27
1	26
1	4
1	192
1	54
1	7
1	191
1	14
1	191
1	191
1	191
1	191
1	26
1	191
1	191
1	54
1	192
1	191
1	7
1	10
1	6
1	191
1	191
1	191
1	191
1	191
1	54
1	54
1	5
1	191
1	7
1	9
1	191
1	26
1	5
1	191
1	192
1	192
1	5
1	26
1	191
1	4
1	54
1	191
1	191
1	14
1	191
1	8
1	192
1	191
1	192
1	7
1	191
1	191
1	5
1	8
1	5
1	26
1	191
1	191
1	192
1	191
1	192
1	4
1	192
1	191
1	191
1	191
1	54
1	191
1	191
1	191
1	191
1	191
1	54
1	7
1	191
1	191
1	8
1	4
1	26
1	191
1	54
1	10
1	192
1	191
1	54
1	192
1	54
1	26
1	9
1	191
1	14
1	26
1	191
1	26
1	191
1	192
1	54
1	8
1	54
2	4
2	3
2	3
2	3
2	4
2	3
2	7
2	3
2	3
2	8
2	3
2	3
2	4
2	9
2	4
2	4
2	3
2	3
2	4
2	3
2	4
2	4
2	6
2	6
2	3
2	5
2	3
2	3
2	3
2	3
2	4
2	3
2	3
2	4
2	3
2	3
2	3
2	3
2	4
2	4
2	5
2	3
2	3
2	5
2	3
2	3
2	5
2	55
2	4
2	3
2	3
2	3
2	3
2	8
2	3
2	4
2	3
2	3
2	4
2	3
2	3
2	4
2	4
2	3
2	3
2	3
2	6
2	4
2	3
2	4
2	3
2	4
2	3
3	6
3	4
3	5
3	4
3	5
3	4
3	5
3	10
3	4
3	4
3	5
3	4
3	6
3	4
3	4
3	4
3	4
3	4
3	4
3	4
3	5
4	5
4	5
4	5
4	5
4	6
4	5
4	5
4	5
4	5
4	6
4	5
5	6
5	6
5	6
5	6
6	7
6	7
6	7
6	7
6	7
7	8
7	8
7	8
9	10
13	14
25	26
53	54
190	191
