1	6124
1	230
1	232
1	230
1	230
1	230
1	230
1	235
1	230
1	230
1	230
1	231
1	19
1	233
1	230
1	230
1	19
1	232
1	230
1	11
1	230
1	11
1	230
1	13
1	231
1	230
1	230
1	232
1	13
1	230
1	230
1	230
1	230
1	230
1	230
1	231
1	230
1	230
1	230
1	230
1	230
1	10
1	230
1	230
1	4
1	230
1	230
1	230
1	230
1	230
1	230
1	230
1	230
1	230
1	230
1	230
1	8
1	230
1	230
1	230
1	15
1	234
1	10
1	230
1	230
1	14
1	230
1	230
1	6
1	230
1	230
1	230
1	230
1	230
1	6
1	12
1	230
1	12
1	19
1	230
1	10
1	230
1	7
1	230
1	230
1	6
1	230
1	230
1	230
1	230
1	7
1	230
1	9
1	230
1	10
1	230
1	230
1	4
1	5
1	230
1	8
1	230
1	230
1	230
1	230
1	11
1	8
1	230
1	230
1	230
1	230
1	230
1	230
1	230
1	230
1	7
1	231
1	230
1	230
1	230
1	230
1	8
1	230
1	17
1	230
1	231
1	230
1	230
1	230
1	6
1	230
1	230
1	231
1	230
1	17
1	13
1	230
1	230
1	10
1	4
1	230
1	5
1	11
1	230
1	230
1	230
1	10
1	230
1	4
1	230
1	230
1	8
1	230
1	230
1	11
1	230
1	230
1	230
1	230
1	17
1	9
1	7
1	230
1	230
1	230
1	230
1	230
1	7
1	230
1	8
1	231
1	230
1	7
1	230
1	17
1	5
1	4
1	230
1	230
1	230
1	230
1	230
1	230
1	6
1	230
1	230
1	230
1	230
1	17
1	7
1	230
1	230
1	230
1	230
1	7
1	230
1	230
1	230
1	230
1	7
1	230
1	230
1	17
1	230
1	230
1	13
1	230
1	230
1	230
1	7
1	230
1	230
1	230
1	230
1	230
1	230
1	8
1	7
1	230
1	5
1	230
1	7
1	230
1	8
1	4
1	8
1	230
1	7
1	230
1	8
1	9
1	230
1	230
1	230
1	230
1	230
1	17
1	7
1	230
1	230
1	9
1	8
1	9
1	230
1	230
1	230
1	230
1	230
1	230
1	6
1	4
1	230
1	7
1	7
1	231
1	7
1	230
1	9
1	7
1	230
1	6
1	230
1	230
1	230
1	10
1	230
1	5
1	5
1	230
1	230
1	8
1	8
1	7
1	230
1	5
1	230
1	7
1	12
1	7
1	230
1	230
1	6
1	4
1	230
1	230
1	17
1	230
1	230
2	8
2	10
2	5
2	18
2	10
2	3
2	3
2	6
2	7
2	10
2	3
2	5
2	8
2	5
2	5
2	3
2	4
2	6
2	6
2	4
2	7
2	3
2	8
2	3
2	7
2	3
2	4
2	6
2	7
2	3
2	4
2	6
2	3
2	8
2	6
2	11
2	10
2	4
2	3
2	3
2	10
2	10
2	5
2	4
2	7
2	4
2	4
2	3
2	4
2	3
3	4
3	4
3	4
3	4
3	4
3	4
3	7
3	4
3	4
3	5
3	4
3	4
3	5
3	4
3	5
3	4
3	5
3	4
3	4
3	5
3	5
3	6
3	4
3	4
4	5
4	5
4	5
4	5
4	7
4	5
4	5
4	6
4	5
4	5
5	6
5	6
5	7
5	6
5	6
5	6
5	6
5	6
6	7
6	7
6	7
6	7
6	7
6	7
6	7
6	7
7	8
7	8
7	8
8	9
8	10
9	10
9	11
16	17
229	230
