1	6124
1	39
1	39
1	39
1	39
1	39
1	39
1	39
1	40
1	39
1	39
1	39
1	39
1	39
1	40
1	7
1	39
1	39
1	39
1	39
1	39
1	39
1	40
1	39
1	39
1	39
1	39
1	39
1	39
1	39
1	39
1	39
1	11
1	39
1	39
1	39
2	3
2	3
2	7
2	4
2	8
2	8
2	4
2	5
3	4
5	7
6	7
38	39
