1	6124
1	68
1	69
1	68
1	69
1	68
1	68
1	69
1	68
1	69
1	70
1	68
1	68
1	68
1	15
1	15
1	70
1	10
1	69
1	69
1	8
1	68
1	68
1	68
1	68
1	68
1	68
1	68
1	70
1	16
1	68
1	68
1	68
1	69
1	68
1	70
1	68
1	4
1	7
1	69
1	68
1	68
1	68
1	4
1	8
1	68
1	5
1	68
1	15
1	5
1	6
1	4
1	4
1	68
1	68
1	68
1	68
1	70
1	68
1	5
1	69
1	69
1	13
1	68
1	68
1	68
1	68
2	9
2	8
2	14
2	4
2	3
2	14
2	6
2	5
2	3
2	4
2	3
2	3
2	15
2	6
2	4
2	5
2	4
2	3
2	5
2	3
2	3
2	6
2	3
2	8
2	3
2	3
2	4
3	4
3	4
3	4
3	9
3	4
3	4
3	5
3	5
3	4
3	7
3	4
3	4
4	5
4	5
4	5
4	5
4	6
6	8
6	7
12	13
67	68
