7	6124
7	6124
10	6124
12	6124
12	6124
13	6124
14	6124
14	6124
15	6124
16	6124
18	6124
19	6124
19	6124
20	6124
22	6124
45	6124
46	6124
46	6124
46	6124
47	6124
47	6124
47	6124
47	6124
47	6124
47	6124
48	6124
48	6124
48	6124
49	6124
51	6124
51	6124
52	6124
52	6124
53	6124
57	6124
