1	6124
1	21
1	13
1	102
1	17
1	101
1	101
1	9
1	112
1	102
1	15
1	10
1	102
1	23
1	10
1	101
1	19
1	13
1	9
1	8
1	101
1	7
1	14
1	7
1	6
1	12
1	101
1	9
1	7
1	20
1	101
1	101
1	101
1	103
1	8
1	13
1	101
1	5
1	6
1	12
1	101
1	101
1	15
1	12
1	17
1	102
1	9
1	101
1	101
1	12
1	16
1	101
1	20
1	101
1	9
1	7
1	9
1	9
1	103
1	8
1	101
1	13
1	10
1	101
1	101
1	101
1	101
1	101
1	19
1	4
1	7
1	101
1	14
1	8
1	15
1	6
1	6
1	4
1	7
1	5
1	21
1	101
1	101
1	6
1	14
1	20
1	9
1	14
1	13
1	11
1	8
1	101
1	6
1	7
1	20
1	7
1	101
1	101
1	101
1	19
1	13
1	8
1	8
1	101
1	5
1	9
1	11
1	101
1	101
1	101
1	101
1	8
1	101
1	101
1	101
1	7
1	6
1	8
1	102
1	7
1	101
1	6
1	23
1	101
1	5
1	6
1	6
1	102
1	7
1	6
1	21
1	4
1	101
1	12
1	18
1	19
1	6
1	102
1	21
1	101
1	12
1	102
1	5
1	6
1	9
1	9
1	7
1	7
1	103
1	7
1	4
1	12
1	101
1	101
1	15
1	7
1	4
1	101
1	20
1	101
1	5
1	5
1	13
1	18
1	7
1	5
1	15
1	4
1	8
1	18
1	20
1	14
1	101
1	18
1	6
1	101
1	5
1	102
1	101
1	101
1	7
1	7
1	5
1	12
1	101
1	9
1	14
1	6
1	101
1	18
1	102
1	5
1	101
1	7
1	10
1	5
1	6
1	101
1	4
1	101
1	12
1	18
1	5
1	101
1	7
1	101
1	7
1	101
1	7
1	5
1	101
1	101
1	7
1	7
1	14
1	101
1	101
1	8
1	101
1	101
1	8
1	12
1	7
1	7
1	101
1	18
1	12
1	102
1	6
1	8
1	7
1	101
1	8
1	101
2	3
2	3
2	4
2	4
2	3
2	5
2	3
2	13
2	3
2	3
2	3
2	5
2	3
2	3
2	3
2	3
2	3
2	3
2	7
2	5
2	3
2	4
2	3
2	3
2	6
2	3
2	4
2	3
2	5
2	3
2	9
2	3
2	3
2	3
2	8
2	3
2	7
2	3
2	5
2	13
2	3
2	4
2	4
2	3
2	4
2	4
2	6
2	3
2	4
2	6
2	5
2	4
2	3
2	3
2	3
2	6
2	4
2	4
2	5
2	4
2	4
2	4
2	3
2	4
2	3
2	3
2	4
2	3
2	4
2	5
2	5
2	3
2	3
2	3
2	4
2	3
2	4
2	4
2	4
2	4
2	3
2	4
2	6
2	4
2	3
2	7
2	4
2	4
2	3
2	3
2	3
2	3
3	4
3	4
3	5
3	5
3	4
3	4
3	4
3	5
3	4
3	5
3	4
3	4
3	4
3	6
3	5
3	4
3	5
3	4
3	4
3	4
3	4
3	4
3	4
3	4
3	4
3	4
3	4
3	5
3	4
3	5
3	4
3	4
3	4
4	5
4	5
4	5
4	5
4	5
4	5
4	5
4	5
4	5
4	5
4	5
4	5
4	5
4	5
4	6
4	5
4	5
5	6
5	6
5	6
5	6
5	6
5	8
5	6
5	6
5	7
6	7
6	7
6	7
6	7
6	7
6	7
7	9
8	9
8	9
11	12
11	12
12	13
13	14
17	18
19	20
100	101
