1	6124
1	72
1	71
1	72
1	71
1	71
1	71
1	71
1	71
1	71
1	72
1	71
1	71
1	71
1	72
1	72
1	71
1	71
1	8
1	71
1	71
1	71
1	71
1	71
1	71
1	71
1	71
1	71
1	71
1	71
1	71
1	71
1	71
1	71
1	9
1	71
1	71
1	71
1	71
1	71
1	71
1	71
1	72
1	6
1	71
1	71
1	71
1	71
1	71
1	71
1	71
1	71
1	71
1	71
1	71
1	71
1	71
1	71
1	71
1	71
1	71
1	72
1	71
1	71
1	71
1	72
1	71
2	9
2	3
2	3
2	3
2	3
2	9
2	6
2	7
2	9
2	4
2	3
2	5
2	4
2	3
2	3
3	5
4	6
5	6
7	8
70	71
