9	6124
11	6124
11	6124
12	6124
12	6124
12	6124
13	6124
14	6124
14	6124
14	6124
14	6124
15	6124
216	6124
216	6124
216	6124
216	6124
216	6124
216	6124
216	6124
216	6124
216	6124
217	6124
217	6124
217	6124
217	6124
217	6124
217	6124
217	6124
217	6124
217	6124
217	6124
217	6124
217	6124
217	6124
217	6124
217	6124
218	6124
218	6124
218	6124
218	6124
218	6124
218	6124
218	6124
218	6124
219	6124
219	6124
219	6124
219	6124
219	6124
219	6124
220	6124
220	6124
220	6124
220	6124
222	6124
222	6124
224	6124
