1	6124
1	215
1	216
1	215
1	10
1	218
1	13
1	215
1	215
1	9
1	215
1	9
1	215
1	9
1	215
1	215
1	215
1	9
1	215
1	215
1	13
1	217
1	215
1	215
1	9
1	215
1	215
1	215
1	215
1	215
1	7
1	215
1	215
1	215
1	9
1	215
1	215
1	8
1	215
1	215
1	215
1	12
1	215
1	215
1	215
1	215
1	9
1	215
1	215
1	215
1	215
1	216
1	215
1	5
1	9
1	215
1	10
1	215
1	9
1	215
1	216
1	215
1	215
1	215
1	218
1	215
1	10
1	11
1	12
1	8
1	5
1	215
1	215
1	7
1	215
1	215
1	6
1	11
1	215
1	215
1	215
1	10
1	215
1	215
1	215
1	8
1	216
1	10
1	215
1	9
1	215
1	215
1	215
1	216
1	215
1	10
1	11
1	215
1	6
1	215
1	215
1	215
1	14
1	6
1	215
1	215
1	6
1	215
1	215
1	215
1	215
1	215
1	215
1	215
1	215
1	215
1	215
1	9
1	215
1	215
1	4
1	215
1	9
1	8
1	215
1	215
1	215
1	8
1	215
1	215
1	8
1	7
1	215
1	11
1	215
1	215
1	215
1	215
1	215
1	215
1	215
1	215
1	4
1	5
1	215
1	215
1	216
1	215
1	215
1	9
1	215
1	215
1	9
1	215
1	215
1	215
1	215
1	6
1	215
1	7
1	215
1	7
1	215
1	215
1	4
1	215
1	10
1	215
1	216
1	8
1	215
1	215
1	215
1	215
1	7
1	11
1	9
1	5
1	6
1	6
1	215
1	215
1	215
1	215
1	9
1	8
1	215
1	215
1	215
1	216
1	215
1	9
1	215
1	8
1	215
1	6
1	7
1	6
1	215
1	215
1	215
1	5
1	9
1	6
1	216
1	11
1	216
1	215
1	8
1	215
1	216
1	8
1	215
1	216
1	10
1	9
1	215
1	215
1	6
1	215
1	216
1	215
1	7
1	7
1	9
1	215
1	215
1	215
1	215
1	5
1	215
1	8
1	215
1	215
1	216
1	8
1	215
1	10
1	215
1	215
1	215
1	215
1	5
1	215
1	4
1	215
1	6
1	8
1	215
1	215
1	215
1	215
1	7
1	215
1	6
1	4
1	215
1	215
1	6
2	6
2	3
2	10
2	5
2	7
2	3
2	6
2	3
2	8
2	6
2	3
2	5
2	3
2	7
2	3
2	10
2	3
2	7
2	7
2	4
2	3
2	6
2	3
2	5
2	8
2	3
2	7
2	3
2	3
2	5
2	3
2	3
2	3
2	7
2	5
2	4
2	4
2	5
2	4
2	3
2	3
2	5
2	4
2	6
2	4
2	3
2	4
2	3
2	4
2	4
2	3
2	3
2	8
2	3
2	9
2	4
2	10
2	4
2	4
2	3
2	4
2	7
2	10
2	3
2	4
3	5
3	5
3	4
3	4
3	4
3	7
3	4
3	8
3	5
3	4
3	4
3	5
3	4
3	4
3	4
3	4
3	5
3	5
3	4
3	4
3	4
3	4
3	4
3	5
3	6
3	4
3	4
3	4
3	5
3	4
3	4
4	5
4	5
4	6
4	5
4	5
4	5
4	5
4	6
4	5
4	6
4	5
4	6
4	6
4	5
4	5
4	5
4	7
4	5
5	6
5	6
5	6
5	6
5	6
5	6
5	6
5	6
5	6
5	6
5	8
5	6
6	8
6	8
6	7
6	7
6	7
7	8
7	8
8	9
8	9
8	9
10	11
214	215
