1	6124
1	92
1	13
1	12
1	91
1	10
1	10
1	14
1	12
1	12
1	8
1	12
1	10
1	16
1	9
1	9
1	10
1	12
1	16
1	9
1	10
1	14
1	10
1	90
1	17
1	6
1	7
1	12
1	12
1	9
1	8
1	90
1	9
1	9
1	9
1	12
1	7
1	15
1	15
1	4
1	90
1	8
1	90
1	16
1	9
1	9
1	6
1	91
1	8
1	10
1	90
1	90
1	10
1	12
1	90
1	7
1	93
1	90
1	8
1	10
1	7
1	10
1	90
1	10
1	8
1	91
1	94
1	90
1	90
1	10
1	7
1	8
1	8
1	9
1	7
1	9
1	7
1	7
1	7
1	11
1	90
1	90
1	6
1	8
1	4
1	91
1	5
1	90
1	91
1	8
1	9
1	7
1	7
1	5
1	7
1	5
1	10
1	4
1	9
1	90
1	7
1	9
1	92
1	5
1	8
1	4
1	10
1	7
1	10
1	91
1	90
1	6
1	90
1	8
1	15
1	5
1	90
1	9
1	8
1	4
1	90
1	92
1	4
1	6
1	10
1	90
1	8
1	9
1	8
1	5
1	6
1	9
1	8
1	4
1	92
1	5
1	8
1	9
1	6
1	90
1	5
1	6
1	6
1	7
1	8
1	7
1	90
1	90
1	4
1	7
1	7
1	6
1	4
1	15
1	5
1	9
1	8
1	7
1	8
1	8
1	90
1	90
1	90
1	7
1	4
1	7
1	91
1	90
1	7
1	8
1	5
1	4
1	90
1	6
1	10
1	90
1	4
1	8
1	5
1	7
1	10
1	90
1	9
1	90
1	5
1	6
1	7
1	9
1	90
1	7
1	9
1	7
1	90
1	4
1	90
1	90
1	6
1	8
1	7
1	4
1	90
1	8
1	10
1	7
1	8
1	4
1	8
1	6
1	5
1	7
1	90
1	6
1	5
1	90
1	8
1	90
1	5
1	8
1	90
1	6
1	6
1	5
1	9
1	6
1	5
1	6
1	90
1	7
1	90
1	5
1	5
1	6
1	5
1	4
2	8
2	3
2	3
2	3
2	5
2	7
2	3
2	3
2	6
2	8
2	3
2	6
2	3
2	3
2	5
2	3
2	3
2	3
2	5
2	5
2	3
2	3
2	7
2	4
2	3
2	3
2	6
2	3
2	4
2	3
2	6
2	3
2	3
2	3
2	7
2	3
2	7
2	6
2	6
2	3
2	3
2	5
2	4
2	7
2	3
2	7
2	3
2	4
2	5
2	3
2	5
2	3
2	3
2	3
2	5
2	9
2	3
2	3
2	4
2	3
2	6
2	3
3	4
3	4
3	6
3	4
3	4
3	4
3	4
3	4
3	4
3	5
3	4
3	4
3	6
3	6
3	4
3	7
3	4
3	4
3	4
3	4
3	5
3	4
3	6
3	4
3	5
3	4
3	4
3	4
3	4
3	10
3	4
3	4
3	4
3	5
3	4
3	4
3	4
3	6
3	4
3	7
3	5
3	4
3	5
3	4
3	4
3	4
3	6
4	5
4	5
4	6
4	6
4	5
4	5
4	6
4	6
4	7
4	5
4	5
4	5
4	5
4	5
4	5
4	5
4	5
4	5
4	5
4	5
4	5
4	6
4	7
4	5
4	5
4	5
4	5
4	6
5	6
5	6
5	8
5	6
5	6
5	7
5	6
5	6
5	6
5	6
5	6
5	6
5	6
5	6
5	6
6	7
6	7
6	7
6	7
6	7
6	7
6	7
6	7
7	8
7	8
7	8
7	8
8	9
8	9
8	9
9	10
14	15
14	15
89	90
