7	6124
8	6124
14	6124
14	6124
15	6124
32	6124
70	6124
71	6124
71	6124
71	6124
71	6124
71	6124
71	6124
72	6124
72	6124
72	6124
72	6124
72	6124
72	6124
72	6124
72	6124
72	6124
73	6124
73	6124
74	6124
75	6124
75	6124
75	6124
75	6124
75	6124
75	6124
75	6124
75	6124
79	6124
79	6124
79	6124
82	6124
86	6124
