6	6124
8	6124
10	6124
10	6124
10	6124
11	6124
13	6124
13	6124
16	6124
16	6124
20	6124
21	6124
21	6124
22	6124
24	6124
28	6124
52	6124
53	6124
53	6124
53	6124
54	6124
54	6124
54	6124
54	6124
54	6124
54	6124
54	6124
54	6124
54	6124
54	6124
55	6124
55	6124
55	6124
55	6124
55	6124
55	6124
56	6124
56	6124
56	6124
56	6124
56	6124
57	6124
59	6124
60	6124
