1	6124
1	12
1	12
1	8
1	15
1	13
1	15
1	9
1	11
1	36
1	6124
1	14
1	9
1	35
1	11
1	36
1	6
1	9
1	8
1	11
1	14
1	2
1	7
1	14
1	11
1	11
1	35
1	12
1	7
1	35
1	14
1	11
1	12
1	10
1	7
1	7
1	35
1	10
1	35
1	35
1	35
1	7
1	11
1	14
1	9
1	14
1	7
1	7
1	12
1	36
1	7
1	35
1	11
1	10
2	9
2	11
2	8
2	8
2	8
2	7
2	9
2	3
2	5
2	4
2	4
2	7
2	8
2	6
2	4
2	12
2	11
2	5
2	8
2	3
2	4
2	4
2	11
2	10
2	3
2	15
2	3
3	8
3	5
3	5
3	4
3	6
3	4
3	4
3	8
3	5
3	4
3	6
3	5
3	5
3	4
3	6
4	6
4	7
4	9
5	7
5	6
5	6
5	6
6	7
6	7
6	7
6	8
6	9
6	7
6	7
7	8
8	9
9	11
9	10
9	10
9	10
13	14
13	14
34	35
