10	6124
11	6124
12	6124
12	6124
12	6124
12	6124
12	6124
13	6124
13	6124
14	6124
14	6124
14	6124
15	6124
16	6124
16	6124
16	6124
16	6124
17	6124
17	6124
17	6124
17	6124
18	6124
18	6124
18	6124
19	6124
19	6124
20	6124
21	6124
22	6124
26	6124
36	6124
36	6124
36	6124
36	6124
36	6124
36	6124
37	6124
37	6124
37	6124
37	6124
37	6124
38	6124
39	6124
40	6124
40	6124
40	6124
40	6124
40	6124
42	6124
43	6124
43	6124
47	6124
