10	6124
10	6124
11	6124
11	6124
12	6124
12	6124
13	6124
13	6124
22	6124
24	6124
26	6124
29	6124
228	6124
228	6124
228	6124
228	6124
228	6124
228	6124
228	6124
228	6124
228	6124
228	6124
228	6124
228	6124
228	6124
229	6124
229	6124
229	6124
229	6124
229	6124
229	6124
229	6124
229	6124
229	6124
229	6124
230	6124
230	6124
230	6124
230	6124
230	6124
230	6124
232	6124
232	6124
232	6124
233	6124
233	6124
233	6124
234	6124
235	6124
245	6124
246	6124
