1	6124
1	228
1	11
1	227
1	227
1	9
1	227
1	22
1	227
1	227
1	228
1	227
1	21
1	227
1	227
1	20
1	227
1	229
1	10
1	21
1	227
1	227
1	22
1	227
1	11
1	227
1	227
1	227
1	227
1	21
1	227
1	20
1	11
1	227
1	10
1	227
1	227
1	227
1	11
1	20
1	227
1	228
1	227
1	6
1	229
1	227
1	228
1	20
1	227
1	227
1	227
1	10
1	8
1	227
1	5
1	15
1	227
1	227
1	227
1	227
1	227
1	227
1	227
1	227
1	23
1	227
1	21
1	20
1	227
1	10
1	227
1	21
1	227
1	21
1	227
1	228
1	227
1	227
1	7
1	9
1	227
1	7
1	6
1	227
1	227
1	229
1	8
1	7
1	227
1	8
1	7
1	227
1	227
1	227
1	5
1	227
1	227
1	11
1	227
1	227
1	227
1	227
1	227
1	227
1	227
1	227
1	9
1	4
1	227
1	228
1	227
1	10
1	10
1	4
1	227
1	227
1	227
1	20
1	11
1	7
1	227
1	227
1	20
1	227
1	227
1	21
1	227
1	227
1	12
1	227
1	227
1	227
1	227
1	227
1	227
1	227
1	227
1	227
1	227
1	227
1	227
1	7
1	227
1	227
1	6
1	228
1	228
1	227
1	9
1	227
1	10
1	227
1	227
1	227
1	227
1	227
1	227
1	227
1	6
1	227
1	7
1	227
1	227
1	227
1	227
1	227
1	227
1	227
1	227
1	227
1	227
1	227
1	227
1	227
1	227
1	8
1	227
1	227
1	4
1	4
1	227
1	227
1	20
1	227
1	20
1	228
1	228
1	227
1	227
1	227
1	227
1	9
1	227
1	13
1	227
1	227
1	227
1	227
1	7
1	227
1	21
1	227
1	21
1	227
1	227
1	227
1	227
1	227
1	227
1	227
1	227
1	227
1	21
1	20
1	227
1	227
1	227
1	227
1	8
1	228
1	20
1	227
1	6
1	20
1	227
1	6
1	227
1	227
1	227
1	9
1	227
1	227
1	7
1	227
1	227
1	227
1	21
1	227
1	227
1	227
1	227
1	227
1	227
1	227
1	8
1	227
1	227
1	21
1	10
1	227
1	227
1	227
1	227
1	21
1	9
1	227
1	21
1	8
1	227
1	8
1	227
1	227
1	8
1	20
1	227
1	7
1	228
2	9
2	3
2	228
2	6
2	3
2	228
2	5
2	228
2	8
2	4
2	9
2	4
2	3
2	3
2	4
2	3
2	3
2	8
2	6
2	8
2	4
2	3
2	6
2	6
2	5
2	22
2	11
2	8
2	6
2	4
2	3
2	6
2	3
2	3
2	7
2	228
2	4
2	3
2	8
2	4
2	6
2	9
2	4
2	4
2	7
2	4
2	8
2	5
2	4
2	4
2	228
2	4
2	9
2	6
2	8
2	3
3	4
3	4
3	4
3	4
3	5
3	4
3	5
3	4
3	4
3	5
3	4
3	5
3	5
3	4
3	4
3	4
3	4
3	4
3	5
3	5
4	6
4	5
4	5
4	6
4	5
4	5
4	6
4	5
4	5
4	6
4	5
4	5
4	5
5	7
5	6
5	7
5	6
5	7
6	7
6	7
6	7
7	8
7	8
7	8
8	9
9	10
9	10
19	20
20	21
226	227
