8	6124
8	6124
11	6124
12	6124
19	6124
22	6124
27	6124
29	6124
31	6124
31	6124
33	6124
1128	6124
1128	6124
1128	6124
1128	6124
1128	6124
1128	6124
1128	6124
1128	6124
1128	6124
1128	6124
1128	6124
1128	6124
1128	6124
1128	6124
1128	6124
1128	6124
1128	6124
1128	6124
1128	6124
1128	6124
1129	6124
1129	6124
1129	6124
1129	6124
1129	6124
1129	6124
1129	6124
1129	6124
1129	6124
1129	6124
1130	6124
1130	6124
1130	6124
1130	6124
1130	6124
1130	6124
1130	6124
1130	6124
1130	6124
1130	6124
1130	6124
1131	6124
1131	6124
1131	6124
1132	6124
1132	6124
1133	6124
1134	6124
1134	6124
1140	6124
1153	6124
