1	6124
1	18
1	1889
1	1888
1	15
1	1888
1	1888
1	1888
1	1888
1	18
1	1888
1	1888
1	20
1	1888
1	1888
1	11
1	1888
1	1888
1	1888
1	1888
1	15
1	1888
1	1888
1	14
1	1888
1	1888
1	1888
1	1888
1	16
1	1889
1	20
1	33
1	1888
1	1888
1	1888
1	1888
1	1888
1	1888
1	1888
1	19
1	1888
1	1888
1	1888
1	1888
1	16
1	1888
1	1888
1	1888
1	1888
1	1888
1	1888
1	1888
1	6124
1	1889
1	1888
1	1888
1	1888
1	1888
1	1888
1	1888
1	1888
1	32
1	19
1	16
1	1888
1	6124
1	1889
1	1888
1	1888
1	1888
1	1888
1	1888
1	18
1	1888
1	1888
1	13
1	16
1	1888
1	26
1	1888
1	1888
1	1888
1	1888
1	1888
1	1888
1	1888
1	15
1	16
1	1888
1	1888
1	1888
1	1888
1	1888
1	16
1	25
1	1888
1	14
1	15
1	1888
1	1888
1	1888
1	1888
1	1888
1	1888
1	1888
1	1888
1	18
1	1888
1	1888
1	10
1	1888
1	1888
1	1888
1	1888
1	1888
1	17
1	1888
1	1888
1	1888
1	12
1	13
1	1888
1	1888
1	14
1	1888
1	1888
1	1888
1	1888
1	1888
1	1888
1	1888
1	1888
1	1888
1	13
1	1889
1	16
1	5
1	1888
1	1889
1	1888
1	1888
1	1888
1	1888
1	1890
1	1888
1	1888
1	1888
1	1888
1	1888
1	1888
1	1888
1	1888
1	1888
1	18
1	1888
1	1888
1	1888
1	1888
1	1888
1	18
1	1888
1	1888
1	6124
1	7
1	1888
1	1889
1	1888
1	27
1	21
1	1888
1	17
1	1888
1	1888
1	1888
1	1888
1	1888
1	1888
1	21
1	1888
1	12
1	13
1	1888
1	16
1	1888
1	1888
1	1888
1	9
1	13
1	1888
1	1888
1	1888
1	1888
1	1888
1	1888
1	1888
1	1890
1	1888
1	13
1	1888
1	31
1	1888
1	21
1	1888
1	27
1	1888
1	12
1	1888
1	11
1	1888
1	1888
1	11
1	1888
1	1888
1	1888
1	1888
1	1889
1	1888
1	1888
1	1888
1	1888
1	1888
1	1888
1	1888
1	18
1	1888
1	14
1	1888
1	1888
1	1888
1	1888
1	1888
1	1888
1	1890
1	1888
1	1888
1	1888
1	8
1	1888
1	1888
1	11
1	1888
1	1888
1	1888
1	19
1	1890
1	1888
1	15
1	1888
1	1888
1	1888
1	1888
1	11
1	1888
1	1888
1	1888
1	1888
1	1888
1	1888
1	1888
1	1888
1	13
1	6124
1	1888
1	1888
1	1888
1	1888
1	1888
1	14
1	15
1	13
1	1888
1	1888
1	1888
1	15
1	1888
1	1888
1	1888
1	1888
1	1888
1	15
1	1888
1	1888
1	1888
1	1888
1	20
1	13
1	1888
1	1888
1	1888
1	16
1	15
1	1888
1	1892
1	14
1	15
1	1888
1	1888
1	1888
1	12
1	1888
1	1888
1	1888
1	1888
1	1888
1	1888
1	1889
1	1888
1	1888
1	1888
1	1891
1	1888
1	1888
1	1888
1	1888
1	1888
1	1888
1	1888
1	1888
1	1888
1	1888
1	1888
1	26
1	1888
1	1888
1	1888
1	1888
1	1888
1	1888
1	11
1	1888
1	1888
1	1888
1	14
1	16
1	1889
1	9
1	1888
1	1888
1	1888
1	11
1	1888
1	1888
1	1888
1	1888
1	1888
1	1888
1	4
1	15
1	1888
1	1888
1	1888
1	1888
1	1889
1	1888
1	6124
1	1888
1	1888
1	1888
1	1888
1	1888
1	1888
1	1888
1	1888
1	1888
1	17
1	5
1	21
1	1888
1	1888
1	1888
1	1888
1	1888
1	1888
1	17
1	1888
1	1888
1	1888
1	14
1	1888
1	9
1	1888
1	1888
1	10
1	1889
1	1888
1	1888
1	1888
1	1889
1	1888
1	1888
1	1888
1	27
1	8
1	1888
1	1888
1	11
1	1888
1	1888
1	18
1	1888
1	1888
1	1888
1	1888
1	1888
1	1890
1	18
1	1888
1	19
1	1888
1	1888
1	20
1	1888
1	1888
1	1888
1	11
1	10
1	19
1	1888
1	1888
1	20
1	1888
1	1888
1	1888
1	25
1	1888
1	1888
1	1888
1	1888
1	1888
1	1888
1	1888
1	16
1	22
1	1888
1	1888
1	1888
1	1888
1	15
1	14
1	1888
1	11
1	1888
1	1888
1	18
1	1888
1	1888
1	5
1	11
1	1888
1	1888
1	1888
1	1888
1	11
1	1888
1	1888
1	1888
1	1888
1	1888
1	20
1	17
1	1889
1	11
1	1888
1	1888
1	1888
1	1888
1	1888
1	1892
1	1888
1	1888
1	14
1	1888
1	1888
1	1888
1	8
1	1888
1	1888
1	1888
1	1888
1	1888
1	7
1	11
1	1888
1	1888
1	1888
1	1888
1	1888
1	1888
1	1888
1	18
1	1888
1	1890
1	1888
1	1888
1	1888
1	1891
1	1888
1	1888
1	17
1	1888
1	1888
1	21
1	1888
1	1888
1	1888
1	1888
1	1888
1	1888
1	14
1	1888
1	1888
1	1889
1	1888
1	1888
1	1888
1	1888
1	17
1	1888
1	19
1	1888
1	9
1	1890
1	21
1	1888
1	1888
1	1888
1	26
1	1888
1	1888
1	13
1	10
1	8
1	1888
1	1888
1	19
1	1888
1	13
1	1888
1	1888
1	1888
1	1888
1	19
1	1888
1	1888
1	14
1	20
1	14
1	1888
1	1888
1	13
1	1888
1	13
1	21
1	1888
1	1888
1	1888
1	1888
1	1888
1	1888
1	1888
1	1889
1	21
1	1888
1	1888
1	1888
1	1888
1	1888
1	1888
1	31
1	1888
1	19
1	1888
1	1888
1	8
1	1888
1	14
1	1888
1	14
1	1888
1	14
1	7
1	1888
1	1888
1	1888
1	21
1	1888
1	1888
1	19
1	1888
1	1888
1	1888
1	1888
1	1888
1	18
1	1888
1	1888
1	1888
1	1888
1	13
1	19
1	18
1	11
1	1888
1	1888
1	1888
1	1888
1	1888
1	1888
1	1888
1	16
1	1888
1	1888
1	1888
1	1888
1	1888
1	8
1	1888
1	5
1	10
1	1888
1	1888
1	1888
1	1888
1	1888
1	19
1	1889
1	10
1	1888
1	1890
1	1888
1	1888
1	1888
1	1888
1	1888
1	16
1	17
1	6124
1	6124
1	1888
1	1888
1	1888
1	1888
1	1888
1	1888
1	12
1	1889
1	1888
1	1888
1	16
1	1888
1	19
1	7
1	1888
1	1890
1	1888
1	31
1	1888
1	1888
1	1888
1	1888
1	1888
1	12
1	11
1	1888
1	2
1	1888
1	1888
1	1888
1	1889
1	1888
1	1888
1	14
1	1888
1	1888
1	1888
1	1888
1	1888
1	14
1	1888
1	1888
1	1888
1	21
1	14
1	1888
1	17
1	1888
1	1888
1	1888
1	17
1	1888
1	1888
1	1888
1	9
1	19
1	11
1	1888
1	13
1	14
1	14
1	13
1	1888
1	1888
1	1888
1	1888
1	1888
1	1888
1	1888
1	1888
1	5
1	1888
1	1888
1	21
1	1888
1	14
1	1888
1	13
1	1888
1	1889
1	1888
1	16
1	1888
1	1888
1	1888
1	1888
1	1888
1	26
1	1888
1	1888
1	1888
1	1888
1	1888
1	14
1	9
1	1888
1	1888
1	1888
1	1888
1	11
1	1888
1	1888
1	18
1	10
1	1888
1	1888
1	1888
1	1888
1	1888
1	1888
1	18
1	1888
1	1888
1	1888
1	4
1	1888
1	1888
1	1888
1	14
1	1888
1	1888
1	8
1	1888
1	19
1	1888
1	1888
1	15
1	1889
1	1888
1	1888
1	14
1	1888
1	9
1	1888
1	12
1	1888
1	11
1	16
1	1888
1	11
1	19
1	1888
1	1890
1	1888
1	1888
1	7
1	16
1	1889
1	13
1	12
1	1888
1	1888
1	1888
1	1888
1	1888
1	1888
1	1888
1	1888
1	1889
1	1888
1	1888
1	1888
1	1888
1	1888
1	1888
1	1888
1	1888
1	1888
1	1888
1	1888
1	1888
1	1888
1	1888
1	1888
1	1888
1	1890
1	1888
1	1888
1	1888
1	1888
1	1888
1	1888
1	1888
1	1888
1	1888
1	1888
1	1888
1	1888
1	11
1	9
1	1888
1	1888
1	11
1	1888
1	6
1	1888
1	1888
1	1888
1	1888
1	1888
1	1888
1	10
1	1888
1	1888
1	1888
1	4
1	1888
1	1888
1	1888
1	9
1	16
1	1888
1	1888
1	1888
1	1888
1	1888
1	1888
1	1888
1	1888
1	1888
1	21
1	1888
1	1888
1	18
1	1888
1	19
1	1888
1	1888
1	1888
1	1888
1	1888
1	1888
1	1888
1	1888
1	1888
1	21
1	16
1	1888
1	1888
1	7
1	1889
1	20
1	1888
1	1888
1	1888
1	14
1	1888
1	31
1	7
1	1888
1	1888
1	1888
1	1888
1	1888
1	1888
1	1888
1	1888
1	1888
1	1888
1	1888
1	1888
1	1888
1	1888
1	11
1	15
1	1891
1	1888
1	14
1	18
1	1888
1	19
1	15
1	1888
1	1891
1	12
1	8
1	13
1	1888
1	1888
1	1888
1	1888
1	1888
1	9
1	1888
1	1888
1	1888
1	1888
1	1888
1	1888
1	1888
1	1888
1	1888
1	1889
1	22
1	1888
1	1888
1	1888
1	1888
1	19
1	14
1	1888
1	1888
1	1888
1	1888
1	1888
1	11
1	1888
1	1888
1	1890
1	12
1	14
1	16
1	1888
1	14
1	14
1	14
1	1888
1	11
1	11
1	1888
1	1888
1	1888
1	1888
1	1888
1	1888
1	16
1	6
1	10
1	9
1	14
1	1888
1	16
1	1888
1	1888
1	1888
1	9
1	1888
1	1888
1	19
1	1888
1	1888
1	10
1	3
1	1888
1	1888
1	1888
1	1888
1	1888
1	1888
1	15
1	1888
1	7
1	1888
1	1888
1	1888
1	1889
1	1889
1	1888
1	21
1	1888
1	14
1	1888
1	19
1	10
1	1888
1	1888
1	7
1	1888
1	17
1	9
1	14
1	1888
1	1888
1	1888
1	1888
1	1888
1	10
1	1888
1	1888
1	1888
1	14
1	1888
1	1888
1	26
1	1888
1	5
1	1888
1	1889
1	1888
1	10
1	1888
1	1888
1	18
1	6
1	1888
1	8
1	1888
1	1888
1	1888
1	1888
1	1888
1	1888
1	11
1	14
1	1888
1	5
1	8
1	1888
1	9
1	1888
1	1888
1	6
1	1888
1	9
1	1888
1	1888
1	1888
1	1888
1	1888
1	5
1	1888
1	1888
1	1888
1	1888
1	1888
1	1888
1	1888
1	1888
1	1888
1	1888
1	1888
1	12
1	1888
1	1888
1	1888
1	1892
1	12
1	1888
1	1888
1	1888
1	1888
1	11
1	9
1	19
1	1888
1	1888
1	1888
1	17
1	8
1	1888
1	1888
1	14
1	1888
1	6
1	1888
1	1888
1	1888
1	1888
1	1888
1	1888
1	14
1	1888
1	1888
1	21
1	1888
1	1888
1	1888
1	9
1	18
1	16
1	1888
1	19
1	1888
1	1888
1	1888
1	4
1	17
1	17
1	1888
1	19
1	9
1	31
1	14
1	13
1	15
1	1888
1	6
1	1888
1	1888
1	1888
1	1888
1	1888
1	1888
1	14
1	9
1	1888
1	1888
1	1888
1	7
1	1888
1	1888
1	3
1	31
1	1888
1	1888
1	6
1	1888
1	1888
1	1888
1	1888
1	31
1	1888
1	1888
1	1888
1	11
1	1888
1	19
1	1888
1	14
1	26
1	1888
1	1888
1	1888
1	1888
1	1888
1	1888
1	9
1	13
1	1888
1	1888
1	1888
1	1888
1	1888
1	1888
1	1888
1	1888
1	5
1	17
1	15
1	1888
1	13
1	20
1	1888
1	15
1	1888
1	1888
1	14
1	1888
1	1889
1	14
1	1888
1	1888
1	25
1	14
1	1889
1	9
1	1888
1	16
1	10
1	1888
1	1888
1	1888
1	1888
1	1888
1	1888
1	1888
1	1888
1	1888
1	11
1	21
1	6
1	21
1	1888
1	12
1	22
1	1888
1	26
1	1888
1	1889
1	1888
1	1888
1	1888
1	1888
1	15
1	1888
1	1888
1	1888
1	1888
1	1888
1	1888
1	1888
1	9
1	1888
1	1888
1	10
1	1888
1	1888
1	1888
1	6
1	1888
1	1888
1	1888
1	1888
1	1888
1	1888
1	1888
1	6
1	12
1	1888
1	1888
1	1888
1	1888
1	1888
1	9
1	10
1	1888
1	11
1	1888
1	1888
1	13
1	1888
1	1888
1	10
1	1888
1	1888
1	14
1	6
1	1888
1	1888
1	17
1	1888
1	1888
1	1888
1	7
1	1889
1	20
1	1888
1	1888
1	5
1	1888
1	1888
1	1888
1	1888
1	1888
1	8
1	1888
1	1888
1	1888
1	1888
1	1888
1	10
1	1888
1	1888
1	1888
1	1888
1	1888
1	1888
1	17
1	7
1	1888
1	1888
1	1888
1	11
1	1888
1	1888
1	8
1	1888
1	1888
1	1888
1	1888
1	8
1	6
1	1888
1	1888
1	1888
1	1888
1	7
1	19
1	16
1	1888
1	1888
1	1888
1	1888
1	1889
1	1888
1	1888
1	1888
1	14
1	1888
1	1888
1	1888
1	1888
1	1888
1	26
1	1888
1	1888
1	23
1	1888
1	1888
1	1888
1	1888
1	1888
1	10
1	19
1	1888
1	1889
1	4
1	1888
1	7
1	1888
1	6
1	1888
1	1888
1	15
1	26
1	1888
1	1888
1	1888
1	1888
1	1888
1	10
1	1888
1	14
1	1888
1	6124
1	1888
1	1888
1	1888
1	1888
1	1888
1	20
1	1888
1	1888
1	1888
1	16
1	1889
1	7
1	1888
1	1888
1	1888
1	1888
1	1888
1	5
1	5
1	1888
1	1888
1	1888
1	9
1	12
1	6
1	1888
1	1888
1	1888
1	5
1	1888
1	1888
1	1888
1	1888
1	1888
1	11
1	10
1	1888
1	1888
1	1888
1	12
1	1888
1	1888
1	1888
1	1888
1	1888
1	1888
1	1888
1	16
1	6
1	1888
1	1888
1	1888
1	1888
1	1888
1	1888
1	1888
1	1888
1	1888
1	1888
1	19
1	1888
1	1888
1	13
1	1888
1	1888
1	8
1	13
1	1888
1	1888
1	10
1	1888
1	1888
1	1888
1	1888
1	19
1	14
1	1888
1	1888
1	1888
1	1888
1	1888
1	1888
1	4
1	1888
1	1888
1	10
1	1888
1	1888
1	15
1	1888
1	1889
1	1888
1	1890
1	13
1	1888
1	21
1	1888
1	1888
1	19
1	1888
1	7
1	1888
1	1888
1	6
1	1888
1	1888
1	8
1	1888
1	1888
1	1888
1	9
1	1888
1	1888
1	13
1	1888
1	1888
1	10
1	1888
1	1888
1	21
1	1889
1	1888
1	1888
1	1888
1	1888
1	1888
1	10
1	1888
1	12
1	19
1	1888
1	17
1	1888
1	12
1	1888
1	11
1	1888
1	1888
1	1888
1	1888
1	21
1	5
1	1888
1	1888
1	6124
1	1888
1	1888
1	7
1	1888
1	12
1	1888
1	1888
1	17
1	1888
1	1888
1	1889
1	1888
1	21
1	1888
1	1888
1	1888
1	14
1	1888
1	1888
1	1888
1	1888
1	1888
1	8
1	1888
1	1888
1	1888
1	1888
1	1888
1	21
1	1888
1	1888
1	1888
1	1889
1	1888
1	1888
1	1888
1	1888
1	1888
1	1888
1	1888
1	31
1	7
1	1888
1	1888
1	1888
1	1888
1	19
1	13
1	1889
1	4
1	1888
1	16
1	11
1	1888
1	1888
1	21
1	12
1	1888
1	1888
1	1888
1	1888
1	1888
1	1888
1	1888
1	1888
1	1888
1	19
1	1888
1	11
1	4
1	1888
1	7
1	8
1	1888
1	6
1	1888
1	1888
1	1888
1	21
1	1888
1	1888
1	1888
1	1888
1	10
1	1888
1	1888
1	5
1	1888
1	1889
1	1888
1	1888
1	9
1	1888
1	1888
1	5
1	17
1	1888
1	1888
1	1888
1	16
1	1888
1	1888
1	1888
1	7
1	1888
1	19
1	1888
1	1888
1	14
1	1888
1	10
1	1888
1	13
1	1888
1	33
1	1888
1	1888
1	1888
1	15
1	1888
1	1888
1	12
1	1888
1	1888
1	1888
1	1888
1	1888
1	9
1	1888
1	1888
1	1888
1	1888
1	1888
1	1888
1	1888
1	7
1	1888
1	17
1	8
1	1888
1	1888
1	10
1	12
1	25
1	1888
1	31
1	15
1	1888
1	1888
1	1888
1	9
1	8
1	1888
1	1888
1	7
1	7
1	1888
1	1888
1	1888
1	1888
1	21
1	11
1	1888
1	1888
1	1888
1	1888
1	11
1	1888
1	1888
1	1888
1	25
1	1888
1	11
1	1888
1	1888
1	1888
1	1888
1	11
1	1888
1	1888
1	1888
1	11
1	1888
1	21
1	1888
1	1888
1	25
1	1888
1	8
1	7
1	7
1	1888
1	1888
1	1888
1	10
1	18
1	1888
1	1888
1	10
1	1888
1	1888
1	2
1	1888
1	7
1	1888
1	1888
1	6
1	1888
1	7
1	1888
1	1888
1	1888
1	1888
1	1888
1	9
1	1888
1	1888
1	21
1	21
1	1888
1	1888
1	1888
1	8
1	5
1	25
1	1888
1	1888
1	5
1	1888
1	1888
1	17
1	15
1	1889
1	1888
1	21
1	1888
1	1888
1	1888
1	1888
1	1888
1	1888
1	21
1	1888
1	9
1	1888
1	16
1	1888
1	1888
1	1888
1	1888
1	1888
1	1888
1	1888
1	1888
1	1888
1	13
1	1888
1	1888
1	1888
1	1888
1	1888
1	1888
1	1888
1	1888
1	1888
1	1888
1	5
1	1888
1	1888
1	1888
1	1888
1	1888
1	1888
1	5
1	2
1	1888
1	1888
1	1888
1	1888
1	1888
1	1888
1	1888
1	31
1	1888
1	4
1	9
1	1888
1	1888
1	1888
1	1888
1	1888
1	1888
1	1888
1	1888
1	1888
1	1888
1	1888
1	1888
1	1888
1	1888
1	1888
1	1888
1	8
1	1888
1	1888
1	1888
1	14
1	19
1	10
1	1888
1	1888
1	14
1	1888
1	1888
1	14
1	7
1	10
1	1888
1	1888
1	1888
1	13
1	1888
1	1888
1	1888
1	1888
1	16
1	1888
1	1888
1	1888
1	1888
1	1888
1	1888
1	1888
1	1888
1	1888
1	1888
1	16
1	1888
1	1888
1	15
1	1888
1	1888
1	21
1	1888
1	1888
1	1888
1	1888
1	1888
1	1888
1	1888
1	1888
1	25
1	1888
1	1888
1	1888
1	1888
1	1888
1	1888
1	4
1	19
1	7
1	16
1	1888
1	1888
1	14
1	1888
1	1888
1	1888
1	10
1	1888
1	8
1	1888
1	1888
1	6
1	1888
1	1888
1	1888
1	1888
1	14
1	1888
1	1888
1	9
1	1888
1	7
1	1888
1	14
1	16
1	13
1	1888
1	7
1	1888
1	1888
1	1888
1	2
1	31
1	8
1	1888
1	18
1	1888
1	1888
1	1888
1	1888
1	1888
1	10
1	1888
1	9
1	1888
1	14
1	1888
1	1888
1	1888
1	1888
1	1888
1	2
1	9
1	1888
1	1888
1	1888
1	1888
1	1889
1	8
1	1888
1	17
1	1888
1	1888
1	6
1	1888
1	1888
1	17
1	1888
1	10
1	1888
1	1890
1	2
1	1888
1	8
1	1888
1	13
1	1888
1	1888
1	1888
1	1888
1	1888
1	1888
1	10
1	1888
1	1888
1	1888
1	1888
1	1888
1	10
1	1888
1	1888
1	1888
1	25
1	1888
1	1888
1	1888
1	6
1	7
1	1888
1	1888
1	1888
1	1888
1	6
1	1888
1	1888
1	1888
1	7
1	9
1	21
1	1888
1	1888
1	10
1	11
1	1888
1	1888
1	7
1	12
1	1888
1	1888
1	1888
1	31
1	1888
1	14
1	1889
1	1888
1	14
1	8
1	16
1	1888
1	1888
1	1888
1	1888
1	7
1	1888
1	14
1	1888
1	1888
1	1888
1	1888
1	1889
1	1889
1	1888
1	1888
1	1888
1	1888
1	1888
1	1888
1	1888
1	1888
1	1888
1	1888
1	19
1	12
1	1888
1	1888
1	20
1	1889
1	1888
1	1888
1	1888
1	1888
1	1888
1	1888
1	1888
1	1888
1	1888
1	1888
1	1888
1	19
1	1888
1	1888
1	14
1	1888
1	13
1	1888
1	1888
1	1888
1	1888
1	1888
1	1888
1	6
1	1888
1	1888
1	1888
1	14
1	1888
1	1889
1	1888
1	4
1	1888
1	1888
1	1888
1	6
1	1888
1	21
1	1888
1	10
1	1888
1	1888
1	1888
1	18
1	1888
1	1888
1	31
1	1888
1	6
1	1888
1	1888
1	1888
1	2
1	1888
1	1888
1	1888
1	1888
1	1888
1	1888
1	1888
1	10
1	1888
1	1888
1	1888
1	1888
1	21
1	1888
1	1888
1	1888
1	1888
1	1888
1	1888
1	1888
1	1888
1	1888
1	19
1	1888
1	1888
1	1888
1	1888
1	9
1	1888
1	11
1	31
1	1888
1	1888
1	1888
1	14
1	1888
1	1888
1	1888
1	15
1	1888
1	1888
1	5
1	1888
1	1888
1	1888
1	16
1	1888
1	1888
1	1888
1	21
1	4
1	1888
1	1888
1	1888
1	1888
1	6
1	1888
1	1888
1	1888
1	1888
1	1889
1	31
1	1888
1	26
1	1888
1	1888
1	1888
1	12
1	1888
1	1888
1	1888
1	1888
1	1888
1	4
1	1888
1	1888
1	1888
1	1888
1	1888
1	1888
1	1888
1	1888
1	17
1	1888
1	1888
1	1888
1	1888
1	1888
1	1888
1	5
1	1888
1	8
1	1888
1	1888
1	9
1	21
1	1888
1	16
1	1888
1	26
1	1888
1	5
1	1888
1	1888
1	1889
1	14
1	1888
1	1888
1	1888
1	1888
1	1888
1	1888
1	1888
1	1888
1	11
1	1888
1	1888
1	19
1	1888
1	10
1	1888
1	1888
1	6
1	1889
1	1888
1	1888
1	1888
1	1888
1	1888
1	1888
1	1888
1	1888
1	1888
1	1888
1	21
1	1888
1	5
1	1888
1	1888
1	1888
1	1888
1	1888
1	1888
1	1888
1	1888
1	1888
1	1888
1	1888
1	1888
1	1888
1	1888
1	8
1	1888
1	8
1	1888
1	14
1	1888
1	21
1	1888
1	1888
1	1888
1	1888
1	1888
1	1888
1	1888
1	1888
1	1888
1	1888
1	1888
1	1888
1	1888
1	11
1	1888
1	1888
1	13
1	4
1	7
1	1888
1	15
1	1888
1	1889
1	7
1	4
1	1888
1	1888
1	1888
1	1888
1	16
1	1888
1	1888
1	1888
1	1888
1	1888
1	9
1	1888
1	1888
1	1888
1	1888
1	14
1	6
1	1888
1	7
1	19
1	1888
1	1888
1	1888
1	1888
1	14
1	1888
1	1888
1	1888
1	1888
1	1888
1	10
1	1888
1	12
1	1888
1	1888
1	1888
1	1888
1	1888
1	1888
1	1888
1	1888
1	1888
1	20
1	1888
1	4
1	1888
1	1888
1	19
1	1888
1	14
1	1888
1	1888
1	1888
1	1888
1	12
1	1888
1	1888
1	1888
1	8
1	1888
1	9
1	1888
1	1888
1	1888
1	1888
1	1888
1	1888
1	1888
1	1888
1	6
1	1889
1	1888
1	26
1	1888
1	1888
1	5
1	14
1	14
1	1888
1	5
1	1888
1	1888
1	14
1	25
1	14
1	1888
1	1888
1	1888
1	1888
1	1888
1	1889
1	1888
1	1888
1	1888
1	12
1	1888
1	6
1	10
1	1888
1	1888
1	1888
1	8
1	1888
1	1888
1	1888
1	13
1	1888
1	14
1	5
1	1888
1	1888
1	1888
1	9
1	1888
1	1888
1	1888
1	4
1	10
1	8
1	21
1	16
1	7
1	13
1	1888
1	21
1	8
1	1888
1	10
1	1888
1	13
1	1888
1	1888
1	34
2	3
2	5
2	6
2	7
2	3
2	11
2	5
2	15
2	7
2	3
2	20
2	17
2	20
2	6
2	4
2	6
2	3
2	10
2	32
2	1889
2	3
2	20
2	7
2	18
2	3
2	12
2	6
2	3
2	3
2	8
2	4
2	12
2	4
2	3
2	1889
2	3
2	5
2	3
2	3
2	7
2	9
2	14
2	18
2	3
2	4
2	5
2	4
2	6
2	5
2	18
2	6
2	6
2	10
2	10
2	3
2	7
2	4
2	3
2	3
2	4
2	13
2	3
2	4
2	22
2	18
2	4
2	1889
2	10
2	26
2	3
2	15
2	11
2	3
2	3
2	9
2	3
2	3
2	3
2	4
2	22
2	3
2	4
2	5
2	11
2	3
2	3
2	10
2	18
2	1889
2	7
2	11
2	3
2	17
2	3
2	3
2	3
2	8
2	3
2	3
2	13
2	3
2	4
2	5
2	7
2	8
2	4
2	4
2	3
2	3
2	12
2	3
2	8
2	3
2	15
2	3
2	11
2	4
2	9
2	3
2	3
2	3
2	3
2	22
2	8
2	3
2	3
2	5
2	22
2	3
2	7
2	7
2	3
2	3
2	7
2	8
2	5
2	4
2	5
2	7
2	7
2	4
2	4
2	10
2	11
2	5
2	8
2	15
2	15
2	7
2	4
2	3
2	4
2	8
2	10
2	3
2	5
2	3
2	11
2	7
2	3
2	3
2	6
2	17
2	4
2	20
2	8
2	6
2	8
2	5
2	3
2	11
2	5
2	5
2	6
2	5
2	3
2	3
2	11
2	11
2	6
2	3
2	3
2	3
2	3
2	3
2	9
2	7
2	3
2	6
2	3
2	7
2	3
2	7
2	3
2	4
2	20
2	3
2	3
2	22
2	15
2	1889
2	6
2	4
2	6
2	3
2	3
2	4
2	6
2	3
2	4
2	3
2	4
2	3
2	3
2	3
2	3
2	3
2	7
2	3
2	10
2	3
2	4
2	3
2	14
2	4
2	4
2	3
2	4
2	7
2	4
2	15
2	1889
2	15
2	5
2	3
2	3
2	3
2	6
2	3
2	8
2	10
2	3
2	9
2	3
2	3
2	4
2	4
2	7
2	3
2	20
2	3
2	5
2	6
2	3
2	10
2	3
2	4
2	4
2	13
2	3
2	3
2	14
2	4
2	3
2	32
2	3
2	3
2	3
2	3
2	3
2	4
2	4
2	5
2	3
2	4
3	7
3	5
3	4
3	4
3	4
3	5
3	4
3	7
3	8
3	8
3	5
3	4
3	5
3	4
3	4
3	4
3	4
3	5
3	14
3	4
3	4
3	5
3	5
3	4
3	7
3	4
3	4
3	4
3	5
3	4
3	12
3	4
3	4
3	6
3	5
3	4
3	4
3	5
3	4
3	4
3	5
3	5
3	4
3	12
3	8
3	6
3	17
3	7
3	5
3	4
3	4
3	7
3	5
3	13
3	4
3	4
3	4
3	5
3	5
3	5
3	5
3	4
3	4
3	4
3	4
3	8
3	4
3	5
3	8
3	5
3	5
3	4
3	5
3	4
3	4
3	4
3	4
3	4
3	4
3	4
3	4
3	4
3	4
3	5
3	4
3	4
3	8
3	5
3	4
3	4
3	5
3	6
3	4
3	4
3	4
3	4
3	4
3	4
3	4
3	5
3	4
3	5
3	15
3	6
3	7
3	4
3	4
3	8
3	22
3	4
3	8
3	4
3	6
4	5
4	5
4	5
4	5
4	5
4	6
4	5
4	6
4	5
4	5
4	5
4	7
4	5
4	5
4	11
4	5
4	5
4	5
4	6
4	5
4	5
4	5
4	16
4	5
4	6
4	6
4	5
4	5
4	7
4	5
4	5
4	9
4	5
4	6
4	5
4	5
4	5
4	5
4	7
4	5
4	5
4	5
4	6
4	5
4	5
4	6
4	5
5	6
5	6
5	9
5	8
5	6
5	6
5	6
5	6
5	6
5	6
5	6
5	6
5	6
5	6
5	7
5	6
5	6
5	6
5	6
5	6
5	6
5	7
5	6
5	6
5	6
5	6
5	7
5	6
5	6
5	6
5	8
5	6
5	6
5	10
5	6
6	7
6	7
6	7
6	7
6	7
6	7
6	7
6	7
6	7
6	7
6	7
6	7
6	7
6	7
7	8
7	8
7	8
7	8
7	8
7	8
7	8
7	8
7	8
8	9
8	9
8	9
8	9
8	10
8	9
8	9
8	9
8	9
8	9
8	10
9	10
9	10
9	10
9	10
9	10
9	10
9	10
9	10
9	10
10	11
10	11
10	11
10	11
10	11
10	11
11	12
11	12
11	12
12	13
12	13
12	13
12	13
13	14
13	14
13	14
13	14
13	14
13	14
13	14
13	14
13	14
13	14
14	15
14	15
15	16
15	16
15	16
16	17
16	17
16	17
17	18
18	19
18	19
18	19
18	19
19	20
20	21
20	21
20	21
24	25
25	26
30	31
1887	1888
