1	6124
1	1440
1	1439
1	1439
1	1439
1	19
1	44
1	14
1	1439
1	1439
1	12
1	1439
1	1439
1	1439
1	18
1	1439
1	1439
1	1439
1	18
1	1439
1	1439
1	6124
1	1439
1	1439
1	1441
1	1439
1	14
1	1439
1	1439
1	1439
1	1439
1	1439
1	1439
1	1439
1	1440
1	1439
1	1439
1	1439
1	1440
1	1440
1	16
1	1439
1	1439
1	1439
1	16
1	1439
1	20
1	1439
1	15
1	1439
1	19
1	1439
1	1439
1	1439
1	1439
1	1439
1	1439
1	1439
1	1439
1	1439
1	1439
1	16
1	1439
1	15
1	28
1	15
1	1439
1	1439
1	1439
1	15
1	1439
1	12
1	1439
1	1439
1	1439
1	1440
1	1439
1	1439
1	1439
1	1439
1	1439
1	1439
1	1439
1	1439
1	1439
1	1439
1	1439
1	1439
1	10
1	1439
1	1439
1	1439
1	1439
1	1439
1	1439
1	1439
1	1439
1	1439
1	1439
1	1439
1	12
1	1439
1	12
1	1439
1	1439
1	1439
1	1439
1	1439
1	1439
1	1439
1	1439
1	1439
1	43
1	12
1	1439
1	1439
1	1439
1	1439
1	1439
1	1439
1	21
1	1439
1	43
1	11
1	1439
1	20
1	1439
1	1440
1	12
1	1439
1	6
1	1439
1	14
1	15
1	1439
1	15
1	1439
1	12
1	1439
1	1439
1	1439
1	1439
1	1439
1	1439
1	27
1	1439
1	1439
1	1442
1	1439
1	1439
1	9
1	1439
1	11
1	1439
1	1439
1	1439
1	1439
1	8
1	1439
1	1439
1	1439
1	10
1	1439
1	9
1	1439
1	1439
1	1439
1	1439
1	1439
1	1439
1	1439
1	19
1	1439
1	1439
1	1439
1	1439
1	1439
1	1439
1	1439
1	1439
1	1439
1	1439
1	1439
1	15
1	1439
1	1439
1	1440
1	1439
1	12
1	12
1	1439
1	1439
1	1439
1	14
1	1439
1	1439
1	1439
1	1439
1	1439
1	1439
1	1439
1	1439
1	1439
1	1439
1	1439
1	1439
1	1439
1	1439
1	1439
1	1439
1	1439
1	1439
1	1439
1	1439
1	1441
1	1439
1	1439
1	13
1	1439
1	1439
1	1439
1	14
1	1439
1	1439
1	14
1	13
1	1439
1	10
1	1439
1	1439
1	1439
1	1439
1	9
1	1439
1	10
1	1439
1	1439
1	1439
1	1439
1	11
1	1439
1	1439
1	7
1	11
1	1439
1	1439
1	1439
1	1439
1	1439
1	1439
1	12
1	1439
1	1439
1	1439
1	1439
1	10
1	1439
1	6
1	8
1	1439
1	1439
1	8
1	1439
1	1439
1	1439
1	1439
1	1439
1	1439
1	1439
1	1439
1	1439
1	7
1	1439
1	14
1	19
1	1439
1	1439
1	1439
1	1439
1	1439
1	1439
1	1440
1	1439
1	14
1	1439
1	1439
1	19
1	1439
1	1439
1	1439
1	1439
1	1439
1	9
1	10
1	1439
1	1439
1	14
1	1439
1	11
1	1439
1	1439
1	1439
1	1439
1	1439
1	1439
1	1439
1	30
1	1439
1	1439
1	1439
1	1439
1	7
1	1439
1	1439
1	28
1	1439
1	1439
1	1439
1	13
1	1439
1	1439
1	1439
1	1440
1	1439
1	1439
1	1439
1	1439
1	1439
1	1439
1	1439
1	1439
1	1439
1	1439
1	1439
1	12
1	1439
1	1440
1	1439
1	9
1	1439
1	1439
1	1439
1	1439
1	1439
1	6124
1	1439
1	1439
1	1439
1	1440
1	28
1	1439
1	1439
1	1439
1	11
1	1439
1	1439
1	44
1	1439
1	1439
1	1439
1	1439
1	8
1	1439
1	1439
1	1439
1	1439
1	1439
1	1439
1	1439
1	1439
1	1439
1	1439
1	1439
1	19
1	1439
1	1439
1	1439
1	1439
1	1439
1	1439
1	1439
1	1439
1	1439
1	1439
1	1439
1	1439
1	1439
1	14
1	1439
1	2
1	10
1	1439
1	1439
1	1439
1	1439
1	1439
1	1439
1	1439
1	1440
1	1439
1	10
1	1439
1	15
1	1439
1	1439
1	1439
1	1439
1	1439
1	1439
1	1439
1	1439
1	1439
1	11
1	15
1	14
1	19
1	1439
1	1440
1	1439
1	1439
1	1439
1	1439
1	1439
1	1441
1	1440
1	1439
1	1439
1	1440
1	1439
1	1439
1	1439
1	1439
1	1439
1	43
1	1439
1	1439
1	1439
1	1440
1	1439
1	1439
1	1439
1	1440
1	7
1	1439
1	1439
1	1440
1	1439
1	8
1	12
1	10
1	1439
1	1443
1	1439
1	1439
1	1439
1	10
1	1439
1	1439
1	10
1	1439
1	1439
1	11
1	1439
1	1439
1	1439
1	1439
1	1439
1	1439
1	1439
1	5
1	1439
1	1439
1	1439
1	1439
1	1439
1	1439
1	1439
1	8
1	8
1	1439
1	1439
1	1439
1	1439
1	9
1	9
1	1439
1	1440
1	1439
1	43
1	1439
1	1439
1	1439
1	1439
1	1439
1	1439
1	1439
1	1439
1	1440
1	1439
1	1439
1	1440
1	1439
1	7
1	1439
1	1439
1	1439
1	1439
1	1439
1	1439
1	1439
1	1439
1	1439
1	1439
1	1439
1	9
1	18
1	1439
1	1440
1	9
1	1439
1	1439
1	1439
1	1439
1	1440
1	1439
1	1439
1	15
1	43
1	8
1	9
1	1439
1	1440
1	1439
1	1439
1	1439
1	1439
1	1439
1	1439
1	1439
1	1439
1	1439
1	1439
1	1439
1	9
1	1439
1	1439
1	1439
1	1439
1	1439
1	1439
1	1439
1	1439
1	1439
1	13
1	1439
1	1439
1	1439
1	1439
1	1439
1	1439
1	1439
1	1439
1	1439
1	1439
1	1440
1	1439
1	1439
1	1441
1	1439
1	13
1	1439
1	1439
1	1439
1	1439
1	1439
1	1439
1	1439
1	6
1	6
1	1439
1	7
1	1439
1	1439
1	1439
1	1439
1	1439
1	1439
1	1439
1	1439
1	1439
1	1439
1	1439
1	12
1	1439
1	1442
1	43
1	1439
1	1439
1	1439
1	1439
1	1439
1	4
1	1439
1	1439
1	1439
1	1440
1	1439
1	1439
1	1439
1	15
1	1439
1	1439
1	1439
1	10
1	1439
1	1439
1	1439
1	1439
1	1439
1	1439
1	1439
1	5
1	1439
1	10
1	11
1	6
1	1439
1	1439
1	7
1	19
1	1439
1	1439
1	1439
1	1439
1	1439
1	43
1	1439
1	1439
1	1439
1	1439
1	1439
1	1439
1	1439
1	1439
1	1439
1	8
1	1439
1	1439
1	13
1	1439
1	1439
1	1439
1	1439
1	1439
1	1439
1	1439
1	5
1	1439
1	1439
1	1439
1	1439
1	1439
1	1439
1	12
1	1439
1	1439
1	1439
1	1439
1	1439
1	1439
1	1439
1	1439
1	13
1	1439
1	1439
1	1439
1	1439
1	1439
1	1439
1	1439
1	1439
1	9
1	1439
1	1439
1	1439
1	1439
1	1439
1	6
1	9
1	1439
1	1439
1	1439
1	1439
1	1439
1	1439
1	1439
1	1439
1	1439
1	1439
1	1439
1	1439
1	1439
1	1439
1	1439
1	1439
1	5
1	8
1	1439
1	1440
1	7
1	1439
1	1439
1	1439
1	1439
1	1439
1	1439
1	15
1	1439
1	43
1	1440
1	1439
1	8
1	1439
1	1439
1	15
1	11
1	1439
1	1439
1	1439
1	1439
1	1439
1	43
1	1439
1	12
1	27
1	1439
1	1439
1	1439
1	1442
1	8
1	5
1	1439
1	1439
1	1439
1	1439
1	1439
1	1439
1	10
1	6
1	1439
1	6
1	1439
1	9
1	1439
1	9
1	1439
1	1439
1	1439
1	1439
1	1439
1	1439
1	1439
1	1439
1	14
1	1439
1	1439
1	1439
1	1439
1	1439
1	1439
1	1439
1	1439
1	1439
1	1440
1	1439
1	8
1	1439
1	1439
1	1439
1	10
1	1439
1	1439
1	1439
1	1439
1	6
1	8
1	1439
1	1439
1	1439
1	1439
1	43
1	1439
1	1439
1	6
1	1439
1	6
1	1439
1	15
1	1439
1	1439
1	1439
1	15
1	1439
1	1439
1	1439
1	9
1	1439
1	1439
1	1439
1	1439
1	1439
1	1439
1	1439
1	1439
1	1439
1	1439
1	1439
1	1439
1	1440
1	1439
1	1439
1	30
1	1439
1	8
1	1439
1	1439
1	1439
1	9
1	1439
1	1439
1	1439
1	1439
1	1439
1	43
1	1439
1	1439
1	1439
1	1439
1	5
1	1439
1	1439
1	1439
1	1439
1	6
1	1439
1	1439
1	15
1	11
1	27
1	1439
1	1439
1	1439
1	1439
1	1439
1	15
1	9
1	1439
1	43
1	1439
1	44
1	15
1	1439
1	1439
1	1439
1	1439
1	1439
1	1439
1	1439
1	1439
1	1439
1	1439
1	1439
1	5
1	1439
1	1439
1	1439
1	1439
1	1439
1	1439
1	1439
1	1439
1	6
1	1439
1	1439
1	8
1	1439
1	1439
1	14
1	1439
1	1439
1	1439
1	1439
1	7
1	1439
1	1439
1	9
1	1439
1	1439
1	1439
1	1439
1	1440
1	1439
1	1439
1	12
1	1439
1	1439
1	1439
1	1439
1	1439
1	1439
1	43
1	1439
1	1439
1	1439
1	1440
1	1439
1	1439
1	1440
1	1439
1	1439
1	1439
1	1439
1	1439
1	1439
1	1439
1	1440
1	1440
1	1439
1	1439
1	1439
1	1439
1	1439
1	1439
1	1439
1	1439
1	1439
1	1439
1	1439
1	1439
1	1440
1	1439
1	1439
1	1439
1	1439
1	1439
1	1439
1	1439
1	1439
1	1439
1	1439
1	1439
1	1439
1	1439
1	1439
1	1439
1	1439
1	1439
1	14
1	11
1	1439
1	15
1	1439
1	1439
1	1439
1	1439
1	1439
1	27
1	1439
1	7
1	1439
1	1439
1	6
1	1439
1	1439
1	1439
1	1439
1	14
1	1439
1	6
1	9
1	1439
1	1439
1	1439
1	1439
1	5
1	1439
1	1439
1	1439
1	7
1	1439
1	1439
1	1439
1	1439
1	7
1	1439
1	8
1	1439
1	1439
1	1439
1	1439
1	15
1	9
1	1439
1	1439
1	1439
1	1439
1	5
1	1439
1	1439
1	1439
1	1439
1	1439
1	8
1	1439
1	1439
1	1439
1	1439
1	1439
1	1439
1	1439
1	1439
1	27
1	9
1	1439
1	1439
1	1439
1	1439
1	1439
1	1439
1	4
1	1439
1	1439
1	1439
1	1439
1	9
1	1439
1	19
1	9
1	1439
1	8
1	13
1	1439
1	1439
1	14
1	15
1	1439
1	8
1	1439
1	9
1	1439
1	14
1	1439
1	1439
1	1439
1	1439
1	1439
1	10
1	1439
1	1439
1	14
1	43
1	1439
1	1439
1	1439
1	7
1	14
1	1439
1	1439
1	1439
1	1439
1	1439
1	1439
1	1440
1	1439
1	11
1	1440
1	1439
1	1439
1	1439
1	1439
1	1439
1	1439
1	27
1	1439
1	1439
1	1439
1	1439
1	1439
1	1439
1	1440
1	10
1	1439
1	1439
1	1439
1	1440
1	1439
1	1439
1	6
1	1439
1	1439
1	1439
1	1439
1	10
1	19
1	1439
1	1439
1	1439
1	1439
1	1439
1	10
1	44
1	1439
1	1439
1	1439
1	1439
1	1439
1	1439
1	1439
1	1439
1	1439
1	1439
1	1439
1	1439
1	8
1	1439
1	15
1	14
1	1439
1	1439
1	1439
1	1439
1	15
1	1439
1	1439
1	1439
1	1439
1	1439
1	8
1	1439
1	6
1	1439
1	1439
1	1439
1	27
1	1439
1	1439
1	1439
1	1439
1	1439
1	1439
1	1439
1	7
1	1439
1	1439
1	1439
1	1439
1	1439
1	1440
1	1439
1	1439
1	1439
1	1439
1	1439
1	1441
1	1439
1	1439
1	10
1	27
1	11
1	1439
1	1439
1	1439
1	1439
1	1439
1	1439
1	1439
1	1439
1	1439
1	1439
1	1439
1	1439
1	1439
1	1439
1	1439
1	7
1	9
1	1439
1	1439
1	1439
1	4
1	1439
1	1439
1	9
1	1439
1	1439
1	1439
1	1439
1	1439
1	1439
1	1439
1	1439
1	1439
1	1439
1	9
1	1439
1	1439
1	1439
1	1440
1	1439
1	1439
1	1439
1	1439
1	1439
1	1439
1	1439
1	6
1	13
1	1439
1	1439
1	1439
1	1439
1	1439
1	1439
1	1439
1	1439
1	5
1	1439
1	5
1	43
1	1439
1	1439
1	14
1	19
1	5
1	1439
1	1439
1	1439
1	15
1	1440
1	1439
1	1439
1	1439
1	1439
1	9
1	1439
1	1439
1	1439
1	1439
1	1439
1	1439
1	1439
1	6
1	1440
1	1439
1	1439
1	1440
1	19
1	1439
1	15
1	1439
1	1439
1	14
1	1439
1	1440
1	1439
1	1439
1	1439
1	1439
1	1440
1	1439
1	1439
1	1439
1	1439
1	1439
1	1439
1	1439
1	1439
1	1439
1	7
1	1439
1	1439
1	1439
1	1439
1	1439
1	1439
1	1439
1	1439
1	1439
1	1439
1	8
1	1439
1	1439
1	1439
1	1439
1	1439
1	1439
1	1439
1	12
1	1439
1	1439
1	1439
1	1439
1	9
1	1439
1	1439
1	1439
1	1439
1	1439
1	1440
1	1439
1	1439
1	1439
1	10
1	1439
1	1439
1	1439
1	15
1	1439
1	1439
1	43
1	1439
1	1439
1	1439
1	1439
1	1439
1	1439
1	1439
1	1439
1	1439
1	1439
1	1439
1	6
1	1439
1	1439
1	15
1	1439
1	1439
1	1439
1	1439
1	1439
1	1439
1	1439
1	1439
1	1439
1	1439
1	1439
1	6
1	7
1	13
1	15
1	1439
1	1439
1	1439
1	6
1	15
1	1439
1	1439
1	7
1	1439
1	16
1	1439
1	1439
1	1439
1	4
1	1439
1	1439
1	1440
1	1439
1	14
1	1439
1	1439
1	1439
1	1439
1	1439
1	1439
1	1439
1	1439
1	1439
1	1439
1	1439
1	1439
1	5
1	1439
1	1439
1	9
1	12
1	1439
1	43
1	6
1	1439
1	9
1	1439
1	1439
1	1439
1	1439
1	19
1	1439
1	1439
1	1439
1	1439
1	1439
1	1439
1	1439
1	1440
1	1439
1	1439
1	1439
1	1439
1	10
1	1439
1	1439
1	1439
1	1439
1	1439
1	1439
1	1439
1	1439
1	14
1	1439
1	1439
1	1439
1	1439
1	1439
1	1439
1	6
1	1439
1	10
1	7
1	1439
1	1439
1	1439
1	1439
1	1439
1	1439
1	8
1	1439
1	1439
1	1439
1	1439
1	1439
1	8
1	1439
1	1439
1	1439
1	1439
1	1439
1	1439
1	1439
1	1439
1	1439
1	1439
1	1439
1	1439
1	1439
1	1439
1	12
1	1439
1	1439
1	1439
1	1439
1	1439
1	1439
1	1439
1	10
1	9
1	10
1	1439
1	1439
1	6
1	1439
1	10
1	12
1	1439
1	1439
1	1439
1	1439
1	1439
1	1439
1	1439
1	1440
1	7
1	7
1	1439
1	8
1	1439
1	1439
1	1439
1	1439
1	1439
1	1440
1	1439
1	1439
1	1439
1	1439
1	1439
1	1439
1	1440
1	1439
1	1439
1	1439
1	1439
1	1439
1	1439
1	1439
1	1439
1	1439
1	1439
1	1439
1	1439
1	43
1	1439
1	1439
1	6
1	1439
1	1439
1	1439
1	1439
1	1439
1	1439
1	1439
1	1439
1	1439
1	1439
1	1439
1	1439
1	1439
1	1439
1	1439
1	1439
1	1439
1	1439
1	1439
1	1439
1	2
1	4
1	1439
1	1439
1	1439
1	1439
1	1439
1	1439
1	1439
1	1439
1	1439
1	1439
1	1439
1	1439
1	1439
1	1439
1	28
1	1439
1	1439
1	15
1	9
1	1439
1	1440
1	1439
1	1439
1	1439
1	9
1	1439
1	1439
1	1439
1	1439
1	1439
1	1439
1	1439
1	1439
1	1439
1	19
1	1439
1	1439
1	1439
1	7
1	1439
1	7
1	1440
1	4
1	27
1	1439
1	1439
1	1439
1	1439
1	1439
1	7
1	1439
1	1439
1	1439
1	5
1	1439
1	1439
1	1439
1	1439
2	8
2	3
2	3
2	5
2	3
2	1440
2	6
2	3
2	7
2	6
2	7
2	1440
2	4
2	14
2	3
2	8
2	3
2	5
2	3
2	16
2	44
2	3
2	10
2	5
2	3
2	44
2	11
2	3
2	3
2	3
2	5
2	11
2	44
2	13
2	4
2	7
2	28
2	13
2	3
2	3
2	3
2	6
2	8
2	3
2	7
2	3
2	28
2	8
2	4
2	3
2	8
2	3
2	10
2	3
2	44
2	6
2	3
2	10
2	7
2	1440
2	4
2	3
2	3
2	6
2	3
2	44
2	15
2	5
2	7
2	11
2	6
2	3
2	28
2	3
2	3
2	5
2	44
2	3
2	3
2	15
2	7
2	6
2	3
2	8
2	3
2	8
2	3
2	3
2	6
2	6
2	3
2	6
2	3
2	10
2	44
2	9
2	5
2	3
2	15
2	16
2	11
2	3
2	3
2	9
2	7
2	3
2	16
2	1440
2	13
2	4
2	3
2	6
2	3
2	3
2	7
2	3
2	5
2	4
2	3
2	4
2	4
2	9
2	9
2	44
2	4
2	6
2	4
2	5
2	3
2	5
2	44
2	12
2	3
2	4
2	9
2	44
2	3
2	3
2	6
2	5
2	3
2	3
2	4
2	10
2	3
2	7
2	3
2	7
2	7
2	3
2	4
2	4
2	4
2	3
2	4
2	3
2	3
2	3
2	11
2	7
2	16
2	16
2	5
2	6
2	4
2	3
2	3
2	44
2	15
2	7
2	5
2	5
2	4
2	5
2	3
2	4
2	5
2	3
2	4
2	5
2	5
2	4
2	4
2	7
2	6
2	11
2	8
2	3
2	3
2	11
2	11
2	3
2	6
2	8
2	3
2	4
2	7
2	6
2	4
2	3
2	5
2	5
2	3
2	13
2	7
2	11
2	13
2	3
2	4
2	3
2	44
2	11
2	44
2	3
2	10
3	5
3	5
3	4
3	4
3	6
3	4
3	5
3	6
3	4
3	6
3	6
3	4
3	5
3	4
3	8
3	4
3	4
3	5
3	4
3	4
3	4
3	6
3	6
3	4
3	4
3	5
3	4
3	6
3	5
3	8
3	7
3	4
3	4
3	5
3	4
3	4
3	5
3	5
3	5
3	5
3	5
3	5
3	4
3	4
3	4
3	5
3	5
3	4
3	4
3	6
3	4
3	4
3	5
3	4
3	5
3	7
3	4
3	4
3	4
3	5
3	4
3	4
3	4
3	4
3	5
3	4
3	4
3	5
3	4
3	5
3	4
4	5
4	5
4	5
4	5
4	6
4	5
4	7
4	6
4	5
4	5
4	5
4	5
4	5
4	5
4	6
4	5
4	6
4	5
4	5
4	5
4	6
4	5
4	5
4	5
4	5
4	5
4	5
4	5
4	6
4	5
4	10
4	5
4	10
4	5
4	5
4	5
4	5
4	5
5	6
5	6
5	7
5	6
5	6
5	6
5	6
5	7
5	7
5	6
5	6
5	7
5	6
5	6
5	6
5	6
5	6
5	6
6	7
6	7
6	8
6	7
6	7
6	7
6	7
6	7
6	7
6	7
6	7
6	7
6	7
6	7
6	7
7	8
7	8
7	8
7	8
7	8
8	9
8	9
8	9
8	9
8	9
8	9
8	9
9	10
9	10
9	10
9	10
9	10
9	11
10	11
10	11
11	12
11	12
12	13
13	14
13	14
13	14
14	15
14	15
14	15
18	19
26	27
42	43
1438	1439
