8	6124
10	6124
11	6124
12	6124
12	6124
12	6124
14	6124
14	6124
14	6124
15	6124
15	6124
15	6124
15	6124
15	6124
15	6124
16	6124
16	6124
17	6124
17	6124
17	6124
17	6124
17	6124
17	6124
18	6124
18	6124
18	6124
18	6124
19	6124
20	6124
21	6124
21	6124
22	6124
22	6124
27	6124
29	6124
29	6124
30	6124
31	6124
32	6124
40	6124
44	6124
47	6124
48	6124
49	6124
50	6124
1440	6124
1440	6124
1440	6124
1440	6124
1440	6124
1440	6124
1440	6124
1440	6124
1440	6124
1440	6124
1440	6124
1440	6124
1440	6124
1440	6124
1440	6124
1440	6124
1440	6124
1440	6124
1440	6124
1440	6124
1440	6124
1440	6124
1440	6124
1440	6124
1440	6124
1440	6124
1440	6124
1440	6124
1440	6124
1440	6124
1440	6124
1440	6124
1440	6124
1440	6124
1440	6124
1440	6124
1440	6124
1440	6124
1440	6124
1440	6124
1440	6124
1440	6124
1440	6124
1440	6124
1440	6124
1440	6124
1440	6124
1440	6124
1440	6124
1440	6124
1440	6124
1440	6124
1440	6124
1440	6124
1440	6124
1440	6124
1440	6124
1440	6124
1440	6124
1440	6124
1440	6124
1440	6124
1440	6124
1440	6124
1440	6124
1440	6124
1440	6124
1440	6124
1440	6124
1440	6124
1440	6124
1440	6124
1441	6124
1441	6124
1441	6124
1441	6124
1441	6124
1441	6124
1441	6124
1441	6124
1441	6124
1441	6124
1441	6124
1441	6124
1441	6124
1441	6124
1441	6124
1441	6124
1441	6124
1441	6124
1441	6124
1441	6124
1441	6124
1441	6124
1441	6124
1441	6124
1441	6124
1441	6124
1441	6124
1441	6124
1441	6124
1441	6124
1441	6124
1441	6124
1441	6124
1442	6124
1442	6124
1442	6124
1442	6124
1442	6124
1442	6124
1442	6124
1442	6124
1442	6124
1442	6124
1442	6124
1442	6124
1442	6124
1442	6124
1442	6124
1442	6124
1442	6124
1443	6124
1443	6124
1443	6124
1443	6124
1443	6124
1443	6124
1443	6124
1443	6124
1443	6124
1444	6124
1444	6124
1444	6124
1444	6124
1444	6124
1444	6124
1444	6124
1445	6124
1445	6124
1445	6124
1445	6124
1445	6124
1446	6124
1446	6124
1447	6124
1447	6124
1447	6124
1447	6124
1447	6124
1448	6124
1449	6124
1450	6124
1451	6124
1451	6124
1451	6124
1452	6124
1452	6124
1456	6124
1464	6124
1480	6124
