1	6124
1	582
1	582
1	583
1	582
1	582
1	582
1	582
1	583
1	601
1	21
1	25
1	583
1	21
1	18
1	582
1	582
1	582
1	582
1	583
1	582
1	10
1	582
1	582
1	11
1	582
1	582
1	582
1	29
1	582
1	582
1	582
1	582
1	582
1	582
1	582
1	16
1	582
1	26
1	25
1	585
1	24
1	584
1	582
1	582
1	582
1	24
1	582
1	582
1	6124
1	582
1	582
1	582
1	21
1	582
1	21
1	582
1	16
1	15
1	582
1	583
1	13
1	582
1	582
1	582
1	582
1	582
1	25
1	12
1	582
1	582
1	582
1	582
1	582
1	582
1	582
1	582
1	21
1	582
1	582
1	15
1	582
1	582
1	21
1	582
1	582
1	24
1	582
1	582
1	14
1	582
1	6
1	12
1	582
1	582
1	25
1	582
1	582
1	11
1	24
1	582
1	582
1	582
1	583
1	582
1	582
1	582
1	582
1	24
1	582
1	582
1	582
1	582
1	582
1	582
1	582
1	17
1	582
1	582
1	582
1	582
1	582
1	21
1	582
1	582
1	582
1	582
1	582
1	582
1	582
1	582
1	11
1	582
1	582
1	582
1	12
1	582
1	21
1	582
1	582
1	582
1	582
1	582
1	582
1	582
1	582
1	10
1	582
1	13
1	582
1	7
1	582
1	583
1	11
1	582
1	582
1	15
1	582
1	582
1	582
1	582
1	582
1	582
1	10
1	11
1	12
1	584
1	582
1	13
1	582
1	582
1	10
1	9
1	582
1	582
1	21
1	582
1	6
1	582
1	582
1	582
1	582
1	582
1	582
1	582
1	582
1	6
1	582
1	582
1	582
1	582
1	26
1	582
1	582
1	4
1	582
1	582
1	582
1	582
1	582
1	582
1	582
1	25
1	582
1	588
1	25
1	9
1	582
1	582
1	582
1	14
1	21
1	582
1	582
1	583
1	582
1	582
1	583
1	582
1	582
1	582
1	582
1	582
1	582
1	582
1	582
1	10
1	582
1	582
1	582
1	8
1	582
1	582
1	582
1	582
1	582
1	582
1	582
1	582
1	582
1	582
1	582
1	29
1	582
1	582
1	582
1	582
1	582
1	584
1	582
1	582
1	582
1	582
1	582
1	582
1	582
1	582
1	582
1	582
1	582
1	582
1	8
1	582
1	582
1	10
1	582
1	10
1	582
1	582
1	10
1	582
1	582
1	585
1	582
1	11
1	582
1	582
1	582
1	582
1	21
1	582
1	582
1	21
1	13
1	582
1	582
1	582
1	582
1	582
1	24
1	11
1	582
1	582
1	582
1	582
1	582
1	582
1	582
1	582
1	582
1	24
1	582
1	583
1	582
1	582
1	582
1	582
1	582
1	8
1	11
1	582
1	582
1	583
1	582
1	5
1	582
1	9
1	582
1	582
1	582
1	582
1	582
1	15
1	582
1	582
1	582
1	17
1	9
1	582
1	583
1	582
1	21
1	582
1	582
1	25
1	582
1	10
1	582
1	582
1	582
1	6
1	582
1	16
1	11
1	582
1	6
1	7
1	582
1	582
1	8
1	582
1	3
1	582
1	583
1	5
1	582
1	12
1	582
1	582
1	21
1	582
1	582
1	582
1	6
1	582
1	582
1	582
1	582
1	582
1	582
1	25
1	583
1	582
1	582
1	582
1	8
1	582
1	582
1	582
1	582
1	582
1	582
1	582
1	582
1	582
1	24
1	582
1	582
1	582
1	582
1	11
1	582
1	582
1	5
1	24
1	6
1	582
1	582
1	582
1	582
1	25
1	582
1	582
1	582
1	582
1	7
1	582
1	5
1	582
1	582
1	582
1	582
1	582
1	582
1	582
1	582
1	6
1	582
1	582
1	582
1	582
1	5
1	582
1	582
1	582
1	582
1	582
1	582
1	582
1	582
1	4
1	9
1	582
1	5
1	582
1	582
1	583
1	4
1	582
1	582
1	582
1	7
1	582
1	11
1	582
1	24
1	15
1	24
1	582
1	25
1	582
1	582
1	582
1	582
1	15
1	582
1	582
1	22
1	582
1	582
1	582
1	582
1	582
1	582
1	582
1	5
1	582
1	582
1	25
1	21
1	582
1	14
1	582
1	10
1	7
1	582
1	8
1	582
1	582
1	582
1	582
1	582
1	11
1	582
1	582
1	582
1	582
1	6
1	582
1	6124
1	582
1	582
1	8
1	21
1	582
1	582
1	25
1	582
1	12
1	5
1	13
1	582
1	582
1	582
1	24
1	582
1	8
1	582
1	582
1	582
1	582
1	582
1	8
1	10
1	582
1	11
1	582
1	582
1	582
1	10
1	582
1	7
1	6
1	9
1	582
1	582
1	582
1	582
1	10
1	582
1	583
1	582
1	11
1	582
1	582
1	25
1	582
1	582
1	583
1	582
1	582
1	8
1	582
1	582
1	582
1	25
1	582
1	582
1	6
1	582
1	11
1	582
1	582
1	6
1	8
1	584
1	8
1	582
1	582
1	582
1	582
1	582
1	582
1	582
1	582
1	24
1	582
1	582
1	582
1	6
1	582
1	8
1	10
1	6
1	582
1	582
1	7
1	582
1	4
1	582
1	582
1	582
1	582
1	11
1	582
1	582
1	24
1	582
1	582
1	582
1	582
1	582
1	582
1	8
1	582
1	582
1	582
1	582
1	7
1	582
1	582
1	4
1	583
1	12
1	582
1	582
1	582
1	582
1	582
1	582
1	582
1	24
1	582
1	582
1	582
1	582
1	582
1	582
1	582
1	582
1	582
1	582
1	582
1	582
1	582
1	583
1	582
1	582
1	582
1	7
1	582
1	583
1	582
1	583
1	582
1	4
1	5
1	21
1	583
1	582
1	582
1	582
1	582
1	582
1	582
1	582
1	582
1	5
1	2
1	582
1	5
1	582
1	582
1	24
1	582
1	582
1	24
1	582
1	582
1	8
1	24
1	582
1	15
1	4
1	582
1	582
1	22
1	582
1	26
1	6
1	582
1	8
1	582
1	10
1	11
1	583
1	582
1	582
1	8
1	583
1	582
1	582
1	8
1	582
1	582
1	582
1	582
1	582
1	582
1	582
2	583
2	5
2	3
2	3
2	3
2	3
2	3
2	3
2	3
2	583
2	3
2	10
2	7
2	583
2	26
2	6
2	3
2	3
2	3
2	4
2	583
2	8
2	11
2	583
2	3
2	3
2	583
2	5
2	3
2	3
2	3
2	6
2	6
2	6
2	3
2	12
2	3
2	7
2	5
2	3
2	5
2	4
2	4
2	5
2	4
2	7
2	3
2	26
2	583
2	584
2	3
2	3
2	4
2	4
2	3
2	9
2	5
2	14
2	583
2	4
2	5
2	3
2	3
2	5
2	3
2	9
2	5
2	7
2	583
2	4
2	5
2	4
2	5
2	14
2	6
2	3
2	25
2	8
2	4
2	6
2	5
2	3
2	5
2	3
2	7
2	4
2	9
2	5
2	9
2	4
2	14
2	9
2	4
2	3
2	3
2	4
2	6
3	5
3	4
3	10
3	10
3	6
3	4
3	6
3	4
3	4
3	4
3	10
3	4
3	4
3	5
3	6
3	4
3	5
3	4
3	5
3	6
3	10
3	4
3	4
3	4
3	4
3	5
3	6
3	4
3	10
3	5
3	4
3	4
3	5
3	4
3	7
3	4
3	4
3	4
3	4
3	6
3	5
3	5
3	4
3	5
3	4
3	4
3	4
3	4
4	5
4	5
4	5
4	6
4	5
4	5
4	5
4	5
4	6
4	5
5	6
5	6
5	6
5	6
5	6
5	6
5	6
5	6
5	7
5	6
5	6
6	7
6	7
7	8
7	8
7	8
7	8
7	8
7	9
8	9
9	10
9	10
9	10
9	10
10	11
10	11
11	12
12	13
14	15
20	21
23	24
24	25
581	582
