1	6124
1	2399
1	2399
1	2399
1	2399
1	2399
1	2399
1	2399
1	2399
1	2399
1	2399
1	2399
1	2399
1	2399
1	2400
1	2399
1	2400
1	2399
1	2399
1	2399
1	2399
1	2399
1	2399
1	2399
1	18
1	2399
1	2399
1	2399
1	2399
1	2399
1	2399
1	2399
1	2399
1	2399
1	2399
1	2399
1	2399
1	2399
1	2399
1	2399
1	2399
1	2399
1	2399
1	17
1	6124
1	2400
1	2399
1	2399
1	2399
1	2399
1	2399
1	30
1	2399
1	2399
1	2399
1	2399
1	2399
1	2399
1	2400
1	2399
1	2399
1	2399
1	2399
1	2399
1	2399
1	2399
1	2399
1	2400
1	24
1	2399
1	2399
1	2399
1	2399
1	2399
1	2399
1	2399
1	2399
1	2400
1	17
1	2399
1	2399
1	2399
1	2399
1	2399
1	2399
1	2399
1	2399
1	2399
1	2399
1	2399
1	2399
1	2399
1	2399
1	2399
1	2399
1	2399
1	2399
1	2399
1	2399
1	2399
1	2399
1	2399
1	35
1	2399
1	2399
1	2399
1	14
1	2399
1	2399
1	2399
1	2399
1	2401
1	2400
1	18
1	2399
1	16
1	2399
1	2399
1	2402
1	2399
1	12
1	2399
1	2399
1	27
1	2399
1	2399
1	2399
1	14
1	2399
1	10
1	2399
1	14
1	2399
1	2399
1	2399
1	2399
1	2399
1	12
1	2399
1	2399
1	2399
1	2399
1	29
1	2399
1	2399
1	2399
1	2399
1	2399
1	2399
1	2399
1	2400
1	2399
1	23
1	2399
1	2399
1	2399
1	2399
1	2399
1	2399
1	2399
1	2399
1	2399
1	14
1	2399
1	2399
1	2399
1	31
1	2399
1	28
1	2399
1	2399
1	2401
1	2399
1	12
1	2399
1	2399
1	2399
1	2399
1	2399
1	2399
1	2399
1	2399
1	2399
1	2399
1	2399
1	2399
1	2399
1	2399
1	2399
1	2399
1	2399
1	2399
1	2399
1	2399
1	2399
1	2399
1	2400
1	2399
1	8
1	2400
1	2400
1	2399
1	2399
1	24
1	2399
1	11
1	2399
1	2399
1	2399
1	2399
1	13
1	2399
1	2399
1	2399
1	2399
1	2399
1	2399
1	2399
1	2399
1	2399
1	2399
1	2399
1	2399
1	2399
1	2399
1	2399
1	13
1	2399
1	2399
1	2400
1	2399
1	2399
1	5
1	2399
1	2399
1	2399
1	2399
1	2399
1	2399
1	24
1	2399
1	2399
1	10
1	2399
1	2399
1	2400
1	2399
1	2399
1	2399
1	2399
1	2399
1	2399
1	2399
1	2399
1	2399
1	2399
1	2399
1	2399
1	17
1	2399
1	2399
1	2399
1	2399
1	16
1	2399
1	2399
1	2399
1	2399
1	13
1	2399
1	2399
1	2400
1	2399
1	2399
1	2399
1	2399
1	2399
1	2399
1	2399
1	13
1	16
1	2400
1	2399
1	9
1	19
1	22
1	16
1	10
1	31
1	2399
1	24
1	2399
1	2399
1	2399
1	2399
1	2399
1	2399
1	2399
1	2399
1	2399
1	2399
1	2399
1	2399
1	2399
1	32
1	2399
1	2399
1	17
1	25
1	2399
1	2399
1	2399
1	2399
1	2399
1	2399
1	2399
1	2399
1	2399
1	2399
1	2399
1	2399
1	2399
1	2399
1	2399
1	24
1	2399
1	2401
1	2399
1	2399
1	2399
1	2399
1	2399
1	2399
1	2399
1	2399
1	2399
1	2399
1	2399
1	9
1	2399
1	2400
1	2399
1	2399
1	2401
1	2399
1	2399
1	2399
1	24
1	2399
1	17
1	2399
1	9
1	12
1	2399
1	2399
1	2399
1	2399
1	2399
1	2399
1	2399
1	2399
1	2400
1	2399
1	2399
1	2399
1	2399
1	2399
1	2399
1	2400
1	2399
1	11
1	2399
1	2399
1	2399
1	2399
1	2399
1	2399
1	2399
1	2399
1	2399
1	2399
1	2399
1	2399
1	23
1	2399
1	2399
1	2399
1	2399
1	2399
1	2399
1	2399
1	9
1	2399
1	2399
1	15
1	2399
1	2399
1	13
1	14
1	16
1	2399
1	2399
1	2399
1	14
1	2399
1	18
1	2399
1	2399
1	2399
1	2399
1	13
1	2399
1	2399
1	2399
1	2399
1	2399
1	2399
1	2399
1	8
1	2399
1	2399
1	13
1	2399
1	2399
1	26
1	2399
1	16
1	2399
1	2399
1	2399
1	2399
1	2399
1	2399
1	2399
1	9
1	2399
1	2399
1	2399
1	2399
1	2399
1	2399
1	2399
1	2399
1	12
1	2399
1	5
1	2399
1	2399
1	2399
1	2399
1	2399
1	2399
1	2399
1	2399
1	31
1	2399
1	2399
1	16
1	2399
1	2399
1	2399
1	2399
1	2399
1	2399
1	2399
1	2399
1	2399
1	2399
1	2399
1	2399
1	23
1	2399
1	2399
1	2399
1	2399
1	2399
1	2399
1	2400
1	2399
1	2399
1	2399
1	2399
1	2399
1	2399
1	2399
1	2399
1	2399
1	2399
1	2399
1	2399
1	2399
1	2399
1	2399
1	2399
1	2399
1	16
1	2399
1	2399
1	2399
1	6
1	2399
1	2399
1	2399
1	2399
1	2400
1	2399
1	2399
1	2399
1	2399
1	2399
1	2399
1	6
1	2399
1	2399
1	15
1	2399
1	2399
1	11
1	2399
1	2399
1	18
1	24
1	2399
1	2399
1	2399
1	2399
1	2399
1	2399
1	2399
1	2399
1	2399
1	2399
1	2399
1	2399
1	2399
1	2399
1	2399
1	14
1	2399
1	2399
1	2399
1	2399
1	2399
1	2399
1	2399
1	2399
1	22
1	2399
1	2399
1	2399
1	2399
1	2399
1	2399
1	2399
1	2400
1	2399
1	14
1	2399
1	2399
1	2399
1	2399
1	2399
1	2399
1	2399
1	2399
1	2399
1	2399
1	2399
1	2399
1	2400
1	2399
1	31
1	2399
1	2400
1	2399
1	2400
1	2399
1	2399
1	2399
1	2399
1	2399
1	2399
1	2399
1	2399
1	2399
1	2399
1	2399
1	2399
1	2399
1	2399
1	2399
1	2399
1	16
1	2399
1	2399
1	2399
1	2399
1	2399
1	2399
1	2399
1	2399
1	16
1	2399
1	2399
1	2399
1	2399
1	2399
1	2399
1	2399
1	2399
1	2399
1	2403
1	2399
1	17
1	2399
1	2399
1	31
1	2399
1	2399
1	2399
1	2399
1	2399
1	27
1	2399
1	2399
1	2399
1	2399
1	2399
1	8
1	2399
1	2399
1	2399
1	2399
1	2399
1	2399
1	2399
1	2399
1	9
1	2399
1	2399
1	2399
1	2399
1	2399
1	2399
1	2399
1	2399
1	2399
1	2399
1	2399
1	2399
1	16
1	2399
1	2399
1	2399
1	2399
1	2399
1	2399
1	2399
1	2399
1	2399
1	2399
1	2399
1	2399
1	2399
1	6
1	2399
1	2399
1	2399
1	2399
1	2399
1	2399
1	2399
1	2399
1	2399
1	2399
1	2399
1	2399
1	2399
1	2399
1	2399
1	2399
1	2399
1	2399
1	2399
1	2399
1	2399
1	12
1	2399
1	2399
1	2399
1	2399
1	2399
1	2399
1	2400
1	26
1	2399
1	2399
1	2399
1	2399
1	2399
1	2399
1	2399
1	2399
1	2399
1	15
1	2399
1	2399
1	2399
1	2399
1	2399
1	2399
1	2399
1	2399
1	2399
1	2399
1	26
1	2399
1	2399
1	2399
1	10
1	2399
1	2399
1	2399
1	2399
1	9
1	2399
1	2399
1	2399
1	2399
1	2399
1	2399
1	2399
1	2400
1	2399
1	2399
1	8
1	5
1	2399
1	2399
1	2399
1	2399
1	2399
1	2399
1	2399
1	2399
1	2399
1	2399
1	9
1	2399
1	2399
1	2399
1	2399
1	2399
1	5
1	8
1	2399
1	2399
1	24
1	2399
1	2399
1	2399
1	2399
1	2399
1	2399
1	31
1	14
1	31
1	2399
1	2399
1	12
1	2399
1	2399
1	2399
1	2399
1	2400
1	2399
1	2399
1	2399
1	2399
1	2399
1	2399
1	2399
1	2399
1	2399
1	2399
1	2399
1	2399
1	2399
1	2399
1	2399
1	2399
1	2399
1	2399
1	2399
1	2399
1	17
1	2399
1	2399
1	2399
1	2399
1	2399
1	2399
1	2399
1	2399
1	2399
1	2399
1	2399
1	2399
1	15
1	2399
1	2399
1	2399
1	2399
1	2399
1	2399
1	2399
1	2399
1	2399
1	2399
1	2399
1	2399
1	2399
1	2399
1	2399
1	2399
1	2399
1	2399
1	2399
1	11
1	2399
1	2399
1	2399
1	2399
1	9
1	2399
1	2399
1	2399
1	2399
1	2399
1	2399
1	2399
1	2399
1	2399
1	2399
1	2399
1	2399
1	2399
1	11
1	2399
1	2399
1	2399
1	2399
1	9
1	2399
1	2399
1	2399
1	2399
1	2399
1	26
1	2399
1	2399
1	2399
1	2399
1	2399
1	2399
1	2399
1	2399
1	11
1	2400
1	2399
1	2399
1	2399
1	2399
1	2399
1	2399
1	2399
1	2399
1	16
1	2399
1	2399
1	2399
1	2399
1	2399
1	2399
1	2399
1	2399
1	2399
1	31
1	2399
1	10
1	2399
1	2399
1	2399
1	2399
1	2399
1	2399
1	8
1	2399
1	4
1	2399
1	2399
1	17
1	2399
1	12
1	2399
1	2399
1	13
1	2399
1	2399
1	2399
1	2399
1	2399
1	2399
1	2399
1	24
1	2399
1	2399
1	2399
1	2399
1	2399
1	2399
1	7
1	2399
1	2399
1	2399
1	2399
1	2399
1	2399
1	2399
1	2399
1	2399
1	2399
1	2399
1	2399
1	14
1	2399
1	2399
1	2399
1	2399
1	2399
1	2399
1	2400
1	2400
1	2399
1	2399
1	2399
1	2399
1	2399
1	2399
1	2399
1	2399
1	2399
1	2399
1	2399
1	2399
1	2400
1	2399
1	2399
1	2399
1	2399
1	2399
1	14
1	5
1	2399
1	2399
1	2399
1	2399
1	2399
1	2399
1	2399
1	9
1	2399
1	2399
1	2399
1	2399
1	2399
1	2399
1	2399
1	2399
1	7
1	2399
1	2399
1	11
1	2399
1	2399
1	2399
1	2399
1	2399
1	2399
1	2399
1	2399
1	2399
1	2399
1	2399
1	2399
1	13
1	2399
1	2399
1	2399
1	9
1	10
1	2399
1	2399
1	2399
1	2399
1	2399
1	2399
1	2399
1	2399
1	2399
1	2399
1	2399
1	2399
1	16
1	2399
1	2399
1	2399
1	2399
1	2399
1	23
1	2399
1	2399
1	2399
1	2399
1	2399
1	2399
1	23
1	2399
1	2399
1	2399
1	2399
1	5
1	2399
1	2399
1	2399
1	2399
1	26
1	2399
1	2399
1	2399
1	2399
1	2399
1	2399
1	2399
1	2399
1	2399
1	2399
1	2399
1	2399
1	2399
1	2399
1	2399
1	2399
1	2399
1	2399
1	2399
1	14
1	2399
1	2399
1	2399
1	2399
1	2399
1	2399
1	2399
1	2400
1	2399
1	2399
1	2399
1	2399
1	2399
1	2399
1	2399
1	2399
1	2399
1	2399
1	2399
1	2399
1	2399
1	2399
1	2399
1	2399
1	2399
1	2399
1	2400
1	2399
1	2399
1	2399
1	2399
1	2399
1	2399
1	2399
1	5
1	2399
1	2399
1	2399
1	2399
1	19
1	2399
1	2399
1	2399
1	2399
1	4
1	18
1	2399
1	31
1	11
1	2399
1	2399
1	2399
1	2399
1	2399
1	2399
1	2399
1	2399
1	2399
1	7
1	2399
1	2400
1	6
1	26
1	2399
1	2399
1	17
1	8
1	6
1	2399
1	14
1	2399
1	2399
1	2399
1	2399
1	2399
1	2399
1	2399
1	6
1	2399
1	15
1	2399
1	24
1	2399
1	2399
1	2399
1	2399
1	2399
1	2399
1	2399
1	2399
1	2399
1	2399
1	2399
1	8
1	2399
1	9
1	2399
1	2399
1	2399
1	2399
1	2399
1	2399
1	2399
1	2399
1	2399
1	2399
1	2399
1	2399
1	2399
1	2399
1	2399
1	2399
1	2399
1	2399
1	2399
1	11
1	2399
1	9
1	2399
1	2399
1	2399
1	2399
1	2399
1	2399
1	2399
1	2399
1	2399
1	14
1	2399
1	2399
1	2399
1	2399
1	2399
1	2400
1	2399
1	2399
1	2399
1	23
1	2399
1	2399
1	2399
1	2399
1	2399
1	2399
1	2399
1	31
1	2399
1	2399
1	2400
1	2399
1	2399
1	2399
1	2399
1	2399
1	2399
1	2399
1	2399
1	2399
1	2399
1	12
1	2399
1	2399
1	2399
1	2399
1	2400
1	2399
1	2399
1	2399
1	2399
1	31
1	2399
1	2399
1	2399
1	2399
1	2399
1	2399
1	2399
1	2399
1	2399
1	2399
1	2399
1	10
1	26
1	2399
1	2399
1	2399
1	2399
1	2399
1	2399
1	2399
1	2399
1	14
1	2399
1	2399
1	14
1	2399
1	2399
1	2399
1	23
1	2399
1	2399
1	2399
1	2399
1	2399
1	2399
1	2400
1	2399
1	2399
1	2399
1	2399
1	2399
1	2399
1	2399
1	2399
1	13
1	2399
1	2399
1	2399
1	2399
1	7
1	2399
1	2399
1	2399
1	2399
1	8
1	2399
1	2399
1	2399
1	2399
1	2399
1	2399
1	5
1	2399
1	2399
1	2399
1	2400
1	2399
1	2399
1	33
1	2399
1	22
1	2399
1	2399
1	12
1	2399
1	2399
1	2399
1	2399
1	2399
1	2399
1	2399
1	2399
1	2399
1	6
1	2400
1	2399
1	2399
1	2399
1	2399
1	2399
1	2399
1	2399
1	4
1	2399
1	2399
1	2399
1	2399
1	11
1	12
1	2399
1	12
1	2399
1	2399
1	2399
1	2399
1	2399
1	2399
1	2399
1	14
1	2399
1	2399
1	2399
1	2399
1	2399
1	2399
1	2399
1	2399
1	2399
1	15
1	2399
1	2399
1	2399
1	2399
1	2399
1	2399
1	2399
1	6
1	2399
1	2399
1	2399
1	2399
1	2399
1	2399
1	11
1	2399
1	2399
1	2400
1	2399
1	16
1	2399
1	2399
1	2399
1	2399
1	2399
1	2399
1	2399
1	2399
1	2399
1	2399
1	2399
1	2399
1	2399
1	14
1	2399
1	2399
1	2399
1	2399
1	2399
1	2403
1	2399
1	11
1	2399
1	2399
1	8
1	2399
1	2399
1	2399
1	2399
1	5
1	2399
1	2399
1	15
1	2399
1	2399
1	2399
1	2399
1	2399
1	2399
1	2399
1	2399
1	14
1	2399
1	2399
1	2399
1	2399
1	16
1	2399
1	24
1	2399
1	2399
1	2400
1	2399
1	2399
1	2399
1	2399
1	2399
1	2399
1	2399
1	2399
1	2399
1	2399
1	2399
1	2399
1	2400
1	2399
1	2399
1	2399
1	2399
1	2399
1	2399
1	2399
1	10
1	9
1	2399
1	2399
1	2399
1	5
1	2399
1	2399
1	11
1	2399
1	2399
1	2399
1	6
1	6
1	7
1	2399
1	2399
1	2399
1	2399
1	2399
1	2399
1	2399
1	2399
1	2399
1	2399
1	2399
1	6
1	2399
1	2399
1	2399
1	2399
1	2399
1	2399
1	2399
1	2399
1	14
1	2399
1	24
1	2399
1	2399
1	2399
1	2399
1	2399
1	2399
1	2399
1	2399
1	31
1	2399
1	2399
1	2399
1	2399
1	2399
1	2399
1	2399
1	2399
1	2399
1	2399
1	9
1	2399
1	2399
1	2399
1	2399
1	2399
1	2399
1	2399
1	2399
1	2399
1	18
1	2399
1	2399
1	2399
1	2399
1	2399
1	2399
1	2399
1	15
1	2399
1	2399
1	2399
1	2399
1	2399
1	2399
1	2399
1	2399
1	2399
1	2399
1	2399
1	2399
1	2399
1	2399
1	2399
1	2399
1	2399
1	2399
1	2399
1	2399
1	2399
1	8
1	24
1	2399
1	2399
1	2399
1	2399
1	2399
1	2399
1	2399
1	2399
1	2399
1	2399
1	2399
1	2399
1	2399
1	2399
1	2399
1	2399
1	2399
1	17
1	2399
1	2399
1	31
1	2399
1	2399
1	2399
1	2399
1	2399
1	2399
1	2399
1	2399
1	2399
1	2399
1	2399
1	2399
1	2399
1	2399
1	2399
1	2399
1	2399
1	6
1	2399
1	32
1	2399
1	2399
1	2399
1	2399
1	2399
1	2399
1	2399
1	22
1	2399
1	2399
1	2399
1	2399
1	23
1	2399
1	2399
1	2399
1	2399
1	2399
1	2399
1	2399
1	2399
1	2399
1	2399
1	2399
1	2399
1	2399
1	2399
1	2399
1	9
1	2399
1	2399
1	2399
1	2399
1	2399
1	7
1	23
1	2399
1	18
1	17
1	2399
1	5
1	2399
1	2400
1	2399
1	2399
1	17
1	2399
1	2399
1	2399
1	2399
1	2399
1	2399
1	2399
1	2399
1	2400
1	2399
1	2399
1	2399
1	2399
1	2399
1	2399
1	2399
1	17
1	2399
1	2399
1	16
1	2399
1	22
1	2399
1	2399
1	2399
1	6
1	2399
1	2399
1	2399
1	2399
1	2399
1	2399
1	23
1	2399
1	2399
1	2399
1	2399
1	2399
1	2399
1	2399
1	2399
1	2399
1	16
1	2399
1	2399
1	2399
1	2399
1	2399
1	10
1	2399
1	2399
1	2399
1	2399
1	2399
1	2399
1	2399
1	2399
1	31
1	2399
1	2399
1	2399
1	2399
1	2399
1	2399
1	2399
1	2399
1	2399
1	2399
1	2399
1	2399
1	2399
1	2399
1	2399
1	2399
1	8
1	17
1	2399
1	2399
1	2399
1	2399
1	2399
1	2399
1	2399
1	2399
1	2399
1	2399
1	2399
1	2399
1	2399
1	2399
1	2399
1	24
1	2399
1	2399
1	2399
1	2399
1	2399
1	2399
1	10
1	16
1	2399
1	2399
1	2399
1	2399
1	2399
1	2399
1	16
1	2399
1	2399
1	2399
1	2399
1	2399
1	9
1	2399
1	2399
1	2399
1	2399
1	2401
1	2399
1	2399
1	2400
1	14
1	2399
1	2399
1	2399
1	9
1	2400
1	2399
1	2399
1	2399
1	2402
1	2399
1	2399
1	2399
1	2399
1	2399
1	2399
1	9
1	9
1	2399
1	2399
1	2399
1	2399
1	2400
1	8
1	2399
1	2399
1	2399
1	2399
1	9
1	10
1	11
1	2399
1	2399
1	2399
1	2399
1	2399
1	2399
1	2399
1	2399
1	2399
1	2399
1	2399
1	2399
1	9
1	2399
1	2399
1	8
1	2399
1	2399
1	2399
1	2399
1	2399
1	2399
1	2399
1	2399
1	2399
1	2399
1	2399
1	2399
1	2399
1	2399
1	2399
1	2399
1	2399
1	2399
1	2399
1	2399
1	2399
1	2399
1	2399
1	2399
1	2399
1	2399
1	4
1	2399
1	13
1	2399
1	2399
1	2399
1	2399
1	2399
1	2399
1	2399
1	10
1	2399
1	2400
1	2399
1	2399
1	2399
1	2399
1	2399
1	2399
1	2399
1	2399
1	2399
1	2399
1	2399
1	2399
1	31
1	2399
1	2399
1	2399
1	2399
1	7
1	2399
1	2399
1	4
1	2399
1	2399
1	2399
1	2399
1	2399
1	2399
1	2399
1	2399
1	2399
1	9
1	2399
1	2399
1	6124
1	2399
1	2399
1	2399
1	2399
1	2399
1	2399
1	2399
1	9
1	7
1	2399
1	2399
1	2399
1	2399
1	8
1	2399
1	2399
1	2399
1	2399
1	2399
1	2399
1	2399
1	2399
1	2399
1	2399
1	2399
1	6
1	2399
1	2399
1	2400
1	2399
1	2399
1	2399
1	2399
1	2399
1	2399
1	2399
1	2399
1	17
1	2399
1	2399
1	2399
1	2399
1	2399
1	2399
1	2399
1	2399
1	2399
1	2399
1	2399
1	2399
1	2399
1	2399
1	2399
1	5
1	2399
1	2399
1	2399
1	11
1	2399
1	2399
1	2399
1	2399
1	2399
1	5
1	2399
1	12
1	2399
1	2399
1	11
1	15
1	2399
1	2400
1	2399
1	2399
1	9
1	2399
1	2399
1	2399
1	2399
1	2399
1	2399
1	2399
1	6
1	2399
1	2399
1	2399
1	2399
1	2399
1	2399
1	2399
1	2399
1	10
1	2399
1	2399
1	2399
1	2399
1	2399
1	2399
1	2399
1	2399
1	2399
1	8
1	2399
1	2399
1	2399
1	2399
1	9
1	11
1	2399
1	2399
1	2399
1	2399
1	2399
1	2399
1	2399
1	2399
1	2399
1	2399
1	2399
1	2399
1	2399
1	11
1	12
1	2399
1	2399
1	14
1	2399
1	2399
1	2399
1	7
1	2399
1	2399
1	2399
1	2399
1	2399
1	9
1	8
1	2399
1	2399
1	2399
1	31
1	2399
1	6
1	8
1	2399
1	2399
1	2399
1	2399
1	2399
1	2399
1	2399
1	2399
1	2399
1	2399
1	2399
1	2399
1	2399
1	2399
1	2399
1	20
1	2399
1	2400
1	2399
1	16
1	2399
1	6
1	2399
1	2399
1	2399
1	2399
1	2399
1	2399
1	2399
1	2399
1	2399
1	2399
1	2399
1	2399
1	2399
1	2399
1	2399
1	2399
1	2399
1	2399
1	8
1	2399
1	2399
1	22
1	2399
1	2399
1	2399
1	2399
1	2399
1	2399
1	2399
1	2399
1	2399
1	2399
1	2399
1	11
1	2399
1	2399
1	2399
1	11
1	2399
1	2399
1	2399
1	2399
1	2399
1	9
1	16
1	2399
1	2399
1	2399
1	2399
1	2399
1	16
1	2399
1	2399
1	2399
1	14
1	2399
1	2399
1	2399
1	6
1	2399
1	24
1	2399
1	2399
1	2399
1	2399
1	2399
1	2399
1	2399
1	2399
1	2399
1	2399
1	2399
1	2399
1	2399
1	2399
1	2399
1	2399
1	2399
1	2399
1	2399
1	2399
1	2399
1	2399
1	2399
1	2399
1	2399
1	2399
1	2399
1	4
1	2399
1	2399
1	2399
1	2399
1	2399
1	2399
1	2399
1	2399
1	2399
1	2399
1	2399
1	2399
1	2399
1	2399
1	2399
1	6
1	2399
1	2399
1	2399
1	2399
1	2399
1	2399
1	2399
1	2399
1	2399
1	2399
1	2399
1	10
1	2399
1	2399
1	2399
1	2399
1	2399
1	2399
1	2399
1	2399
1	2399
1	2399
1	11
1	2399
1	11
1	11
1	2399
1	2399
1	2399
1	2400
1	2399
1	2399
1	2399
1	2399
1	2399
1	2399
1	2399
1	2399
1	26
1	2399
1	2399
1	6
1	2399
1	2399
1	2399
1	2399
1	2399
1	2399
1	2399
1	2399
1	2399
1	2399
1	2399
1	2399
1	2399
1	31
1	2399
1	2399
1	2399
1	2399
1	2399
1	2399
1	2399
1	2399
1	2400
1	2399
1	2399
1	2399
1	2399
1	2399
1	2399
1	2399
1	2399
1	2399
1	2399
1	5
1	2399
1	2399
1	2399
1	2399
1	2399
1	2399
1	2400
1	16
1	2399
1	2399
1	2399
1	2399
1	11
1	7
1	9
1	2399
1	2399
1	2399
1	2399
1	2399
1	2399
1	2399
1	6
1	2399
1	2399
1	2399
1	2399
1	2399
1	2399
1	2399
1	2399
1	2399
1	2399
1	2399
1	2399
1	2399
1	2399
1	2399
1	17
1	2399
1	2399
1	2399
1	2399
1	10
1	2399
1	2399
1	2399
1	2399
1	12
1	2399
1	8
1	2399
1	2399
1	2399
1	2399
1	2399
1	2399
1	2399
1	2399
1	2399
1	2399
1	2399
1	2399
1	2399
1	2399
1	2399
1	6
1	2400
1	2399
1	2399
1	2399
1	8
1	2399
1	2399
1	2399
1	8
1	2399
1	2399
1	2399
1	2399
1	2399
1	2399
1	2400
1	2399
1	2399
1	2399
1	2399
1	2399
1	2399
1	2399
1	2399
1	2399
1	2399
1	2399
1	16
1	2399
1	2399
1	2399
1	2399
1	2399
1	2399
1	2399
1	2399
1	2399
1	2399
1	2399
1	2399
1	17
1	2399
1	2399
1	2399
1	2399
1	2399
1	2399
1	2399
1	12
1	2399
1	2399
1	2399
1	2399
1	2399
1	2399
1	2399
1	2399
1	10
1	2399
1	2399
1	2399
1	2399
1	2399
1	8
1	9
1	2399
1	2399
1	2399
1	2399
1	2399
1	6
1	5
1	2399
1	2399
1	2399
1	2399
1	2399
1	2399
1	2399
1	2399
1	2399
1	2399
1	2399
1	2399
1	8
1	2399
1	2399
1	8
1	2399
1	2399
1	2399
1	2399
1	2399
1	2399
1	2399
1	2399
1	2399
1	2399
1	2399
1	2399
1	2399
1	2399
1	5
1	2399
1	2399
1	2399
1	2399
1	12
1	2399
1	2399
1	2399
1	2399
1	2399
1	2399
1	2399
1	2399
1	2399
1	2399
1	2399
1	2399
1	2399
1	2399
1	2399
1	2399
1	2399
1	2399
1	2399
1	2399
1	2399
1	2399
1	17
1	2399
1	2399
1	2399
1	2399
1	2399
1	2399
1	2399
1	2399
1	2399
1	6
1	2399
1	2399
1	2399
1	2399
1	2399
1	2399
1	2399
1	2399
1	2399
1	2399
1	2399
1	2399
1	22
1	2399
1	2399
1	4
1	2399
1	2399
1	2399
1	2399
1	2399
1	2400
1	2399
1	2399
1	2399
1	2399
1	6
1	2399
1	2399
1	2399
1	3
1	2399
1	10
1	2399
1	2399
1	2399
1	2399
1	2399
1	2399
1	2399
1	2399
1	2399
1	2399
1	13
1	2399
1	14
1	2399
1	14
1	2399
1	31
1	9
1	2399
1	2399
1	2399
1	2399
1	2399
1	2399
1	2399
1	2399
1	2399
1	2399
1	2399
1	14
1	2399
1	2399
1	2399
1	17
1	2400
1	2399
1	2399
1	2399
1	2399
1	2399
1	2399
1	2399
1	2399
1	2399
1	2399
1	2399
1	9
1	16
1	8
1	2399
1	2399
1	2399
1	2399
1	2399
1	8
1	2399
1	2399
1	2399
1	2399
1	2399
1	22
1	2399
1	2399
1	2399
1	2399
1	2399
1	2399
1	2399
1	2399
1	2399
1	2399
1	2399
1	2399
1	2399
2	7
2	3
2	3
2	8
2	15
2	23
2	20
2	3
2	8
2	13
2	10
2	11
2	3
2	3
2	8
2	8
2	3
2	3
2	2400
2	3
2	7
2	3
2	3
2	17
2	3
2	13
2	25
2	17
2	16
2	5
2	3
2	3
2	25
2	7
2	27
2	7
2	10
2	9
2	4
2	6
2	11
2	7
2	3
2	3
2	2400
2	6
2	5
2	4
2	8
2	3
2	15
2	8
2	6
2	4
2	3
2	5
2	3
2	2400
2	6
2	4
2	8
2	6
2	3
2	5
2	9
2	15
2	9
2	6
2	32
2	3
2	2400
2	15
2	5
2	25
2	3
2	7
2	3
2	15
2	3
2	4
2	5
2	4
2	17
2	7
2	3
2	3
2	5
2	8
2	17
2	3
2	3
2	7
2	3
2	5
2	15
2	3
2	4
2	4
2	15
2	8
2	11
2	5
2	4
2	3
2	3
2	2400
2	15
2	7
2	3
2	6
2	16
2	7
2	10
2	3
2	3
2	5
2	3
2	10
2	9
2	7
2	3
2	3
2	6
2	16
2	6
2	3
2	11
2	6
2	6
2	3
2	12
2	3
2	13
2	3
2	4
2	3
2	5
2	27
2	23
2	7
2	11
2	5
2	4
2	5
2	5
2	32
2	18
2	4
2	3
2	2400
2	9
2	25
2	2400
2	3
2	3
2	9
2	3
2	25
2	5
2	9
2	3
2	4
2	3
2	8
2	9
2	32
2	3
2	10
2	32
2	3
2	6
2	3
2	3
2	9
2	4
2	3
2	3
2	3
2	7
2	6
2	3
2	3
2	3
2	3
2	4
2	4
2	13
2	4
2	23
2	4
2	3
2	5
2	13
2	3
2	4
2	5
2	23
2	3
2	5
2	5
2	3
2	3
2	13
2	2400
2	5
2	5
2	8
2	7
2	14
2	3
2	3
2	4
2	4
2	23
2	4
2	3
2	8
2	3
2	18
2	5
2	4
2	5
2	3
2	11
2	7
2	3
2	4
2	3
2	26
2	16
2	9
2	3
2	10
2	6
2	4
2	27
2	15
2	8
2	15
2	12
2	3
2	8
2	3
2	11
2	4
2	4
2	4
2	8
2	3
2	5
2	4
2	5
2	3
2	6
2	6
2	7
2	8
2	9
2	18
2	4
2	15
2	3
2	10
3	13
3	7
3	4
3	5
3	5
3	5
3	6
3	5
3	4
3	5
3	4
3	5
3	4
3	5
3	5
3	4
3	4
3	4
3	4
3	14
3	4
3	4
3	4
3	4
3	4
3	4
3	5
3	5
3	4
3	5
3	12
3	5
3	5
3	4
3	4
3	5
3	7
3	4
3	4
3	5
3	5
3	5
3	4
3	5
3	4
3	4
3	5
3	4
3	5
3	4
3	5
3	4
3	5
3	5
3	4
3	7
3	4
3	6
3	5
3	4
3	5
3	4
3	13
3	4
3	4
3	6
3	6
3	5
3	7
3	4
3	5
3	4
3	8
3	18
3	5
3	5
3	5
3	7
3	4
3	4
3	14
3	4
3	4
4	6
4	6
4	6
4	5
4	5
4	9
4	5
4	5
4	6
4	6
4	7
4	5
4	5
4	5
4	5
4	5
4	5
4	5
4	5
4	5
4	5
4	5
4	6
4	5
4	5
4	5
4	5
4	5
5	6
5	6
5	6
5	6
5	6
5	6
5	6
5	6
5	6
5	6
5	6
5	6
5	7
5	7
5	6
5	6
5	6
5	6
5	7
5	6
5	6
5	6
5	6
6	7
6	7
6	7
6	7
6	7
6	7
6	8
6	7
6	7
6	7
6	7
6	7
7	8
7	8
7	8
7	8
7	8
7	8
7	8
7	8
8	9
8	9
8	9
8	9
8	9
8	9
9	10
9	10
9	10
9	10
10	11
10	11
10	11
11	12
11	12
11	12
11	12
11	12
11	12
12	13
13	14
13	14
13	14
14	15
14	15
15	16
15	16
15	16
16	17
16	17
21	22
22	23
23	24
25	26
30	31
2398	2399
