5	6124
8	6124
9	6124
9	6124
10	6124
12	6124
15	6124
15	6124
15	6124
15	6124
16	6124
16	6124
16	6124
16	6124
17	6124
18	6124
18	6124
18	6124
18	6124
18	6124
19	6124
19	6124
19	6124
20	6124
20	6124
21	6124
22	6124
23	6124
23	6124
23	6124
24	6124
24	6124
24	6124
24	6124
24	6124
24	6124
25	6124
25	6124
25	6124
25	6124
26	6124
26	6124
27	6124
27	6124
27	6124
27	6124
27	6124
28	6124
28	6124
28	6124
28	6124
29	6124
29	6124
30	6124
30	6124
30	6124
31	6124
31	6124
33	6124
35	6124
36	6124
38	6124
38	6124
39	6124
41	6124
43	6124
47	6124
2400	6124
2400	6124
2400	6124
2400	6124
2400	6124
2400	6124
2400	6124
2400	6124
2400	6124
2400	6124
2400	6124
2400	6124
2400	6124
2400	6124
2400	6124
2400	6124
2400	6124
2400	6124
2400	6124
2400	6124
2400	6124
2400	6124
2400	6124
2400	6124
2400	6124
2400	6124
2400	6124
2400	6124
2400	6124
2400	6124
2400	6124
2400	6124
2400	6124
2400	6124
2400	6124
2400	6124
2400	6124
2400	6124
2400	6124
2400	6124
2400	6124
2400	6124
2400	6124
2400	6124
2400	6124
2400	6124
2400	6124
2400	6124
2400	6124
2400	6124
2400	6124
2400	6124
2400	6124
2400	6124
2400	6124
2400	6124
2400	6124
2400	6124
2400	6124
2400	6124
2400	6124
2400	6124
2400	6124
2400	6124
2400	6124
2400	6124
2400	6124
2400	6124
2400	6124
2400	6124
2400	6124
2400	6124
2400	6124
2400	6124
2400	6124
2400	6124
2400	6124
2400	6124
2400	6124
2400	6124
2400	6124
2400	6124
2400	6124
2400	6124
2400	6124
2400	6124
2400	6124
2400	6124
2401	6124
2401	6124
2401	6124
2401	6124
2401	6124
2401	6124
2401	6124
2401	6124
2401	6124
2401	6124
2401	6124
2401	6124
2401	6124
2401	6124
2401	6124
2401	6124
2401	6124
2401	6124
2401	6124
2401	6124
2401	6124
2401	6124
2401	6124
2401	6124
2401	6124
2401	6124
2401	6124
2401	6124
2401	6124
2401	6124
2401	6124
2401	6124
2401	6124
2401	6124
2401	6124
2401	6124
2401	6124
2401	6124
2401	6124
2401	6124
2401	6124
2401	6124
2401	6124
2401	6124
2401	6124
2401	6124
2401	6124
2402	6124
2402	6124
2402	6124
2402	6124
2402	6124
2402	6124
2402	6124
2402	6124
2402	6124
2402	6124
2402	6124
2402	6124
2402	6124
2402	6124
2402	6124
2402	6124
2402	6124
2402	6124
2402	6124
2402	6124
2403	6124
2403	6124
2403	6124
2403	6124
2403	6124
2403	6124
2403	6124
2403	6124
2403	6124
2403	6124
2403	6124
2403	6124
2403	6124
2403	6124
2404	6124
2404	6124
2404	6124
2404	6124
2404	6124
2404	6124
2404	6124
2404	6124
2405	6124
2405	6124
2405	6124
2405	6124
2406	6124
2406	6124
2406	6124
2406	6124
2407	6124
2407	6124
2408	6124
2408	6124
2408	6124
2409	6124
2409	6124
2409	6124
2409	6124
2409	6124
2409	6124
2410	6124
2411	6124
2411	6124
2411	6124
2412	6124
2412	6124
2413	6124
2413	6124
2413	6124
2414	6124
2414	6124
2419	6124
2420	6124
2421	6124
2423	6124
2428	6124
