7	6124
7	6124
8	6124
10	6124
11	6124
12	6124
12	6124
13	6124
15	6124
16	6124
16	6124
22	6124
590	6124
590	6124
590	6124
590	6124
590	6124
590	6124
590	6124
590	6124
590	6124
590	6124
590	6124
590	6124
590	6124
590	6124
590	6124
590	6124
590	6124
590	6124
590	6124
590	6124
591	6124
591	6124
591	6124
591	6124
591	6124
591	6124
591	6124
591	6124
592	6124
592	6124
592	6124
592	6124
592	6124
592	6124
593	6124
595	6124
595	6124
595	6124
597	6124
597	6124
599	6124
599	6124
