1	6124
1	465
1	466
1	15
1	465
1	14
1	465
1	16
1	465
1	465
1	466
1	16
1	465
1	465
1	465
1	466
1	465
1	468
1	465
1	465
1	465
1	465
1	466
1	465
1	468
1	19
1	465
1	465
1	12
1	465
1	467
1	467
1	465
1	465
1	465
1	465
1	17
1	465
1	9
1	15
1	465
1	465
1	465
1	465
1	465
1	13
1	465
1	465
1	465
1	465
1	465
1	465
1	465
1	465
1	10
1	467
1	465
1	11
1	13
1	465
1	465
1	465
1	465
1	465
1	466
1	465
1	6124
1	465
1	14
1	465
1	465
1	465
1	465
1	14
1	465
1	465
1	465
1	14
1	465
1	465
1	466
1	465
1	465
1	6
1	13
1	465
1	465
1	465
1	465
1	465
1	465
1	11
1	465
1	465
1	465
1	465
1	465
1	465
1	9
1	465
1	465
1	465
1	465
1	465
1	466
1	465
1	465
1	466
1	465
1	465
1	465
1	465
1	465
1	466
1	465
1	465
1	465
1	465
1	4
1	465
1	465
1	465
1	465
1	18
1	465
1	465
1	465
1	465
1	465
1	465
1	465
1	18
1	465
1	465
1	465
1	465
1	11
1	17
1	8
1	465
1	465
1	465
1	465
1	465
1	10
1	13
1	465
1	17
1	465
1	465
1	465
1	465
1	465
1	465
1	466
1	7
1	13
1	465
1	465
1	10
1	15
1	11
1	465
1	12
1	465
1	5
1	465
1	11
1	466
1	465
1	12
1	465
1	465
1	465
1	465
1	17
1	8
1	465
1	465
1	465
1	8
1	465
1	13
1	465
1	466
1	4
1	465
1	465
1	465
1	10
1	19
1	465
1	465
1	7
1	465
1	4
1	465
1	465
1	465
1	465
1	465
1	8
1	465
1	465
1	465
1	13
1	465
1	467
1	10
1	465
1	6
1	465
1	465
1	465
1	12
1	9
1	10
1	465
1	465
1	465
1	9
1	465
1	465
1	466
1	465
1	465
1	14
1	465
1	466
1	465
1	13
1	465
1	465
1	11
1	465
1	10
1	465
1	465
1	465
1	5
1	465
1	465
1	6124
1	465
1	465
1	2
1	466
1	465
1	465
1	465
1	5
1	4
1	465
1	465
1	465
1	465
1	465
1	12
1	9
1	465
1	465
1	465
1	7
1	465
1	465
1	13
1	465
1	465
1	465
1	465
1	465
1	465
1	7
1	465
1	465
1	10
1	465
1	465
1	465
1	465
1	465
1	465
1	465
1	465
1	465
1	465
1	465
1	465
1	465
1	5
1	465
1	13
1	465
1	465
1	465
1	466
1	6
1	12
1	465
1	465
1	465
1	465
1	465
1	465
1	465
1	465
1	465
1	465
1	465
1	465
1	465
1	465
1	465
1	465
1	466
1	465
1	465
1	465
1	2
1	465
1	5
1	465
1	465
1	465
1	9
1	465
1	5
1	465
1	465
1	466
1	8
1	465
1	465
1	465
1	7
1	465
1	465
1	465
1	465
1	12
1	466
1	10
1	465
1	465
1	465
1	465
1	465
1	466
1	13
1	8
1	6
1	465
1	465
1	465
1	465
1	465
1	465
1	465
1	465
1	465
1	465
1	10
1	465
1	11
1	17
1	465
1	465
1	465
1	465
1	465
1	13
1	465
1	7
1	465
1	465
1	465
1	465
1	7
1	465
1	465
1	466
1	465
1	465
1	465
1	465
1	465
1	465
1	17
1	7
1	465
1	465
1	9
1	465
1	465
1	465
1	7
1	465
1	465
1	465
1	465
1	465
1	465
1	465
1	465
1	465
1	465
1	465
1	465
1	465
1	12
1	7
1	17
1	465
1	465
1	465
1	465
1	8
1	10
1	465
1	466
1	4
1	6
1	465
1	465
1	465
1	465
1	465
1	465
1	465
1	11
1	465
1	465
1	465
1	4
1	465
1	13
1	17
1	7
1	465
1	465
1	465
1	465
1	465
1	465
1	465
1	465
1	465
1	465
1	6
1	465
1	465
1	465
1	465
1	5
1	6
1	465
1	465
1	465
1	6
1	465
1	465
1	8
1	465
1	465
1	465
1	6
1	465
1	465
1	466
1	7
1	466
1	465
1	465
1	465
1	465
1	7
1	7
1	465
1	465
1	6
1	7
1	5
1	4
1	465
1	4
1	465
1	465
1	465
1	465
1	8
1	465
1	465
1	9
1	13
1	465
1	5
1	466
1	465
1	6
1	6
1	11
1	465
1	465
1	8
1	13
1	465
1	465
1	465
1	465
1	466
2	3
2	3
2	8
2	16
2	3
2	17
2	3
2	466
2	5
2	5
2	466
2	7
2	10
2	3
2	4
2	3
2	3
2	5
2	10
2	466
2	5
2	6
2	3
2	3
2	11
2	4
2	3
2	6
2	6
2	466
2	4
2	3
2	3
2	13
2	3
2	6
2	10
2	4
2	466
2	5
2	7
2	8
2	16
2	4
2	16
2	10
2	3
2	17
2	3
2	6
2	5
2	5
2	10
2	466
2	3
2	7
2	3
2	4
2	3
2	12
2	6
2	12
2	10
2	3
2	4
2	3
2	4
2	3
2	5
2	7
2	13
2	3
2	4
2	5
2	6
2	7
2	3
2	3
2	3
2	6
2	5
2	11
2	5
2	4
2	5
2	3
2	8
2	9
2	5
2	3
2	4
2	3
2	6
2	8
2	3
2	4
2	17
2	5
2	3
2	4
2	3
2	4
2	3
2	4
2	4
2	4
3	4
3	6
3	7
3	4
3	5
3	13
3	4
3	4
3	5
3	4
3	5
3	5
3	4
3	5
3	5
3	5
3	4
3	5
3	5
3	6
3	4
3	4
3	5
3	5
3	6
3	8
3	4
3	6
3	4
3	4
3	4
3	4
3	4
3	4
3	4
3	4
3	5
3	4
3	4
3	14
3	4
3	10
3	4
3	4
3	5
3	4
3	4
4	5
4	5
4	5
4	5
4	5
4	5
4	5
4	5
4	5
4	5
4	6
4	6
4	5
4	6
4	5
4	5
4	5
4	5
5	6
5	6
5	6
5	6
5	6
5	6
5	8
6	7
6	7
6	7
6	7
6	7
7	8
7	8
7	8
8	9
8	10
8	9
9	10
9	10
10	11
10	11
11	12
11	12
11	12
12	13
14	16
16	17
464	465
