1	6124
1	864
1	864
1	865
1	864
1	864
1	864
1	864
1	20
1	864
1	864
1	20
1	864
1	867
1	864
1	864
1	864
1	6124
1	864
1	864
1	864
1	864
1	864
1	864
1	864
1	864
1	864
1	17
1	864
1	864
1	865
1	864
1	9
1	864
1	19
1	18
1	864
1	864
1	864
1	864
1	864
1	864
1	864
1	864
1	20
1	867
1	864
1	864
1	864
1	864
1	864
1	864
1	13
1	864
1	864
1	864
1	864
1	864
1	864
1	20
1	864
1	864
1	864
1	864
1	864
1	864
1	864
1	12
1	865
1	864
1	864
1	12
1	864
1	13
1	12
1	864
1	864
1	864
1	864
1	864
1	864
1	24
1	864
1	864
1	8
1	864
1	864
1	5
1	865
1	864
1	17
1	864
1	864
1	864
1	866
1	18
1	864
1	864
1	864
1	864
1	14
1	864
1	6
1	864
1	864
1	866
1	864
1	9
1	864
1	12
1	864
1	864
1	10
1	864
1	864
1	864
1	864
1	6
1	864
1	17
1	864
1	11
1	864
1	864
1	864
1	864
1	864
1	6124
1	18
1	864
1	864
1	864
1	864
1	864
1	864
1	864
1	864
1	4
1	864
1	864
1	18
1	864
1	864
1	864
1	864
1	864
1	864
1	864
1	864
1	11
1	864
1	864
1	864
1	864
1	864
1	864
1	864
1	864
1	864
1	864
1	864
1	864
1	19
1	864
1	864
1	864
1	864
1	864
1	864
1	864
1	14
1	864
1	864
1	864
1	864
1	866
1	864
1	14
1	864
1	864
1	864
1	864
1	864
1	864
1	864
1	18
1	864
1	864
1	864
1	864
1	12
1	864
1	19
1	864
1	864
1	864
1	864
1	864
1	864
1	864
1	864
1	864
1	864
1	864
1	11
1	864
1	864
1	864
1	10
1	8
1	12
1	864
1	10
1	18
1	864
1	864
1	864
1	864
1	864
1	864
1	864
1	864
1	864
1	864
1	864
1	864
1	864
1	864
1	865
1	864
1	864
1	13
1	5
1	18
1	864
1	864
1	864
1	864
1	864
1	864
1	864
1	11
1	864
1	864
1	864
1	864
1	864
1	864
1	864
1	864
1	5
1	864
1	864
1	864
1	864
1	864
1	864
1	869
1	864
1	7
1	864
1	864
1	864
1	864
1	864
1	864
1	864
1	864
1	864
1	864
1	864
1	864
1	864
1	864
1	864
1	5
1	864
1	864
1	864
1	864
1	864
1	12
1	18
1	864
1	864
1	11
1	9
1	864
1	864
1	864
1	864
1	864
1	864
1	864
1	7
1	864
1	864
1	864
1	864
1	864
1	864
1	864
1	864
1	864
1	864
1	864
1	864
1	864
1	864
1	864
1	865
1	864
1	864
1	9
1	864
1	15
1	864
1	864
1	864
1	18
1	7
1	864
1	864
1	9
1	7
1	864
1	864
1	864
1	864
1	18
1	865
1	864
1	11
1	864
1	18
1	10
1	864
1	13
1	864
1	10
1	864
1	864
1	864
1	864
1	18
1	864
1	864
1	864
1	864
1	864
1	864
1	864
1	864
1	864
1	864
1	864
1	864
1	864
1	864
1	864
1	864
1	8
1	864
1	864
1	8
1	864
1	864
1	864
1	864
1	864
1	5
1	864
1	13
1	864
1	864
1	864
1	864
1	864
1	864
1	864
1	864
1	864
1	864
1	8
1	864
1	864
1	864
1	7
1	864
1	6
1	6
1	864
1	864
1	864
1	864
1	864
1	864
1	864
1	865
1	864
1	864
1	864
1	864
1	864
1	864
1	864
1	864
1	864
1	864
1	864
1	864
1	864
1	864
1	865
1	864
1	864
1	864
1	864
1	864
1	864
1	10
1	864
1	864
1	864
1	864
1	864
1	864
1	864
1	864
1	864
1	7
1	865
1	864
1	864
1	864
1	864
1	10
1	864
1	864
1	15
1	864
1	864
1	864
1	864
1	9
1	864
1	864
1	864
1	864
1	864
1	864
1	10
1	864
1	9
1	864
1	5
1	864
1	9
1	864
1	864
1	864
1	864
1	15
1	864
1	864
1	864
1	6
1	864
1	864
1	864
1	865
1	864
1	864
1	864
1	864
1	864
1	864
1	18
1	864
1	864
1	864
1	8
1	864
1	9
1	864
1	864
1	864
1	864
1	864
1	864
1	865
1	864
1	864
1	864
1	864
1	864
1	864
1	864
1	864
1	4
1	864
1	864
1	864
1	4
1	864
1	864
1	864
1	864
1	10
1	864
1	864
1	864
1	864
1	864
1	864
1	864
1	864
1	864
1	14
1	864
1	864
1	864
1	864
1	864
1	864
1	864
1	9
1	18
1	864
1	864
1	864
1	864
1	864
1	7
1	15
1	864
1	864
1	6
1	864
1	864
1	864
1	864
1	17
1	864
1	864
1	864
1	864
1	7
1	864
1	864
1	11
1	18
1	864
1	864
1	9
1	864
1	864
1	864
1	864
1	864
1	864
1	864
1	864
1	864
1	864
1	864
1	865
1	864
1	864
1	864
1	864
1	864
1	864
1	864
1	8
1	864
1	864
1	864
1	864
1	864
1	864
1	864
1	864
1	10
1	864
1	864
1	864
1	864
1	864
1	864
1	865
1	864
1	864
1	864
1	864
1	864
1	864
1	864
1	864
1	864
1	864
1	864
1	864
1	864
1	864
1	864
1	8
1	864
1	864
1	864
1	864
1	864
1	6
1	864
1	864
1	9
1	864
1	864
1	864
1	864
1	864
1	864
1	864
1	10
1	864
1	864
1	864
1	5
1	864
1	864
1	864
1	864
1	864
1	864
1	864
1	864
1	864
1	864
1	864
1	864
1	864
1	864
1	864
1	864
1	864
1	864
1	864
1	864
1	864
1	864
1	864
1	864
1	864
1	864
1	864
1	864
1	5
1	864
1	864
1	864
1	864
1	864
1	864
1	6
1	864
1	864
1	864
1	5
1	864
1	864
1	864
1	864
1	864
1	864
1	864
1	864
1	6
1	864
1	864
1	864
1	864
1	864
1	864
1	864
1	864
1	864
1	864
1	864
1	864
1	864
1	864
1	864
1	864
1	864
1	864
1	864
1	864
1	864
1	864
1	864
1	864
1	864
1	864
1	864
1	864
1	864
1	864
1	864
1	864
1	864
1	864
1	864
1	864
1	864
1	864
1	864
1	864
1	5
1	864
1	7
1	864
1	864
1	864
1	864
1	864
1	864
1	864
1	864
1	865
1	864
1	9
1	864
1	864
1	864
1	866
1	864
1	864
1	10
1	864
1	864
1	864
1	864
1	5
1	864
1	864
1	864
1	8
1	864
1	7
1	864
1	864
1	864
1	6
1	864
1	864
1	6
1	864
1	15
1	864
1	864
1	864
1	864
1	8
1	864
1	7
1	864
1	864
1	864
1	864
1	864
1	864
1	864
1	19
1	19
1	864
1	9
1	864
1	864
1	864
1	864
1	864
1	864
1	864
1	864
1	864
1	6
1	4
1	864
1	864
1	9
1	7
1	864
1	15
1	8
1	15
1	864
1	864
1	864
1	864
1	864
1	864
1	864
1	864
1	864
1	864
1	864
1	864
1	864
1	864
1	864
1	864
1	864
1	4
1	864
1	864
1	864
1	864
1	864
1	864
1	864
1	18
1	864
1	864
1	864
1	864
1	864
1	864
1	864
1	7
1	864
1	5
1	864
1	864
1	864
1	865
1	864
1	4
1	864
1	864
1	864
1	864
1	864
1	865
1	864
1	864
1	864
1	864
1	864
1	864
1	6
1	864
1	864
1	864
1	864
1	8
1	864
1	864
1	864
1	10
1	864
1	7
1	864
1	864
1	864
1	864
1	864
1	864
1	864
1	864
1	864
1	18
1	864
1	864
1	864
1	6
1	864
1	7
1	864
1	864
1	9
1	864
1	864
1	6
1	864
1	864
1	864
1	864
1	864
1	864
1	864
1	864
1	13
1	864
1	6
1	6
1	864
1	864
1	864
1	864
1	864
1	864
1	864
1	864
1	864
1	6
1	864
1	864
1	864
1	864
1	864
1	864
1	864
1	864
1	864
1	864
1	864
1	864
1	864
1	864
1	864
1	864
1	864
1	8
1	865
1	7
1	864
1	864
1	864
1	864
1	864
1	8
1	864
1	6
1	864
1	865
1	864
1	864
1	7
1	864
1	864
1	864
1	864
1	864
1	864
1	5
2	3
2	865
2	3
2	7
2	19
2	865
2	14
2	7
2	10
2	3
2	5
2	3
2	10
2	5
2	8
2	12
2	3
2	3
2	10
2	11
2	4
2	3
2	9
2	8
2	4
2	3
2	8
2	14
2	8
2	10
2	14
2	3
2	12
2	5
2	3
2	8
2	14
2	3
2	6
2	19
2	4
2	865
2	3
2	14
2	3
2	3
2	3
2	12
2	5
2	14
2	3
2	10
2	865
2	865
2	8
2	3
2	4
2	14
2	3
2	4
2	4
2	7
2	4
2	3
2	5
2	9
2	3
2	6
2	4
2	3
2	3
2	5
2	4
2	3
2	5
2	3
2	4
2	6
2	3
2	3
2	14
2	3
2	5
2	3
2	3
2	3
2	4
2	8
2	9
2	16
2	4
2	5
2	3
2	14
2	6
2	4
2	4
2	4
2	14
2	6
3	4
3	4
3	4
3	4
3	4
3	10
3	4
3	4
3	6
3	5
3	5
3	4
3	4
3	4
3	4
3	4
3	4
3	4
3	8
3	5
3	4
3	6
3	6
3	4
3	8
3	4
3	5
3	4
3	4
3	5
3	4
3	4
3	4
3	4
3	4
3	5
3	4
4	6
4	5
4	5
4	5
4	5
4	5
4	5
4	5
4	5
4	5
4	5
4	5
4	5
4	6
4	5
5	6
5	9
5	6
5	6
5	6
5	6
5	6
5	6
5	6
5	6
5	6
5	7
5	6
6	7
6	7
6	7
6	7
6	7
6	7
6	7
6	7
7	9
7	8
7	8
7	8
8	9
8	9
8	9
8	9
9	10
9	10
10	12
12	14
12	13
14	15
17	18
17	18
863	864
