1	6124
1	14
1	1361
1	24
1	1360
1	22
1	1360
1	36
1	21
1	1360
1	1361
1	1360
1	1360
1	1360
1	21
1	19
1	1360
1	35
1	1360
1	13
1	1360
1	12
1	22
1	20
1	1360
1	1360
1	21
1	1360
1	1360
1	1360
1	1360
1	1360
1	1360
1	13
1	12
1	1360
1	1360
1	1360
1	11
1	1360
1	1360
1	11
1	1360
1	1360
1	13
1	1360
1	1360
1	1360
1	1360
1	1360
1	1360
1	16
1	1360
1	1360
1	1360
1	1360
1	10
1	1361
1	1360
1	1361
1	1360
1	12
1	34
1	1360
1	24
1	1360
1	13
1	1360
1	13
1	1360
1	16
1	11
1	35
1	1360
1	12
1	1360
1	1360
1	1360
1	1360
1	14
1	12
1	11
1	34
1	10
1	20
1	13
1	1360
1	34
1	1360
1	1360
1	1360
1	1360
1	21
1	10
1	1360
1	12
1	17
1	1360
1	1360
1	23
1	26
1	1360
1	21
1	1360
1	37
1	35
1	1361
1	1360
1	18
1	1360
1	1360
1	8
1	12
1	6
1	13
1	1360
1	1360
1	1360
1	21
1	1360
1	1360
1	1360
1	16
1	1360
1	1360
1	1360
1	13
1	1360
1	1360
1	1360
1	1360
1	1361
1	8
1	12
1	1360
1	1360
1	1360
1	1360
1	1360
1	1360
1	1360
1	12
1	1360
1	22
1	1360
1	21
1	1360
1	1360
1	19
1	1360
1	1360
1	1360
1	1360
1	14
1	21
1	1360
1	27
1	9
1	1360
1	1360
1	15
1	1360
1	1360
1	1360
1	1360
1	12
1	1360
1	1360
1	13
1	1360
1	1360
1	1360
1	6124
1	1360
1	8
1	13
1	8
1	35
1	1360
1	1360
1	14
1	1360
1	1362
1	1360
1	14
1	1360
1	1360
1	21
1	12
1	1360
1	1360
1	25
1	18
1	1360
1	1360
1	6124
1	1360
1	1360
1	20
1	34
1	32
1	1361
1	17
1	1360
1	1360
1	15
1	1360
1	1360
1	1360
1	1360
1	1360
1	1360
1	14
1	15
1	13
1	18
1	17
1	1360
1	15
1	31
1	1360
1	1360
1	1360
1	1360
1	1362
1	19
1	1360
1	26
1	1360
1	1360
1	1360
1	17
1	1360
1	1360
1	1360
1	1360
1	1360
1	1360
1	1360
1	12
1	1360
1	1360
1	1360
1	35
1	9
1	7
1	12
1	1360
1	34
1	9
1	1360
1	13
1	12
1	1360
1	1360
1	14
1	1360
1	1360
1	1360
1	10
1	1360
1	1360
1	14
1	13
1	11
1	9
1	1360
1	1360
1	20
1	1360
1	1360
1	1360
1	1360
1	1360
1	1360
1	1360
1	1360
1	1360
1	1360
1	20
1	1360
1	1360
1	1360
1	1360
1	14
1	1360
1	17
1	19
1	10
1	1360
1	1360
1	1360
1	11
1	1360
1	1361
1	28
1	1360
1	18
1	13
1	1360
1	1360
1	1360
1	1360
1	1360
1	1360
1	5
1	13
1	1360
1	1360
1	32
1	1360
1	1360
1	1360
1	1360
1	11
1	15
1	1360
1	1361
1	1360
1	13
1	1360
1	5
1	1360
1	9
1	12
1	7
1	18
1	1360
1	1361
1	13
1	1360
1	1360
1	1360
1	1360
1	1360
1	1360
1	1361
1	6124
1	1361
1	1360
1	1360
1	12
1	1361
1	1360
1	1360
1	1360
1	10
1	1360
1	8
1	1360
1	18
1	1360
1	1360
1	1360
1	1360
1	1360
1	1360
1	8
1	1360
1	9
1	1362
1	1360
1	1360
1	12
1	1360
1	1360
1	17
1	12
1	1360
1	1360
1	1360
1	1360
1	1360
1	8
1	15
1	15
1	1360
1	14
1	1360
1	19
1	1360
1	1360
1	1360
1	17
1	1360
1	11
1	1360
1	10
1	1360
1	1360
1	1360
1	1360
1	13
1	11
1	11
1	1360
1	25
1	12
1	1360
1	1360
1	1360
1	1360
1	17
1	1362
1	1360
1	18
1	10
1	1360
1	1360
1	1360
1	1360
1	1360
1	1360
1	1360
1	11
1	35
1	1360
1	1360
1	9
1	1360
1	1360
1	1360
1	12
1	1360
1	14
1	1360
1	31
1	1360
1	15
1	1360
1	1360
1	1360
1	1360
1	1360
1	1360
1	1360
1	8
1	10
1	1360
1	20
1	1360
1	1360
1	18
1	1360
1	10
1	1360
1	1360
1	15
1	1360
1	1360
1	17
1	37
1	35
1	1360
1	1360
1	1360
1	1360
1	1360
1	1360
1	19
1	1360
1	1360
1	1360
1	1361
1	17
1	15
1	1360
1	1360
1	1360
1	20
1	1360
1	1360
1	12
1	1360
1	8
1	16
1	27
1	1360
1	1360
1	1360
1	1360
1	1360
1	1360
1	1360
1	1360
1	1360
1	12
1	1360
1	4
1	4
1	1360
1	1360
1	16
1	1360
1	1360
1	25
1	34
1	12
1	1360
1	25
1	14
1	1360
1	1360
1	1360
1	1360
1	8
1	10
1	1360
1	1360
1	16
1	12
1	1360
1	1360
1	15
1	1360
1	1360
1	8
1	31
1	11
1	1360
1	35
1	7
1	1360
1	8
1	1360
1	12
1	1360
1	17
1	22
1	10
1	26
1	1360
1	1360
1	24
1	1360
1	13
1	1360
1	1360
1	5
1	1360
1	1360
1	10
1	8
1	1360
1	6124
1	1360
1	1360
1	1360
1	9
1	1360
1	1360
1	1360
1	1360
1	1360
1	1360
1	1360
1	1360
1	9
1	8
1	11
1	1360
1	35
1	1360
1	1360
1	14
1	13
1	13
1	1360
1	23
1	1360
1	1360
1	16
1	18
1	1360
1	1360
1	4
1	8
1	1360
1	9
1	15
1	18
1	1360
1	20
1	1360
1	1360
1	1360
1	1360
1	16
1	12
1	1360
1	1360
1	1360
1	10
1	34
1	1360
1	1360
1	13
1	17
1	29
1	1360
1	1360
1	1360
1	1360
1	1360
1	1360
1	1360
1	1360
1	8
1	34
1	5
1	1360
1	1360
1	1360
1	1360
1	1360
1	13
1	11
1	1360
1	1360
1	1360
1	1360
1	12
1	1360
1	12
1	12
1	1360
1	1360
1	14
1	10
1	11
1	1360
1	1360
1	1360
1	12
1	1360
1	1360
1	7
1	9
1	11
1	10
1	1360
1	1360
1	1360
1	1360
1	1360
1	1360
1	9
1	1360
1	26
1	1360
1	1360
1	1360
1	1360
1	1360
1	34
1	1360
1	15
1	1360
1	15
1	14
1	1360
1	19
1	11
1	1360
1	1360
1	1360
1	1360
1	34
1	1360
1	1360
1	10
1	1360
1	1360
1	1362
1	6
1	1360
1	1360
1	1360
1	1360
1	1360
1	1360
1	1360
1	25
1	11
1	1360
1	1360
1	24
1	1360
1	4
1	1360
1	1360
1	13
1	1360
1	21
1	1360
1	1360
1	1360
1	31
1	1360
1	18
1	34
1	1360
1	8
1	15
1	4
1	1360
1	1360
1	9
1	1360
1	26
1	1360
1	9
1	1361
1	25
1	8
1	1360
1	7
1	1360
1	8
1	8
1	16
1	1361
1	15
1	1360
1	1360
1	8
1	11
1	1360
1	1360
1	36
1	17
1	1360
1	1361
1	1360
1	1360
1	9
1	1360
1	1360
1	16
1	4
1	20
1	1360
1	1360
1	1363
1	1360
1	11
1	1360
1	1362
1	14
1	1360
1	1360
1	1360
1	5
1	1360
1	1360
1	23
1	1360
1	1360
1	24
1	1360
1	1360
1	1360
1	15
1	1360
1	1360
1	1360
1	15
1	1360
1	9
1	1360
1	4
1	1360
1	1360
1	17
1	1360
1	24
1	1360
1	1361
1	1360
1	1361
1	7
1	10
1	1360
1	1360
1	1360
1	1360
1	13
1	11
1	1360
1	1360
1	1360
1	12
1	12
1	1360
1	13
1	1360
1	8
1	11
1	5
1	11
1	1360
1	5
1	7
1	1360
1	1360
1	16
1	13
1	1360
1	1360
1	17
1	8
1	1360
1	34
1	1360
1	20
1	1360
1	1360
1	34
1	1360
1	1360
1	13
1	1360
1	1360
1	26
1	20
1	1361
1	1360
1	8
1	1360
1	1360
1	1361
1	13
1	20
1	1360
1	1360
1	17
1	1360
1	10
1	1360
1	1360
1	23
1	13
1	8
1	12
1	5
1	1360
1	7
1	8
1	7
1	34
1	12
1	1360
1	1360
1	1360
1	1360
1	1360
1	35
1	10
1	1360
1	6124
1	19
1	1360
1	1360
1	35
1	1360
1	1360
1	1360
1	5
1	10
1	1360
1	1360
1	16
1	15
1	1360
1	1360
1	1360
1	1360
1	1360
1	25
1	1360
1	1360
1	1360
1	1361
1	1361
1	7
1	1360
1	7
1	26
1	1361
1	1360
1	1360
1	5
1	1360
1	17
1	1360
1	23
1	1360
1	1360
1	20
1	1360
1	5
1	8
1	1360
1	17
1	1360
1	20
1	11
1	31
1	1360
1	16
1	12
1	1360
1	1360
1	1360
1	1361
1	1360
1	19
1	16
1	1360
1	1360
1	20
1	5
1	11
1	1360
1	1360
1	12
1	1360
1	1360
1	19
1	1360
1	8
1	8
1	12
1	8
1	1360
1	11
1	1360
1	1360
1	1360
1	23
1	1360
1	1360
1	1361
1	1360
1	11
1	1360
1	9
1	1360
1	11
1	1360
1	5
1	1360
1	1360
1	31
1	21
1	11
1	8
1	14
1	7
1	19
1	1360
1	1360
1	8
1	9
1	1360
1	1360
1	1360
1	1360
1	1360
1	14
1	23
1	1360
1	1360
1	1360
1	1360
1	1360
1	1360
1	13
1	1360
1	1360
1	12
1	1360
1	1360
1	9
1	1360
1	1360
1	1360
1	1361
1	7
1	1360
1	13
1	1360
1	1360
1	7
1	9
1	8
1	14
1	1360
1	10
1	1361
1	1360
1	12
1	1360
1	1360
1	1360
1	17
1	35
1	1360
1	13
1	4
1	1360
1	10
1	1360
1	1360
1	24
1	1360
1	1360
1	1360
1	4
1	12
1	19
1	13
1	1360
1	8
1	1360
1	1360
1	1360
1	17
1	1360
1	21
1	20
1	13
1	1360
1	1360
1	1360
1	1360
1	1360
1	1360
1	1360
1	12
1	13
1	4
1	13
1	1360
1	1360
1	1360
1	1360
1	23
1	1360
1	1360
1	1360
1	1360
1	1360
1	7
1	10
1	11
1	1360
1	1360
1	1360
1	20
1	1360
1	10
1	1360
1	1360
1	1360
1	19
1	5
1	1360
1	23
1	1360
1	1360
1	7
1	23
1	16
1	1360
1	1360
1	7
1	25
1	1360
1	1360
1	1360
1	1360
1	1360
1	13
1	6
1	1360
1	1360
1	1360
1	19
1	11
1	1360
1	1360
1	17
1	1360
1	12
1	1360
1	23
1	1360
1	9
1	1360
1	23
1	6
1	1360
1	1360
1	12
1	1360
1	1360
1	1360
1	1360
1	14
1	12
1	16
1	1360
1	1360
1	1362
1	1360
1	1360
1	1360
1	1360
1	2
1	1360
1	19
1	13
1	1360
1	1360
1	1360
1	1360
1	1361
1	6
1	17
1	17
1	1360
1	1361
1	1360
1	9
1	1360
1	12
1	1360
1	13
1	7
1	1360
1	1360
1	16
1	14
1	11
1	35
1	1360
1	1360
1	1360
1	1360
1	11
1	1361
1	16
1	9
1	1360
1	1360
1	1360
1	1360
1	18
1	23
1	1360
1	1360
1	11
1	13
1	1360
1	1360
1	8
1	1360
1	1360
1	1360
1	1360
1	12
1	1360
1	1360
1	1360
1	1360
1	1360
1	1360
1	1360
1	1360
1	1360
1	1360
1	1360
1	1360
1	6
1	1360
1	9
1	1360
1	6
1	1360
1	1360
1	1360
1	7
1	11
1	1360
1	19
1	16
1	23
1	1360
1	1360
1	25
1	10
1	1360
1	8
1	1360
1	1360
1	1360
1	1360
1	14
1	1360
1	1360
1	1360
1	12
1	1360
1	8
1	1360
1	12
1	8
1	15
1	1360
1	8
1	11
1	35
1	21
1	1360
1	15
1	1360
1	1360
1	11
1	1360
1	1360
1	1360
1	19
1	1360
1	9
1	11
1	1360
1	12
1	1360
1	1360
1	1360
1	1360
1	1360
1	1360
1	34
1	17
1	25
1	1360
1	15
1	16
1	1360
1	1360
1	12
1	1360
1	1360
1	1360
1	19
1	10
1	1360
1	8
1	12
1	1360
1	6
1	11
1	1360
1	1360
1	1360
1	1360
1	1360
1	1360
1	6
1	1360
1	1360
1	4
1	1360
1	13
1	1361
1	8
1	8
1	7
1	1360
1	1360
1	1360
1	1360
1	5
1	1360
1	1360
1	6
1	1360
1	10
1	1360
1	1360
1	1360
1	1360
1	1360
1	8
1	1360
1	1360
1	1360
1	22
1	1360
1	1360
1	1360
1	34
1	1360
1	1360
1	9
1	17
1	8
1	4
1	1360
1	8
1	7
1	13
1	7
1	1360
1	11
1	6
1	11
1	1360
1	2
1	1360
1	1360
1	1360
1	1360
1	18
1	1360
1	1360
1	15
1	1360
1	1360
1	1360
1	1360
1	7
1	1360
1	1360
1	13
1	10
1	1360
1	1360
1	4
1	1360
1	1360
1	1360
1	1360
1	16
1	1360
1	14
1	17
1	20
1	8
1	1360
1	1360
1	1360
1	1360
1	1360
1	35
1	11
1	1360
1	1360
1	8
1	1361
1	7
1	7
1	1360
1	1360
1	7
1	24
1	1360
1	11
1	1360
1	11
1	1360
1	1360
1	1360
1	1360
1	1360
1	8
1	12
1	1360
1	15
1	1360
1	1360
1	1360
1	5
1	1360
1	9
1	1360
1	1360
1	5
1	8
1	1360
1	11
1	6
1	1360
1	1360
1	1360
1	1360
1	14
1	1360
1	11
1	1360
1	1361
1	14
1	1361
1	1360
1	1360
1	20
1	1360
1	1360
1	1360
1	1360
1	1360
1	16
1	9
1	1360
1	1360
1	1360
1	22
1	13
1	12
1	1360
1	1360
1	1360
1	1360
1	13
1	1360
1	1360
1	1360
1	1360
1	1360
1	5
1	2
1	6
1	1360
1	1360
1	1360
1	21
1	1360
1	9
1	5
1	23
1	1360
1	1360
1	17
1	7
1	1360
1	1360
1	1360
1	1361
1	1360
1	1360
1	1360
1	9
1	1360
1	1360
1	19
1	1360
1	12
1	1360
1	1361
1	22
1	1360
1	1360
1	1360
1	20
1	26
1	1360
1	1360
1	10
1	1360
1	6
1	1360
1	13
1	15
1	9
1	19
1	1360
1	1360
1	23
1	5
1	1360
1	1361
1	34
1	1360
1	1360
1	10
1	4
1	1360
1	1360
1	9
1	11
1	1360
1	12
1	1361
1	1360
1	20
1	1360
1	9
1	1360
1	1360
1	11
1	1360
1	1360
1	12
1	1360
1	1360
1	4
1	20
1	1360
1	7
1	1360
1	15
1	8
1	1360
1	1360
1	1360
1	9
1	10
1	1360
1	15
1	25
1	1360
1	1360
1	1360
1	1360
1	1360
1	7
1	1360
1	1360
1	1360
1	5
1	12
1	24
1	1360
1	1360
1	1360
1	1360
1	6
1	11
1	31
1	1361
1	9
1	7
1	8
1	24
1	35
1	13
1	1360
1	1360
1	1360
1	12
1	2
1	12
1	1360
1	10
1	21
1	35
1	7
1	1360
1	1360
1	1360
1	1360
1	1360
1	1360
1	1360
1	34
1	1360
1	10
1	16
1	1360
1	1360
1	1360
1	9
1	1360
1	1360
1	9
1	1360
1	2
1	10
1	1360
1	1360
1	25
1	1360
1	12
1	1360
1	1360
1	1360
1	1360
1	11
1	25
1	20
1	1360
1	16
1	1360
1	21
1	1360
1	17
1	1360
1	1360
1	1360
1	1360
1	1360
1	7
1	1360
1	1360
1	1360
1	8
1	7
1	1360
1	1360
1	1360
1	1360
1	1360
1	1360
1	1360
1	1360
1	1360
1	19
1	1360
1	7
1	12
1	1360
1	1360
1	20
1	1360
1	1360
1	1360
1	1360
1	10
1	11
1	1360
1	1360
1	1360
1	1360
1	11
1	16
1	20
1	22
1	1360
1	1360
1	1360
1	1360
1	10
1	21
1	1360
1	1360
1	12
1	9
1	1360
1	1361
1	1360
1	1360
1	1360
1	1360
1	13
1	1360
1	1360
1	1360
1	1360
1	1360
1	20
1	1360
1	22
1	1360
1	1360
1	5
1	1360
1	1360
1	6
1	24
1	1360
1	1360
1	21
1	1360
1	12
1	1360
1	1360
1	1360
1	1360
1	1360
1	1360
1	1360
1	1360
1	1360
1	1360
1	1360
1	1360
1	1360
1	1360
1	1360
1	21
1	1360
1	1360
1	1360
1	1360
1	26
1	1360
1	1360
1	1360
1	1360
1	1360
1	9
1	1360
1	9
1	21
1	1360
1	1360
1	13
1	1360
1	1360
1	1360
1	8
1	1360
1	4
1	5
1	7
1	1360
1	1360
1	11
1	6
1	1360
1	1360
1	6
1	26
1	1361
1	1360
1	1360
1	9
1	7
1	1360
1	8
1	1360
1	11
1	1360
1	9
1	1360
1	1361
1	7
1	1360
1	1360
1	5
1	1360
1	1360
1	1360
1	1360
1	1360
1	1360
1	12
1	1360
1	17
1	1360
1	1360
1	1360
1	1360
1	1360
1	16
1	15
1	1360
1	1360
1	1360
1	1360
1	1360
1	1360
1	1360
1	1360
1	1360
1	4
1	8
1	5
1	1360
1	20
1	1360
1	1360
1	12
1	21
1	1360
1	7
1	1360
1	1360
1	15
1	8
1	9
1	1360
1	9
1	1360
1	1360
1	1360
1	1360
1	1360
1	6
1	1360
1	10
1	10
1	9
1	1360
1	16
1	1360
1	1360
1	1360
1	7
1	1360
1	1360
1	18
1	15
1	1360
1	1360
1	1360
1	1360
1	9
1	1360
1	1360
1	1360
1	1360
1	5
1	9
1	1360
1	17
1	6
1	15
1	1360
1	1360
1	1360
1	1360
1	1360
1	34
1	1360
1	16
1	1360
1	1360
1	1360
1	13
1	1360
1	6
1	1360
1	1360
1	7
1	10
1	26
1	15
1	1360
1	11
1	1360
1	1360
1	1360
1	11
1	7
1	7
1	1360
1	1361
1	16
1	11
1	1360
1	1360
1	1361
1	1360
1	1360
1	1360
1	1360
1	5
1	1360
1	1360
1	1360
1	1360
1	1360
1	1360
1	7
1	1360
1	6
1	1360
1	7
1	1360
1	1360
1	10
1	1360
1	12
1	6
1	1360
1	1360
1	1360
1	1360
1	1360
1	1360
1	1360
1	1360
1	7
1	6
1	1360
1	1361
1	35
1	6
1	1360
1	1360
1	1360
1	1360
1	1360
1	7
1	1360
1	1360
1	1360
1	1360
1	1360
1	21
1	8
1	1360
1	6
1	19
1	5
1	11
1	1360
1	1360
1	1360
1	6
1	1360
1	1360
1	1360
1	9
1	1360
1	1360
1	11
1	1360
1	1360
1	1360
1	1360
1	9
1	1361
1	1360
1	1360
1	1360
1	1360
1	13
1	11
1	34
1	6
1	1360
1	12
1	7
1	1360
1	1360
1	1360
1	1360
1	1360
1	4
1	7
2	3
2	14
2	8
2	6
2	5
2	3
2	1361
2	3
2	3
2	3
2	15
2	4
2	6
2	7
2	7
2	5
2	3
2	1361
2	6
2	3
2	3
2	3
2	3
2	7
2	6
2	7
2	7
2	15
2	1361
2	3
2	8
2	10
2	5
2	5
2	3
2	8
2	7
2	3
2	10
2	5
2	5
2	5
2	6
2	3
2	5
2	3
2	3
2	3
2	3
2	8
2	10
2	11
2	6
2	25
2	9
2	3
2	13
2	8
2	19
2	3
2	7
2	3
2	12
2	3
2	12
2	36
2	1361
2	7
2	3
2	7
2	3
2	11
2	8
2	6
2	3
2	3
2	3
2	3
2	6
2	5
2	4
2	22
2	5
2	10
2	24
2	20
2	3
2	11
2	9
2	8
2	8
2	32
2	3
2	12
2	5
2	11
2	16
2	4
2	3
2	8
2	3
2	4
2	1361
2	3
2	3
2	6
2	10
2	3
2	3
2	15
2	11
2	20
2	13
2	3
2	14
2	21
2	3
2	5
2	1361
2	6
2	3
2	3
2	32
2	3
2	4
2	4
2	8
2	32
2	3
2	5
2	8
2	7
2	27
2	7
2	4
2	3
2	5
2	7
2	4
2	14
2	27
2	3
2	4
2	14
2	3
2	5
2	7
2	3
2	3
2	7
2	3
2	5
2	3
2	11
2	3
2	3
2	12
2	4
2	5
2	5
2	3
2	3
2	14
2	36
2	4
2	5
2	3
2	17
2	3
2	14
2	7
2	9
2	10
2	10
2	3
2	4
2	13
2	6
2	8
2	7
2	3
2	3
2	4
2	6
2	3
2	7
2	3
2	12
2	6
2	4
2	3
2	3
2	4
2	12
2	11
2	4
2	9
2	3
2	12
2	4
2	8
2	12
2	6
2	9
2	10
2	3
2	12
2	4
2	3
2	4
2	6
2	3
2	3
2	10
2	7
2	11
2	3
2	3
2	4
2	3
2	5
2	6
2	3
2	5
2	8
2	3
2	6
2	9
2	8
2	6
2	7
2	3
2	4
2	4
2	4
2	3
2	7
2	5
2	5
2	22
2	17
2	21
2	3
2	3
2	6
2	3
2	15
2	12
2	6
2	18
2	26
2	11
2	3
2	6
2	11
2	4
2	3
2	3
2	5
2	22
2	3
2	7
2	8
2	13
2	3
2	5
2	12
2	3
2	4
2	4
2	9
2	6
2	13
2	3
2	3
2	4
2	3
2	3
2	6
2	11
2	3
2	3
2	3
2	3
2	6
2	8
2	10
2	7
2	4
2	7
2	20
2	5
2	4
2	6
2	3
2	5
2	3
2	16
2	7
2	5
2	3
2	3
2	8
2	16
2	4
2	4
2	3
2	3
2	14
2	4
2	6
2	3
2	5
2	3
2	5
2	3
2	3
2	4
2	3
2	4
2	8
2	3
2	3
2	5
2	4
2	4
2	4
2	5
2	11
2	3
2	6
2	4
2	4
2	14
2	22
2	19
2	5
2	3
2	9
2	5
2	7
2	13
3	5
3	4
3	5
3	4
3	4
3	4
3	7
3	4
3	4
3	8
3	5
3	4
3	7
3	9
3	12
3	4
3	4
3	4
3	5
3	4
3	5
3	4
3	4
3	4
3	5
3	5
3	4
3	4
3	20
3	4
3	4
3	5
3	4
3	13
3	4
3	4
3	5
3	4
3	4
3	6
3	7
3	5
3	4
3	5
3	6
3	5
3	4
3	5
3	4
3	5
3	12
3	33
3	4
3	4
3	4
3	5
3	4
3	4
3	6
3	4
3	4
3	4
3	13
3	11
3	4
3	4
3	6
3	6
3	4
3	4
3	8
3	4
3	4
3	4
3	12
3	5
3	4
3	7
3	11
3	4
3	4
3	4
3	4
3	5
3	5
3	10
3	4
3	4
3	7
3	4
3	5
3	5
3	5
3	5
3	4
3	7
3	7
3	8
3	4
3	5
3	5
3	4
3	4
3	4
3	5
3	7
3	4
3	4
3	18
3	5
3	4
3	4
3	4
3	4
3	4
3	4
3	4
3	15
3	5
3	6
3	5
3	4
3	6
3	4
3	4
3	7
3	5
3	5
3	5
3	4
3	4
3	4
3	5
3	5
3	5
4	6
4	5
4	6
4	5
4	6
4	5
4	5
4	7
4	5
4	5
4	6
4	5
4	5
4	5
4	5
4	5
4	5
4	6
4	5
4	7
4	5
4	7
4	5
4	5
4	5
4	5
4	5
4	6
4	5
4	6
4	7
4	6
4	5
4	5
4	5
4	5
4	6
4	5
4	5
4	5
4	7
4	8
4	5
4	5
4	5
4	5
4	5
4	5
4	5
4	5
4	5
4	6
4	5
4	5
4	5
4	6
4	5
4	5
4	6
4	6
4	5
5	6
5	6
5	7
5	6
5	7
5	7
5	6
5	6
5	6
5	6
5	6
5	6
5	6
5	7
5	6
5	7
5	6
5	6
5	8
5	6
5	6
5	6
5	7
5	6
5	6
5	6
5	8
5	6
5	6
5	6
5	6
5	6
5	6
5	6
6	7
6	7
6	7
6	7
6	7
6	7
6	7
6	7
6	7
6	7
6	7
6	7
6	7
6	7
6	7
6	7
6	7
6	7
6	7
6	7
6	8
7	8
7	8
7	8
7	8
7	8
7	8
7	8
7	8
7	8
7	8
7	8
7	8
7	8
8	9
8	9
8	9
8	9
8	9
8	9
8	9
8	9
8	9
8	9
8	9
8	9
8	9
8	9
8	9
8	9
9	10
9	10
9	10
9	11
9	10
9	10
9	10
9	10
9	10
9	11
9	10
9	10
9	10
10	11
10	11
10	11
10	11
10	11
10	11
10	11
10	11
10	11
10	11
10	12
10	11
10	11
10	11
10	11
10	11
11	12
11	12
11	12
11	12
11	12
11	12
11	12
11	12
11	12
11	13
12	13
12	13
12	14
12	13
13	14
13	14
14	15
14	15
14	15
15	16
15	16
15	16
15	16
16	17
16	17
16	17
17	18
18	19
18	19
18	19
19	21
19	20
19	20
20	21
20	21
21	22
22	23
23	24
24	25
25	26
30	31
33	34
34	35
1359	1360
