5	6124
10	6124
10	6124
11	6124
12	6124
13	6124
14	6124
15	6124
16	6124
16	6124
16	6124
16	6124
17	6124
17	6124
17	6124
17	6124
18	6124
18	6124
18	6124
19	6124
19	6124
19	6124
19	6124
19	6124
19	6124
19	6124
20	6124
20	6124
20	6124
20	6124
20	6124
21	6124
21	6124
21	6124
22	6124
22	6124
22	6124
23	6124
23	6124
23	6124
24	6124
24	6124
25	6124
25	6124
26	6124
26	6124
27	6124
28	6124
29	6124
30	6124
30	6124
30	6124
32	6124
33	6124
34	6124
44	6124
46	6124
51	6124
59	6124
86	6124
86	6124
86	6124
86	6124
86	6124
87	6124
87	6124
87	6124
87	6124
87	6124
87	6124
87	6124
87	6124
88	6124
88	6124
88	6124
89	6124
89	6124
89	6124
90	6124
91	6124
93	6124
95	6124
96	6124
96	6124
96	6124
106	6124
126	6124
2587	6124
2587	6124
2587	6124
2587	6124
2587	6124
2587	6124
2587	6124
2587	6124
2587	6124
2587	6124
2587	6124
2587	6124
2587	6124
2587	6124
2587	6124
2587	6124
2587	6124
2587	6124
2587	6124
2587	6124
2587	6124
2587	6124
2587	6124
2587	6124
2587	6124
2587	6124
2587	6124
2587	6124
2587	6124
2587	6124
2587	6124
2587	6124
2587	6124
2587	6124
2587	6124
2587	6124
2587	6124
2587	6124
2587	6124
2587	6124
2587	6124
2587	6124
2587	6124
2587	6124
2587	6124
2587	6124
2587	6124
2587	6124
2587	6124
2587	6124
2587	6124
2587	6124
2587	6124
2587	6124
2587	6124
2587	6124
2587	6124
2587	6124
2587	6124
2587	6124
2588	6124
2588	6124
2588	6124
2588	6124
2588	6124
2588	6124
2588	6124
2588	6124
2588	6124
2588	6124
2588	6124
2588	6124
2588	6124
2588	6124
2588	6124
2588	6124
2588	6124
2588	6124
2588	6124
2588	6124
2588	6124
2588	6124
2588	6124
2588	6124
2588	6124
2588	6124
2588	6124
2588	6124
2589	6124
2589	6124
2589	6124
2589	6124
2589	6124
2589	6124
2589	6124
2589	6124
2589	6124
2589	6124
2589	6124
2589	6124
2589	6124
2589	6124
2590	6124
2590	6124
2590	6124
2590	6124
2590	6124
2590	6124
2591	6124
2591	6124
2591	6124
2591	6124
2591	6124
2591	6124
2591	6124
2591	6124
2592	6124
2592	6124
2592	6124
2592	6124
2592	6124
2592	6124
2593	6124
2593	6124
2593	6124
2594	6124
2594	6124
2594	6124
2594	6124
2594	6124
2595	6124
2595	6124
2596	6124
2596	6124
2596	6124
2597	6124
2597	6124
2597	6124
2597	6124
2598	6124
2599	6124
2602	6124
2603	6124
2604	6124
2604	6124
2607	6124
2611	6124
2627	6124
2669	6124
