1	6124
1	756
1	756
1	756
1	756
1	756
1	756
1	756
1	757
1	756
1	756
1	756
1	756
1	756
1	756
1	15
1	757
1	756
1	756
1	756
1	756
1	756
1	756
1	756
1	756
1	39
1	45
1	756
1	756
1	756
1	756
1	6124
1	757
1	19
1	21
1	757
1	756
1	756
1	756
1	756
1	760
1	756
1	756
1	14
1	756
1	756
1	10
1	7
1	14
1	13
1	765
1	756
1	756
1	14
1	756
1	756
1	756
1	756
1	756
1	756
1	756
1	756
1	11
1	756
1	756
1	756
1	14
1	756
1	9
1	12
1	756
1	756
1	756
1	756
1	756
1	11
1	757
1	756
1	756
1	756
1	10
1	756
1	11
1	756
1	756
1	13
1	756
1	756
1	756
1	756
1	756
1	756
1	756
1	756
1	13
1	756
1	756
1	10
1	756
1	756
1	756
1	756
1	756
1	757
1	15
1	756
1	756
1	756
1	756
1	756
1	756
1	756
1	756
1	756
1	756
1	756
1	756
1	756
1	756
1	756
1	756
1	756
1	756
1	756
1	16
1	756
1	756
1	756
1	756
1	756
1	756
1	756
1	8
1	756
1	756
1	756
1	756
1	756
1	20
1	756
1	756
1	757
1	16
1	756
1	756
1	39
1	10
1	756
1	13
1	15
1	756
1	757
1	6
1	756
1	756
1	13
1	756
1	756
1	6
1	756
1	756
1	14
1	756
1	756
1	8
1	756
1	4
1	756
1	8
1	756
1	756
1	756
1	756
1	756
1	756
1	756
1	760
1	756
1	756
1	756
1	756
1	10
1	756
1	756
1	9
1	756
1	756
1	11
1	756
1	757
1	756
1	756
1	757
1	756
1	756
1	14
1	756
1	756
1	756
1	756
1	756
1	10
1	756
1	10
1	756
1	756
1	12
1	756
1	756
1	8
1	756
1	15
1	756
1	756
1	756
1	44
1	756
1	19
1	756
1	756
1	7
1	20
1	759
1	756
1	756
1	756
1	756
1	756
1	756
1	756
1	757
1	756
1	756
1	38
1	756
1	756
1	756
1	757
1	756
1	756
1	756
1	756
1	8
1	756
1	756
1	756
1	756
1	756
1	756
1	757
1	8
1	6124
1	4
1	756
1	756
1	7
1	756
1	756
1	756
1	756
1	756
1	756
1	756
1	756
1	7
1	756
1	7
1	5
1	756
1	756
1	756
1	5
1	15
1	756
1	9
1	756
1	756
1	9
1	756
1	756
1	756
1	756
1	756
1	756
1	37
1	756
1	756
1	756
1	756
1	756
1	756
1	6124
1	756
1	756
1	756
1	20
1	756
1	756
1	756
1	21
1	756
1	20
1	756
1	43
1	756
1	756
1	756
1	759
1	756
1	756
1	9
1	756
1	756
1	11
1	756
1	756
1	756
1	756
1	756
1	756
1	756
1	756
1	756
1	756
1	756
1	6
1	756
1	756
1	756
1	756
1	756
1	756
1	756
1	756
1	756
1	756
1	756
1	756
1	12
1	756
1	756
1	756
1	8
1	6
1	757
1	10
1	756
1	21
1	756
1	756
1	756
1	756
1	757
1	756
1	756
1	756
1	756
1	756
1	7
1	756
1	756
1	756
1	756
1	756
1	756
1	9
1	756
1	756
1	756
1	756
1	756
1	756
1	756
1	756
1	3
1	20
1	756
1	756
1	756
1	756
1	756
1	11
1	756
1	756
1	756
1	756
1	756
1	756
1	756
1	756
1	756
1	756
1	756
1	756
1	10
1	16
1	6
1	756
1	756
1	756
1	756
1	6
1	756
1	22
1	756
1	756
1	756
1	756
1	756
1	15
1	756
1	45
1	756
1	7
1	756
1	756
1	756
1	756
1	756
1	756
1	9
1	756
1	756
1	756
1	756
1	756
1	756
1	756
1	756
1	756
1	756
1	756
1	15
1	756
1	757
1	756
1	756
1	756
1	756
1	756
1	9
1	756
1	756
1	756
1	756
1	756
1	756
1	756
1	756
1	756
1	756
1	9
1	756
1	756
1	756
1	38
1	756
1	756
1	756
1	756
1	756
1	37
1	756
1	756
1	756
1	756
1	756
1	757
1	37
1	44
1	15
1	756
1	756
1	756
1	756
1	37
1	756
1	757
1	756
1	756
1	756
1	756
1	756
1	756
1	756
1	756
1	8
1	756
1	756
1	756
1	756
1	756
1	8
1	37
1	756
1	756
1	756
1	8
1	756
1	42
1	756
1	756
1	756
1	756
1	756
1	756
1	42
1	756
1	757
1	756
1	756
1	756
1	756
1	756
1	11
1	756
1	756
1	756
1	756
1	756
1	756
1	756
1	6
1	9
1	756
1	756
1	756
1	756
1	756
1	756
1	756
1	756
1	756
1	3
1	756
1	9
1	756
1	756
1	7
1	5
1	756
1	756
1	756
1	756
1	756
1	756
1	756
1	37
1	756
1	756
1	756
1	10
1	756
1	756
1	756
1	756
1	756
1	756
1	756
1	756
1	756
1	756
1	756
1	756
1	37
1	756
1	756
1	756
1	756
1	756
1	9
1	756
1	756
1	756
1	37
1	756
1	756
1	756
1	756
1	756
1	756
1	756
1	756
1	756
1	756
1	756
1	756
1	757
1	756
1	756
1	756
1	756
1	756
1	756
1	756
1	7
1	5
1	756
1	756
1	756
1	756
1	756
1	756
1	756
1	756
1	756
1	756
1	756
1	15
1	756
1	756
1	756
1	756
1	756
1	756
1	14
1	8
1	756
1	756
1	756
1	756
1	756
1	756
1	756
1	756
1	756
1	756
1	44
1	756
1	11
1	756
1	756
1	756
1	756
1	756
1	756
1	756
1	9
1	756
1	756
1	756
1	756
1	756
1	6
1	756
1	756
1	756
1	756
1	756
1	756
1	756
1	8
1	9
1	756
1	757
1	756
1	757
1	756
1	756
1	756
1	20
1	13
1	756
1	756
1	756
1	756
1	756
1	756
1	756
1	756
1	756
1	9
1	10
1	756
1	756
1	756
1	756
1	756
1	756
1	756
1	5
1	756
1	756
1	756
1	756
1	756
1	756
1	757
1	756
1	756
1	756
1	756
1	756
1	756
1	756
1	9
1	756
1	756
1	756
1	756
1	7
1	756
1	756
1	7
1	756
1	756
1	5
1	756
1	6
1	756
1	756
1	756
1	756
1	756
1	756
1	756
1	756
1	15
1	756
1	20
1	756
1	756
1	756
1	756
1	756
1	756
1	13
1	756
1	756
1	42
1	756
1	756
1	756
1	756
1	11
1	756
1	756
1	756
1	756
1	37
1	756
1	756
1	756
1	756
1	756
1	5
1	42
1	756
1	756
1	756
1	756
1	756
1	756
1	756
1	756
1	756
1	756
1	7
1	756
1	756
1	4
1	756
1	756
1	756
1	756
1	756
1	756
1	756
1	756
1	756
1	756
1	756
1	5
1	756
1	756
1	756
1	756
1	756
1	756
1	5
1	756
1	756
1	756
1	756
1	756
1	756
1	756
1	6
1	756
1	756
1	756
1	756
1	20
1	756
1	756
1	756
1	756
1	756
1	756
1	756
1	756
1	756
1	7
1	37
1	6
1	756
1	756
1	756
1	756
1	7
1	756
1	756
1	756
1	756
1	756
1	756
1	8
1	756
1	756
1	756
2	38
2	38
2	757
2	757
2	8
2	6
2	43
2	15
2	38
2	3
2	3
2	7
2	6
2	4
2	3
2	3
2	43
2	43
2	3
2	3
2	10
2	11
2	12
2	6
2	3
2	757
2	8
2	3
2	9
2	4
2	43
2	3
2	3
2	38
2	3
2	3
2	6
2	3
2	3
2	9
2	6
2	4
2	3
2	3
2	43
2	3
2	4
2	43
2	9
2	3
2	11
2	4
2	3
2	3
2	10
2	3
2	3
2	3
2	6
2	8
2	3
2	4
2	3
2	15
2	12
2	8
2	3
2	757
2	43
2	3
2	8
2	43
2	43
2	43
2	43
2	8
2	3
2	8
2	3
2	3
2	44
2	3
2	15
2	10
2	4
2	3
2	7
2	3
2	8
2	4
2	43
2	3
2	4
2	4
2	4
2	4
2	4
2	8
2	7
2	3
2	3
2	3
2	14
2	43
2	11
2	3
2	43
2	3
2	3
2	7
2	4
2	6
2	4
2	9
2	3
2	4
2	43
2	3
2	3
2	14
2	43
2	38
2	43
2	3
2	11
2	10
2	3
3	7
3	7
3	5
3	4
3	10
3	5
3	4
3	4
3	5
3	4
3	7
3	4
3	9
3	6
3	7
3	6
3	5
3	10
3	6
3	4
3	8
3	4
3	4
3	6
3	4
3	10
3	6
3	11
3	4
3	5
3	6
4	5
4	5
4	6
4	5
4	6
4	5
4	7
4	5
4	5
4	5
4	5
4	6
4	5
4	5
4	5
4	5
4	9
4	5
4	5
5	6
5	8
5	8
5	6
5	7
5	6
5	6
5	6
5	6
5	7
5	6
5	6
6	7
6	7
6	8
6	7
6	8
6	7
6	7
6	7
6	7
6	7
6	7
7	8
7	8
7	10
7	8
7	8
8	9
8	9
8	9
9	10
9	10
9	11
10	12
10	11
11	12
12	13
13	14
14	15
19	20
36	37
41	42
755	756
