6	6124
8	6124
9	6124
10	6124
10	6124
11	6124
12	6124
12	6124
12	6124
13	6124
13	6124
13	6124
13	6124
13	6124
16	6124
16	6124
16	6124
16	6124
17	6124
17	6124
18	6124
18	6124
19	6124
20	6124
25	6124
225	6124
225	6124
225	6124
225	6124
225	6124
225	6124
225	6124
225	6124
225	6124
225	6124
225	6124
225	6124
225	6124
225	6124
225	6124
225	6124
225	6124
225	6124
225	6124
225	6124
225	6124
225	6124
225	6124
225	6124
225	6124
226	6124
226	6124
226	6124
226	6124
226	6124
226	6124
226	6124
227	6124
227	6124
227	6124
227	6124
227	6124
228	6124
228	6124
228	6124
228	6124
229	6124
230	6124
230	6124
232	6124
233	6124
233	6124
234	6124
241	6124
