1	6124
1	1041
1	1040
1	1040
1	1040
1	1040
1	1040
1	16
1	1040
1	1040
1	1040
1	1040
1	14
1	1040
1	1040
1	1040
1	1041
1	1040
1	1040
1	1040
1	1040
1	1040
1	1040
1	21
1	17
1	18
1	1040
1	1040
1	1040
1	23
1	1040
1	1040
1	1040
1	1040
1	1040
1	1040
1	19
1	1040
1	1040
1	1040
1	20
1	1040
1	1040
1	1040
1	1040
1	18
1	1040
1	1040
1	20
1	1040
1	13
1	13
1	1040
1	1040
1	1040
1	13
1	1040
1	1040
1	1040
1	1040
1	1040
1	13
1	17
1	1040
1	6124
1	1041
1	13
1	1043
1	13
1	1040
1	1040
1	1040
1	1041
1	17
1	1040
1	1040
1	12
1	1040
1	1040
1	1040
1	1041
1	10
1	27
1	1040
1	1040
1	1040
1	1040
1	9
1	10
1	1040
1	1040
1	1040
1	14
1	1040
1	1040
1	1040
1	1040
1	1040
1	1040
1	1040
1	1040
1	12
1	1040
1	1040
1	1040
1	13
1	22
1	1040
1	1040
1	1040
1	1040
1	1040
1	1040
1	1040
1	14
1	1040
1	1040
1	1040
1	1040
1	1040
1	1040
1	12
1	1040
1	1040
1	1040
1	1040
1	1040
1	1040
1	1040
1	1040
1	1040
1	13
1	18
1	1040
1	1040
1	1040
1	1040
1	9
1	1040
1	1040
1	22
1	1040
1	17
1	1040
1	1040
1	1040
1	13
1	1040
1	1040
1	1040
1	1040
1	1040
1	1040
1	1040
1	13
1	1040
1	1040
1	1040
1	1040
1	1040
1	1041
1	1040
1	16
1	1040
1	1040
1	1040
1	1042
1	16
1	12
1	1040
1	1040
1	1040
1	17
1	1040
1	1040
1	5
1	1040
1	1040
1	18
1	1040
1	11
1	10
1	1040
1	1040
1	5
1	1040
1	9
1	1040
1	9
1	9
1	1040
1	1040
1	1040
1	13
1	1040
1	18
1	1040
1	1040
1	1040
1	1041
1	1040
1	6124
1	1040
1	1040
1	1040
1	1040
1	1040
1	1040
1	1040
1	20
1	9
1	1040
1	1040
1	22
1	15
1	1040
1	1040
1	1040
1	1040
1	1040
1	1040
1	1040
1	13
1	1040
1	1040
1	1040
1	1040
1	1040
1	1040
1	17
1	16
1	1040
1	1040
1	1040
1	1040
1	5
1	1040
1	1040
1	1040
1	1040
1	1040
1	16
1	11
1	1040
1	1040
1	1040
1	1040
1	1040
1	15
1	1040
1	1040
1	1040
1	1040
1	15
1	1040
1	1040
1	1040
1	1040
1	1040
1	15
1	1040
1	5
1	1040
1	7
1	9
1	1040
1	20
1	1040
1	1040
1	1040
1	1040
1	1040
1	17
1	1040
1	1040
1	1040
1	1040
1	1040
1	1040
1	1040
1	1040
1	1040
1	1040
1	1040
1	1040
1	1040
1	1040
1	1040
1	1043
1	1040
1	13
1	1040
1	16
1	1040
1	1040
1	1040
1	1040
1	6124
1	15
1	1040
1	13
1	1040
1	1040
1	7
1	14
1	1040
1	13
1	1040
1	1040
1	1040
1	1040
1	8
1	1040
1	1040
1	8
1	13
1	1040
1	1040
1	5
1	1040
1	1040
1	12
1	1040
1	1040
1	1040
1	1040
1	1040
1	1040
1	1040
1	12
1	1040
1	1040
1	1040
1	1040
1	9
1	1040
1	1040
1	1040
1	1040
1	12
1	1040
1	1040
1	1040
1	1040
1	22
1	1040
1	1040
1	1040
1	15
1	1040
1	1040
1	12
1	1040
1	9
1	1040
1	12
1	12
1	1040
1	1040
1	1040
1	1040
1	16
1	7
1	1040
1	1040
1	1040
1	1040
1	16
1	1040
1	1040
1	1040
1	1040
1	1040
1	13
1	1041
1	1040
1	1040
1	1040
1	16
1	1040
1	8
1	1040
1	1040
1	1040
1	1040
1	9
1	1040
1	10
1	1040
1	1041
1	1040
1	1040
1	1040
1	1040
1	1040
1	1040
1	1040
1	15
1	1040
1	1040
1	1040
1	1040
1	1040
1	1040
1	7
1	1040
1	1040
1	14
1	1041
1	1040
1	1040
1	1041
1	1040
1	1040
1	1040
1	17
1	1040
1	1040
1	11
1	1040
1	1040
1	1040
1	1040
1	5
1	9
1	1040
1	7
1	1040
1	22
1	1040
1	1040
1	1040
1	1040
1	7
1	12
1	12
1	1040
1	1040
1	1040
1	1040
1	19
1	15
1	2
1	1040
1	1040
1	9
1	1040
1	9
1	1040
1	1041
1	6
1	1040
1	10
1	1040
1	1040
1	1040
1	1040
1	1040
1	1040
1	10
1	1041
1	11
1	1040
1	1040
1	1040
1	1040
1	1040
1	1040
1	1040
1	9
1	11
1	1040
1	12
1	1040
1	1040
1	1040
1	1041
1	1040
1	11
1	1040
1	7
1	1040
1	1040
1	1040
1	1040
1	11
1	1040
1	1040
1	1040
1	10
1	1040
1	1040
1	1040
1	13
1	1040
1	16
1	15
1	1040
1	1040
1	1040
1	16
1	1040
1	20
1	15
1	1040
1	1040
1	6
1	13
1	1040
1	1040
1	1040
1	1040
1	1040
1	10
1	1040
1	1040
1	10
1	8
1	1040
1	10
1	1040
1	1040
1	1040
1	7
1	1040
1	1040
1	7
1	13
1	1040
1	1041
1	1040
1	1041
1	1040
1	1040
1	1040
1	1040
1	1040
1	1040
1	1040
1	14
1	1040
1	1040
1	8
1	1041
1	1040
1	1040
1	1040
1	4
1	1040
1	22
1	1040
1	1040
1	1040
1	1040
1	22
1	1040
1	1040
1	1040
1	1040
1	16
1	20
1	5
1	1040
1	1044
1	1041
1	1040
1	1040
1	1040
1	10
1	1040
1	5
1	1040
1	1040
1	1040
1	16
1	9
1	1040
1	1040
1	5
1	1040
1	16
1	1040
1	13
1	9
1	1040
1	1040
1	1040
1	1040
1	6
1	7
1	12
1	1041
1	18
1	1040
1	1040
1	1040
1	1040
1	1040
1	1040
1	6
1	5
1	1040
1	1040
1	1040
1	1040
1	1040
1	1040
1	10
1	1041
1	1040
1	1040
1	13
1	1040
1	1040
1	4
1	1040
1	10
1	1040
1	1040
1	1040
1	1040
1	1040
1	1040
1	1040
1	1040
1	1040
1	1040
1	1040
1	1040
1	1040
1	7
1	1040
1	12
1	1040
1	1041
1	1040
1	1041
1	1040
1	1040
1	1040
1	1040
1	1040
1	1040
1	1040
1	1040
1	1040
1	1040
1	16
1	5
1	1040
1	8
1	8
1	1040
1	1040
1	1040
1	1040
1	1040
1	1040
1	1040
1	6124
1	1040
1	1040
1	1040
1	1040
1	15
1	1040
1	1040
1	1040
1	1040
1	1040
1	1040
1	1040
1	1040
1	1040
1	1040
1	1040
1	1040
1	1040
1	10
1	1040
1	1040
1	1040
1	9
1	1040
1	8
1	8
1	1040
1	5
1	1040
1	8
1	1040
1	1040
1	15
1	1040
1	1040
1	1040
1	10
1	1040
1	1040
1	4
1	1040
1	1040
1	10
1	1040
1	1040
1	1042
1	16
1	22
1	1040
1	1040
1	1040
1	2
1	1040
1	1040
1	9
1	1040
1	13
1	1040
1	12
1	1040
1	1040
1	1040
1	1040
1	1040
1	1040
1	1040
1	1040
1	1040
1	4
1	1040
1	1040
1	1040
1	1040
1	17
1	22
1	1040
1	1040
1	1040
1	1040
1	1041
1	1040
1	1040
1	1040
1	1040
1	1040
1	12
1	15
1	16
1	1040
1	1040
1	1040
1	1040
1	1040
1	1040
1	1040
1	1040
1	1040
1	6
1	1040
1	1040
1	1040
1	1040
1	1040
1	1040
1	1040
1	1040
1	1040
1	1040
1	9
1	1040
1	1040
1	1040
1	1040
1	1040
1	1041
1	1040
1	5
1	1040
1	1040
1	1040
1	1040
1	1040
1	1040
1	12
1	7
1	1040
1	1040
1	15
1	1040
1	1040
1	7
1	1041
1	1040
1	1040
1	1041
1	7
1	1040
1	1040
1	14
1	5
1	1040
1	1040
1	1040
1	1040
1	1040
1	1040
1	1040
1	1040
1	1040
1	17
1	10
1	1040
1	1040
1	1040
1	8
1	1040
1	17
1	1040
1	1040
1	1040
1	1040
1	1040
1	1040
1	1040
1	1040
1	22
1	22
1	1040
1	1040
1	1040
1	1040
1	1040
1	1040
1	12
1	1040
1	1040
1	21
1	1040
1	1040
1	1040
1	1040
1	1040
1	1040
1	1040
1	1040
1	1040
1	5
1	7
1	7
1	1040
1	1040
1	1040
1	1040
1	1040
1	7
1	20
1	1040
1	1040
1	1040
1	1040
1	1040
1	1040
1	1040
1	1040
1	1040
1	1040
1	8
1	1040
1	17
1	11
1	8
1	1040
1	1040
1	16
1	5
1	10
1	1040
1	1040
1	1040
1	4
1	14
1	16
1	1040
1	1040
1	1040
1	1040
1	1040
1	15
1	14
1	1040
1	1040
1	1040
1	1040
1	1040
1	2
1	16
1	1040
1	1040
1	1040
1	1040
1	1040
1	1041
1	20
1	1040
1	1040
1	1040
1	1040
1	1040
1	1040
1	1040
1	1040
1	1040
1	1040
1	1040
1	1040
1	1040
1	1040
1	1040
1	1040
1	1040
1	10
1	1040
1	8
1	1040
1	1040
1	1040
1	1040
1	1040
1	1040
1	1040
1	15
1	1040
1	1040
1	1040
1	1040
1	1040
1	8
1	10
1	9
1	1040
1	1040
1	1040
1	1040
1	1040
1	1040
1	1040
1	6
1	1040
1	1040
1	1040
1	1040
1	1040
1	1040
1	1040
1	1040
1	1040
1	1040
1	1040
1	1040
1	11
1	1040
1	1040
1	1040
1	1040
1	1040
1	1040
1	1040
1	1040
1	1040
1	1040
1	11
1	4
1	1040
1	16
1	1040
1	11
1	5
1	1040
1	1040
1	1040
1	1040
1	1040
1	1040
1	1040
1	1040
1	1040
1	1040
1	1040
1	10
1	1040
1	1040
1	1040
1	1040
1	1040
1	1040
1	11
1	16
1	11
1	6
1	1040
1	3
1	1040
1	9
1	10
1	1040
1	1040
1	1040
1	15
1	1040
1	22
1	1040
1	1040
1	1040
1	1040
1	1040
1	1040
1	1040
1	10
1	1040
1	1040
1	1040
1	14
1	6
1	1040
1	1040
1	1040
1	9
1	1040
1	1040
1	1041
1	20
1	1040
1	1040
1	1040
1	16
1	1040
1	16
1	20
1	1040
1	1040
1	1040
1	6
1	12
1	1040
1	1040
1	22
1	1041
1	1040
1	1040
1	16
1	1041
1	1040
1	1040
1	1040
1	8
1	1040
1	7
1	1040
1	1040
1	1040
1	1040
1	1040
1	12
1	9
1	1040
1	1040
1	1040
1	1040
1	1040
1	7
1	1040
1	1040
1	1040
1	16
1	12
1	1040
1	1040
1	1040
1	1040
1	1040
1	1040
1	7
1	1040
1	1040
1	6
1	1040
1	8
1	13
1	22
1	1040
1	13
1	1040
1	1040
1	1040
1	12
1	1040
1	16
1	1040
1	1040
1	1040
1	1040
1	1040
1	12
1	1040
1	6
1	1040
1	1040
1	11
1	1040
1	1040
1	8
1	1040
1	6
1	1040
1	1041
1	6
1	1040
1	6
2	1041
2	3
2	1041
2	13
2	3
2	1041
2	7
2	16
2	3
2	9
2	3
2	9
2	1041
2	3
2	3
2	11
2	8
2	8
2	8
2	3
2	4
2	16
2	11
2	4
2	14
2	3
2	3
2	7
2	1041
2	16
2	17
2	4
2	16
2	14
2	3
2	11
2	4
2	5
2	12
2	9
2	3
2	13
2	8
2	7
2	7
2	8
2	3
2	1041
2	11
2	8
2	3
2	8
2	3
2	3
2	6
2	8
2	12
2	6
2	3
2	6
2	12
2	4
2	4
2	5
2	13
2	10
2	8
2	3
2	6
2	3
2	16
2	10
2	4
2	8
2	16
2	4
2	8
2	13
2	7
2	8
2	3
2	3
2	5
2	3
2	10
2	16
2	4
2	4
2	3
2	15
2	6
2	4
2	3
2	1041
2	4
2	5
2	6
2	6
2	18
2	3
2	12
2	6
2	4
2	12
2	8
2	4
2	8
2	4
2	10
2	6
2	4
2	4
2	1041
2	7
2	7
2	8
2	8
2	9
2	3
2	8
2	7
2	6
2	3
2	8
2	11
2	9
2	4
2	6
2	4
2	9
2	4
2	3
2	9
2	4
2	11
2	7
2	8
2	9
2	3
2	3
2	8
2	7
2	8
2	21
2	21
2	3
2	3
2	6
2	4
2	3
2	3
2	8
2	5
2	10
2	3
2	3
2	4
2	8
2	4
2	7
2	6
2	6
2	10
2	3
2	3
2	3
2	8
2	3
2	9
2	9
2	4
2	8
2	1041
2	5
2	3
2	7
2	3
2	4
2	8
2	6
2	15
2	4
2	7
2	6
2	7
2	7
2	4
2	3
2	3
2	3
2	3
2	4
2	9
2	6
2	3
2	3
2	5
2	13
2	3
2	4
2	4
2	3
2	4
2	11
2	6
2	3
2	4
2	5
3	6
3	4
3	5
3	5
3	4
3	4
3	4
3	9
3	5
3	9
3	4
3	4
3	9
3	4
3	5
3	7
3	8
3	4
3	8
3	4
3	7
3	7
3	5
3	4
3	10
3	4
3	10
3	4
3	5
3	5
3	6
3	9
3	4
3	6
3	4
3	7
3	7
3	4
3	5
3	4
3	5
3	4
3	10
3	5
3	4
3	5
3	4
3	6
3	4
3	5
3	6
3	8
3	7
3	4
3	5
3	4
3	4
3	4
3	4
3	5
3	4
3	6
3	6
3	5
3	4
3	5
3	5
3	4
3	4
3	8
3	5
3	4
3	5
3	5
3	8
3	9
4	6
4	10
4	5
4	6
4	6
4	5
4	5
4	5
4	5
4	5
4	5
4	6
4	5
4	5
4	5
4	8
4	6
4	5
4	5
4	5
4	6
4	5
4	5
4	6
4	5
4	5
4	5
4	5
4	5
4	5
4	5
4	5
4	5
4	6
4	6
4	9
4	6
4	6
4	5
4	7
4	7
4	5
4	5
4	6
4	5
4	7
5	7
5	6
5	6
5	6
5	7
5	6
5	6
5	6
5	6
5	6
5	6
5	7
5	7
5	10
5	6
5	8
5	6
5	6
5	6
5	6
5	7
5	7
6	8
6	8
6	7
6	7
6	8
6	7
6	7
6	7
6	7
6	9
6	7
6	7
6	7
6	7
6	7
6	7
6	10
6	7
6	8
6	7
6	7
6	7
6	7
7	9
7	9
7	8
7	8
7	8
7	8
7	8
7	8
7	8
8	9
8	9
8	9
8	10
8	9
9	10
9	10
9	10
9	10
9	11
10	11
10	11
10	11
11	12
11	12
11	12
11	12
12	13
13	14
14	15
14	15
14	15
15	16
15	16
15	16
15	16
16	17
19	20
21	22
1039	1040
