1	6124
1	772
1	772
1	772
1	773
1	772
1	772
1	772
1	772
1	33
1	772
1	31
1	772
1	772
1	772
1	21
1	772
1	772
1	772
1	773
1	772
1	772
1	772
1	772
1	772
1	25
1	18
1	772
1	16
1	17
1	772
1	25
1	772
1	772
1	772
1	12
1	772
1	772
1	772
1	25
1	772
1	772
1	772
1	772
1	29
1	772
1	772
1	773
1	772
1	772
1	772
1	772
1	18
1	772
1	772
1	772
1	772
1	8
1	772
1	772
1	772
1	772
1	772
1	23
1	5
1	772
1	772
1	772
1	20
1	772
1	772
1	772
1	33
1	9
1	772
1	772
1	772
1	10
1	772
1	39
1	7
1	772
1	28
1	772
1	772
1	773
1	772
1	772
1	772
1	10
1	31
1	9
1	24
1	772
1	772
1	772
1	772
1	772
1	773
1	772
1	772
1	8
1	772
1	11
1	772
1	772
1	772
1	772
1	10
1	11
1	772
1	772
1	13
1	772
1	9
1	12
1	19
1	772
1	772
1	772
1	772
1	7
1	772
1	31
1	772
1	772
1	772
1	772
1	772
1	773
1	772
1	772
1	772
1	772
1	9
1	23
1	19
1	772
1	772
1	772
1	10
1	28
1	8
1	19
1	23
1	772
1	772
1	772
1	772
1	772
1	772
1	772
1	772
1	772
1	28
1	772
1	772
1	772
1	772
1	772
1	772
1	772
1	11
1	772
1	772
1	772
1	772
1	12
1	9
1	772
1	772
1	772
1	12
1	772
1	772
1	772
1	772
1	10
1	772
1	772
1	772
1	772
1	772
1	772
1	12
1	772
1	772
1	772
1	772
1	7
1	772
1	772
1	773
1	23
1	772
1	772
1	28
1	772
1	772
1	6
1	772
1	772
1	772
1	11
1	10
1	772
1	772
1	773
1	772
1	5
1	6
1	22
1	772
1	772
1	774
1	772
1	9
1	772
1	772
1	772
1	772
1	772
1	772
1	772
1	772
1	772
1	10
1	9
1	7
1	772
1	772
1	772
1	28
1	772
1	9
1	772
1	772
1	772
1	772
1	772
1	772
1	772
1	772
1	772
1	7
1	772
1	772
1	10
1	772
1	772
1	772
1	772
1	7
1	772
1	772
1	772
1	772
1	772
1	772
1	772
1	27
1	772
1	11
1	772
1	772
1	772
1	772
1	772
1	11
1	772
1	772
1	27
1	24
1	772
1	772
1	9
1	8
1	8
1	772
1	13
1	772
1	772
1	19
1	772
1	24
1	772
1	772
1	772
1	772
1	5
1	23
1	772
1	772
1	772
1	19
1	9
1	772
1	772
1	12
1	772
1	772
1	9
1	11
1	772
1	27
1	772
1	772
1	772
1	772
1	772
1	9
1	11
1	11
1	772
1	772
1	772
1	772
1	773
1	23
1	10
1	772
1	773
1	772
1	772
1	11
1	27
1	772
1	772
1	772
1	772
1	6
1	11
1	772
1	772
1	772
1	772
1	9
1	772
1	24
1	10
1	772
1	9
1	772
1	27
1	772
1	772
1	772
1	772
1	772
1	28
1	772
1	772
1	772
1	772
1	19
1	11
1	772
1	28
1	772
1	772
1	772
1	27
1	772
1	772
1	772
1	772
1	28
1	772
1	772
1	10
1	772
1	13
1	772
1	21
1	23
1	772
1	772
1	772
1	9
1	773
1	27
1	772
1	9
1	772
1	772
1	27
1	8
1	772
1	27
1	772
1	772
1	772
1	772
1	772
1	772
1	772
1	772
1	772
1	772
1	772
1	772
1	9
1	772
1	772
1	27
1	772
1	772
1	15
1	9
1	772
1	4
1	772
1	23
1	772
1	7
1	772
1	773
1	9
1	772
1	772
1	14
1	772
1	772
1	772
1	772
1	9
1	772
1	772
1	27
1	772
1	772
1	772
1	27
1	772
1	10
1	7
1	772
1	772
1	6
1	772
1	27
1	772
1	772
1	11
1	772
1	772
1	772
1	15
1	772
1	12
1	772
1	772
1	772
1	773
1	772
1	27
1	772
1	772
1	772
1	28
1	772
1	772
1	772
1	773
1	772
1	772
1	11
1	772
1	772
1	772
1	772
1	772
1	27
1	772
1	27
1	772
1	772
1	27
1	772
1	25
1	8
1	772
1	772
1	9
1	17
1	772
1	772
1	13
1	772
1	772
1	772
1	772
1	772
1	772
1	772
1	772
1	24
1	772
1	16
1	772
1	4
1	772
1	772
1	772
1	15
1	772
1	27
1	772
1	7
1	772
1	14
1	27
1	7
1	772
1	772
1	772
1	773
1	7
1	772
1	772
1	772
1	10
1	772
1	772
1	11
1	8
1	773
1	16
1	11
1	772
1	772
1	772
1	772
1	12
1	772
1	772
1	6
1	772
1	772
1	772
1	27
1	772
1	772
1	772
1	773
1	772
1	5
1	772
1	772
1	772
1	24
1	772
1	11
1	772
1	772
1	24
1	772
1	772
1	772
1	27
1	772
1	14
1	772
1	772
1	772
1	12
1	773
1	772
1	13
1	772
1	772
1	772
1	773
1	772
1	17
1	8
1	28
1	772
1	24
1	772
1	772
1	772
1	772
1	14
1	10
1	772
1	11
1	772
1	772
1	772
1	772
1	772
1	772
1	772
1	772
1	9
1	772
1	772
1	772
1	772
1	772
1	772
1	772
1	11
1	772
1	772
1	772
1	772
1	772
1	772
1	7
1	772
1	772
1	772
1	772
1	772
1	772
1	11
1	772
1	7
1	7
1	11
1	772
1	772
1	772
1	6
1	772
1	11
1	772
1	7
1	772
1	772
1	5
1	772
1	19
1	13
1	6
1	7
1	772
1	772
1	772
1	11
1	772
1	772
1	772
1	11
1	772
1	27
1	772
1	772
1	772
1	5
1	772
1	772
1	772
1	772
1	772
1	772
1	772
1	772
1	772
1	7
1	10
1	772
1	10
1	772
1	772
1	27
1	772
1	772
1	772
1	773
1	772
1	772
1	6
1	772
1	772
1	772
1	24
1	11
1	772
1	772
1	772
1	772
1	773
1	772
1	772
1	772
1	17
1	772
1	772
1	7
1	6
1	24
1	16
1	5
1	773
1	23
1	8
1	772
1	772
1	772
1	772
1	772
1	772
1	772
1	27
1	772
1	772
1	24
1	772
1	772
1	772
1	772
1	7
1	772
1	10
1	772
1	772
1	772
1	8
1	24
1	10
1	772
1	772
1	9
1	27
1	772
1	772
1	27
1	772
1	6124
1	11
1	772
1	772
1	6
1	7
1	772
1	772
1	24
1	23
1	772
1	772
1	6
1	773
1	773
1	772
1	772
1	12
1	773
1	772
1	772
1	772
1	772
1	20
1	23
1	10
1	4
1	8
1	5
1	772
1	772
1	772
1	772
1	9
1	773
1	772
1	772
1	772
1	772
1	772
1	772
1	772
1	10
1	10
1	772
1	772
1	772
1	772
1	772
1	772
1	772
1	772
1	772
1	9
1	773
1	772
1	772
1	772
1	8
1	6
1	772
1	772
1	772
1	772
1	19
1	11
1	772
1	772
1	10
1	772
1	772
1	24
1	7
1	772
1	5
1	5
1	772
1	772
1	772
1	772
1	772
1	772
1	772
1	8
1	10
1	772
1	8
1	772
1	772
1	772
1	8
1	12
1	772
1	772
1	772
1	772
1	773
1	772
1	772
1	772
1	773
1	772
1	772
1	27
1	772
1	6
1	772
1	772
1	772
1	772
1	772
1	772
1	28
1	772
1	772
1	772
1	772
1	5
1	772
1	772
1	7
1	27
1	772
1	14
1	772
1	772
1	772
1	772
1	4
1	772
1	9
1	772
1	2
1	772
1	27
1	7
1	772
1	772
1	27
1	772
1	772
1	772
1	6
1	772
1	27
1	772
1	772
1	772
1	772
1	772
1	772
1	772
1	772
1	8
1	772
1	772
1	772
1	772
1	772
1	772
1	772
1	7
1	19
1	5
1	772
1	23
1	772
1	7
1	772
1	773
1	772
1	772
1	24
1	772
1	772
1	9
1	772
1	772
1	6
1	11
1	772
1	6
1	772
1	772
1	27
1	772
1	772
1	773
1	772
1	23
1	772
1	772
1	772
1	772
1	772
1	772
1	772
1	772
1	772
1	27
1	772
1	27
1	5
1	772
1	772
1	24
1	772
1	772
1	772
1	772
1	772
1	24
1	772
1	772
1	772
1	772
1	772
1	7
1	5
1	772
1	772
1	772
1	27
1	27
1	772
1	772
1	772
1	772
1	772
1	11
1	772
2	14
2	3
2	7
2	10
2	7
2	7
2	3
2	6
2	4
2	3
2	3
2	6
2	3
2	8
2	773
2	20
2	773
2	7
2	11
2	8
2	4
2	773
2	3
2	3
2	3
2	3
2	5
2	3
2	3
2	5
2	7
2	773
2	5
2	4
2	3
2	8
2	3
2	9
2	3
2	6
2	3
2	14
2	3
2	3
2	8
2	4
2	5
2	3
2	6
2	4
2	14
2	12
2	8
2	3
2	3
2	4
2	3
2	28
2	9
2	5
2	12
2	3
2	3
2	3
2	3
2	5
2	6
2	3
2	3
2	5
2	3
2	3
2	3
2	3
2	17
2	4
2	3
2	18
2	4
2	6
2	7
2	3
2	12
2	3
2	4
2	14
2	3
2	11
2	11
2	7
2	5
2	3
2	6
2	24
2	25
2	3
2	9
2	7
2	9
2	7
2	3
2	5
2	3
2	4
2	6
2	4
2	3
2	8
2	14
2	4
2	5
2	3
2	3
2	7
2	4
2	6
2	14
2	6
2	3
2	3
2	4
2	3
2	10
2	4
2	4
2	3
2	4
2	3
2	4
2	7
2	3
2	3
2	14
2	3
2	6
2	3
2	5
2	4
2	4
2	4
2	3
2	3
2	3
2	6
2	3
2	3
2	3
2	3
2	6
2	14
2	5
2	14
2	6
2	3
2	7
2	5
2	3
2	7
2	7
2	7
2	3
2	4
2	8
2	8
2	4
2	6
2	4
2	3
2	4
2	3
2	4
2	7
2	4
2	4
2	4
2	17
2	5
2	4
2	3
2	5
2	6
2	3
2	4
2	8
2	8
3	4
3	8
3	5
3	5
3	4
3	4
3	5
3	4
3	5
3	4
3	4
3	5
3	4
3	4
3	4
3	5
3	5
3	4
3	4
3	5
3	5
3	4
3	6
3	5
3	4
3	4
3	5
3	4
3	5
3	6
3	4
3	5
3	4
3	4
3	4
3	6
3	6
3	7
3	5
3	4
3	4
3	5
3	4
3	4
4	5
4	6
4	6
4	5
4	6
4	5
4	5
4	5
4	5
4	5
4	5
4	5
4	5
4	6
4	5
4	5
4	7
4	6
4	6
4	5
4	5
4	5
4	5
4	5
4	5
4	5
4	5
4	5
4	5
4	5
4	6
4	5
5	8
5	6
5	6
5	7
5	6
5	6
5	6
5	6
5	6
5	7
5	6
5	6
5	6
5	6
5	6
5	6
5	9
6	7
6	7
6	7
6	7
6	8
6	7
6	7
6	7
6	7
6	7
6	8
7	8
7	8
7	8
7	8
8	9
8	9
8	9
8	9
9	10
9	10
9	10
10	11
10	11
10	11
10	11
12	13
13	14
15	16
18	19
22	23
23	24
26	27
26	27
26	27
771	772
