1	6124
1	1009
1	1007
1	1007
1	1007
1	1009
1	1008
1	1007
1	1007
1	1007
1	1007
1	1007
1	1007
1	24
1	10
1	1007
1	1008
1	1007
1	10
1	1008
1	1007
1	1007
1	13
1	1007
1	1007
1	1007
1	1007
1	15
1	1007
1	12
1	1007
1	10
1	1007
1	12
1	1007
1	1007
1	1007
1	20
1	1007
1	1007
1	1007
1	1007
1	1007
1	10
1	19
1	1007
1	12
1	1009
1	1007
1	9
1	1007
1	18
1	8
1	1007
1	1007
1	8
1	1009
1	1007
1	1007
1	1007
1	1007
1	1007
1	1007
1	1007
1	1007
1	1007
1	1007
1	1007
1	12
1	12
1	1007
1	1007
1	1007
1	1007
1	1007
1	1008
1	1007
1	1007
1	1007
1	1007
1	1007
1	1008
1	7
1	1007
1	1007
1	9
1	1007
1	17
1	1007
1	13
1	1007
1	1007
1	1007
1	1007
1	1007
1	15
1	17
1	1007
1	1007
1	1007
1	9
1	21
1	1007
1	12
1	1007
1	10
1	5
1	1007
1	1007
1	7
1	1007
1	1007
1	1007
1	1007
1	1007
1	1007
1	1007
1	1007
1	1007
1	1007
1	1007
1	20
1	24
1	1007
1	1007
1	1007
1	1007
1	1007
1	1007
1	1007
1	18
1	1007
1	10
1	1007
1	13
1	1007
1	1007
1	1007
1	1009
1	1007
1	1007
1	1007
1	1007
1	22
1	1007
1	1007
1	8
1	1007
1	1007
1	1007
1	1007
1	1007
1	1007
1	1007
1	1007
1	12
1	1007
1	1007
1	1007
1	7
1	1007
1	9
1	1007
1	1007
1	1007
1	4
1	1007
1	1007
1	1007
1	17
1	1007
1	1007
1	18
1	1007
1	1007
1	1007
1	8
1	1008
1	1007
1	1007
1	12
1	1007
1	1007
1	1007
1	1007
1	1007
1	1007
1	1007
1	1008
1	1007
1	1007
1	1007
1	1007
1	1007
1	1009
1	1007
1	1007
1	1007
1	1007
1	1007
1	1007
1	1007
1	1007
1	1007
1	1007
1	1007
1	1007
1	11
1	1007
1	4
1	1007
1	1007
1	14
1	1007
1	1007
1	1007
1	1007
1	1007
1	1007
1	1007
1	1007
1	1007
1	1007
1	1007
1	1007
1	1007
1	15
1	12
1	12
1	1009
1	1007
1	1007
1	1007
1	1007
1	1007
1	1007
1	1007
1	1007
1	20
1	19
1	1007
1	1007
1	1007
1	11
1	1009
1	1007
1	1007
1	1007
1	1007
1	1007
1	17
1	1007
1	1007
1	8
1	4
1	1007
1	1007
1	1007
1	13
1	1007
1	1007
1	1007
1	1008
1	1007
1	11
1	1007
1	1007
1	1007
1	1007
1	1007
1	1007
1	1009
1	12
1	1007
1	1007
1	1007
1	17
1	23
1	1007
1	1007
1	17
1	8
1	1007
1	23
1	11
1	1007
1	1007
1	1007
1	1007
1	1007
1	1007
1	1007
1	1007
1	1007
1	1007
1	1007
1	9
1	1008
1	1007
1	1008
1	1007
1	21
1	1007
1	1007
1	1007
1	1007
1	1007
1	1007
1	1007
1	1007
1	1007
1	1007
1	1007
1	1007
1	9
1	1007
1	1007
1	1007
1	1007
1	1007
1	1007
1	13
1	1007
1	1007
1	1007
1	1007
1	1007
1	1007
1	1007
1	1007
1	8
1	1007
1	1007
1	1007
1	11
1	1007
1	1007
1	1007
1	1007
1	1007
1	1007
1	1007
1	8
1	1007
1	1007
1	1007
1	17
1	10
1	1007
1	1007
1	12
1	1007
1	1007
1	1007
1	1007
1	1007
1	1007
1	10
1	1007
1	1007
1	1007
1	1007
1	1007
1	7
1	1007
1	1007
1	1007
1	1007
1	1007
1	1007
1	1007
1	1007
1	19
1	1007
1	1007
1	1007
1	1007
1	1007
1	1007
1	1007
1	1007
1	1007
1	1007
1	1007
1	1007
1	9
1	1007
1	1007
1	1007
1	1007
1	1007
1	1007
1	1008
1	6124
1	5
1	1007
1	1007
1	1007
1	1007
1	1007
1	1008
1	1007
1	1007
1	1007
1	12
1	1007
1	1007
1	1007
1	1007
1	1007
1	1007
1	6124
1	1007
1	1007
1	1007
1	1007
1	1007
1	1007
1	7
1	1007
1	1007
1	1007
1	1008
1	13
1	1007
1	17
1	8
1	8
1	1007
1	1007
1	1007
1	11
1	1007
1	1007
1	1007
1	1007
1	1007
1	9
1	1007
1	1007
1	8
1	1007
1	1007
1	1007
1	13
1	1007
1	1007
1	1007
1	9
1	1007
1	1007
1	1007
1	8
1	1007
1	1008
1	1007
1	6
1	1007
1	1007
1	1007
1	1007
1	1007
1	8
1	1007
1	10
1	12
1	1007
1	1008
1	1007
1	8
1	1007
1	9
1	1007
1	10
1	1007
1	1007
1	1007
1	1007
1	1008
1	1007
1	1007
1	7
1	1007
1	1007
1	1007
1	1007
1	1008
1	1007
1	1007
1	1007
1	1007
1	1007
1	1007
1	1007
1	1007
1	1007
1	9
1	1007
1	1007
1	1007
1	1007
1	1007
1	1007
1	6
1	1007
1	20
1	8
1	11
1	1007
1	17
1	8
1	1007
1	1007
1	1007
1	1007
1	10
1	1007
1	1007
1	1007
1	1007
1	1007
1	1008
1	1007
1	6
1	1007
1	21
1	1007
1	1007
1	1007
1	1007
1	1007
1	1007
1	1007
1	1007
1	1007
1	8
1	11
1	17
1	1007
1	8
1	1007
1	1007
1	1010
1	8
1	1007
1	1007
1	1007
1	1007
1	1007
1	1007
1	1007
1	1007
1	1007
1	1007
1	1007
1	1007
1	1007
1	1007
1	1007
1	1007
1	14
1	5
1	1007
1	1007
1	1008
1	5
1	6
1	1007
1	1007
1	6
1	1007
1	1007
1	1007
1	1007
1	4
1	1007
1	1007
1	1007
1	1007
1	1007
1	1007
1	1007
1	8
1	1007
1	1007
1	1007
1	1007
1	1007
1	1007
1	1007
1	10
1	1007
1	1007
1	1007
1	1007
1	1007
1	1007
1	1007
1	1007
1	9
1	1007
1	1007
1	1007
1	1007
1	1007
1	1007
1	1007
1	1007
1	10
1	1007
1	1007
1	1007
1	1007
1	1007
1	1007
1	1007
1	1007
1	1007
1	1007
1	1007
1	1007
1	23
1	1007
1	1007
1	1007
1	8
1	1007
1	1007
1	11
1	1008
1	1007
1	1007
1	7
1	6
1	1007
1	1007
1	1007
1	1007
1	1007
1	1007
1	1007
1	1007
1	1007
1	14
1	4
1	1007
1	1007
1	1007
1	1007
1	1007
1	1007
1	1009
1	1007
1	1007
1	11
1	10
1	9
1	1007
1	5
1	1007
1	1007
1	1007
1	1007
1	1007
1	1007
1	1007
1	1007
1	1007
1	1007
1	8
1	1007
1	1007
1	1007
1	1007
1	1007
1	10
1	1007
1	1007
1	23
1	19
1	17
1	7
1	1007
1	1007
1	1007
1	23
1	1007
1	1007
1	1007
1	1007
1	17
1	23
1	1007
1	1007
1	14
1	12
1	1007
1	1007
1	1007
1	1007
1	1007
1	1007
1	20
1	1007
1	1007
1	1007
1	1007
1	1007
1	1007
1	1007
1	1007
1	8
1	1007
1	10
1	1007
1	1007
1	1007
1	1007
1	1007
1	1007
1	1007
1	1007
1	1007
1	1007
1	8
1	1007
1	1007
1	8
1	10
1	1007
1	1007
1	12
1	1007
1	9
1	1007
1	1007
1	1007
1	1007
1	1007
1	7
1	1007
1	1007
1	11
1	9
1	5
1	1007
1	1007
1	1007
1	4
1	1007
1	1007
1	1007
1	1007
1	1007
1	1007
1	1007
1	1007
1	1007
1	8
1	7
1	6
1	1007
1	7
1	9
1	1007
1	1007
1	1007
1	1007
1	1007
1	1007
1	14
1	7
1	13
1	11
1	1007
1	1007
1	8
1	1007
1	1007
1	1007
1	9
1	1007
1	1007
1	1007
1	11
1	8
1	1007
1	19
1	1007
1	1007
1	1007
1	1007
1	1007
1	1007
1	1007
1	1007
1	11
1	1007
1	1007
1	1007
1	23
1	1007
1	1007
1	1007
1	1007
1	1007
1	1007
1	1007
1	1007
1	1007
1	1007
1	1007
1	1007
1	1007
1	2
1	1007
1	1007
1	1008
1	20
1	1007
1	1007
1	1007
1	1007
1	1007
1	16
1	1007
1	1007
1	6
1	17
1	14
1	4
1	1007
1	1007
1	1007
1	1007
1	1007
1	7
1	1007
1	1007
1	1007
1	6
1	1007
1	1007
1	1007
1	1007
1	1007
1	1007
1	1007
1	1007
1	1007
1	1007
1	1007
1	1007
1	1007
1	1007
1	1007
1	1007
1	1007
1	1007
1	1007
1	1007
1	8
1	1007
1	1008
1	1008
1	19
1	12
1	8
1	1007
1	1007
1	1007
1	6
1	1007
1	1007
1	1007
1	1007
1	14
1	1007
1	1007
1	9
1	11
1	1007
1	1007
1	1007
1	1007
1	1007
1	1007
1	1007
1	1008
1	6
1	1007
1	1007
1	20
1	1007
1	1007
1	1007
1	1007
1	1007
1	1007
1	1007
1	1007
1	1007
1	1007
1	11
1	1007
1	1007
1	1007
1	1007
1	1007
1	1007
1	1007
1	1007
1	1007
1	4
1	1007
1	10
1	1007
1	5
1	1007
1	1007
1	7
1	1007
1	1007
1	1007
1	1007
1	13
1	1007
1	1007
1	1007
1	1007
1	1007
1	17
1	1007
1	1007
1	1007
1	1007
1	1007
1	1007
1	1007
1	1007
1	1007
1	23
1	5
1	1007
1	8
1	1007
1	1007
1	1007
1	7
1	1007
1	1007
1	1007
1	1007
1	14
1	1007
1	1008
1	1007
1	1007
1	7
1	1007
1	1007
1	1007
1	5
1	1007
1	1007
1	1007
1	1007
1	1007
1	1007
1	1007
1	1007
1	12
1	1007
1	1007
1	1007
1	1007
1	1007
1	1007
1	1007
1	1007
1	1007
1	1007
1	1007
1	1007
1	11
1	1007
1	1007
1	1007
1	5
1	1007
1	1007
1	1007
1	1007
1	1007
1	1007
1	10
1	10
1	1007
1	1007
1	1007
1	1007
1	1007
1	1007
1	5
1	1007
1	1007
1	1007
1	12
1	1007
1	6
1	1007
1	17
1	1007
1	1007
1	6
1	1007
1	1007
1	1008
1	5
1	1007
1	8
1	5
1	1007
1	1007
1	1007
1	10
1	1007
1	1007
1	20
1	17
1	1007
1	1007
1	1007
1	20
1	1007
1	1007
1	1007
1	1007
1	1007
1	10
1	1007
1	1007
1	6
1	1007
1	1007
1	4
1	7
1	1007
1	1007
1	1007
1	1007
1	1007
1	1007
1	2
1	1007
1	1008
1	8
1	1007
1	1007
1	1007
1	1007
1	19
1	1007
1	1007
1	1007
1	1007
1	1007
1	1007
1	1007
1	1007
1	1007
1	1007
1	1007
1	1007
1	1007
1	1007
1	1007
1	8
1	1007
1	1007
1	20
1	1007
1	1007
1	1007
1	11
1	1007
1	1007
1	1007
1	1007
1	8
1	1007
1	1007
1	1007
1	1007
1	7
1	4
1	1007
1	1007
1	11
1	1007
1	1007
1	1007
1	19
1	1007
1	1007
1	1007
1	1007
1	1007
1	1007
1	1007
1	23
1	1007
1	9
1	1007
1	11
1	1007
1	1007
1	1007
1	1007
1	1007
1	1007
1	1007
1	1007
1	1007
1	1007
1	1007
1	1007
1	8
1	1007
1	1007
1	5
1	1007
1	1007
1	8
1	6
1	1007
1	1007
1	1007
1	1007
1	1007
1	1007
1	11
1	1007
1	1007
1	1007
1	1007
1	1008
1	18
1	17
1	1007
1	1007
1	11
1	1007
1	5
1	1007
1	9
1	1007
1	1007
1	1007
1	1007
1	8
1	1007
1	1007
1	1007
1	1007
1	1008
1	1007
1	1007
1	1007
1	1007
1	1007
1	1007
1	1007
1	1007
1	1007
1	1007
1	1007
1	1007
1	1007
1	1007
1	1007
1	6
1	1007
1	19
1	1007
1	1007
1	1007
1	1007
1	6
1	1007
1	1007
1	1007
1	1007
1	1007
1	1007
1	5
1	1007
1	1007
1	1007
1	1007
1	1007
1	1007
1	1008
1	1007
1	1007
1	1007
1	12
1	1007
1	6
1	1007
1	1007
2	7
2	3
2	3
2	3
2	3
2	7
2	3
2	4
2	3
2	3
2	11
2	3
2	3
2	5
2	7
2	3
2	6
2	3
2	3
2	3
2	20
2	18
2	3
2	8
2	3
2	1008
2	3
2	6
2	3
2	5
2	5
2	9
2	3
2	3
2	3
2	4
2	5
2	11
2	3
2	3
2	7
2	4
2	3
2	3
2	4
2	3
2	7
2	3
2	5
2	3
2	3
2	3
2	12
2	3
2	3
2	3
2	3
2	5
2	3
2	9
2	5
2	3
2	3
2	11
2	3
2	9
2	3
2	4
2	4
2	5
2	3
2	4
2	7
2	20
2	3
2	3
2	7
2	6
2	3
2	6
2	3
2	1008
2	9
2	4
2	7
2	8
2	6
2	3
2	8
2	1008
2	7
2	3
2	6
2	5
2	15
2	3
2	3
2	5
2	6
2	4
2	5
2	3
2	4
2	7
2	9
2	10
2	3
2	3
2	11
2	5
2	3
2	5
2	4
2	3
2	7
2	7
2	3
2	4
2	4
2	5
2	4
2	8
2	6
2	3
2	4
2	3
2	4
3	4
3	5
3	4
3	4
3	4
3	5
3	4
3	4
3	8
3	4
3	4
3	4
3	4
3	4
3	4
3	5
3	8
3	8
3	4
3	4
3	4
3	4
3	4
3	5
3	4
3	6
3	4
3	4
3	4
3	4
3	4
3	4
3	5
3	4
3	6
3	4
3	4
3	5
3	4
3	4
3	5
3	5
3	4
3	4
3	4
3	4
3	4
3	5
3	4
3	5
3	6
3	4
3	4
4	5
4	5
4	5
4	5
4	5
4	5
4	6
4	7
4	5
4	5
4	5
4	5
4	5
4	5
4	5
4	7
4	6
4	6
4	5
4	6
4	5
4	5
4	5
4	5
4	5
4	5
5	6
5	6
5	6
5	6
5	6
5	6
5	6
5	6
5	6
5	6
5	6
5	6
5	6
5	6
5	6
5	6
6	7
6	7
6	7
6	7
6	8
6	7
6	7
6	7
6	7
6	7
7	8
7	8
7	8
7	8
7	8
7	8
7	8
8	9
8	9
9	10
9	10
9	10
10	11
10	11
10	11
10	11
10	11
13	14
16	17
16	17
18	19
19	20
22	23
1006	1007
