1	6124
1	598
1	597
1	597
1	597
1	597
1	597
1	597
1	597
1	597
1	597
1	597
1	598
1	597
1	597
1	597
1	597
1	597
1	597
1	597
1	597
1	597
1	598
1	18
1	597
1	597
1	597
1	597
1	597
1	597
1	597
1	597
1	597
1	597
1	597
1	597
1	598
1	19
1	597
1	597
1	597
1	597
1	597
1	597
1	12
1	599
1	597
1	597
1	13
1	597
1	597
1	597
1	597
1	597
1	19
1	597
1	6124
1	597
1	12
1	11
1	9
1	597
1	597
1	9
1	597
1	597
1	604
1	597
1	597
1	597
1	597
1	598
1	597
1	597
1	597
1	597
1	597
1	597
1	597
1	597
1	597
1	597
1	597
1	597
1	597
1	597
1	597
1	600
1	597
1	597
1	597
1	597
1	597
1	597
1	597
1	597
1	597
1	598
1	598
1	598
1	597
1	597
1	597
1	597
1	597
1	597
1	597
1	597
1	597
1	597
1	597
1	597
1	597
1	597
1	597
1	597
1	597
1	10
1	597
1	15
1	597
1	597
1	597
1	14
1	16
1	598
1	8
1	597
1	597
1	597
1	597
1	597
1	597
1	597
1	597
1	597
1	597
1	597
1	597
1	15
1	12
1	597
1	13
1	597
1	597
1	597
1	597
1	597
1	11
1	597
1	597
1	597
1	4
1	597
1	597
1	598
1	597
1	12
1	597
1	597
1	597
1	597
1	13
1	597
1	597
1	597
1	597
1	597
1	597
1	597
1	597
1	597
1	597
1	597
1	597
1	9
1	597
1	597
1	15
1	597
1	597
1	13
1	597
1	597
1	597
1	597
1	597
1	601
1	10
1	597
1	597
1	597
1	597
1	597
1	600
1	597
1	5
1	597
1	597
1	597
1	597
1	597
1	597
1	597
1	597
1	597
1	597
1	597
1	597
1	13
1	597
1	597
1	597
1	597
1	11
1	597
1	9
1	597
1	597
1	597
1	597
1	597
1	597
1	597
1	597
1	597
1	597
1	597
1	597
1	597
1	597
1	597
1	597
1	597
1	597
1	597
1	597
1	597
1	597
1	6
1	597
1	598
1	597
1	597
1	597
1	597
1	597
1	597
1	597
1	597
1	597
1	597
1	597
1	597
1	597
1	597
1	597
1	597
1	597
1	597
1	597
1	597
1	597
1	597
1	597
1	9
1	597
1	5
1	597
1	597
1	597
1	597
1	11
1	597
1	597
1	597
1	17
1	597
1	597
1	597
1	597
1	13
1	597
1	13
1	5
1	599
1	597
1	597
1	597
1	597
1	14
1	597
1	597
1	597
1	597
1	597
1	597
1	597
1	597
1	9
1	597
1	597
1	597
1	15
1	597
1	597
1	597
1	597
1	11
1	18
1	11
1	597
1	8
1	597
1	597
1	10
1	597
1	11
1	597
1	8
1	6
1	597
1	597
1	597
1	597
1	597
1	597
1	597
1	597
1	598
1	597
1	598
1	8
1	597
1	597
1	17
1	597
1	597
1	597
1	597
1	597
1	597
1	597
1	597
1	597
1	597
1	597
1	599
1	597
1	597
1	597
1	597
1	597
1	597
1	597
1	597
1	597
1	597
1	13
1	597
1	597
1	597
1	597
1	597
1	597
1	597
1	597
1	597
1	17
1	597
1	597
1	597
1	597
1	597
1	597
1	597
1	12
1	597
1	597
1	597
1	597
1	597
1	597
1	597
1	597
1	598
1	8
1	597
1	597
1	597
1	597
1	597
1	597
1	598
1	597
1	11
1	598
1	597
1	597
1	597
1	597
1	597
1	17
1	597
1	597
1	597
1	598
1	597
1	597
1	597
1	597
1	5
1	6
1	10
1	17
1	597
1	9
1	597
1	597
1	597
1	597
1	597
1	8
1	597
1	597
1	597
1	597
1	597
1	597
1	597
1	597
1	597
1	597
1	597
1	6
1	597
1	597
1	597
1	13
1	597
1	597
1	5
1	597
1	2
1	10
1	597
1	597
1	597
1	597
1	597
1	597
1	6
1	597
1	6
1	597
1	597
1	8
1	12
1	597
1	597
1	11
1	11
1	597
1	597
1	597
1	597
1	597
1	597
1	597
1	9
1	597
1	597
1	597
1	597
1	597
1	597
1	597
1	597
1	597
1	597
1	11
1	597
1	597
1	13
1	10
1	597
1	9
1	8
1	597
1	597
1	597
1	597
1	597
1	597
1	597
1	597
1	597
1	597
1	597
1	597
1	597
1	597
1	597
1	597
1	13
1	597
1	597
1	597
1	597
1	597
1	597
1	597
1	597
1	5
1	597
1	597
1	597
1	12
1	597
1	597
1	597
1	597
1	597
1	598
1	8
1	10
1	597
1	10
1	597
1	597
1	9
1	597
1	12
1	597
1	17
1	597
1	5
1	597
1	597
1	597
1	9
1	7
1	597
1	597
1	597
1	597
1	597
1	9
1	597
1	597
1	597
1	597
1	597
1	597
1	5
1	597
1	597
1	597
1	5
1	17
1	13
1	8
1	597
1	597
1	597
1	597
1	10
1	597
1	597
1	597
1	597
1	597
1	597
1	597
1	597
1	597
1	597
1	597
1	597
1	597
1	597
1	12
1	597
1	597
1	597
1	597
1	10
1	13
1	597
1	597
1	597
1	597
1	597
1	597
1	597
1	12
1	597
1	597
1	597
1	597
1	597
1	597
1	597
1	597
1	597
1	597
1	597
1	13
1	597
1	597
1	597
1	597
1	597
1	597
1	9
1	597
1	597
1	597
1	597
1	597
1	597
1	597
1	4
1	597
1	597
1	6
1	597
1	597
1	10
1	597
1	597
1	13
1	597
1	597
1	597
1	597
1	597
1	597
1	597
1	597
1	597
1	597
1	597
1	597
1	597
1	597
1	597
1	597
1	597
1	597
1	597
1	597
1	11
1	598
1	597
1	597
1	597
1	8
1	597
1	597
1	5
1	597
1	598
1	597
1	597
1	9
1	597
1	5
1	7
1	597
1	5
1	597
1	13
1	597
1	4
1	597
1	597
2	3
2	3
2	598
2	10
2	3
2	3
2	3
2	3
2	3
2	10
2	3
2	3
2	6
2	6
2	3
2	3
2	3
2	3
2	11
2	6
2	6
2	598
2	5
2	3
2	8
2	8
2	11
2	598
2	7
2	4
2	11
2	6
2	3
2	3
2	3
2	4
2	7
2	3
2	4
2	3
2	4
2	4
2	7
2	5
2	3
2	3
2	8
2	6
2	10
2	4
2	3
2	3
2	6
2	3
2	4
2	3
2	3
2	7
2	4
2	3
2	4
2	3
2	4
2	11
2	3
2	4
2	4
2	7
2	3
3	4
3	5
3	5
3	5
3	4
3	5
3	4
3	5
3	5
3	5
3	5
3	4
3	4
3	4
3	4
4	10
4	8
4	5
4	5
4	5
4	5
4	5
4	5
4	6
4	5
4	5
4	6
4	5
4	5
4	5
5	6
5	6
5	6
5	6
5	6
5	7
5	7
6	7
6	7
6	7
7	8
7	8
8	9
8	9
8	9
8	9
8	9
9	10
9	10
9	10
9	10
10	11
11	12
12	13
12	13
16	17
596	597
