1	6124
1	2601
1	2601
1	2601
1	2601
1	2601
1	2601
1	2601
1	2601
1	2601
1	2601
1	2601
1	2601
1	2601
1	2602
1	15
1	2601
1	2601
1	2601
1	2601
1	2601
1	2601
1	2601
1	2601
1	2601
1	2601
1	2601
1	2601
1	2601
1	2601
1	2601
1	14
1	2601
1	2601
1	2601
1	2601
1	16
1	2601
1	2601
1	2601
1	2601
1	2601
1	2601
1	2601
1	2601
1	2601
1	2601
1	2601
1	2601
1	2601
1	2601
1	2601
1	2601
1	2601
1	2601
1	14
1	2601
1	16
1	2601
1	2601
1	2601
1	2601
1	2601
1	2601
1	2601
1	26
1	2601
1	2601
1	2601
1	2601
1	2601
1	2602
1	2601
1	2601
1	19
1	12
1	21
1	2601
1	2601
1	2601
1	2601
1	12
1	2601
1	2601
1	2601
1	2601
1	2601
1	11
1	2601
1	2601
1	2601
1	2601
1	2601
1	2601
1	18
1	2601
1	2601
1	2601
1	2601
1	2601
1	2601
1	2601
1	2601
1	2601
1	2601
1	2601
1	2601
1	2601
1	2601
1	2601
1	2601
1	2601
1	2601
1	2601
1	2601
1	2601
1	2601
1	2601
1	2601
1	2601
1	2601
1	2601
1	2601
1	2601
1	2603
1	2601
1	2601
1	2601
1	2601
1	2601
1	2601
1	2601
1	2601
1	2601
1	2601
1	2601
1	2601
1	2601
1	11
1	2605
1	16
1	2601
1	2601
1	2601
1	2601
1	2601
1	2601
1	2601
1	2601
1	2601
1	2601
1	2601
1	2601
1	2601
1	2601
1	2601
1	2601
1	2601
1	2601
1	9
1	2601
1	2601
1	2601
1	12
1	2601
1	2601
1	2601
1	2601
1	2601
1	2601
1	2601
1	2601
1	2601
1	2601
1	2601
1	2601
1	2601
1	2601
1	2601
1	17
1	2601
1	2601
1	2601
1	2601
1	2601
1	2601
1	10
1	2601
1	2601
1	2601
1	2601
1	2601
1	2601
1	2601
1	12
1	2601
1	2601
1	2601
1	2601
1	2601
1	23
1	2601
1	2601
1	2601
1	2601
1	2601
1	2601
1	2601
1	23
1	2601
1	2601
1	2601
1	15
1	2601
1	2601
1	2601
1	2601
1	2601
1	2601
1	2601
1	2601
1	17
1	2601
1	22
1	13
1	2601
1	2601
1	6
1	2601
1	2601
1	2602
1	2601
1	2601
1	2601
1	2601
1	2601
1	2603
1	2601
1	2601
1	2602
1	11
1	2601
1	14
1	2601
1	2601
1	2601
1	14
1	2601
1	16
1	2601
1	2601
1	2601
1	6124
1	6
1	2601
1	2601
1	2601
1	2601
1	11
1	14
1	2601
1	2601
1	2601
1	2601
1	2601
1	2601
1	2601
1	2601
1	21
1	2601
1	2601
1	2601
1	2601
1	2601
1	2607
1	2601
1	2601
1	2601
1	2601
1	2601
1	2601
1	2601
1	2601
1	2601
1	2601
1	2601
1	14
1	12
1	20
1	2601
1	2601
1	2601
1	2601
1	2601
1	2601
1	2601
1	2601
1	2601
1	2601
1	2601
1	2601
1	2601
1	2601
1	2601
1	12
1	2601
1	2601
1	14
1	17
1	2601
1	2601
1	2601
1	20
1	10
1	2601
1	2601
1	2601
1	2601
1	2601
1	16
1	2601
1	9
1	2601
1	2601
1	2601
1	2601
1	2601
1	11
1	11
1	2601
1	2601
1	2601
1	2601
1	2601
1	2601
1	2601
1	2601
1	2601
1	2601
1	2601
1	2601
1	2601
1	2601
1	2601
1	2601
1	2601
1	13
1	2601
1	2601
1	2601
1	2601
1	2601
1	2601
1	2601
1	2601
1	2601
1	7
1	2601
1	2601
1	2601
1	2601
1	10
1	2601
1	16
1	2601
1	2601
1	2601
1	2601
1	2601
1	2601
1	10
1	2601
1	2601
1	11
1	15
1	2601
1	2601
1	2601
1	2601
1	2601
1	2601
1	2601
1	2601
1	2601
1	2601
1	14
1	2601
1	2601
1	2601
1	2601
1	2601
1	2601
1	2601
1	2601
1	2601
1	2601
1	2601
1	2601
1	2602
1	2601
1	2601
1	22
1	2601
1	2601
1	2601
1	2601
1	2601
1	2601
1	2601
1	2601
1	2601
1	2601
1	2601
1	2601
1	2601
1	2601
1	2601
1	2601
1	2602
1	2601
1	2601
1	2601
1	2601
1	2601
1	2601
1	2601
1	2601
1	10
1	2601
1	2601
1	2601
1	2601
1	2601
1	2601
1	2602
1	2601
1	2601
1	2601
1	2601
1	2601
1	2601
1	2601
1	20
1	2601
1	2601
1	2601
1	2601
1	2601
1	2601
1	2601
1	2601
1	2601
1	2601
1	2601
1	2601
1	2601
1	2601
1	2601
1	22
1	2601
1	2601
1	2604
1	10
1	21
1	2601
1	13
1	2601
1	2601
1	2601
1	2601
1	2601
1	2601
1	2601
1	2601
1	2602
1	2602
1	2601
1	17
1	10
1	2601
1	6124
1	2601
1	2601
1	2601
1	2601
1	2601
1	2601
1	10
1	2601
1	2601
1	2601
1	2601
1	2601
1	2601
1	2601
1	2601
1	2601
1	2601
1	2601
1	2601
1	2601
1	2601
1	2601
1	2601
1	2601
1	2601
1	2601
1	2601
1	2601
1	2601
1	2601
1	2601
1	2601
1	2601
1	10
1	2601
1	2601
1	2601
1	2601
1	2601
1	2601
1	12
1	2601
1	2601
1	2601
1	12
1	14
1	2601
1	2601
1	2601
1	10
1	2601
1	12
1	2601
1	2601
1	2601
1	2601
1	2601
1	13
1	2601
1	2601
1	6
1	2601
1	2601
1	2601
1	2601
1	2601
1	2601
1	2601
1	2601
1	2601
1	2601
1	14
1	2601
1	2601
1	10
1	2601
1	2601
1	2601
1	2601
1	10
1	2601
1	2601
1	2601
1	2601
1	2601
1	2601
1	2601
1	2601
1	2601
1	2601
1	2601
1	2601
1	2601
1	2601
1	2601
1	7
1	2601
1	2601
1	2601
1	2601
1	2601
1	11
1	2601
1	2601
1	2601
1	2601
1	2601
1	2601
1	2601
1	2601
1	2601
1	2601
1	2601
1	2601
1	2601
1	2601
1	2601
1	2601
1	2601
1	2601
1	2601
1	2601
1	2601
1	2601
1	2601
1	2601
1	2601
1	2601
1	2601
1	2601
1	2601
1	2601
1	2601
1	2601
1	2601
1	2601
1	2601
1	14
1	2601
1	2601
1	2601
1	2601
1	2601
1	2601
1	2601
1	2601
1	2601
1	2601
1	2601
1	2601
1	2601
1	2601
1	2601
1	2601
1	2601
1	2601
1	2601
1	2601
1	2601
1	2601
1	2601
1	2603
1	2601
1	2601
1	2601
1	2601
1	2601
1	2601
1	2601
1	2601
1	2601
1	2601
1	2601
1	11
1	2601
1	2601
1	13
1	2601
1	2601
1	2601
1	2601
1	2601
1	2601
1	2601
1	5
1	2601
1	2601
1	2601
1	2601
1	2601
1	2601
1	2601
1	2601
1	2601
1	2601
1	2601
1	2601
1	2601
1	2601
1	2601
1	2601
1	2601
1	2601
1	2601
1	6
1	2601
1	2601
1	2602
1	2601
1	2601
1	2601
1	2601
1	2601
1	2601
1	2601
1	2601
1	2601
1	2601
1	2601
1	2601
1	2601
1	2601
1	2601
1	2601
1	2601
1	2601
1	2601
1	8
1	2601
1	7
1	2601
1	2601
1	2601
1	2601
1	14
1	2601
1	2601
1	2601
1	2601
1	2601
1	2601
1	2601
1	2601
1	2601
1	2601
1	2601
1	11
1	2601
1	9
1	2601
1	7
1	2601
1	2601
1	2601
1	2601
1	11
1	2601
1	2601
1	2601
1	2601
1	9
1	2601
1	2601
1	2601
1	2601
1	2601
1	2601
1	10
1	2601
1	8
1	2601
1	2601
1	2601
1	2601
1	2601
1	2601
1	2601
1	2601
1	8
1	2601
1	2601
1	2601
1	2601
1	2601
1	2601
1	2601
1	13
1	2601
1	2601
1	2601
1	2601
1	2601
1	2601
1	2601
1	2601
1	2601
1	2601
1	2601
1	7
1	2601
1	2601
1	2601
1	11
1	2601
1	2601
1	2601
1	2601
1	2601
1	2601
1	2601
1	2601
1	2601
1	2601
1	14
1	2601
1	2601
1	2601
1	2601
1	2601
1	2601
1	2601
1	2601
1	2601
1	2601
1	2601
1	2601
1	2601
1	2601
1	2601
1	12
1	2601
1	8
1	2601
1	2601
1	2601
1	2601
1	2601
1	2601
1	2601
1	2602
1	2601
1	2602
1	2601
1	2601
1	9
1	2601
1	2601
1	2601
1	2601
1	20
1	2601
1	2601
1	2601
1	2601
1	2601
1	2601
1	6124
1	2601
1	2601
1	2601
1	2601
1	7
1	2601
1	13
1	2601
1	15
1	2601
1	2601
1	8
1	2601
1	2601
1	2601
1	2601
1	2601
1	12
1	10
1	2601
1	2601
1	2601
1	2601
1	2601
1	2601
1	2601
1	2601
1	2601
1	2601
1	2601
1	2601
1	2601
1	2601
1	2601
1	2601
1	2601
1	2601
1	2601
1	2601
1	2601
1	2601
1	2601
1	2601
1	2601
1	2601
1	10
1	10
1	15
1	2601
1	2601
1	2601
1	2601
1	15
1	2601
1	2601
1	2601
1	14
1	2601
1	2601
1	2601
1	2601
1	2601
1	2601
1	14
1	2601
1	2601
1	11
1	2601
1	2601
1	2601
1	11
1	2601
1	23
1	2601
1	2601
1	2601
1	2601
1	2601
1	10
1	2601
1	2601
1	2601
1	2601
1	2601
1	2601
1	2601
1	2601
1	2601
1	13
1	2601
1	2601
1	11
1	2601
1	2601
1	2601
1	2601
1	2601
1	2601
1	2602
1	2601
1	12
1	2601
1	2601
1	2601
1	2601
1	2601
1	2601
1	2601
1	2601
1	7
1	2601
1	2601
1	2601
1	2601
1	2601
1	2601
1	2601
1	2601
1	2601
1	2601
1	2601
1	2601
1	2601
1	2601
1	2601
1	2601
1	2601
1	2601
1	2601
1	2601
1	2601
1	2601
1	2601
1	7
1	2601
1	2601
1	2601
1	2601
1	2601
1	2601
1	2601
1	11
1	2601
1	9
1	2601
1	2601
1	2601
1	2601
1	2601
1	2601
1	2601
1	2601
1	2602
1	2601
1	2601
1	2601
1	2601
1	2601
1	6
1	2601
1	2601
1	2601
1	2601
1	2601
1	2601
1	21
1	2601
1	2601
1	2601
1	2601
1	2601
1	2601
1	2601
1	2601
1	2601
1	2601
1	2601
1	2601
1	2601
1	2601
1	2601
1	2601
1	7
1	2601
1	2601
1	2601
1	2601
1	2601
1	2601
1	2601
1	14
1	2601
1	2601
1	2601
1	8
1	2601
1	2601
1	2601
1	2601
1	2601
1	2601
1	2601
1	2601
1	2601
1	2601
1	2601
1	2601
1	2601
1	2601
1	2601
1	2601
1	2601
1	2601
1	2601
1	2601
1	12
1	22
1	2601
1	2601
1	2601
1	2602
1	2601
1	2601
1	2601
1	2601
1	2601
1	2601
1	2601
1	2601
1	2601
1	12
1	2601
1	2601
1	2601
1	2601
1	2601
1	2601
1	2601
1	2601
1	2602
1	2601
1	2601
1	2601
1	5
1	2601
1	2601
1	2601
1	2601
1	13
1	2601
1	2603
1	9
1	2601
1	2601
1	2601
1	2601
1	2601
1	2601
1	2601
1	2601
1	2601
1	20
1	2601
1	2601
1	2601
1	11
1	2601
1	2601
1	2601
1	11
1	2601
1	2601
1	2601
1	2601
1	2601
1	2601
1	2601
1	8
1	2601
1	2601
1	2601
1	2601
1	2601
1	2602
1	2601
1	2601
1	2601
1	2601
1	2601
1	2601
1	2601
1	2601
1	2601
1	2601
1	2601
1	2601
1	2601
1	2601
1	2601
1	2601
1	2601
1	2601
1	2601
1	2601
1	21
1	2601
1	2601
1	2601
1	2601
1	2601
1	2601
1	2601
1	2601
1	2601
1	2601
1	2601
1	12
1	2601
1	2601
1	2601
1	11
1	2601
1	2601
1	2601
1	2601
1	2604
1	2601
1	2601
1	2601
1	2601
1	2601
1	2601
1	2601
1	2601
1	2601
1	2601
1	2601
1	2601
1	2601
1	15
1	2601
1	14
1	2601
1	2601
1	2601
1	2601
1	2601
1	2601
1	2601
1	2601
1	2601
1	2601
1	12
1	2601
1	2601
1	2
1	2601
1	2601
1	2601
1	2601
1	2601
1	2602
1	9
1	2601
1	2601
1	2601
1	2601
1	8
1	2601
1	2601
1	2601
1	2601
1	2601
1	10
1	2601
1	2601
1	2601
1	20
1	2601
1	2601
1	2601
1	15
1	2601
1	2601
1	2601
1	21
1	2601
1	2601
1	21
1	2601
1	11
1	2601
1	2601
1	2601
1	21
1	14
1	2601
1	2601
1	2601
1	2601
1	2601
1	2601
1	2601
1	2601
1	2601
1	2601
1	2601
1	2601
1	2602
1	2601
1	2601
1	2601
1	2601
1	2601
1	2601
1	13
1	2601
1	2602
1	9
1	2601
1	2601
1	2601
1	2601
1	2601
1	2601
1	2601
1	2601
1	4
1	2601
1	2601
1	15
1	2601
1	2602
1	9
1	2601
1	2601
1	2601
1	21
1	2601
1	2601
1	2601
1	2601
1	2601
1	2601
1	2601
1	8
1	2601
1	8
1	2601
1	2601
1	17
1	6
1	2601
1	2601
1	2601
1	2601
1	14
1	2601
1	11
1	2601
1	2601
1	2601
1	2601
1	2601
1	2601
1	9
1	2601
1	13
1	2601
1	2601
1	2601
1	2601
1	2601
1	14
1	2601
1	2601
1	2601
1	2601
1	2601
1	2601
1	2601
1	2601
1	2601
1	20
1	2601
1	2601
1	6
1	2601
1	2601
1	2601
1	2601
1	7
1	2601
1	2601
1	8
1	2601
1	2601
1	2601
1	12
1	2601
1	2601
1	2601
1	2601
1	2601
1	2601
1	2601
1	2601
1	2601
1	8
1	2601
1	2601
1	2601
1	2601
1	2601
1	2601
1	2601
1	2601
1	2601
1	2601
1	2601
1	2601
1	2601
1	2601
1	21
1	2601
1	2601
1	6
1	2601
1	2601
1	2601
1	2601
1	13
1	2601
1	2601
1	2602
1	2601
1	6
1	2601
1	2601
1	2601
1	2601
1	21
1	2601
1	2601
1	2601
1	2601
1	2601
1	2601
1	2601
1	2601
1	2601
1	2601
1	2601
1	2601
1	2601
1	2601
1	2601
1	2601
1	2601
1	2601
1	2601
1	2601
1	9
1	2601
1	2601
1	2601
1	2601
1	2601
1	2601
1	2601
1	2601
1	2601
1	2601
1	14
1	2601
1	2601
1	6
1	2601
1	2601
1	2601
1	2601
1	2601
1	2601
1	2601
1	2601
1	2601
1	2601
1	2601
1	2601
1	2601
1	10
1	2601
1	8
1	2601
1	2601
1	2601
1	2601
1	2601
1	2601
1	2601
1	2601
1	2601
1	2601
1	2601
1	2601
1	2601
1	2601
1	2601
1	2601
1	2601
1	2601
1	2601
1	12
1	2601
1	2601
1	2601
1	20
1	2601
1	2601
1	2601
1	2601
1	2601
1	2601
1	2601
1	2602
1	2601
1	2601
1	2601
1	2601
1	2601
1	2601
1	2601
1	2601
1	12
1	13
1	2601
1	2601
1	2601
1	4
1	2601
1	2601
1	2601
1	2601
1	2601
1	2601
1	2601
1	2601
1	2601
1	2601
1	2601
1	2601
1	2601
1	2602
1	2601
1	2601
1	2601
1	2601
1	2601
1	2601
1	2601
1	2601
1	13
1	2601
1	12
1	2601
1	2601
1	2601
1	6
1	13
1	2601
1	2601
1	2601
1	2601
1	2601
1	2601
1	2601
1	11
1	2601
1	2601
1	2601
1	2601
1	2601
1	2601
1	2601
1	2601
1	2601
1	2601
1	8
1	2601
1	2601
1	2601
1	2601
1	2601
1	2601
1	10
1	2601
1	2601
1	2601
1	9
1	2601
1	2601
1	2601
1	2601
1	2601
1	2601
1	2601
1	2601
1	12
1	2601
1	2601
1	2603
1	2601
1	2601
1	2601
1	2601
1	2601
1	2601
1	2601
1	2601
1	22
1	2601
1	2601
1	2601
1	2601
1	2601
1	2601
1	2601
1	4
1	2601
1	2601
1	2601
1	2601
1	2601
1	8
1	2601
1	2601
1	13
1	2601
1	2601
1	2601
1	2601
1	2601
1	2601
1	2601
1	9
1	2601
1	2601
1	2601
1	9
1	2601
1	2601
1	2601
1	2601
1	2601
1	2601
1	2601
1	2602
1	2601
1	2601
1	2601
1	2601
1	17
1	2601
1	2601
1	2601
1	2601
1	6
1	2601
1	2602
1	2601
1	2601
1	2601
1	2601
1	11
1	2601
1	2601
1	2601
1	14
1	2601
1	2601
1	2601
1	15
1	2601
1	2601
1	2601
1	2601
1	2601
1	5
1	2601
1	2601
1	2601
1	2601
1	2601
1	2601
1	8
1	2601
1	15
1	2601
1	2601
1	2601
1	2601
1	2601
1	2601
1	4
1	2601
1	2601
1	2601
1	12
1	8
1	15
1	2601
1	2601
1	2601
1	2601
1	7
1	22
1	14
1	2601
1	2601
1	2601
1	2601
1	2601
1	2601
1	2601
1	2601
1	2601
1	11
1	2601
1	2601
1	2601
1	2601
1	2601
1	2601
1	2601
1	2601
1	12
1	2601
1	2601
1	2601
1	2601
1	2601
1	10
1	2601
1	2601
1	2601
1	2601
1	2601
1	2601
1	2601
1	2601
1	2601
1	2601
1	2601
1	2601
1	2601
1	2601
1	2601
1	2601
1	2601
1	2601
1	2601
1	2601
1	2601
1	2601
1	15
1	2601
1	2601
1	10
1	2601
1	2601
1	2601
1	2601
1	9
1	2601
1	12
1	2601
1	2601
1	9
1	2601
1	2601
1	2601
1	2601
1	2601
1	2601
1	2601
1	2601
1	2601
1	6
1	9
1	2601
1	2601
1	2601
1	14
1	2601
1	2601
1	2601
1	2601
1	2601
1	2601
1	2601
1	2601
1	2601
1	2601
1	2601
1	2601
1	2601
1	2601
1	2601
1	2601
1	2601
1	2601
1	2601
1	22
1	2601
1	2601
1	13
1	21
1	2601
1	12
1	2601
1	12
1	2601
1	2601
1	2601
1	2601
1	8
1	2601
1	2601
1	7
1	10
1	2601
1	15
1	2601
1	2601
1	2601
1	2601
1	2601
1	2601
1	2601
1	2601
1	2601
1	2601
1	2601
1	2601
1	2601
1	2601
1	2601
1	2601
1	2601
1	2601
1	2601
1	2601
1	2601
1	2601
1	2601
1	2601
1	12
1	14
1	7
1	2601
1	2601
1	2601
1	7
1	22
1	2601
1	7
1	2601
1	2601
1	2601
1	2601
1	2601
1	2601
1	8
1	2601
1	2601
1	2601
1	2601
1	2601
1	2601
1	2601
1	2601
1	2601
1	2601
1	2601
1	2601
1	2601
1	2601
1	2601
1	12
1	2601
1	2601
1	2601
1	2601
1	2601
1	2601
1	2601
1	2601
1	2601
1	20
1	7
1	2601
1	2601
1	2601
1	2601
1	12
1	2601
1	2601
1	2601
1	2601
1	2601
1	2601
1	2601
1	2601
1	2601
1	2601
1	2601
1	2601
1	2601
1	2601
1	12
1	2601
1	5
1	2601
1	2601
1	2601
1	2601
1	2601
1	2601
1	2601
1	2602
1	2601
1	6
1	2601
1	2601
1	2601
1	2601
1	2601
1	2601
1	2601
1	2601
1	2601
1	2601
1	2601
1	2601
1	2601
1	12
1	2601
1	2601
1	2601
1	2601
1	11
1	2601
1	2601
1	2601
1	10
1	2601
1	2601
1	2601
1	2601
1	9
1	2601
1	2601
1	2601
1	2601
1	2601
1	2601
1	2601
1	2601
1	2601
1	2601
1	2601
1	2601
1	2601
1	2601
1	2601
1	17
1	2
1	2601
1	2601
1	2601
1	2601
1	2601
1	2601
1	8
1	2601
1	2601
1	2601
1	2601
1	2601
1	20
1	2601
1	2601
1	2601
1	2601
1	2601
1	2601
1	2601
1	7
1	2601
1	9
1	2601
1	2601
1	2601
1	2601
1	2601
1	2601
1	2602
1	2601
1	2601
1	2601
1	12
1	4
1	10
1	2601
1	2601
1	2601
1	22
1	2601
1	10
1	2601
1	2601
1	9
1	2601
1	2601
1	2601
1	2601
1	2601
1	2601
1	2601
1	2601
1	2601
1	2601
1	2601
1	2601
1	2601
1	2601
1	2601
1	2601
1	2601
1	2601
1	12
1	2601
1	2601
1	2601
1	2601
1	2601
1	2601
1	2601
1	2601
1	2601
1	2601
1	2601
1	2601
1	2601
1	2601
1	2601
1	20
1	2601
1	2601
1	2601
1	2601
1	2601
1	2601
1	2601
1	2601
1	2601
1	2601
1	2601
1	2601
1	2601
1	2601
1	2601
1	2601
1	2601
1	2601
1	2601
1	2601
1	2601
1	2601
1	2601
1	6
1	10
1	2601
1	2601
1	2601
1	2601
1	2601
1	2601
1	2601
1	2601
1	2601
1	2601
1	2601
1	22
1	2601
1	2601
1	2601
1	2601
1	14
1	2601
1	2601
1	2601
1	9
1	2601
1	2601
1	2601
1	2601
1	20
1	2601
1	2601
1	2601
1	2601
1	2601
1	2601
1	8
1	2601
1	2601
1	2601
1	2601
1	2601
1	2601
1	2601
1	2601
1	2601
1	2601
1	2602
1	2601
1	2601
1	2601
1	2603
1	8
1	2601
1	2601
1	2601
1	2601
1	2601
1	21
1	4
1	9
1	2601
1	2601
1	2601
1	2601
1	2601
1	10
1	2601
1	2601
1	2601
1	9
1	2601
1	2601
1	14
1	11
1	9
1	2601
1	2601
1	2601
1	8
1	7
1	2601
1	2601
1	2601
1	2601
1	2601
1	2601
1	12
1	2601
1	2601
1	9
1	2601
1	2601
1	2601
1	2601
1	2601
1	2601
1	2601
1	2601
1	2601
1	11
1	2601
1	2601
1	2
1	14
1	2601
1	2601
1	2601
1	8
1	2601
1	2601
1	2601
1	2601
1	2601
1	2601
1	2601
1	2601
1	2601
1	2601
1	6
1	14
1	2601
1	2601
1	2601
1	2601
1	2601
1	20
1	2601
1	2601
1	2601
1	2601
1	2601
1	2601
1	2601
1	2601
1	2601
1	7
1	2601
1	2601
1	2601
1	2601
1	2601
1	6
1	2601
1	2601
1	2601
1	11
1	2601
1	2601
1	2601
1	4
1	2601
1	2601
1	2601
1	2601
1	2601
1	2601
1	2601
1	2601
1	2601
1	2601
1	2601
1	2601
1	2601
1	2601
1	2601
1	2601
1	2601
1	2601
1	2601
1	2601
1	2601
1	11
1	2601
1	2601
1	2601
1	8
1	2601
1	10
1	15
1	2601
1	2601
1	2601
1	2601
1	2601
1	2602
1	2601
1	2601
1	2601
1	4
1	2601
1	2601
1	2601
1	2601
1	2601
1	2601
1	2601
1	2601
1	2601
1	8
1	2601
1	2601
1	2601
1	2601
1	2601
1	2601
1	2601
1	2601
1	2601
1	2601
1	2601
1	11
1	11
1	2601
1	2601
1	2601
1	2601
1	2601
1	2601
1	2601
1	2601
1	11
1	2601
1	14
1	2601
1	2601
1	2601
1	2601
1	2601
1	2601
1	2601
1	2601
1	2601
1	10
1	2601
1	2601
1	2601
1	2601
1	2602
1	5
1	2601
1	2601
1	2601
1	2601
1	2601
1	2601
1	2601
1	9
1	2601
1	2601
1	2601
1	12
1	2601
1	2601
1	12
1	2601
1	2601
1	2601
1	2601
1	2601
1	2601
1	2601
1	9
1	2601
1	2601
1	13
1	2601
1	2601
1	2601
1	6
1	2601
1	2601
1	2601
1	8
1	2601
1	2601
1	2601
1	2601
1	10
1	10
1	2601
1	2601
1	2601
1	2601
1	7
1	8
1	2601
1	2601
1	2601
1	2601
1	2601
1	5
1	2601
1	21
1	2601
1	2601
1	2601
1	2601
1	15
1	9
1	2601
1	2601
1	2601
1	2601
1	2601
1	2601
1	2601
1	2601
1	2601
1	2601
1	2601
1	2601
1	2601
1	2601
1	2601
1	9
1	9
1	2601
1	2601
1	17
1	2601
1	2601
1	2601
1	2602
1	2601
1	2601
1	2601
1	2602
1	20
1	2601
1	2601
1	2601
1	2601
1	2601
1	2601
1	2601
1	2601
1	2601
1	2601
1	2601
1	2601
1	2601
1	2601
1	2601
1	2601
1	2601
1	2601
1	2601
1	2601
1	2601
1	2601
1	2601
1	12
1	2601
1	2601
1	2601
1	2601
1	2601
1	2601
1	2601
1	2601
1	2601
1	2601
1	2601
1	2601
1	2601
1	2601
1	2601
1	2601
1	2601
1	2601
1	2601
1	2601
1	5
1	2601
1	2601
1	2601
1	2601
1	2601
1	2601
1	2601
1	2601
1	2601
1	2601
1	2601
1	2601
1	2601
1	2601
1	2601
1	2601
1	2601
1	2601
1	2601
1	2601
1	2601
1	17
1	2601
1	2603
1	2601
1	2601
1	2601
1	2601
1	9
1	2601
1	2601
1	2601
1	2601
1	2601
1	2601
1	2601
1	24
1	2601
1	2601
1	2601
1	2601
1	2601
1	2601
1	2601
1	4
1	2601
1	2601
1	2601
1	11
1	2601
1	6
1	2601
1	2601
1	2601
1	2601
1	2601
1	2601
1	13
1	2601
1	2601
1	2601
1	2601
1	2601
1	2601
1	2601
1	2601
1	2601
1	2601
1	12
1	2601
1	2602
1	2601
1	2601
1	2601
1	6
1	2601
1	2601
1	2601
1	12
1	2601
1	2601
1	2601
1	2601
1	2601
1	2601
1	2601
1	2601
1	2601
1	2601
1	2601
1	2601
1	2601
1	2602
1	2601
1	2601
1	2601
1	2601
1	2601
1	2601
1	2601
1	2601
1	2601
1	2601
1	2601
1	20
1	12
1	2601
1	2601
1	2601
1	5
1	2601
1	2601
1	7
1	4
1	2601
1	2601
1	2601
1	2601
1	2601
1	2601
1	2601
1	2601
1	2601
1	2601
1	2601
1	2601
1	2601
1	2601
1	2601
1	2601
1	11
1	2601
1	2601
1	2601
1	2601
1	2601
1	2601
1	2601
1	2601
1	2601
1	2601
1	2601
1	2601
1	21
1	2601
1	2601
1	2601
1	2601
1	9
1	2601
1	2601
1	2601
1	2601
1	2601
1	2601
1	2601
1	2601
1	2601
1	2601
1	2601
1	20
1	2601
1	2601
1	2601
1	2601
1	2601
1	2601
1	2601
1	2601
1	2601
1	2601
1	8
1	2601
1	2601
1	2601
1	12
1	2601
1	2601
1	2601
1	2601
1	2601
1	2601
1	2601
1	2601
1	2601
1	2601
1	2601
1	2601
1	2601
1	12
1	2601
1	2601
1	2601
1	2601
1	2601
1	2601
1	2601
1	2601
1	2601
1	2601
1	2601
1	2601
1	2601
1	2601
1	2601
1	2601
1	9
1	2601
1	2601
1	9
1	2601
1	13
1	2601
1	2601
1	13
1	2601
1	2601
1	2601
1	2601
1	12
1	4
1	2601
1	2601
1	2601
1	5
1	2601
1	2601
1	2601
1	2601
1	10
1	22
1	2601
1	2601
1	2601
1	2601
1	2601
1	2601
1	2601
1	2601
1	2601
1	2601
1	2601
1	2601
1	2601
1	2601
1	2601
1	2601
1	2601
1	2601
1	2601
1	2601
1	2601
1	2601
1	13
1	2601
1	2601
1	2601
1	2601
1	2601
1	2601
1	8
1	2601
1	5
1	2601
1	2601
1	2601
1	2601
1	2601
1	5
1	2601
1	2601
1	2601
1	2601
1	2601
1	2601
1	2601
1	2601
1	2601
1	2601
1	2601
1	2601
1	2601
1	2601
1	2601
1	2601
1	2601
1	2601
1	2601
1	6
1	6
1	2601
1	2601
1	13
1	2601
1	2601
1	2601
1	2601
1	13
1	2601
1	2601
1	2601
1	2601
1	2601
1	2601
1	2601
1	2601
1	17
1	2601
1	12
1	6
1	2601
1	2601
1	2601
1	11
1	2601
1	2601
1	2601
1	2601
1	2601
1	12
1	2601
1	2601
1	2601
1	17
1	2601
1	2601
1	2601
1	2601
1	2601
1	2601
1	2601
1	2601
1	2601
1	2601
1	2601
1	6
1	2601
1	2601
1	2602
1	8
1	2601
1	7
1	2601
1	2601
1	2601
1	2601
1	2601
1	2601
1	2601
1	2601
1	2601
1	6
1	2601
1	2601
1	2601
1	2601
1	2601
1	2601
1	2601
1	2601
1	2601
1	2601
1	2601
1	2601
1	2601
1	2601
1	2601
1	9
1	2601
1	2601
1	2601
1	2601
1	2601
1	2601
1	2601
1	2601
1	2601
1	2601
1	7
1	2601
1	2601
1	2601
1	2601
1	2601
1	8
1	2601
1	2601
1	2601
1	2601
1	2601
1	2601
1	2601
1	2601
1	2601
1	2601
1	2601
1	2602
1	2601
1	2601
1	2601
1	2601
1	2601
1	2601
1	2601
1	7
1	2601
1	2601
1	2601
1	2601
1	12
1	2601
1	2601
1	2601
1	8
1	2601
1	2601
1	2602
1	2601
1	2601
1	2601
1	2601
1	8
1	2601
1	21
1	2601
1	2601
1	2601
1	2601
1	2601
1	2601
1	2601
1	2601
1	2601
1	2601
1	2601
1	2601
1	2601
1	5
1	2601
1	2601
1	2601
1	2601
1	2601
1	2601
1	2601
1	2601
1	2601
1	2601
1	2601
1	2601
1	2601
1	11
1	2601
1	2601
1	2601
1	2601
2	23
2	13
2	7
2	3
2	3
2	2602
2	2602
2	3
2	9
2	7
2	15
2	3
2	3
2	3
2	6
2	3
2	3
2	7
2	3
2	6
2	12
2	2602
2	2602
2	3
2	3
2	6
2	13
2	21
2	4
2	8
2	5
2	14
2	3
2	2602
2	8
2	7
2	9
2	5
2	16
2	4
2	4
2	9
2	7
2	23
2	7
2	10
2	3
2	3
2	3
2	3
2	9
2	3
2	3
2	6
2	2602
2	22
2	15
2	8
2	4
2	7
2	13
2	4
2	6
2	3
2	3
2	3
2	7
2	5
2	11
2	6
2	2602
2	4
2	7
2	5
2	8
2	2602
2	4
2	3
2	3
2	3
2	6
2	10
2	4
2	4
2	6
2	4
2	3
2	13
2	3
2	3
2	9
2	4
2	2602
2	3
2	21
2	3
2	8
2	3
2	12
2	7
2	3
2	8
2	8
2	3
2	5
2	7
2	12
2	5
2	13
2	9
2	3
2	8
2	3
2	10
2	3
2	5
2	3
2	3
2	2602
2	21
2	18
2	7
2	6
2	3
2	4
2	4
2	4
2	15
2	9
2	3
2	3
2	8
2	3
2	15
2	3
2	4
2	2602
2	4
2	3
2	6
2	3
2	4
2	3
2	9
2	9
2	3
2	3
2	3
2	4
2	7
2	3
2	3
2	7
2	21
2	4
2	21
2	3
2	4
2	13
2	7
2	4
2	3
2	4
2	3
2	3
2	9
2	7
2	7
2	4
2	3
2	5
2	4
2	3
2	3
2	3
2	3
2	4
2	6
2	6
2	4
2	14
2	4
2	4
2	7
2	7
2	8
2	3
2	4
2	9
2	7
2	7
2	3
2	4
2	3
2	4
2	4
2	3
2	4
2	3
2	4
2	3
2	3
2	4
2	3
2	5
2	3
2	3
2	14
2	3
2	23
2	4
2	4
2	4
2	6
2	3
2	4
2	8
3	5
3	9
3	5
3	4
3	4
3	4
3	4
3	4
3	9
3	4
3	4
3	4
3	4
3	9
3	4
3	5
3	4
3	5
3	4
3	4
3	4
3	4
3	4
3	4
3	5
3	5
3	5
3	5
3	5
3	5
3	4
3	5
3	4
3	4
3	4
3	8
3	5
3	4
3	7
3	4
3	6
3	4
3	4
3	5
3	6
3	6
3	5
3	5
3	5
3	4
3	6
3	4
3	4
3	4
3	4
3	4
3	5
3	4
3	5
3	7
3	5
3	5
3	6
3	5
3	7
3	10
3	5
3	5
3	4
3	5
3	6
3	5
3	10
3	5
3	5
4	5
4	6
4	7
4	6
4	5
4	6
4	5
4	5
4	5
4	5
4	5
4	9
4	5
4	6
4	7
4	5
4	6
4	5
4	5
4	5
4	5
4	8
4	5
4	6
4	5
4	6
4	6
4	5
4	5
4	5
4	5
4	5
4	5
4	5
4	5
4	5
4	6
4	7
5	8
5	6
5	7
5	6
5	7
5	7
5	10
5	6
5	7
5	6
5	6
5	6
5	6
5	6
5	6
5	6
5	9
5	6
5	6
5	6
5	6
5	6
5	6
5	6
5	6
5	8
5	7
6	8
6	7
6	7
6	7
6	7
6	7
6	7
6	7
6	7
6	7
6	8
6	7
6	7
6	7
6	7
6	7
6	7
6	7
6	7
6	8
7	8
7	8
7	8
7	8
7	8
7	8
7	8
7	8
7	8
7	8
7	8
8	9
8	9
8	9
8	9
8	9
9	10
9	10
10	11
10	11
10	11
10	11
10	11
11	12
11	12
11	12
11	12
11	12
11	12
11	12
12	13
12	13
12	13
12	13
12	13
13	14
13	14
13	14
14	15
16	17
19	20
19	20
20	21
21	22
2600	2601
