7	6124
7	6124
9	6124
9	6124
10	6124
10	6124
11	6124
12	6124
12	6124
12	6124
13	6124
14	6124
14	6124
14	6124
15	6124
16	6124
16	6124
16	6124
17	6124
17	6124
17	6124
18	6124
18	6124
18	6124
18	6124
18	6124
18	6124
18	6124
20	6124
20	6124
20	6124
20	6124
21	6124
21	6124
21	6124
22	6124
22	6124
22	6124
23	6124
24	6124
24	6124
26	6124
28	6124
29	6124
30	6124
30	6124
32	6124
32	6124
34	6124
35	6124
35	6124
35	6124
36	6124
36	6124
36	6124
36	6124
36	6124
39	6124
43	6124
46	6124
48	6124
56	6124
56	6124
56	6124
56	6124
56	6124
57	6124
57	6124
58	6124
58	6124
58	6124
58	6124
59	6124
59	6124
60	6124
65	6124
66	6124
67	6124
69	6124
70	6124
74	6124
86	6124
1140	6124
1140	6124
1140	6124
1140	6124
1140	6124
1140	6124
1140	6124
1140	6124
1140	6124
1140	6124
1140	6124
1140	6124
1140	6124
1140	6124
1140	6124
1140	6124
1140	6124
1140	6124
1140	6124
1140	6124
1140	6124
1140	6124
1140	6124
1140	6124
1140	6124
1141	6124
1141	6124
1141	6124
1141	6124
1141	6124
1141	6124
1141	6124
1141	6124
1141	6124
1141	6124
1141	6124
1141	6124
1141	6124
1141	6124
1142	6124
1142	6124
1142	6124
1142	6124
1142	6124
1142	6124
1142	6124
1142	6124
1142	6124
1142	6124
1142	6124
1142	6124
1142	6124
1142	6124
1142	6124
1143	6124
1143	6124
1143	6124
1143	6124
1143	6124
1143	6124
1143	6124
1143	6124
1144	6124
1144	6124
1144	6124
1144	6124
1144	6124
1144	6124
1144	6124
1144	6124
1144	6124
1145	6124
1145	6124
1145	6124
1145	6124
1146	6124
1146	6124
1146	6124
1146	6124
1147	6124
1147	6124
1147	6124
1148	6124
1148	6124
1148	6124
1148	6124
1149	6124
1151	6124
1154	6124
1158	6124
1162	6124
1170	6124
1170	6124
1192	6124
