7	6124
7	6124
8	6124
8	6124
9	6124
11	6124
12	6124
12	6124
13	6124
13	6124
13	6124
13	6124
13	6124
13	6124
13	6124
14	6124
14	6124
14	6124
14	6124
14	6124
14	6124
15	6124
15	6124
15	6124
15	6124
15	6124
15	6124
15	6124
15	6124
15	6124
15	6124
15	6124
15	6124
15	6124
16	6124
16	6124
16	6124
16	6124
16	6124
16	6124
16	6124
16	6124
16	6124
17	6124
17	6124
17	6124
17	6124
17	6124
17	6124
17	6124
17	6124
17	6124
17	6124
18	6124
18	6124
18	6124
18	6124
18	6124
18	6124
18	6124
18	6124
19	6124
19	6124
19	6124
19	6124
19	6124
20	6124
20	6124
21	6124
22	6124
23	6124
23	6124
23	6124
23	6124
23	6124
23	6124
23	6124
23	6124
24	6124
24	6124
24	6124
24	6124
24	6124
25	6124
25	6124
26	6124
26	6124
26	6124
26	6124
26	6124
26	6124
27	6124
27	6124
28	6124
28	6124
28	6124
28	6124
29	6124
29	6124
29	6124
31	6124
32	6124
34	6124
36	6124
41	6124
590	6124
590	6124
590	6124
590	6124
590	6124
590	6124
590	6124
590	6124
590	6124
590	6124
590	6124
590	6124
590	6124
590	6124
590	6124
590	6124
590	6124
590	6124
590	6124
590	6124
590	6124
590	6124
590	6124
590	6124
590	6124
590	6124
590	6124
590	6124
590	6124
590	6124
590	6124
590	6124
590	6124
591	6124
591	6124
591	6124
591	6124
591	6124
591	6124
591	6124
591	6124
591	6124
591	6124
591	6124
591	6124
591	6124
591	6124
591	6124
591	6124
591	6124
591	6124
591	6124
591	6124
591	6124
591	6124
592	6124
592	6124
592	6124
592	6124
592	6124
592	6124
592	6124
592	6124
592	6124
593	6124
593	6124
593	6124
593	6124
593	6124
593	6124
593	6124
593	6124
593	6124
593	6124
593	6124
594	6124
594	6124
594	6124
595	6124
595	6124
595	6124
595	6124
595	6124
596	6124
597	6124
598	6124
598	6124
599	6124
599	6124
601	6124
602	6124
604	6124
606	6124
608	6124
609	6124
610	6124
