7	6124
11	6124
11	6124
11	6124
14	6124
16	6124
18	6124
21	6124
23	6124
23	6124
24	6124
27	6124
27	6124
28	6124
28	6124
29	6124
29	6124
30	6124
31	6124
31	6124
31	6124
31	6124
31	6124
31	6124
32	6124
32	6124
35	6124
35	6124
35	6124
35	6124
36	6124
36	6124
36	6124
36	6124
37	6124
37	6124
37	6124
38	6124
38	6124
38	6124
39	6124
40	6124
40	6124
40	6124
41	6124
41	6124
43	6124
43	6124
46	6124
47	6124
47	6124
48	6124
50	6124
51	6124
59	6124
1348	6124
1348	6124
1348	6124
1348	6124
1348	6124
1348	6124
1348	6124
1348	6124
1348	6124
1348	6124
1348	6124
1348	6124
1348	6124
1348	6124
1348	6124
1348	6124
1348	6124
1348	6124
1348	6124
1348	6124
1348	6124
1348	6124
1348	6124
1348	6124
1348	6124
1348	6124
1348	6124
1348	6124
1348	6124
1348	6124
1348	6124
1348	6124
1348	6124
1348	6124
1348	6124
1348	6124
1348	6124
1348	6124
1348	6124
1348	6124
1348	6124
1348	6124
1348	6124
1348	6124
1348	6124
1348	6124
1348	6124
1348	6124
1348	6124
1348	6124
1348	6124
1348	6124
1348	6124
1348	6124
1348	6124
1348	6124
1348	6124
1348	6124
1348	6124
1348	6124
1348	6124
1348	6124
1348	6124
1348	6124
1348	6124
1348	6124
1348	6124
1348	6124
1348	6124
1348	6124
1348	6124
1348	6124
1348	6124
1348	6124
1348	6124
1348	6124
1349	6124
1349	6124
1349	6124
1349	6124
1349	6124
1349	6124
1349	6124
1349	6124
1349	6124
1349	6124
1349	6124
1349	6124
1349	6124
1349	6124
1349	6124
1349	6124
1349	6124
1349	6124
1349	6124
1349	6124
1349	6124
1349	6124
1349	6124
1349	6124
1349	6124
1349	6124
1349	6124
1349	6124
1349	6124
1349	6124
1349	6124
1349	6124
1349	6124
1349	6124
1349	6124
1350	6124
1350	6124
1350	6124
1350	6124
1350	6124
1350	6124
1350	6124
1350	6124
1350	6124
1351	6124
1351	6124
1351	6124
1351	6124
1351	6124
1351	6124
1351	6124
1351	6124
1351	6124
1351	6124
1351	6124
1351	6124
1351	6124
1351	6124
1351	6124
1351	6124
1352	6124
1352	6124
1352	6124
1352	6124
1352	6124
1352	6124
1352	6124
1352	6124
1353	6124
1353	6124
1353	6124
1353	6124
1353	6124
1353	6124
1353	6124
1353	6124
1353	6124
1353	6124
1353	6124
1353	6124
1353	6124
1354	6124
1354	6124
1354	6124
1354	6124
1354	6124
1354	6124
1354	6124
1356	6124
1356	6124
1356	6124
1356	6124
1357	6124
1358	6124
1358	6124
1358	6124
1359	6124
1363	6124
1363	6124
1364	6124
1376	6124
1379	6124
1379	6124
