1	6124
1	684
1	685
1	684
1	684
1	22
1	684
1	684
1	684
1	684
1	684
1	684
1	684
1	684
1	684
1	18
1	684
1	684
1	684
1	684
1	684
1	16
1	14
1	686
1	684
1	684
1	684
1	684
1	684
1	684
1	12
1	684
1	686
1	684
1	10
1	10
1	684
1	684
1	684
1	684
1	685
1	684
1	684
1	684
1	684
1	19
1	684
1	684
1	685
1	6124
1	684
1	684
1	684
1	16
1	23
1	684
1	684
1	684
1	684
1	684
1	685
1	684
1	684
1	685
1	684
1	16
1	684
1	684
1	10
1	12
1	684
1	684
1	684
1	686
1	684
1	14
1	684
1	17
1	684
1	684
1	11
1	18
1	684
1	684
1	22
1	684
1	684
1	11
1	12
1	13
1	684
1	10
1	10
1	12
1	684
1	684
1	7
1	684
1	686
1	684
1	684
1	684
1	684
1	684
1	10
1	21
1	10
1	8
1	9
1	5
1	6
1	684
1	17
1	8
1	684
1	684
1	684
1	686
1	684
1	684
1	11
1	22
1	684
1	10
1	684
1	684
1	684
1	6124
1	684
1	21
1	15
1	684
1	684
1	684
1	684
1	684
1	684
1	684
1	9
1	684
1	684
1	684
1	9
1	684
1	684
1	21
1	684
1	684
1	9
1	10
1	684
1	684
1	685
1	684
1	684
1	14
1	12
1	684
1	684
1	684
1	684
1	684
1	684
1	16
1	10
1	10
1	684
1	684
1	9
1	684
1	684
1	685
1	13
1	684
1	684
1	684
1	7
1	684
1	684
1	684
1	9
1	684
1	4
1	12
1	19
1	684
1	684
1	684
1	21
1	18
1	684
1	684
1	684
1	684
1	684
1	36
1	684
1	684
1	9
1	684
1	684
1	9
1	684
1	684
1	688
1	684
1	9
1	684
1	9
1	684
1	9
1	684
1	684
1	9
1	684
1	8
1	8
1	684
1	9
1	684
1	684
1	21
1	684
1	684
1	684
1	9
1	6
1	684
1	15
1	684
1	684
1	21
1	4
1	684
1	684
1	684
1	684
1	684
1	18
1	684
1	18
1	684
1	684
1	9
1	684
1	20
1	684
1	684
1	685
1	684
1	684
1	17
1	684
1	684
1	7
1	684
1	684
1	684
1	684
1	684
1	684
1	684
1	684
1	684
1	10
1	10
1	684
1	684
1	684
1	684
1	684
1	7
1	684
1	9
1	14
1	684
1	8
1	684
1	21
1	685
1	20
1	684
1	685
1	684
1	16
1	684
1	684
1	684
1	6
1	684
1	22
1	684
1	10
1	684
1	684
1	684
1	6124
1	684
1	684
1	684
1	684
1	9
1	684
1	8
1	684
1	684
1	11
1	684
1	22
1	684
1	684
1	684
1	684
1	685
1	684
1	684
1	684
1	6
1	684
1	684
1	684
1	684
1	684
1	684
1	11
1	684
1	684
1	684
1	684
1	684
1	6124
1	11
1	684
1	6124
1	684
1	684
1	684
1	684
1	22
1	7
1	684
1	684
1	684
1	684
1	684
1	684
1	684
1	684
1	684
1	685
1	6
1	9
1	684
1	684
1	684
1	684
1	10
1	684
1	6
1	684
1	684
1	4
1	684
1	12
1	684
1	6
1	684
1	8
1	16
1	684
1	684
1	21
1	684
1	7
1	16
1	7
1	684
1	11
1	684
1	9
1	684
1	15
1	684
1	684
1	8
1	684
1	684
1	9
1	684
1	684
1	9
1	684
1	684
1	11
1	684
1	16
1	684
1	16
1	684
1	18
1	684
1	4
1	9
1	684
1	684
1	684
1	684
1	684
1	684
1	684
1	684
1	684
1	684
1	10
1	684
1	684
1	684
1	685
1	684
1	684
1	684
1	684
1	684
1	684
1	684
1	684
1	684
1	684
1	684
1	16
1	9
1	10
1	684
1	6
1	8
1	684
1	12
1	684
1	20
1	684
1	8
1	684
1	684
1	684
1	7
1	684
1	20
1	684
1	685
1	684
1	684
1	22
1	684
1	684
1	16
1	6
1	9
1	684
1	10
1	684
1	684
1	684
1	684
1	684
1	684
1	684
1	684
1	684
1	15
1	684
1	684
1	684
1	684
1	684
1	16
1	684
1	684
1	16
1	684
1	6
1	16
1	684
1	6
1	10
1	684
1	684
1	684
1	684
1	684
1	684
1	684
1	684
1	684
1	684
1	684
1	684
1	9
1	684
1	684
1	684
1	684
1	684
1	12
1	684
1	4
1	684
1	684
1	684
1	684
1	22
1	21
1	684
1	22
1	8
1	16
1	684
1	9
1	684
1	9
1	684
1	9
1	684
1	13
1	684
1	9
1	684
1	684
1	685
1	684
1	684
1	684
1	10
1	9
1	684
1	684
1	684
1	7
1	684
1	684
1	684
1	684
1	10
1	9
1	16
1	16
1	9
1	684
1	684
1	11
1	20
1	684
1	6
1	684
1	22
1	684
1	15
1	684
1	684
1	684
1	684
1	8
1	684
1	684
1	7
1	16
1	684
1	684
1	684
1	684
1	684
1	15
1	18
1	12
1	685
1	684
1	684
1	684
1	684
1	16
1	684
1	16
1	684
1	16
1	684
1	684
1	22
1	684
1	684
1	16
1	684
1	684
1	20
1	18
1	12
1	5
1	20
1	684
1	684
1	684
1	684
1	7
1	684
1	3
1	684
1	22
1	684
1	684
1	684
1	684
1	684
1	684
1	684
1	684
1	684
1	684
1	684
1	684
1	684
1	684
1	10
1	684
1	684
1	684
1	684
1	684
1	684
1	18
1	684
1	684
1	684
1	20
1	4
1	684
1	9
1	684
1	22
1	8
1	9
1	684
1	684
1	10
1	684
1	684
1	8
1	684
1	684
1	684
1	5
1	684
1	684
1	684
1	684
1	9
1	684
1	684
1	684
1	684
1	684
1	684
1	4
1	684
1	8
1	684
1	8
1	684
1	684
1	684
1	10
1	684
1	4
1	684
1	684
1	684
1	684
1	9
1	684
1	684
1	684
1	684
1	16
1	6
1	684
1	684
1	12
1	685
1	684
1	684
1	6
1	684
1	684
1	684
1	12
1	684
1	22
1	16
1	684
1	4
1	684
1	684
1	684
1	684
1	22
1	684
1	7
1	685
1	684
1	684
1	684
1	18
1	16
1	684
1	684
1	684
1	684
1	12
1	684
1	684
1	684
1	7
1	5
1	684
1	685
1	685
1	9
1	16
1	684
1	684
1	684
1	684
1	11
1	685
1	20
1	684
1	6
1	685
1	684
1	684
1	16
1	684
1	684
1	684
1	684
1	684
1	684
1	9
1	684
1	685
1	12
1	7
1	684
1	684
1	684
1	684
1	684
1	2
1	684
1	8
1	684
1	684
1	684
1	684
1	684
1	685
1	6
1	684
1	7
1	684
1	684
1	16
1	15
1	684
1	684
1	684
1	10
1	684
1	684
1	684
1	684
1	684
1	9
1	7
1	684
1	684
1	684
1	684
1	684
1	684
1	684
1	684
1	684
1	684
1	6
1	684
1	684
1	684
1	5
1	684
1	684
1	8
1	684
1	684
1	684
1	684
1	684
1	6
1	684
1	684
1	10
1	8
1	684
1	684
1	10
1	684
1	684
1	684
1	684
1	684
1	2
1	684
1	684
1	8
1	684
1	684
1	684
1	684
1	6
1	686
1	5
1	4
1	7
1	684
1	684
1	684
1	684
1	684
1	12
1	7
1	21
1	684
1	684
1	684
1	5
1	21
1	8
1	684
1	684
1	16
1	684
1	684
1	684
1	684
1	5
1	684
1	684
1	684
1	684
1	684
1	684
1	684
1	684
1	684
1	684
1	684
1	684
1	684
1	684
1	684
1	684
1	684
2	685
2	8
2	3
2	3
2	6
2	13
2	7
2	6
2	3
2	5
2	19
2	10
2	17
2	4
2	6
2	7
2	6
2	7
2	3
2	10
2	10
2	10
2	4
2	4
2	3
2	3
2	3
2	3
2	6
2	5
2	5
2	21
2	3
2	16
2	3
2	9
2	9
2	6
2	7
2	3
2	10
2	8
2	3
2	4
2	3
2	6
2	4
2	685
2	3
2	6
2	685
2	3
2	3
2	12
2	685
2	4
2	3
2	4
2	3
2	23
2	4
2	17
2	3
2	7
2	3
2	3
2	685
2	3
2	3
2	4
2	6
2	6
2	3
2	13
2	4
2	8
2	17
2	21
2	3
2	9
2	13
2	5
2	4
2	3
2	4
2	3
2	7
2	6
2	7
2	3
2	3
2	4
2	3
2	685
2	5
2	4
2	12
2	5
2	3
2	4
2	16
2	3
2	3
2	4
2	3
2	16
2	4
2	3
2	4
2	4
2	3
2	4
2	3
2	3
2	13
2	8
2	3
2	8
2	3
2	10
2	3
2	4
2	12
2	4
3	4
3	5
3	4
3	4
3	4
3	5
3	4
3	4
3	4
3	5
3	4
3	6
3	4
3	4
3	6
3	5
3	4
3	4
3	4
3	20
3	4
3	4
3	4
3	4
3	4
3	4
3	5
3	5
3	5
3	5
3	4
3	7
3	9
3	5
3	4
3	4
3	7
3	4
3	22
3	4
3	4
3	5
3	5
3	7
3	8
3	4
3	4
4	5
4	5
4	5
4	5
4	5
4	5
4	5
4	5
4	5
4	5
4	7
4	5
4	5
4	5
4	5
4	5
4	6
4	5
5	6
5	6
5	7
5	6
5	7
5	6
5	7
5	6
5	6
5	6
5	6
5	8
5	6
5	6
5	6
5	6
5	6
6	7
6	7
6	7
6	7
6	7
7	8
7	8
7	8
7	8
7	9
8	9
8	9
8	9
8	9
8	9
8	9
8	9
8	9
9	10
9	10
10	11
11	12
11	12
11	12
14	15
15	16
15	16
15	16
17	18
19	20
20	21
21	22
683	684
