1	6124
1	285
1	15
1	285
1	284
1	284
1	284
1	15
1	284
1	284
1	284
1	284
1	284
1	284
1	13
1	284
1	11
1	286
1	286
1	284
1	10
1	284
1	14
1	13
1	11
1	284
1	16
1	10
1	10
1	15
1	284
1	284
1	13
1	284
1	284
1	284
1	285
1	284
1	15
1	10
1	12
1	285
1	12
1	284
1	284
1	4
1	284
1	284
1	8
1	284
1	10
1	284
1	7
1	4
1	284
1	16
1	284
1	284
1	284
1	6
1	284
1	284
1	12
1	284
1	9
1	12
1	284
1	12
1	285
1	284
1	284
1	284
1	12
1	284
1	284
1	9
1	284
1	286
1	284
1	9
1	15
1	284
1	284
1	284
1	284
1	284
1	284
1	284
1	284
1	8
1	284
1	10
1	11
1	284
1	284
1	284
1	284
1	284
1	284
1	284
1	284
1	284
1	284
1	285
1	14
1	15
1	284
1	286
1	6
1	284
1	14
1	285
1	284
1	8
1	8
1	284
1	284
1	284
1	284
1	284
1	284
1	10
1	284
1	284
1	11
1	11
1	284
1	284
1	284
1	284
1	284
1	10
1	284
1	285
1	284
1	284
1	4
1	284
1	284
1	286
1	284
1	7
1	284
1	284
1	15
1	8
1	284
1	284
1	4
1	12
1	284
1	284
1	6
1	284
1	284
1	14
1	284
1	11
1	284
1	285
1	284
1	284
1	284
1	284
1	284
1	9
1	284
1	7
1	5
1	284
1	284
1	284
1	285
1	284
1	284
1	284
1	284
1	286
1	284
1	284
1	284
1	10
1	284
1	284
1	15
1	284
1	284
1	284
1	284
1	284
1	284
1	284
1	15
1	284
1	286
1	285
1	8
1	284
1	284
1	8
1	285
1	284
1	14
1	8
1	284
1	284
1	284
1	284
1	284
1	284
1	284
1	284
1	284
1	6
1	284
1	5
1	10
1	11
1	284
1	284
1	285
1	8
1	284
1	284
1	284
1	14
1	284
1	14
1	284
1	284
1	284
1	284
1	284
1	8
1	284
1	284
1	4
1	284
1	284
1	284
1	12
1	284
1	284
1	284
1	284
1	5
1	284
1	284
1	284
1	11
1	284
1	284
1	284
1	5
1	284
1	14
1	5
1	284
1	284
1	4
1	284
1	11
1	5
1	4
1	4
1	11
1	284
1	284
1	284
1	284
1	284
1	285
1	284
1	284
1	15
1	284
1	6
1	285
1	284
1	284
1	5
1	284
1	284
1	4
1	284
1	284
1	284
1	284
1	7
1	284
1	284
1	284
1	284
1	11
1	284
1	284
1	13
1	284
1	284
1	284
2	285
2	13
2	285
2	3
2	3
2	15
2	7
2	4
2	7
2	13
2	3
2	285
2	4
2	12
2	285
2	9
2	12
2	3
2	285
2	3
2	12
2	7
2	3
2	9
2	3
2	3
2	9
2	12
2	4
2	6
2	8
2	3
2	9
2	3
2	5
2	5
2	285
2	3
2	12
2	9
2	7
2	3
2	8
2	6
2	6
2	3
2	12
2	10
2	4
2	3
2	3
2	7
2	9
2	5
2	6
2	9
2	3
2	5
2	9
2	4
2	9
2	4
2	7
2	6
2	12
2	4
2	4
2	4
2	3
2	12
2	4
2	3
2	6
2	12
2	4
2	3
3	7
3	4
3	4
3	5
3	5
3	4
3	5
3	4
3	4
3	5
3	4
3	4
3	4
3	4
3	9
3	5
3	4
3	5
3	5
3	4
3	4
3	4
3	5
3	4
3	4
3	4
3	4
3	4
3	7
3	4
3	4
3	10
3	5
4	6
4	5
4	5
4	5
4	6
4	7
4	5
4	5
4	6
4	6
4	5
4	5
4	8
4	5
4	6
4	6
5	6
5	6
5	7
5	7
5	8
5	6
5	6
5	6
5	6
5	6
6	8
7	8
7	9
7	8
8	9
8	9
9	10
10	11
10	11
10	11
10	12
11	12
13	14
14	15
283	284
