1	6124
1	790
1	790
1	790
1	790
1	790
1	790
1	790
1	790
1	790
1	790
1	790
1	796
1	793
1	790
1	791
1	790
1	790
1	790
1	791
1	790
1	790
1	791
1	790
1	790
1	8
1	790
1	792
1	790
1	790
1	790
1	11
1	790
1	790
1	790
1	6124
1	790
1	790
1	790
1	19
1	790
1	790
1	790
1	790
1	790
1	790
1	790
1	790
1	790
1	790
1	790
1	790
1	790
1	790
1	790
1	8
1	790
1	790
1	790
1	790
1	14
1	21
1	19
1	790
1	790
1	9
1	790
1	790
1	790
1	790
1	791
1	790
1	790
1	790
1	790
1	790
1	790
1	790
1	790
1	790
1	790
1	790
1	790
1	790
1	790
1	790
1	793
1	790
1	790
1	791
1	790
1	790
1	790
1	790
1	790
1	790
1	790
1	790
1	790
1	790
1	790
1	790
1	790
1	790
1	790
1	790
1	790
1	18
1	790
1	791
1	790
1	790
1	790
1	790
1	10
1	790
1	790
1	10
1	795
1	790
1	14
1	790
1	790
1	790
1	790
1	790
1	790
1	793
1	8
1	790
1	5
1	790
1	792
1	790
1	791
1	790
1	790
1	790
1	790
1	790
1	790
1	790
1	17
1	790
1	790
1	790
1	790
1	792
1	790
1	790
1	790
1	790
1	790
1	790
1	790
1	790
1	13
1	790
1	790
1	790
1	793
1	10
1	790
1	790
1	790
1	790
1	790
1	793
1	8
1	790
1	8
1	790
1	790
1	790
1	790
1	790
1	790
1	790
1	790
1	790
1	790
1	790
1	790
1	790
1	790
1	790
1	790
1	790
1	790
1	17
1	790
1	790
1	790
1	791
1	790
1	790
1	790
1	790
1	790
1	6
1	790
1	790
1	790
1	790
1	791
1	790
1	790
1	790
1	790
1	790
1	790
1	790
1	790
1	6
1	790
1	5
1	790
1	790
1	790
1	790
1	790
1	790
1	790
1	791
1	790
1	790
1	790
1	790
1	790
1	790
1	790
1	790
1	790
1	790
1	791
1	790
1	790
1	790
1	790
1	10
1	790
1	790
1	790
1	790
1	790
1	24
1	790
1	790
1	790
1	790
1	790
1	790
1	790
1	21
1	790
1	790
1	4
1	790
1	790
1	791
1	12
1	10
1	790
1	790
1	790
1	790
1	790
1	9
1	790
1	790
1	790
1	790
1	791
1	790
1	790
1	790
1	790
1	790
1	791
1	790
1	790
1	790
1	790
1	790
1	790
1	790
1	790
1	790
1	790
1	790
1	13
1	790
1	790
1	790
1	790
1	790
1	790
1	790
1	790
1	790
1	12
1	790
1	790
1	790
1	10
1	790
1	790
1	790
1	790
1	790
1	790
1	790
1	6
1	790
1	790
1	12
1	790
1	790
1	790
1	790
1	790
1	17
1	7
1	790
1	791
1	790
1	790
1	790
1	790
1	790
1	8
1	790
1	790
1	790
1	18
1	790
1	790
1	790
1	14
1	790
1	790
1	790
1	790
1	790
1	790
1	790
1	8
1	790
1	790
1	7
1	790
1	790
1	790
1	791
1	790
1	790
1	790
1	10
1	790
1	6
1	790
1	790
1	790
1	790
1	790
1	790
1	790
1	790
1	790
1	790
1	790
1	7
1	790
1	17
1	6124
1	790
1	790
1	790
1	790
1	791
1	790
1	790
1	790
1	790
1	790
1	790
1	790
1	790
1	790
1	790
1	12
1	790
1	18
1	12
1	790
1	790
1	790
1	790
1	790
1	790
1	790
1	9
1	8
1	790
1	790
1	6
1	790
1	790
1	9
1	790
1	790
1	17
1	790
1	790
1	790
1	790
1	790
1	790
1	5
1	790
1	790
1	790
1	790
1	17
1	790
1	790
1	790
1	17
1	8
1	790
1	790
1	790
1	790
1	790
1	790
1	9
1	790
1	790
1	790
1	790
1	790
1	790
1	790
1	790
1	790
1	790
1	5
1	790
1	4
1	790
1	13
1	790
1	790
1	9
1	7
1	790
1	790
1	790
1	790
1	790
1	790
1	790
1	790
1	790
1	790
1	790
1	790
1	790
1	790
1	790
1	5
1	790
1	790
1	790
1	8
1	790
1	790
1	790
1	790
1	790
1	790
1	790
1	790
1	790
1	790
1	790
1	790
1	790
1	790
1	18
1	790
1	7
1	790
1	790
1	790
1	790
1	7
1	790
1	790
1	790
1	790
1	790
1	790
1	790
1	790
1	790
1	790
1	790
1	790
1	5
1	790
1	17
1	790
1	21
1	790
1	790
1	11
1	790
1	790
1	790
1	790
1	790
1	790
1	790
1	18
1	790
1	790
1	790
1	790
1	790
1	790
1	790
1	790
1	790
1	790
1	790
1	790
1	4
1	11
1	790
1	790
1	790
1	5
1	790
1	790
1	790
1	790
1	790
1	790
1	790
1	790
1	790
1	790
1	790
1	791
1	790
1	790
1	790
1	790
1	11
1	790
1	790
1	790
1	790
1	8
1	790
1	8
1	790
1	6
1	790
1	790
1	790
1	11
1	790
1	790
1	790
1	790
1	790
1	790
1	790
1	790
1	9
1	10
1	11
1	790
1	2
1	790
1	6
1	790
1	7
1	790
1	790
1	7
1	7
1	790
1	6
1	11
1	790
1	791
1	790
1	790
1	13
1	2
1	790
1	790
1	790
1	790
1	790
1	790
1	790
1	790
1	790
1	790
1	790
1	790
1	790
1	790
1	790
1	790
1	790
1	790
1	790
1	790
1	8
1	5
1	7
1	790
1	790
1	790
1	790
1	790
1	790
1	790
1	790
1	790
1	9
1	790
1	790
1	790
1	791
1	790
1	790
1	8
1	790
1	8
1	790
1	790
1	790
1	790
1	790
1	790
1	10
1	790
1	790
1	790
1	790
1	790
1	790
1	790
1	790
1	790
1	790
1	5
1	790
1	7
1	790
1	790
1	790
1	790
1	790
1	790
1	790
1	790
1	790
1	790
1	18
1	790
1	790
1	790
1	12
1	790
1	790
1	790
1	790
1	790
1	790
1	9
1	790
1	790
1	790
1	7
1	790
1	790
1	790
1	790
1	790
1	18
1	6
1	790
1	790
1	790
1	790
1	790
1	790
1	790
1	790
1	790
1	7
1	790
1	790
1	791
1	8
1	790
1	790
1	790
1	7
1	6
1	790
1	790
1	790
1	790
1	790
1	790
1	10
1	791
1	790
1	790
1	790
1	790
1	790
1	790
1	790
1	790
1	790
1	790
1	6
1	790
1	6
1	790
1	6
1	7
1	790
1	790
1	790
1	790
1	790
1	790
1	790
1	790
1	790
1	790
1	790
1	790
1	8
1	790
1	790
1	790
1	790
1	790
1	790
1	790
1	9
1	790
1	790
1	790
1	790
1	790
1	17
1	790
1	790
1	790
1	790
1	790
1	790
1	790
1	790
1	790
1	790
1	790
1	790
1	790
1	790
1	9
1	6
1	11
1	790
1	7
1	790
1	790
1	6
1	790
1	790
1	790
1	790
1	790
1	5
1	790
1	790
1	790
1	790
1	790
1	790
1	790
1	790
1	7
1	5
1	790
1	790
1	790
1	790
1	790
1	790
1	790
1	790
1	790
1	790
1	7
1	790
1	790
1	790
1	790
1	790
1	791
1	790
1	790
1	790
1	790
1	18
1	4
1	790
1	790
1	790
1	790
1	790
1	790
1	8
1	790
1	790
1	790
1	790
1	790
1	6
1	790
1	790
1	790
1	9
1	790
1	790
1	790
1	790
1	790
1	790
1	790
1	8
1	790
1	12
1	790
1	790
1	790
1	790
1	790
1	790
1	790
1	790
1	790
1	790
1	790
1	790
1	790
1	7
1	790
1	790
1	790
1	790
1	19
1	790
1	4
1	790
1	790
1	790
1	790
1	790
1	791
1	790
1	790
1	5
1	790
2	5
2	3
2	7
2	3
2	7
2	4
2	3
2	3
2	791
2	3
2	3
2	8
2	6
2	5
2	3
2	3
2	3
2	791
2	791
2	5
2	8
2	4
2	3
2	3
2	7
2	3
2	4
2	6
2	3
2	5
2	3
2	3
2	8
2	4
2	5
2	3
2	4
2	3
2	6
2	6
2	3
2	3
2	4
2	4
2	8
2	4
2	9
2	3
2	3
2	3
2	3
2	4
2	3
2	4
2	5
2	3
2	6
2	8
2	3
2	6
2	3
2	19
2	4
2	3
2	5
2	6
2	8
2	6
2	4
2	791
2	10
2	3
2	4
2	3
2	4
2	6
2	3
2	5
2	19
2	3
2	3
2	4
2	4
2	3
2	3
2	791
2	3
2	4
2	4
2	5
2	4
2	4
2	4
2	18
2	7
2	8
2	7
2	4
2	3
2	3
3	4
3	4
3	4
3	4
3	4
3	4
3	5
3	4
3	4
3	4
3	4
3	4
3	4
3	4
3	5
3	4
3	5
3	8
3	4
3	4
3	4
3	5
3	4
3	4
3	4
3	4
3	5
4	5
4	5
4	5
4	6
4	5
4	5
4	5
4	6
4	5
4	5
4	5
4	5
4	5
4	8
4	5
4	5
4	5
4	5
5	6
5	6
5	6
5	6
5	6
5	6
6	7
6	7
6	7
6	7
6	7
6	7
7	8
7	8
7	8
7	8
7	8
7	8
7	8
8	9
8	9
10	11
11	12
16	17
17	18
789	790
