1	6124
1	1131
1	1132
1	1131
1	29
1	1131
1	1131
1	14
1	23
1	18
1	1131
1	1131
1	14
1	14
1	1131
1	33
1	1131
1	1131
1	1131
1	1131
1	14
1	1131
1	1131
1	1131
1	1131
1	1132
1	1131
1	33
1	1131
1	1131
1	1131
1	1131
1	26
1	16
1	1131
1	1131
1	1131
1	19
1	1131
1	1131
1	1131
1	17
1	1131
1	12
1	12
1	1131
1	13
1	28
1	14
1	22
1	1131
1	1131
1	14
1	1131
1	6124
1	1131
1	1131
1	1131
1	1131
1	1131
1	1131
1	1131
1	1131
1	1131
1	24
1	13
1	14
1	1131
1	1131
1	1131
1	1132
1	1131
1	1131
1	37
1	13
1	32
1	1132
1	1131
1	1131
1	1131
1	1131
1	15
1	14
1	1131
1	1131
1	1131
1	1133
1	1131
1	1131
1	1131
1	1131
1	11
1	1131
1	1131
1	1131
1	1131
1	1131
1	1131
1	18
1	1131
1	1131
1	1131
1	14
1	1131
1	1131
1	1131
1	32
1	26
1	1131
1	1131
1	10
1	17
1	1131
1	1131
1	8
1	32
1	15
1	13
1	1131
1	7
1	1131
1	1131
1	1131
1	16
1	1131
1	1131
1	16
1	1132
1	11
1	11
1	1131
1	13
1	28
1	1131
1	13
1	1131
1	1131
1	1131
1	1131
1	1131
1	6
1	1131
1	1131
1	12
1	1131
1	1131
1	1131
1	1131
1	1131
1	1131
1	12
1	1131
1	1131
1	1131
1	1131
1	1131
1	9
1	10
1	7
1	1131
1	1131
1	33
1	12
1	1131
1	1131
1	1131
1	1131
1	1131
1	32
1	1131
1	1131
1	1131
1	12
1	1131
1	1131
1	1131
1	1131
1	13
1	1131
1	10
1	1131
1	1131
1	14
1	15
1	8
1	11
1	1131
1	1131
1	8
1	1131
1	1131
1	13
1	1131
1	1131
1	1131
1	1131
1	30
1	1131
1	1131
1	1131
1	1131
1	16
1	1131
1	1131
1	6
1	19
1	1131
1	1131
1	1131
1	1132
1	1131
1	1131
1	1131
1	1132
1	28
1	1131
1	1131
1	1131
1	1132
1	1131
1	1131
1	12
1	1131
1	14
1	1131
1	1131
1	1131
1	10
1	1131
1	1131
1	11
1	1131
1	1131
1	23
1	1133
1	6124
1	7
1	12
1	1131
1	1131
1	11
1	1131
1	28
1	1131
1	6
1	16
1	1131
1	1131
1	15
1	1131
1	1131
1	5
1	1131
1	1131
1	13
1	1131
1	1131
1	13
1	13
1	1131
1	1131
1	14
1	1131
1	32
1	1131
1	1131
1	1131
1	1131
1	1131
1	1131
1	1131
1	1131
1	1131
1	1131
1	1131
1	1131
1	1131
1	1131
1	12
1	1132
1	1131
1	1131
1	1131
1	28
1	1131
1	1131
1	12
1	1131
1	12
1	1131
1	1131
1	1131
1	1131
1	1131
1	11
1	10
1	28
1	1131
1	1131
1	17
1	28
1	1131
1	32
1	1131
1	10
1	1131
1	13
1	1131
1	1131
1	1131
1	1131
1	1131
1	1131
1	1131
1	14
1	1131
1	8
1	1131
1	1131
1	28
1	1131
1	12
1	1131
1	1131
1	16
1	11
1	1131
1	6
1	1131
1	1133
1	28
1	1131
1	16
1	14
1	1131
1	1131
1	1131
1	3
1	9
1	1133
1	13
1	12
1	1131
1	1131
1	1131
1	1131
1	1131
1	1131
1	1131
1	1131
1	1131
1	1131
1	1131
1	1131
1	1131
1	1131
1	1131
1	1131
1	1131
1	1131
1	1131
1	24
1	1131
1	1131
1	7
1	1131
1	1131
1	8
1	1131
1	1131
1	1131
1	1131
1	14
1	1131
1	12
1	12
1	24
1	12
1	1131
1	1131
1	1131
1	1131
1	1131
1	1131
1	12
1	1131
1	16
1	32
1	1131
1	1131
1	9
1	1131
1	1131
1	12
1	1131
1	7
1	1131
1	1132
1	1131
1	1131
1	1131
1	1131
1	12
1	1131
1	1131
1	1131
1	1131
1	1131
1	1131
1	1131
1	32
1	10
1	1131
1	18
1	1131
1	1132
1	16
1	17
1	1131
1	1131
1	1131
1	16
1	1131
1	1131
1	13
1	1131
1	11
1	1131
1	14
1	1131
1	9
1	1131
1	13
1	14
1	1131
1	1131
1	11
1	1131
1	1131
1	1131
1	1131
1	13
1	1131
1	1131
1	12
1	1131
1	1131
1	1131
1	6
1	1131
1	1131
1	1131
1	5
1	1131
1	11
1	1131
1	6
1	1131
1	14
1	1131
1	1131
1	6
1	1131
1	1131
1	1131
1	1132
1	8
1	1131
1	1131
1	1131
1	1131
1	1132
1	1131
1	1131
1	1131
1	9
1	11
1	12
1	1131
1	1131
1	1133
1	1131
1	1131
1	1131
1	4
1	17
1	1131
1	1131
1	13
1	1131
1	6
1	1131
1	13
1	1131
1	1131
1	7
1	1132
1	1131
1	1131
1	16
1	9
1	16
1	9
1	1131
1	6
1	1131
1	16
1	1131
1	1131
1	1131
1	1131
1	1131
1	7
1	1131
1	12
1	1131
1	1131
1	6124
1	25
1	15
1	1131
1	10
1	1131
1	1131
1	1131
1	1131
1	1131
1	1131
1	1131
1	12
1	1131
1	1131
1	1131
1	1131
1	1131
1	1131
1	1131
1	1131
1	1131
1	4
1	1131
1	9
1	1131
1	1132
1	8
1	6
1	1131
1	1131
1	1131
1	11
1	1131
1	1131
1	22
1	1131
1	1131
1	8
1	6
1	1131
1	1131
1	14
1	1131
1	1131
1	1131
1	1131
1	1131
1	1131
1	34
1	6
1	1131
1	1131
1	1131
1	1131
1	1131
1	1131
1	1131
1	14
1	1131
1	12
1	22
1	1131
1	1131
1	29
1	5
1	1131
1	1131
1	8
1	1131
1	13
1	8
1	1131
1	25
1	1131
1	1131
1	1131
1	1131
1	1131
1	1131
1	1131
1	1131
1	1134
1	1131
1	1131
1	1131
1	14
1	1131
1	32
1	1131
1	5
1	1131
1	1131
1	1131
1	1132
1	11
1	1131
1	1131
1	8
1	1131
1	1131
1	1131
1	1131
1	1131
1	11
1	1131
1	1131
1	1131
1	1131
1	1131
1	1131
1	1131
1	1131
1	5
1	1133
1	8
1	28
1	1131
1	7
1	1131
1	1131
1	1131
1	1131
1	1131
1	4
1	1131
1	14
1	1131
1	1131
1	13
1	1131
1	1131
1	1131
1	1131
1	1131
1	1131
1	1131
1	1131
1	1131
1	1131
1	1131
1	1131
1	1131
1	1131
1	1131
1	17
1	1131
1	1131
1	1131
1	11
1	1131
1	1131
1	1131
1	1131
1	7
1	22
1	1131
1	5
1	1131
1	6
1	1131
1	1131
1	1131
1	1131
1	1131
1	1131
1	1131
1	1131
1	8
1	1131
1	1131
1	4
1	1131
1	1131
1	16
1	5
1	11
1	1131
1	1131
1	5
1	1131
1	1131
1	19
1	1131
1	1131
1	1131
1	1131
1	23
1	1131
1	10
1	1131
1	1131
1	1132
1	1131
1	1131
1	1131
1	1131
1	1131
1	1131
1	14
1	1131
1	1131
1	1131
1	12
1	1131
1	28
1	14
1	1131
1	7
1	6
1	1131
1	1131
1	1132
1	1131
1	1131
1	1131
1	1131
1	11
1	1131
1	1131
1	13
1	1131
1	1131
1	10
1	1131
1	8
1	8
1	6
1	7
1	1131
1	1131
1	1131
1	1131
1	1131
1	1131
1	1131
1	1131
1	1131
1	10
1	1131
1	1131
1	1131
1	10
1	1131
1	1131
1	1131
1	1131
1	1131
1	1131
1	1131
1	1131
1	7
1	12
1	14
1	1131
1	1131
1	5
1	1131
1	1131
1	1131
1	34
1	1131
1	1131
1	1131
1	1131
1	1131
1	11
1	1131
1	1131
1	6
1	1131
1	1132
1	1131
1	1131
1	1131
1	1131
1	1131
1	14
1	1131
1	1131
1	1131
1	9
1	1131
1	1131
1	10
1	28
1	11
1	1131
1	1132
1	1131
1	1131
1	1131
1	1131
1	10
1	1131
1	1131
1	13
1	14
1	16
1	1131
1	11
1	1131
1	7
1	1131
1	22
1	1131
1	1131
1	1131
1	14
1	5
1	1131
1	4
1	1131
1	1131
1	1131
1	1131
1	11
1	1132
1	1131
1	1131
1	17
1	1131
1	7
1	8
1	1131
1	1131
1	1132
1	1131
1	18
1	1131
1	1131
1	1131
1	9
1	1131
1	8
1	12
1	1131
1	1131
1	1131
1	1131
1	1131
1	1131
1	1131
1	1131
1	9
1	1131
1	1131
1	1131
1	1131
1	1131
1	7
1	1131
1	6
1	1131
1	1131
1	7
1	1131
1	1131
1	1131
1	1131
1	1131
1	1131
1	16
1	11
1	1131
1	1131
1	7
1	1131
1	1131
1	8
1	11
1	1131
1	1131
1	1131
1	1131
1	1131
1	1131
1	1131
1	1131
1	1133
1	15
1	7
1	1131
1	1131
1	1131
1	1131
1	22
1	1131
1	4
1	14
1	1131
1	1131
1	8
1	9
1	1131
1	1131
1	1131
1	1131
1	1131
1	22
1	1131
1	1131
1	1131
1	11
1	1131
1	1131
1	6124
1	1131
1	1131
1	1131
1	11
1	1131
1	13
1	23
1	12
1	1131
1	7
1	1131
1	5
1	1131
1	1131
1	7
1	1131
1	11
1	1131
1	28
1	1131
1	1131
1	1131
1	1131
1	11
1	13
1	1131
1	1131
1	1131
1	1131
1	1131
1	1131
1	1131
1	1131
1	7
1	4
1	1131
1	32
1	4
1	1131
1	8
1	1131
1	9
1	4
1	1131
1	1131
1	15
1	1131
1	1131
1	4
1	1131
1	1131
1	1131
1	1131
1	13
1	1131
1	1131
1	1131
1	1131
1	1131
1	1131
1	1131
1	14
1	5
1	1131
1	1131
1	6
1	1131
1	1131
1	1131
1	1131
1	1131
1	1131
1	33
1	1131
1	1131
1	1131
1	1131
1	1131
1	1131
1	1131
1	4
1	1131
1	16
1	1131
1	16
1	1131
1	11
1	1131
1	1131
1	1131
1	1131
1	1131
1	1131
1	1131
1	1131
1	1131
1	4
1	1131
1	12
1	1131
1	1131
1	12
1	1131
1	1131
1	1131
1	1131
1	1131
1	1131
1	13
1	1131
1	1131
1	1131
1	1131
1	1131
1	1131
1	1131
1	1131
1	1131
1	1131
1	11
1	11
1	1131
1	8
1	1131
1	1131
1	1131
1	1131
1	1131
1	8
1	6
1	1131
1	12
1	1131
1	1132
1	1131
1	1131
1	10
1	1131
1	1131
1	1131
1	22
1	1131
1	1131
1	13
1	1131
1	1131
1	1131
1	7
1	1131
1	12
1	1131
1	1131
1	1131
1	1131
1	1131
1	1131
1	1131
1	1131
1	1131
1	1131
1	1131
1	1131
1	1131
1	16
1	1131
1	1131
1	13
1	1132
1	1131
1	8
1	9
1	1131
1	1131
1	1131
1	1131
1	1131
1	22
1	1131
1	1131
1	14
1	1131
1	1131
1	1131
1	24
1	1131
1	1131
1	1131
1	1131
1	1131
1	5
1	1131
1	1131
1	1131
1	1131
1	12
1	1131
1	2
1	8
1	1131
1	1131
1	1131
1	1131
1	1132
1	1131
1	1131
1	1131
1	1131
1	7
1	1131
1	12
1	1131
1	1131
1	11
1	1131
1	14
1	1131
1	1131
1	1131
1	11
1	1131
1	4
1	1131
1	1132
1	7
1	1131
1	1131
1	8
1	13
1	1131
1	1131
1	8
1	1131
1	1131
1	5
1	1131
1	1131
1	11
1	1131
1	1131
1	1131
1	6
1	1131
1	1131
1	1131
1	10
1	1131
1	1131
1	6
1	1131
1	1131
1	1131
1	11
1	10
1	12
1	11
1	6
1	13
1	1131
1	12
1	1131
1	1131
1	12
1	1131
1	1131
1	17
1	13
1	1131
1	1131
1	1131
1	1131
1	1131
1	7
1	8
1	1131
1	1131
1	7
1	1131
1	1131
1	1131
1	6
1	7
1	1131
1	1131
1	8
1	1131
1	1131
1	1131
1	11
1	1131
1	1131
1	1131
1	1131
1	1131
1	1131
1	1131
1	1131
1	1131
1	1131
1	11
1	1131
1	1131
1	11
1	1131
1	28
1	1131
1	7
1	1132
1	19
1	1131
1	5
1	1131
1	1131
1	1131
1	2
1	10
1	1131
1	1131
1	6
1	1131
1	9
1	1131
1	1131
1	8
1	1131
1	14
1	1131
1	1131
1	1131
1	1131
1	1131
1	10
1	1131
1	1131
1	1131
1	1131
1	1131
1	1131
1	1131
1	4
1	1131
1	1131
1	14
1	8
1	1131
1	1131
1	1131
1	1131
1	1131
1	1131
1	1131
1	1131
1	4
1	1131
1	1131
1	1131
1	1132
1	1131
1	10
1	1131
1	17
1	14
1	1131
1	14
1	1131
1	1131
1	4
1	1131
1	1131
1	1131
1	28
1	1131
1	1131
1	1131
1	1131
1	1131
1	1131
1	1131
1	5
1	1131
1	1131
1	1132
1	1131
1	12
1	1131
1	1131
1	1131
1	1131
1	1131
1	32
1	1131
1	1131
1	1131
1	1131
1	1131
1	22
1	1131
1	1131
1	1131
1	14
1	1131
1	32
1	1131
1	1131
1	1131
2	1132
2	6
2	20
2	9
2	10
2	3
2	12
2	3
2	15
2	3
2	3
2	15
2	13
2	12
2	1132
2	7
2	5
2	3
2	6
2	3
2	8
2	4
2	1132
2	1132
2	1132
2	6
2	1132
2	24
2	9
2	17
2	3
2	9
2	3
2	23
2	3
2	29
2	3
2	4
2	3
2	3
2	3
2	3
2	13
2	1132
2	11
2	4
2	3
2	3
2	3
2	8
2	13
2	3
2	3
2	8
2	5
2	14
2	15
2	23
2	13
2	12
2	1132
2	5
2	5
2	10
2	8
2	20
2	3
2	3
2	3
2	3
2	5
2	7
2	7
2	13
2	10
2	8
2	3
2	1132
2	4
2	13
2	3
2	4
2	7
2	6
2	5
2	15
2	10
2	3
2	10
2	7
2	3
2	4
2	13
2	7
2	6
2	9
2	4
2	24
2	8
2	9
2	8
2	8
2	3
2	5
2	5
2	4
2	3
2	8
2	7
2	13
2	1132
2	3
2	5
2	9
2	6
2	3
2	3
2	11
2	3
2	4
2	6
2	8
2	3
2	1132
2	3
2	3
2	5
2	7
2	6
2	3
2	1132
2	13
2	17
2	3
2	3
2	3
2	14
2	10
2	7
2	3
2	7
2	6
2	6
2	3
2	13
2	9
2	7
2	3
2	7
2	4
2	4
2	12
2	6
2	6
2	3
2	7
2	8
2	17
2	4
2	3
2	6
2	7
2	3
2	7
2	4
2	3
2	10
2	4
2	5
2	15
2	3
2	4
2	13
2	4
2	6
2	3
2	8
2	7
2	7
2	8
2	1132
2	4
2	4
2	6
2	3
2	3
2	3
2	14
2	3
2	4
2	12
2	4
2	8
2	4
2	10
2	5
2	13
2	3
2	3
2	4
2	6
2	8
2	3
2	3
2	5
2	3
2	11
2	7
2	4
2	8
2	33
2	5
2	3
2	12
2	15
2	24
2	3
2	3
2	4
2	3
2	6
2	8
2	4
2	4
2	4
2	4
2	4
2	29
2	3
2	13
2	10
2	3
2	17
2	3
2	9
2	8
2	4
2	4
2	9
2	13
2	4
2	4
2	3
2	20
2	4
3	4
3	4
3	4
3	5
3	4
3	4
3	4
3	5
3	5
3	4
3	4
3	4
3	4
3	5
3	7
3	7
3	6
3	4
3	6
3	4
3	4
3	5
3	10
3	5
3	5
3	7
3	4
3	4
3	4
3	4
3	4
3	4
3	4
3	4
3	18
3	5
3	5
3	7
3	5
3	6
3	5
3	4
3	4
3	9
3	4
3	5
3	4
3	4
3	4
3	4
3	5
3	4
3	5
3	5
3	4
3	4
3	4
3	5
3	25
3	5
3	4
3	4
3	6
3	4
3	4
3	7
3	5
3	5
3	5
4	5
4	6
4	5
4	5
4	5
4	5
4	6
4	5
4	5
4	6
4	11
4	12
4	5
4	5
4	5
4	9
4	6
4	5
4	5
4	5
4	6
4	5
4	5
4	6
4	5
4	5
4	5
4	5
4	5
4	5
4	5
4	6
4	5
4	5
4	5
4	5
4	5
4	6
4	6
4	5
4	5
4	5
4	5
4	5
4	6
4	5
4	8
4	7
4	5
4	5
4	5
5	7
5	6
5	6
5	6
5	7
5	6
5	7
5	6
5	7
5	6
5	6
5	7
5	6
5	6
5	6
5	6
5	6
5	6
5	6
5	6
5	6
5	6
5	6
5	6
5	9
5	6
5	6
5	6
6	7
6	7
6	7
6	7
6	7
6	8
6	7
6	7
6	7
6	7
6	7
6	8
6	8
7	8
7	8
7	8
7	8
7	8
7	8
7	9
7	8
7	8
7	9
7	8
8	10
8	9
8	9
8	9
8	9
9	11
9	10
9	10
9	10
9	10
10	11
10	11
10	11
10	11
10	11
10	11
10	11
10	11
10	11
11	13
11	12
11	12
11	12
11	12
11	12
12	13
12	13
13	14
13	14
13	14
13	14
15	16
15	16
16	17
18	19
21	22
22	23
27	28
31	32
1130	1131
