1	6124
1	16
1	13
1	12
1	239
1	22
1	12
1	21
1	239
1	238
1	15
1	16
1	20
1	238
1	20
1	12
1	11
1	238
1	239
1	239
1	10
1	12
1	238
1	9
1	12
1	10
1	238
1	10
1	7
1	12
1	238
1	6124
1	12
1	10
1	9
1	238
1	238
1	8
1	12
1	238
1	238
1	34
1	238
1	238
1	238
1	12
1	8
1	8
1	238
1	7
1	21
1	19
1	10
1	238
1	33
1	12
1	238
1	238
1	20
1	10
1	7
1	238
1	14
1	238
1	238
1	238
1	238
1	238
1	238
1	5
1	238
1	6
1	33
1	9
1	238
1	238
1	12
1	4
1	238
1	10
1	12
1	11
1	239
1	11
1	8
1	33
1	21
1	9
1	238
1	238
1	12
1	14
1	238
1	11
1	238
1	238
1	12
1	8
1	11
1	10
1	238
1	11
1	238
1	238
1	238
1	19
1	11
1	238
1	238
1	11
1	10
1	240
1	10
1	18
1	238
1	10
1	238
1	238
1	238
1	238
1	11
1	238
1	238
1	238
1	238
1	5
1	6124
1	8
1	238
1	238
1	238
1	8
1	238
1	238
1	238
1	9
1	15
1	239
1	238
1	19
1	238
1	10
1	10
1	18
1	238
1	239
1	12
1	33
1	5
1	33
1	13
1	8
1	10
1	21
1	8
1	13
1	238
1	238
1	238
1	8
1	10
1	9
1	8
1	11
1	238
1	15
1	238
1	238
1	238
1	10
1	11
1	238
1	238
1	19
1	10
1	238
1	12
1	14
1	12
1	13
1	21
1	238
1	238
1	10
1	238
1	7
1	238
1	9
1	238
1	19
1	238
1	238
1	238
1	238
1	10
1	12
1	238
1	9
1	238
1	13
1	9
1	16
1	238
1	10
1	238
1	238
1	21
1	238
1	7
1	238
1	13
1	8
1	8
1	18
1	10
1	238
1	238
1	238
1	238
1	33
1	238
1	238
1	8
1	33
1	238
1	238
1	238
1	238
1	238
1	15
1	238
1	7
1	238
1	238
1	238
1	13
1	8
1	238
1	238
1	10
1	238
1	238
1	238
1	238
1	238
1	21
1	238
1	238
1	238
1	238
1	15
1	4
1	238
1	2
1	238
1	238
1	34
1	238
1	238
1	9
1	238
1	15
1	238
1	239
1	2
1	238
1	238
1	13
1	21
1	8
1	21
1	10
1	238
1	11
1	4
1	7
1	238
1	10
1	238
1	9
1	8
1	6
1	238
1	12
1	238
1	4
1	238
1	10
1	238
1	7
1	16
1	6
1	239
1	6
1	33
1	238
1	238
1	13
1	9
1	238
1	21
1	9
1	238
1	238
1	238
1	238
1	238
1	238
1	238
2	11
2	11
2	6
2	8
2	10
2	8
2	7
2	9
2	5
2	9
2	5
2	6
2	8
2	3
2	9
2	10
2	20
2	7
2	5
2	10
2	10
2	13
2	12
2	11
2	4
2	9
2	12
2	3
2	6
2	5
2	20
2	3
2	11
2	7
2	5
2	8
2	8
2	8
2	8
2	11
2	12
2	8
2	5
2	8
2	3
2	5
2	12
2	239
2	10
2	3
2	22
2	4
2	9
2	3
2	8
2	8
2	4
2	3
2	6
2	3
2	3
2	3
2	8
2	9
2	10
2	19
2	20
2	8
2	11
2	11
2	34
2	7
2	7
2	239
2	3
2	12
2	8
2	7
2	6
2	10
2	20
2	5
2	8
2	3
2	10
2	10
2	5
2	4
2	5
2	11
2	5
2	3
2	6
2	10
2	5
2	6
2	4
2	3
2	6
2	3
2	11
2	6
2	7
2	4
2	4
2	10
2	4
2	4
2	34
2	7
2	3
2	6
2	7
2	6
2	4
2	12
2	3
2	9
2	4
2	7
2	5
2	3
3	5
3	5
3	5
3	4
3	8
3	4
3	10
3	5
3	4
3	6
3	8
3	9
3	4
3	5
3	4
3	5
3	5
3	5
3	4
3	5
3	6
3	10
3	4
3	4
3	4
3	4
3	4
3	7
3	5
3	5
3	4
3	5
3	4
3	4
3	5
3	4
3	4
3	5
3	11
3	4
3	4
3	7
3	6
3	6
3	5
3	9
3	6
3	4
3	5
3	9
3	7
3	10
3	5
3	4
4	6
4	6
4	5
4	6
4	7
4	6
4	5
4	6
4	6
4	5
4	6
4	5
4	7
4	7
4	5
4	5
4	6
4	5
4	6
4	11
4	10
4	6
4	10
4	10
4	6
4	5
4	6
5	6
5	6
5	6
5	8
5	6
5	7
5	6
5	6
5	6
5	6
5	6
5	8
6	7
6	7
6	7
6	8
6	7
6	7
6	7
6	7
6	7
6	9
6	8
6	7
6	9
6	7
6	7
6	8
6	7
6	7
7	8
7	8
7	10
7	8
7	8
7	8
7	8
7	8
7	9
7	9
7	8
7	8
7	8
8	10
8	9
8	10
8	9
8	10
8	9
8	9
8	9
8	10
8	9
9	10
9	10
9	10
9	10
9	11
9	10
9	10
10	12
10	11
10	11
11	13
11	12
12	13
12	13
13	14
13	14
13	14
17	18
18	19
18	19
20	21
32	33
237	238
