1	6124
1	795
1	795
1	795
1	795
1	796
1	795
1	795
1	19
1	795
1	795
1	11
1	795
1	17
1	795
1	795
1	795
1	795
1	795
1	795
1	6124
1	12
1	11
1	795
1	795
1	795
1	17
1	798
1	795
1	795
1	795
1	795
1	795
1	795
1	795
1	795
1	795
1	795
1	795
1	795
1	796
1	795
1	795
1	795
1	795
1	795
1	19
1	17
1	795
1	16
1	795
1	795
1	15
1	795
1	15
1	795
1	799
1	795
1	795
1	795
1	795
1	796
1	795
1	795
1	6
1	795
1	13
1	795
1	795
1	795
1	795
1	16
1	795
1	795
1	795
1	9
1	795
1	795
1	795
1	20
1	795
1	795
1	795
1	795
1	795
1	796
1	795
1	795
1	795
1	795
1	16
1	795
1	795
1	7
1	795
1	795
1	797
1	16
1	796
1	17
1	795
1	795
1	795
1	795
1	795
1	795
1	795
1	8
1	795
1	795
1	795
1	795
1	795
1	7
1	795
1	795
1	14
1	795
1	796
1	11
1	795
1	795
1	796
1	795
1	10
1	11
1	13
1	795
1	795
1	795
1	795
1	795
1	796
1	7
1	795
1	795
1	795
1	13
1	11
1	795
1	795
1	11
1	7
1	795
1	795
1	10
1	795
1	795
1	795
1	795
1	12
1	796
1	795
1	11
1	795
1	15
1	795
1	12
1	795
1	11
1	795
1	795
1	795
1	6
1	795
1	796
1	795
1	795
1	11
1	795
1	10
1	795
1	795
1	10
1	795
1	795
1	795
1	795
1	10
1	795
1	795
1	795
1	795
1	795
1	795
1	795
1	795
1	795
1	795
1	9
1	795
1	24
1	795
1	795
1	795
1	795
1	795
1	795
1	795
1	12
1	16
1	795
1	795
1	795
1	795
1	795
1	10
1	796
1	9
1	795
1	795
1	10
1	7
1	795
1	795
1	795
1	795
1	795
1	795
1	795
1	795
1	795
1	795
1	795
1	795
1	795
1	795
1	795
1	795
1	795
1	9
1	795
1	17
1	17
1	795
1	795
1	795
1	5
1	795
1	795
1	795
1	795
1	6
1	795
1	795
1	16
1	795
1	6124
1	795
1	795
1	12
1	795
1	795
1	795
1	10
1	795
1	795
1	796
1	16
1	795
1	795
1	795
1	795
1	795
1	11
1	12
1	795
1	795
1	795
1	795
1	795
1	795
1	795
1	795
1	795
1	795
1	795
1	5
1	795
1	795
1	795
1	12
1	10
1	795
1	795
1	797
1	7
1	798
1	795
1	795
1	795
1	795
1	795
1	795
1	795
1	795
1	795
1	795
1	11
1	6
1	795
1	795
1	795
1	795
1	795
1	795
1	11
1	795
1	15
1	795
1	18
1	795
1	795
1	795
1	795
1	795
1	795
1	795
1	795
1	795
1	9
1	17
1	795
1	795
1	795
1	795
1	8
1	795
1	797
1	11
1	795
1	15
1	795
1	797
1	795
1	795
1	15
1	795
1	795
1	795
1	795
1	795
1	795
1	795
1	795
1	795
1	795
1	795
1	795
1	795
1	795
1	795
1	795
1	795
1	795
1	795
1	795
1	795
1	795
1	795
1	15
1	9
1	795
1	795
1	10
1	795
1	12
1	795
1	11
1	795
1	795
1	9
1	795
1	795
1	795
1	795
1	795
1	795
1	795
1	795
1	795
1	795
1	795
1	796
1	8
1	4
1	795
1	795
1	2
1	795
1	795
1	795
1	795
1	795
1	795
1	795
1	11
1	795
1	795
1	795
1	795
1	795
1	7
1	795
1	795
1	795
1	795
1	795
1	795
1	795
1	8
1	5
1	795
1	795
1	798
1	797
1	795
1	795
1	795
1	795
1	795
1	795
1	795
1	795
1	795
1	795
1	795
1	795
1	796
1	795
1	795
1	6
1	11
1	795
1	5
1	6
1	795
1	795
1	795
1	6
1	12
1	795
1	15
1	795
1	795
1	795
1	15
1	16
1	795
1	6
1	795
1	795
1	795
1	15
1	795
1	795
1	795
1	795
1	795
1	795
1	8
1	795
1	6
1	9
1	795
1	9
1	795
1	795
1	795
1	795
1	795
1	9
1	795
1	795
1	8
1	795
1	795
1	795
1	795
1	797
1	795
1	795
1	795
1	10
1	6
1	4
1	10
1	12
1	795
1	795
1	795
1	10
1	9
1	795
1	795
1	795
1	795
1	795
1	795
1	6
1	6
1	795
1	795
1	9
1	795
1	795
1	795
1	5
1	795
1	795
1	795
1	795
1	795
1	795
1	795
1	795
1	795
1	796
1	795
1	795
1	6
1	795
1	795
1	795
1	796
1	795
1	795
1	795
1	7
1	795
1	9
1	795
1	795
1	12
1	795
1	795
1	5
1	5
1	795
1	795
1	6124
1	795
1	795
1	7
1	795
1	795
1	795
1	795
1	795
1	795
1	795
1	795
1	795
1	7
1	795
1	795
1	795
1	8
1	795
1	7
1	4
1	795
1	10
1	5
1	795
1	797
1	795
1	2
1	795
1	795
1	795
1	795
1	7
1	795
1	6
1	795
1	16
1	4
1	795
1	795
1	795
1	795
1	10
1	795
1	795
1	795
1	795
1	795
1	795
1	795
1	795
1	6
1	795
1	795
1	795
1	6
1	795
1	795
1	5
1	18
1	795
1	795
1	14
1	795
1	795
1	9
1	795
1	796
1	795
1	4
1	795
1	795
1	795
1	795
1	795
1	796
1	16
1	795
1	795
1	6
1	12
1	4
1	796
1	795
1	795
1	795
1	795
1	795
1	795
1	11
1	795
1	795
1	795
1	10
1	9
1	7
1	795
1	796
1	795
1	795
1	10
1	795
1	795
1	795
1	795
1	795
1	795
1	795
1	15
1	795
1	795
1	795
1	5
1	10
1	795
1	795
1	796
1	795
1	5
1	795
1	795
1	8
1	795
1	6
1	796
1	795
1	795
1	15
1	795
1	795
1	9
1	795
1	795
1	6
1	795
1	795
1	5
1	795
1	795
1	5
1	795
1	15
1	795
1	795
1	4
1	797
1	9
1	11
1	795
1	796
1	795
1	9
1	795
1	795
1	795
1	795
1	795
1	795
1	795
1	795
1	795
1	795
1	795
1	795
1	795
1	795
1	795
1	795
1	5
1	6
1	15
1	7
1	10
1	795
1	795
1	795
1	795
1	795
1	795
1	5
1	795
1	5
1	795
1	795
1	7
1	795
1	795
1	7
1	9
1	795
1	795
1	795
1	7
1	11
1	795
1	795
1	795
1	795
1	795
1	7
1	795
1	795
1	9
1	795
1	795
1	795
1	795
1	795
1	795
1	795
1	9
1	795
1	795
1	8
1	795
1	795
1	7
1	795
1	795
1	795
1	795
1	10
1	795
1	796
1	795
1	5
1	796
1	11
1	796
1	795
1	795
1	795
1	4
1	795
1	6
1	795
1	15
1	795
1	8
1	795
1	795
1	795
1	9
1	795
1	795
1	795
1	795
1	5
1	795
1	795
1	795
1	795
1	5
1	6
1	8
1	795
1	795
1	795
1	795
1	795
1	795
1	795
1	795
1	6
1	795
1	795
1	7
1	7
1	6
1	16
1	795
1	795
1	795
1	796
1	795
1	795
1	10
1	795
1	795
1	795
1	795
1	795
1	795
1	5
1	795
1	12
1	795
1	795
1	7
1	795
1	795
1	795
1	795
1	795
1	795
1	11
1	795
1	795
1	795
1	795
1	795
1	795
1	795
1	795
1	795
1	795
1	6
1	8
1	795
1	795
1	795
1	795
1	795
1	795
1	795
1	795
1	795
1	795
1	11
1	795
1	795
1	795
1	795
1	6
1	795
1	795
1	795
1	795
1	795
1	795
1	795
1	795
1	795
1	795
1	795
1	795
1	795
1	796
1	795
1	795
1	795
1	795
1	11
1	795
1	795
1	795
1	15
1	4
1	795
1	795
1	6
1	16
1	795
1	795
1	795
1	795
1	795
1	795
1	795
1	16
1	5
1	795
1	795
1	15
1	6
1	795
1	795
1	10
1	4
1	5
1	798
1	795
1	795
1	10
1	795
1	7
1	795
1	795
1	10
1	795
1	795
1	795
1	7
1	795
1	795
1	795
1	795
1	795
1	795
1	795
1	795
1	795
1	795
1	795
1	4
1	795
1	8
1	4
1	795
1	5
1	795
1	795
1	795
1	795
1	795
1	795
1	795
1	795
1	795
1	795
1	795
1	795
2	3
2	9
2	796
2	4
2	4
2	5
2	3
2	8
2	10
2	3
2	8
2	6
2	7
2	3
2	9
2	11
2	3
2	8
2	3
2	5
2	3
2	7
2	3
2	10
2	3
2	4
2	3
2	11
2	3
2	7
2	7
2	4
2	4
2	5
2	3
2	6
2	7
2	8
2	3
2	7
2	3
2	5
2	4
2	5
2	3
2	3
2	8
2	3
2	3
2	7
2	6
2	796
2	3
2	4
2	10
2	3
2	4
2	3
2	5
2	4
2	4
2	3
2	5
2	5
2	3
2	3
2	4
2	11
2	4
2	3
2	16
2	3
2	7
2	3
2	5
2	4
2	3
2	5
2	3
2	5
2	3
2	6
2	3
2	8
2	4
2	3
2	3
2	3
2	4
2	4
2	5
2	3
2	4
2	4
2	6
2	3
2	3
2	4
2	796
2	3
2	6
2	3
2	4
2	4
2	3
2	6
2	3
2	3
2	3
2	4
2	4
2	4
2	7
2	7
2	3
2	6
2	7
2	7
2	3
2	3
2	3
3	4
3	8
3	4
3	4
3	5
3	4
3	4
3	4
3	9
3	4
3	4
3	4
3	4
3	4
3	4
3	4
3	5
3	5
3	4
3	4
3	4
3	4
3	4
3	4
3	4
3	4
3	4
3	4
3	4
3	4
3	5
3	4
3	4
3	8
3	4
3	4
3	4
3	6
3	5
3	8
3	4
3	4
3	4
3	4
3	5
3	4
3	4
4	5
4	5
4	5
4	5
4	6
4	5
4	5
4	5
4	5
4	5
4	6
4	5
4	5
4	5
4	5
4	5
4	6
4	5
4	5
4	5
4	5
4	5
4	5
4	5
4	5
5	6
5	7
5	6
5	6
5	6
5	6
5	6
5	6
5	6
5	6
5	6
5	6
5	6
5	6
5	6
5	6
5	6
5	6
5	6
5	6
5	6
5	6
6	7
6	8
6	7
6	7
6	7
6	7
6	7
6	7
6	7
6	7
6	8
7	8
8	9
8	9
8	9
9	10
9	10
9	10
9	10
10	11
10	11
11	12
14	15
14	15
14	15
15	16
794	795
