7	6124
8	6124
10	6124
12	6124
12	6124
12	6124
13	6124
13	6124
13	6124
13	6124
14	6124
14	6124
14	6124
15	6124
15	6124
15	6124
16	6124
16	6124
17	6124
17	6124
17	6124
18	6124
19	6124
19	6124
19	6124
20	6124
21	6124
21	6124
21	6124
22	6124
22	6124
22	6124
22	6124
23	6124
23	6124
23	6124
23	6124
24	6124
24	6124
24	6124
25	6124
25	6124
26	6124
26	6124
26	6124
26	6124
27	6124
27	6124
28	6124
527	6124
527	6124
527	6124
527	6124
527	6124
527	6124
527	6124
527	6124
527	6124
527	6124
527	6124
527	6124
527	6124
527	6124
527	6124
527	6124
527	6124
527	6124
527	6124
527	6124
527	6124
527	6124
527	6124
528	6124
528	6124
528	6124
528	6124
528	6124
528	6124
528	6124
528	6124
528	6124
528	6124
528	6124
528	6124
528	6124
528	6124
528	6124
529	6124
529	6124
529	6124
529	6124
529	6124
529	6124
529	6124
529	6124
529	6124
529	6124
529	6124
530	6124
530	6124
531	6124
531	6124
532	6124
532	6124
532	6124
532	6124
533	6124
533	6124
533	6124
534	6124
534	6124
535	6124
537	6124
538	6124
541	6124
542	6124
543	6124
545	6124
