6	6124
7	6124
11	6124
11	6124
11	6124
12	6124
12	6124
183	6124
183	6124
183	6124
183	6124
183	6124
183	6124
184	6124
184	6124
184	6124
184	6124
184	6124
184	6124
184	6124
185	6124
185	6124
185	6124
185	6124
186	6124
186	6124
186	6124
188	6124
188	6124
