13	6124
13	6124
13	6124
17	6124
17	6124
21	6124
23	6124
24	6124
26	6124
26	6124
925	6124
925	6124
925	6124
925	6124
925	6124
925	6124
925	6124
925	6124
925	6124
925	6124
925	6124
925	6124
925	6124
925	6124
925	6124
925	6124
925	6124
925	6124
925	6124
925	6124
925	6124
925	6124
925	6124
925	6124
926	6124
926	6124
926	6124
926	6124
926	6124
926	6124
926	6124
926	6124
926	6124
926	6124
926	6124
926	6124
926	6124
926	6124
926	6124
926	6124
926	6124
926	6124
927	6124
927	6124
927	6124
927	6124
927	6124
927	6124
927	6124
927	6124
927	6124
928	6124
928	6124
928	6124
928	6124
928	6124
929	6124
930	6124
931	6124
931	6124
931	6124
932	6124
932	6124
932	6124
934	6124
934	6124
936	6124
936	6124
938	6124
