1	6124
1	701
1	700
1	26
1	700
1	700
1	4
1	700
1	21
1	700
1	16
1	700
1	13
1	20
1	23
1	18
1	15
1	20
1	700
1	700
1	81
1	19
1	700
1	700
1	700
1	700
1	700
1	700
1	700
1	80
1	700
1	700
1	18
1	15
1	700
1	700
1	18
1	14
1	15
1	700
1	700
1	700
1	701
1	700
1	24
1	700
1	80
1	701
1	700
1	18
1	14
1	700
1	700
1	700
1	700
1	20
1	700
1	700
1	21
1	700
1	700
1	14
1	23
1	700
1	700
1	700
1	700
1	16
1	700
1	23
1	700
1	12
1	700
1	700
1	700
1	700
1	700
1	25
1	700
1	13
1	5
1	12
1	15
1	14
1	17
1	700
1	701
1	700
1	700
1	700
1	700
1	17
1	700
1	17
1	700
1	700
1	24
1	10
1	700
1	700
1	23
1	700
1	700
1	13
1	8
1	16
1	23
1	12
1	17
1	80
1	17
1	12
1	700
1	700
1	20
1	700
1	12
1	700
1	12
1	703
1	700
1	700
1	700
1	700
1	700
1	11
1	36
1	700
1	700
1	700
1	700
1	22
1	16
1	7
1	705
1	80
1	14
1	700
1	21
1	700
1	16
1	700
1	13
1	80
1	700
1	25
1	700
1	700
1	700
1	700
1	14
1	17
1	18
1	700
1	17
1	700
1	700
1	9
1	12
1	700
1	24
1	700
1	18
1	700
1	17
1	9
1	700
1	700
1	700
1	13
1	700
1	14
1	700
1	15
1	17
1	28
1	700
1	24
1	8
1	10
1	11
1	16
1	700
1	13
1	15
1	700
1	700
1	704
1	21
1	13
1	18
1	12
1	24
1	17
1	20
1	14
1	701
1	12
1	700
1	80
1	700
1	700
1	22
1	700
1	700
1	700
1	700
1	12
1	8
1	14
1	20
1	20
1	700
1	14
1	700
1	8
1	80
1	700
1	8
1	9
1	4
1	700
1	8
1	700
1	701
1	10
1	700
1	17
1	700
1	700
1	11
1	13
1	15
1	700
1	700
1	700
1	700
1	23
1	7
1	18
1	8
1	23
1	700
1	700
1	700
1	701
1	11
1	700
1	23
1	700
1	17
1	10
1	13
1	701
1	700
1	700
1	700
1	700
1	14
1	11
1	21
1	17
1	702
1	16
1	8
1	9
1	8
1	700
1	700
1	20
1	10
1	700
1	700
1	14
1	700
1	17
1	700
1	700
1	9
1	700
1	701
1	700
1	700
1	700
1	22
1	15
1	700
1	17
1	700
1	700
1	700
1	12
1	12
1	700
1	700
1	12
1	35
1	700
1	13
1	24
1	700
1	702
1	700
1	700
1	700
1	80
1	35
1	25
1	14
1	700
1	10
1	80
1	23
1	4
1	700
1	19
1	700
1	700
1	700
1	9
1	22
1	700
1	9
1	700
1	80
1	700
1	700
1	700
1	35
1	11
1	11
1	22
1	700
1	9
1	24
1	17
1	12
1	700
1	11
1	14
1	700
1	17
1	700
1	700
1	17
1	700
1	700
1	700
1	700
1	22
1	7
1	700
1	16
1	12
1	13
1	700
1	15
1	18
1	700
1	8
1	8
1	700
1	700
1	17
1	700
1	700
1	6124
1	18
1	11
1	5
1	14
1	700
1	5
1	18
1	5
1	700
1	700
1	700
1	8
1	700
1	23
1	25
1	13
1	700
1	700
1	15
1	700
1	10
1	10
1	700
1	8
1	700
1	14
1	8
1	24
1	700
1	700
1	10
1	700
1	13
1	16
1	700
1	12
1	700
1	700
1	23
1	12
1	700
1	701
1	35
1	81
1	12
1	22
1	700
1	16
1	700
1	12
1	15
1	700
1	700
1	7
1	700
1	700
1	700
1	700
1	23
1	13
1	700
1	22
1	5
1	16
1	35
1	12
1	9
1	700
1	700
1	700
1	12
1	700
1	700
1	700
1	700
1	12
1	700
1	700
1	19
1	700
1	700
1	7
1	14
1	12
1	8
1	16
1	7
1	8
1	6
1	14
1	23
1	700
1	35
1	700
1	7
1	700
1	10
1	700
1	9
1	700
1	700
1	17
1	12
1	700
1	700
1	8
1	23
1	23
1	4
1	700
1	10
1	11
1	700
1	700
1	15
1	700
1	11
1	6
1	14
1	700
1	700
1	14
1	11
1	700
1	700
1	700
1	700
1	6
1	24
1	11
1	9
1	13
1	700
1	700
1	20
1	700
1	7
1	700
1	700
1	700
1	5
1	700
1	700
1	700
1	17
1	700
1	700
1	17
1	16
1	700
1	4
1	700
1	700
1	700
1	6
1	23
1	700
1	700
1	700
1	11
1	700
1	7
1	7
1	11
1	701
1	80
1	700
1	35
1	5
1	23
1	700
1	700
1	17
1	19
1	700
1	700
1	700
1	15
1	700
1	24
1	7
1	9
1	700
1	13
1	7
1	700
1	700
1	9
1	702
1	700
1	700
1	700
1	700
1	5
1	9
1	700
1	700
1	16
1	16
1	700
1	700
1	11
1	700
1	15
1	700
1	5
1	4
1	700
1	14
1	6
1	700
1	700
1	9
1	35
1	35
1	700
1	700
1	7
1	700
1	700
1	82
1	700
1	18
1	700
1	80
1	22
1	11
1	11
1	6
1	5
1	701
1	5
1	700
1	700
1	6
1	80
1	11
1	700
1	11
1	700
1	10
1	700
1	700
1	700
1	9
1	9
1	700
1	12
1	35
1	8
1	24
1	15
1	17
1	702
1	11
1	16
1	700
1	700
1	700
1	18
1	9
1	700
1	9
1	5
1	6
1	700
1	702
1	700
1	700
1	9
1	700
1	700
1	20
1	700
1	8
1	17
1	700
1	81
1	700
1	700
1	6
1	700
1	700
1	8
1	700
1	6
1	18
1	12
1	700
1	700
1	701
1	15
1	700
1	700
1	16
1	13
1	35
1	11
1	700
1	700
1	14
1	700
1	700
1	700
1	700
1	700
1	7
1	700
1	700
1	11
1	700
1	700
1	700
1	700
1	700
1	12
1	8
1	12
1	15
1	18
1	9
1	701
1	700
1	10
1	5
1	700
1	80
1	21
1	700
1	11
1	17
1	4
1	700
1	700
1	11
1	700
1	700
1	700
1	701
1	10
1	10
1	700
1	8
1	700
1	700
1	23
1	700
1	700
1	16
1	700
1	11
1	701
1	15
1	700
1	700
1	12
1	9
1	700
1	700
1	700
1	12
1	8
1	9
1	23
1	16
1	701
1	700
1	700
1	11
1	6
1	700
1	700
1	700
1	8
1	10
1	9
1	10
1	17
1	82
1	11
1	700
1	10
1	700
1	700
1	17
1	700
1	12
1	700
1	14
1	8
1	6
1	8
1	701
1	35
1	700
1	16
1	700
1	700
1	7
1	4
1	700
1	20
1	700
1	700
1	700
1	20
1	11
1	9
1	17
1	700
1	7
1	700
1	11
1	700
1	700
1	17
1	700
1	700
1	700
1	700
1	15
1	7
1	701
1	700
1	700
1	700
1	20
1	19
1	700
1	8
1	20
1	700
1	80
1	8
1	8
1	700
1	700
1	9
1	10
1	11
1	700
1	5
1	700
1	700
1	700
1	22
1	700
1	700
1	80
1	700
1	700
1	701
1	80
1	700
1	700
1	700
1	8
1	9
1	19
1	700
1	6
1	700
1	12
1	14
1	6
1	700
1	700
1	11
1	20
1	8
1	23
1	700
1	7
1	14
1	7
1	8
1	700
1	7
1	700
1	700
1	9
1	700
1	7
1	80
1	8
1	11
1	7
1	23
1	700
1	4
1	700
1	17
1	35
1	700
1	700
1	700
1	6
1	700
1	700
1	23
1	700
1	11
1	700
1	700
1	700
1	700
1	24
1	23
1	7
1	700
1	700
1	24
1	2
1	10
1	12
1	11
1	8
1	8
1	700
1	6
1	9
1	9
1	10
1	7
1	700
1	700
1	700
1	24
1	700
1	700
1	700
1	16
1	8
1	700
1	21
1	16
1	700
1	22
1	17
1	17
1	700
1	23
1	700
1	700
1	700
1	10
1	700
1	700
1	700
1	700
1	700
1	5
1	6
1	700
1	17
1	700
1	700
1	35
1	10
1	700
1	700
1	5
1	7
1	700
1	700
1	35
1	701
1	80
1	9
1	700
1	700
1	9
1	700
1	700
1	22
1	700
1	18
1	700
1	700
1	700
1	700
1	5
1	700
1	700
1	5
1	700
1	700
1	700
1	700
1	700
1	22
1	17
1	16
1	16
1	700
1	700
1	11
1	700
1	5
1	700
1	700
1	700
1	700
1	35
1	16
1	20
1	13
1	700
1	6
1	700
1	700
1	80
1	700
1	700
1	17
1	9
1	700
1	700
1	700
1	22
1	700
1	7
1	700
1	7
1	9
1	80
1	18
1	16
1	11
1	22
1	700
1	700
1	81
1	35
1	10
1	700
1	4
1	23
1	23
1	7
1	700
1	16
1	12
1	11
1	700
1	700
1	700
1	8
1	11
1	700
1	700
1	700
1	11
1	11
1	7
1	35
1	700
1	700
1	700
1	35
1	700
1	700
1	700
1	700
1	7
1	700
1	8
1	700
1	700
1	20
1	11
1	700
1	700
1	700
1	700
1	700
1	700
1	80
1	700
1	700
1	700
1	700
1	700
1	20
1	700
1	20
1	700
1	4
1	22
1	700
1	700
1	700
1	20
1	700
1	8
1	700
1	7
1	700
1	7
1	700
1	8
1	4
1	700
1	80
1	22
1	4
1	8
1	700
1	700
1	24
1	700
1	700
1	701
1	700
1	9
1	700
1	16
1	23
1	17
1	700
1	24
1	700
1	17
1	8
1	35
1	700
1	17
1	6
1	7
1	700
1	700
1	700
1	8
1	700
1	4
1	700
1	700
1	700
1	700
1	700
1	700
1	700
1	700
1	700
1	11
1	700
1	8
1	700
1	11
1	700
1	700
1	700
1	700
1	16
1	20
1	700
1	17
1	700
1	10
1	11
1	700
1	24
1	700
1	700
1	700
1	700
2	8
2	10
2	4
2	10
2	11
2	4
2	701
2	3
2	8
2	81
2	7
2	4
2	7
2	15
2	3
2	81
2	36
2	5
2	7
2	9
2	701
2	3
2	12
2	3
2	81
2	81
2	81
2	19
2	81
2	3
2	3
2	3
2	81
2	7
2	3
2	7
2	3
2	9
2	16
2	701
2	7
2	3
2	701
2	4
2	12
2	3
2	3
2	3
2	3
2	3
2	4
2	81
2	12
2	3
2	3
2	3
2	3
2	81
2	4
2	3
2	9
2	7
2	4
2	7
2	7
2	17
2	4
2	3
2	3
2	7
2	3
2	8
2	3
2	3
2	6
2	701
2	11
2	7
2	3
2	3
2	11
2	6
2	6
2	3
2	4
2	81
2	6
2	4
2	3
2	5
2	4
2	3
2	81
2	5
2	6
2	19
2	9
2	3
2	3
2	5
2	81
2	3
2	4
2	4
2	7
2	6
2	81
2	4
2	81
2	81
2	10
2	4
2	4
2	4
2	5
2	17
2	4
2	3
2	9
2	3
2	6
2	4
2	4
2	10
2	16
2	12
2	10
2	13
2	5
2	8
2	4
2	81
2	4
2	4
2	6
2	3
2	5
2	7
2	3
2	7
2	3
2	3
2	3
2	7
2	24
2	11
2	5
2	5
2	17
2	24
2	7
2	6
2	5
2	10
2	4
2	3
2	3
2	9
2	3
2	20
2	8
2	4
2	10
2	3
2	81
2	9
2	11
2	9
2	13
2	15
2	4
2	81
2	3
2	19
2	3
2	6
2	3
2	81
2	3
2	7
2	81
2	8
2	14
2	13
2	3
2	4
2	3
2	3
2	4
2	5
2	3
2	4
2	4
2	3
2	9
2	10
2	19
2	7
2	81
2	6
2	3
2	3
2	3
2	3
2	3
2	3
3	4
3	5
3	14
3	13
3	4
3	4
3	4
3	4
3	4
3	4
3	4
3	7
3	4
3	4
3	4
3	7
3	4
3	5
3	4
3	5
3	9
3	5
3	4
3	7
3	4
3	4
3	4
3	5
3	5
3	4
3	5
3	19
3	5
3	4
3	8
3	5
3	7
3	5
3	4
3	6
3	5
3	5
3	4
3	4
3	4
3	7
3	4
3	4
3	4
3	10
3	4
3	4
3	4
3	4
3	4
3	5
3	5
3	4
3	4
3	4
3	8
3	8
3	4
3	9
3	4
3	4
3	9
3	4
3	4
3	4
3	5
4	5
4	5
4	6
4	5
4	5
4	5
4	5
4	5
4	5
4	6
4	6
4	5
4	5
4	5
4	6
4	5
4	5
4	5
4	8
4	5
4	7
4	5
4	5
4	5
4	6
4	5
4	5
4	5
4	5
4	5
4	8
4	5
4	5
4	5
4	5
4	5
5	6
5	8
5	6
5	6
5	6
5	6
5	7
5	9
5	6
5	6
5	6
5	6
5	6
5	6
5	6
5	7
5	6
5	9
5	7
5	6
5	6
5	6
5	6
5	6
6	7
6	8
6	8
6	8
6	7
6	7
6	7
6	7
6	7
6	7
6	7
6	9
6	7
7	8
7	8
7	8
7	8
7	8
7	8
7	8
7	8
7	8
7	8
7	8
7	8
7	8
7	8
8	9
8	9
8	9
8	9
8	9
8	9
8	9
8	9
8	9
9	10
9	10
9	10
9	10
9	10
10	11
10	11
10	11
10	11
10	11
10	11
11	12
11	12
11	12
11	12
11	12
12	13
12	13
13	14
13	14
13	14
14	15
15	16
15	16
15	16
15	16
16	17
16	17
16	17
17	18
18	19
19	20
19	20
21	22
22	23
22	23
23	24
34	35
79	80
699	700
