9	6124
10	6124
10	6124
10	6124
10	6124
10	6124
11	6124
11	6124
12	6124
13	6124
13	6124
13	6124
14	6124
15	6124
16	6124
17	6124
20	6124
20	6124
22	6124
22	6124
23	6124
25	6124
27	6124
867	6124
867	6124
867	6124
867	6124
867	6124
867	6124
867	6124
867	6124
867	6124
867	6124
867	6124
867	6124
867	6124
867	6124
867	6124
867	6124
867	6124
867	6124
867	6124
867	6124
867	6124
867	6124
867	6124
867	6124
867	6124
868	6124
868	6124
868	6124
868	6124
868	6124
868	6124
868	6124
868	6124
868	6124
868	6124
868	6124
868	6124
869	6124
869	6124
869	6124
869	6124
869	6124
869	6124
869	6124
869	6124
869	6124
869	6124
869	6124
869	6124
869	6124
869	6124
869	6124
869	6124
870	6124
870	6124
870	6124
870	6124
870	6124
870	6124
870	6124
870	6124
870	6124
870	6124
870	6124
871	6124
871	6124
872	6124
872	6124
872	6124
872	6124
872	6124
872	6124
873	6124
874	6124
876	6124
876	6124
877	6124
882	6124
882	6124
889	6124
