1	6124
1	594
1	595
1	594
1	594
1	594
1	15
1	14
1	22
1	594
1	594
1	594
1	594
1	594
1	594
1	594
1	13
1	594
1	594
1	594
1	27
1	594
1	594
1	594
1	12
1	594
1	594
1	595
1	594
1	594
1	594
1	594
1	594
1	594
1	594
1	594
1	594
1	594
1	594
1	594
1	17
1	9
1	594
1	19
1	594
1	594
1	594
1	594
1	594
1	594
1	594
1	594
1	594
1	19
1	594
1	594
1	594
1	594
1	594
1	6
1	594
1	594
1	596
1	594
1	21
1	594
1	594
1	22
1	594
1	594
1	594
1	594
1	594
1	594
1	23
1	594
1	594
1	594
1	4
1	594
1	594
1	594
1	594
1	594
1	10
1	9
1	595
1	594
1	11
1	594
1	12
1	9
1	594
1	594
1	594
1	594
1	594
1	11
1	594
1	8
1	594
1	18
1	594
1	10
1	594
1	594
1	9
1	14
1	21
1	22
1	594
1	594
1	594
1	595
1	594
1	594
1	14
1	594
1	8
1	6
1	594
1	6
1	594
1	8
1	22
1	594
1	594
1	594
1	594
1	594
1	9
1	594
1	594
1	10
1	594
1	20
1	594
1	594
1	594
1	594
1	8
1	594
1	594
1	594
1	5
1	594
1	594
1	9
1	594
1	594
1	594
1	9
1	594
1	594
1	10
1	594
1	594
1	594
1	8
1	594
1	26
1	594
1	594
1	594
1	594
1	594
1	594
1	594
1	594
1	594
1	594
1	6
1	16
1	595
1	16
1	594
1	594
1	594
1	594
1	594
1	594
1	18
1	595
1	594
1	594
1	594
1	594
1	594
1	594
1	594
1	9
1	594
1	594
1	594
1	594
1	10
1	594
1	594
1	594
1	594
1	13
1	594
1	5
1	9
1	594
1	594
1	594
1	595
1	594
1	8
1	25
1	594
1	594
1	594
1	594
1	594
1	16
1	18
1	598
1	594
1	595
1	594
1	10
1	594
1	594
1	7
1	594
1	594
1	18
1	594
1	10
1	6
1	25
1	594
1	594
1	594
1	594
1	14
1	594
1	594
1	594
1	594
1	594
1	594
1	594
1	594
1	594
1	595
1	25
1	594
1	594
1	594
1	594
1	594
1	594
1	594
1	594
1	594
1	594
1	594
1	5
1	4
1	594
1	9
1	594
1	594
1	8
1	594
1	594
1	594
1	594
1	594
1	11
1	10
1	594
1	594
1	594
1	594
1	594
1	594
1	594
1	594
1	594
1	594
1	7
1	25
1	595
1	594
1	594
1	594
1	594
1	596
1	14
1	595
1	594
1	14
1	5
1	594
1	594
1	594
1	594
1	594
1	594
1	25
1	594
1	11
1	594
1	594
1	594
1	594
1	6
1	594
1	594
1	594
1	594
1	594
1	594
1	8
1	594
1	25
1	594
1	14
1	594
1	594
1	7
1	594
1	594
1	594
1	594
1	594
1	594
1	594
1	594
1	594
1	594
1	594
1	596
1	594
1	594
1	9
1	594
1	594
1	594
1	594
1	8
1	594
1	14
1	11
1	594
1	594
1	594
1	594
1	594
1	7
1	5
1	595
1	9
1	594
1	594
1	594
1	594
1	7
1	594
1	594
1	594
1	594
1	594
1	18
1	594
1	594
1	594
1	594
1	595
1	4
1	594
1	594
1	594
1	594
1	594
1	594
1	594
1	594
1	594
1	594
1	594
1	594
1	594
1	594
1	594
1	594
1	11
1	594
1	594
1	11
1	594
1	594
1	7
1	13
1	594
1	594
1	594
1	594
1	594
1	594
1	594
1	594
1	594
1	594
1	594
1	10
1	5
1	12
1	594
1	11
1	594
1	595
1	594
1	594
1	9
1	594
1	594
1	14
1	595
1	594
1	594
1	21
1	594
1	594
1	8
1	594
1	594
1	594
1	594
1	594
1	6
1	12
1	12
1	594
1	594
1	594
1	594
1	18
1	594
1	8
1	6
1	594
1	10
1	5
1	594
1	9
1	594
1	594
1	594
1	594
1	9
1	594
1	594
1	594
1	594
1	8
1	5
1	595
1	594
1	6
1	11
1	594
1	594
1	9
1	594
1	594
1	8
1	594
1	594
1	20
1	595
1	10
1	594
1	594
1	594
1	594
1	596
1	594
1	594
1	7
1	594
1	594
1	594
1	7
1	594
1	10
1	594
1	594
1	594
1	594
1	594
1	5
1	6
1	594
1	594
1	594
1	594
1	595
1	594
1	594
1	594
1	594
1	8
1	595
1	7
1	18
1	594
1	8
1	11
1	25
1	594
1	594
1	594
1	594
1	594
1	594
1	594
1	5
1	20
1	594
1	5
1	25
1	594
1	594
1	594
1	594
1	4
1	16
1	594
1	594
1	594
1	8
1	6
1	10
1	7
1	594
1	594
1	594
1	25
1	594
1	594
1	594
1	594
1	10
1	11
1	594
1	20
1	8
1	594
1	594
1	8
1	9
1	594
1	13
1	594
1	20
1	8
1	594
1	594
1	13
1	594
1	594
1	594
1	8
1	594
1	594
1	595
1	8
1	594
1	6
1	594
1	594
1	594
1	594
1	594
1	594
1	594
1	5
1	594
1	19
1	8
1	594
1	594
1	594
1	594
1	594
1	6
1	594
1	594
1	594
1	5
1	594
1	594
1	595
1	594
1	594
1	16
1	594
1	13
1	594
1	11
1	594
1	594
1	16
1	595
1	10
1	594
1	594
1	594
1	594
1	594
1	594
1	16
1	7
1	594
1	594
1	594
1	594
1	21
1	16
1	594
1	594
1	5
1	5
1	594
1	594
1	594
1	594
1	18
1	594
1	8
1	594
1	594
1	10
1	13
1	594
1	594
1	594
1	595
1	594
1	7
1	594
1	594
1	5
1	10
1	13
1	7
1	594
1	594
1	594
1	13
1	594
1	9
1	594
1	594
1	594
1	11
1	594
1	10
1	17
1	594
1	594
1	8
1	594
1	594
1	594
1	594
1	594
1	594
1	594
1	8
1	8
1	16
1	5
1	594
1	25
1	594
1	8
1	594
1	594
1	594
1	11
1	594
1	6
1	594
1	25
1	594
1	594
1	594
1	594
1	594
1	5
1	594
1	594
1	25
1	5
1	594
1	594
1	25
1	594
1	594
2	5
2	9
2	3
2	14
2	7
2	5
2	3
2	3
2	7
2	596
2	9
2	9
2	8
2	5
2	3
2	8
2	4
2	10
2	7
2	3
2	6
2	595
2	3
2	5
2	9
2	3
2	3
2	3
2	3
2	9
2	4
2	10
2	8
2	3
2	7
2	8
2	3
2	7
2	3
2	10
2	5
2	3
2	3
2	6
2	3
2	4
2	4
2	5
2	3
2	4
2	595
2	7
2	4
2	5
2	5
2	3
2	14
2	5
2	12
2	3
2	8
2	5
2	5
2	3
2	5
2	4
2	5
2	6
2	3
2	4
2	3
2	3
2	7
2	3
2	6
2	8
2	595
2	21
2	5
2	6
2	6
2	7
2	3
2	7
2	4
2	3
2	7
2	4
2	10
2	7
2	3
2	7
2	8
2	8
2	3
2	9
2	3
2	4
2	6
2	12
2	3
2	3
2	3
2	3
2	8
2	3
2	7
2	10
2	4
2	5
2	3
2	595
2	3
2	7
2	4
2	3
2	3
2	3
2	3
2	4
2	3
2	12
2	4
2	3
2	7
2	4
2	4
2	4
2	6
2	5
2	8
3	7
3	4
3	4
3	5
3	4
3	4
3	4
3	4
3	4
3	4
3	5
3	4
3	4
3	4
3	5
3	4
3	5
3	5
3	5
3	4
3	4
3	4
3	5
3	4
3	5
3	5
3	4
3	5
3	4
3	7
3	5
3	4
3	7
3	5
3	5
3	4
3	10
3	4
3	4
3	4
3	4
3	4
3	5
3	5
3	4
3	4
3	6
3	4
3	4
3	4
3	5
3	4
4	5
4	5
4	5
4	5
4	8
4	5
4	6
4	5
4	5
4	6
4	5
4	5
4	5
4	6
4	5
4	5
4	6
4	5
4	5
4	5
4	5
4	5
4	5
4	5
4	5
4	6
5	6
5	6
5	6
5	6
5	6
5	6
5	6
5	6
5	6
5	7
5	6
5	7
5	6
5	6
5	6
5	6
5	6
5	6
5	6
5	6
5	7
6	8
6	7
6	8
6	7
6	7
7	8
7	8
7	8
7	8
7	8
7	8
8	9
8	9
8	9
9	10
9	10
10	11
10	11
12	13
12	13
15	16
17	18
19	20
24	25
593	594
