1	6124
1	245
1	245
1	245
1	245
1	245
1	245
1	246
1	245
1	245
1	247
1	246
1	245
1	245
1	11
1	245
1	245
1	245
1	245
1	245
1	246
1	245
1	245
1	245
1	245
1	245
1	245
1	245
1	247
1	245
1	245
1	245
1	245
1	245
1	245
1	245
1	245
1	245
1	245
1	245
1	245
1	12
1	245
1	245
1	10
1	245
1	245
1	5
1	245
1	245
1	247
1	245
1	245
1	245
1	245
1	245
1	246
1	245
1	9
1	245
1	4
1	245
1	245
1	245
1	245
1	10
1	245
1	245
1	248
1	246
1	245
1	5
1	245
1	245
1	245
1	245
1	245
1	248
1	245
1	245
1	245
1	245
1	245
1	245
1	245
1	245
1	245
1	5
1	245
1	245
1	245
1	245
1	245
1	245
1	8
1	10
1	245
1	246
1	246
1	251
1	10
1	9
1	246
1	8
1	245
1	245
1	245
1	245
1	245
1	245
1	245
1	8
1	245
1	245
1	245
1	245
1	245
1	245
1	245
1	245
1	245
1	7
1	245
1	245
1	245
1	246
1	245
1	245
1	245
1	245
1	245
1	245
1	245
1	245
1	245
1	245
1	245
1	245
1	11
1	245
1	245
1	245
1	245
1	245
1	245
1	245
1	5
1	245
1	245
1	245
1	245
1	245
1	245
1	245
1	245
1	245
1	247
1	245
1	245
1	245
1	9
1	245
1	245
1	245
1	245
1	245
1	245
1	247
1	8
1	245
1	245
1	246
1	8
1	245
1	245
1	246
1	245
1	245
1	245
1	246
1	245
1	245
1	245
1	245
1	245
1	6
1	245
1	245
1	245
1	245
1	245
1	5
1	4
1	4
1	245
1	245
1	245
1	245
1	7
1	246
1	245
1	7
1	7
1	245
1	245
1	245
1	245
1	246
1	245
1	8
1	245
1	245
1	245
1	245
1	245
1	246
1	245
1	7
1	245
1	245
1	245
1	245
1	245
1	4
1	245
1	10
1	245
1	245
1	245
1	9
1	245
1	8
1	4
1	245
1	8
1	245
1	245
1	245
1	245
1	7
1	245
1	245
1	245
1	245
1	245
1	246
1	245
1	245
1	245
1	245
1	245
1	245
1	245
1	245
1	245
1	7
1	245
1	245
1	6
1	245
1	246
1	245
1	245
1	6
1	245
1	9
1	245
2	3
2	9
2	3
2	3
2	3
2	3
2	3
2	3
2	3
2	6
2	5
2	3
2	6
2	3
2	6
2	4
2	9
2	4
2	3
2	3
2	3
2	4
2	3
2	3
2	3
2	3
2	4
2	8
2	3
2	3
2	5
2	8
3	4
3	4
3	4
3	4
3	4
3	4
3	4
3	4
3	4
3	4
3	5
3	4
3	5
3	4
3	4
3	4
4	6
4	5
4	5
4	5
4	5
4	5
5	6
6	7
6	7
6	7
7	8
7	8
8	9
244	245
