8	6124
292	6124
292	6124
292	6124
292	6124
292	6124
292	6124
292	6124
292	6124
292	6124
293	6124
293	6124
293	6124
293	6124
293	6124
293	6124
293	6124
293	6124
293	6124
294	6124
294	6124
294	6124
294	6124
294	6124
294	6124
294	6124
294	6124
294	6124
295	6124
295	6124
295	6124
301	6124
