46	6124
47	6124
47	6124
47	6124
48	6124
57	6124
57	6124
57	6124
57	6124
57	6124
57	6124
57	6124
57	6124
57	6124
57	6124
57	6124
57	6124
57	6124
57	6124
57	6124
57	6124
57	6124
57	6124
57	6124
57	6124
57	6124
57	6124
57	6124
57	6124
57	6124
57	6124
58	6124
58	6124
58	6124
58	6124
58	6124
58	6124
58	6124
59	6124
59	6124
