7	6124
8	6124
9	6124
11	6124
14	6124
16	6124
18	6124
18	6124
18	6124
19	6124
19	6124
21	6124
21	6124
87	6124
87	6124
87	6124
87	6124
87	6124
87	6124
87	6124
87	6124
87	6124
87	6124
87	6124
88	6124
88	6124
89	6124
89	6124
89	6124
89	6124
90	6124
90	6124
93	6124
