1	6124
1	139
1	6124
1	106
1	108
1	108
1	138
1	112
1	2
1	108
1	140
1	108
1	106
1	109
1	138
1	110
1	107
1	138
1	138
1	138
1	138
1	106
1	107
1	106
1	107
1	108
1	11
1	109
1	13
1	138
1	138
1	138
1	138
1	138
1	138
1	10
1	106
1	106
1	138
1	106
1	138
1	138
1	138
1	106
1	17
1	138
1	139
1	138
1	138
1	138
1	108
1	138
1	106
1	109
1	138
1	7
1	106
1	16
1	15
1	138
1	106
1	107
1	138
1	138
1	106
1	138
1	8
1	138
1	138
1	10
1	8
1	106
1	5
1	13
1	4
1	109
1	6
1	12
1	108
1	106
1	107
1	138
1	6
1	109
1	9
1	138
1	109
1	17
1	15
1	138
1	9
1	9
1	108
1	108
1	16
1	106
1	138
1	106
1	6
1	107
1	7
1	8
1	106
1	9
1	138
1	5
1	138
1	138
1	106
1	138
1	106
1	106
1	106
1	138
1	5
1	138
1	138
1	15
1	138
1	5
1	138
1	106
1	138
1	4
1	138
1	5
1	13
1	5
1	106
1	10
1	8
1	138
1	10
1	11
1	107
1	106
1	138
1	108
1	6124
1	106
1	15
1	138
1	9
1	107
1	138
1	106
1	17
1	138
1	6
1	4
1	138
1	138
1	106
1	106
1	109
1	138
1	138
1	108
1	5
1	138
1	138
1	138
1	7
1	4
1	138
1	15
1	108
1	5
1	138
1	15
1	16
1	106
1	138
1	106
1	138
1	9
1	138
1	7
1	138
1	5
1	138
1	6
1	138
1	5
1	138
1	138
1	106
1	138
1	106
1	138
1	138
1	5
1	106
1	6
1	4
1	15
1	138
1	138
1	138
1	5
1	138
1	138
1	138
1	6
1	138
1	10
1	138
1	106
1	9
1	138
1	10
1	106
1	5
1	138
1	138
1	6
1	138
1	6
1	7
1	9
1	6
1	2
1	4
1	138
1	106
1	108
1	138
1	4
1	138
1	138
1	138
1	139
1	107
1	138
1	106
1	4
1	138
1	6
1	138
1	138
1	138
1	106
1	106
1	9
1	4
2	3
2	107
2	6
2	5
2	3
2	3
2	3
2	3
2	107
2	5
2	3
2	107
2	3
2	107
2	107
2	3
2	3
2	107
2	3
2	3
2	7
2	107
2	3
2	107
2	3
2	5
2	6
2	107
2	107
2	107
2	10
2	3
2	107
2	4
2	4
2	3
2	107
2	3
2	4
2	5
2	4
2	107
2	4
2	3
2	4
2	107
2	3
2	3
2	4
2	3
2	5
2	4
2	3
2	107
2	3
2	107
2	107
2	107
2	3
2	107
2	5
2	4
2	3
2	5
2	6
3	4
3	6
3	4
3	4
3	4
3	4
3	4
3	4
3	4
3	4
3	12
3	4
3	4
3	4
3	4
3	4
3	4
3	4
3	6
3	5
3	5
3	4
3	6
3	4
3	4
3	4
3	4
3	4
3	4
3	4
3	5
3	6
3	5
3	6
3	5
3	4
3	5
3	4
3	4
4	5
4	8
4	5
4	5
4	5
4	6
4	5
4	5
4	5
4	5
4	5
4	5
5	6
5	6
5	6
5	6
5	6
6	7
7	8
8	9
9	10
9	10
14	15
105	106
137	138
