11	6124
98	6124
100	6124
172	6124
172	6124
172	6124
172	6124
172	6124
172	6124
172	6124
172	6124
172	6124
172	6124
172	6124
172	6124
172	6124
172	6124
172	6124
172	6124
172	6124
172	6124
172	6124
172	6124
172	6124
172	6124
172	6124
172	6124
172	6124
172	6124
172	6124
172	6124
172	6124
172	6124
172	6124
172	6124
172	6124
172	6124
172	6124
172	6124
172	6124
172	6124
172	6124
172	6124
172	6124
172	6124
172	6124
172	6124
172	6124
172	6124
172	6124
172	6124
172	6124
172	6124
172	6124
172	6124
172	6124
172	6124
172	6124
172	6124
172	6124
172	6124
172	6124
172	6124
172	6124
172	6124
172	6124
172	6124
172	6124
172	6124
172	6124
173	6124
173	6124
173	6124
173	6124
173	6124
173	6124
173	6124
173	6124
173	6124
173	6124
173	6124
173	6124
173	6124
173	6124
175	6124
176	6124
177	6124
177	6124
178	6124
178	6124
180	6124
262	6124
