1	6124
1	139
1	138
1	139
1	128
1	128
1	126
1	126
1	126
1	142
1	138
1	130
1	140
1	138
1	128
1	126
1	126
1	126
1	126
1	141
1	129
1	126
1	138
1	138
1	129
1	126
1	138
1	138
1	138
1	12
1	126
1	11
1	140
1	139
1	126
1	138
1	15
1	138
1	10
1	14
1	126
1	4
1	11
1	138
1	4
1	11
1	126
1	138
1	4
1	128
1	128
1	6
1	138
1	126
1	138
1	4
1	126
1	126
1	140
1	6
1	8
1	14
1	126
1	10
1	126
1	5
1	138
1	12
1	138
1	9
1	139
1	138
1	138
1	139
1	127
1	8
1	126
1	138
1	138
1	138
1	10
1	7
1	6
1	139
1	4
1	9
1	138
1	126
1	128
1	139
1	9
1	138
1	7
1	126
1	138
1	138
1	11
1	4
1	10
1	127
1	6
1	10
1	6
1	11
1	8
1	6
1	138
1	130
1	138
1	128
1	6
1	10
1	6
1	7
1	12
1	9
1	126
1	8
1	138
1	138
1	138
1	7
1	126
1	10
1	8
1	138
1	126
1	139
1	126
1	127
1	6
1	126
1	9
1	141
1	126
1	127
1	138
1	138
1	126
1	126
1	10
1	8
1	5
1	6
1	126
1	138
1	6
1	5
1	139
1	138
1	9
1	138
1	138
1	6
1	5
1	6
1	138
1	7
1	126
1	6
1	4
1	126
1	7
1	138
1	126
1	126
1	6
1	126
1	6
1	6
1	138
1	126
1	126
1	4
1	126
1	10
1	126
1	9
1	126
1	6
1	138
1	126
1	138
1	10
1	6
1	139
1	126
1	5
1	4
1	5
1	126
1	5
1	126
1	126
1	10
1	6
1	6
1	4
2	127
2	3
2	127
2	4
2	127
2	3
2	127
2	127
2	127
2	127
2	3
2	5
2	127
2	5
2	127
2	127
2	127
2	127
2	6
2	127
2	127
2	127
2	127
2	127
2	5
2	127
2	127
2	127
2	127
2	3
2	127
2	4
2	127
2	7
2	5
2	127
2	4
2	3
2	127
2	6
2	127
2	3
2	3
2	3
2	5
2	127
2	127
2	127
2	3
2	127
2	127
2	7
2	6
2	3
2	127
2	3
2	3
2	127
2	127
2	127
2	4
2	127
2	5
2	6
2	7
2	127
2	6
2	3
2	127
2	127
2	6
2	127
2	127
2	4
2	6
2	127
2	3
2	5
2	127
2	127
2	3
2	127
2	5
2	127
2	4
2	127
2	127
2	127
2	3
2	4
2	3
2	127
2	127
2	4
2	4
2	3
2	127
2	6
2	4
2	127
2	4
2	3
2	3
2	127
2	127
2	127
2	3
2	5
2	127
2	127
2	4
2	3
2	3
3	4
3	5
3	4
3	4
3	4
3	4
3	4
3	5
3	4
3	4
3	4
3	4
3	4
3	4
3	4
3	4
3	4
3	4
3	4
3	4
3	7
3	5
3	4
4	5
4	5
4	5
4	5
4	5
4	5
4	5
4	6
4	6
4	5
4	5
4	5
5	6
5	7
5	6
5	6
5	6
5	6
5	6
5	6
7	8
7	8
7	8
8	9
9	10
9	10
125	126
137	138
