1	6124
1	149
1	148
1	132
1	132
1	148
1	148
1	4
1	134
1	131
1	17
1	133
1	131
1	135
1	148
1	149
1	134
1	132
1	148
1	152
1	148
1	16
1	12
1	148
1	11
1	9
1	148
1	148
1	133
1	148
1	133
1	15
1	10
1	10
1	131
1	133
1	7
1	131
1	133
1	148
1	148
1	132
1	14
1	148
1	148
1	6
1	131
1	148
1	148
1	149
1	148
1	6
1	148
1	148
1	136
1	131
1	133
1	13
1	8
1	148
1	148
1	148
1	5
1	132
1	4
1	131
1	148
1	14
1	14
1	131
1	133
1	131
1	150
1	131
1	148
1	148
1	11
1	131
1	131
1	5
1	6
1	131
1	7
1	131
1	133
1	6
1	131
1	133
1	148
1	8
1	14
1	131
1	148
1	12
1	12
1	7
1	148
1	148
1	131
1	6
1	148
1	148
1	148
1	149
1	148
1	148
1	148
1	148
1	4
1	148
1	148
1	148
1	148
1	131
1	131
1	7
1	148
1	148
1	148
1	148
1	133
1	7
1	14
1	148
1	7
1	17
1	5
1	131
1	131
1	7
1	131
1	131
1	5
1	148
1	4
1	6
1	148
1	148
1	131
1	132
1	148
1	131
1	148
1	6
1	148
1	4
1	149
1	131
1	131
1	148
1	148
1	7
1	131
1	133
1	7
1	148
1	148
1	12
1	131
1	148
1	131
1	148
1	148
1	131
1	131
1	12
1	4
1	131
1	148
1	6
1	5
1	131
1	148
1	148
1	7
1	9
1	148
1	14
1	148
1	6
1	148
1	7
1	4
1	8
1	131
1	14
1	6
1	5
1	131
1	9
1	148
1	7
1	5
1	6
1	4
1	148
1	131
1	148
1	14
1	9
1	6
1	131
2	7
2	8
2	4
2	132
2	132
2	132
2	132
2	8
2	132
2	3
2	7
2	3
2	13
2	132
2	132
2	132
2	6
2	10
2	3
2	132
2	132
2	132
2	132
2	3
2	3
2	6
2	132
2	4
2	132
2	6
2	132
2	132
2	132
2	3
2	132
2	3
2	132
2	132
2	132
2	3
2	132
2	132
2	3
2	132
2	3
2	5
2	132
2	132
2	5
2	132
2	132
2	5
2	3
2	132
2	10
2	5
2	132
2	3
2	132
2	3
2	132
2	3
2	132
2	132
2	132
2	132
2	132
2	132
2	132
2	132
2	132
2	132
2	5
2	3
2	3
2	6
2	4
2	4
2	132
2	132
2	132
2	132
2	132
2	132
2	132
2	132
2	132
2	132
3	6
3	8
3	5
3	4
3	4
3	4
3	4
3	4
3	6
3	5
3	4
3	4
3	4
3	4
3	4
3	4
3	4
3	4
3	4
3	4
3	5
3	7
3	5
3	6
3	4
3	4
3	4
3	4
3	5
3	4
3	4
3	5
3	4
4	5
4	5
4	5
4	5
4	6
4	7
4	6
4	5
4	5
4	5
4	5
4	5
5	6
5	7
5	6
5	6
5	6
5	6
6	7
6	7
8	9
8	9
11	12
13	14
130	131
147	148
