9	6124
157	6124
157	6124
158	6124
159	6124
160	6124
160	6124
160	6124
233	6124
233	6124
233	6124
233	6124
233	6124
233	6124
233	6124
233	6124
233	6124
233	6124
233	6124
233	6124
233	6124
233	6124
233	6124
233	6124
233	6124
233	6124
233	6124
233	6124
233	6124
233	6124
233	6124
233	6124
233	6124
233	6124
233	6124
233	6124
233	6124
233	6124
233	6124
233	6124
233	6124
233	6124
233	6124
233	6124
233	6124
233	6124
233	6124
233	6124
233	6124
233	6124
233	6124
233	6124
233	6124
233	6124
233	6124
233	6124
233	6124
233	6124
233	6124
233	6124
233	6124
233	6124
233	6124
233	6124
233	6124
233	6124
233	6124
233	6124
233	6124
233	6124
233	6124
233	6124
233	6124
233	6124
233	6124
233	6124
233	6124
233	6124
233	6124
233	6124
233	6124
233	6124
233	6124
233	6124
233	6124
233	6124
233	6124
233	6124
233	6124
233	6124
233	6124
233	6124
233	6124
233	6124
233	6124
233	6124
234	6124
234	6124
234	6124
236	6124
236	6124
236	6124
236	6124
