8	6124
86	6124
87	6124
182	6124
182	6124
182	6124
182	6124
182	6124
182	6124
182	6124
182	6124
182	6124
182	6124
182	6124
182	6124
182	6124
182	6124
182	6124
182	6124
182	6124
182	6124
182	6124
182	6124
182	6124
182	6124
182	6124
182	6124
182	6124
182	6124
182	6124
182	6124
182	6124
182	6124
182	6124
182	6124
182	6124
182	6124
182	6124
182	6124
182	6124
182	6124
182	6124
182	6124
182	6124
182	6124
182	6124
182	6124
182	6124
182	6124
182	6124
182	6124
182	6124
182	6124
182	6124
182	6124
182	6124
182	6124
182	6124
182	6124
182	6124
182	6124
182	6124
182	6124
182	6124
182	6124
182	6124
182	6124
182	6124
182	6124
182	6124
183	6124
183	6124
183	6124
183	6124
183	6124
183	6124
183	6124
183	6124
183	6124
183	6124
183	6124
183	6124
184	6124
184	6124
185	6124
185	6124
186	6124
187	6124
188	6124
190	6124
