5	6124
6	6124
7	6124
8	6124
9	6124
12	6124
13	6124
13	6124
15	6124
105	6124
105	6124
105	6124
105	6124
106	6124
106	6124
106	6124
106	6124
106	6124
106	6124
106	6124
106	6124
106	6124
106	6124
106	6124
106	6124
106	6124
106	6124
106	6124
106	6124
106	6124
106	6124
106	6124
106	6124
106	6124
106	6124
106	6124
106	6124
106	6124
106	6124
106	6124
106	6124
106	6124
106	6124
106	6124
106	6124
106	6124
106	6124
107	6124
107	6124
107	6124
107	6124
107	6124
107	6124
107	6124
107	6124
108	6124
108	6124
108	6124
109	6124
109	6124
109	6124
113	6124
116	6124
