9	6124
10	6124
10	6124
114	6124
116	6124
117	6124
127	6124
127	6124
127	6124
127	6124
127	6124
127	6124
127	6124
127	6124
127	6124
127	6124
127	6124
127	6124
127	6124
127	6124
127	6124
127	6124
127	6124
127	6124
127	6124
127	6124
127	6124
127	6124
127	6124
127	6124
127	6124
127	6124
127	6124
127	6124
127	6124
127	6124
127	6124
127	6124
127	6124
127	6124
127	6124
127	6124
127	6124
127	6124
127	6124
127	6124
127	6124
127	6124
127	6124
127	6124
127	6124
127	6124
128	6124
128	6124
128	6124
128	6124
128	6124
128	6124
128	6124
128	6124
128	6124
128	6124
128	6124
129	6124
129	6124
129	6124
129	6124
129	6124
129	6124
129	6124
129	6124
130	6124
130	6124
130	6124
130	6124
130	6124
130	6124
131	6124
133	6124
133	6124
142	6124
