74	6124
74	6124
75	6124
75	6124
75	6124
75	6124
76	6124
76	6124
76	6124
76	6124
78	6124
104	6124
296	6124
296	6124
296	6124
296	6124
296	6124
296	6124
296	6124
296	6124
296	6124
296	6124
296	6124
296	6124
296	6124
296	6124
296	6124
296	6124
296	6124
296	6124
296	6124
296	6124
296	6124
296	6124
296	6124
296	6124
296	6124
296	6124
296	6124
296	6124
296	6124
296	6124
296	6124
296	6124
296	6124
296	6124
296	6124
296	6124
296	6124
296	6124
296	6124
296	6124
296	6124
296	6124
296	6124
296	6124
296	6124
297	6124
297	6124
297	6124
297	6124
297	6124
297	6124
297	6124
297	6124
297	6124
297	6124
297	6124
297	6124
298	6124
298	6124
298	6124
298	6124
299	6124
299	6124
300	6124
300	6124
