1	6124
1	164
1	164
1	162
1	93
1	93
1	5
1	162
1	23
1	18
1	6
1	161
1	14
1	162
1	161
1	163
1	12
1	11
1	162
1	162
1	161
1	161
1	161
1	15
1	161
1	161
1	162
1	161
1	161
1	4
1	162
1	11
1	16
1	162
1	94
1	93
1	161
1	11
1	161
1	161
1	162
1	14
1	161
1	91
1	163
1	161
1	9
1	14
1	162
1	161
1	161
1	161
1	9
1	161
1	6
1	4
1	93
1	8
1	10
1	161
1	11
1	9
1	162
1	14
1	161
1	161
1	161
1	6
1	9
1	162
1	161
1	14
1	93
1	91
1	5
1	161
1	91
1	161
1	14
1	161
1	11
1	161
1	161
1	8
2	3
2	15
2	92
2	92
2	4
2	92
2	92
2	92
2	93
2	92
2	3
2	7
2	7
2	15
2	92
2	4
2	92
2	92
2	93
2	92
2	92
2	92
2	92
2	92
2	92
2	92
2	92
2	7
2	3
2	92
2	92
2	4
2	92
2	92
2	92
2	92
2	92
2	92
2	3
2	3
2	3
2	6
2	92
2	92
2	92
2	6
2	92
2	6
2	93
2	92
2	92
2	92
2	6
2	12
2	9
2	92
2	92
2	4
2	92
2	92
2	92
2	92
2	4
2	92
2	92
2	92
2	92
2	8
2	92
2	92
2	92
2	8
2	4
2	92
2	92
2	92
2	92
2	92
2	92
2	3
2	3
2	3
2	92
2	92
2	92
2	92
2	92
2	92
2	92
2	92
2	7
2	92
2	10
2	92
2	3
2	3
2	92
2	92
2	92
2	92
2	92
2	92
2	92
2	8
2	15
2	92
2	92
2	7
2	92
3	8
3	5
3	8
3	5
3	5
3	6
3	93
3	5
3	4
3	5
3	5
3	4
3	4
3	6
3	4
3	4
3	6
3	4
3	4
3	8
3	5
3	5
3	5
3	5
4	5
4	5
4	5
4	5
4	5
4	6
5	6
5	6
5	6
5	6
7	8
8	9
10	11
13	14
90	91
160	161
