85	6124
85	6124
85	6124
86	6124
87	6124
88	6124
89	6124
125	6124
125	6124
125	6124
125	6124
125	6124
125	6124
125	6124
125	6124
125	6124
125	6124
125	6124
125	6124
125	6124
125	6124
125	6124
125	6124
125	6124
125	6124
125	6124
125	6124
125	6124
125	6124
125	6124
125	6124
125	6124
125	6124
125	6124
125	6124
125	6124
125	6124
125	6124
126	6124
126	6124
126	6124
126	6124
126	6124
126	6124
126	6124
126	6124
126	6124
127	6124
127	6124
127	6124
127	6124
127	6124
127	6124
128	6124
128	6124
129	6124
129	6124
130	6124
131	6124
