11	6124
12	6124
12	6124
15	6124
16	6124
17	6124
18	6124
145	6124
145	6124
145	6124
146	6124
146	6124
146	6124
146	6124
146	6124
146	6124
146	6124
146	6124
146	6124
147	6124
147	6124
147	6124
147	6124
147	6124
148	6124
148	6124
149	6124
149	6124
150	6124
150	6124
151	6124
153	6124
153	6124
156	6124
156	6124
156	6124
156	6124
156	6124
156	6124
156	6124
156	6124
156	6124
156	6124
156	6124
156	6124
156	6124
156	6124
156	6124
156	6124
156	6124
156	6124
156	6124
156	6124
156	6124
156	6124
156	6124
156	6124
156	6124
156	6124
156	6124
156	6124
156	6124
156	6124
156	6124
156	6124
156	6124
156	6124
156	6124
156	6124
156	6124
156	6124
156	6124
156	6124
156	6124
156	6124
156	6124
156	6124
156	6124
156	6124
156	6124
156	6124
156	6124
156	6124
156	6124
156	6124
156	6124
156	6124
156	6124
156	6124
156	6124
156	6124
157	6124
157	6124
157	6124
157	6124
157	6124
157	6124
157	6124
157	6124
157	6124
157	6124
157	6124
157	6124
157	6124
157	6124
157	6124
157	6124
158	6124
158	6124
158	6124
158	6124
158	6124
158	6124
158	6124
158	6124
158	6124
158	6124
158	6124
159	6124
159	6124
159	6124
159	6124
159	6124
160	6124
160	6124
160	6124
160	6124
162	6124
162	6124
164	6124
164	6124
