1	6124
1	14
1	13
1	147
1	15
1	145
1	156
1	6
1	145
1	156
1	144
1	146
1	11
1	144
1	157
1	155
1	144
1	144
1	144
1	10
1	146
1	9
1	155
1	155
1	144
1	144
1	155
1	155
1	7
1	144
1	155
1	155
1	155
1	156
1	4
1	144
1	155
1	144
1	144
1	156
1	156
1	7
1	144
1	155
1	155
1	144
1	155
1	155
1	5
1	11
1	155
1	144
1	156
1	155
1	144
1	15
1	144
1	10
1	146
1	11
1	144
1	11
1	155
1	146
1	147
1	144
1	155
1	155
1	9
1	156
1	7
1	7
1	155
1	146
1	144
1	155
1	146
1	144
1	155
1	156
1	144
1	7
1	144
1	155
1	155
1	7
1	155
1	155
1	10
1	144
1	155
1	145
1	11
1	7
1	156
1	144
1	155
1	155
1	12
1	5
1	155
1	155
1	9
1	156
1	7
1	144
1	155
1	155
1	11
1	144
1	144
1	144
1	155
1	5
1	9
1	155
1	144
1	9
1	144
1	13
1	9
1	144
1	155
1	155
1	144
1	10
1	155
1	155
1	144
1	11
1	9
1	5
1	144
1	144
1	6
1	155
1	157
1	144
1	144
1	155
1	144
1	155
1	144
1	7
1	144
1	144
1	5
1	144
1	11
1	145
1	145
1	4
1	144
1	155
1	144
1	6
1	144
1	144
1	155
2	145
2	145
2	3
2	145
2	145
2	3
2	145
2	145
2	145
2	14
2	6
2	145
2	145
2	145
2	145
2	145
2	8
2	145
2	145
2	145
2	3
2	3
2	145
2	3
2	145
2	145
2	145
2	145
2	3
2	9
2	145
2	145
2	145
2	3
2	145
2	3
2	145
2	8
2	145
2	145
2	145
2	5
2	7
2	7
2	145
2	145
2	145
2	145
2	12
2	7
2	3
2	145
2	145
2	145
2	145
2	3
2	145
2	145
2	10
2	145
2	145
2	145
2	145
2	145
2	145
2	3
2	145
2	3
2	145
2	145
2	5
2	145
2	4
2	145
2	3
2	8
2	145
2	145
2	145
2	145
2	145
2	4
2	3
2	145
2	8
2	145
2	3
2	3
2	145
3	4
3	10
3	6
3	5
3	4
3	4
3	5
3	4
3	5
3	4
3	4
3	8
3	13
3	5
3	4
3	8
3	4
3	7
3	7
3	4
3	7
3	6
3	4
3	4
3	4
3	4
3	7
3	8
4	5
4	5
4	5
4	6
4	6
4	6
4	5
4	5
4	7
4	6
4	7
4	5
4	5
5	6
5	8
5	6
5	6
5	6
5	8
6	7
6	9
6	7
6	7
7	8
7	9
8	9
8	9
10	11
10	12
143	144
154	155
