1	6124
1	73
1	73
1	74
1	73
1	73
1	73
1	73
1	73
1	73
2	51
2	51
2	47
2	45
2	50
2	45
2	50
2	50
2	45
2	50
2	50
2	45
2	50
2	50
2	45
2	45
2	50
2	45
2	50
2	45
2	50
2	50
2	50
2	50
2	50
2	50
2	45
2	45
2	50
2	45
2	50
2	45
3	46
3	46
3	46
3	46
3	46
3	46
3	46
3	46
3	46
3	46
3	46
3	46
3	46
3	46
3	5
3	6
3	46
3	46
3	46
3	46
3	46
3	46
3	46
3	46
3	46
4	47
4	8
4	5
4	47
4	8
43	45
48	50
72	73
