96	6124
96	6124
96	6124
96	6124
97	6124
97	6124
97	6124
97	6124
97	6124
98	6124
98	6124
98	6124
253	6124
253	6124
253	6124
253	6124
253	6124
253	6124
253	6124
253	6124
253	6124
253	6124
253	6124
253	6124
253	6124
253	6124
253	6124
253	6124
253	6124
253	6124
253	6124
253	6124
253	6124
253	6124
253	6124
253	6124
253	6124
253	6124
253	6124
253	6124
253	6124
253	6124
253	6124
253	6124
253	6124
253	6124
253	6124
253	6124
253	6124
253	6124
253	6124
253	6124
253	6124
253	6124
253	6124
253	6124
253	6124
253	6124
253	6124
253	6124
253	6124
253	6124
253	6124
253	6124
253	6124
253	6124
253	6124
253	6124
253	6124
253	6124
253	6124
253	6124
253	6124
253	6124
253	6124
253	6124
253	6124
254	6124
254	6124
254	6124
254	6124
254	6124
254	6124
254	6124
254	6124
254	6124
254	6124
254	6124
254	6124
254	6124
254	6124
254	6124
254	6124
254	6124
254	6124
255	6124
255	6124
255	6124
255	6124
255	6124
256	6124
256	6124
256	6124
