30	6124
30	6124
32	6124
34	6124
34	6124
34	6124
34	6124
34	6124
34	6124
34	6124
34	6124
34	6124
34	6124
34	6124
34	6124
34	6124
34	6124
34	6124
34	6124
34	6124
34	6124
34	6124
34	6124
34	6124
35	6124
35	6124
35	6124
35	6124
35	6124
37	6124
