1	6124
1	11
1	25
1	62
1	61
1	60
1	24
1	23
1	61
1	23
1	60
1	60
1	60
1	5
1	60
1	19
1	14
1	13
1	60
1	23
1	60
1	61
1	15
1	25
1	13
1	60
1	11
1	5
1	60
1	11
1	13
1	60
1	8
1	14
1	60
1	60
1	61
1	5
1	60
1	60
1	60
1	13
1	7
1	10
1	24
1	60
1	60
1	12
1	60
1	60
1	11
1	60
1	60
1	60
1	61
1	13
1	60
1	60
1	60
1	60
2	24
2	7
2	6
2	3
2	3
2	24
2	3
2	3
2	3
2	3
2	5
2	24
2	8
2	4
2	3
2	12
2	8
2	61
2	4
2	4
2	24
2	5
3	4
3	14
3	4
3	13
3	4
3	5
3	7
3	12
3	7
3	4
3	4
3	4
4	13
4	6
4	5
4	5
4	5
4	13
4	5
5	6
6	8
9	10
10	11
11	12
22	23
59	60
