15	6124
21	6124
22	6124
23	6124
30	6124
31	6124
31	6124
32	6124
32	6124
32	6124
33	6124
33	6124
34	6124
34	6124
34	6124
34	6124
34	6124
34	6124
34	6124
35	6124
35	6124
35	6124
35	6124
35	6124
36	6124
37	6124
38	6124
38	6124
38	6124
38	6124
38	6124
38	6124
39	6124
39	6124
39	6124
39	6124
39	6124
39	6124
39	6124
40	6124
40	6124
41	6124
42	6124
42	6124
43	6124
47	6124
50	6124
59	6124
66	6124
218	6124
218	6124
218	6124
218	6124
218	6124
218	6124
218	6124
218	6124
218	6124
218	6124
218	6124
218	6124
218	6124
218	6124
218	6124
218	6124
218	6124
218	6124
218	6124
218	6124
218	6124
218	6124
218	6124
218	6124
218	6124
218	6124
218	6124
218	6124
218	6124
218	6124
218	6124
218	6124
218	6124
218	6124
218	6124
218	6124
218	6124
218	6124
218	6124
218	6124
218	6124
218	6124
218	6124
218	6124
218	6124
218	6124
218	6124
218	6124
219	6124
219	6124
219	6124
219	6124
219	6124
219	6124
219	6124
219	6124
219	6124
219	6124
219	6124
219	6124
219	6124
219	6124
219	6124
219	6124
219	6124
219	6124
219	6124
219	6124
219	6124
219	6124
219	6124
219	6124
219	6124
219	6124
220	6124
220	6124
220	6124
220	6124
220	6124
220	6124
220	6124
220	6124
220	6124
221	6124
222	6124
223	6124
223	6124
224	6124
251	6124
