1	6124
1	145
1	145
1	144
1	129
1	144
1	144
1	144
1	144
1	129
1	144
1	147
1	130
1	129
1	130
1	11
1	144
1	144
1	145
1	17
1	144
1	144
1	129
1	144
1	16
1	144
1	129
1	129
1	129
1	18
1	144
1	129
1	144
1	144
1	131
1	16
1	129
1	144
1	147
1	129
1	144
1	129
1	144
1	5
1	9
1	16
1	144
1	129
1	129
1	129
1	144
1	145
1	10
1	129
1	144
1	129
1	5
1	6124
1	129
1	6
1	129
1	144
1	129
1	6
1	145
1	129
1	129
1	129
1	129
1	2
1	131
1	145
1	144
1	6
1	144
1	129
1	9
1	131
1	144
1	16
1	129
1	4
1	144
1	144
1	6
1	144
1	6
1	131
2	3
2	4
2	130
2	131
2	130
2	130
2	3
2	17
2	130
2	130
2	4
2	6
2	3
2	130
2	130
2	130
2	130
2	130
2	130
2	130
2	7
2	17
2	130
2	4
2	130
2	130
2	130
2	130
2	130
2	130
2	130
2	130
2	130
2	130
2	130
2	7
2	130
2	5
2	130
2	17
2	130
2	130
2	130
2	130
2	3
2	3
2	7
2	4
2	3
2	130
2	130
2	130
2	131
2	130
2	130
2	4
2	130
2	130
2	130
2	130
2	130
2	130
2	130
2	130
2	130
2	130
2	130
2	130
2	131
2	130
2	130
2	130
2	130
2	130
2	130
2	130
2	130
2	130
2	130
2	130
2	130
2	130
2	130
2	130
2	130
2	130
2	130
2	130
2	130
2	130
2	130
2	130
2	130
2	130
2	130
2	130
2	130
2	130
2	4
2	130
2	130
2	130
2	3
2	130
2	130
2	130
2	130
3	5
3	6
3	4
3	6
3	8
3	6
3	5
3	5
3	6
3	6
3	8
3	6
3	4
3	11
3	6
3	4
3	5
3	4
3	5
3	5
4	5
4	5
4	5
5	6
5	6
5	6
5	6
8	9
15	16
128	129
143	144
