9	6124
11	6124
12	6124
13	6124
13	6124
13	6124
14	6124
15	6124
16	6124
20	6124
41	6124
41	6124
41	6124
41	6124
41	6124
42	6124
42	6124
42	6124
42	6124
42	6124
44	6124
46	6124
66	6124
66	6124
66	6124
66	6124
66	6124
66	6124
66	6124
66	6124
66	6124
66	6124
66	6124
66	6124
66	6124
66	6124
66	6124
66	6124
66	6124
66	6124
66	6124
66	6124
66	6124
67	6124
67	6124
67	6124
67	6124
67	6124
67	6124
68	6124
68	6124
68	6124
68	6124
69	6124
70	6124
74	6124
75	6124
