1	6124
1	65
1	66
1	65
1	40
1	18
1	39
1	65
1	65
1	66
1	65
1	65
1	12
1	14
1	65
1	65
1	15
1	39
1	66
1	12
1	8
1	9
1	65
1	15
1	65
1	13
1	12
1	65
1	65
1	10
1	12
1	7
1	12
1	7
1	65
1	9
1	65
1	12
1	4
1	14
1	11
1	65
1	41
1	65
1	65
1	65
1	11
1	39
1	66
1	40
1	65
1	65
1	41
1	41
1	13
1	40
1	8
1	65
1	40
1	65
1	6
1	65
1	9
1	9
1	9
1	65
2	3
2	8
2	9
2	40
2	8
2	3
2	4
2	40
2	40
2	40
2	40
2	4
2	7
2	5
2	8
2	13
2	4
2	3
2	40
2	40
2	3
2	13
2	40
2	3
2	7
2	40
2	40
2	40
2	40
2	40
2	13
2	8
2	3
2	5
2	3
2	4
2	4
2	40
2	4
2	4
2	3
2	40
2	6
2	6
2	6
3	4
3	4
3	7
3	5
3	6
3	4
3	7
3	5
3	6
3	7
3	5
3	7
3	4
3	4
3	6
4	5
4	5
4	5
4	6
4	5
4	6
4	5
4	5
4	6
4	6
5	6
5	7
6	7
6	7
8	9
10	12
10	11
11	12
38	39
64	65
