8	6124
103	6124
103	6124
104	6124
104	6124
104	6124
106	6124
107	6124
254	6124
254	6124
254	6124
254	6124
254	6124
254	6124
254	6124
254	6124
254	6124
254	6124
254	6124
254	6124
254	6124
254	6124
254	6124
254	6124
254	6124
254	6124
254	6124
254	6124
254	6124
254	6124
254	6124
254	6124
254	6124
254	6124
254	6124
254	6124
254	6124
254	6124
254	6124
254	6124
254	6124
254	6124
254	6124
254	6124
254	6124
254	6124
254	6124
254	6124
254	6124
254	6124
254	6124
254	6124
254	6124
254	6124
254	6124
254	6124
254	6124
254	6124
254	6124
254	6124
254	6124
255	6124
255	6124
255	6124
255	6124
255	6124
255	6124
255	6124
255	6124
255	6124
255	6124
255	6124
255	6124
255	6124
256	6124
256	6124
256	6124
256	6124
256	6124
258	6124
259	6124
