16	6124
125	6124
125	6124
125	6124
125	6124
125	6124
126	6124
127	6124
127	6124
128	6124
130	6124
131	6124
131	6124
180	6124
180	6124
180	6124
180	6124
180	6124
180	6124
180	6124
180	6124
180	6124
180	6124
180	6124
180	6124
180	6124
180	6124
180	6124
180	6124
180	6124
180	6124
180	6124
180	6124
180	6124
180	6124
180	6124
180	6124
180	6124
180	6124
180	6124
180	6124
180	6124
180	6124
180	6124
180	6124
180	6124
180	6124
180	6124
180	6124
180	6124
180	6124
180	6124
180	6124
181	6124
181	6124
181	6124
181	6124
181	6124
181	6124
181	6124
181	6124
181	6124
181	6124
181	6124
181	6124
182	6124
183	6124
183	6124
183	6124
183	6124
184	6124
186	6124
187	6124
