1	6124
1	161
1	163
1	161
1	162
1	160
1	162
1	162
1	161
1	162
1	161
1	162
1	162
1	160
1	160
1	160
1	161
1	160
1	162
1	160
1	162
1	160
1	162
1	162
1	160
1	162
1	162
1	162
1	160
1	6
1	162
1	161
1	160
1	162
1	162
1	162
1	162
1	162
1	160
1	160
1	162
1	161
1	10
1	162
1	162
1	162
1	162
1	10
1	160
1	160
1	160
1	162
1	162
1	160
1	160
1	162
1	5
1	160
1	160
1	162
1	162
1	162
1	162
1	160
1	162
1	162
1	10
1	160
1	162
1	162
1	5
1	7
1	162
1	162
1	160
1	160
1	160
1	160
1	162
1	162
1	162
1	162
1	162
1	161
1	162
1	162
1	160
1	162
1	162
1	4
1	162
1	161
1	162
1	162
1	160
1	6
1	160
1	161
1	163
1	5
1	160
1	160
1	162
1	6
1	162
1	6
1	5
1	160
1	8
1	162
1	162
1	162
1	162
1	162
1	162
1	160
1	161
1	9
1	162
1	162
1	162
1	162
1	162
1	161
1	162
1	162
1	162
1	160
1	6
1	162
1	160
1	160
1	160
1	162
1	162
1	162
1	162
1	162
1	162
1	162
1	162
1	162
1	161
1	162
1	162
1	160
1	4
2	161
2	161
2	161
2	161
2	161
2	161
2	161
2	3
2	3
2	10
2	161
2	161
2	161
2	161
2	3
2	161
2	161
2	161
2	5
2	161
2	161
2	161
2	161
2	161
2	161
2	163
2	161
2	161
2	161
2	5
2	161
2	3
2	161
2	161
2	3
2	4
2	161
2	161
2	161
2	161
2	161
2	161
2	7
2	161
2	161
2	161
2	161
2	8
2	161
2	7
2	161
2	8
2	3
2	4
2	161
2	161
2	5
2	161
2	3
2	161
2	161
2	161
2	161
2	3
2	5
2	161
2	161
2	4
2	161
2	161
2	10
2	3
2	5
2	161
2	161
2	161
2	161
2	161
2	161
2	161
2	5
2	161
2	161
2	161
2	161
2	161
2	161
2	8
2	161
2	161
2	161
2	161
2	161
2	161
2	161
2	4
2	4
2	161
2	4
2	161
2	161
2	4
2	161
2	161
2	161
2	161
2	161
2	3
2	161
2	161
2	161
2	161
2	3
2	161
2	4
3	4
3	5
3	7
3	5
3	4
3	4
3	4
3	8
3	4
3	6
3	5
3	4
3	4
3	5
3	4
3	5
3	4
3	4
3	4
4	5
4	5
4	5
5	6
5	6
6	7
8	9
159	160
161	162
