135	6124
137	6124
182	6124
182	6124
182	6124
182	6124
182	6124
182	6124
182	6124
182	6124
182	6124
182	6124
182	6124
182	6124
182	6124
182	6124
182	6124
182	6124
182	6124
182	6124
182	6124
182	6124
182	6124
182	6124
182	6124
182	6124
182	6124
182	6124
182	6124
182	6124
182	6124
182	6124
182	6124
182	6124
182	6124
182	6124
182	6124
182	6124
182	6124
182	6124
182	6124
182	6124
182	6124
182	6124
182	6124
182	6124
182	6124
182	6124
182	6124
182	6124
182	6124
182	6124
182	6124
182	6124
182	6124
182	6124
182	6124
182	6124
182	6124
182	6124
182	6124
182	6124
182	6124
182	6124
182	6124
182	6124
182	6124
182	6124
182	6124
182	6124
182	6124
182	6124
182	6124
182	6124
182	6124
182	6124
182	6124
182	6124
182	6124
182	6124
182	6124
182	6124
182	6124
182	6124
182	6124
182	6124
182	6124
182	6124
182	6124
182	6124
182	6124
182	6124
182	6124
182	6124
182	6124
182	6124
183	6124
183	6124
183	6124
183	6124
183	6124
183	6124
183	6124
183	6124
183	6124
183	6124
183	6124
183	6124
184	6124
184	6124
184	6124
184	6124
184	6124
184	6124
184	6124
184	6124
185	6124
185	6124
186	6124
186	6124
186	6124
186	6124
186	6124
187	6124
