1	6124
1	94
1	119
1	98
1	118
1	16
1	118
1	8
1	93
1	118
1	15
1	12
1	93
1	93
1	118
1	118
1	118
1	118
1	94
1	93
1	12
1	11
1	13
1	118
1	13
1	10
1	118
1	118
1	93
1	9
1	12
1	118
1	93
1	93
1	11
1	94
1	13
1	18
1	118
1	118
1	93
1	93
1	118
1	118
1	7
1	11
1	12
1	118
1	9
1	95
1	118
1	93
1	118
1	118
1	95
1	11
1	11
1	118
1	118
1	9
1	96
1	94
1	5
1	10
1	118
1	93
1	8
1	11
1	118
1	11
1	93
1	9
1	7
1	93
1	118
1	118
1	118
1	16
1	118
1	118
1	93
1	93
1	118
1	5
1	95
1	118
1	97
1	93
1	118
1	10
1	118
1	118
1	4
1	93
1	118
1	118
1	118
1	118
1	118
1	7
1	118
1	6
1	10
1	118
1	6
1	118
1	118
1	7
1	9
1	10
1	118
1	11
1	118
1	93
1	93
1	119
1	118
1	118
1	118
1	118
1	9
1	7
1	118
1	8
1	118
1	94
1	7
1	118
1	6
1	13
1	118
1	118
1	10
1	5
1	118
1	94
1	5
1	118
1	7
1	93
1	118
1	118
1	7
1	93
1	118
1	93
1	9
1	94
1	93
1	118
1	10
1	94
1	8
1	118
1	11
1	118
1	118
1	11
1	118
1	9
1	11
1	93
1	93
1	11
1	4
1	118
1	93
1	118
2	6
2	94
2	3
2	6
2	15
2	4
2	3
2	7
2	3
2	94
2	6
2	10
2	3
2	4
2	15
2	3
2	94
2	3
2	94
2	7
2	6
2	94
2	94
2	8
2	94
2	6
2	94
2	3
2	94
2	94
2	12
2	3
2	5
2	94
2	10
2	10
2	3
2	7
2	5
2	94
2	94
2	6
2	95
2	3
2	8
2	4
2	94
2	8
2	15
2	6
2	6
2	5
2	4
2	94
2	94
2	4
2	8
2	94
2	3
2	94
2	7
2	5
2	3
2	3
2	8
2	94
2	5
2	4
2	94
2	3
2	94
2	94
2	12
2	4
2	94
2	94
2	5
2	3
2	4
2	94
3	4
3	4
3	4
3	4
3	4
3	4
3	5
3	5
3	5
3	5
3	4
3	16
3	5
3	4
3	4
3	9
3	4
3	5
3	5
3	6
3	5
3	13
3	4
3	4
3	5
3	5
4	6
4	5
4	6
4	5
4	6
4	6
4	5
4	5
5	7
5	7
5	6
5	7
5	6
5	6
5	8
6	7
6	7
6	7
6	7
6	7
7	8
8	9
8	9
9	10
9	10
10	11
10	11
13	14
92	93
117	118
