1	6124
1	92
1	91
1	58
1	98
1	19
1	54
1	54
1	90
1	91
1	26
1	90
1	95
1	56
1	15
1	90
1	90
1	12
1	90
1	90
1	32
1	9
1	7
1	10
1	14
1	30
1	91
1	12
1	27
1	90
1	90
1	10
1	7
1	90
1	26
1	8
1	12
1	11
1	55
1	11
1	53
1	56
1	26
1	9
1	10
1	9
1	56
1	11
1	90
1	8
1	9
1	7
1	11
1	26
1	90
1	13
1	91
1	5
1	15
1	12
1	6
1	11
1	11
1	10
1	5
1	10
1	56
1	6
1	91
1	9
1	8
1	53
1	5
1	91
1	27
1	8
1	6
1	90
1	91
1	9
1	26
1	91
1	53
1	5
1	91
1	7
1	53
1	53
1	29
1	90
1	53
1	6124
1	10
1	53
1	11
1	6
1	91
1	25
1	5
1	9
1	2
1	92
1	8
1	8
1	10
1	5
1	91
1	6
1	90
1	92
1	4
1	7
1	53
1	10
1	92
1	90
1	90
1	90
1	25
1	90
1	6
1	53
1	7
1	10
1	7
1	10
1	5
1	10
1	5
1	5
1	6
1	53
1	11
1	91
1	4
1	5
1	90
1	10
1	91
1	6
1	90
1	91
1	53
1	14
1	10
1	6
1	54
1	6
1	5
1	5
1	90
1	4
1	90
1	27
1	26
1	7
1	8
1	8
1	90
1	54
1	54
1	26
1	8
1	6
1	7
1	7
1	4
1	4
1	8
1	5
1	6
1	91
1	13
1	53
1	11
1	5
1	26
1	10
1	90
1	7
1	4
1	6
1	90
1	6
1	5
1	90
1	90
1	11
1	90
1	54
1	9
1	7
1	27
1	91
1	9
1	90
1	9
1	7
1	10
1	91
1	10
1	91
1	10
1	4
1	9
1	7
1	4
1	90
1	6
1	6
2	3
2	3
2	3
2	3
2	3
2	7
2	4
2	3
2	9
2	6
2	6
2	5
2	6
2	3
2	54
2	4
2	4
2	6
2	3
2	3
2	54
2	6
2	54
2	6
2	5
2	3
2	4
2	54
2	4
2	3
2	3
2	3
2	3
2	3
2	4
2	3
2	3
2	4
2	3
2	4
2	4
2	3
2	3
2	6
2	4
2	3
2	6
2	5
2	3
2	3
2	3
2	5
2	3
2	3
2	10
2	3
2	3
2	4
2	4
2	3
2	4
2	4
2	4
2	7
2	4
2	4
2	4
2	3
2	3
2	4
2	3
2	3
2	3
2	3
2	54
2	3
2	8
2	14
2	6
2	4
2	3
2	4
2	3
2	54
2	4
2	3
2	8
2	3
2	3
2	3
2	3
2	3
2	5
2	4
2	11
2	3
2	11
2	3
2	3
2	9
2	54
2	4
2	3
2	3
2	5
2	54
3	4
3	4
3	7
3	4
3	4
3	4
3	4
3	4
3	4
3	5
3	4
3	4
3	4
3	4
3	4
3	6
3	4
3	4
3	4
3	5
3	4
3	5
3	4
3	4
3	5
3	4
3	4
3	4
3	5
3	4
3	4
4	5
4	6
4	5
4	5
4	5
4	5
4	5
4	5
4	6
4	5
4	5
4	6
4	5
4	5
4	5
4	5
4	5
4	6
4	5
4	5
4	5
5	6
5	6
5	6
5	7
5	6
6	7
6	7
6	7
6	7
7	8
7	8
8	9
8	9
9	10
9	10
9	10
10	11
10	11
24	25
52	53
89	90
