1	6124
1	64
1	44
1	44
1	64
1	63
1	44
1	63
1	44
1	63
1	46
1	44
1	63
1	63
1	45
1	63
1	63
1	63
1	44
1	63
1	45
1	63
1	63
1	63
1	63
1	63
1	63
1	63
1	63
2	64
2	45
2	4
2	45
2	45
2	45
2	45
2	46
2	45
2	45
2	46
2	4
2	45
2	45
2	6
2	45
2	45
2	46
2	5
2	45
2	45
2	45
2	45
2	8
2	4
2	45
2	45
2	45
2	3
2	3
2	45
2	45
2	45
2	45
2	45
2	45
2	4
2	45
2	8
2	45
3	6
3	9
3	7
3	5
3	9
3	4
3	5
3	5
4	6
4	5
6	8
43	44
62	63
