1	6124
1	11
1	9
1	140
1	9
1	140
1	139
1	140
1	9
1	139
1	139
1	139
1	139
1	139
1	142
1	142
1	140
1	9
1	5
1	139
1	142
1	139
1	141
1	10
1	139
1	139
1	10
1	139
1	141
1	139
1	139
1	6
1	8
1	139
1	11
1	8
1	8
1	139
1	7
1	9
1	8
1	139
1	8
1	139
1	139
1	5
1	139
1	139
1	139
1	9
1	140
1	139
1	139
1	139
1	139
1	139
1	139
1	5
1	12
1	139
1	139
1	139
1	5
1	8
1	5
1	139
1	139
1	139
1	139
1	139
1	10
1	8
1	139
1	9
1	139
1	10
1	139
1	139
1	7
1	10
1	139
1	139
1	6
1	139
1	8
1	139
1	139
1	139
1	139
1	139
1	139
1	139
1	139
1	4
1	139
1	6
1	139
1	140
1	7
1	6
1	8
1	7
1	5
1	139
1	140
1	7
1	8
1	139
1	8
1	139
1	139
1	139
1	139
1	140
1	139
1	139
1	139
1	139
1	139
1	139
1	139
1	139
1	6
1	139
1	139
1	6
1	139
1	5
1	139
1	139
1	7
1	139
1	139
1	139
1	139
1	8
1	8
1	139
1	139
1	4
1	139
1	5
1	9
1	8
1	6
1	5
1	139
1	139
1	139
1	5
1	7
1	139
1	13
1	139
1	7
1	7
1	6
1	139
1	139
1	139
1	6
1	139
1	8
1	139
1	10
1	139
1	139
1	6
1	139
1	8
1	139
1	139
1	139
1	5
1	4
1	5
1	139
1	7
1	139
1	6
1	5
1	140
1	5
1	6
1	5
1	10
1	139
1	5
1	139
2	5
2	4
2	8
2	6
2	140
2	3
2	140
2	5
2	6
2	4
2	5
2	5
2	4
2	3
2	4
2	140
2	4
2	3
2	3
2	5
2	5
2	6
2	5
2	3
2	5
2	7
2	5
2	3
2	6
2	3
2	4
2	6
2	3
2	6
2	6
2	4
2	4
2	4
2	3
2	6
2	3
2	7
2	4
2	3
2	6
2	4
2	4
2	3
2	3
2	5
2	4
2	5
2	4
3	4
3	4
3	4
3	5
3	4
3	4
3	4
3	4
3	4
3	4
3	4
3	4
3	5
3	5
3	4
3	4
3	4
3	5
3	5
3	4
4	5
4	5
4	6
4	5
4	5
4	6
4	5
4	5
4	5
4	5
4	5
4	5
4	5
4	6
4	5
4	5
4	5
4	5
4	5
5	6
5	6
5	6
5	6
5	6
5	6
5	6
6	7
6	7
6	7
6	7
7	8
9	10
138	139
