1	6124
1	333
1	332
1	79
1	332
1	332
1	332
1	332
1	332
1	332
1	332
1	332
1	332
1	332
1	332
1	332
1	332
1	332
1	332
1	332
1	332
1	332
1	332
1	332
1	332
1	332
1	332
1	332
1	332
1	332
1	78
1	332
1	332
1	332
1	332
1	332
1	332
1	332
1	334
1	332
1	332
1	332
1	332
1	332
1	80
1	332
1	332
1	332
1	332
1	80
1	333
1	332
1	78
1	332
1	332
1	332
1	332
1	332
1	332
1	332
1	332
1	332
1	332
1	332
1	332
1	332
1	332
1	332
1	332
1	332
1	332
1	332
1	332
1	332
1	332
1	332
1	78
1	332
1	332
1	332
1	332
1	78
1	332
1	332
1	332
1	333
1	79
1	332
1	332
1	333
1	332
1	332
1	332
1	78
1	332
1	332
1	332
1	332
1	332
1	332
1	332
1	5
1	332
1	78
1	332
1	332
1	332
1	332
1	333
1	332
1	332
1	332
1	4
1	332
1	332
1	78
1	80
1	79
1	332
1	332
1	78
1	332
1	332
1	332
1	332
1	332
1	332
1	332
1	332
1	332
1	332
1	332
1	332
1	332
1	332
1	332
1	332
1	332
1	332
1	332
1	332
1	332
1	332
1	82
1	332
1	332
1	78
1	332
1	78
1	332
1	332
1	332
1	332
1	332
1	79
1	332
1	332
1	332
1	332
1	333
1	332
1	332
1	332
1	78
1	80
1	332
1	79
1	332
1	332
1	332
1	332
1	332
1	332
1	333
1	332
1	332
1	332
1	332
1	332
1	332
1	332
1	78
1	332
1	332
1	332
1	78
1	332
1	332
1	332
1	332
1	332
1	332
1	332
1	78
1	332
1	332
1	332
1	332
1	78
1	332
1	332
1	332
1	332
1	332
1	332
1	332
1	78
1	332
1	332
1	332
1	332
1	332
1	332
1	332
1	80
1	332
1	332
1	332
1	332
1	332
1	332
1	332
1	332
1	79
1	332
1	332
1	332
1	78
1	332
1	332
1	78
1	332
1	332
1	332
1	332
1	79
1	332
1	332
1	332
1	332
1	332
1	332
1	332
1	332
1	332
1	332
1	332
1	332
1	332
1	332
1	332
1	332
1	332
1	332
1	332
1	332
1	333
1	332
1	332
1	332
1	332
1	332
1	12
1	332
1	332
1	332
1	332
1	78
1	332
1	332
1	332
1	332
1	332
1	332
1	332
1	332
1	80
1	332
1	332
1	332
1	332
1	332
1	6
1	332
1	332
1	332
1	78
1	332
1	332
1	332
1	332
1	332
1	332
1	78
1	78
1	332
1	332
1	333
1	332
1	332
1	333
1	332
1	7
1	332
1	332
1	79
1	78
1	332
1	332
1	332
1	332
1	332
1	332
1	332
1	332
1	332
1	6
1	332
1	332
1	332
1	332
1	332
1	332
1	332
1	332
1	332
1	332
1	332
1	332
1	332
1	332
1	78
1	78
1	332
1	6
1	332
1	332
1	78
2	79
2	79
2	79
2	3
2	5
2	79
2	7
2	3
2	79
2	9
2	79
2	6
2	3
2	79
2	79
2	79
2	5
2	7
2	3
2	79
2	5
2	3
2	3
2	79
2	79
2	4
2	79
2	3
2	79
2	79
2	79
2	4
2	3
2	3
2	79
2	9
2	3
2	3
2	80
2	4
2	79
2	3
2	3
2	3
2	4
2	4
2	79
2	3
2	9
2	79
2	79
2	79
2	79
2	3
2	79
2	79
2	5
2	79
2	3
2	79
2	79
2	4
2	4
2	79
2	3
3	5
3	4
3	5
3	4
3	5
3	4
3	5
3	4
3	4
3	4
3	5
4	5
5	6
5	6
7	8
77	78
331	332
