1	6124
1	214
1	214
1	221
1	213
1	214
1	213
1	213
1	106
1	106
1	106
1	104
1	213
1	106
1	213
1	216
1	11
1	13
1	213
1	213
1	213
1	11
1	213
1	213
1	213
1	214
1	104
1	213
1	213
1	213
1	106
1	213
1	213
1	213
1	213
1	214
1	215
1	106
1	213
1	5
1	213
1	213
1	5
1	214
1	214
1	10
1	10
1	5
1	105
1	214
1	214
1	10
1	213
1	213
1	213
1	213
1	213
1	213
1	213
1	215
1	213
1	105
1	213
1	104
1	213
1	213
1	213
1	10
1	214
1	10
1	106
1	213
1	213
1	213
1	213
1	105
1	214
1	213
1	9
1	106
1	4
1	6
1	10
1	104
1	106
1	4
1	10
1	104
1	213
1	213
1	106
1	213
1	213
1	213
1	213
1	213
1	214
1	11
1	213
1	214
1	104
1	213
1	213
1	6
1	213
1	9
1	214
1	213
1	213
1	213
1	213
1	106
1	213
1	213
1	213
1	213
1	213
1	213
1	213
1	106
1	215
1	213
1	213
1	213
1	213
1	214
1	213
1	213
1	6
1	4
1	213
1	213
1	213
1	6
1	213
1	5
1	214
1	5
1	213
1	213
1	213
1	213
1	214
1	10
1	107
1	8
1	5
1	214
1	104
1	213
1	4
1	213
1	10
1	8
1	213
1	11
1	213
1	213
1	213
1	104
1	104
1	213
1	213
1	214
1	213
2	214
2	4
2	3
2	105
2	6
2	4
2	4
2	5
2	3
2	3
2	4
2	105
2	105
2	4
2	105
2	105
2	214
2	4
2	3
2	3
2	105
2	4
2	105
2	3
2	4
2	11
2	105
2	3
2	105
2	4
2	105
2	105
2	3
2	105
2	105
2	105
2	105
2	7
2	105
2	105
2	3
2	4
2	3
2	105
2	105
2	105
2	105
2	105
2	105
2	3
2	105
2	3
2	3
2	105
2	105
2	3
2	105
2	5
2	3
2	105
2	105
2	11
2	105
2	4
2	4
2	105
2	5
2	105
2	105
2	105
2	105
2	105
2	105
2	3
2	105
2	3
2	105
2	105
2	3
2	3
2	3
2	105
2	105
2	105
2	105
2	105
2	105
2	105
2	105
2	105
2	105
2	105
2	105
2	105
2	105
2	105
2	105
2	4
2	105
2	3
2	5
2	105
2	3
2	6
2	3
2	105
2	4
2	105
2	105
2	3
2	105
2	105
2	4
2	105
2	4
2	105
2	3
2	4
2	4
2	3
2	3
2	4
2	3
2	105
2	105
2	3
2	4
2	105
2	105
2	3
2	105
2	105
2	3
2	105
2	3
3	4
3	106
3	4
3	5
3	5
3	4
3	4
3	7
3	5
3	7
3	5
3	4
3	5
3	5
3	4
3	5
3	4
3	4
3	4
3	7
3	4
3	6
3	4
3	6
3	4
3	4
4	5
4	6
4	5
4	5
4	5
4	5
4	6
4	5
4	5
4	5
6	8
9	10
9	10
103	104
212	213
