106	6124
106	6124
107	6124
107	6124
214	6124
214	6124
214	6124
214	6124
214	6124
214	6124
214	6124
214	6124
214	6124
214	6124
214	6124
214	6124
214	6124
214	6124
214	6124
214	6124
214	6124
214	6124
214	6124
214	6124
214	6124
214	6124
214	6124
214	6124
214	6124
214	6124
214	6124
214	6124
214	6124
214	6124
214	6124
214	6124
214	6124
214	6124
214	6124
214	6124
214	6124
214	6124
214	6124
214	6124
214	6124
214	6124
214	6124
214	6124
214	6124
214	6124
214	6124
214	6124
214	6124
214	6124
214	6124
214	6124
214	6124
214	6124
214	6124
214	6124
214	6124
214	6124
214	6124
214	6124
214	6124
214	6124
214	6124
214	6124
214	6124
214	6124
214	6124
214	6124
214	6124
214	6124
214	6124
214	6124
214	6124
214	6124
214	6124
214	6124
214	6124
215	6124
215	6124
215	6124
215	6124
215	6124
215	6124
215	6124
215	6124
215	6124
215	6124
215	6124
215	6124
215	6124
215	6124
215	6124
215	6124
215	6124
216	6124
216	6124
216	6124
216	6124
216	6124
216	6124
218	6124
221	6124
