1	6124
1	94
1	150
1	94
1	99
1	96
1	9
1	11
1	153
1	150
1	8
1	96
1	94
1	149
1	149
1	10
1	149
1	152
1	149
1	149
1	151
1	150
1	150
1	149
1	149
1	153
1	5
1	7
1	10
1	12
1	94
1	8
1	149
1	96
1	149
1	5
1	9
1	150
1	9
1	96
1	149
1	6
1	94
1	94
1	149
1	149
1	8
1	8
1	7
1	5
1	149
1	97
1	149
1	149
1	96
1	149
1	149
1	149
1	96
1	94
1	8
1	9
1	94
1	149
1	7
1	6
1	97
1	7
1	149
1	7
1	149
1	94
1	5
1	9
1	8
1	94
1	149
1	96
1	9
1	149
1	97
1	149
1	5
1	8
1	4
1	8
1	149
1	94
1	8
1	149
1	149
1	6
1	149
1	149
1	150
1	94
1	149
1	94
1	149
1	151
1	7
1	150
1	6
1	5
1	6
1	6
1	8
1	94
1	94
1	6
1	150
1	94
1	5
1	6
1	7
1	150
1	5
1	9
1	94
1	149
1	149
1	150
1	94
1	150
1	5
1	8
1	94
1	149
1	94
1	149
1	149
1	94
1	94
1	7
1	149
1	6
1	149
1	6
1	151
1	4
1	149
1	96
1	150
1	7
1	6
1	149
1	94
1	149
1	149
1	96
1	4
1	5
1	8
1	94
1	149
1	4
1	8
1	149
1	149
1	150
1	5
1	94
1	4
1	8
1	4
1	7
1	94
1	4
1	149
1	5
1	149
1	6
1	7
1	6
1	7
1	149
1	94
1	6
1	94
1	6
1	94
1	150
1	6
1	95
1	6
1	149
1	6
1	150
1	94
1	94
1	4
1	94
1	149
1	4
1	149
1	5
1	7
2	7
2	95
2	7
2	95
2	7
2	6
2	3
2	95
2	95
2	95
2	3
2	95
2	150
2	95
2	3
2	95
2	95
2	95
2	6
2	5
2	8
2	5
2	7
2	3
2	95
2	3
2	3
2	3
2	150
2	4
2	3
2	95
2	95
2	3
2	95
2	95
2	3
2	3
2	4
2	95
2	95
2	95
2	6
2	3
2	3
2	4
2	4
2	4
2	7
2	4
2	95
2	95
2	3
2	4
2	95
2	5
2	3
2	3
2	95
2	7
2	4
2	3
2	95
2	4
2	3
2	95
2	95
2	95
2	4
2	95
2	95
2	3
2	95
2	95
2	95
2	3
2	3
2	3
2	3
2	95
2	3
2	3
2	3
2	3
2	4
2	3
2	3
2	4
2	5
2	4
2	95
2	3
2	95
2	4
2	95
2	95
2	4
2	3
2	5
2	3
2	3
2	4
2	95
2	3
2	3
2	4
2	4
2	95
2	95
2	95
2	95
2	95
2	95
2	97
3	4
3	6
3	8
3	6
3	4
3	4
3	4
3	5
3	4
3	4
3	4
3	4
3	4
3	6
3	4
3	4
3	5
3	4
3	4
3	4
3	6
3	5
3	4
3	4
3	4
3	5
3	4
3	4
3	5
3	5
3	4
3	4
3	4
4	5
4	5
4	5
4	5
4	5
4	5
4	7
4	6
4	5
4	6
4	5
4	6
4	5
4	5
4	5
4	5
5	6
5	6
5	6
5	6
5	6
5	6
5	6
5	6
6	7
6	7
6	7
6	7
7	8
93	94
148	149
