53	6124
53	6124
70	6124
70	6124
70	6124
70	6124
70	6124
70	6124
70	6124
70	6124
70	6124
70	6124
70	6124
70	6124
70	6124
70	6124
70	6124
70	6124
70	6124
70	6124
70	6124
70	6124
70	6124
70	6124
70	6124
70	6124
70	6124
70	6124
70	6124
70	6124
70	6124
70	6124
70	6124
70	6124
70	6124
70	6124
70	6124
70	6124
70	6124
70	6124
71	6124
71	6124
71	6124
71	6124
71	6124
71	6124
71	6124
71	6124
71	6124
71	6124
71	6124
72	6124
