11	6124
11	6124
124	6124
124	6124
124	6124
125	6124
125	6124
126	6124
126	6124
126	6124
128	6124
287	6124
287	6124
287	6124
287	6124
287	6124
287	6124
287	6124
287	6124
287	6124
287	6124
287	6124
287	6124
287	6124
287	6124
287	6124
287	6124
287	6124
287	6124
287	6124
287	6124
287	6124
287	6124
287	6124
287	6124
287	6124
287	6124
287	6124
287	6124
287	6124
287	6124
287	6124
287	6124
287	6124
287	6124
287	6124
287	6124
287	6124
287	6124
287	6124
287	6124
287	6124
287	6124
287	6124
287	6124
287	6124
287	6124
287	6124
287	6124
287	6124
287	6124
287	6124
287	6124
287	6124
287	6124
287	6124
287	6124
287	6124
287	6124
287	6124
287	6124
287	6124
287	6124
287	6124
287	6124
287	6124
287	6124
287	6124
287	6124
287	6124
287	6124
287	6124
287	6124
287	6124
287	6124
287	6124
287	6124
287	6124
287	6124
287	6124
287	6124
287	6124
287	6124
287	6124
287	6124
287	6124
287	6124
287	6124
287	6124
287	6124
287	6124
287	6124
287	6124
287	6124
288	6124
288	6124
288	6124
288	6124
288	6124
288	6124
288	6124
288	6124
288	6124
288	6124
289	6124
289	6124
290	6124
290	6124
290	6124
292	6124
