53	6124
53	6124
59	6124
59	6124
59	6124
59	6124
59	6124
59	6124
59	6124
59	6124
59	6124
59	6124
59	6124
59	6124
59	6124
59	6124
59	6124
59	6124
59	6124
59	6124
59	6124
59	6124
59	6124
59	6124
59	6124
59	6124
59	6124
59	6124
59	6124
59	6124
59	6124
59	6124
59	6124
59	6124
59	6124
59	6124
59	6124
59	6124
59	6124
59	6124
59	6124
59	6124
59	6124
59	6124
59	6124
59	6124
59	6124
60	6124
60	6124
60	6124
60	6124
60	6124
