1	6124
1	144
1	99
1	143
1	98
1	95
1	95
1	96
1	97
1	8
1	97
1	100
1	10
1	144
1	7
1	143
1	143
1	9
1	98
1	143
1	99
1	149
1	143
1	5
1	11
1	95
1	97
1	8
1	7
1	7
1	11
1	95
1	143
1	7
1	10
1	143
1	143
1	143
1	95
1	96
1	10
1	143
1	97
1	5
1	143
1	143
1	7
1	143
1	5
1	7
1	6
1	143
1	96
1	7
1	10
1	145
1	143
1	6
1	5
1	143
1	143
1	98
1	143
1	143
1	143
1	7
1	96
1	8
1	96
1	143
1	9
1	143
1	96
1	10
1	143
1	143
1	143
1	143
1	143
1	143
1	143
1	5
1	143
1	143
1	4
1	95
1	144
1	143
1	143
1	143
1	95
1	98
1	10
1	143
1	143
1	10
1	95
1	4
1	4
1	143
1	143
1	95
1	95
1	7
1	143
1	143
1	143
1	143
1	8
1	143
1	9
1	143
1	5
1	6
1	143
1	100
1	95
1	7
1	5
1	95
1	144
1	143
1	6
1	143
1	143
1	143
1	143
1	7
1	97
1	143
1	143
1	7
1	5
1	95
1	7
1	6
1	143
1	143
1	7
1	4
1	143
1	95
1	5
1	96
1	9
1	143
1	143
1	143
1	6
1	11
1	95
1	6
1	143
1	143
1	143
1	143
1	95
1	95
1	7
1	7
1	143
1	143
1	9
1	143
1	143
1	96
1	143
1	143
1	7
1	143
1	95
1	95
1	9
1	4
1	10
1	95
1	143
1	7
1	143
1	143
1	6124
1	7
1	8
1	143
1	143
1	5
1	7
1	7
1	143
1	5
1	143
1	2
1	5
1	143
1	143
1	5
1	143
1	95
1	8
1	7
1	5
1	143
1	8
1	8
1	96
1	10
1	7
1	143
1	143
1	143
1	143
1	7
1	95
1	95
1	8
1	95
1	95
1	143
1	5
1	143
1	5
1	7
1	6
1	97
1	8
1	9
1	95
1	10
1	143
1	143
1	143
1	6
1	143
1	6
1	95
1	143
1	95
2	96
2	3
2	3
2	7
2	3
2	3
2	96
2	96
2	96
2	96
2	96
2	3
2	96
2	96
2	6
2	96
2	5
2	96
2	96
2	5
2	7
2	3
2	8
2	96
2	3
2	4
2	3
2	4
2	6
2	4
2	5
2	96
2	6
2	4
2	96
2	3
2	3
2	96
2	96
2	3
2	5
2	5
2	3
2	3
2	5
2	3
2	4
2	3
2	4
2	3
2	4
2	3
2	96
2	96
2	96
2	6
2	6
2	96
2	96
2	96
2	4
2	5
2	7
2	5
2	4
2	5
2	3
2	4
2	96
2	96
2	3
2	4
2	5
2	4
2	96
2	3
2	96
2	4
3	5
3	4
3	5
3	5
3	5
3	4
3	4
3	4
3	4
3	4
3	4
3	4
3	4
3	4
3	4
3	6
3	4
3	4
3	4
3	7
3	5
3	4
3	4
3	4
3	5
3	4
3	4
3	4
3	4
3	4
3	10
3	4
3	5
4	5
4	5
4	5
4	5
4	5
4	7
4	6
4	5
4	5
4	7
4	5
4	5
4	7
4	5
4	5
4	5
5	6
5	6
5	8
5	7
5	6
5	6
5	6
5	6
6	7
6	7
6	7
6	7
7	8
7	8
7	8
9	10
94	95
142	143
