59	6124
60	6124
60	6124
60	6124
60	6124
60	6124
60	6124
60	6124
60	6124
60	6124
60	6124
60	6124
60	6124
60	6124
60	6124
60	6124
60	6124
60	6124
60	6124
60	6124
60	6124
60	6124
60	6124
61	6124
61	6124
61	6124
61	6124
61	6124
62	6124
62	6124
62	6124
62	6124
63	6124
63	6124
