10	6124
10	6124
10	6124
11	6124
12	6124
12	6124
13	6124
13	6124
13	6124
13	6124
14	6124
14	6124
14	6124
15	6124
15	6124
15	6124
15	6124
15	6124
15	6124
15	6124
15	6124
16	6124
16	6124
16	6124
16	6124
16	6124
16	6124
17	6124
17	6124
18	6124
18	6124
19	6124
19	6124
19	6124
20	6124
21	6124
22	6124
23	6124
23	6124
25	6124
36	6124
36	6124
36	6124
36	6124
37	6124
39	6124
39	6124
39	6124
42	6124
43	6124
46	6124
62	6124
62	6124
62	6124
62	6124
62	6124
62	6124
62	6124
62	6124
63	6124
63	6124
63	6124
63	6124
63	6124
63	6124
63	6124
64	6124
65	6124
65	6124
65	6124
66	6124
66	6124
67	6124
67	6124
69	6124
70	6124
70	6124
70	6124
72	6124
93	6124
