124	6124
125	6124
125	6124
204	6124
204	6124
204	6124
204	6124
204	6124
204	6124
204	6124
204	6124
204	6124
204	6124
204	6124
204	6124
204	6124
204	6124
204	6124
204	6124
204	6124
204	6124
204	6124
204	6124
204	6124
204	6124
204	6124
204	6124
204	6124
204	6124
204	6124
204	6124
204	6124
204	6124
204	6124
204	6124
204	6124
204	6124
204	6124
204	6124
204	6124
204	6124
204	6124
204	6124
204	6124
204	6124
204	6124
204	6124
204	6124
204	6124
204	6124
204	6124
204	6124
204	6124
204	6124
204	6124
204	6124
204	6124
204	6124
204	6124
204	6124
204	6124
204	6124
204	6124
204	6124
204	6124
204	6124
204	6124
204	6124
204	6124
204	6124
204	6124
204	6124
204	6124
204	6124
205	6124
205	6124
205	6124
205	6124
205	6124
205	6124
205	6124
205	6124
205	6124
205	6124
205	6124
205	6124
206	6124
206	6124
206	6124
206	6124
206	6124
211	6124
323	6124
