1	6124
1	114
1	113
1	152
1	112
1	112
1	151
1	151
1	152
1	151
1	112
1	151
1	151
1	120
1	151
1	151
1	151
1	6
1	113
1	151
1	151
1	151
1	151
1	151
1	112
1	151
1	112
1	151
1	151
1	114
1	151
1	113
1	113
1	151
1	151
1	151
1	151
1	151
1	112
1	151
1	151
1	151
1	112
1	151
1	112
1	151
1	14
1	112
1	114
1	114
1	151
1	112
1	151
1	113
1	154
1	6
1	112
1	11
1	15
1	114
1	151
1	151
1	151
1	151
1	151
1	151
1	151
1	151
1	151
1	114
1	112
1	151
1	6
1	151
1	20
1	10
1	113
1	112
1	114
1	112
1	151
1	112
1	11
1	151
1	10
1	112
1	151
1	112
1	112
1	151
1	151
1	151
1	151
1	151
1	151
1	151
1	151
1	151
1	15
1	151
1	151
1	7
1	151
1	5
1	151
1	112
1	151
1	112
1	151
1	152
1	151
1	151
1	151
1	112
1	10
1	151
1	112
1	151
1	151
1	4
1	4
2	6
2	113
2	6
2	3
2	113
2	113
2	113
2	16
2	113
2	113
2	113
2	113
2	113
2	113
2	3
2	113
2	3
2	113
2	16
2	113
2	3
2	113
2	3
2	113
2	113
2	113
2	16
2	113
2	113
2	3
2	16
2	113
2	113
2	113
2	113
2	113
2	113
2	113
2	113
2	113
2	113
2	113
2	113
2	113
2	114
2	113
2	113
2	113
2	113
2	113
2	113
2	113
2	113
2	113
2	113
2	113
2	3
2	16
2	113
2	113
2	113
2	16
2	113
2	113
2	7
2	113
2	113
2	113
2	3
2	113
2	113
3	6
3	17
3	17
3	5
3	4
3	4
3	5
3	11
3	114
3	4
3	6
3	4
3	4
3	4
3	5
3	9
3	17
3	6
3	4
3	4
3	8
3	8
4	5
4	5
4	7
4	7
5	6
5	6
5	6
6	9
9	10
14	15
111	112
150	151
