12	6124
92	6124
93	6124
94	6124
95	6124
96	6124
154	6124
154	6124
154	6124
154	6124
154	6124
154	6124
154	6124
154	6124
154	6124
154	6124
154	6124
154	6124
154	6124
154	6124
154	6124
154	6124
154	6124
154	6124
154	6124
154	6124
154	6124
154	6124
154	6124
154	6124
154	6124
154	6124
154	6124
154	6124
154	6124
154	6124
154	6124
154	6124
154	6124
154	6124
154	6124
154	6124
154	6124
154	6124
154	6124
154	6124
154	6124
154	6124
154	6124
154	6124
154	6124
154	6124
154	6124
154	6124
154	6124
155	6124
155	6124
155	6124
155	6124
155	6124
155	6124
155	6124
155	6124
155	6124
155	6124
155	6124
155	6124
155	6124
156	6124
156	6124
156	6124
156	6124
157	6124
157	6124
157	6124
157	6124
157	6124
157	6124
157	6124
158	6124
159	6124
159	6124
241	6124
