1	6124
1	235
1	235
1	235
1	236
1	122
1	235
1	16
1	235
1	235
1	235
1	235
1	122
1	235
1	235
1	11
1	235
1	235
1	235
1	235
1	235
1	235
1	235
1	123
1	235
1	235
1	121
1	235
1	235
1	123
1	235
1	123
1	124
1	123
1	121
1	235
1	235
1	235
1	121
1	121
1	235
1	7
1	235
1	121
1	123
1	122
1	121
1	121
1	235
1	235
1	121
1	235
1	235
1	235
1	235
1	121
1	122
1	14
1	121
1	235
1	235
1	235
1	235
1	235
1	5
1	121
1	235
1	235
1	235
1	235
1	121
1	235
1	235
1	235
1	235
1	235
1	235
1	123
1	123
1	235
1	122
1	235
1	6
1	235
1	235
1	235
1	235
1	235
1	235
1	121
1	121
1	235
1	237
1	235
1	235
1	235
1	235
1	235
1	235
1	235
1	235
1	235
1	235
1	235
1	235
1	235
1	121
1	235
1	235
1	235
1	121
1	6
1	235
1	235
1	235
1	235
1	235
1	121
1	235
1	235
1	235
1	122
1	235
1	121
1	121
1	235
1	235
1	235
1	235
1	10
1	235
1	8
1	235
1	235
1	121
1	235
1	123
1	235
1	235
1	235
1	235
1	7
1	235
1	235
1	123
1	235
1	235
1	235
1	235
1	235
1	121
1	235
1	235
1	235
1	235
1	235
1	235
1	235
1	235
1	235
1	235
1	123
1	235
1	7
1	121
1	236
1	235
1	235
1	235
1	235
1	124
1	5
1	123
1	121
1	235
1	235
1	121
1	235
1	235
1	235
1	235
1	235
1	235
1	235
1	235
1	235
1	5
1	235
1	235
1	235
1	8
1	4
1	235
1	235
1	121
1	235
1	235
1	235
1	235
1	122
1	5
1	121
1	235
1	235
1	235
1	235
1	10
1	235
1	5
1	235
1	123
1	235
1	235
1	235
1	235
1	9
1	235
1	235
1	235
1	235
1	235
1	235
1	235
2	122
2	122
2	122
2	122
2	122
2	122
2	122
2	122
2	3
2	122
2	3
2	122
2	122
2	3
2	122
2	3
2	122
2	122
2	6
2	3
2	8
2	122
2	122
2	122
2	122
2	9
2	122
2	122
2	122
2	4
2	6
2	11
2	122
2	122
2	122
2	122
2	3
2	122
2	122
2	7
2	3
2	122
2	122
2	122
2	122
2	8
2	122
2	5
2	122
2	122
2	122
2	122
2	122
2	4
2	122
2	122
2	122
2	3
2	122
2	122
2	122
2	122
2	122
2	122
2	122
2	122
2	122
2	122
2	4
2	3
2	122
2	4
2	6
2	122
2	122
2	4
2	122
2	122
3	4
3	8
3	6
3	7
3	4
3	7
3	5
3	5
3	4
3	6
3	5
3	6
3	4
3	4
3	4
3	4
3	4
3	4
3	6
3	5
3	6
3	4
4	5
4	6
4	5
4	5
4	5
4	5
4	5
4	5
4	6
4	7
5	6
6	7
7	8
9	10
120	121
234	235
