1	6124
1	125
1	104
1	106
1	10
1	13
1	124
1	8
1	124
1	104
1	124
1	103
1	103
1	124
1	12
1	124
1	124
1	124
1	125
1	11
1	12
1	8
1	10
1	9
1	124
1	124
1	103
1	103
1	103
1	124
1	103
1	124
1	103
1	105
1	103
1	103
1	124
1	124
1	103
1	124
1	103
1	11
1	10
1	8
1	7
1	103
1	103
1	9
1	7
1	103
1	124
1	125
1	103
1	124
1	103
1	103
1	103
1	4
1	124
1	103
1	124
1	103
1	103
1	124
1	9
1	103
1	124
1	104
1	103
1	103
1	124
1	103
1	10
1	124
1	103
1	103
1	6
1	9
1	10
1	124
1	103
1	103
1	5
1	8
1	9
1	124
1	105
1	7
1	12
1	105
1	103
1	103
1	10
1	4
1	124
1	125
1	103
1	10
1	124
1	8
1	124
1	124
2	104
2	104
2	104
2	7
2	104
2	104
2	105
2	104
2	104
2	11
2	3
2	5
2	104
2	104
2	3
2	104
2	104
2	10
2	104
2	11
2	104
2	104
2	7
2	104
2	105
2	104
2	104
2	104
2	5
2	3
2	125
2	104
2	4
2	104
2	104
2	104
2	104
2	3
2	104
2	104
2	104
2	104
2	8
2	104
2	104
2	104
2	104
2	104
2	104
2	8
2	8
2	104
2	4
2	104
2	5
2	104
2	3
2	104
2	104
2	104
2	6
2	10
2	104
2	104
2	8
2	104
2	104
2	3
3	4
3	4
3	4
3	4
3	4
3	4
3	4
3	5
3	4
3	5
3	7
3	5
3	7
3	5
3	4
3	5
3	4
3	4
3	105
3	6
3	6
3	9
3	5
3	12
3	4
3	8
3	4
3	6
4	7
4	6
4	7
4	5
4	5
4	5
4	5
4	5
4	10
4	7
5	8
5	9
5	7
5	6
5	6
6	7
6	9
6	8
6	8
7	8
8	9
8	9
9	10
102	103
123	124
