142	6124
142	6124
142	6124
143	6124
143	6124
143	6124
144	6124
146	6124
279	6124
279	6124
279	6124
279	6124
279	6124
279	6124
279	6124
279	6124
279	6124
279	6124
279	6124
279	6124
279	6124
279	6124
279	6124
279	6124
279	6124
279	6124
279	6124
279	6124
279	6124
279	6124
279	6124
279	6124
279	6124
279	6124
279	6124
279	6124
279	6124
279	6124
279	6124
279	6124
279	6124
279	6124
279	6124
279	6124
279	6124
279	6124
279	6124
279	6124
279	6124
279	6124
279	6124
279	6124
279	6124
279	6124
279	6124
279	6124
279	6124
279	6124
279	6124
279	6124
279	6124
279	6124
279	6124
279	6124
279	6124
279	6124
279	6124
279	6124
279	6124
279	6124
279	6124
279	6124
279	6124
279	6124
279	6124
279	6124
279	6124
279	6124
279	6124
279	6124
279	6124
279	6124
279	6124
279	6124
279	6124
279	6124
279	6124
279	6124
279	6124
279	6124
279	6124
279	6124
279	6124
279	6124
279	6124
279	6124
279	6124
279	6124
279	6124
279	6124
279	6124
279	6124
279	6124
279	6124
279	6124
279	6124
279	6124
279	6124
279	6124
279	6124
279	6124
279	6124
280	6124
280	6124
280	6124
280	6124
280	6124
280	6124
280	6124
280	6124
280	6124
280	6124
280	6124
280	6124
280	6124
280	6124
280	6124
281	6124
281	6124
281	6124
282	6124
284	6124
