1	6124
1	165
1	157
1	57
1	58
1	164
1	159
1	157
1	59
1	5
1	10
1	156
1	8
1	156
1	156
1	11
1	159
1	9
1	11
1	160
1	158
1	159
1	156
1	156
1	8
1	156
1	56
1	14
1	156
1	157
1	156
1	7
1	156
1	158
1	156
1	7
1	11
1	156
1	7
1	58
1	157
1	156
1	12
1	58
1	158
1	11
1	157
1	156
1	158
1	8
1	58
1	157
1	4
1	11
1	157
1	156
1	10
1	61
1	8
1	11
1	9
1	157
1	156
1	160
1	157
1	7
1	56
1	158
1	10
1	157
1	157
1	157
1	157
1	156
1	6
1	156
1	57
1	5
1	157
1	158
1	14
1	11
1	156
1	156
1	4
1	156
1	8
1	5
1	14
1	4
1	5
1	156
1	4
1	6
1	157
1	13
1	6
1	5
1	156
1	4
1	4
1	158
1	156
1	13
1	7
1	156
1	156
1	58
1	156
1	7
1	157
1	6
1	156
1	156
1	13
1	4
1	156
1	56
1	5
1	6
1	56
1	5
1	6
1	156
1	157
1	10
1	6
1	4
1	156
1	156
1	156
1	156
1	156
1	58
1	7
1	156
1	10
1	157
1	156
1	156
1	156
1	156
1	56
1	56
1	10
1	156
1	156
1	10
1	157
1	6
1	7
1	8
1	157
1	6
1	156
1	11
1	156
1	156
1	156
1	7
1	6
1	156
1	156
1	5
1	158
1	5
1	12
1	156
1	156
1	6
1	156
1	157
1	4
1	6
1	7
1	157
1	157
1	156
1	6
1	13
1	5
1	156
1	156
1	5
1	156
1	13
1	7
1	157
1	6
1	7
1	156
1	156
1	5
1	4
1	156
1	7
1	158
1	13
1	5
1	156
1	13
1	8
1	6
1	5
1	157
2	58
2	57
2	4
2	3
2	5
2	3
2	57
2	3
2	3
2	3
2	7
2	3
2	3
2	3
2	4
2	5
2	57
2	3
2	4
2	4
2	57
2	3
2	4
2	3
2	3
2	3
2	57
2	5
2	3
2	6
2	4
2	57
2	4
2	3
2	57
2	57
2	57
2	3
2	4
2	3
2	57
2	57
2	57
2	57
2	6
2	4
2	4
2	3
2	57
2	5
2	4
2	57
2	5
2	3
2	57
2	3
2	57
2	57
2	3
2	4
2	3
2	7
2	57
2	5
2	57
2	3
2	57
2	3
2	5
2	3
2	8
2	3
2	57
2	3
2	57
2	3
2	3
2	3
2	57
2	4
2	57
2	57
2	4
2	57
2	3
2	3
2	3
2	4
2	3
2	4
2	3
2	57
2	4
2	57
2	7
2	57
2	3
2	57
2	57
2	3
2	57
2	57
3	5
3	4
3	4
3	4
3	4
3	4
3	4
3	4
3	5
3	7
3	4
3	4
3	4
3	4
3	4
3	8
3	4
3	4
3	4
3	4
3	8
3	4
3	5
3	4
3	4
3	4
3	4
3	5
3	4
3	4
3	4
3	4
3	4
3	4
3	4
4	5
4	5
4	5
4	5
4	5
4	5
4	5
4	5
4	6
4	5
5	6
5	6
5	6
5	6
5	6
5	6
5	6
5	6
5	6
6	7
6	7
9	10
10	11
12	13
55	56
155	156
