1	6124
1	16
1	26
1	25
1	16
1	23
1	25
1	6
1	26
1	12
1	15
1	11
1	25
1	4
1	14
1	25
1	11
1	25
1	25
1	26
1	25
1	14
1	25
1	13
1	11
1	14
1	25
1	14
1	14
1	14
1	11
1	25
1	11
1	11
2	3
2	3
2	15
2	7
2	5
2	6
2	3
2	6
2	4
2	5
2	4
3	4
3	4
3	6
3	4
3	6
3	5
3	4
3	5
3	4
4	6
10	11
13	14
24	25
