1	6124
1	27
1	26
1	26
1	9
1	8
1	28
1	6124
1	26
1	2
1	8
1	7
1	26
1	26
1	26
1	26
1	8
1	6124
1	26
1	6
1	6
1	2
1	26
1	26
1	26
1	5
1	7
1	26
1	6124
1	5
1	4
1	26
1	5
1	26
1	26
1	5
1	8
1	26
1	6
1	7
1	6
1	2
1	26
1	7
2	3
2	5
2	5
2	4
2	5
2	5
2	8
2	8
2	6
2	3
2	3
2	5
2	3
2	3
3	4
3	4
3	4
3	4
3	5
3	4
3	4
3	4
4	6
4	6
4	5
4	5
4	5
4	6
5	6
6	7
25	26
