1	6124
1	21
1	20
1	20
1	22
1	20
1	22
1	21
1	4
1	8
1	6124
1	20
1	20
1	22
1	5
1	22
1	6
1	6
1	4
1	4
1	20
1	21
1	7
1	21
1	5
1	5
1	2
1	6
1	20
1	20
2	3
2	6
2	6
2	4
2	5
2	8
2	3
2	4
2	3
2	3
2	5
2	3
2	3
2	3
3	4
3	5
3	4
3	5
3	4
3	4
3	4
3	4
4	5
4	5
5	7
19	20
