1	6124
1	60
1	59
1	10
1	59
1	59
1	59
1	11
1	59
1	11
1	10
1	10
1	10
1	59
1	59
1	9
1	59
1	10
1	59
1	59
1	60
1	61
1	59
1	60
1	59
1	60
1	59
1	59
1	59
1	59
1	59
1	59
1	59
1	59
1	6
1	5
1	60
1	59
1	9
1	60
1	8
1	60
1	59
1	59
1	59
1	7
1	59
1	60
1	59
1	59
1	59
1	6124
1	60
1	11
1	7
1	59
1	59
1	61
1	59
1	59
1	2
1	59
1	6
1	59
1	59
1	6
1	59
1	59
1	59
1	59
1	7
1	59
1	4
1	59
1	11
1	59
2	4
2	3
2	3
2	3
2	3
2	5
2	3
2	3
2	3
2	5
2	3
2	5
2	3
2	3
2	6
2	4
2	3
2	3
2	3
2	3
3	4
3	4
3	6
3	4
3	4
3	4
3	5
4	5
4	5
4	5
5	6
5	6
9	10
58	59
