1	6124
1	33
1	33
1	16
1	17
1	13
1	32
1	16
1	16
1	16
1	32
1	16
1	32
1	12
1	33
1	32
1	10
1	32
1	16
1	8
1	10
1	8
1	32
1	12
1	32
2	4
2	13
2	13
2	10
2	3
2	13
2	3
2	10
2	9
2	17
2	4
2	17
2	4
2	4
2	10
2	7
3	8
3	4
3	6
3	11
3	5
3	6
3	11
4	7
5	7
5	6
7	8
7	8
7	9
8	10
11	12
15	16
31	32
