1	6124
1	31
1	31
1	31
1	31
1	32
1	32
1	31
1	32
1	31
1	32
1	33
1	31
1	31
1	31
1	33
1	5
1	31
1	31
1	32
1	31
1	32
1	31
1	4
1	31
1	31
1	6
1	5
1	4
1	31
1	32
1	32
2	3
2	5
2	3
2	3
2	7
2	4
2	3
2	7
2	4
2	5
2	3
2	5
2	3
2	5
2	4
2	3
2	4
3	4
3	4
3	4
3	5
3	4
3	4
3	5
5	6
30	31
