1	6124
1	8
1	15
1	14
1	21
1	20
1	14
1	14
1	16
1	14
1	16
1	20
1	20
1	14
1	5
1	7
1	9
1	8
1	14
1	21
1	7
1	20
1	20
2	8
2	5
2	3
2	5
2	6
2	3
2	4
2	15
3	6
3	5
3	5
3	4
3	4
3	6
3	4
3	6
4	5
4	5
5	7
6	7
13	14
19	20
