1	6124
1	27
1	11
1	11
1	12
1	9
1	8
1	25
1	6
1	8
1	25
1	11
1	6
1	8
1	24
1	24
1	11
1	24
1	8
1	24
1	7
1	11
1	5
1	6
1	24
1	24
1	12
1	4
1	5
1	8
1	6
1	6
2	7
2	9
2	8
2	8
2	6
2	7
2	5
2	7
2	4
2	5
2	5
2	5
2	4
2	4
2	3
2	4
2	4
2	4
2	3
2	5
2	7
3	6
3	5
3	5
3	5
3	5
3	8
3	4
3	5
3	4
3	4
3	5
3	5
3	5
3	4
4	5
4	5
5	7
5	6
5	6
5	6
5	6
6	7
10	11
23	24
