1	6124
1	45
1	6124
1	46
1	45
1	45
1	45
1	9
1	45
1	9
1	45
1	6124
1	2
1	45
1	11
1	11
1	6124
1	45
1	45
1	6124
1	46
1	45
1	8
1	10
1	10
1	8
1	45
1	45
1	45
1	8
1	10
1	45
1	45
1	45
1	8
1	45
1	45
1	47
1	46
1	46
1	45
1	8
1	12
1	10
1	7
1	45
1	8
1	45
1	2
1	2
1	45
1	4
1	45
1	45
1	4
1	46
1	9
1	2
1	45
1	4
1	45
1	45
2	10
2	4
2	4
2	7
2	4
2	3
2	4
2	5
2	3
2	4
2	5
2	3
3	6
3	9
3	4
3	4
3	4
3	4
3	4
3	4
4	5
5	6
5	6
6	7
7	8
7	8
8	9
44	45
