1	6124
1	25
1	22
1	22
1	24
1	22
1	22
1	23
1	16
1	15
1	22
1	22
1	22
1	13
1	13
1	22
1	5
1	22
1	8
1	13
1	22
1	22
1	13
1	13
1	23
1	7
1	4
1	13
1	22
1	6
2	3
2	3
2	6
2	4
2	5
2	14
2	4
2	4
3	4
3	4
3	4
3	5
4	5
5	6
12	13
21	22
