1	6124
1	6124
1	38
1	14
1	12
1	37
1	37
1	37
1	9
1	13
1	10
1	6
1	37
1	37
1	37
1	37
1	6
1	37
1	11
1	2
1	37
1	37
1	5
1	37
1	8
1	37
1	6124
1	6
1	11
1	37
1	37
1	38
1	38
1	37
1	2
1	7
1	11
1	37
1	11
1	38
1	7
1	10
1	5
1	8
1	11
1	11
1	7
1	37
1	4
1	6
1	12
1	38
1	37
1	10
1	7
1	5
2	3
2	6
2	4
2	6
2	5
2	12
2	6
2	4
2	3
2	4
2	6
2	5
2	3
2	5
2	4
2	6
2	3
2	5
2	5
2	6
2	3
2	3
3	4
3	4
3	5
3	5
3	4
3	4
3	5
3	5
3	7
3	4
4	5
4	5
4	5
4	5
4	5
4	5
4	7
4	5
5	6
5	6
5	7
9	10
10	11
36	37
