1	6124
1	35
1	35
1	35
1	34
1	34
1	34
1	34
1	34
1	38
1	35
1	34
1	34
1	34
1	34
1	34
1	34
1	34
1	35
1	6
1	6
1	36
1	4
1	34
1	34
1	34
1	34
1	34
1	34
1	34
1	34
1	4
1	6
1	5
1	34
1	35
1	34
1	35
1	34
2	3
2	3
2	3
2	5
2	3
2	5
2	3
2	4
2	3
3	4
3	4
3	4
5	6
33	34
