1	6124
1	27
1	27
1	9
1	26
1	8
1	26
1	9
1	9
1	8
1	26
1	26
1	8
1	7
1	8
1	11
1	9
1	7
1	8
1	26
1	26
1	7
1	4
1	27
1	28
1	8
1	10
1	8
1	7
1	8
1	8
1	5
1	6
1	6124
1	10
1	2
1	4
1	26
1	26
2	8
2	8
2	7
2	3
2	3
2	8
2	7
2	7
2	6
2	3
2	7
2	9
2	7
2	3
2	11
2	4
2	8
2	4
2	3
3	7
3	4
3	6
3	5
3	6
3	8
3	6
3	7
3	4
4	8
4	6
4	6
4	6
4	5
5	6
5	7
5	7
5	7
6	7
6	7
6	7
6	7
7	8
7	8
9	10
25	26
