1	6124
1	17
1	11
1	12
1	7
1	10
1	6124
1	6
1	6
1	17
1	16
1	4
1	6124
1	6
1	6
1	5
1	11
1	16
1	9
1	15
1	10
1	16
1	8
1	2
1	15
1	8
1	2
1	9
1	7
1	6
1	15
1	4
1	6
2	3
2	5
2	5
2	6
2	3
2	5
2	4
2	10
2	3
2	4
2	4
3	4
3	4
3	4
3	4
3	4
3	4
4	5
4	5
5	6
5	6
5	6
6	7
8	9
14	15
