1	6124
1	45
1	45
1	45
1	45
1	45
1	45
1	45
1	45
1	45
1	45
1	45
1	45
1	45
1	45
1	46
1	45
1	45
1	45
1	45
1	45
1	45
1	45
1	45
1	45
1	45
1	45
1	45
1	45
1	45
1	45
1	45
1	45
1	45
1	45
1	45
1	45
1	46
1	45
1	45
1	46
1	46
2	5
2	4
2	5
2	4
2	3
2	4
2	3
3	4
3	4
44	45
