1	6124
1	22
1	22
1	22
1	23
1	23
1	23
1	9
1	8
1	22
1	22
1	22
1	9
1	7
1	22
1	22
1	22
1	7
1	7
1	23
1	22
1	5
1	9
1	8
1	8
1	9
1	22
2	4
2	3
2	4
2	3
2	3
2	3
2	5
2	6
2	3
2	3
2	8
2	4
2	7
2	7
3	6
3	7
3	4
4	6
4	5
4	6
5	6
5	6
6	7
7	8
21	22
