10	6124
12	6124
13	6124
14	6124
15	6124
16	6124
16	6124
19	6124
19	6124
20	6124
34	6124
34	6124
34	6124
34	6124
35	6124
35	6124
36	6124
36	6124
37	6124
38	6124
39	6124
39	6124
40	6124
40	6124
43	6124
44	6124
