1	6124
1	44
1	13
1	8
1	44
1	43
1	44
1	43
1	45
1	43
1	43
1	5
1	9
1	13
1	11
1	43
1	43
1	7
1	43
1	9
1	44
1	43
1	43
1	43
1	7
1	44
1	8
1	43
1	10
1	43
1	43
1	43
1	43
1	44
1	43
1	7
1	43
1	12
1	5
1	43
1	43
2	11
2	44
2	3
2	7
2	8
2	4
2	3
2	6
2	7
2	9
2	7
2	3
2	7
2	4
2	7
2	4
2	3
3	4
3	5
3	4
3	4
3	5
3	6
3	4
3	5
3	5
4	5
4	5
4	5
5	6
5	6
5	8
6	7
6	7
9	10
42	43
