1	6124
1	46
1	45
1	46
1	46
1	46
1	45
1	6
1	15
1	45
1	45
1	47
1	11
1	45
1	46
1	45
1	45
1	45
1	45
1	45
1	45
1	45
1	4
1	45
1	14
1	13
1	6
1	46
1	14
1	45
1	14
1	45
1	46
1	45
1	10
1	46
1	7
1	14
1	45
1	45
1	45
1	45
1	5
1	45
1	11
1	45
1	45
1	5
1	12
2	15
2	11
2	3
2	3
2	6
2	3
2	4
2	3
2	3
2	15
2	3
2	9
2	5
2	9
2	8
2	4
2	3
2	3
2	4
2	7
2	7
2	16
2	15
3	6
3	5
3	5
3	4
3	4
3	4
3	5
3	5
4	5
5	6
5	7
7	9
9	10
13	14
44	45
