1	6124
1	6124
1	6124
1	32
1	29
1	8
1	30
1	31
1	30
1	29
1	29
1	29
1	30
1	29
1	29
1	29
1	30
1	33
1	6124
1	30
1	29
1	4
1	6
1	29
1	30
1	29
1	4
1	2
1	5
1	6
1	7
1	2
1	29
1	6
1	6
1	6
1	29
1	29
1	6
1	5
1	32
1	29
2	5
2	3
2	4
2	3
2	5
2	3
2	3
2	3
2	3
2	5
2	3
2	4
2	3
2	4
2	6
2	4
2	5
2	3
3	4
3	4
3	4
3	4
3	5
3	5
4	5
4	5
5	6
5	6
28	29
