1	6124
1	40
1	39
1	16
1	15
1	11
1	39
1	39
1	41
1	39
1	39
1	39
1	39
1	39
1	39
1	39
1	41
1	39
1	41
1	4
1	39
1	10
1	39
1	12
1	39
1	16
1	39
1	39
1	39
1	40
1	13
1	39
1	4
1	10
1	10
1	7
1	9
1	39
1	4
1	39
1	39
1	9
1	39
1	15
1	4
1	15
1	39
1	39
1	39
1	11
1	6
1	15
1	39
1	12
2	5
2	10
2	40
2	3
2	4
2	3
2	4
2	5
2	3
2	7
2	3
2	4
2	5
2	4
2	16
2	4
3	4
3	4
3	4
3	4
3	4
3	5
3	4
3	4
3	4
4	5
5	6
8	9
8	9
14	15
38	39
