1	6124
1	10
1	17
1	16
1	4
1	11
1	16
1	12
1	5
1	10
1	8
1	17
1	9
1	8
1	16
1	4
1	16
1	10
1	9
1	17
1	11
1	9
1	9
1	5
1	16
1	8
1	7
1	17
1	9
1	8
2	6
2	3
2	7
2	7
2	3
2	3
2	3
2	5
2	5
2	3
2	4
2	3
2	4
2	3
3	4
3	4
3	4
3	4
3	4
3	5
3	4
4	5
4	6
6	7
6	7
8	9
15	16
