6	6124
10	6124
11	6124
13	6124
13	6124
14	6124
14	6124
14	6124
15	6124
15	6124
16	6124
17	6124
17	6124
17	6124
49	6124
49	6124
49	6124
50	6124
51	6124
51	6124
51	6124
51	6124
51	6124
52	6124
54	6124
54	6124
55	6124
