11	6124
11	6124
12	6124
12	6124
12	6124
13	6124
15	6124
16	6124
22	6124
24	6124
26	6124
26	6124
27	6124
27	6124
29	6124
32	6124
33	6124
43	6124
78	6124
78	6124
78	6124
78	6124
78	6124
79	6124
79	6124
80	6124
81	6124
81	6124
82	6124
84	6124
84	6124
100	6124
