1	6124
1	32
1	33
1	34
1	32
1	32
1	32
1	33
1	34
1	33
1	32
1	32
1	32
1	32
1	7
1	6
1	6
1	32
1	32
1	8
1	33
1	33
1	32
1	32
1	32
1	32
1	6
1	32
1	32
1	32
1	5
1	32
1	32
1	6
1	32
1	33
1	32
2	3
2	4
2	7
2	3
2	3
2	4
2	3
2	4
2	3
2	3
2	3
3	4
3	4
5	6
5	6
31	32
