1	6124
1	27
1	28
1	28
1	26
1	11
1	6124
1	26
1	7
1	26
1	26
1	10
1	26
1	26
1	13
1	11
1	27
1	6
1	27
1	26
1	26
1	10
1	26
1	26
1	26
1	11
1	26
1	6
1	4
1	3
1	5
1	6
2	3
2	27
2	5
2	4
2	3
2	5
2	5
2	3
2	4
2	6
2	4
2	5
2	3
2	4
2	3
2	3
3	4
3	5
3	5
3	4
3	4
3	4
3	4
3	5
4	5
4	5
9	10
25	26
