1	6124
1	33
1	32
1	31
1	31
1	32
1	31
1	11
1	31
1	13
1	5
1	8
1	31
1	32
1	33
1	10
1	6124
1	31
1	31
1	31
1	5
1	8
1	31
1	2
1	31
1	31
1	11
1	5
1	8
1	31
1	31
1	6
1	10
1	32
1	31
1	31
1	10
1	31
1	31
1	10
1	10
1	31
2	3
2	3
2	7
2	5
2	3
2	4
2	4
2	4
2	3
2	3
2	4
2	4
2	3
2	3
3	8
3	6
3	5
3	4
3	5
4	5
5	6
7	8
9	10
30	31
