1	6124
1	6
1	74
1	6124
1	22
1	73
1	74
1	15
1	14
1	72
1	72
1	72
1	72
1	11
1	11
1	72
1	74
1	76
1	72
1	72
1	12
1	72
1	24
1	21
1	17
1	12
1	72
1	15
1	13
1	8
1	11
1	72
1	13
1	72
1	73
1	72
1	7
1	72
1	15
1	7
1	72
1	14
1	11
1	10
1	72
1	72
1	10
1	15
1	16
1	72
1	72
1	6
1	72
1	72
1	12
1	73
1	12
1	72
1	4
1	72
1	73
1	11
1	72
1	11
1	6
1	72
1	12
1	6
1	4
1	9
1	72
1	11
1	8
1	72
1	73
1	72
1	72
1	15
1	4
1	72
1	72
1	11
1	73
1	12
1	72
1	4
1	10
1	10
1	72
1	72
1	73
1	73
1	72
1	15
1	7
1	72
1	2
1	8
1	15
1	11
1	10
1	72
1	72
1	13
1	72
1	73
1	6124
1	10
1	12
1	9
1	5
1	2
1	73
1	16
1	7
1	73
2	5
2	4
2	73
2	3
2	3
2	3
2	7
2	4
2	5
2	3
2	7
2	3
2	3
2	6
2	3
2	6
2	4
2	4
2	4
2	3
2	3
2	3
2	4
2	3
2	7
2	3
2	12
2	4
2	4
2	3
2	3
2	73
2	3
2	4
2	3
2	3
2	3
2	4
2	3
2	3
2	4
3	6
3	4
3	4
3	5
3	4
3	4
3	6
3	7
3	4
3	5
3	4
3	4
3	4
3	4
3	5
3	4
3	6
3	4
4	5
4	6
4	5
4	5
5	6
5	11
5	6
6	7
8	9
9	10
10	11
10	11
11	12
14	15
71	72
