# persistence landscape
# X Y
"layer 0:"
-inf 0
0.0380192 0
0.0397875 0.00176831
0.0415558 0
0.0635848 0
0.0650261 0.00144133
0.0664674 0
0.0687972 0
0.0771986 0.00840146
0.0813451 0.00425501
0.0831556 0.00606555
0.0861568 0.00306435
0.0886817 0.00558921
0.0890551 0.00521582
0.11492 0.0310811
0.125665 0.0203368
0.132872 0.0275436
0.136723 0.0236923
0.177703 0.0646719
0.181111 0.0612638
0.188932 0.0690848
0.189414 0.0686024
0.202553 0.0817415
0.284295 0
inf 0


"layer 1:"
-inf 0
0.0739928 0
0.0751777 0.00118488
0.0763625 0
0.0770901 0
0.0813451 0.00425501
0.0843463 0.00125381
0.0861568 0.00306435
0.0865302 0.00269095
0.0890551 0.00521582
0.0896433 0.00462764
0.0941137 0.0090981
0.0943578 0.008854
0.105346 0.0198424
0.114042 0.0111468
0.116054 0.0131588
0.11727 0.0119424
0.125665 0.0203368
0.127434 0.0185671
0.134217 0.02535
0.136299 0.0232683
0.136723 0.0236923
0.136772 0.0236431
0.146645 0.0335158
0.14752 0.0326407
0.152727 0.0378481
0.154877 0.0356982
0.16969 0.0505114
0.170024 0.0501773
0.181111 0.0612638
0.181593 0.0607814
0.189414 0.0686024
0.195703 0.0623139
0.205397 0.0720083
0.277405 0
inf 0


"layer 2:"
-inf 0
0.0783518 0
0.0785059 0.00015419
0.0786601 0
0.0798607 0
0.0812089 0.00134826
0.0825572 0
0.0830466 0
0.0839532 0.000906641
0.0839762 0.00088369
0.0843463 0.00125381
0.0847197 0.000880407
0.0865302 0.00269095
0.0871184 0.00210278
0.0896433 0.00462764
0.0897978 0.00447308
0.0899634 0.00463864
0.0900529 0.00454911
0.0943578 0.008854
0.0958718 0.00734001
0.096182 0.00765018
0.0982405 0.00559171
0.108317 0.0156683
0.111958 0.012027
0.112468 0.0125365
0.11395 0.0110547
0.114042 0.0111468
0.115258 0.00993035
0.11727 0.0119424
0.11795 0.0112629
0.125061 0.0183739
0.126151 0.0172837
0.127434 0.0185671
0.129516 0.0164854
0.136299 0.0232683
0.136348 0.0232192
0.136772 0.0236431
0.137527 0.0228883
0.141729 0.0270902
0.141849 0.02697
0.14752 0.0326407
0.14967 0.0304909
0.154877 0.0356982
0.155211 0.0353641
0.170024 0.0501773
0.170507 0.0496949
0.181593 0.0607814
0.187882 0.0544929
0.195703 0.0623139
0.213961 0.044056
0.215205 0.0453004
0.260505 0
inf 0


"layer 3:"
-inf 0
0.0830925 0
0.0839762 0.00088369
0.0843496 0.000510291
0.0847197 0.000880407
0.0853079 0.000292236
0.0871184 0.00210278
0.087273 0.00194821
0.0897978 0.00447308
0.0898874 0.00438355
0.0900529 0.00454911
0.0907454 0.00385658
0.0908223 0.0039334
0.0916437 0.00311194
0.0958718 0.00734001
0.0979303 0.00528153
0.0982405 0.00559171
0.0991306 0.0047016
0.0993439 0.00491491
0.102095 0.00216372
0.111958 0.012027
0.11344 0.0105452
0.11395 0.0110547
0.115166 0.00983826
0.115258 0.00993035
0.115938 0.00925081
0.11795 0.0112629
0.118405 0.0108076
0.118513 0.0109152
0.119148 0.0102804
0.126151 0.0172837
0.128233 0.015202
0.129516 0.0164854
0.129565 0.0164363
0.136348 0.0232192
0.137103 0.0224643
0.137527 0.0228883
0.137647 0.0227681
0.141849 0.02697
0.143999 0.0248202
0.14967 0.0304909
0.150004 0.0301567
0.155211 0.0353641
0.155693 0.0348817
0.170507 0.0496949
0.171646 0.0485552
0.175514 0.0524233
0.176454 0.0514837
0.179939 0.0549691
0.180937 0.053971
0.183028 0.0560618
0.186239 0.0528506
0.187882 0.0544929
0.188587 0.0537877
0.190881 0.0560822
0.193145 0.0538185
0.197327 0.0580003
0.205743 0.049584
0.206403 0.0502438
0.213276 0.0433711
0.213961 0.044056
0.258017 0
inf 0


"layer 4:"
-inf 0
0.0838393 0
0.0843496 0.000510291
0.0848599 0
0.0850156 0
0.0853079 0.000292236
0.0854624 0.000137667
0.087273 0.00194821
0.0873625 0.00185868
0.0898874 0.00438355
0.0905799 0.00369102
0.0907454 0.00385658
0.0915669 0.00303512
0.0916437 0.00311194
0.0937022 0.00105346
0.0979303 0.00528153
0.0988204 0.00439143
0.0991306 0.0047016
0.101882 0.00195041
0.102095 0.00216372
0.103577 0.000681873
0.11344 0.0105452
0.114657 0.00932879
0.115166 0.00983826
0.115846 0.00915872
0.115938 0.00925081
0.116393 0.0087955
0.118405 0.0108076
0.11904 0.0101727
0.119148 0.0102804
0.119629 0.0097991
0.120915 0.0110851
0.121002 0.010998
0.122859 0.0128551
0.124372 0.0113418
0.128233 0.015202
0.128282 0.0151529
0.129565 0.0164363
0.13032 0.0156815
0.137103 0.0224643
0.137223 0.0223441
0.137647 0.0227681
0.139797 0.0206182
0.143999 0.0248202
0.144333 0.024486
0.150004 0.0301567
0.150486 0.0296743
0.155693 0.0348817
0.156833 0.033742
0.171646 0.0485552
0.171664 0.0485373
0.173853 0.0507262
0.174775 0.0498046
0.176454 0.0514837
0.177452 0.0504856
0.180937 0.053971
0.184149 0.0507598
0.186239 0.0528506
0.186945 0.0521455
0.188587 0.0537877
0.19085 0.051524
0.193145 0.0538185
0.201561 0.0454021
0.205743 0.049584
0.212616 0.0427113
0.213276 0.0433711
0.256647 0
inf 0


"layer 5:"
-inf 0
0.0853248 0
0.0854624 0.000137667
0.0855519 4.81384e-05
0.0873625 0.00185868
0.088055 0.00116615
0.0905799 0.00369102
0.0914013 0.00286956
0.0915669 0.00303512
0.0936254 0.00097664
0.0937022 0.00105346
0.0945923 0.000163355
0.0988204 0.00439143
0.101572 0.00164023
0.101882 0.00195041
0.103364 0.000468559
0.103577 0.000681873
0.103636 0.000622995
0.112752 0.00973945
0.11391 0.00858192
0.114657 0.00932879
0.115336 0.00864925
0.115846 0.00915872
0.116301 0.00870341
0.116393 0.0087955
0.117028 0.00816064
0.11904 0.0101727
0.119521 0.00969143
0.119629 0.0097991
0.119716 0.00971203
0.121002 0.010998
0.122515 0.00948467
0.124372 0.0113418
0.124422 0.0112926
0.128282 0.0151529
0.128333 0.0151016
0.12885 0.0156189
0.129554 0.0149153
0.13032 0.0156815
0.13041 0.015592
0.13096 0.0161423
0.130991 0.0161116
0.137223 0.0223441
0.139373 0.0201943
0.139797 0.0206182
0.140131 0.0202841
0.144333 0.024486
0.144815 0.0240037
0.150486 0.0296743
0.151626 0.0285347
0.156833 0.033742
0.156851 0.0337241
0.171664 0.0485373
0.172586 0.0476157
0.174775 0.0498046
0.17492 0.049659
0.175706 0.0504443
0.175957 0.0501931
0.176212 0.050448
0.176813 0.0498467
0.177452 0.0504856
0.180663 0.0472744
0.184149 0.0507598
0.184854 0.0500546
0.186945 0.0521455
0.189208 0.0498818
0.19085 0.051524
0.199267 0.0431077
0.201561 0.0454021
0.208434 0.0385294
0.212616 0.0427113
0.255327 0
inf 0


"layer 6:"
-inf 0
0.0855038 0
0.0855519 4.81384e-05
0.0856001 0
0.08585 0
0.0873093 0.00145932
0.0878288 0.000939893
0.088055 0.00116615
0.0888765 0.000344695
0.0914013 0.00286956
0.0934598 0.000811079
0.0936254 0.00097664
0.0945155 8.65329e-05
0.0945923 0.000163355
0.0947557 0
0.0961729 0
0.0963522 0.000179338
0.0965315 0
0.0990455 0
0.099874 0.000828471
0.100317 0.000385567
0.101572 0.00164023
0.103053 0.000158388
0.103364 0.000468559
0.103422 0.00040968
0.103636 0.000622995
0.103863 0.000396229
0.106768 0.00330122
0.107318 0.00275066
0.112818 0.00825013
0.113198 0.00786992
0.11391 0.00858192
0.114589 0.00790238
0.115336 0.00864925
0.115791 0.00819394
0.116301 0.00870341
0.116936 0.00806855
0.117028 0.00816064
0.117509 0.00767936
0.119521 0.00969143
0.119608 0.00960437
0.119716 0.00971203
0.121229 0.00819869
0.122515 0.00948467
0.122564 0.00943553
0.124422 0.0112926
0.124473 0.0112414
0.128333 0.0151016
0.129037 0.014398
0.129554 0.0149153
0.129643 0.0148258
0.13041 0.015592
0.13044 0.0155612
0.130991 0.0161116
0.131009 0.016093
0.135179 0.0202625
0.13731 0.0181313
0.139373 0.0201943
0.139707 0.0198601
0.140131 0.0202841
0.140613 0.0198017
0.144815 0.0240037
0.145955 0.022864
0.151626 0.0285347
0.151644 0.0285167
0.156851 0.0337241
0.156949 0.0336257
0.169432 0.0461078
0.170255 0.0452846
0.172586 0.0476157
0.172731 0.0474701
0.17492 0.049659
0.175172 0.0494078
0.175957 0.0501931
0.176558 0.0495918
0.176813 0.0498467
0.180024 0.0466355
0.180663 0.0472744
0.181368 0.0465693
0.184854 0.0500546
0.185535 0.0493737
0.187388 0.0512271
0.188971 0.0496443
0.189208 0.0498818
0.197625 0.0414654
0.199267 0.0431077
0.20614 0.036235
0.208434 0.0385294
0.212953 0.0340101
0.213136 0.0341926
0.230204 0.0171244
0.232156 0.0190762
0.251232 0
inf 0


"layer 7:"
-inf 0
0.0868889 0
0.0878288 0.000939893
0.0886502 0.000118434
0.0888765 0.000344695
0.0892212 0
0.0926487 0
0.0934598 0.000811079
0.0942709 0
0.094429 0
0.0945155 8.65329e-05
0.094602 0
0.0999313 0
0.100317 0.000385567
0.100702 0
0.102895 0
0.103053 0.000158388
0.103112 9.95091e-05
0.103422 0.00040968
0.103649 0.000182915
0.103863 0.000396229
0.104259 0
0.104567 0
0.107318 0.00275066
0.107698 0.00237045
0.113198 0.00786992
0.113877 0.00719038
0.114589 0.00790238
0.115045 0.00744708
0.115791 0.00819394
0.116426 0.00755908
0.116936 0.00806855
0.117417 0.00758727
0.117509 0.00767936
0.117596 0.0075923
0.119608 0.00960437
0.121122 0.00809102
0.121229 0.00819869
0.121278 0.00814954
0.122564 0.00943553
0.122616 0.0093843
0.124473 0.0112414
0.125176 0.0105378
0.129037 0.014398
0.129126 0.0143085
0.129643 0.0148258
0.129674 0.0147951
0.13044 0.0155612
0.130459 0.0155426
0.131009 0.016093
0.13314 0.0139618
0.13731 0.0181313
0.137644 0.0177971
0.139707 0.0198601
0.140189 0.0193777
0.140613 0.0198017
0.141753 0.018662
0.145955 0.022864
0.145973 0.0228461
0.151644 0.0285167
0.151742 0.0284183
0.156949 0.0336257
0.157773 0.0328025
0.170255 0.0452846
0.1704 0.045139
0.172731 0.0474701
0.172983 0.0472188
0.175172 0.0494078
0.175773 0.0488065
0.176558 0.0495918
0.179769 0.0463806
0.180024 0.0466355
0.180729 0.0459303
0.181368 0.0465693
0.182049 0.0458883
0.185535 0.0493737
0.187117 0.0477909
0.188971 0.0496443
0.197387 0.0412279
0.197625 0.0414654
0.204497 0.0345927
0.20614 0.036235
0.210659 0.0317156
0.212953 0.0340101
0.230022 0.0169419
0.230204 0.0171244
0.247328 0
inf 0


"layer 8:"
-inf 0
0.0885318 0
0.0886502 0.000118434
0.0887687 0
0.103013 0
0.103112 9.95091e-05
0.103212 0
0.103466 0
0.103649 0.000182915
0.103832 0
0.105328 0
0.107698 0.00237045
0.108378 0.00169091
0.113877 0.00719038
0.114333 0.00673507
0.115045 0.00744708
0.115679 0.00681222
0.116426 0.00755908
0.116908 0.0070778
0.117417 0.00758727
0.117504 0.00750021
0.117596 0.0075923
0.117863 0.00732529
0.118346 0.00780799
0.118373 0.00778064
0.119282 0.00868957
0.120501 0.00747058
0.121122 0.00809102
0.121171 0.00804188
0.121278 0.00814954
0.12133 0.00809831
0.122616 0.0093843
0.123319 0.0086807
0.125176 0.0105378
0.125266 0.0104483
0.129126 0.0143085
0.129157 0.0142778
0.129674 0.0147951
0.129693 0.0147765
0.130459 0.0155426
0.13259 0.0134114
0.13314 0.0139618
0.133475 0.0136276
0.137644 0.0177971
0.138127 0.0173147
0.140189 0.0193777
0.141329 0.0182381
0.141753 0.018662
0.141771 0.0186441
0.145973 0.0228461
0.146011 0.0228086
0.148083 0.0248808
0.148144 0.0248199
0.151742 0.0284183
0.152565 0.0275952
0.157773 0.0328025
0.157918 0.0326569
0.1704 0.045139
0.170652 0.0448877
0.172983 0.0472188
0.172984 0.0472173
0.174769 0.049002
0.175369 0.0484023
0.175773 0.0488065
0.178984 0.0455953
0.179769 0.0463806
0.180475 0.0456754
0.180729 0.0459303
0.18141 0.0452494
0.182049 0.0458883
0.183632 0.0443056
0.187117 0.0477909
0.195534 0.0393745
0.197387 0.0412279
0.20426 0.0343552
0.204497 0.0345927
0.209017 0.0300734
0.210659 0.0317156
0.220417 0.0219575
0.221652 0.0231924
0.228962 0.0158824
0.230022 0.0169419
0.246616 0.00034784
0.246731 0.000463048
0.247194 0
inf 0


"layer 9:"
-inf 0
0.106687 0
0.108378 0.00169091
0.108833 0.00123561
0.114333 0.00673507
0.114967 0.00610021
0.115679 0.00681222
0.116161 0.00633094
0.116908 0.0070778
0.116995 0.00699074
0.117504 0.00750021
0.117771 0.0072332
0.117863 0.00732529
0.117891 0.00729794
0.118373 0.00778064
0.119592 0.00656166
0.120501 0.00747058
0.12055 0.00742144
0.121171 0.00804188
0.121222 0.00799065
0.12133 0.00809831
0.122033 0.00739471
0.123319 0.0086807
0.123409 0.0085912
0.125266 0.0104483
0.125297 0.0104176
0.129157 0.0142778
0.129176 0.0142592
0.129693 0.0147765
0.130831 0.0136382
0.13118 0.0139869
0.132173 0.0129939
0.13259 0.0134114
0.132924 0.0130773
0.133475 0.0136276
0.133957 0.0131453
0.138127 0.0173147
0.139266 0.0161751
0.141329 0.0182381
0.141347 0.0182201
0.141771 0.0186441
0.141809 0.0186066
0.146011 0.0228086
0.146071 0.0227477
0.148144 0.0248199
0.148967 0.0239967
0.152565 0.0275952
0.152711 0.0274496
0.157918 0.0326569
0.158169 0.0324057
0.170652 0.0448877
0.170653 0.0448862
0.172984 0.0472173
0.173584 0.0466175
0.175369 0.0484023
0.17858 0.0451911
0.178984 0.0455953
0.179689 0.0448901
0.180475 0.0456754
0.181155 0.0449945
0.18141 0.0452494
0.182993 0.0436667
0.183632 0.0443056
0.189813 0.0381244
0.190931 0.0392419
0.193166 0.0370068
0.195534 0.0393745
0.202406 0.0325019
0.20426 0.0343552
0.206374 0.0322413
0.206563 0.0324304
0.208968 0.030025
0.209017 0.0300734
0.218775 0.0203153
0.220417 0.0219575
0.227727 0.0146474
0.228962 0.0158824
0.244844 0
0.246268 0
0.246616 0.00034784
0.246963 0
inf 0


"layer 10:"
-inf 0
0.107598 0
0.108833 0.00123561
0.109468 0.000600748
0.114967 0.00610021
0.115449 0.00561893
0.116161 0.00633094
0.116248 0.00624387
0.116995 0.00699074
0.117262 0.00672373
0.117771 0.0072332
0.117799 0.00720585
0.117891 0.00729794
0.11911 0.00607895
0.119592 0.00656166
0.119641 0.00651251
0.12055 0.00742144
0.120602 0.00737021
0.121222 0.00799065
0.121926 0.00728704
0.122033 0.00739471
0.122123 0.00730521
0.123409 0.0085912
0.12344 0.00856048
0.125297 0.0104176
0.125315 0.0103989
0.129176 0.0142592
0.130314 0.0131209
0.130831 0.0136382
0.131824 0.0126452
0.132173 0.0129939
0.132507 0.0126598
0.132924 0.0130773
0.133407 0.0125949
0.133957 0.0131453
0.135097 0.0120056
0.139266 0.0161751
0.139284 0.0161571
0.141347 0.0182201
0.141385 0.0181826
0.141809 0.0186066
0.141869 0.0185457
0.146071 0.0227477
0.146895 0.0219245
0.148967 0.0239967
0.149112 0.0238511
0.152711 0.0274496
0.152962 0.0271983
0.158169 0.0324057
0.158171 0.0324041
0.170653 0.0448862
0.171253 0.0442865
0.173584 0.0466175
0.176795 0.0434063
0.17858 0.0451911
0.179285 0.0444859
0.179689 0.0448901
0.18037 0.0442092
0.181155 0.0449945
0.182738 0.0434117
0.182993 0.0436667
0.189174 0.0374854
0.189813 0.0381244
0.192048 0.0358892
0.193166 0.0370068
0.200039 0.0301341
0.202406 0.0325019
0.20452 0.0303879
0.206374 0.0322413
0.208779 0.0298359
0.208968 0.030025
0.218726 0.0202669
0.218775 0.0203153
0.226085 0.0130052
0.227727 0.0146474
0.234532 0.00784231
0.234629 0.00793946
0.242569 0
inf 0


"layer 11:"
-inf 0
0.108867 0
0.109468 0.000600748
0.109949 0.000119466
0.115449 0.00561893
0.115536 0.00553187
0.116248 0.00624387
0.116515 0.00597686
0.117262 0.00672373
0.117289 0.00669638
0.117799 0.00720585
0.119018 0.00598686
0.11911 0.00607895
0.119159 0.00602981
0.119641 0.00651251
0.119693 0.00646128
0.120602 0.00737021
0.121305 0.0066666
0.121926 0.00728704
0.122015 0.00719754
0.122123 0.00730521
0.122154 0.00727449
0.12344 0.00856048
0.123458 0.00854184
0.125315 0.0103989
0.126453 0.00926069
0.130314 0.0131209
0.131307 0.012128
0.131824 0.0126452
0.132158 0.0123111
0.132507 0.0126598
0.132989 0.0121774
0.133407 0.0125949
0.134546 0.0114552
0.135097 0.0120056
0.135115 0.0119877
0.139284 0.0161571
0.139322 0.0161196
0.141385 0.0181826
0.141445 0.0181217
0.141869 0.0185457
0.142563 0.0178523
0.143866 0.0191556
0.143996 0.0190258
0.146895 0.0219245
0.14704 0.0217789
0.149112 0.0238511
0.149364 0.0235999
0.152962 0.0271983
0.152964 0.0271968
0.158171 0.0324041
0.158771 0.0318044
0.171253 0.0442865
0.174464 0.0410752
0.176795 0.0434063
0.1775 0.0427012
0.179285 0.0444859
0.179966 0.043805
0.18037 0.0442092
0.181953 0.0426264
0.182738 0.0434117
0.188919 0.0372305
0.189174 0.0374854
0.19141 0.0352503
0.192048 0.0358892
0.198921 0.0290165
0.200039 0.0301341
0.202153 0.0280201
0.20452 0.0303879
0.206926 0.0279825
0.208779 0.0298359
0.218537 0.0200778
0.218726 0.0202669
0.226036 0.0129568
0.226085 0.0130052
0.23289 0.00620009
0.234532 0.00784231
0.242375 0
inf 0


"layer 12:"
-inf 0
0.10983 0
0.109949 0.000119466
0.110036 3.2402e-05
0.115536 0.00553187
0.115803 0.00526486
0.116515 0.00597686
0.116542 0.00594951
0.117289 0.00669638
0.118508 0.00547739
0.119018 0.00598686
0.119067 0.00593772
0.119159 0.00602981
0.11921 0.00597858
0.119693 0.00646128
0.120396 0.00575768
0.121305 0.0066666
0.121395 0.0065771
0.122015 0.00719754
0.122046 0.00716682
0.122154 0.00727449
0.122172 0.00725585
0.123458 0.00854184
0.123743 0.0082574
0.123866 0.00838086
0.12472 0.00752705
0.126453 0.00926069
0.127446 0.00826773
0.131307 0.012128
0.131641 0.0117939
0.132158 0.0123111
0.13264 0.0118287
0.132989 0.0121774
0.134129 0.0110377
0.134546 0.0114552
0.134564 0.0114373
0.135115 0.0119877
0.135152 0.0119502
0.139322 0.0161196
0.139382 0.0160587
0.141445 0.0181217
0.142139 0.0174283
0.142563 0.0178523
0.142693 0.0177225
0.143996 0.0190258
0.144142 0.0188802
0.14704 0.0217789
0.147291 0.0215276
0.149364 0.0235999
0.149365 0.0235983
0.152964 0.0271968
0.153563 0.026597
0.158771 0.0318044
0.161982 0.0285932
0.174464 0.0410752
0.175169 0.0403701
0.1775 0.0427012
0.178181 0.0420203
0.179966 0.043805
0.181549 0.0422222
0.181953 0.0426264
0.188134 0.0364452
0.188919 0.0372305
0.191155 0.0349954
0.19141 0.0352503
0.198282 0.0283776
0.198921 0.0290165
0.201035 0.0269026
0.202153 0.0280201
0.204558 0.0256147
0.206926 0.0279825
0.216684 0.0182244
0.218537 0.0200778
0.225847 0.0127677
0.226036 0.0129568
0.232842 0.00615169
0.23289 0.00620009
0.23909 0
inf 0


"layer 13:"
-inf 0
0.110004 0
0.110036 3.2402e-05
0.110069 0
0.110538 0
0.115803 0.00526486
0.11583 0.00523751
0.116542 0.00594951
0.117761 0.00473053
0.118508 0.00547739
0.118557 0.00542825
0.119067 0.00593772
0.119118 0.00588649
0.11921 0.00597858
0.119914 0.00527498
0.120396 0.00575768
0.120486 0.00566818
0.121395 0.0065771
0.121425 0.00654639
0.122046 0.00716682
0.122065 0.00714818
0.122172 0.00725585
0.122457 0.00697142
0.123743 0.0082574
0.124596 0.0074036
0.12472 0.00752705
0.125713 0.00653409
0.127446 0.00826773
0.127781 0.0079336
0.131641 0.0117939
0.132123 0.0113115
0.13264 0.0118287
0.13378 0.0106891
0.134129 0.0110377
0.134147 0.0110198
0.134564 0.0114373
0.134602 0.0113998
0.135152 0.0119502
0.135213 0.0118893
0.139382 0.0160587
0.140076 0.0153653
0.142139 0.0174283
0.142269 0.0172986
0.142693 0.0177225
0.142838 0.0175769
0.144142 0.0188802
0.144393 0.018629
0.147291 0.0215276
0.147293 0.0215261
0.149365 0.0235983
0.149965 0.0229986
0.153563 0.026597
0.155785 0.0243753
0.157932 0.0265226
0.158922 0.0255331
0.161982 0.0285932
0.162687 0.027888
0.175169 0.0403701
0.17585 0.0396892
0.178181 0.0420203
0.179764 0.0404375
0.181549 0.0422222
0.18773 0.036041
0.188134 0.0364452
0.190369 0.0342101
0.191155 0.0349954
0.198027 0.0281227
0.198282 0.0283776
0.200396 0.0262637
0.201035 0.0269026
0.20344 0.0244972
0.204558 0.0256147
0.214316 0.0158566
0.216684 0.0182244
0.223994 0.0109143
0.225847 0.0127677
0.232652 0.00596258
0.232842 0.00615169
0.238993 0
inf 0


"layer 14:"
-inf 0
0.110593 0
0.11583 0.00523751
0.117049 0.00401852
0.117761 0.00473053
0.11781 0.00468138
0.118557 0.00542825
0.118608 0.00537702
0.119118 0.00588649
0.119821 0.00518289
0.119914 0.00527498
0.120003 0.00518548
0.120486 0.00566818
0.120517 0.00563746
0.121425 0.00654639
0.121444 0.00652775
0.122065 0.00714818
0.122349 0.00686375
0.122457 0.00697142
0.12331 0.00611761
0.124596 0.0074036
0.125589 0.00641064
0.125713 0.00653409
0.126047 0.00619996
0.127781 0.0079336
0.128263 0.00745121
0.132123 0.0113115
0.133263 0.0101718
0.13378 0.0106891
0.133798 0.0106711
0.134147 0.0110198
0.134184 0.0109823
0.134602 0.0113998
0.134663 0.0113389
0.135213 0.0118893
0.135458 0.0116441
0.138559 0.0147454
0.139008 0.0142971
0.140076 0.0153653
0.140206 0.0152356
0.142269 0.0172986
0.142414 0.017153
0.142838 0.0175769
0.143089 0.0173257
0.144393 0.018629
0.144394 0.0186275
0.147293 0.0215261
0.147893 0.0209263
0.149965 0.0229986
0.152187 0.0207768
0.155785 0.0243753
0.156775 0.0233858
0.158922 0.0255331
0.159627 0.024828
0.162687 0.027888
0.16315 0.0274255
0.167393 0.0316688
0.167611 0.0314504
0.17585 0.0396892
0.177433 0.0381064
0.179764 0.0404375
0.185945 0.0342563
0.18773 0.036041
0.189965 0.0338059
0.190369 0.0342101
0.197242 0.0273374
0.198027 0.0281227
0.200141 0.0260087
0.200396 0.0262637
0.202802 0.0238583
0.20344 0.0244972
0.213199 0.014739
0.214316 0.0158566
0.221626 0.00854651
0.223994 0.0109143
0.230799 0.00410921
0.232652 0.00596258
0.238615 0
inf 0


"layer 15:"
-inf 0
0.112579 0
0.114405 0.00182597
0.114631 0.00159998
0.117049 0.00401852
0.117098 0.00396938
0.11781 0.00468138
0.117862 0.00463015
0.118608 0.00537702
0.119312 0.00467342
0.119821 0.00518289
0.119911 0.00509339
0.120003 0.00518548
0.120034 0.00515476
0.120517 0.00563746
0.120535 0.00561882
0.121444 0.00652775
0.121729 0.00624331
0.122349 0.00686375
0.123203 0.00600995
0.12331 0.00611761
0.124303 0.00512465
0.125589 0.00641064
0.125923 0.00607651
0.126047 0.00619996
0.126529 0.00571757
0.128263 0.00745121
0.129403 0.00631156
0.133263 0.0101718
0.133281 0.0101539
0.133798 0.0106711
0.133836 0.0106336
0.134184 0.0109823
0.134245 0.0109214
0.134663 0.0113389
0.134908 0.0110937
0.135458 0.0116441
0.13557 0.0115327
0.136984 0.0129468
0.137102 0.0128281
0.137959 0.0136842
0.138177 0.0134661
0.139008 0.0142971
0.139137 0.0141673
0.140206 0.0152356
0.140351 0.01509
0.142414 0.017153
0.142666 0.0169017
0.143089 0.0173257
0.143091 0.0173241
0.144394 0.0186275
0.144994 0.0180277
0.147893 0.0209263
0.150114 0.0187046
0.152187 0.0207768
0.153176 0.0197874
0.156775 0.0233858
0.15748 0.0226807
0.159627 0.024828
0.16009 0.0243655
0.16315 0.0274255
0.163368 0.0272071
0.167611 0.0314504
0.169194 0.0298676
0.177433 0.0381064
0.183614 0.0319252
0.185945 0.0342563
0.18818 0.0320211
0.189965 0.0338059
0.196838 0.0269332
0.197242 0.0273374
0.199356 0.0252234
0.200141 0.0260087
0.202547 0.0236033
0.202802 0.0238583
0.21256 0.0141001
0.213199 0.014739
0.220509 0.00742896
0.221626 0.00854651
0.228431 0.00174141
0.230799 0.00410921
0.234908 0
inf 0


"layer 16:"
-inf 0
0.113031 0
0.114631 0.00159998
0.11468 0.00155083
0.117098 0.00396938
0.11715 0.00391815
0.117862 0.00463015
0.118565 0.00392655
0.119312 0.00467342
0.119402 0.00458392
0.119911 0.00509339
0.119942 0.00506267
0.120034 0.00515476
0.120052 0.00513612
0.120535 0.00561882
0.12082 0.00533439
0.121729 0.00624331
0.122582 0.00538951
0.123203 0.00600995
0.124196 0.00501698
0.124303 0.00512465
0.124539 0.00488872
0.124577 0.00492666
0.124675 0.00482846
0.125923 0.00607651
0.126406 0.00559412
0.126529 0.00571757
0.127669 0.00457792
0.129403 0.00631156
0.129421 0.00629361
0.133281 0.0101539
0.133318 0.0101164
0.133836 0.0106336
0.133896 0.0105727
0.134245 0.0109214
0.13449 0.0106763
0.134908 0.0110937
0.135019 0.0109823
0.13557 0.0115327
0.135688 0.0114139
0.137102 0.0128281
0.137321 0.0126099
0.138177 0.0134661
0.138306 0.0133363
0.139137 0.0141673
0.139283 0.0140217
0.140351 0.01509
0.140603 0.0148387
0.142666 0.0169017
0.142667 0.0169002
0.143091 0.0173241
0.143691 0.0167244
0.144994 0.0180277
0.147216 0.0158059
0.150114 0.0187046
0.151013 0.0178058
0.153007 0.0197995
0.153098 0.0197089
0.153176 0.0197874
0.153881 0.0190822
0.15748 0.0226807
0.157942 0.0222181
0.16009 0.0243655
0.160308 0.0241471
0.163368 0.0272071
0.164951 0.0256244
0.169194 0.0298676
0.170784 0.0282776
0.171255 0.028748
0.173492 0.0265106
0.174057 0.027076
0.176099 0.0250344
0.178008 0.0269436
0.17832 0.0266315
0.183614 0.0319252
0.185849 0.02969
0.18818 0.0320211
0.195053 0.0251484
0.196838 0.0269332
0.198952 0.0248192
0.199356 0.0252234
0.201761 0.022818
0.202547 0.0236033
0.212305 0.0138452
0.21256 0.0141001
0.21987 0.00679006
0.220509 0.00742896
0.227314 0.000623863
0.228431 0.00174141
0.230173 0
inf 0


"layer 17:"
-inf 0
0.113129 0
0.11468 0.00155083
0.114731 0.0014996
0.11715 0.00391815
0.117853 0.00321454
0.118565 0.00392655
0.118655 0.00383705
0.119402 0.00458392
0.119432 0.0045532
0.119942 0.00506267
0.11996 0.00504403
0.120052 0.00513612
0.120337 0.00485168
0.12082 0.00533439
0.121661 0.004493
0.122141 0.00497348
0.122154 0.00496107
0.122582 0.00538951
0.123575 0.00439654
0.124196 0.00501698
0.124432 0.00478105
0.124539 0.00488872
0.124638 0.00479052
0.124675 0.00482846
0.125158 0.00434607
0.126406 0.00559412
0.127546 0.00445447
0.127669 0.00457792
0.127687 0.00455997
0.129421 0.00629361
0.129458 0.00625612
0.133318 0.0101164
0.133379 0.0100555
0.133896 0.0105727
0.134142 0.0103276
0.13449 0.0106763
0.134602 0.0105648
0.135019 0.0109823
0.135138 0.0108635
0.135688 0.0114139
0.135906 0.0111958
0.137321 0.0126099
0.13745 0.0124802
0.138306 0.0133363
0.138452 0.0131907
0.139283 0.0140217
0.139534 0.0137705
0.140603 0.0148387
0.140604 0.0148372
0.142667 0.0169002
0.143267 0.0163004
0.143691 0.0167244
0.145913 0.0145026
0.147216 0.0158059
0.148115 0.0149071
0.151013 0.0178058
0.151104 0.0177151
0.153098 0.0197089
0.153803 0.0190038
0.153881 0.0190822
0.154344 0.0186197
0.157942 0.0222181
0.158161 0.0219998
0.160308 0.0241471
0.161891 0.0225643
0.164951 0.0256244
0.166541 0.0240343
0.170784 0.0282776
0.173021 0.0260402
0.173492 0.0265106
0.175534 0.024469
0.176099 0.0250344
0.176411 0.0247222
0.17832 0.0266315
0.180556 0.0243963
0.185849 0.02969
0.192722 0.0228173
0.195053 0.0251484
0.197167 0.0230345
0.198952 0.0248192
0.201357 0.0224138
0.201761 0.022818
0.202914 0.0216656
0.2036 0.0223524
0.212206 0.0137467
0.212305 0.0138452
0.219615 0.00653512
0.21987 0.00679006
0.22666 0
0.22669 0
0.227314 0.000623863
0.227938 0
inf 0


"layer 18:"
-inf 0
0.113231 0
0.114731 0.0014996
0.115435 0.000795997
0.117853 0.00321454
0.117943 0.00312505
0.118655 0.00383705
0.118685 0.00380633
0.119432 0.0045532
0.119451 0.00453456
0.11996 0.00504403
0.120245 0.00475959
0.120337 0.00485168
0.120924 0.00426411
0.120927 0.00426624
0.12118 0.00401243
0.121661 0.004493
0.121673 0.00448058
0.122154 0.00496107
0.123147 0.0039681
0.123575 0.00439654
0.123811 0.00416061
0.124432 0.00478105
0.12453 0.00468286
0.124638 0.00479052
0.12512 0.00430813
0.125158 0.00434607
0.126297 0.00320642
0.127546 0.00445447
0.127563 0.00443652
0.127687 0.00455997
0.127724 0.00452248
0.129458 0.00625612
0.129519 0.00619521
0.133379 0.0100555
0.133624 0.00981034
0.134142 0.0103276
0.134253 0.0102162
0.134602 0.0105648
0.13472 0.010446
0.135138 0.0108635
0.135356 0.0106454
0.135906 0.0111958
0.136036 0.0110661
0.13745 0.0124802
0.137596 0.0123346
0.138452 0.0131907
0.138703 0.0129395
0.139534 0.0137705
0.139536 0.0137689
0.140604 0.0148372
0.141204 0.0142374
0.143267 0.0163004
0.145489 0.0140787
0.145913 0.0145026
0.146811 0.0136038
0.148115 0.0149071
0.148205 0.0148165
0.151104 0.0177151
0.151809 0.01701
0.153803 0.0190038
0.154265 0.0185412
0.154344 0.0186197
0.154562 0.0184013
0.158161 0.0219998
0.159743 0.020417
0.161891 0.0225643
0.163481 0.0209742
0.166541 0.0240343
0.168607 0.0219683
0.171927 0.0252887
0.172099 0.0251173
0.173021 0.0260402
0.175063 0.0239986
0.175534 0.024469
0.175846 0.0241568
0.176411 0.0247222
0.178646 0.0224871
0.180556 0.0243963
0.184658 0.0202934
0.189558 0.0251934
0.190126 0.0246256
0.190457 0.0249568
0.192659 0.0227548
0.192722 0.0228173
0.194836 0.0207034
0.197167 0.0230345
0.199572 0.0206291
0.201357 0.0224138
0.20251 0.0212614
0.202914 0.0216656
0.204223 0.0203559
0.204606 0.0207384
0.211902 0.0134425
0.212206 0.0137467
0.219516 0.00643659
0.219615 0.00653512
0.22615 0
inf 0


"layer 19:"
-inf 0
0.114639 0
0.115435 0.000795997
0.115524 0.000706497
0.117943 0.00312505
0.117973 0.00309433
0.118685 0.00380633
0.118704 0.00378769
0.119451 0.00453456
0.119735 0.00425012
0.120245 0.00475959
0.120832 0.00417202
0.120924 0.00426411
0.121178 0.00401029
0.12118 0.00401243
0.121193 0.00400001
0.121673 0.00448058
0.122666 0.00348762
0.123147 0.0039681
0.123383 0.00373217
0.123811 0.00416061
0.123909 0.00406242
0.12453 0.00468286
0.125012 0.00420047
0.12512 0.00430813
0.12626 0.00316848
0.126297 0.00320642
0.126315 0.00318847
0.127563 0.00443652
0.127601 0.00439903
0.127724 0.00452248
0.127785 0.00446157
0.129519 0.00619521
0.129764 0.00595008
0.133624 0.00981034
0.133736 0.00969892
0.134253 0.0102162
0.134372 0.0100974
0.13472 0.010446
0.134939 0.0102279
0.135356 0.0106454
0.135486 0.0105157
0.136036 0.0110661
0.136182 0.0109205
0.137596 0.0123346
0.137847 0.0120833
0.138703 0.0129395
0.138705 0.0129379
0.139536 0.0137689
0.140136 0.0131692
0.141204 0.0142374
0.143426 0.0120157
0.145489 0.0140787
0.146387 0.0131798
0.146811 0.0136038
0.146902 0.0135132
0.148205 0.0148165
0.14891 0.0141113
0.151809 0.01701
0.152235 0.0165841
0.153201 0.0175497
0.153237 0.0175131
0.154265 0.0185412
0.154484 0.0183229
0.154562 0.0184013
0.156109 0.016855
0.157543 0.01829
0.15758 0.0182535
0.159743 0.020417
0.161334 0.0188269
0.163481 0.0209742
0.165547 0.0189082
0.168607 0.0219683
0.168778 0.021797
0.172099 0.0251173
0.17414 0.0230757
0.175063 0.0239986
0.175375 0.0236864
0.175846 0.0241568
0.178081 0.0219217
0.178646 0.0224871
0.181227 0.0199065
0.182877 0.021557
0.1844 0.0200346
0.184658 0.0202934
0.185226 0.0197256
0.190126 0.0246256
0.192328 0.0224237
0.192659 0.0227548
0.194773 0.0206408
0.194836 0.0207034
0.197241 0.018298
0.199572 0.0206291
0.200725 0.0194767
0.20251 0.0212614
0.203819 0.0199516
0.204223 0.0203559
0.211519 0.0130599
0.211902 0.0134425
0.219212 0.0061324
0.219516 0.00643659
0.225953 0
inf 0


"layer 20:"
-inf 0
0.114818 0
0.115524 0.000706497
0.115555 0.000675779
0.117973 0.00309433
0.117992 0.00307569
0.118704 0.00378769
0.118988 0.00350326
0.119735 0.00425012
0.120323 0.00366255
0.120832 0.00417202
0.121086 0.0039182
0.121178 0.00401029
0.121191 0.00399788
0.121193 0.00400001
0.122186 0.00300705
0.122666 0.00348762
0.122865 0.00328869
0.123108 0.00353117
0.123145 0.00349417
0.123383 0.00373217
0.123481 0.00363398
0.123909 0.00406242
0.124392 0.00358003
0.125012 0.00420047
0.126152 0.00306082
0.12626 0.00316848
0.126277 0.00315053
0.126315 0.00318847
0.126353 0.00315098
0.127601 0.00439903
0.127662 0.00433812
0.127785 0.00446157
0.12803 0.00421644
0.129764 0.00595008
0.129876 0.00583867
0.133736 0.00969892
0.133855 0.00958014
0.134372 0.0100974
0.13459 0.00987929
0.134939 0.0102279
0.135068 0.0100982
0.135486 0.0105157
0.135631 0.0103701
0.136182 0.0109205
0.136433 0.0106692
0.137847 0.0120833
0.137849 0.0120818
0.138705 0.0129379
0.139305 0.0123382
0.140136 0.0131692
0.142357 0.0109474
0.143426 0.0120157
0.144324 0.0111168
0.146387 0.0131798
0.146478 0.0130892
0.146902 0.0135132
0.147607 0.012808
0.14891 0.0141113
0.149336 0.0136855
0.152235 0.0165841
0.152272 0.0165475
0.153237 0.0175131
0.153456 0.0172947
0.154484 0.0183229
0.15603 0.0167766
0.156109 0.016855
0.156145 0.0168186
0.15758 0.0182535
0.15917 0.0166634
0.161334 0.0188269
0.161342 0.0188181
0.163183 0.0206587
0.16524 0.0186015
0.165547 0.0189082
0.165718 0.0187369
0.168778 0.021797
0.168874 0.0217016
0.169053 0.0218813
0.171 0.019935
0.17414 0.0230757
0.174452 0.0227635
0.175375 0.0236864
0.17761 0.0214513
0.178081 0.0219217
0.180661 0.0193411
0.181227 0.0199065
0.182749 0.0183841
0.1844 0.0200346
0.184967 0.0194668
0.185226 0.0197256
0.187428 0.0175236
0.192328 0.0224237
0.194442 0.0203097
0.194773 0.0206408
0.197179 0.0182355
0.197241 0.018298
0.198394 0.0171456
0.200725 0.0194767
0.202035 0.0181669
0.203819 0.0199516
0.211115 0.0126557
0.211519 0.0130599
0.21883 0.00574982
0.219212 0.0061324
0.225345 0
inf 0


"layer 21:"
-inf 0
0.114879 0
0.115555 0.000675779
0.115573 0.000657139
0.117992 0.00307569
0.118276 0.00279125
0.118988 0.00350326
0.119576 0.00291568
0.120323 0.00366255
0.120577 0.00340873
0.121086 0.0039182
0.121099 0.00390579
0.121191 0.00399788
0.122184 0.00300492
0.122186 0.00300705
0.122385 0.00280813
0.122865 0.00328869
0.122902 0.00325169
0.123145 0.00349417
0.123243 0.00339597
0.123481 0.00363398
0.123963 0.00315159
0.124392 0.00358003
0.125531 0.00244038
0.126152 0.00306082
0.12617 0.00304287
0.126277 0.00315053
0.126315 0.00311304
0.126353 0.00315098
0.126414 0.00309007
0.127662 0.00433812
0.127907 0.00409299
0.12803 0.00421644
0.128142 0.00410503
0.129876 0.00583867
0.129994 0.00571988
0.133855 0.00958014
0.134073 0.00936203
0.13459 0.00987929
0.13472 0.00974955
0.135068 0.0100982
0.135214 0.00995262
0.135631 0.0103701
0.135883 0.0101188
0.136433 0.0106692
0.136435 0.0106677
0.137849 0.0120818
0.138448 0.0114821
0.139305 0.0123382
0.141526 0.0101164
0.142357 0.0109474
0.143256 0.0100486
0.144324 0.0111168
0.144415 0.0110262
0.146478 0.0130892
0.147183 0.0123841
0.147607 0.012808
0.148033 0.0123822
0.149336 0.0136855
0.149373 0.0136488
0.152272 0.0165475
0.15249 0.0163291
0.153456 0.0172947
0.155002 0.0157484
0.15603 0.0167766
0.156067 0.0167401
0.156145 0.0168186
0.157735 0.0152285
0.15917 0.0166634
0.159179 0.0166546
0.161342 0.0188181
0.1634 0.0167609
0.16524 0.0186015
0.165411 0.0184302
0.165718 0.0187369
0.165813 0.0186416
0.168874 0.0217016
0.17082 0.0197553
0.171 0.019935
0.171312 0.0196228
0.174452 0.0227635
0.176688 0.0205283
0.17761 0.0214513
0.178368 0.0206933
0.17876 0.0210845
0.180582 0.019262
0.180661 0.0193411
0.182184 0.0178187
0.182749 0.0183841
0.183317 0.0178163
0.184967 0.0194668
0.187169 0.0172648
0.187428 0.0175236
0.187735 0.0172172
0.188083 0.017566
0.189891 0.0157585
0.194442 0.0203097
0.196848 0.0179043
0.197179 0.0182355
0.198331 0.017083
0.198394 0.0171456
0.199703 0.0158358
0.202035 0.0181669
0.209331 0.010871
0.211115 0.0126557
0.218425 0.00534561
0.21883 0.00574982
0.224579 0
inf 0


"layer 22:"
-inf 0
0.114916 0
0.115573 0.000657139
0.115858 0.000372705
0.118276 0.00279125
0.118864 0.00220368
0.119576 0.00291568
0.11983 0.00266187
0.120577 0.00340873
0.120589 0.00339632
0.121099 0.00390579
0.122092 0.00291283
0.122184 0.00300492
0.122383 0.00280599
0.122385 0.00280813
0.122422 0.00277112
0.122902 0.00325169
0.123 0.00315349
0.123243 0.00339597
0.123725 0.00291358
0.123963 0.00315159
0.125103 0.00201194
0.125531 0.00244038
0.125549 0.00242243
0.12617 0.00304287
0.126207 0.00300537
0.126315 0.00311304
0.126376 0.00305213
0.126414 0.00309007
0.126659 0.00284494
0.127907 0.00409299
0.128018 0.00398158
0.128142 0.00410503
0.128261 0.00398624
0.129994 0.00571988
0.130212 0.00550177
0.134073 0.00936203
0.134202 0.00923229
0.13472 0.00974955
0.134865 0.00960397
0.135214 0.00995262
0.135465 0.00970135
0.135883 0.0101188
0.135884 0.0101173
0.136435 0.0106677
0.137034 0.0100679
0.138448 0.0114821
0.14067 0.00926031
0.141526 0.0101164
0.142425 0.0092176
0.143256 0.0100486
0.143347 0.00995798
0.144415 0.0110262
0.14512 0.0103211
0.147183 0.0123841
0.147609 0.0119582
0.148033 0.0123822
0.14807 0.0123455
0.149373 0.0136488
0.149591 0.0134304
0.15249 0.0163291
0.154036 0.0147828
0.155002 0.0157484
0.155038 0.0157119
0.156067 0.0167401
0.157657 0.01515
0.157735 0.0152285
0.157744 0.0152197
0.159179 0.0166546
0.161236 0.0145974
0.1634 0.0167609
0.163571 0.0165896
0.165411 0.0184302
0.165507 0.0183349
0.165813 0.0186416
0.16776 0.0166953
0.17082 0.0197553
0.171132 0.0194431
0.171312 0.0196228
0.173547 0.0173877
0.176688 0.0205283
0.177446 0.0197704
0.178368 0.0206933
0.180191 0.0188707
0.180582 0.019262
0.182105 0.0177396
0.182184 0.0178187
0.182752 0.0172509
0.183317 0.0178163
0.185519 0.0156144
0.187169 0.0172648
0.187476 0.0169584
0.187735 0.0172172
0.189542 0.0154097
0.189891 0.0157585
0.190569 0.0150808
0.194116 0.0186284
0.195844 0.0169007
0.196848 0.0179043
0.198 0.0167519
0.198331 0.017083
0.199641 0.0157733
0.199703 0.0158358
0.206999 0.00853988
0.209331 0.010871
0.216641 0.0035609
0.218425 0.00534561
0.223771 0
inf 0


"layer 23:"
-inf 0
0.115485 0
0.115858 0.000372705
0.116231 0
0.11666 0
0.118864 0.00220368
0.119118 0.00194986
0.11983 0.00266187
0.119842 0.00264945
0.120589 0.00339632
0.121582 0.00240336
0.122092 0.00291283
0.12229 0.0027139
0.122383 0.00280599
0.12242 0.00276899
0.122422 0.00277112
0.12252 0.00267292
0.123 0.00315349
0.123483 0.0026711
0.123725 0.00291358
0.124865 0.00177393
0.125103 0.00201194
0.125121 0.00199399
0.125549 0.00242243
0.125587 0.00238493
0.126207 0.00300537
0.126268 0.00294447
0.126376 0.00305213
0.126621 0.002807
0.126659 0.00284494
0.12677 0.00273353
0.128018 0.00398158
0.128137 0.00386279
0.128261 0.00398624
0.128479 0.00376813
0.130212 0.00550177
0.130342 0.00537203
0.134202 0.00923229
0.134348 0.0090867
0.134865 0.00960397
0.135117 0.0093527
0.135465 0.00970135
0.135467 0.00969982
0.135884 0.0101173
0.136484 0.00951756
0.137034 0.0100679
0.139256 0.00784618
0.14067 0.00926031
0.141569 0.00836149
0.142425 0.0092176
0.142516 0.00912697
0.143347 0.00995798
0.144052 0.00925283
0.14512 0.0103211
0.145546 0.0098952
0.147609 0.0119582
0.147646 0.0119215
0.14807 0.0123455
0.148288 0.0121271
0.149591 0.0134304
0.151138 0.0118841
0.154036 0.0147828
0.154073 0.0147463
0.155038 0.0157119
0.156628 0.0141218
0.157657 0.01515
0.157665 0.0151412
0.157744 0.0152197
0.159801 0.0131625
0.161236 0.0145974
0.161407 0.0144261
0.163571 0.0165896
0.163666 0.0164943
0.165507 0.0183349
0.167453 0.0163885
0.16776 0.0166953
0.168072 0.0163831
0.171132 0.0194431
0.173367 0.017208
0.173547 0.0173877
0.174305 0.0166297
0.177446 0.0197704
0.179268 0.0179478
0.180191 0.0188707
0.181713 0.0173483
0.182105 0.0177396
0.182672 0.0171718
0.182752 0.0172509
0.184954 0.015049
0.185519 0.0156144
0.185825 0.015308
0.187476 0.0169584
0.189283 0.0151509
0.189542 0.0154097
0.19022 0.014732
0.190569 0.0150808
0.192296 0.0133531
0.195844 0.0169007
0.196996 0.0157483
0.198 0.0167519
0.19931 0.0154421
0.199641 0.0157733
0.206937 0.00847732
0.206999 0.00853988
0.214309 0.0012298
0.216641 0.0035609
0.220201 0
inf 0


"layer 24:"
-inf 0
0.117168 0
0.119118 0.00194986
0.11913 0.00193745
0.119842 0.00264945
0.120835 0.00165649
0.121582 0.00240336
0.121781 0.00220443
0.12229 0.0027139
0.122327 0.0026769
0.12242 0.00276899
0.122518 0.00267079
0.12252 0.00267292
0.123002 0.00219053
0.123483 0.0026711
0.124623 0.00153145
0.124865 0.00177393
0.124883 0.00175598
0.125121 0.00199399
0.125158 0.00195649
0.125587 0.00238493
0.125648 0.00232403
0.126268 0.00294447
0.126513 0.00269934
0.126621 0.002807
0.126732 0.00269559
0.12677 0.00273353
0.126889 0.00261474
0.128137 0.00386279
0.128355 0.00364468
0.128479 0.00376813
0.128609 0.00363839
0.130342 0.00537203
0.130488 0.00522644
0.134348 0.0090867
0.134599 0.00883543
0.135117 0.0093527
0.135118 0.00935117
0.135467 0.00969982
0.136066 0.00910006
0.136484 0.00951756
0.138706 0.0072958
0.139256 0.00784618
0.140155 0.00694736
0.141569 0.00836149
0.14166 0.00827086
0.142516 0.00912697
0.143221 0.00842182
0.144052 0.00925283
0.144478 0.00882696
0.145546 0.0098952
0.145583 0.00985854
0.147646 0.0119215
0.147864 0.0117032
0.148288 0.0121271
0.149834 0.0105808
0.151138 0.0118841
0.151174 0.0118477
0.154073 0.0147463
0.155663 0.0131562
0.156628 0.0141218
0.156637 0.014113
0.157665 0.0151412
0.159723 0.013084
0.159801 0.0131625
0.159972 0.0129912
0.161407 0.0144261
0.161503 0.0143308
0.163666 0.0164943
0.165612 0.0145479
0.167453 0.0163885
0.167765 0.0160763
0.168072 0.0163831
0.170307 0.0141479
0.173367 0.017208
0.174125 0.01645
0.174305 0.0166297
0.174331 0.0166035
0.174649 0.0169213
0.176445 0.015125
0.179268 0.0179478
0.18079 0.0164254
0.181713 0.0173483
0.182281 0.0167805
0.182672 0.0171718
0.184874 0.0149698
0.184954 0.015049
0.18526 0.0147426
0.185825 0.015308
0.187633 0.0135004
0.189283 0.0151509
0.189961 0.0144732
0.19022 0.014732
0.191948 0.0130043
0.192296 0.0133531
0.193449 0.0122007
0.196996 0.0157483
0.198306 0.0144385
0.19931 0.0154421
0.206606 0.00814619
0.206937 0.00847732
0.214247 0.00116724
0.214309 0.0012298
0.215539 0
inf 0


"layer 25:"
-inf 0
0.117193 0
0.11913 0.00193745
0.120123 0.000944485
0.120835 0.00165649
0.121034 0.00145756
0.121781 0.00220443
0.121818 0.00216743
0.122327 0.0026769
0.122426 0.0025787
0.122518 0.00267079
0.123 0.0021884
0.123002 0.00219053
0.12331 0.00188267
0.123787 0.00235903
0.124618 0.00152724
0.124623 0.00153145
0.12464 0.0015135
0.124883 0.00175598
0.12492 0.00171849
0.125158 0.00195649
0.125219 0.00189559
0.125648 0.00232403
0.125893 0.0020789
0.126513 0.00269934
0.126625 0.00258792
0.126732 0.00269559
0.126851 0.0025768
0.126889 0.00261474
0.127107 0.00239663
0.128355 0.00364468
0.128485 0.00351494
0.128609 0.00363839
0.128754 0.00349281
0.130488 0.00522644
0.130739 0.00497517
0.134599 0.00883543
0.134601 0.00883391
0.135118 0.00935117
0.135718 0.00875141
0.136066 0.00910006
0.138288 0.00687831
0.138706 0.0072958
0.139605 0.00639698
0.140155 0.00694736
0.140246 0.00685673
0.14166 0.00827086
0.142365 0.00756571
0.143221 0.00842182
0.143647 0.00799596
0.144478 0.00882696
0.144514 0.00879031
0.145583 0.00985854
0.145801 0.00964016
0.147864 0.0117032
0.14941 0.0101569
0.149834 0.0105808
0.149871 0.0105444
0.151174 0.0118477
0.152764 0.0102576
0.155663 0.0131562
0.155672 0.0131474
0.156637 0.014113
0.158694 0.0120558
0.159723 0.013084
0.159894 0.0129127
0.159972 0.0129912
0.160068 0.0128958
0.161503 0.0143308
0.163449 0.0123844
0.165612 0.0145479
0.165925 0.0142358
0.167765 0.0160763
0.17 0.0138412
0.170307 0.0141479
0.170735 0.0137204
0.171804 0.0147895
0.172134 0.0144591
0.174125 0.01645
0.174151 0.0164238
0.174331 0.0166035
0.176127 0.0148071
0.176445 0.015125
0.177968 0.0136026
0.18079 0.0164254
0.181358 0.0158576
0.182281 0.0167805
0.184483 0.0145786
0.184874 0.0149698
0.185181 0.0146634
0.18526 0.0147426
0.187067 0.012935
0.187633 0.0135004
0.188311 0.0128227
0.189961 0.0144732
0.191689 0.0127455
0.191948 0.0130043
0.1931 0.0118519
0.193449 0.0122007
0.194759 0.0108909
0.198306 0.0144385
0.205602 0.00714256
0.206606 0.00814619
0.213916 0.000836111
0.214247 0.00116724
0.215414 0
inf 0


"layer 26:"
-inf 0
0.117712 0
0.118483 0.000771562
0.119217 3.80274e-05
0.120123 0.000944485
0.120322 0.000745561
0.121034 0.00145756
0.121071 0.00142056
0.121818 0.00216743
0.121916 0.00206923
0.122426 0.0025787
0.122908 0.00209631
0.123 0.0021884
0.123308 0.00188053
0.12331 0.00188267
0.124142 0.00105088
0.124618 0.00152724
0.124636 0.00150929
0.12464 0.0015135
0.124678 0.00147601
0.12492 0.00171849
0.124981 0.00165758
0.125219 0.00189559
0.125464 0.00165046
0.125893 0.0020789
0.126004 0.00196748
0.126625 0.00258792
0.126744 0.00246913
0.126851 0.0025768
0.127069 0.00235869
0.127107 0.00239663
0.127237 0.00226689
0.128485 0.00351494
0.128631 0.00336935
0.128754 0.00349281
0.129005 0.00324154
0.130739 0.00497517
0.130741 0.00497365
0.134601 0.00883391
0.135201 0.00823415
0.135718 0.00875141
0.13794 0.00652966
0.138288 0.00687831
0.139187 0.00597949
0.139605 0.00639698
0.139695 0.00630636
0.140246 0.00685673
0.140951 0.00615158
0.142365 0.00756571
0.142791 0.00713984
0.143647 0.00799596
0.143683 0.0079593
0.144514 0.00879031
0.144733 0.00857192
0.145801 0.00964016
0.147347 0.00809387
0.14941 0.0101569
0.149447 0.0101204
0.149871 0.0105444
0.151461 0.00895428
0.152764 0.0102576
0.152773 0.0102488
0.155672 0.0131474
0.157729 0.0110902
0.158694 0.0120558
0.158866 0.0118845
0.159894 0.0129127
0.159989 0.0128174
0.160068 0.0128958
0.162014 0.0109495
0.163449 0.0123844
0.163761 0.0120723
0.165925 0.0142358
0.166534 0.0136266
0.166603 0.0136953
0.168229 0.0120694
0.17 0.0138412
0.170428 0.0134137
0.170735 0.0137204
0.171065 0.01339
0.172134 0.0144591
0.17216 0.0144329
0.174151 0.0164238
0.175948 0.0146274
0.176127 0.0148071
0.17765 0.0132847
0.177968 0.0136026
0.178535 0.0130348
0.181358 0.0158576
0.18356 0.0136556
0.184483 0.0145786
0.18479 0.0142722
0.185181 0.0146634
0.186988 0.0128559
0.187067 0.012935
0.187745 0.0122573
0.188311 0.0128227
0.190038 0.011095
0.191689 0.0127455
0.192841 0.0115931
0.1931 0.0118519
0.19441 0.0105421
0.194759 0.0108909
0.197529 0.00812084
0.200373 0.0109648
0.204898 0.00643894
0.205602 0.00714256
0.206342 0.00640232
0.207027 0.00708734
0.213597 0.000517505
0.213916 0.000836111
0.214752 0
inf 0


"layer 27:"
-inf 0
0.119179 0
0.119217 3.80274e-05
0.119255 0
0.119577 0
0.120322 0.000745561
0.120359 0.000708556
0.121071 0.00142056
0.121169 0.00132236
0.121916 0.00206923
0.122399 0.00158684
0.122908 0.00209631
0.123216 0.00178844
0.123308 0.00188053
0.12414 0.00104875
0.124142 0.00105088
0.12416 0.00103293
0.124636 0.00150929
0.124674 0.0014718
0.124678 0.00147601
0.124739 0.0014151
0.124981 0.00165758
0.125226 0.00141245
0.125464 0.00165046
0.125576 0.00153904
0.126004 0.00196748
0.126123 0.00184869
0.126744 0.00246913
0.126962 0.00225103
0.127069 0.00235869
0.127199 0.00222895
0.127237 0.00226689
0.127383 0.00212131
0.128631 0.00336935
0.128882 0.00311809
0.129005 0.00324154
0.129007 0.00324001
0.130741 0.00497365
0.131339 0.00437533
0.131756 0.00479285
0.131758 0.00479141
0.135201 0.00823415
0.137422 0.00601239
0.13794 0.00652966
0.138838 0.00563084
0.139187 0.00597949
0.139278 0.00588886
0.139695 0.00630636
0.1404 0.0056012
0.140951 0.00615158
0.141377 0.00572571
0.142791 0.00713984
0.142827 0.00710319
0.143683 0.0079593
0.143902 0.00774091
0.144733 0.00857192
0.146279 0.00702563
0.147347 0.00809387
0.147384 0.0080574
0.149447 0.0101204
0.151037 0.00853032
0.151461 0.00895428
0.15147 0.00894549
0.152773 0.0102488
0.15483 0.00819159
0.157729 0.0110902
0.1579 0.0109189
0.158866 0.0118845
0.158961 0.0117892
0.159989 0.0128174
0.161936 0.010871
0.162014 0.0109495
0.162326 0.0106373
0.163761 0.0120723
0.16437 0.0114631
0.166534 0.0136266
0.16816 0.0120006
0.168229 0.0120694
0.168656 0.0116418
0.170428 0.0134137
0.170758 0.0130832
0.171065 0.01339
0.171091 0.0133637
0.17216 0.0144329
0.173957 0.0126365
0.175948 0.0146274
0.17747 0.013105
0.17765 0.0132847
0.178218 0.012717
0.178535 0.0130348
0.179406 0.0121645
0.181301 0.0140597
0.182633 0.0127281
0.18356 0.0136556
0.183867 0.0133493
0.18479 0.0142722
0.186597 0.0124646
0.186988 0.0128559
0.187666 0.0121782
0.187745 0.0122573
0.189473 0.0105296
0.190038 0.011095
0.191191 0.0099426
0.192841 0.0115931
0.194151 0.0102833
0.19441 0.0105421
0.19718 0.00777203
0.197529 0.00812084
0.202055 0.00359497
0.204898 0.00643894
0.205639 0.0056987
0.206342 0.00640232
0.212745 0
0.21308 0
0.213597 0.000517505
0.214115 0
inf 0


"layer 28:"
-inf 0
0.119651 0
0.120359 0.000708556
0.120457 0.000610359
0.121169 0.00132236
0.121652 0.000839973
0.122399 0.00158684
0.122706 0.00127897
0.123216 0.00178844
0.124048 0.00095666
0.12414 0.00104875
0.124158 0.0010308
0.12416 0.00103293
0.124197 0.00099544
0.124674 0.0014718
0.124735 0.00141089
0.124739 0.0014151
0.124984 0.00116997
0.125226 0.00141245
0.125338 0.00130103
0.125576 0.00153904
0.125695 0.00142026
0.126123 0.00184869
0.126341 0.00163059
0.126962 0.00225103
0.127091 0.00212129
0.127199 0.00222895
0.127345 0.00208337
0.127383 0.00212131
0.127634 0.00187004
0.128882 0.00311809
0.128883 0.00311656
0.129007 0.00324001
0.129605 0.00264169
0.131339 0.00437533
0.13134 0.00437389
0.131758 0.00479141
0.133705 0.00284373
0.135298 0.00443595
0.135572 0.00416189
0.137422 0.00601239
0.138321 0.00511357
0.138838 0.00563084
0.138929 0.00554021
0.139278 0.00588886
0.139983 0.00518371
0.1404 0.0056012
0.140826 0.00517534
0.141377 0.00572571
0.141413 0.00568906
0.142827 0.00710319
0.143046 0.0068848
0.143902 0.00774091
0.145398 0.00624508
0.146104 0.00695092
0.146154 0.00690046
0.146279 0.00702563
0.146316 0.00698916
0.147384 0.0080574
0.148974 0.00646732
0.151037 0.00853032
0.151046 0.00852153
0.15147 0.00894549
0.153527 0.00688828
0.15483 0.00819159
0.155002 0.00802027
0.1579 0.0109189
0.157995 0.0108236
0.158961 0.0117892
0.160907 0.00984287
0.161936 0.010871
0.162248 0.0105589
0.162326 0.0106373
0.162935 0.0100281
0.16437 0.0114631
0.165996 0.0098371
0.16816 0.0120006
0.168587 0.0115731
0.168656 0.0116418
0.168987 0.0113114
0.170758 0.0130832
0.170785 0.013057
0.171091 0.0133637
0.172146 0.0123094
0.172536 0.0126992
0.173278 0.0119572
0.173957 0.0126365
0.175479 0.0111141
0.17747 0.013105
0.178038 0.0125373
0.178218 0.012717
0.179088 0.0118466
0.179406 0.0121645
0.180737 0.0108328
0.182633 0.0127281
0.182939 0.0124217
0.183867 0.0133493
0.185674 0.0115417
0.186597 0.0124646
0.187275 0.0117869
0.187666 0.0121782
0.189394 0.0104505
0.189473 0.0105296
0.190625 0.00937719
0.191191 0.0099426
0.1925 0.00863285
0.194151 0.0102833
0.196921 0.00751323
0.19718 0.00777203
0.201706 0.00324615
0.202055 0.00359497
0.202795 0.00285473
0.205639 0.0056987
0.211337 0
inf 0


"layer 29:"
-inf 0
0.119847 0
0.120457 0.000610359
0.12094 0.000127969
0.121652 0.000839973
0.12196 0.000532107
0.122706 0.00127897
0.123538 0.00044719
0.124048 0.00095666
0.124066 0.000938709
0.124158 0.0010308
0.124195 0.000993306
0.124197 0.00099544
0.124258 0.000934534
0.124735 0.00141089
0.12498 0.00116576
0.124984 0.00116997
0.125095 0.00105856
0.125338 0.00130103
0.125457 0.00118225
0.125695 0.00142026
0.125913 0.00120215
0.126341 0.00163059
0.126398 0.00157352
0.12646 0.00163542
0.126533 0.00156275
0.127091 0.00212129
0.127237 0.0019757
0.127345 0.00208337
0.127596 0.0018321
0.127634 0.00187004
0.127635 0.00186851
0.128883 0.00311656
0.129482 0.00251824
0.129605 0.00264169
0.129607 0.00264025
0.13134 0.00437389
0.133288 0.0024262
0.133705 0.00284373
0.13398 0.00256966
0.135572 0.00416189
0.136471 0.00326307
0.138321 0.00511357
0.138412 0.00502295
0.138929 0.00554021
0.139634 0.00483506
0.139983 0.00518371
0.140409 0.00475784
0.140826 0.00517534
0.140863 0.00513868
0.141413 0.00568906
0.141632 0.00547067
0.143046 0.0068848
0.144542 0.00538897
0.145398 0.00624508
0.145448 0.00619462
0.146154 0.00690046
0.14619 0.00686399
0.146316 0.00698916
0.146352 0.00695281
0.146873 0.00747428
0.148427 0.00592056
0.148974 0.00646732
0.148983 0.00645853
0.151046 0.00852153
0.153103 0.00646432
0.153527 0.00688828
0.153698 0.00671696
0.155002 0.00802027
0.155097 0.00792495
0.157995 0.0108236
0.159942 0.00887726
0.160907 0.00984287
0.16122 0.00953069
0.162248 0.0105589
0.162857 0.00994968
0.162935 0.0100281
0.164561 0.00840218
0.165996 0.0098371
0.166424 0.00940957
0.168587 0.0115731
0.168918 0.0112426
0.168987 0.0113114
0.169013 0.0112852
0.170785 0.013057
0.171839 0.0120026
0.172146 0.0123094
0.172888 0.0115674
0.173278 0.0119572
0.1748 0.0104348
0.175479 0.0111141
0.176047 0.0105464
0.178038 0.0125373
0.178908 0.0116669
0.179088 0.0118466
0.18042 0.010515
0.180737 0.0108328
0.181044 0.0105265
0.182939 0.0124217
0.184747 0.0106142
0.185674 0.0115417
0.186352 0.010864
0.187275 0.0117869
0.189002 0.0100592
0.189394 0.0104505
0.190546 0.00929805
0.190625 0.00937719
0.191935 0.00806744
0.1925 0.00863285
0.195271 0.00586277
0.196921 0.00751323
0.201447 0.00298736
0.201706 0.00324615
0.202446 0.00250591
0.202795 0.00285473
0.20461 0.00103981
0.206084 0.00251455
0.208599 0
inf 0


"layer 30:"
-inf 0
0.120812 0
0.12094 0.000127969
0.121068 0
0.121427 0
0.12196 0.000532107
0.122492 0
0.123091 0
0.123538 0.00044719
0.123556 0.000429239
0.124066 0.000938709
0.124103 0.000901217
0.124195 0.000993306
0.124256 0.0009324
0.124258 0.000934534
0.124503 0.000689404
0.12498 0.00116576
0.125091 0.00105435
0.125095 0.00105856
0.125214 0.00093977
0.125457 0.00118225
0.125675 0.000964138
0.125913 0.00120215
0.12597 0.00114508
0.126398 0.00157352
0.126471 0.00150085
0.126533 0.00156275
0.126678 0.00141717
0.127237 0.0019757
0.127488 0.00172443
0.127596 0.0018321
0.127597 0.00183057
0.127635 0.00186851
0.128234 0.00127019
0.129482 0.00251824
0.129483 0.0025168
0.129607 0.00264025
0.131554 0.000692564
0.133288 0.0024262
0.133562 0.00215213
0.13398 0.00256966
0.134878 0.00167084
0.136471 0.00326307
0.136561 0.00317244
0.138412 0.00502295
0.139117 0.00431779
0.139634 0.00483506
0.14006 0.00440919
0.140409 0.00475784
0.140445 0.00472118
0.140863 0.00513868
0.141081 0.00492029
0.141632 0.00547067
0.142142 0.00496076
0.143437 0.00625583
0.144422 0.00526992
0.144542 0.00538897
0.144592 0.00533851
0.145448 0.00619462
0.145485 0.00615816
0.14619 0.00686399
0.146227 0.00682764
0.146352 0.00695281
0.147906 0.00539908
0.148427 0.00592056
0.148436 0.00591177
0.148983 0.00645853
0.15104 0.00440132
0.153103 0.00646432
0.153274 0.006293
0.153698 0.00671696
0.153794 0.00662164
0.155097 0.00792495
0.157003 0.00601856
0.158463 0.00747785
0.158502 0.00743791
0.159942 0.00887726
0.160254 0.00856508
0.16122 0.00953069
0.161829 0.00892151
0.162857 0.00994968
0.164483 0.00832371
0.164561 0.00840218
0.16465 0.00831346
0.166072 0.00973493
0.16641 0.00939612
0.166424 0.00940957
0.166754 0.00907913
0.168918 0.0112426
0.168944 0.0112164
0.169013 0.0112852
0.170067 0.0102308
0.171839 0.0120026
0.172581 0.0112607
0.172888 0.0115674
0.17441 0.010045
0.1748 0.0104348
0.175368 0.00986705
0.176047 0.0105464
0.176917 0.00967599
0.178908 0.0116669
0.18024 0.0103353
0.18042 0.010515
0.180726 0.0102086
0.181044 0.0105265
0.182851 0.0087189
0.184747 0.0106142
0.185424 0.00993649
0.186352 0.010864
0.18808 0.00913631
0.189002 0.0100592
0.190155 0.00890679
0.190546 0.00929805
0.191856 0.0079883
0.191935 0.00806744
0.194705 0.00529736
0.195271 0.00586277
0.198492 0.00264141
0.199011 0.00316029
0.200315 0.00185577
0.201447 0.00298736
0.202187 0.00224712
0.202446 0.00250591
0.204261 0.000690996
0.20461 0.00103981
0.205649 0
inf 0


"layer 31:"
-inf 0
0.123127 0
0.123556 0.000429239
0.123594 0.000391747
0.124103 0.000901217
0.124164 0.00084031
0.124256 0.0009324
0.124501 0.00068727
0.124503 0.000689404
0.124615 0.000577989
0.125091 0.00105435
0.12521 0.00093556
0.125214 0.00093977
0.125432 0.000721662
0.125675 0.000964138
0.125732 0.000907069
0.12597 0.00114508
0.126043 0.00107241
0.126471 0.00150085
0.126617 0.00135526
0.126678 0.00141717
0.12693 0.0011659
0.127488 0.00172443
0.12749 0.00172291
0.127597 0.00183057
0.128196 0.00123225
0.128234 0.00127019
0.128235 0.00126875
0.129483 0.0025168
0.131431 0.000569112
0.131554 0.000692564
0.131828 0.000418497
0.133562 0.00215213
0.134461 0.00125332
0.134878 0.00167084
0.134969 0.00158021
0.136561 0.00317244
0.137266 0.00246729
0.139117 0.00431779
0.139332 0.00410299
0.139353 0.00412379
0.139564 0.00391273
0.14006 0.00440919
0.140097 0.00437253
0.140445 0.00472118
0.140664 0.0045028
0.141081 0.00492029
0.141591 0.00441038
0.142142 0.00496076
0.143127 0.00397484
0.144422 0.00526992
0.144473 0.00521946
0.144592 0.00533851
0.144628 0.00530204
0.145485 0.00615816
0.145521 0.0061218
0.146227 0.00682764
0.147781 0.00527391
0.147906 0.00539908
0.147914 0.00539029
0.148436 0.00591177
0.150493 0.00385456
0.15104 0.00440132
0.151211 0.00423001
0.153274 0.006293
0.15337 0.00619768
0.153794 0.00662164
0.1557 0.00471525
0.157003 0.00601856
0.157043 0.00597862
0.158502 0.00743791
0.158815 0.00712572
0.160254 0.00856508
0.160863 0.0079559
0.161829 0.00892151
0.162114 0.00863613
0.162543 0.0090645
0.163883 0.00772391
0.164483 0.00832371
0.164572 0.00823499
0.16465 0.00831346
0.164989 0.00797465
0.16641 0.00939612
0.166741 0.00906568
0.166754 0.00907913
0.166781 0.00905289
0.168944 0.0112164
0.169998 0.0101621
0.170067 0.0102308
0.170809 0.00948882
0.172581 0.0112607
0.174103 0.00973826
0.17441 0.010045
0.174978 0.00947723
0.175368 0.00986705
0.176238 0.00899669
0.176917 0.00967599
0.178249 0.00834437
0.18024 0.0103353
0.180546 0.0100289
0.180726 0.0102086
0.182534 0.00840103
0.182851 0.0087189
0.183529 0.00804122
0.185424 0.00993649
0.187152 0.00820878
0.18808 0.00913631
0.189232 0.00798389
0.190155 0.00890679
0.191465 0.00759704
0.191856 0.0079883
0.194626 0.00521821
0.194705 0.00529736
0.197927 0.00207601
0.198492 0.00264141
0.199796 0.00133689
0.200315 0.00185577
0.201056 0.00111553
0.202187 0.00224712
0.204002 0.000432202
0.204261 0.000690996
0.204952 0
inf 0


"layer 32:"
-inf 0
0.123202 0
0.123594 0.000391747
0.123655 0.00033084
0.124164 0.00084031
0.124409 0.00059518
0.124501 0.00068727
0.124613 0.000575855
0.124615 0.000577989
0.124734 0.000459201
0.12521 0.00093556
0.125428 0.000717452
0.125432 0.000721662
0.125489 0.000664593
0.125732 0.000907069
0.125805 0.000834399
0.126043 0.00107241
0.126188 0.000926823
0.126617 0.00135526
0.126868 0.00110399
0.12693 0.0011659
0.126931 0.00116437
0.12749 0.00172291
0.128088 0.00112458
0.128196 0.00123225
0.128197 0.00123081
0.128235 0.00126875
0.129385 0.00011886
0.129995 0.000728847
0.130724 0
0.130862 0
0.131431 0.000569112
0.131705 0.000295045
0.131828 0.000418497
0.132247 0
0.133208 0
0.134461 0.00125332
0.134551 0.00116269
0.134969 0.00158021
0.135674 0.000875058
0.137266 0.00246729
0.137481 0.00225248
0.139332 0.00410299
0.139543 0.00389193
0.139564 0.00391273
0.1396 0.00387607
0.140097 0.00437253
0.140315 0.00415415
0.140664 0.0045028
0.141174 0.00399289
0.141591 0.00441038
0.142577 0.00342447
0.143127 0.00397484
0.143178 0.00392438
0.144473 0.00521946
0.144509 0.00518299
0.144628 0.00530204
0.144665 0.00526569
0.145521 0.0061218
0.147075 0.00456808
0.147781 0.00527391
0.147789 0.00526512
0.147914 0.00539029
0.149972 0.00333308
0.150493 0.00385456
0.150664 0.00368324
0.151211 0.00423001
0.151307 0.00413469
0.15337 0.00619768
0.155276 0.00429129
0.1557 0.00471525
0.15574 0.0046753
0.157043 0.00597862
0.157355 0.00566643
0.158815 0.00712572
0.159271 0.00666928
0.160646 0.00804461
0.160799 0.00789188
0.160863 0.0079559
0.161149 0.00767052
0.162114 0.00863613
0.163455 0.00729554
0.163883 0.00772391
0.163972 0.00763519
0.164572 0.00823499
0.16491 0.00789618
0.164989 0.00797465
0.165319 0.0076442
0.166741 0.00906568
0.166767 0.00903944
0.166781 0.00905289
0.167835 0.00799854
0.169998 0.0101621
0.17074 0.00942008
0.170809 0.00948882
0.172332 0.00796643
0.174103 0.00973826
0.174671 0.00917049
0.174978 0.00947723
0.175848 0.00860686
0.176238 0.00899669
0.17757 0.00766506
0.178249 0.00834437
0.178555 0.00803798
0.180546 0.0100289
0.182354 0.00822133
0.182534 0.00840103
0.183211 0.00772335
0.183529 0.00804122
0.185257 0.00631351
0.187152 0.00820878
0.188304 0.00705636
0.189232 0.00798389
0.190542 0.00667414
0.191465 0.00759704
0.194235 0.00482696
0.194626 0.00521821
0.197847 0.00199686
0.197927 0.00207601
0.199231 0.000771485
0.199796 0.00133689
0.200537 0.000596651
0.201056 0.00111553
0.202171 0
0.20357 0
0.204002 0.000432202
0.204434 0
inf 0


"layer 33:"
-inf 0
0.123324 0
0.123655 0.00033084
0.1239 8.57104e-05
0.124409 0.00059518
0.124521 0.000483765
0.124613 0.000575855
0.124731 0.000457067
0.124734 0.000459201
0.124952 0.000241093
0.125428 0.000717452
0.125485 0.000660383
0.125489 0.000664593
0.125562 0.000591923
0.125805 0.000834399
0.12595 0.000688814
0.126188 0.000926823
0.126439 0.000675553
0.126868 0.00110399
0.126869 0.00110247
0.126931 0.00116437
0.12753 0.000566049
0.128088 0.00112458
0.12809 0.00112315
0.128197 0.00123081
0.129347 8.09196e-05
0.129385 0.00011886
0.129504 0
0.13141 0
0.131705 0.000295045
0.132 0
0.133389 0
0.134551 0.00116269
0.135257 0.000457534
0.135674 0.000875058
0.135889 0.000660253
0.137481 0.00225248
0.137692 0.00204142
0.139543 0.00389193
0.139579 0.00385527
0.1396 0.00387607
0.139819 0.00365769
0.140315 0.00415415
0.140825 0.00364424
0.141174 0.00399289
0.14216 0.00300697
0.142577 0.00342447
0.142628 0.00337401
0.143178 0.00392438
0.143214 0.00388791
0.144509 0.00518299
0.144546 0.00514663
0.144665 0.00526569
0.146219 0.00371196
0.147075 0.00456808
0.147083 0.00455928
0.147789 0.00526512
0.149847 0.00320791
0.149972 0.00333308
0.150143 0.00316177
0.150664 0.00368324
0.15076 0.00358792
0.151307 0.00413469
0.153213 0.00222829
0.155276 0.00429129
0.155316 0.00425135
0.15574 0.0046753
0.156052 0.00436312
0.157355 0.00566643
0.157812 0.00520999
0.159271 0.00666928
0.159424 0.00651654
0.160799 0.00789188
0.161085 0.00760651
0.161149 0.00767052
0.162489 0.00632993
0.163455 0.00729554
0.163543 0.00720682
0.163972 0.00763519
0.164311 0.00729638
0.16491 0.00789618
0.165241 0.00756574
0.165319 0.0076442
0.165346 0.00761797
0.166767 0.00903944
0.167821 0.00798509
0.167835 0.00799854
0.168577 0.00725656
0.17074 0.00942008
0.172263 0.00789768
0.172332 0.00796643
0.172899 0.00739865
0.174671 0.00917049
0.175541 0.00830012
0.175848 0.00860686
0.17718 0.00727524
0.17757 0.00766506
0.177876 0.00735868
0.178555 0.00803798
0.180363 0.00623043
0.182354 0.00822133
0.183032 0.00754365
0.183211 0.00772335
0.184939 0.00599564
0.185257 0.00631351
0.186409 0.00516109
0.188304 0.00705636
0.189614 0.0057466
0.190542 0.00667414
0.193312 0.00390405
0.194235 0.00482696
0.197456 0.00160561
0.197847 0.00199686
0.199152 0.000692338
0.199231 0.000771485
0.199971 3.12446e-05
0.200537 0.000596651
0.201133 0
inf 0


"layer 34:"
-inf 0
0.123814 0
0.1239 8.57104e-05
0.123985 0
0.124037 0
0.124521 0.000483765
0.124639 0.000364977
0.124731 0.000457067
0.12495 0.000238959
0.124952 0.000241093
0.125009 0.000184024
0.125485 0.000660383
0.125558 0.000587713
0.125562 0.000591923
0.125708 0.000446337
0.12595 0.000688814
0.126201 0.000437544
0.126439 0.000675553
0.126441 0.000674028
0.126869 0.00110247
0.127468 0.000504144
0.12753 0.000566049
0.127531 0.000564612
0.12809 0.00112315
0.129213 0
0.129266 0
0.129347 8.09196e-05
0.129428 0
0.134799 0
0.135257 0.000457534
0.135471 0.00024273
0.135889 0.000660253
0.1361 0.000449192
0.137692 0.00204142
0.137729 0.00200476
0.139579 0.00385527
0.139798 0.00363688
0.139819 0.00365769
0.140329 0.00314778
0.140825 0.00364424
0.141811 0.00265832
0.14216 0.00300697
0.14221 0.00295651
0.142628 0.00337401
0.142664 0.00333754
0.143214 0.00388791
0.143251 0.00385156
0.144546 0.00514663
0.1461 0.00359291
0.146219 0.00371196
0.146227 0.00370317
0.147083 0.00455928
0.149141 0.00250208
0.149847 0.00320791
0.150018 0.00303659
0.150143 0.00316177
0.150238 0.00306645
0.15076 0.00358792
0.152666 0.00168153
0.153213 0.00222829
0.153253 0.00218835
0.155316 0.00425135
0.155628 0.00393916
0.156052 0.00436312
0.156508 0.00390668
0.157812 0.00520999
0.157965 0.00505725
0.159424 0.00651654
0.159709 0.00623117
0.161085 0.00760651
0.162425 0.00626591
0.162489 0.00632993
0.162578 0.00624121
0.163543 0.00720682
0.163882 0.00686801
0.164311 0.00729638
0.164641 0.00696594
0.165241 0.00756574
0.165267 0.0075395
0.165346 0.00761797
0.166135 0.00682852
0.167211 0.00790423
0.167476 0.00763932
0.167821 0.00798509
0.168563 0.00724311
0.168577 0.00725656
0.170099 0.00573417
0.172263 0.00789768
0.172831 0.00732991
0.172899 0.00739865
0.17377 0.00652829
0.175541 0.00830012
0.176873 0.0069685
0.17718 0.00727524
0.177486 0.00696885
0.177876 0.00735868
0.179684 0.00555112
0.180363 0.00623043
0.181041 0.00555274
0.183032 0.00754365
0.184759 0.00581594
0.184939 0.00599564
0.186091 0.00484321
0.186409 0.00516109
0.187719 0.00385134
0.189614 0.0057466
0.192384 0.00297652
0.193312 0.00390405
0.196533 0.000682701
0.197456 0.00160561
0.198761 0.000301085
0.199152 0.000692338
0.199844 0
0.19994 0
0.199971 3.12446e-05
0.200003 0
inf 0


"layer 35:"
-inf 0
0.124274 0
0.124639 0.000364977
0.124858 0.000146869
0.12495 0.000238959
0.125007 0.00018189
0.125009 0.000184024
0.125081 0.000111354
0.125558 0.000587713
0.125703 0.000442128
0.125708 0.000446337
0.125959 0.000195068
0.126201 0.000437544
0.126203 0.00043602
0.126441 0.000674028
0.127039 7.57046e-05
0.127468 0.000504144
0.127469 0.000502707
0.127531 0.000564612
0.127863 0.000232192
0.128128 0.000496511
0.128624 0
0.135229 0
0.135471 0.00024273
0.135683 3.16687e-05
0.1361 0.000449192
0.136137 0.000412535
0.137729 0.00200476
0.137947 0.00178638
0.139798 0.00363688
0.140308 0.00312697
0.140329 0.00314778
0.141314 0.00216186
0.141811 0.00265832
0.141861 0.00260786
0.14221 0.00295651
0.142246 0.00292004
0.142664 0.00333754
0.1427 0.00330118
0.143251 0.00385156
0.144804 0.00229783
0.1461 0.00359291
0.146108 0.00358412
0.146227 0.00370317
0.148285 0.00164596
0.149141 0.00250208
0.149312 0.00233076
0.150018 0.00303659
0.150113 0.00294128
0.150238 0.00306645
0.152145 0.00116005
0.152666 0.00168153
0.152706 0.00164159
0.153253 0.00218835
0.153565 0.00187617
0.155628 0.00393916
0.156085 0.00348272
0.156508 0.00390668
0.156661 0.00375394
0.157965 0.00505725
0.15825 0.00477188
0.159709 0.00623117
0.16105 0.00489057
0.162425 0.00626591
0.162514 0.0061772
0.162578 0.00624121
0.162917 0.0059024
0.163882 0.00686801
0.164213 0.00653757
0.164641 0.00696594
0.164667 0.0069397
0.165267 0.0075395
0.166057 0.00675006
0.166135 0.00682852
0.1664 0.00656361
0.167476 0.00763932
0.168218 0.00689735
0.168563 0.00724311
0.170086 0.00572071
0.170099 0.00573417
0.170667 0.00516639
0.172831 0.00732991
0.173701 0.00645955
0.17377 0.00652829
0.175101 0.00519666
0.176873 0.0069685
0.177179 0.00666211
0.177486 0.00696885
0.179294 0.00516129
0.179684 0.00555112
0.180361 0.00487344
0.181041 0.00555274
0.182768 0.00382503
0.184759 0.00581594
0.185912 0.00466352
0.186091 0.00484321
0.187401 0.00353346
0.187719 0.00385134
0.190489 0.00108125
0.192384 0.00297652
0.195361 0
0.19585 0
0.196533 0.000682701
0.197216 0
0.19846 0
0.198761 0.000301085
0.199062 0
inf 0


"layer 36:"
-inf 0
0.124711 0
0.124858 0.000146869
0.124915 8.97999e-05
0.125007 0.00018189
0.125079 0.00010922
0.125081 0.000111354
0.125193 0
0.125261 0
0.125703 0.000442128
0.125955 0.000190858
0.125959 0.000195068
0.12596 0.000193543
0.126203 0.00043602
0.126639 0
0.126964 0
0.127039 7.57046e-05
0.127041 7.42675e-05
0.127469 0.000502707
0.127802 0.000170287
0.127863 0.000232192
0.128096 0
0.135651 0
0.135683 3.16687e-05
0.135714 0
0.135724 0
0.136137 0.000412535
0.136355 0.000194148
0.137947 0.00178638
0.138457 0.00127647
0.140308 0.00312697
0.141294 0.00214106
0.141314 0.00216186
0.141365 0.0021114
0.141861 0.00260786
0.141898 0.00257139
0.142246 0.00292004
0.142283 0.00288369
0.1427 0.00330118
0.144254 0.00174746
0.144804 0.00229783
0.144813 0.00228904
0.146108 0.00358412
0.148166 0.00152691
0.148285 0.00164596
0.148456 0.00147465
0.149312 0.00233076
0.149407 0.00223544
0.150113 0.00294128
0.15202 0.00103488
0.152145 0.00116005
0.152185 0.00112011
0.152706 0.00164159
0.153018 0.0013294
0.153565 0.00187617
0.154022 0.00141972
0.156085 0.00348272
0.156237 0.00332998
0.156661 0.00375394
0.156947 0.00346857
0.15825 0.00477188
0.15959 0.00343129
0.16105 0.00489057
0.161138 0.00480186
0.162514 0.0061772
0.162853 0.00583838
0.162917 0.0059024
0.163247 0.00557196
0.164213 0.00653757
0.164239 0.00651133
0.164667 0.0069397
0.165457 0.00615026
0.166057 0.00675006
0.166321 0.00648515
0.1664 0.00656361
0.167142 0.00582163
0.168218 0.00689735
0.16974 0.00537495
0.170086 0.00572071
0.170654 0.00515294
0.170667 0.00516639
0.171094 0.00473934
0.172096 0.00574146
0.17254 0.00529816
0.173701 0.00645955
0.175033 0.00512792
0.175101 0.00519666
0.175408 0.00489028
0.177179 0.00666211
0.178987 0.00485456
0.179294 0.00516129
0.179971 0.00448361
0.180361 0.00487344
0.182089 0.00314573
0.182768 0.00382503
0.183921 0.00267261
0.185912 0.00466352
0.187221 0.00335377
0.187401 0.00353346
0.190171 0.000763378
0.190489 0.00108125
0.19157 0
inf 0


"layer 37:"
-inf 0
0.124825 0
0.124915 8.97999e-05
0.124987 1.71299e-05
0.125079 0.00010922
0.125189 0
0.125764 0
0.125955 0.000190858
0.125956 0.000189333
0.12596 0.000193543
0.126154 0
0.126966 0
0.127041 7.42675e-05
0.127115 0
0.127631 0
0.127802 0.000170287
0.127972 0
0.136161 0
0.136355 0.000194148
0.136549 0
0.137181 0
0.138457 0.00127647
0.139443 0.000290549
0.141294 0.00214106
0.141344 0.0020906
0.141365 0.0021114
0.141401 0.00207493
0.141898 0.00257139
0.141934 0.00253504
0.142283 0.00288369
0.143837 0.00132996
0.144254 0.00174746
0.144263 0.00173867
0.144813 0.00228904
0.14687 0.000231835
0.148166 0.00152691
0.148337 0.00135559
0.148456 0.00147465
0.148551 0.00137933
0.149407 0.00223544
0.150869 0.000773288
0.151535 0.00143854
0.151979 0.0009943
0.15202 0.00103488
0.152059 0.000994938
0.152185 0.00112011
0.152497 0.000807928
0.153018 0.0013294
0.153475 0.000872956
0.154022 0.00141972
0.154174 0.00126699
0.156237 0.00332998
0.156523 0.00304461
0.156947 0.00346857
0.158287 0.00212797
0.15959 0.00343129
0.159679 0.00334257
0.161138 0.00480186
0.161477 0.00446305
0.162853 0.00583838
0.163183 0.00550794
0.163247 0.00557196
0.163273 0.00554572
0.164239 0.00651133
0.165028 0.00572188
0.165457 0.00615026
0.165722 0.00588535
0.166321 0.00648515
0.167063 0.00574317
0.167142 0.00582163
0.168664 0.00429924
0.16974 0.00537495
0.170308 0.00480718
0.170654 0.00515294
0.171081 0.00472588
0.171094 0.00473934
0.171537 0.00429603
0.17254 0.00529816
0.173871 0.00396654
0.175033 0.00512792
0.175339 0.00482153
0.175408 0.00489028
0.177215 0.00308272
0.178987 0.00485456
0.179665 0.00417687
0.179971 0.00448361
0.181699 0.0027559
0.182089 0.00314573
0.183241 0.0019933
0.183921 0.00267261
0.18523 0.00136286
0.187221 0.00335377
0.187815 0.00275972
0.187874 0.00281805
0.19005 0.000642012
0.190171 0.000763378
0.190935 0
inf 0


"layer 38:"
-inf 0
0.12497 0
0.124987 1.71299e-05
0.125004 0
0.125767 0
0.125956 0.000189333
0.126146 0
0.139153 0
0.139443 0.000290549
0.139494 0.000240089
0.141344 0.0020906
0.141381 0.00205413
0.141401 0.00207493
0.141438 0.00203858
0.141934 0.00253504
0.143488 0.000981312
0.143837 0.00132996
0.143845 0.00132117
0.144263 0.00173867
0.14515 0.000851814
0.145461 0.00116281
0.146623 0
0.146639 0
0.14687 0.000231835
0.147042 6.05185e-05
0.148337 0.00135559
0.148432 0.00126027
0.148551 0.00137933
0.148984 0.000946077
0.149194 0.00115516
0.150222 0.000126259
0.150869 0.000773288
0.151314 0.000329048
0.151979 0.0009943
0.152019 0.000954356
0.152059 0.000994938
0.152372 0.000682755
0.152497 0.000807928
0.152953 0.000351481
0.153475 0.000872956
0.153627 0.000720221
0.154174 0.00126699
0.15446 0.000981611
0.156523 0.00304461
0.157863 0.00170402
0.158287 0.00212797
0.158376 0.00203926
0.159679 0.00334257
0.160018 0.00300376
0.161477 0.00446305
0.161808 0.0041326
0.163183 0.00550794
0.163209 0.0054817
0.163273 0.00554572
0.164063 0.00475628
0.165028 0.00572188
0.165293 0.00545697
0.165722 0.00588535
0.166464 0.00514337
0.167063 0.00574317
0.168586 0.00422078
0.168664 0.00429924
0.169232 0.00373147
0.170308 0.00480718
0.170735 0.00438012
0.171081 0.00472588
0.171524 0.00428258
0.171537 0.00429603
0.172869 0.00296441
0.173871 0.00396654
0.174109 0.00372839
0.175201 0.00482008
0.175269 0.00475184
0.175339 0.00482153
0.177146 0.00301398
0.177215 0.00308272
0.177893 0.00240504
0.179665 0.00417687
0.181392 0.00244916
0.181699 0.0027559
0.182852 0.00160348
0.183241 0.0019933
0.184551 0.000683554
0.18523 0.00136286
0.185825 0.000768813
0.187815 0.00275972
0.189991 0.000583681
0.19005 0.000642012
0.190692 0
inf 0


"layer 39:"
-inf 0
0.139254 0
0.139494 0.000240089
0.13953 0.000203621
0.141381 0.00205413
0.141417 0.00201777
0.141438 0.00203858
0.142991 0.000484851
0.143488 0.000981312
0.143497 0.00097252
0.143845 0.00132117
0.144732 0.000434316
0.14515 0.000851814
0.146002 0
0.146981 0
0.147042 6.05185e-05
0.147102 0
0.147172 0
0.148432 0.00126027
0.148865 0.000827022
0.148984 0.000946077
0.149931 0
0.150096 0
0.150222 0.000126259
0.150349 0
0.150985 0
0.151314 0.000329048
0.151354 0.000289104
0.152019 0.000954356
0.152331 0.000642173
0.152372 0.000682755
0.152828 0.000226308
0.152953 0.000351481
0.153106 0.000198747
0.153627 0.000720221
0.153913 0.000434847
0.15446 0.000981611
0.155441 0
0.156159 0
0.157863 0.00170402
0.157952 0.0016153
0.158376 0.00203926
0.158715 0.00170044
0.160018 0.00300376
0.160348 0.00267331
0.161808 0.0041326
0.161834 0.00410636
0.163209 0.0054817
0.163999 0.00469226
0.164063 0.00475628
0.164328 0.00449137
0.165293 0.00545697
0.166035 0.004715
0.166464 0.00514337
0.16706 0.00454657
0.167586 0.00507229
0.168512 0.00414669
0.168586 0.00422078
0.169154 0.003653
0.169232 0.00373147
0.169659 0.00330441
0.170735 0.00438012
0.171178 0.00393682
0.171524 0.00428258
0.172856 0.00295095
0.172869 0.00296441
0.173107 0.00272626
0.174109 0.00372839
0.174178 0.00366015
0.175269 0.00475184
0.177077 0.00294428
0.177146 0.00301398
0.177824 0.0023363
0.177893 0.00240504
0.179621 0.000677327
0.181392 0.00244916
0.182332 0.00150929
0.182526 0.00170292
0.182738 0.00149036
0.182852 0.00160348
0.184161 0.000293728
0.184551 0.000683554
0.185145 8.95089e-05
0.185825 0.000768813
0.186593 0
0.187689 0
0.189131 0.00144111
0.18999 0.000581918
0.189991 0.000583681
0.190575 0
inf 0


"layer 40:"
-inf 0
0.139326 0
0.13953 0.000203621
0.139566 0.000167268
0.141417 0.00201777
0.142971 0.000464048
0.142991 0.000484851
0.143 0.000476059
0.143497 0.00097252
0.144384 8.56689e-05
0.144732 0.000434316
0.145167 0
0.148038 0
0.148865 0.000827022
0.149692 0
0.151065 0
0.151354 0.000289104
0.151643 0
0.151689 0
0.152331 0.000642173
0.152788 0.000185727
0.152828 0.000226308
0.152981 7.35744e-05
0.153106 0.000198747
0.153305 0
0.153478 0
0.153913 0.000434847
0.154348 0
0.156337 0
0.157952 0.0016153
0.158291 0.00127649
0.158715 0.00170044
0.159045 0.00137
0.160348 0.00267331
0.160375 0.00264708
0.161834 0.00410636
0.162623 0.00331692
0.163999 0.00469226
0.164264 0.00442735
0.164328 0.00449137
0.16507 0.00374939
0.166035 0.004715
0.166632 0.0041182
0.16706 0.00454657
0.167986 0.00362098
0.168512 0.00414669
0.16908 0.00357892
0.169154 0.003653
0.169581 0.00322594
0.169659 0.00330441
0.170102 0.0028611
0.171178 0.00393682
0.17251 0.00260519
0.172856 0.00295095
0.173094 0.00271281
0.173107 0.00272626
0.173175 0.00265802
0.174178 0.00366015
0.175985 0.00185259
0.177077 0.00294428
0.177754 0.0022666
0.177824 0.0023363
0.179552 0.000608583
0.179621 0.000677327
0.180298 0
0.180823 0
0.182332 0.00150929
0.182545 0.00129674
0.182738 0.00149036
0.184048 0.000180613
0.184161 0.000293728
0.184455 0
0.185056 0
0.185145 8.95089e-05
0.185235 0
0.189408 0
0.18999 0.000581918
0.190572 0
inf 0


"layer 41:"
-inf 0
0.139399 0
0.139566 0.000167268
0.139734 0
0.142507 0
0.142971 0.000464048
0.142979 0.000455256
0.143 0.000476059
0.143476 0
0.144298 0
0.144384 8.56689e-05
0.144469 0
0.152602 0
0.152788 0.000185727
0.15294 3.29926e-05
0.152981 7.35744e-05
0.153054 0
0.157014 0
0.158291 0.00127649
0.158621 0.000946042
0.159045 0.00137
0.159071 0.00134376
0.160375 0.00264708
0.161164 0.00185763
0.162623 0.00331692
0.162888 0.00305201
0.164264 0.00442735
0.165006 0.00368537
0.16507 0.00374939
0.165178 0.0036409
0.165975 0.00443738
0.166463 0.00394908
0.166632 0.0041182
0.167558 0.0031926
0.167986 0.00362098
0.168554 0.0030532
0.16908 0.00357892
0.169507 0.00315186
0.169581 0.00322594
0.170024 0.00278264
0.170102 0.0028611
0.171434 0.00152948
0.17251 0.00260519
0.172748 0.00236705
0.173094 0.00271281
0.173162 0.00264456
0.173175 0.00265802
0.174983 0.000850464
0.175985 0.00185259
0.176663 0.00117491
0.177754 0.0022666
0.179482 0.00053889
0.179552 0.000608583
0.18016 0
0.181248 0
0.182545 0.00129674
0.183842 0
0.183868 0
0.184048 0.000180613
0.184229 0
inf 0


"layer 42:"
-inf 0
0.142524 0
0.142979 0.000455256
0.143435 0
0.152907 0
0.15294 3.29926e-05
0.152973 0
0.157675 0
0.158621 0.000946042
0.158647 0.000919804
0.159071 0.00134376
0.159861 0.00055432
0.161164 0.00185763
0.161429 0.00159272
0.162888 0.00305201
0.16363 0.00231003
0.165006 0.00368537
0.165114 0.00357688
0.165178 0.0036409
0.165666 0.00315259
0.166463 0.00394908
0.167389 0.00302348
0.167558 0.0031926
0.168125 0.00262483
0.168554 0.0030532
0.168981 0.00262614
0.169507 0.00315186
0.16995 0.00270855
0.170024 0.00278264
0.171356 0.00145101
0.171434 0.00152948
0.171672 0.00129134
0.172748 0.00236705
0.172816 0.0022988
0.173162 0.00264456
0.174969 0.000837009
0.174983 0.000850464
0.175661 0.000172782
0.176663 0.00117491
0.177838 0
0.178286 0
0.178715 0.000429214
0.179044 0.00010066
0.179482 0.00053889
0.180021 0
inf 0


"layer 43:"
-inf 0
0.157728 0
0.158647 0.000919804
0.159437 0.000130362
0.159861 0.00055432
0.160126 0.00028941
0.161429 0.00159272
0.162171 0.000850744
0.16363 0.00231003
0.163739 0.00220154
0.165114 0.00357688
0.165602 0.00308857
0.165666 0.00315259
0.166592 0.002227
0.167389 0.00302348
0.167956 0.00245571
0.168125 0.00262483
0.168553 0.00219777
0.168981 0.00262614
0.169424 0.00218284
0.16995 0.00270855
0.171282 0.00137693
0.171356 0.00145101
0.171594 0.00121287
0.171672 0.00129134
0.17174 0.00122309
0.172816 0.0022988
0.174624 0.000491247
0.174969 0.000837009
0.175647 0.000159328
0.175661 0.000172782
0.175833 0
0.178943 0
0.179044 0.00010066
0.179145 0
inf 0


"layer 44:"
-inf 0
0.159307 0
0.159437 0.000130362
0.159567 0
0.159836 0
0.160126 0.00028941
0.160415 0
0.16132 0
0.162171 0.000850744
0.16228 0.000742252
0.163739 0.00220154
0.164227 0.00171324
0.165602 0.00308857
0.166528 0.00216298
0.166592 0.002227
0.16716 0.00165922
0.167956 0.00245571
0.168383 0.00202865
0.168553 0.00219777
0.168996 0.00175447
0.169424 0.00218284
0.170756 0.000851213
0.171282 0.00137693
0.17152 0.00113878
0.171594 0.00121287
0.171662 0.00114463
0.17174 0.00122309
0.172964 0
0.174132 0
0.174624 0.000491247
0.175115 0
0.175488 0
0.175647 0.000159328
0.175807 0
inf 0


"layer 45:"
-inf 0
0.161537 0
0.16228 0.000742252
0.162768 0.000253948
0.164227 0.00171324
0.165153 0.00078764
0.166528 0.00216298
0.167096 0.0015952
0.16716 0.00165922
0.167587 0.00123216
0.168383 0.00202865
0.168827 0.00158535
0.168996 0.00175447
0.170327 0.000422841
0.170756 0.000851213
0.170994 0.000613069
0.17152 0.00113878
0.171588 0.00107054
0.171662 0.00114463
0.172807 0
inf 0


"layer 46:"
-inf 0
0.162514 0
0.162768 0.000253948
0.163022 0
0.164365 0
0.165153 0.00078764
0.16572 0.000219865
0.167096 0.0015952
0.167523 0.00116814
0.167587 0.00123216
0.16803 0.000788858
0.168827 0.00158535
0.170158 0.000253722
0.170327 0.000422841
0.170566 0.000184696
0.170994 0.000613069
0.171062 0.000544825
0.171588 0.00107054
0.172658 0
inf 0


"layer 47:"
-inf 0
0.165501 0
0.16572 0.000219865
0.16594 0
0.166355 0
0.167523 0.00116814
0.167966 0.000724841
0.16803 0.000788858
0.168819 0
0.169905 0
0.170158 0.000253722
0.170396 1.55769e-05
0.170566 0.000184696
0.170634 0.000116453
0.171062 0.000544825
0.171607 0
inf 0


"layer 48:"
-inf 0
0.167241 0
0.167966 0.000724841
0.168691 0
0.170381 0
0.170396 1.55769e-05
0.170412 0
0.170517 0
0.170634 0.000116453
0.17075 0
inf 0


