# persistence landscape
# X Y
"layer 0:"
-inf 0
0.0492829 0
0.0549601 0.00567719
0.0606372 0
0.0680747 0
0.0706653 0.00259054
0.0719577 0.00129816
0.0733304 0.00267088
0.0760013 0
0.0796016 0
0.0808401 0.00123853
0.081252 0.00082662
0.102204 0.0217784
0.112269 0.0117137
0.120747 0.0201923
0.120927 0.0200128
0.136453 0.0355396
0.146029 0.0259643
0.15363 0.0335655
0.154277 0.0329188
0.168188 0.0468302
0.16826 0.0467583
0.173039 0.0515369
0.174651 0.0499248
0.203725 0.0789993
0.221921 0.060803
0.230439 0.0693211
0.256311 0.0434501
0.256772 0.0439117
0.300684 0
inf 0


"layer 1:"
-inf 0
0.054766 0
0.0549257 0.000159713
0.0550855 0
0.0706595 0
0.0719577 0.00129816
0.0730424 0.000213404
0.0743529 0.00152384
0.0758767 0
0.0804254 0
0.081252 0.00082662
0.0820786 0
0.0826677 0
0.0826723 4.59622e-06
0.0826769 0
0.0847093 0
0.0905749 0.0058656
0.0917454 0.00469504
0.0973289 0.0102785
0.0995272 0.00808023
0.106747 0.0153001
0.111301 0.0107462
0.112269 0.0117137
0.112448 0.0115342
0.120927 0.0200128
0.124441 0.016498
0.126328 0.0183844
0.130414 0.0142987
0.137815 0.0217003
0.139359 0.0201571
0.144123 0.0249215
0.144554 0.0244901
0.146029 0.0259643
0.146675 0.0253177
0.154277 0.0329188
0.154349 0.0328469
0.16826 0.0467583
0.169872 0.0451461
0.174651 0.0499248
0.174737 0.0498387
0.200445 0.075547
0.204411 0.0715811
0.207552 0.074722
0.221696 0.0605777
0.221921 0.060803
0.247792 0.034932
0.256311 0.0434501
0.299761 0
inf 0


"layer 2:"
-inf 0
0.072829 0
0.0730424 0.000213404
0.0732558 0
0.0870504 0
0.0917454 0.00469504
0.0939437 0.00249675
0.0995272 0.00808023
0.101446 0.00616131
0.104363 0.00907798
0.106998 0.00644296
0.111301 0.0107462
0.11148 0.0105667
0.112448 0.0115342
0.113186 0.0107963
0.115358 0.0129686
0.118135 0.0101917
0.124441 0.016498
0.126728 0.0142111
0.127961 0.0154441
0.12976 0.0136452
0.130414 0.0142987
0.130747 0.0139658
0.133449 0.0166684
0.13466 0.0154581
0.139359 0.0201571
0.139527 0.0199892
0.140844 0.0213064
0.140931 0.0212196
0.143736 0.0240245
0.143912 0.0238478
0.144554 0.0244901
0.145201 0.0238434
0.146675 0.0253177
0.146747 0.0252457
0.154349 0.0328469
0.155439 0.0317564
0.157118 0.0334351
0.157639 0.0329134
0.169872 0.0451461
0.169958 0.04506
0.174737 0.0498387
0.175995 0.0485801
0.197533 0.0701174
0.20024 0.0674101
0.204411 0.0715811
0.218555 0.0574368
0.221696 0.0605777
0.247567 0.0347067
0.247792 0.034932
0.282724 0
inf 0


"layer 3:"
-inf 0
0.0881704 0
0.0903063 0.00213593
0.0917268 0.000715429
0.091986 0.000974661
0.0922038 0.000756856
0.0939437 0.00249675
0.0940431 0.00239735
0.094753 0.00310725
0.0964775 0.00138275
0.0968799 0.0017851
0.0969749 0.00169007
0.101446 0.00616131
0.103509 0.00409828
0.104635 0.00522385
0.105207 0.00465185
0.106998 0.00644296
0.107177 0.00626349
0.11148 0.0105667
0.112218 0.00982878
0.113186 0.0107963
0.114489 0.00949357
0.11546 0.010465
0.116934 0.0089908
0.118135 0.0101917
0.118398 0.00992886
0.122033 0.013564
0.124057 0.0115399
0.126728 0.0142111
0.128527 0.0124122
0.12976 0.0136452
0.130093 0.0133124
0.130747 0.0139658
0.131957 0.0127554
0.13466 0.0154581
0.134828 0.0152902
0.139527 0.0199892
0.139613 0.0199023
0.140931 0.0212196
0.141107 0.0210429
0.143912 0.0238478
0.144559 0.0232011
0.145201 0.0238434
0.145273 0.0237715
0.146747 0.0252457
0.147838 0.0241552
0.155439 0.0317564
0.155961 0.0312347
0.157639 0.0329134
0.157725 0.0328273
0.169958 0.04506
0.171217 0.0438014
0.175995 0.0485801
0.178703 0.0458728
0.20024 0.0674101
0.203526 0.0641236
0.20682 0.0674171
0.217678 0.0565593
0.218555 0.0574368
0.244426 0.0315658
0.247567 0.0347067
0.282274 0
inf 0


"layer 4:"
-inf 0
0.0890502 0
0.0897007 0.000650551
0.0903513 0
0.0910114 0
0.0917268 0.000715429
0.0919446 0.000497624
0.0922038 0.000756856
0.0923032 0.000657463
0.0940431 0.00239735
0.0957676 0.000672855
0.0964775 0.00138275
0.0965725 0.00128771
0.0969749 0.00169007
0.098665 0
0.0994109 0
0.103509 0.00409828
0.104081 0.00352629
0.105207 0.00465185
0.105386 0.00447239
0.107177 0.00626349
0.107915 0.00552559
0.112218 0.00982878
0.113521 0.00852606
0.114489 0.00949357
0.115467 0.00851485
0.116079 0.00912652
0.116575 0.008631
0.116934 0.0089908
0.117081 0.00884456
0.118232 0.0099962
0.118349 0.00987965
0.118398 0.00992886
0.120422 0.00790475
0.124057 0.0115399
0.125856 0.00974104
0.128527 0.0124122
0.12886 0.0120793
0.130093 0.0133124
0.131304 0.012102
0.131957 0.0127554
0.132125 0.0125875
0.134828 0.0152902
0.134914 0.0152033
0.139613 0.0199023
0.13979 0.0197257
0.141107 0.0210429
0.141754 0.0203962
0.144559 0.0232011
0.144631 0.0231292
0.145273 0.0237715
0.146364 0.022681
0.147838 0.0241552
0.148359 0.0236336
0.155961 0.0312347
0.156047 0.0311486
0.157725 0.0328273
0.158984 0.0315687
0.171217 0.0438014
0.173924 0.0410942
0.178703 0.0458728
0.17904 0.0455351
0.185748 0.0522432
0.18619 0.0518012
0.190067 0.0556781
0.192574 0.0531713
0.203526 0.0641236
0.214384 0.0532658
0.217678 0.0565593
0.243549 0.0306883
0.244426 0.0315658
0.275992 0
inf 0


"layer 5:"
-inf 0
0.091447 0
0.0919446 0.000497624
0.092044 0.000398231
0.0923032 0.000657463
0.0929607 0
0.0950948 0
0.0957676 0.000672855
0.0958627 0.000577824
0.0965725 0.00128771
0.0978603 0
0.100555 0
0.104081 0.00352629
0.104261 0.00334682
0.105386 0.00447239
0.105502 0.00435681
0.106197 0.00505176
0.106819 0.00442944
0.107915 0.00552559
0.108677 0.00476365
0.112872 0.00895897
0.113413 0.00841819
0.113521 0.00852606
0.114348 0.00769957
0.114843 0.00819468
0.114995 0.00804245
0.115467 0.00851485
0.115963 0.00801934
0.116575 0.008631
0.116721 0.00848476
0.117081 0.00884456
0.117197 0.00872801
0.118349 0.00987965
0.120373 0.00785553
0.120422 0.00790475
0.121274 0.00705279
0.122432 0.00821101
0.123379 0.00726411
0.125856 0.00974104
0.126189 0.00940816
0.12886 0.0120793
0.128909 0.01203
0.129458 0.0125782
0.130619 0.0114171
0.131304 0.012102
0.131471 0.0119341
0.132125 0.0125875
0.132212 0.0125007
0.134914 0.0152033
0.135091 0.0150266
0.13979 0.0197257
0.140437 0.019079
0.141754 0.0203962
0.141826 0.0203243
0.144631 0.0231292
0.145721 0.0220387
0.146364 0.022681
0.146885 0.0221593
0.148359 0.0236336
0.148446 0.0235475
0.156047 0.0311486
0.157305 0.02989
0.158984 0.0315687
0.159652 0.0309003
0.162615 0.0338629
0.163366 0.0331121
0.167483 0.0372295
0.168771 0.0359415
0.173924 0.0410942
0.174262 0.0407565
0.17904 0.0455351
0.179482 0.0450931
0.18619 0.0518012
0.188697 0.0492944
0.192574 0.0531713
0.195361 0.0503841
0.206117 0.0611402
0.214188 0.0530696
0.214384 0.0532658
0.240255 0.0273948
0.243549 0.0306883
0.274237 0
inf 0


"layer 6:"
-inf 0
0.0916458 0
0.092044 0.000398231
0.0924422 0
0.0952848 0
0.0958627 0.000577824
0.0964405 0
0.100914 0
0.104261 0.00334682
0.104376 0.00323124
0.105502 0.00435681
0.106124 0.00373448
0.106819 0.00442944
0.107581 0.00366751
0.108677 0.00476365
0.109218 0.00422286
0.113413 0.00841819
0.11424 0.0075917
0.114348 0.00769957
0.1145 0.00754734
0.114995 0.00804245
0.11549 0.00754693
0.115963 0.00801934
0.116109 0.0078731
0.116721 0.00848476
0.116837 0.00836821
0.117197 0.00872801
0.119221 0.00670389
0.120373 0.00785553
0.121225 0.00700357
0.121274 0.00705279
0.122221 0.00610588
0.123379 0.00726411
0.123712 0.00693123
0.126189 0.00940816
0.126238 0.00935889
0.128909 0.01203
0.13007 0.010869
0.130619 0.0114171
0.130787 0.0112492
0.131471 0.0119341
0.131558 0.0118473
0.132212 0.0125007
0.132388 0.012324
0.135091 0.0150266
0.135738 0.01438
0.140437 0.019079
0.140509 0.0190071
0.141826 0.0203243
0.142916 0.0192338
0.145721 0.0220387
0.146243 0.021517
0.146885 0.0221593
0.146971 0.0220732
0.148446 0.0235475
0.149704 0.0222889
0.157305 0.02989
0.157974 0.0292216
0.159652 0.0309003
0.160403 0.0301495
0.163366 0.0331121
0.164654 0.0318241
0.168771 0.0359415
0.169109 0.0356038
0.174262 0.0407565
0.174704 0.0403145
0.179482 0.0450931
0.181989 0.0425863
0.188697 0.0492944
0.191485 0.0465072
0.195361 0.0503841
0.20091 0.0448355
0.207158 0.0510836
0.20968 0.0485617
0.214188 0.0530696
0.240059 0.0271986
0.240255 0.0273948
0.26765 0
inf 0


"layer 7:"
-inf 0
0.101145 0
0.104376 0.00323124
0.104999 0.00260892
0.106124 0.00373448
0.106886 0.00297255
0.107581 0.00366751
0.108122 0.00312672
0.109218 0.00422286
0.110044 0.00339638
0.11424 0.0075917
0.114392 0.00743947
0.1145 0.00754734
0.114995 0.00705183
0.11549 0.00754693
0.115637 0.00740069
0.116109 0.0078731
0.116226 0.00775654
0.116837 0.00836821
0.118861 0.00634409
0.119221 0.00670389
0.119644 0.00628113
0.120503 0.00713993
0.120932 0.00671073
0.121225 0.00700357
0.122172 0.00605667
0.122221 0.00610588
0.122554 0.005773
0.123712 0.00693123
0.123761 0.00688196
0.126238 0.00935889
0.127399 0.00819781
0.13007 0.010869
0.130238 0.0107011
0.130787 0.0112492
0.130873 0.0111623
0.131558 0.0118473
0.131735 0.0116706
0.132388 0.012324
0.133035 0.0116773
0.135738 0.01438
0.13581 0.014308
0.140509 0.0190071
0.141599 0.0179166
0.142916 0.0192338
0.143438 0.0187122
0.146243 0.021517
0.146329 0.0214309
0.146971 0.0220732
0.14823 0.0208146
0.149704 0.0222889
0.150373 0.0216204
0.157974 0.0292216
0.158725 0.0284708
0.160403 0.0301495
0.161691 0.0288615
0.164654 0.0318241
0.164992 0.0314863
0.169109 0.0356038
0.169551 0.0351618
0.174704 0.0403145
0.177211 0.0378076
0.181989 0.0425863
0.184776 0.039799
0.191485 0.0465072
0.197033 0.0409586
0.20091 0.0448355
0.203432 0.0423135
0.20968 0.0485617
0.214121 0.0441206
0.215055 0.0450546
0.236485 0.0236246
0.240059 0.0271986
0.267258 0
inf 0


"layer 8:"
-inf 0
0.10239 0
0.104999 0.00260892
0.10576 0.00184698
0.106886 0.00297255
0.107427 0.00243176
0.108122 0.00312672
0.108948 0.00230023
0.110044 0.00339638
0.110197 0.00324415
0.114392 0.00743947
0.114887 0.00694396
0.114995 0.00705183
0.115142 0.00690559
0.115637 0.00740069
0.115753 0.00728414
0.116226 0.00775654
0.11825 0.00573243
0.118861 0.00634409
0.119284 0.00592133
0.119644 0.00628113
0.120073 0.00585193
0.120932 0.00671073
0.121879 0.00576383
0.122172 0.00605667
0.122505 0.00572379
0.122554 0.005773
0.122603 0.00572374
0.123761 0.00688196
0.124922 0.00572088
0.127399 0.00819781
0.127567 0.00802991
0.130238 0.0107011
0.130325 0.0106142
0.130873 0.0111623
0.13105 0.0109857
0.131735 0.0116706
0.132382 0.0110239
0.133035 0.0116773
0.133107 0.0116054
0.13581 0.014308
0.1369 0.0132176
0.141599 0.0179166
0.142121 0.0173949
0.143438 0.0187122
0.143524 0.0186261
0.146329 0.0214309
0.147588 0.0201724
0.14823 0.0208146
0.148898 0.0201462
0.150373 0.0216204
0.151123 0.0208696
0.158725 0.0284708
0.160013 0.0271828
0.161691 0.0288615
0.162029 0.0285238
0.164992 0.0314863
0.165434 0.0310443
0.169551 0.0351618
0.172058 0.032655
0.177211 0.0378076
0.179213 0.035805
0.183282 0.0398734
0.184066 0.0390888
0.184776 0.039799
0.18799 0.0365855
0.194635 0.0432301
0.19697 0.0408951
0.197033 0.0409586
0.199555 0.0384367
0.203432 0.0423135
0.207873 0.0378725
0.214121 0.0441206
0.235551 0.0226907
0.236485 0.0236246
0.26011 0
inf 0


"layer 9:"
-inf 0
0.103913 0
0.10576 0.00184698
0.106301 0.00130619
0.107427 0.00243176
0.108253 0.00160528
0.108948 0.00230023
0.109101 0.002148
0.110197 0.00324415
0.110338 0.00310318
0.110425 0.00319033
0.110779 0.00283578
0.114887 0.00694396
0.115034 0.00679772
0.115142 0.00690559
0.115258 0.00678903
0.115753 0.00728414
0.117777 0.00526002
0.11825 0.00573243
0.118673 0.00530967
0.119284 0.00592133
0.119713 0.00549213
0.120073 0.00585193
0.12102 0.00490503
0.121879 0.00576383
0.122212 0.00543094
0.122505 0.00572379
0.122554 0.00567452
0.122603 0.00572374
0.122862 0.00546446
0.123281 0.00588321
0.124183 0.00498141
0.124922 0.00572088
0.12509 0.00555297
0.127567 0.00802991
0.127654 0.00794305
0.130325 0.0106142
0.130502 0.0104375
0.13105 0.0109857
0.131697 0.010339
0.132382 0.0110239
0.132454 0.010952
0.133107 0.0116054
0.134197 0.0105149
0.1369 0.0132176
0.137422 0.0126959
0.142121 0.0173949
0.142207 0.0173088
0.143524 0.0186261
0.144783 0.0173675
0.147588 0.0201724
0.148256 0.0195039
0.148898 0.0201462
0.149649 0.0193954
0.151123 0.0208696
0.152411 0.0195817
0.160013 0.0271828
0.16035 0.0268451
0.162029 0.0285238
0.162471 0.0280818
0.165434 0.0310443
0.16794 0.0285375
0.172058 0.032655
0.17406 0.0306524
0.179213 0.035805
0.179998 0.0350204
0.184066 0.0390888
0.18728 0.0358753
0.18799 0.0365855
0.188392 0.0361835
0.189652 0.0374431
0.191585 0.0355101
0.19697 0.0408951
0.199492 0.0383732
0.199555 0.0384367
0.203996 0.0339956
0.207873 0.0378725
0.227425 0.01832
0.228506 0.0194006
0.230383 0.0175231
0.235551 0.0226907
0.258242 0
inf 0


"layer 10:"
-inf 0
0.104995 0
0.106301 0.00130619
0.107128 0.000479707
0.108253 0.00160528
0.108406 0.00145305
0.109101 0.002148
0.109241 0.00200704
0.110338 0.00310318
0.110692 0.00274863
0.110779 0.00283578
0.110926 0.00268954
0.115034 0.00679772
0.11515 0.00668116
0.115258 0.00678903
0.117282 0.00476492
0.117777 0.00526002
0.1182 0.00483726
0.118673 0.00530967
0.119102 0.00488047
0.119713 0.00549213
0.12066 0.00454523
0.12102 0.00490503
0.121353 0.00457214
0.122212 0.00543094
0.122261 0.00538168
0.122554 0.00567452
0.122813 0.00541524
0.122862 0.00546446
0.123764 0.00456265
0.124183 0.00498141
0.124351 0.0048135
0.12509 0.00555297
0.125177 0.00546611
0.127654 0.00794305
0.127831 0.00776636
0.130502 0.0104375
0.131149 0.00979086
0.131697 0.010339
0.131769 0.0102671
0.132454 0.010952
0.133544 0.0098615
0.134197 0.0105149
0.134719 0.00999326
0.137422 0.0126959
0.137508 0.0126098
0.142207 0.0173088
0.143466 0.0160502
0.144783 0.0173675
0.145451 0.016699
0.148256 0.0195039
0.149007 0.0187531
0.149649 0.0193954
0.150937 0.0181074
0.152411 0.0195817
0.152749 0.0192439
0.16035 0.0268451
0.160792 0.0264031
0.162471 0.0280818
0.164978 0.0255749
0.16794 0.0285375
0.168069 0.0284088
0.17099 0.0313299
0.172864 0.029456
0.17406 0.0306524
0.174845 0.0298678
0.179998 0.0350204
0.183131 0.0318873
0.18636 0.0351165
0.186441 0.0350361
0.18728 0.0358753
0.187682 0.0354733
0.188392 0.0361835
0.190325 0.0342505
0.191585 0.0355101
0.194106 0.0329881
0.199492 0.0383732
0.203933 0.0339321
0.203996 0.0339956
0.223549 0.0144431
0.227425 0.01832
0.229303 0.0164425
0.230383 0.0175231
0.247907 0
inf 0


"layer 11:"
-inf 0
0.106648 0
0.107128 0.000479707
0.10728 0.000327477
0.108406 0.00145305
0.108547 0.00131208
0.109241 0.00200704
0.109596 0.00165249
0.110692 0.00274863
0.110838 0.00260239
0.110926 0.00268954
0.111042 0.00257299
0.11515 0.00668116
0.117174 0.00465705
0.117282 0.00476492
0.117705 0.00434216
0.1182 0.00483726
0.118629 0.00440806
0.119102 0.00488047
0.119731 0.00425111
0.120285 0.0048051
0.120603 0.00448756
0.12066 0.00454523
0.120993 0.00421235
0.121353 0.00457214
0.121402 0.00452288
0.122261 0.00538168
0.12252 0.0051224
0.122813 0.00541524
0.123715 0.00451344
0.123764 0.00456265
0.123932 0.00439475
0.124351 0.0048135
0.124438 0.00472664
0.125177 0.00546611
0.125354 0.00528943
0.127831 0.00776636
0.128477 0.00711971
0.131149 0.00979086
0.131221 0.00971891
0.131769 0.0102671
0.132859 0.00917658
0.133544 0.0098615
0.133607 0.00979848
0.134194 0.0103853
0.134653 0.00992664
0.134719 0.00999326
0.134805 0.00990716
0.137508 0.0126098
0.137937 0.0121805
0.14039 0.0146337
0.14122 0.0138044
0.143466 0.0160502
0.144134 0.0153818
0.145451 0.016699
0.146202 0.0159482
0.149007 0.0187531
0.150295 0.0174651
0.150937 0.0181074
0.151275 0.0177697
0.152749 0.0192439
0.152827 0.0191664
0.154624 0.0209633
0.154988 0.0205989
0.160792 0.0264031
0.161264 0.0259315
0.161815 0.0264828
0.16385 0.0244476
0.164978 0.0255749
0.165107 0.0254463
0.168069 0.0284088
0.169943 0.0265349
0.172864 0.029456
0.173004 0.0293157
0.173573 0.0298842
0.174217 0.0292398
0.174845 0.0298678
0.177978 0.0267346
0.183131 0.0318873
0.183211 0.0318069
0.186441 0.0350361
0.186843 0.0346341
0.187682 0.0354733
0.189615 0.0335402
0.190325 0.0342505
0.192847 0.0317285
0.194106 0.0329881
0.194809 0.0322859
0.199631 0.0371082
0.20337 0.0333693
0.203933 0.0339321
0.223485 0.0143796
0.223549 0.0144431
0.225426 0.0125657
0.229303 0.0164425
0.245745 0
inf 0


"layer 12:"
-inf 0
0.106952 0
0.10728 0.000327477
0.107421 0.00018651
0.108547 0.00131208
0.108901 0.000957531
0.109596 0.00165249
0.109712 0.00153659
0.110151 0.00197567
0.110181 0.00194534
0.110838 0.00260239
0.110955 0.00248584
0.111042 0.00257299
0.113066 0.000548874
0.117174 0.00465705
0.117597 0.00423429
0.117705 0.00434216
0.118134 0.00391296
0.118629 0.00440806
0.119259 0.0037787
0.119731 0.00425111
0.120049 0.00393356
0.120603 0.00448756
0.120936 0.00415468
0.120993 0.00421235
0.121042 0.00416308
0.121402 0.00452288
0.121662 0.0042636
0.12252 0.0051224
0.123422 0.0042206
0.123715 0.00451344
0.123883 0.00434553
0.123932 0.00439475
0.124019 0.00430789
0.124438 0.00472664
0.124614 0.00454995
0.125354 0.00528943
0.125401 0.00524192
0.125993 0.00583328
0.126592 0.00523414
0.128477 0.00711971
0.128549 0.00704776
0.131221 0.00971891
0.132311 0.00862843
0.132859 0.00917658
0.132922 0.00911357
0.133607 0.00979848
0.134066 0.00933985
0.134653 0.00992664
0.134739 0.00984054
0.134805 0.00990716
0.135235 0.0094779
0.137937 0.0121805
0.138766 0.0113512
0.14122 0.0138044
0.141888 0.0131359
0.144134 0.0153818
0.144885 0.014631
0.146202 0.0159482
0.14749 0.0146602
0.150295 0.0174651
0.150633 0.0171274
0.151275 0.0177697
0.151352 0.0176921
0.152827 0.0191664
0.153191 0.0188019
0.154988 0.0205989
0.15546 0.0201273
0.161264 0.0259315
0.163299 0.0238962
0.16385 0.0244476
0.163979 0.0243189
0.165107 0.0254463
0.16698 0.0235723
0.169943 0.0265349
0.170083 0.0263947
0.173004 0.0293157
0.173649 0.0286713
0.174217 0.0292398
0.17735 0.0261067
0.177978 0.0267346
0.178059 0.0266542
0.183211 0.0318069
0.183613 0.0314049
0.186843 0.0346341
0.188776 0.0327011
0.189615 0.0335402
0.192137 0.0310183
0.192847 0.0317285
0.193549 0.0310263
0.194809 0.0322859
0.198548 0.0285471
0.20337 0.0333693
0.222922 0.0138169
0.223485 0.0143796
0.225363 0.0125021
0.225426 0.0125657
0.237992 0
inf 0


"layer 13:"
-inf 0
0.107234 0
0.107421 0.00018651
0.107607 0
0.107944 0
0.108901 0.000957531
0.109017 0.000841629
0.109712 0.00153659
0.109742 0.00150625
0.110181 0.00194534
0.110298 0.00182878
0.110955 0.00248584
0.112979 0.000461724
0.113066 0.000548874
0.113489 0.000126112
0.117597 0.00423429
0.118026 0.00380509
0.118134 0.00391296
0.118764 0.0032836
0.119259 0.0037787
0.119576 0.00346116
0.120049 0.00393356
0.120382 0.00360068
0.120936 0.00415468
0.120985 0.00410541
0.121042 0.00416308
0.121302 0.0039038
0.121662 0.0042636
0.122563 0.0033618
0.123422 0.0042206
0.12359 0.00405269
0.123883 0.00434553
0.12397 0.00425867
0.124019 0.00430789
0.124196 0.0041312
0.124614 0.00454995
0.124662 0.00450244
0.125401 0.00524192
0.126001 0.00464278
0.126592 0.00523414
0.126664 0.00516219
0.128549 0.00704776
0.12964 0.00595729
0.132311 0.00862843
0.132374 0.00856542
0.132922 0.00911357
0.133381 0.00865493
0.134066 0.00933985
0.134152 0.00925374
0.134739 0.00984054
0.135168 0.00941128
0.135235 0.0094779
0.135353 0.0093597
0.136119 0.0101255
0.13683 0.00941437
0.138766 0.0113512
0.139435 0.0106827
0.141888 0.0131359
0.142639 0.0123851
0.144885 0.014631
0.146173 0.013343
0.14749 0.0146602
0.147828 0.0143225
0.150633 0.0171274
0.15071 0.0170498
0.151352 0.0176921
0.151717 0.0173277
0.153191 0.0188019
0.153663 0.0183303
0.15546 0.0201273
0.157495 0.0180921
0.163299 0.0238962
0.163428 0.0237676
0.163979 0.0243189
0.165853 0.0224449
0.16698 0.0235723
0.167121 0.0234321
0.170083 0.0263947
0.170728 0.0257503
0.173649 0.0286713
0.176782 0.0255382
0.17735 0.0261067
0.177431 0.0260263
0.178059 0.0266542
0.178461 0.0262522
0.183613 0.0314049
0.185546 0.0294719
0.188776 0.0327011
0.191298 0.0301791
0.192137 0.0310183
0.192839 0.0303161
0.193549 0.0310263
0.197288 0.0272875
0.198548 0.0285471
0.2181 0.00899458
0.222922 0.0138169
0.2248 0.0119394
0.225363 0.0125021
0.237865 0
inf 0


"layer 14:"
-inf 0
0.108175 0
0.109017 0.000841629
0.109047 0.000811292
0.109742 0.00150625
0.109859 0.0013897
0.110298 0.00182878
0.112127 0
0.112517 0
0.112979 0.000461724
0.113402 3.89626e-05
0.113489 0.000126112
0.113615 0
0.114221 0
0.118026 0.00380509
0.118656 0.00317573
0.118764 0.0032836
0.119081 0.00296605
0.119576 0.00346116
0.119909 0.00312828
0.120382 0.00360068
0.120431 0.00355142
0.120985 0.00410541
0.121244 0.00384613
0.121302 0.0039038
0.122204 0.003002
0.122563 0.0033618
0.122731 0.00319389
0.12359 0.00405269
0.123677 0.00396583
0.12397 0.00425867
0.124146 0.00408199
0.124196 0.0041312
0.124243 0.00408369
0.124662 0.00450244
0.125261 0.00390331
0.126001 0.00464278
0.126072 0.00457083
0.126664 0.00516219
0.127754 0.00407172
0.12964 0.00595729
0.129703 0.00589427
0.132374 0.00856542
0.132833 0.00810678
0.133381 0.00865493
0.133467 0.00856883
0.134152 0.00925374
0.134581 0.00882448
0.135168 0.00941128
0.135286 0.00929308
0.135353 0.0093597
0.136064 0.00864856
0.13683 0.00941437
0.137498 0.00874589
0.139435 0.0106827
0.139576 0.0105421
0.141577 0.0125433
0.142187 0.0119332
0.142639 0.0123851
0.14293 0.0120935
0.144267 0.0134302
0.145264 0.0124339
0.146173 0.013343
0.14651 0.0130052
0.147828 0.0143225
0.147905 0.0142449
0.15071 0.0170498
0.150738 0.0170219
0.150869 0.0171531
0.151206 0.0168166
0.151717 0.0173277
0.152189 0.0168561
0.153663 0.0183303
0.155698 0.0162951
0.157495 0.0180921
0.157624 0.0179634
0.163428 0.0237676
0.165302 0.0218936
0.165853 0.0224449
0.165993 0.0223047
0.167121 0.0234321
0.167765 0.0227877
0.170728 0.0257503
0.173861 0.0226172
0.176782 0.0255382
0.176862 0.0254578
0.177431 0.0260263
0.177833 0.0256243
0.178461 0.0262522
0.180394 0.0243192
0.185546 0.0294719
0.188068 0.0269499
0.191298 0.0301791
0.192 0.0294769
0.192839 0.0303161
0.196578 0.0265772
0.197288 0.0272875
0.21684 0.00773498
0.2181 0.00899458
0.219978 0.00711713
0.2248 0.0119394
0.236739 0
inf 0


"layer 15:"
-inf 0
0.108236 0
0.109047 0.000811292
0.109164 0.000694737
0.109859 0.0013897
0.111249 0
0.113363 0
0.113402 3.89626e-05
0.113441 0
0.11548 0
0.118656 0.00317573
0.118973 0.00285818
0.119081 0.00296605
0.119414 0.00263317
0.119909 0.00312828
0.119958 0.00307901
0.120431 0.00355142
0.12069 0.00329214
0.121244 0.00384613
0.122146 0.00294433
0.122204 0.003002
0.122371 0.00283409
0.122731 0.00319389
0.122818 0.00310703
0.123677 0.00396583
0.123854 0.00378915
0.124146 0.00408199
0.124194 0.00403448
0.124243 0.00408369
0.124842 0.00348456
0.125261 0.00390331
0.125333 0.00383136
0.126072 0.00457083
0.127163 0.00348036
0.127754 0.00407172
0.127817 0.0040087
0.129703 0.00589427
0.1301 0.00549743
0.132063 0.00746037
0.132124 0.00739858
0.132833 0.00810678
0.132919 0.00802068
0.133467 0.00856883
0.133896 0.00813957
0.134581 0.00882448
0.134699 0.00870628
0.135286 0.00929308
0.135997 0.00858194
0.136064 0.00864856
0.136732 0.00798009
0.137498 0.00874589
0.137639 0.00860523
0.139576 0.0105421
0.140186 0.00993194
0.142187 0.0119332
0.142479 0.0116416
0.14293 0.0120935
0.143927 0.0110971
0.145264 0.0124339
0.145601 0.0120961
0.14651 0.0130052
0.146588 0.0129277
0.147905 0.0142449
0.147933 0.014217
0.150738 0.0170219
0.151075 0.0166854
0.151206 0.0168166
0.151677 0.016345
0.152189 0.0168561
0.154224 0.0148208
0.155698 0.0162951
0.155827 0.0161664
0.157624 0.0179634
0.158062 0.017525
0.16155 0.0210131
0.161723 0.0208408
0.162749 0.0218675
0.164012 0.0206043
0.165302 0.0218936
0.165442 0.0217534
0.165993 0.0223047
0.166638 0.0216603
0.167765 0.0227877
0.170898 0.0196546
0.173861 0.0226172
0.173941 0.0225368
0.176862 0.0254578
0.177264 0.0250558
0.177833 0.0256243
0.179766 0.0236913
0.180394 0.0243192
0.182404 0.0223092
0.18388 0.0237851
0.184392 0.0232732
0.188068 0.0269499
0.18877 0.0262477
0.192 0.0294769
0.1922 0.0292764
0.192686 0.0297618
0.196224 0.0262235
0.196578 0.0265772
0.203882 0.0192728
0.204002 0.0193927
0.21625 0.00714465
0.21684 0.00773498
0.218718 0.00585754
0.219978 0.00711713
0.227095 0
inf 0


"layer 16:"
-inf 0
0.108469 0
0.109164 0.000694737
0.109859 0
0.116115 0
0.118973 0.00285818
0.119306 0.0025253
0.119414 0.00263317
0.119463 0.00258391
0.119958 0.00307901
0.120218 0.00281973
0.12069 0.00329214
0.121592 0.00239033
0.122146 0.00294433
0.122314 0.00277642
0.122371 0.00283409
0.122458 0.00274723
0.122818 0.00310703
0.122995 0.00293035
0.123854 0.00378915
0.123901 0.00374163
0.124194 0.00403448
0.124793 0.00343534
0.124842 0.00348456
0.124914 0.00341261
0.125333 0.00383136
0.126423 0.00274088
0.127163 0.00348036
0.127226 0.00341734
0.127817 0.0040087
0.127823 0.00400317
0.129148 0.00532822
0.129539 0.00493691
0.1301 0.00549743
0.130162 0.00543564
0.132124 0.00739858
0.132211 0.00731247
0.132919 0.00802068
0.133348 0.00759142
0.133896 0.00813957
0.134014 0.00802137
0.134699 0.00870628
0.13541 0.00799515
0.135997 0.00858194
0.136666 0.00791347
0.136732 0.00798009
0.136873 0.00783943
0.137639 0.00860523
0.138249 0.00799511
0.140186 0.00993194
0.140477 0.00964034
0.142479 0.0116416
0.143475 0.0106452
0.143927 0.0110971
0.144265 0.0107594
0.145601 0.0120961
0.145679 0.0120186
0.146588 0.0129277
0.146616 0.0128998
0.147933 0.014217
0.14827 0.0138805
0.151075 0.0166854
0.151546 0.0162138
0.151677 0.016345
0.153713 0.0143098
0.154224 0.0148208
0.154352 0.0146922
0.155827 0.0161664
0.156265 0.015728
0.158062 0.017525
0.158234 0.0173526
0.161723 0.0208408
0.162986 0.0195776
0.164012 0.0206043
0.164153 0.020464
0.165442 0.0217534
0.166086 0.021109
0.166638 0.0216603
0.169771 0.0185272
0.170898 0.0196546
0.170979 0.0195742
0.173941 0.0225368
0.174343 0.0221348
0.177264 0.0250558
0.179197 0.0231228
0.179766 0.0236913
0.181776 0.0216812
0.182404 0.0223092
0.182916 0.0217973
0.184392 0.0232732
0.185094 0.022571
0.18877 0.0262477
0.188971 0.0260472
0.1922 0.0292764
0.195739 0.0257381
0.196224 0.0262235
0.203528 0.0189191
0.203882 0.0192728
0.21613 0.00702471
0.21625 0.00714465
0.218128 0.00526721
0.218718 0.00585754
0.224575 0
inf 0


"layer 17:"
-inf 0
0.116781 0
0.119306 0.0025253
0.119355 0.00247604
0.119463 0.00258391
0.119723 0.00232463
0.120218 0.00281973
0.121119 0.00191793
0.121592 0.00239033
0.12176 0.00222243
0.122314 0.00277642
0.122401 0.00268956
0.122458 0.00274723
0.122635 0.00257055
0.122995 0.00293035
0.123042 0.00288283
0.123901 0.00374163
0.1245 0.0031425
0.124793 0.00343534
0.124865 0.00336339
0.124914 0.00341261
0.126005 0.00232213
0.126423 0.00274088
0.126486 0.00267787
0.127226 0.00341734
0.127231 0.00341181
0.127823 0.00400317
0.128214 0.00361186
0.129539 0.00493691
0.129601 0.00487512
0.130162 0.00543564
0.130248 0.00534954
0.132211 0.00731247
0.13264 0.00688321
0.133348 0.00759142
0.133466 0.00747322
0.134014 0.00802137
0.134726 0.00731023
0.13541 0.00799515
0.136079 0.00732668
0.136666 0.00791347
0.136806 0.00777281
0.136873 0.00783943
0.137483 0.00722931
0.138249 0.00799511
0.138541 0.0077035
0.140477 0.00964034
0.141474 0.00864395
0.143475 0.0106452
0.143813 0.0103075
0.144265 0.0107594
0.144342 0.0106818
0.145679 0.0120186
0.145707 0.0119906
0.146616 0.0128998
0.146952 0.0125632
0.14827 0.0138805
0.148741 0.0134089
0.151546 0.0162138
0.153581 0.0141785
0.153713 0.0143098
0.153841 0.0141811
0.154352 0.0146922
0.154791 0.0142537
0.156265 0.015728
0.156437 0.0155556
0.158234 0.0173526
0.159303 0.0162843
0.161769 0.0187505
0.161964 0.0185557
0.162986 0.0195776
0.163126 0.0194374
0.164153 0.020464
0.164797 0.0198197
0.166086 0.021109
0.169219 0.0179759
0.169771 0.0185272
0.169851 0.0184468
0.170979 0.0195742
0.171381 0.0191722
0.174343 0.0221348
0.176276 0.0202017
0.179197 0.0231228
0.181207 0.0211127
0.181776 0.0216812
0.182288 0.0211693
0.182916 0.0217973
0.183618 0.021095
0.185094 0.022571
0.18511 0.0225546
0.186861 0.0243053
0.187045 0.0241213
0.188971 0.0260472
0.192509 0.0225088
0.195739 0.0257381
0.203043 0.0184337
0.203528 0.0189191
0.215776 0.00667101
0.21613 0.00702471
0.218008 0.00514727
0.218128 0.00526721
0.223395 0
inf 0


"layer 18:"
-inf 0
0.116879 0
0.119355 0.00247604
0.119615 0.00221676
0.119723 0.00232463
0.120624 0.00142283
0.121119 0.00191793
0.121287 0.00175002
0.12176 0.00222243
0.121847 0.00213557
0.122401 0.00268956
0.122577 0.00251288
0.122635 0.00257055
0.122682 0.00252304
0.123042 0.00288283
0.123641 0.0022837
0.1245 0.0031425
0.124572 0.00307055
0.124865 0.00336339
0.125955 0.00227292
0.126005 0.00232213
0.126068 0.00225912
0.126486 0.00267787
0.126492 0.00267234
0.127231 0.00341181
0.127623 0.0030205
0.128214 0.00361186
0.128276 0.00355007
0.129601 0.00487512
0.129687 0.00478901
0.130248 0.00534954
0.130415 0.0051822
0.132331 0.007098
0.132593 0.00683607
0.13264 0.00688321
0.132758 0.00676501
0.133466 0.00747322
0.134177 0.00676208
0.134726 0.00731023
0.135394 0.00664176
0.136079 0.00732668
0.13622 0.00718601
0.136806 0.00777281
0.137416 0.00716268
0.137483 0.00722931
0.137775 0.0069377
0.138541 0.0077035
0.139537 0.00670712
0.141474 0.00864395
0.141811 0.00830622
0.143813 0.0103075
0.14389 0.0102299
0.144342 0.0106818
0.14437 0.0106539
0.145707 0.0119906
0.146043 0.0116541
0.146952 0.0125632
0.147424 0.0120916
0.148741 0.0134089
0.150777 0.0113737
0.153581 0.0141785
0.15371 0.0140499
0.153841 0.0141811
0.15428 0.0137427
0.154791 0.0142537
0.154963 0.0140814
0.156437 0.0155556
0.157506 0.0144873
0.159303 0.0162843
0.159498 0.0160895
0.161964 0.0185557
0.162104 0.0184154
0.163126 0.0194374
0.16377 0.018793
0.164797 0.0198197
0.16793 0.0166865
0.169219 0.0179759
0.1693 0.0178955
0.169851 0.0184468
0.170253 0.0180448
0.171381 0.0191722
0.172516 0.0180369
0.174506 0.0200275
0.175304 0.0192298
0.176276 0.0202017
0.178286 0.0181917
0.181207 0.0211127
0.181719 0.0206008
0.182288 0.0211693
0.18299 0.0204671
0.183618 0.021095
0.183634 0.0210786
0.18511 0.0225546
0.185294 0.0223705
0.187045 0.0241213
0.190583 0.0205829
0.192509 0.0225088
0.199814 0.0152044
0.203043 0.0184337
0.215291 0.00618558
0.215776 0.00667101
0.217654 0.00479357
0.218008 0.00514727
0.223155 0
inf 0


"layer 19:"
-inf 0
0.117398 0
0.119615 0.00221676
0.120516 0.00131495
0.120624 0.00142283
0.120792 0.00125492
0.121287 0.00175002
0.121374 0.00166316
0.121847 0.00213557
0.122023 0.00195888
0.122577 0.00251288
0.122625 0.00246537
0.122682 0.00252304
0.123282 0.0019239
0.123641 0.0022837
0.123713 0.00221175
0.124572 0.00307055
0.125663 0.00198007
0.125955 0.00227292
0.126019 0.0022099
0.126068 0.00225912
0.126073 0.00225359
0.126492 0.00267234
0.126883 0.00228103
0.127623 0.0030205
0.127685 0.00295871
0.128276 0.00355007
0.128362 0.00346396
0.129687 0.00478901
0.129854 0.00462168
0.130415 0.0051822
0.130677 0.00492028
0.132593 0.00683607
0.132711 0.00671787
0.132758 0.00676501
0.133469 0.00605388
0.134177 0.00676208
0.134846 0.00609361
0.135394 0.00664176
0.135535 0.0065011
0.13622 0.00718601
0.13683 0.00657589
0.137416 0.00716268
0.137708 0.00687108
0.137775 0.0069377
0.138771 0.00594132
0.139537 0.00670712
0.139717 0.00652723
0.140176 0.00698629
0.140334 0.00682845
0.141811 0.00830622
0.141889 0.00822866
0.14389 0.0102299
0.143918 0.010202
0.14437 0.0106539
0.144707 0.0103174
0.146043 0.0116541
0.146515 0.0111825
0.147424 0.0120916
0.149459 0.0100564
0.150777 0.0113737
0.150905 0.011245
0.15371 0.0140499
0.154149 0.0136114
0.15428 0.0137427
0.154452 0.0135703
0.154963 0.0140814
0.155381 0.0136639
0.156313 0.0145963
0.156964 0.0139454
0.157506 0.0144873
0.157701 0.0142925
0.159498 0.0160895
0.159524 0.0160628
0.159681 0.0162195
0.159794 0.0161059
0.162104 0.0184154
0.162748 0.0177711
0.16377 0.018793
0.166903 0.0156599
0.16793 0.0166865
0.168011 0.0166061
0.1693 0.0178955
0.169702 0.0174935
0.170253 0.0180448
0.171303 0.0169954
0.172286 0.0179791
0.172372 0.0178932
0.172516 0.0180369
0.173314 0.0172392
0.175304 0.0192298
0.177314 0.0172197
0.178286 0.0181917
0.178798 0.0176798
0.181719 0.0206008
0.182421 0.0198986
0.18299 0.0204671
0.183006 0.0204506
0.183634 0.0210786
0.183818 0.0208945
0.185294 0.0223705
0.188833 0.0188322
0.190583 0.0205829
0.197888 0.0132785
0.199814 0.0152044
0.212062 0.00295634
0.215291 0.00618558
0.215625 0.00585126
0.215968 0.00619366
0.217511 0.00465054
0.217654 0.00479357
0.222448 0
inf 0


"layer 20:"
-inf 0
0.119202 0
0.120516 0.00131495
0.120684 0.00114705
0.120792 0.00125492
0.120879 0.00116806
0.121374 0.00166316
0.121551 0.00148648
0.122023 0.00195888
0.122071 0.00191137
0.122625 0.00246537
0.123224 0.00186623
0.123282 0.0019239
0.123354 0.00185195
0.123713 0.00221175
0.124804 0.00112127
0.125663 0.00198007
0.125726 0.00191706
0.126019 0.0022099
0.126024 0.00220438
0.126073 0.00225359
0.126465 0.00186227
0.126883 0.00228103
0.126945 0.00221923
0.127685 0.00295871
0.127771 0.0028726
0.128362 0.00346396
0.128529 0.00329663
0.129854 0.00462168
0.130116 0.00435975
0.130677 0.00492028
0.130795 0.00480207
0.132711 0.00671787
0.133422 0.00600673
0.133469 0.00605388
0.134138 0.00538541
0.134846 0.00609361
0.134986 0.00595295
0.135535 0.0065011
0.136145 0.00589097
0.13683 0.00657589
0.137121 0.00628428
0.137708 0.00687108
0.138704 0.00587469
0.138771 0.00594132
0.138951 0.00576143
0.139717 0.00652723
0.139875 0.00636938
0.140334 0.00682845
0.140411 0.00675089
0.141889 0.00822866
0.141917 0.00820073
0.143918 0.010202
0.144255 0.00986548
0.144707 0.0103174
0.145178 0.00984577
0.146515 0.0111825
0.14855 0.0091473
0.149459 0.0100564
0.149588 0.00992775
0.150905 0.011245
0.151173 0.0109775
0.152858 0.0126631
0.153029 0.0124921
0.154149 0.0136114
0.154321 0.0134391
0.154452 0.0135703
0.15487 0.0131529
0.155381 0.0136639
0.156032 0.013013
0.156964 0.0139454
0.157159 0.0137506
0.157701 0.0142925
0.157727 0.0142658
0.159524 0.0160628
0.159638 0.0159492
0.159794 0.0161059
0.160439 0.0154615
0.162748 0.0177711
0.165882 0.0146379
0.166903 0.0156599
0.166984 0.0155795
0.168011 0.0166061
0.168413 0.0162042
0.169702 0.0174935
0.170751 0.0164441
0.171303 0.0169954
0.171388 0.0169095
0.172372 0.0178932
0.17317 0.0170954
0.173314 0.0172392
0.175324 0.0152291
0.177314 0.0172197
0.177826 0.0167078
0.178798 0.0176798
0.1795 0.0169776
0.182421 0.0198986
0.182438 0.0198822
0.183006 0.0204506
0.18319 0.0202666
0.183818 0.0208945
0.187357 0.0173562
0.188833 0.0188322
0.196137 0.0115278
0.197888 0.0132785
0.202647 0.00851896
0.203743 0.00961411
0.211231 0.00212561
0.212062 0.00295634
0.212396 0.00262201
0.215625 0.00585126
0.217169 0.00430814
0.217511 0.00465054
0.222161 0
inf 0


"layer 21:"
-inf 0
0.119305 0
0.120173 0.000868561
0.12029 0.000752346
0.120684 0.00114705
0.120771 0.00106019
0.120879 0.00116806
0.121056 0.000991374
0.121551 0.00148648
0.121598 0.00143896
0.122071 0.00191137
0.12267 0.00131224
0.123224 0.00186623
0.123296 0.00179428
0.123354 0.00185195
0.124444 0.000761475
0.124804 0.00112127
0.124867 0.00105826
0.125726 0.00191706
0.125731 0.00191153
0.126024 0.00220438
0.126415 0.00181306
0.126465 0.00186227
0.126496 0.00183098
0.126765 0.00210061
0.126796 0.00207011
0.126945 0.00221923
0.127031 0.00213313
0.127771 0.0028726
0.127938 0.00270527
0.128529 0.00329663
0.128791 0.0030347
0.130116 0.00435975
0.130235 0.00424155
0.130795 0.00480207
0.13116 0.00443678
0.132099 0.00537532
0.132445 0.00502948
0.133422 0.00600673
0.13409 0.00533826
0.134138 0.00538541
0.134278 0.00524474
0.134986 0.00595295
0.135597 0.00534283
0.136145 0.00589097
0.136436 0.00559937
0.137121 0.00628428
0.137877 0.00552824
0.138101 0.00575235
0.138342 0.005512
0.138704 0.00587469
0.138884 0.0056948
0.138951 0.00576143
0.139109 0.00560358
0.139875 0.00636938
0.139952 0.00629182
0.140411 0.00675089
0.140439 0.00672295
0.141917 0.00820073
0.142253 0.00786421
0.144255 0.00986548
0.144726 0.00939388
0.145178 0.00984577
0.146055 0.00896939
0.146855 0.00976947
0.148014 0.00861063
0.14855 0.0091473
0.148679 0.00901862
0.149588 0.00992775
0.149855 0.00966031
0.151173 0.0109775
0.151344 0.0108065
0.153029 0.0124921
0.153202 0.0123198
0.154321 0.0134391
0.154738 0.0130216
0.15487 0.0131529
0.15552 0.012502
0.156032 0.013013
0.156226 0.0128182
0.157159 0.0137506
0.157185 0.013724
0.157727 0.0142658
0.157841 0.0141522
0.159638 0.0159492
0.160282 0.0153049
0.160439 0.0154615
0.162001 0.0138993
0.163339 0.0152376
0.16491 0.0136666
0.165882 0.0146379
0.165962 0.0145575
0.166984 0.0155795
0.167386 0.0151775
0.168413 0.0162042
0.169462 0.0151547
0.170751 0.0164441
0.170837 0.0163582
0.171388 0.0169095
0.172186 0.0161118
0.17317 0.0170954
0.17518 0.0150854
0.175324 0.0152291
0.175836 0.0147172
0.177826 0.0167078
0.178528 0.0160056
0.1795 0.0169776
0.179517 0.0169611
0.182438 0.0198822
0.182622 0.0196981
0.18319 0.0202666
0.186729 0.0167283
0.187357 0.0173562
0.194661 0.0100518
0.196137 0.0115278
0.200897 0.00676818
0.202647 0.00851896
0.20736 0.00380613
0.208013 0.00445923
0.210789 0.00168357
0.211231 0.00212561
0.211565 0.00179129
0.212396 0.00262201
0.213939 0.00107889
0.217169 0.00430814
0.217317 0.00415975
0.217648 0.00449132
0.22214 0
inf 0


"layer 22:"
-inf 0
0.119537 0
0.12029 0.000752346
0.120377 0.000665485
0.120771 0.00106019
0.120948 0.000883501
0.121056 0.000991374
0.121103 0.000943862
0.121598 0.00143896
0.122198 0.000839831
0.12267 0.00131224
0.122742 0.00124029
0.123296 0.00179428
0.124386 0.000703806
0.124444 0.000761475
0.124507 0.000698461
0.124867 0.00105826
0.124872 0.00105273
0.125731 0.00191153
0.126123 0.00152022
0.126415 0.00181306
0.126447 0.00178177
0.126496 0.00183098
0.126526 0.00180048
0.126796 0.00207011
0.126882 0.001984
0.127031 0.00213313
0.127199 0.00196579
0.127938 0.00270527
0.1282 0.00244334
0.128791 0.0030347
0.12891 0.0029165
0.130235 0.00424155
0.1306 0.00387626
0.13116 0.00443678
0.131506 0.00409094
0.132445 0.00502948
0.133113 0.00436101
0.13409 0.00533826
0.134231 0.0051976
0.134278 0.00524474
0.134888 0.00463462
0.135597 0.00534283
0.135888 0.00505122
0.136436 0.00559937
0.137192 0.00484333
0.137877 0.00552824
0.138118 0.0052879
0.138342 0.005512
0.138522 0.00533211
0.138884 0.0056948
0.139042 0.00553696
0.139109 0.00560358
0.139186 0.00552602
0.139952 0.00629182
0.13998 0.00626389
0.140439 0.00672295
0.140776 0.00638644
0.142253 0.00786421
0.142725 0.00739262
0.144726 0.00939388
0.145603 0.0085175
0.146055 0.00896939
0.147213 0.00781055
0.148014 0.00861063
0.148142 0.00848195
0.148679 0.00901862
0.148946 0.00875119
0.149855 0.00966031
0.150026 0.0094893
0.151344 0.0108065
0.151516 0.0106342
0.153202 0.0123198
0.153619 0.0119023
0.154738 0.0130216
0.155389 0.0123707
0.15552 0.012502
0.155715 0.0123072
0.156226 0.0128182
0.156253 0.0127916
0.157185 0.013724
0.157299 0.0136104
0.157841 0.0141522
0.158485 0.0135079
0.160282 0.0153049
0.161844 0.0137427
0.162001 0.0138993
0.162266 0.013634
0.162948 0.0143154
0.164253 0.0130097
0.16491 0.0136666
0.164991 0.0135862
0.165962 0.0145575
0.166364 0.0141555
0.167386 0.0151775
0.168435 0.0141281
0.169462 0.0151547
0.169548 0.0150689
0.170837 0.0163582
0.171635 0.0155605
0.172186 0.0161118
0.174196 0.0141017
0.17518 0.0150854
0.175692 0.0145735
0.175836 0.0147172
0.176538 0.014015
0.178528 0.0160056
0.178545 0.0159891
0.179517 0.0169611
0.179654 0.0168243
0.179678 0.016849
0.179726 0.0168018
0.182622 0.0196981
0.18616 0.0161598
0.186729 0.0167283
0.189242 0.0142149
0.189671 0.0146434
0.194462 0.00985239
0.194661 0.0100518
0.199421 0.0052922
0.200897 0.00676818
0.20561 0.00205535
0.20736 0.00380613
0.210136 0.00103046
0.210789 0.00168357
0.211123 0.00134925
0.211565 0.00179129
0.213109 0.000248168
0.213939 0.00107889
0.214088 0.000930512
0.217317 0.00415975
0.221477 0
inf 0


"layer 23:"
-inf 0
0.119711 0
0.120377 0.000665485
0.120553 0.000488799
0.120948 0.000883501
0.120995 0.00083599
0.121103 0.000943862
0.121702 0.000344729
0.122198 0.000839831
0.12227 0.00076788
0.122742 0.00124029
0.123832 0.000149811
0.124386 0.000703806
0.124449 0.000640792
0.124507 0.000698461
0.124513 0.000692934
0.124872 0.00105273
0.125264 0.000661417
0.126123 0.00152022
0.126154 0.00148892
0.126447 0.00178177
0.126477 0.00175127
0.126526 0.00180048
0.126612 0.00171438
0.126882 0.001984
0.127049 0.00181667
0.127199 0.00196579
0.12746 0.00170387
0.1282 0.00244334
0.128318 0.00232514
0.12891 0.0029165
0.129275 0.00255121
0.1306 0.00387626
0.130946 0.00353042
0.131506 0.00409094
0.131725 0.00387224
0.132065 0.0042121
0.132515 0.00376233
0.133113 0.00436101
0.133254 0.00422034
0.134231 0.0051976
0.134841 0.00458748
0.134888 0.00463462
0.13518 0.00434301
0.135888 0.00505122
0.136644 0.00429518
0.137192 0.00484333
0.137433 0.00460298
0.138118 0.0052879
0.138298 0.00510801
0.138522 0.00533211
0.13863 0.00522357
0.138729 0.00532283
0.138779 0.00527352
0.139042 0.00553696
0.13912 0.0054594
0.139186 0.00552602
0.139214 0.00549809
0.13998 0.00626389
0.140317 0.00592738
0.140776 0.00638644
0.141247 0.00591485
0.142725 0.00739262
0.14339 0.00672794
0.143531 0.00686898
0.143742 0.00665727
0.145603 0.0085175
0.146762 0.00735866
0.147213 0.00781055
0.147342 0.00768187
0.148142 0.00848195
0.14841 0.00821452
0.148946 0.00875119
0.149117 0.00858018
0.150026 0.0094893
0.150199 0.00931698
0.151516 0.0106342
0.151933 0.0102167
0.153619 0.0119023
0.15427 0.0112514
0.155389 0.0123707
0.155584 0.0121759
0.155715 0.0123072
0.155742 0.0122805
0.156253 0.0127916
0.156367 0.012678
0.157299 0.0136104
0.157943 0.012966
0.158485 0.0135079
0.160047 0.0119457
0.161844 0.0137427
0.16211 0.0134774
0.162266 0.013634
0.163572 0.0123284
0.164253 0.0130097
0.164334 0.0129293
0.164991 0.0135862
0.165393 0.0131842
0.166364 0.0141555
0.167413 0.0131061
0.168435 0.0141281
0.168521 0.0140422
0.169548 0.0150689
0.170346 0.0142711
0.171635 0.0155605
0.173645 0.0135504
0.174196 0.0141017
0.174708 0.0135898
0.175692 0.0145735
0.176394 0.0138713
0.176538 0.014015
0.176554 0.0139985
0.178545 0.0159891
0.178682 0.0158523
0.179654 0.0168243
0.179701 0.016777
0.179726 0.0168018
0.183264 0.0132634
0.18616 0.0161598
0.188674 0.0136464
0.189242 0.0142149
0.194033 0.00942386
0.194462 0.00985239
0.199221 0.0050928
0.199421 0.0052922
0.204134 0.00057936
0.20561 0.00205535
0.207665 0
0.209105 0
0.210136 0.00103046
0.21047 0.000696138
0.211123 0.00134925
0.212473 0
0.21286 0
0.213109 0.000248168
0.213257 9.97874e-05
0.214088 0.000930512
0.215018 0
inf 0


"layer 24:"
-inf 0
0.120064 0
0.120553 0.000488799
0.120601 0.000441288
0.120995 0.00083599
0.121595 0.000236856
0.121702 0.000344729
0.121774 0.000272778
0.12227 0.00076788
0.123037 0
0.123683 0
0.123832 0.000149811
0.123895 8.67964e-05
0.124449 0.000640792
0.124455 0.000635264
0.124513 0.000692934
0.124904 0.000301619
0.125264 0.000661417
0.125295 0.000630124
0.126154 0.00148892
0.126184 0.00145843
0.126477 0.00175127
0.126563 0.00166517
0.126612 0.00171438
0.12678 0.00154704
0.127049 0.00181667
0.127311 0.00155474
0.12746 0.00170387
0.127579 0.00158567
0.128318 0.00232514
0.128683 0.00195985
0.129275 0.00255121
0.129621 0.00220537
0.130946 0.00353042
0.131164 0.00331171
0.131725 0.00387224
0.132175 0.00342247
0.132515 0.00376233
0.132655 0.00362166
0.133254 0.00422034
0.133864 0.00361022
0.134841 0.00458748
0.135133 0.00429587
0.13518 0.00434301
0.135936 0.00358697
0.136644 0.00429518
0.136885 0.00405484
0.137433 0.00460298
0.137613 0.0044231
0.138298 0.00510801
0.138406 0.00499946
0.13863 0.00522357
0.13868 0.00517427
0.138779 0.00527352
0.138856 0.00519596
0.13912 0.0054594
0.139148 0.00543146
0.139214 0.00549809
0.139551 0.00516158
0.140317 0.00592738
0.140788 0.00545578
0.141247 0.00591485
0.141912 0.00525017
0.14339 0.00672794
0.143601 0.00651623
0.143742 0.00665727
0.144901 0.00549843
0.146762 0.00735866
0.14689 0.00722998
0.147342 0.00768187
0.14761 0.00741444
0.14841 0.00821452
0.148581 0.00804351
0.149117 0.00858018
0.14929 0.00840786
0.150199 0.00931698
0.150616 0.00889949
0.151933 0.0102167
0.152584 0.00956584
0.15427 0.0112514
0.154465 0.0110566
0.155584 0.0121759
0.155611 0.0121493
0.155742 0.0122805
0.155856 0.0121669
0.156367 0.012678
0.157011 0.0120336
0.157943 0.012966
0.159505 0.0114039
0.160047 0.0119457
0.160313 0.0116804
0.16211 0.0134774
0.163415 0.0121717
0.163572 0.0123284
0.163652 0.012248
0.164334 0.0129293
0.164736 0.0125273
0.165393 0.0131842
0.166442 0.0121348
0.167413 0.0131061
0.167499 0.0130203
0.168521 0.0140422
0.169319 0.0132445
0.170346 0.0142711
0.172356 0.0122611
0.173645 0.0135504
0.174157 0.0130385
0.174708 0.0135898
0.17541 0.0128876
0.176394 0.0138713
0.176411 0.0138548
0.176554 0.0139985
0.176691 0.0138617
0.178682 0.0158523
0.178729 0.0158051
0.179701 0.016777
0.183239 0.0132387
0.183264 0.0132634
0.18487 0.0116575
0.185317 0.0121042
0.186224 0.0111968
0.188674 0.0136464
0.193465 0.00885536
0.194033 0.00942386
0.198793 0.00466428
0.199221 0.0050928
0.203934 0.000379969
0.204134 0.00057936
0.204713 0
0.209774 0
0.21047 0.000696138
0.211166 0
0.213157 0
0.213257 9.97874e-05
0.213357 0
inf 0


"layer 25:"
-inf 0
0.120159 0
0.120601 0.000441288
0.121042 0
0.121358 0
0.121595 0.000236856
0.121667 0.000164905
0.121774 0.000272778
0.122047 0
0.123809 0
0.123895 8.67964e-05
0.123901 8.1269e-05
0.124455 0.000635264
0.124846 0.000243949
0.124904 0.000301619
0.124935 0.000270326
0.125295 0.000630124
0.125326 0.000599624
0.126184 0.00145843
0.12627 0.00137232
0.126563 0.00166517
0.126731 0.00149783
0.12678 0.00154704
0.127042 0.00128512
0.127311 0.00155474
0.12743 0.00143654
0.127579 0.00158567
0.127944 0.00122038
0.128683 0.00195985
0.129029 0.00161401
0.129621 0.00220537
0.129839 0.00198666
0.131164 0.00331171
0.131614 0.00286195
0.132175 0.00342247
0.132315 0.0032818
0.132655 0.00362166
0.133265 0.00301154
0.133864 0.00361022
0.134156 0.00331861
0.135133 0.00429587
0.135889 0.00353983
0.135936 0.00358697
0.136176 0.00334663
0.136885 0.00405484
0.137064 0.00387495
0.137613 0.0044231
0.137721 0.00431455
0.138406 0.00499946
0.138455 0.00495016
0.13868 0.00517427
0.138757 0.0050967
0.138856 0.00519596
0.138884 0.00516803
0.139148 0.00543146
0.139484 0.00509495
0.139551 0.00516158
0.140022 0.00468998
0.140788 0.00545578
0.141453 0.0047911
0.141912 0.00525017
0.142124 0.00503846
0.143601 0.00651623
0.14476 0.00535739
0.144901 0.00549843
0.14503 0.00536975
0.14689 0.00722998
0.147158 0.00696255
0.14761 0.00741444
0.147781 0.00724343
0.148581 0.00804351
0.148753 0.00787119
0.14929 0.00840786
0.149707 0.00799036
0.150616 0.00889949
0.151267 0.00824861
0.152584 0.00956584
0.152779 0.00937105
0.154465 0.0110566
0.154491 0.0110299
0.155611 0.0121493
0.155724 0.0120357
0.155856 0.0121669
0.1565 0.0115226
0.157011 0.0120336
0.158573 0.0104715
0.159505 0.0114039
0.159771 0.0111385
0.160313 0.0116804
0.161618 0.0103747
0.163415 0.0121717
0.163496 0.0120913
0.163652 0.012248
0.164054 0.011846
0.164736 0.0125273
0.165785 0.0114779
0.166442 0.0121348
0.166528 0.0120489
0.167499 0.0130203
0.168297 0.0122225
0.169319 0.0132445
0.169319 0.0132442
0.170247 0.0141719
0.172257 0.0121621
0.172356 0.0122611
0.172868 0.0117492
0.174157 0.0130385
0.174859 0.0123363
0.17541 0.0128876
0.175427 0.0128711
0.176411 0.0138548
0.176547 0.013718
0.176691 0.0138617
0.176738 0.0138145
0.178729 0.0158051
0.182267 0.0122667
0.183239 0.0132387
0.184845 0.0116327
0.18487 0.0116575
0.185777 0.01075
0.186224 0.0111968
0.191015 0.0064058
0.193465 0.00885536
0.198224 0.00409578
0.198793 0.00466428
0.203457 0
0.203554 0
0.203934 0.000379969
0.204314 0
inf 0


"layer 26:"
-inf 0
0.121502 0
0.121667 0.000164905
0.121831 0
0.12382 0
0.123901 8.1269e-05
0.123982 0
0.124602 0
0.124846 0.000243949
0.124878 0.000212656
0.124935 0.000270326
0.124966 0.000239826
0.125326 0.000599624
0.125412 0.000513522
0.12627 0.00137232
0.126438 0.00120499
0.126731 0.00149783
0.126993 0.0012359
0.127042 0.00128512
0.12716 0.00116692
0.12743 0.00143654
0.127795 0.00107125
0.127944 0.00122038
0.12829 0.000874533
0.129029 0.00161401
0.129048 0.00159542
0.12951 0.00205794
0.129711 0.00185782
0.129839 0.00198666
0.130218 0.0016081
0.130693 0.00208325
0.130764 0.00201204
0.131614 0.00286195
0.131755 0.00272128
0.132315 0.0032818
0.132925 0.00267168
0.133265 0.00301154
0.133557 0.00271994
0.134156 0.00331861
0.134912 0.00256257
0.135889 0.00353983
0.136129 0.00329949
0.136176 0.00334663
0.136356 0.00316674
0.137064 0.00387495
0.137173 0.0037664
0.137721 0.00431455
0.13777 0.00426525
0.138455 0.00495016
0.138533 0.0048726
0.138757 0.0050967
0.138785 0.00506877
0.138884 0.00516803
0.139221 0.00483152
0.139484 0.00509495
0.139703 0.00487626
0.139759 0.00493192
0.140011 0.00467902
0.140022 0.00468998
0.140687 0.0040253
0.141453 0.0047911
0.141665 0.0045794
0.142124 0.00503846
0.143134 0.00402862
0.143453 0.00434805
0.143602 0.00419905
0.14476 0.00535739
0.144889 0.00522872
0.14503 0.00536975
0.145297 0.00510232
0.147158 0.00696255
0.147329 0.00679154
0.147781 0.00724343
0.147953 0.00707111
0.148753 0.00787119
0.14917 0.00745369
0.149707 0.00799036
0.150358 0.00733949
0.151267 0.00824861
0.151462 0.00805381
0.152779 0.00937105
0.152806 0.00934441
0.154491 0.0110299
0.154605 0.0109163
0.155724 0.0120357
0.156369 0.0113913
0.1565 0.0115226
0.158062 0.00996043
0.158573 0.0104715
0.158838 0.0102061
0.159771 0.0111385
0.161076 0.00983287
0.161618 0.0103747
0.161699 0.0102943
0.163496 0.0120913
0.163898 0.0116893
0.164054 0.011846
0.165104 0.0107965
0.165785 0.0114779
0.165871 0.011392
0.166528 0.0120489
0.167326 0.0112512
0.168297 0.0122225
0.168297 0.0122223
0.169319 0.0132442
0.171329 0.0112344
0.172257 0.0121621
0.172769 0.0116502
0.172868 0.0117492
0.17357 0.0110469
0.174859 0.0123363
0.174876 0.0123198
0.175427 0.0128711
0.175564 0.0127343
0.176547 0.013718
0.176595 0.0136707
0.176738 0.0138145
0.180277 0.0102761
0.182267 0.0122667
0.183873 0.0106608
0.184845 0.0116327
0.185753 0.0107253
0.185777 0.01075
0.190568 0.00595903
0.191015 0.0064058
0.195775 0.00164621
0.198224 0.00409578
0.20232 0
inf 0


"layer 27:"
-inf 0
0.124665 0
0.124878 0.000212656
0.124908 0.000182157
0.124966 0.000239826
0.125052 0.000153724
0.125412 0.000513522
0.125579 0.000346185
0.126438 0.00120499
0.1267 0.000943062
0.126993 0.0012359
0.127111 0.0011177
0.12716 0.00116692
0.127525 0.000801623
0.127795 0.00107125
0.128141 0.000725407
0.12829 0.000874533
0.128308 0.000855951
0.129048 0.00159542
0.129248 0.0013953
0.129711 0.00185782
0.130089 0.00147926
0.130218 0.0016081
0.130289 0.0015369
0.130764 0.00201204
0.130905 0.00187138
0.131755 0.00272128
0.132365 0.00211116
0.132925 0.00267168
0.133217 0.00238008
0.133557 0.00271994
0.134313 0.0019639
0.134912 0.00256257
0.135152 0.00232223
0.136129 0.00329949
0.136309 0.0031196
0.136356 0.00316674
0.136465 0.0030582
0.137173 0.0037664
0.137222 0.0037171
0.13777 0.00426525
0.137848 0.00418769
0.138533 0.0048726
0.138561 0.00484467
0.138785 0.00506877
0.139122 0.00473226
0.139221 0.00483152
0.139439 0.00461283
0.139703 0.00487626
0.139956 0.00462336
0.140011 0.00467902
0.140676 0.00401434
0.140687 0.0040253
0.140899 0.0038136
0.141665 0.0045794
0.142674 0.00356956
0.143134 0.00402862
0.143283 0.00387962
0.143602 0.00419905
0.143731 0.00407037
0.144889 0.00522872
0.145156 0.00496128
0.145297 0.00510232
0.145468 0.00493131
0.147329 0.00679154
0.147501 0.00661922
0.147953 0.00707111
0.14837 0.00665361
0.14917 0.00745369
0.149821 0.00680281
0.150358 0.00733949
0.150553 0.00714469
0.151462 0.00805381
0.151489 0.00802717
0.152806 0.00934441
0.152919 0.00923081
0.154605 0.0109163
0.155249 0.010272
0.156369 0.0113913
0.157931 0.00982918
0.158062 0.00996043
0.158327 0.00969509
0.158838 0.0102061
0.160144 0.00890048
0.161076 0.00983287
0.161157 0.00975246
0.161699 0.0102943
0.162101 0.00989234
0.163898 0.0116893
0.164947 0.0106399
0.165104 0.0107965
0.16519 0.0107107
0.165871 0.011392
0.166669 0.0105943
0.167326 0.0112512
0.167326 0.0112509
0.168297 0.0122223
0.170307 0.0102125
0.171329 0.0112344
0.171841 0.0107225
0.172769 0.0116502
0.173471 0.010948
0.17357 0.0110469
0.173586 0.0110305
0.174876 0.0123198
0.175012 0.012183
0.175564 0.0127343
0.175611 0.0126871
0.176595 0.0136707
0.180133 0.0101324
0.180277 0.0102761
0.181883 0.00867015
0.183873 0.0106608
0.184781 0.00975333
0.185753 0.0107253
0.190544 0.00593431
0.190568 0.00595903
0.195328 0.00119944
0.195775 0.00164621
0.197421 0
inf 0


"layer 28:"
-inf 0
0.124726 0
0.124908 0.000182157
0.124994 9.60543e-05
0.125052 0.000153724
0.125206 0
0.125233 0
0.125579 0.000346185
0.125841 8.42612e-05
0.1267 0.000943062
0.126818 0.00082486
0.127111 0.0011177
0.127476 0.00075241
0.127525 0.000801623
0.127871 0.000455781
0.128141 0.000725407
0.128159 0.000706824
0.128308 0.000855951
0.128509 0.00065583
0.129248 0.0013953
0.129627 0.00101674
0.130089 0.00147926
0.13016 0.00140806
0.130289 0.0015369
0.13043 0.00139623
0.130905 0.00187138
0.131515 0.00126125
0.132365 0.00211116
0.132657 0.00181955
0.133217 0.00238008
0.133973 0.00162404
0.134313 0.0019639
0.134553 0.00172355
0.135152 0.00232223
0.135332 0.00214234
0.136309 0.0031196
0.136418 0.00301105
0.136465 0.0030582
0.136514 0.00300889
0.137222 0.0037171
0.1373 0.00363954
0.137848 0.00418769
0.137876 0.00415976
0.138561 0.00484467
0.138897 0.00450816
0.139122 0.00473226
0.13934 0.00451357
0.139439 0.00461283
0.139692 0.00435992
0.139956 0.00462336
0.14062 0.00395868
0.140676 0.00401434
0.140888 0.00380264
0.140899 0.0038136
0.141909 0.00280376
0.142674 0.00356956
0.142823 0.00342055
0.143283 0.00387962
0.143411 0.00375094
0.143731 0.00407037
0.143998 0.00380294
0.145156 0.00496128
0.145327 0.00479027
0.145468 0.00493131
0.145641 0.00475899
0.147501 0.00661922
0.147918 0.00620172
0.14837 0.00665361
0.149021 0.00600274
0.149821 0.00680281
0.150016 0.00660802
0.150553 0.00714469
0.150579 0.00711805
0.151489 0.00802717
0.151602 0.00791357
0.152919 0.00923081
0.153564 0.00858643
0.155249 0.010272
0.156811 0.00870984
0.157931 0.00982918
0.158196 0.00956384
0.158327 0.00969509
0.159633 0.00838944
0.160144 0.00890048
0.160224 0.00882008
0.161157 0.00975246
0.161559 0.00935047
0.162101 0.00989234
0.16315 0.00884292
0.164947 0.0106399
0.165033 0.0105541
0.16519 0.0107107
0.165987 0.00991294
0.166669 0.0105943
0.166669 0.010594
0.167326 0.0112509
0.169336 0.00924112
0.170307 0.0102125
0.170819 0.00970055
0.171841 0.0107225
0.172543 0.0100203
0.173471 0.010948
0.173487 0.0109315
0.173586 0.0110305
0.173723 0.0108937
0.175012 0.012183
0.17506 0.0121358
0.175611 0.0126871
0.17894 0.00935758
0.179717 0.0101346
0.179926 0.00992574
0.180133 0.0101324
0.181739 0.00852644
0.181883 0.00867015
0.18279 0.00776272
0.184781 0.00975333
0.189572 0.00496233
0.190544 0.00593431
0.195303 0.00117473
0.195328 0.00119944
0.196527 0
inf 0


"layer 29:"
-inf 0
0.124898 0
0.124994 9.60543e-05
0.12509 0
0.125757 0
0.125841 8.42612e-05
0.125925 0
0.125993 0
0.126818 0.00082486
0.127183 0.000459568
0.127476 0.00075241
0.127822 0.000406568
0.127871 0.000455781
0.12789 0.000437199
0.128159 0.000706824
0.128359 0.000506704
0.128509 0.00065583
0.128887 0.000277269
0.129627 0.00101674
0.129698 0.000945537
0.13016 0.00140806
0.130301 0.00126739
0.13043 0.00139623
0.13104 0.000786109
0.131515 0.00126125
0.131807 0.000969649
0.132657 0.00181955
0.133413 0.00106351
0.133973 0.00162404
0.134213 0.00138369
0.134553 0.00172355
0.134733 0.00154366
0.135332 0.00214234
0.13544 0.0020338
0.136418 0.00301105
0.136467 0.00296175
0.136514 0.00300889
0.136592 0.00293133
0.1373 0.00363954
0.137328 0.00361161
0.137876 0.00415976
0.138212 0.00382324
0.138897 0.00450816
0.139116 0.00428947
0.13934 0.00451357
0.139593 0.00426066
0.139692 0.00435992
0.140357 0.00369524
0.14062 0.00395868
0.140832 0.00374697
0.140888 0.00380264
0.141898 0.0027928
0.141909 0.00280376
0.142058 0.00265475
0.142823 0.00342055
0.142952 0.00329188
0.143411 0.00375094
0.143679 0.00348351
0.143998 0.00380294
0.144169 0.00363193
0.145327 0.00479027
0.1455 0.00461795
0.145641 0.00475899
0.146058 0.00434149
0.147918 0.00620172
0.148569 0.00555084
0.149021 0.00600274
0.149216 0.00580794
0.150016 0.00660802
0.150043 0.00658138
0.150579 0.00711805
0.150693 0.00700445
0.151602 0.00791357
0.152247 0.0072692
0.153564 0.00858643
0.155126 0.0070243
0.156811 0.00870984
0.157077 0.0084445
0.158196 0.00956384
0.159502 0.00825819
0.159633 0.00838944
0.159713 0.00830904
0.160224 0.00882008
0.160626 0.00841809
0.161559 0.00935047
0.162608 0.00830105
0.16315 0.00884292
0.163236 0.00875708
0.165033 0.0105541
0.165831 0.0097563
0.165987 0.00991294
0.165988 0.00991269
0.166669 0.010594
0.168679 0.00858423
0.169336 0.00924112
0.169848 0.00872921
0.170819 0.00970055
0.171521 0.00899833
0.172543 0.0100203
0.17256 0.0100038
0.173487 0.0109315
0.173624 0.0107947
0.173723 0.0108937
0.17377 0.0108464
0.17506 0.0121358
0.176732 0.0104633
0.176847 0.0105781
0.178504 0.00892111
0.17894 0.00935758
0.179149 0.00914874
0.179926 0.00992574
0.181532 0.00831978
0.181739 0.00852644
0.182646 0.00761901
0.18279 0.00776272
0.185859 0.00469385
0.186795 0.00563032
0.188518 0.00390819
0.189572 0.00496233
0.190474 0.00406
0.190557 0.00414317
0.194414 0.00028592
0.195303 0.00117473
0.196478 0
inf 0


"layer 30:"
-inf 0
0.126724 0
0.127183 0.000459568
0.127529 0.000113726
0.127822 0.000406568
0.12784 0.000387985
0.12789 0.000437199
0.12809 0.000237078
0.128359 0.000506704
0.128738 0.000128142
0.128887 0.000277269
0.128958 0.000206063
0.129698 0.000945537
0.129838 0.000804871
0.130301 0.00126739
0.130911 0.00065727
0.13104 0.000786109
0.131332 0.000494504
0.131807 0.000969649
0.131923 0.000853688
0.132135 0.00106594
0.132775 0.000425862
0.133413 0.00106351
0.133653 0.000823169
0.134213 0.00138369
0.134393 0.0012038
0.134733 0.00154366
0.134842 0.00143512
0.13544 0.0020338
0.13549 0.00198449
0.136467 0.00296175
0.136545 0.00288419
0.136592 0.00293133
0.13662 0.0029034
0.137328 0.00361161
0.137664 0.0032751
0.138212 0.00382324
0.138431 0.00360455
0.139116 0.00428947
0.139369 0.00403656
0.139593 0.00426066
0.140258 0.00359598
0.140357 0.00369524
0.140569 0.00348354
0.140832 0.00374697
0.141842 0.00273713
0.141898 0.0027928
0.142047 0.00264379
0.142058 0.00265475
0.142186 0.00252608
0.142952 0.00329188
0.14322 0.00302444
0.143679 0.00348351
0.14385 0.0033125
0.144169 0.00363193
0.144341 0.00345961
0.1455 0.00461795
0.145917 0.00420046
0.146058 0.00434149
0.146709 0.00369062
0.148569 0.00555084
0.148764 0.00535605
0.149216 0.00580794
0.149243 0.0057813
0.150043 0.00658138
0.150156 0.00646778
0.150693 0.00700445
0.151047 0.00665004
0.151141 0.00674403
0.151431 0.00645407
0.152247 0.0072692
0.153809 0.00570706
0.155126 0.0070243
0.155391 0.00675896
0.157077 0.0084445
0.158382 0.00713885
0.159502 0.00825819
0.159582 0.00817779
0.159713 0.00830904
0.160115 0.00790704
0.160626 0.00841809
0.161676 0.00736867
0.162608 0.00830105
0.162694 0.00821521
0.163236 0.00875708
0.164034 0.00795932
0.165831 0.0097563
0.165831 0.00975605
0.165988 0.00991269
0.167997 0.00790288
0.168679 0.00858423
0.169191 0.00807232
0.169848 0.00872921
0.17055 0.00802699
0.171521 0.00899833
0.171538 0.00898186
0.17256 0.0100038
0.172696 0.009867
0.173624 0.0107947
0.173671 0.0107474
0.17377 0.0108464
0.175443 0.00917394
0.176732 0.0104633
0.178389 0.00880627
0.178504 0.00892111
0.178713 0.00871226
0.179149 0.00914874
0.180755 0.00754277
0.181532 0.00831978
0.18244 0.00741234
0.182646 0.00761901
0.185715 0.00455014
0.185859 0.00469385
0.187581 0.00297172
0.188518 0.00390819
0.18942 0.00300586
0.190474 0.00406
0.194331 0.000202747
0.194414 0.00028592
0.1947 0
inf 0


"layer 31:"
-inf 0
0.127415 0
0.127529 0.000113726
0.127548 9.51431e-05
0.12784 0.000387985
0.128041 0.000187864
0.12809 0.000237078
0.128327 0
0.12861 0
0.128738 0.000128142
0.128809 5.69365e-05
0.128958 0.000206063
0.129099 6.53974e-05
0.129838 0.000804871
0.130449 0.00019475
0.130911 0.00065727
0.131203 0.000365665
0.131332 0.000494504
0.131447 0.000378543
0.131923 0.000853688
0.132563 0.000213608
0.132775 0.000425862
0.133015 0.000185517
0.133653 0.000823169
0.133833 0.000643281
0.134393 0.0012038
0.134502 0.00109526
0.134842 0.00143512
0.134891 0.00138582
0.13549 0.00198449
0.135567 0.00190693
0.136545 0.00288419
0.136572 0.00285626
0.13662 0.0029034
0.136956 0.00256689
0.137664 0.0032751
0.137883 0.0030564
0.138431 0.00360455
0.138684 0.00335165
0.139369 0.00403656
0.140034 0.00337188
0.140258 0.00359598
0.140469 0.00338428
0.140569 0.00348354
0.141579 0.0024737
0.141842 0.00273713
0.141991 0.00258813
0.142047 0.00264379
0.142175 0.00251512
0.142186 0.00252608
0.142454 0.00225864
0.14322 0.00302444
0.143391 0.00285344
0.14385 0.0033125
0.144022 0.00314018
0.144341 0.00345961
0.144759 0.00304211
0.145917 0.00420046
0.146568 0.00354958
0.146709 0.00369062
0.146904 0.00349582
0.148764 0.00535605
0.148791 0.00532941
0.149243 0.0057813
0.149356 0.0056677
0.150156 0.00646778
0.150511 0.00611336
0.151047 0.00665004
0.151337 0.00636008
0.151431 0.00645407
0.152994 0.00489193
0.153809 0.00570706
0.154074 0.00544173
0.155391 0.00675896
0.156697 0.00545331
0.158382 0.00713885
0.158463 0.00705845
0.159582 0.00817779
0.159984 0.0077758
0.160115 0.00790704
0.161165 0.00685762
0.161676 0.00736867
0.161762 0.00728283
0.162694 0.00821521
0.163492 0.00741744
0.164034 0.00795932
0.164034 0.00795907
0.165831 0.00975605
0.167841 0.00774625
0.167997 0.00790288
0.168509 0.00739098
0.169191 0.00807232
0.169893 0.0073701
0.17055 0.00802699
0.170566 0.00801052
0.171538 0.00898186
0.171674 0.00884505
0.172696 0.009867
0.172744 0.00981975
0.173671 0.0107474
0.175344 0.00907494
0.175443 0.00917394
0.1771 0.00751693
0.178389 0.00880627
0.178598 0.00859742
0.178713 0.00871226
0.180319 0.0071063
0.180755 0.00754277
0.181663 0.00663534
0.18244 0.00741234
0.185509 0.00434348
0.185715 0.00455014
0.187437 0.00282801
0.187581 0.00297172
0.188483 0.00206939
0.18942 0.00300586
0.192426 0
0.194128 0
0.194331 0.000202747
0.194534 0
inf 0


"layer 32:"
-inf 0
0.127452 0
0.127548 9.51431e-05
0.127643 0
0.127853 0
0.128041 0.000187864
0.128228 0
0.128752 0
0.128809 5.69365e-05
0.128866 0
0.129034 0
0.129099 6.53974e-05
0.129164 0
0.130254 0
0.130449 0.00019475
0.130643 0
0.130837 0
0.131203 0.000365665
0.131319 0.000249704
0.131447 0.000378543
0.131826 0
0.132349 0
0.132563 0.000213608
0.132776 0
0.13283 0
0.133015 0.000185517
0.133195 5.6288e-06
0.133833 0.000643281
0.133941 0.000534736
0.134502 0.00109526
0.134551 0.00104596
0.134891 0.00138582
0.134969 0.00130825
0.135567 0.00190693
0.135595 0.001879
0.136572 0.00285626
0.136909 0.00251975
0.136956 0.00256689
0.137175 0.0023482
0.137883 0.0030564
0.138136 0.0028035
0.138684 0.00335165
0.139349 0.00268697
0.140034 0.00337188
0.140245 0.00316018
0.140469 0.00338428
0.141479 0.00237444
0.141579 0.0024737
0.141728 0.0023247
0.141991 0.00258813
0.14212 0.00245946
0.142175 0.00251512
0.142443 0.00224768
0.142454 0.00225864
0.142625 0.00208763
0.143391 0.00285344
0.143563 0.00268111
0.144022 0.00314018
0.144439 0.00272268
0.144759 0.00304211
0.14541 0.00239123
0.146568 0.00354958
0.146763 0.00335478
0.146904 0.00349582
0.146931 0.00346918
0.148791 0.00532941
0.148904 0.00521581
0.149356 0.0056677
0.149711 0.00531328
0.150511 0.00611336
0.150801 0.0058234
0.151337 0.00636008
0.1529 0.00479794
0.152994 0.00489193
0.153134 0.00475159
0.153865 0.00548248
0.15399 0.00535749
0.154074 0.00544173
0.15538 0.00413607
0.156697 0.00545331
0.156777 0.00537291
0.158463 0.00705845
0.158865 0.00665645
0.159984 0.0077758
0.161034 0.00672637
0.161165 0.00685762
0.161251 0.00677178
0.161762 0.00728283
0.16256 0.00648506
0.163492 0.00741744
0.163492 0.00741719
0.164034 0.00795907
0.166044 0.00594926
0.167841 0.00774625
0.168353 0.00723434
0.168509 0.00739098
0.169212 0.00668876
0.169893 0.0073701
0.169909 0.00735363
0.170566 0.00801052
0.170703 0.00787372
0.171674 0.00884505
0.171722 0.0087978
0.172744 0.00981975
0.174416 0.00814727
0.175344 0.00907494
0.177001 0.00741793
0.1771 0.00751693
0.177309 0.00730808
0.178598 0.00859742
0.180204 0.00699146
0.180319 0.0071063
0.181057 0.00636772
0.181219 0.00652891
0.181387 0.00636006
0.181663 0.00663534
0.184732 0.00356647
0.185509 0.00434348
0.187231 0.00262135
0.187437 0.00282801
0.18834 0.00192568
0.188483 0.00206939
0.190553 0
inf 0


"layer 33:"
-inf 0
0.131069 0
0.131319 0.000249704
0.131568 0
0.13319 0
0.133195 5.6288e-06
0.133201 0
0.133407 0
0.133941 0.000534736
0.133991 0.000485434
0.134551 0.00104596
0.134629 0.000968394
0.134969 0.00130825
0.134997 0.00128032
0.135595 0.001879
0.135932 0.00154249
0.136909 0.00251975
0.137128 0.00230106
0.137175 0.0023482
0.137428 0.00209529
0.138136 0.0028035
0.138659 0.00228088
0.13869 0.00231228
0.138832 0.00217023
0.139349 0.00268697
0.13956 0.00247526
0.140245 0.00316018
0.141255 0.00215034
0.141479 0.00237444
0.141628 0.00222544
0.141728 0.0023247
0.141856 0.00219602
0.14212 0.00245946
0.142387 0.00219202
0.142443 0.00224768
0.142614 0.00207667
0.142625 0.00208763
0.142797 0.00191531
0.143563 0.00268111
0.14398 0.00226362
0.144439 0.00272268
0.14509 0.00207181
0.14541 0.00239123
0.145605 0.00219644
0.146763 0.00335478
0.14679 0.00332814
0.146931 0.00346918
0.147044 0.00335558
0.148904 0.00521581
0.149259 0.00486139
0.149711 0.00531328
0.150001 0.00502333
0.150801 0.0058234
0.152363 0.00426127
0.1529 0.00479794
0.15304 0.0046576
0.153134 0.00475159
0.153259 0.00462659
0.15399 0.00535749
0.155295 0.00405183
0.15538 0.00413607
0.15546 0.00405567
0.156777 0.00537291
0.157179 0.00497091
0.158865 0.00665645
0.159914 0.00560703
0.161034 0.00672637
0.161119 0.00664054
0.161251 0.00677178
0.162048 0.00597402
0.16256 0.00648506
0.16256 0.00648481
0.163492 0.00741719
0.165502 0.00540739
0.166044 0.00594926
0.166556 0.00543736
0.168353 0.00723434
0.169055 0.00653213
0.169212 0.00668876
0.169228 0.00667229
0.169909 0.00735363
0.170046 0.00721683
0.170703 0.00787372
0.17075 0.00782646
0.171722 0.0087978
0.173394 0.00712532
0.174416 0.00814727
0.176073 0.00649026
0.177001 0.00741793
0.17721 0.00720908
0.177309 0.00730808
0.178915 0.00570212
0.180204 0.00699146
0.180942 0.00625288
0.181057 0.00636772
0.181226 0.00619887
0.181387 0.00636006
0.184456 0.00329119
0.184732 0.00356647
0.186454 0.00184435
0.187231 0.00262135
0.188133 0.00171902
0.18834 0.00192568
0.190265 0
inf 0


"layer 34:"
-inf 0
0.133505 0
0.133991 0.000485434
0.134068 0.000407872
0.134629 0.000968394
0.134657 0.000940462
0.134997 0.00128032
0.135333 0.000943812
0.135932 0.00154249
0.13615 0.0013238
0.137128 0.00230106
0.137381 0.00204815
0.137428 0.00209529
0.13795 0.00157267
0.138659 0.00228088
0.138801 0.00213882
0.138832 0.00217023
0.139044 0.00195852
0.13956 0.00247526
0.14057 0.00146543
0.141255 0.00215034
0.141404 0.00200134
0.141628 0.00222544
0.141757 0.00209676
0.141856 0.00219602
0.142124 0.00192858
0.142387 0.00219202
0.142558 0.00202101
0.142614 0.00207667
0.142786 0.00190435
0.142797 0.00191531
0.143215 0.00149782
0.14398 0.00226362
0.144631 0.00161274
0.14509 0.00207181
0.145285 0.00187701
0.145605 0.00219644
0.145631 0.0021698
0.14679 0.00332814
0.146903 0.00321454
0.147044 0.00335558
0.147399 0.00300117
0.149259 0.00486139
0.149549 0.00457143
0.150001 0.00502333
0.151563 0.00346119
0.152363 0.00426127
0.152503 0.00412093
0.15304 0.0046576
0.153165 0.0045326
0.153259 0.00462659
0.154565 0.00332094
0.155295 0.00405183
0.155376 0.00397143
0.15546 0.00405567
0.155862 0.00365368
0.157179 0.00497091
0.158229 0.00392149
0.159914 0.00560703
0.16 0.00552119
0.161119 0.00664054
0.161917 0.00584277
0.162048 0.00597402
0.162049 0.00597377
0.16256 0.00648481
0.16457 0.00447501
0.165502 0.00540739
0.166014 0.00489549
0.166556 0.00543736
0.167258 0.00473514
0.169055 0.00653213
0.169071 0.00651565
0.169228 0.00667229
0.169365 0.00653549
0.170046 0.00721683
0.170093 0.00716957
0.17075 0.00782646
0.172423 0.00615398
0.173394 0.00712532
0.174767 0.00575272
0.175293 0.0062786
0.175577 0.00599419
0.176073 0.00649026
0.176282 0.00628141
0.17721 0.00720908
0.178816 0.00560312
0.178915 0.00570212
0.179546 0.00507034
0.180652 0.00617549
0.180758 0.0060687
0.180942 0.00625288
0.181111 0.00608402
0.181226 0.00619887
0.184295 0.00313
0.184456 0.00329119
0.186178 0.00156906
0.186454 0.00184435
0.187356 0.000942015
0.188133 0.00171902
0.189852 0
inf 0


"layer 35:"
-inf 0
0.13366 0
0.134068 0.000407872
0.134096 0.000379941
0.134657 0.000940462
0.134993 0.000603951
0.135333 0.000943812
0.135552 0.00072512
0.13615 0.0013238
0.136403 0.00107089
0.137381 0.00204815
0.137903 0.00152553
0.13795 0.00157267
0.138092 0.00143061
0.138801 0.00213882
0.139012 0.00192712
0.139044 0.00195852
0.140054 0.000948684
0.14057 0.00146543
0.140719 0.00131642
0.141404 0.00200134
0.141533 0.00187266
0.141757 0.00209676
0.142024 0.00182933
0.142124 0.00192858
0.142295 0.00175758
0.142558 0.00202101
0.14273 0.00184869
0.142786 0.00190435
0.143204 0.00148686
0.143215 0.00149782
0.143865 0.000846941
0.144631 0.00161274
0.144826 0.00141795
0.145285 0.00187701
0.145312 0.00185037
0.145631 0.0021698
0.145745 0.0020562
0.146903 0.00321454
0.147258 0.00286013
0.147399 0.00300117
0.147689 0.00271121
0.149549 0.00457143
0.151111 0.0030093
0.151563 0.00346119
0.151703 0.00332085
0.152503 0.00412093
0.152628 0.00399593
0.153165 0.0045326
0.154471 0.00322695
0.154565 0.00332094
0.154645 0.00324054
0.155376 0.00397143
0.155778 0.00356944
0.155862 0.00365368
0.156911 0.00260426
0.158229 0.00392149
0.158315 0.00383565
0.16 0.00552119
0.160798 0.00472343
0.161917 0.00584277
0.161917 0.00584252
0.162049 0.00597377
0.164059 0.00396396
0.16457 0.00447501
0.165081 0.0039631
0.166014 0.00489549
0.166716 0.00419327
0.167258 0.00473514
0.167274 0.00471867
0.169071 0.00651565
0.169208 0.00637885
0.169365 0.00653549
0.169412 0.00648823
0.170093 0.00716957
0.171766 0.00549709
0.172423 0.00615398
0.173795 0.00478138
0.174767 0.00575272
0.175051 0.00546831
0.175577 0.00599419
0.175786 0.00578534
0.176282 0.00628141
0.177888 0.00467545
0.178816 0.00560312
0.179447 0.00497134
0.179546 0.00507034
0.179653 0.00496354
0.180758 0.0060687
0.180927 0.00589984
0.181111 0.00608402
0.18418 0.00301516
0.184295 0.00313
0.186017 0.00140787
0.186178 0.00156906
0.187081 0.000666729
0.187356 0.000942015
0.188298 0
inf 0


"layer 36:"
-inf 0
0.133716 0
0.134096 0.000379941
0.134433 4.34297e-05
0.134993 0.000603951
0.135212 0.00038526
0.135552 0.00072512
0.135805 0.000472214
0.136403 0.00107089
0.136926 0.000548269
0.137903 0.00152553
0.138045 0.00138347
0.138092 0.00143061
0.138304 0.00121891
0.139012 0.00192712
0.140022 0.000917277
0.140054 0.000948684
0.140203 0.00079968
0.140719 0.00131642
0.140848 0.00118775
0.141533 0.00187266
0.1418 0.00160522
0.142024 0.00182933
0.142195 0.00165832
0.142295 0.00175758
0.142467 0.00158525
0.14273 0.00184869
0.143148 0.00143119
0.143204 0.00148686
0.143855 0.00083598
0.143865 0.000846941
0.143874 0.000838072
0.144008 0.000971266
0.144193 0.00078534
0.144826 0.00141795
0.144853 0.0013913
0.145312 0.00185037
0.145425 0.00173677
0.145745 0.0020562
0.146099 0.00170178
0.147258 0.00286013
0.147548 0.00257017
0.147689 0.00271121
0.149251 0.00114907
0.151111 0.0030093
0.151251 0.00286896
0.151703 0.00332085
0.151828 0.00319585
0.152628 0.00399593
0.153934 0.00269028
0.154471 0.00322695
0.154551 0.00314655
0.154645 0.00324054
0.155047 0.00283855
0.155778 0.00356944
0.156789 0.0025581
0.156795 0.0025638
0.156833 0.00252572
0.156911 0.00260426
0.156997 0.00251842
0.158315 0.00383565
0.159112 0.00303789
0.160798 0.00472343
0.160798 0.00472317
0.161917 0.00584252
0.163927 0.00383271
0.164059 0.00396396
0.16457 0.00345206
0.165081 0.0039631
0.165784 0.00326088
0.166716 0.00419327
0.166733 0.0041768
0.167274 0.00471867
0.167411 0.00458186
0.169208 0.00637885
0.169255 0.0063316
0.169412 0.00648823
0.171085 0.00481575
0.171766 0.00549709
0.173139 0.00412449
0.173795 0.00478138
0.17408 0.00449697
0.175051 0.00546831
0.17526 0.00525946
0.175786 0.00578534
0.177392 0.00417938
0.177888 0.00467545
0.17852 0.00404367
0.179447 0.00497134
0.179554 0.00486455
0.179653 0.00496354
0.179678 0.00493862
0.180466 0.00572657
0.18061 0.00558263
0.180927 0.00589984
0.183996 0.00283097
0.18418 0.00301516
0.185902 0.00129303
0.186017 0.00140787
0.18692 0.000505538
0.187081 0.000666729
0.187747 0
inf 0


"layer 37:"
-inf 0
0.134389 0
0.134433 4.34297e-05
0.134476 0
0.134827 0
0.135212 0.00038526
0.135465 0.000132354
0.135805 0.000472214
0.136277 0
0.136378 0
0.136926 0.000548269
0.137068 0.000406212
0.138045 0.00138347
0.138257 0.00117177
0.138304 0.00121891
0.139314 0.00020907
0.140022 0.000917277
0.140171 0.000768273
0.140203 0.00079968
0.140331 0.000671004
0.140848 0.00118775
0.141115 0.00092031
0.1418 0.00160522
0.141971 0.00143422
0.142195 0.00165832
0.142368 0.001486
0.142467 0.00158525
0.142885 0.00116776
0.143148 0.00143119
0.143799 0.000780318
0.143855 0.00083598
0.143863 0.000827111
0.143874 0.000838072
0.14406 0.000652146
0.144193 0.00078534
0.14422 0.000758698
0.144853 0.0013913
0.144966 0.0012777
0.145425 0.00173677
0.14578 0.00138236
0.146099 0.00170178
0.146389 0.00141182
0.147548 0.00257017
0.14911 0.00100803
0.149251 0.00114907
0.149391 0.00100873
0.151251 0.00286896
0.151376 0.00274396
0.151828 0.00319585
0.153134 0.0018902
0.153934 0.00269028
0.154014 0.00260988
0.154551 0.00314655
0.154953 0.00274456
0.155047 0.00283855
0.156058 0.0018272
0.156789 0.0025581
0.156827 0.00252002
0.156833 0.00252572
0.156919 0.00243988
0.156997 0.00251842
0.157795 0.00172065
0.159112 0.00303789
0.159113 0.00303763
0.160798 0.00472317
0.162808 0.00271337
0.163927 0.00383271
0.164439 0.00332081
0.16457 0.00345206
0.165273 0.00274984
0.165784 0.00326088
0.1658 0.00324441
0.166733 0.0041768
0.166869 0.00403999
0.167411 0.00458186
0.167458 0.00453461
0.169255 0.0063316
0.170928 0.00465912
0.171085 0.00481575
0.172457 0.00344315
0.173139 0.00412449
0.173423 0.00384008
0.17408 0.00449697
0.174289 0.00428812
0.17526 0.00525946
0.176866 0.0036535
0.177392 0.00417938
0.178024 0.0035476
0.17852 0.00404367
0.178626 0.00393687
0.179554 0.00486455
0.179579 0.00483962
0.179678 0.00493862
0.179822 0.00479469
0.18061 0.00558263
0.183679 0.00251377
0.183996 0.00283097
0.185718 0.00110884
0.185902 0.00129303
0.186805 0.000390697
0.18692 0.000505538
0.187425 0
inf 0


"layer 38:"
-inf 0
0.135332 0
0.135465 0.000132354
0.135597 0
0.136662 0
0.137068 0.000406212
0.13728 0.00019451
0.138257 0.00117177
0.139267 0.000161929
0.139314 0.00020907
0.139463 6.00659e-05
0.140171 0.000768273
0.1403 0.000639598
0.140331 0.000671004
0.140599 0.000403568
0.141115 0.00092031
0.141286 0.000749302
0.141971 0.00143422
0.142144 0.00126189
0.142368 0.001486
0.142785 0.0010685
0.142885 0.00116776
0.143535 0.000516883
0.143799 0.000780318
0.143808 0.000771449
0.143863 0.000827111
0.144049 0.000641186
0.14406 0.000652146
0.144087 0.000625504
0.14422 0.000758698
0.144334 0.000645097
0.144966 0.0012777
0.145321 0.00092329
0.14578 0.00138236
0.14607 0.0010924
0.146389 0.00141182
0.147801 0
0.148102 0
0.14911 0.00100803
0.14925 0.000867692
0.149391 0.00100873
0.149516 0.000883733
0.151376 0.00274396
0.152682 0.00143831
0.153134 0.0018902
0.153214 0.0018098
0.154014 0.00260988
0.154416 0.00220788
0.154953 0.00274456
0.155964 0.00173321
0.156058 0.0018272
0.156096 0.00178912
0.156827 0.00252002
0.156913 0.00243418
0.156919 0.00243988
0.157717 0.00164211
0.157795 0.00172065
0.157795 0.0017204
0.159113 0.00303763
0.161122 0.00102783
0.162808 0.00271337
0.16332 0.00220147
0.164439 0.00332081
0.165141 0.00261859
0.165273 0.00274984
0.165289 0.00273337
0.1658 0.00324441
0.165937 0.00310761
0.166869 0.00403999
0.166917 0.00399274
0.167458 0.00453461
0.169131 0.00286213
0.170928 0.00465912
0.172301 0.00328651
0.172457 0.00344315
0.172742 0.00315874
0.173423 0.00384008
0.173632 0.00363123
0.174289 0.00428812
0.175895 0.00268216
0.176866 0.0036535
0.177498 0.00302172
0.178024 0.0035476
0.17813 0.0034408
0.178626 0.00393687
0.178651 0.00391195
0.179579 0.00483962
0.179723 0.00469569
0.179822 0.00479469
0.182891 0.00172582
0.183679 0.00251377
0.185401 0.000791639
0.185718 0.00110884
0.18662 0.000206511
0.186805 0.000390697
0.187195 0
inf 0


"layer 39:"
-inf 0
0.137085 0
0.13728 0.00019451
0.137474 0
0.139105 0
0.139267 0.000161929
0.139416 1.29242e-05
0.139463 6.00659e-05
0.139523 0
0.13966 0
0.1403 0.000639598
0.140567 0.000372162
0.140599 0.000403568
0.14077 0.00023256
0.141286 0.000749302
0.141459 0.00057698
0.142144 0.00126189
0.142561 0.000844399
0.142785 0.0010685
0.143436 0.000417626
0.143535 0.000516883
0.143544 0.000508014
0.143808 0.000771449
0.143994 0.000585524
0.144049 0.000641186
0.144076 0.000614543
0.144087 0.000625504
0.144201 0.000511904
0.144334 0.000645097
0.144688 0.000290683
0.145321 0.00092329
0.145611 0.000633332
0.14607 0.0010924
0.147162 0
0.148382 0
0.14925 0.000867692
0.149375 0.000742695
0.149516 0.000883733
0.1504 0
0.151244 0
0.152682 0.00143831
0.152762 0.00135791
0.153214 0.0018098
0.153616 0.0014078
0.154416 0.00220788
0.155428 0.00119654
0.155964 0.00173321
0.156002 0.00169513
0.156096 0.00178912
0.156182 0.00170329
0.156913 0.00243418
0.157711 0.00163641
0.157717 0.00164211
0.157717 0.00164186
0.157795 0.0017204
0.159516 0
0.160095 0
0.161122 0.00102783
0.161634 0.000515926
0.16332 0.00220147
0.164022 0.00149925
0.165141 0.00261859
0.165158 0.00260212
0.165289 0.00273337
0.165426 0.00259656
0.165937 0.00310761
0.165984 0.00306035
0.166917 0.00399274
0.167259 0.00365076
0.167293 0.00368543
0.168624 0.00235494
0.169131 0.00286213
0.170311 0.0016817
0.170361 0.00173171
0.170554 0.00153955
0.172301 0.00328651
0.172585 0.00300211
0.172742 0.00315874
0.17295 0.00294989
0.173632 0.00363123
0.175238 0.00202527
0.175895 0.00268216
0.176526 0.00205038
0.177498 0.00302172
0.177605 0.00291492
0.17813 0.0034408
0.178155 0.00341588
0.178651 0.00391195
0.178795 0.00376802
0.179723 0.00469569
0.182792 0.00162682
0.182891 0.00172582
0.184613 3.68957e-06
0.185401 0.000791639
0.186193 0
0.186414 0
0.18662 0.000206511
0.186827 0
inf 0


"layer 40:"
-inf 0
0.139403 0
0.139416 1.29242e-05
0.139429 0
0.140195 0
0.140567 0.000372162
0.140738 0.000201154
0.14077 0.00023256
0.140942 6.02383e-05
0.141459 0.00057698
0.141876 0.000159485
0.142561 0.000844399
0.143212 0.000193523
0.143436 0.000417626
0.143445 0.000408756
0.143544 0.000508014
0.14373 0.000322089
0.143994 0.000585524
0.14402 0.000558881
0.144076 0.000614543
0.14419 0.000500943
0.144201 0.000511904
0.144555 0.000157489
0.144688 0.000290683
0.144978 7.24778e-07
0.145611 0.000633332
0.146244 0
0.148632 0
0.149375 0.000742695
0.150118 0
0.151404 0
0.152762 0.00135791
0.153164 0.000955913
0.153616 0.0014078
0.154628 0.000396462
0.155428 0.00119654
0.155466 0.00115846
0.156002 0.00169513
0.156088 0.0016093
0.156182 0.00170329
0.15698 0.00090552
0.157711 0.00163641
0.157711 0.00163616
0.157717 0.00164186
0.159359 0
0.161118 0
0.161634 0.000515926
0.16215 0
0.162523 0
0.164022 0.00149925
0.164039 0.00148278
0.165158 0.00260212
0.165295 0.00246532
0.165426 0.00259656
0.165473 0.00254931
0.165984 0.00306035
0.166326 0.00271837
0.167259 0.00365076
0.168589 0.00232026
0.168624 0.00235494
0.169804 0.0011745
0.170311 0.0016817
0.170504 0.00148953
0.170554 0.00153955
0.170838 0.00125514
0.172585 0.00300211
0.172794 0.00279326
0.17295 0.00294989
0.174556 0.00134393
0.175238 0.00202527
0.17587 0.00139349
0.176526 0.00205038
0.176633 0.00194359
0.177605 0.00291492
0.177629 0.00289
0.178155 0.00341588
0.178299 0.00327195
0.178795 0.00376802
0.181864 0.000699149
0.182792 0.00162682
0.184419 0
0.184609 0
0.184613 3.68957e-06
0.184617 0
inf 0


"layer 41:"
-inf 0
0.140537 0
0.140738 0.000201154
0.140911 2.88318e-05
0.140942 6.02383e-05
0.141002 0
0.141717 0
0.141876 0.000159485
0.142036 0
0.143019 0
0.143212 0.000193523
0.143221 0.000184653
0.143445 0.000408756
0.143631 0.000222831
0.14373 0.000322089
0.143757 0.000295446
0.14402 0.000558881
0.144134 0.000445281
0.14419 0.000500943
0.144544 0.000146529
0.144555 0.000157489
0.144712 0
0.144977 0
0.144978 7.24778e-07
0.144979 0
0.152208 0
0.153164 0.000955913
0.15412 0
0.154231 0
0.154628 0.000396462
0.154638 0.000385548
0.154799 0.000546358
0.154826 0.000519193
0.155466 0.00115846
0.155552 0.00107262
0.156088 0.0016093
0.156886 0.00081153
0.15698 0.00090552
0.15698 0.000905268
0.157711 0.00163616
0.159347 0
0.162556 0
0.164039 0.00148278
0.164175 0.00134597
0.165295 0.00246532
0.165342 0.00241806
0.165473 0.00254931
0.165815 0.00220733
0.166326 0.00271837
0.167657 0.00138787
0.168589 0.00232026
0.16977 0.00113982
0.169804 0.0011745
0.169996 0.000982333
0.170504 0.00148953
0.170788 0.00120512
0.170838 0.00125514
0.171047 0.00104629
0.172794 0.00279326
0.1744 0.0011873
0.174556 0.00134393
0.175188 0.000712152
0.17587 0.00139349
0.175976 0.0012867
0.176633 0.00194359
0.176658 0.00191866
0.177629 0.00289
0.177773 0.00274607
0.178299 0.00327195
0.181368 0.000203078
0.181864 0.000699149
0.182563 0
inf 0


"layer 42:"
-inf 0
0.140882 0
0.140911 2.88318e-05
0.140939 0
0.143036 0
0.143221 0.000184653
0.143406 0
0.143408 0
0.143631 0.000222831
0.143658 0.000196188
0.143757 0.000295446
0.14387 0.000181846
0.144134 0.000445281
0.144488 9.08666e-05
0.144544 0.000146529
0.14469 0
0.154253 0
0.154638 0.000385548
0.154666 0.000358382
0.154826 0.000519193
0.154912 0.000433354
0.155552 0.00107262
0.155623 0.00100087
0.155899 0.00127708
0.156626 0.000551063
0.156886 0.00081153
0.156886 0.000811278
0.15698 0.000905268
0.157885 0
0.162829 0
0.164175 0.00134597
0.164223 0.00129872
0.165342 0.00241806
0.165684 0.00207608
0.165815 0.00220733
0.167146 0.00087683
0.167657 0.00138787
0.168837 0.00020744
0.16977 0.00113982
0.169962 0.000947656
0.169996 0.000982333
0.170281 0.000697923
0.170788 0.00120512
0.170997 0.000996272
0.171047 0.00104629
0.1715 0.000593345
0.173067 0.00216098
0.17422 0.00100796
0.1744 0.0011873
0.175032 0.000555518
0.175188 0.000712152
0.175295 0.000605354
0.175976 0.0012867
0.176001 0.00126177
0.176658 0.00191866
0.176802 0.00177473
0.177773 0.00274607
0.180519 0
0.181165 0
0.181368 0.000203078
0.181571 0
inf 0


"layer 43:"
-inf 0
0.143461 0
0.143658 0.000196188
0.143771 8.25881e-05
0.14387 0.000181846
0.144052 0
0.144397 0
0.144488 9.08666e-05
0.144579 0
0.154307 0
0.154666 0.000358382
0.154751 0.000272544
0.154912 0.000433354
0.154984 0.000361605
0.155623 0.00100087
0.156349 0.000274856
0.156626 0.000551063
0.156626 0.000550811
0.156886 0.000811278
0.157698 0
0.162924 0
0.164223 0.00129872
0.164565 0.000956736
0.165684 0.00207608
0.167014 0.000745582
0.167146 0.00087683
0.168022 0
0.16863 0
0.168837 0.00020744
0.169029 1.52718e-05
0.169962 0.000947656
0.170246 0.000663246
0.170281 0.000697923
0.17049 0.000489077
0.170997 0.000996272
0.17145 0.000543327
0.1715 0.000593345
0.172093 0
0.173212 0
0.17422 0.00100796
0.174852 0.000376183
0.175032 0.000555518
0.175138 0.00044872
0.175295 0.000605354
0.17532 0.000580429
0.176001 0.00126177
0.176145 0.00111784
0.176802 0.00177473
0.178577 0
inf 0


"layer 44:"
-inf 0
0.143689 0
0.143771 8.25881e-05
0.143854 0
0.154479 0
0.154751 0.000272544
0.154823 0.000200794
0.154984 0.000361605
0.155346 0
0.156074 0
0.156349 0.000274856
0.15635 0.000274605
0.156626 0.000550811
0.157177 0
0.163608 0
0.164565 0.000956736
0.164666 0.000855276
0.165554 0.00174279
0.166783 0.000513756
0.167014 0.000745582
0.16776 0
0.169014 0
0.169029 1.52718e-05
0.169045 0
0.169583 0
0.170246 0.000663246
0.170455 0.000454399
0.17049 0.000489077
0.170943 3.6132e-05
0.17145 0.000543327
0.171993 0
0.174476 0
0.174852 0.000376183
0.174959 0.000269385
0.175138 0.00044872
0.175163 0.000423795
0.17532 0.000580429
0.175464 0.000436497
0.176145 0.00111784
0.176948 0.000314582
0.177183 0.000549397
0.177733 0
inf 0


"layer 45:"
-inf 0
0.154622 0
0.154823 0.000200794
0.155024 0
0.156075 0
0.15635 0.000274605
0.156624 0
0.163811 0
0.164666 0.000855276
0.165521 0
0.166236 0
0.166242 5.96296e-06
0.166248 0
0.166269 0
0.166783 0.000513756
0.167296 0
0.170001 0
0.170455 0.000454399
0.170908 1.45441e-06
0.170943 3.6132e-05
0.170979 0
0.17469 0
0.174959 0.000269385
0.174984 0.00024446
0.175163 0.000423795
0.175307 0.000279863
0.175464 0.000436497
0.1759 0
0.176634 0
0.176948 0.000314582
0.177263 0
inf 0


"layer 46:"
-inf 0
0.170906 0
0.170908 1.45441e-06
0.170909 0
0.174739 0
0.174984 0.00024446
0.175128 0.000100528
0.175307 0.000279863
0.175587 0
inf 0


"layer 47:"
-inf 0
0.175027 0
0.175128 0.000100528
0.175228 0
inf 0


