# persistence landscape
# X Y
"layer 0:"
-inf 0
0.0627467 0
0.0665797 0.00383294
0.0704126 0
0.0740725 0
0.0772683 0.00319576
0.0785625 0.00190153
0.0810315 0.00437047
0.0816075 0.00379444
0.0909385 0.0131255
0.0937278 0.0103361
0.0949239 0.0115323
0.0956244 0.0108318
0.0999357 0.0151431
0.10656 0.00851925
0.115921 0.017881
0.117476 0.0163257
0.161935 0.0607847
0.168093 0.0546275
0.173364 0.0598992
0.179473 0.0537907
0.184265 0.0585832
0.195677 0.047171
0.206774 0.058267
0.207754 0.0572867
0.224042 0.0735752
0.297618 0
inf 0


"layer 1:"
-inf 0
0.076661 0
0.0785625 0.00190153
0.0791385 0.00132549
0.0816075 0.00379444
0.0836207 0.00178123
0.0836676 0.00182815
0.0844437 0.00105204
0.0937278 0.0103361
0.0944283 0.0096357
0.0956244 0.0108318
0.0975791 0.00887711
0.0979387 0.00923675
0.102608 0.0045676
0.10656 0.00851925
0.107285 0.00779388
0.111335 0.0118444
0.112165 0.0110146
0.117476 0.0163257
0.118103 0.0156994
0.128634 0.0262303
0.128731 0.0261335
0.143001 0.0404034
0.146577 0.0368267
0.159534 0.0497834
0.161391 0.0479262
0.168093 0.0546275
0.169982 0.0527382
0.173308 0.0560645
0.176572 0.0528009
0.177371 0.0536006
0.178327 0.0526449
0.179473 0.0537907
0.184743 0.0485205
0.186944 0.0507213
0.193086 0.0445793
0.195677 0.047171
0.196243 0.0466055
0.202036 0.0523987
0.202451 0.0519838
0.207754 0.0572867
0.224783 0.0402576
0.228836 0.0443104
0.273146 0
inf 0


"layer 2:"
-inf 0
0.0778131 0
0.0791385 0.00132549
0.080464 0
0.0818395 0
0.0836207 0.00178123
0.0843968 0.00100512
0.0844437 0.00105204
0.0851442 0.000351592
0.0944283 0.0096357
0.096383 0.007681
0.0975791 0.00887711
0.102248 0.00420796
0.102608 0.0045676
0.103146 0.00402942
0.104981 0.00586409
0.105168 0.00567689
0.107285 0.00779388
0.108115 0.00696401
0.112165 0.0110146
0.112792 0.0103882
0.118103 0.0156994
0.1182 0.0156025
0.128731 0.0261335
0.130022 0.024842
0.142081 0.0369006
0.143973 0.0350084
0.144337 0.0353727
0.14473 0.0349797
0.146577 0.0368267
0.148435 0.0349695
0.161391 0.0479262
0.163281 0.0460369
0.169982 0.0527382
0.173245 0.0494746
0.176572 0.0528009
0.177527 0.0518453
0.178327 0.0526449
0.183597 0.0473747
0.184743 0.0485205
0.188854 0.0444096
0.189613 0.0451684
0.191644 0.0431373
0.193086 0.0445793
0.193651 0.0440139
0.196243 0.0466055
0.196658 0.0461906
0.202451 0.0519838
0.21948 0.0349547
0.224783 0.0402576
0.265041 0
inf 0


"layer 3:"
-inf 0
0.0833917 0
0.0843968 0.00100512
0.0850973 0.00030467
0.0851442 0.000351592
0.0852788 0.000216982
0.0880405 0.00297874
0.0898606 0.00115865
0.096383 0.007681
0.100262 0.00380229
0.101264 0.00480418
0.102054 0.00401374
0.102248 0.00420796
0.102786 0.00366979
0.103146 0.00402942
0.103333 0.00384223
0.105168 0.00567689
0.105998 0.00484702
0.108115 0.00696401
0.108741 0.00633766
0.112792 0.0103882
0.112889 0.0102914
0.1182 0.0156025
0.119491 0.014311
0.130022 0.024842
0.131914 0.0229497
0.143973 0.0350084
0.144366 0.0346154
0.14473 0.0349797
0.146588 0.0331225
0.148435 0.0349695
0.150324 0.0330801
0.163281 0.0460369
0.164698 0.0446198
0.171387 0.0513094
0.173234 0.049463
0.173245 0.0494746
0.174201 0.048519
0.177527 0.0518453
0.182798 0.0465751
0.183597 0.0473747
0.187708 0.0432638
0.188854 0.0444096
0.190885 0.0423785
0.191644 0.0431373
0.192209 0.0425719
0.193651 0.0440139
0.194066 0.043599
0.196658 0.0461906
0.213687 0.0291615
0.21948 0.0349547
0.254435 0
inf 0


"layer 4:"
-inf 0
0.0847926 0
0.0850973 0.00030467
0.0852319 0.00017006
0.0852788 0.000216982
0.0854958 0
0.088702 0
0.0898606 0.00115865
0.0907044 0.000314847
0.0942029 0.00381328
0.0952366 0.00277959
0.0970787 0.00462172
0.0984406 0.00325985
0.0984416 0.00326085
0.0990809 0.00262151
0.100262 0.00380229
0.101052 0.00301185
0.102054 0.00401374
0.102592 0.00347557
0.102786 0.00366979
0.102974 0.00348259
0.103333 0.00384223
0.104163 0.00301236
0.105998 0.00484702
0.106624 0.00422067
0.108741 0.00633766
0.108776 0.0063026
0.109058 0.00658456
0.10912 0.00652275
0.112889 0.0102914
0.11418 0.00899988
0.119491 0.014311
0.121383 0.0124188
0.131914 0.0229497
0.132307 0.0225567
0.144366 0.0346154
0.146223 0.0327582
0.146588 0.0331225
0.148477 0.0312332
0.150324 0.0330801
0.151741 0.0316631
0.164698 0.0446198
0.166544 0.0427734
0.173234 0.049463
0.174189 0.0485073
0.174201 0.048519
0.179471 0.0432488
0.182798 0.0465751
0.186908 0.0424642
0.187708 0.0432638
0.188412 0.04256
0.188704 0.042852
0.190031 0.0415248
0.190885 0.0423785
0.19145 0.0418131
0.192209 0.0425719
0.192624 0.042157
0.194066 0.043599
0.211095 0.0265699
0.213687 0.0291615
0.242848 0
inf 0


"layer 5:"
-inf 0
0.0850618 0
0.0852319 0.00017006
0.0854019 0
0.0903896 0
0.0907044 0.000314847
0.0910193 0
0.092457 0
0.0952366 0.00277959
0.0965984 0.00141771
0.0984406 0.00325985
0.0990799 0.00262051
0.0990809 0.00262151
0.0998714 0.00183107
0.101052 0.00301185
0.10159 0.00247368
0.102592 0.00347557
0.102779 0.00328837
0.102974 0.00348259
0.103803 0.00265272
0.104163 0.00301236
0.104789 0.002386
0.106624 0.00422067
0.106659 0.00418561
0.108776 0.0063026
0.108838 0.0062408
0.10912 0.00652275
0.110074 0.00556905
0.113393 0.00888871
0.113731 0.00855093
0.11418 0.00899988
0.115782 0.00739801
0.116116 0.00773249
0.116407 0.00744209
0.121383 0.0124188
0.121776 0.0120258
0.132307 0.0225567
0.133734 0.0211299
0.145202 0.032598
0.145633 0.0321676
0.146223 0.0327582
0.148113 0.0308688
0.148477 0.0312332
0.149894 0.0298161
0.151741 0.0316631
0.152699 0.030705
0.155797 0.0338034
0.156686 0.032915
0.166544 0.0427734
0.166644 0.0426739
0.167856 0.043886
0.168712 0.0430299
0.174189 0.0485073
0.17946 0.0432372
0.179471 0.0432488
0.183582 0.0391379
0.186908 0.0424642
0.187612 0.0417603
0.188412 0.04256
0.189739 0.0412327
0.190031 0.0415248
0.190597 0.0409594
0.19145 0.0418131
0.191865 0.0413981
0.192624 0.042157
0.209653 0.0251279
0.211095 0.0265699
0.237665 0
inf 0


"layer 6:"
-inf 0
0.0951807 0
0.0965984 0.00141771
0.0972378 0.000778381
0.0990799 0.00262051
0.0998704 0.00183007
0.0998714 0.00183107
0.10041 0.0012929
0.10159 0.00247368
0.101778 0.00228648
0.102779 0.00328837
0.103609 0.0024585
0.103803 0.00265272
0.10443 0.00202637
0.104789 0.002386
0.104825 0.00235095
0.106659 0.00418561
0.106721 0.0041238
0.108838 0.0062408
0.109792 0.0052871
0.110074 0.00556905
0.110411 0.00523128
0.113731 0.00855093
0.115115 0.00716749
0.115459 0.00751192
0.115677 0.0072935
0.115782 0.00739801
0.116072 0.00710761
0.116407 0.00744209
0.1168 0.00704911
0.121776 0.0120258
0.123203 0.010599
0.133734 0.0211299
0.134165 0.0206995
0.145633 0.0321676
0.147522 0.0302783
0.148113 0.0308688
0.14953 0.0294517
0.149894 0.0298161
0.150852 0.028858
0.152699 0.030705
0.153587 0.0298166
0.156686 0.032915
0.156785 0.0328156
0.166644 0.0426739
0.1675 0.0418177
0.168712 0.0430299
0.168759 0.0429832
0.171822 0.0460468
0.177046 0.0408233
0.17946 0.0432372
0.183571 0.0391262
0.183582 0.0391379
0.184286 0.038434
0.187612 0.0417603
0.18894 0.0404331
0.189739 0.0412327
0.190305 0.0406673
0.190597 0.0409594
0.191012 0.0405444
0.191865 0.0413981
0.208894 0.0243691
0.209653 0.0251279
0.234541 0.000240055
0.235334 0.00103331
0.236368 0
inf 0


"layer 7:"
-inf 0
0.0964594 0
0.0972378 0.000778381
0.0980162 0
0.0980403 0
0.0998704 0.00183007
0.100409 0.0012919
0.10041 0.0012929
0.100597 0.0011057
0.101778 0.00228648
0.102607 0.00145661
0.103609 0.0024585
0.104236 0.00183215
0.10443 0.00202637
0.104465 0.00199131
0.104825 0.00235095
0.104886 0.00228914
0.106721 0.0041238
0.106996 0.00384849
0.10726 0.00411186
0.107938 0.00343347
0.109792 0.0052871
0.110129 0.00494932
0.110411 0.00523128
0.111795 0.00384783
0.115115 0.00716749
0.115333 0.00694907
0.115677 0.0072935
0.115968 0.0070031
0.116072 0.00710761
0.116465 0.00671463
0.1168 0.00704911
0.117416 0.00643257
0.121011 0.0100277
0.121822 0.00921744
0.123203 0.010599
0.123541 0.0102612
0.123889 0.0106091
0.123982 0.0105165
0.134165 0.0206995
0.134426 0.0204376
0.141052 0.0270633
0.14268 0.0254359
0.147522 0.0302783
0.148939 0.0288612
0.14953 0.0294517
0.150488 0.0284937
0.150852 0.028858
0.15174 0.0279696
0.153587 0.0298166
0.153687 0.0297171
0.156785 0.0328156
0.156838 0.0327627
0.159607 0.0355315
0.16041 0.0347282
0.1675 0.0418177
0.167546 0.0417711
0.168759 0.0429832
0.173982 0.0377597
0.177046 0.0408233
0.177239 0.0406304
0.178854 0.0422459
0.182772 0.0383278
0.183571 0.0391262
0.184274 0.0384224
0.184286 0.038434
0.185613 0.0371068
0.18894 0.0404331
0.189505 0.0398677
0.190305 0.0406673
0.19072 0.0402523
0.191012 0.0405444
0.208041 0.0235154
0.208894 0.0243691
0.233264 0
0.234301 0
0.234541 0.000240055
0.234781 0
inf 0


"layer 8:"
-inf 0
0.0991166 0
0.100409 0.0012919
0.100596 0.0011047
0.100597 0.0011057
0.101427 0.000275833
0.102607 0.00145661
0.103234 0.000830258
0.104236 0.00183215
0.104271 0.00179709
0.104465 0.00199131
0.104527 0.0019295
0.104886 0.00228914
0.105162 0.00201383
0.106996 0.00384849
0.107675 0.0031701
0.107938 0.00343347
0.108276 0.00309569
0.110129 0.00494932
0.111513 0.00356588
0.111795 0.00384783
0.112013 0.00362942
0.115333 0.00694907
0.115623 0.00665867
0.115968 0.0070031
0.116361 0.00661012
0.116465 0.00671463
0.117082 0.00609809
0.117416 0.00643257
0.118227 0.00562231
0.121822 0.00921744
0.122159 0.00887967
0.123541 0.0102612
0.123634 0.0101686
0.123982 0.0105165
0.124243 0.0102546
0.134426 0.0204376
0.136054 0.0188102
0.14268 0.0254359
0.144097 0.0240188
0.148939 0.0288612
0.149897 0.0279031
0.150488 0.0284937
0.151376 0.0276053
0.15174 0.0279696
0.15184 0.0278702
0.153687 0.0297171
0.15374 0.0296642
0.156838 0.0327627
0.157641 0.0319594
0.16041 0.0347282
0.160439 0.0346995
0.166978 0.0412382
0.166996 0.0412203
0.167546 0.0417711
0.17277 0.0365475
0.173982 0.0377597
0.174175 0.0375668
0.177239 0.0406304
0.181157 0.0367123
0.182772 0.0383278
0.183476 0.037624
0.184274 0.0384224
0.185602 0.0370951
0.185613 0.0371068
0.186179 0.0365414
0.189505 0.0398677
0.18992 0.0394527
0.19072 0.0402523
0.207749 0.0232233
0.208041 0.0235154
0.231556 0
inf 0


"layer 9:"
-inf 0
0.099491 0
0.100596 0.0011047
0.101426 0.000274831
0.101427 0.000275833
0.101702 0
0.102403 0
0.103234 0.000830258
0.103269 0.000795201
0.104271 0.00179709
0.104332 0.00173528
0.104527 0.0019295
0.104802 0.00165419
0.105162 0.00201383
0.10584 0.00133544
0.107675 0.0031701
0.108012 0.00283233
0.108276 0.00309569
0.109659 0.00171225
0.111513 0.00356588
0.111731 0.00334746
0.112013 0.00362942
0.112304 0.00333902
0.115623 0.00665867
0.116016 0.00626569
0.116361 0.00661012
0.116977 0.00599357
0.117082 0.00609809
0.117892 0.00528784
0.118227 0.00562231
0.118564 0.00528454
0.122159 0.00887967
0.122252 0.00878702
0.123634 0.0101686
0.123896 0.00990667
0.124243 0.0102546
0.125023 0.00947508
0.132871 0.017323
0.133719 0.0164751
0.136054 0.0188102
0.137471 0.0173931
0.144097 0.0240188
0.145055 0.0230608
0.149897 0.0279031
0.150786 0.0270147
0.151376 0.0276053
0.151476 0.0275058
0.15184 0.0278702
0.151893 0.0278173
0.15374 0.0296642
0.154226 0.0291783
0.155227 0.0301795
0.155544 0.0298622
0.157641 0.0319594
0.15767 0.0319307
0.160439 0.0346995
0.160457 0.0346816
0.166996 0.0412203
0.172219 0.0359967
0.17277 0.0365475
0.172963 0.0363547
0.174175 0.0375668
0.178093 0.0336488
0.181157 0.0367123
0.18186 0.0360085
0.183476 0.037624
0.184803 0.0362967
0.185602 0.0370951
0.186167 0.0365297
0.186179 0.0365414
0.186594 0.0361264
0.18992 0.0394527
0.206949 0.0224237
0.207749 0.0232233
0.230972 0
inf 0


"layer 10:"
-inf 0
0.101151 0
0.101426 0.000274831
0.1017 0
0.102474 0
0.103269 0.000795201
0.103331 0.000733394
0.104332 0.00173528
0.104608 0.00145997
0.104802 0.00165419
0.10548 0.000975801
0.10584 0.00133544
0.106178 0.000997664
0.108012 0.00283233
0.109186 0.00165837
0.109363 0.00183472
0.109572 0.00162523
0.109659 0.00171225
0.109878 0.00149383
0.111731 0.00334746
0.112022 0.00305706
0.112304 0.00333902
0.112697 0.00294604
0.116016 0.00626569
0.116633 0.00564915
0.116977 0.00599357
0.117788 0.00518332
0.117892 0.00528784
0.11823 0.00495006
0.118564 0.00528454
0.118657 0.00519189
0.122252 0.00878702
0.122514 0.00852513
0.123896 0.00990667
0.124675 0.00912713
0.125023 0.00947508
0.125871 0.00862718
0.133719 0.0164751
0.133985 0.0162089
0.134618 0.0168423
0.135769 0.0156914
0.137471 0.0173931
0.138429 0.016435
0.145055 0.0230608
0.145943 0.0221724
0.150786 0.0270147
0.150885 0.0269153
0.151476 0.0275058
0.151528 0.0274529
0.151893 0.0278173
0.152379 0.0273313
0.154226 0.0291783
0.154543 0.028861
0.155544 0.0298622
0.155573 0.0298335
0.15767 0.0319307
0.157688 0.0319127
0.160457 0.0346816
0.164114 0.0310242
0.166274 0.0331835
0.16784 0.0316173
0.172219 0.0359967
0.172412 0.0358038
0.172963 0.0363547
0.173295 0.0360228
0.173597 0.0363252
0.177183 0.032739
0.178093 0.0336488
0.178797 0.0329449
0.18186 0.0360085
0.183188 0.0346812
0.184803 0.0362967
0.185369 0.0357313
0.186167 0.0365297
0.186582 0.0361148
0.186594 0.0361264
0.203623 0.0190973
0.206949 0.0224237
0.229373 0
inf 0


"layer 11:"
-inf 0
0.102597 0
0.103331 0.000733394
0.103606 0.000458085
0.104608 0.00145997
0.105286 0.000781584
0.10548 0.000975801
0.105818 0.000638025
0.106178 0.000997664
0.106597 0.000578808
0.10838 0.00236233
0.109135 0.00160724
0.109186 0.00165837
0.109396 0.00144888
0.109572 0.00162523
0.109791 0.00140681
0.109878 0.00149383
0.110168 0.00120343
0.112022 0.00305706
0.112415 0.00266408
0.112697 0.00294604
0.112732 0.00291073
0.113116 0.00329469
0.113282 0.0031287
0.114007 0.0038535
0.114422 0.00343824
0.116633 0.00564915
0.117443 0.00483889
0.117788 0.00518332
0.118125 0.00484554
0.11823 0.00495006
0.118322 0.00485741
0.118657 0.00519189
0.118919 0.00493
0.122514 0.00852513
0.123294 0.0077456
0.124675 0.00912713
0.125523 0.00827923
0.125871 0.00862718
0.126137 0.00836104
0.133985 0.0162089
0.135136 0.015058
0.135769 0.0156914
0.136727 0.0147333
0.138429 0.016435
0.139317 0.0155467
0.145943 0.0221724
0.146043 0.0220729
0.150885 0.0269153
0.150938 0.0268624
0.151528 0.0274529
0.152014 0.0269669
0.152379 0.0273313
0.152696 0.027014
0.154543 0.028861
0.154572 0.0288323
0.155573 0.0298335
0.155591 0.0298155
0.157688 0.0319127
0.161346 0.0282553
0.164114 0.0310242
0.16568 0.029458
0.16784 0.0316173
0.168033 0.0314244
0.172412 0.0358038
0.172744 0.035472
0.173295 0.0360228
0.175578 0.0337393
0.175767 0.0339277
0.177069 0.032625
0.177183 0.032739
0.177887 0.0320352
0.178797 0.0329449
0.180124 0.0316176
0.183188 0.0346812
0.183753 0.0341158
0.185369 0.0357313
0.185784 0.0353164
0.186582 0.0361148
0.203611 0.0190857
0.203623 0.0190973
0.212386 0.0103339
0.214922 0.01287
0.227792 0
inf 0


"layer 12:"
-inf 0
0.103148 0
0.103606 0.000458085
0.104064 0
0.104505 0
0.105286 0.000781584
0.105624 0.000443808
0.105818 0.000638025
0.106237 0.00021917
0.106597 0.000578808
0.107175 0
0.107528 0
0.109135 0.00160724
0.109345 0.00139774
0.109396 0.00144888
0.109614 0.00123046
0.109791 0.00140681
0.110081 0.00111641
0.110168 0.00120343
0.110561 0.000810449
0.112415 0.00266408
0.11245 0.00262878
0.112732 0.00291073
0.112898 0.00274475
0.113282 0.0031287
0.113697 0.00271345
0.114422 0.00343824
0.115232 0.00262799
0.117443 0.00483889
0.117781 0.00450112
0.118125 0.00484554
0.118218 0.00475289
0.118322 0.00485741
0.118584 0.00459552
0.118919 0.00493
0.119698 0.00415047
0.123294 0.0077456
0.124141 0.0068977
0.125523 0.00827923
0.125789 0.00801309
0.126137 0.00836104
0.127288 0.00721009
0.135136 0.015058
0.136094 0.0140999
0.136727 0.0147333
0.137616 0.0138449
0.139317 0.0155467
0.139417 0.0154472
0.146043 0.0220729
0.146096 0.02202
0.150938 0.0268624
0.151424 0.0263764
0.152014 0.0269669
0.152332 0.0266497
0.152696 0.027014
0.152725 0.0269853
0.154572 0.0288323
0.15459 0.0288143
0.155591 0.0298155
0.158146 0.0272604
0.159813 0.0289271
0.160915 0.0278248
0.161346 0.0282553
0.162912 0.0266892
0.16568 0.029458
0.165873 0.0292652
0.168033 0.0314244
0.168365 0.0310926
0.172744 0.035472
0.175027 0.0331885
0.175578 0.0337393
0.176881 0.0324366
0.177069 0.032625
0.177773 0.0319212
0.177887 0.0320352
0.179214 0.0307079
0.180124 0.0316176
0.18069 0.0310522
0.183753 0.0341158
0.184168 0.0337009
0.185784 0.0353164
0.19833 0.0227695
0.198727 0.0231657
0.203209 0.0186835
0.203611 0.0190857
0.212374 0.0103223
0.212386 0.0103339
0.22272 0
inf 0


"layer 13:"
-inf 0
0.10518 0
0.105624 0.000443808
0.106043 2.49529e-05
0.106237 0.00021917
0.106456 0
0.107947 0
0.109345 0.00139774
0.109563 0.00117932
0.109614 0.00123046
0.109905 0.000940064
0.110081 0.00111641
0.110474 0.000723431
0.110561 0.000810449
0.110596 0.000775147
0.11245 0.00262878
0.112616 0.00246279
0.112898 0.00274475
0.113313 0.00232949
0.113697 0.00271345
0.114507 0.00190319
0.115232 0.00262799
0.11557 0.00229021
0.117781 0.00450112
0.117874 0.00440847
0.118218 0.00475289
0.11848 0.00449101
0.118584 0.00459552
0.119364 0.00381599
0.119698 0.00415047
0.120546 0.00330257
0.124141 0.0068977
0.124408 0.00663156
0.125789 0.00801309
0.126131 0.00767115
0.126251 0.00779153
0.12706 0.00698252
0.127288 0.00721009
0.128246 0.00625201
0.136094 0.0140999
0.136982 0.0132115
0.137616 0.0138449
0.137715 0.0137454
0.139417 0.0154472
0.13947 0.0153943
0.146096 0.02202
0.146552 0.0215636
0.151272 0.0262832
0.151301 0.0262536
0.151424 0.0263764
0.151741 0.0260591
0.152332 0.0266497
0.15236 0.026621
0.152725 0.0269853
0.152743 0.0269673
0.15459 0.0288143
0.15682 0.0265845
0.157496 0.0272606
0.157821 0.0269353
0.158146 0.0272604
0.159248 0.0261581
0.160915 0.0278248
0.162481 0.0262586
0.162912 0.0266892
0.163105 0.0264963
0.165873 0.0292652
0.166205 0.0289333
0.168365 0.0310926
0.170648 0.0288091
0.175027 0.0331885
0.17633 0.0318858
0.176881 0.0324366
0.177585 0.0317328
0.177773 0.0319212
0.1791 0.0305939
0.179214 0.0307079
0.17978 0.0301425
0.18069 0.0310522
0.181105 0.0306373
0.184168 0.0337009
0.196715 0.021154
0.19833 0.0227695
0.202813 0.0182873
0.203209 0.0186835
0.211972 0.00992011
0.212374 0.0103223
0.222697 0
inf 0


"layer 14:"
-inf 0
0.106018 0
0.106043 2.49529e-05
0.106068 0
0.108384 0
0.109563 0.00117932
0.109854 0.000888925
0.109905 0.000940064
0.110298 0.000547086
0.110474 0.000723431
0.110509 0.000688128
0.110596 0.000775147
0.110762 0.000609161
0.112616 0.00246279
0.113031 0.00204754
0.113313 0.00232949
0.114123 0.00151924
0.114507 0.00190319
0.114845 0.00156542
0.11557 0.00229021
0.115663 0.00219756
0.117874 0.00440847
0.118135 0.00414658
0.11848 0.00449101
0.119259 0.00371148
0.119364 0.00381599
0.120212 0.00296809
0.120546 0.00330257
0.120812 0.00303643
0.124408 0.00663156
0.12475 0.00628962
0.126131 0.00767115
0.12694 0.00686214
0.12706 0.00698252
0.128018 0.00602444
0.128246 0.00625201
0.128823 0.00567472
0.13076 0.00761183
0.131072 0.00730075
0.136982 0.0132115
0.137082 0.0131121
0.137715 0.0137454
0.137768 0.0136926
0.13947 0.0153943
0.139926 0.0149379
0.146552 0.0215636
0.146582 0.021534
0.151301 0.0262536
0.151618 0.0259364
0.151741 0.0260591
0.15177 0.0260304
0.15236 0.026621
0.152378 0.026603
0.152743 0.0269673
0.154973 0.0247375
0.15682 0.0265845
0.157145 0.0262592
0.157821 0.0269353
0.158923 0.025833
0.159248 0.0261581
0.160814 0.024592
0.162481 0.0262586
0.162674 0.0260657
0.163105 0.0264963
0.163436 0.0261644
0.166205 0.0289333
0.168489 0.0266498
0.170648 0.0288091
0.170826 0.0286306
0.173245 0.0310496
0.17437 0.0299254
0.17633 0.0318858
0.177034 0.031182
0.177585 0.0317328
0.178912 0.0304055
0.1791 0.0305939
0.179666 0.0300285
0.17978 0.0301425
0.180195 0.0297276
0.181105 0.0306373
0.193651 0.0180904
0.196715 0.021154
0.201197 0.0166718
0.202813 0.0182873
0.211576 0.00952388
0.211972 0.00992011
0.221892 0
inf 0


"layer 15:"
-inf 0
0.108965 0
0.109854 0.000888925
0.110247 0.000495947
0.110298 0.000547086
0.110333 0.000511784
0.110509 0.000688128
0.110675 0.000522143
0.110762 0.000609161
0.111178 0.000193907
0.113031 0.00204754
0.113842 0.00123728
0.114123 0.00151924
0.114461 0.00118146
0.114845 0.00156542
0.114938 0.00147277
0.115663 0.00219756
0.115925 0.00193567
0.118135 0.00414658
0.118915 0.00336705
0.119259 0.00371148
0.120107 0.00286357
0.120212 0.00296809
0.120478 0.00270195
0.120812 0.00303643
0.121154 0.00269449
0.12475 0.00628962
0.125559 0.00548061
0.12694 0.00686214
0.127898 0.00590407
0.128018 0.00602444
0.128596 0.00544715
0.128823 0.00567472
0.129134 0.00536364
0.131072 0.00730075
0.131137 0.00723572
0.136945 0.0130443
0.13698 0.0130099
0.137082 0.0131121
0.137135 0.0130592
0.137768 0.0136926
0.138224 0.0132362
0.139926 0.0149379
0.139956 0.0149083
0.146582 0.021534
0.146899 0.0212167
0.151618 0.0259364
0.151647 0.0259077
0.15177 0.0260304
0.151788 0.0260125
0.152378 0.026603
0.154608 0.0243732
0.154973 0.0247375
0.155298 0.0244122
0.157145 0.0262592
0.157346 0.0260576
0.157892 0.0266027
0.158792 0.0257021
0.158923 0.025833
0.160489 0.0242668
0.160814 0.024592
0.161007 0.0243991
0.162674 0.0260657
0.163006 0.0257339
0.163436 0.0261644
0.16425 0.0253506
0.165012 0.026112
0.166481 0.0246423
0.168489 0.0266498
0.168667 0.0264714
0.170826 0.0286306
0.170832 0.0286255
0.172767 0.0305609
0.173886 0.0294418
0.17437 0.0299254
0.175073 0.0292215
0.177034 0.031182
0.178361 0.0298547
0.178912 0.0304055
0.179477 0.0298401
0.179666 0.0300285
0.180081 0.0296135
0.180195 0.0297276
0.192742 0.0171807
0.193651 0.0180904
0.198134 0.0136082
0.201197 0.0166718
0.209961 0.00790838
0.211576 0.00952388
0.2211 0
inf 0


"layer 16:"
-inf 0
0.109751 0
0.110247 0.000495947
0.110282 0.000460644
0.110333 0.000511784
0.110499 0.000345798
0.110675 0.000522143
0.111091 0.000106888
0.111178 0.000193907
0.111372 0
0.112604 0
0.113842 0.00123728
0.114179 0.000899505
0.114461 0.00118146
0.114554 0.00108881
0.114938 0.00147277
0.1152 0.00121088
0.115925 0.00193567
0.116704 0.00115614
0.118915 0.00336705
0.119763 0.00251915
0.120107 0.00286357
0.120373 0.00259743
0.120478 0.00270195
0.12082 0.00236001
0.121154 0.00269449
0.121963 0.00188548
0.125559 0.00548061
0.126517 0.00452253
0.127898 0.00590407
0.128475 0.00532677
0.128596 0.00544715
0.128907 0.00513607
0.129134 0.00536364
0.129199 0.0052986
0.131137 0.00723572
0.131171 0.00720127
0.13698 0.0130099
0.137033 0.012957
0.137135 0.0130592
0.137591 0.0126028
0.138224 0.0132362
0.138254 0.0132066
0.139956 0.0149083
0.140273 0.014591
0.146899 0.0212167
0.146927 0.0211881
0.151647 0.0259077
0.151665 0.0258897
0.151788 0.0260125
0.154018 0.0237826
0.154608 0.0243732
0.154933 0.0240479
0.155298 0.0244122
0.155499 0.0242106
0.157346 0.0260576
0.158247 0.0251569
0.158792 0.0257021
0.160358 0.0241359
0.160489 0.0242668
0.160682 0.024074
0.161007 0.0243991
0.161339 0.0240672
0.163006 0.0257339
0.16382 0.02492
0.16425 0.0253506
0.16572 0.0238809
0.166481 0.0246423
0.16666 0.0244639
0.168667 0.0264714
0.168672 0.0264662
0.170832 0.0286255
0.171951 0.0275064
0.173886 0.0294418
0.17459 0.0287379
0.175073 0.0292215
0.176401 0.0278942
0.178361 0.0298547
0.178927 0.0292893
0.179477 0.0298401
0.179892 0.0294251
0.180081 0.0296135
0.192628 0.0170667
0.192742 0.0171807
0.197224 0.0126985
0.198134 0.0136082
0.206897 0.0048448
0.209961 0.00790838
0.217869 0
inf 0


"layer 17:"
-inf 0
0.109821 0
0.110282 0.000460644
0.110448 0.000294659
0.110499 0.000345798
0.110845 0
0.110984 0
0.111091 0.000106888
0.111197 0
0.11328 0
0.114179 0.000899505
0.114272 0.000806855
0.114554 0.00108881
0.114816 0.000826926
0.1152 0.00121088
0.115979 0.00043135
0.116704 0.00115614
0.117552 0.00030824
0.119763 0.00251915
0.120029 0.00225301
0.120373 0.00259743
0.120715 0.00225549
0.12082 0.00236001
0.121629 0.001551
0.121963 0.00188548
0.122365 0.00148427
0.125034 0.00415372
0.125591 0.00359685
0.126517 0.00452253
0.127094 0.00394524
0.128475 0.00532677
0.128786 0.00501569
0.128907 0.00513607
0.128972 0.00507103
0.129199 0.0052986
0.129234 0.00526416
0.131171 0.00720127
0.131224 0.00714838
0.137033 0.012957
0.137489 0.0125006
0.137591 0.0126028
0.137621 0.0125732
0.138254 0.0132066
0.138571 0.0128893
0.140273 0.014591
0.140302 0.0145623
0.146927 0.0211881
0.146945 0.0211701
0.151665 0.0258897
0.153895 0.0236599
0.154018 0.0237826
0.154343 0.0234573
0.154933 0.0240479
0.155135 0.0238463
0.155499 0.0242106
0.1564 0.0233099
0.158247 0.0251569
0.159813 0.0235908
0.160358 0.0241359
0.160551 0.023943
0.160682 0.024074
0.161014 0.0237421
0.161339 0.0240672
0.162153 0.0232534
0.16382 0.02492
0.165289 0.0234504
0.16572 0.0238809
0.165898 0.0237025
0.16666 0.0244639
0.166665 0.0244587
0.168672 0.0264662
0.169307 0.0258312
0.170443 0.0269671
0.170927 0.026483
0.171951 0.0275064
0.172655 0.0268025
0.17459 0.0287379
0.175917 0.0274107
0.176401 0.0278942
0.176966 0.0273288
0.178927 0.0292893
0.179342 0.0288743
0.179892 0.0294251
0.192439 0.0168783
0.192628 0.0170667
0.19711 0.0125845
0.197224 0.0126985
0.205987 0.00393508
0.206897 0.0048448
0.211742 0
inf 0


"layer 18:"
-inf 0
0.110153 0
0.110448 0.000294659
0.110743 0
0.113465 0
0.114272 0.000806855
0.114534 0.000544967
0.114816 0.000826926
0.11496 0.0006827
0.115241 0.000963781
0.115876 0.000328476
0.115979 0.00043135
0.116411 0
0.117244 0
0.117552 0.00030824
0.117818 4.20996e-05
0.120029 0.00225301
0.120371 0.00191107
0.120715 0.00225549
0.121524 0.00144648
0.121629 0.001551
0.12203 0.00114979
0.122365 0.00148427
0.122921 0.000927405
0.125591 0.00359685
0.126168 0.00301955
0.127094 0.00394524
0.127405 0.00363416
0.128786 0.00501569
0.128852 0.00495066
0.128972 0.00507103
0.129006 0.00503659
0.129234 0.00526416
0.129287 0.00521127
0.131224 0.00714838
0.13168 0.006692
0.137489 0.0125006
0.137519 0.012471
0.137621 0.0125732
0.137938 0.0122559
0.138571 0.0128893
0.1386 0.0128606
0.140302 0.0145623
0.14032 0.0145444
0.146945 0.0211701
0.147277 0.0208382
0.149343 0.0229042
0.151241 0.0210062
0.153895 0.0236599
0.15422 0.0233346
0.154343 0.0234573
0.154545 0.0232557
0.155135 0.0238463
0.156036 0.0229456
0.1564 0.0233099
0.156675 0.0230348
0.158099 0.0244586
0.15939 0.0231676
0.159813 0.0235908
0.160006 0.0233979
0.160551 0.023943
0.160883 0.0236111
0.161014 0.0237421
0.161828 0.0229283
0.162153 0.0232534
0.163623 0.0217837
0.165289 0.0234504
0.165468 0.0232719
0.165898 0.0237025
0.165903 0.0236974
0.166665 0.0244587
0.1673 0.0238237
0.169307 0.0258312
0.169791 0.0253471
0.170927 0.026483
0.171631 0.0257791
0.172655 0.0268025
0.173982 0.0254753
0.175917 0.0274107
0.176483 0.0268453
0.176966 0.0273288
0.177381 0.0269139
0.179342 0.0288743
0.18151 0.0267054
0.181526 0.0267209
0.191904 0.0163429
0.192439 0.0168783
0.196921 0.0123961
0.19711 0.0125845
0.200762 0.00893269
0.200845 0.00901627
0.205957 0.00390465
0.205987 0.00393508
0.209922 0
inf 0


"layer 19:"
-inf 0
0.113989 0
0.114534 0.000544967
0.114678 0.000400741
0.11496 0.0006827
0.115595 4.73957e-05
0.115876 0.000328476
0.116205 0
0.117776 0
0.117818 4.20996e-05
0.11786 0
0.11846 0
0.120371 0.00191107
0.12118 0.00110206
0.121524 0.00144648
0.121926 0.00104528
0.12203 0.00114979
0.122587 0.000592926
0.122921 0.000927405
0.123499 0.000350108
0.126168 0.00301955
0.126479 0.00270847
0.127405 0.00363416
0.12747 0.00356912
0.128852 0.00495066
0.128886 0.00491622
0.129006 0.00503659
0.129059 0.0049837
0.129287 0.00521127
0.129743 0.00475489
0.13168 0.006692
0.13171 0.00666239
0.137519 0.012471
0.137836 0.0121537
0.137938 0.0122559
0.137967 0.0122272
0.1386 0.0128606
0.138618 0.0128426
0.14032 0.0145444
0.140652 0.0142125
0.147277 0.0208382
0.149175 0.0189403
0.151241 0.0210062
0.151566 0.0206809
0.15422 0.0233346
0.154422 0.023133
0.154545 0.0232557
0.155445 0.0223551
0.156036 0.0229456
0.156311 0.0226705
0.156675 0.0230348
0.157966 0.0217438
0.15939 0.0231676
0.159583 0.0229747
0.160006 0.0233979
0.160338 0.023066
0.160883 0.0236111
0.161697 0.0227973
0.161828 0.0229283
0.163298 0.0214586
0.163623 0.0217837
0.163801 0.0216053
0.165468 0.0232719
0.165473 0.0232668
0.165903 0.0236974
0.166538 0.0230624
0.1673 0.0238237
0.167784 0.0233396
0.169791 0.0253471
0.170495 0.0246433
0.171631 0.0257791
0.172958 0.0244519
0.173982 0.0254753
0.174547 0.0249099
0.176483 0.0268453
0.176898 0.0264303
0.177381 0.0269139
0.17955 0.024745
0.18151 0.0267054
0.191888 0.0163275
0.191904 0.0163429
0.196386 0.0118607
0.196921 0.0123961
0.200573 0.00874429
0.200762 0.00893269
0.205873 0.00382106
0.205957 0.00390465
0.209861 0
inf 0


"layer 20:"
-inf 0
0.114277 0
0.114678 0.000400741
0.115079 0
0.115548 0
0.115595 4.73957e-05
0.115643 0
0.120078 0
0.12118 0.00110206
0.121581 0.000700851
0.121926 0.00104528
0.122482 0.000488409
0.122587 0.000592926
0.123164 1.5629e-05
0.123499 0.000350108
0.12381 3.90284e-05
0.126479 0.00270847
0.126544 0.00264344
0.12747 0.00356912
0.127504 0.00353468
0.128886 0.00491622
0.128939 0.00486332
0.129059 0.0049837
0.129516 0.00452732
0.129743 0.00475489
0.129773 0.00472528
0.13171 0.00666239
0.132027 0.00634512
0.137836 0.0121537
0.137864 0.012125
0.137967 0.0122272
0.137985 0.0122093
0.138618 0.0128426
0.13895 0.0125108
0.140652 0.0142125
0.140742 0.0141221
0.141448 0.0148285
0.142903 0.0133741
0.144812 0.0152829
0.145165 0.0149297
0.149175 0.0189403
0.149501 0.018615
0.151566 0.0206809
0.151768 0.0204793
0.154422 0.023133
0.155322 0.0222323
0.155445 0.0223551
0.15572 0.0220799
0.156311 0.0226705
0.157602 0.0213795
0.157966 0.0217438
0.158159 0.0215509
0.159583 0.0229747
0.159915 0.0226428
0.160338 0.023066
0.161152 0.0222522
0.161697 0.0227973
0.163167 0.0213276
0.163298 0.0214586
0.163476 0.0212802
0.163801 0.0216053
0.163806 0.0216002
0.165473 0.0232668
0.166108 0.0226318
0.166538 0.0230624
0.167023 0.0225783
0.167784 0.0233396
0.168488 0.0226358
0.170495 0.0246433
0.171823 0.023316
0.172958 0.0244519
0.173524 0.0238865
0.174547 0.0249099
0.174962 0.0244949
0.176898 0.0264303
0.179066 0.0242614
0.17955 0.024745
0.188302 0.0159925
0.190009 0.0176988
0.191634 0.0160733
0.191888 0.0163275
0.196371 0.0118453
0.196386 0.0118607
0.200038 0.00820893
0.200573 0.00874429
0.205685 0.00363266
0.205873 0.00382106
0.209694 0
inf 0


"layer 21:"
-inf 0
0.12088 0
0.121581 0.000700851
0.122138 0.000143983
0.122482 0.000488409
0.122971 0
0.123149 0
0.123164 1.5629e-05
0.12318 0
0.123771 0
0.12381 3.90284e-05
0.123849 0
0.123901 0
0.126544 0.00264344
0.126579 0.002609
0.127504 0.00353468
0.127557 0.00348179
0.128939 0.00486332
0.129395 0.00440694
0.129516 0.00452732
0.129545 0.00449771
0.129773 0.00472528
0.13009 0.004408
0.132027 0.00634512
0.132056 0.00631643
0.137864 0.012125
0.137882 0.0121071
0.137985 0.0122093
0.138316 0.0118774
0.13895 0.0125108
0.13904 0.0124204
0.140742 0.0141221
0.14109 0.0137738
0.141119 0.0138022
0.142225 0.0126962
0.142903 0.0133741
0.143256 0.0130209
0.145165 0.0149297
0.14549 0.0146044
0.149501 0.018615
0.149702 0.0184134
0.151768 0.0204793
0.152669 0.0195786
0.155322 0.0222323
0.155598 0.0219572
0.15572 0.0220799
0.157011 0.0207889
0.157602 0.0213795
0.157795 0.0211866
0.158159 0.0215509
0.158491 0.021219
0.159915 0.0226428
0.160729 0.021829
0.161152 0.0222522
0.162622 0.0207825
0.163167 0.0213276
0.163345 0.0211492
0.163476 0.0212802
0.163481 0.021275
0.163806 0.0216002
0.164441 0.0209652
0.166108 0.0226318
0.166592 0.0221477
0.167023 0.0225783
0.167726 0.0218744
0.168488 0.0226358
0.169815 0.0213085
0.171823 0.023316
0.172388 0.0227506
0.173524 0.0238865
0.173939 0.0234715
0.174962 0.0244949
0.177131 0.022326
0.179066 0.0242614
0.183901 0.0194265
0.184196 0.0197217
0.188114 0.0158041
0.188302 0.0159925
0.189928 0.014367
0.191634 0.0160733
0.193763 0.0139442
0.193768 0.0139484
0.196121 0.0115954
0.196371 0.0118453
0.200022 0.00819349
0.200038 0.00820893
0.20515 0.0030973
0.205685 0.00363266
0.209318 0
inf 0


"layer 22:"
-inf 0
0.121994 0
0.122138 0.000143983
0.122282 0
0.12397 0
0.126579 0.002609
0.126632 0.00255611
0.127557 0.00348179
0.128014 0.00302541
0.129395 0.00440694
0.129425 0.00437734
0.129545 0.00449771
0.129863 0.00418043
0.13009 0.004408
0.130119 0.00437932
0.132056 0.00631643
0.132074 0.00629846
0.137882 0.0121071
0.138214 0.0117752
0.138316 0.0118774
0.138407 0.011787
0.13904 0.0124204
0.139389 0.0120721
0.14109 0.0137738
0.142196 0.0126677
0.142225 0.0126962
0.142578 0.012343
0.143256 0.0130209
0.143581 0.0126956
0.14549 0.0146044
0.145692 0.0144028
0.149702 0.0184134
0.150603 0.0175127
0.152669 0.0195786
0.152944 0.0193035
0.155598 0.0219572
0.156889 0.0206662
0.157011 0.0207889
0.157204 0.020596
0.157795 0.0211866
0.158127 0.0208547
0.158491 0.021219
0.159305 0.0204052
0.160729 0.021829
0.162198 0.0203593
0.162622 0.0207825
0.1628 0.0206041
0.163345 0.0211492
0.16335 0.0211441
0.163481 0.021275
0.164116 0.02064
0.164441 0.0209652
0.164925 0.0204811
0.166592 0.0221477
0.167296 0.0214439
0.167726 0.0218744
0.169054 0.0205472
0.169815 0.0213085
0.17038 0.0207431
0.172388 0.0227506
0.172803 0.0223357
0.173939 0.0234715
0.176108 0.0213026
0.177131 0.022326
0.181966 0.0174911
0.183901 0.0194265
0.187819 0.015509
0.188114 0.0158041
0.18974 0.0141786
0.189928 0.014367
0.192057 0.0122379
0.193763 0.0139442
0.196116 0.0115911
0.196121 0.0115954
0.199773 0.00794357
0.200022 0.00819349
0.205134 0.00308186
0.20515 0.0030973
0.208247 0
inf 0


"layer 23:"
-inf 0
0.124076 0
0.126632 0.00255611
0.127088 0.00209972
0.128014 0.00302541
0.128043 0.0029958
0.129425 0.00437734
0.129742 0.00406006
0.129863 0.00418043
0.129891 0.00415175
0.130119 0.00437932
0.130137 0.00436135
0.132074 0.00629846
0.132406 0.00596663
0.138214 0.0117752
0.138305 0.0116848
0.138407 0.011787
0.138755 0.0114387
0.139389 0.0120721
0.140495 0.010966
0.142196 0.0126677
0.14255 0.0123146
0.142578 0.012343
0.142903 0.0120177
0.143581 0.0126956
0.143783 0.012494
0.145692 0.0144028
0.146592 0.0135021
0.150603 0.0175127
0.150878 0.0172375
0.152944 0.0193035
0.154235 0.0180125
0.156889 0.0206662
0.157082 0.0204733
0.157204 0.020596
0.157536 0.0202641
0.158127 0.0208547
0.158941 0.0200409
0.159305 0.0204052
0.160775 0.0189355
0.162198 0.0203593
0.162279 0.0202784
0.162483 0.0204818
0.16258 0.0203843
0.1628 0.0206041
0.162805 0.020599
0.16335 0.0211441
0.163985 0.0205091
0.164116 0.02064
0.1646 0.0201559
0.164925 0.0204811
0.165629 0.0197772
0.167296 0.0214439
0.168623 0.0201166
0.169054 0.0205472
0.169619 0.0199818
0.17038 0.0207431
0.170795 0.0203282
0.172803 0.0223357
0.174972 0.0201668
0.176108 0.0213026
0.180943 0.0164677
0.181966 0.0174911
0.185884 0.0135736
0.187819 0.015509
0.189444 0.0138834
0.18974 0.0141786
0.191869 0.0120495
0.192057 0.0122379
0.19441 0.00988481
0.196116 0.0115911
0.199768 0.00793931
0.199773 0.00794357
0.204884 0.00283194
0.205134 0.00308186
0.208216 0
inf 0


"layer 24:"
-inf 0
0.124988 0
0.127088 0.00209972
0.127118 0.00207012
0.128043 0.0029958
0.128361 0.00267852
0.129742 0.00406006
0.129771 0.00403137
0.129891 0.00415175
0.129909 0.00413378
0.130137 0.00436135
0.130469 0.00402951
0.132406 0.00596663
0.132496 0.00587621
0.138305 0.0116848
0.138653 0.0113365
0.138755 0.0114387
0.139861 0.0103326
0.140495 0.010966
0.140848 0.0106128
0.14255 0.0123146
0.142875 0.0119893
0.142903 0.0120177
0.143105 0.011816
0.143783 0.012494
0.144015 0.0122618
0.144654 0.012901
0.145323 0.0122325
0.146592 0.0135021
0.146812 0.0132828
0.148278 0.0147493
0.148334 0.0146935
0.150878 0.0172375
0.152169 0.0159466
0.154235 0.0180125
0.154428 0.0178196
0.157082 0.0204733
0.157413 0.0201414
0.157536 0.0202641
0.15835 0.0194503
0.158941 0.0200409
0.16041 0.0185712
0.160775 0.0189355
0.160855 0.0188546
0.162279 0.0202784
0.162377 0.0201809
0.16258 0.0203843
0.162585 0.0203792
0.162805 0.020599
0.16344 0.019964
0.163985 0.0205091
0.164469 0.020025
0.1646 0.0201559
0.165304 0.0194521
0.165629 0.0197772
0.166956 0.01845
0.168623 0.0201166
0.169189 0.0195512
0.169619 0.0199818
0.170034 0.0195668
0.170795 0.0203282
0.172964 0.0181593
0.174972 0.0201668
0.179807 0.0153319
0.180943 0.0164677
0.182418 0.0149925
0.182878 0.0154523
0.18532 0.01301
0.185884 0.0135736
0.187509 0.0119481
0.189444 0.0138834
0.191574 0.0117543
0.191869 0.0120495
0.194222 0.00969639
0.19441 0.00988481
0.195177 0.00911828
0.195191 0.00913293
0.195899 0.00842499
0.196678 0.00920339
0.198855 0.00702607
0.199768 0.00793931
0.20488 0.00282768
0.204884 0.00283194
0.207716 0
inf 0


"layer 25:"
-inf 0
0.125048 0
0.127118 0.00207012
0.127435 0.00175284
0.128361 0.00267852
0.128389 0.00264984
0.129771 0.00403137
0.129789 0.0040134
0.129909 0.00413378
0.130241 0.00380194
0.130469 0.00402951
0.130559 0.00393909
0.132496 0.00587621
0.132817 0.00555522
0.133899 0.00663682
0.133904 0.00663133
0.13723 0.00995683
0.137251 0.00993503
0.138653 0.0113365
0.139759 0.0102305
0.139861 0.0103326
0.140214 0.00997944
0.140848 0.0106128
0.141173 0.0102875
0.142875 0.0119893
0.143076 0.0117876
0.143105 0.011816
0.143337 0.0115838
0.144015 0.0122618
0.144684 0.0115933
0.145323 0.0122325
0.145542 0.0120132
0.146812 0.0132828
0.146867 0.013227
0.148334 0.0146935
0.149625 0.0134025
0.152169 0.0159466
0.152362 0.0157537
0.154428 0.0178196
0.15476 0.0174877
0.157413 0.0201414
0.158227 0.0193276
0.15835 0.0194503
0.15982 0.0179806
0.16041 0.0185712
0.160491 0.0184903
0.160855 0.0188546
0.160953 0.0187571
0.162377 0.0201809
0.162382 0.0201757
0.162585 0.0203792
0.16322 0.0197441
0.16344 0.019964
0.163924 0.0194799
0.164469 0.020025
0.165173 0.0193211
0.165304 0.0194521
0.166631 0.0181248
0.166956 0.01845
0.167522 0.0178845
0.169189 0.0195512
0.169603 0.0191362
0.170034 0.0195668
0.172203 0.0173979
0.172964 0.0181593
0.176252 0.0148716
0.17785 0.0164695
0.179397 0.0149222
0.179807 0.0153319
0.181282 0.0138566
0.182418 0.0149925
0.18486 0.0125502
0.18532 0.01301
0.186945 0.0113844
0.187509 0.0119481
0.189638 0.00981893
0.191574 0.0117543
0.193927 0.00940125
0.194222 0.00969639
0.194988 0.00892986
0.195177 0.00911828
0.195885 0.00841034
0.195899 0.00842499
0.198077 0.00624767
0.198855 0.00702607
0.199283 0.00659792
0.200018 0.00733268
0.204701 0.0026492
0.20488 0.00282768
0.207708 0
inf 0


"layer 26:"
-inf 0
0.12558 0
0.12626 0.000680429
0.126311 0.000629145
0.127435 0.00175284
0.127464 0.00172415
0.128389 0.00264984
0.128407 0.00263187
0.129789 0.0040134
0.130121 0.00368157
0.130241 0.00380194
0.130331 0.00371152
0.130559 0.00393909
0.130594 0.00390366
0.130953 0.00426184
0.131238 0.00397629
0.132817 0.00555522
0.132823 0.00554974
0.133904 0.00663133
0.133926 0.00660953
0.137251 0.00993503
0.138358 0.00882894
0.139759 0.0102305
0.139772 0.0102175
0.139825 0.01027
0.140165 0.00992978
0.140214 0.00997944
0.14054 0.00965416
0.141173 0.0102875
0.141246 0.0102147
0.141749 0.0107175
0.141878 0.0105887
0.143076 0.0117876
0.143309 0.0115554
0.143337 0.0115838
0.144006 0.0109154
0.144684 0.0115933
0.144903 0.011374
0.145542 0.0120132
0.145598 0.0119574
0.146867 0.013227
0.147106 0.0129882
0.147205 0.0130867
0.148096 0.0121957
0.148913 0.013013
0.149074 0.0128518
0.149625 0.0134025
0.149818 0.0132096
0.152362 0.0157537
0.152694 0.0154218
0.15476 0.0174877
0.155574 0.0166739
0.158227 0.0193276
0.159697 0.0178579
0.15982 0.0179806
0.159901 0.0178997
0.160491 0.0184903
0.160589 0.0183928
0.160953 0.0187571
0.160958 0.018752
0.162382 0.0201757
0.163017 0.0195407
0.16322 0.0197441
0.163704 0.0192601
0.163924 0.0194799
0.164628 0.018776
0.165173 0.0193211
0.1665 0.0179939
0.166631 0.0181248
0.167177 0.017579
0.167209 0.0176105
0.167228 0.0175909
0.167522 0.0178845
0.167937 0.0174696
0.169603 0.0191362
0.171772 0.0169673
0.172203 0.0173979
0.175491 0.0141103
0.176252 0.0148716
0.177799 0.0133244
0.179397 0.0149222
0.180872 0.013447
0.181282 0.0138566
0.183724 0.0114143
0.18486 0.0125502
0.186486 0.0109246
0.186945 0.0113844
0.189075 0.00925532
0.189638 0.00981893
0.191991 0.00746587
0.193927 0.00940125
0.194693 0.00863473
0.194988 0.00892986
0.195696 0.00822192
0.195885 0.00841034
0.198062 0.00623302
0.198077 0.00624767
0.198505 0.00581952
0.199283 0.00659792
0.203967 0.00191444
0.204701 0.0026492
0.207351 0
inf 0


"layer 27:"
-inf 0
0.125682 0
0.126311 0.000629145
0.12634 0.000600461
0.127464 0.00172415
0.127482 0.00170619
0.128407 0.00263187
0.128739 0.00230003
0.130121 0.00368157
0.130211 0.00359115
0.130331 0.00371152
0.130367 0.00367609
0.130594 0.00390366
0.13088 0.00361811
0.131238 0.00397629
0.131244 0.00397081
0.132823 0.00554974
0.132844 0.00552793
0.133926 0.00660953
0.135032 0.00550344
0.138358 0.00882894
0.138371 0.00881597
0.139772 0.0102175
0.140112 0.00987726
0.140165 0.00992978
0.14049 0.00960449
0.14054 0.00965416
0.140613 0.00958138
0.141246 0.0102147
0.141375 0.0100859
0.141878 0.0105887
0.14211 0.0103565
0.143309 0.0115554
0.143977 0.010887
0.144006 0.0109154
0.144225 0.010696
0.144903 0.011374
0.144959 0.0113182
0.145598 0.0119574
0.145837 0.0117186
0.147106 0.0129882
0.147997 0.0120972
0.148096 0.0121957
0.148257 0.0120345
0.149074 0.0128518
0.149267 0.0126589
0.149818 0.0132096
0.15015 0.0128777
0.152694 0.0154218
0.153508 0.014608
0.155574 0.0166739
0.157043 0.0152042
0.159697 0.0178579
0.159778 0.017777
0.159901 0.0178997
0.159998 0.0178022
0.160589 0.0183928
0.160594 0.0183877
0.160958 0.018752
0.161593 0.018117
0.163017 0.0195407
0.163501 0.0190567
0.163704 0.0192601
0.164408 0.0185562
0.164628 0.018776
0.165955 0.0174488
0.1665 0.0179939
0.167046 0.0174481
0.167177 0.017579
0.167197 0.0175594
0.167228 0.0175909
0.167643 0.0171759
0.167937 0.0174696
0.170106 0.0153007
0.171772 0.0169673
0.17506 0.0136797
0.175491 0.0141103
0.177038 0.012563
0.177799 0.0133244
0.179274 0.0118491
0.180872 0.013447
0.183315 0.0110047
0.183724 0.0114143
0.18535 0.00978877
0.186486 0.0109246
0.188615 0.00879553
0.189075 0.00925532
0.191428 0.00690226
0.191991 0.00746587
0.192758 0.00669934
0.194693 0.00863473
0.195401 0.00792679
0.195696 0.00822192
0.197874 0.0060446
0.198062 0.00623302
0.19849 0.00580487
0.198505 0.00581952
0.203188 0.00113604
0.203967 0.00191444
0.205881 0
inf 0


"layer 28:"
-inf 0
0.125739 0
0.12634 0.000600461
0.126358 0.000582493
0.127482 0.00170619
0.127813 0.00137435
0.128739 0.00230003
0.12883 0.00220961
0.130211 0.00359115
0.130246 0.00355571
0.130367 0.00367609
0.130652 0.00339054
0.13088 0.00361811
0.130885 0.00361262
0.131244 0.00397081
0.131265 0.003949
0.132844 0.00552793
0.133233 0.00513923
0.133852 0.00575846
0.13457 0.00504108
0.135032 0.00550344
0.135045 0.00549047
0.138371 0.00881597
0.138711 0.00847574
0.140112 0.00987726
0.140438 0.00955197
0.14049 0.00960449
0.140563 0.00953171
0.140613 0.00958138
0.140741 0.00945253
0.141375 0.0100859
0.141607 0.00985368
0.14211 0.0103565
0.142778 0.00968802
0.143977 0.010887
0.144196 0.0106676
0.144225 0.010696
0.144281 0.0106402
0.144959 0.0113182
0.145197 0.0110794
0.145837 0.0117186
0.146728 0.0108276
0.147997 0.0120972
0.148158 0.011936
0.148257 0.0120345
0.14845 0.0118416
0.149267 0.0126589
0.149599 0.012327
0.15015 0.0128777
0.150964 0.0120639
0.153508 0.014608
0.154977 0.0131383
0.157043 0.0152042
0.157124 0.0151233
0.159778 0.017777
0.159875 0.0176795
0.159998 0.0178022
0.160003 0.0177971
0.160594 0.0183877
0.161229 0.0177526
0.161593 0.018117
0.162077 0.0176329
0.163501 0.0190567
0.164205 0.0183528
0.164408 0.0185562
0.165735 0.0172289
0.165955 0.0174488
0.166482 0.0169223
0.166929 0.0173692
0.166948 0.0173499
0.167046 0.0174481
0.167066 0.0174285
0.167197 0.0175594
0.167612 0.0171445
0.167643 0.0171759
0.169812 0.015007
0.170106 0.0153007
0.173393 0.0120131
0.17506 0.0136797
0.176607 0.0121324
0.177038 0.012563
0.178513 0.0110878
0.179274 0.0118491
0.179784 0.0113396
0.181181 0.0127371
0.183114 0.0108043
0.183315 0.0110047
0.18494 0.00937914
0.18535 0.00978877
0.187479 0.00765965
0.188615 0.00879553
0.190968 0.00644246
0.191428 0.00690226
0.192194 0.00613573
0.192758 0.00669934
0.193466 0.0059914
0.195401 0.00792679
0.197578 0.00574947
0.197874 0.0060446
0.198302 0.00561645
0.19849 0.00580487
0.203174 0.00112139
0.203188 0.00113604
0.204324 0
inf 0


"layer 29:"
-inf 0
0.125775 0
0.126358 0.000582493
0.12669 0.000250656
0.127813 0.00137435
0.127904 0.00128393
0.12883 0.00220961
0.128865 0.00217418
0.130246 0.00355571
0.130532 0.00327016
0.130652 0.00339054
0.130658 0.00338505
0.130885 0.00361262
0.130907 0.00359082
0.131265 0.003949
0.131654 0.0035603
0.133233 0.00513923
0.13395 0.00442184
0.13457 0.00504108
0.134583 0.00502811
0.135045 0.00549047
0.135385 0.00515025
0.138711 0.00847574
0.139036 0.00815046
0.140438 0.00955197
0.14051 0.00947919
0.140563 0.00953171
0.140692 0.00940287
0.140741 0.00945253
0.140974 0.00922031
0.141607 0.00985368
0.142275 0.00918524
0.142778 0.00968802
0.142998 0.00946869
0.144196 0.0106676
0.144252 0.0106118
0.144281 0.0106402
0.144519 0.0104014
0.145197 0.0110794
0.146088 0.0101884
0.146728 0.0108276
0.146889 0.0106664
0.148158 0.011936
0.148351 0.0117431
0.14845 0.0118416
0.148782 0.0115097
0.149599 0.012327
0.150413 0.0115132
0.150964 0.0120639
0.151423 0.0116044
0.153439 0.0136206
0.154449 0.0126104
0.154977 0.0131383
0.155058 0.0130574
0.157124 0.0151233
0.157222 0.0150258
0.159875 0.0176795
0.15988 0.0176743
0.160003 0.0177971
0.160638 0.0171621
0.161229 0.0177526
0.161713 0.0172686
0.162077 0.0176329
0.162781 0.016929
0.164205 0.0183528
0.165532 0.0170255
0.165735 0.0172289
0.166262 0.0167024
0.166482 0.0169223
0.166501 0.0169029
0.166948 0.0173499
0.166968 0.0173302
0.167066 0.0174285
0.167481 0.0170135
0.167612 0.0171445
0.169781 0.0149756
0.169812 0.015007
0.1731 0.0117194
0.173393 0.0120131
0.174941 0.0104658
0.176607 0.0121324
0.178083 0.0106572
0.178513 0.0110878
0.179023 0.0105783
0.179784 0.0113396
0.181717 0.00940682
0.183114 0.0108043
0.18474 0.00917876
0.18494 0.00937914
0.187069 0.00725002
0.187479 0.00765965
0.189832 0.00530658
0.190968 0.00644246
0.191734 0.00567594
0.192194 0.00613573
0.192902 0.00542779
0.193466 0.0059914
0.195643 0.00381408
0.197578 0.00574947
0.198007 0.00532132
0.198302 0.00561645
0.199373 0.00454497
0.199381 0.0045523
0.202993 0.000940302
0.203174 0.00112139
0.204295 0
inf 0


"layer 30:"
-inf 0
0.126439 0
0.12669 0.000250656
0.12678 0.000160238
0.127904 0.00128393
0.127939 0.00124849
0.128865 0.00217418
0.128908 0.00213083
0.129829 0.00305126
0.130071 0.00280905
0.130532 0.00327016
0.130538 0.00326468
0.130658 0.00338505
0.13068 0.00336325
0.130907 0.00359082
0.131296 0.00320212
0.131654 0.0035603
0.132372 0.00284291
0.13395 0.00442184
0.133963 0.00440887
0.134583 0.00502811
0.134923 0.00468788
0.135385 0.00515025
0.135711 0.00482496
0.139036 0.00815046
0.139109 0.00807768
0.14051 0.00947919
0.140639 0.00935035
0.140692 0.00940287
0.140924 0.00917064
0.140974 0.00922031
0.141642 0.00855186
0.142275 0.00918524
0.142495 0.0089659
0.142998 0.00946869
0.143053 0.00941288
0.144252 0.0106118
0.144491 0.010373
0.144519 0.0104014
0.14541 0.00951043
0.146088 0.0101884
0.14625 0.0100272
0.146889 0.0106664
0.147082 0.0104735
0.148351 0.0117431
0.148683 0.0114112
0.148782 0.0115097
0.149596 0.0106959
0.150413 0.0115132
0.150872 0.0110537
0.151423 0.0116044
0.152433 0.0105942
0.154449 0.0126104
0.15453 0.0125295
0.155058 0.0130574
0.155156 0.0129599
0.157222 0.0150258
0.157227 0.0150207
0.15988 0.0176743
0.160515 0.0170393
0.160638 0.0171621
0.161122 0.016678
0.161713 0.0172686
0.162417 0.0165647
0.162781 0.016929
0.164108 0.0156018
0.165532 0.0170255
0.166059 0.016499
0.166262 0.0167024
0.166281 0.0166831
0.166501 0.0169029
0.166521 0.0168833
0.166968 0.0173302
0.167383 0.0169153
0.167481 0.0170135
0.16965 0.0148446
0.169781 0.0149756
0.173068 0.0116879
0.1731 0.0117194
0.174647 0.0101721
0.174941 0.0104658
0.176416 0.00899054
0.178083 0.0106572
0.178592 0.0101477
0.179023 0.0105783
0.180939 0.00866146
0.181389 0.00911099
0.181405 0.009095
0.181717 0.00940682
0.183342 0.00778128
0.18474 0.00917876
0.186869 0.00704964
0.187069 0.00725002
0.189422 0.00489695
0.189832 0.00530658
0.190598 0.00454006
0.191734 0.00567594
0.192442 0.00496799
0.192902 0.00542779
0.195079 0.00325047
0.195643 0.00381408
0.196071 0.00338593
0.198007 0.00532132
0.199078 0.00424983
0.199373 0.00454497
0.202985 0.000932968
0.202993 0.000940302
0.203933 0
inf 0


"layer 31:"
-inf 0
0.12662 0
0.12678 0.000160238
0.126816 0.0001248
0.127939 0.00124849
0.127983 0.00120515
0.128908 0.00213083
0.12915 0.00188863
0.130071 0.00280905
0.130076 0.00280356
0.130538 0.00326468
0.130559 0.00324287
0.13068 0.00336325
0.131068 0.00297455
0.131296 0.00320212
0.132013 0.00248473
0.132372 0.00284291
0.132385 0.00282994
0.133963 0.00440887
0.134304 0.00406865
0.134923 0.00468788
0.135248 0.0043626
0.135711 0.00482496
0.135783 0.00475218
0.139109 0.00807768
0.139238 0.00794883
0.140639 0.00935035
0.140871 0.00911812
0.140924 0.00917064
0.141592 0.0085022
0.141642 0.00855186
0.141861 0.00833253
0.142495 0.0089659
0.142551 0.00891009
0.143053 0.00941288
0.143292 0.00917408
0.144491 0.010373
0.145382 0.00948203
0.14541 0.00951043
0.145572 0.00934924
0.14625 0.0100272
0.146443 0.0098343
0.147082 0.0104735
0.147414 0.0101416
0.148683 0.0114112
0.149497 0.0105974
0.149596 0.0106959
0.150055 0.0102364
0.150872 0.0110537
0.151883 0.0100435
0.152433 0.0105942
0.152514 0.0105133
0.15453 0.0125295
0.154628 0.012432
0.155156 0.0129599
0.155161 0.0129547
0.157227 0.0150207
0.157862 0.0143856
0.160515 0.0170393
0.161 0.0165553
0.161122 0.016678
0.161826 0.0159741
0.162417 0.0165647
0.163744 0.0152374
0.164108 0.0156018
0.164635 0.0150753
0.166059 0.016499
0.166078 0.0164797
0.166281 0.0166831
0.166301 0.0166635
0.166521 0.0168833
0.166936 0.0164684
0.167383 0.0169153
0.169551 0.0147464
0.16965 0.0148446
0.172937 0.011557
0.173068 0.0116879
0.174615 0.0101407
0.174647 0.0101721
0.176122 0.00869687
0.176416 0.00899054
0.176925 0.00848107
0.178592 0.0101477
0.180509 0.00823088
0.180939 0.00866146
0.180955 0.00864547
0.181405 0.009095
0.18303 0.00746947
0.183342 0.00778128
0.185471 0.00565216
0.186869 0.00704964
0.189222 0.00469657
0.189422 0.00489695
0.190189 0.00413043
0.190598 0.00454006
0.191306 0.00383212
0.192442 0.00496799
0.19462 0.00279067
0.195079 0.00325047
0.195508 0.00282232
0.196071 0.00338593
0.196936 0.00252086
0.19729 0.00287464
0.197496 0.00266822
0.199078 0.00424983
0.20269 0.000637837
0.202985 0.000932968
0.203918 0
inf 0


"layer 32:"
-inf 0
0.126691 0
0.126816 0.0001248
0.126859 8.14567e-05
0.127983 0.00120515
0.128225 0.000962942
0.12915 0.00188863
0.129156 0.00188314
0.130076 0.00280356
0.130098 0.00278176
0.130559 0.00324287
0.130948 0.00285417
0.131068 0.00297455
0.131786 0.00225716
0.132013 0.00248473
0.132026 0.00247176
0.132385 0.00282994
0.132725 0.00248972
0.134304 0.00406865
0.134629 0.00374336
0.135248 0.0043626
0.135321 0.00428981
0.135783 0.00475218
0.135912 0.00462334
0.139238 0.00794883
0.13947 0.00771661
0.140871 0.00911812
0.14154 0.00844968
0.141592 0.0085022
0.141812 0.00828286
0.141861 0.00833253
0.141917 0.00827672
0.142551 0.00891009
0.142789 0.00867129
0.143292 0.00917408
0.144183 0.00828307
0.145382 0.00948203
0.145543 0.00932083
0.145572 0.00934924
0.145765 0.00915635
0.146443 0.0098343
0.146774 0.00950242
0.147414 0.0101416
0.148227 0.00932779
0.149497 0.0105974
0.149957 0.0101379
0.150055 0.0102364
0.151065 0.00922622
0.151883 0.0100435
0.151963 0.00996262
0.152514 0.0105133
0.152612 0.0104158
0.154628 0.012432
0.154633 0.0124268
0.155161 0.0129547
0.155777 0.0123382
0.157764 0.0143246
0.157782 0.0143062
0.157862 0.0143856
0.158346 0.0139016
0.161 0.0165553
0.161703 0.0158514
0.161826 0.0159741
0.163153 0.0146469
0.163744 0.0152374
0.16427 0.0147109
0.164635 0.0150753
0.164654 0.015056
0.166078 0.0164797
0.166097 0.0164601
0.166301 0.0166635
0.166716 0.0162486
0.166936 0.0164684
0.169105 0.0142995
0.169551 0.0147464
0.172839 0.0114588
0.172937 0.011557
0.174485 0.0100097
0.174615 0.0101407
0.176091 0.0086654
0.176122 0.00869687
0.176632 0.00818739
0.176925 0.00848107
0.178842 0.00656424
0.180509 0.00823088
0.180525 0.00821489
0.180955 0.00864547
0.182581 0.00701993
0.18303 0.00746947
0.18516 0.00534035
0.185471 0.00565216
0.187824 0.0032991
0.189222 0.00469657
0.189988 0.00393005
0.190189 0.00413043
0.190897 0.00342249
0.191306 0.00383212
0.193484 0.0016548
0.19462 0.00279067
0.195048 0.00236253
0.195508 0.00282232
0.196373 0.00195725
0.196936 0.00252086
0.197143 0.00231445
0.197496 0.00266822
0.200165 0
0.202052 0
0.20269 0.000637837
0.203328 0
inf 0


"layer 33:"
-inf 0
0.126777 0
0.126859 8.14567e-05
0.12694 0
0.127262 0
0.128225 0.000962942
0.12823 0.000957458
0.129156 0.00188314
0.129178 0.00186134
0.130098 0.00278176
0.130487 0.00239306
0.130948 0.00285417
0.131665 0.00213678
0.131786 0.00225716
0.131799 0.00224419
0.132026 0.00247176
0.132367 0.00213153
0.132725 0.00248972
0.13305 0.00216443
0.134629 0.00374336
0.134702 0.00367058
0.135321 0.00428981
0.13545 0.00416097
0.135912 0.00462334
0.136144 0.00439111
0.13947 0.00771661
0.140138 0.00704816
0.14154 0.00844968
0.141759 0.00823035
0.141812 0.00828286
0.141868 0.00822705
0.141917 0.00827672
0.142156 0.00803792
0.142789 0.00867129
0.14368 0.00778029
0.144183 0.00828307
0.144344 0.00812188
0.145543 0.00932083
0.145736 0.00912794
0.145765 0.00915635
0.146096 0.00882447
0.146774 0.00950242
0.147588 0.0086886
0.148227 0.00932779
0.148687 0.00886831
0.149957 0.0101379
0.150967 0.00912771
0.151065 0.00922622
0.151146 0.0091453
0.151963 0.00996262
0.152061 0.00986513
0.152612 0.0104158
0.152617 0.0104107
0.154633 0.0124268
0.155249 0.0118103
0.155777 0.0123382
0.155796 0.0123197
0.157782 0.0143062
0.158266 0.0138221
0.158346 0.0139016
0.15905 0.0131977
0.161703 0.0158514
0.163031 0.0145241
0.163153 0.0146469
0.16368 0.0141204
0.16427 0.0147109
0.16429 0.0146916
0.164654 0.015056
0.164674 0.0150364
0.166097 0.0164601
0.166512 0.0160452
0.166716 0.0162486
0.168885 0.0140797
0.169105 0.0142995
0.172392 0.0110119
0.172839 0.0114588
0.174386 0.00991151
0.174485 0.0100097
0.17596 0.00853448
0.176091 0.0086654
0.1766 0.00815593
0.176632 0.00818739
0.178549 0.00627056
0.178842 0.00656424
0.178858 0.00654825
0.180525 0.00821489
0.18215 0.00658936
0.182581 0.00701993
0.18471 0.00489081
0.18516 0.00534035
0.187513 0.00298728
0.187824 0.0032991
0.188591 0.00253257
0.189988 0.00393005
0.190696 0.00322211
0.190897 0.00342249
0.193074 0.00124517
0.193484 0.0016548
0.193912 0.00122665
0.195048 0.00236253
0.195913 0.00149746
0.196373 0.00195725
0.196579 0.00175084
0.197143 0.00231445
0.199457 0
inf 0


"layer 34:"
-inf 0
0.127273 0
0.12823 0.000957458
0.128252 0.000935652
0.129178 0.00186134
0.129566 0.00147264
0.130487 0.00239306
0.131204 0.00167567
0.131665 0.00213678
0.131678 0.00212381
0.131799 0.00224419
0.132139 0.00190396
0.132367 0.00213153
0.132692 0.00180625
0.13305 0.00216443
0.133123 0.00209165
0.134702 0.00367058
0.134831 0.00354174
0.13545 0.00416097
0.135682 0.00392874
0.136144 0.00439111
0.136813 0.00372267
0.140138 0.00704816
0.140358 0.00682883
0.141759 0.00823035
0.141815 0.00817454
0.141868 0.00822705
0.142106 0.00798826
0.142156 0.00803792
0.143047 0.00714692
0.14368 0.00778029
0.143842 0.0076191
0.144344 0.00812188
0.144537 0.00792899
0.145736 0.00912794
0.146068 0.00879606
0.146096 0.00882447
0.14691 0.00801065
0.147588 0.0086886
0.148048 0.00822912
0.148687 0.00886831
0.149697 0.00785811
0.150967 0.00912771
0.151048 0.00904678
0.151146 0.0091453
0.151244 0.00904781
0.152061 0.00986513
0.152066 0.00985999
0.152617 0.0104107
0.153233 0.0097941
0.155249 0.0118103
0.155268 0.0117918
0.155796 0.0123197
0.15628 0.0118356
0.158266 0.0138221
0.15897 0.0131182
0.15905 0.0131977
0.160377 0.0118704
0.163031 0.0145241
0.163557 0.0139976
0.16368 0.0141204
0.163699 0.0141011
0.16429 0.0146916
0.164309 0.014672
0.164674 0.0150364
0.165089 0.0146214
0.166512 0.0160452
0.168681 0.0138763
0.168885 0.0140797
0.172172 0.010792
0.172392 0.0110119
0.173939 0.0094646
0.174386 0.00991151
0.175862 0.00843625
0.17596 0.00853448
0.176469 0.008025
0.1766 0.00815593
0.178517 0.00623909
0.178549 0.00627056
0.178564 0.00625457
0.178858 0.00654825
0.179685 0.00572124
0.1811 0.00713649
0.181899 0.00633796
0.18215 0.00658936
0.184279 0.00446024
0.18471 0.00489081
0.187063 0.00253775
0.187513 0.00298728
0.188279 0.00222076
0.188591 0.00253257
0.189299 0.00182463
0.190696 0.00322211
0.192874 0.00104479
0.193074 0.00124517
0.193502 0.000817018
0.193912 0.00122665
0.194777 0.00036158
0.195913 0.00149746
0.196119 0.00129104
0.196579 0.00175084
0.19833 0
inf 0


"layer 35:"
-inf 0
0.127316 0
0.128252 0.000935652
0.128641 0.000546953
0.129566 0.00147264
0.130284 0.000755249
0.131204 0.00167567
0.131217 0.0016627
0.131678 0.00212381
0.132019 0.00178359
0.132139 0.00190396
0.132464 0.00157868
0.132692 0.00180625
0.132765 0.00173347
0.133123 0.00209165
0.133252 0.00196281
0.134831 0.00354174
0.135063 0.00330951
0.135682 0.00392874
0.13635 0.0032603
0.136813 0.00372267
0.137032 0.00350333
0.140358 0.00682883
0.140413 0.00677302
0.141815 0.00817454
0.142054 0.00793574
0.142106 0.00798826
0.142997 0.00709725
0.143047 0.00714692
0.143208 0.00698572
0.143842 0.0076191
0.144034 0.00742621
0.144537 0.00792899
0.144869 0.00759711
0.146068 0.00879606
0.146882 0.00798224
0.14691 0.00801065
0.14737 0.00755117
0.148048 0.00822912
0.149058 0.00721892
0.149697 0.00785811
0.149778 0.00777719
0.151048 0.00904678
0.151145 0.00894929
0.151244 0.00904781
0.151249 0.00904268
0.152066 0.00985999
0.152683 0.00924344
0.153233 0.0097941
0.153252 0.00977564
0.155268 0.0117918
0.155752 0.0113077
0.15628 0.0118356
0.156984 0.0111318
0.15897 0.0131182
0.160297 0.011791
0.160377 0.0118704
0.160903 0.0113439
0.163557 0.0139976
0.163576 0.0139783
0.163699 0.0141011
0.163719 0.0140815
0.164309 0.014672
0.164724 0.0142571
0.165089 0.0146214
0.167258 0.0124525
0.168681 0.0138763
0.171969 0.0105886
0.172172 0.010792
0.17372 0.00924479
0.173939 0.0094646
0.175415 0.00798934
0.175862 0.00843625
0.176371 0.00792678
0.176469 0.008025
0.178386 0.00610817
0.178517 0.00623909
0.178533 0.00622311
0.178564 0.00625457
0.179392 0.00542756
0.179685 0.00572124
0.180484 0.00492271
0.181899 0.00633796
0.184028 0.00420884
0.184279 0.00446024
0.186633 0.00210717
0.187063 0.00253775
0.18783 0.00177122
0.188279 0.00222076
0.188987 0.00151281
0.189299 0.00182463
0.191124 0
0.191829 0
0.192874 0.00104479
0.193302 0.000616639
0.193502 0.000817018
0.194319 0
0.194415 0
0.194777 0.00036158
0.194983 0.000155164
0.196119 0.00129104
0.19741 0
inf 0


"layer 36:"
-inf 0
0.128094 0
0.128641 0.000546953
0.129188 0
0.129529 0
0.130284 0.000755249
0.130297 0.000742281
0.131217 0.0016627
0.131557 0.00132248
0.132019 0.00178359
0.132052 0.00175044
0.132057 0.00175587
0.132349 0.00146373
0.132464 0.00157868
0.132537 0.0015059
0.132765 0.00173347
0.132893 0.00160462
0.133252 0.00196281
0.133484 0.00173058
0.135063 0.00330951
0.135731 0.00264107
0.13635 0.0032603
0.13657 0.00304097
0.137032 0.00350333
0.137088 0.00344752
0.140413 0.00677302
0.140652 0.00653422
0.142054 0.00793574
0.142945 0.00704473
0.142997 0.00709725
0.143159 0.00693606
0.143208 0.00698572
0.143401 0.00679283
0.144034 0.00742621
0.144366 0.00709432
0.144869 0.00759711
0.145683 0.00678329
0.146882 0.00798224
0.147341 0.00752276
0.14737 0.00755117
0.14838 0.00654097
0.149058 0.00721892
0.149139 0.007138
0.149778 0.00777719
0.149876 0.0076797
0.151145 0.00894929
0.15115 0.00894416
0.151249 0.00904268
0.151865 0.00842613
0.152683 0.00924344
0.152701 0.00922498
0.153252 0.00977564
0.153736 0.00929156
0.155752 0.0113077
0.156456 0.0106039
0.156984 0.0111318
0.158311 0.00980452
0.160297 0.011791
0.160824 0.0112645
0.160903 0.0113439
0.160923 0.0113246
0.163576 0.0139783
0.163596 0.0139587
0.163719 0.0140815
0.164134 0.0136665
0.164724 0.0142571
0.166893 0.0120882
0.167258 0.0124525
0.167955 0.011755
0.168379 0.0121791
0.170969 0.00958896
0.171969 0.0105886
0.173516 0.00904138
0.17372 0.00924479
0.175195 0.00776953
0.175415 0.00798934
0.175924 0.00747986
0.176371 0.00792678
0.178288 0.00600995
0.178386 0.00610817
0.178402 0.00609218
0.178533 0.00622311
0.17936 0.0053961
0.179392 0.00542756
0.18019 0.00462904
0.180484 0.00492271
0.182613 0.00279359
0.184028 0.00420884
0.186381 0.00185577
0.186633 0.00210717
0.187399 0.00134064
0.18783 0.00177122
0.188538 0.00106328
0.188987 0.00151281
0.1905 0
0.192685 0
0.193302 0.000616639
0.193919 0
0.194828 0
0.194983 0.000155164
0.195139 0
inf 0


"layer 37:"
-inf 0
0.129555 0
0.130297 0.000742281
0.130637 0.000402054
0.131557 0.00132248
0.131591 0.00128933
0.132052 0.00175044
0.132344 0.0014583
0.132349 0.00146373
0.132422 0.00139095
0.132537 0.0015059
0.132666 0.00137705
0.132893 0.00160462
0.133126 0.0013724
0.133484 0.00173058
0.134152 0.00106214
0.135731 0.00264107
0.135951 0.00242173
0.13657 0.00304097
0.136626 0.00298516
0.137088 0.00344752
0.137327 0.00320872
0.140652 0.00653422
0.141543 0.00564322
0.142945 0.00704473
0.143106 0.00688354
0.143159 0.00693606
0.143351 0.00674317
0.143401 0.00679283
0.143733 0.00646095
0.144366 0.00709432
0.145103 0.00635798
0.145375 0.00663081
0.145453 0.00655334
0.145683 0.00678329
0.146142 0.00632381
0.147341 0.00752276
0.148352 0.00651256
0.14838 0.00654097
0.148461 0.00646005
0.149139 0.007138
0.149236 0.00704051
0.149876 0.0076797
0.149881 0.00767456
0.15115 0.00894416
0.151767 0.00832761
0.151865 0.00842613
0.151884 0.00840767
0.152701 0.00922498
0.153185 0.0087409
0.153736 0.00929156
0.15444 0.00858769
0.156456 0.0106039
0.157783 0.00927662
0.158311 0.00980452
0.158838 0.00927802
0.160824 0.0112645
0.160843 0.0112452
0.160923 0.0113246
0.160942 0.011305
0.163596 0.0139587
0.164011 0.0135438
0.164134 0.0136665
0.165521 0.0122791
0.165964 0.0127214
0.166547 0.0121374
0.166596 0.0121857
0.166793 0.0119882
0.166893 0.0120882
0.167591 0.0113907
0.167955 0.011755
0.170545 0.00916487
0.170969 0.00958896
0.172517 0.00804171
0.173516 0.00904138
0.174991 0.00756612
0.175195 0.00776953
0.175704 0.00726005
0.175924 0.00747986
0.177841 0.00556303
0.178288 0.00600995
0.178304 0.00599396
0.178402 0.00609218
0.179229 0.00526517
0.17936 0.0053961
0.180159 0.00459757
0.18019 0.00462904
0.182319 0.00249992
0.182613 0.00279359
0.184966 0.000440525
0.186381 0.00185577
0.187148 0.00108925
0.187399 0.00134064
0.188107 0.000632702
0.188538 0.00106328
0.189601 0
inf 0


"layer 38:"
-inf 0
0.130235 0
0.130637 0.000402054
0.13067 0.000368906
0.131591 0.00128933
0.131883 0.00099719
0.132344 0.0014583
0.132417 0.00138552
0.132422 0.00139095
0.132551 0.00126211
0.132666 0.00137705
0.132898 0.00114483
0.133126 0.0013724
0.133794 0.000703953
0.134152 0.00106214
0.134372 0.000842803
0.135951 0.00242173
0.136006 0.00236592
0.136626 0.00298516
0.136864 0.00274636
0.137327 0.00320872
0.138218 0.00231772
0.141543 0.00564322
0.141704 0.00548202
0.143106 0.00688354
0.143299 0.00669065
0.143351 0.00674317
0.143683 0.00641128
0.143733 0.00646095
0.144469 0.00572461
0.145103 0.00635798
0.14518 0.00628051
0.145453 0.00655334
0.145912 0.00609385
0.146142 0.00632381
0.147153 0.00531361
0.148352 0.00651256
0.148432 0.00643164
0.148461 0.00646005
0.148558 0.00636256
0.149236 0.00704051
0.149241 0.00703537
0.149881 0.00767456
0.150306 0.00724918
0.151177 0.00812027
0.151368 0.00792911
0.151767 0.00832761
0.151785 0.00830915
0.151884 0.00840767
0.152368 0.00792359
0.153185 0.0087409
0.153889 0.00803703
0.15444 0.00858769
0.155767 0.00726044
0.157783 0.00927662
0.15831 0.00875012
0.158838 0.00927802
0.158857 0.00925871
0.160843 0.0112452
0.160863 0.0112256
0.160942 0.011305
0.161357 0.0108901
0.164011 0.0135438
0.165398 0.0121563
0.165521 0.0122791
0.166105 0.0116951
0.166547 0.0121374
0.166745 0.0119399
0.166793 0.0119882
0.167491 0.0112907
0.167591 0.0113907
0.170181 0.00880054
0.170545 0.00916487
0.172092 0.00761762
0.172517 0.00804171
0.173992 0.00656645
0.174991 0.00756612
0.175501 0.00705664
0.175704 0.00726005
0.177621 0.00534322
0.177841 0.00556303
0.177857 0.00554705
0.178304 0.00599396
0.179131 0.00516695
0.179229 0.00526517
0.180028 0.00446665
0.180159 0.00459757
0.182288 0.00246845
0.182319 0.00249992
0.184672 0.00014685
0.184966 0.000440525
0.18514 0.000266132
0.185773 0.000899023
0.186365 0.000306891
0.187148 0.00108925
0.187856 0.000381304
0.188107 0.000632702
0.18874 0
inf 0


"layer 39:"
-inf 0
0.130301 0
0.13067 0.000368906
0.130962 7.67667e-05
0.131883 0.00099719
0.131956 0.00092441
0.132417 0.00138552
0.132546 0.00125668
0.132551 0.00126211
0.132783 0.00102988
0.132898 0.00114483
0.133567 0.000476383
0.133794 0.000703953
0.134013 0.000484619
0.134372 0.000842803
0.134427 0.000786993
0.136006 0.00236592
0.136245 0.00212713
0.136864 0.00274636
0.137755 0.00185536
0.138218 0.00231772
0.138379 0.00215653
0.141704 0.00548202
0.141897 0.00528913
0.143299 0.00669065
0.143631 0.00635877
0.143683 0.00641128
0.14442 0.00567495
0.144469 0.00572461
0.144547 0.00564714
0.14518 0.00628051
0.14564 0.00582102
0.145912 0.00609385
0.146923 0.00508365
0.147153 0.00531361
0.147234 0.00523269
0.148432 0.00643164
0.14853 0.00633415
0.148558 0.00636256
0.148564 0.00635742
0.149241 0.00703537
0.149667 0.00660999
0.150306 0.00724918
0.150497 0.00705801
0.151368 0.00792911
0.151387 0.00791065
0.151785 0.00830915
0.152269 0.00782507
0.152368 0.00792359
0.153072 0.00721972
0.153889 0.00803703
0.15415 0.00777585
0.154662 0.00828813
0.155729 0.00722205
0.155767 0.00726044
0.156293 0.00673394
0.15831 0.00875012
0.158329 0.00873081
0.158857 0.00925871
0.158876 0.0092391
0.160863 0.0112256
0.161278 0.0108106
0.161357 0.0108901
0.162745 0.00950262
0.165398 0.0121563
0.165982 0.0115724
0.166105 0.0116951
0.166303 0.0114976
0.166745 0.0119399
0.167442 0.0112425
0.167491 0.0112907
0.170081 0.00870057
0.170181 0.00880054
0.171728 0.00725329
0.172092 0.00761762
0.173568 0.00614236
0.173992 0.00656645
0.174501 0.00605698
0.175501 0.00705664
0.177418 0.00513981
0.177621 0.00534322
0.177637 0.00532723
0.177857 0.00554705
0.178684 0.00472004
0.179131 0.00516695
0.179929 0.00436842
0.180028 0.00446665
0.182157 0.00233753
0.182288 0.00246845
0.184641 0.000115384
0.184672 0.00014685
0.184819 0
0.184874 0
0.18514 0.000266132
0.185406 0
0.186058 0
0.186365 0.000306891
0.186672 0
0.187474 0
0.187856 0.000381304
0.188237 0
inf 0


"layer 40:"
-inf 0
0.130886 0
0.130962 7.67667e-05
0.131035 3.98648e-06
0.131956 0.00092441
0.132084 0.000795567
0.132546 0.00125668
0.132778 0.00102445
0.132783 0.00102988
0.133452 0.000361441
0.133567 0.000476383
0.133786 0.00025705
0.134013 0.000484619
0.134069 0.000428809
0.134427 0.000786993
0.134666 0.000548196
0.136245 0.00212713
0.137136 0.00123612
0.137755 0.00185536
0.137917 0.00169416
0.138379 0.00215653
0.138426 0.00210956
0.14133 0.00501394
0.141476 0.00486802
0.141897 0.00528913
0.142229 0.00495725
0.143631 0.00635877
0.144367 0.00562243
0.14442 0.00567495
0.144497 0.00559747
0.144547 0.00564714
0.145006 0.00518765
0.14564 0.00582102
0.14665 0.00481082
0.146923 0.00508365
0.147004 0.00500273
0.147234 0.00523269
0.147331 0.0051352
0.14853 0.00633415
0.148535 0.00632902
0.148564 0.00635742
0.148989 0.00593204
0.149667 0.00660999
0.149858 0.00641882
0.150497 0.00705801
0.150516 0.00703956
0.151387 0.00791065
0.151871 0.00742657
0.152269 0.00782507
0.152973 0.0071212
0.153072 0.00721972
0.153333 0.00695854
0.15415 0.00777585
0.155216 0.00670978
0.155729 0.00722205
0.156255 0.00669556
0.156293 0.00673394
0.156313 0.00671462
0.158329 0.00873081
0.158349 0.0087112
0.158876 0.0092391
0.159291 0.00882416
0.161278 0.0108106
0.162665 0.00942315
0.162745 0.00950262
0.163329 0.00891868
0.165982 0.0115724
0.16618 0.0113749
0.166303 0.0114976
0.167 0.0108002
0.167442 0.0112425
0.170033 0.00865228
0.170081 0.00870057
0.171628 0.00715332
0.171728 0.00725329
0.173203 0.00577803
0.173568 0.00614236
0.174077 0.00563289
0.174501 0.00605698
0.176418 0.00414015
0.177418 0.00513981
0.177434 0.00512382
0.177637 0.00532723
0.178464 0.00450022
0.178684 0.00472004
0.179483 0.00392151
0.179929 0.00436842
0.182059 0.0022393
0.182157 0.00233753
0.184494 0
0.184525 0
0.184641 0.000115384
0.184756 0
inf 0


"layer 41:"
-inf 0
0.131031 0
0.131035 3.98648e-06
0.131039 0
0.131289 0
0.132084 0.000795567
0.132317 0.000563339
0.132778 0.00102445
0.133446 0.000356007
0.133452 0.000361441
0.133671 0.000142107
0.133786 0.00025705
0.133842 0.000201239
0.134069 0.000428809
0.134308 0.000190012
0.134666 0.000548196
0.135214 0
0.1359 0
0.137136 0.00123612
0.137297 0.00107493
0.137917 0.00169416
0.137964 0.00164719
0.138426 0.00210956
0.138572 0.00196364
0.141476 0.00486802
0.141808 0.00453613
0.142229 0.00495725
0.142966 0.00422091
0.144367 0.00562243
0.144445 0.00554495
0.144497 0.00559747
0.144957 0.00513798
0.145006 0.00518765
0.146016 0.00417745
0.14665 0.00481082
0.146731 0.0047299
0.147004 0.00500273
0.147101 0.00490524
0.147331 0.0051352
0.147336 0.00513006
0.148535 0.00632902
0.14896 0.00590363
0.148989 0.00593204
0.14918 0.00574087
0.149858 0.00641882
0.149876 0.00640037
0.150516 0.00703956
0.151 0.00655547
0.151871 0.00742657
0.152575 0.0067227
0.152973 0.0071212
0.153234 0.00686002
0.153333 0.00695854
0.154399 0.00589246
0.155216 0.00670978
0.155743 0.00618328
0.156255 0.00669556
0.156274 0.00667624
0.156313 0.00671462
0.156332 0.00669502
0.158349 0.0087112
0.158763 0.00829627
0.159291 0.00882416
0.160679 0.0074367
0.162665 0.00942315
0.163249 0.00883922
0.163329 0.00891868
0.163526 0.00872118
0.16618 0.0113749
0.166877 0.0106774
0.167 0.0108002
0.16959 0.00820998
0.170033 0.00865228
0.17158 0.00710503
0.171628 0.00715332
0.173103 0.00567806
0.173203 0.00577803
0.173713 0.00526855
0.174077 0.00563289
0.175994 0.00371606
0.176418 0.00414015
0.176434 0.00412416
0.177434 0.00512382
0.178261 0.00429682
0.178464 0.00450022
0.179263 0.0037017
0.179483 0.00392151
0.181612 0.00179239
0.182059 0.0022393
0.184298 0
inf 0


"layer 42:"
-inf 0
0.131651 0
0.132234 0.000583494
0.132286 0.000532255
0.132317 0.000563339
0.13288 0
0.13309 0
0.133446 0.000356007
0.133666 0.000136673
0.133671 0.000142107
0.133727 8.62969e-05
0.133842 0.000201239
0.134043 0
0.134118 0
0.134308 0.000190012
0.134498 0
0.136222 0
0.137297 0.00107493
0.137344 0.00102796
0.137964 0.00164719
0.13811 0.00150127
0.138572 0.00196364
0.138904 0.00163175
0.141808 0.00453613
0.142544 0.0037998
0.142966 0.00422091
0.143043 0.00414343
0.144445 0.00554495
0.144904 0.00508547
0.144957 0.00513798
0.145967 0.00412779
0.146016 0.00417745
0.146097 0.00409653
0.146731 0.0047299
0.146828 0.00463241
0.147101 0.00490524
0.147106 0.00490011
0.147336 0.00513006
0.147762 0.00470468
0.14896 0.00590363
0.149152 0.00571247
0.14918 0.00574087
0.149199 0.00572241
0.149876 0.00640037
0.150361 0.00591628
0.151 0.00655547
0.151704 0.0058516
0.152575 0.0067227
0.152836 0.00646152
0.153234 0.00686002
0.1543 0.00579394
0.154399 0.00589246
0.154925 0.00536596
0.155743 0.00618328
0.155762 0.00616397
0.156274 0.00667624
0.156294 0.00665663
0.156332 0.00669502
0.156747 0.00628008
0.158763 0.00829627
0.160151 0.0069088
0.160679 0.0074367
0.161202 0.00691334
0.161725 0.00743608
0.161786 0.00737551
0.163249 0.00883922
0.163447 0.00864172
0.163526 0.00872118
0.164224 0.00802371
0.166877 0.0106774
0.169468 0.00808723
0.16959 0.00820998
0.171138 0.00666273
0.17158 0.00710503
0.173055 0.00562977
0.173103 0.00567806
0.173613 0.00516858
0.173713 0.00526855
0.17563 0.00335172
0.175994 0.00371606
0.17601 0.00370007
0.176434 0.00412416
0.177261 0.00329715
0.178261 0.00429682
0.179059 0.00349829
0.179263 0.0037017
0.181392 0.00157258
0.181612 0.00179239
0.182205 0.00119951
0.18233 0.00132522
0.183655 0
inf 0


"layer 43:"
-inf 0
0.131753 0
0.132286 0.000532255
0.132818 0
0.133529 0
0.133666 0.000136673
0.133721 8.08629e-05
0.133727 8.62969e-05
0.133813 0
0.136316 0
0.137344 0.00102796
0.13749 0.000882038
0.13811 0.00150127
0.138441 0.00116939
0.138904 0.00163175
0.139402 0.00113336
0.139761 0.0014921
0.139999 0.00125416
0.142544 0.0037998
0.142622 0.00372232
0.143043 0.00414343
0.143503 0.00368395
0.144904 0.00508547
0.145914 0.00407527
0.145967 0.00412779
0.146048 0.00404686
0.146097 0.00409653
0.146195 0.00399904
0.146828 0.00463241
0.146833 0.00462728
0.147106 0.00490011
0.147532 0.00447472
0.147762 0.00470468
0.147953 0.00451351
0.149152 0.00571247
0.14917 0.00569401
0.149199 0.00572241
0.149683 0.00523833
0.150361 0.00591628
0.151064 0.00521241
0.151704 0.0058516
0.151965 0.00559042
0.152836 0.00646152
0.153902 0.00539544
0.1543 0.00579394
0.154827 0.00526745
0.154925 0.00536596
0.154945 0.00534665
0.155762 0.00616397
0.155782 0.00614436
0.156294 0.00665663
0.156709 0.0062417
0.156747 0.00628008
0.158135 0.00489261
0.160151 0.0069088
0.160674 0.00638544
0.161202 0.00691334
0.161263 0.00685276
0.161786 0.00737551
0.161983 0.00717801
0.163447 0.00864172
0.164144 0.00794425
0.164224 0.00802371
0.166614 0.00563368
0.168309 0.00732862
0.168509 0.00712848
0.169468 0.00808723
0.171015 0.00653998
0.171138 0.00666273
0.172613 0.00518747
0.173055 0.00562977
0.173565 0.0051203
0.173613 0.00516858
0.17553 0.00325175
0.17563 0.00335172
0.175646 0.00333574
0.17601 0.00370007
0.176837 0.00287306
0.177261 0.00329715
0.17806 0.00249862
0.179059 0.00349829
0.181188 0.00136917
0.181392 0.00157258
0.181985 0.000979697
0.182205 0.00119951
0.183404 0
inf 0


"layer 44:"
-inf 0
0.13364 0
0.133721 8.08629e-05
0.133802 0
0.136608 0
0.13749 0.000882038
0.137822 0.000550153
0.138441 0.00116939
0.13894 0.000670991
0.139402 0.00113336
0.13964 0.000895415
0.139999 0.00125416
0.140076 0.00117669
0.142622 0.00372232
0.143081 0.00326284
0.143503 0.00368395
0.144513 0.00267375
0.145914 0.00407527
0.145995 0.00399435
0.146048 0.00404686
0.146145 0.00394937
0.146195 0.00399904
0.1462 0.00399391
0.146833 0.00462728
0.147259 0.00420189
0.147532 0.00447472
0.147723 0.00428356
0.147953 0.00451351
0.147971 0.00449506
0.14917 0.00569401
0.149654 0.00520992
0.149683 0.00523833
0.150386 0.00453446
0.151064 0.00521241
0.151326 0.00495124
0.151965 0.00559042
0.153031 0.00452435
0.153902 0.00539544
0.154428 0.00486894
0.154827 0.00526745
0.154846 0.00524813
0.154945 0.00534665
0.154964 0.00532704
0.155782 0.00614436
0.156197 0.00572942
0.156709 0.0062417
0.158096 0.00485423
0.158135 0.00489261
0.158658 0.00436925
0.160674 0.00638544
0.160735 0.00632487
0.161263 0.00685276
0.16146 0.00665526
0.161983 0.00717801
0.162681 0.00648054
0.164144 0.00794425
0.166534 0.00555422
0.166614 0.00563368
0.166814 0.00543354
0.168509 0.00712848
0.170056 0.00558123
0.171015 0.00653998
0.17249 0.00506472
0.172613 0.00518747
0.173122 0.004678
0.173565 0.0051203
0.175481 0.00320347
0.17553 0.00325175
0.175546 0.00323576
0.175646 0.00333574
0.176473 0.00250873
0.176837 0.00287306
0.177636 0.00207453
0.17806 0.00249862
0.180107 0.000451549
0.180533 0.000877859
0.180615 0.000795813
0.181188 0.00136917
0.181781 0.000776288
0.181985 0.000979697
0.182964 0
inf 0


"layer 45:"
-inf 0
0.137272 0
0.137822 0.000550153
0.138321 5.17566e-05
0.13894 0.000670991
0.139178 0.000433051
0.13964 0.000895415
0.139718 0.000817938
0.140076 0.00117669
0.140536 0.000717201
0.143081 0.00326284
0.144092 0.00225264
0.144513 0.00267375
0.144552 0.0026349
0.144787 0.00287017
0.144829 0.00282811
0.145995 0.00399435
0.146093 0.00389686
0.146145 0.00394937
0.14615 0.00394424
0.1462 0.00399391
0.146625 0.00356852
0.147259 0.00420189
0.14745 0.00401073
0.147723 0.00428356
0.147741 0.0042651
0.147971 0.00449506
0.148455 0.00401097
0.149654 0.00520992
0.150358 0.00450606
0.150386 0.00453446
0.150648 0.00427328
0.151326 0.00495124
0.152392 0.00388516
0.153031 0.00452435
0.153557 0.00399785
0.154428 0.00486894
0.154448 0.00484963
0.154846 0.00524813
0.154866 0.00522852
0.154964 0.00532704
0.155379 0.0049121
0.156197 0.00572942
0.157584 0.00434195
0.158096 0.00485423
0.15862 0.00433087
0.158658 0.00436925
0.158719 0.00430868
0.160735 0.00632487
0.160932 0.00612737
0.16146 0.00665526
0.162158 0.00595779
0.162681 0.00648054
0.165071 0.00409051
0.166534 0.00555422
0.166734 0.00535408
0.166814 0.00543354
0.168361 0.00388629
0.170056 0.00558123
0.171531 0.00410597
0.17249 0.00506472
0.173 0.00455524
0.173122 0.004678
0.175039 0.00276117
0.175481 0.00320347
0.175497 0.00318748
0.175546 0.00323576
0.176373 0.00240876
0.176473 0.00250873
0.177271 0.0017102
0.177636 0.00207453
0.178329 0.00138125
0.178359 0.0014111
0.179712 5.73165e-05
0.180107 0.000451549
0.180189 0.000369503
0.180615 0.000795813
0.181208 0.000202932
0.181781 0.000776288
0.182558 0
inf 0


"layer 46:"
-inf 0
0.138269 0
0.138321 5.17566e-05
0.138372 0
0.138745 0
0.139178 0.000433051
0.139255 0.000355574
0.139718 0.000817938
0.140177 0.000358453
0.140536 0.000717201
0.140541 0.000712324
0.140987 0.00115845
0.141992 0.000153125
0.144092 0.00225264
0.14413 0.00221378
0.144552 0.0026349
0.144594 0.00259283
0.144829 0.00282811
0.144926 0.00273062
0.146093 0.00389686
0.146098 0.00389172
0.14615 0.00394424
0.146162 0.00393264
0.146192 0.00396225
0.146605 0.00354847
0.146625 0.00356852
0.146817 0.00337736
0.14745 0.00401073
0.147468 0.00399227
0.147741 0.0042651
0.148225 0.00378102
0.148455 0.00401097
0.149159 0.0033071
0.150358 0.00450606
0.150619 0.00424488
0.150648 0.00427328
0.151714 0.00320721
0.152392 0.00388516
0.152918 0.00335866
0.153557 0.00399785
0.153577 0.00397854
0.154448 0.00484963
0.154467 0.00483002
0.154866 0.00522852
0.155281 0.00481359
0.155379 0.0049121
0.156767 0.00352464
0.157584 0.00434195
0.158107 0.00381859
0.15862 0.00433087
0.15868 0.0042703
0.158719 0.00430868
0.158916 0.00411118
0.160932 0.00612737
0.16163 0.0054299
0.162158 0.00595779
0.16228 0.00583527
0.162486 0.00604093
0.164753 0.00377342
0.165071 0.00409051
0.165271 0.00389037
0.166734 0.00535408
0.168282 0.00380682
0.168361 0.00388629
0.169836 0.00241103
0.171531 0.00410597
0.172041 0.00359649
0.173 0.00455524
0.174916 0.00263841
0.175039 0.00276117
0.175055 0.00274518
0.175497 0.00318748
0.176324 0.00236047
0.176373 0.00240876
0.177171 0.00161023
0.177271 0.0017102
0.177964 0.00101692
0.178329 0.00138125
0.179683 2.74581e-05
0.179712 5.73165e-05
0.17977 0
0.179819 0
0.180189 0.000369503
0.180558 0
0.181005 0
0.181208 0.000202932
0.181411 0
inf 0


"layer 47:"
-inf 0
0.1389 0
0.139255 0.000355574
0.139611 0
0.139819 0
0.140177 0.000358453
0.140182 0.000353575
0.140541 0.000712324
0.141253 0
0.141839 0
0.141992 0.000153125
0.142031 0.000114268
0.14413 0.00221378
0.144173 0.00217172
0.144594 0.00259283
0.144691 0.00249534
0.144926 0.00273062
0.144932 0.00272549
0.146098 0.00389172
0.146109 0.00388012
0.146162 0.00393264
0.146576 0.00351885
0.146605 0.00354847
0.146796 0.00335731
0.146817 0.00337736
0.146835 0.0033589
0.147468 0.00399227
0.147952 0.00350819
0.148225 0.00378102
0.148929 0.00307715
0.149159 0.0033071
0.14942 0.00304592
0.150619 0.00424488
0.151685 0.0031788
0.151714 0.00320721
0.151971 0.00294991
0.152371 0.00334949
0.15264 0.00308029
0.152918 0.00335866
0.152937 0.00333935
0.153577 0.00397854
0.153596 0.00395893
0.154467 0.00483002
0.154882 0.00441508
0.155281 0.00481359
0.156668 0.00342612
0.156767 0.00352464
0.15729 0.00300128
0.158107 0.00381859
0.158168 0.00375802
0.15868 0.0042703
0.158878 0.0040728
0.158916 0.00411118
0.159444 0.00358375
0.159554 0.0036938
0.159724 0.00352376
0.16163 0.0054299
0.161752 0.00530738
0.16228 0.00583527
0.164548 0.00356776
0.164753 0.00377342
0.164954 0.00357328
0.165271 0.00389037
0.166818 0.00234311
0.168282 0.00380682
0.169757 0.00233157
0.169836 0.00241103
0.170346 0.00190155
0.172041 0.00359649
0.173958 0.00167966
0.174916 0.00263841
0.174932 0.00262243
0.175055 0.00274518
0.175882 0.00191817
0.176324 0.00236047
0.177123 0.00156194
0.177171 0.00161023
0.177865 0.000916943
0.177964 0.00101692
0.178981 0
0.179655 0
0.179683 2.74581e-05
0.17971 0
inf 0


"layer 48:"
-inf 0
0.139828 0
0.140182 0.000353575
0.140536 0
0.141917 0
0.142031 0.000114268
0.142073 7.22033e-05
0.144173 0.00217172
0.14427 0.00207423
0.144691 0.00249534
0.144696 0.00249021
0.144932 0.00272549
0.144943 0.00271388
0.146109 0.00388012
0.146523 0.00346634
0.146576 0.00351885
0.146767 0.00332769
0.146796 0.00335731
0.146815 0.00333885
0.146835 0.0033589
0.147319 0.00287481
0.147952 0.00350819
0.148656 0.00280432
0.148929 0.00307715
0.14919 0.00281597
0.14942 0.00304592
0.150486 0.00197985
0.151685 0.0031788
0.151943 0.0029215
0.151971 0.00294991
0.15224 0.00268071
0.15264 0.00308029
0.152659 0.00306097
0.152937 0.00333935
0.152957 0.00331974
0.153596 0.00395893
0.154011 0.00354399
0.154882 0.00441508
0.15627 0.00302762
0.156668 0.00342612
0.157192 0.00290276
0.15729 0.00300128
0.157351 0.00294071
0.158168 0.00375802
0.158366 0.00356052
0.158878 0.0040728
0.159405 0.00354537
0.159444 0.00358375
0.159614 0.00341371
0.159724 0.00352376
0.159846 0.00340124
0.161752 0.00530738
0.16402 0.00303987
0.164548 0.00356776
0.164748 0.00336762
0.164954 0.00357328
0.166501 0.00202603
0.166818 0.00234311
0.168293 0.000867858
0.169757 0.00233157
0.170266 0.00182209
0.170346 0.00190155
0.172247 0
0.172278 0
0.173958 0.00167966
0.173974 0.00166367
0.174932 0.00262243
0.175759 0.00179542
0.175882 0.00191817
0.176681 0.00111964
0.177123 0.00156194
0.177816 0.000868657
0.177865 0.000916943
0.178781 0
inf 0


"layer 49:"
-inf 0
0.142001 0
0.142073 7.22033e-05
0.142145 0
0.142196 0
0.14427 0.00207423
0.144275 0.00206909
0.144696 0.00249021
0.144708 0.0024786
0.144943 0.00271388
0.145194 0.00246307
0.146016 0.00328536
0.146179 0.00312239
0.146523 0.00346634
0.146714 0.00327517
0.146767 0.00332769
0.146785 0.00330923
0.146815 0.00333885
0.147299 0.00285476
0.147319 0.00287481
0.148023 0.00217095
0.148656 0.00280432
0.148918 0.00254314
0.14919 0.00281597
0.150256 0.00174989
0.150486 0.00197985
0.150744 0.00172255
0.151943 0.0029215
0.152212 0.0026523
0.15224 0.00268071
0.15226 0.0026614
0.152659 0.00306097
0.152679 0.00304136
0.152957 0.00331974
0.153372 0.0029048
0.154011 0.00354399
0.155399 0.00215653
0.15627 0.00302762
0.156793 0.00250426
0.157192 0.00290276
0.157252 0.00284219
0.157351 0.00294071
0.157548 0.0027432
0.158366 0.00356052
0.158893 0.00303309
0.159405 0.00354537
0.159575 0.00337533
0.159614 0.00341371
0.159736 0.00329119
0.159846 0.00340124
0.162114 0.00113373
0.16402 0.00303987
0.16422 0.00283973
0.164748 0.00336762
0.166295 0.00182037
0.166501 0.00202603
0.167976 0.00055077
0.168293 0.000867858
0.168803 0.000358382
0.170266 0.00182209
0.172088 0
0.17231 0
0.173974 0.00166367
0.174801 0.000836667
0.175759 0.00179542
0.176558 0.000996889
0.176681 0.00111964
0.177374 0.000426357
0.177816 0.000868657
0.178685 0
inf 0


"layer 50:"
-inf 0
0.142206 0
0.144275 0.00206909
0.144287 0.00205749
0.144708 0.0024786
0.144959 0.00222779
0.145194 0.00246307
0.145357 0.0023001
0.146179 0.00312239
0.14637 0.00293122
0.146714 0.00327517
0.146733 0.00325672
0.146785 0.00330923
0.147269 0.00282515
0.147299 0.00285476
0.148003 0.0021509
0.148023 0.00217095
0.148284 0.00190977
0.148918 0.00254314
0.149984 0.00147706
0.150256 0.00174989
0.150514 0.0014926
0.150744 0.00172255
0.151013 0.00145335
0.152212 0.0026523
0.152231 0.00263299
0.15226 0.0026614
0.152279 0.00264179
0.152679 0.00304136
0.153094 0.00262643
0.153372 0.0029048
0.154759 0.00151734
0.155399 0.00215653
0.155922 0.00163317
0.156793 0.00250426
0.156854 0.00244369
0.157252 0.00284219
0.15745 0.00264469
0.157548 0.0027432
0.158076 0.00221578
0.158893 0.00303309
0.159063 0.00286305
0.159575 0.00337533
0.159698 0.00325281
0.159736 0.00329119
0.162004 0.00102368
0.162114 0.00113373
0.162314 0.000933585
0.16422 0.00283973
0.165767 0.00129247
0.166295 0.00182037
0.16777 0.000345108
0.167976 0.00055077
0.168486 4.1294e-05
0.168803 0.000358382
0.169161 0
0.173964 0
0.174801 0.000836667
0.175599 3.81388e-05
0.176558 0.000996889
0.177251 0.000303605
0.177374 0.000426357
0.1778 0
inf 0


"layer 51:"
-inf 0
0.142229 0
0.144287 0.00205749
0.144538 0.00180668
0.144959 0.00222779
0.145122 0.00206482
0.145357 0.0023001
0.145548 0.00210894
0.14637 0.00293122
0.146389 0.00291277
0.146733 0.00325672
0.147217 0.00277263
0.147269 0.00282515
0.147973 0.00212128
0.148003 0.0021509
0.148264 0.00188972
0.148284 0.00190977
0.14935 0.000843691
0.149984 0.00147706
0.150241 0.00121977
0.150514 0.0014926
0.150783 0.00122339
0.151013 0.00145335
0.151032 0.00143404
0.152231 0.00263299
0.152251 0.00261338
0.152279 0.00264179
0.152694 0.00222685
0.153094 0.00262643
0.154481 0.00123896
0.154759 0.00151734
0.155283 0.000993977
0.155922 0.00163317
0.155983 0.00157259
0.156854 0.00244369
0.157051 0.00224619
0.15745 0.00264469
0.157977 0.00211726
0.158076 0.00221578
0.158246 0.00204573
0.159063 0.00286305
0.159186 0.00274053
0.159698 0.00325281
0.161965 0.0009853
0.162004 0.00102368
0.162204 0.000823538
0.162314 0.000933585
0.163247 0
0.164475 0
0.165767 0.00129247
0.16706 0
0.167425 0
0.16777 0.000345108
0.168116 0
0.168444 0
0.168486 4.1294e-05
0.168527 0
0.168529 0
0.168726 0.00019676
0.168922 0
0.175561 0
0.175599 3.81388e-05
0.175637 0
0.176948 0
0.177251 0.000303605
0.177555 0
inf 0


"layer 52:"
-inf 0
0.142731 0
0.144538 0.00180668
0.144701 0.00164371
0.145122 0.00206482
0.145313 0.00187366
0.145548 0.00210894
0.145567 0.00209048
0.146389 0.00291277
0.146873 0.00242868
0.147217 0.00277263
0.147921 0.00206876
0.147973 0.00212128
0.148234 0.0018601
0.148264 0.00188972
0.14933 0.00082364
0.14935 0.000843691
0.149608 0.000586394
0.150241 0.00121977
0.15051 0.000950564
0.150783 0.00122339
0.150802 0.00120408
0.151032 0.00143404
0.151052 0.00141443
0.152251 0.00261338
0.152666 0.00219844
0.152694 0.00222685
0.154082 0.000839384
0.154481 0.00123896
0.155004 0.000715603
0.155283 0.000993977
0.155343 0.000933404
0.155983 0.00157259
0.15618 0.00137509
0.157051 0.00224619
0.157579 0.00171876
0.157977 0.00211726
0.158147 0.00194722
0.158246 0.00204573
0.158368 0.00192322
0.159186 0.00274053
0.161453 0.000473022
0.161965 0.0009853
0.162165 0.000785156
0.162204 0.000823538
0.163027 0
inf 0


"layer 53:"
-inf 0
0.143057 0
0.144701 0.00164371
0.144892 0.00145254
0.145313 0.00187366
0.145331 0.0018552
0.145567 0.00209048
0.146051 0.00160639
0.146873 0.00242868
0.147577 0.00172481
0.147921 0.00206876
0.148182 0.00180758
0.148234 0.0018601
0.149301 0.000794024
0.14933 0.00082364
0.149587 0.000566343
0.149608 0.000586394
0.149822 0.00037164
0.150122 0.000671404
0.150176 0.000616955
0.15051 0.000950564
0.150529 0.000931252
0.150802 0.00120408
0.150822 0.00118447
0.151052 0.00141443
0.151467 0.000999489
0.152666 0.00219844
0.154053 0.000810978
0.154082 0.000839384
0.154605 0.000316025
0.155004 0.000715603
0.155065 0.00065503
0.155343 0.000933404
0.155541 0.000735902
0.15618 0.00137509
0.156708 0.000847666
0.157579 0.00171876
0.157749 0.00154871
0.158147 0.00194722
0.15827 0.0018247
0.158368 0.00192322
0.160291 0
0.16098 0
0.161453 0.000473022
0.161653 0.000272879
0.162165 0.000785156
0.162951 0
inf 0


"layer 54:"
-inf 0
0.143439 0
0.144892 0.00145254
0.14491 0.00143408
0.145331 0.0018552
0.145815 0.00137111
0.146051 0.00160639
0.146755 0.000902525
0.147577 0.00172481
0.147838 0.00146363
0.148182 0.00180758
0.149248 0.000741507
0.149301 0.000794024
0.149558 0.000536727
0.149587 0.000566343
0.149802 0.00035159
0.149822 0.00037164
0.149877 0.000317192
0.150176 0.000616955
0.150196 0.000597643
0.150529 0.000931252
0.150549 0.000911643
0.150822 0.00118447
0.151237 0.000769534
0.151467 0.000999489
0.152281 0.000185051
0.153403 0.00130719
0.153976 0.000734161
0.154053 0.000810978
0.154576 0.000287618
0.154605 0.000316025
0.154665 0.000255452
0.155065 0.00065503
0.155263 0.000457528
0.155541 0.000735902
0.156068 0.000208477
0.156708 0.000847666
0.156878 0.00067762
0.157749 0.00154871
0.157871 0.0014262
0.15827 0.0018247
0.160094 0
0.16138 0
0.161653 0.000272879
0.161926 0
inf 0


"layer 55:"
-inf 0
0.143476 0
0.14491 0.00143408
0.145394 0.00095
0.145815 0.00137111
0.146519 0.000667245
0.146755 0.000902525
0.147016 0.000641347
0.147838 0.00146363
0.148904 0.000397557
0.149248 0.000741507
0.149505 0.00048421
0.149558 0.000536727
0.149773 0.000321973
0.149802 0.00035159
0.149857 0.000297141
0.149877 0.000317192
0.149896 0.000297879
0.150196 0.000597643
0.150215 0.000578034
0.150549 0.000911643
0.150964 0.000496705
0.151237 0.000769534
0.152006 0
0.152096 0
0.152281 0.000185051
0.152407 5.89125e-05
0.153308 0.000959235
0.153755 0.000512348
0.153976 0.000734161
0.1545 0.000210802
0.154576 0.000287618
0.154637 0.000227046
0.154665 0.000255452
0.154863 5.79496e-05
0.155263 0.000457528
0.155515 0.000205122
0.155596 0.000286349
0.155871 1.13299e-05
0.156068 0.000208477
0.156238 3.84309e-05
0.156878 0.00067762
0.157 0.000555102
0.157871 0.0014262
0.159297 0
inf 0


"layer 56:"
-inf 0
0.144444 0
0.145394 0.00095
0.146098 0.000246131
0.146519 0.000667245
0.14678 0.000406067
0.147016 0.000641347
0.147657 0
0.148507 0
0.148904 0.000397557
0.149161 0.00014026
0.149505 0.00048421
0.14972 0.000269457
0.149773 0.000321973
0.149827 0.000267525
0.149857 0.000297141
0.149876 0.000277829
0.149896 0.000297879
0.149916 0.00027827
0.150215 0.000578034
0.15063 0.000163096
0.150964 0.000496705
0.151461 0
0.152348 0
0.152407 5.89125e-05
0.152466 0
0.153242 0
0.153755 0.000512348
0.154267 0
0.154289 0
0.1545 0.000210802
0.15456 0.000150229
0.154637 0.000227046
0.154835 2.95431e-05
0.154863 5.79496e-05
0.154921 0
0.15531 0
0.155515 0.000205122
0.15572 0
0.15586 0
0.155871 1.13299e-05
0.155883 0
0.1562 0
0.156238 3.84309e-05
0.156277 0
0.156445 0
0.157 0.000555102
0.157555 0
inf 0


"layer 57:"
-inf 0
0.145852 0
0.146098 0.000246131
0.146344 0
0.146374 0
0.14678 0.000406067
0.147186 0
0.149021 0
0.149161 0.00014026
0.149302 0
0.149451 0
0.14972 0.000269457
0.149775 0.000215008
0.149827 0.000267525
0.149846 0.000248212
0.149876 0.000277829
0.149896 0.00025822
0.149916 0.00027827
0.150194 0
0.150467 0
0.15063 0.000163096
0.150793 0
0.15441 0
0.15456 0.000150229
0.15471 0
0.154805 0
0.154835 2.95431e-05
0.154864 0
inf 0


"layer 58:"
-inf 0
0.14956 0
0.149775 0.000215008
0.149794 0.000195696
0.149846 0.000248212
0.149866 0.000228603
0.149896 0.00025822
0.150154 0
inf 0


"layer 59:"
-inf 0
0.149598 0
0.149794 0.000195696
0.149813 0.000176087
0.149866 0.000228603
0.150095 0
inf 0


"layer 60:"
-inf 0
0.149637 0
0.149813 0.000176087
0.14999 0
inf 0


