# persistence landscape
# X Y
"layer 0:"
-inf 0
0.0625378 0
0.0631156 0.000577769
0.0635836 0.000109719
0.0652006 0.00172668
0.0669273 0
0.0701276 0
0.0749467 0.00481908
0.0772669 0.0024988
0.0813633 0.00659513
0.083763 0.00419545
0.0880849 0.00851742
0.0909885 0.00561387
0.0912572 0.00588257
0.0940505 0.00308929
0.10188 0.0109184
0.105563 0.00723546
0.112122 0.013795
0.112826 0.0130908
0.129798 0.0300624
0.132862 0.0269978
0.144418 0.0385531
0.147686 0.0352844
0.15419 0.0417878
0.15517 0.040808
0.168909 0.0545475
0.172113 0.0513439
0.194914 0.0741451
0.195507 0.073552
0.208586 0.0866311
0.295217 0
inf 0


"layer 1:"
-inf 0
0.0634739 0
0.0635836 0.000109719
0.0636934 0
0.0728762 0
0.0735946 0.000718376
0.074313 0
0.0747682 0
0.0772669 0.0024988
0.0784962 0.0012695
0.0820437 0.004817
0.0832141 0.00364661
0.083763 0.00419545
0.0851434 0.00281498
0.085242 0.0029136
0.086645 0.00151067
0.0870098 0.00187544
0.0871299 0.00175528
0.0909885 0.00561387
0.0937818 0.00282059
0.0940505 0.00308929
0.0955838 0.00155595
0.0967547 0.00272684
0.0983708 0.00111078
0.101246 0.00398642
0.10178 0.00345283
0.105563 0.00723546
0.106028 0.00677041
0.111496 0.0122389
0.111735 0.0119997
0.112826 0.0130908
0.113599 0.0123183
0.119492 0.0182118
0.121784 0.0159198
0.132862 0.0269978
0.133255 0.0266053
0.139196 0.0325467
0.142073 0.0296706
0.147686 0.0352844
0.148666 0.0343046
0.15517 0.040808
0.158373 0.0376044
0.172113 0.0513439
0.172706 0.0507508
0.195507 0.073552
0.198292 0.0707668
0.208145 0.0806196
0.288765 0
inf 0


"layer 2:"
-inf 0
0.0772267 0
0.0784962 0.0012695
0.0796666 9.91117e-05
0.0832141 0.00364661
0.0845946 0.00226615
0.0851434 0.00281498
0.0865464 0.00141205
0.086645 0.00151067
0.0867651 0.00139051
0.0871299 0.00175528
0.0879589 0.000926335
0.0894307 0.00239819
0.0902902 0.00153876
0.0919868 0.00323542
0.0930917 0.00213052
0.0937818 0.00282059
0.0953151 0.00128725
0.0955838 0.00155595
0.0971398 0
0.09726 0
0.0983708 0.00111078
0.0989044 0.000577192
0.10178 0.00345283
0.102245 0.00298778
0.106028 0.00677041
0.106267 0.00653128
0.111735 0.0119997
0.112508 0.0112272
0.113599 0.0123183
0.115891 0.0100262
0.121784 0.0159198
0.122177 0.0155273
0.133255 0.0266053
0.136131 0.0237291
0.142073 0.0296706
0.143052 0.0286907
0.148666 0.0343046
0.15149 0.0314808
0.155404 0.035395
0.155784 0.0350152
0.158373 0.0376044
0.158966 0.0370113
0.172706 0.0507508
0.175491 0.0479655
0.198292 0.0707668
0.199688 0.0693714
0.205432 0.0751159
0.280548 0
inf 0


"layer 3:"
-inf 0
0.0795675 0
0.0796666 9.91117e-05
0.0797657 0
0.0823284 0
0.0845946 0.00226615
0.0859975 0.000863213
0.0865464 0.00141205
0.0866665 0.0012919
0.0867651 0.00139051
0.0875941 0.000561563
0.0879589 0.000926335
0.0888183 6.68992e-05
0.0902902 0.00153876
0.091395 0.000433859
0.0930917 0.00213052
0.0946251 0.000597184
0.0953151 0.00128725
0.0966024 0
0.0983272 0
0.0989044 0.000577192
0.0993694 0.000112145
0.102245 0.00298778
0.102484 0.00274865
0.106267 0.00653128
0.107039 0.00575875
0.112508 0.0112272
0.112522 0.0112131
0.112795 0.0114865
0.115073 0.00920859
0.115891 0.0100262
0.116283 0.00963368
0.122177 0.0155273
0.122561 0.0151433
0.123552 0.0161346
0.123638 0.0160489
0.132077 0.0244878
0.134483 0.0220814
0.136131 0.0237291
0.137111 0.0227493
0.143052 0.0286907
0.145876 0.0258669
0.15149 0.0314808
0.15187 0.031101
0.155784 0.0350152
0.156377 0.0344221
0.158966 0.0370113
0.159547 0.0364304
0.17304 0.049923
0.175244 0.0477186
0.175491 0.0479655
0.176886 0.0465702
0.199688 0.0693714
0.204928 0.0641313
0.206456 0.0656599
0.208301 0.0638153
0.209527 0.0650417
0.274569 0
inf 0


"layer 4:"
-inf 0
0.0837792 0
0.0847769 0.000997707
0.0854545 0.000320161
0.0859975 0.000863213
0.0861177 0.000743058
0.0866665 0.0012919
0.0874955 0.000462947
0.0875941 0.000561563
0.0881556 0
0.0887514 0
0.0888183 6.68992e-05
0.0888852 0
0.0909612 0
0.091395 0.000433859
0.0918289 0
0.0940279 0
0.0946251 0.000597184
0.0952222 0
0.0992573 0
0.0993694 0.000112145
0.0994816 0
0.0997355 0
0.102484 0.00274865
0.103257 0.00197612
0.107039 0.00575875
0.107053 0.00574465
0.112522 0.0112131
0.1148 0.0089352
0.115073 0.00920859
0.115466 0.00881605
0.116283 0.00963368
0.116667 0.00924971
0.122561 0.0151433
0.122647 0.0150575
0.123638 0.0160489
0.12388 0.0158072
0.123907 0.0158347
0.124089 0.0156527
0.126821 0.0183842
0.127022 0.0181828
0.131752 0.0229124
0.133533 0.0211309
0.134483 0.0220814
0.135463 0.0211015
0.137111 0.0227493
0.137175 0.0226849
0.137661 0.0231709
0.139999 0.0208337
0.144342 0.0251766
0.144764 0.0247545
0.145876 0.0258669
0.146256 0.0254871
0.15187 0.031101
0.152463 0.0305079
0.156377 0.0344221
0.156958 0.0338412
0.159547 0.0364304
0.160961 0.0350165
0.165939 0.0399942
0.166729 0.0392038
0.175244 0.0477186
0.17664 0.0463233
0.176886 0.0465702
0.177009 0.0464472
0.188796 0.0582336
0.192386 0.0546433
0.199894 0.0621507
0.20142 0.0606238
0.204928 0.0641313
0.206772 0.0622867
0.208301 0.0638153
0.272116 0
inf 0


"layer 5:"
-inf 0
0.0851343 0
0.0854545 0.000320161
0.0855746 0.000200006
0.0861177 0.000743058
0.086383 0.000477767
0.0867994 0.000894166
0.087363 0.000330507
0.0874955 0.000462947
0.0879584 0
0.0946134 0
0.0948141 0.000200653
0.0950147 0
0.101281 0
0.103257 0.00197612
0.103271 0.00196202
0.107053 0.00574465
0.108255 0.004543
0.111402 0.00768994
0.112478 0.00661366
0.1148 0.0089352
0.115192 0.00854265
0.115466 0.00881605
0.11585 0.00843207
0.116667 0.00924971
0.116753 0.00916397
0.122647 0.0150575
0.122888 0.0148159
0.12388 0.0158072
0.124062 0.0156253
0.124089 0.0156527
0.124291 0.0154513
0.127022 0.0181828
0.128803 0.0164014
0.133533 0.0211309
0.134513 0.0201511
0.135463 0.0211015
0.135528 0.0210371
0.137175 0.0226849
0.139513 0.0203476
0.139999 0.0208337
0.140421 0.0204115
0.144764 0.0247545
0.145144 0.0243747
0.146256 0.0254871
0.146767 0.0249766
0.148553 0.026763
0.148636 0.0266805
0.152463 0.0305079
0.153044 0.029927
0.156958 0.0338412
0.158372 0.0324273
0.160961 0.0350165
0.161752 0.034226
0.166729 0.0392038
0.168125 0.0378084
0.17664 0.0463233
0.176763 0.0462003
0.177009 0.0464472
0.178523 0.0449332
0.180756 0.0471658
0.182832 0.0450895
0.192386 0.0546433
0.193308 0.053721
0.19389 0.0543023
0.194297 0.0538947
0.196238 0.0558354
0.196435 0.0556385
0.20142 0.0606238
0.203265 0.0587793
0.206772 0.0622867
0.269059 0
inf 0


"layer 6:"
-inf 0
0.0853746 0
0.0855746 0.000200006
0.0857746 0
0.0859052 0
0.086383 0.000477767
0.0868607 0
0.0870325 0
0.087363 0.000330507
0.0876935 0
0.101309 0
0.103271 0.00196202
0.10366 0.00157284
0.105159 0.00307189
0.105972 0.00225943
0.108255 0.004543
0.109331 0.00346672
0.112478 0.00661366
0.112871 0.00622112
0.115192 0.00854265
0.115576 0.00815867
0.11585 0.00843207
0.115935 0.00834633
0.116753 0.00916397
0.116995 0.00892233
0.122888 0.0148159
0.12307 0.014634
0.124062 0.0156253
0.124263 0.0154239
0.124291 0.0154513
0.125428 0.0143143
0.127797 0.0166838
0.128441 0.0160394
0.128803 0.0164014
0.129783 0.0154216
0.134513 0.0201511
0.134577 0.0200867
0.135528 0.0210371
0.136331 0.0202338
0.137669 0.0215715
0.139203 0.0200376
0.139513 0.0203476
0.139935 0.0199255
0.140421 0.0204115
0.140801 0.0200318
0.145144 0.0243747
0.145654 0.0238641
0.146767 0.0249766
0.146849 0.024894
0.148636 0.0266805
0.149216 0.0260996
0.153044 0.029927
0.154458 0.0285131
0.158372 0.0324273
0.159162 0.0316369
0.161752 0.034226
0.163147 0.0328307
0.168125 0.0378084
0.168248 0.0376854
0.176763 0.0462003
0.178277 0.0446863
0.178523 0.0449332
0.1806 0.0428569
0.182832 0.0450895
0.183755 0.0441672
0.193308 0.053721
0.193716 0.0533133
0.194297 0.0538947
0.194494 0.0536978
0.196435 0.0556385
0.19828 0.0537939
0.203265 0.0587793
0.262044 0
inf 0


"layer 7:"
-inf 0
0.102087 0
0.10366 0.00157284
0.104472 0.000760378
0.105972 0.00225943
0.106514 0.0017168
0.106719 0.00192124
0.10688 0.00175974
0.108799 0.00367859
0.109171 0.00330644
0.109331 0.00346672
0.109547 0.00325114
0.112597 0.00630132
0.112774 0.00612436
0.112871 0.00622112
0.113255 0.00583714
0.115576 0.00815867
0.115662 0.00807293
0.115935 0.00834633
0.116177 0.00810469
0.116995 0.00892233
0.117177 0.00874038
0.12307 0.014634
0.123272 0.0144325
0.124263 0.0154239
0.1254 0.0142868
0.125428 0.0143143
0.126072 0.0136699
0.128441 0.0160394
0.129421 0.0150596
0.129783 0.0154216
0.129848 0.0153571
0.134577 0.0200867
0.13538 0.0192834
0.136331 0.0202338
0.137865 0.0186999
0.139203 0.0200376
0.139625 0.0196154
0.139935 0.0199255
0.140315 0.0195457
0.140801 0.0200318
0.141311 0.0195212
0.145654 0.0238641
0.145737 0.0237816
0.146849 0.024894
0.14743 0.0243131
0.149216 0.0260996
0.15063 0.0246857
0.154458 0.0285131
0.155248 0.0277226
0.159162 0.0316369
0.160558 0.0302415
0.163147 0.0328307
0.16327 0.0327077
0.168248 0.0376854
0.169762 0.0361714
0.178277 0.0446863
0.180353 0.04261
0.1806 0.0428569
0.181522 0.0419346
0.183755 0.0441672
0.184162 0.0437596
0.193716 0.0533133
0.193913 0.0531164
0.194494 0.0536978
0.196339 0.0518532
0.19828 0.0537939
0.218144 0.033929
0.221343 0.0371272
0.25847 0
inf 0


"layer 8:"
-inf 0
0.103712 0
0.104472 0.000760378
0.105015 0.000217752
0.106514 0.0017168
0.106676 0.0015553
0.10688 0.00175974
0.107252 0.00138759
0.109171 0.00330644
0.109387 0.00309085
0.109547 0.00325114
0.109724 0.00307418
0.112774 0.00612436
0.113158 0.00574038
0.113255 0.00583714
0.113341 0.0057514
0.115662 0.00807293
0.115904 0.00783129
0.116177 0.00810469
0.116359 0.00792274
0.117177 0.00874038
0.117378 0.00853896
0.123272 0.0144325
0.124409 0.0132955
0.1254 0.0142868
0.126044 0.0136424
0.126072 0.0136699
0.126963 0.0127788
0.127096 0.0129115
0.127184 0.0128228
0.129421 0.0150596
0.129486 0.0149951
0.129848 0.0153571
0.130651 0.0145539
0.13538 0.0192834
0.136802 0.0178619
0.137133 0.0181929
0.137245 0.0180804
0.137865 0.0186999
0.138287 0.0182777
0.139625 0.0196154
0.140005 0.0192356
0.140315 0.0195457
0.140825 0.0190352
0.141311 0.0195212
0.141394 0.0194386
0.145737 0.0237816
0.146318 0.0232007
0.14743 0.0243131
0.148844 0.0228992
0.15063 0.0246857
0.151421 0.0238952
0.155248 0.0277226
0.156644 0.0263273
0.160558 0.0302415
0.160681 0.0301185
0.16327 0.0327077
0.164784 0.0311937
0.169762 0.0361714
0.171838 0.0340952
0.180353 0.04261
0.181275 0.0416877
0.181522 0.0419346
0.18193 0.041527
0.184162 0.0437596
0.184359 0.0435626
0.193913 0.0531164
0.195758 0.0512718
0.196339 0.0518532
0.197204 0.0509883
0.198856 0.0526404
0.217856 0.0336405
0.218144 0.033929
0.22812 0.0239531
0.229515 0.0253472
0.254862 0
inf 0


"layer 9:"
-inf 0
0.104797 0
0.105015 0.000217752
0.105177 5.62493e-05
0.106676 0.0015553
0.107048 0.00118315
0.107252 0.00138759
0.107468 0.001172
0.109387 0.00309085
0.109564 0.0029139
0.109724 0.00307418
0.110108 0.0026902
0.113158 0.00574038
0.113244 0.00565464
0.113341 0.0057514
0.113582 0.00550976
0.115904 0.00783129
0.116086 0.00764934
0.116359 0.00792274
0.116561 0.00772132
0.117378 0.00853896
0.118515 0.00740196
0.124409 0.0132955
0.125053 0.0126511
0.126044 0.0136424
0.126936 0.0127513
0.126963 0.0127788
0.127052 0.0126901
0.127184 0.0128228
0.127249 0.0127583
0.129486 0.0149951
0.130289 0.0141919
0.130651 0.0145539
0.132072 0.0131323
0.136802 0.0178619
0.136914 0.0177494
0.137245 0.0180804
0.137668 0.0176583
0.138287 0.0182777
0.138667 0.0178979
0.140005 0.0192356
0.140515 0.0187251
0.140825 0.0190352
0.140908 0.0189526
0.141394 0.0194386
0.141975 0.0188577
0.146318 0.0232007
0.147732 0.0217868
0.148844 0.0228992
0.149634 0.0221088
0.151421 0.0238952
0.152816 0.0224999
0.156644 0.0263273
0.156767 0.0262043
0.160681 0.0301185
0.162195 0.0286045
0.164784 0.0311937
0.164931 0.0310464
0.165893 0.0320081
0.167209 0.0306924
0.167595 0.0310784
0.168208 0.0304652
0.171838 0.0340952
0.17276 0.0331728
0.181275 0.0416877
0.181683 0.0412801
0.18193 0.041527
0.182127 0.04133
0.184359 0.0435626
0.186204 0.0417181
0.195758 0.0512718
0.196623 0.0504069
0.197204 0.0509883
0.216204 0.0319884
0.217856 0.0336405
0.227832 0.0236645
0.22812 0.0239531
0.252074 0
inf 0


"layer 10:"
-inf 0
0.10512 0
0.105177 5.62493e-05
0.105233 0
0.105865 0
0.107048 0.00118315
0.107263 0.000967562
0.107468 0.001172
0.107645 0.000995041
0.109564 0.0029139
0.109948 0.00252992
0.110108 0.0026902
0.110194 0.00260446
0.113244 0.00565464
0.113485 0.005413
0.113582 0.00550976
0.113764 0.00532781
0.116086 0.00764934
0.116287 0.00744793
0.116561 0.00772132
0.117698 0.00658432
0.118515 0.00740196
0.11916 0.00675754
0.125053 0.0126511
0.125944 0.01176
0.126936 0.0127513
0.127024 0.0126626
0.127052 0.0126901
0.127116 0.0126257
0.127249 0.0127583
0.128052 0.0119551
0.130289 0.0141919
0.13171 0.0127703
0.132072 0.0131323
0.132185 0.0130199
0.136914 0.0177494
0.137337 0.0173273
0.137668 0.0176583
0.138047 0.0172785
0.138667 0.0178979
0.139177 0.0173874
0.140515 0.0187251
0.140598 0.0186425
0.140908 0.0189526
0.141489 0.0183717
0.141975 0.0188577
0.143129 0.0177034
0.146213 0.0207876
0.146473 0.020528
0.147732 0.0217868
0.148522 0.0209963
0.149634 0.0221088
0.150905 0.0208383
0.151733 0.0216667
0.151858 0.0215419
0.152816 0.0224999
0.152939 0.0223769
0.156767 0.0262043
0.158281 0.0246903
0.162195 0.0286045
0.162342 0.0284572
0.164931 0.0310464
0.166247 0.0297306
0.167209 0.0306924
0.167822 0.0300792
0.168208 0.0304652
0.16913 0.0295428
0.17276 0.0331728
0.173168 0.0327652
0.181683 0.0412801
0.18188 0.0410831
0.182127 0.04133
0.183971 0.0394855
0.186204 0.0417181
0.187069 0.0408531
0.196623 0.0504069
0.215622 0.031407
0.216204 0.0319884
0.22618 0.0220124
0.227832 0.0236645
0.251496 0
inf 0


"layer 11:"
-inf 0
0.106296 0
0.107263 0.000967562
0.10744 0.000790604
0.107645 0.000995041
0.108029 0.000611064
0.109948 0.00252992
0.110033 0.00244418
0.110194 0.00260446
0.110435 0.00236282
0.113485 0.005413
0.113667 0.00523105
0.113764 0.00532781
0.113966 0.00512639
0.116287 0.00744793
0.117424 0.00631092
0.117698 0.00658432
0.118342 0.00593991
0.11916 0.00675754
0.119466 0.00645156
0.121209 0.00819488
0.121309 0.00809457
0.12367 0.0104557
0.124155 0.00997092
0.125944 0.01176
0.126033 0.0116713
0.127024 0.0126626
0.127089 0.0125982
0.127116 0.0126257
0.127919 0.0118224
0.128052 0.0119551
0.129474 0.0105335
0.13171 0.0127703
0.131823 0.0126579
0.132185 0.0130199
0.132607 0.0125977
0.137337 0.0173273
0.137716 0.0169475
0.138047 0.0172785
0.138558 0.016768
0.139177 0.0173874
0.13926 0.0173048
0.140598 0.0186425
0.141179 0.0180616
0.141489 0.0183717
0.142643 0.0172173
0.143129 0.0177034
0.143389 0.0174438
0.146473 0.020528
0.147263 0.0197376
0.148522 0.0209963
0.149792 0.0197259
0.150905 0.0208383
0.15103 0.0207134
0.151858 0.0215419
0.151981 0.0214189
0.152939 0.0223769
0.154453 0.0208629
0.158281 0.0246903
0.158428 0.024543
0.162342 0.0284572
0.163658 0.0271415
0.166247 0.0297306
0.16686 0.0291174
0.167822 0.0300792
0.168744 0.0291568
0.16913 0.0295428
0.169538 0.0291352
0.173168 0.0327652
0.173365 0.0325683
0.18188 0.0410831
0.183724 0.0392386
0.183971 0.0394855
0.184836 0.0386205
0.187069 0.0408531
0.1889 0.0390219
0.191687 0.0418094
0.208856 0.0246407
0.215622 0.031407
0.225598 0.021431
0.22618 0.0220124
0.244169 0.0040236
0.24557 0.0054253
0.250996 0
inf 0


"layer 12:"
-inf 0
0.10665 0
0.10744 0.000790604
0.107824 0.000406627
0.108029 0.000611064
0.108114 0.000525323
0.110033 0.00244418
0.110275 0.00220254
0.110435 0.00236282
0.110471 0.00232712
0.111861 0.00371731
0.112007 0.00357107
0.113667 0.00523105
0.113869 0.00502963
0.113966 0.00512639
0.115103 0.00398939
0.117424 0.00631092
0.118069 0.00566651
0.118342 0.00593991
0.118648 0.00563392
0.119466 0.00645156
0.119566 0.00635125
0.121309 0.00809457
0.121794 0.00760977
0.124155 0.00997092
0.124244 0.00988217
0.126033 0.0116713
0.126097 0.0116069
0.127089 0.0125982
0.127892 0.0117949
0.127919 0.0118224
0.129341 0.0104008
0.129474 0.0105335
0.129586 0.0104211
0.131823 0.0126579
0.132245 0.0122357
0.132607 0.0125977
0.132987 0.012218
0.137716 0.0169475
0.138227 0.016437
0.138558 0.016768
0.13864 0.0166854
0.13926 0.0173048
0.139841 0.0167239
0.141179 0.0180616
0.142333 0.0169073
0.142643 0.0172173
0.142903 0.0169578
0.143389 0.0174438
0.144179 0.0166534
0.147263 0.0197376
0.148534 0.0184671
0.149792 0.0197259
0.149917 0.019601
0.15103 0.0207134
0.151153 0.0205904
0.151981 0.0214189
0.153495 0.0199049
0.154453 0.0208629
0.1546 0.0207156
0.158428 0.024543
0.159485 0.0234864
0.162533 0.0265352
0.162793 0.0262761
0.163658 0.0271415
0.164271 0.0265283
0.16686 0.0291174
0.167783 0.0281951
0.168744 0.0291568
0.169152 0.0287492
0.169538 0.0291352
0.169735 0.0289383
0.173365 0.0325683
0.175209 0.0307237
0.183724 0.0392386
0.184589 0.0383736
0.184836 0.0386205
0.186667 0.0367893
0.1889 0.0390219
0.206069 0.0218532
0.208856 0.0246407
0.218832 0.0146647
0.225598 0.021431
0.243587 0.00344221
0.244169 0.0040236
0.248192 0
inf 0


"layer 13:"
-inf 0
0.107418 0
0.107824 0.000406627
0.10791 0.000320885
0.108114 0.000525323
0.108356 0.000283684
0.110275 0.00220254
0.110311 0.00216683
0.110471 0.00232712
0.110617 0.00218087
0.112007 0.00357107
0.112209 0.00336965
0.113869 0.00502963
0.115006 0.00389263
0.115103 0.00398939
0.115747 0.00334498
0.118069 0.00566651
0.118375 0.00536052
0.118648 0.00563392
0.118748 0.00553361
0.119566 0.00635125
0.120051 0.00586645
0.121794 0.00760977
0.121883 0.00752102
0.124244 0.00988217
0.124308 0.00981776
0.126097 0.0116069
0.126549 0.0111557
0.12675 0.0113574
0.127102 0.0110052
0.127892 0.0117949
0.129314 0.0103734
0.129341 0.0104008
0.129453 0.0102884
0.129586 0.0104211
0.130008 0.00999893
0.132245 0.0122357
0.132625 0.011856
0.132987 0.012218
0.133497 0.0117074
0.138227 0.016437
0.138309 0.0163544
0.13864 0.0166854
0.139221 0.0161045
0.139841 0.0167239
0.140995 0.0155696
0.142333 0.0169073
0.142592 0.0166477
0.142903 0.0169578
0.143693 0.0161673
0.144179 0.0166534
0.145449 0.0153829
0.148534 0.0184671
0.148659 0.0183422
0.149917 0.019601
0.15004 0.019478
0.151153 0.0205904
0.152667 0.0190764
0.153495 0.0199049
0.153642 0.0197576
0.1546 0.0207156
0.155657 0.019659
0.159485 0.0234864
0.159744 0.0232273
0.162793 0.0262761
0.163406 0.0256629
0.164271 0.0265283
0.164782 0.0260175
0.167334 0.0285695
0.167745 0.0281579
0.167783 0.0281951
0.16819 0.0277875
0.169152 0.0287492
0.169349 0.0285523
0.169735 0.0289383
0.171579 0.0270937
0.175209 0.0307237
0.176074 0.0298588
0.184589 0.0383736
0.18642 0.0365424
0.186667 0.0367893
0.186969 0.0364879
0.187673 0.0371925
0.204541 0.0203252
0.206069 0.0218532
0.216045 0.0118772
0.218832 0.0146647
0.233497 0
0.234014 0
0.236208 0.00219407
0.238402 0
0.240145 0
0.243587 0.00344221
0.247029 0
inf 0


"layer 14:"
-inf 0
0.107589 0
0.10791 0.000320885
0.108152 7.9247e-05
0.108356 0.000283684
0.108392 0.00024798
0.110311 0.00216683
0.110457 0.00202059
0.110617 0.00218087
0.110819 0.00197945
0.112209 0.00336965
0.113346 0.00223265
0.115006 0.00389263
0.11565 0.00324822
0.115747 0.00334498
0.116053 0.00303899
0.118375 0.00536052
0.118475 0.00526021
0.118748 0.00553361
0.119233 0.00504881
0.120051 0.00586645
0.120139 0.0057777
0.121883 0.00752102
0.121947 0.00745661
0.124308 0.00981776
0.124759 0.00936661
0.126549 0.0111557
0.126901 0.0108036
0.127102 0.0110052
0.128524 0.00958369
0.129314 0.0103734
0.129426 0.0102609
0.129453 0.0102884
0.129876 0.00986624
0.130008 0.00999893
0.130388 0.00961917
0.132625 0.011856
0.133135 0.0113454
0.133497 0.0117074
0.13358 0.0116249
0.138309 0.0163544
0.13889 0.0157735
0.139221 0.0161045
0.140376 0.0149501
0.140995 0.0155696
0.141255 0.01531
0.142592 0.0166477
0.143383 0.0158573
0.143693 0.0161673
0.144963 0.0148969
0.145449 0.0153829
0.145574 0.015258
0.148659 0.0183422
0.148782 0.0182193
0.15004 0.019478
0.151554 0.017964
0.152667 0.0190764
0.152814 0.0189291
0.153642 0.0197576
0.154699 0.0187009
0.155657 0.019659
0.155916 0.0193999
0.159744 0.0232273
0.160357 0.0226141
0.163406 0.0256629
0.163916 0.0251522
0.164782 0.0260175
0.165193 0.0256059
0.167745 0.0281579
0.168153 0.0277502
0.16819 0.0277875
0.168387 0.0275905
0.169349 0.0285523
0.171193 0.0267077
0.171579 0.0270937
0.172444 0.0262288
0.176074 0.0298588
0.176414 0.0295195
0.178792 0.0318978
0.180284 0.0304058
0.18642 0.0365424
0.186722 0.036241
0.186969 0.0364879
0.189708 0.0337483
0.190251 0.0342905
0.204378 0.0201628
0.204541 0.0203252
0.214517 0.0103492
0.216045 0.0118772
0.227922 0
inf 0


"layer 15:"
-inf 0
0.108072 0
0.108152 7.9247e-05
0.108187 4.35425e-05
0.108392 0.00024798
0.108538 0.000101733
0.110457 0.00202059
0.110658 0.00181917
0.110819 0.00197945
0.111956 0.00084245
0.113346 0.00223265
0.113916 0.00166221
0.114683 0.00242873
0.114757 0.00235475
0.11565 0.00324822
0.115956 0.00294223
0.116053 0.00303899
0.116153 0.00293868
0.118475 0.00526021
0.11896 0.00477542
0.119233 0.00504881
0.119322 0.00496007
0.120139 0.0057777
0.120204 0.00571329
0.121947 0.00745661
0.122398 0.00700546
0.124759 0.00936661
0.125112 0.00901448
0.126901 0.0108036
0.128322 0.00938204
0.128524 0.00958369
0.128636 0.00947127
0.129426 0.0102609
0.129848 0.00983876
0.129876 0.00986624
0.130255 0.00948649
0.130388 0.00961917
0.130899 0.00910861
0.133135 0.0113454
0.133218 0.0112629
0.13358 0.0116249
0.134161 0.011044
0.13889 0.0157735
0.140045 0.0146191
0.140376 0.0149501
0.140635 0.0146906
0.141255 0.01531
0.142045 0.0145196
0.143383 0.0158573
0.144653 0.0145868
0.144963 0.0148969
0.145088 0.014772
0.145574 0.015258
0.145697 0.015135
0.148782 0.0182193
0.150296 0.0167052
0.151554 0.017964
0.151702 0.0178167
0.152814 0.0189291
0.153871 0.0178725
0.154699 0.0187009
0.154958 0.0184418
0.155916 0.0193999
0.156529 0.0187867
0.160357 0.0226141
0.160868 0.0221033
0.163916 0.0251522
0.164328 0.0247406
0.165193 0.0256059
0.165601 0.0251983
0.168153 0.0277502
0.16835 0.0275533
0.168387 0.0275905
0.170232 0.025746
0.171193 0.0267077
0.172058 0.0258428
0.172444 0.0262288
0.172784 0.0258895
0.176414 0.0295195
0.177906 0.0280275
0.180284 0.0304058
0.180585 0.0301045
0.186722 0.036241
0.189461 0.0335014
0.189708 0.0337483
0.191479 0.0319778
0.191781 0.0322799
0.204138 0.0199228
0.204378 0.0201628
0.214354 0.0101868
0.214517 0.0103492
0.224866 0
inf 0


"layer 16:"
-inf 0
0.108144 0
0.108187 4.35425e-05
0.108231 0
0.108436 0
0.108538 0.000101733
0.10864 0
0.108839 0
0.110658 0.00181917
0.111795 0.000682167
0.111956 0.00084245
0.112526 0.00027202
0.113916 0.00166221
0.11399 0.00158823
0.114757 0.00235475
0.115063 0.00204876
0.115956 0.00294223
0.116057 0.00284192
0.116153 0.00293868
0.116638 0.00245388
0.11896 0.00477542
0.119048 0.00468667
0.119322 0.00496007
0.119386 0.00489566
0.120204 0.00571329
0.120655 0.00526213
0.122398 0.00700546
0.12275 0.00665332
0.125112 0.00901448
0.126533 0.00759294
0.128322 0.00938204
0.128435 0.00926962
0.128636 0.00947127
0.129041 0.0090666
0.129354 0.00937915
0.129371 0.00936166
0.129848 0.00983876
0.130228 0.00945901
0.130255 0.00948649
0.130766 0.00897592
0.130899 0.00910861
0.130981 0.00902606
0.133218 0.0112629
0.133799 0.010682
0.134161 0.011044
0.135315 0.0098896
0.140045 0.0146191
0.140304 0.0143596
0.140635 0.0146906
0.141426 0.0139001
0.142045 0.0145196
0.143209 0.0133555
0.143615 0.0137613
0.143721 0.0136549
0.144653 0.0145868
0.144778 0.0144619
0.145088 0.014772
0.145211 0.014649
0.145697 0.015135
0.146273 0.0145594
0.148966 0.0172528
0.149905 0.0163144
0.150296 0.0167052
0.150443 0.016558
0.151702 0.0178167
0.152758 0.0167601
0.153871 0.0178725
0.15413 0.0176134
0.154958 0.0184418
0.155571 0.0178286
0.156529 0.0187867
0.15704 0.0182759
0.160868 0.0221033
0.161279 0.0216917
0.164328 0.0247406
0.164736 0.024333
0.165601 0.0251983
0.165798 0.0250014
0.16835 0.0275533
0.170194 0.0257087
0.170232 0.025746
0.171097 0.024881
0.172058 0.0258428
0.172398 0.0255035
0.172784 0.0258895
0.174276 0.0243975
0.177906 0.0280275
0.178207 0.0277262
0.180585 0.0301045
0.182508 0.0281813
0.18678 0.0324532
0.187377 0.0318565
0.187664 0.0321435
0.187884 0.0319238
0.189461 0.0335014
0.191232 0.0317309
0.191479 0.0319778
0.203836 0.0196206
0.204138 0.0199228
0.214114 0.0099468
0.214354 0.0101868
0.224541 0
inf 0


"layer 17:"
-inf 0
0.108913 0
0.110437 0.00152353
0.111537 0.00042344
0.111795 0.000682167
0.112366 0.000111736
0.112526 0.00027202
0.1126 0.000198037
0.11399 0.00158823
0.114296 0.00128225
0.115063 0.00204876
0.115163 0.00194845
0.116057 0.00284192
0.116541 0.00235712
0.116638 0.00245388
0.116646 0.00244563
0.118781 0.00458063
0.118862 0.00450013
0.119048 0.00468667
0.119113 0.00462226
0.119386 0.00489566
0.119837 0.0044445
0.120655 0.00526213
0.121007 0.00491
0.12275 0.00665332
0.124172 0.00523178
0.126533 0.00759294
0.126646 0.00748052
0.128435 0.00926962
0.128839 0.00886495
0.129041 0.0090666
0.129058 0.0090491
0.129371 0.00936166
0.129751 0.0089819
0.130228 0.00945901
0.130738 0.00894845
0.130766 0.00897592
0.130848 0.00889337
0.130981 0.00902606
0.131562 0.00844516
0.133799 0.010682
0.134953 0.00952759
0.135315 0.0098896
0.135575 0.00963003
0.140304 0.0143596
0.141095 0.0135691
0.141426 0.0139001
0.14259 0.0127361
0.143209 0.0133555
0.143316 0.0132491
0.143721 0.0136549
0.143846 0.01353
0.144778 0.0144619
0.144901 0.0143389
0.145211 0.014649
0.145787 0.0140734
0.146273 0.0145594
0.147211 0.013621
0.149905 0.0163144
0.150052 0.0161671
0.150443 0.016558
0.151499 0.0155013
0.152758 0.0167601
0.153017 0.0165009
0.15413 0.0176134
0.154743 0.0170002
0.155571 0.0178286
0.156082 0.0173179
0.15704 0.0182759
0.157452 0.0178643
0.161279 0.0216917
0.161687 0.0212841
0.164736 0.024333
0.164933 0.024136
0.165798 0.0250014
0.167643 0.0231568
0.170194 0.0257087
0.171059 0.0248438
0.171097 0.024881
0.171436 0.0245417
0.172398 0.0255035
0.17389 0.0240115
0.174276 0.0243975
0.174491 0.0241821
0.176421 0.0261117
0.176507 0.0260258
0.178207 0.0277262
0.17892 0.0270132
0.179915 0.0280084
0.181125 0.0267982
0.182508 0.0281813
0.183105 0.0275846
0.187377 0.0318565
0.187597 0.0316368
0.187884 0.0319238
0.189654 0.0301533
0.191232 0.0317309
0.203589 0.0193737
0.203836 0.0196206
0.213812 0.00964464
0.214114 0.0099468
0.224061 0
inf 0


"layer 18:"
-inf 0
0.111113 0
0.111537 0.00042344
0.11196 0
0.112254 0
0.112366 0.000111736
0.11244 3.77532e-05
0.1126 0.000198037
0.112798 0
0.113014 0
0.114296 0.00128225
0.114397 0.00118194
0.115163 0.00194845
0.115648 0.00146365
0.116541 0.00235712
0.11655 0.00234887
0.116646 0.00244563
0.116727 0.00236513
0.118862 0.00450013
0.118926 0.00443572
0.119113 0.00462226
0.119564 0.0041711
0.119837 0.0044445
0.120189 0.00409237
0.121007 0.00491
0.122429 0.00348846
0.124172 0.00523178
0.124284 0.00511937
0.126646 0.00748052
0.127033 0.00709294
0.127165 0.00722532
0.127183 0.00720822
0.128839 0.00886495
0.128857 0.00884745
0.129058 0.0090491
0.129438 0.00866935
0.129751 0.0089819
0.130261 0.00847134
0.130738 0.00894845
0.130821 0.00886589
0.130848 0.00889337
0.131429 0.00831247
0.131562 0.00844516
0.131854 0.00815302
0.132622 0.00892093
0.133484 0.0080587
0.134953 0.00952759
0.135213 0.00926803
0.135575 0.00963003
0.136365 0.00883959
0.141095 0.0135691
0.142259 0.0124051
0.14259 0.0127361
0.142696 0.0126297
0.143316 0.0132491
0.143441 0.0131242
0.143846 0.01353
0.143969 0.013407
0.144901 0.0143389
0.145477 0.0137633
0.145787 0.0140734
0.146725 0.013135
0.147211 0.013621
0.147359 0.0134738
0.150052 0.0161671
0.151109 0.0151105
0.151499 0.0155013
0.151759 0.0152422
0.153017 0.0165009
0.153631 0.0158877
0.154743 0.0170002
0.155254 0.0164894
0.156082 0.0173179
0.156494 0.0169063
0.157452 0.0178643
0.157859 0.0174567
0.161687 0.0212841
0.161884 0.0210871
0.164933 0.024136
0.166777 0.0222915
0.167643 0.0231568
0.167973 0.0228261
0.168389 0.0232415
0.168923 0.0227073
0.171059 0.0248438
0.171399 0.0245045
0.171436 0.0245417
0.172928 0.0230498
0.17389 0.0240115
0.174105 0.0237961
0.174491 0.0241821
0.174577 0.0240962
0.176507 0.0260258
0.17722 0.0253128
0.17892 0.0270132
0.18013 0.025803
0.181125 0.0267982
0.181722 0.0262015
0.183105 0.0275846
0.183325 0.0273649
0.187597 0.0316368
0.189367 0.0298662
0.189654 0.0301533
0.202012 0.0177961
0.203589 0.0193737
0.213565 0.00939774
0.213812 0.00964464
0.223457 0
inf 0


"layer 19:"
-inf 0
0.112402 0
0.11244 3.77532e-05
0.112478 0
0.113215 0
0.114397 0.00118194
0.114881 0.000697138
0.115648 0.00146365
0.115656 0.0014554
0.11655 0.00234887
0.11663 0.00226838
0.116727 0.00236513
0.116791 0.00230072
0.118926 0.00443572
0.119377 0.00398457
0.119564 0.0041711
0.119916 0.00381897
0.120189 0.00409237
0.121611 0.00267083
0.122429 0.00348846
0.122541 0.00337604
0.124284 0.00511937
0.124672 0.00473179
0.127033 0.00709294
0.12705 0.00707584
0.127183 0.00720822
0.1272 0.00719072
0.128857 0.00884745
0.129237 0.0084677
0.129438 0.00866935
0.129949 0.00815878
0.130261 0.00847134
0.130344 0.00838879
0.130821 0.00886589
0.131402 0.00828499
0.131429 0.00831247
0.131722 0.00802034
0.131854 0.00815302
0.132226 0.00778147
0.132903 0.00845915
0.133394 0.00796847
0.133484 0.0080587
0.133744 0.00779914
0.135213 0.00926803
0.136003 0.00847759
0.136365 0.00883959
0.137529 0.00767558
0.142259 0.0124051
0.142365 0.0122987
0.142696 0.0126297
0.142821 0.0125048
0.143441 0.0131242
0.143564 0.0130012
0.143969 0.013407
0.144545 0.0128314
0.145477 0.0137633
0.146415 0.0128249
0.146725 0.013135
0.146873 0.0129877
0.147359 0.0134738
0.148415 0.0124171
0.151109 0.0151105
0.151368 0.0148514
0.151759 0.0152422
0.152372 0.014629
0.153631 0.0158877
0.154141 0.015377
0.155254 0.0164894
0.155665 0.0160778
0.156494 0.0169063
0.156901 0.0164986
0.157859 0.0174567
0.158056 0.0172597
0.161884 0.0210871
0.162081 0.0208902
0.163353 0.0221628
0.165001 0.0205153
0.166777 0.0222915
0.167108 0.0219607
0.167973 0.0228261
0.168507 0.0222919
0.168923 0.0227073
0.169262 0.0223681
0.171399 0.0245045
0.172891 0.0230125
0.172928 0.0230498
0.173143 0.0228343
0.174105 0.0237961
0.174191 0.0237102
0.174577 0.0240962
0.17529 0.0233832
0.17722 0.0253128
0.17843 0.0241026
0.18013 0.025803
0.180617 0.0253161
0.180845 0.0255437
0.180954 0.0254338
0.181722 0.0262015
0.181942 0.0259817
0.183325 0.0273649
0.185095 0.0255943
0.189367 0.0298662
0.193748 0.0254854
0.19398 0.0257166
0.201956 0.0177404
0.202012 0.0177961
0.204808 0.0150001
0.205608 0.0158
0.212787 0.00862005
0.213565 0.00939774
0.222963 0
inf 0


"layer 20:"
-inf 0
0.114184 0
0.114881 0.000697138
0.11489 0.000688884
0.115656 0.0014554
0.115737 0.00137491
0.11663 0.00226838
0.116694 0.00220396
0.116791 0.00230072
0.117242 0.00184957
0.119377 0.00398457
0.11973 0.00363243
0.119916 0.00381897
0.121338 0.00239743
0.121611 0.00267083
0.121723 0.00255841
0.122541 0.00337604
0.122929 0.00298847
0.124672 0.00473179
0.124689 0.00471469
0.12705 0.00707584
0.127068 0.00705834
0.1272 0.00719072
0.12758 0.00681097
0.129237 0.0084677
0.129747 0.00795713
0.129949 0.00815878
0.130031 0.00807623
0.130344 0.00838879
0.130925 0.00780789
0.131402 0.00828499
0.131694 0.00799286
0.131722 0.00802034
0.132093 0.00764879
0.132226 0.00778147
0.132716 0.0072908
0.133394 0.00796847
0.133654 0.00770891
0.133744 0.00779914
0.134534 0.0070087
0.136003 0.00847759
0.137167 0.00731357
0.137529 0.00767558
0.137636 0.00756914
0.142365 0.0122987
0.14249 0.0121738
0.142821 0.0125048
0.142944 0.0123818
0.143564 0.0130012
0.144139 0.0124256
0.144545 0.0128314
0.145483 0.011893
0.146415 0.0128249
0.146563 0.0126777
0.146873 0.0129877
0.147929 0.0119311
0.148415 0.0124171
0.148674 0.012158
0.151368 0.0148514
0.151981 0.0142382
0.152372 0.014629
0.152883 0.0141183
0.154141 0.015377
0.154553 0.0149654
0.155665 0.0160778
0.155909 0.0158336
0.156542 0.016466
0.156705 0.0163025
0.156901 0.0164986
0.157098 0.0163017
0.158056 0.0172597
0.158253 0.0170628
0.162081 0.0208902
0.163728 0.0192426
0.165001 0.0205153
0.165332 0.0201845
0.167108 0.0219607
0.167642 0.0214265
0.168507 0.0222919
0.168847 0.0219526
0.169262 0.0223681
0.170754 0.0208761
0.172891 0.0230125
0.173106 0.0227971
0.173143 0.0228343
0.173229 0.0227484
0.174191 0.0237102
0.174904 0.0229972
0.17529 0.0233832
0.1765 0.022173
0.17843 0.0241026
0.178917 0.0236158
0.180617 0.0253161
0.180727 0.0252063
0.180954 0.0254338
0.181174 0.0252141
0.181942 0.0259817
0.183712 0.0242112
0.185095 0.0255943
0.189476 0.0212134
0.193748 0.0254854
0.201725 0.0175091
0.201956 0.0177404
0.204752 0.0149443
0.204808 0.0150001
0.20763 0.012178
0.208116 0.012664
0.212474 0.00830614
0.212787 0.00862005
0.221407 0
inf 0


"layer 21:"
-inf 0
0.114201 0
0.11489 0.000688884
0.11497 0.000608391
0.115737 0.00137491
0.115788 0.00132386
0.116485 0.00202123
0.116498 0.00200786
0.116694 0.00220396
0.117146 0.00175281
0.117242 0.00184957
0.117595 0.00149744
0.11973 0.00363243
0.121151 0.00221089
0.121338 0.00239743
0.12145 0.00228501
0.121723 0.00255841
0.122111 0.00217083
0.122929 0.00298847
0.122946 0.00297137
0.124689 0.00471469
0.124707 0.00469719
0.127068 0.00705834
0.127447 0.00667859
0.12758 0.00681097
0.12809 0.0063004
0.129747 0.00795713
0.12983 0.00787458
0.130031 0.00807623
0.130612 0.00749533
0.130925 0.00780789
0.131217 0.00751575
0.131694 0.00799286
0.132066 0.00762131
0.132093 0.00764879
0.132584 0.00715811
0.132716 0.0072908
0.132976 0.00703123
0.133654 0.00770891
0.134444 0.00691847
0.134534 0.0070087
0.135031 0.00651227
0.136022 0.00750371
0.13669 0.00683612
0.137167 0.00731357
0.137274 0.00720713
0.137636 0.00756914
0.137761 0.00744426
0.14249 0.0121738
0.142613 0.0120508
0.142944 0.0123818
0.14352 0.0118062
0.144139 0.0124256
0.145078 0.0114872
0.145483 0.011893
0.145631 0.0117457
0.146563 0.0126777
0.147619 0.011621
0.147929 0.0119311
0.148188 0.011672
0.148674 0.012158
0.149288 0.0115448
0.151981 0.0142382
0.152492 0.0137274
0.152883 0.0141183
0.153294 0.0137067
0.154553 0.0149654
0.154797 0.0147212
0.155909 0.0158336
0.156073 0.0156702
0.156705 0.0163025
0.156902 0.0161056
0.157098 0.0163017
0.157295 0.0161047
0.158253 0.0170628
0.159301 0.0160148
0.162791 0.0195046
0.163391 0.0189049
0.163728 0.0192426
0.164059 0.0189118
0.165332 0.0201845
0.165866 0.0196503
0.167642 0.0214265
0.167981 0.0210872
0.168847 0.0219526
0.170339 0.0204606
0.170754 0.0208761
0.17097 0.0206607
0.173106 0.0227971
0.173192 0.0227112
0.173229 0.0227484
0.173942 0.0220354
0.174904 0.0229972
0.176114 0.021787
0.1765 0.022173
0.176987 0.0216861
0.178917 0.0236158
0.179027 0.0235059
0.180727 0.0252063
0.180947 0.0249866
0.181174 0.0252141
0.182945 0.0234436
0.183712 0.0242112
0.188093 0.0198303
0.189476 0.0212134
0.197453 0.0132372
0.201725 0.0175091
0.204521 0.014713
0.204752 0.0149443
0.207574 0.0121223
0.20763 0.012178
0.211988 0.00782015
0.212474 0.00830614
0.22078 0
inf 0


"layer 22:"
-inf 0
0.114362 0
0.11497 0.000608391
0.115021 0.000557345
0.115788 0.00132386
0.115801 0.0013105
0.116498 0.00200786
0.11695 0.00155671
0.117146 0.00175281
0.117498 0.00140068
0.117595 0.00149744
0.119016 7.58962e-05
0.121151 0.00221089
0.121263 0.00209848
0.12145 0.00228501
0.121838 0.00189743
0.122111 0.00217083
0.122128 0.00215373
0.122946 0.00297137
0.122963 0.00295387
0.124707 0.00469719
0.125086 0.00431744
0.127447 0.00667859
0.127958 0.00616803
0.12809 0.0063004
0.128173 0.00621785
0.12983 0.00787458
0.130411 0.00729368
0.130612 0.00749533
0.130904 0.0072032
0.131217 0.00751575
0.131588 0.0071442
0.132066 0.00762131
0.132556 0.00713063
0.132584 0.00715811
0.132843 0.00689855
0.132976 0.00703123
0.133766 0.00624079
0.134444 0.00691847
0.134941 0.00642204
0.135031 0.00651227
0.135698 0.00584468
0.13669 0.00683612
0.136796 0.00672968
0.137274 0.00720713
0.137399 0.00708226
0.137761 0.00744426
0.137884 0.00732127
0.142613 0.0120508
0.143189 0.0114752
0.14352 0.0118062
0.144458 0.0108678
0.145078 0.0114872
0.145225 0.0113399
0.145631 0.0117457
0.146687 0.0106891
0.147619 0.011621
0.147878 0.0113619
0.148188 0.011672
0.148802 0.0110588
0.149288 0.0115448
0.149798 0.0110341
0.152492 0.0137274
0.152903 0.0133158
0.153294 0.0137067
0.153538 0.0134625
0.154797 0.0147212
0.15496 0.0145578
0.156073 0.0156702
0.15627 0.0154733
0.156902 0.0161056
0.157099 0.0159086
0.157295 0.0161047
0.158343 0.0150568
0.159301 0.0160148
0.159901 0.0154152
0.163391 0.0189049
0.163721 0.0185742
0.164059 0.0189118
0.164593 0.0183776
0.165866 0.0196503
0.166205 0.019311
0.167981 0.0210872
0.169473 0.0195953
0.170339 0.0204606
0.170554 0.0202452
0.17097 0.0206607
0.171056 0.0205748
0.173192 0.0227112
0.173905 0.0219982
0.173942 0.0220354
0.175152 0.0208253
0.176114 0.021787
0.176601 0.0213001
0.176987 0.0216861
0.177097 0.0215763
0.179027 0.0235059
0.179246 0.0232862
0.180947 0.0249866
0.182717 0.023216
0.182945 0.0234436
0.187326 0.0190627
0.188093 0.0198303
0.188922 0.0190018
0.189844 0.019924
0.196992 0.0127763
0.197453 0.0132372
0.200249 0.0104411
0.204521 0.014713
0.207343 0.011891
0.207574 0.0121223
0.211932 0.00776439
0.211988 0.00782015
0.219808 0
inf 0


"layer 23:"
-inf 0
0.114464 0
0.115021 0.000557345
0.115034 0.00054398
0.115801 0.0013105
0.116252 0.00085934
0.11695 0.00155671
0.117302 0.00120457
0.117498 0.00140068
0.118898 0
0.11894 0
0.119016 7.58962e-05
0.119092 0
0.119165 0
0.121263 0.00209848
0.121651 0.0017109
0.121838 0.00189743
0.121855 0.00188033
0.122128 0.00215373
0.122146 0.00213623
0.122963 0.00295387
0.123343 0.00257412
0.125086 0.00431744
0.125597 0.00380687
0.127958 0.00616803
0.128041 0.00608547
0.128173 0.00621785
0.12826 0.00613099
0.129673 0.00754416
0.130167 0.00705012
0.130411 0.00729368
0.130703 0.00700155
0.130904 0.0072032
0.131276 0.00683165
0.131588 0.0071442
0.132079 0.00665353
0.132556 0.00713063
0.132816 0.00687107
0.132843 0.00689855
0.133634 0.00610811
0.133766 0.00624079
0.134263 0.00574436
0.134941 0.00642204
0.135608 0.00575445
0.135698 0.00584468
0.135805 0.00573824
0.136796 0.00672968
0.136921 0.00660481
0.137399 0.00708226
0.137522 0.00695926
0.137884 0.00732127
0.138459 0.00674563
0.143189 0.0114752
0.144127 0.0105368
0.144458 0.0108678
0.144605 0.0107205
0.145225 0.0113399
0.146281 0.0102833
0.146687 0.0106891
0.146687 0.0106889
0.146806 0.0108079
0.147065 0.0105489
0.147878 0.0113619
0.148491 0.0107487
0.148802 0.0110588
0.149312 0.010548
0.149798 0.0110341
0.15021 0.0106225
0.152903 0.0133158
0.153147 0.0130716
0.153538 0.0134625
0.153702 0.013299
0.15496 0.0145578
0.155157 0.0143608
0.15627 0.0154733
0.156467 0.0152763
0.157099 0.0159086
0.158147 0.0148607
0.158343 0.0150568
0.158943 0.0144572
0.159901 0.0154152
0.160232 0.0150844
0.163721 0.0185742
0.164256 0.01804
0.164593 0.0183776
0.164933 0.0180383
0.166205 0.019311
0.167697 0.0178191
0.169473 0.0195953
0.169689 0.0193798
0.170554 0.0202452
0.17064 0.0201593
0.171056 0.0205748
0.171769 0.0198618
0.173905 0.0219982
0.175115 0.020788
0.175152 0.0208253
0.175639 0.0203384
0.176601 0.0213001
0.176711 0.0211903
0.177097 0.0215763
0.177317 0.0213566
0.179246 0.0232862
0.181017 0.0215156
0.182717 0.023216
0.187098 0.0188351
0.187326 0.0190627
0.188154 0.0182342
0.188922 0.0190018
0.196069 0.0118541
0.196992 0.0127763
0.199788 0.00998023
0.200249 0.0104411
0.203071 0.00761909
0.207343 0.011891
0.211701 0.00753311
0.211932 0.00776439
0.219696 0
inf 0


"layer 24:"
-inf 0
0.114491 0
0.115034 0.00054398
0.115486 9.28245e-05
0.116252 0.00085934
0.116604 0.000507207
0.117302 0.00120457
0.118506 0
0.11994 0
0.121651 0.0017109
0.121668 0.0016938
0.121855 0.00188033
0.121872 0.00186284
0.122146 0.00213623
0.122525 0.00175648
0.123343 0.00257412
0.123854 0.00206355
0.125597 0.00380687
0.125679 0.00372432
0.128041 0.00608547
0.128127 0.00599862
0.12826 0.00613099
0.128754 0.00563695
0.130167 0.00705012
0.130459 0.00675798
0.130703 0.00700155
0.131074 0.00663
0.131276 0.00683165
0.131767 0.00634097
0.132079 0.00665353
0.132339 0.00639396
0.132816 0.00687107
0.133606 0.00608063
0.133634 0.00610811
0.13413 0.00561168
0.134263 0.00574436
0.13493 0.00507677
0.135608 0.00575445
0.135715 0.00564802
0.135805 0.00573824
0.13593 0.00561337
0.136921 0.00660481
0.137044 0.00648181
0.137522 0.00695926
0.138097 0.00638363
0.138459 0.00674563
0.138508 0.00669711
0.138832 0.00702161
0.139722 0.00613176
0.144127 0.0105368
0.144274 0.0103895
0.144605 0.0107205
0.145662 0.00966388
0.146281 0.0102833
0.146282 0.0102832
0.146687 0.0106889
0.146946 0.0104299
0.147065 0.0105489
0.147678 0.00993568
0.148491 0.0107487
0.149002 0.010238
0.149312 0.010548
0.149724 0.0101364
0.15021 0.0106225
0.150284 0.0105486
0.15258 0.0128449
0.15275 0.0126746
0.153147 0.0130716
0.153311 0.0129082
0.153702 0.013299
0.153899 0.0131021
0.155157 0.0143608
0.155354 0.0141639
0.156467 0.0152763
0.157515 0.0142283
0.158147 0.0148607
0.158747 0.0142611
0.158943 0.0144572
0.159274 0.0141264
0.160232 0.0150844
0.160766 0.0145502
0.164256 0.01804
0.164528 0.0177678
0.164855 0.0180949
0.164922 0.0180278
0.164933 0.0180383
0.165216 0.0177545
0.16622 0.0187582
0.167428 0.0175501
0.167697 0.0178191
0.167913 0.0176036
0.169689 0.0193798
0.169775 0.0192939
0.17064 0.0201593
0.171353 0.0194463
0.171769 0.0198618
0.172979 0.0186516
0.175115 0.020788
0.175602 0.0203012
0.175639 0.0203384
0.175749 0.0202285
0.176711 0.0211903
0.176931 0.0209705
0.177317 0.0213566
0.179087 0.019586
0.181017 0.0215156
0.183061 0.0194719
0.184388 0.0207992
0.186725 0.018462
0.187098 0.0188351
0.187927 0.0180066
0.188154 0.0182342
0.195302 0.0110864
0.196069 0.0118541
0.198866 0.00905799
0.199788 0.00998023
0.20261 0.00715821
0.203071 0.00761909
0.206255 0.00443459
0.20864 0.00681983
0.209814 0.00564645
0.211701 0.00753311
0.219234 0
inf 0


"layer 25:"
-inf 0
0.115393 0
0.115486 9.28245e-05
0.115578 0
0.116097 0
0.116604 0.000507207
0.117112 0
0.119974 0
0.121668 0.0016938
0.121686 0.0016763
0.121872 0.00186284
0.122204 0.00153106
0.122223 0.00154962
0.122271 0.00150164
0.122525 0.00175648
0.123036 0.00124592
0.123854 0.00206355
0.123936 0.001981
0.125679 0.00372432
0.125766 0.00363747
0.128127 0.00599862
0.128621 0.00550457
0.128754 0.00563695
0.129046 0.00534482
0.130459 0.00675798
0.130831 0.00638644
0.131074 0.00663
0.131565 0.00613932
0.131767 0.00634097
0.132026 0.00608141
0.132339 0.00639396
0.133129 0.00560352
0.133606 0.00608063
0.134103 0.0055842
0.13413 0.00561168
0.134798 0.00494409
0.13493 0.00507677
0.135037 0.00497034
0.135715 0.00564802
0.135839 0.00552314
0.13593 0.00561337
0.136053 0.00549037
0.137044 0.00648181
0.137298 0.00622778
0.137338 0.00626738
0.137659 0.00594577
0.138097 0.00638363
0.138146 0.0063351
0.138508 0.00669711
0.139398 0.00580726
0.139722 0.00613176
0.139869 0.00598448
0.144274 0.0103895
0.145331 0.00933288
0.145662 0.00966388
0.145662 0.00966374
0.146282 0.0102832
0.146541 0.0100242
0.146946 0.0104299
0.14756 0.00981674
0.147678 0.00993568
0.148189 0.00942494
0.149002 0.010238
0.149414 0.00982634
0.149724 0.0101364
0.149798 0.0100625
0.150284 0.0105486
0.150454 0.0103783
0.15275 0.0126746
0.152914 0.0125112
0.153311 0.0129082
0.153508 0.0127112
0.153899 0.0131021
0.154096 0.0129051
0.155354 0.0141639
0.156402 0.0131159
0.157515 0.0142283
0.158114 0.0136287
0.158747 0.0142611
0.159078 0.0139303
0.159274 0.0141264
0.159808 0.0135922
0.160766 0.0145502
0.161038 0.014278
0.164528 0.0177678
0.164595 0.0177007
0.164922 0.0180278
0.165206 0.0177439
0.165216 0.0177545
0.166425 0.0165464
0.167428 0.0175501
0.167644 0.0173347
0.167913 0.0176036
0.167999 0.0175177
0.169775 0.0192939
0.170488 0.0185809
0.171353 0.0194463
0.172563 0.0182361
0.172979 0.0186516
0.173466 0.0181647
0.175602 0.0203012
0.175712 0.0201913
0.175749 0.0202285
0.175969 0.0200088
0.176931 0.0209705
0.178701 0.0192
0.179087 0.019586
0.181131 0.0175422
0.183061 0.0194719
0.185398 0.0171347
0.186725 0.018462
0.187553 0.0176335
0.187927 0.0180066
0.195074 0.0108589
0.195302 0.0110864
0.198098 0.00829035
0.198866 0.00905799
0.201688 0.00623596
0.20261 0.00715821
0.205794 0.00397371
0.206255 0.00443459
0.207429 0.00326121
0.209814 0.00564645
0.21546 0
inf 0


"layer 26:"
-inf 0
0.120009 0
0.121686 0.0016763
0.122017 0.00134453
0.122204 0.00153106
0.122252 0.00148308
0.122271 0.00150164
0.122781 0.000991074
0.123036 0.00124592
0.123104 0.00117762
0.123392 0.00146518
0.123406 0.00145093
0.123936 0.001981
0.124023 0.00189414
0.125766 0.00363747
0.126107 0.00329722
0.127764 0.0049544
0.127918 0.00480061
0.128621 0.00550457
0.128914 0.00521244
0.129046 0.00534482
0.129418 0.00497327
0.130831 0.00638644
0.131321 0.00589576
0.131565 0.00613932
0.131824 0.00587976
0.132026 0.00608141
0.132817 0.00529097
0.133129 0.00560352
0.133626 0.00510709
0.134103 0.0055842
0.13477 0.00491661
0.134798 0.00494409
0.134904 0.00483765
0.135037 0.00497034
0.135162 0.00484546
0.135839 0.00552314
0.135962 0.00540014
0.136053 0.00549037
0.136307 0.00523634
0.137298 0.00622778
0.13762 0.00590618
0.137659 0.00594577
0.137708 0.00589725
0.138146 0.0063351
0.139036 0.00544525
0.139398 0.00580726
0.139545 0.00565998
0.139869 0.00598448
0.140926 0.00492783
0.145331 0.00933288
0.145331 0.00933274
0.145662 0.00966374
0.145921 0.00940477
0.146541 0.0100242
0.147154 0.00941099
0.14756 0.00981674
0.14807 0.009306
0.148189 0.00942494
0.148601 0.00901334
0.149414 0.00982634
0.149488 0.00975247
0.149798 0.0100625
0.149968 0.00989223
0.150454 0.0103783
0.150618 0.0102148
0.152914 0.0125112
0.153111 0.0123142
0.153508 0.0127112
0.153705 0.0125143
0.154096 0.0129051
0.155144 0.0118572
0.156402 0.0131159
0.157002 0.0125163
0.158114 0.0136287
0.158445 0.013298
0.159078 0.0139303
0.159612 0.0133961
0.159808 0.0135922
0.16008 0.01332
0.161038 0.014278
0.161105 0.0142109
0.164595 0.0177007
0.164879 0.0174168
0.165206 0.0177439
0.166414 0.0165358
0.166425 0.0165464
0.16664 0.0163309
0.167644 0.0173347
0.16773 0.0172488
0.167999 0.0175177
0.168712 0.0168047
0.170488 0.0185809
0.171698 0.0173708
0.172563 0.0182361
0.17305 0.0177492
0.173466 0.0181647
0.173575 0.0180548
0.175712 0.0201913
0.175932 0.0199716
0.175969 0.0200088
0.177378 0.0185993
0.177558 0.0187789
0.177919 0.0184179
0.178701 0.0192
0.180745 0.0171562
0.181131 0.0175422
0.183468 0.0152051
0.185398 0.0171347
0.186226 0.0163062
0.187553 0.0176335
0.194701 0.0104858
0.195074 0.0108589
0.19787 0.0080628
0.198098 0.00829035
0.20092 0.00546832
0.201688 0.00623596
0.204872 0.00305146
0.205794 0.00397371
0.206968 0.00280033
0.207429 0.00326121
0.208563 0.00212685
0.210918 0.00448164
0.215399 0
inf 0


"layer 27:"
-inf 0
0.120673 0
0.122017 0.00134453
0.122065 0.00129655
0.122252 0.00148308
0.122763 0.000972519
0.122781 0.000991074
0.122849 0.000922777
0.123104 0.00117762
0.123118 0.00116336
0.123406 0.00145093
0.123493 0.00136407
0.124023 0.00189414
0.124363 0.00155389
0.126107 0.00329722
0.12626 0.00314342
0.127918 0.00480061
0.12821 0.00450848
0.128914 0.00521244
0.129285 0.00484089
0.129418 0.00497327
0.129908 0.00448259
0.131321 0.00589576
0.131581 0.0056362
0.131824 0.00587976
0.132615 0.00508932
0.132817 0.00529097
0.133313 0.00479454
0.133626 0.00510709
0.134293 0.0044395
0.13477 0.00491661
0.134877 0.00481017
0.134904 0.00483765
0.135029 0.00471278
0.135162 0.00484546
0.135285 0.00472246
0.135962 0.00540014
0.136216 0.00514611
0.136307 0.00523634
0.136628 0.00491474
0.13762 0.00590618
0.137668 0.00585765
0.137708 0.00589725
0.138598 0.0050074
0.139036 0.00544525
0.139183 0.00529797
0.139545 0.00565998
0.140601 0.00460333
0.140926 0.00492783
0.140926 0.0049277
0.145331 0.00933274
0.14559 0.00907377
0.145921 0.00940477
0.146534 0.00879156
0.147154 0.00941099
0.147664 0.00890025
0.14807 0.009306
0.148482 0.00889439
0.148601 0.00901334
0.148675 0.00893946
0.149488 0.00975247
0.149658 0.00958216
0.149968 0.00989223
0.150132 0.00972878
0.150618 0.0102148
0.150814 0.0100179
0.153111 0.0123142
0.153308 0.0121173
0.153705 0.0125143
0.154753 0.0114663
0.155144 0.0118572
0.155743 0.0112575
0.157002 0.0125163
0.157333 0.0121855
0.158445 0.013298
0.158979 0.0127638
0.159612 0.0133961
0.159884 0.0131239
0.16008 0.01332
0.160147 0.0132529
0.161105 0.0142109
0.161389 0.0139271
0.164879 0.0174168
0.166087 0.0162087
0.166414 0.0165358
0.166629 0.0163204
0.16664 0.0163309
0.166726 0.016245
0.16773 0.0172488
0.168443 0.0165358
0.168712 0.0168047
0.169922 0.0155946
0.171698 0.0173708
0.172185 0.0168839
0.17305 0.0177492
0.17316 0.0176394
0.173575 0.0180548
0.173795 0.0178351
0.175932 0.0199716
0.177341 0.018562
0.177378 0.0185993
0.177739 0.0182383
0.177919 0.0184179
0.179963 0.0163742
0.180745 0.0171562
0.183082 0.0148191
0.183468 0.0152051
0.184297 0.0143766
0.186226 0.0163062
0.189049 0.0134829
0.189589 0.0140221
0.193913 0.00969764
0.194701 0.0104858
0.197497 0.00768972
0.19787 0.0080628
0.200692 0.00524077
0.20092 0.00546832
0.202842 0.00354627
0.203233 0.00393707
0.204495 0.00267462
0.204872 0.00305146
0.206045 0.00187808
0.206968 0.00280033
0.208102 0.00166597
0.208563 0.00212685
0.21069 0
inf 0


"layer 28:"
-inf 0
0.120769 0
0.122065 0.00129655
0.122135 0.00122663
0.122276 0.00136702
0.122716 0.000926368
0.122763 0.000972519
0.122831 0.000904222
0.122849 0.000922777
0.122864 0.000908522
0.123118 0.00116336
0.123205 0.00107651
0.123493 0.00136407
0.123494 0.00136343
0.123739 0.00160871
0.124078 0.0012691
0.124363 0.00155389
0.124517 0.0014001
0.12626 0.00314342
0.126552 0.00285129
0.12821 0.00450848
0.128581 0.00413693
0.129285 0.00484089
0.129776 0.00435021
0.129908 0.00448259
0.130168 0.00422303
0.131581 0.0056362
0.132371 0.00484576
0.132615 0.00508932
0.133111 0.00459289
0.133313 0.00479454
0.133981 0.00412695
0.134293 0.0044395
0.1344 0.00433307
0.134877 0.00481017
0.135002 0.0046853
0.135029 0.00471278
0.135152 0.00458978
0.135285 0.00472246
0.135539 0.00446843
0.136216 0.00514611
0.136538 0.00482451
0.136628 0.00491474
0.136677 0.00486621
0.137668 0.00585765
0.138558 0.0049678
0.138598 0.0050074
0.138745 0.00486012
0.139183 0.00529797
0.140239 0.00424133
0.140601 0.00460333
0.140602 0.00460319
0.140926 0.0049277
0.141185 0.00466872
0.14559 0.00907377
0.146203 0.00846056
0.146534 0.00879156
0.147045 0.00828083
0.147664 0.00890025
0.148076 0.00848864
0.148482 0.00889439
0.148556 0.00882052
0.148675 0.00893946
0.148845 0.00876915
0.149658 0.00958216
0.149821 0.00941871
0.150132 0.00972878
0.150328 0.00953185
0.150814 0.0100179
0.151011 0.00982091
0.153308 0.0121173
0.154356 0.0110693
0.154753 0.0114663
0.155352 0.0108667
0.155743 0.0112575
0.156074 0.0109268
0.157333 0.0121855
0.157867 0.0116513
0.158979 0.0127638
0.159252 0.0124915
0.159884 0.0131239
0.159951 0.0130568
0.160147 0.0132529
0.160431 0.012969
0.161389 0.0139271
0.162597 0.012719
0.166087 0.0162087
0.166302 0.0159933
0.166629 0.0163204
0.166715 0.0162345
0.166726 0.016245
0.167439 0.0155321
0.168443 0.0165358
0.169653 0.0153256
0.169922 0.0155946
0.170409 0.0151077
0.172185 0.0168839
0.172295 0.016774
0.17316 0.0176394
0.17338 0.0174196
0.173795 0.0178351
0.175205 0.0164256
0.177341 0.018562
0.177702 0.018201
0.177739 0.0182383
0.179783 0.0161945
0.179963 0.0163742
0.1823 0.014037
0.183082 0.0148191
0.183911 0.0139906
0.184297 0.0143766
0.18712 0.0115533
0.189049 0.0134829
0.193374 0.00915848
0.193913 0.00969764
0.196709 0.00690157
0.197497 0.00768972
0.200319 0.0048677
0.200692 0.00524077
0.202614 0.00331872
0.202842 0.00354627
0.204104 0.00228382
0.204495 0.00267462
0.205669 0.00150124
0.206045 0.00187808
0.20718 0.000743719
0.208102 0.00166597
0.209768 0
inf 0


"layer 29:"
-inf 0
0.120909 0
0.122135 0.00122663
0.122576 0.000785984
0.122716 0.000926368
0.122785 0.000858071
0.122831 0.000904222
0.122845 0.000889966
0.122864 0.000908522
0.12295 0.000821665
0.123205 0.00107651
0.123206 0.00107586
0.123494 0.00136343
0.123833 0.00102382
0.124078 0.0012691
0.124232 0.00111531
0.124517 0.0014001
0.124809 0.00110797
0.126552 0.00285129
0.126924 0.00247974
0.128581 0.00413693
0.129072 0.00364625
0.129776 0.00435021
0.130035 0.00409065
0.130168 0.00422303
0.130958 0.00343259
0.132371 0.00484576
0.132868 0.00434932
0.133111 0.00459289
0.133779 0.0039253
0.133981 0.00412695
0.134087 0.00402051
0.1344 0.00433307
0.134524 0.00420819
0.135002 0.0046853
0.135125 0.0045623
0.135152 0.00458978
0.135406 0.00433575
0.135539 0.00446843
0.13586 0.00414683
0.136538 0.00482451
0.136587 0.00477598
0.136677 0.00486621
0.137567 0.00397636
0.138558 0.0049678
0.138705 0.00482052
0.138745 0.00486012
0.139802 0.00380347
0.140239 0.00424133
0.14024 0.00424119
0.140602 0.00460319
0.140861 0.00434422
0.141185 0.00466872
0.141798 0.00405552
0.146203 0.00846056
0.146714 0.00794983
0.147045 0.00828083
0.147457 0.00786922
0.148076 0.00848864
0.14815 0.00841477
0.148556 0.00882052
0.148726 0.00865021
0.148845 0.00876915
0.149008 0.0086057
0.149821 0.00941871
0.150018 0.00922178
0.150328 0.00953185
0.150525 0.00933488
0.151011 0.00982091
0.152059 0.00877295
0.154356 0.0110693
0.154955 0.0104697
0.155352 0.0108667
0.155683 0.0105359
0.156074 0.0109268
0.156608 0.0103926
0.157867 0.0116513
0.158139 0.0113791
0.159252 0.0124915
0.159319 0.0124245
0.159951 0.0130568
0.160235 0.0127729
0.160431 0.012969
0.161639 0.0117609
0.162597 0.012719
0.162813 0.0125035
0.166302 0.0159933
0.166388 0.0159074
0.166715 0.0162345
0.167428 0.0155215
0.167439 0.0155321
0.168649 0.0143219
0.169653 0.0153256
0.17014 0.0148387
0.170409 0.0151077
0.170518 0.0149978
0.172295 0.016774
0.172514 0.0165543
0.17338 0.0174196
0.174789 0.0160101
0.175205 0.0164256
0.175566 0.0160646
0.177702 0.018201
0.179746 0.0161573
0.179783 0.0161945
0.18212 0.0138574
0.1823 0.014037
0.183128 0.0132085
0.183911 0.0139906
0.186734 0.0111673
0.18712 0.0115533
0.191444 0.00722886
0.193374 0.00915848
0.19617 0.00636241
0.196709 0.00690157
0.199531 0.00407954
0.200319 0.0048677
0.202241 0.00294564
0.202614 0.00331872
0.203877 0.00205627
0.204104 0.00228382
0.205278 0.00111044
0.205669 0.00150124
0.206803 0.000366879
0.20718 0.000743719
0.207924 0
inf 0


"layer 30:"
-inf 0
0.12179 0
0.122576 0.000785984
0.122644 0.000717687
0.122785 0.000858071
0.122799 0.000843816
0.122845 0.000889966
0.122932 0.00080311
0.12295 0.000821665
0.122951 0.00082102
0.123206 0.00107586
0.123546 0.000736258
0.123833 0.00102382
0.123987 0.000870027
0.124232 0.00111531
0.124524 0.000823176
0.124809 0.00110797
0.125181 0.000736419
0.126924 0.00247974
0.127415 0.00198906
0.129072 0.00364625
0.129331 0.00338669
0.130035 0.00409065
0.130826 0.00330021
0.130958 0.00343259
0.131455 0.00293615
0.132868 0.00434932
0.133535 0.00368174
0.133779 0.0039253
0.133885 0.00381886
0.134087 0.00402051
0.134212 0.00389563
0.134524 0.00420819
0.134647 0.00408519
0.135125 0.0045623
0.135379 0.00430827
0.135406 0.00433575
0.135728 0.00401415
0.13586 0.00414683
0.135909 0.00409831
0.136587 0.00477598
0.137476 0.00388613
0.137567 0.00397636
0.137714 0.00382909
0.138705 0.00482052
0.139762 0.00376388
0.139802 0.00380347
0.139802 0.00380333
0.14024 0.00424119
0.140499 0.00398222
0.140861 0.00434422
0.141474 0.00373102
0.141798 0.00405552
0.142309 0.00354478
0.146714 0.00794983
0.147126 0.00753822
0.147457 0.00786922
0.147531 0.00779534
0.14815 0.00841477
0.14832 0.00824445
0.148726 0.00865021
0.148889 0.00848676
0.149008 0.0086057
0.149205 0.00840877
0.150018 0.00922178
0.150215 0.0090248
0.150525 0.00933488
0.151573 0.00828691
0.152059 0.00877295
0.152659 0.00817333
0.154955 0.0104697
0.155286 0.0101389
0.155683 0.0105359
0.156217 0.0100017
0.156608 0.0103926
0.15688 0.0101204
0.158139 0.0113791
0.158206 0.011312
0.159319 0.0124245
0.159603 0.0121406
0.160235 0.0127729
0.161443 0.0115648
0.161639 0.0117609
0.161855 0.0115455
0.162813 0.0125035
0.162898 0.0124176
0.166388 0.0159074
0.167101 0.0151944
0.167428 0.0155215
0.168638 0.0143113
0.168649 0.0143219
0.169136 0.013835
0.17014 0.0148387
0.170249 0.0147289
0.170518 0.0149978
0.170738 0.0147781
0.172514 0.0165543
0.173924 0.0151448
0.174789 0.0160101
0.17515 0.0156491
0.175566 0.0160646
0.177609 0.0140208
0.179746 0.0161573
0.182083 0.0138201
0.18212 0.0138574
0.182949 0.0130288
0.183128 0.0132085
0.185952 0.0103852
0.186734 0.0111673
0.191058 0.00684285
0.191444 0.00722886
0.19424 0.00443279
0.19617 0.00636241
0.196252 0.00628001
0.196728 0.00675557
0.199468 0.00401596
0.199531 0.00407954
0.201453 0.00215749
0.202241 0.00294564
0.203504 0.00168319
0.203877 0.00205627
0.20505 0.000882888
0.205278 0.00111044
0.206388 0
0.206436 0
0.206803 0.000366879
0.20717 0
inf 0


"layer 31:"
-inf 0
0.121927 0
0.122644 0.000717687
0.122659 0.000703432
0.122799 0.000843816
0.122886 0.000756959
0.122932 0.00080311
0.122933 0.000802465
0.122951 0.00082102
0.123291 0.000481415
0.123546 0.000736258
0.123699 0.000582464
0.123987 0.000870027
0.124279 0.000577893
0.124524 0.000823176
0.124896 0.000451629
0.125181 0.000736419
0.125671 0.000245741
0.127415 0.00198906
0.127674 0.0017295
0.129331 0.00338669
0.130122 0.00259625
0.130826 0.00330021
0.131322 0.00280378
0.131455 0.00293615
0.132122 0.00226857
0.133535 0.00368174
0.133642 0.0035753
0.133885 0.00381886
0.13401 0.00369398
0.134212 0.00389563
0.134335 0.00377264
0.134647 0.00408519
0.134902 0.00383116
0.135379 0.00430827
0.1357 0.00398667
0.135728 0.00401415
0.135776 0.00396562
0.135909 0.00409831
0.136799 0.00320846
0.137476 0.00388613
0.137624 0.00373886
0.137714 0.00382909
0.138771 0.00277244
0.139762 0.00376388
0.139762 0.00376374
0.139802 0.00380333
0.140061 0.00354436
0.140499 0.00398222
0.141112 0.00336901
0.141474 0.00373102
0.141985 0.00322028
0.142309 0.00354478
0.142721 0.00313317
0.147126 0.00753822
0.1472 0.00746435
0.147531 0.00779534
0.147701 0.00762503
0.14832 0.00824445
0.148484 0.00808101
0.148889 0.00848676
0.149086 0.00828983
0.149205 0.00840877
0.149402 0.0082118
0.150215 0.0090248
0.151263 0.00797684
0.151573 0.00828691
0.152173 0.0076873
0.152659 0.00817333
0.15299 0.00784258
0.155286 0.0101389
0.15582 0.00960473
0.156217 0.0100017
0.15649 0.00972952
0.15688 0.0101204
0.156947 0.0100533
0.158206 0.011312
0.15849 0.0110282
0.159603 0.0121406
0.160811 0.0109325
0.161443 0.0115648
0.161658 0.0113494
0.161855 0.0115455
0.16194 0.0114596
0.162898 0.0124176
0.163153 0.0121632
0.164512 0.0135229
0.164971 0.0130643
0.167101 0.0151944
0.168311 0.0139842
0.168638 0.0143113
0.169125 0.0138245
0.169136 0.013835
0.169246 0.0137251
0.170249 0.0147289
0.170469 0.0145091
0.170738 0.0147781
0.172148 0.0133686
0.173924 0.0151448
0.174285 0.0147838
0.17515 0.0156491
0.177194 0.0136053
0.177609 0.0140208
0.179947 0.0116837
0.182083 0.0138201
0.182912 0.0129916
0.182949 0.0130288
0.185772 0.0102056
0.185952 0.0103852
0.190276 0.00606078
0.191058 0.00684285
0.193854 0.00404678
0.19424 0.00443279
0.194323 0.00435038
0.196252 0.00628001
0.198992 0.00354039
0.199468 0.00401596
0.20139 0.0020939
0.201453 0.00215749
0.202716 0.000895041
0.203504 0.00168319
0.204677 0.000509813
0.20505 0.000882888
0.205933 0
inf 0


"layer 32:"
-inf 0
0.121955 0
0.122659 0.000703432
0.122745 0.000616575
0.122886 0.000756959
0.122886 0.000756314
0.122933 0.000802465
0.123272 0.00046286
0.123291 0.000481415
0.123445 0.000327621
0.123699 0.000582464
0.123991 0.00029033
0.124279 0.000577893
0.124651 0.000206346
0.124896 0.000451629
0.125348 0
0.125426 0
0.125671 0.000245741
0.125917 0
0.125945 0
0.127674 0.0017295
0.128465 0.00093906
0.130122 0.00259625
0.130618 0.00209982
0.131322 0.00280378
0.13199 0.00213619
0.132122 0.00226857
0.132229 0.00216213
0.133642 0.0035753
0.133767 0.00345042
0.13401 0.00369398
0.134133 0.00357099
0.134335 0.00377264
0.134589 0.00351861
0.134902 0.00383116
0.135223 0.00350956
0.1357 0.00398667
0.135749 0.00393814
0.135776 0.00396562
0.136666 0.00307577
0.136799 0.00320846
0.136946 0.00306118
0.137624 0.00373886
0.13868 0.00268221
0.138771 0.00277244
0.138771 0.0027723
0.139762 0.00376374
0.140021 0.00350477
0.140061 0.00354436
0.140674 0.00293116
0.141112 0.00336901
0.141623 0.00285828
0.141985 0.00322028
0.142396 0.00280867
0.142721 0.00313317
0.142795 0.0030593
0.1472 0.00746435
0.14737 0.00729403
0.147701 0.00762503
0.147864 0.00746158
0.148484 0.00808101
0.148681 0.00788407
0.149086 0.00828983
0.149283 0.00809285
0.149402 0.0082118
0.15045 0.00716383
0.151263 0.00797684
0.151863 0.00737722
0.152173 0.0076873
0.152504 0.00735654
0.15299 0.00784258
0.153524 0.00730838
0.15582 0.00960473
0.156093 0.00933251
0.15649 0.00972952
0.156557 0.00966244
0.156947 0.0100533
0.157231 0.00976942
0.15849 0.0110282
0.159698 0.00982007
0.160811 0.0109325
0.161026 0.0107171
0.161658 0.0113494
0.161744 0.0112635
0.16194 0.0114596
0.162195 0.0112052
0.163153 0.0121632
0.163611 0.0117047
0.164971 0.0130643
0.166181 0.0118541
0.168311 0.0139842
0.168798 0.0134974
0.169125 0.0138245
0.169235 0.0137146
0.169246 0.0137251
0.169465 0.0135054
0.170469 0.0145091
0.171879 0.0130996
0.172148 0.0133686
0.172509 0.0130076
0.174285 0.0147838
0.176329 0.01274
0.177194 0.0136053
0.179531 0.0112682
0.179947 0.0116837
0.180775 0.0108552
0.182912 0.0129916
0.185735 0.0101683
0.185772 0.0102056
0.190097 0.00588111
0.190276 0.00606078
0.193072 0.00326472
0.193854 0.00404678
0.193937 0.00396437
0.194323 0.00435038
0.196544 0.00212923
0.198033 0.00361862
0.198552 0.00310016
0.198992 0.00354039
0.200914 0.00161833
0.20139 0.0020939
0.202652 0.000831454
0.202716 0.000895041
0.203611 0
0.204167 0
0.204677 0.000509813
0.205187 0
inf 0


"layer 33:"
-inf 0
0.122129 0
0.122745 0.000616575
0.122746 0.00061593
0.122886 0.000756314
0.123226 0.000416709
0.123272 0.00046286
0.123426 0.000309066
0.123445 0.000327621
0.123737 3.54875e-05
0.123991 0.00029033
0.124282 0
0.124444 0
0.124651 0.000206346
0.124857 0
0.127312 0
0.127851 0.000539601
0.127958 0.000432673
0.128465 0.00093906
0.128961 0.000442627
0.130618 0.00209982
0.131286 0.00143223
0.13199 0.00213619
0.132096 0.00202975
0.132229 0.00216213
0.132354 0.00203725
0.133767 0.00345042
0.13389 0.00332743
0.134133 0.00357099
0.134387 0.00331696
0.134589 0.00351861
0.134911 0.00319701
0.135223 0.00350956
0.135272 0.00346104
0.135749 0.00393814
0.136639 0.00304829
0.136666 0.00307577
0.136813 0.00292849
0.136946 0.00306118
0.138003 0.00200453
0.13868 0.00268221
0.13868 0.00268207
0.138771 0.0027723
0.13903 0.00251333
0.140021 0.00350477
0.140634 0.00289156
0.140674 0.00293116
0.141185 0.00242042
0.141623 0.00285828
0.142034 0.00244667
0.142396 0.00280867
0.14247 0.0027348
0.142795 0.0030593
0.142965 0.00288899
0.14737 0.00729403
0.147533 0.00713058
0.147864 0.00746158
0.148061 0.00726465
0.148681 0.00788407
0.148878 0.0076871
0.149283 0.00809285
0.150331 0.00704489
0.15045 0.00716383
0.15105 0.00656422
0.151863 0.00737722
0.152194 0.00704647
0.152504 0.00735654
0.153038 0.00682234
0.153524 0.00730838
0.153796 0.00703616
0.156093 0.00933251
0.15616 0.00926543
0.156557 0.00966244
0.156841 0.00937857
0.157231 0.00976942
0.158439 0.00856133
0.159698 0.00982007
0.159914 0.00960463
0.161026 0.0107171
0.161112 0.0106312
0.161744 0.0112635
0.161999 0.0110091
0.162195 0.0112052
0.162653 0.0107466
0.163611 0.0117047
0.164822 0.0104945
0.166181 0.0118541
0.166668 0.0113672
0.168798 0.0134974
0.168908 0.0133875
0.169235 0.0137146
0.169455 0.0134949
0.169465 0.0135054
0.170289 0.0126822
0.171229 0.0136225
0.171815 0.0130361
0.171879 0.0130996
0.17224 0.0127386
0.172509 0.0130076
0.174552 0.0109638
0.176329 0.01274
0.178666 0.0104029
0.179531 0.0112682
0.18036 0.0104397
0.180775 0.0108552
0.183598 0.00803188
0.185735 0.0101683
0.190059 0.00584388
0.190097 0.00588111
0.192893 0.00308504
0.193072 0.00326472
0.193155 0.00318231
0.193937 0.00396437
0.196158 0.00174322
0.196544 0.00212923
0.197062 0.00161077
0.198552 0.00310016
0.200474 0.00117811
0.200914 0.00161833
0.202177 0.000355885
0.202652 0.000831454
0.203484 0
inf 0


"layer 34:"
-inf 0
0.12213 0
0.122746 0.00061593
0.123086 0.000276325
0.123226 0.000416709
0.12338 0.000262915
0.123426 0.000309066
0.123718 1.69324e-05
0.123737 3.54875e-05
0.123772 0
0.127526 0
0.127958 0.000432673
0.128391 0
0.128518 0
0.128961 0.000442627
0.129404 0
0.129854 0
0.131286 0.00143223
0.131392 0.00132579
0.132096 0.00202975
0.132221 0.00190488
0.132354 0.00203725
0.132477 0.00191426
0.13389 0.00332743
0.134144 0.0030734
0.134387 0.00331696
0.134709 0.00299536
0.134911 0.00319701
0.134959 0.00314848
0.135272 0.00346104
0.136161 0.00257119
0.136639 0.00304829
0.136786 0.00290102
0.136813 0.00292849
0.13787 0.00187185
0.138003 0.00200453
0.138003 0.00200439
0.13868 0.00268207
0.138939 0.0024231
0.13903 0.00251333
0.139643 0.00190012
0.140634 0.00289156
0.141145 0.00238083
0.141185 0.00242042
0.141596 0.00200881
0.142034 0.00244667
0.142108 0.0023728
0.14247 0.0027348
0.14264 0.00256448
0.142965 0.00288899
0.143128 0.00272554
0.147533 0.00713058
0.14773 0.00693365
0.148061 0.00726465
0.148258 0.00706768
0.148878 0.0076871
0.149926 0.00663914
0.150331 0.00704489
0.150931 0.00644527
0.15105 0.00656422
0.151381 0.00623346
0.152194 0.00704647
0.152728 0.00651227
0.153038 0.00682234
0.15331 0.00655013
0.153796 0.00703616
0.153863 0.00696908
0.15616 0.00926543
0.156444 0.00898156
0.156841 0.00937857
0.158049 0.00817048
0.158439 0.00856133
0.158655 0.00834589
0.159914 0.00960463
0.16 0.00951874
0.161112 0.0106312
0.161366 0.0103768
0.161999 0.0110091
0.162457 0.0105505
0.162653 0.0107466
0.163864 0.00953644
0.164822 0.0104945
0.165308 0.0100076
0.166668 0.0113672
0.166778 0.0112574
0.168908 0.0133875
0.169128 0.0131678
0.169455 0.0134949
0.170278 0.0126717
0.170289 0.0126822
0.170875 0.0120959
0.171815 0.0130361
0.172176 0.0126751
0.17224 0.0127386
0.174284 0.0106948
0.174552 0.0109638
0.17689 0.00862666
0.178666 0.0104029
0.17871 0.0103582
0.179289 0.0109368
0.180073 0.0101529
0.18036 0.0104397
0.180965 0.00983475
0.181374 0.0102446
0.183593 0.00802623
0.183598 0.00803188
0.187923 0.00370744
0.190059 0.00584388
0.192855 0.00304781
0.192893 0.00308504
0.192975 0.00300264
0.193155 0.00318231
0.195376 0.000961156
0.196158 0.00174322
0.196676 0.00122476
0.197062 0.00161077
0.198673 0
0.199296 0
0.200474 0.00117811
0.201652 0
0.201821 0
0.202177 0.000355885
0.202532 0
inf 0


"layer 35:"
-inf 0
0.122809 0
0.123086 0.000276325
0.123239 0.000122531
0.12338 0.000262915
0.123643 0
0.123701 0
0.123718 1.69324e-05
0.123735 0
0.130067 0
0.131392 0.00132579
0.131517 0.00120091
0.132221 0.00190488
0.132344 0.00178188
0.132477 0.00191426
0.132731 0.00166023
0.134144 0.0030734
0.134465 0.00275179
0.134709 0.00299536
0.134757 0.00294683
0.134959 0.00314848
0.135849 0.00225863
0.136161 0.00257119
0.136309 0.00242391
0.136786 0.00290102
0.137843 0.00184437
0.13787 0.00187185
0.13787 0.00187171
0.138003 0.00200439
0.138262 0.00174542
0.138939 0.0024231
0.139553 0.0018099
0.139643 0.00190012
0.140154 0.00138939
0.141145 0.00238083
0.141557 0.00196922
0.141596 0.00200881
0.14167 0.00193494
0.142108 0.0023728
0.142278 0.00220248
0.14264 0.00256448
0.142804 0.00240104
0.143128 0.00272554
0.143325 0.00252861
0.14773 0.00693365
0.147927 0.00673668
0.148258 0.00706768
0.149306 0.00601971
0.149926 0.00663914
0.150525 0.00603952
0.150931 0.00644527
0.151262 0.00611452
0.151381 0.00623346
0.151915 0.00569926
0.152728 0.00651227
0.153 0.00624005
0.15331 0.00655013
0.153377 0.00648305
0.153863 0.00696908
0.154147 0.00668521
0.156444 0.00898156
0.157652 0.00777347
0.158049 0.00817048
0.158264 0.00795504
0.158655 0.00834589
0.158741 0.00826
0.16 0.00951874
0.160254 0.00926434
0.161366 0.0103768
0.161825 0.00991818
0.162457 0.0105505
0.163667 0.00934034
0.163864 0.00953644
0.16435 0.00904958
0.165308 0.0100076
0.165418 0.00989774
0.166778 0.0112574
0.166998 0.0110376
0.169128 0.0131678
0.169951 0.0123446
0.170278 0.0126717
0.170864 0.0120853
0.170875 0.0120959
0.171236 0.0117349
0.172176 0.0126751
0.17422 0.0106313
0.174284 0.0106948
0.176621 0.00835771
0.17689 0.00862666
0.176934 0.008582
0.17871 0.0103582
0.179494 0.00957434
0.180073 0.0101529
0.180678 0.00954799
0.180965 0.00983475
0.183183 0.0076164
0.183593 0.00802623
0.187917 0.00370178
0.187923 0.00370744
0.188507 0.00312357
0.189673 0.00428982
0.191885 0.00207763
0.192855 0.00304781
0.192938 0.0029654
0.192975 0.00300264
0.195196 0.000781483
0.195376 0.000961156
0.195894 0.00044269
0.196676 0.00122476
0.197901 0
inf 0


"layer 36:"
-inf 0
0.123117 0
0.123239 0.000122531
0.123362 0
0.130316 0
0.131517 0.00120091
0.13164 0.00107792
0.132344 0.00178188
0.132598 0.00152785
0.132731 0.00166023
0.133052 0.00133863
0.134465 0.00275179
0.134514 0.00270327
0.134757 0.00294683
0.135647 0.00205698
0.135849 0.00225863
0.135996 0.00211135
0.136309 0.00242391
0.137365 0.00136726
0.137843 0.00184437
0.137843 0.00184423
0.13787 0.00187171
0.138129 0.00161274
0.138262 0.00174542
0.138875 0.00113222
0.139553 0.0018099
0.140063 0.00129916
0.140154 0.00138939
0.140565 0.000977777
0.141557 0.00196922
0.141631 0.00189534
0.14167 0.00193494
0.14184 0.00176463
0.142278 0.00220248
0.142442 0.00203903
0.142804 0.00240104
0.143001 0.00220411
0.143325 0.00252861
0.143522 0.00233163
0.147927 0.00673668
0.148975 0.00568872
0.149306 0.00601971
0.149906 0.0054201
0.150525 0.00603952
0.150856 0.00570876
0.151262 0.00611452
0.151796 0.00558032
0.151915 0.00569926
0.152187 0.00542705
0.153 0.00624005
0.153067 0.00617297
0.153377 0.00648305
0.153661 0.00619918
0.154147 0.00668521
0.155355 0.00547712
0.157652 0.00777347
0.157867 0.00755803
0.158264 0.00795504
0.15835 0.00786915
0.158741 0.00826
0.158995 0.0080056
0.160254 0.00926434
0.160713 0.00880575
0.161825 0.00991818
0.163035 0.00870799
0.163667 0.00934034
0.164154 0.00885348
0.16435 0.00904958
0.16446 0.00893971
0.165418 0.00989774
0.165638 0.00967801
0.166998 0.0110376
0.167821 0.0102145
0.169951 0.0123446
0.170537 0.0117582
0.170864 0.0120853
0.171225 0.0117243
0.171236 0.0117349
0.17328 0.0096911
0.17422 0.0106313
0.176557 0.0082942
0.176621 0.00835771
0.176665 0.00831305
0.176934 0.008582
0.177718 0.00779814
0.179494 0.00957434
0.180099 0.00896941
0.180678 0.00954799
0.182896 0.00732963
0.183183 0.0076164
0.187507 0.00329195
0.187917 0.00370178
0.188501 0.00311791
0.188507 0.00312357
0.190719 0.000911366
0.191885 0.00207763
0.191968 0.00199522
0.192938 0.0029654
0.195159 0.00074425
0.195196 0.000781483
0.195715 0.000263018
0.195894 0.00044269
0.196337 0
inf 0


"layer 37:"
-inf 0
0.130562 0
0.13164 0.00107792
0.131894 0.00082389
0.132598 0.00152785
0.13292 0.00120625
0.133052 0.00133863
0.133101 0.0012901
0.134514 0.00270327
0.135404 0.00181342
0.135647 0.00205698
0.135795 0.0019097
0.135996 0.00211135
0.137053 0.00105471
0.137365 0.00136726
0.137366 0.00136712
0.137843 0.00184423
0.138102 0.00158526
0.138129 0.00161274
0.138742 0.000999533
0.138875 0.00113222
0.139386 0.00062148
0.140063 0.00129916
0.140475 0.000887548
0.140565 0.000977777
0.140639 0.000903906
0.141631 0.00189534
0.141801 0.00172503
0.14184 0.00176463
0.142004 0.00160118
0.142442 0.00203903
0.142639 0.0018421
0.143001 0.00220411
0.143198 0.00200713
0.143522 0.00233163
0.14457 0.00128367
0.148975 0.00568872
0.149575 0.0050891
0.149906 0.0054201
0.150237 0.00508934
0.150856 0.00570876
0.15139 0.00517457
0.151796 0.00558032
0.152068 0.0053081
0.152187 0.00542705
0.152254 0.00535997
0.153067 0.00617297
0.153351 0.0058891
0.153661 0.00619918
0.154455 0.00540551
0.154462 0.00541318
0.154877 0.00499876
0.155355 0.00547712
0.155571 0.00526168
0.157867 0.00755803
0.157953 0.00747214
0.15835 0.00786915
0.158604 0.00761475
0.158995 0.0080056
0.159454 0.00754701
0.160713 0.00880575
0.161923 0.00759556
0.163035 0.00870799
0.163522 0.00822113
0.164154 0.00885348
0.164264 0.0087436
0.16446 0.00893971
0.16468 0.00871998
0.165638 0.00967801
0.166461 0.00885485
0.167821 0.0102145
0.168407 0.00962811
0.170537 0.0117582
0.170898 0.0113972
0.171225 0.0117243
0.173269 0.00968057
0.17328 0.0096911
0.175617 0.00735398
0.176557 0.0082942
0.176602 0.00824954
0.176665 0.00831305
0.177449 0.00752918
0.177718 0.00779814
0.178323 0.00719321
0.180099 0.00896941
0.182318 0.00675105
0.182896 0.00732963
0.187221 0.00300518
0.187507 0.00329195
0.188091 0.00270808
0.188501 0.00311791
0.190713 0.000905709
0.190719 0.000911366
0.190801 0.000828959
0.191968 0.00199522
0.193963 0
0.194415 0
0.195159 0.00074425
0.195677 0.000225784
0.195715 0.000263018
0.195978 0
inf 0


"layer 38:"
-inf 0
0.13107 0
0.131894 0.00082389
0.132216 0.000502286
0.13292 0.00120625
0.132968 0.00115772
0.133101 0.0012901
0.133991 0.000400251
0.135404 0.00181342
0.135551 0.00166614
0.135795 0.0019097
0.136851 0.000853055
0.137053 0.00105471
0.137053 0.00105457
0.137366 0.00136712
0.137625 0.00110815
0.138102 0.00158526
0.138715 0.000972055
0.138742 0.000999533
0.139253 0.000488795
0.139386 0.00062148
0.139797 0.00020987
0.140475 0.000887548
0.140549 0.000813677
0.140639 0.000903906
0.140809 0.000733589
0.141801 0.00172503
0.141964 0.00156158
0.142004 0.00160118
0.142201 0.00140425
0.142639 0.0018421
0.142836 0.00164513
0.143198 0.00200713
0.144246 0.00095917
0.14457 0.00128367
0.14517 0.000684056
0.149575 0.0050891
0.149906 0.00475834
0.150237 0.00508934
0.150771 0.00455514
0.15139 0.00517457
0.151662 0.00490235
0.152068 0.0053081
0.152135 0.00524102
0.152254 0.00535997
0.152538 0.0050761
0.153351 0.0058891
0.154145 0.00509544
0.154455 0.00540551
0.154869 0.00499109
0.154877 0.00499876
0.155092 0.00478332
0.155571 0.00526168
0.155657 0.00517579
0.157953 0.00747214
0.158207 0.00721774
0.158604 0.00761475
0.159063 0.00715616
0.159454 0.00754701
0.160664 0.00633682
0.161923 0.00759556
0.16241 0.0071087
0.163522 0.00822113
0.163632 0.00811126
0.164264 0.0087436
0.164484 0.00852388
0.16468 0.00871998
0.165503 0.00789682
0.166461 0.00885485
0.167048 0.00826848
0.168407 0.00962811
0.168768 0.0092671
0.170898 0.0113972
0.172942 0.00935345
0.173269 0.00968057
0.175606 0.00734345
0.175617 0.00735398
0.175662 0.00730932
0.176602 0.00824954
0.177386 0.00746567
0.177449 0.00752918
0.178054 0.00692425
0.178323 0.00719321
0.180541 0.00497485
0.182318 0.00675105
0.186642 0.0024266
0.187221 0.00300518
0.187804 0.00242131
0.188091 0.00270808
0.190303 0.000495878
0.190713 0.000905709
0.190796 0.000823302
0.190801 0.000828959
0.19163 0
0.195452 0
0.195677 0.000225784
0.195903 0
inf 0


"layer 39:"
-inf 0
0.131714 0
0.132216 0.000502286
0.132264 0.000453761
0.132968 0.00115772
0.133858 0.000267874
0.133991 0.000400251
0.134138 0.000252973
0.135551 0.00166614
0.136608 0.000609494
0.136851 0.000853055
0.136851 0.000852917
0.137053 0.00105457
0.137312 0.000795595
0.137625 0.00110815
0.138238 0.000494947
0.138715 0.000972055
0.139226 0.000461317
0.139253 0.000488795
0.139665 7.7186e-05
0.139797 0.00020987
0.139871 0.000135999
0.140549 0.000813677
0.140719 0.000643361
0.140809 0.000733589
0.140973 0.000570145
0.141964 0.00156158
0.142161 0.00136465
0.142201 0.00140425
0.142398 0.00120727
0.142836 0.00164513
0.143884 0.000597165
0.144246 0.00095917
0.144845 0.000359553
0.14517 0.000684056
0.145501 0.000353299
0.149906 0.00475834
0.15044 0.00422414
0.150771 0.00455514
0.151043 0.00428293
0.151662 0.00490235
0.151729 0.00483527
0.152135 0.00524102
0.152419 0.00495715
0.152538 0.0050761
0.153332 0.00428243
0.154145 0.00509544
0.154559 0.00468101
0.154869 0.00499109
0.155085 0.00477565
0.155092 0.00478332
0.155178 0.00469743
0.155657 0.00517579
0.155911 0.00492139
0.158207 0.00721774
0.158666 0.00675915
0.159063 0.00715616
0.160273 0.00594597
0.160664 0.00633682
0.161151 0.00584996
0.16241 0.0071087
0.162519 0.00699883
0.163632 0.00811126
0.163852 0.00789153
0.164484 0.00852388
0.165307 0.00770072
0.165503 0.00789682
0.16609 0.00731045
0.167048 0.00826848
0.167409 0.00790747
0.168768 0.0092671
0.169081 0.00895403
0.169287 0.0091599
0.171018 0.0074292
0.172942 0.00935345
0.175279 0.00701633
0.175606 0.00734345
0.175651 0.00729879
0.175662 0.00730932
0.176445 0.00652545
0.177386 0.00746567
0.177991 0.00686075
0.178054 0.00692425
0.180272 0.0047059
0.180541 0.00497485
0.184536 0.00098012
0.184582 0.00102554
0.184911 0.00069582
0.186642 0.0024266
0.187226 0.00184273
0.187804 0.00242131
0.190017 0.000209115
0.190303 0.000495878
0.190386 0.000413471
0.190796 0.000823302
0.191619 0
inf 0


"layer 40:"
-inf 0
0.131811 0
0.132264 0.000453761
0.132718 0
0.13359 0
0.133858 0.000267874
0.134005 0.000120596
0.134138 0.000252973
0.134266 0.000124782
0.134479 0.000337298
0.134816 0
0.1349 0
0.135605 0.000704391
0.136154 0.000155518
0.136608 0.000609494
0.136608 0.000609356
0.136851 0.000852917
0.13711 0.000593945
0.137312 0.000795595
0.137925 0.000182392
0.138238 0.000494947
0.138733 0
0.138764 0
0.139226 0.000461317
0.139637 4.97075e-05
0.139665 7.7186e-05
0.139739 3.31479e-06
0.139871 0.000135999
0.140007 0
0.140076 0
0.140719 0.000643361
0.140883 0.000479916
0.140973 0.000570145
0.14117 0.00037321
0.142161 0.00136465
0.142358 0.00116768
0.142398 0.00120727
0.143446 0.000159311
0.143884 0.000597165
0.143927 0.000553612
0.143943 0.000569683
0.144499 1.36192e-05
0.144845 0.000359553
0.145176 2.87966e-05
0.145501 0.000353299
0.145854 0
0.146216 0
0.15044 0.00422414
0.150712 0.00395193
0.151043 0.00428293
0.15111 0.00421585
0.151729 0.00483527
0.152013 0.0045514
0.152419 0.00495715
0.153213 0.00416349
0.153332 0.00428243
0.153746 0.00386801
0.154559 0.00468101
0.154775 0.00446557
0.155085 0.00477565
0.155171 0.00468975
0.155178 0.00469743
0.155433 0.00444303
0.155911 0.00492139
0.15637 0.0044628
0.158666 0.00675915
0.159876 0.00554897
0.160273 0.00594597
0.16076 0.00545911
0.161151 0.00584996
0.161261 0.00574009
0.162519 0.00699883
0.162739 0.0067791
0.163852 0.00789153
0.164675 0.00706837
0.165307 0.00770072
0.165893 0.00711435
0.16609 0.00731045
0.166451 0.00694945
0.167409 0.00790747
0.167722 0.0075944
0.169081 0.00895403
0.170812 0.00722333
0.171018 0.0074292
0.173355 0.00509208
0.175279 0.00701633
0.175324 0.00697167
0.175651 0.00729879
0.176435 0.00651492
0.176445 0.00652545
0.17705 0.00592053
0.177991 0.00686075
0.180209 0.00464239
0.180272 0.0047059
0.184267 0.000711162
0.184536 0.00098012
0.184866 0.000650404
0.184911 0.00069582
0.185495 0.000111951
0.187226 0.00184273
0.189069 0
0.189808 0
0.190017 0.000209115
0.190099 0.000126708
0.190386 0.000413471
0.190799 0
inf 0


"layer 41:"
-inf 0
0.133885 0
0.134005 0.000120596
0.134126 0
0.134141 0
0.134266 0.000124782
0.134391 0
0.13576 0
0.135779 1.89507e-05
0.135798 0
0.135998 0
0.136154 0.000155518
0.136154 0.00015538
0.136608 0.000609356
0.136867 0.000350384
0.13711 0.000593945
0.137704 0
0.137743 0
0.137925 0.000182392
0.138108 0
0.139587 0
0.139637 4.97075e-05
0.139687 0
0.139735 0
0.139739 3.31479e-06
0.139742 0
0.140403 0
0.140883 0.000479916
0.14108 0.000282982
0.14117 0.00037321
0.141367 0.000176237
0.142358 0.00116768
0.143406 0.000119714
0.143446 0.000159311
0.143489 0.000115759
0.143927 0.000553612
0.144481 0
0.144486 0
0.144499 1.36192e-05
0.144513 0
0.145147 0
0.145176 2.87966e-05
0.145205 0
0.146229 0
0.147912 0.00168324
0.148178 0.00141757
0.150712 0.00395193
0.150779 0.00388485
0.15111 0.00421585
0.151394 0.00393198
0.152013 0.0045514
0.152807 0.00375773
0.153213 0.00416349
0.153627 0.00374906
0.153746 0.00386801
0.153962 0.00365257
0.154775 0.00446557
0.15486 0.00437968
0.155171 0.00468975
0.155425 0.00443536
0.155433 0.00444303
0.155891 0.00398444
0.15637 0.0044628
0.15758 0.00325262
0.159876 0.00554897
0.160363 0.0050621
0.16076 0.00545911
0.16087 0.00534924
0.161261 0.00574009
0.16148 0.00552036
0.162739 0.0067791
0.163562 0.00595594
0.164675 0.00706837
0.165261 0.006482
0.165893 0.00711435
0.166254 0.00675334
0.166451 0.00694945
0.166764 0.00663638
0.167722 0.0075944
0.169452 0.0058637
0.170812 0.00722333
0.173149 0.00488621
0.173355 0.00509208
0.1734 0.00504742
0.175324 0.00697167
0.176108 0.0061878
0.176435 0.00651492
0.17704 0.00591
0.17705 0.00592053
0.179269 0.00370217
0.180209 0.00464239
0.184204 0.000647655
0.184267 0.000711162
0.184597 0.000381446
0.184866 0.000650404
0.18545 6.65341e-05
0.185495 0.000111951
0.185607 0
0.189972 0
0.190099 0.000126708
0.190226 0
inf 0


"layer 42:"
-inf 0
0.135998 0
0.136154 0.00015538
0.136309 0
0.136516 0
0.136867 0.000350384
0.137217 0
0.140797 0
0.14108 0.000282982
0.141277 8.60087e-05
0.141367 0.000176237
0.141543 0
0.143286 0
0.143406 0.000119714
0.14345 7.61615e-05
0.143489 0.000115759
0.143605 0
0.14676 0
0.148178 0.00141757
0.148245 0.00135048
0.150779 0.00388485
0.151063 0.00360098
0.151394 0.00393198
0.152188 0.00313831
0.152807 0.00375773
0.153221 0.00334331
0.153627 0.00374906
0.153843 0.00353362
0.153962 0.00365257
0.154047 0.00356667
0.15486 0.00437968
0.155115 0.00412528
0.155425 0.00443536
0.155884 0.00397676
0.155891 0.00398444
0.157101 0.00277425
0.15758 0.00325262
0.158067 0.00276575
0.160363 0.0050621
0.160473 0.00495223
0.16087 0.00534924
0.16109 0.00512951
0.16148 0.00552036
0.161727 0.00527333
0.161892 0.00543783
0.162468 0.00486169
0.163562 0.00595594
0.164149 0.00536957
0.165261 0.006482
0.165622 0.006121
0.166254 0.00675334
0.166568 0.00644027
0.166764 0.00663638
0.168494 0.00490567
0.169452 0.0058637
0.17179 0.00352658
0.173149 0.00488621
0.173194 0.00484155
0.1734 0.00504742
0.173948 0.00449922
0.174333 0.00488477
0.174569 0.00464911
0.176108 0.0061878
0.176713 0.00558288
0.17704 0.00591
0.179258 0.00369164
0.179269 0.00370217
0.181281 0.00169007
0.182185 0.00259462
0.184168 0.000611987
0.184204 0.000647655
0.184533 0.000317939
0.184597 0.000381446
0.184978 0
0.185383 0
0.18545 6.65341e-05
0.185516 0
inf 0


"layer 43:"
-inf 0
0.141191 0
0.141277 8.60087e-05
0.141363 0
0.143374 0
0.14345 7.61615e-05
0.143526 0
0.146894 0
0.148245 0.00135048
0.148529 0.00106661
0.151063 0.00360098
0.151857 0.00280731
0.152188 0.00313831
0.152602 0.00272389
0.153221 0.00334331
0.153437 0.00312787
0.153843 0.00353362
0.153929 0.00344773
0.154047 0.00356667
0.154302 0.00331228
0.155115 0.00412528
0.155573 0.00366669
0.155884 0.00397676
0.157094 0.00276658
0.157101 0.00277425
0.157588 0.00228739
0.158067 0.00276575
0.158176 0.00265588
0.160473 0.00495223
0.160693 0.00473251
0.16109 0.00512951
0.161337 0.00488248
0.161727 0.00527333
0.162304 0.0046972
0.162468 0.00486169
0.163054 0.00427532
0.164149 0.00536957
0.16451 0.00500857
0.165622 0.006121
0.165935 0.00580793
0.166568 0.00644027
0.168298 0.00470957
0.168494 0.00490567
0.170831 0.00256855
0.17179 0.00352658
0.171834 0.00348192
0.173194 0.00484155
0.173742 0.00429335
0.173948 0.00449922
0.174184 0.00426356
0.174569 0.00464911
0.175174 0.00404418
0.176713 0.00558288
0.178931 0.00336452
0.179258 0.00369164
0.18127 0.00167954
0.181281 0.00169007
0.182971 0
0.183556 0
0.184168 0.000611987
0.184498 0.000282271
0.184533 0.000317939
0.184851 0
inf 0


"layer 44:"
-inf 0
0.147462 0
0.148529 0.00106661
0.149322 0.000272947
0.151857 0.00280731
0.152271 0.00239289
0.152602 0.00272389
0.152817 0.00250845
0.153437 0.00312787
0.153523 0.00304198
0.153929 0.00344773
0.154183 0.00319333
0.154302 0.00331228
0.15476 0.00285368
0.155573 0.00366669
0.156784 0.00245651
0.157094 0.00276658
0.157581 0.00227971
0.157588 0.00228739
0.157698 0.00217752
0.158176 0.00265588
0.158396 0.00243616
0.160693 0.00473251
0.16094 0.00448548
0.161337 0.00488248
0.161913 0.00430635
0.162304 0.0046972
0.16289 0.00411083
0.163054 0.00427532
0.163415 0.00391432
0.16451 0.00500857
0.164823 0.0046955
0.165935 0.00580793
0.167666 0.00407722
0.168298 0.00470957
0.170635 0.00237245
0.170831 0.00256855
0.170876 0.0025239
0.171834 0.00348192
0.172382 0.00293372
0.173742 0.00429335
0.173978 0.00405769
0.174184 0.00426356
0.174788 0.00365863
0.175174 0.00404418
0.177392 0.00182582
0.178931 0.00336452
0.180943 0.00135242
0.18127 0.00167954
0.18295 0
0.184215 0
0.184498 0.000282271
0.18478 0
inf 0


"layer 45:"
-inf 0
0.149049 0
0.149322 0.000272947
0.149595 0
0.149878 0
0.152271 0.00239289
0.152486 0.00217745
0.152817 0.00250845
0.152903 0.00242256
0.153523 0.00304198
0.153777 0.00278758
0.154183 0.00319333
0.154642 0.00273474
0.15476 0.00285368
0.155971 0.0016435
0.156784 0.00245651
0.157271 0.00196964
0.157581 0.00227971
0.15769 0.00216984
0.157698 0.00217752
0.157918 0.0019578
0.158396 0.00243616
0.158397 0.00243518
0.158492 0.00252983
0.158738 0.00228377
0.16094 0.00448548
0.161516 0.00390934
0.161913 0.00430635
0.162499 0.00371998
0.16289 0.00411083
0.163251 0.00374983
0.163415 0.00391432
0.163729 0.00360125
0.164823 0.0046955
0.166553 0.00296479
0.167666 0.00407722
0.170003 0.0017401
0.170635 0.00237245
0.17068 0.00232779
0.170876 0.0025239
0.171424 0.00197569
0.172382 0.00293372
0.172618 0.00269806
0.173978 0.00405769
0.174583 0.00345276
0.174788 0.00365863
0.177007 0.00144027
0.177392 0.00182582
0.179218 0
0.179591 0
0.180943 0.00135242
0.182296 0
inf 0


"layer 46:"
-inf 0
0.150309 0
0.152486 0.00217745
0.152572 0.00209156
0.152903 0.00242256
0.153158 0.00216816
0.153777 0.00278758
0.15379 0.00277478
0.154136 0.0031209
0.154582 0.00267511
0.154642 0.00273474
0.155852 0.00152456
0.155971 0.0016435
0.156458 0.00115664
0.157271 0.00196964
0.15738 0.00185977
0.15769 0.00216984
0.15791 0.00195012
0.157918 0.0019578
0.157919 0.00195682
0.158397 0.00243518
0.158643 0.00218913
0.158738 0.00228377
0.159314 0.00170764
0.161516 0.00390934
0.162102 0.00332297
0.162499 0.00371998
0.16286 0.00335898
0.163251 0.00374983
0.163564 0.00343676
0.163729 0.00360125
0.165459 0.00187054
0.166553 0.00296479
0.168891 0.000627674
0.170003 0.0017401
0.170048 0.00169544
0.17068 0.00232779
0.171228 0.00177959
0.171424 0.00197569
0.17166 0.00174003
0.172618 0.00269806
0.173223 0.00209313
0.174583 0.00345276
0.176801 0.0012344
0.177007 0.00144027
0.178447 0
inf 0


"layer 47:"
-inf 0
0.150481 0
0.152572 0.00209156
0.152827 0.00183716
0.153158 0.00216816
0.153171 0.00215536
0.15379 0.00277478
0.154236 0.00232899
0.154582 0.00267511
0.155792 0.00146492
0.155852 0.00152456
0.156339 0.00103769
0.156458 0.00115664
0.156567 0.00104676
0.15738 0.00185977
0.1576 0.00164005
0.15791 0.00195012
0.157911 0.00194915
0.157919 0.00195682
0.158165 0.00171076
0.158643 0.00218913
0.159219 0.00161299
0.159314 0.00170764
0.1599 0.00112127
0.162102 0.00332297
0.162463 0.00296197
0.16286 0.00335898
0.163173 0.00304591
0.163564 0.00343676
0.165295 0.00170605
0.165459 0.00187054
0.16733 0
0.168263 0
0.168891 0.000627674
0.168935 0.000583014
0.170048 0.00169544
0.170596 0.00114724
0.171228 0.00177959
0.171464 0.00154393
0.17166 0.00174003
0.172265 0.0011351
0.173223 0.00209313
0.175316 0
0.175567 0
0.176801 0.0012344
0.178035 0
inf 0


"layer 48:"
-inf 0
0.15099 0
0.152827 0.00183716
0.15284 0.00182436
0.153171 0.00215536
0.153616 0.00170957
0.154236 0.00232899
0.155446 0.0011188
0.155792 0.00146492
0.156279 0.000978056
0.156339 0.00103769
0.156448 0.00092782
0.156567 0.00104676
0.156787 0.000827041
0.1576 0.00164005
0.157601 0.00163907
0.157911 0.00194915
0.158157 0.00170309
0.158165 0.00171076
0.158741 0.00113463
0.159219 0.00161299
0.159806 0.00102662
0.1599 0.00112127
0.160261 0.000760264
0.162463 0.00296197
0.162776 0.0026489
0.163173 0.00304591
0.164904 0.0013152
0.165295 0.00170605
0.167001 0
0.168352 0
0.168935 0.000583014
0.169483 3.48118e-05
0.170596 0.00114724
0.170832 0.000911579
0.171464 0.00154393
0.172069 0.000938999
0.172265 0.0011351
0.1734 0
inf 0


"layer 49:"
-inf 0
0.151015 0
0.15284 0.00182436
0.153285 0.00137857
0.153616 0.00170957
0.154827 0.00049938
0.155446 0.0011188
0.155933 0.000631939
0.156279 0.000978056
0.156389 0.000868184
0.156448 0.00092782
0.156668 0.000708099
0.156787 0.000827041
0.156788 0.000826066
0.157601 0.00163907
0.157847 0.00139302
0.158157 0.00170309
0.158733 0.00112696
0.158741 0.00113463
0.159327 0.000548262
0.159806 0.00102662
0.160167 0.000665619
0.160261 0.000760264
0.160276 0.000746136
0.161575 0.00204512
0.161873 0.00174618
0.162776 0.0026489
0.164507 0.000918194
0.164904 0.0013152
0.166219 0
0.169449 0
0.169483 3.48118e-05
0.169518 0
0.16992 0
0.170832 0.000911579
0.171436 0.000306651
0.172069 0.000938999
0.173008 0
inf 0


"layer 50:"
-inf 0
0.151752 0
0.151783 3.10127e-05
0.151814 0
0.151907 0
0.153285 0.00137857
0.154496 0.00016838
0.154827 0.00049938
0.155313 1.25159e-05
0.155933 0.000631939
0.156043 0.000522067
0.156389 0.000868184
0.156609 0.000648462
0.156668 0.000708099
0.156669 0.000707123
0.156788 0.000826066
0.157034 0.00058001
0.157847 0.00139302
0.158423 0.000816885
0.158733 0.00112696
0.15932 0.000540588
0.159327 0.000548262
0.159688 0.000187257
0.160167 0.000665619
0.160181 0.000651491
0.160276 0.000746136
0.160574 0.000447194
0.161873 0.00174618
0.163604 1.54722e-05
0.164507 0.000918194
0.165425 0
0.17113 0
0.171436 0.000306651
0.171743 0
inf 0


"layer 51:"
-inf 0
0.154327 0
0.154496 0.00016838
0.154664 0
0.155301 0
0.155313 1.25159e-05
0.155326 0
0.155521 0
0.156043 0.000522067
0.156262 0.000302345
0.156609 0.000648462
0.156609 0.000647487
0.156669 0.000707123
0.156915 0.000461068
0.157034 0.00058001
0.15761 3.87742e-06
0.158423 0.000816885
0.158496 0.000744495
0.158681 0.000929348
0.159194 0.000415369
0.15932 0.000540588
0.159681 0.000179582
0.159688 0.000187257
0.159703 0.000173129
0.160181 0.000651491
0.16048 0.000352549
0.160574 0.000447194
0.161022 0
0.163589 0
0.163604 1.54722e-05
0.16362 0
inf 0


"layer 52:"
-inf 0
0.15596 0
0.156262 0.000302345
0.156263 0.00030137
0.156609 0.000647487
0.156856 0.000401432
0.156915 0.000461068
0.157376 0
0.157606 0
0.15761 3.87742e-06
0.157614 0
0.157751 0
0.158496 0.000744495
0.15901 0.000230516
0.159194 0.000415369
0.159555 5.43633e-05
0.159681 0.000179582
0.159695 0.000165454
0.159703 0.000173129
0.159876 0
0.160127 0
0.16048 0.000352549
0.160832 0
inf 0


"layer 53:"
-inf 0
0.155962 0
0.156263 0.00030137
0.156509 5.53143e-05
0.156856 0.000401432
0.157257 0
0.158779 0
0.15901 0.000230516
0.15924 0
0.159501 0
0.159555 5.43633e-05
0.15957 4.02352e-05
0.159695 0.000165454
0.15986 0
inf 0


"layer 54:"
-inf 0
0.156454 0
0.156509 5.53143e-05
0.156565 0
0.159529 0
0.15957 4.02352e-05
0.15961 0
inf 0


