# Persistence diagram </home/jens/Uni/data_topology/Project/Graph_Data/Synthetic_Barabasi-Albert/bag_22.gml>
#
# Dimension   : 0
# Entries     : 71
# Betti number: 1
35	inf
35	42
35	38
35	41
35	38
35	38
35	39
35	39
35	38
35	38
35	37
35	39
35	38
35	38
35	39
35	38
35	38
35	38
35	37
35	39
35	37
35	37
35	40
35	40
35	38
35	38
35	37
35	38
35	37
35	37
35	37
35	40
35	38
35	38
35	37
35	38
35	37
35	37
35	37
35	37
35	38
35	37
35	37
35	37
35	37
35	37
35	38
35	37
35	37
35	37
35	39
35	39
35	39
36	38
36	37
36	37
36	37
36	38
36	40
36	37
36	37
36	37
36	38
36	38
36	37
36	37
36	37
36	37
37	38
37	40
37	38


