7	6124
10	6124
10	6124
16	6124
16	6124
126	6124
126	6124
126	6124
126	6124
126	6124
126	6124
126	6124
127	6124
127	6124
127	6124
127	6124
127	6124
127	6124
128	6124
128	6124
128	6124
128	6124
130	6124
133	6124
134	6124
