5	6124
9	6124
10	6124
12	6124
13	6124
13	6124
14	6124
14	6124
14	6124
14	6124
14	6124
14	6124
15	6124
15	6124
15	6124
15	6124
15	6124
15	6124
15	6124
15	6124
16	6124
16	6124
16	6124
16	6124
16	6124
16	6124
16	6124
17	6124
17	6124
17	6124
17	6124
18	6124
18	6124
19	6124
19	6124
20	6124
20	6124
21	6124
21	6124
22	6124
22	6124
22	6124
23	6124
24	6124
24	6124
24	6124
24	6124
24	6124
24	6124
24	6124
24	6124
25	6124
25	6124
25	6124
26	6124
26	6124
26	6124
27	6124
27	6124
27	6124
27	6124
28	6124
28	6124
29	6124
29	6124
29	6124
29	6124
29	6124
29	6124
30	6124
30	6124
31	6124
31	6124
31	6124
32	6124
32	6124
32	6124
32	6124
32	6124
32	6124
33	6124
33	6124
34	6124
36	6124
36	6124
36	6124
37	6124
37	6124
37	6124
38	6124
39	6124
39	6124
41	6124
41	6124
43	6124
44	6124
45	6124
45	6124
49	6124
49	6124
635	6124
635	6124
635	6124
635	6124
635	6124
635	6124
635	6124
635	6124
635	6124
635	6124
635	6124
635	6124
635	6124
635	6124
635	6124
635	6124
635	6124
635	6124
635	6124
635	6124
635	6124
635	6124
635	6124
635	6124
635	6124
635	6124
635	6124
635	6124
635	6124
635	6124
635	6124
635	6124
635	6124
635	6124
635	6124
635	6124
635	6124
635	6124
635	6124
636	6124
636	6124
636	6124
636	6124
636	6124
636	6124
636	6124
636	6124
636	6124
636	6124
636	6124
636	6124
636	6124
636	6124
636	6124
636	6124
636	6124
636	6124
636	6124
637	6124
637	6124
637	6124
637	6124
637	6124
637	6124
637	6124
637	6124
638	6124
638	6124
638	6124
638	6124
638	6124
638	6124
638	6124
638	6124
639	6124
639	6124
639	6124
639	6124
639	6124
640	6124
642	6124
644	6124
644	6124
644	6124
645	6124
646	6124
649	6124
654	6124
659	6124
662	6124
667	6124
