8	6124
9	6124
9	6124
13	6124
14	6124
15	6124
16	6124
17	6124
17	6124
18	6124
18	6124
141	6124
141	6124
141	6124
141	6124
141	6124
141	6124
141	6124
142	6124
142	6124
142	6124
142	6124
142	6124
143	6124
143	6124
143	6124
144	6124
144	6124
144	6124
145	6124
147	6124
147	6124
150	6124
151	6124
