8	6124
8	6124
9	6124
9	6124
10	6124
10	6124
11	6124
11	6124
12	6124
12	6124
14	6124
14	6124
14	6124
15	6124
27	6124
27	6124
27	6124
28	6124
28	6124
28	6124
28	6124
29	6124
29	6124
29	6124
33	6124
68	6124
68	6124
68	6124
68	6124
68	6124
69	6124
69	6124
69	6124
69	6124
69	6124
69	6124
69	6124
74	6124
74	6124
75	6124
75	6124
91	6124
