5	6124
10	6124
13	6124
13	6124
139	6124
139	6124
139	6124
139	6124
139	6124
139	6124
139	6124
140	6124
140	6124
140	6124
140	6124
141	6124
141	6124
141	6124
141	6124
143	6124
143	6124
144	6124
147	6124
148	6124
