7	6124
8	6124
9	6124
9	6124
10	6124
11	6124
11	6124
12	6124
12	6124
12	6124
12	6124
12	6124
13	6124
13	6124
13	6124
14	6124
14	6124
14	6124
14	6124
14	6124
14	6124
15	6124
15	6124
15	6124
15	6124
16	6124
17	6124
17	6124
17	6124
17	6124
17	6124
17	6124
17	6124
18	6124
18	6124
18	6124
19	6124
19	6124
19	6124
19	6124
19	6124
19	6124
20	6124
20	6124
20	6124
20	6124
20	6124
21	6124
21	6124
23	6124
23	6124
24	6124
24	6124
24	6124
25	6124
25	6124
25	6124
25	6124
27	6124
29	6124
30	6124
31	6124
34	6124
34	6124
34	6124
34	6124
34	6124
34	6124
35	6124
35	6124
35	6124
35	6124
35	6124
36	6124
36	6124
37	6124
37	6124
37	6124
39	6124
39	6124
40	6124
40	6124
40	6124
41	6124
44	6124
44	6124
46	6124
218	6124
218	6124
218	6124
218	6124
218	6124
218	6124
218	6124
218	6124
218	6124
218	6124
218	6124
218	6124
218	6124
218	6124
218	6124
218	6124
218	6124
218	6124
218	6124
218	6124
218	6124
218	6124
218	6124
218	6124
218	6124
218	6124
218	6124
218	6124
218	6124
218	6124
218	6124
218	6124
218	6124
218	6124
218	6124
218	6124
218	6124
219	6124
219	6124
219	6124
219	6124
219	6124
219	6124
219	6124
219	6124
219	6124
219	6124
219	6124
219	6124
219	6124
219	6124
219	6124
220	6124
220	6124
220	6124
220	6124
220	6124
220	6124
220	6124
221	6124
221	6124
221	6124
221	6124
222	6124
222	6124
222	6124
223	6124
223	6124
224	6124
225	6124
225	6124
227	6124
228	6124
248	6124
