6	6124
7	6124
7	6124
8	6124
9	6124
9	6124
10	6124
10	6124
11	6124
11	6124
12	6124
12	6124
12	6124
13	6124
13	6124
14	6124
14	6124
15	6124
15	6124
16	6124
16	6124
16	6124
16	6124
17	6124
17	6124
19	6124
19	6124
19	6124
24	6124
24	6124
25	6124
25	6124
26	6124
27	6124
27	6124
29	6124
30	6124
37	6124
268	6124
268	6124
268	6124
268	6124
268	6124
268	6124
268	6124
268	6124
268	6124
268	6124
268	6124
268	6124
268	6124
268	6124
268	6124
268	6124
268	6124
268	6124
268	6124
268	6124
268	6124
269	6124
269	6124
269	6124
269	6124
269	6124
269	6124
269	6124
269	6124
269	6124
269	6124
269	6124
270	6124
270	6124
270	6124
270	6124
270	6124
270	6124
271	6124
271	6124
271	6124
271	6124
272	6124
272	6124
272	6124
272	6124
272	6124
273	6124
273	6124
273	6124
273	6124
273	6124
274	6124
276	6124
280	6124
283	6124
286	6124
