7	6124
7	6124
8	6124
9	6124
9	6124
12	6124
13	6124
13	6124
14	6124
14	6124
14	6124
14	6124
14	6124
14	6124
15	6124
15	6124
17	6124
18	6124
18	6124
18	6124
19	6124
21	6124
21	6124
23	6124
156	6124
156	6124
156	6124
156	6124
156	6124
156	6124
156	6124
156	6124
156	6124
156	6124
156	6124
156	6124
156	6124
156	6124
156	6124
156	6124
156	6124
156	6124
156	6124
156	6124
156	6124
156	6124
156	6124
156	6124
156	6124
157	6124
157	6124
157	6124
157	6124
157	6124
157	6124
157	6124
157	6124
157	6124
157	6124
157	6124
157	6124
157	6124
157	6124
158	6124
158	6124
158	6124
158	6124
158	6124
158	6124
158	6124
159	6124
159	6124
159	6124
159	6124
159	6124
159	6124
160	6124
161	6124
161	6124
163	6124
163	6124
164	6124
165	6124
166	6124
