7	6124
10	6124
10	6124
15	6124
16	6124
17	6124
17	6124
17	6124
162	6124
162	6124
162	6124
162	6124
162	6124
162	6124
162	6124
162	6124
163	6124
163	6124
163	6124
163	6124
164	6124
164	6124
164	6124
165	6124
165	6124
167	6124
168	6124
168	6124
168	6124
170	6124
174	6124
