9	6124
10	6124
10	6124
11	6124
11	6124
11	6124
11	6124
12	6124
12	6124
12	6124
12	6124
13	6124
13	6124
13	6124
13	6124
13	6124
13	6124
15	6124
15	6124
15	6124
15	6124
16	6124
16	6124
16	6124
18	6124
21	6124
21	6124
89	6124
89	6124
89	6124
89	6124
89	6124
89	6124
89	6124
89	6124
90	6124
90	6124
90	6124
91	6124
91	6124
91	6124
94	6124
94	6124
94	6124
95	6124
95	6124
96	6124
96	6124
97	6124
99	6124
