8	6124
10	6124
10	6124
11	6124
14	6124
14	6124
15	6124
15	6124
15	6124
15	6124
15	6124
15	6124
16	6124
16	6124
16	6124
17	6124
18	6124
19	6124
20	6124
20	6124
21	6124
22	6124
23	6124
24	6124
25	6124
25	6124
27	6124
30	6124
30	6124
30	6124
30	6124
30	6124
30	6124
31	6124
31	6124
32	6124
32	6124
33	6124
35	6124
35	6124
35	6124
35	6124
36	6124
36	6124
37	6124
38	6124
40	6124
40	6124
40	6124
41	6124
42	6124
44	6124
45	6124
135	6124
135	6124
135	6124
135	6124
135	6124
135	6124
135	6124
135	6124
135	6124
135	6124
135	6124
135	6124
135	6124
136	6124
136	6124
136	6124
136	6124
136	6124
136	6124
136	6124
136	6124
136	6124
136	6124
136	6124
137	6124
137	6124
137	6124
137	6124
138	6124
138	6124
139	6124
139	6124
139	6124
142	6124
142	6124
145	6124
153	6124
161	6124
166	6124
