9	6124
10	6124
10	6124
11	6124
11	6124
11	6124
12	6124
12	6124
12	6124
13	6124
13	6124
13	6124
13	6124
14	6124
15	6124
15	6124
17	6124
17	6124
18	6124
25	6124
25	6124
26	6124
27	6124
28	6124
28	6124
28	6124
28	6124
29	6124
29	6124
30	6124
30	6124
31	6124
35	6124
36	6124
49	6124
99	6124
99	6124
99	6124
99	6124
99	6124
99	6124
99	6124
99	6124
99	6124
99	6124
99	6124
100	6124
100	6124
100	6124
100	6124
100	6124
100	6124
100	6124
101	6124
101	6124
101	6124
102	6124
102	6124
102	6124
103	6124
103	6124
103	6124
103	6124
104	6124
105	6124
105	6124
106	6124
107	6124
108	6124
120	6124
123	6124
