6	6124
7	6124
10	6124
10	6124
10	6124
10	6124
11	6124
11	6124
11	6124
11	6124
11	6124
12	6124
12	6124
13	6124
13	6124
13	6124
14	6124
14	6124
14	6124
15	6124
15	6124
16	6124
16	6124
16	6124
16	6124
17	6124
17	6124
17	6124
17	6124
17	6124
18	6124
18	6124
21	6124
22	6124
23	6124
24	6124
24	6124
28	6124
28	6124
31	6124
35	6124
172	6124
172	6124
172	6124
172	6124
172	6124
172	6124
172	6124
172	6124
172	6124
172	6124
173	6124
173	6124
173	6124
173	6124
174	6124
176	6124
176	6124
176	6124
177	6124
177	6124
179	6124
180	6124
184	6124
