6	6124
7	6124
12	6124
12	6124
12	6124
13	6124
15	6124
15	6124
15	6124
16	6124
17	6124
17	6124
17	6124
17	6124
18	6124
18	6124
18	6124
19	6124
20	6124
20	6124
20	6124
21	6124
22	6124
22	6124
25	6124
34	6124
338	6124
338	6124
338	6124
338	6124
338	6124
338	6124
338	6124
338	6124
338	6124
338	6124
338	6124
338	6124
338	6124
338	6124
338	6124
338	6124
338	6124
338	6124
338	6124
338	6124
338	6124
338	6124
338	6124
338	6124
338	6124
339	6124
339	6124
339	6124
339	6124
339	6124
339	6124
339	6124
339	6124
339	6124
340	6124
340	6124
340	6124
340	6124
340	6124
341	6124
341	6124
341	6124
344	6124
344	6124
346	6124
346	6124
346	6124
346	6124
346	6124
348	6124
349	6124
