7	6124
8	6124
8	6124
10	6124
10	6124
11	6124
11	6124
11	6124
11	6124
11	6124
12	6124
12	6124
12	6124
12	6124
12	6124
12	6124
13	6124
13	6124
13	6124
13	6124
13	6124
14	6124
14	6124
14	6124
14	6124
15	6124
16	6124
16	6124
16	6124
16	6124
16	6124
17	6124
18	6124
18	6124
19	6124
20	6124
20	6124
20	6124
20	6124
21	6124
21	6124
22	6124
23	6124
24	6124
25	6124
25	6124
26	6124
26	6124
26	6124
26	6124
27	6124
29	6124
30	6124
36	6124
132	6124
132	6124
132	6124
132	6124
132	6124
132	6124
132	6124
132	6124
132	6124
132	6124
132	6124
132	6124
132	6124
132	6124
133	6124
133	6124
133	6124
133	6124
133	6124
133	6124
133	6124
133	6124
133	6124
133	6124
133	6124
133	6124
133	6124
133	6124
134	6124
134	6124
134	6124
134	6124
134	6124
134	6124
134	6124
136	6124
136	6124
136	6124
137	6124
137	6124
137	6124
138	6124
138	6124
139	6124
140	6124
142	6124
