20	6124
23	6124
23	6124
23	6124
23	6124
23	6124
23	6124
25	6124
25	6124
26	6124
42	6124
42	6124
42	6124
43	6124
43	6124
43	6124
43	6124
43	6124
44	6124
45	6124
45	6124
45	6124
46	6124
46	6124
50	6124
54	6124
54	6124
55	6124
55	6124
56	6124
57	6124
57	6124
59	6124
71	6124
92	6124
