7	6124
10	6124
12	6124
15	6124
15	6124
17	6124
17	6124
18	6124
18	6124
19	6124
19	6124
19	6124
19	6124
20	6124
25	6124
26	6124
26	6124
26	6124
28	6124
30	6124
233	6124
233	6124
233	6124
233	6124
233	6124
233	6124
233	6124
233	6124
233	6124
233	6124
233	6124
233	6124
233	6124
233	6124
233	6124
233	6124
233	6124
233	6124
233	6124
233	6124
233	6124
233	6124
233	6124
233	6124
233	6124
233	6124
234	6124
234	6124
234	6124
234	6124
234	6124
234	6124
234	6124
234	6124
234	6124
235	6124
235	6124
235	6124
235	6124
235	6124
236	6124
237	6124
237	6124
237	6124
237	6124
242	6124
247	6124
253	6124
