9	6124
10	6124
10	6124
11	6124
11	6124
12	6124
12	6124
12	6124
12	6124
12	6124
13	6124
13	6124
14	6124
15	6124
15	6124
15	6124
16	6124
16	6124
17	6124
20	6124
21	6124
28	6124
32	6124
33	6124
229	6124
229	6124
229	6124
229	6124
229	6124
229	6124
229	6124
229	6124
229	6124
229	6124
229	6124
229	6124
229	6124
229	6124
229	6124
229	6124
229	6124
229	6124
230	6124
230	6124
230	6124
230	6124
230	6124
230	6124
230	6124
231	6124
231	6124
231	6124
232	6124
232	6124
232	6124
233	6124
233	6124
233	6124
234	6124
234	6124
234	6124
234	6124
235	6124
235	6124
235	6124
240	6124
252	6124
