9	6124
16	6124
20	6124
26	6124
37	6124
250	6124
250	6124
250	6124
250	6124
250	6124
250	6124
250	6124
251	6124
251	6124
251	6124
251	6124
251	6124
252	6124
252	6124
253	6124
254	6124
254	6124
255	6124
256	6124
260	6124
266	6124
