10	6124
11	6124
11	6124
11	6124
11	6124
12	6124
12	6124
12	6124
12	6124
13	6124
15	6124
15	6124
16	6124
17	6124
20	6124
20	6124
21	6124
22	6124
65	6124
65	6124
65	6124
65	6124
65	6124
65	6124
66	6124
66	6124
66	6124
67	6124
67	6124
67	6124
67	6124
69	6124
71	6124
72	6124
79	6124
