7	6124
7	6124
7	6124
8	6124
9	6124
9	6124
10	6124
10	6124
13	6124
15	6124
17	6124
18	6124
19	6124
19	6124
20	6124
21	6124
21	6124
23	6124
27	6124
28	6124
28	6124
28	6124
28	6124
28	6124
29	6124
29	6124
29	6124
30	6124
32	6124
37	6124
37	6124
38	6124
38	6124
40	6124
40	6124
41	6124
41	6124
41	6124
41	6124
41	6124
41	6124
42	6124
42	6124
42	6124
42	6124
42	6124
42	6124
42	6124
42	6124
43	6124
44	6124
44	6124
45	6124
45	6124
46	6124
47	6124
50	6124
55	6124
58	6124
59	6124
356	6124
356	6124
356	6124
356	6124
356	6124
356	6124
356	6124
356	6124
356	6124
356	6124
356	6124
356	6124
356	6124
356	6124
356	6124
356	6124
356	6124
356	6124
356	6124
356	6124
356	6124
356	6124
356	6124
356	6124
356	6124
356	6124
356	6124
356	6124
356	6124
356	6124
357	6124
357	6124
357	6124
357	6124
357	6124
357	6124
357	6124
357	6124
357	6124
357	6124
357	6124
357	6124
357	6124
357	6124
357	6124
357	6124
357	6124
358	6124
358	6124
358	6124
358	6124
358	6124
358	6124
359	6124
359	6124
359	6124
359	6124
359	6124
359	6124
360	6124
360	6124
360	6124
362	6124
364	6124
366	6124
373	6124
388	6124
