9	6124
10	6124
10	6124
11	6124
11	6124
11	6124
11	6124
11	6124
11	6124
12	6124
12	6124
12	6124
12	6124
12	6124
12	6124
12	6124
12	6124
12	6124
13	6124
13	6124
13	6124
13	6124
14	6124
14	6124
14	6124
15	6124
15	6124
16	6124
16	6124
16	6124
16	6124
16	6124
17	6124
17	6124
17	6124
17	6124
17	6124
18	6124
18	6124
19	6124
20	6124
20	6124
20	6124
21	6124
21	6124
22	6124
22	6124
22	6124
22	6124
22	6124
22	6124
23	6124
23	6124
24	6124
25	6124
25	6124
25	6124
25	6124
25	6124
26	6124
26	6124
27	6124
27	6124
28	6124
28	6124
28	6124
28	6124
28	6124
29	6124
29	6124
29	6124
29	6124
30	6124
30	6124
30	6124
30	6124
30	6124
31	6124
31	6124
31	6124
31	6124
32	6124
32	6124
32	6124
33	6124
34	6124
34	6124
35	6124
36	6124
38	6124
123	6124
123	6124
123	6124
123	6124
123	6124
123	6124
123	6124
123	6124
123	6124
123	6124
124	6124
124	6124
124	6124
124	6124
125	6124
125	6124
125	6124
126	6124
126	6124
126	6124
127	6124
127	6124
128	6124
128	6124
129	6124
132	6124
140	6124
141	6124
