6	6124
7	6124
7	6124
8	6124
8	6124
10	6124
11	6124
11	6124
12	6124
12	6124
12	6124
13	6124
13	6124
14	6124
14	6124
14	6124
14	6124
14	6124
15	6124
15	6124
15	6124
15	6124
15	6124
16	6124
16	6124
16	6124
16	6124
16	6124
16	6124
17	6124
17	6124
17	6124
18	6124
18	6124
18	6124
18	6124
19	6124
19	6124
19	6124
19	6124
19	6124
20	6124
20	6124
20	6124
21	6124
21	6124
21	6124
21	6124
22	6124
22	6124
23	6124
23	6124
23	6124
24	6124
24	6124
24	6124
24	6124
24	6124
25	6124
25	6124
25	6124
26	6124
27	6124
27	6124
27	6124
27	6124
28	6124
28	6124
28	6124
28	6124
29	6124
29	6124
30	6124
30	6124
30	6124
31	6124
31	6124
31	6124
31	6124
32	6124
32	6124
32	6124
33	6124
33	6124
33	6124
33	6124
37	6124
37	6124
41	6124
42	6124
49	6124
224	6124
224	6124
224	6124
224	6124
224	6124
224	6124
224	6124
224	6124
224	6124
224	6124
224	6124
224	6124
224	6124
224	6124
224	6124
225	6124
225	6124
225	6124
225	6124
225	6124
225	6124
225	6124
226	6124
226	6124
226	6124
226	6124
227	6124
227	6124
228	6124
228	6124
233	6124
234	6124
235	6124
238	6124
242	6124
244	6124
250	6124
250	6124
