7	6124
10	6124
10	6124
11	6124
12	6124
16	6124
16	6124
16	6124
17	6124
19	6124
19	6124
19	6124
19	6124
20	6124
21	6124
23	6124
26	6124
26	6124
26	6124
27	6124
29	6124
32	6124
33	6124
38	6124
45	6124
45	6124
46	6124
46	6124
46	6124
46	6124
47	6124
47	6124
47	6124
59	6124
62	6124
293	6124
293	6124
293	6124
293	6124
293	6124
293	6124
293	6124
294	6124
294	6124
294	6124
294	6124
294	6124
294	6124
294	6124
294	6124
294	6124
294	6124
294	6124
295	6124
295	6124
296	6124
296	6124
297	6124
297	6124
298	6124
298	6124
300	6124
301	6124
306	6124
307	6124
311	6124
314	6124
317	6124
321	6124
334	6124
