6	6124
7	6124
8	6124
10	6124
10	6124
10	6124
11	6124
11	6124
11	6124
12	6124
12	6124
12	6124
12	6124
13	6124
13	6124
13	6124
13	6124
13	6124
13	6124
13	6124
14	6124
14	6124
14	6124
14	6124
14	6124
14	6124
14	6124
14	6124
14	6124
14	6124
14	6124
14	6124
14	6124
14	6124
14	6124
14	6124
15	6124
15	6124
15	6124
15	6124
15	6124
15	6124
15	6124
15	6124
15	6124
15	6124
15	6124
15	6124
15	6124
15	6124
15	6124
15	6124
15	6124
15	6124
15	6124
16	6124
16	6124
16	6124
16	6124
16	6124
16	6124
16	6124
16	6124
16	6124
16	6124
16	6124
16	6124
16	6124
16	6124
16	6124
16	6124
16	6124
16	6124
16	6124
16	6124
16	6124
16	6124
16	6124
16	6124
16	6124
16	6124
16	6124
16	6124
16	6124
16	6124
17	6124
17	6124
17	6124
17	6124
17	6124
17	6124
17	6124
17	6124
17	6124
17	6124
17	6124
17	6124
17	6124
17	6124
17	6124
17	6124
17	6124
17	6124
18	6124
18	6124
18	6124
18	6124
18	6124
18	6124
18	6124
18	6124
18	6124
18	6124
18	6124
18	6124
18	6124
18	6124
18	6124
18	6124
19	6124
19	6124
19	6124
19	6124
19	6124
19	6124
19	6124
19	6124
19	6124
19	6124
19	6124
19	6124
19	6124
19	6124
19	6124
19	6124
19	6124
19	6124
19	6124
19	6124
19	6124
19	6124
19	6124
20	6124
20	6124
20	6124
20	6124
20	6124
20	6124
20	6124
20	6124
20	6124
20	6124
20	6124
20	6124
20	6124
20	6124
20	6124
20	6124
20	6124
20	6124
21	6124
21	6124
21	6124
21	6124
21	6124
21	6124
21	6124
21	6124
21	6124
21	6124
21	6124
21	6124
22	6124
22	6124
22	6124
22	6124
22	6124
22	6124
22	6124
22	6124
22	6124
22	6124
22	6124
22	6124
22	6124
23	6124
23	6124
23	6124
23	6124
23	6124
23	6124
23	6124
23	6124
23	6124
23	6124
23	6124
23	6124
23	6124
23	6124
23	6124
23	6124
23	6124
24	6124
24	6124
24	6124
24	6124
24	6124
24	6124
24	6124
24	6124
24	6124
24	6124
24	6124
24	6124
24	6124
25	6124
25	6124
25	6124
25	6124
25	6124
25	6124
25	6124
25	6124
25	6124
25	6124
25	6124
25	6124
25	6124
25	6124
25	6124
25	6124
26	6124
26	6124
26	6124
26	6124
26	6124
26	6124
26	6124
26	6124
26	6124
26	6124
26	6124
27	6124
27	6124
27	6124
27	6124
27	6124
27	6124
27	6124
27	6124
27	6124
27	6124
27	6124
27	6124
28	6124
28	6124
28	6124
28	6124
28	6124
28	6124
28	6124
28	6124
28	6124
28	6124
28	6124
28	6124
29	6124
29	6124
29	6124
29	6124
29	6124
29	6124
29	6124
29	6124
29	6124
29	6124
29	6124
30	6124
30	6124
30	6124
30	6124
30	6124
31	6124
31	6124
31	6124
31	6124
32	6124
32	6124
32	6124
33	6124
34	6124
34	6124
35	6124
35	6124
35	6124
36	6124
36	6124
36	6124
36	6124
36	6124
36	6124
36	6124
36	6124
36	6124
37	6124
37	6124
37	6124
37	6124
37	6124
37	6124
37	6124
37	6124
37	6124
38	6124
38	6124
39	6124
39	6124
39	6124
39	6124
40	6124
40	6124
40	6124
40	6124
40	6124
41	6124
41	6124
41	6124
41	6124
42	6124
42	6124
42	6124
42	6124
42	6124
42	6124
42	6124
42	6124
42	6124
42	6124
42	6124
42	6124
42	6124
43	6124
43	6124
43	6124
43	6124
43	6124
43	6124
43	6124
43	6124
43	6124
43	6124
44	6124
44	6124
44	6124
44	6124
44	6124
44	6124
45	6124
47	6124
47	6124
47	6124
47	6124
47	6124
49	6124
50	6124
53	6124
53	6124
55	6124
56	6124
203	6124
203	6124
203	6124
203	6124
203	6124
203	6124
203	6124
203	6124
203	6124
203	6124
203	6124
203	6124
203	6124
203	6124
203	6124
203	6124
203	6124
203	6124
203	6124
203	6124
203	6124
203	6124
203	6124
203	6124
203	6124
204	6124
204	6124
204	6124
204	6124
204	6124
204	6124
204	6124
204	6124
204	6124
204	6124
204	6124
204	6124
204	6124
204	6124
204	6124
204	6124
204	6124
204	6124
204	6124
204	6124
204	6124
204	6124
204	6124
204	6124
205	6124
205	6124
205	6124
205	6124
205	6124
205	6124
205	6124
205	6124
205	6124
205	6124
205	6124
205	6124
205	6124
205	6124
206	6124
206	6124
206	6124
206	6124
206	6124
206	6124
206	6124
206	6124
206	6124
207	6124
207	6124
207	6124
207	6124
207	6124
208	6124
208	6124
208	6124
209	6124
209	6124
209	6124
209	6124
209	6124
210	6124
211	6124
211	6124
211	6124
212	6124
212	6124
213	6124
213	6124
214	6124
214	6124
214	6124
214	6124
216	6124
217	6124
218	6124
218	6124
218	6124
222	6124
224	6124
224	6124
233	6124
236	6124
239	6124
241	6124
