11	6124
19	6124
29	6124
30	6124
30	6124
30	6124
30	6124
30	6124
31	6124
32	6124
32	6124
33	6124
33	6124
33	6124
41	6124
137	6124
137	6124
137	6124
137	6124
137	6124
137	6124
137	6124
137	6124
137	6124
137	6124
137	6124
137	6124
137	6124
138	6124
138	6124
138	6124
138	6124
138	6124
138	6124
139	6124
139	6124
140	6124
140	6124
140	6124
140	6124
141	6124
141	6124
141	6124
141	6124
141	6124
142	6124
144	6124
149	6124
162	6124
