5	6124
7	6124
8	6124
8	6124
9	6124
9	6124
10	6124
10	6124
10	6124
10	6124
11	6124
11	6124
12	6124
13	6124
13	6124
14	6124
14	6124
14	6124
15	6124
16	6124
16	6124
16	6124
16	6124
16	6124
17	6124
17	6124
17	6124
17	6124
17	6124
17	6124
18	6124
18	6124
18	6124
18	6124
18	6124
18	6124
18	6124
18	6124
18	6124
18	6124
18	6124
18	6124
19	6124
19	6124
19	6124
19	6124
19	6124
19	6124
19	6124
19	6124
20	6124
20	6124
20	6124
20	6124
20	6124
20	6124
20	6124
20	6124
20	6124
20	6124
20	6124
21	6124
21	6124
21	6124
21	6124
21	6124
21	6124
21	6124
21	6124
21	6124
21	6124
21	6124
21	6124
21	6124
21	6124
22	6124
22	6124
22	6124
22	6124
22	6124
22	6124
22	6124
22	6124
22	6124
22	6124
22	6124
22	6124
23	6124
23	6124
23	6124
23	6124
23	6124
23	6124
23	6124
23	6124
23	6124
23	6124
24	6124
24	6124
24	6124
24	6124
24	6124
24	6124
24	6124
24	6124
24	6124
24	6124
24	6124
24	6124
24	6124
25	6124
25	6124
25	6124
25	6124
25	6124
25	6124
25	6124
25	6124
25	6124
25	6124
25	6124
25	6124
25	6124
26	6124
26	6124
26	6124
26	6124
26	6124
26	6124
26	6124
26	6124
26	6124
26	6124
26	6124
26	6124
26	6124
26	6124
27	6124
27	6124
27	6124
27	6124
27	6124
27	6124
27	6124
28	6124
28	6124
28	6124
28	6124
28	6124
28	6124
28	6124
28	6124
28	6124
28	6124
28	6124
29	6124
29	6124
29	6124
29	6124
29	6124
29	6124
29	6124
29	6124
29	6124
29	6124
29	6124
29	6124
29	6124
30	6124
30	6124
30	6124
30	6124
30	6124
30	6124
30	6124
30	6124
30	6124
31	6124
31	6124
31	6124
31	6124
31	6124
31	6124
32	6124
32	6124
32	6124
32	6124
32	6124
33	6124
33	6124
34	6124
34	6124
34	6124
34	6124
35	6124
35	6124
35	6124
36	6124
36	6124
36	6124
37	6124
38	6124
39	6124
39	6124
39	6124
39	6124
40	6124
40	6124
40	6124
41	6124
41	6124
41	6124
41	6124
41	6124
41	6124
41	6124
42	6124
42	6124
42	6124
42	6124
42	6124
42	6124
43	6124
43	6124
43	6124
43	6124
43	6124
43	6124
44	6124
44	6124
44	6124
45	6124
45	6124
45	6124
47	6124
49	6124
49	6124
52	6124
952	6124
952	6124
952	6124
952	6124
952	6124
952	6124
952	6124
952	6124
952	6124
952	6124
952	6124
952	6124
952	6124
952	6124
952	6124
952	6124
952	6124
952	6124
952	6124
952	6124
952	6124
952	6124
952	6124
952	6124
952	6124
952	6124
952	6124
952	6124
952	6124
952	6124
952	6124
952	6124
952	6124
952	6124
952	6124
952	6124
952	6124
952	6124
952	6124
952	6124
952	6124
952	6124
953	6124
953	6124
953	6124
953	6124
953	6124
953	6124
953	6124
953	6124
953	6124
953	6124
953	6124
953	6124
953	6124
953	6124
953	6124
953	6124
953	6124
953	6124
953	6124
953	6124
953	6124
953	6124
953	6124
953	6124
953	6124
953	6124
953	6124
953	6124
953	6124
953	6124
954	6124
954	6124
954	6124
954	6124
954	6124
954	6124
954	6124
955	6124
955	6124
955	6124
955	6124
956	6124
956	6124
956	6124
956	6124
956	6124
956	6124
957	6124
957	6124
957	6124
957	6124
958	6124
958	6124
960	6124
960	6124
961	6124
961	6124
961	6124
961	6124
962	6124
963	6124
964	6124
964	6124
965	6124
967	6124
968	6124
969	6124
971	6124
971	6124
973	6124
976	6124
979	6124
989	6124
