6	6124
6	6124
8	6124
12	6124
13	6124
14	6124
14	6124
15	6124
15	6124
15	6124
15	6124
15	6124
15	6124
15	6124
15	6124
15	6124
15	6124
15	6124
15	6124
15	6124
16	6124
16	6124
16	6124
16	6124
16	6124
16	6124
16	6124
16	6124
16	6124
16	6124
16	6124
16	6124
16	6124
16	6124
16	6124
16	6124
16	6124
17	6124
17	6124
17	6124
17	6124
17	6124
17	6124
17	6124
17	6124
17	6124
17	6124
17	6124
17	6124
18	6124
18	6124
18	6124
18	6124
18	6124
18	6124
18	6124
18	6124
19	6124
19	6124
19	6124
19	6124
19	6124
19	6124
19	6124
19	6124
19	6124
19	6124
19	6124
19	6124
19	6124
20	6124
20	6124
20	6124
20	6124
20	6124
20	6124
20	6124
20	6124
20	6124
20	6124
20	6124
20	6124
20	6124
20	6124
21	6124
21	6124
21	6124
21	6124
21	6124
21	6124
21	6124
21	6124
21	6124
21	6124
21	6124
21	6124
21	6124
21	6124
21	6124
21	6124
21	6124
21	6124
22	6124
22	6124
22	6124
22	6124
22	6124
22	6124
22	6124
22	6124
22	6124
22	6124
22	6124
22	6124
22	6124
22	6124
22	6124
22	6124
22	6124
23	6124
23	6124
23	6124
23	6124
23	6124
23	6124
23	6124
23	6124
23	6124
24	6124
24	6124
24	6124
24	6124
24	6124
24	6124
24	6124
25	6124
25	6124
25	6124
25	6124
25	6124
25	6124
25	6124
25	6124
25	6124
26	6124
26	6124
26	6124
26	6124
26	6124
26	6124
26	6124
26	6124
26	6124
26	6124
26	6124
26	6124
26	6124
27	6124
27	6124
27	6124
27	6124
27	6124
27	6124
27	6124
27	6124
27	6124
27	6124
28	6124
28	6124
28	6124
29	6124
29	6124
29	6124
29	6124
29	6124
29	6124
30	6124
30	6124
30	6124
30	6124
30	6124
30	6124
30	6124
31	6124
31	6124
31	6124
32	6124
32	6124
33	6124
33	6124
33	6124
34	6124
34	6124
34	6124
35	6124
35	6124
35	6124
37	6124
37	6124
38	6124
38	6124
39	6124
39	6124
40	6124
40	6124
40	6124
42	6124
42	6124
44	6124
2226	6124
2226	6124
2226	6124
2226	6124
2226	6124
2226	6124
2226	6124
2226	6124
2226	6124
2226	6124
2226	6124
2226	6124
2226	6124
2226	6124
2226	6124
2226	6124
2226	6124
2226	6124
2226	6124
2226	6124
2226	6124
2226	6124
2226	6124
2226	6124
2226	6124
2226	6124
2226	6124
2226	6124
2226	6124
2226	6124
2226	6124
2226	6124
2226	6124
2226	6124
2226	6124
2226	6124
2226	6124
2226	6124
2226	6124
2226	6124
2226	6124
2226	6124
2226	6124
2226	6124
2226	6124
2226	6124
2226	6124
2226	6124
2226	6124
2226	6124
2226	6124
2226	6124
2226	6124
2226	6124
2226	6124
2226	6124
2226	6124
2226	6124
2226	6124
2226	6124
2226	6124
2226	6124
2226	6124
2226	6124
2226	6124
2226	6124
2226	6124
2226	6124
2226	6124
2226	6124
2226	6124
2226	6124
2226	6124
2226	6124
2226	6124
2226	6124
2226	6124
2226	6124
2226	6124
2226	6124
2226	6124
2226	6124
2226	6124
2226	6124
2226	6124
2226	6124
2226	6124
2226	6124
2226	6124
2226	6124
2226	6124
2226	6124
2226	6124
2226	6124
2226	6124
2226	6124
2226	6124
2226	6124
2226	6124
2226	6124
2226	6124
2226	6124
2226	6124
2226	6124
2226	6124
2226	6124
2226	6124
2226	6124
2226	6124
2226	6124
2226	6124
2226	6124
2226	6124
2226	6124
2226	6124
2226	6124
2227	6124
2227	6124
2227	6124
2227	6124
2227	6124
2227	6124
2227	6124
2227	6124
2227	6124
2227	6124
2227	6124
2227	6124
2227	6124
2227	6124
2227	6124
2227	6124
2227	6124
2227	6124
2227	6124
2227	6124
2227	6124
2227	6124
2227	6124
2227	6124
2227	6124
2227	6124
2227	6124
2227	6124
2227	6124
2227	6124
2227	6124
2227	6124
2227	6124
2227	6124
2227	6124
2227	6124
2227	6124
2227	6124
2227	6124
2227	6124
2227	6124
2228	6124
2228	6124
2228	6124
2228	6124
2228	6124
2228	6124
2228	6124
2228	6124
2228	6124
2228	6124
2228	6124
2228	6124
2228	6124
2228	6124
2229	6124
2229	6124
2229	6124
2229	6124
2229	6124
2229	6124
2229	6124
2229	6124
2229	6124
2229	6124
2229	6124
2229	6124
2230	6124
2230	6124
2230	6124
2230	6124
2230	6124
2232	6124
2232	6124
2232	6124
2233	6124
2233	6124
2234	6124
2235	6124
2235	6124
2235	6124
2235	6124
2235	6124
2235	6124
2235	6124
2235	6124
2235	6124
2236	6124
2236	6124
2236	6124
2236	6124
2236	6124
2236	6124
2237	6124
2237	6124
2237	6124
2238	6124
2238	6124
2238	6124
2238	6124
2238	6124
2238	6124
2239	6124
2240	6124
2240	6124
2240	6124
2242	6124
2242	6124
2242	6124
2243	6124
2247	6124
2247	6124
