5	6124
5	6124
14	6124
21	6124
21	6124
22	6124
22	6124
23	6124
24	6124
199	6124
199	6124
199	6124
199	6124
199	6124
199	6124
199	6124
199	6124
200	6124
200	6124
200	6124
200	6124
200	6124
200	6124
201	6124
201	6124
201	6124
201	6124
201	6124
202	6124
202	6124
202	6124
202	6124
204	6124
204	6124
206	6124
208	6124
212	6124
