7	6124
10	6124
10	6124
10	6124
11	6124
11	6124
11	6124
12	6124
13	6124
13	6124
14	6124
14	6124
14	6124
14	6124
15	6124
15	6124
16	6124
16	6124
18	6124
18	6124
96	6124
96	6124
96	6124
96	6124
96	6124
96	6124
97	6124
97	6124
97	6124
97	6124
97	6124
97	6124
97	6124
97	6124
97	6124
97	6124
98	6124
98	6124
98	6124
98	6124
98	6124
98	6124
98	6124
98	6124
98	6124
98	6124
99	6124
99	6124
100	6124
101	6124
101	6124
101	6124
101	6124
104	6124
108	6124
