7	6124
13	6124
13	6124
14	6124
14	6124
15	6124
15	6124
15	6124
16	6124
18	6124
18	6124
20	6124
20	6124
21	6124
21	6124
22	6124
26	6124
211	6124
211	6124
211	6124
211	6124
211	6124
211	6124
211	6124
211	6124
211	6124
211	6124
211	6124
211	6124
211	6124
211	6124
211	6124
211	6124
212	6124
212	6124
212	6124
212	6124
212	6124
212	6124
212	6124
212	6124
212	6124
212	6124
212	6124
212	6124
212	6124
212	6124
212	6124
213	6124
213	6124
213	6124
213	6124
213	6124
213	6124
213	6124
213	6124
213	6124
213	6124
214	6124
214	6124
214	6124
214	6124
215	6124
215	6124
215	6124
216	6124
216	6124
216	6124
216	6124
217	6124
217	6124
217	6124
218	6124
219	6124
219	6124
222	6124
222	6124
222	6124
227	6124
