7	6124
9	6124
11	6124
12	6124
12	6124
16	6124
17	6124
17	6124
17	6124
17	6124
23	6124
26	6124
26	6124
28	6124
141	6124
141	6124
141	6124
141	6124
141	6124
142	6124
142	6124
142	6124
142	6124
142	6124
142	6124
142	6124
142	6124
142	6124
143	6124
143	6124
143	6124
144	6124
144	6124
144	6124
144	6124
144	6124
144	6124
145	6124
145	6124
146	6124
146	6124
146	6124
146	6124
146	6124
147	6124
148	6124
148	6124
149	6124
149	6124
149	6124
160	6124
