14	6124
14	6124
14	6124
15	6124
15	6124
16	6124
16	6124
17	6124
17	6124
17	6124
18	6124
18	6124
19	6124
19	6124
22	6124
22	6124
22	6124
26	6124
28	6124
28	6124
30	6124
80	6124
80	6124
80	6124
81	6124
81	6124
81	6124
81	6124
81	6124
82	6124
82	6124
82	6124
82	6124
82	6124
83	6124
83	6124
83	6124
83	6124
83	6124
84	6124
85	6124
86	6124
88	6124
91	6124
94	6124
103	6124
