8	6124
9	6124
9	6124
18	6124
19	6124
19	6124
263	6124
263	6124
263	6124
263	6124
263	6124
263	6124
263	6124
263	6124
263	6124
264	6124
264	6124
264	6124
265	6124
265	6124
265	6124
265	6124
265	6124
266	6124
266	6124
267	6124
268	6124
273	6124
277	6124
