10	6124
10	6124
11	6124
19	6124
23	6124
304	6124
304	6124
304	6124
304	6124
304	6124
304	6124
304	6124
304	6124
305	6124
305	6124
305	6124
305	6124
305	6124
305	6124
305	6124
305	6124
306	6124
306	6124
307	6124
307	6124
307	6124
307	6124
308	6124
308	6124
308	6124
309	6124
312	6124
315	6124
