7	6124
12	6124
17	6124
84	6124
84	6124
85	6124
85	6124
85	6124
86	6124
86	6124
86	6124
86	6124
86	6124
87	6124
87	6124
88	6124
88	6124
88	6124
88	6124
89	6124
89	6124
90	6124
90	6124
90	6124
91	6124
91	6124
94	6124
