9	6124
14	6124
14	6124
18	6124
153	6124
153	6124
154	6124
154	6124
154	6124
154	6124
154	6124
155	6124
155	6124
155	6124
156	6124
156	6124
157	6124
157	6124
158	6124
158	6124
158	6124
158	6124
159	6124
160	6124
160	6124
161	6124
163	6124
