13	6124
14	6124
14	6124
16	6124
18	6124
19	6124
20	6124
20	6124
21	6124
124	6124
124	6124
124	6124
124	6124
124	6124
124	6124
124	6124
125	6124
125	6124
125	6124
125	6124
126	6124
126	6124
126	6124
126	6124
126	6124
126	6124
126	6124
126	6124
126	6124
127	6124
127	6124
127	6124
127	6124
127	6124
127	6124
128	6124
128	6124
128	6124
128	6124
129	6124
132	6124
133	6124
138	6124
