10	6124
10	6124
12	6124
14	6124
15	6124
15	6124
297	6124
297	6124
297	6124
297	6124
298	6124
298	6124
298	6124
298	6124
299	6124
299	6124
299	6124
299	6124
300	6124
300	6124
300	6124
301	6124
301	6124
301	6124
301	6124
302	6124
302	6124
303	6124
303	6124
