7	6124
7	6124
10	6124
11	6124
12	6124
14	6124
15	6124
15	6124
17	6124
17	6124
17	6124
17	6124
22	6124
92	6124
92	6124
92	6124
92	6124
92	6124
93	6124
93	6124
93	6124
93	6124
94	6124
94	6124
94	6124
94	6124
95	6124
95	6124
95	6124
95	6124
95	6124
96	6124
96	6124
96	6124
96	6124
97	6124
97	6124
97	6124
97	6124
97	6124
98	6124
100	6124
100	6124
102	6124
103	6124
