8	6124
11	6124
12	6124
12	6124
13	6124
17	6124
20	6124
22	6124
24	6124
25	6124
25	6124
25	6124
26	6124
26	6124
29	6124
29	6124
32	6124
32	6124
32	6124
33	6124
34	6124
36	6124
37	6124
61	6124
61	6124
61	6124
61	6124
61	6124
62	6124
62	6124
62	6124
64	6124
64	6124
64	6124
64	6124
65	6124
65	6124
65	6124
66	6124
68	6124
68	6124
69	6124
80	6124
80	6124
87	6124
