252	6124
252	6124
252	6124
252	6124
252	6124
252	6124
252	6124
252	6124
252	6124
252	6124
253	6124
253	6124
253	6124
253	6124
253	6124
253	6124
253	6124
253	6124
254	6124
254	6124
254	6124
254	6124
255	6124
255	6124
255	6124
256	6124
257	6124
