6	6124
9	6124
10	6124
12	6124
12	6124
12	6124
106	6124
106	6124
106	6124
106	6124
106	6124
106	6124
106	6124
106	6124
106	6124
107	6124
107	6124
107	6124
107	6124
107	6124
107	6124
107	6124
107	6124
108	6124
108	6124
108	6124
108	6124
108	6124
108	6124
108	6124
108	6124
108	6124
109	6124
109	6124
109	6124
109	6124
109	6124
109	6124
110	6124
110	6124
111	6124
111	6124
111	6124
112	6124
