8	6124
11	6124
139	6124
139	6124
139	6124
139	6124
140	6124
141	6124
141	6124
141	6124
141	6124
142	6124
142	6124
142	6124
142	6124
142	6124
143	6124
143	6124
144	6124
144	6124
144	6124
144	6124
145	6124
145	6124
146	6124
146	6124
146	6124
148	6124
148	6124
