8	6124
11	6124
12	6124
12	6124
13	6124
13	6124
13	6124
14	6124
15	6124
17	6124
269	6124
269	6124
269	6124
269	6124
269	6124
269	6124
270	6124
270	6124
270	6124
270	6124
270	6124
270	6124
270	6124
271	6124
271	6124
271	6124
271	6124
272	6124
272	6124
272	6124
272	6124
273	6124
274	6124
274	6124
275	6124
275	6124
276	6124
280	6124
