7	6124
7	6124
9	6124
11	6124
11	6124
11	6124
12	6124
12	6124
13	6124
14	6124
15	6124
15	6124
15	6124
16	6124
17	6124
17	6124
18	6124
19	6124
22	6124
22	6124
23	6124
23	6124
23	6124
25	6124
29	6124
80	6124
80	6124
80	6124
80	6124
81	6124
81	6124
82	6124
82	6124
82	6124
82	6124
83	6124
83	6124
84	6124
84	6124
86	6124
86	6124
87	6124
87	6124
98	6124
