12	6124
13	6124
14	6124
15	6124
16	6124
16	6124
17	6124
18	6124
18	6124
21	6124
26	6124
26	6124
29	6124
29	6124
31	6124
34	6124
116	6124
116	6124
116	6124
116	6124
116	6124
116	6124
116	6124
117	6124
117	6124
117	6124
117	6124
118	6124
118	6124
118	6124
118	6124
118	6124
119	6124
119	6124
119	6124
119	6124
119	6124
120	6124
120	6124
121	6124
122	6124
122	6124
123	6124
124	6124
125	6124
137	6124
