7	6124
10	6124
12	6124
12	6124
14	6124
17	6124
17	6124
18	6124
18	6124
19	6124
21	6124
131	6124
131	6124
131	6124
131	6124
131	6124
131	6124
131	6124
132	6124
132	6124
132	6124
132	6124
132	6124
132	6124
132	6124
132	6124
132	6124
133	6124
133	6124
133	6124
133	6124
133	6124
133	6124
133	6124
133	6124
133	6124
133	6124
134	6124
134	6124
134	6124
134	6124
134	6124
134	6124
134	6124
134	6124
134	6124
134	6124
135	6124
135	6124
135	6124
135	6124
135	6124
135	6124
136	6124
136	6124
136	6124
136	6124
136	6124
137	6124
141	6124
141	6124
143	6124
