14	6124
15	6124
15	6124
23	6124
27	6124
162	6124
162	6124
162	6124
163	6124
163	6124
163	6124
163	6124
163	6124
164	6124
164	6124
164	6124
165	6124
165	6124
165	6124
165	6124
165	6124
165	6124
165	6124
166	6124
166	6124
166	6124
166	6124
167	6124
169	6124
172	6124
180	6124
