7	6124
8	6124
11	6124
12	6124
14	6124
15	6124
19	6124
19	6124
19	6124
20	6124
20	6124
22	6124
22	6124
23	6124
235	6124
235	6124
235	6124
235	6124
235	6124
235	6124
235	6124
235	6124
235	6124
235	6124
236	6124
236	6124
236	6124
236	6124
236	6124
236	6124
236	6124
237	6124
237	6124
237	6124
237	6124
237	6124
237	6124
237	6124
237	6124
237	6124
237	6124
237	6124
237	6124
237	6124
238	6124
238	6124
238	6124
239	6124
240	6124
241	6124
241	6124
246	6124
