16	6124
17	6124
17	6124
151	6124
151	6124
152	6124
152	6124
152	6124
152	6124
152	6124
152	6124
152	6124
153	6124
154	6124
155	6124
156	6124
156	6124
156	6124
156	6124
156	6124
157	6124
157	6124
157	6124
158	6124
