5	6124
10	6124
11	6124
12	6124
13	6124
14	6124
15	6124
15	6124
15	6124
15	6124
15	6124
15	6124
16	6124
16	6124
16	6124
16	6124
16	6124
17	6124
17	6124
17	6124
17	6124
17	6124
17	6124
18	6124
18	6124
18	6124
18	6124
18	6124
18	6124
18	6124
18	6124
19	6124
19	6124
19	6124
19	6124
19	6124
20	6124
20	6124
20	6124
20	6124
20	6124
21	6124
21	6124
21	6124
21	6124
21	6124
22	6124
22	6124
23	6124
23	6124
23	6124
24	6124
24	6124
24	6124
24	6124
24	6124
25	6124
26	6124
26	6124
26	6124
26	6124
27	6124
28	6124
29	6124
29	6124
30	6124
30	6124
30	6124
30	6124
31	6124
32	6124
32	6124
32	6124
32	6124
32	6124
33	6124
33	6124
34	6124
36	6124
38	6124
38	6124
38	6124
38	6124
38	6124
38	6124
39	6124
39	6124
39	6124
39	6124
41	6124
41	6124
42	6124
42	6124
42	6124
44	6124
44	6124
47	6124
55	6124
1460	6124
1460	6124
1460	6124
1460	6124
1460	6124
1460	6124
1460	6124
1460	6124
1460	6124
1460	6124
1460	6124
1460	6124
1460	6124
1460	6124
1460	6124
1460	6124
1460	6124
1460	6124
1460	6124
1460	6124
1460	6124
1460	6124
1460	6124
1460	6124
1460	6124
1460	6124
1460	6124
1460	6124
1460	6124
1460	6124
1460	6124
1460	6124
1460	6124
1460	6124
1460	6124
1460	6124
1460	6124
1460	6124
1460	6124
1460	6124
1460	6124
1460	6124
1460	6124
1460	6124
1460	6124
1460	6124
1460	6124
1460	6124
1460	6124
1460	6124
1460	6124
1460	6124
1460	6124
1460	6124
1460	6124
1460	6124
1460	6124
1460	6124
1460	6124
1460	6124
1460	6124
1460	6124
1460	6124
1460	6124
1460	6124
1460	6124
1460	6124
1460	6124
1460	6124
1460	6124
1460	6124
1460	6124
1460	6124
1460	6124
1460	6124
1460	6124
1460	6124
1460	6124
1460	6124
1460	6124
1460	6124
1460	6124
1460	6124
1460	6124
1460	6124
1461	6124
1461	6124
1461	6124
1461	6124
1461	6124
1461	6124
1461	6124
1461	6124
1461	6124
1461	6124
1461	6124
1461	6124
1461	6124
1461	6124
1461	6124
1461	6124
1461	6124
1461	6124
1461	6124
1461	6124
1461	6124
1461	6124
1461	6124
1461	6124
1461	6124
1461	6124
1461	6124
1461	6124
1461	6124
1461	6124
1461	6124
1461	6124
1461	6124
1461	6124
1461	6124
1461	6124
1461	6124
1462	6124
1462	6124
1462	6124
1462	6124
1462	6124
1462	6124
1462	6124
1462	6124
1462	6124
1462	6124
1462	6124
1462	6124
1462	6124
1462	6124
1462	6124
1462	6124
1462	6124
1462	6124
1463	6124
1463	6124
1463	6124
1463	6124
1463	6124
1463	6124
1463	6124
1463	6124
1463	6124
1463	6124
1463	6124
1463	6124
1463	6124
1463	6124
1464	6124
1464	6124
1464	6124
1464	6124
1464	6124
1464	6124
1464	6124
1464	6124
1464	6124
1464	6124
1464	6124
1464	6124
1464	6124
1465	6124
1465	6124
1465	6124
1465	6124
1465	6124
1465	6124
1466	6124
1466	6124
1466	6124
1466	6124
1466	6124
1467	6124
1467	6124
1467	6124
1467	6124
1467	6124
1468	6124
1470	6124
1470	6124
1470	6124
1471	6124
1473	6124
1474	6124
1474	6124
1475	6124
1476	6124
1478	6124
1480	6124
1484	6124
1493	6124
