8	6124
10	6124
11	6124
11	6124
12	6124
12	6124
13	6124
13	6124
14	6124
16	6124
16	6124
16	6124
16	6124
16	6124
17	6124
17	6124
18	6124
19	6124
19	6124
19	6124
20	6124
20	6124
20	6124
21	6124
21	6124
21	6124
22	6124
22	6124
22	6124
22	6124
22	6124
22	6124
23	6124
23	6124
23	6124
23	6124
23	6124
23	6124
23	6124
24	6124
25	6124
25	6124
25	6124
26	6124
27	6124
27	6124
27	6124
27	6124
27	6124
27	6124
28	6124
28	6124
28	6124
29	6124
29	6124
29	6124
30	6124
32	6124
32	6124
32	6124
32	6124
32	6124
33	6124
33	6124
34	6124
34	6124
36	6124
42	6124
51	6124
1163	6124
1163	6124
1163	6124
1163	6124
1163	6124
1163	6124
1163	6124
1163	6124
1163	6124
1163	6124
1163	6124
1163	6124
1163	6124
1163	6124
1163	6124
1163	6124
1163	6124
1163	6124
1163	6124
1163	6124
1163	6124
1163	6124
1163	6124
1163	6124
1163	6124
1163	6124
1163	6124
1163	6124
1163	6124
1163	6124
1163	6124
1163	6124
1163	6124
1163	6124
1163	6124
1163	6124
1163	6124
1164	6124
1164	6124
1164	6124
1164	6124
1164	6124
1164	6124
1164	6124
1164	6124
1164	6124
1164	6124
1164	6124
1164	6124
1164	6124
1165	6124
1165	6124
1165	6124
1165	6124
1165	6124
1165	6124
1165	6124
1166	6124
1166	6124
1166	6124
1166	6124
1166	6124
1166	6124
1166	6124
1166	6124
1167	6124
1167	6124
1167	6124
1167	6124
1167	6124
1167	6124
1167	6124
1168	6124
1168	6124
1168	6124
1168	6124
1168	6124
1168	6124
1169	6124
1169	6124
1169	6124
1170	6124
1170	6124
1170	6124
1171	6124
1171	6124
1171	6124
1171	6124
1172	6124
1172	6124
1175	6124
1175	6124
1175	6124
1177	6124
1178	6124
1185	6124
1188	6124
