10	6124
11	6124
13	6124
13	6124
14	6124
14	6124
14	6124
14	6124
14	6124
14	6124
14	6124
15	6124
15	6124
15	6124
15	6124
16	6124
17	6124
17	6124
17	6124
18	6124
18	6124
18	6124
18	6124
18	6124
18	6124
18	6124
18	6124
19	6124
19	6124
20	6124
20	6124
20	6124
20	6124
21	6124
21	6124
21	6124
21	6124
22	6124
22	6124
22	6124
22	6124
23	6124
23	6124
23	6124
24	6124
24	6124
24	6124
24	6124
24	6124
24	6124
24	6124
25	6124
25	6124
26	6124
27	6124
28	6124
30	6124
31	6124
31	6124
32	6124
32	6124
36	6124
2550	6124
2550	6124
2550	6124
2550	6124
2550	6124
2550	6124
2550	6124
2550	6124
2550	6124
2550	6124
2550	6124
2550	6124
2550	6124
2550	6124
2550	6124
2550	6124
2550	6124
2550	6124
2550	6124
2550	6124
2550	6124
2550	6124
2550	6124
2550	6124
2550	6124
2550	6124
2550	6124
2550	6124
2550	6124
2550	6124
2550	6124
2550	6124
2550	6124
2550	6124
2550	6124
2550	6124
2550	6124
2550	6124
2550	6124
2550	6124
2550	6124
2550	6124
2550	6124
2550	6124
2550	6124
2550	6124
2550	6124
2550	6124
2550	6124
2550	6124
2550	6124
2550	6124
2550	6124
2550	6124
2550	6124
2550	6124
2550	6124
2550	6124
2550	6124
2550	6124
2550	6124
2550	6124
2550	6124
2550	6124
2550	6124
2550	6124
2550	6124
2550	6124
2550	6124
2550	6124
2550	6124
2550	6124
2550	6124
2550	6124
2550	6124
2550	6124
2550	6124
2550	6124
2550	6124
2550	6124
2550	6124
2550	6124
2550	6124
2550	6124
2550	6124
2550	6124
2550	6124
2550	6124
2550	6124
2550	6124
2550	6124
2550	6124
2551	6124
2551	6124
2551	6124
2551	6124
2551	6124
2551	6124
2551	6124
2551	6124
2551	6124
2551	6124
2551	6124
2551	6124
2551	6124
2551	6124
2551	6124
2551	6124
2551	6124
2551	6124
2551	6124
2551	6124
2551	6124
2551	6124
2551	6124
2551	6124
2551	6124
2551	6124
2551	6124
2551	6124
2551	6124
2551	6124
2551	6124
2551	6124
2551	6124
2551	6124
2551	6124
2551	6124
2551	6124
2551	6124
2551	6124
2551	6124
2552	6124
2552	6124
2552	6124
2552	6124
2552	6124
2552	6124
2552	6124
2552	6124
2552	6124
2552	6124
2552	6124
2552	6124
2552	6124
2552	6124
2552	6124
2552	6124
2552	6124
2552	6124
2552	6124
2552	6124
2552	6124
2552	6124
2553	6124
2553	6124
2553	6124
2553	6124
2553	6124
2553	6124
2553	6124
2553	6124
2553	6124
2554	6124
2554	6124
2554	6124
2554	6124
2554	6124
2554	6124
2554	6124
2554	6124
2554	6124
2555	6124
2555	6124
2555	6124
2555	6124
2555	6124
2556	6124
2556	6124
2556	6124
2556	6124
2556	6124
2556	6124
2556	6124
2557	6124
2557	6124
2557	6124
2557	6124
2558	6124
2558	6124
2558	6124
2558	6124
2558	6124
2559	6124
2559	6124
2563	6124
2563	6124
2564	6124
2564	6124
2566	6124
2569	6124
2569	6124
2576	6124
