6	6124
6	6124
8	6124
10	6124
10	6124
11	6124
11	6124
12	6124
12	6124
13	6124
13	6124
13	6124
13	6124
14	6124
14	6124
14	6124
14	6124
15	6124
15	6124
15	6124
16	6124
16	6124
16	6124
16	6124
16	6124
16	6124
16	6124
16	6124
17	6124
17	6124
17	6124
17	6124
17	6124
17	6124
17	6124
17	6124
18	6124
18	6124
18	6124
18	6124
18	6124
18	6124
18	6124
18	6124
18	6124
19	6124
19	6124
19	6124
19	6124
19	6124
19	6124
19	6124
19	6124
20	6124
20	6124
20	6124
20	6124
20	6124
21	6124
21	6124
21	6124
21	6124
21	6124
21	6124
21	6124
21	6124
21	6124
21	6124
22	6124
22	6124
22	6124
22	6124
23	6124
23	6124
23	6124
23	6124
23	6124
24	6124
24	6124
24	6124
24	6124
24	6124
25	6124
25	6124
25	6124
25	6124
25	6124
25	6124
25	6124
26	6124
26	6124
26	6124
26	6124
27	6124
27	6124
27	6124
28	6124
28	6124
28	6124
29	6124
29	6124
31	6124
32	6124
32	6124
32	6124
34	6124
35	6124
36	6124
38	6124
39	6124
39	6124
39	6124
39	6124
39	6124
39	6124
40	6124
40	6124
40	6124
41	6124
41	6124
42	6124
48	6124
54	6124
1178	6124
1178	6124
1178	6124
1178	6124
1178	6124
1178	6124
1178	6124
1178	6124
1178	6124
1178	6124
1178	6124
1178	6124
1178	6124
1178	6124
1178	6124
1178	6124
1178	6124
1178	6124
1178	6124
1178	6124
1178	6124
1178	6124
1178	6124
1178	6124
1178	6124
1178	6124
1178	6124
1178	6124
1178	6124
1178	6124
1178	6124
1178	6124
1178	6124
1178	6124
1178	6124
1178	6124
1178	6124
1178	6124
1178	6124
1178	6124
1178	6124
1178	6124
1178	6124
1178	6124
1178	6124
1178	6124
1178	6124
1179	6124
1179	6124
1179	6124
1179	6124
1179	6124
1179	6124
1179	6124
1179	6124
1179	6124
1179	6124
1179	6124
1179	6124
1179	6124
1179	6124
1179	6124
1179	6124
1179	6124
1179	6124
1179	6124
1179	6124
1179	6124
1179	6124
1179	6124
1179	6124
1179	6124
1179	6124
1179	6124
1179	6124
1180	6124
1180	6124
1180	6124
1180	6124
1180	6124
1180	6124
1180	6124
1180	6124
1180	6124
1180	6124
1180	6124
1180	6124
1180	6124
1180	6124
1180	6124
1180	6124
1180	6124
1180	6124
1180	6124
1181	6124
1181	6124
1181	6124
1181	6124
1181	6124
1181	6124
1181	6124
1181	6124
1181	6124
1181	6124
1181	6124
1181	6124
1181	6124
1181	6124
1181	6124
1181	6124
1181	6124
1182	6124
1182	6124
1182	6124
1182	6124
1182	6124
1182	6124
1182	6124
1182	6124
1182	6124
1182	6124
1183	6124
1183	6124
1183	6124
1183	6124
1184	6124
1184	6124
1184	6124
1184	6124
1184	6124
1185	6124
1185	6124
1185	6124
1185	6124
1185	6124
1186	6124
1187	6124
1187	6124
1189	6124
1189	6124
1192	6124
1193	6124
1193	6124
1196	6124
1198	6124
1199	6124
1213	6124
