5	6124
9	6124
10	6124
11	6124
11	6124
12	6124
13	6124
14	6124
15	6124
15	6124
15	6124
16	6124
16	6124
16	6124
17	6124
17	6124
17	6124
17	6124
18	6124
18	6124
18	6124
18	6124
19	6124
19	6124
20	6124
20	6124
20	6124
20	6124
21	6124
21	6124
21	6124
22	6124
22	6124
23	6124
23	6124
24	6124
25	6124
27	6124
29	6124
30	6124
1487	6124
1487	6124
1487	6124
1487	6124
1487	6124
1487	6124
1487	6124
1487	6124
1487	6124
1487	6124
1487	6124
1487	6124
1487	6124
1487	6124
1487	6124
1487	6124
1487	6124
1487	6124
1487	6124
1487	6124
1487	6124
1487	6124
1487	6124
1487	6124
1487	6124
1487	6124
1487	6124
1487	6124
1487	6124
1487	6124
1487	6124
1487	6124
1487	6124
1487	6124
1487	6124
1487	6124
1487	6124
1487	6124
1487	6124
1487	6124
1487	6124
1487	6124
1487	6124
1487	6124
1487	6124
1487	6124
1487	6124
1487	6124
1487	6124
1487	6124
1487	6124
1487	6124
1487	6124
1487	6124
1487	6124
1487	6124
1487	6124
1487	6124
1487	6124
1487	6124
1487	6124
1487	6124
1487	6124
1487	6124
1487	6124
1487	6124
1487	6124
1487	6124
1487	6124
1487	6124
1487	6124
1487	6124
1487	6124
1487	6124
1487	6124
1487	6124
1487	6124
1487	6124
1487	6124
1488	6124
1488	6124
1488	6124
1488	6124
1488	6124
1488	6124
1488	6124
1488	6124
1488	6124
1488	6124
1488	6124
1488	6124
1488	6124
1488	6124
1488	6124
1488	6124
1488	6124
1488	6124
1488	6124
1488	6124
1488	6124
1488	6124
1488	6124
1488	6124
1489	6124
1489	6124
1489	6124
1489	6124
1489	6124
1489	6124
1489	6124
1489	6124
1489	6124
1489	6124
1489	6124
1490	6124
1490	6124
1490	6124
1490	6124
1490	6124
1490	6124
1490	6124
1490	6124
1490	6124
1490	6124
1491	6124
1491	6124
1491	6124
1491	6124
1491	6124
1491	6124
1491	6124
1492	6124
1492	6124
1492	6124
1492	6124
1492	6124
1492	6124
1493	6124
1493	6124
1493	6124
1493	6124
1493	6124
1493	6124
1494	6124
1494	6124
1495	6124
1496	6124
1497	6124
1497	6124
1499	6124
1499	6124
1500	6124
1500	6124
1501	6124
1501	6124
