14	6124
17	6124
21	6124
39	6124
39	6124
42	6124
44	6124
48	6124
48	6124
491	6124
491	6124
491	6124
491	6124
491	6124
491	6124
491	6124
491	6124
491	6124
491	6124
491	6124
491	6124
491	6124
491	6124
491	6124
491	6124
492	6124
492	6124
492	6124
493	6124
496	6124
496	6124
497	6124
497	6124
497	6124
501	6124
501	6124
503	6124
525	6124
