7	6124
9	6124
9	6124
10	6124
10	6124
10	6124
11	6124
11	6124
11	6124
11	6124
11	6124
11	6124
11	6124
11	6124
11	6124
11	6124
12	6124
12	6124
12	6124
12	6124
12	6124
12	6124
12	6124
12	6124
12	6124
12	6124
13	6124
13	6124
13	6124
13	6124
13	6124
13	6124
13	6124
13	6124
13	6124
13	6124
13	6124
13	6124
14	6124
14	6124
14	6124
14	6124
14	6124
14	6124
14	6124
14	6124
14	6124
14	6124
14	6124
15	6124
15	6124
15	6124
15	6124
15	6124
15	6124
15	6124
15	6124
15	6124
15	6124
15	6124
15	6124
15	6124
15	6124
15	6124
15	6124
15	6124
15	6124
15	6124
16	6124
16	6124
16	6124
16	6124
16	6124
16	6124
16	6124
16	6124
16	6124
16	6124
16	6124
16	6124
16	6124
16	6124
16	6124
16	6124
16	6124
16	6124
16	6124
16	6124
16	6124
17	6124
17	6124
17	6124
17	6124
17	6124
17	6124
17	6124
17	6124
17	6124
17	6124
17	6124
18	6124
18	6124
18	6124
18	6124
18	6124
18	6124
18	6124
18	6124
18	6124
18	6124
18	6124
18	6124
18	6124
18	6124
19	6124
19	6124
19	6124
19	6124
19	6124
19	6124
19	6124
19	6124
19	6124
19	6124
19	6124
19	6124
20	6124
20	6124
20	6124
20	6124
20	6124
20	6124
20	6124
20	6124
20	6124
21	6124
21	6124
21	6124
21	6124
21	6124
21	6124
21	6124
21	6124
21	6124
21	6124
21	6124
22	6124
22	6124
22	6124
22	6124
22	6124
22	6124
22	6124
22	6124
22	6124
22	6124
22	6124
23	6124
23	6124
23	6124
23	6124
23	6124
23	6124
23	6124
23	6124
24	6124
24	6124
24	6124
24	6124
24	6124
24	6124
24	6124
24	6124
24	6124
24	6124
25	6124
25	6124
25	6124
25	6124
25	6124
25	6124
25	6124
25	6124
25	6124
25	6124
25	6124
26	6124
26	6124
26	6124
26	6124
26	6124
26	6124
27	6124
27	6124
27	6124
28	6124
28	6124
28	6124
29	6124
29	6124
29	6124
30	6124
31	6124
31	6124
31	6124
34	6124
35	6124
35	6124
36	6124
36	6124
37	6124
37	6124
38	6124
38	6124
38	6124
39	6124
39	6124
40	6124
41	6124
41	6124
41	6124
41	6124
41	6124
41	6124
41	6124
41	6124
42	6124
42	6124
42	6124
43	6124
43	6124
43	6124
43	6124
43	6124
43	6124
44	6124
45	6124
45	6124
47	6124
47	6124
47	6124
50	6124
51	6124
52	6124
52	6124
514	6124
514	6124
514	6124
514	6124
514	6124
514	6124
514	6124
514	6124
514	6124
514	6124
514	6124
514	6124
514	6124
514	6124
514	6124
514	6124
514	6124
514	6124
514	6124
514	6124
514	6124
514	6124
514	6124
514	6124
514	6124
514	6124
514	6124
514	6124
514	6124
514	6124
514	6124
514	6124
514	6124
514	6124
514	6124
514	6124
514	6124
514	6124
514	6124
514	6124
514	6124
514	6124
515	6124
515	6124
515	6124
515	6124
515	6124
515	6124
515	6124
515	6124
515	6124
515	6124
515	6124
515	6124
515	6124
515	6124
515	6124
515	6124
515	6124
515	6124
515	6124
515	6124
515	6124
515	6124
515	6124
515	6124
515	6124
515	6124
515	6124
515	6124
515	6124
515	6124
516	6124
516	6124
516	6124
516	6124
516	6124
516	6124
516	6124
516	6124
516	6124
516	6124
516	6124
516	6124
517	6124
517	6124
517	6124
517	6124
517	6124
517	6124
517	6124
517	6124
517	6124
518	6124
518	6124
518	6124
518	6124
518	6124
518	6124
518	6124
518	6124
518	6124
518	6124
518	6124
518	6124
519	6124
519	6124
519	6124
519	6124
519	6124
520	6124
520	6124
520	6124
521	6124
521	6124
522	6124
522	6124
522	6124
524	6124
525	6124
526	6124
526	6124
529	6124
529	6124
531	6124
532	6124
546	6124
551	6124
