8	6124
9	6124
11	6124
12	6124
12	6124
13	6124
14	6124
14	6124
15	6124
15	6124
16	6124
16	6124
17	6124
18	6124
18	6124
18	6124
18	6124
18	6124
19	6124
19	6124
20	6124
20	6124
24	6124
26	6124
29	6124
32	6124
33	6124
35	6124
37	6124
38	6124
895	6124
895	6124
895	6124
895	6124
895	6124
895	6124
895	6124
895	6124
895	6124
895	6124
895	6124
895	6124
895	6124
895	6124
895	6124
895	6124
895	6124
895	6124
895	6124
895	6124
895	6124
895	6124
895	6124
895	6124
895	6124
895	6124
895	6124
895	6124
895	6124
896	6124
896	6124
896	6124
896	6124
896	6124
896	6124
896	6124
896	6124
896	6124
896	6124
896	6124
897	6124
897	6124
897	6124
897	6124
897	6124
897	6124
897	6124
897	6124
897	6124
897	6124
897	6124
897	6124
897	6124
897	6124
897	6124
898	6124
898	6124
898	6124
898	6124
898	6124
898	6124
898	6124
898	6124
898	6124
898	6124
899	6124
900	6124
900	6124
901	6124
901	6124
901	6124
901	6124
901	6124
901	6124
902	6124
902	6124
903	6124
903	6124
905	6124
905	6124
905	6124
906	6124
907	6124
907	6124
920	6124
