6	6124
7	6124
8	6124
9	6124
10	6124
10	6124
10	6124
11	6124
11	6124
11	6124
12	6124
16	6124
17	6124
889	6124
889	6124
889	6124
889	6124
889	6124
889	6124
889	6124
889	6124
889	6124
889	6124
889	6124
889	6124
889	6124
889	6124
889	6124
889	6124
889	6124
890	6124
890	6124
890	6124
890	6124
890	6124
890	6124
890	6124
890	6124
890	6124
890	6124
890	6124
890	6124
891	6124
891	6124
891	6124
891	6124
891	6124
891	6124
891	6124
891	6124
892	6124
892	6124
892	6124
892	6124
892	6124
892	6124
892	6124
893	6124
893	6124
893	6124
893	6124
893	6124
893	6124
893	6124
893	6124
894	6124
894	6124
894	6124
894	6124
895	6124
895	6124
897	6124
898	6124
900	6124
