7	6124
14	6124
15	6124
16	6124
1069	6124
1069	6124
1069	6124
1069	6124
1069	6124
1069	6124
1069	6124
1069	6124
1069	6124
1069	6124
1069	6124
1069	6124
1069	6124
1069	6124
1069	6124
1069	6124
1069	6124
1069	6124
1069	6124
1069	6124
1069	6124
1069	6124
1069	6124
1069	6124
1069	6124
1069	6124
1069	6124
1069	6124
1069	6124
1069	6124
1069	6124
1069	6124
1069	6124
1070	6124
1070	6124
1070	6124
1070	6124
1070	6124
1070	6124
1070	6124
1070	6124
1070	6124
1070	6124
1070	6124
1070	6124
1070	6124
1070	6124
1070	6124
1070	6124
1070	6124
1070	6124
1070	6124
1070	6124
1070	6124
1070	6124
1070	6124
1071	6124
1071	6124
1071	6124
1071	6124
1071	6124
1071	6124
1071	6124
1071	6124
1071	6124
1071	6124
1071	6124
1072	6124
1072	6124
1072	6124
1072	6124
1072	6124
1072	6124
1072	6124
1072	6124
1073	6124
1073	6124
1073	6124
1073	6124
1074	6124
1074	6124
1075	6124
1076	6124
1076	6124
1077	6124
1082	6124
1083	6124
