9	6124
9	6124
9	6124
10	6124
10	6124
10	6124
11	6124
11	6124
12	6124
12	6124
12	6124
12	6124
12	6124
14	6124
14	6124
17	6124
17	6124
17	6124
19	6124
20	6124
21	6124
22	6124
383	6124
383	6124
383	6124
383	6124
383	6124
383	6124
383	6124
383	6124
383	6124
383	6124
384	6124
384	6124
384	6124
384	6124
384	6124
384	6124
384	6124
385	6124
385	6124
385	6124
385	6124
386	6124
386	6124
386	6124
386	6124
386	6124
386	6124
386	6124
386	6124
387	6124
387	6124
387	6124
388	6124
388	6124
388	6124
391	6124
393	6124
