8	6124
8	6124
9	6124
10	6124
10	6124
11	6124
11	6124
13	6124
13	6124
15	6124
15	6124
15	6124
16	6124
16	6124
16	6124
17	6124
18	6124
18	6124
22	6124
22	6124
22	6124
23	6124
23	6124
24	6124
24	6124
24	6124
25	6124
25	6124
25	6124
25	6124
26	6124
26	6124
26	6124
26	6124
27	6124
27	6124
27	6124
27	6124
28	6124
28	6124
29	6124
29	6124
30	6124
30	6124
31	6124
32	6124
33	6124
33	6124
33	6124
34	6124
35	6124
35	6124
44	6124
47	6124
48	6124
1811	6124
1811	6124
1811	6124
1811	6124
1811	6124
1811	6124
1811	6124
1811	6124
1811	6124
1811	6124
1811	6124
1811	6124
1811	6124
1811	6124
1811	6124
1811	6124
1811	6124
1811	6124
1811	6124
1811	6124
1811	6124
1811	6124
1811	6124
1811	6124
1811	6124
1811	6124
1811	6124
1811	6124
1811	6124
1811	6124
1811	6124
1811	6124
1811	6124
1811	6124
1811	6124
1811	6124
1811	6124
1811	6124
1811	6124
1811	6124
1811	6124
1811	6124
1811	6124
1811	6124
1811	6124
1811	6124
1811	6124
1811	6124
1811	6124
1811	6124
1811	6124
1811	6124
1811	6124
1811	6124
1811	6124
1811	6124
1811	6124
1811	6124
1811	6124
1812	6124
1812	6124
1812	6124
1812	6124
1812	6124
1812	6124
1812	6124
1812	6124
1812	6124
1812	6124
1812	6124
1812	6124
1812	6124
1812	6124
1812	6124
1812	6124
1812	6124
1812	6124
1812	6124
1812	6124
1812	6124
1812	6124
1812	6124
1812	6124
1812	6124
1812	6124
1813	6124
1813	6124
1813	6124
1813	6124
1813	6124
1813	6124
1813	6124
1813	6124
1813	6124
1813	6124
1813	6124
1813	6124
1813	6124
1813	6124
1814	6124
1814	6124
1814	6124
1814	6124
1814	6124
1814	6124
1814	6124
1814	6124
1814	6124
1814	6124
1814	6124
1814	6124
1814	6124
1814	6124
1814	6124
1815	6124
1815	6124
1815	6124
1815	6124
1815	6124
1816	6124
1816	6124
1816	6124
1816	6124
1816	6124
1817	6124
1817	6124
1817	6124
1817	6124
1817	6124
1817	6124
1818	6124
1818	6124
1818	6124
1819	6124
1819	6124
1819	6124
1820	6124
1820	6124
1820	6124
1820	6124
1821	6124
1821	6124
1821	6124
1822	6124
1823	6124
1823	6124
1824	6124
1824	6124
1824	6124
1827	6124
1829	6124
1831	6124
1832	6124
1833	6124
1833	6124
