9	6124
10	6124
12	6124
13	6124
13	6124
14	6124
14	6124
14	6124
15	6124
16	6124
16	6124
17	6124
17	6124
18	6124
18	6124
18	6124
19	6124
19	6124
21	6124
24	6124
27	6124
285	6124
285	6124
285	6124
285	6124
285	6124
285	6124
285	6124
285	6124
285	6124
285	6124
285	6124
285	6124
285	6124
285	6124
285	6124
285	6124
285	6124
285	6124
285	6124
285	6124
285	6124
285	6124
285	6124
285	6124
285	6124
285	6124
286	6124
286	6124
286	6124
286	6124
286	6124
286	6124
286	6124
286	6124
286	6124
286	6124
286	6124
286	6124
286	6124
286	6124
286	6124
287	6124
287	6124
287	6124
287	6124
287	6124
287	6124
287	6124
287	6124
287	6124
287	6124
287	6124
287	6124
288	6124
288	6124
288	6124
288	6124
288	6124
288	6124
290	6124
290	6124
291	6124
291	6124
292	6124
293	6124
293	6124
293	6124
294	6124
297	6124
