8	6124
10	6124
11	6124
13	6124
13	6124
14	6124
14	6124
16	6124
16	6124
16	6124
18	6124
18	6124
18	6124
19	6124
20	6124
22	6124
23	6124
24	6124
24	6124
27	6124
28	6124
28	6124
28	6124
28	6124
28	6124
28	6124
28	6124
29	6124
29	6124
29	6124
30	6124
31	6124
31	6124
32	6124
33	6124
34	6124
34	6124
36	6124
41	6124
1304	6124
1304	6124
1304	6124
1304	6124
1304	6124
1304	6124
1304	6124
1304	6124
1304	6124
1304	6124
1304	6124
1304	6124
1304	6124
1304	6124
1304	6124
1304	6124
1304	6124
1304	6124
1304	6124
1304	6124
1304	6124
1304	6124
1304	6124
1304	6124
1304	6124
1304	6124
1304	6124
1304	6124
1304	6124
1304	6124
1304	6124
1304	6124
1304	6124
1304	6124
1304	6124
1304	6124
1304	6124
1304	6124
1304	6124
1304	6124
1304	6124
1304	6124
1304	6124
1304	6124
1304	6124
1304	6124
1304	6124
1304	6124
1304	6124
1304	6124
1304	6124
1304	6124
1304	6124
1304	6124
1304	6124
1304	6124
1304	6124
1304	6124
1304	6124
1304	6124
1304	6124
1304	6124
1304	6124
1304	6124
1304	6124
1304	6124
1304	6124
1304	6124
1304	6124
1304	6124
1304	6124
1304	6124
1304	6124
1304	6124
1304	6124
1304	6124
1304	6124
1304	6124
1304	6124
1304	6124
1304	6124
1304	6124
1304	6124
1304	6124
1304	6124
1304	6124
1304	6124
1304	6124
1304	6124
1305	6124
1305	6124
1305	6124
1305	6124
1305	6124
1305	6124
1305	6124
1305	6124
1305	6124
1305	6124
1305	6124
1305	6124
1305	6124
1305	6124
1305	6124
1305	6124
1305	6124
1305	6124
1305	6124
1305	6124
1305	6124
1305	6124
1305	6124
1305	6124
1305	6124
1305	6124
1305	6124
1305	6124
1305	6124
1305	6124
1305	6124
1305	6124
1305	6124
1305	6124
1305	6124
1305	6124
1306	6124
1306	6124
1306	6124
1306	6124
1306	6124
1306	6124
1306	6124
1306	6124
1306	6124
1306	6124
1306	6124
1306	6124
1306	6124
1306	6124
1306	6124
1306	6124
1306	6124
1306	6124
1306	6124
1306	6124
1306	6124
1306	6124
1307	6124
1307	6124
1307	6124
1307	6124
1307	6124
1307	6124
1307	6124
1307	6124
1308	6124
1308	6124
1308	6124
1308	6124
1308	6124
1308	6124
1308	6124
1308	6124
1308	6124
1308	6124
1308	6124
1309	6124
1309	6124
1309	6124
1309	6124
1309	6124
1309	6124
1310	6124
1310	6124
1311	6124
1311	6124
1311	6124
1312	6124
1312	6124
1312	6124
1313	6124
1314	6124
1315	6124
1316	6124
1317	6124
1328	6124
