8	6124
9	6124
9	6124
11	6124
11	6124
11	6124
12	6124
12	6124
13	6124
13	6124
13	6124
13	6124
14	6124
14	6124
15	6124
15	6124
15	6124
18	6124
18	6124
18	6124
19	6124
20	6124
22	6124
23	6124
24	6124
24	6124
26	6124
26	6124
27	6124
27	6124
27	6124
28	6124
30	6124
30	6124
31	6124
32	6124
33	6124
34	6124
35	6124
35	6124
39	6124
42	6124
491	6124
491	6124
491	6124
491	6124
491	6124
491	6124
491	6124
491	6124
491	6124
491	6124
491	6124
491	6124
491	6124
491	6124
491	6124
491	6124
491	6124
491	6124
491	6124
491	6124
491	6124
491	6124
491	6124
492	6124
492	6124
492	6124
492	6124
492	6124
492	6124
492	6124
492	6124
492	6124
492	6124
492	6124
492	6124
492	6124
493	6124
493	6124
493	6124
493	6124
493	6124
493	6124
493	6124
493	6124
493	6124
493	6124
493	6124
494	6124
494	6124
494	6124
494	6124
494	6124
495	6124
495	6124
495	6124
495	6124
496	6124
496	6124
496	6124
497	6124
498	6124
500	6124
500	6124
510	6124
513	6124
517	6124
