5	6124
6	6124
7	6124
211	6124
211	6124
211	6124
211	6124
211	6124
212	6124
212	6124
212	6124
212	6124
212	6124
212	6124
212	6124
213	6124
213	6124
213	6124
213	6124
213	6124
213	6124
213	6124
214	6124
214	6124
215	6124
216	6124
222	6124
