7	6124
7	6124
8	6124
8	6124
10	6124
11	6124
11	6124
11	6124
12	6124
12	6124
12	6124
12	6124
12	6124
13	6124
14	6124
14	6124
14	6124
15	6124
15	6124
15	6124
16	6124
16	6124
16	6124
17	6124
17	6124
18	6124
18	6124
18	6124
18	6124
18	6124
18	6124
18	6124
19	6124
19	6124
19	6124
19	6124
19	6124
19	6124
20	6124
20	6124
20	6124
20	6124
20	6124
20	6124
20	6124
21	6124
21	6124
21	6124
21	6124
21	6124
21	6124
22	6124
22	6124
22	6124
22	6124
22	6124
22	6124
23	6124
23	6124
23	6124
23	6124
24	6124
24	6124
25	6124
25	6124
26	6124
26	6124
26	6124
26	6124
28	6124
31	6124
32	6124
32	6124
33	6124
36	6124
40	6124
40	6124
40	6124
40	6124
40	6124
41	6124
41	6124
41	6124
42	6124
42	6124
42	6124
43	6124
44	6124
45	6124
45	6124
48	6124
56	6124
64	6124
692	6124
692	6124
692	6124
692	6124
692	6124
692	6124
692	6124
692	6124
692	6124
692	6124
692	6124
692	6124
692	6124
692	6124
692	6124
692	6124
692	6124
692	6124
692	6124
692	6124
692	6124
692	6124
692	6124
692	6124
692	6124
692	6124
692	6124
692	6124
692	6124
692	6124
692	6124
692	6124
693	6124
693	6124
693	6124
693	6124
693	6124
693	6124
693	6124
693	6124
693	6124
693	6124
693	6124
693	6124
693	6124
693	6124
693	6124
693	6124
693	6124
693	6124
693	6124
693	6124
693	6124
693	6124
693	6124
693	6124
693	6124
693	6124
693	6124
693	6124
693	6124
694	6124
694	6124
694	6124
694	6124
694	6124
694	6124
694	6124
694	6124
694	6124
694	6124
694	6124
694	6124
694	6124
694	6124
694	6124
694	6124
694	6124
694	6124
695	6124
695	6124
695	6124
695	6124
695	6124
695	6124
695	6124
695	6124
695	6124
696	6124
696	6124
696	6124
696	6124
696	6124
697	6124
697	6124
697	6124
697	6124
698	6124
698	6124
698	6124
699	6124
700	6124
700	6124
700	6124
700	6124
701	6124
701	6124
702	6124
703	6124
708	6124
709	6124
710	6124
716	6124
