6	6124
10	6124
11	6124
12	6124
12	6124
12	6124
12	6124
12	6124
13	6124
14	6124
15	6124
15	6124
16	6124
16	6124
16	6124
16	6124
16	6124
16	6124
16	6124
17	6124
17	6124
17	6124
17	6124
17	6124
17	6124
17	6124
18	6124
18	6124
18	6124
19	6124
19	6124
19	6124
20	6124
21	6124
21	6124
21	6124
21	6124
21	6124
21	6124
22	6124
22	6124
23	6124
23	6124
24	6124
26	6124
27	6124
27	6124
27	6124
27	6124
28	6124
28	6124
29	6124
29	6124
29	6124
29	6124
29	6124
29	6124
30	6124
30	6124
30	6124
30	6124
30	6124
31	6124
31	6124
33	6124
33	6124
39	6124
41	6124
45	6124
45	6124
45	6124
46	6124
47	6124
48	6124
49	6124
49	6124
50	6124
51	6124
51	6124
51	6124
51	6124
51	6124
51	6124
51	6124
52	6124
52	6124
52	6124
52	6124
52	6124
52	6124
52	6124
53	6124
53	6124
53	6124
53	6124
53	6124
53	6124
53	6124
53	6124
54	6124
54	6124
54	6124
54	6124
55	6124
55	6124
55	6124
56	6124
57	6124
57	6124
59	6124
63	6124
68	6124
71	6124
267	6124
267	6124
267	6124
267	6124
267	6124
267	6124
267	6124
267	6124
267	6124
267	6124
267	6124
267	6124
267	6124
267	6124
267	6124
267	6124
267	6124
267	6124
267	6124
268	6124
268	6124
268	6124
268	6124
268	6124
268	6124
268	6124
268	6124
268	6124
268	6124
268	6124
268	6124
268	6124
268	6124
268	6124
268	6124
269	6124
269	6124
269	6124
269	6124
269	6124
269	6124
269	6124
269	6124
269	6124
269	6124
269	6124
270	6124
270	6124
270	6124
270	6124
270	6124
270	6124
270	6124
271	6124
272	6124
272	6124
273	6124
273	6124
273	6124
279	6124
279	6124
284	6124
287	6124
290	6124
308	6124
314	6124
