154	6124
154	6124
154	6124
154	6124
154	6124
154	6124
154	6124
154	6124
154	6124
154	6124
154	6124
154	6124
155	6124
155	6124
155	6124
155	6124
156	6124
157	6124
157	6124
176	6124
176	6124
176	6124
176	6124
176	6124
176	6124
176	6124
176	6124
176	6124
176	6124
176	6124
176	6124
176	6124
176	6124
176	6124
176	6124
176	6124
176	6124
176	6124
176	6124
176	6124
176	6124
176	6124
176	6124
176	6124
176	6124
176	6124
176	6124
176	6124
176	6124
176	6124
176	6124
176	6124
176	6124
176	6124
176	6124
176	6124
176	6124
176	6124
176	6124
176	6124
176	6124
176	6124
176	6124
176	6124
176	6124
176	6124
176	6124
176	6124
176	6124
176	6124
176	6124
176	6124
176	6124
176	6124
176	6124
176	6124
176	6124
176	6124
176	6124
176	6124
176	6124
176	6124
176	6124
176	6124
176	6124
176	6124
176	6124
176	6124
176	6124
176	6124
176	6124
176	6124
176	6124
176	6124
176	6124
176	6124
176	6124
176	6124
176	6124
176	6124
176	6124
176	6124
176	6124
176	6124
176	6124
176	6124
176	6124
176	6124
176	6124
176	6124
176	6124
176	6124
176	6124
176	6124
176	6124
176	6124
176	6124
176	6124
176	6124
176	6124
176	6124
176	6124
176	6124
176	6124
176	6124
176	6124
176	6124
176	6124
177	6124
177	6124
177	6124
177	6124
177	6124
177	6124
177	6124
177	6124
177	6124
177	6124
177	6124
177	6124
177	6124
177	6124
177	6124
177	6124
177	6124
177	6124
178	6124
178	6124
178	6124
178	6124
178	6124
178	6124
179	6124
179	6124
180	6124
180	6124
184	6124
