128	6124
130	6124
132	6124
132	6124
133	6124
134	6124
139	6124
139	6124
139	6124
139	6124
139	6124
139	6124
139	6124
139	6124
139	6124
139	6124
139	6124
139	6124
139	6124
139	6124
139	6124
139	6124
139	6124
139	6124
139	6124
139	6124
139	6124
139	6124
139	6124
139	6124
139	6124
139	6124
139	6124
139	6124
139	6124
139	6124
139	6124
139	6124
139	6124
139	6124
139	6124
139	6124
139	6124
139	6124
139	6124
139	6124
139	6124
139	6124
139	6124
139	6124
139	6124
139	6124
139	6124
139	6124
139	6124
139	6124
139	6124
139	6124
139	6124
139	6124
139	6124
139	6124
139	6124
139	6124
139	6124
139	6124
139	6124
139	6124
140	6124
140	6124
140	6124
140	6124
140	6124
140	6124
141	6124
141	6124
142	6124
142	6124
142	6124
142	6124
142	6124
144	6124
144	6124
146	6124
