17	6124
24	6124
25	6124
28	6124
28	6124
30	6124
30	6124
33	6124
33	6124
33	6124
33	6124
34	6124
34	6124
34	6124
34	6124
34	6124
34	6124
34	6124
34	6124
35	6124
35	6124
35	6124
35	6124
35	6124
36	6124
36	6124
36	6124
36	6124
36	6124
36	6124
37	6124
37	6124
37	6124
37	6124
37	6124
38	6124
38	6124
38	6124
38	6124
38	6124
39	6124
40	6124
40	6124
40	6124
40	6124
40	6124
41	6124
42	6124
42	6124
42	6124
46	6124
48	6124
52	6124
54	6124
58	6124
64	6124
64	6124
64	6124
64	6124
64	6124
64	6124
64	6124
64	6124
64	6124
64	6124
64	6124
65	6124
65	6124
65	6124
65	6124
67	6124
67	6124
68	6124
68	6124
68	6124
69	6124
70	6124
82	6124
88	6124
92	6124
94	6124
141	6124
141	6124
141	6124
141	6124
141	6124
141	6124
141	6124
141	6124
141	6124
141	6124
141	6124
141	6124
141	6124
141	6124
141	6124
141	6124
141	6124
141	6124
141	6124
141	6124
141	6124
141	6124
141	6124
141	6124
141	6124
141	6124
141	6124
141	6124
141	6124
141	6124
141	6124
141	6124
141	6124
141	6124
141	6124
141	6124
141	6124
141	6124
141	6124
141	6124
141	6124
141	6124
141	6124
141	6124
141	6124
141	6124
141	6124
141	6124
141	6124
141	6124
141	6124
141	6124
141	6124
141	6124
141	6124
141	6124
142	6124
142	6124
142	6124
142	6124
142	6124
142	6124
142	6124
142	6124
142	6124
142	6124
142	6124
142	6124
142	6124
142	6124
142	6124
142	6124
142	6124
142	6124
142	6124
142	6124
142	6124
143	6124
143	6124
143	6124
143	6124
143	6124
143	6124
143	6124
144	6124
145	6124
145	6124
145	6124
146	6124
146	6124
146	6124
147	6124
148	6124
148	6124
