150	6124
151	6124
151	6124
151	6124
151	6124
153	6124
161	6124
161	6124
161	6124
161	6124
161	6124
161	6124
161	6124
161	6124
161	6124
161	6124
161	6124
161	6124
161	6124
161	6124
161	6124
161	6124
161	6124
161	6124
161	6124
161	6124
161	6124
161	6124
161	6124
161	6124
161	6124
161	6124
161	6124
161	6124
161	6124
161	6124
161	6124
161	6124
161	6124
161	6124
161	6124
161	6124
161	6124
161	6124
161	6124
162	6124
162	6124
162	6124
162	6124
162	6124
162	6124
162	6124
162	6124
162	6124
162	6124
165	6124
172	6124
307	6124
