5	6124
50	6124
51	6124
51	6124
51	6124
51	6124
51	6124
51	6124
52	6124
54	6124
56	6124
56	6124
57	6124
57	6124
57	6124
57	6124
57	6124
57	6124
58	6124
58	6124
58	6124
59	6124
59	6124
59	6124
60	6124
60	6124
61	6124
81	6124
81	6124
81	6124
81	6124
81	6124
81	6124
81	6124
81	6124
81	6124
81	6124
81	6124
81	6124
81	6124
81	6124
82	6124
82	6124
82	6124
82	6124
82	6124
82	6124
83	6124
83	6124
83	6124
83	6124
84	6124
85	6124
89	6124
98	6124
98	6124
98	6124
98	6124
98	6124
98	6124
98	6124
98	6124
98	6124
98	6124
98	6124
98	6124
98	6124
98	6124
98	6124
98	6124
98	6124
98	6124
98	6124
98	6124
98	6124
98	6124
98	6124
98	6124
98	6124
98	6124
98	6124
98	6124
98	6124
98	6124
98	6124
98	6124
98	6124
98	6124
98	6124
98	6124
98	6124
98	6124
98	6124
98	6124
98	6124
99	6124
99	6124
99	6124
99	6124
99	6124
99	6124
99	6124
99	6124
99	6124
99	6124
99	6124
99	6124
99	6124
99	6124
99	6124
99	6124
99	6124
99	6124
99	6124
99	6124
99	6124
99	6124
99	6124
99	6124
100	6124
100	6124
100	6124
100	6124
100	6124
100	6124
100	6124
100	6124
101	6124
101	6124
102	6124
102	6124
102	6124
103	6124
103	6124
104	6124
107	6124
131	6124
