8	6124
11	6124
11	6124
12	6124
12	6124
13	6124
13	6124
13	6124
14	6124
15	6124
15	6124
15	6124
15	6124
16	6124
16	6124
16	6124
17	6124
17	6124
17	6124
17	6124
18	6124
18	6124
18	6124
19	6124
19	6124
19	6124
19	6124
20	6124
20	6124
20	6124
21	6124
21	6124
22	6124
22	6124
22	6124
23	6124
23	6124
23	6124
23	6124
24	6124
24	6124
25	6124
25	6124
25	6124
25	6124
25	6124
25	6124
26	6124
26	6124
26	6124
26	6124
26	6124
26	6124
27	6124
27	6124
27	6124
27	6124
28	6124
29	6124
29	6124
30	6124
30	6124
30	6124
31	6124
31	6124
33	6124
33	6124
35	6124
43	6124
44	6124
144	6124
144	6124
144	6124
144	6124
144	6124
144	6124
144	6124
144	6124
144	6124
144	6124
144	6124
144	6124
144	6124
144	6124
144	6124
144	6124
144	6124
145	6124
145	6124
145	6124
145	6124
145	6124
145	6124
145	6124
145	6124
145	6124
145	6124
145	6124
146	6124
146	6124
146	6124
146	6124
146	6124
146	6124
146	6124
147	6124
147	6124
147	6124
149	6124
149	6124
149	6124
150	6124
150	6124
151	6124
152	6124
152	6124
152	6124
157	6124
162	6124
163	6124
165	6124
