11	6124
11	6124
11	6124
12	6124
12	6124
12	6124
12	6124
12	6124
13	6124
13	6124
14	6124
14	6124
15	6124
15	6124
15	6124
15	6124
15	6124
15	6124
15	6124
16	6124
16	6124
16	6124
16	6124
17	6124
18	6124
19	6124
19	6124
21	6124
73	6124
73	6124
73	6124
73	6124
74	6124
74	6124
74	6124
74	6124
74	6124
74	6124
74	6124
74	6124
74	6124
74	6124
74	6124
74	6124
74	6124
74	6124
74	6124
75	6124
75	6124
75	6124
75	6124
75	6124
75	6124
75	6124
75	6124
76	6124
76	6124
77	6124
78	6124
78	6124
78	6124
78	6124
79	6124
79	6124
81	6124
82	6124
83	6124
88	6124
88	6124
88	6124
88	6124
88	6124
88	6124
88	6124
88	6124
88	6124
88	6124
88	6124
89	6124
89	6124
89	6124
89	6124
89	6124
89	6124
89	6124
89	6124
89	6124
89	6124
89	6124
89	6124
89	6124
89	6124
90	6124
90	6124
90	6124
90	6124
90	6124
90	6124
90	6124
91	6124
91	6124
91	6124
91	6124
92	6124
92	6124
92	6124
93	6124
93	6124
93	6124
94	6124
94	6124
96	6124
98	6124
