22	6124
30	6124
31	6124
33	6124
37	6124
42	6124
42	6124
42	6124
43	6124
43	6124
43	6124
44	6124
44	6124
44	6124
44	6124
44	6124
44	6124
44	6124
44	6124
44	6124
44	6124
44	6124
45	6124
45	6124
45	6124
45	6124
45	6124
45	6124
45	6124
45	6124
45	6124
46	6124
46	6124
46	6124
46	6124
46	6124
46	6124
46	6124
47	6124
47	6124
47	6124
47	6124
47	6124
47	6124
47	6124
47	6124
47	6124
48	6124
48	6124
48	6124
48	6124
49	6124
49	6124
50	6124
50	6124
51	6124
51	6124
51	6124
51	6124
51	6124
51	6124
51	6124
51	6124
51	6124
51	6124
51	6124
51	6124
51	6124
51	6124
52	6124
52	6124
52	6124
52	6124
52	6124
52	6124
52	6124
52	6124
52	6124
52	6124
52	6124
52	6124
52	6124
52	6124
52	6124
52	6124
52	6124
53	6124
53	6124
53	6124
53	6124
53	6124
53	6124
53	6124
53	6124
53	6124
53	6124
53	6124
53	6124
53	6124
53	6124
53	6124
53	6124
53	6124
53	6124
53	6124
54	6124
54	6124
54	6124
54	6124
54	6124
54	6124
54	6124
54	6124
54	6124
54	6124
54	6124
54	6124
54	6124
54	6124
55	6124
55	6124
55	6124
56	6124
57	6124
57	6124
57	6124
57	6124
57	6124
57	6124
57	6124
58	6124
58	6124
58	6124
58	6124
58	6124
58	6124
58	6124
58	6124
58	6124
58	6124
59	6124
59	6124
59	6124
59	6124
59	6124
59	6124
59	6124
59	6124
60	6124
60	6124
60	6124
60	6124
60	6124
60	6124
60	6124
60	6124
60	6124
60	6124
60	6124
61	6124
61	6124
61	6124
61	6124
61	6124
61	6124
61	6124
61	6124
61	6124
61	6124
61	6124
62	6124
62	6124
62	6124
62	6124
64	6124
65	6124
68	6124
71	6124
79	6124
85	6124
86	6124
88	6124
89	6124
93	6124
95	6124
96	6124
102	6124
