14	6124
107	6124
108	6124
108	6124
108	6124
108	6124
108	6124
111	6124
198	6124
198	6124
198	6124
198	6124
198	6124
198	6124
198	6124
198	6124
198	6124
198	6124
198	6124
198	6124
198	6124
198	6124
198	6124
198	6124
198	6124
198	6124
198	6124
198	6124
198	6124
198	6124
198	6124
198	6124
198	6124
198	6124
198	6124
198	6124
198	6124
198	6124
198	6124
198	6124
198	6124
198	6124
198	6124
198	6124
198	6124
198	6124
198	6124
198	6124
198	6124
198	6124
198	6124
198	6124
198	6124
198	6124
198	6124
198	6124
198	6124
198	6124
198	6124
198	6124
198	6124
198	6124
198	6124
199	6124
199	6124
199	6124
199	6124
199	6124
199	6124
199	6124
199	6124
199	6124
199	6124
200	6124
200	6124
200	6124
200	6124
202	6124
204	6124
301	6124
