9	6124
115	6124
115	6124
116	6124
116	6124
117	6124
117	6124
117	6124
117	6124
120	6124
120	6124
123	6124
141	6124
141	6124
141	6124
141	6124
141	6124
141	6124
141	6124
141	6124
141	6124
141	6124
141	6124
141	6124
141	6124
141	6124
141	6124
141	6124
141	6124
141	6124
141	6124
141	6124
141	6124
141	6124
141	6124
141	6124
141	6124
141	6124
141	6124
141	6124
141	6124
141	6124
141	6124
141	6124
141	6124
141	6124
141	6124
141	6124
141	6124
141	6124
141	6124
141	6124
141	6124
141	6124
141	6124
141	6124
141	6124
141	6124
141	6124
141	6124
141	6124
141	6124
141	6124
141	6124
142	6124
142	6124
142	6124
142	6124
142	6124
142	6124
142	6124
142	6124
142	6124
142	6124
142	6124
142	6124
142	6124
142	6124
142	6124
142	6124
142	6124
143	6124
143	6124
143	6124
143	6124
143	6124
143	6124
143	6124
143	6124
143	6124
144	6124
144	6124
144	6124
144	6124
144	6124
145	6124
145	6124
146	6124
146	6124
147	6124
150	6124
