7	6124
11	6124
11	6124
12	6124
12	6124
14	6124
21	6124
21	6124
22	6124
23	6124
39	6124
40	6124
41	6124
41	6124
69	6124
70	6124
71	6124
71	6124
71	6124
71	6124
72	6124
72	6124
72	6124
74	6124
77	6124
83	6124
135	6124
135	6124
135	6124
135	6124
135	6124
135	6124
135	6124
135	6124
135	6124
135	6124
135	6124
135	6124
135	6124
135	6124
135	6124
135	6124
135	6124
135	6124
135	6124
135	6124
135	6124
135	6124
135	6124
135	6124
135	6124
136	6124
136	6124
136	6124
137	6124
137	6124
137	6124
137	6124
138	6124
138	6124
138	6124
138	6124
139	6124
140	6124
200	6124
