8	6124
9	6124
9	6124
12	6124
12	6124
12	6124
13	6124
13	6124
14	6124
14	6124
14	6124
14	6124
15	6124
15	6124
16	6124
16	6124
16	6124
17	6124
17	6124
17	6124
18	6124
18	6124
19	6124
20	6124
20	6124
21	6124
21	6124
22	6124
22	6124
22	6124
23	6124
23	6124
24	6124
24	6124
24	6124
24	6124
26	6124
26	6124
27	6124
71	6124
71	6124
71	6124
71	6124
71	6124
72	6124
73	6124
73	6124
73	6124
74	6124
75	6124
76	6124
77	6124
78	6124
79	6124
79	6124
80	6124
81	6124
83	6124
