7	6124
10	6124
18	6124
22	6124
90	6124
90	6124
90	6124
91	6124
91	6124
91	6124
91	6124
92	6124
92	6124
92	6124
93	6124
94	6124
94	6124
95	6124
95	6124
97	6124
103	6124
104	6124
184	6124
184	6124
184	6124
184	6124
184	6124
184	6124
184	6124
184	6124
184	6124
184	6124
184	6124
184	6124
184	6124
184	6124
184	6124
184	6124
185	6124
185	6124
185	6124
185	6124
185	6124
186	6124
186	6124
186	6124
186	6124
187	6124
187	6124
188	6124
188	6124
189	6124
189	6124
191	6124
197	6124
198	6124
