11	6124
12	6124
13	6124
15	6124
19	6124
21	6124
24	6124
36	6124
36	6124
37	6124
37	6124
37	6124
38	6124
208	6124
208	6124
208	6124
208	6124
208	6124
208	6124
208	6124
208	6124
208	6124
208	6124
208	6124
209	6124
209	6124
209	6124
209	6124
209	6124
209	6124
209	6124
209	6124
209	6124
210	6124
210	6124
210	6124
210	6124
211	6124
212	6124
212	6124
214	6124
214	6124
217	6124
219	6124
224	6124
