22	6124
142	6124
142	6124
142	6124
143	6124
143	6124
143	6124
143	6124
143	6124
143	6124
143	6124
143	6124
143	6124
143	6124
143	6124
143	6124
143	6124
143	6124
143	6124
143	6124
144	6124
144	6124
144	6124
144	6124
144	6124
144	6124
145	6124
145	6124
145	6124
146	6124
146	6124
146	6124
147	6124
147	6124
147	6124
148	6124
153	6124
153	6124
153	6124
153	6124
153	6124
153	6124
153	6124
153	6124
153	6124
153	6124
153	6124
153	6124
153	6124
153	6124
153	6124
153	6124
153	6124
153	6124
153	6124
153	6124
153	6124
153	6124
153	6124
153	6124
153	6124
153	6124
153	6124
153	6124
153	6124
153	6124
153	6124
153	6124
153	6124
153	6124
153	6124
153	6124
153	6124
153	6124
153	6124
153	6124
153	6124
153	6124
153	6124
153	6124
153	6124
153	6124
153	6124
153	6124
153	6124
154	6124
154	6124
154	6124
154	6124
154	6124
154	6124
154	6124
154	6124
154	6124
154	6124
154	6124
154	6124
154	6124
154	6124
154	6124
155	6124
155	6124
155	6124
155	6124
156	6124
156	6124
156	6124
157	6124
157	6124
157	6124
158	6124
159	6124
166	6124
