5	6124
7	6124
9	6124
12	6124
13	6124
15	6124
124	6124
124	6124
124	6124
124	6124
125	6124
125	6124
125	6124
125	6124
125	6124
125	6124
125	6124
126	6124
126	6124
126	6124
127	6124
128	6124
129	6124
131	6124
144	6124
144	6124
144	6124
144	6124
144	6124
144	6124
144	6124
144	6124
144	6124
144	6124
144	6124
144	6124
144	6124
144	6124
144	6124
144	6124
144	6124
144	6124
144	6124
144	6124
144	6124
144	6124
144	6124
144	6124
144	6124
144	6124
144	6124
144	6124
144	6124
144	6124
144	6124
144	6124
144	6124
144	6124
144	6124
144	6124
144	6124
144	6124
144	6124
144	6124
144	6124
144	6124
144	6124
144	6124
144	6124
144	6124
144	6124
144	6124
144	6124
144	6124
144	6124
144	6124
144	6124
144	6124
144	6124
144	6124
144	6124
144	6124
145	6124
145	6124
145	6124
146	6124
146	6124
147	6124
148	6124
