9	6124
11	6124
11	6124
11	6124
12	6124
12	6124
12	6124
12	6124
13	6124
13	6124
13	6124
13	6124
15	6124
40	6124
41	6124
41	6124
41	6124
42	6124
42	6124
42	6124
43	6124
43	6124
43	6124
43	6124
44	6124
44	6124
45	6124
46	6124
