7	6124
10	6124
10	6124
10	6124
11	6124
12	6124
12	6124
12	6124
13	6124
13	6124
14	6124
15	6124
15	6124
16	6124
16	6124
16	6124
17	6124
17	6124
18	6124
19	6124
20	6124
40	6124
40	6124
40	6124
40	6124
40	6124
41	6124
41	6124
41	6124
41	6124
42	6124
42	6124
42	6124
42	6124
42	6124
42	6124
43	6124
44	6124
45	6124
45	6124
49	6124
51	6124
52	6124
52	6124
52	6124
52	6124
52	6124
52	6124
52	6124
53	6124
53	6124
53	6124
54	6124
54	6124
54	6124
55	6124
55	6124
55	6124
56	6124
59	6124
87	6124
