7	6124
11	6124
11	6124
12	6124
13	6124
13	6124
13	6124
13	6124
14	6124
14	6124
15	6124
15	6124
15	6124
16	6124
16	6124
17	6124
57	6124
57	6124
57	6124
58	6124
58	6124
58	6124
58	6124
58	6124
58	6124
59	6124
60	6124
60	6124
60	6124
62	6124
63	6124
66	6124
