8	6124
10	6124
11	6124
11	6124
12	6124
14	6124
15	6124
15	6124
16	6124
17	6124
17	6124
17	6124
17	6124
17	6124
18	6124
18	6124
30	6124
30	6124
30	6124
30	6124
31	6124
31	6124
32	6124
32	6124
33	6124
37	6124
38	6124
