6	6124
9	6124
11	6124
14	6124
15	6124
15	6124
15	6124
15	6124
16	6124
16	6124
16	6124
18	6124
40	6124
40	6124
40	6124
40	6124
40	6124
40	6124
41	6124
41	6124
42	6124
43	6124
43	6124
44	6124
44	6124
45	6124
50	6124
51	6124
