# persistence landscape
# X Y
"layer 0:"
-inf 0
0.0589678 0
0.0600588 0.00109107
0.0611499 0
0.0693573 0
0.0705933 0.001236
0.0718293 0
0.0868884 0
0.0962592 0.00937083
0.10563 0
0.113115 0
0.125291 0.0121759
0.130471 0.00699582
0.137205 0.0137293
0.137833 0.0131014
0.138342 0.0136112
0.146363 0.00559094
0.15156 0.0107878
0.15225 0.0100973
0.189287 0.0471345
0.190575 0.0458472
0.249087 0.10436
0.353447 0
inf 0


"layer 1:"
-inf 0
0.0875224 0
0.0937032 0.00618077
0.0998839 0
0.101268 0
0.10227 0.00100175
0.103271 0
0.103797 0
0.104169 0.000371136
0.10454 0
0.123476 0
0.130471 0.00699582
0.131099 0.006368
0.137833 0.0131014
0.145853 0.0050812
0.146363 0.00559094
0.147053 0.00490042
0.15225 0.0100973
0.153429 0.00891811
0.15382 0.0093085
0.153928 0.00920042
0.190575 0.0458472
0.192568 0.0438535
0.251052 0.102337
0.353389 0
inf 0


"layer 2:"
-inf 0
0.0928981 0
0.0941463 0.00124825
0.0953945 0
0.124731 0
0.131099 0.006368
0.13279 0.00467698
0.135879 0.00776546
0.142208 0.00143624
0.145853 0.0050812
0.146543 0.00439068
0.147053 0.00490042
0.148232 0.00372121
0.153429 0.00891811
0.153537 0.00881003
0.153928 0.00920042
0.155261 0.00786707
0.168491 0.0210973
0.169013 0.0205761
0.182506 0.0340694
0.182604 0.0339711
0.186308 0.0376749
0.186349 0.0376341
0.192568 0.0438535
0.194859 0.0415628
0.197436 0.0441398
0.204372 0.0372033
0.257481 0.0903123
0.347794 0
inf 0


"layer 3:"
-inf 0
0.125077 0
0.12686 0.00178248
0.128378 0.000264569
0.13279 0.00467698
0.137467 0
0.140772 0
0.142208 0.00143624
0.14227 0.00137466
0.143056 0.00216142
0.143685 0.00153248
0.146543 0.00439068
0.147723 0.00321147
0.148232 0.00372121
0.14834 0.00361313
0.153537 0.00881003
0.154871 0.00747668
0.155261 0.00786707
0.155782 0.00734584
0.169013 0.0205761
0.169111 0.0204777
0.182604 0.0339711
0.182645 0.0339303
0.186349 0.0376341
0.18864 0.0353434
0.194859 0.0415628
0.201795 0.0346263
0.204372 0.0372033
0.209841 0.0317348
0.237543 0.0594365
0.23898 0.0579988
0.255138 0.0741566
0.298647 0.0306481
0.30206 0.0340613
0.328059 0.00806195
0.331408 0.0114102
0.342818 0
inf 0


"layer 4:"
-inf 0
0.128113 0
0.128378 0.000264569
0.128642 0
0.134314 0
0.135673 0.00135922
0.137033 0
0.140895 0
0.14227 0.00137466
0.142898 0.000745723
0.143685 0.00153248
0.144864 0.000353274
0.147723 0.00321147
0.147831 0.00310339
0.14834 0.00361313
0.148349 0.0036047
0.149395 0.00465036
0.150719 0.00332544
0.154871 0.00747668
0.155392 0.00695545
0.155782 0.00734584
0.155881 0.00724747
0.169111 0.0204777
0.169152 0.020437
0.182645 0.0339303
0.184936 0.0316396
0.18864 0.0353434
0.191236 0.0327465
0.196552 0.0380617
0.200891 0.0337222
0.201795 0.0346263
0.207264 0.0291578
0.209841 0.0317348
0.210981 0.0305948
0.212028 0.0316416
0.212325 0.0313439
0.23898 0.0579988
0.242977 0.0540017
0.253094 0.0641189
0.25377 0.0634431
0.256248 0.0659206
0.256915 0.0652532
0.257022 0.0653595
0.29519 0.0271913
0.298647 0.0306481
0.324646 0.00464874
0.328059 0.00806195
0.336121 0
inf 0


"layer 5:"
-inf 0
0.135091 0
0.135537 0.000445905
0.135983 0
0.142153 0
0.142898 0.000745723
0.143644 0
0.144511 0
0.144864 0.000353274
0.144973 0.000245196
0.147831 0.00310339
0.147839 0.00309496
0.148349 0.0036047
0.149674 0.00227978
0.150719 0.00332544
0.151241 0.00280421
0.155392 0.00695545
0.15549 0.00685708
0.155881 0.00724747
0.155921 0.00720671
0.169152 0.020437
0.170915 0.0186732
0.179611 0.0273691
0.180138 0.0268421
0.184936 0.0316396
0.187533 0.0290427
0.191236 0.0327465
0.195576 0.0284069
0.200891 0.0337222
0.201411 0.0332022
0.20177 0.0335611
0.206719 0.0286126
0.207264 0.0291578
0.208404 0.0280178
0.210981 0.0305948
0.211279 0.0302971
0.212325 0.0313439
0.214638 0.0290317
0.223485 0.0378792
0.22517 0.0361944
0.242977 0.0540017
0.243653 0.0533259
0.25377 0.0634431
0.254438 0.0627757
0.256915 0.0652532
0.295084 0.027085
0.29519 0.0271913
0.321189 0.00119187
0.324646 0.00464874
0.329295 0
inf 0


"layer 6:"
-inf 0
0.144727 0
0.144973 0.000245196
0.144981 0.000236765
0.147839 0.00309496
0.149164 0.00177004
0.149674 0.00227978
0.150195 0.00175855
0.151241 0.00280421
0.151339 0.00270584
0.15549 0.00685708
0.155531 0.00681632
0.155921 0.00720671
0.156898 0.0062304
0.167508 0.0168408
0.168296 0.0160534
0.170915 0.0186732
0.171442 0.0181463
0.180138 0.0268421
0.182735 0.0242452
0.187533 0.0290427
0.191872 0.0247031
0.195576 0.0284069
0.196096 0.0278869
0.201411 0.0332022
0.20636 0.0282537
0.206719 0.0286126
0.207859 0.0274726
0.208404 0.0280178
0.208702 0.0277201
0.211279 0.0302971
0.213591 0.0279849
0.214638 0.0290317
0.216322 0.0273469
0.22517 0.0361944
0.225846 0.0355186
0.243653 0.0533259
0.244321 0.0526585
0.254438 0.0627757
0.292606 0.0246074
0.295084 0.027085
0.321083 0.00108558
0.321189 0.00119187
0.322381 0
0.325496 0
0.326941 0.00144502
0.328386 0
inf 0


"layer 7:"
-inf 0
0.144744 0
0.144981 0.000236765
0.145218 0
0.145393 0
0.146031 0.000637157
0.146668 0
0.147394 0
0.149164 0.00177004
0.149685 0.00124881
0.150195 0.00175855
0.150293 0.00166018
0.151339 0.00270584
0.15138 0.00266508
0.155531 0.00681632
0.156507 0.00584001
0.156898 0.0062304
0.156921 0.00620715
0.165782 0.0150684
0.166546 0.0143042
0.168296 0.0160534
0.168823 0.0155264
0.171442 0.0181463
0.174039 0.0155494
0.182735 0.0242452
0.183127 0.0238538
0.18529 0.0260172
0.187362 0.0239456
0.187715 0.0242994
0.189592 0.0224228
0.191872 0.0247031
0.192392 0.0241831
0.196096 0.0278869
0.201045 0.0229384
0.20636 0.0282537
0.2075 0.0271137
0.207859 0.0274726
0.208156 0.0271749
0.208702 0.0277201
0.211014 0.0254079
0.213591 0.0279849
0.215276 0.0263001
0.216322 0.0273469
0.216998 0.0266711
0.225846 0.0355186
0.226513 0.0348512
0.244321 0.0526585
0.255264 0.0417154
0.262636 0.0490875
0.289861 0.0218624
0.292606 0.0246074
0.317213 0
0.319997 0
0.321083 0.00108558
0.322169 0
inf 0


"layer 8:"
-inf 0
0.148437 0
0.149685 0.00124881
0.149784 0.00115044
0.150293 0.00166018
0.150334 0.00161942
0.15138 0.00266508
0.152356 0.00168878
0.156507 0.00584001
0.156531 0.00581675
0.156921 0.00620715
0.157253 0.00587491
0.157467 0.00608835
0.157899 0.0056564
0.166546 0.0143042
0.167073 0.0137772
0.168823 0.0155264
0.171419 0.0129295
0.174039 0.0155494
0.174297 0.0152921
0.174668 0.0156637
0.174802 0.0155295
0.183127 0.0238538
0.184155 0.022825
0.18492 0.0235893
0.185963 0.0225465
0.187362 0.0239456
0.189238 0.022069
0.189592 0.0224228
0.190022 0.0219929
0.190649 0.0226202
0.190739 0.0225301
0.192392 0.0241831
0.197341 0.0192346
0.201045 0.0229384
0.202185 0.0217984
0.2075 0.0271137
0.207798 0.026816
0.208156 0.0271749
0.210469 0.0248626
0.211014 0.0254079
0.212699 0.0237231
0.215276 0.0263001
0.215952 0.0256243
0.216998 0.0266711
0.217666 0.0260037
0.226513 0.0348512
0.233466 0.0278981
0.233916 0.0283477
0.237906 0.0243576
0.255264 0.0417154
0.282489 0.0144903
0.289861 0.0218624
0.304591 0.00713192
0.306198 0.00873883
0.314937 0
inf 0


"layer 9:"
-inf 0
0.148633 0
0.149784 0.00115044
0.149824 0.00110968
0.150334 0.00161942
0.15131 0.000643115
0.152356 0.00168878
0.152379 0.00166552
0.156531 0.00581675
0.156863 0.00548452
0.157253 0.00587491
0.157685 0.00544296
0.157899 0.0056564
0.158426 0.00512945
0.167073 0.0137772
0.16967 0.0111803
0.171419 0.0129295
0.171677 0.0126723
0.174297 0.0152921
0.174431 0.015158
0.174802 0.0155295
0.175831 0.0145007
0.184155 0.022825
0.185198 0.0217822
0.185963 0.0225465
0.187839 0.02067
0.189238 0.022069
0.189668 0.0216391
0.190022 0.0219929
0.190112 0.0219028
0.190739 0.0225301
0.195688 0.0175816
0.197341 0.0192346
0.198481 0.0180946
0.202185 0.0217984
0.202482 0.0215007
0.207798 0.026816
0.21011 0.0245037
0.210469 0.0248626
0.212153 0.0231778
0.212699 0.0237231
0.213375 0.0230473
0.215952 0.0256243
0.216619 0.0249569
0.217666 0.0260037
0.220181 0.0234884
0.226185 0.0294924
0.230623 0.0250546
0.233466 0.0278981
0.237456 0.023908
0.237906 0.0243576
0.262264 0
0.267999 0
0.282489 0.0144903
0.295146 0.0018336
0.297312 0.00400021
0.299386 0.00192638
0.304591 0.00713192
0.311723 0
inf 0


"layer 10:"
-inf 0
0.148715 0
0.149824 0.00110968
0.150801 0.000133376
0.15131 0.000643115
0.151334 0.000619857
0.152379 0.00166552
0.152712 0.00133328
0.156863 0.00548452
0.157295 0.00505257
0.157685 0.00544296
0.158212 0.00491601
0.158426 0.00512945
0.159125 0.00442995
0.159286 0.00459101
0.161184 0.00269359
0.16967 0.0111803
0.169928 0.0109231
0.171677 0.0126723
0.171811 0.0125381
0.174431 0.015158
0.17546 0.0141291
0.175831 0.0145007
0.176874 0.0134579
0.185198 0.0217822
0.187075 0.0199056
0.187839 0.02067
0.188269 0.0202401
0.189668 0.0216391
0.189758 0.021549
0.190112 0.0219028
0.195061 0.0169543
0.195688 0.0175816
0.196828 0.0164416
0.198481 0.0180946
0.198778 0.0177969
0.202482 0.0215007
0.204794 0.0191885
0.21011 0.0245037
0.211795 0.0228189
0.212153 0.0231778
0.212829 0.022502
0.213375 0.0230473
0.214042 0.0223799
0.216619 0.0249569
0.219134 0.0224417
0.220181 0.0234884
0.224619 0.0190506
0.230623 0.0250546
0.234613 0.0210645
0.237456 0.023908
0.261364 0
0.293312 0
0.295146 0.0018336
0.296979 0
0.29746 0
0.299386 0.00192638
0.301312 0
inf 0


"layer 11:"
-inf 0
0.150667 0
0.150801 0.000133376
0.150824 0.000110117
0.151334 0.000619857
0.151666 0.000287621
0.152712 0.00133328
0.153144 0.000901332
0.157295 0.00505257
0.157822 0.00452562
0.158212 0.00491601
0.158912 0.00421651
0.159125 0.00442995
0.161023 0.00253253
0.161184 0.00269359
0.161441 0.00243636
0.169928 0.0109231
0.170062 0.0107889
0.171811 0.0125381
0.17284 0.0115093
0.17546 0.0141291
0.176502 0.0130864
0.176874 0.0134579
0.17875 0.0115813
0.187075 0.0199056
0.187505 0.0194757
0.188269 0.0202401
0.188359 0.02015
0.189758 0.021549
0.194707 0.0166005
0.195061 0.0169543
0.1962 0.0158143
0.196828 0.0164416
0.197125 0.0161439
0.198778 0.0177969
0.201091 0.0154847
0.204794 0.0191885
0.206479 0.0175037
0.211795 0.0228189
0.21247 0.0221431
0.212829 0.022502
0.213497 0.0218346
0.214042 0.0223799
0.216557 0.0198646
0.219134 0.0224417
0.223572 0.0180038
0.224619 0.0190506
0.228609 0.0150605
0.234613 0.0210645
0.250097 0.00558075
0.251662 0.00714648
0.258809 0
inf 0


"layer 12:"
-inf 0
0.150714 0
0.150824 0.000110117
0.150934 0
0.151378 0
0.151666 0.000287621
0.151954 0
0.152242 0
0.153144 0.000901332
0.153671 0.000374386
0.157822 0.00452562
0.158521 0.00382612
0.158912 0.00421651
0.160809 0.00231909
0.161023 0.00253253
0.16128 0.00227529
0.161441 0.00243636
0.161575 0.00230223
0.170062 0.0107889
0.171009 0.00984169
0.172641 0.0114736
0.172722 0.011392
0.17284 0.0115093
0.173882 0.0104665
0.176502 0.0130864
0.178379 0.0112098
0.17875 0.0115813
0.17918 0.0111514
0.187505 0.0194757
0.187595 0.0193856
0.188359 0.02015
0.188761 0.0197479
0.189335 0.0203213
0.193881 0.0157748
0.194707 0.0166005
0.195847 0.0154605
0.1962 0.0158143
0.196498 0.0155166
0.197125 0.0161439
0.199438 0.0138317
0.201091 0.0154847
0.202776 0.0137999
0.206479 0.0175037
0.207155 0.0168279
0.21247 0.0221431
0.213138 0.0214757
0.213497 0.0218346
0.216012 0.0193194
0.216557 0.0198646
0.22092 0.015502
0.222301 0.0168832
0.222376 0.0168081
0.223572 0.0180038
0.227562 0.0140137
0.228609 0.0150605
0.237907 0.00576209
0.241241 0.00909615
0.247427 0.00291081
0.250097 0.00558075
0.251154 0.00452356
0.252502 0.00587158
0.258373 0
inf 0


"layer 13:"
-inf 0
0.153296 0
0.153671 0.000374386
0.154045 0
0.154695 0
0.158521 0.00382612
0.160419 0.0019287
0.160809 0.00231909
0.161066 0.00206186
0.16128 0.00227529
0.161414 0.00214117
0.161575 0.00230223
0.161675 0.00220241
0.161993 0.00252094
0.16268 0.00183444
0.164959 0.00411359
0.16512 0.00395266
0.171009 0.00984169
0.171091 0.00976009
0.172722 0.011392
0.173765 0.0103493
0.173882 0.0104665
0.173886 0.0104633
0.176126 0.0127034
0.177999 0.01083
0.178379 0.0112098
0.178809 0.0107799
0.17918 0.0111514
0.17927 0.0110613
0.187595 0.0193856
0.187997 0.0189835
0.188761 0.0197479
0.193308 0.0152015
0.193881 0.0157748
0.195021 0.0146349
0.195847 0.0154605
0.196144 0.0151628
0.196498 0.0155166
0.19881 0.0132044
0.199438 0.0138317
0.201122 0.0121468
0.202776 0.0137999
0.203451 0.0131241
0.207155 0.0168279
0.207822 0.0161605
0.213138 0.0214757
0.215653 0.0189605
0.216012 0.0193194
0.220375 0.0149567
0.22092 0.015502
0.220995 0.0154268
0.222376 0.0168081
0.226366 0.012818
0.227562 0.0140137
0.236861 0.00471532
0.237907 0.00576209
0.243669 0
0.244516 0
0.247427 0.00291081
0.248484 0.00185362
0.251154 0.00452356
0.255677 0
inf 0


"layer 14:"
-inf 0
0.15849 0
0.160419 0.0019287
0.160676 0.00167147
0.161066 0.00206186
0.1612 0.00192773
0.161414 0.00214117
0.161514 0.00204134
0.161675 0.00220241
0.162361 0.00151591
0.16268 0.00183444
0.162841 0.00167351
0.16512 0.00395266
0.165202 0.00387105
0.171091 0.00976009
0.172133 0.00871731
0.173765 0.0103493
0.173768 0.0103461
0.173886 0.0104633
0.175759 0.00858992
0.177999 0.01083
0.178429 0.0104
0.178809 0.0107799
0.178899 0.0106898
0.17927 0.0110613
0.179673 0.0106592
0.187997 0.0189835
0.189383 0.0175971
0.190067 0.018281
0.193227 0.015121
0.193308 0.0152015
0.194448 0.0140615
0.195021 0.0146349
0.195319 0.0143371
0.196144 0.0151628
0.198457 0.0128506
0.19881 0.0132044
0.200495 0.0115196
0.201122 0.0121468
0.201798 0.011471
0.203451 0.0131241
0.204119 0.0124567
0.207822 0.0161605
0.210338 0.0136452
0.215653 0.0189605
0.216083 0.0185301
0.216363 0.0188095
0.220295 0.0148773
0.220375 0.0149567
0.22045 0.0148816
0.220995 0.0154268
0.224985 0.0114367
0.226366 0.012818
0.233188 0.0059964
0.234032 0.00684028
0.236509 0.00436344
0.236861 0.00471532
0.241576 0
0.24663 0
0.248484 0.00185362
0.250337 0
0.250571 0
0.25205 0.00147811
0.253528 0
inf 0


"layer 15:"
-inf 0
0.159004 0
0.160676 0.00167147
0.16081 0.00153734
0.1612 0.00192773
0.1613 0.00182791
0.161514 0.00204134
0.1622 0.00135484
0.162361 0.00151591
0.162522 0.00135498
0.162841 0.00167351
0.162922 0.0015919
0.165202 0.00387105
0.166244 0.00282828
0.172133 0.00871731
0.172136 0.00871416
0.173768 0.0103461
0.175642 0.00847268
0.175759 0.00858992
0.176189 0.00816
0.178429 0.0104
0.178519 0.0103099
0.178899 0.0106898
0.179301 0.0102877
0.179673 0.0106592
0.180017 0.0103144
0.185822 0.0161194
0.186864 0.0150778
0.189383 0.0175971
0.192543 0.0144371
0.193227 0.015121
0.194367 0.0139811
0.194448 0.0140615
0.194745 0.0137638
0.195319 0.0143371
0.196506 0.0131497
0.196969 0.013613
0.198094 0.0124882
0.198457 0.0128506
0.200141 0.0111658
0.200495 0.0115196
0.201171 0.0108438
0.201798 0.011471
0.202466 0.0108036
0.204119 0.0124567
0.206634 0.00994146
0.210338 0.0136452
0.210768 0.0132148
0.216083 0.0185301
0.220016 0.0145978
0.220295 0.0148773
0.22037 0.0148021
0.22045 0.0148816
0.22444 0.0108915
0.224985 0.0114367
0.225611 0.0108104
0.225939 0.011138
0.232134 0.0049427
0.233188 0.0059964
0.235665 0.00351956
0.236509 0.00436344
0.240872 0
inf 0


"layer 16:"
-inf 0
0.159273 0
0.16081 0.00153734
0.16091 0.00143752
0.1613 0.00182791
0.161987 0.00114141
0.1622 0.00135484
0.162361 0.00119391
0.162522 0.00135498
0.162604 0.00127337
0.162922 0.0015919
0.163965 0.000549127
0.166244 0.00282828
0.166247 0.00282512
0.172136 0.00871416
0.173397 0.00745325
0.175015 0.00907077
0.175627 0.00845825
0.175642 0.00847268
0.176072 0.00804276
0.176189 0.00816
0.176279 0.00806991
0.178519 0.0103099
0.178921 0.00990787
0.179301 0.0102877
0.179646 0.00994286
0.180017 0.0103144
0.181059 0.00927277
0.186864 0.0150778
0.190024 0.0119178
0.192543 0.0144371
0.193683 0.0132971
0.194367 0.0139811
0.194665 0.0136833
0.194745 0.0137638
0.195933 0.0125763
0.196506 0.0131497
0.197631 0.0120249
0.198094 0.0124882
0.199779 0.0108034
0.200141 0.0111658
0.200817 0.0104899
0.201171 0.0108438
0.201456 0.0105592
0.20182 0.0109238
0.202203 0.010541
0.202466 0.0108036
0.204981 0.00828842
0.206634 0.00994146
0.207064 0.00951105
0.210768 0.0132148
0.2147 0.00928257
0.220016 0.0145978
0.220091 0.0145227
0.22037 0.0148021
0.22436 0.010812
0.22444 0.0108915
0.225066 0.0102652
0.225611 0.0108104
0.231807 0.00461514
0.232134 0.0049427
0.234611 0.00246586
0.235665 0.00351956
0.239184 0
inf 0


"layer 17:"
-inf 0
0.159472 0
0.16091 0.00143752
0.161596 0.000751015
0.161987 0.00114141
0.162148 0.000980476
0.162361 0.00119391
0.162443 0.00111231
0.162604 0.00127337
0.163647 0.000230596
0.163965 0.000549127
0.163968 0.000545971
0.166247 0.00282512
0.167508 0.00156422
0.173397 0.00745325
0.17401 0.00684074
0.175627 0.00845825
0.176057 0.00802834
0.176072 0.00804276
0.176162 0.00795266
0.176279 0.00806991
0.176681 0.00766783
0.178921 0.00990787
0.179266 0.00956304
0.179646 0.00994286
0.180687 0.00890123
0.181059 0.00927277
0.184219 0.0061128
0.190024 0.0119178
0.191089 0.0108525
0.192906 0.012669
0.192981 0.0125944
0.193683 0.0132971
0.193981 0.0129994
0.194665 0.0136833
0.195852 0.0124959
0.195933 0.0125763
0.197058 0.0114515
0.197631 0.0120249
0.199316 0.0103401
0.199779 0.0108034
0.200455 0.0101276
0.200817 0.0104899
0.201102 0.0102053
0.201456 0.0105592
0.201838 0.0101764
0.202203 0.010541
0.204718 0.0080258
0.204981 0.00828842
0.205411 0.00785801
0.207064 0.00951105
0.210997 0.00557878
0.2147 0.00928257
0.214776 0.0092074
0.220091 0.0145227
0.224081 0.0105326
0.22436 0.010812
0.224987 0.0101857
0.225066 0.0102652
0.231261 0.00406989
0.231807 0.00461514
0.234283 0.0021383
0.234611 0.00246586
0.237077 0
inf 0


"layer 18:"
-inf 0
0.160845 0
0.161596 0.000751015
0.161757 0.000590085
0.162148 0.000980476
0.162229 0.00089887
0.162443 0.00111231
0.163486 6.95341e-05
0.163647 0.000230596
0.16365 0.00022744
0.163968 0.000545971
0.164514 0
0.165944 0
0.167508 0.00156422
0.168121 0.000951706
0.17401 0.00684074
0.17444 0.00641082
0.176057 0.00802834
0.176147 0.00793824
0.176162 0.00795266
0.176564 0.00755059
0.176681 0.00766783
0.176876 0.007473
0.178561 0.00915767
0.178711 0.00900767
0.179266 0.00956304
0.180308 0.00852141
0.180687 0.00890123
0.183847 0.00574126
0.184219 0.0061128
0.185284 0.0050475
0.191089 0.0108525
0.191164 0.0107778
0.192981 0.0125944
0.193278 0.0122967
0.193981 0.0129994
0.195168 0.0118119
0.195852 0.0124959
0.196977 0.0113711
0.197058 0.0114515
0.198742 0.00976673
0.199316 0.0103401
0.199992 0.00966429
0.200455 0.0101276
0.200739 0.00984298
0.201102 0.0102053
0.201485 0.00982255
0.201838 0.0101764
0.204354 0.00766117
0.204718 0.0080258
0.205149 0.00759539
0.205411 0.00785801
0.208129 0.00514011
0.208464 0.00547457
0.209678 0.0042602
0.210997 0.00557878
0.211072 0.00550361
0.214776 0.0092074
0.218766 0.0052173
0.224081 0.0105326
0.224707 0.00990629
0.224987 0.0101857
0.231182 0.00399044
0.231261 0.00406989
0.233738 0.00159305
0.234283 0.0021383
0.236422 0
inf 0


"layer 19:"
-inf 0
0.161167 0
0.161757 0.000590085
0.161839 0.000508479
0.162229 0.00089887
0.163128 0
0.163416 0
0.163486 6.95341e-05
0.163489 6.63772e-05
0.16365 0.00022744
0.163877 0
0.167169 0
0.168121 0.000951706
0.168551 0.000521789
0.17444 0.00641082
0.17453 0.00632072
0.176147 0.00793824
0.176549 0.00753616
0.176564 0.00755059
0.176759 0.00735576
0.176876 0.007473
0.177026 0.007323
0.178711 0.00900767
0.179752 0.00796603
0.180308 0.00852141
0.183468 0.00536144
0.183847 0.00574126
0.184913 0.00467597
0.185284 0.0050475
0.185359 0.00497283
0.191164 0.0107778
0.191462 0.0104801
0.193278 0.0122967
0.193811 0.0117634
0.193876 0.0118274
0.19453 0.0111732
0.195168 0.0118119
0.196293 0.0106872
0.196977 0.0113711
0.198662 0.00968631
0.198742 0.00976673
0.199232 0.00927695
0.199721 0.0097659
0.199907 0.00957987
0.199992 0.00966429
0.200276 0.00937966
0.200739 0.00984298
0.201122 0.00946022
0.201485 0.00982255
0.204 0.00730733
0.204354 0.00766117
0.204784 0.00723076
0.205149 0.00759539
0.207867 0.00487749
0.208129 0.00514011
0.209344 0.00392574
0.209678 0.0042602
0.209753 0.00418503
0.211072 0.00550361
0.21132 0.00525572
0.211384 0.00532006
0.214685 0.00201881
0.216252 0.00358538
0.216693 0.00314443
0.218766 0.0052173
0.219392 0.00459104
0.224707 0.00990629
0.230902 0.00371099
0.231182 0.00399044
0.233659 0.0015136
0.233738 0.00159305
0.235331 0
inf 0


"layer 20:"
-inf 0
0.16133 0
0.161839 0.000508479
0.162347 0
0.163422 0
0.163489 6.63772e-05
0.163555 0
0.168029 0
0.168551 0.000521789
0.168578 0.000494474
0.168664 0.000580351
0.168727 0.00051757
0.17453 0.00632072
0.174932 0.00591865
0.176549 0.00753616
0.176744 0.00734134
0.176759 0.00735576
0.176909 0.00720576
0.177026 0.007323
0.178068 0.00628137
0.179752 0.00796603
0.182912 0.00480607
0.183468 0.00536144
0.184533 0.00429614
0.184913 0.00467597
0.184987 0.00460129
0.185359 0.00497283
0.185657 0.00467512
0.191462 0.0104801
0.191995 0.00994685
0.193811 0.0117634
0.194466 0.0111092
0.19453 0.0111732
0.195654 0.0100485
0.196293 0.0106872
0.197978 0.00900239
0.198662 0.00968631
0.199152 0.00919653
0.199232 0.00927695
0.199418 0.00909092
0.199907 0.00957987
0.200192 0.00929523
0.200276 0.00937966
0.200659 0.0089969
0.201122 0.00946022
0.203637 0.006945
0.204 0.00730733
0.20443 0.00687692
0.204784 0.00723076
0.207502 0.00451287
0.207867 0.00487749
0.209081 0.00366312
0.209344 0.00392574
0.209419 0.00385057
0.209753 0.00418503
0.210001 0.00393713
0.21132 0.00525572
0.214621 0.00195446
0.214685 0.00201881
0.215126 0.00157786
0.216693 0.00314443
0.217319 0.00251817
0.219392 0.00459104
0.223983 0
0.227192 0
0.230902 0.00371099
0.233379 0.00123415
0.233659 0.0015136
0.235172 0
inf 0


"layer 21:"
-inf 0
0.168084 0
0.168578 0.000494474
0.168641 0.000431693
0.168727 0.00051757
0.169129 0.000115492
0.174932 0.00591865
0.175127 0.00572382
0.176744 0.00734134
0.176894 0.00719133
0.176909 0.00720576
0.17795 0.00616413
0.178068 0.00628137
0.181228 0.0031214
0.182912 0.00480607
0.183978 0.00374077
0.184533 0.00429614
0.184608 0.00422147
0.184987 0.00460129
0.185285 0.00430358
0.185657 0.00467512
0.18619 0.00414184
0.191995 0.00994685
0.192649 0.00929264
0.194466 0.0111092
0.19559 0.00998443
0.195654 0.0100485
0.197339 0.00836367
0.197978 0.00900239
0.198468 0.00851261
0.199152 0.00919653
0.199338 0.00901049
0.199418 0.00909092
0.199703 0.00880628
0.200192 0.00929523
0.200575 0.00891248
0.200659 0.0089969
0.203174 0.00648168
0.203637 0.006945
0.204068 0.00651459
0.20443 0.00687692
0.204584 0.00672297
0.204905 0.00704334
0.207468 0.00447939
0.207502 0.00451287
0.208716 0.0032985
0.209081 0.00366312
0.209156 0.00358795
0.209419 0.00385057
0.209667 0.00360267
0.210001 0.00393713
0.213302 0.00063588
0.214621 0.00195446
0.215062 0.00151351
0.215126 0.00157786
0.215752 0.000951596
0.217319 0.00251817
0.219837 0
0.230385 0
0.232068 0.00168345
0.232948 0.000803173
0.233379 0.00123415
0.234613 0
inf 0


"layer 22:"
-inf 0
0.168209 0
0.168641 0.000431693
0.169043 2.96152e-05
0.169129 0.000115492
0.169244 0
0.169403 0
0.175127 0.00572382
0.175277 0.00557382
0.176894 0.00719133
0.177936 0.0061497
0.17795 0.00616413
0.18111 0.00300416
0.181228 0.0031214
0.182293 0.0020561
0.183978 0.00374077
0.184052 0.00366609
0.184608 0.00422147
0.184905 0.00392376
0.185285 0.00430358
0.185818 0.0037703
0.18619 0.00414184
0.186392 0.00394029
0.18915 0.00669838
0.189602 0.00624572
0.192649 0.00929264
0.193774 0.0081679
0.19559 0.00998443
0.197275 0.00829962
0.197339 0.00836367
0.197829 0.00787389
0.198468 0.00851261
0.198654 0.00832657
0.199338 0.00901049
0.199622 0.00872586
0.199703 0.00880628
0.200086 0.00842353
0.200575 0.00891248
0.20309 0.00639725
0.203174 0.00648168
0.203605 0.00605127
0.204068 0.00651459
0.204222 0.00636064
0.204584 0.00672297
0.207148 0.00415902
0.207468 0.00447939
0.208683 0.00326502
0.208716 0.0032985
0.208792 0.00322333
0.209156 0.00358795
0.209404 0.00334006
0.209667 0.00360267
0.212968 0.00030142
0.213302 0.00063588
0.213743 0.000194931
0.215062 0.00151351
0.215688 0.000887252
0.215752 0.000951596
0.216704 0
0.232145 0
0.232948 0.000803173
0.233752 0
inf 0


"layer 23:"
-inf 0
0.169013 0
0.169043 2.96152e-05
0.169073 0
0.169703 0
0.175277 0.00557382
0.176318 0.00453219
0.177936 0.0061497
0.181096 0.00298973
0.18111 0.00300416
0.182176 0.00193886
0.182293 0.0020561
0.182368 0.00198143
0.184052 0.00366609
0.18435 0.00336838
0.184905 0.00392376
0.185439 0.00339048
0.185818 0.0037703
0.18602 0.00356875
0.186392 0.00394029
0.186844 0.00348763
0.189602 0.00624572
0.190727 0.00512098
0.193774 0.0081679
0.195459 0.00648309
0.197275 0.00829962
0.197765 0.00780984
0.197829 0.00787389
0.198015 0.00768786
0.198654 0.00832657
0.198938 0.00804194
0.199622 0.00872586
0.200005 0.00834311
0.200086 0.00842353
0.202601 0.0059083
0.20309 0.00639725
0.20352 0.00596684
0.203605 0.00605127
0.203759 0.00589732
0.204222 0.00636064
0.206786 0.00379669
0.207148 0.00415902
0.208362 0.00294465
0.208683 0.00326502
0.208758 0.00318985
0.208792 0.00322333
0.209039 0.00297543
0.209404 0.00334006
0.212705 3.88048e-05
0.212968 0.00030142
0.213269 0
0.213548 0
0.213743 0.000194931
0.213938 0
0.214801 0
0.215688 0.000887252
0.216575 0
inf 0


"layer 24:"
-inf 0
0.171786 0
0.176318 0.00453219
0.176422 0.00442885
0.177431 0.00543833
0.180488 0.0023817
0.181096 0.00298973
0.182161 0.00192444
0.182176 0.00193886
0.18225 0.00186418
0.182368 0.00198143
0.182665 0.00168372
0.18435 0.00336838
0.184883 0.0028351
0.185439 0.00339048
0.18564 0.00318893
0.18602 0.00356875
0.186473 0.0031161
0.186844 0.00348763
0.187969 0.00236289
0.190727 0.00512098
0.192412 0.00343617
0.195459 0.00648309
0.195948 0.00599331
0.197765 0.00780984
0.197951 0.00762381
0.198015 0.00768786
0.1983 0.00740322
0.198938 0.00804194
0.199321 0.00765919
0.200005 0.00834311
0.20252 0.00582788
0.202601 0.0059083
0.203031 0.00547789
0.20352 0.00596684
0.203674 0.0058129
0.203759 0.00589732
0.206322 0.00333337
0.206786 0.00379669
0.208 0.00258232
0.208362 0.00294465
0.208438 0.00286948
0.208758 0.00318985
0.209006 0.00294195
0.209039 0.00297543
0.212015 0
0.212666 0
0.212705 3.88048e-05
0.212744 0
inf 0


"layer 25:"
-inf 0
0.171993 0
0.176422 0.00442885
0.179478 0.00137222
0.180488 0.0023817
0.181553 0.0013164
0.182161 0.00192444
0.182236 0.00184976
0.18225 0.00186418
0.182548 0.00156647
0.182665 0.00168372
0.183199 0.00115044
0.184883 0.0028351
0.185085 0.00263355
0.18564 0.00318893
0.186093 0.00273627
0.186473 0.0031161
0.187597 0.00199135
0.187969 0.00236289
0.189654 0.000678082
0.192412 0.00343617
0.192902 0.00294639
0.195948 0.00599331
0.196135 0.00580728
0.197951 0.00762381
0.198236 0.00733917
0.1983 0.00740322
0.198682 0.00702047
0.199321 0.00765919
0.201836 0.00514396
0.20252 0.00582788
0.202951 0.00539747
0.203031 0.00547789
0.203185 0.00532395
0.203674 0.0058129
0.206238 0.00324894
0.206322 0.00333337
0.207537 0.002119
0.208 0.00258232
0.208075 0.00250715
0.208438 0.00286948
0.208686 0.00262158
0.209006 0.00294195
0.211948 0
inf 0


"layer 26:"
-inf 0
0.174065 0
0.177014 0.00294986
0.179035 0.000929031
0.179478 0.00137222
0.180544 0.000306919
0.181553 0.0013164
0.181628 0.00124172
0.182236 0.00184976
0.182534 0.00155205
0.182548 0.00156647
0.183081 0.00103319
0.183199 0.00115044
0.1834 0.000948884
0.185085 0.00263355
0.185537 0.0021809
0.186093 0.00273627
0.187218 0.00161153
0.187597 0.00199135
0.189282 0.000306545
0.189654 0.000678082
0.190143 0.000188302
0.192902 0.00294639
0.193088 0.00276036
0.196135 0.00580728
0.196419 0.00552264
0.198236 0.00733917
0.198618 0.00695642
0.198682 0.00702047
0.201198 0.00450524
0.201836 0.00514396
0.202267 0.00471355
0.202951 0.00539747
0.203105 0.00524352
0.203185 0.00532395
0.205749 0.00275999
0.206238 0.00324894
0.207452 0.00203458
0.207537 0.002119
0.207612 0.00204383
0.208075 0.00250715
0.208323 0.00225925
0.208686 0.00262158
0.211307 0
inf 0


"layer 27:"
-inf 0
0.174394 0
0.174456 6.2657e-05
0.174519 0
0.175583 0
0.176448 0.000864746
0.177312 0
0.178106 0
0.179035 0.000929031
0.179964 0
0.180237 0
0.180544 0.000306919
0.180618 0.000232243
0.181628 0.00124172
0.181926 0.000944011
0.182534 0.00155205
0.183067 0.00101877
0.183081 0.00103319
0.183283 0.000831641
0.1834 0.000948884
0.183853 0.000496233
0.185537 0.0021809
0.186662 0.00105615
0.187218 0.00161153
0.188829 0
0.188976 0
0.189282 0.000306545
0.189589 0
0.189955 0
0.190143 0.000188302
0.19033 2.26803e-06
0.193088 0.00276036
0.193372 0.00247572
0.196419 0.00552264
0.196802 0.00513989
0.198618 0.00695642
0.201134 0.00444119
0.201198 0.00450524
0.201628 0.00407483
0.202267 0.00471355
0.202421 0.0045596
0.203105 0.00524352
0.205669 0.00267957
0.205749 0.00275999
0.206963 0.00154562
0.207452 0.00203458
0.207528 0.00195941
0.207612 0.00204383
0.20786 0.00179593
0.208323 0.00225925
0.210582 0
inf 0


"layer 28:"
-inf 0
0.180386 0
0.180618 0.000232243
0.18065 0.000200576
0.180764 0.000314983
0.18103 4.89401e-05
0.181926 0.000944011
0.182459 0.000410733
0.183067 0.00101877
0.183268 0.000817218
0.183283 0.000831641
0.183736 0.000378989
0.183853 0.000496233
0.184349 0
0.185606 0
0.186662 0.00105615
0.187718 0
0.190327 0
0.19033 2.26803e-06
0.190332 0
0.190897 0
0.193372 0.00247572
0.193755 0.00209297
0.196802 0.00513989
0.199317 0.00262466
0.201134 0.00444119
0.201564 0.00401078
0.201628 0.00407483
0.201782 0.00392089
0.202421 0.0045596
0.204985 0.00199565
0.205669 0.00267957
0.206883 0.0014652
0.206963 0.00154562
0.207039 0.00147045
0.207528 0.00195941
0.207775 0.00171151
0.20786 0.00179593
0.209656 0
inf 0


"layer 29:"
-inf 0
0.180449 0
0.18065 0.000200576
0.180851 0
0.180982 0
0.18103 4.89401e-05
0.181079 0
0.182048 0
0.182459 0.000410733
0.18266 0.000209181
0.183268 0.000817218
0.183721 0.000364566
0.183736 0.000378989
0.184114 0
0.191662 0
0.193755 0.00209297
0.195323 0.000524869
0.197299 0.00250113
0.198246 0.00155401
0.199317 0.00262466
0.199748 0.00219425
0.201564 0.00401078
0.201718 0.00385684
0.201782 0.00392089
0.204346 0.00135693
0.204985 0.00199565
0.206199 0.00078128
0.206883 0.0014652
0.206958 0.00139003
0.207039 0.00147045
0.207287 0.00122256
0.207775 0.00171151
0.209487 0
inf 0


"layer 30:"
-inf 0
0.182451 0
0.18266 0.000209181
0.18287 0
0.183357 0
0.183721 0.000364566
0.184086 0
0.194798 0
0.195323 0.000524869
0.195848 0
0.196692 0
0.198246 0.00155401
0.198677 0.0011236
0.199748 0.00219425
0.199901 0.00204031
0.201718 0.00385684
0.204282 0.00129288
0.204346 0.00135693
0.20556 0.000142564
0.206199 0.00078128
0.206274 0.000706111
0.206958 0.00139003
0.207206 0.00114213
0.207287 0.00122256
0.208509 0
inf 0


"layer 31:"
-inf 0
0.197553 0
0.198677 0.0011236
0.198831 0.000969653
0.199901 0.00204031
0.201942 0
0.202989 0
0.204282 0.00129288
0.205496 7.85136e-05
0.20556 0.000142564
0.205636 6.73956e-05
0.206274 0.000706111
0.206522 0.000458216
0.207206 0.00114213
0.208348 0
inf 0


"layer 32:"
-inf 0
0.197861 0
0.198831 0.000969653
0.1998 0
0.205418 0
0.205496 7.85136e-05
0.205572 3.34505e-06
0.205636 6.73956e-05
0.205643 5.99649e-05
0.205864 0.000281376
0.206105 4.09113e-05
0.206522 0.000458216
0.20698 0
inf 0


"layer 33:"
-inf 0
0.205568 0
0.205572 3.34505e-06
0.205575 0
0.205583 0
0.205643 5.99649e-05
0.205703 0
0.206064 0
0.206105 4.09113e-05
0.206146 0
inf 0


