# persistence landscape
# X Y
"layer 0:"
-inf 0
0.0806888 0
0.0818765 0.00118777
0.0830643 0
0.0835219 0
0.0857496 0.00222769
0.0879773 0
0.109111 0
0.137775 0.0286636
0.150389 0.0160495
0.164036 0.0296968
0.16558 0.0281525
0.169485 0.0320569
0.169579 0.0319623
0.179944 0.0423274
0.186231 0.0360408
0.203625 0.0534354
0.204615 0.0524459
0.208135 0.0559665
0.210379 0.0537226
0.214192 0.0575356
0.217783 0.0539451
0.240738 0.0769002
0.317638 0
inf 0


"layer 1:"
-inf 0
0.117645 0
0.132822 0.0151767
0.140827 0.00717148
0.142951 0.00929476
0.143292 0.00895306
0.150389 0.0160495
0.151836 0.0146024
0.161899 0.0246656
0.161996 0.0245685
0.16558 0.0281525
0.165675 0.0280579
0.169579 0.0319623
0.175866 0.0256757
0.186231 0.0360408
0.18722 0.0350513
0.204615 0.0524459
0.206859 0.050202
0.210379 0.0537226
0.21397 0.0501321
0.217783 0.0539451
0.218983 0.0527452
0.221803 0.0555659
0.222579 0.0547901
0.240568 0.0727788
0.246452 0.0668948
0.24718 0.0676231
0.314804 0
inf 0


"layer 2:"
-inf 0
0.11772 0
0.120357 0.00263683
0.122994 0
0.123047 0
0.125508 0.00246107
0.126456 0.00151367
0.136283 0.0113409
0.14064 0.00698414
0.140827 0.00717148
0.141169 0.00682978
0.143292 0.00895306
0.144093 0.00815201
0.147192 0.0112504
0.147838 0.0106044
0.151836 0.0146024
0.151933 0.0145053
0.161996 0.0245685
0.162091 0.0244739
0.165675 0.0280579
0.171961 0.0217714
0.175866 0.0256757
0.176179 0.0253622
0.178476 0.0276593
0.179152 0.0269834
0.18722 0.0350513
0.189464 0.0328074
0.206859 0.050202
0.210449 0.0466115
0.21397 0.0501321
0.21517 0.0489322
0.218983 0.0527452
0.219143 0.0525852
0.219782 0.0532246
0.220398 0.0526088
0.222579 0.0547901
0.228463 0.048906
0.246452 0.0668948
0.313347 0
inf 0


"layer 3:"
-inf 0
0.123772 0
0.124679 0.000907372
0.125264 0.000322017
0.126456 0.00151367
0.126909 0.00106055
0.133338 0.00748975
0.137242 0.00358608
0.14064 0.00698414
0.140982 0.00664244
0.141169 0.00682978
0.14197 0.00602872
0.144093 0.00815201
0.144482 0.00776332
0.145567 0.0088482
0.145824 0.00859082
0.147838 0.0106044
0.147935 0.0105072
0.151933 0.0145053
0.152028 0.0144107
0.162091 0.0244739
0.168377 0.0181873
0.171961 0.0217714
0.172275 0.0214578
0.176179 0.0253622
0.176855 0.0246863
0.179152 0.0269834
0.181396 0.0247395
0.189464 0.0328074
0.192273 0.0299983
0.202503 0.0402275
0.203284 0.0394461
0.210449 0.0466115
0.211649 0.0454116
0.21517 0.0489322
0.21533 0.0487722
0.219143 0.0525852
0.219759 0.0519694
0.220398 0.0526088
0.220504 0.052503
0.222482 0.0544808
0.22826 0.0487025
0.228463 0.048906
0.228561 0.0488089
0.242167 0.0624158
0.251073 0.0535101
0.255241 0.0576777
0.312918 0
inf 0


"layer 4:"
-inf 0
0.124942 0
0.125264 0.000322017
0.125586 0
0.125848 0
0.126909 0.00106055
0.12797 0
0.128756 0
0.131968 0.00321213
0.134418 0.000762277
0.137242 0.00358608
0.137584 0.00324438
0.140982 0.00664244
0.141783 0.00584139
0.14197 0.00602872
0.142359 0.00564004
0.144482 0.00776332
0.144739 0.00750594
0.145824 0.00859082
0.145921 0.00849366
0.147935 0.0105072
0.14803 0.0104126
0.152028 0.0144107
0.153781 0.0126573
0.163416 0.0222927
0.16795 0.0177596
0.168377 0.0181873
0.168691 0.0178738
0.172275 0.0214578
0.172951 0.0207819
0.176855 0.0246863
0.179099 0.0224424
0.181396 0.0247395
0.184205 0.0219303
0.192273 0.0299983
0.193055 0.0292169
0.203284 0.0394461
0.204484 0.0382462
0.211649 0.0454116
0.211809 0.0452516
0.21533 0.0487722
0.215946 0.0481564
0.219759 0.0519694
0.219864 0.0518636
0.220504 0.052503
0.226282 0.0467247
0.22826 0.0487025
0.228357 0.0486054
0.228561 0.0488089
0.237466 0.0399032
0.251073 0.0535101
0.272243 0.0323405
0.273067 0.0331651
0.306233 0
inf 0


"layer 5:"
-inf 0
0.133656 0
0.134418 0.000762277
0.13476 0.000420578
0.137584 0.00324438
0.137876 0.00295156
0.137986 0.00306093
0.138494 0.0025527
0.141783 0.00584139
0.142171 0.0054527
0.142359 0.00564004
0.142616 0.00538265
0.144739 0.00750594
0.144837 0.00740879
0.145921 0.00849366
0.146016 0.00839908
0.14803 0.0104126
0.149175 0.00926668
0.151951 0.0120419
0.152558 0.0114345
0.153781 0.0126573
0.158314 0.00812412
0.16795 0.0177596
0.168263 0.017446
0.168691 0.0178738
0.169367 0.0171978
0.172951 0.0207819
0.175195 0.018538
0.179099 0.0224424
0.181908 0.0196332
0.184205 0.0219303
0.184987 0.0211489
0.193055 0.0292169
0.194255 0.0280171
0.204484 0.0382462
0.204644 0.0380862
0.211809 0.0452516
0.212425 0.0446358
0.215946 0.0481564
0.216051 0.0480506
0.219864 0.0518636
0.225643 0.0460853
0.226282 0.0467247
0.226379 0.0466276
0.228357 0.0486054
0.237263 0.0396997
0.237466 0.0399032
0.244487 0.0328822
0.254204 0.0425985
0.268352 0.0284499
0.272243 0.0323405
0.304583 0
inf 0


"layer 6:"
-inf 0
0.134339 0
0.13476 0.000420578
0.135053 0.000127752
0.137876 0.00295156
0.138385 0.00244333
0.138494 0.0025527
0.138883 0.00216402
0.142171 0.0054527
0.142429 0.00519532
0.142616 0.00538265
0.142713 0.0052855
0.144837 0.00740879
0.144931 0.0073142
0.146016 0.00839908
0.147162 0.00725314
0.149175 0.00926668
0.149783 0.00865926
0.152558 0.0114345
0.157091 0.00690129
0.158314 0.00812412
0.158628 0.00781056
0.168263 0.017446
0.168328 0.0173813
0.168737 0.0177905
0.169348 0.0171793
0.169367 0.0171978
0.171611 0.0149539
0.175195 0.018538
0.178004 0.0157289
0.181908 0.0196332
0.18269 0.0188518
0.184987 0.0211489
0.186187 0.0199491
0.194255 0.0280171
0.194415 0.027857
0.204644 0.0380862
0.20526 0.0374704
0.212425 0.0446358
0.212531 0.04453
0.216051 0.0480506
0.217733 0.0463692
0.218882 0.0475179
0.222978 0.043421
0.225643 0.0460853
0.22574 0.0459882
0.226379 0.0466276
0.235285 0.0377219
0.237263 0.0396997
0.244284 0.0326787
0.244487 0.0328822
0.244878 0.0324915
0.248758 0.0363716
0.262516 0.0226136
0.268352 0.0284499
0.296802 0
inf 0


"layer 7:"
-inf 0
0.134925 0
0.135053 0.000127752
0.13518 0
0.135941 0
0.138385 0.00244333
0.138773 0.00205464
0.138883 0.00216402
0.13914 0.00190664
0.142429 0.00519532
0.142526 0.00509817
0.142713 0.0052855
0.142808 0.00519092
0.144931 0.0073142
0.146077 0.00616826
0.147162 0.00725314
0.147196 0.00721857
0.148576 0.00859802
0.149149 0.00802516
0.149783 0.00865926
0.15143 0.00701233
0.153707 0.00928962
0.156593 0.00640336
0.157091 0.00690129
0.157405 0.00658773
0.158628 0.00781056
0.158692 0.00774587
0.168328 0.0173813
0.168939 0.0167701
0.169348 0.0171793
0.171592 0.0149354
0.171611 0.0149539
0.17442 0.0121448
0.178004 0.0157289
0.178785 0.0149475
0.18269 0.0188518
0.18389 0.017652
0.186187 0.0199491
0.186347 0.0197891
0.194415 0.027857
0.194668 0.0276034
0.201584 0.0345196
0.201947 0.0341574
0.20526 0.0374704
0.205365 0.0373646
0.212531 0.04453
0.214212 0.0428486
0.217733 0.0463692
0.22183 0.0422723
0.222978 0.043421
0.223076 0.0433239
0.22574 0.0459882
0.234645 0.0370825
0.235285 0.0377219
0.242306 0.0307009
0.244284 0.0326787
0.244674 0.032288
0.244878 0.0324915
0.258636 0.0187336
0.262516 0.0226136
0.28513 0
inf 0


"layer 8:"
-inf 0
0.136719 0
0.138773 0.00205464
0.139031 0.00179726
0.13914 0.00190664
0.139237 0.00180948
0.142526 0.00509817
0.14262 0.00500358
0.142808 0.00519092
0.143954 0.00404498
0.146077 0.00616826
0.146112 0.0061337
0.147196 0.00721857
0.147769 0.00664571
0.149149 0.00802516
0.150796 0.00637823
0.15143 0.00701233
0.154316 0.00412607
0.156593 0.00640336
0.156907 0.0060898
0.157405 0.00658773
0.15747 0.00652304
0.158692 0.00774587
0.159304 0.00713464
0.168939 0.0167701
0.171183 0.0145262
0.171592 0.0149354
0.174401 0.0121262
0.17442 0.0121448
0.175201 0.0113634
0.178785 0.0149475
0.179985 0.0137476
0.18389 0.017652
0.18405 0.0174919
0.186347 0.0197891
0.1866 0.0195354
0.194668 0.0276034
0.19503 0.0272412
0.201947 0.0341574
0.202052 0.0340516
0.205365 0.0373646
0.207047 0.0356832
0.214212 0.0428486
0.218309 0.0387517
0.22183 0.0422723
0.221927 0.0421752
0.223076 0.0433239
0.224784 0.0416153
0.225554 0.0423848
0.228844 0.0390941
0.229428 0.0396781
0.233335 0.0357717
0.234645 0.0370825
0.241667 0.0300615
0.242306 0.0307009
0.242697 0.0303102
0.244674 0.032288
0.258432 0.0185301
0.258636 0.0187336
0.264527 0.012842
0.267962 0.0162769
0.284239 0
inf 0


"layer 9:"
-inf 0
0.137233 0
0.139031 0.00179726
0.139128 0.00170011
0.139237 0.00180948
0.139332 0.0017149
0.14262 0.00500358
0.143766 0.00385764
0.143954 0.00404498
0.143988 0.00401041
0.146112 0.0061337
0.146684 0.00556084
0.147769 0.00664571
0.149416 0.00499879
0.150796 0.00637823
0.153682 0.00349197
0.154316 0.00412607
0.15463 0.00381251
0.156907 0.0060898
0.156972 0.00602511
0.15747 0.00652304
0.158081 0.00591181
0.159304 0.00713464
0.159446 0.00699268
0.164384 0.0119313
0.165265 0.0110501
0.168844 0.0146287
0.170065 0.013408
0.171183 0.0145262
0.173992 0.011717
0.174401 0.0121262
0.175183 0.0113448
0.175201 0.0113634
0.176151 0.0104135
0.177628 0.0118907
0.177878 0.0116408
0.179985 0.0137476
0.180145 0.0135876
0.18405 0.0174919
0.184303 0.0172383
0.1866 0.0195354
0.186962 0.0191732
0.19503 0.0272412
0.195136 0.0271354
0.202052 0.0340516
0.203734 0.0323702
0.207047 0.0356832
0.208921 0.0338092
0.213321 0.0382097
0.215544 0.0359868
0.218309 0.0387517
0.218406 0.0386546
0.221927 0.0421752
0.223635 0.0404666
0.224784 0.0416153
0.228075 0.0383247
0.228844 0.0390941
0.229598 0.0383402
0.230036 0.0387779
0.233188 0.0356254
0.233335 0.0357717
0.240356 0.0287507
0.241667 0.0300615
0.242057 0.0296708
0.242697 0.0303102
0.254397 0.01861
0.255179 0.0193922
0.257237 0.0173345
0.258432 0.0185301
0.264324 0.0126385
0.264527 0.012842
0.277369 0
inf 0


"layer 10:"
-inf 0
0.137428 0
0.139128 0.00170011
0.139222 0.00160552
0.139332 0.0017149
0.140478 0.000568959
0.143766 0.00385764
0.143801 0.00382308
0.143988 0.00401041
0.144561 0.00343755
0.146684 0.00556084
0.148331 0.00391391
0.149416 0.00499879
0.152303 0.00211253
0.153682 0.00349197
0.153764 0.00341019
0.154259 0.00390497
0.15449 0.00367319
0.15463 0.00381251
0.154694 0.00374782
0.156972 0.00602511
0.157583 0.00541388
0.158081 0.00591181
0.158223 0.00576985
0.159446 0.00699268
0.160327 0.00611146
0.165265 0.0110501
0.166486 0.00982935
0.170065 0.013408
0.172874 0.0105989
0.173992 0.011717
0.174774 0.0109356
0.175183 0.0113448
0.176133 0.0103949
0.176151 0.0104135
0.176401 0.0101636
0.177878 0.0116408
0.178038 0.0114807
0.180145 0.0135876
0.180399 0.013334
0.184303 0.0172383
0.184665 0.0168761
0.186962 0.0191732
0.187068 0.0190674
0.195136 0.0271354
0.195426 0.0268454
0.196759 0.0281781
0.19815 0.0267867
0.203734 0.0323702
0.205608 0.0304962
0.208921 0.0338092
0.211144 0.0315863
0.215544 0.0359868
0.215641 0.0358897
0.218406 0.0386546
0.220115 0.036946
0.223635 0.0404666
0.226926 0.0371759
0.228075 0.0383247
0.228829 0.0375707
0.229598 0.0383402
0.232751 0.0351877
0.233188 0.0356254
0.240209 0.0286044
0.240356 0.0287507
0.240746 0.0283599
0.242057 0.0296708
0.246482 0.0252464
0.246629 0.025394
0.253905 0.0181182
0.254397 0.01861
0.256455 0.0165523
0.257237 0.0173345
0.263128 0.0114429
0.264324 0.0126385
0.276962 0
inf 0


"layer 11:"
-inf 0
0.137617 0
0.139222 0.00160552
0.140368 0.000459582
0.140478 0.000568959
0.140512 0.000534395
0.143801 0.00382308
0.144374 0.00325022
0.144561 0.00343755
0.146208 0.00179063
0.148331 0.00391391
0.150124 0.00212102
0.150648 0.00264504
0.151742 0.00155167
0.152303 0.00211253
0.152384 0.00203075
0.153764 0.00341019
0.153996 0.00317841
0.15449 0.00367319
0.154555 0.0036085
0.154694 0.00374782
0.155306 0.0031366
0.157583 0.00541388
0.157725 0.00527192
0.158223 0.00576985
0.159104 0.00488863
0.160327 0.00611146
0.161547 0.00489074
0.166486 0.00982935
0.168574 0.00774193
0.170229 0.00939712
0.17095 0.0086754
0.172874 0.0105989
0.173655 0.00981743
0.174774 0.0109356
0.175723 0.00998577
0.176133 0.0103949
0.176383 0.010145
0.176401 0.0101636
0.176561 0.0100035
0.178038 0.0114807
0.178292 0.0112271
0.180399 0.013334
0.180761 0.0129718
0.184665 0.0168761
0.184771 0.0167703
0.187068 0.0190674
0.187358 0.0187774
0.195426 0.0268454
0.196818 0.025454
0.19815 0.0267867
0.200024 0.0249127
0.205608 0.0304962
0.207831 0.0282733
0.211144 0.0315863
0.211241 0.0314892
0.215641 0.0358897
0.21735 0.0341811
0.220115 0.036946
0.223405 0.0336553
0.226926 0.0371759
0.22768 0.036422
0.228829 0.0375707
0.231981 0.0344182
0.232751 0.0351877
0.239772 0.0281667
0.240209 0.0286044
0.2406 0.0282137
0.240746 0.0283599
0.243027 0.0260789
0.24317 0.0262218
0.245314 0.0240784
0.246482 0.0252464
0.253757 0.0179706
0.253905 0.0181182
0.255963 0.0160605
0.256455 0.0165523
0.262346 0.0106607
0.263128 0.0114429
0.274571 0
inf 0


"layer 12:"
-inf 0
0.139909 0
0.140368 0.000459582
0.140403 0.000425018
0.140512 0.000534395
0.141047 0
0.141124 0
0.144374 0.00325022
0.146021 0.0016033
0.146208 0.00179063
0.147999 0
0.148003 0
0.150124 0.00212102
0.151218 0.00102766
0.151742 0.00155167
0.151823 0.00146989
0.152384 0.00203075
0.152616 0.00179897
0.153996 0.00317841
0.15406 0.00311372
0.154555 0.0036085
0.155166 0.00299727
0.155306 0.0031366
0.155448 0.00299463
0.157725 0.00527192
0.158606 0.0043907
0.159104 0.00488863
0.160325 0.00366791
0.161547 0.00489074
0.16193 0.00450857
0.163203 0.00578198
0.164297 0.00468787
0.167359 0.0077496
0.16797 0.00713847
0.168574 0.00774193
0.169295 0.00702021
0.17095 0.0086754
0.171732 0.00789398
0.173655 0.00981743
0.174605 0.00886758
0.175723 0.00998577
0.175973 0.00973579
0.176383 0.010145
0.176543 0.00998494
0.176561 0.0100035
0.176815 0.0097499
0.178292 0.0112271
0.178654 0.0108649
0.180761 0.0129718
0.180867 0.012866
0.184771 0.0167703
0.185061 0.0164803
0.187358 0.0187774
0.18875 0.0173861
0.196818 0.025454
0.198692 0.02358
0.200024 0.0249127
0.202247 0.0226898
0.207831 0.0282733
0.207928 0.0281762
0.211241 0.0314892
0.212949 0.0297806
0.21735 0.0341811
0.217554 0.0339769
0.219576 0.0359989
0.222663 0.0329124
0.223405 0.0336553
0.224159 0.0329014
0.22768 0.036422
0.230832 0.0332695
0.231981 0.0344182
0.239002 0.0273972
0.239772 0.0281667
0.240162 0.0277759
0.2406 0.0282137
0.242881 0.0259326
0.243027 0.0260789
0.245171 0.0239356
0.245314 0.0240784
0.252589 0.0168026
0.253757 0.0179706
0.255815 0.0159129
0.255963 0.0160605
0.261854 0.0101689
0.262346 0.0106607
0.273007 0
inf 0


"layer 13:"
-inf 0
0.139978 0
0.140403 0.000425018
0.140828 0
0.144417 0
0.146021 0.0016033
0.147624 0
0.15019 0
0.151218 0.00102766
0.151299 0.000945869
0.151823 0.00146989
0.152055 0.00123811
0.152616 0.00179897
0.152681 0.00173428
0.15406 0.00311372
0.154671 0.00250249
0.155166 0.00299727
0.155308 0.00285531
0.155448 0.00299463
0.156329 0.00211341
0.158606 0.0043907
0.159827 0.00316998
0.160325 0.00366791
0.160707 0.00328573
0.16193 0.00450857
0.163024 0.00341445
0.164297 0.00468787
0.164908 0.00407674
0.16797 0.00713847
0.168692 0.00641675
0.169295 0.00702021
0.170077 0.00623878
0.171732 0.00789398
0.172682 0.00694412
0.174605 0.00886758
0.174855 0.0086176
0.175973 0.00973579
0.176133 0.00957576
0.176543 0.00998494
0.176796 0.00973132
0.176815 0.0097499
0.177177 0.0093877
0.178654 0.0108649
0.17876 0.0107591
0.180867 0.012866
0.181157 0.012576
0.185061 0.0164803
0.186453 0.0150889
0.18875 0.0173861
0.190542 0.0155932
0.191894 0.0169452
0.191976 0.016864
0.198692 0.02358
0.200915 0.0213571
0.202247 0.0226898
0.202344 0.0225927
0.207928 0.0281762
0.209636 0.0264676
0.212949 0.0297806
0.213154 0.0295764
0.217554 0.0339769
0.220641 0.0308904
0.222663 0.0329124
0.223416 0.0321585
0.224159 0.0329014
0.227312 0.0297489
0.230832 0.0332695
0.237854 0.0262485
0.239002 0.0273972
0.239393 0.0270065
0.240162 0.0277759
0.242443 0.0254949
0.242881 0.0259326
0.245025 0.0237893
0.245171 0.0239356
0.252447 0.0166598
0.252589 0.0168026
0.254647 0.0147449
0.255815 0.0159129
0.261707 0.0100213
0.261854 0.0101689
0.272023 0
inf 0


"layer 14:"
-inf 0
0.150354 0
0.151299 0.000945869
0.151531 0.000714095
0.152055 0.00123811
0.15212 0.00117342
0.152681 0.00173428
0.153292 0.00112305
0.154671 0.00250249
0.154813 0.00236053
0.155308 0.00285531
0.156189 0.00197409
0.156329 0.00211341
0.157381 0.00106085
0.1583 0.00197909
0.158468 0.00181093
0.159827 0.00316998
0.160209 0.00278781
0.160707 0.00328573
0.161801 0.00219162
0.163024 0.00341445
0.163635 0.00280333
0.164908 0.00407674
0.16563 0.00335502
0.168692 0.00641675
0.169473 0.00563533
0.170077 0.00623878
0.171027 0.00528893
0.172682 0.00694412
0.172932 0.00669415
0.174855 0.0086176
0.175015 0.00845758
0.176133 0.00957576
0.176387 0.00932214
0.176796 0.00973132
0.177158 0.00936912
0.177177 0.0093877
0.177283 0.00928188
0.17876 0.0107591
0.17905 0.0104691
0.181157 0.012576
0.182548 0.0111846
0.186453 0.0150889
0.188245 0.0132961
0.190542 0.0155932
0.190624 0.015512
0.191976 0.016864
0.194199 0.0146412
0.200915 0.0213571
0.201012 0.02126
0.202344 0.0225927
0.204053 0.0208841
0.209636 0.0264676
0.209841 0.0262634
0.213154 0.0295764
0.21624 0.0264899
0.220641 0.0308904
0.221394 0.0301365
0.223416 0.0321585
0.226569 0.029006
0.227312 0.0297489
0.234333 0.0227279
0.237854 0.0262485
0.238244 0.0258578
0.239393 0.0270065
0.241674 0.0247255
0.242443 0.0254949
0.244587 0.0233516
0.245025 0.0237893
0.2523 0.0165135
0.252447 0.0166598
0.254504 0.014602
0.254647 0.0147449
0.260539 0.00885331
0.261707 0.0100213
0.271728 0
inf 0


"layer 15:"
-inf 0
0.150817 0
0.151531 0.000714095
0.151596 0.000649405
0.15212 0.00117342
0.152731 0.000562194
0.153292 0.00112305
0.153434 0.00098109
0.154813 0.00236053
0.155695 0.00147931
0.156189 0.00197409
0.157242 0.000921531
0.157381 0.00106085
0.157549 0.000892697
0.158468 0.00181093
0.15885 0.00142875
0.160209 0.00278781
0.161303 0.00169369
0.161801 0.00219162
0.162412 0.00158049
0.163635 0.00280333
0.164357 0.00208161
0.16563 0.00335502
0.166411 0.0025736
0.169473 0.00563533
0.170423 0.00468547
0.171027 0.00528893
0.171276 0.00503895
0.172932 0.00669415
0.173092 0.00653412
0.175015 0.00845758
0.175269 0.00820395
0.176387 0.00932214
0.176749 0.00895994
0.177158 0.00936912
0.177264 0.0092633
0.177283 0.00928188
0.177573 0.00899191
0.17905 0.0104691
0.180441 0.00907772
0.182548 0.0111846
0.184341 0.00939179
0.188245 0.0132961
0.188327 0.0132149
0.190624 0.015512
0.192847 0.0132892
0.194199 0.0146412
0.194296 0.014544
0.201012 0.02126
0.20272 0.0195514
0.204053 0.0208841
0.204257 0.0206799
0.209841 0.0262634
0.212927 0.023177
0.21624 0.0264899
0.216994 0.025736
0.221394 0.0301365
0.224547 0.026984
0.226569 0.029006
0.23359 0.021985
0.234333 0.0227279
0.234724 0.0223372
0.238244 0.0258578
0.240525 0.0235767
0.241674 0.0247255
0.243817 0.0225821
0.244587 0.0233516
0.251863 0.0160758
0.2523 0.0165135
0.254358 0.0144558
0.254504 0.014602
0.260396 0.00871044
0.260539 0.00885331
0.269392 0
inf 0


"layer 16:"
-inf 0
0.150946 0
0.151596 0.000649405
0.152207 3.81758e-05
0.152731 0.000562194
0.152873 0.000420233
0.153434 0.00098109
0.154315 9.98711e-05
0.155695 0.00147931
0.156747 0.000426752
0.157242 0.000921531
0.15741 0.000753374
0.157549 0.000892697
0.157932 0.00051052
0.15885 0.00142875
0.159944 0.000334636
0.161303 0.00169369
0.161914 0.00108256
0.162412 0.00158049
0.163134 0.000858774
0.164357 0.00208161
0.165138 0.00130018
0.166411 0.0025736
0.167361 0.00162374
0.170423 0.00468547
0.170673 0.0044355
0.171276 0.00503895
0.171437 0.00487893
0.173092 0.00653412
0.173345 0.00628049
0.175269 0.00820395
0.175631 0.00784175
0.176749 0.00895994
0.176855 0.00885412
0.177264 0.0092633
0.177554 0.00897332
0.177573 0.00899191
0.178964 0.00760052
0.180441 0.00907772
0.182234 0.00728492
0.184341 0.00939179
0.184422 0.00931057
0.188327 0.0132149
0.190549 0.0109921
0.192847 0.0132892
0.192944 0.0131921
0.194296 0.014544
0.196004 0.0128354
0.20272 0.0195514
0.202924 0.0193472
0.204257 0.0206799
0.207344 0.0175934
0.212927 0.023177
0.213681 0.022423
0.216994 0.025736
0.220146 0.0225835
0.224547 0.026984
0.231568 0.019963
0.23359 0.021985
0.233981 0.0215943
0.234724 0.0223372
0.237005 0.0200561
0.240525 0.0235767
0.242669 0.0214334
0.243817 0.0225821
0.251093 0.0153063
0.251863 0.0160758
0.25392 0.014018
0.254358 0.0144558
0.26025 0.00856419
0.260396 0.00871044
0.269106 0
inf 0


"layer 17:"
-inf 0
0.152169 0
0.152207 3.81758e-05
0.152245 0
0.152453 0
0.152873 0.000420233
0.153293 0
0.154215 0
0.154315 9.98711e-05
0.154415 0
0.15632 0
0.156747 0.000426752
0.156915 0.000258594
0.15741 0.000753374
0.157792 0.000371198
0.157932 0.00051052
0.158216 0.000226433
0.158473 0.00048379
0.158957 0
0.159609 0
0.159944 0.000334636
0.160279 0
0.160832 0
0.161914 0.00108256
0.162636 0.000360845
0.163134 0.000858774
0.163915 7.7347e-05
0.165138 0.00130018
0.166088 0.000350326
0.167361 0.00162374
0.167611 0.00137377
0.170673 0.0044355
0.170833 0.00427547
0.171437 0.00487893
0.17169 0.0046253
0.173345 0.00628049
0.173708 0.00591829
0.175631 0.00784175
0.175737 0.00773593
0.176855 0.00885412
0.177145 0.00856414
0.177554 0.00897332
0.178946 0.00758194
0.178964 0.00760052
0.180757 0.00580772
0.182234 0.00728492
0.182315 0.0072037
0.184422 0.00931057
0.186645 0.00708771
0.190549 0.0109921
0.190647 0.0108949
0.192944 0.0131921
0.194652 0.0114834
0.196004 0.0128354
0.196047 0.012793
0.202029 0.0187749
0.20219 0.0186131
0.202924 0.0193472
0.206011 0.0162608
0.207344 0.0175934
0.208097 0.0168395
0.213681 0.022423
0.216834 0.0192705
0.220146 0.0225835
0.225464 0.0172663
0.228322 0.0201244
0.230026 0.0184207
0.231568 0.019963
0.231959 0.0195723
0.233981 0.0215943
0.236262 0.0193132
0.237005 0.0200561
0.239148 0.0179128
0.242669 0.0214334
0.249944 0.0141576
0.251093 0.0153063
0.253151 0.0132486
0.25392 0.014018
0.256932 0.0110068
0.257241 0.0113165
0.260122 0.00843622
0.26025 0.00856419
0.268814 0
inf 0


"layer 18:"
-inf 0
0.156657 0
0.156915 0.000258594
0.157174 0
0.157421 0
0.157792 0.000371198
0.158076 8.71109e-05
0.158216 0.000226433
0.158442 0
0.162275 0
0.162636 0.000360845
0.162997 0
0.163838 0
0.163915 7.7347e-05
0.163993 0
0.165738 0
0.166088 0.000350326
0.166338 0.000100351
0.167611 0.00137377
0.167771 0.00121374
0.170833 0.00427547
0.171087 0.00402184
0.17169 0.0046253
0.172052 0.0042631
0.173708 0.00591829
0.173813 0.00581248
0.175737 0.00773593
0.176027 0.00744596
0.177145 0.00856414
0.178536 0.00717276
0.178946 0.00758194
0.180738 0.00578913
0.180757 0.00580772
0.180838 0.0057265
0.182315 0.0072037
0.184538 0.00498084
0.186645 0.00708771
0.186742 0.00699059
0.190647 0.0108949
0.192355 0.00918633
0.194652 0.0114834
0.194695 0.011441
0.196047 0.012793
0.196208 0.0126313
0.20219 0.0186131
0.205277 0.0155266
0.206011 0.0162608
0.206765 0.0155068
0.208097 0.0168395
0.21125 0.013687
0.216834 0.0192705
0.222151 0.0139533
0.225464 0.0172663
0.227168 0.0155625
0.230026 0.0184207
0.230416 0.01803
0.231959 0.0195723
0.23424 0.0172912
0.236262 0.0193132
0.238405 0.0171699
0.239148 0.0179128
0.246424 0.010637
0.249944 0.0141576
0.252002 0.0120999
0.253151 0.0132486
0.256162 0.0102373
0.256932 0.0110068
0.259812 0.00812645
0.260122 0.00843622
0.268558 0
inf 0


"layer 19:"
-inf 0
0.157989 0
0.158076 8.71109e-05
0.158164 0
0.166238 0
0.166338 0.000100351
0.166438 0
0.166558 0
0.167771 0.00121374
0.168025 0.000960113
0.171087 0.00402184
0.171449 0.00365964
0.172052 0.0042631
0.172158 0.00415728
0.173813 0.00581248
0.174103 0.0055225
0.176027 0.00744596
0.177418 0.00605457
0.178536 0.00717276
0.180329 0.00537995
0.180738 0.00578913
0.18082 0.00570792
0.180838 0.0057265
0.183061 0.00350364
0.184538 0.00498084
0.184635 0.00488372
0.186742 0.00699059
0.188451 0.00528199
0.192355 0.00918633
0.192398 0.00914391
0.194695 0.011441
0.194856 0.0112793
0.196208 0.0126313
0.199295 0.00954478
0.205277 0.0155266
0.206031 0.0147727
0.206765 0.0155068
0.209917 0.0123543
0.21125 0.013687
0.216567 0.00836977
0.222151 0.0139533
0.223855 0.0122495
0.227168 0.0155625
0.227558 0.0151718
0.230416 0.01803
0.232697 0.0157489
0.23424 0.0172912
0.235618 0.0159134
0.236646 0.016942
0.237412 0.0161765
0.238405 0.0171699
0.245681 0.00989408
0.246424 0.010637
0.248482 0.00857927
0.252002 0.0120999
0.255013 0.00908859
0.256162 0.0102373
0.259042 0.00735699
0.259812 0.00812645
0.267938 0
inf 0


"layer 20:"
-inf 0
0.167065 0
0.168025 0.000960113
0.168387 0.000597914
0.171449 0.00365964
0.171555 0.00355383
0.172158 0.00415728
0.172448 0.00386731
0.174103 0.0055225
0.175495 0.00413112
0.177418 0.00605457
0.179211 0.00426177
0.180329 0.00537995
0.18041 0.00529874
0.18082 0.00570792
0.183042 0.00348506
0.183061 0.00350364
0.183158 0.00340652
0.184635 0.00488372
0.186344 0.00317512
0.188451 0.00528199
0.188493 0.00523957
0.192398 0.00914391
0.192559 0.00898214
0.194856 0.0112793
0.197943 0.00819278
0.199295 0.00954478
0.200049 0.00879086
0.206031 0.0147727
0.209183 0.0116202
0.209917 0.0123543
0.215235 0.00703709
0.216567 0.00836977
0.218271 0.006666
0.223855 0.0122495
0.224245 0.0118588
0.227558 0.0151718
0.229839 0.0128907
0.232697 0.0157489
0.234075 0.0143711
0.235618 0.0159134
0.236127 0.0154039
0.236991 0.0162681
0.237247 0.0160121
0.237412 0.0161765
0.244688 0.00890068
0.245681 0.00989408
0.247739 0.00783637
0.248482 0.00857927
0.251493 0.00556798
0.255013 0.00908859
0.257894 0.00620827
0.259042 0.00735699
0.266399 0
inf 0


"layer 21:"
-inf 0
0.167789 0
0.168387 0.000597914
0.168493 0.000492097
0.171555 0.00355383
0.171845 0.00326385
0.172448 0.00386731
0.173494 0.00282107
0.173698 0.00302461
0.174043 0.00267946
0.175495 0.00413112
0.177288 0.00233831
0.179211 0.00426177
0.179292 0.00418055
0.18041 0.00529874
0.182633 0.00307588
0.183042 0.00348506
0.18314 0.00338794
0.183158 0.00340652
0.184867 0.00169792
0.186344 0.00317512
0.186386 0.0031327
0.188493 0.00523957
0.188655 0.0050778
0.192559 0.00898214
0.195646 0.00589567
0.197943 0.00819278
0.198697 0.00743887
0.200049 0.00879086
0.201333 0.00750699
0.201719 0.00789338
0.203588 0.00602475
0.209183 0.0116202
0.2145 0.00630296
0.215235 0.00703709
0.216208 0.00606349
0.217315 0.00716997
0.218045 0.0064398
0.218271 0.006666
0.218662 0.00627528
0.224245 0.0118588
0.226526 0.00957775
0.229839 0.0128907
0.231217 0.0115129
0.234075 0.0143711
0.234585 0.0138615
0.236127 0.0154039
0.236383 0.0151479
0.237247 0.0160121
0.244523 0.00873626
0.244688 0.00890068
0.246745 0.00684297
0.247739 0.00783637
0.248852 0.00672264
0.249231 0.0071009
0.251128 0.00520334
0.251493 0.00556798
0.254373 0.00268767
0.257894 0.00620827
0.264102 0
inf 0


"layer 22:"
-inf 0
0.168001 0
0.168493 0.000492097
0.168783 0.00020212
0.171845 0.00326385
0.172891 0.00221761
0.173494 0.00282107
0.17384 0.00247592
0.174043 0.00267946
0.175836 0.000886658
0.177288 0.00233831
0.177369 0.00225709
0.179292 0.00418055
0.181515 0.00195769
0.182633 0.00307588
0.18273 0.00297876
0.18314 0.00338794
0.184848 0.00167934
0.184867 0.00169792
0.184909 0.0016555
0.186386 0.0031327
0.186548 0.00297093
0.188655 0.0050778
0.191741 0.00199132
0.195646 0.00589567
0.1964 0.00514175
0.198697 0.00743887
0.199981 0.00615499
0.201333 0.00750699
0.203201 0.00563836
0.203588 0.00602475
0.204119 0.00549382
0.205517 0.00689223
0.207481 0.00492876
0.209213 0.00666073
0.212035 0.00383788
0.2145 0.00630296
0.215474 0.00532936
0.216208 0.00606349
0.216938 0.00533331
0.218045 0.0064398
0.218436 0.00604908
0.218662 0.00627528
0.220943 0.00399423
0.226526 0.00957775
0.227904 0.00819992
0.231217 0.0115129
0.231727 0.0110034
0.234585 0.0138615
0.234841 0.0136056
0.236383 0.0151479
0.243659 0.00787208
0.244523 0.00873626
0.246581 0.00667855
0.246745 0.00684297
0.247859 0.00572925
0.248852 0.00672264
0.25075 0.00482508
0.251128 0.00520334
0.254008 0.00232302
0.254373 0.00268767
0.257061 0
inf 0


"layer 23:"
-inf 0
0.168581 0
0.168783 0.00020212
0.168985 0
0.170673 0
0.172891 0.00221761
0.173236 0.00187247
0.17384 0.00247592
0.174752 0.00156339
0.17489 0.00170093
0.17577 0.000820653
0.175836 0.000886658
0.175917 0.00080544
0.177369 0.00225709
0.178387 0.00123904
0.179941 0.00279374
0.181146 0.00158894
0.181515 0.00195769
0.181612 0.00186057
0.18273 0.00297876
0.184439 0.00127016
0.184848 0.00167934
0.184891 0.00163692
0.184909 0.0016555
0.185071 0.00149373
0.186548 0.00297093
0.189519 0
0.18975 0
0.191741 0.00199132
0.192495 0.00123741
0.1964 0.00514175
0.197684 0.00385787
0.199981 0.00615499
0.201849 0.00428637
0.203201 0.00563836
0.203732 0.00510743
0.204119 0.00549382
0.206082 0.00353035
0.207481 0.00492876
0.210303 0.00210591
0.212035 0.00383788
0.212718 0.00315548
0.215182 0.0056196
0.215473 0.0053284
0.215474 0.00532936
0.216204 0.00459919
0.216938 0.00533331
0.217329 0.00494259
0.218436 0.00604908
0.220717 0.00376804
0.220943 0.00399423
0.222321 0.0026164
0.227904 0.00819992
0.228414 0.00769039
0.231727 0.0110034
0.231983 0.0107474
0.234841 0.0136056
0.242117 0.00632976
0.243659 0.00787208
0.245717 0.00581438
0.246581 0.00667855
0.247695 0.00556483
0.247859 0.00572925
0.249757 0.00383169
0.25075 0.00482508
0.25363 0.00194477
0.254008 0.00232302
0.256332 0
inf 0


"layer 24:"
-inf 0
0.171364 0
0.173236 0.00187247
0.174149 0.000959936
0.174752 0.00156339
0.175632 0.000683117
0.17577 0.000820653
0.175851 0.000739435
0.175917 0.00080544
0.176723 0
0.177148 0
0.178387 0.00123904
0.179592 3.42359e-05
0.181146 0.00158894
0.181243 0.00149182
0.181612 0.00186057
0.183321 0.000151968
0.184439 0.00127016
0.184481 0.00122774
0.184891 0.00163692
0.185052 0.00147515
0.185071 0.00149373
0.186565 0
0.191258 0
0.192495 0.00123741
0.193445 0.000287966
0.193477 0.000320094
0.193797 0
0.193826 0
0.197684 0.00385787
0.199552 0.00198925
0.201849 0.00428637
0.20238 0.00375544
0.203732 0.00510743
0.205696 0.00314396
0.206082 0.00353035
0.208905 0.000707497
0.210303 0.00210591
0.210986 0.00142351
0.212718 0.00315548
0.213009 0.00286428
0.215473 0.0053284
0.216203 0.00459823
0.216204 0.00459919
0.216595 0.00420846
0.217329 0.00494259
0.21961 0.00266155
0.220717 0.00376804
0.222094 0.0023902
0.222321 0.0026164
0.22283 0.00210687
0.228414 0.00769039
0.22867 0.0074344
0.231983 0.0107474
0.239258 0.00347158
0.242117 0.00632976
0.244174 0.00427205
0.245717 0.00581438
0.24683 0.00470065
0.247695 0.00556483
0.249592 0.00366727
0.249757 0.00383169
0.252637 0.000951375
0.25363 0.00194477
0.255575 0
inf 0


"layer 25:"
-inf 0
0.173189 0
0.174149 0.000959936
0.175029 7.96612e-05
0.175632 0.000683117
0.175714 0.000601898
0.175851 0.000739435
0.176591 0
0.179557 0
0.179592 3.42359e-05
0.179626 0
0.179752 0
0.181243 0.00149182
0.182735 0
0.183169 0
0.183321 0.000151968
0.183363 0.000109551
0.184481 0.00122774
0.184643 0.00106597
0.185052 0.00147515
0.186527 0
0.193157 0
0.193445 0.000287966
0.193733 0
0.197563 0
0.199552 0.00198925
0.200083 0.00145832
0.20238 0.00375544
0.204344 0.00179197
0.205696 0.00314396
0.208519 0.000321106
0.208905 0.000707497
0.209587 2.50966e-05
0.210986 0.00142351
0.211277 0.00113231
0.213009 0.00286428
0.213739 0.00213411
0.216203 0.00459823
0.216594 0.00420751
0.216595 0.00420846
0.217643 0.0031607
0.218314 0.00383172
0.219547 0.00259844
0.21961 0.00266155
0.220988 0.00128372
0.222094 0.0023902
0.222604 0.00188067
0.22283 0.00210687
0.223086 0.00185088
0.22867 0.0074344
0.234759 0.00134528
0.235645 0.00223144
0.236832 0.00104477
0.239258 0.00347158
0.23992 0.00280982
0.24013 0.00301931
0.241526 0.00162337
0.244174 0.00427205
0.245288 0.00315833
0.24683 0.00470065
0.248728 0.00280309
0.249592 0.00366727
0.252472 0.000786955
0.252637 0.000951375
0.253588 0
inf 0


"layer 26:"
-inf 0
0.174949 0
0.175029 7.96612e-05
0.175109 0
0.175112 0
0.175714 0.000601898
0.176315 0
0.183254 0
0.183363 0.000109551
0.183473 0
0.183577 0
0.184643 0.00106597
0.185709 0
0.198625 0
0.200083 0.00145832
0.201541 0
0.202552 0
0.204344 0.00179197
0.206136 0
0.208197 0
0.208519 0.000321106
0.20884 0
0.209562 0
0.209587 2.50966e-05
0.209612 0
0.210145 0
0.211277 0.00113231
0.212007 0.000402141
0.213739 0.00213411
0.21413 0.00174339
0.216594 0.00420751
0.217642 0.00315975
0.217643 0.0031607
0.218876 0.00192742
0.219547 0.00259844
0.220925 0.0012206
0.220988 0.00128372
0.221497 0.000774188
0.222604 0.00188067
0.22286 0.00162469
0.223086 0.00185088
0.224937 0
0.225994 0
0.226681 0.00068741
0.227369 0
0.227649 0
0.231085 0.00343565
0.233967 0.00055363
0.234759 0.00134528
0.235945 0.000158602
0.236832 0.00104477
0.237493 0.000383004
0.23992 0.00280982
0.241316 0.00141388
0.241526 0.00162337
0.242639 0.00050965
0.245288 0.00315833
0.247186 0.00126076
0.248728 0.00280309
0.251531 0
0.251685 0
0.252472 0.000786955
0.253259 0
inf 0


"layer 27:"
-inf 0
0.211605 0
0.212007 0.000402141
0.212398 1.14197e-05
0.21413 0.00174339
0.215178 0.000695628
0.217642 0.00315975
0.218875 0.00192647
0.218876 0.00192742
0.220254 0.000549587
0.220925 0.0012206
0.221434 0.000711076
0.221497 0.000774188
0.221753 0.000518201
0.22286 0.00162469
0.224485 0
0.233414 0
0.233967 0.00055363
0.234521 0
0.235787 0
0.235945 0.000158602
0.236104 0
0.23711 0
0.237493 0.000383004
0.237876 0
0.239902 0
0.241316 0.00141388
0.24243 0.000300155
0.242639 0.00050965
0.243149 0
0.245925 0
0.247186 0.00126076
0.248446 0
inf 0


"layer 28:"
-inf 0
0.212386 0
0.212398 1.14197e-05
0.212409 0
0.214482 0
0.215178 0.000695628
0.215873 0
0.216949 0
0.218875 0.00192647
0.220253 0.000548634
0.220254 0.000549587
0.220763 4.00583e-05
0.221434 0.000711076
0.22169 0.00045509
0.221753 0.000518201
0.222272 0
0.24213 0
0.24243 0.000300155
0.24273 0
inf 0


"layer 29:"
-inf 0
0.217413 0
0.21803 0.000616962
0.218647 0
0.219704 0
0.220253 0.000548634
0.220762 3.91052e-05
0.220763 4.00583e-05
0.220803 0
0.221235 0
0.22169 0.00045509
0.222145 0
inf 0


"layer 30:"
-inf 0
0.220723 0
0.220762 3.91052e-05
0.220801 0
inf 0


