0.591987	-0.211431	-0.041813
0.181968	0.560145	-0.223664
-0.585467	-0.230626	-0.0306611
-0.571948	-0.0459551	0.260122
0.0695087	0.142027	-0.609834
-0.141639	-0.120685	-0.601892
0.537295	-0.204927	-0.25733
-0.453199	-0.343197	0.271526
-0.0480113	-0.50745	0.370257
0.0842586	0.548897	-0.29751
0.45573	0.41244	0.138213
0.504483	-0.176797	0.333376
-0.57181	0.174552	0.198657
0.118099	0.582773	0.208155
-0.493065	0.337097	-0.200382
0.399788	0.428327	-0.231528
0.181881	-0.601245	0.0482037
-0.301849	-0.51902	-0.190802
-0.123828	0.515288	-0.340654
-0.0164888	-0.539081	-0.325606
0.495299	-0.383524	-0.0669947
0.443377	-0.445972	0.0377556
0.314658	-0.203286	0.506523
-0.372031	-0.375909	-0.342323
-0.193241	0.567187	-0.194568
-0.12826	0.614242	-0.0561784
0.074791	-0.622702	-0.0595705
-0.257757	-0.498685	0.285962
-0.602657	-0.168833	-0.0721072
-0.206612	-0.101575	0.586425
0.207181	-0.130359	0.580502
0.385509	-0.258938	0.425716
-0.37321	-0.505972	0.0400777
-0.340792	-0.0506804	0.527439
0.410127	0.226133	-0.421378
-0.253025	0.565714	-0.113343
-0.125884	-0.533516	-0.310506
0.468865	0.16129	-0.388653
0.437164	0.116861	-0.438328
-0.193575	0.249804	-0.545001
-0.302585	-0.0588175	-0.549439
-0.360283	0.0933692	0.508309
0.551694	-0.223399	-0.206463
0.620458	-0.0677118	0.085718
-0.0657732	0.601697	-0.174742
0.00967749	0.021879	-0.629546
-0.103071	-0.446076	-0.432773
0.0769724	0.621721	-0.0666209
0.479214	-0.0556868	-0.405158
-0.02424	0.0734402	0.625235
-0.0900881	-0.050028	0.621515
-0.318361	-0.00351991	0.54363
0.603657	-0.0308279	0.177618
0.446354	-0.406995	-0.17895
-0.379843	-0.501987	-0.025059
0.14739	0.611908	-0.0272907
0.41382	-0.463019	0.106141
0.452075	0.413545	-0.146658
0.591044	-0.130475	0.174768
0.315887	-0.438834	-0.323327
0.0655317	-0.622214	-0.0738586
0.43813	0.087837	0.444102
-0.395489	0.170195	-0.459915
-0.439149	0.382807	0.239807
-0.317661	-0.519991	0.160004
0.586813	-0.223079	0.0527835
0.625972	0.0336434	-0.0626628
-0.197198	0.514568	0.30534
-0.537663	-0.217067	0.246375
0.100325	0.621338	-0.0278141
-0.342106	0.514592	-0.122714
-0.541146	0.3224	-0.0109402
-0.387882	0.352609	-0.349449
0.549226	-0.288705	0.10909
0.612356	-0.104702	-0.104679
0.193913	0.20537	-0.563135
-0.430466	0.0599671	0.456073
0.332513	-0.00649723	-0.535063
-0.277423	0.540324	-0.167292
0.206618	0.0592523	0.592198
0.144205	-0.573573	0.21707
-0.00260885	0.0462135	-0.628297
0.0583373	-0.126175	0.614473
0.228829	0.501325	0.305304
0.412124	-0.241791	-0.410598
-0.214541	0.260547	0.531966
-0.580242	-0.187911	0.157825
-0.573299	0.120583	-0.231706
0.306473	-0.489593	-0.251542
0.421581	0.168407	0.436817
-0.287691	-0.506667	-0.23963
-0.030252	-0.0634601	-0.626065
-0.216285	0.506724	0.305535
-0.117499	0.429563	-0.445611
-0.263069	0.531327	0.213039
0.152981	-0.258795	0.553644
0.523878	0.347546	-0.0407866
-0.363615	0.079455	0.508302
0.154272	0.601571	0.105888
-0.0337223	0.253521	0.575752
0.273034	-0.25277	-0.508389
-0.23911	0.544028	0.209187
0.0612227	0.246872	-0.576373
0.288886	-0.559857	0.00222316
-0.434231	-0.0352537	-0.455083
0.46304	-0.391835	-0.170173
0.618075	0.0262821	-0.119134
-0.617523	0.0919084	-0.0843721
-0.341017	0.392841	0.355363
-0.461143	-0.425346	0.0576862
-0.594856	0.197881	-0.0623666
-0.214631	0.592045	0.0177847
0.115455	0.609954	-0.107364
-0.515034	-0.20383	-0.300155
0.0373782	0.35143	-0.521536
0.146443	-0.360738	0.4953
-0.0626796	-0.580125	-0.237542
0.504042	0.362891	0.105602
0.228251	0.0416894	-0.585716
-0.523887	0.201227	-0.286268
-0.593089	0.0811324	0.196375
-0.0591183	-0.393607	-0.488343
-0.176568	-0.00201954	-0.604748
0.0895254	-0.0622708	0.62049
0.495909	0.0766239	0.380924
0.0912188	0.449486	-0.431904
0.483011	0.39501	-0.0869896
0.218593	0.281276	-0.519616
0.59488	-0.195191	0.0701256
0.508404	-0.314448	-0.198865
-0.356596	-0.480313	0.197582
0.56499	0.0880916	0.264436
-0.575356	0.242656	-0.0835665
-0.501446	0.236125	0.299494
-0.339504	-0.379349	0.371122
-0.211884	-0.501406	-0.317171
0.0820906	0.392344	-0.486032
0.448118	0.0426364	-0.440764
-0.296859	-0.0619964	0.552206
0.0446655	-0.61616	-0.123498
0.411621	-0.463831	0.111035
-0.541965	-0.0122625	-0.320973
-0.512212	0.366756	-0.0054031
-0.0472496	0.517997	0.355453
0.210322	-0.593235	-0.0271376
-0.0647838	-0.617785	-0.105094
0.0210281	0.488226	0.39761
-0.269968	-0.37619	0.427199
-0.226548	0.557756	-0.1857
0.100248	0.59539	-0.179891
0.444367	-0.446064	0.0215687
0.501014	-0.347308	0.158943
-0.374535	0.449568	0.233478
0.100682	0.49263	-0.379577
-0.230191	0.00141743	0.586439
0.0108483	0.622575	-0.0958252
-0.149745	-0.256831	0.555441
0.0950215	0.16108	0.601601
0.576064	-0.253152	-0.0310578
0.0243308	-0.62748	-0.0507689
0.287195	0.525099	-0.196698
0.446314	-0.225721	-0.383085
-0.57996	-0.185704	0.161432
-0.202362	0.543248	-0.24664
0.249267	-0.00364622	0.578578
-0.149055	-0.486929	0.370922
-0.539536	-0.251841	-0.205856
-0.413234	0.127605	0.458098
-0.39345	-0.437615	0.224923
0.416179	-0.40031	0.251887
-0.171462	-0.262718	0.546333
0.00741179	-0.0313765	0.629175
-0.148543	-0.0136582	-0.612085
-0.279109	0.124243	-0.550965
-0.0113425	0.134589	0.615351
-0.183538	-0.329956	-0.504324
0.509704	-0.314329	0.195701
-0.51156	0.0343672	-0.366095
0.176134	-0.0572964	-0.602158
-0.0223079	-0.356382	0.519032
-0.134555	-0.288149	0.543843
0.522804	0.221124	0.273277
-0.124489	-0.525831	0.323889
0.443957	-0.0781929	-0.4401
-0.181633	0.54296	-0.262877
0.229668	-0.167194	0.562316
-0.312374	-0.545841	-0.0371442
0.304995	-0.0756857	-0.546031
0.556661	-0.0283945	0.293637
0.61415	-0.0561271	-0.128723
-0.113005	0.550432	0.284877
-0.00326331	0.326065	-0.539047
0.16364	-0.293988	-0.532628
0.443308	0.439238	-0.0863033
-0.207362	0.584162	0.112498
0.425962	0.382765	0.262577
-0.243121	0.432174	-0.38861
0.512318	-0.194034	0.311096
-0.390795	0.419436	0.261252
0.313948	0.352849	0.416935
-0.0663351	-0.557158	-0.286486
0.476304	-0.412027	0.016374
-0.102069	-0.469042	-0.408021
0.515306	0.14883	0.330469
-0.310184	0.472605	-0.278084
-0.225852	-0.555684	0.19263
0.129787	0.392574	0.475333
-0.559662	-0.137194	-0.254669
0.561174	-0.0525061	0.281473
0.335674	-0.0436549	0.531336
-0.225912	0.587759	0.0200752
-0.211714	-0.585075	0.0988117
0.504528	-0.372319	-0.0610705
0.453918	-0.433988	-0.050133
-0.533116	-0.066796	0.328976
0.39142	-0.31018	-0.38403
-0.405517	-0.118714	-0.467293
-0.250624	-0.00245705	-0.577998
0.0925884	0.493073	0.381059
0.609754	-0.155848	0.0284902
0.560839	0.275635	0.0799063
0.539806	-0.208779	-0.248839
0.273489	-0.438818	-0.35992
-0.566862	0.0601851	0.268225
0.568161	0.0529422	0.267002
0.205586	0.560315	-0.201697
-0.388799	0.321193	-0.377586
-0.545983	-0.314246	-0.00719994
-0.560478	-0.0786498	0.276729
-0.153117	-0.610684	-0.0228062
0.625256	0.00816138	-0.0767331
-0.59478	0.171311	-0.117431
-0.340051	-0.527438	0.0554454
-0.417124	0.0138621	0.471927
0.12781	-0.588417	0.185284
-0.0593883	0.627188	0.00296869
-0.245799	-0.173114	0.553637
-0.231701	-0.563934	-0.158721
0.15155	0.113107	-0.600949
-0.351113	0.0783005	-0.517193
0.10846	-0.442168	0.435458
-0.459887	0.198232	0.38224
0.58148	0.0400767	0.239112
0.420389	0.376398	0.280175
-0.0765058	-0.0873507	-0.619207
-0.626718	0.0491645	-0.0413168
0.20751	0.400722	0.439615
0.00999891	0.203272	-0.596222
0.00507222	0.541026	0.322747
-0.46962	0.303227	0.290535
-0.231901	-0.401199	0.426804
0.167242	0.60309	0.0722013
-0.521001	0.0636875	0.348428
-0.195391	-0.443096	0.402974
-0.340518	-0.160973	-0.50501
-0.368474	0.259608	0.440148
0.566696	-0.0419422	0.272023
0.503031	-0.0434317	-0.376794
-0.543379	-0.30895	0.078671
-0.534215	-0.179406	-0.281651
0.584361	-0.0033359	-0.235395
0.206963	0.030129	0.594271
-0.0757509	-0.462806	-0.420681
0.235764	-0.556776	-0.176962
0.0766239	0.501738	0.373213
-0.481758	-0.0167242	-0.405623
-0.183173	0.158151	-0.581666
0.41353	0.172135	-0.443015
0.283953	0.562348	0.00592821
-0.0485987	-0.226397	0.585903
0.437519	-0.336382	-0.303848
0.068674	-0.159565	-0.605577
0.436243	-0.434804	-0.132428
-0.610031	-0.156818	0.0130634
-0.330925	-0.475379	-0.247798
0.336055	0.52058	-0.113857
-0.354669	0.435836	-0.284881
-0.580398	0.186294	-0.159163
-0.50789	0.214218	-0.305054
0.141226	0.225594	-0.571019
0.432141	-0.30527	0.342
0.302952	0.53727	-0.128299
-0.445495	0.120046	0.428979
-0.380086	0.317283	0.389572
0.522689	-0.340024	0.0898917
-0.13783	-0.520101	-0.327717
0.498181	-0.362592	-0.13131
0.0623548	-0.523018	-0.345636
0.475107	0.405808	0.0805766
-0.38286	-0.28879	0.408556
0.355042	0.503351	0.132223
-0.227228	0.444925	0.383809
-0.10673	-0.581752	0.216963
-0.626941	-0.0448118	-0.042862
-0.1008	-0.207686	0.586179
0.296753	-0.507218	0.227086
0.372266	-0.498795	0.0975793
0.307623	0.367309	-0.409087
-0.338851	-0.530087	0.0329763
-0.363834	0.233734	-0.458141
-0.390074	0.47585	0.135311
0.378799	-0.0367565	-0.502056
0.56067	0.284638	-0.0391165
-0.627132	-0.060005	0.00230692
-0.281055	0.538346	-0.167605
0.246073	0.404532	0.415574
-0.153156	-0.380351	0.478306
0.266692	-0.000313751	-0.570767
-0.375829	-0.476037	-0.170414
-0.489433	-0.370187	-0.142539
0.424152	-0.453187	0.107782
0.246168	0.568459	-0.1147
0.262026	0.00940376	-0.572847
-0.627072	0.0432468	-0.0425551
-0.197535	0.067106	-0.594455
-0.216374	-0.448028	0.386462
0.314323	-0.540925	-0.074168
0.620711	0.0265266	0.104474
-0.292902	0.552291	0.077994
-0.329472	-0.208768	0.494736
-0.443373	-0.271967	-0.355464
-0.248092	-0.350942	-0.460641
0.148502	0.371008	-0.487032
0.0666706	-0.624752	0.0462572
0.176219	0.477335	0.371481
-0.101942	-0.345751	0.516686
-0.263705	-0.300203	0.487071
-0.0829369	0.624146	-0.0215234
-0.53739	-0.320028	-0.075458
-0.558117	-0.257754	-0.137723
-0.554908	0.238182	0.179574
0.4719	0.340555	0.241315
0.282651	0.173724	0.535564
-0.0645356	-0.618086	0.103465
0.358692	0.491581	0.16306
-0.0812012	-0.27151	-0.562662
0.111888	-0.267148	-0.559476
0.511035	-0.190768	0.315199
0.309565	-0.268705	0.478401
0.487411	-0.301088	0.262063
-0.613326	0.0707692	-0.125392
0.541955	-0.186987	0.26119
-0.53193	0.334743	0.0435643
-0.0148879	0.629777	-0.00772074
0.554227	0.27414	0.120743
-0.234596	-0.306116	0.498154
-0.266553	-0.491757	0.289871
0.176063	0.0369484	0.603769
-0.473354	-0.0314358	0.414546
-0.115512	-0.614963	0.0733331
0.153176	0.545296	0.275843
0.572076	-0.19033	0.182766
0.161031	0.322849	-0.516466
-0.111183	0.394088	0.478783
0.0467077	-0.115471	-0.617564
-0.450784	0.408007	-0.164997
0.0368188	-0.408589	-0.478121
-0.112895	0.520026	-0.337235
-0.369604	0.220807	-0.459932
0.250979	0.562839	-0.130848
0.252481	0.226889	-0.53073
-0.0991491	-0.593749	-0.185826
-0.421098	0.281412	-0.374678
0.451908	0.433909	0.066345
0.117345	-0.611075	-0.0985798
0.219411	0.339532	-0.483195
-0.0135068	-0.609755	-0.157849
-0.437008	-0.128905	-0.435095
-0.238731	0.0274126	0.582371
0.506846	-0.0529091	-0.370415
0.0154657	0.628048	0.0470759
-0.0405811	-0.604463	0.172852
-0.409532	0.412805	0.242436
-0.441634	0.356658	-0.27323
0.398152	-0.32618	-0.363293
-0.59492	-0.204511	0.0338493
-0.15199	-0.230628	-0.566224
-0.205788	-0.333054	-0.493585
-0.623852	-0.0333199	-0.0812294
0.423668	0.26726	-0.382069
-0.12521	-0.116271	0.606386
0.153918	0.470291	0.389917
0.52871	-0.129442	0.317192
0.305287	0.511267	-0.205685
-0.283919	-0.329195	-0.455983
0.0996414	-0.43174	0.447853
0.247356	-0.330623	-0.475819
0.0244958	-0.216271	0.591208
0.325702	-0.0666501	-0.535141
0.313515	-0.393307	-0.379365
0.575168	0.14374	0.213121
0.352851	0.45742	0.251322
0.574184	-0.129929	-0.224346
-0.366106	-0.304946	-0.412158
0.417453	-0.271416	-0.385962
-0.52716	0.289073	0.188253
-0.294288	-0.160884	0.533302
-0.437467	0.161453	0.423622
0.367342	-0.374269	-0.349117
0.343889	-0.387167	-0.358806
-0.343348	0.0777084	0.522468
-0.0207202	-0.545151	-0.31509
-0.0293747	0.625459	0.0695564
-0.113777	-0.594022	-0.176331
0.535538	0.14079	0.300462
-0.273743	-0.0789431	0.561901
-0.0067569	0.49289	0.392319
0.116757	0.208754	-0.582829
-0.2677	-0.165827	0.545654
-0.0319936	0.291146	0.557773
-0.355417	0.516059	0.0652823
0.364587	0.513631	0.0126198
-0.171194	0.525051	0.303173
-0.0359499	-0.013321	0.628832
-0.471037	0.35709	-0.217969
-0.502591	-0.211001	-0.315881
0.127277	-0.42876	-0.443695
0.502403	0.346178	-0.15701
-0.50208	-0.0810099	-0.371823
0.0692803	0.0100619	-0.626098
0.389898	0.1973	0.45382
0.270499	-0.0880219	0.562123
-0.0192337	0.37875	0.503069
-0.222136	0.589404	0.0126038
-0.143918	0.476037	0.386751
0.510322	-0.0453061	0.366632
0.126421	-0.374503	0.490576
-0.526885	0.232824	-0.255117
0.221645	0.507765	0.299914
-0.550971	0.179395	-0.247282
0.252536	0.427875	0.387362
0.0990914	0.505933	0.362095
-0.567748	-0.00927683	-0.272904
-0.430151	-0.26675	0.375119
-0.389953	0.191789	-0.456129
-0.414442	0.396369	-0.260826
-0.598487	-0.145249	-0.132724
0.217286	0.557512	-0.197148
0.353788	0.496643	-0.158364
0.0271374	-0.443919	-0.446206
-0.452061	0.260455	-0.353135
-0.499977	-0.375357	-0.0776538
-0.124486	-0.472647	-0.397502
0.174896	-0.60419	0.0355825
-0.431944	0.444484	-0.112951
-0.128993	0.613482	-0.0624546
0.140571	0.0520039	0.611911
0.524773	0.348553	0.00493647
0.158037	-0.49143	0.361138
0.565082	0.210133	-0.18283
0.417912	-0.134618	0.451805
0.319742	0.0247565	-0.542266
-0.357699	0.300135	0.42293
-0.0354404	0.148456	-0.611232
-0.00148972	-0.0216412	-0.629626
0.218545	0.0407922	0.589469
0.577618	0.0949048	-0.232918
0.136406	0.250464	-0.561748
0.151037	-0.275564	0.546033
-0.189433	0.551676	0.238053
-0.132508	-0.260483	0.558113
0.432077	0.415588	0.193639
-0.400412	0.0945637	0.477103
-0.42768	-0.13305	0.443044
-0.371597	-0.46586	0.204425
0.452794	-0.435435	0.0476831
0.322931	-0.217595	0.495245
0.576748	-0.23962	0.0827278
0.101051	-0.349371	-0.51442
0.00550644	0.171692	-0.606128
-0.156942	-0.356134	-0.495417
0.52835	0.305811	-0.155647
0.57878	0.108858	-0.223749
-0.0652985	0.524562	-0.342739
-0.353924	-0.157463	-0.496833
0.128063	0.613007	0.0687213
0.51992	0.311142	-0.172551
0.288792	-0.518825	-0.210521
-0.329114	-0.410102	0.346988
0.0361882	-0.339612	0.529391
0.463921	0.213356	-0.368994
-0.5208	0.139664	-0.325825
0.602215	-0.139178	0.121931
-0.527583	0.194723	-0.28397
-0.329404	0.528794	0.0936453
0.45291	0.41747	-0.132256
0.35949	-0.470152	0.215927
0.602595	-0.139528	-0.119627
0.486833	-0.204375	0.343692
0.268869	0.369776	0.433446
-0.446687	-0.428475	0.117386
-0.529015	0.331142	-0.0859524
0.587197	-0.228012	0.0104768
-0.164742	-0.508591	0.333309
-0.150023	-0.112075	0.601525
0.594269	-0.111323	0.177065
-0.340169	0.308007	0.431645
0.369548	-0.50994	0.0171801
0.129438	0.584797	0.19534
-0.328096	-0.357281	-0.401999
