0.580586	0.0195626	-0.243797
-0.546686	-0.272215	-0.154705
-0.461414	0.352974	0.243734
-0.57602	0.0246824	-0.253952
0.34447	0.456445	0.264383
0.37662	-0.37611	-0.337045
0.619825	0.0866298	0.0721943
0.232303	0.55771	-0.17859
-0.28794	-0.445407	-0.340005
0.473839	-0.0778037	-0.407827
-0.0728184	0.35591	-0.514709
0.179759	0.570113	-0.198891
-0.125749	-0.49333	-0.371097
0.132565	-0.0119644	0.615779
0.441244	0.255553	-0.369996
-0.164798	-0.604443	0.0662607
-0.360994	-0.352516	-0.377248
-0.473945	-0.264074	0.320221
-0.460166	0.152211	0.402467
-0.355452	0.00773732	-0.52009
-0.324307	0.0712204	0.535399
0.138556	0.413944	0.45426
-0.133993	0.608462	0.0933788
0.14955	0.196363	-0.579635
0.0194091	0.195231	0.598672
0.218649	0.252505	-0.534167
-0.330772	-0.24917	0.474767
-0.179542	-0.217153	-0.56348
0.0302374	-0.459127	-0.430335
-0.0287311	0.561112	-0.285004
-0.23704	-0.553182	0.186285
0.182061	-0.350951	-0.490497
0.191191	-0.403515	0.444434
-0.540281	0.307916	0.100917
-0.0549973	-0.140144	-0.611747
-0.522523	-0.190911	0.295674
-0.00695308	0.348017	-0.525105
-0.537873	0.294441	-0.144557
-0.629031	0.0194158	-0.0290253
0.62513	-0.0761096	0.0178941
-0.468387	0.105232	0.40797
-0.348453	0.488911	-0.190908
-0.560574	0.269113	0.10117
-0.313587	-0.419535	0.350077
0.249254	0.199761	0.543018
-0.276544	-0.509176	-0.247311
0.435955	-0.453666	0.0320921
0.29573	0.547167	0.100257
0.109905	0.453493	0.423279
0.0236933	-0.0934733	-0.622576
0.370135	0.509409	0.0200555
0.133774	-0.615633	-0.00030646
0.412468	-0.186273	-0.43826
0.426615	-0.419611	0.197045
-0.44259	0.448306	-0.00598939
0.513248	-0.154267	-0.331176
-0.357796	0.497966	0.14461
0.0609202	-0.621793	-0.0810093
0.372638	-0.0545074	-0.505045
0.360863	-0.187199	0.481284
-0.252316	-0.48261	-0.31674
0.62655	-0.0654303	0.00735917
0.510448	-0.21785	0.298134
0.62696	-0.0168081	-0.0594883
0.442087	-0.227375	0.386988
0.0529607	0.624685	0.0621574
0.2358	-0.579467	-0.0742758
-0.188646	-0.433062	-0.416857
0.235874	-0.530495	-0.244619
0.149361	-0.538359	-0.291138
-0.155814	0.567651	-0.224487
-0.269682	-0.460938	-0.334226
-0.592646	0.108782	-0.183951
-0.487284	0.0901129	-0.389016
0.3252	0.534701	0.0723847
0.453518	-0.386844	-0.203895
-0.433204	-0.169653	0.424797
-0.612881	0.0440265	0.139064
0.467179	-0.224012	-0.358416
0.615194	-0.131511	-0.0337875
0.339431	-0.344668	0.403598
-0.0201157	0.377736	-0.503796
-0.0774354	0.363366	-0.508792
-0.267396	0.335754	0.46116
0.151867	0.267898	-0.549606
-0.241935	-0.577764	-0.0674989
-0.62531	-0.0676673	-0.0361821
-0.410771	0.430723	0.206507
-0.429657	0.026897	-0.459969
-0.462011	0.262907	0.33812
0.492374	0.295149	-0.259528
-0.483651	-0.400201	0.053111
0.467718	0.132212	0.400824
-0.338523	-0.141058	-0.512255
0.189846	0.52452	-0.29281
-0.244904	-0.151838	0.560239
-0.194846	-0.380799	0.462522
-0.288592	-0.445229	-0.339685
-0.336674	-0.450077	-0.284572
0.499754	0.0865266	-0.37371
0.261668	0.213061	0.53201
-0.485202	0.115742	0.384815
0.0105329	-0.628114	-0.0475534
0.429354	-0.457788	-0.0546352
-0.334853	-0.345936	0.406327
-0.156446	0.593092	0.143757
-0.621343	-0.102571	-0.0176633
0.406311	0.464911	-0.125173
-0.604659	-0.125362	-0.124788
0.628547	-0.0291952	0.0312488
-0.0394498	-0.62094	-0.0988809
0.414976	0.449398	0.150786
0.143644	0.193775	-0.581994
-0.0305597	-0.293093	-0.556833
0.518434	0.282575	-0.219721
0.381714	-0.386277	0.319349
0.265914	0.322161	0.471595
0.506485	-0.33523	-0.167313
-0.498808	-0.128623	0.362694
0.557721	0.285798	-0.0645502
0.214627	0.589578	-0.0568572
0.0726851	-0.216297	-0.587224
-0.491263	0.388314	-0.0690838
-0.128925	-0.0229011	0.616242
-0.236	0.581371	-0.056669
-0.449592	0.0392835	0.439572
0.572548	0.248998	-0.0841975
0.443525	0.432721	-0.113743
0.329917	0.359834	-0.398214
-0.313915	-0.327263	-0.437329
-0.433965	0.0875044	0.448238
-0.190639	-0.500498	-0.331751
0.301364	0.236058	0.500357
-0.312802	0.235465	-0.49357
0.540023	-0.0438697	0.321483
-0.437078	0.431291	0.140895
-0.424499	-0.403849	-0.231531
0.500936	-0.12856	-0.359771
0.445232	-0.191219	-0.402621
-0.411191	-0.0335364	-0.476127
0.213293	-0.221706	-0.549775
-0.20008	-0.356762	0.479154
0.610451	0.10986	0.110365
0.417628	0.374444	0.286843
-0.539546	0.0485965	0.321603
0.609962	0.112935	0.109963
-0.176347	-0.577717	0.17901
-0.316185	-0.398788	0.371342
-0.417985	0.358143	0.306467
0.162819	0.280814	-0.539938
0.584285	0.226793	0.0638392
0.607765	0.0619045	-0.153915
0.119642	-0.140566	-0.602351
0.407234	0.343869	0.335878
-0.533895	0.0816218	-0.324337
0.00273946	0.456988	-0.433652
0.311613	-0.536369	-0.110023
0.604579	0.0878	-0.15387
-0.27191	-0.237838	0.516138
0.356387	0.238496	0.461528
0.281619	0.559771	0.0651661
-0.0437994	-0.580239	0.241463
0.171594	-0.222615	0.563825
-0.547623	-0.300258	-0.0827917
-0.326891	-0.198569	0.500612
0.36927	-0.474983	0.186899
-0.13473	-0.375531	-0.48757
-0.303013	-0.0395421	-0.550926
-0.130602	0.301631	0.537459
-0.260101	0.0897699	0.566735
-0.090146	0.329566	-0.529301
-0.203022	-0.0687123	0.592419
-0.18826	-0.480784	-0.360978
0.0396521	0.55014	0.304423
0.480781	0.359955	-0.190216
0.101486	-0.0495432	-0.619795
-0.147934	-0.240656	-0.563117
-0.166115	-0.324891	0.513568
-0.515293	-0.301782	-0.20075
-0.108166	0.028285	-0.62
-0.272468	-0.543969	0.16358
-0.370263	0.508877	0.0291491
-0.230127	0.0112856	0.586357
0.161242	-0.446816	0.413831
0.551293	-0.26115	-0.157405
-0.280813	-0.166705	-0.538752
0.573956	-0.109806	0.235408
-0.134787	0.173946	-0.590318
-0.175349	0.170415	-0.580613
0.425976	0.436949	-0.15659
-0.457499	-0.427168	0.0715736
-0.426038	-0.463424	0.0250887
-0.513091	-0.365531	0.00493604
0.00637579	0.313471	0.546439
0.0561209	-0.24599	0.577269
0.553623	-0.297408	-0.0441624
0.31671	-0.542602	0.0466663
0.608691	0.130471	-0.0968147
0.210118	-0.580573	-0.125241
-0.0773987	0.437612	-0.446548
0.234756	-0.28007	-0.513177
0.190292	-0.514878	-0.309175
0.246555	0.511849	-0.272252
-0.0565618	0.200618	-0.594519
-0.572455	-0.244368	-0.0973641
-0.35519	0.0956181	0.511466
0.0989276	0.587352	0.205257
0.614949	0.0951238	0.0984335
-0.550069	0.00420224	-0.307094
0.285388	0.560488	0.0361438
-0.460157	0.0816489	-0.422479
-0.103036	0.278366	0.555694
-0.169486	0.141138	0.590131
-0.0590482	0.625785	0.0424964
-0.313229	0.0255486	0.546017
0.543527	0.168906	-0.270091
0.601476	0.163099	0.0923325
-0.554096	-0.269184	-0.131975
0.46814	0.279136	0.315956
-0.519016	-0.0414978	0.354684
0.391822	-0.398221	-0.291198
-0.198041	0.0932799	-0.590744
-0.325283	0.426972	-0.329827
0.368039	-0.319027	0.399586
-0.136663	0.433251	-0.436482
-0.451294	-0.122152	-0.422271
-0.229316	0.501849	-0.304076
-0.0898663	-0.356236	0.511781
0.0145868	-0.541805	-0.321146
-0.314856	-0.528858	0.134441
0.203552	0.547365	0.236344
0.271208	-0.563976	0.0726445
0.418342	0.224288	0.414227
0.353718	-0.223712	-0.470889
-0.45465	0.0145903	0.435868
-0.10881	-0.348223	-0.513616
0.367454	-0.478311	-0.181924
-0.347604	-0.397068	-0.344105
0.130028	-0.585944	-0.191475
-0.549468	-0.283699	0.120418
0.557055	-0.24618	0.161198
-0.406554	0.460382	-0.140224
-0.0141172	-0.607814	0.165116
-0.376168	0.493979	0.106689
-0.378969	-0.334961	-0.375611
0.598867	0.0946728	0.171159
0.0564386	-0.17567	0.602374
-0.492582	0.387402	-0.0646714
-0.221463	0.581164	0.100513
-0.471622	-0.37524	-0.183487
-0.551783	0.237639	-0.18964
-0.0810522	-0.315	0.539542
-0.548206	0.303095	-0.0671121
0.442021	0.161078	0.419013
0.391061	-0.0659873	-0.489507
-0.588792	0.174246	-0.140935
0.352391	0.25974	-0.453051
-0.0500167	0.480098	-0.404851
-0.338338	-0.500647	-0.17827
0.608353	0.133474	-0.0948242
-0.109897	0.149988	-0.601935
0.0311662	0.625777	-0.0658182
-0.172407	-0.581336	-0.170952
0.563121	0.0356906	-0.280217
-0.0179862	-0.615256	0.1343
0.338298	-0.221646	0.48304
0.163631	-0.375692	-0.478519
0.556485	-0.162425	-0.246663
-0.565543	0.00669342	-0.277518
0.20363	-0.525585	-0.281417
-0.473922	-0.279306	-0.307061
-0.0409811	0.129249	-0.615236
-0.544781	0.0535368	-0.311846
0.249328	0.562519	-0.135307
-0.21763	-0.356513	-0.471631
0.424022	0.287223	0.36689
-0.0150302	-0.225811	0.587948
0.0867193	0.347683	-0.518166
0.222633	-0.211801	0.549977
0.216558	0.059159	-0.588645
0.541431	0.318502	-0.0480464
-0.604826	0.108861	0.138692
-0.319776	0.396312	-0.370917
0.303789	0.344511	-0.43119
-0.366949	-0.493162	0.137986
0.321923	-0.235487	-0.487659
-0.413352	0.449261	-0.155578
-0.210738	-0.463698	-0.370775
-0.106108	-0.576432	-0.231014
0.553182	0.205424	-0.220659
0.384403	0.28861	-0.407233
0.228169	-0.370833	-0.455326
-0.392131	0.245888	-0.427402
0.263363	0.0332725	0.571343
-0.2782	-0.554088	-0.111763
-0.0420551	-0.0711198	-0.624559
-0.247003	-0.311413	-0.488786
0.00827557	0.28779	0.560364
-0.150631	-0.394206	0.467773
-0.159408	0.049887	-0.607454
0.256069	-0.0743602	0.570788
0.29006	0.529183	-0.180916
0.167939	0.258439	-0.54946
0.119086	0.0795291	0.613509
0.292948	-0.556647	-0.0350113
-0.282946	0.392804	-0.403171
0.170615	-0.208257	0.569578
-0.0592559	0.0809001	-0.621968
-0.512267	-0.226616	0.288319
0.11965	0.618529	-0.00230787
-0.535887	0.319644	0.0869081
-0.543952	-0.315056	0.0419076
-0.589598	-0.148386	-0.165092
-0.421188	-0.316039	-0.345861
0.26669	-0.507031	-0.2621
0.361611	-0.20918	0.471573
0.444533	-0.0889936	-0.437459
0.0516169	0.610256	-0.147727
0.0189894	0.456342	-0.433925
-0.297795	0.468509	0.297855
-0.494768	0.197194	0.336481
0.453045	-0.321641	0.296981
0.0607266	-0.477066	-0.406965
-0.0546511	0.472958	-0.412582
-0.151737	0.573386	-0.212378
-0.602314	-0.118503	0.141684
-0.43083	-0.0764699	-0.453252
-0.151239	0.498944	-0.353668
-0.0885591	-0.44336	-0.438736
0.560315	0.164739	-0.236237
-0.00706005	0.0348992	0.628993
-0.486639	0.361422	-0.17163
0.13162	0.155122	-0.596249
-0.291412	-0.476272	0.291794
-0.317007	0.520671	-0.159087
0.00362988	-0.54771	0.311289
0.303561	-0.517151	-0.193147
0.495292	-0.292631	0.256813
0.398254	0.212168	-0.439635
0.374819	-0.278152	0.423134
0.320982	0.41837	-0.344727
-0.311599	-0.545508	-0.0471936
0.527318	-0.308954	0.152914
-0.167975	0.582619	-0.170998
0.173291	0.152453	0.586198
-0.624805	0.0216632	-0.0777755
-0.359471	-0.112857	0.50492
0.24076	-0.498447	0.300807
0.573472	-0.135683	0.222756
-0.207604	0.447849	0.391448
-0.105661	0.497666	0.37157
0.190359	0.0729527	0.596105
0.184688	-0.563023	-0.214
0.311141	0.0673378	0.543651
0.594038	-0.0726784	-0.196817
-0.143861	0.365316	-0.492695
0.184845	0.448119	-0.402395
-0.0525645	-0.283858	-0.559966
-0.468769	0.313643	-0.280684
0.290868	-0.41242	-0.377101
0.00586076	0.31334	-0.54652
0.00858259	-0.106747	0.620831
-0.591859	0.199783	-0.0817915
0.0251563	-0.354291	0.520332
0.455433	0.420259	0.113414
0.610818	0.0548515	-0.144198
0.322858	0.344771	0.416888
0.565633	0.129899	-0.245124
-0.164862	-0.140138	0.591677
0.178983	-0.16953	-0.579763
-0.0497694	-0.420183	0.466765
-0.603667	0.177036	0.0338327
-0.531961	-0.237084	-0.240227
-0.532472	-0.267803	0.204096
0.217628	-0.539351	0.242155
-0.621147	-0.040984	-0.0969381
0.10102	-0.500089	-0.369602
0.589215	0.0545836	-0.216209
-0.286615	0.552881	-0.0952582
0.491146	-0.366356	-0.14649
0.2222	-0.236548	0.539974
-0.429583	0.0572222	-0.457257
-0.00866292	0.255273	-0.5759
-0.488996	-0.27881	0.282928
-0.612244	-0.130743	-0.0704495
0.144807	0.608548	0.0748385
-0.120491	-0.474029	-0.397087
-0.380633	0.34805	0.361773
-0.017134	0.577817	-0.250466
0.481026	0.379674	-0.146158
-0.178168	-0.299372	0.524912
-0.344451	-0.087464	-0.520196
0.437752	0.189154	0.411697
0.447897	-0.0823193	0.435329
0.473163	-0.38255	-0.163317
-0.574447	-0.152558	0.208894
0.243428	0.49168	0.309667
-0.508624	-0.285411	-0.238205
-0.510091	-0.364057	0.0645682
-0.507288	-0.366868	-0.0704783
0.246573	0.463673	0.348008
-0.525907	0.105312	0.330501
0.177476	-0.310575	-0.518599
0.212208	0.389645	-0.447264
-0.222353	0.124244	0.576214
0.318611	0.202021	0.504554
-0.189887	-0.517317	0.30533
0.197617	-0.597739	0.023571
0.026226	-0.597648	-0.197557
0.389551	0.486699	0.0909593
-0.629624	-0.00520758	0.0211216
0.569074	-0.134015	-0.234722
0.558669	0.228336	0.180699
0.552999	-0.300599	0.0270621
-0.120729	0.0993354	-0.610293
0.276779	-0.506539	-0.252411
0.379404	-0.283188	0.415641
-0.0140241	-0.623675	-0.0879331
0.546198	0.160797	-0.269652
-0.12109	-0.0164971	0.618033
0.126964	0.616417	-0.0284704
0.0164794	0.619131	0.115346
-0.123471	-0.58584	-0.196078
-0.608808	0.0718235	0.145238
-0.491546	-0.18446	-0.34822
0.376025	0.23391	0.448097
0.100423	0.0058444	-0.621917
-0.546386	0.00272853	0.313615
-0.0806589	0.623708	0.0371785
-0.298021	0.339213	-0.439338
-0.518852	-0.355933	0.0317033
-0.50624	0.324526	0.187894
-0.426679	-0.339519	-0.31555
-0.424534	-0.441019	0.148906
-0.410706	-0.443714	0.177028
0.327001	0.0195403	-0.538134
0.345597	-0.348732	0.394777
-0.301656	0.534792	0.141072
-0.297643	-0.310175	0.460543
-0.625389	-0.0690408	0.0319687
-0.5716	0.169306	-0.203739
0.501603	-0.319542	0.207817
-0.0598813	0.193349	-0.596599
-0.0362345	0.433072	-0.456109
0.621242	0.101726	-0.0247084
-0.0151726	0.604664	-0.176213
-0.0548989	-0.4648	-0.421719
-0.0900904	-0.414614	0.465702
0.452989	0.373891	-0.22783
-0.162457	0.00469777	0.608675
-0.460735	0.310903	-0.296585
0.530913	-0.109182	0.321109
-0.469714	-0.339979	-0.246339
0.531977	-0.11815	0.316134
-0.00675065	-0.626278	-0.0680487
0.0895115	-0.576065	0.238823
0.160838	0.31107	0.523704
0.192587	0.490841	0.344798
0.231838	0.458644	0.364413
0.606953	0.000653671	0.168843
-0.315117	-0.120803	0.531985
-0.353304	-0.0290906	-0.520798
0.0175055	-0.615488	-0.133296
0.401952	0.0303033	0.484165
-0.0613233	-0.197424	-0.595116
-0.527615	-0.0141043	0.343981
-0.102119	0.407849	-0.469181
-0.589966	-0.214659	-0.0525462
0.240779	-0.246687	-0.527324
0.18401	-0.549017	-0.248235
-0.31339	0.536106	0.106194
0.35026	0.185156	-0.489832
0.237924	0.0924202	-0.575978
-0.134297	0.55298	0.270328
-0.292645	0.261095	0.49304
-0.437245	0.40646	0.201262
-0.58225	0.125189	0.205458
-0.0503625	-0.26589	-0.568917
-0.465055	0.424541	-0.0197331
0.187847	0.0728616	-0.596913
0.227537	-0.427097	-0.40338
0.0713072	0.410378	0.472658
0.296157	0.284056	0.47802
0.186182	-0.196102	-0.569017
-0.35372	-0.273476	-0.44384
0.455825	0.0273611	0.434022
0.560471	-0.266289	-0.108911
0.41531	-0.0352526	-0.472414
-0.162389	-0.454709	0.404684
0.257822	-0.574026	0.0303637
-0.0105297	-0.393213	-0.492111
0.269185	-0.467324	0.32565
-0.0910001	-0.142065	0.60699
-0.562732	0.264546	0.101233
-0.619834	0.0745266	-0.0845642
0.624327	-0.035366	-0.0765831
0.58318	0.178429	0.158002
0.17305	-0.0481239	0.603852
-0.247392	-0.127858	0.56511
-0.0541643	-0.53396	0.329929
