0.130717	0.137764	-0.600695
0.180222	0.396463	0.455234
0.33947	0.394549	0.354952
0.381585	0.430178	0.25737
0.321914	0.381327	0.384527
-0.28154	0.195484	-0.528603
0.0133971	-0.620906	0.105815
-0.120816	-0.187122	-0.589312
0.0964575	-0.0476748	0.620744
0.364187	-0.0948172	0.50525
-0.507244	0.3555	-0.114993
-0.489478	-0.0559645	-0.392657
0.352945	0.396272	0.339556
0.410057	0.326985	0.349048
-0.010089	0.185549	0.601972
0.223663	-0.528868	-0.259179
0.140578	0.611787	0.0534242
-0.496012	-0.388383	0.00554041
0.00503756	0.196564	0.598529
-0.177622	0.232377	0.557989
-0.387239	-0.494129	-0.0527498
0.452249	0.0987796	-0.427333
0.580911	0.165287	0.179228
0.606472	0.0861564	0.147201
0.500723	-0.165382	0.34471
0.159507	0.600413	0.1047
0.603264	0.178139	0.0351979
0.23709	-0.495349	-0.308735
-0.439884	-0.283301	-0.350917
0.615506	-0.122788	-0.0545507
-0.0634573	0.409981	0.474119
0.111553	-0.276321	-0.55507
0.599219	-0.190306	0.0402602
-0.0442673	0.608849	0.155704
-0.299066	-0.552463	0.0473706
0.360285	-0.375921	-0.354652
-0.243814	-0.0900601	0.573885
0.284364	-0.525229	-0.200428
0.0515247	0.336227	0.53028
-0.462234	0.14146	0.404016
-0.0775815	-0.250392	0.572874
0.383866	-0.193345	-0.460613
0.542078	-0.0330789	0.319307
-0.487065	-0.354584	0.184221
0.422537	0.362124	0.295344
-0.13951	-0.0603911	-0.611383
0.331259	0.450006	-0.290967
0.541421	0.279306	-0.160471
0.133272	0.541136	0.293787
-0.0756875	0.572987	0.250713
0.0868516	-0.332368	-0.528099
-0.332353	0.311099	0.435498
0.628499	0.0158524	0.040469
-0.536002	0.00461797	-0.33103
-0.47185	0.393505	-0.139326
-0.0483973	0.189481	0.598878
-0.128398	-0.529858	0.315697
-0.0507026	-0.627084	0.033092
-0.526501	-0.0453249	0.34299
-0.494769	0.389887	-0.00956095
-0.377508	-0.149489	0.481706
-0.238436	-0.0460468	-0.581316
0.567468	-0.273012	-0.018569
-0.432143	-0.163671	-0.42821
-0.033763	0.565263	0.276113
0.421583	0.361266	0.29775
-0.00777878	0.604918	0.175822
-0.629439	0.00171985	0.0265365
-0.505005	-0.0211705	0.376061
0.0923512	-0.605127	0.14897
0.196876	-0.0505697	0.596307
0.155356	0.334438	0.510799
-0.404098	0.132432	-0.464829
-0.179943	0.579426	0.169663
0.10147	-0.094871	-0.614494
0.494915	0.131913	-0.366821
0.29066	-0.557975	-0.0328724
-0.325295	-0.482461	-0.241484
-0.122238	0.452731	-0.420705
0.2553	0.451269	-0.35788
-0.480717	0.166282	-0.371701
0.477262	0.379723	-0.157895
0.108617	0.0261798	0.620014
0.176819	0.0631815	0.601368
-0.567711	-0.265887	-0.0625184
-0.284453	-0.556007	0.0827174
-0.556142	-0.270537	0.120068
-0.489305	-0.219463	0.330631
0.427205	-0.241179	0.395257
-0.193318	-0.428621	-0.4193
0.362775	-0.369237	0.359107
0.340569	-0.13953	0.511316
0.298285	-0.458142	-0.3131
0.467498	-0.256296	-0.335646
0.625143	0.00795202	0.0776686
0.544671	0.267091	-0.169988
-0.561042	-0.268899	-0.0991222
-0.623789	-0.0815551	-0.0337034
0.276438	0.491583	-0.280763
0.466151	0.397583	-0.146733
-0.534066	0.0925902	-0.321093
0.517221	-0.270099	0.237547
-0.0440542	-0.359664	0.515365
-0.27486	-0.406301	-0.395311
-0.555115	-0.0560804	-0.292579
-0.122219	0.586008	-0.196359
0.495612	-0.146931	-0.360111
-0.477828	0.170588	-0.37347
-0.327037	-0.348675	-0.410333
0.0539037	-0.302588	0.549941
0.0808376	0.52286	-0.342028
0.0952722	0.0372521	-0.621639
0.314294	-0.353646	0.415997
0.0567795	0.625713	0.0464727
0.250691	-0.568346	0.105057
-0.292525	0.421316	-0.365817
-0.352674	-0.454404	0.256979
0.153022	-0.393695	-0.467427
-0.338734	-0.514574	-0.131805
-0.387385	0.33059	-0.370869
0.285075	-0.165326	0.536936
-0.0685882	-0.144351	-0.609392
-0.0357984	0.371571	0.507497
0.595035	-0.206033	0.0196037
0.421655	0.17449	-0.43435
-0.518272	-0.148512	0.325943
-0.435144	-0.0998348	-0.444503
0.593145	0.197786	-0.0771999
-0.35578	0.453537	-0.254214
0.462603	-0.0399208	0.425799
0.170905	-0.573703	-0.196358
0.198581	0.484678	0.350075
0.0206116	0.559531	-0.288791
-0.186688	-0.529254	0.286247
0.60594	-0.0153664	-0.171756
-0.351313	0.442725	-0.278341
0.504244	0.248124	0.284733
0.174114	-0.153342	0.585722
-0.193574	-0.176757	-0.572875
-0.377329	-0.318773	0.391033
-0.348338	-0.430353	0.300594
0.289102	0.243508	-0.504008
-0.149578	0.53752	0.292572
-0.5395	0.315478	0.0794554
-0.336367	-0.529133	0.0614473
0.146768	-0.522279	-0.320287
-0.549265	0.0819343	0.29748
0.0310112	0.190306	-0.599768
-0.557095	0.29411	0.0067215
0.530896	0.335031	0.0529433
-0.456351	-0.107511	0.420815
0.177466	0.322885	0.511029
-0.117309	0.16903	0.595456
0.176747	0.290944	-0.530106
0.437499	0.0341571	-0.452027
0.246839	0.0918691	-0.572303
0.176406	-0.0629892	-0.601509
-0.279682	-0.137842	0.547428
0.560997	0.0814823	-0.27485
-0.421543	0.102719	-0.456783
0.471523	0.317035	-0.272131
0.148853	-0.416488	0.448643
0.147699	0.214624	0.573604
0.450578	-0.290959	0.330488
-0.375911	-0.237053	0.446539
-0.558601	-0.220879	-0.189941
0.460945	-0.428488	0.0287658
0.171736	-0.293606	-0.530285
-0.388054	-0.496261	-0.00623673
-0.0366466	0.28114	0.562599
0.531862	0.00888361	0.337555
0.240214	-0.523262	0.255723
-0.361002	-0.464983	0.224428
0.233077	-0.0637521	0.581817
-0.533081	0.0903127	0.323369
-0.540872	0.0238013	-0.322167
0.369469	0.311585	-0.404113
0.100912	0.392664	0.482216
-0.368726	0.478892	-0.177773
0.0680259	-0.609261	-0.145168
0.239498	0.532879	-0.235755
0.38018	-0.26758	0.425163
-0.38805	0.45049	0.208269
-0.609882	0.0211225	-0.156518
0.0524211	-0.519059	-0.353171
-0.504295	0.0316304	-0.37628
0.123302	0.580833	-0.210547
0.0212733	-0.0918371	0.622907
0.35063	-0.0296468	-0.52257
0.179487	-0.537407	-0.275461
-0.436364	-0.454153	0.0152327
0.621328	0.0183958	0.102532
0.556109	0.250968	0.157027
0.592553	0.199238	-0.0780035
-0.402364	-0.40909	-0.260093
0.588042	-0.00181518	0.22606
-0.349844	-0.153117	0.501064
-0.0671855	-0.609954	-0.142627
-0.376215	-0.428803	0.267377
-0.193678	-0.290184	-0.524578
-0.367502	0.33364	-0.387978
-0.250787	-0.517536	0.257221
-0.396234	-0.46966	0.138991
0.167357	-0.373247	-0.479143
-0.0813438	0.303843	0.545859
-0.00787726	-0.618142	0.121402
0.601553	-0.161934	0.0938669
-0.073712	-0.606012	-0.155615
0.507383	-0.324782	0.184334
0.515532	-0.225378	-0.283429
0.266236	0.309103	-0.480077
0.0679443	-0.227273	-0.583635
0.208968	-0.247819	0.540202
-0.586256	-0.00752822	-0.230537
0.0719629	0.284901	-0.557273
-0.550888	-0.0946628	-0.290622
0.455531	-0.307898	0.307555
-0.572859	0.0180274	-0.261548
0.00675088	0.375292	0.505975
-0.576324	0.177518	-0.182314
-0.0404229	-0.62832	-0.0219164
0.313553	-0.0528405	0.543868
-0.540247	-0.26792	0.18235
-0.589095	-0.0457456	-0.218574
-0.361496	0.475659	-0.199923
0.173955	-0.285381	0.534039
-0.26098	0.194601	-0.53937
-0.256714	-0.545711	-0.182202
0.160579	-0.28548	0.538159
-0.625168	-0.0264107	-0.073261
-0.286623	0.0950776	-0.552908
-0.424766	0.119492	-0.449661
-0.600306	0.152449	-0.115288
-0.547281	0.233991	-0.206474
0.603867	-0.066993	0.166602
0.148033	-0.0245333	0.61187
0.554932	-0.24703	0.167114
-0.0797229	0.535734	0.321766
-0.217469	0.513308	-0.293466
-0.213729	0.561735	-0.188874
0.14059	0.445953	0.422209
0.224827	0.569303	-0.149156
0.441348	0.184487	0.409971
0.144339	-0.1353	-0.59813
0.256555	-0.482336	0.313738
0.572463	0.0598253	-0.25614
-0.290964	-0.420582	0.367901
-0.61505	-0.121196	-0.0626485
-0.611331	0.0569169	-0.141191
0.109967	0.617952	-0.0542453
0.163297	-0.236944	0.560439
0.279469	0.0666488	0.560674
-0.42719	0.463035	0.00267491
0.0158997	0.509061	0.370815
-0.0446537	-0.607071	-0.162391
-0.401618	0.467096	0.132001
-0.0355944	0.119509	0.617536
0.154717	0.107053	-0.601251
-0.192567	0.593355	-0.0880211
0.181721	0.0434705	-0.601654
-0.0427387	0.309085	-0.547302
-0.309891	-0.529683	-0.142489
-0.570367	0.218618	0.154232
0.305086	-0.48263	-0.266254
0.400479	0.443682	0.199156
0.159778	-0.597773	0.118482
-0.616615	0.0712162	-0.107767
0.114515	0.395128	0.477137
-0.544819	-0.0439137	0.313278
0.0135208	-0.0622727	0.626769
0.229203	-0.282091	0.514578
-0.137662	0.405746	-0.461865
-0.490111	0.252645	-0.304732
0.051636	-0.434582	0.45318
-0.208783	-0.557251	-0.206837
0.454193	0.382032	0.211329
0.356889	-0.518231	-0.0311052
0.302232	-0.0390888	0.551387
-0.547447	-0.231634	-0.208679
-0.33426	0.207511	-0.492046
-0.532661	0.103723	-0.320022
0.481463	0.0225366	0.405691
-0.442196	-0.265633	0.361665
-0.108966	-0.569102	0.247284
0.269051	0.390586	0.414673
0.231728	0.585068	-0.0299549
0.416976	0.455225	-0.125705
0.527126	0.313144	0.144841
0.60093	-0.144164	0.122474
-0.519497	0.259213	0.244605
-0.263865	0.111117	-0.561185
0.0908823	-0.218439	0.583888
-0.535669	-0.312705	0.110339
0.293656	0.12445	-0.543303
0.510324	0.0767153	-0.361365
-0.0522782	-0.571535	-0.259836
0.371293	0.483113	0.160133
0.453977	-0.431945	-0.065026
0.358037	0.386117	-0.345865
0.0474631	0.627506	0.0297285
-0.309388	0.33709	-0.433069
-0.00325987	0.501641	-0.381112
-0.193325	0.264754	0.537987
0.241881	0.543469	0.207449
-0.373801	-0.119423	0.49286
-0.204276	-0.571597	-0.168667
0.476013	0.343746	0.228366
0.0790376	0.20126	-0.591733
-0.116657	0.422361	-0.452661
-0.338841	0.454307	-0.275121
0.138767	-0.596257	-0.148733
0.369618	0.104369	0.499389
0.108592	-0.620526	-0.00746665
0.254077	0.143613	-0.558319
0.118679	-0.146257	0.601186
-0.493204	0.177346	-0.349569
0.472396	0.0550771	0.413169
0.268515	-0.125409	-0.555942
0.204177	0.535099	0.262451
-0.104176	-0.381784	-0.490192
0.106601	-0.195403	-0.589367
0.199905	0.144212	0.579777
-0.118054	-0.375072	-0.492224
0.127664	0.616841	-0.0104429
-0.361002	-0.170569	0.487323
-0.124332	0.150988	0.598869
-0.09026	0.623499	-0.00138734
-0.22406	0.527681	0.261246
-0.495266	-0.0490452	-0.386272
0.458032	-0.0920819	-0.422644
-0.12369	0.0341274	0.616795
-0.130894	-0.473428	-0.394503
0.367134	0.364509	-0.359508
0.48368	-0.202398	-0.349269
0.220187	0.538716	0.241252
0.318217	-0.390898	-0.377937
-0.612022	0.0541058	-0.139288
0.0725921	0.339223	-0.525888
-0.292604	0.255587	0.495941
0.42637	-0.18197	0.42661
0.159278	0.605467	0.0702882
-0.535467	-0.249467	-0.218954
-0.259706	0.226807	-0.527268
0.606868	0.115717	0.123373
0.2115	0.0893314	0.586675
-0.0848509	-0.603717	-0.158827
-0.131758	-0.402291	-0.466585
-0.131966	-0.340344	-0.513469
-0.15574	0.351897	0.498812
0.516611	0.339662	-0.121008
-0.425371	-0.463527	0.0332031
0.0260726	-0.0698115	0.625577
0.598068	-0.0315585	0.195497
-0.264997	-0.25577	-0.511135
-0.515536	0.289886	-0.216999
0.221215	-0.301374	0.507087
0.107107	-0.322515	-0.530483
0.389257	-0.477466	0.131929
0.160685	-0.55227	0.257058
-0.138583	0.00789973	-0.614518
0.238272	0.532802	0.237168
0.609144	0.112117	-0.11521
0.224019	-0.488364	0.328962
-0.241726	0.243534	-0.528356
0.618393	-0.0978359	-0.0701261
0.175347	0.436071	0.419519
-0.245785	-0.133771	-0.564443
-0.424713	0.0450471	0.46313
-0.124142	0.560959	0.258484
0.485128	0.381736	0.125811
-0.518729	-0.0396708	0.355311
-0.0194058	-0.136891	0.614642
0.553559	-0.300754	0.00437622
-0.205494	0.579705	-0.136436
0.438699	-0.113852	-0.437585
-0.145228	-0.341091	-0.509378
0.146978	0.0597204	0.609697
0.435292	-0.412559	0.192914
-0.311102	-0.547233	-0.0255291
-0.58839	-0.13239	-0.182127
0.16392	-0.101373	0.599795
-0.306521	0.198434	-0.513389
0.23955	-0.499997	-0.299198
0.305555	0.488147	0.255439
-0.231153	-0.300957	-0.502885
-0.212918	0.578364	0.130616
0.385308	-0.33597	-0.368187
-0.281526	-0.35718	0.435965
0.145638	-0.0738279	-0.608473
0.320315	-0.504161	-0.2003
-0.31353	-0.39381	0.378831
-0.0840168	0.187227	-0.59564
-0.610062	0.109698	0.112652
-0.001461	0.407038	-0.480851
0.124742	-0.375158	0.490506
0.156494	-0.457128	0.404281
0.52855	-0.0642253	-0.336763
-0.608873	0.137944	-0.0845278
0.24265	0.442051	-0.377639
0.277128	0.474724	-0.307794
-0.11093	0.614541	-0.0832698
0.259753	-0.0586519	0.570954
-0.01937	-0.323692	-0.540137
0.215157	-0.557328	0.199983
0.073312	-0.555249	0.288485
0.461557	-0.350514	-0.246992
-0.220218	-0.121924	0.577528
-0.590236	0.102754	0.194842
0.0241502	-0.505796	0.374816
0.60643	0.0281292	0.168377
0.561843	0.102397	-0.265983
0.0287792	0.617148	0.123288
-0.528405	-0.1215	-0.320821
0.51358	-0.169545	-0.323095
-0.0957918	0.0653947	0.619231
-0.0930331	0.619758	-0.0643778
-0.047713	0.260195	0.571771
-0.428407	-0.321226	0.331935
-0.166942	0.571824	-0.205054
0.375097	0.407368	0.300422
0.265644	0.167797	-0.546056
-0.045244	0.156415	0.608595
0.459688	0.369549	0.221407
0.451501	-0.438668	0.0248357
0.318337	0.529225	-0.12443
-0.0541377	-0.527345	0.340406
-0.464826	-0.226022	0.36021
-0.30392	-0.508903	0.213425
-0.39255	-0.32242	-0.372626
0.624856	-0.0461918	0.065739
0.626327	0.0650252	0.0196594
0.597375	-0.193751	-0.0500313
-0.308509	0.409985	-0.365561
-0.14332	-0.418383	0.448682
-0.114457	0.54548	-0.293685
-0.575659	-0.233202	0.105518
-0.43166	-0.0822688	-0.451443
0.00203842	-0.106647	0.620904
0.595521	-0.172679	-0.11152
-0.0656285	0.608871	0.147882
0.0122161	0.225103	-0.588285
0.432317	-0.42849	-0.162477
-0.100512	0.604273	-0.147146
-0.568736	-0.228641	0.145475
-0.0182497	0.508221	0.371858
-0.349885	-0.00900163	-0.523831
0.0919248	0.48193	-0.395213
-0.497823	0.385242	0.0257079
-0.285724	0.521692	0.207604
-0.107965	0.451833	0.425547
0.0406068	-0.0998255	0.620714
-0.477468	-0.394904	0.113908
0.577633	0.170564	-0.184793
0.507532	0.366848	0.0688047
0.206825	0.452914	0.385995
-0.325483	-0.408936	-0.351756
-0.259981	-0.210086	0.534017
0.351359	0.0502179	-0.520504
0.4011	-0.438569	0.208988
-0.618883	0.0300715	-0.113928
-0.271851	-0.127822	0.553767
-0.287292	0.543099	-0.139308
0.470217	0.343325	-0.240674
0.288749	-0.539081	0.151379
0.25317	-0.489788	-0.304815
-0.629595	-0.00942761	-0.0205198
-0.355296	0.429919	-0.292974
0.246056	0.563656	0.136558
-0.255518	-0.47966	-0.318647
0.519967	0.310061	0.174347
0.623931	0.0385889	-0.0782395
0.124629	-0.0765965	0.612781
-0.461646	-0.422996	-0.069697
0.445717	-0.435717	-0.0915804
-0.308814	0.496545	0.234471
0.18409	0.209101	0.565055
-0.502984	-0.207462	-0.317595
0.59067	0.206047	0.0745245
0.246506	0.0800706	-0.574216
-0.559028	-0.288171	-0.0366776
-0.484262	0.329669	-0.231752
-0.540071	0.321619	0.0422371
-0.450616	0.240709	-0.368652
-0.559938	0.239871	0.16072
-0.159668	0.279194	0.541716
0.0580514	-0.308199	0.546391
-0.0626763	0.61797	-0.105287
0.00586691	-0.133159	-0.615739
0.0912019	0.383674	-0.491301
-0.00266515	0.537103	0.329263
-0.204596	-0.331724	-0.494974
-0.455948	-0.243657	-0.360059
0.626477	0.013184	-0.0652089
0.450291	-0.347853	0.270438
0.624542	0.079786	0.0219401
0.589986	0.19125	-0.110633
-0.371294	0.0641981	0.504896
-0.0682304	0.625559	-0.0303362
-0.265291	0.567253	-0.0688781
0.379513	0.354873	0.35628
