-0.211424	-0.410846	-0.428258
-0.138183	-0.311516	-0.529871
-0.183752	-0.340081	-0.497474
0.27652	-0.393812	0.406631
-0.140374	0.284976	0.544044
-0.399845	0.246978	-0.419554
-0.139296	0.0796308	-0.609225
0.573542	-0.241408	0.0983453
-0.511812	0.161619	0.32989
0.540255	0.185788	-0.265533
0.251465	0.478616	-0.323407
0.558812	0.0769045	-0.280562
-0.449721	-0.140295	0.418292
-0.342955	0.387427	0.359419
0.464215	-0.324586	0.275769
0.25883	0.550001	0.165549
-0.533408	-0.246549	-0.227133
-0.0331866	-0.555636	0.295072
-0.453622	-0.336261	-0.279384
0.442552	0.369552	-0.253927
0.579711	-0.0386819	0.243596
0.266015	-0.504796	0.267053
0.137416	0.2491	-0.562109
0.237451	-0.420832	-0.404249
-0.489421	0.176945	0.355046
0.25954	0.176404	0.546279
-0.0607026	0.583214	0.230383
-0.245137	0.0998789	-0.571692
0.118469	0.509027	0.351791
-0.256368	0.49988	0.285123
0.21312	0.519609	-0.285459
-0.165866	-0.601795	0.085036
-0.627583	-0.0414662	-0.0363397
0.331973	-0.199225	-0.496994
0.50018	0.38299	0.00622103
-0.407435	-0.178456	0.44615
-0.0705927	0.469702	0.41388
0.604554	-0.166378	0.0610961
0.336961	-0.442072	0.296529
0.56703	-0.156805	-0.225366
0.53457	0.140295	-0.302411
-0.612642	-0.0935497	0.113217
-0.375082	-0.488589	-0.132265
-0.0604372	0.0895363	-0.620669
0.483451	0.383449	-0.12705
-0.110593	-0.45258	0.424076
0.452464	-0.260044	0.352921
-0.500679	-0.0195125	0.38189
-0.278618	0.15478	-0.543429
0.218112	0.494116	0.324309
-0.110952	-0.469169	-0.40555
0.0686863	0.598275	-0.185065
-0.348649	0.233206	-0.470063
-0.298139	-0.519647	0.194885
0.0221931	0.572878	-0.261186
0.587454	0.219317	0.0608121
-0.471684	-0.156639	-0.387141
-0.206795	-0.176234	-0.568399
-0.422347	0.202197	-0.421472
0.37823	0.459818	0.205935
0.343481	-0.498682	0.173889
0.386093	-0.0695605	0.492944
-0.103269	0.128839	-0.607977
0.297967	0.489266	0.262172
0.489633	-0.0503649	0.393221
-0.380615	-0.232708	0.444836
0.551673	0.30053	0.0473151
0.341599	-0.529341	-0.00275616
0.580255	0.173887	-0.173111
-0.275902	0.30947	-0.474348
0.233003	0.1912	-0.55322
-0.210996	0.586922	0.0888997
0.31243	0.419234	-0.351469
-0.0610614	0.444579	-0.442178
0.0306207	0.399028	0.486558
0.18178	-0.299939	-0.523347
-0.453531	0.282209	-0.334018
0.0323493	-0.620586	0.103569
0.626725	-0.0349901	-0.0537703
0.13962	-0.607139	0.0937504
0.604466	-0.01867	-0.176556
0.610107	-0.0839219	-0.132764
0.031884	0.34119	0.528652
0.0696731	0.111711	-0.61609
0.442104	0.0609907	-0.444662
0.504526	-0.354512	-0.129128
-0.494293	0.114307	-0.373508
0.502704	-0.172271	-0.338395
-0.191032	-0.126926	-0.586768
0.347274	-0.0295095	0.524814
0.239734	-0.49361	0.309478
0.238638	0.548366	-0.198109
-0.088365	-0.39247	-0.484829
0.623864	0.0580484	0.0657564
0.139936	-0.119551	0.602516
-0.405275	-0.194869	-0.441224
0.449344	0.218986	-0.383451
-0.485537	-0.344313	0.206404
0.330023	0.522254	-0.123432
0.134348	-0.165466	-0.59285
0.402016	0.426995	-0.230127
-0.221617	0.452621	-0.378048
-0.555788	-0.263113	-0.137009
-0.144233	-0.31562	0.525815
-0.357805	-0.203913	-0.476755
0.194286	-0.328904	-0.500974
-0.198609	0.360995	0.476589
-0.578827	-0.234643	0.0824761
-0.468195	0.391592	-0.156041
-0.237538	0.579886	-0.0648735
-0.328357	-0.0394547	0.536214
0.457872	-0.42125	0.0990015
0.224481	0.373612	-0.454887
-0.0707062	-0.54091	-0.315145
-0.343467	-0.122418	0.513755
0.610636	0.146768	-0.0498239
0.00564298	0.476235	-0.412394
-0.423696	0.261323	-0.386124
0.385178	0.477056	-0.144761
-0.16022	0.306222	-0.526742
-0.169896	0.411118	-0.446113
0.441957	-0.109224	0.435482
-0.38984	0.2189	0.443856
0.452606	-0.134985	0.416926
0.368404	0.49114	0.14128
-0.128098	0.58921	-0.182544
0.144196	0.545183	-0.28086
0.282485	0.289357	-0.483089
0.463116	0.312345	-0.291315
-0.389464	-0.325453	0.373227
0.605567	-0.138445	-0.104986
0.324832	0.481184	0.244635
-0.4132	0.467204	-0.0888043
-0.188976	-0.156306	-0.580307
0.328567	0.470812	-0.259383
-0.207247	-0.553726	-0.217569
-0.400596	0.485986	-0.0155088
0.419736	-0.434504	0.178684
0.0198146	-0.6105	-0.154261
-0.434659	-0.44235	-0.110898
-0.225393	0.156097	-0.567214
0.0110329	-0.575609	-0.255837
0.252918	0.433127	-0.381227
-0.251306	-0.412363	-0.404601
0.343584	0.423424	-0.315535
-0.0219519	-0.624543	-0.0797736
-0.548942	0.308195	-0.0240459
-0.413882	0.470623	-0.0641545
0.37662	-0.476752	0.166629
-0.0407335	-0.106779	0.619548
-0.0869915	-0.173845	-0.599258
0.318493	0.496314	-0.221664
-0.620564	-0.107326	0.0167688
-0.346979	0.363299	0.380157
0.102081	0.437832	-0.441342
-0.155641	-0.560465	0.241981
0.128872	0.558562	0.261344
0.518382	-0.0004551	0.358022
0.270635	0.161819	0.545409
-0.272738	-0.160455	-0.544764
-0.528951	0.282742	-0.192792
0.426093	0.27738	-0.372028
0.039173	-0.252602	-0.575811
0.242118	0.463104	0.351872
0.356039	0.0564952	0.516667
0.538074	0.0770587	-0.318493
0.116287	0.619171	-0.00211341
0.479341	-0.30275	-0.274727
-0.564487	-0.193442	-0.202075
-0.562054	0.260646	-0.114278
0.371755	0.503333	0.0731673
-0.358395	-0.150852	-0.495678
-0.567986	0.265739	-0.0606249
0.20541	0.547376	0.234704
0.40492	-0.358163	0.32351
-0.458656	0.380856	-0.203675
-0.171612	0.531244	-0.29194
0.103137	-0.614932	-0.0901196
0.620588	0.0988786	-0.0446471
-0.394866	0.490486	0.0201181
0.572093	0.16794	0.203483
0.372313	0.472935	0.186054
0.126474	-0.0496501	0.615174
0.360348	0.476306	0.200454
-0.547378	0.220052	0.221031
0.227258	0.584033	0.0644945
-0.220908	-0.58974	0.0174895
-0.542844	0.0339299	-0.317913
-0.124609	-0.159313	-0.596651
-0.532987	0.0321843	-0.334349
-0.453395	0.294387	-0.323527
-0.471467	0.0648635	-0.412809
-0.58105	-0.0107212	0.24324
-0.195895	0.537691	-0.263464
-0.156401	-0.30331	-0.529567
0.562068	0.150618	0.241441
-0.0548846	-0.361393	0.513111
-0.123943	0.615788	-0.0484135
-0.554729	0.127745	0.26992
-0.294504	0.143039	-0.538245
-0.274961	-0.314434	0.471622
-0.0295863	-0.0751029	-0.624807
-0.342568	0.466302	0.249217
-0.184054	-0.264506	0.541351
0.571854	-0.199532	0.173406
0.448549	-0.441346	-0.030283
-0.306771	-0.196316	0.514054
-0.562485	0.149082	0.241424
-0.0417948	0.558132	-0.289209
-0.481476	0.0486871	0.403373
0.242186	0.118097	-0.569473
-0.0916172	-0.0204854	-0.622966
-0.152369	-0.154341	-0.591492
0.256414	0.11741	-0.563353
0.033712	0.0712829	-0.625046
0.569667	-0.216053	0.160315
0.494028	0.39056	0.0173124
-0.141618	0.0977181	0.606049
0.437956	-0.194673	-0.408897
-0.54871	-0.163961	0.262554
-0.436587	-0.446234	0.0846568
0.223724	-0.430129	-0.402289
0.247513	0.361874	0.452421
0.169686	0.225419	0.563288
-0.455878	-0.397576	-0.176094
-0.480167	0.0145415	-0.407589
-0.217333	0.183127	-0.562255
0.535847	0.259277	-0.20626
-0.505308	-0.351907	0.133138
0.173378	0.229167	0.560645
-0.422894	-0.419986	0.204138
-0.343502	-0.503674	0.158805
-0.199636	0.133405	0.582451
0.59771	0.068543	0.186934
0.147769	0.573175	-0.21572
0.582661	-0.166707	-0.17209
0.561141	-0.0252887	0.285274
0.0826254	0.580042	-0.231568
-0.132105	0.229833	0.571511
0.583567	0.0570041	-0.230434
0.0194748	0.0298931	-0.628989
-0.432723	-0.308298	-0.338531
-0.602207	-0.184313	-0.0166033
-0.235485	0.581915	0.0531194
-0.280603	-0.550271	0.123949
-0.597191	-0.197203	0.0370722
-0.587439	0.0530547	-0.22136
-0.159437	0.212424	0.571275
0.57084	-0.242805	-0.109942
-0.195472	-0.438561	-0.407866
0.249043	0.00085965	-0.578685
-0.0275667	-0.502953	0.378389
0.257646	0.0333335	-0.57394
-0.469419	0.268475	0.323213
-0.0213308	-0.451921	0.43842
0.127603	0.322365	-0.526021
0.0718414	0.175601	-0.600752
-0.188905	0.172431	-0.575745
0.396499	-0.4507	0.1912
-0.0462654	-0.247702	-0.577411
-0.440526	-0.0815365	-0.442932
0.373778	-0.505752	-0.037479
-0.603458	0.091028	-0.156372
0.191999	0.224804	0.556327
-0.311103	0.278073	-0.472007
-0.321839	-0.506137	-0.19273
0.312993	0.210243	0.504711
-0.5238	-0.0914514	0.33789
0.416513	-0.0582465	0.469067
0.248092	0.161206	0.556204
-0.37405	-0.487503	-0.139022
-0.578812	-0.22511	0.105842
-0.228362	0.0247524	0.586633
-0.248	-0.284458	-0.50446
0.0563461	-0.279338	0.561868
-0.544144	0.317492	0.00239088
0.328283	0.290902	-0.452223
0.302322	-0.481347	-0.271673
-0.112783	0.0418297	0.61841
0.316844	0.509797	0.191354
-0.371338	-0.364114	-0.355569
-0.62523	-0.0700857	-0.0327962
0.339096	-0.317172	0.425812
-0.397012	-0.0820909	-0.482227
-0.333941	-0.232299	0.481062
-0.508893	-0.0360481	0.369633
0.459722	0.327081	0.280309
-0.200213	0.596196	-0.0369449
0.474215	0.327276	0.254775
0.467419	-0.0830312	-0.414156
0.301468	0.466279	-0.29766
0.536479	-0.297647	0.143165
-0.15137	0.351811	-0.500216
-0.350531	-0.131599	-0.506665
0.415124	0.00604913	0.473851
0.261388	-0.561405	-0.115762
-0.437824	-0.222406	0.394646
-0.250384	0.192285	-0.545192
0.29896	-0.289254	0.473133
0.323705	0.462364	0.279884
-0.108925	-0.573831	-0.236121
0.157138	0.4282	0.434571
-0.389786	-0.494919	0.00473021
0.218989	-0.0590029	-0.587761
0.32419	0.0264692	0.539537
-0.615611	0.117078	0.0649315
0.509174	0.327238	0.174808
0.0885268	-0.560416	-0.273855
-0.543196	-0.104436	0.301547
0.564017	-0.119488	-0.253983
0.0446702	-0.0406647	0.627097
-0.551392	-0.0587406	-0.299026
0.354886	-0.519108	0.038504
-0.492212	0.300536	-0.253586
-0.0230954	-0.629482	0.0109123
-0.531851	-0.121411	0.315109
-0.0640715	-0.622591	-0.071943
0.0774597	0.0697299	0.621319
-0.282215	-0.493235	-0.271983
0.620735	0.0509585	0.0948252
-0.418044	0.459856	-0.103306
0.0273007	-0.609285	-0.157883
-0.570691	0.00306943	0.266838
-0.620935	0.0845268	0.0647677
-0.469299	-0.146927	0.39379
-0.105019	0.0413051	0.61981
0.363721	0.462197	-0.225789
0.257756	0.36012	-0.44808
0.0614269	-0.538854	0.320567
0.396253	0.484623	-0.0708806
0.56658	-0.252213	-0.110794
0.6282	-0.0448778	-0.0158162
-0.0756057	0.499446	-0.37648
0.0805399	-0.623175	0.0454553
0.395658	-0.358062	-0.334883
-0.199077	-0.509348	-0.312782
0.288472	-0.460573	0.31868
0.441389	-0.256857	-0.368918
-0.557569	0.270998	0.112146
-0.206928	0.428446	-0.412934
0.433889	-0.447479	0.091668
0.58242	-0.0823822	0.22561
-0.475201	0.356479	-0.209778
0.0610071	-0.415258	0.469829
0.310219	0.318309	-0.446479
0.463269	0.256574	-0.341249
-0.52486	-0.348456	-0.000772902
-0.183632	-0.259458	-0.543931
0.156895	0.609583	0.0263163
0.0269649	0.542843	-0.318582
-0.290078	0.526035	0.189846
-0.25221	0.40289	0.413485
0.0194578	0.620772	0.105658
0.147762	0.343007	-0.507358
0.617942	0.104677	0.0639607
0.221019	0.447064	0.384947
0.627088	0.0592257	0.0123754
0.40041	-0.0370041	0.484977
0.355129	0.273406	-0.442756
-0.209972	0.0888905	-0.587291
-0.291677	0.550257	-0.095089
-0.350281	-0.0842307	0.516825
-0.462094	-0.39948	0.154224
-0.15989	-0.289781	0.536062
-0.227217	0.426415	0.404281
-0.153435	-0.145351	-0.59349
0.392632	0.171595	-0.461839
0.184567	-0.594353	0.0978768
0.273235	0.248724	-0.510274
0.359136	0.146811	-0.496354
-0.350941	-0.396867	-0.340936
-0.443734	-0.30481	-0.327248
0.444022	0.256284	0.366146
0.0643572	0.372796	0.503767
-0.32968	-0.27978	-0.458186
0.455994	0.288676	-0.325016
0.579972	-0.163487	-0.183859
-0.615979	0.0893763	-0.0973729
-0.391422	0.275559	-0.409581
-0.211234	0.208486	0.55571
0.503521	0.325158	0.194007
-0.213123	0.561265	0.190945
-0.427156	-0.257993	-0.384548
-0.144358	0.183295	0.585204
-0.369444	0.20073	-0.469168
-0.33472	-0.276227	-0.456685
0.0731008	0.518237	-0.350694
0.0538085	0.575337	0.250982
-0.505529	-0.371896	-0.0550802
-0.235522	-0.509587	-0.28592
-0.109016	-0.452797	0.424253
0.0867196	0.160598	0.602983
-0.135374	0.420513	-0.449158
-0.202138	0.578286	-0.147057
-0.0560585	-0.607271	0.15805
0.572198	-0.179656	0.192908
0.264321	-0.433701	-0.372744
-0.593383	0.190343	0.0925499
0.215308	0.576902	-0.133142
0.51878	-0.307139	0.182846
0.277795	0.532833	-0.189258
0.0181014	-0.488819	0.397024
-0.289218	0.276631	-0.486547
-0.131267	0.537932	0.300497
0.324705	-0.507046	0.185393
0.219728	-0.539291	0.240384
0.387701	0.0445298	-0.494576
-0.10636	-0.240475	0.572502
0.373739	0.0698721	0.502332
0.451839	-0.155114	0.410708
0.35138	-0.44792	-0.269814
0.620512	-0.0930109	0.0566856
0.116677	-0.0559649	-0.616567
0.188768	-0.239185	-0.551414
-0.153962	0.393593	-0.467205
-0.0227337	0.62177	-0.0989192
-0.189514	-0.593178	-0.0955228
0.0588536	0.625004	-0.0529682
-0.28959	-0.148318	-0.539481
0.533974	-0.216128	-0.255071
-0.51473	0.359123	-0.0546246
-0.38793	-0.138547	-0.476671
-0.539777	-0.178482	0.271449
0.10306	0.0259863	0.62097
-0.452002	-0.383239	0.213827
-0.419199	-0.436873	-0.17411
0.39652	0.310412	0.378572
-0.249641	0.551746	0.173654
-0.419534	0.414548	0.221452
-0.032077	0.61246	0.144096
0.374453	-0.0498447	-0.504183
0.367856	-0.372027	-0.350968
-0.0582566	0.249711	0.575457
0.191223	0.499497	0.332921
0.118371	-0.128346	-0.605323
0.0473458	-0.549162	-0.30509
0.61299	0.0917501	0.112805
-0.169352	0.59286	0.129372
-0.268701	0.526919	-0.216924
0.469288	0.311771	-0.2819
0.535021	0.295584	-0.152586
-0.330743	0.19592	-0.499124
-0.485337	0.0832409	-0.392962
-0.436187	-0.3838	-0.243596
-0.277593	-0.478169	-0.301988
0.299937	-0.102763	0.544406
-0.219868	-0.510683	0.296245
0.118328	0.581943	0.210335
-0.475857	0.163632	0.379057
-0.250442	0.233128	-0.52899
0.562212	-0.0510357	-0.279666
0.334858	0.531843	0.0437411
0.276735	0.0151217	-0.565764
0.533984	0.314828	0.112448
0.161448	-0.234687	-0.561922
0.325695	-0.374004	-0.388515
0.160864	-0.384486	-0.472433
0.339878	-0.528696	-0.0431726
-0.314959	0.542343	-0.0597013
0.292751	0.100959	0.548638
-0.153207	-0.333956	-0.511763
-0.443546	0.420886	-0.151731
-0.603519	0.180506	-0.00907469
0.0731406	-0.234105	0.580297
-0.33634	-0.220355	-0.484994
0.318622	-0.428811	-0.333918
0.296685	-0.540874	-0.127802
-0.336665	0.110573	0.520894
-0.598129	-0.0912307	0.175553
-0.404722	-0.314708	0.366141
0.178409	-0.0738575	-0.599679
0.390841	0.0793996	-0.487687
-0.525738	-0.258552	0.231627
0.213181	-0.45572	-0.379175
-0.253253	0.269762	-0.509894
-0.330334	0.194136	-0.500091
0.302925	0.246802	-0.494191
-0.51659	0.359391	-0.0295424
-0.59784	0.0556656	-0.190758
0.298367	0.205354	-0.515468
-0.0726054	0.380021	-0.497205
-0.624637	0.0369756	-0.0732232
-0.262601	0.560167	0.118971
0.242777	0.58091	-0.0224257
0.0971347	0.473811	-0.403693
-0.519911	-0.326779	-0.140739
-0.00275663	0.296834	0.555682
-0.285515	0.506686	0.242179
0.58924	-0.156191	-0.159063
-0.426813	-0.093822	0.453793
-0.217496	0.11427	-0.580119
0.00946187	0.266075	-0.570977
-0.481036	0.393328	0.10391
-0.0790239	-0.0578234	-0.622344
0.341895	0.337628	0.40745
0.212309	0.486411	0.339454
-0.0631787	0.219516	0.58713
0.0732224	0.6146	0.117494
-0.10836	0.468393	0.407143
-0.0620107	0.0749514	0.622444
