0.524452	-0.166788	0.306647
-0.398868	-0.486543	-0.0328666
-0.5611	0.279439	-0.063094
-0.044224	-0.389159	-0.493456
0.161355	0.224635	-0.566042
-0.226364	-0.273012	-0.520695
-0.387042	0.41235	-0.277608
0.535069	-0.322261	0.0821517
-0.0927112	-0.601802	0.161676
0.576364	-0.252454	0.0311605
-0.167496	0.42549	-0.433363
-0.572837	-0.162068	0.206134
-0.462289	-0.427822	-0.0125319
0.522595	-0.040069	-0.349556
0.528854	0.177494	-0.292762
-0.12976	-0.558724	-0.260558
0.189215	0.0872783	0.594542
-0.142008	0.273177	-0.549644
-0.00833194	-0.282497	0.563051
0.533547	-0.103369	0.318657
-0.446218	0.437794	0.0782724
-0.580102	0.14086	0.201346
0.303305	0.278344	-0.476897
0.224013	-0.557801	0.188617
-0.2016	-0.329398	-0.497749
-0.122306	0.608394	-0.108622
0.36825	0.306925	0.408765
-0.351768	0.0578383	-0.519436
0.335451	-0.411204	-0.339535
0.540397	0.285142	0.15351
0.0943147	-0.616077	-0.0919467
-0.226501	-0.413235	-0.418132
0.110275	0.509763	-0.353385
-0.549339	0.159803	-0.263799
-0.413702	-0.261679	0.396579
0.313502	-0.23443	0.493618
-0.573159	0.245948	-0.0888724
-0.478844	-0.249302	0.32474
-0.103814	0.619785	0.0446013
-0.0908228	0.376606	0.496809
-0.573622	-0.241699	-0.0971567
-0.169608	0.246864	0.554248
-0.283887	-0.559244	-0.0596217
-0.460744	0.284023	0.322407
0.387686	-0.496588	0.000129475
0.336189	-0.334893	-0.414395
-0.374955	-0.431177	-0.265322
-0.216435	-0.35351	0.474433
-0.0213822	-0.259878	-0.573503
-0.57222	0.261604	0.0320576
-0.382332	-0.384415	0.320853
-0.0838939	-0.238604	0.577001
0.201484	0.530179	-0.274253
-0.414897	-0.354956	-0.314272
0.0293398	-0.345056	0.526285
-0.108353	0.555582	-0.276564
-0.299354	-0.432839	-0.346321
-0.269912	-0.499874	-0.272349
-0.064521	-0.626175	0.0253332
0.624408	-0.0376117	-0.0748364
0.276853	-0.280031	-0.491767
0.535435	-0.229186	-0.240173
-0.0419637	0.249551	-0.576943
0.13975	-0.59569	-0.150078
-0.493785	0.114015	-0.374268
-0.622557	-0.0907894	0.0328565
-0.0259989	-0.629012	0.0238415
-0.0824866	0.603343	-0.161472
0.411583	0.470777	-0.0766058
0.53617	0.290575	0.158076
0.4824	-0.292552	-0.280364
0.534789	-0.196953	0.268533
0.296676	0.270507	0.485499
0.283317	0.266182	0.495761
0.115575	-0.196487	0.587312
0.604307	0.178027	-0.00446009
-0.327758	0.441285	0.307802
0.28759	0.237869	0.507553
0.161475	0.41237	-0.448081
-0.379205	-0.494012	-0.0951614
0.353038	-0.513177	-0.0944122
0.278902	0.393098	0.405694
-0.0475738	0.561672	0.281357
0.0787751	0.0948738	-0.617813
-0.251514	0.567133	-0.109552
0.265455	0.570839	0.0240014
0.559745	0.280749	-0.0690304
-0.614354	-0.132001	0.0452154
-0.0156233	-0.0447965	-0.628211
0.361706	0.352392	0.376681
-0.182052	0.0589075	-0.600239
-0.331298	-0.53143	-0.0687287
-0.227709	-0.114748	0.576092
0.209034	0.333198	0.492122
-0.068795	-0.357349	0.514265
-0.234816	-0.333731	0.479984
-0.0549674	0.562355	-0.278631
0.462	-0.0214531	0.42778
0.423841	-0.234732	-0.40269
0.562715	0.0799663	0.271768
0.318396	0.282901	-0.46421
0.552071	0.207022	-0.221944
0.246541	-0.51636	0.26361
-0.250273	-0.189388	0.546256
-0.181626	0.527541	-0.292597
-0.547791	0.249147	-0.186416
0.0631709	-0.207058	0.591639
-0.235927	-0.526209	-0.253658
-0.259955	-0.297168	-0.490932
0.282023	0.352765	-0.439226
-0.490741	-0.202163	-0.339415
-0.476245	0.22589	-0.345058
-0.420382	-0.0723774	-0.463617
0.224857	-0.347169	-0.475198
0.0206629	-0.15674	0.609841
-0.037847	-0.466184	0.422066
0.576666	-0.23319	-0.0998958
-0.0466563	-0.50286	-0.376637
-0.305996	0.364682	-0.412642
-0.400277	-0.372267	-0.313203
-0.179247	-0.203171	-0.568764
0.321489	0.539756	0.0469885
-0.165407	-0.588382	0.152797
-0.512538	0.193197	0.311255
-0.020638	-0.628579	0.0369187
0.236474	-0.10943	-0.57359
-0.617964	0.122557	-0.000251844
0.297213	-0.441318	0.337347
-0.433677	0.213874	0.403835
-0.589341	-0.116692	-0.189632
-0.207448	-0.477681	-0.354522
0.17032	-0.156747	-0.585936
-0.53853	0.0369271	-0.324842
-0.495634	-0.226417	0.3162
0.19109	0.342947	-0.492719
-0.543201	-0.141179	-0.286184
0.498899	-0.342188	-0.175806
-0.462537	0.135657	0.405656
-0.481174	-0.0712175	0.400374
0.348555	0.068076	0.520361
-0.450138	0.211834	-0.386526
0.218736	0.519782	0.280858
0.155365	0.130268	0.596483
-0.103675	-0.377986	0.493232
0.311989	0.296747	0.459896
-0.400842	0.0574628	-0.482621
-0.554162	-0.165534	-0.249805
-0.55941	-0.0463115	0.286034
-0.457609	-0.0748773	-0.426483
0.531004	-0.0727264	-0.331128
0.103974	0.596243	-0.174881
-0.602612	0.142677	-0.115765
0.0835555	-0.570823	-0.25314
-0.263218	-0.296034	0.489878
-0.105799	0.517277	-0.343702
0.621911	-0.0371992	0.0935012
0.56193	0.173768	-0.225697
0.271846	-0.565796	0.053617
0.616016	0.026255	-0.129363
0.0165108	-0.421189	0.468217
-0.0635806	-0.418507	0.466594
-0.29147	0.555107	-0.0616547
0.0735253	-0.590274	0.207534
0.277681	-0.421728	-0.376748
0.0744758	-0.263679	0.567298
-0.0310336	0.59981	-0.19017
-0.182558	-0.529754	-0.287982
-0.50421	0.222094	0.305527
0.0791002	0.401837	-0.478717
-0.603417	0.161022	-0.0828237
0.417092	-0.396544	-0.256296
-0.387743	-0.387445	-0.310551
-0.416292	-0.469866	0.0531655
-0.181065	0.159194	0.582042
0.0111948	0.629851	0.00792719
0.506012	-0.0246985	0.374489
0.40707	-0.201705	0.436473
0.494839	-0.379884	-0.087877
0.372993	0.451889	0.231457
0.479573	-0.325823	-0.246473
0.195082	-0.59483	0.0708501
0.0773716	-0.100189	-0.617151
0.602194	-0.085171	0.164343
-0.35088	0.267806	-0.449514
0.255252	0.481116	0.316661
0.362905	-0.412982	0.307646
0.378021	-0.335743	-0.375868
0.252708	0.529176	0.230242
0.614122	-0.136387	0.0339487
-0.363029	0.121322	-0.500391
0.623631	-0.0852243	-0.026856
-0.0794169	-0.298707	-0.548969
0.607515	-0.162328	-0.0384015
-0.549162	0.0518102	-0.304364
-0.289679	-0.510431	0.229012
-0.195765	-0.103482	-0.589803
0.248508	-0.578911	-0.00253632
0.446686	0.312523	0.315755
-0.323653	-0.535927	-0.0702192
0.475888	0.254069	0.325392
0.145767	0.611381	0.0431888
0.41414	-0.0548344	-0.471573
0.142095	0.131787	0.599451
0.283649	0.551622	-0.110255
0.173567	0.378772	-0.472553
0.195251	-0.391242	-0.453549
0.615831	0.0945606	-0.0933277
-0.626093	-0.0685151	0.0145967
-0.438082	0.121882	-0.436038
0.166465	0.524839	0.30616
-0.0916016	-0.589023	0.203866
0.369166	-0.161078	-0.484428
0.263966	0.421767	0.386439
-0.538191	-0.30566	-0.117568
0.173303	-0.229658	-0.560467
0.0969654	0.613778	-0.103799
-0.456464	0.426171	-0.0831801
0.278303	0.483934	0.291985
-0.171206	-0.0144385	0.606119
0.237419	-0.55869	0.168515
-0.571413	-0.0947449	0.247812
0.243129	0.468124	0.344454
-0.611431	0.102857	-0.111681
-0.27403	0.501471	-0.265207
-0.498677	-0.241342	0.299959
0.337742	-0.167077	0.504892
0.140425	-0.183794	-0.586004
-0.0721539	0.473748	-0.40897
-0.403734	-0.185899	-0.446476
0.0344917	-0.552602	-0.300569
0.114028	0.307133	-0.538114
-0.424709	-0.439696	-0.152281
-0.316935	-0.121144	-0.530826
-0.321911	-0.521444	0.146182
-0.203063	0.320307	0.50306
0.610949	0.0997503	0.117008
0.53506	-0.301305	-0.140805
0.430328	0.318571	-0.33201
0.522362	0.347186	0.0591586
0.133108	-0.48203	0.383183
0.131048	-0.435083	-0.436382
-0.592581	0.0350516	0.210996
0.289584	0.0820616	-0.55345
-0.343477	-0.232208	-0.474345
-0.0886227	-0.0908451	0.617084
0.254938	0.531563	-0.222142
0.0638812	-0.531869	-0.331563
-0.205092	0.583845	-0.118164
0.304151	-0.462116	-0.301398
0.215736	-0.587098	-0.0753233
0.247743	-0.101526	-0.570277
0.606318	-0.115341	-0.126391
-0.0506377	0.478851	0.406249
0.192983	0.0184193	-0.599432
-0.400774	0.0983693	0.476029
-0.0610507	0.626848	0.0152965
0.479974	0.156748	-0.37677
0.606633	0.0789467	-0.150543
0.248595	-0.303572	-0.492894
-0.524542	0.242713	0.250691
-0.431438	0.284369	0.360411
0.579223	0.22636	0.100806
0.248773	-0.564643	-0.127242
-0.162782	0.603965	0.0750232
-0.156816	0.563792	0.233339
0.02945	0.312985	0.545961
-0.075409	-0.312347	-0.541898
0.31287	-0.14151	0.528192
0.620842	0.0160123	-0.105825
0.0728102	0.568998	0.260461
0.595391	0.205869	-0.00528576
-0.53977	0.23971	-0.219289
0.513912	-0.0989332	-0.350722
-0.552044	0.279847	0.117614
-0.0541937	-0.627276	0.0220974
0.409652	-0.347378	0.329262
-0.624111	-0.0680682	-0.0524604
0.571458	0.131386	0.230375
-0.459441	-0.418982	0.101331
0.16356	-0.558963	0.240226
-0.203283	-0.566678	-0.185614
-0.264295	-0.547819	-0.16414
0.28165	-0.118659	-0.550902
-0.470923	0.190498	-0.372615
-0.623711	0.000321944	-0.0887942
-0.0384372	-0.465073	-0.423237
0.0165114	-0.533019	-0.335436
-0.00373967	-0.565576	-0.277507
0.353758	0.0575019	0.51812
0.0611265	0.254762	0.57294
-0.199587	0.279087	0.52837
0.0356203	0.607267	-0.163883
0.580285	-0.0969863	-0.225306
0.09097	0.270544	0.561632
-0.504489	-0.348911	-0.143709
-0.611386	-0.15083	-0.0189053
-0.495153	0.0106212	-0.389372
0.06125	-0.0947891	0.619809
0.388798	0.126442	-0.479321
-0.459796	0.304951	0.304126
-0.242486	-0.401237	0.420843
-0.604044	-0.171287	-0.0518762
-0.312941	0.541289	0.0772908
0.143852	-0.230317	0.568472
0.0743727	0.625485	-0.0116993
-0.469491	0.405897	0.108286
0.0662602	-0.616905	-0.109262
-0.0783434	0.581493	-0.229408
0.340995	-0.0522855	0.527151
0.0195989	-0.589797	0.220579
-0.0567819	-0.117065	0.616418
-0.439272	-0.0964469	-0.441178
-0.299069	0.507037	-0.224436
-0.00873913	0.269737	-0.569268
-0.196645	-0.581731	0.140783
-0.317929	0.338685	-0.425574
0.617991	-0.095819	0.0761998
-0.522302	0.181478	-0.301937
-0.383259	-0.0173087	-0.499713
-0.3927	0.145877	0.470539
-0.399559	0.445382	0.197199
-0.442849	-0.338428	0.293685
0.341201	0.352118	0.395594
-0.536597	-0.0132601	0.32983
0.525341	-0.18513	0.294354
0.183659	0.581141	0.159514
0.266693	0.25786	-0.509199
-0.597435	-0.195907	-0.0398907
-0.474282	0.16724	0.379456
-0.0331249	-0.152681	0.610321
0.138832	-0.284389	0.544747
0.0655455	0.00110766	0.62658
-0.601866	-0.0582934	0.176804
-0.51618	-0.341616	0.117287
0.0424326	0.548283	0.307385
0.507495	0.208673	-0.309522
-0.465446	0.254527	-0.339817
0.0975489	-0.163748	-0.600475
0.0906615	0.149543	-0.605242
-0.134053	-0.538473	-0.298289
0.322461	0.502248	-0.201657
-0.135579	0.597213	0.147836
-0.478	0.313239	0.265136
-0.106506	-0.401031	0.474058
-0.355816	0.395518	0.337432
-0.335396	-0.250757	0.47067
-0.495689	0.0212712	0.388253
0.226738	0.479377	0.340128
-0.25584	-0.229643	-0.52793
0.0576664	-0.252943	0.574103
-0.0381619	0.596083	-0.200323
0.520879	0.112719	-0.335976
-0.249449	0.563073	0.132757
-0.114685	-0.344432	-0.514892
0.153549	-0.587341	0.168385
-0.0874454	0.352804	-0.51457
0.288954	0.552589	-0.0897246
0.246915	-0.539749	-0.211197
-0.0179008	0.0543912	0.627392
0.173895	-0.579319	0.176211
-0.0405387	0.345433	0.525293
-0.212867	0.591121	-0.0465065
0.207998	-0.342929	0.485836
-0.347847	0.0190676	0.524918
-0.364257	0.310036	-0.409993
0.492467	-0.0721982	-0.386217
-0.253192	-0.448918	-0.362307
0.548405	0.287342	-0.11656
-0.28716	-0.558147	-0.053956
-0.351654	0.107316	-0.511588
-0.313279	0.329321	0.436238
0.263977	-0.511758	0.255577
0.320851	0.473048	0.264915
0.561727	0.155535	0.239106
-0.469645	0.412991	0.0759766
0.45979	0.370666	-0.219317
-0.426752	-0.0809202	-0.456327
0.0144152	-0.597721	0.198548
0.324663	0.50117	-0.200804
-0.556452	0.272268	0.114595
-0.318775	-0.198115	0.505997
-0.427658	-0.45866	0.0603313
-0.179562	0.576404	-0.180046
-0.14634	0.21378	-0.574267
-0.206021	-0.250794	-0.539961
-0.544384	0.303807	-0.0908142
0.216287	-0.524326	-0.27423
-0.13735	-0.24948	-0.561956
-0.190937	-0.285541	-0.528119
-0.285161	0.0663853	-0.557832
-0.32316	-0.132968	0.524202
-0.592243	-0.0447336	-0.210111
-0.544604	-0.226804	-0.221057
-0.519732	-0.341677	-0.100177
0.0419811	0.625726	-0.0600374
0.417934	-0.191741	-0.430658
0.335816	0.470218	-0.251042
0.43266	0.442178	-0.119096
-0.270317	0.0160542	0.568833
0.390322	0.488129	-0.0792403
0.0480976	-0.561819	-0.280972
0.61366	0.135514	0.044242
-0.05988	-0.129324	-0.613669
-0.591876	-0.194919	0.0926807
0.104757	0.354078	0.510445
-0.039468	-0.221549	-0.588437
0.0420628	-0.267306	0.568927
0.101157	0.121668	0.609807
-0.061017	0.513297	-0.360144
0.144568	-0.595795	-0.14501
-0.61799	0.121883	-0.0115576
-0.544431	-0.212447	0.235289
0.0939971	-0.100182	-0.61484
-0.257917	-0.30846	0.485006
0.34406	0.436402	-0.296776
-0.459989	0.429946	0.0213635
0.521121	-0.347626	-0.0670016
-0.407069	-0.391757	-0.278785
0.372619	-0.427389	0.27458
-0.0423268	-0.463563	-0.424521
-0.370033	-0.151351	0.486897
-0.621892	0.0931178	0.0384611
-0.0134824	-0.535438	0.331698
-0.618056	0.0154664	-0.12111
-0.201026	-0.398014	-0.445054
-0.311877	-0.0710337	-0.542759
0.140245	0.0432642	0.612666
0.537134	0.327824	-0.0303056
-0.177402	-0.289855	-0.530483
-0.0587878	0.552182	0.297555
-0.403263	0.0213499	-0.483553
0.201457	0.497875	0.329296
0.402723	0.25964	0.409025
0.359794	-0.265243	-0.443953
0.578106	0.247377	0.0387054
0.418215	0.202045	-0.425646
-0.44631	-0.384712	0.222944
-0.32437	0.24116	-0.483245
0.206628	0.575821	0.150448
0.000595243	-0.235311	-0.584404
-0.536095	0.270047	0.19125
0.216584	-0.526612	0.269575
-0.410012	0.0202177	0.477892
-0.628634	-0.034823	0.0225003
-0.331434	0.318081	0.431134
-0.535295	-0.278716	-0.180768
-0.35565	-0.15315	0.496949
0.348138	0.113669	0.51262
-0.207042	0.0152316	0.594812
0.356405	-0.451658	0.256672
-0.296379	0.509438	0.222558
0.0535364	-0.449138	0.43853
-0.362633	0.00490814	0.515144
-0.330716	0.088243	0.528905
0.130897	0.363382	-0.497714
0.283275	0.482775	-0.289108
0.51808	-0.10159	-0.343763
-0.310826	0.128768	-0.532641
-0.237265	-0.380672	-0.442374
-0.0169845	-0.432261	0.457997
0.066542	-0.584357	-0.225829
0.498556	0.384838	-0.0155282
0.355005	-0.0166861	0.520185
0.338747	-0.520423	-0.106353
0.280246	-0.0696738	0.559918
0.458695	0.407552	0.142829
-0.241856	0.212197	-0.541644
0.0550672	0.56126	0.28081
0.474308	-0.410835	0.056096
0.598164	0.0540838	-0.190198
-0.54766	-0.166633	0.263064
-0.357467	0.518416	-0.0190362
0.275942	-0.0518892	0.563971
0.237186	-0.0944738	0.575949
0.381764	-0.427119	-0.262156
-0.0413441	-0.599484	-0.189236
-0.380394	0.355809	0.354402
0.316851	0.503168	0.208154
-0.605886	0.159825	-0.0652565
-0.480947	-0.406486	0.0189541
-0.223622	0.0825746	0.583159
0.439605	0.385375	-0.234805
0.593922	-0.176898	0.113416
0.106395	0.188954	0.591504
-0.391271	0.487062	0.0811071
0.381191	-0.266141	0.425161
-0.0187788	-0.592535	0.213189
-0.344978	0.403173	0.339619
0.227584	-0.458558	-0.367193
-0.118265	-0.0979566	-0.610998
-0.154242	0.601143	-0.108338
-0.369137	0.175876	-0.479276
0.438282	0.328718	0.311052
-0.622015	0.0182162	-0.0983107
0.356037	-0.374201	0.36071
-0.0163506	0.601866	-0.185447
-0.0786027	0.143446	0.608395
0.215731	0.58745	0.0725453
0.463003	-0.14332	-0.402477
-0.23925	0.497935	0.302854
