0.277028	0.273029	0.495591
0.35442	0.390001	-0.345232
-0.0714272	0.179254	-0.599722
-0.256869	0.565769	-0.104038
0.37183	-0.0865075	-0.501157
0.302321	-0.54354	0.100333
-0.526497	0.290756	0.187516
0.576735	-0.00288811	0.253511
-0.626719	-0.0441791	-0.0466059
0.352272	0.520265	-0.0461413
0.250295	0.52525	-0.241588
-0.489227	0.386127	-0.0919978
0.0343459	-0.4751	0.412311
0.293686	0.556038	0.0383411
0.0454693	-0.596094	0.198759
0.518267	0.308005	-0.182846
0.485913	0.398667	-0.0430491
0.317447	0.285606	0.463203
0.557438	0.240495	0.1683
-0.0328043	0.4678	0.420698
-0.269657	0.103995	-0.559795
-0.312041	-0.142776	-0.528342
-0.481424	0.206109	-0.350214
-0.151382	0.60967	-0.0478135
-0.261292	-0.461283	-0.340359
-0.194545	-0.0773027	-0.594202
-0.479155	0.388857	-0.126887
0.176468	0.536586	-0.278989
-0.377403	-0.431786	0.26082
-0.20501	0.284806	0.523217
0.611997	-0.118926	0.0906456
-0.480711	-0.133188	-0.384809
-0.272544	0.455997	-0.338654
-0.459274	0.10185	0.41904
-0.620684	-0.00365974	0.10788
0.430716	0.453865	-0.0734208
0.470761	0.22538	0.352828
0.422367	-0.378299	0.274583
0.443658	-0.331015	0.300827
-0.210657	0.185178	-0.564121
0.0796913	0.624889	-0.00792885
0.0956313	-0.0473251	-0.620899
0.250801	0.082319	-0.572033
0.306087	0.548583	-0.0476172
0.530574	-0.187297	-0.283393
-0.563728	0.196904	0.200848
0.382962	-1.39162e-05	0.50024
0.544559	0.0091819	0.316655
-0.438707	0.387602	-0.232811
-0.328333	0.489965	0.22143
-0.524449	0.306693	0.16671
0.592116	-0.150786	0.153502
-0.0145753	-0.539604	-0.324831
-0.560965	0.275144	0.0807129
0.460457	0.334552	0.2701
0.0425404	0.0761483	-0.623932
0.611743	0.138359	0.0593951
-0.620327	0.104682	0.033698
-0.207228	-0.205195	0.558437
-0.27641	0.309171	0.474248
0.254172	0.570751	-0.0808682
0.405084	-0.357964	-0.323526
0.167586	0.603029	-0.0719112
-0.444248	0.44363	0.0523094
0.459622	-0.353889	0.245786
0.445125	-0.395772	-0.205251
0.136915	-0.6042	-0.114438
-0.585525	0.0845824	0.216577
-0.0801888	-0.196654	-0.593125
0.377868	-0.0509605	0.501516
0.0295524	0.265979	-0.570335
0.228807	-0.341545	0.477383
-0.0291133	-0.619008	-0.113497
0.26921	0.0222913	0.569148
0.0641564	-0.0903991	-0.620171
-0.198167	0.585708	-0.120729
0.121795	-0.608963	-0.105973
0.56437	0.234733	-0.1526
-0.217164	-0.358862	-0.470062
-0.159241	0.357516	-0.493685
-0.312803	-0.291079	-0.462955
0.287561	-0.00818428	-0.560483
0.300051	-0.110354	-0.542855
0.464697	0.362993	0.221793
0.160896	-0.184664	-0.580441
-0.236754	-0.300746	0.500399
-0.377977	-0.000199761	0.504017
0.291153	-0.330813	-0.450214
-0.553296	0.226285	-0.198892
-0.396576	0.456333	0.177166
-0.153128	-0.297609	0.533742
0.394466	0.13977	0.470915
-0.418171	-0.159375	0.443433
-0.336313	-0.189175	-0.498003
0.338063	-0.266884	0.459767
0.150081	0.0805187	0.606541
0.261082	0.502849	0.275462
0.189151	-0.0958876	0.593235
0.232189	-0.58085	-0.0748443
-0.103594	-0.555481	-0.278584
-0.000108303	-0.0897666	0.623572
-0.54889	0.3068	0.0386465
-0.42552	-0.37558	-0.273445
0.00772157	0.330438	-0.536331
-0.305255	0.00941676	-0.551027
-0.27789	-0.53225	0.190756
0.499189	-0.369348	0.106265
0.0386597	-0.598926	-0.191553
0.204353	0.586553	0.105333
0.073534	-0.213978	-0.587968
-0.008712	-0.130713	0.616229
-0.429683	0.252956	-0.385079
-0.00897904	0.377289	0.504453
0.545897	-0.216268	-0.228308
-0.265352	-0.404268	0.403802
-0.382414	-0.499772	-0.0297976
-0.26383	-0.51262	0.253998
0.200711	0.111876	0.586599
0.211769	-0.589462	-0.0677374
-0.40202	0.478683	-0.0783741
0.558331	-0.286167	-0.0572231
-0.389672	0.263945	-0.418795
-0.383942	0.450192	0.216369
0.0345346	0.558447	-0.289558
-0.0735532	0.387387	-0.491347
0.28924	-0.0492155	-0.557511
0.122602	0.189642	0.588137
0.275082	0.201733	0.529654
0.455222	-0.250279	0.356417
0.453956	0.427704	0.0888411
-0.134938	-0.435791	-0.434486
-0.557396	-0.15506	0.249331
-0.545469	-0.279647	-0.145469
0.345018	-0.0828393	0.520577
0.541256	0.309919	0.0888349
0.143505	0.408257	0.457857
0.225158	-0.363351	0.462795
0.507552	-0.209583	-0.308813
-0.339027	0.153497	-0.50833
0.595095	0.147002	0.145438
-0.395395	0.25102	-0.421369
-0.20762	0.574736	0.153207
0.495836	-0.326125	0.211398
-0.441372	0.419735	-0.160977
-0.152948	-0.501341	-0.34952
0.163691	-0.594361	-0.129767
-0.378839	-0.419686	0.27793
-0.625287	-0.0627546	0.0444818
0.148208	-0.370807	0.487275
0.138289	0.0454797	-0.61295
-0.340082	0.510406	-0.143979
-0.588134	0.197477	-0.109552
0.411125	0.0391748	-0.475754
0.137487	-0.557679	0.258827
0.0919449	0.601146	0.164529
-0.335735	-0.510879	0.152267
0.368468	0.459719	-0.223137
-0.0189772	-0.576305	0.253797
0.587946	-0.183201	0.132877
-0.273685	-0.21834	-0.52376
0.416013	0.0858274	-0.46526
0.518015	-0.308369	0.182945
0.562229	-0.272157	0.082027
0.217335	0.538818	-0.243599
0.162134	-0.119278	-0.59698
-0.143729	0.0370879	-0.612263
0.244346	-0.345112	0.467004
0.115208	0.197976	-0.586884
-0.61674	-0.120889	0.0437908
-0.382157	-0.36283	-0.345269
0.262643	0.174799	0.545311
0.624721	0.0273074	0.0766707
-0.61359	-0.142767	-0.00496805
-0.448389	-0.387069	0.214536
0.337743	-0.322355	0.422985
0.257296	0.514665	-0.256551
0.210451	0.573952	-0.152283
-0.12182	0.552765	0.276606
0.364693	0.149077	-0.491605
-0.0636161	0.56938	-0.26203
0.44062	-0.131742	-0.430579
-0.117222	0.618269	-0.0300342
-0.143661	-0.363561	-0.49405
-0.0643063	0.528739	0.336451
0.0536124	0.448116	-0.439566
-0.506316	-0.357491	0.112892
-0.522897	-0.266914	0.22855
0.306382	0.0236184	-0.549975
0.105458	-0.129872	-0.607381
-0.480691	0.208104	-0.350041
-0.316666	-0.5405	0.0669467
0.365722	-0.456692	0.233622
-0.550717	0.299873	0.0607218
-0.449678	-0.389955	0.206457
0.261401	-0.553292	-0.149792
-0.225629	0.226749	0.542749
-0.50885	-0.288136	-0.234413
-0.248653	0.376956	0.439291
0.512676	0.167068	0.325809
-0.0904834	-0.581471	0.224953
0.591504	0.0377023	-0.213546
-0.617858	0.0856276	-0.0884276
-0.590514	-0.0403868	0.215782
0.473591	0.190901	-0.36901
0.0177465	-0.00208987	-0.629747
0.56445	-0.279784	-0.00407018
0.321352	0.0840547	0.53532
0.401218	0.455518	-0.168605
-0.250099	0.198223	-0.543193
0.483156	0.368165	-0.167076
0.292074	-0.362849	-0.424186
0.600546	0.177638	0.0684764
-0.286184	0.5607	0.0247818
-0.47697	0.318196	-0.261058
0.129258	0.274087	0.55233
0.318747	-0.237164	0.488931
0.0348736	0.160049	0.608332
0.301433	-0.472545	-0.287645
-0.260835	0.429289	0.380231
-0.017594	0.210628	-0.593487
-0.0143361	-0.428826	0.461305
0.439547	-0.0883778	0.442592
-0.39245	-0.12979	-0.475434
-0.329257	-0.445102	-0.300623
0.375687	0.501719	0.0635389
-0.214323	-0.462189	0.370604
0.545048	0.310915	0.0561613
-0.263509	0.25673	-0.511422
-0.0376992	-0.524076	-0.347596
-0.23381	-0.432226	0.394225
-0.204331	-0.0606578	-0.592849
-0.536377	0.144659	0.297108
0.181199	0.374511	0.473084
0.174585	-0.270465	-0.541543
0.546334	-0.198865	-0.242636
0.477996	-0.332227	-0.240925
0.192043	-0.250164	0.545378
-0.106722	-0.380129	0.49093
-0.214534	-0.41891	-0.418795
-0.19444	0.00366427	-0.599233
-0.217155	0.528555	0.26528
-0.233295	0.583353	-0.0466133
-0.144972	0.544334	0.282106
-0.394521	0.196585	-0.450119
0.0612433	0.489233	-0.392174
-0.304048	-0.194269	0.516444
-0.575874	0.244075	0.0754781
0.274221	-0.180647	-0.537652
-0.198848	0.24327	-0.546058
0.240537	-0.137572	-0.565788
-0.237468	-0.305111	0.49741
0.565037	0.264022	0.0890237
0.411607	-0.40638	0.249671
0.405875	0.226322	0.425375
-0.326122	-0.242947	0.481166
-0.127169	0.377757	0.487881
-0.136855	0.427733	0.441832
-0.591457	0.153013	0.153836
-0.0038162	-0.325192	0.53957
0.616357	0.110778	0.0687888
-0.599082	0.175767	0.0842982
0.535223	-0.0270406	-0.331218
-0.485087	0.0220889	-0.401376
-0.523688	-0.269595	0.223539
0.210942	0.592088	0.0428411
0.036982	-0.619223	-0.109977
0.433636	-0.222251	-0.39933
0.420061	0.459038	0.0986531
-0.502005	-0.0375974	0.378784
0.384268	-0.0277321	-0.498466
-0.163819	0.0410159	-0.606944
0.161546	0.221666	-0.567157
-0.475453	0.0059205	0.413291
-0.095385	0.618986	-0.0682492
-0.164767	0.281585	0.538945
-0.0296424	0.443031	-0.446928
0.218506	0.519731	0.281132
0.13479	0.371134	0.490908
-0.486887	-0.142576	0.373515
0.568557	0.234146	0.137181
-0.200893	-0.532094	0.270958
0.471343	0.406642	-0.0968381
-0.104741	-0.560997	-0.266855
-0.602089	-0.072092	-0.170854
-0.0588201	0.59424	0.200795
-0.591152	-0.133175	0.172349
-0.0534992	0.131661	-0.613762
0.301972	0.543233	0.10301
0.0696711	-0.30102	0.549029
-0.229567	0.551402	-0.200388
-0.169912	0.27347	-0.54152
-0.0431818	-0.595636	-0.200633
-0.159151	-0.328943	-0.513193
0.507388	-0.0729137	-0.366253
0.461189	-0.397482	0.161903
-0.425056	-0.357834	0.296955
0.316637	0.480761	-0.255949
0.069666	0.557162	0.285688
-0.0204622	-0.0742857	-0.62527
-0.206877	0.276323	-0.527017
-0.333016	-0.15775	-0.510994
-0.342959	0.419588	0.321286
-0.539423	0.310662	0.0970176
-0.159846	-0.313149	-0.522769
-0.222406	-0.157361	0.568043
0.281911	-0.506735	-0.246263
0.159959	-0.487697	0.365329
0.363772	0.283722	-0.429036
0.211815	0.587971	0.0795273
-0.104441	-0.110406	-0.611394
-0.265132	0.23324	0.521732
-0.141714	0.592416	0.160811
0.28382	0.0391902	-0.56108
0.554917	0.255044	0.154659
0.52925	-0.315269	0.131911
-0.223717	-0.0330046	-0.588015
-0.185374	-0.262452	-0.5419
0.359823	-0.0465564	-0.515034
-0.152892	0.605201	0.0851813
-0.560471	-0.284255	-0.0444028
-0.318296	-0.463146	0.284752
0.359907	-0.121192	-0.502672
-0.477669	-0.387474	-0.136367
0.547578	-0.0362971	0.30942
0.176184	0.481857	-0.365613
-0.593916	0.199765	0.06525
0.539239	-0.251199	-0.207414
-0.264898	-0.564712	-0.0884868
0.159936	-0.548522	0.265413
-0.564071	-0.275319	-0.0540626
-0.338915	0.431626	0.309412
-0.0675629	0.61177	0.134434
-0.491258	-0.387341	-0.0743791
-0.450849	-0.216342	0.383186
-0.500187	0.382828	-0.0124551
-0.32882	-0.52054	0.133475
0.605523	-0.14247	-0.0997173
0.503407	-0.367316	-0.0925247
-0.626473	0.0422692	-0.0514258
0.24592	0.503326	0.288247
-0.220012	0.434163	0.399997
0.243665	0.556971	0.165261
-0.244473	0.0999947	-0.571956
0.154262	0.452129	0.41071
0.25738	-0.126854	0.560859
0.557299	-0.21344	0.201893
0.588773	-0.184143	-0.127818
0.168258	0.149913	0.588315
0.243853	-0.0547902	0.578303
0.537401	-0.267609	0.191014
-0.600691	-0.0979974	0.162686
-0.405054	-0.0719076	0.477137
-0.0959292	0.26007	-0.565739
-0.2485	0.0495972	-0.576791
0.127125	-0.33255	0.519759
-0.324604	-0.421338	-0.337648
0.417048	0.379119	-0.281496
0.53033	0.314083	0.130393
-0.0368723	-0.573284	-0.258622
-0.499645	-0.35322	-0.149969
0.452026	-0.266574	0.348584
-0.109023	0.365262	-0.501595
-0.102407	0.0111119	-0.621522
-0.324358	-0.430239	0.326476
-0.602844	-0.180416	-0.0304752
0.0758692	0.179893	-0.598985
0.138044	-0.555992	-0.26214
-0.233653	-0.545251	0.212149
0.454159	-0.433393	0.0530141
0.284717	0.317479	0.463728
0.424518	-0.452809	-0.10793
-0.315031	-0.0521914	-0.543076
-0.0217686	0.297219	-0.555056
0.0384403	0.150002	0.610673
0.193006	0.568575	-0.190712
0.25694	-0.286824	0.498612
-0.0886696	0.498276	0.375179
-0.215836	-0.587428	0.0724122
-0.422667	0.426046	0.191671
-0.0935319	-0.563282	0.266205
0.217421	0.558265	-0.194854
-0.309967	-0.542645	-0.079726
0.138777	0.519156	-0.328813
-0.51337	0.0607356	0.360086
0.119254	-0.277461	-0.552896
-0.0192863	-0.573411	0.260246
-0.150706	0.586857	-0.172589
0.342528	-0.456424	0.266931
-0.61687	-0.0537644	-0.116105
-0.277343	-0.473248	-0.309867
-0.475993	-0.412661	0.00645535
0.389179	0.42962	0.246711
-0.234763	0.478333	-0.336131
-0.298584	-0.49869	0.243014
-0.509894	0.296295	0.221624
-0.0310359	-0.616893	0.124018
-0.194601	-0.596416	-0.0576029
0.348295	0.397627	0.342758
-0.254497	-0.444409	-0.366922
-0.406327	-0.287803	0.385963
0.243754	-0.569496	-0.114709
-0.0656504	0.369527	0.506004
-0.440173	-0.142894	0.427468
-0.178189	0.604131	0.0131955
0.589829	-0.174975	-0.135596
0.060618	-0.61417	0.126574
-0.0481336	-0.614197	-0.131699
0.107475	0.492364	0.378057
0.331146	-0.49251	0.211368
-0.348845	-0.14474	0.50424
0.239756	-0.210506	0.543235
0.323051	0.323077	-0.433773
-0.103695	0.599732	-0.162691
-0.347155	0.501599	0.157421
0.154192	0.40041	-0.461299
0.279082	-0.297945	-0.479835
0.604898	0.121803	0.12713
0.624337	-0.0737081	-0.0408759
0.0972267	-0.586112	0.209569
0.0266974	0.416717	0.471735
0.120272	0.153691	-0.599011
0.22732	-0.521587	-0.270505
-0.141957	-0.574298	0.216632
-0.0715174	-0.547389	0.303563
0.048765	0.621512	0.0908019
-0.186358	0.375981	0.469904
0.270313	0.390013	0.414392
0.0639164	0.431817	0.454256
0.341249	-0.307527	-0.431134
-0.16725	-0.568772	0.213133
-0.233947	-0.548501	-0.203261
0.547142	-0.0531961	0.307743
-0.16354	-0.60656	-0.0473245
-0.0320775	0.522488	0.350539
-0.126062	-0.505558	0.354146
0.0705686	0.619416	0.0907967
-0.494458	-0.160189	-0.35602
-0.433646	0.21308	-0.404287
-0.124536	0.383338	0.484193
-0.0485152	0.181566	0.601315
-0.524206	-0.186661	0.295408
0.231669	-0.181728	-0.55696
-0.438756	-0.306292	0.332533
0.246048	-0.347421	-0.464391
0.0928535	-0.310728	-0.540117
0.499845	-0.0634477	0.378193
0.518231	0.242802	-0.263408
0.481211	0.405854	-0.0248665
0.142754	0.1536	-0.594078
-0.289784	-0.446762	0.336644
-0.185334	0.553417	0.237236
-0.17394	0.254626	-0.549373
0.197207	-0.347212	0.487292
0.441182	0.0790815	0.442724
0.0377293	-0.368821	0.50936
-0.433921	0.346612	0.297444
0.31853	0.065667	0.539562
-0.121519	0.532142	-0.314575
-0.0589831	0.626261	0.0349061
0.534159	0.0427825	0.331276
0.536699	0.31948	0.0823772
-0.114579	-0.481253	0.390086
-0.588814	0.0669983	0.213797
0.258055	-0.398749	0.413892
-0.154197	0.342417	0.50584
0.241822	0.287129	0.505944
-0.375471	-0.338635	0.375829
0.549796	0.00717343	0.307527
0.0259761	-0.617901	-0.120098
0.459084	-0.376779	0.210189
0.345923	-0.524938	0.0409622
0.462494	0.394329	-0.165845
-0.488776	0.362022	0.164128
-0.301036	0.218896	0.508293
0.318057	-0.378774	-0.390218
-0.249533	-0.229269	-0.531101
0.104885	0.0215022	0.620836
0.262972	0.456734	-0.345167
-0.20294	0.58597	0.111152
0.522003	0.179744	-0.303487
0.480903	0.402357	-0.0611615
-0.546912	0.19694	-0.242903
0.382212	-0.360226	-0.347924
-0.423207	0.0280741	0.465841
0.272306	-0.317944	-0.470809
-0.0820038	0.018822	-0.624357
0.464587	0.37718	0.196963
-0.108032	-0.205584	0.585632
0.549459	0.0602512	0.302267
0.55191	0.272025	0.135271
0.016794	-0.161125	0.608816
-0.22471	-0.569998	-0.146656
-0.540682	-0.215016	-0.241518
-0.0383433	-0.605447	0.169893
-0.0800718	0.537713	-0.318361
-0.346669	-0.48714	0.198533
-0.260106	-0.161778	-0.55052
-0.107298	-0.534962	-0.314965
-0.1231	0.59917	-0.150805
0.395681	0.490068	-0.0130108
