-0.529759	0.306119	-0.150158
-0.223324	0.540708	-0.233797
-0.0846715	0.114975	0.613605
-0.306511	-0.329458	0.440918
0.160597	0.126051	0.596003
0.151149	-0.374683	0.483391
0.256815	-0.265168	-0.510522
-0.281578	0.428955	0.365529
-0.320127	-0.536988	0.0778643
0.208723	0.397932	0.44157
0.392146	-0.48024	-0.111764
-0.566396	-0.217801	-0.169289
0.00495213	-0.158694	0.609665
-0.287673	-0.341814	-0.444193
-0.470307	-0.123828	0.400472
0.18844	-0.427661	-0.422488
-0.616118	-0.123647	0.0448379
-0.0147369	0.52245	0.351752
0.326468	-0.150643	-0.517325
0.349695	-0.358844	0.381896
0.290369	-0.0744289	-0.554117
-0.392114	-0.4028	-0.284426
-0.610718	0.153749	-0.0168777
-0.1184	-0.441298	0.433748
0.344442	-0.499383	0.16993
-0.59381	0.12817	-0.166918
0.0210215	-0.479746	-0.407801
0.0656144	0.308401	0.54542
-0.360542	0.170359	-0.487737
-0.398627	-0.455453	0.17481
-0.155734	-0.607531	0.0596104
-0.575344	-0.0737739	0.245839
-0.187185	0.371587	-0.473059
0.0425385	0.18127	-0.601857
0.304316	0.0346957	-0.550534
0.552788	0.101132	-0.284778
0.521587	-0.164479	0.31272
0.606305	-0.124767	-0.117164
-0.590679	0.147606	0.161898
0.275292	-0.155492	0.544919
-0.0906073	0.622894	-0.0263238
-0.556738	-0.290684	0.0494516
0.0657333	-0.442745	-0.443347
-0.455582	0.00265641	-0.43513
-0.183798	-0.583418	-0.150804
-0.262139	-0.556173	0.137312
0.482916	0.0217825	0.404002
-0.43212	-0.30847	0.339143
-0.284085	0.485135	-0.284323
-0.464758	0.301205	-0.300292
-0.624588	-0.0472365	-0.067518
0.475733	0.0157778	-0.412709
0.62353	-0.00881011	0.089623
-0.132867	-0.0799916	-0.610613
-0.208501	-0.594463	-0.00640739
-0.455527	0.432313	0.0499984
0.050162	-0.0733755	0.623698
0.199672	0.533446	0.269197
0.0070669	-0.615001	0.136467
0.0934213	-0.248989	0.571119
0.558258	-0.097864	-0.275083
-0.306701	0.132868	0.534023
0.0459818	0.623992	-0.073615
0.187728	-0.576594	0.170874
0.186237	-0.391635	0.456988
0.410589	0.183034	0.441379
0.561855	0.0660244	-0.277237
-0.611105	-0.0323429	0.149681
0.140253	0.236778	-0.566714
0.614601	0.130291	-0.0467974
0.354543	-0.497168	0.154993
0.300099	-0.531467	0.156152
0.504422	0.3222	0.196585
0.605373	-0.174389	0.00351461
-0.438418	0.177805	0.416023
-0.52211	-0.297745	-0.18881
0.577265	-0.120286	-0.221802
-0.250815	-0.405702	-0.41158
0.108985	-0.481532	0.391342
-0.312733	-0.39037	-0.383026
-0.220349	-0.590068	0.0128867
-0.222239	0.584804	-0.0742597
-0.0759108	0.326796	0.533237
-0.489196	-0.392814	0.057306
-0.536152	-0.246458	-0.22068
-0.299566	-0.529855	-0.162523
0.549875	0.290641	0.100328
0.30155	-0.121466	-0.539642
-0.629727	-0.0141086	-0.0120168
-0.350153	0.425454	-0.30542
-0.384508	0.251489	0.431053
0.529338	-0.061794	-0.33598
-0.290314	0.26954	-0.489863
-0.178059	0.105238	0.59508
-0.392117	-0.492238	0.0290886
0.571091	-0.236396	0.121951
0.492641	0.312679	0.237564
-0.538104	0.148973	0.291807
0.491516	-0.393499	0.0216935
-0.101595	-0.473582	-0.402863
-0.472649	-0.21935	0.354102
-0.540456	0.307603	-0.100936
0.469222	-0.140524	0.396212
0.505266	0.0212888	0.375704
-0.6158	-0.0321057	0.129072
-0.0573097	0.626315	0.0366825
0.299463	0.435419	0.342976
-0.562215	0.166042	-0.230749
0.0948921	0.607821	-0.135828
0.3196	0.304616	0.449405
-3.22521e-05	-0.621848	0.101021
0.401173	0.177203	0.452282
-0.299698	0.553572	-0.0252659
0.0879348	-0.419913	0.461346
0.582218	0.226486	-0.0814047
-0.55066	-0.273493	-0.137386
0.593383	-0.206772	-0.0451849
-0.382463	0.0310243	-0.49966
-0.489152	0.343868	-0.198457
0.506918	-0.364717	0.0831615
-0.407101	0.196486	-0.438819
0.536456	0.0463793	-0.327054
-0.0437345	0.617181	0.118636
0.462703	-0.299186	0.30544
-0.515541	0.0273003	0.361071
0.3937	0.491369	-0.0213689
0.528045	0.276809	-0.203582
0.581606	-0.0525525	-0.236375
0.469881	-0.300986	-0.292437
0.469281	0.275289	0.317634
-0.429531	0.408369	0.21363
0.551503	-0.270808	-0.139313
0.0200644	-0.432041	0.458081
-0.610617	0.141873	-0.0626062
-0.24198	-0.551961	-0.183532
0.348542	0.4081	0.329958
-0.438867	0.287773	0.348543
-0.348563	0.524746	-0.0067724
-0.272513	-0.352528	0.445377
-0.583564	-0.0575734	0.2303
0.436357	-0.408476	0.199099
0.406785	-0.322733	0.356749
-0.174487	-0.55056	0.251671
0.522431	0.206146	-0.285429
-0.401249	-0.484917	0.0274579
0.582029	0.0170637	0.240522
0.1065	0.376869	-0.493485
-0.152629	-0.568815	0.223727
0.589768	-0.220328	-0.0229991
0.184478	0.598574	0.0676583
0.0476061	-0.029977	0.627483
0.352567	-0.50988	0.112336
0.411411	-0.347862	0.326547
0.525947	0.341911	-0.0581096
-0.00774428	0.0442233	-0.628398
-0.240066	-0.212394	0.542363
-0.597983	-0.1968	-0.0242146
0.585142	-0.0438296	0.229322
0.00129193	-0.500771	-0.382265
0.365207	-0.0444864	-0.511415
-0.402612	0.47466	0.0974748
-0.607013	-0.00731851	0.168468
-0.3311	-0.353612	-0.402779
0.192747	-0.1021	-0.591036
0.449706	0.439813	0.0350482
-0.385963	0.200028	-0.455984
-0.453433	-0.437236	0.0110997
-0.51473	0.291626	-0.216582
-0.502437	-0.210546	0.316429
0.235707	-0.424107	-0.40184
-0.444317	-0.376604	0.240108
0.457487	0.00530858	-0.433102
-0.159108	-0.535795	-0.290702
-0.471076	0.388811	0.154316
-0.188321	0.332903	-0.50061
0.496489	0.270527	-0.277874
-0.574284	0.0763615	0.24752
-0.0815434	0.622201	0.0558284
0.389083	-0.494882	-0.0246212
-0.409256	-0.459608	0.134796
-0.541031	0.160134	0.280254
0.294907	-0.449231	-0.328819
0.00388893	-0.533355	-0.335287
-0.505026	0.046784	0.373711
-0.421068	0.146265	-0.445206
-0.18972	0.546918	-0.248569
-0.220442	0.440029	-0.393293
0.185596	-0.371312	-0.473901
0.410338	0.159479	-0.450654
0.288024	0.417088	0.374139
0.281858	-0.474862	0.303252
0.242738	-0.529645	-0.239696
0.46491	0.371857	0.206111
-0.25693	-0.528002	-0.228257
-0.602137	0.0249361	0.1836
-0.280909	0.383885	0.413064
-0.54009	0.00012066	0.32435
0.345032	-0.5233	0.0633231
0.0343517	0.605355	-0.171073
0.435475	-0.438658	0.121823
-0.16176	-0.471229	-0.385586
-0.103136	0.500467	0.368505
-0.604811	0.167813	-0.0542425
-0.0674469	0.411179	0.472528
-0.562368	-0.230993	-0.165179
0.234034	0.0775295	-0.579756
-0.526348	0.120298	0.324632
-0.0778822	-0.556993	0.283889
-0.62824	0.0315385	-0.0349222
-0.477836	-0.0247371	-0.409831
0.107503	0.27249	-0.557757
0.599924	0.072779	0.178029
-0.190233	0.461571	0.384271
-0.294931	-0.464233	0.307252
0.0290347	0.617049	-0.123725
0.384095	-0.428211	0.256917
0.348496	0.381676	-0.360242
-0.0987584	-0.455224	-0.424167
0.0445917	0.36574	-0.511025
-0.360729	0.467802	-0.218942
-0.259264	0.266957	-0.508347
-0.214024	0.477123	0.35135
-0.200345	-0.570171	-0.177952
-0.0197421	-0.445351	0.445166
0.118247	0.17679	0.593012
0.497153	0.345555	0.174157
0.00192875	-0.611716	0.150663
-0.391804	-0.101201	-0.482854
0.587553	-0.206982	-0.0940181
-0.234919	-0.554206	0.185927
-0.522763	0.282793	0.208917
0.501289	0.371646	-0.0865327
-0.431233	0.360416	-0.284672
-0.548324	-0.162638	-0.264178
-0.490981	-0.302671	-0.253432
0.383882	-0.0495207	-0.497074
-0.134726	-0.323027	-0.523835
-0.0507902	0.519448	0.352837
0.0150529	0.216656	0.591383
0.19205	-0.597098	-0.0590829
0.217975	-0.506564	-0.304599
0.25244	0.39773	0.418312
-0.0432921	0.298473	-0.553118
0.199796	0.591321	-0.0855607
0.467672	-0.190795	0.376536
0.52775	-0.318165	-0.13096
0.584344	0.189214	-0.140143
-0.456688	-0.340886	-0.268575
0.537048	0.288278	-0.159296
-0.42851	0.453494	-0.0873048
0.288537	-0.507247	0.237375
-0.20953	-0.190294	-0.562837
-0.458534	-0.0083551	0.431946
-0.399828	0.32111	-0.365959
-0.125373	-0.497389	-0.365767
0.402495	0.433301	0.217136
-0.124832	-0.260633	-0.55981
0.526191	0.335174	-0.0876455
0.0691154	0.205224	-0.591613
0.444318	0.0174246	0.446293
-0.330058	0.130432	0.520528
-0.529495	-0.0395641	-0.339071
0.341946	-0.43423	-0.302353
0.439193	-0.0611223	-0.447519
-0.439633	0.0424368	-0.449246
-0.342167	0.515013	-0.120763
0.223975	0.501888	0.307966
0.210732	0.00370225	-0.593699
-0.0648834	0.5622	-0.276805
-0.343342	-0.162551	-0.502587
-0.134683	-0.424625	0.445482
-0.562076	0.243511	0.147219
-0.261792	0.475394	0.319946
0.186065	0.592159	0.107829
0.40747	0.362704	-0.315141
-0.35493	-0.0672474	0.516142
-0.289981	0.552143	0.0891574
0.255985	-0.342244	0.462862
-0.576155	-0.228898	0.112034
0.46563	0.388854	0.169943
-0.21989	-0.520675	-0.278291
0.582717	-0.132608	-0.199389
-0.286071	-0.558346	0.0575613
-0.490815	-0.284635	0.273831
-0.417496	0.0736924	-0.466012
-0.495177	0.261514	-0.288635
-0.355437	0.506573	-0.118102
0.135777	-0.394892	-0.471726
-0.194515	-0.38716	0.457352
0.542261	-0.16513	-0.274927
-0.152096	-0.515621	-0.328484
0.524697	-0.291597	0.191219
0.192926	-0.471027	-0.371232
0.268549	-0.255808	0.509258
-0.0347973	-0.61621	0.126392
0.165214	-0.451748	0.406851
0.107803	-0.46328	0.413099
-0.365556	0.187772	-0.477504
0.579769	0.0301241	0.244663
0.134293	-0.296946	-0.539155
0.611175	-0.150915	0.0242806
-0.357126	0.476122	0.206565
-0.624409	0.083701	-0.00268506
-0.398597	-0.379757	0.306275
-0.342909	0.494802	0.1857
0.410518	0.30355	0.369097
0.390723	0.477808	-0.126235
-0.259405	0.00129405	0.574114
-0.0231827	-0.475145	-0.413037
0.0619305	0.600613	-0.179801
0.408133	-0.00105987	0.479923
0.446885	-0.280522	-0.34424
-0.240733	0.0485262	-0.580166
0.0805829	-0.519195	-0.347625
-0.0454932	-0.567265	0.270261
-0.137576	0.167629	-0.591501
0.0754956	-0.430607	0.453627
-0.127364	0.467913	-0.402164
0.0564877	-0.438143	0.449154
-0.155764	-0.574634	0.205994
-0.441898	-0.278447	-0.352269
-0.232787	-0.583757	0.0440172
-0.44531	0.414339	-0.164079
-0.489004	0.280369	0.281369
0.298632	-0.347672	-0.432254
0.1506	0.603391	-0.100691
0.0657193	0.023357	-0.626127
0.358697	-0.514406	0.0601924
0.440597	-0.184608	0.410724
0.0812166	-0.0596908	-0.621885
-0.112327	0.547126	0.291438
-0.509107	0.252235	0.272191
0.492049	0.174143	-0.352791
0.248488	-0.491236	-0.306335
-0.217528	-0.161204	-0.568854
-0.6146	0.0653568	-0.122045
0.20557	-0.313753	0.506162
0.523042	-0.331179	-0.116822
-0.586643	0.223471	-0.0530133
-0.394503	0.363647	0.330195
-0.38593	0.496473	0.0383766
0.0452869	0.173109	-0.604055
-0.394289	-0.487695	0.0599174
-0.60449	-0.0245474	0.175755
0.392496	-0.170835	0.462236
0.266289	-0.328912	-0.466698
-0.186411	-0.580228	-0.159644
0.581541	0.222602	0.0957012
-0.499921	0.343607	-0.170037
-0.611069	0.149716	-0.032866
0.629048	-0.0284236	-0.0197584
0.362566	0.347463	-0.380415
-0.229461	-0.571619	0.132285
-0.225163	0.298406	-0.507105
0.0483565	-0.15532	0.608636
-0.148827	0.46449	-0.398747
0.527237	0.343717	0.0279147
-0.613425	0.12122	-0.0769132
0.31972	0.151616	-0.521241
-0.561727	0.284344	-0.022629
0.0298785	-0.26327	0.571573
-0.0937339	0.303776	0.543906
-0.22228	-0.237518	-0.539515
-0.341905	0.0283333	-0.528392
0.158517	-0.535009	0.292468
-0.254234	0.576424	0.000856428
0.392435	-0.276148	0.408212
-0.460252	-0.165215	-0.397206
-0.499915	0.254492	-0.286738
0.580457	-0.241469	-0.0407769
-0.0369489	0.438216	-0.451112
0.418233	0.118183	-0.456086
0.361807	-0.490086	-0.160658
-0.150606	-0.536936	0.293118
-0.242634	0.171331	0.555585
-0.042119	0.569361	0.266373
-0.444284	0.440262	0.0753724
0.448555	0.38196	-0.223169
-0.49058	-0.113001	0.378764
0.0324879	-0.479005	0.407921
-0.602156	-0.0268766	-0.183263
0.494369	-0.35895	0.1538
0.404052	-0.0122009	0.483212
0.106996	-0.0663872	0.617288
0.516886	-0.29829	0.201871
0.183327	-0.592415	-0.111067
0.137676	0.457838	0.41028
-0.297933	0.0957726	-0.546776
0.0392211	0.138005	0.613446
0.371857	0.154438	0.484532
0.594453	-0.204434	0.0416296
-0.315668	0.506543	-0.201661
-0.530794	-0.0649147	-0.333082
-0.0923255	0.265758	-0.563692
0.604647	-0.169774	0.0497895
0.0490632	0.527956	0.340228
-0.109596	0.0553858	-0.617917
-0.202011	-0.421321	0.422587
0.00660401	-0.358289	0.518155
0.109365	-0.150533	-0.601896
-0.312601	0.540527	-0.08373
-0.536615	0.067171	-0.323161
-0.45721	0.0582799	-0.42949
-0.329573	-0.432089	0.318717
-0.0115985	-0.194046	-0.599259
0.232366	0.585511	0.00913446
-0.0791851	0.117727	0.613816
0.0730961	-0.604746	0.160747
-0.0954806	-0.389894	-0.485557
0.0228249	0.42475	0.464722
0.282251	-0.464636	-0.318351
-0.514364	-0.0316891	-0.362389
0.0402834	0.419279	0.46849
-0.365651	0.237085	-0.454962
0.337174	-0.189536	0.497283
0.347566	0.0631543	-0.521641
0.499343	-0.128386	0.362041
0.600341	-0.129507	0.140422
0.305993	0.172371	0.523027
-0.533763	0.257941	0.213222
0.366511	0.45154	-0.242243
-0.252057	0.568704	0.0997156
0.24015	-0.388133	-0.434258
0.486996	-0.2119	-0.338871
-0.496207	0.161622	0.352927
0.237246	0.332985	-0.479307
0.0768333	0.548999	-0.299326
-0.311389	-0.223192	-0.500122
0.268345	-0.156518	-0.548081
0.622467	-0.0601512	0.0762658
0.375888	0.505009	0.0239641
0.605983	-0.0845917	0.150097
-0.627668	0.0479427	0.0251935
-0.617613	0.117808	0.0396886
-0.613883	0.137366	0.034332
-0.551781	-0.166756	0.254224
-0.229328	-0.585855	-0.0329005
-0.463941	-0.315129	-0.286971
0.0165009	0.239464	-0.582482
0.535777	0.328698	-0.0424275
0.0801154	0.50049	-0.374154
-0.106013	-0.601116	-0.155952
-0.154876	0.14426	0.593382
-0.500943	-0.0466322	-0.379186
-0.27094	0.342134	0.454352
0.436236	0.422214	-0.168324
-0.170389	-0.548109	-0.2597
-0.466343	-0.0716507	-0.417481
-0.16141	0.451178	-0.409005
-0.185407	0.0728786	-0.597673
0.00202386	-0.217186	-0.591377
0.16264	-0.600462	-0.0994679
-0.419779	0.0565847	-0.466351
0.291269	0.0342277	0.557576
-0.312319	0.0727719	-0.542274
0.614089	0.0353953	0.136168
-0.259959	0.464283	-0.337288
0.168898	-0.554467	-0.246859
-0.0264708	-0.338799	0.530485
-0.00517815	0.161846	0.608834
0.0384733	0.105571	-0.619899
-0.320407	-0.00403458	0.542424
0.333849	-0.533324	0.0317832
-0.193548	0.452066	-0.393796
-0.501028	-0.0271863	0.380961
-0.607405	0.114455	-0.121897
-0.418868	-0.408211	0.234121
-0.0977268	-0.592657	-0.19002
-0.524258	-0.28836	0.197236
-0.471442	-0.251013	0.334118
-0.277694	0.320216	0.466098
0.45981	0.367888	0.223903
-0.621994	0.0039331	0.100042
-0.0338593	0.186556	0.600792
-0.586343	-0.025605	-0.229013
0.24621	0.285976	-0.504478
-0.212781	0.575464	0.143057
0.139134	0.589207	0.174288
-0.350653	0.49255	-0.177021
0.394671	0.0731577	-0.485574
0.545485	-0.30328	0.0858312
-0.0140583	0.309203	-0.548722
0.177085	0.424101	0.430905
-0.603916	0.105809	0.14488
0.424241	0.370155	-0.282675
0.226496	0.501192	-0.307256
-0.608036	0.159002	-0.0437028
0.365119	0.106727	0.502193
-0.620855	-0.105986	-0.0143681
-0.620238	-0.055349	0.0956103
-0.581217	-0.185611	-0.156956
0.097973	0.558342	0.274874
0.578243	-0.129279	-0.21406
0.595251	-0.182441	-0.0963896
-0.363669	-0.22687	0.461709
0.375702	-0.505579	0.0117617
0.4973	-0.264329	0.282352
-0.115928	-0.619085	-0.0139273
-0.620389	0.0455581	0.0997111
-0.454902	0.370768	-0.229119
