-0.612762	0.103487	-0.103501
-0.521088	-0.354056	-0.00350374
-0.23006	0.0910195	-0.579386
0.591217	-0.214176	0.03862
0.271051	-0.566861	0.0458228
0.244818	-0.580428	0.00819918
-0.46913	0.159695	-0.388992
0.141677	-0.326217	0.52001
-0.55647	-0.0938907	-0.280045
-0.57059	0.18677	-0.190903
0.571846	-0.173121	-0.199803
0.0681141	-0.40116	0.480969
-0.379051	-0.418027	0.280131
-0.420268	-0.304961	-0.356755
-0.571412	0.155348	0.215069
-0.0635917	-0.26481	0.568095
0.30148	-0.395394	-0.386876
0.410439	0.475224	-0.0510087
-0.529487	0.271295	-0.207226
-0.571732	-0.161542	-0.209587
0.0382862	-0.0861163	0.622911
0.204576	-0.307333	-0.510485
-0.263549	0.374384	0.432757
0.0246621	-0.0756414	0.624956
-0.402083	-0.129882	-0.46729
0.3887	-0.429061	0.248432
-0.0516401	0.00925423	-0.627812
0.0970953	0.0104701	0.622385
-0.599024	-0.151461	-0.123006
-0.265775	-0.4587	0.340379
0.581607	-0.124468	0.207704
-0.276799	-0.190585	-0.532878
-0.020653	0.572227	-0.262735
0.288123	0.37561	-0.415695
0.240805	0.571137	0.112763
0.105948	-0.196315	0.589182
-0.0746964	-0.556201	-0.286287
-0.28877	0.423768	0.365968
-0.286078	-0.537839	0.160589
0.518161	0.140969	-0.329449
0.043971	-0.461033	0.427101
-0.182706	-0.26873	0.539725
0.320533	0.527993	-0.124022
-0.186606	-0.142307	0.584659
-0.0196486	-0.607705	0.16495
-0.29155	-0.50781	-0.232437
0.0415945	-0.298365	-0.553307
-0.340367	-0.481165	-0.222555
0.202592	0.510217	0.309087
-0.384644	-0.331189	-0.373179
-0.319288	-0.469638	0.272755
0.485667	-0.400171	-0.0298331
0.424046	-0.143198	-0.443373
-0.616748	-0.117816	-0.0513893
-0.388943	-0.28137	-0.407987
0.0945952	0.506286	0.362803
0.443437	-0.0532916	-0.444324
-0.4097	-0.477808	-0.0273006
-0.132345	0.0639061	0.612618
-0.511254	0.126388	0.345753
0.297131	0.409766	0.375107
0.332665	0.0161917	0.534763
-0.487676	-0.379696	-0.122079
0.235352	-0.577393	0.0901472
0.107174	0.532199	-0.319654
-0.246973	0.49462	-0.302085
0.608251	-0.132283	0.097117
0.329985	0.437362	0.311004
-0.299347	0.54218	-0.115467
0.411383	0.2113	0.427804
0.400532	0.377904	0.306044
-0.186572	0.204698	-0.565853
0.231901	0.440108	0.386558
0.432423	0.236311	0.392514
0.265406	0.448056	0.35455
-0.212653	-0.494958	0.326642
0.30753	0.28782	-0.468492
0.31032	-0.343134	-0.427622
0.139803	-0.610751	-0.0658679
0.0953634	-0.57023	0.250287
-0.548466	-0.284089	-0.124008
0.344012	-0.526021	-0.0431028
-0.165636	-0.606067	0.0463354
-0.0768485	0.493665	0.383782
-0.348913	0.249303	0.461528
0.402119	0.198754	-0.442377
-0.0949513	0.0727035	0.618545
0.471129	-0.29453	-0.296966
-0.449552	-0.284294	0.337609
-0.046635	0.0357994	-0.627251
-0.394682	-0.489734	0.035871
-0.168381	-0.128043	-0.593425
0.222304	-0.260129	-0.528974
0.431775	0.283665	0.360562
0.524068	-0.187368	-0.295205
0.623133	0.0654303	-0.0657604
-0.0149894	0.369357	-0.510148
0.365293	0.0652553	0.50912
0.271411	0.558733	-0.105135
0.217606	-0.235514	0.542292
0.348862	-0.510611	0.120299
0.22552	-0.549845	-0.209073
-0.552028	-0.278986	0.119715
-0.535587	-0.331087	0.020678
0.111143	-0.489632	0.380536
0.610748	0.153405	0.0188003
0.281812	-0.112999	0.552008
-0.336993	0.403854	0.346753
-0.473218	0.0539318	0.412379
-0.379585	0.37098	-0.339395
-0.140606	0.610536	0.066147
0.535622	-0.119388	0.309443
0.0971581	-0.557042	-0.277786
-0.0265267	-0.521668	0.352221
0.524691	-0.317046	-0.145194
0.356934	0.313651	-0.413668
-0.261168	0.56455	-0.0998723
-0.564127	-0.274046	-0.0596661
0.556617	0.0642137	-0.288018
-0.00539013	-0.629857	-0.0122923
-0.409927	-0.224034	-0.422692
-0.448777	0.0250043	-0.441445
-0.216064	0.570728	-0.15648
-0.261303	-0.165886	0.548728
0.00245259	-0.0542408	0.627656
0.193972	0.326879	-0.502419
0.394466	0.0601096	0.487528
0.244349	-0.493341	-0.306282
0.076498	-0.577355	0.240226
-0.015523	-0.627563	-0.0531434
0.535899	-0.102304	0.315034
-0.598923	0.190515	-0.0435345
-0.413373	-0.454428	0.139705
0.299554	-0.0729591	-0.549404
-0.374876	-0.389517	-0.323489
-0.0284763	0.585106	-0.231818
-0.202773	-0.494565	-0.33345
-0.4941	-0.0757334	-0.383445
-0.0463334	-0.142474	-0.611927
0.421946	-0.456761	0.101146
-0.266693	0.401542	0.405635
0.0846065	-0.584213	0.220084
0.0513669	0.563115	0.277782
-0.384184	-0.1072	-0.487659
-0.483998	0.0576539	-0.399152
-0.238816	0.516616	-0.270138
0.453228	0.40193	0.173021
-0.111457	0.486303	-0.38469
0.0357304	0.265484	-0.570212
0.400566	-0.363546	-0.322927
-0.216521	-0.509945	0.299957
0.577183	0.212785	0.135949
0.257161	0.448402	-0.360144
-0.542022	-0.0954781	-0.306587
0.0384718	0.508882	0.369404
0.224978	0.183674	0.55906
-0.0718475	-0.583622	0.226105
0.446562	-0.180617	-0.40603
-0.390889	0.148376	-0.471265
-0.204412	0.0584182	0.593045
0.591876	-0.158132	0.146892
-0.453245	0.236539	0.368128
0.526911	-0.270877	0.214222
0.379711	-0.0290149	-0.501874
-0.102842	0.166325	-0.598882
-0.190054	0.399942	0.448136
-0.252115	0.473245	0.330723
-0.221207	0.0595031	0.586879
-0.225738	-0.017123	0.587919
0.160127	0.382009	-0.474688
0.623141	0.0927015	-0.00132601
0.0735648	0.0462386	-0.623979
0.385384	-0.330872	-0.372697
0.519423	-0.354019	-0.0420796
0.30162	-0.316579	-0.453545
-0.264212	-0.0350719	0.570843
0.0839437	-0.248058	0.572993
-0.228439	-0.527007	0.258803
0.349653	0.0702795	0.51933
0.0013261	0.079033	0.625022
0.439477	-0.00969298	0.451294
0.540002	-0.290818	-0.143954
-0.0178419	0.629488	-0.0180559
0.457281	0.199808	0.38454
-0.463052	-0.246434	0.348932
-0.245254	-0.255609	-0.520975
-0.564334	-0.276251	-0.0459612
-0.440441	0.446004	-0.0631805
-0.243506	-0.46082	-0.353906
-0.164181	0.404183	-0.454512
-0.095537	0.0878034	-0.616493
0.556133	-0.295197	-0.0217912
-0.548976	0.276801	-0.137502
0.00149309	-0.549447	0.308229
-0.123649	0.473176	-0.397134
0.194549	-0.0736173	0.594669
-0.202311	-0.501197	0.323684
-0.048744	-0.574473	0.253978
0.0797751	0.592918	0.197445
0.36606	0.510324	0.049696
-0.571612	0.238931	-0.11433
0.279933	0.530271	0.193263
0.168173	-0.0543949	0.604697
-0.586608	0.190596	-0.128311
0.166844	0.601693	-0.0838342
-0.322481	-0.265242	0.471755
-0.113944	-0.155085	-0.599888
-0.453993	-0.301349	-0.316195
-0.0781947	0.50984	-0.36173
-0.406876	-0.123481	0.46487
-0.452981	0.431212	-0.0759234
0.338548	-0.343324	-0.40548
0.126822	-0.516891	-0.337104
-0.326448	-0.176056	-0.50925
-0.170099	0.400244	0.455819
0.18025	-0.410722	-0.4424
0.188561	0.569124	-0.1935
-0.0863328	-0.390023	-0.487164
-0.000984703	-0.331838	-0.535521
0.406042	-0.426269	-0.224332
0.434466	-0.377985	0.255473
0.218325	0.576945	0.127941
-0.419923	0.25345	0.395384
0.39052	0.452672	-0.1987
0.154817	-0.506785	-0.340735
-0.0148151	-0.323814	-0.540208
0.211447	0.580594	0.122883
0.0318537	-0.282519	-0.5622
-0.483777	-0.383252	-0.126403
0.200423	0.253655	0.540731
-0.544561	0.121616	0.292511
0.589717	-0.161623	-0.151698
0.522552	0.160955	-0.312942
0.356547	0.241311	0.459938
0.39186	-0.278264	0.407326
0.628987	-0.0245648	0.0259329
-0.61368	0.0292883	-0.139422
-0.579869	0.114627	0.217975
-0.514407	0.356232	0.0733753
0.00804836	-0.376605	-0.504979
0.0029237	-0.549341	0.308409
0.255482	0.0907316	0.56868
-0.309663	0.277908	-0.47305
0.542248	0.3052	0.0985906
-0.26537	0.553454	0.142011
-0.285219	0.155265	-0.539855
-0.555643	-0.112498	-0.274783
-0.348094	0.417813	-0.318062
-0.127545	0.60394	-0.126053
0.31999	0.374792	-0.392476
0.42322	0.383371	-0.266104
0.461574	0.218103	-0.369162
0.275805	-0.396537	0.404463
-0.606843	0.125245	0.11382
-0.494178	-0.390638	-0.00950471
-0.237077	-0.571618	-0.1181
-0.0183583	-0.624634	0.079969
0.58979	-0.206419	0.0802404
-0.518913	0.295672	-0.200518
0.340483	0.51685	0.117632
-0.298286	0.00421791	0.554894
0.314824	0.405698	-0.364958
0.196868	0.596081	0.0532002
-0.0103955	-0.491591	-0.393865
0.0391527	0.197551	-0.596943
-0.312583	-0.42454	0.344902
0.0456205	0.458285	0.429876
-0.112301	-0.592357	0.18276
-0.401225	0.0910525	-0.477103
0.465602	-0.414129	-0.0927984
0.425741	0.17443	-0.430371
-0.219395	0.295914	0.511078
-0.587832	-0.178607	0.139476
0.618452	-0.0283571	-0.116672
0.24789	-0.28767	0.502689
0.160462	0.542021	-0.278147
0.511229	-0.177154	0.322741
-0.397251	-0.269867	-0.407753
-0.450952	0.124919	0.421827
0.444864	0.315678	-0.315189
-0.261945	0.55307	-0.149663
-0.283935	0.339093	0.448661
-0.0500953	0.612357	-0.139316
0.225174	0.206164	0.551083
0.515732	0.14949	-0.329505
-0.624889	-0.0680683	0.0421996
0.332125	-0.511838	-0.15689
0.24275	0.463986	0.350271
-0.616283	-0.125187	0.0377238
0.36277	-0.214715	-0.468183
-0.413159	0.472527	0.0540167
0.0597075	0.626937	-0.0168878
0.547002	-0.310613	-0.0347667
-0.558078	0.292301	-0.00302625
-0.344126	0.299273	-0.434642
0.0567175	-0.62256	-0.0781167
-0.000570989	-0.281733	-0.563495
-0.521004	-0.324698	-0.141514
-0.0471662	0.127171	-0.615226
0.00539133	0.501381	-0.381429
0.0633334	0.543005	-0.313105
-0.512098	0.155271	-0.332485
-0.214546	-0.386075	0.44924
-0.333557	0.232528	0.481218
0.302861	0.0762832	0.547135
-0.158206	-0.289021	-0.536971
-0.464956	0.394867	-0.157465
-0.246881	0.416658	-0.402921
-0.563009	-0.10297	0.263283
-0.150532	0.30298	0.531454
-0.113391	-0.60435	0.137126
-0.431696	-0.270988	-0.370276
-0.345941	0.412226	0.327558
0.258923	0.136525	0.557871
0.45208	0.352554	0.261208
-0.526646	-0.323694	0.121519
-0.341722	-0.160063	-0.504485
0.41602	-0.0495333	0.470504
0.260608	0.10042	-0.564712
-0.359567	-0.508086	-0.0972658
-0.261824	-0.315236	0.478513
-0.10192	0.306014	0.541172
0.0298457	0.523872	0.348666
0.352341	-0.0472749	-0.520116
-0.578948	-0.117632	-0.21882
-0.351009	-0.253448	-0.457664
0.168948	0.588967	0.146541
0.566334	0.0921231	-0.260153
-0.19619	-0.519856	-0.296917
0.0316884	0.304904	0.55039
-0.233833	-4.83139e-05	0.584998
-0.350463	0.452599	-0.263115
0.569277	-0.245562	0.111909
-0.505617	-0.107719	0.360067
0.0480202	-0.357218	-0.51671
0.614042	-0.039747	0.135176
0.433082	-0.212444	-0.405226
-0.364042	-0.402657	-0.319752
0.184451	0.320809	-0.509862
-0.2413	-0.223209	0.53745
0.219439	-0.45554	-0.375805
0.221738	-0.534432	-0.249229
-0.49503	0.121338	-0.3703
0.0522935	0.0721617	0.623665
0.563856	0.19774	-0.199662
0.295896	0.0954756	-0.547932
-0.421901	0.399384	-0.243704
-0.027599	0.626919	-0.0557707
-0.000664684	0.362019	0.515598
-0.126512	-0.378486	0.487486
-0.320784	-0.538052	-0.0670682
-0.287359	0.501142	0.251358
0.161244	-0.290815	-0.535096
0.371227	0.508871	0.0118865
0.295157	-0.221779	-0.510486
0.0193954	0.614051	-0.139519
0.0543332	-0.610148	0.1472
0.601266	0.0848188	0.167886
0.548415	-0.282404	0.128021
-0.37939	-0.502002	0.0309474
0.320572	-0.251776	-0.480356
-0.532571	0.219365	-0.255239
0.581726	0.207494	-0.124264
0.210805	0.548749	-0.226574
-0.446885	0.442325	0.0392817
0.34881	0.510424	0.121237
-0.445039	-0.444209	-0.0389663
0.325626	-0.529888	0.100435
-0.595686	0.0758397	-0.190542
-0.26384	0.572091	8.61191e-05
0.367584	0.280434	0.427947
-0.253963	0.185016	0.546051
0.466714	-0.0847271	-0.414607
-0.317138	0.394747	-0.374831
-0.207664	0.147486	0.576215
-0.346689	0.217097	-0.479141
0.189035	-0.599994	-0.0342493
0.385868	0.478736	-0.137175
0.57697	-0.0770981	-0.24096
0.575074	0.244088	-0.0813079
-0.00131786	-0.456389	0.43429
-0.00727554	0.189345	-0.600829
-0.132545	0.585352	-0.19156
-0.323432	-0.258517	-0.474827
0.430452	-0.120269	-0.444011
-0.349901	0.491678	0.180892
0.0735891	-0.570636	-0.25663
-0.0665759	-0.500786	0.376405
-0.183403	0.146663	0.584597
-0.332663	-0.502338	-0.184098
-0.396244	0.10611	0.478154
0.19585	0.17546	-0.5725
-0.49514	-0.0622376	0.384529
0.22945	0.584585	-0.05013
0.0699869	0.175102	-0.601116
0.12014	0.597535	-0.159432
0.139893	0.270848	0.551336
-0.193361	0.580467	0.150233
-0.334489	0.146995	0.513234
0.17662	-0.545325	0.261394
0.585736	0.140538	-0.184559
0.279913	0.552358	0.11597
0.430671	0.448276	0.102329
0.459746	-0.140204	0.40728
-0.377778	0.312911	0.39531
-0.187652	0.324823	0.506139
0.166155	-0.41698	-0.442064
-0.310311	-0.417833	-0.354996
0.61159	-0.0175966	0.15016
-0.310187	-0.530652	0.138174
-0.467612	0.295427	-0.301599
0.389201	0.0743906	0.489784
-0.0172633	0.629746	-0.00467896
0.422282	0.415484	-0.214361
-0.196748	-0.559646	-0.212101
-0.524654	0.0788986	-0.339726
0.189268	0.557501	0.224211
0.404079	0.140644	-0.462428
-0.432897	-0.146507	0.433631
-0.381275	-0.409848	-0.289058
-0.495069	0.344879	0.181289
0.125369	-0.288547	0.545823
0.119177	0.615555	-0.0615541
0.455296	0.392339	-0.18888
0.269667	0.340518	0.456319
-0.601465	-0.159161	0.0990316
-0.567012	0.241442	-0.130779
0.255979	0.122569	-0.562451
-0.17618	0.0649954	0.601362
-0.582076	0.0525641	-0.23521
-0.439038	-0.444787	0.0794378
0.339892	0.515137	0.12652
0.481169	0.302574	-0.271708
0.301168	0.55084	0.052656
0.538102	-0.32661	-0.0259239
0.594502	0.0516638	0.201986
-0.622268	0.0566194	0.0804754
0.415812	0.102318	0.462094
0.0402463	0.383134	0.498486
0.327678	-0.535577	-0.051812
0.471025	-0.273921	0.316232
-0.340893	0.00366238	0.529791
-0.201886	-0.125006	-0.583537
0.396735	-0.0901066	0.481022
0.39426	-0.161235	0.464179
-0.0451206	-0.362242	-0.513464
0.0935726	0.254043	0.568864
-0.246788	0.355733	-0.457657
0.140185	-0.512988	-0.337775
-0.113756	0.619518	-0.0125358
0.608992	0.141864	-0.0768338
-0.354188	-0.175842	0.490439
-0.120831	0.616696	-0.0445598
-0.433647	0.382856	-0.249541
-0.450385	0.0158884	-0.440229
0.103434	0.620488	0.0345925
0.390459	0.480063	0.118243
0.537849	0.227653	0.236205
-0.401671	0.45994	0.154969
0.0800782	0.478618	0.401762
-0.508127	-0.357984	0.102734
0.508453	-0.286742	-0.236969
-0.559479	0.222741	-0.185119
0.0718024	0.343864	-0.522974
0.26441	0.296726	0.488816
-0.210862	-0.50994	-0.303971
-0.261928	-0.257192	0.512002
-0.616336	-0.0531301	-0.119194
-0.497228	-0.295482	-0.249709
-0.550055	0.0651945	0.300149
-0.266368	-0.432901	0.372216
0.116871	-0.609145	-0.110381
0.162199	0.420806	0.439902
-0.369461	-0.267049	-0.434837
0.120419	0.165112	-0.595934
-0.0627738	0.581195	-0.234887
-0.276889	0.460189	0.32933
0.193183	-0.536954	-0.266948
0.275256	-0.563558	0.0594632
-0.275294	-0.0260947	-0.566067
-0.0409619	0.628616	0.00799991
0.489189	-0.00390027	-0.396962
-0.376379	-0.46124	-0.206146
0.352205	0.346173	0.391172
0.46662	-0.397611	0.145159
0.00616422	-0.629373	-0.0274105
0.23483	-0.550067	-0.197942
-0.381576	0.300212	0.401463
0.406619	0.213871	0.431069
-0.561636	0.106327	-0.264877
0.584036	-0.12813	0.198456
0.100743	0.172288	0.597551
-0.441951	-0.00186517	-0.448972
0.192039	0.104415	-0.590862
0.171937	-0.0847546	-0.600129
0.374092	-0.35402	-0.362801
0.341339	-0.325635	0.417551
-0.469327	0.268126	-0.323637
0.0437175	-0.401371	0.483622
-0.112061	0.401184	-0.472645
