-0.219871	-0.537757	0.243668
0.141055	0.609232	-0.076418
-0.516586	-0.230119	-0.27764
0.554759	0.0813225	0.287278
-0.433419	-0.267435	-0.370846
-0.519822	-0.353418	-0.0421938
0.344648	-0.49414	0.184239
-0.409965	-0.471003	0.0835776
0.286683	-0.000180614	-0.560993
0.103601	-0.56686	0.25463
-0.483619	-0.403685	0.00716283
0.15465	0.367711	0.487619
-0.20762	-0.115941	-0.583396
0.285215	0.428122	-0.363681
0.469361	0.406122	-0.108008
0.597425	-0.196348	-0.0378274
0.188576	-0.543195	-0.257446
0.542536	-0.0300619	-0.318828
-0.504025	-0.220411	-0.307047
-0.0308238	-0.54827	0.308788
-0.0444604	-0.37643	0.503213
0.174066	-0.270652	-0.541617
-0.355937	0.211187	-0.474983
-0.51999	0.0637508	0.349924
-0.186779	0.23369	-0.554439
-0.124668	-0.590821	0.179689
0.101167	0.543392	0.302307
0.181765	0.486994	0.355947
0.611882	0.0430881	0.14368
-0.628722	-0.00720378	-0.0394556
0.129592	-0.614686	-0.0476107
0.195363	-0.247536	-0.545398
0.585363	-0.101649	0.209564
-0.0875334	0.622909	0.0349523
0.393786	0.490898	-0.0291752
0.359307	-0.152317	-0.494569
-0.292651	-0.0601231	0.554654
0.381496	-0.44274	-0.235249
0.00625508	0.594528	-0.208321
-0.327508	-0.526205	-0.112903
-0.473278	-0.0941816	0.405016
-0.289699	0.0124227	-0.559304
0.560535	-0.195702	0.210715
-0.268162	-0.326845	-0.467078
-0.0723338	0.453953	-0.430807
-0.327144	0.530809	-0.0901017
0.556586	0.065559	-0.287775
0.261063	0.35953	-0.446636
-0.559047	-0.148113	-0.249857
-0.0526943	-0.615401	0.124115
0.353062	-0.219566	0.473327
0.0753295	-0.625446	-0.00657943
-0.0493345	-0.241453	0.579799
0.454028	-0.2214	0.376485
-0.229793	0.11859	-0.574484
0.467043	0.360937	0.220218
-0.19127	-0.0539792	0.597831
0.462937	-0.0903039	0.417653
0.115845	-0.217775	0.579702
0.328924	-0.238258	-0.481604
0.435947	0.397391	-0.221202
0.26469	0.175444	0.544113
0.601504	0.18482	0.0305698
-0.38772	-0.0821799	-0.489714
-0.0257493	-0.580468	0.243504
-0.170333	-0.432382	-0.425361
0.393265	0.0937394	0.483173
-0.383348	0.488994	0.104064
0.620988	0.087079	0.0607585
-0.182106	-0.00358367	0.603096
-0.544618	-0.301958	-0.095461
-0.238279	-0.273632	-0.515023
0.451795	-0.438542	0.0214984
0.601469	0.179176	-0.0550504
-0.315715	0.173597	0.516806
-0.249662	-0.362501	-0.450735
-0.591365	0.131761	0.172704
-0.324642	-0.15658	0.516711
-0.205682	0.296685	0.516307
-0.499077	0.191085	-0.333629
-0.398684	0.291774	0.390921
-0.152092	-0.0933301	0.6042
0.477696	0.167436	-0.375062
-0.518407	-0.27045	-0.234544
-0.210005	-0.591695	-0.0519112
-0.17809	0.400165	0.452826
0.143026	0.542577	0.286451
0.413305	0.434404	0.193318
0.365195	0.180253	0.480668
0.604528	-0.132882	-0.117423
0.453412	-0.0536353	-0.434097
-0.191507	0.338496	0.495626
0.53056	0.339139	0.0197623
0.514038	-0.355608	-0.0787911
-0.449306	-0.422126	0.129745
0.455692	-0.431696	0.0536974
0.609229	-0.136346	0.084553
-0.545483	0.313614	-0.0315434
0.00791465	-0.613852	0.141502
-0.598113	0.188028	0.0616947
-0.219192	-0.475508	0.350353
0.000102674	-0.282051	0.563336
0.445346	0.40036	0.195648
-0.363731	0.457335	0.235466
-0.561032	0.257499	-0.125849
0.333151	0.333604	-0.417874
0.335632	0.302008	0.439366
0.193317	-0.517951	-0.302084
-0.289328	0.367287	0.422244
-0.118701	0.615189	0.0659774
0.0973205	-0.47069	-0.407283
-0.188668	0.0665517	0.59739
-0.448273	-0.323564	0.302089
0.239602	0.388236	0.43447
0.165886	-0.365804	-0.485354
0.032021	0.341303	-0.528571
0.627149	-0.0255355	-0.0541491
-0.376702	-0.504971	1.12606e-05
-0.487032	0.342398	-0.206067
0.0837977	0.57338	0.247212
0.427296	0.448695	0.113978
0.0849375	0.455361	0.427003
-0.466654	0.309419	-0.28878
-0.326965	0.0959097	0.529901
-0.0314963	0.00118415	0.629211
0.347777	0.100043	0.515696
-0.534813	0.203083	-0.263879
-0.0556292	0.605234	-0.165822
-0.0816846	0.617206	0.0963529
9.87725e-05	0.111022	0.62014
0.221431	-0.304465	0.505143
-0.190843	-0.54216	-0.257956
-0.0511108	-0.455501	-0.432211
0.485277	0.398354	0.0521512
-0.570162	-0.226428	-0.143335
0.145699	-0.288782	-0.540626
0.528708	0.105115	-0.326066
0.517881	-0.312381	0.176401
0.183263	0.482298	-0.361529
0.411874	0.344238	0.329787
-0.564466	-0.269022	0.0768491
0.552721	0.295794	-0.0624929
0.538064	-0.317395	0.0815281
-0.325197	0.166695	0.513186
0.27419	-0.255555	0.506371
-0.0847434	-0.405314	0.474804
0.156603	-0.531136	-0.300449
-0.0303255	0.484364	-0.401712
-0.329958	-0.116589	0.523865
-0.398575	0.234537	-0.42782
-0.408067	0.314213	-0.362838
-0.368213	0.235865	-0.453527
0.221592	-0.578515	0.114534
0.217933	-0.584159	-0.0903533
0.157306	-0.367182	0.487167
0.5642	-0.0190447	0.27967
-0.539561	-0.102558	-0.308636
-0.00925863	0.280645	-0.563962
-0.134925	0.16751	-0.592145
0.522987	0.284771	0.205646
-0.452089	-0.346404	0.269295
-0.443924	-0.391465	0.215839
-0.210423	0.146225	0.575535
-0.476584	-0.246832	0.329911
-0.0671302	0.501761	-0.375006
-0.524248	0.321162	0.137546
-0.0642714	-0.233817	0.581463
-0.574909	0.250853	0.0587538
-0.203572	0.0324606	-0.595319
0.217523	-0.582491	-0.101428
0.230849	-0.401212	0.427362
0.42066	0.195283	-0.426391
0.348294	0.301138	0.430008
0.580543	0.0446951	0.240567
0.43783	0.237284	-0.385876
-0.592595	-0.213632	-0.00962888
0.281992	0.0109105	0.563259
0.124486	-0.0820022	0.61211
-0.612193	-0.0360345	-0.144295
-0.235592	-0.279501	-0.513104
0.374875	0.452712	0.22676
0.131945	-0.615861	0.0143547
0.578705	-0.248965	-0.00409278
-0.439898	0.427063	-0.144938
0.434789	0.408181	0.203094
-0.577319	0.252187	-0.00203673
0.552109	0.157126	0.259591
-0.620005	-0.0832197	-0.0746216
-0.357902	-0.319216	0.408543
0.136654	-0.215167	0.576132
0.399066	0.291941	-0.390406
0.48061	-0.359711	-0.191107
0.153474	0.610075	-0.0339671
0.539119	0.171295	0.277324
-0.601001	-0.141086	0.12567
-0.57905	-0.0205275	0.247345
0.426859	0.125297	0.446085
0.370252	-0.246558	-0.446119
-0.59917	0.148858	-0.125445
-0.514689	0.193274	-0.307637
0.357324	-0.277539	-0.438396
0.234768	-0.573018	-0.115907
-0.61111	0.10303	-0.11327
0.148461	0.101977	0.603705
-0.19737	-0.152368	0.578558
0.291256	-0.212279	0.516728
-0.52883	0.310611	-0.144085
0.458721	-0.211049	-0.376741
-0.550543	0.160993	-0.260546
0.56024	-0.123146	-0.260512
0.397713	-0.419413	0.250633
-0.56532	-0.0309502	0.276324
-0.0755741	-0.105144	-0.616549
-0.255672	-0.374637	-0.43724
-0.439305	0.174678	0.416412
0.0301596	-0.156069	0.609617
-0.509279	0.34322	-0.140482
-0.00370717	0.628403	-0.044674
0.162749	0.600254	-0.100541
0.582399	0.213657	0.109826
0.111327	-0.594649	-0.175781
0.456019	0.201736	0.385031
-0.594455	-0.0823822	0.191666
-0.499586	-0.383784	0.00481537
0.379857	-0.499452	0.0561847
-0.463894	0.279982	-0.321422
0.390404	0.451371	0.201864
-0.386966	-0.10116	-0.486748
0.0407182	0.254714	-0.574772
0.417272	0.201082	-0.427025
-0.205501	-0.472845	0.36206
0.319268	0.526023	-0.135156
0.580327	0.0643453	0.236601
-0.324254	-0.531378	0.0969343
0.0287331	-0.125126	-0.61678
-0.0618034	-0.204345	0.592725
0.1209	-0.559832	-0.262434
-0.303119	0.540837	0.111869
-0.454403	-0.235883	0.367121
-0.502071	0.300205	-0.233885
0.217341	-0.0292798	-0.590598
-0.466274	0.144753	-0.398164
-0.543523	-0.168895	0.270105
-0.0249751	-0.123614	0.617249
-0.393343	-0.375611	0.317959
0.0938569	-0.465941	0.413509
0.344975	-0.51635	0.106185
0.601298	0.0172554	0.187197
-0.628397	-0.0204297	0.0400036
0.0342383	0.282464	0.562087
0.0702147	-0.532198	0.329751
-0.278965	-0.268014	0.497239
-0.274464	-0.300311	-0.481023
-0.55159	0.0528643	0.299756
0.193479	0.592995	0.0884497
0.567498	0.0493172	0.269098
0.450895	-0.0294622	0.439005
0.253905	0.154561	0.555467
-0.494476	0.345187	0.182318
-0.327769	-0.253696	-0.474454
0.0690501	0.344299	0.523058
0.0072473	0.52069	0.354584
0.228857	-0.120597	0.574439
0.351905	0.458438	-0.250794
-0.414122	-0.208119	0.42672
0.0370535	0.174305	-0.604272
-0.0181265	0.583842	-0.236009
-0.517849	0.0461202	-0.355817
0.25832	-0.49271	-0.295648
0.247034	-0.559853	0.149795
0.0905883	-0.279889	0.557096
0.514686	0.157835	-0.327241
-0.0386758	-0.619271	0.109124
0.577864	-0.235236	-0.0873935
-0.255992	-0.190087	-0.543355
-0.575294	-0.0499619	-0.251875
0.351736	-0.177135	0.491737
0.00737554	-0.20971	0.594026
-0.58367	0.0781707	0.223873
-0.149942	0.335414	-0.511776
-0.604788	-0.121943	-0.127518
-0.3194	-0.46617	0.278512
0.355008	0.508414	-0.111284
-0.16529	-0.459233	-0.398352
0.246835	-0.380929	0.436882
-0.604278	0.170518	-0.051692
-0.474046	-0.233894	-0.342745
0.389401	0.445498	0.216331
-0.0993685	-0.517398	0.345435
0.396447	0.356286	-0.335842
-0.0645039	0.153853	-0.60751
-0.374059	0.495571	0.10672
-0.236069	-0.462981	-0.356118
-0.610856	0.0560957	-0.143556
-0.593284	-0.211696	-0.00993119
-0.199994	0.597375	-0.00671685
-0.451142	0.258705	-0.355587
0.0842028	-0.551833	-0.292045
-0.449061	0.274916	0.345927
0.171953	-0.540133	0.274934
0.475636	0.372196	0.179277
-0.198591	0.597278	0.0268504
-0.464671	0.230734	-0.357411
0.52988	0.339159	-0.0331411
-0.491175	-0.194193	0.343419
-0.187717	0.593409	0.0976105
0.0271123	0.584659	0.233107
-0.191047	0.1057	-0.590956
0.167908	0.537744	-0.282026
0.555173	0.054589	-0.29275
-0.245672	-0.568532	-0.115398
0.362958	0.0853806	0.50781
-0.000177238	-0.513649	0.36478
-0.0587444	0.505161	-0.371835
-0.0540484	0.589182	-0.216433
-0.343281	-0.475936	0.229223
0.287003	0.18556	-0.529242
0.576974	0.201297	0.153235
0.00583264	-0.305157	0.551131
0.456412	-0.127929	0.414997
0.0817864	-0.496374	-0.379241
0.136325	0.598146	0.143308
-0.194405	0.313656	-0.510614
0.129908	-0.139353	-0.600504
-0.59509	0.131749	0.159407
-0.321572	-0.533655	0.0932964
0.32934	-0.51689	-0.145807
-0.628538	-0.0393941	0.016956
0.17193	-0.593697	-0.121916
-0.57931	-0.0705226	0.237333
-0.440862	-0.193987	-0.406091
0.269658	-0.451708	-0.346619
0.410399	0.476986	0.030935
-0.433654	0.220291	-0.400395
0.229811	0.581302	0.078582
-0.560745	-0.283534	-0.045529
0.402895	-0.362136	-0.321611
-0.281891	-0.255951	-0.501922
0.285845	-0.394663	0.399291
-0.400102	0.0692565	0.481686
-0.0809294	-0.031492	0.623986
-0.567143	0.161826	-0.221498
0.199957	0.230899	-0.551001
-0.0490149	0.283217	0.560612
0.496976	-0.0442694	0.384649
0.535896	-0.162836	0.288443
0.216994	-0.380633	0.452694
-0.226935	-0.373336	0.453895
0.512824	-0.22207	-0.290854
-0.3458	-0.524273	0.0495972
-0.477648	-0.372261	0.173707
0.221129	0.270669	0.524157
0.548304	-0.159704	0.266002
0.00275102	0.262135	0.572868
0.179008	-0.582896	0.158393
0.339664	-0.336687	0.410086
0.35745	0.114443	0.505997
0.589976	-0.163613	0.148526
0.412015	0.219231	-0.42318
-0.295772	-0.556076	0.0140765
0.442645	-0.156822	0.419967
0.620164	-0.098829	-0.0502976
0.172972	-0.00260507	0.605784
-0.286269	-0.159352	0.538105
0.620396	-0.0976457	-0.049738
0.0135417	0.301902	-0.552786
0.544827	-0.166479	-0.268977
-0.127778	0.378966	0.486783
0.42391	0.444578	-0.139824
0.462551	0.234149	-0.357939
-0.306583	-0.507501	-0.212956
-0.209536	-0.550425	0.223668
0.315302	0.385736	-0.385606
0.519575	0.313773	0.168784
-0.473975	0.235428	-0.341792
-0.421289	-0.418412	0.210586
0.516762	0.131862	-0.335365
-0.0585729	0.467038	0.418742
-0.526299	-0.0576871	-0.34144
0.5289	-0.0313464	0.340855
-0.24197	-0.58036	0.0391582
-0.0500337	0.172312	-0.603908
0.073584	-0.150711	-0.607266
-0.32107	-0.12906	0.526458
-0.389685	-0.115529	-0.481351
0.121232	-0.521489	0.332043
-0.407603	-0.0622173	0.476329
-0.606932	0.0323689	0.165788
0.0864733	-0.54018	0.312455
0.40157	-0.147825	0.462374
-0.122115	0.446864	-0.426966
-0.0819378	-0.598477	0.178917
-0.413691	0.178565	0.440311
0.310729	0.0687798	-0.543707
-0.415143	-0.191452	-0.433477
-0.463063	0.261733	-0.337592
0.468742	0.105745	-0.407429
-0.532506	-0.0735474	0.328525
0.00256537	0.283135	-0.562786
-0.145016	0.494295	-0.362688
0.365006	-0.187072	0.4782
0.316966	-0.354182	-0.413507
-0.174313	-0.20108	-0.571036
-0.283766	0.188028	-0.530115
0.222176	0.451514	-0.379042
0.155269	-0.115692	-0.599506
-0.0737196	-0.590139	-0.207849
0.12554	-0.229276	-0.573212
0.288805	0.0247346	-0.559356
-0.0207805	-0.62332	-0.0891112
-0.0924873	0.564068	-0.264902
0.10826	-0.584888	-0.207573
-0.296371	-0.354121	0.428559
0.199805	0.0594973	0.594507
-0.107818	0.615941	0.0767592
0.520517	0.146374	-0.323321
-0.486502	-0.0682737	-0.394404
-0.00863253	0.499452	-0.383893
0.000879361	-0.354473	0.520815
-0.577842	-0.147674	-0.202957
0.0497501	0.418402	0.468364
-0.35812	-0.5175	-0.0290438
0.381749	0.124055	-0.48557
0.10753	0.566094	-0.254705
0.617785	-0.0294405	-0.119895
0.393564	-0.0754986	-0.486114
0.362271	-0.217087	-0.467475
-0.401187	0.302603	0.379974
-0.201751	-0.592867	-0.0685958
-0.212759	-0.0519206	0.59071
0.353189	0.442186	-0.27682
-0.506494	0.300624	0.223582
0.345061	-0.404944	-0.337422
-0.0476225	-0.120279	-0.616575
0.618796	-0.113523	-0.033231
0.0215103	-0.186364	-0.60142
0.191048	-0.472537	-0.370283
-0.0714156	0.0606406	0.622995
-0.34015	0.258916	-0.462775
0.571311	0.262694	-0.038675
-0.190857	0.526398	0.288753
0.463159	0.0685051	0.421533
-0.208083	-0.592983	0.0444165
0.522686	0.0211465	0.351073
-0.388171	0.0157773	-0.495958
-0.474163	0.0835426	-0.406313
0.328285	0.28121	0.458312
-0.105497	-0.607672	0.128473
-0.489218	0.369044	0.146193
-0.0446074	0.486474	-0.397811
0.540192	0.312558	-0.0860228
-0.0208786	-0.233145	0.584899
0.491622	0.21596	-0.329498
0.437195	0.0093242	0.453512
0.0679607	-0.000255359	-0.626324
0.601394	0.179077	-0.0561848
0.229064	-0.292184	-0.508978
0.416669	-0.138681	0.451724
-0.168328	0.187328	-0.577472
-0.00998874	-0.390099	-0.494594
-0.542218	-0.262928	-0.183762
-0.580115	-0.167904	-0.179374
0.0569587	0.255324	-0.573119
0.0579654	-0.624426	-0.060268
-0.340407	-0.168444	0.502643
0.27157	0.56033	-0.0958132
0.201725	0.547847	0.236792
0.011691	0.042879	0.62843
-0.129148	-0.522196	-0.32792
-0.369802	-0.457103	0.226282
-0.152406	-0.198515	0.578156
-0.155839	0.357482	-0.494794
-0.064799	-0.625491	0.0382299
-0.0265349	-0.309103	0.548317
-0.064152	-0.40095	0.481688
-0.609426	-0.120783	-0.104459
-0.539527	0.247664	0.210885
-0.00322924	-0.575065	-0.257273
-0.218461	-0.108658	-0.580834
0.479945	-0.387678	-0.12751
-0.406579	0.28315	-0.389127
0.624131	0.0425454	-0.0744987
-0.472328	0.406335	0.0932617
0.0990791	-0.11214	0.611971
0.260642	0.573294	-0.0173094
0.256428	-0.409791	-0.404
0.61218	0.144952	0.0335287
-0.629954	-0.000439353	0.00760542
0.454075	0.186568	0.394852
0.6002	-0.123242	-0.146533
0.149991	-0.197374	0.579177
-0.369282	0.471077	-0.196514
0.275883	-0.343767	0.450126
-0.300228	-0.549566	0.0688548
-0.509315	0.259728	-0.264651
0.31414	-0.546048	0.00687341
-0.526554	-0.0942107	0.332815
-0.538774	-0.209507	0.250458
0.381693	-0.490202	-0.104461
0.523366	0.335599	-0.101788
