0.0161107	-0.329363	-0.536806
0.33564	0.198003	0.495016
-0.28149	0.557941	-0.0797834
-0.462316	0.416916	0.0966715
0.0830885	0.399102	-0.480327
0.220885	-0.306965	0.503867
0.33745	0.429973	-0.31329
0.518737	0.183623	-0.306749
-0.362851	0.501074	0.119012
-0.360551	-0.481794	-0.186487
-0.496751	0.0441455	0.384954
0.297918	-0.439778	0.338734
0.241326	-0.22481	-0.536771
-0.503236	0.358056	0.124296
0.351422	0.179218	0.491206
0.196792	-0.0377352	0.597285
-0.283075	-0.467806	0.312931
-0.216715	0.256063	0.53326
-0.56736	-0.230502	0.147889
-0.131686	-0.499725	-0.360325
-0.0586227	0.147908	-0.609579
-0.282138	-0.559068	0.0688517
0.454171	-0.191454	0.392395
-0.111054	-0.514258	0.346564
0.340301	-0.369521	-0.380196
-0.326227	-0.089695	0.531442
0.0636882	-0.597277	-0.19001
-0.584827	-0.136007	-0.190733
0.211119	-0.0780579	-0.588418
0.248568	0.51179	-0.270527
-0.153935	-0.479968	0.377935
0.108191	0.490536	-0.380222
-0.139165	-0.572227	0.223807
-0.236868	0.568222	0.133855
-0.191284	0.425031	-0.423863
-0.505331	-0.369991	0.0681713
-0.230002	0.580308	0.0850986
0.578501	0.146933	-0.201611
0.0661607	-0.459297	0.426109
0.327709	-0.0540683	-0.535335
0.0359165	-0.0327849	0.62812
0.383302	0.0612984	-0.496208
0.108349	-0.314906	0.534785
-0.0613357	-0.589522	-0.213545
-0.221109	-0.499357	0.314092
-0.570746	0.244391	-0.106873
0.409065	-0.0834026	-0.471816
0.247938	-0.418953	-0.399882
-0.230275	-0.434202	-0.394135
0.219654	0.555912	-0.199032
-0.489183	0.394898	-0.0406805
0.0881321	0.522902	0.340157
-0.316088	-0.517528	-0.170743
0.519874	-0.245753	0.257365
0.358547	0.517134	0.0302612
0.399401	0.129358	-0.469729
-0.0468668	-0.150083	0.610064
-0.203132	0.224841	-0.552344
-0.0227648	-0.0950189	-0.622377
-0.377639	0.483889	-0.141915
-0.188561	0.120206	-0.588978
0.411781	-0.271417	0.392007
-0.455251	-0.326168	-0.28855
-0.46557	0.424432	-0.00126161
-0.515659	0.196938	0.303664
0.265053	-0.520313	-0.236478
0.0853694	0.567155	0.260667
-0.47672	0.372889	-0.174907
0.463252	-0.384794	-0.185017
-0.600173	-0.0231564	0.190147
0.142473	-0.610882	0.0585207
-0.524259	0.240333	-0.253559
-0.522035	0.262851	0.235136
-0.538195	0.15517	-0.288389
0.0119009	0.423612	-0.466167
-0.16651	0.251681	0.55302
-0.449179	0.266785	0.352085
-0.105891	-0.61579	0.0805594
0.415474	-0.459559	-0.114399
0.299838	-0.0742295	-0.549078
0.425156	0.235505	0.400848
0.0809258	-0.179972	-0.598298
-0.497711	0.271577	0.274645
-0.139333	-0.534926	0.302226
0.150842	-0.555396	0.256285
0.0108999	0.385169	-0.498423
-0.209935	0.220037	0.551735
-0.583487	0.17457	-0.161148
-0.141368	-0.601517	-0.12285
0.562124	-0.27999	-0.050225
0.246994	-0.282554	0.506021
0.131097	-0.612963	0.0631626
0.397579	0.440116	-0.212434
-0.180336	-0.0807837	0.598208
-0.556051	0.0108113	-0.295956
-0.45431	-0.283937	0.331484
0.137764	-0.523925	0.321595
0.485566	-0.340307	0.212877
-0.279524	-0.222524	0.518892
0.616959	0.0242976	-0.125187
0.163252	-0.599626	-0.103425
-0.567823	-0.191135	-0.194794
0.384502	-0.0706534	-0.494031
-0.599974	-0.144439	-0.12676
0.0760111	-0.283762	0.557316
-0.519181	-0.293057	0.203638
-0.543519	-0.28268	-0.146898
-0.0277707	-0.13972	-0.613683
-0.0755913	-0.207324	-0.590087
0.59314	-0.0529508	0.205625
0.291382	-0.049998	0.556324
0.290105	-0.264254	0.492858
0.101519	0.16327	0.599947
0.312602	0.475706	-0.26997
-0.0671117	-0.610138	-0.141873
0.228088	0.574742	-0.120612
-0.57378	0.100903	0.239782
-0.411511	0.300341	-0.370614
-0.498122	0.143058	-0.358201
-0.0828275	-0.398886	0.480552
-0.610114	-0.0920315	0.127243
0.0956475	0.167705	-0.599689
0.378618	-0.300938	-0.403713
0.407079	-0.410255	0.250754
0.446051	0.358824	0.263028
0.0931354	0.500281	0.371409
-0.232876	-0.0255187	0.584823
0.493006	-0.142607	-0.365388
0.618062	-0.0807314	-0.0915507
0.3199	0.164013	-0.517362
-0.513768	-0.351514	0.0968551
0.049685	0.481764	-0.402908
-0.492178	-0.326435	0.219321
0.0920422	-0.243329	0.573776
0.615129	-0.127055	-0.0487187
-0.556849	0.258567	0.141289
-0.149313	-0.611874	0.0146762
0.551351	0.130582	-0.275428
-0.461986	0.026113	-0.427536
-0.415382	-0.165079	0.443967
-0.586786	-0.134909	-0.185423
0.0734349	-0.478465	-0.40321
0.0957373	-0.128692	-0.609239
-0.281874	0.329303	-0.457172
0.614481	-0.137847	-0.0176404
-0.102689	0.307744	-0.540045
0.286199	-0.101981	-0.551897
0.625438	0.0469993	0.0593137
0.0970091	0.135318	0.607601
-0.62993	-0.008405	0.00425292
0.381761	-0.487029	0.118158
-0.484076	0.0567791	0.399182
0.0518931	-0.373345	0.504797
-0.496888	-0.236926	0.30638
-0.428215	0.106149	0.449738
-0.0806973	0.527603	0.334699
-0.394246	0.477798	0.1148
-0.519062	0.195121	-0.299001
0.250618	0.317521	-0.482981
0.116728	0.151172	0.600351
0.295209	0.556056	0.0235235
0.611113	0.102867	0.113398
0.0289366	0.314582	-0.545069
0.0910099	-0.239858	-0.5754
0.0719467	0.472283	0.410697
0.0831598	-0.0525824	-0.62227
-0.233256	-0.447569	0.377059
-0.223957	0.0719056	0.584442
-0.301585	0.500847	0.234731
0.376556	0.0443686	-0.503127
0.231297	0.418228	-0.410472
0.513419	0.00300742	-0.365092
-0.486252	0.142684	0.3743
-0.357778	0.45793	-0.2433
0.263299	-0.376724	-0.430875
-0.217116	-0.59025	0.0369577
0.615443	-0.132056	-0.0262897
0.286086	0.471714	-0.304204
-0.354249	-0.473104	-0.218129
-0.565392	0.145809	0.236584
0.209813	-0.0023822	0.594031
0.192091	-0.39114	-0.454984
0.429656	-0.44785	-0.108285
0.085288	-0.0763717	-0.619511
-0.494423	-0.31365	0.232528
-0.469521	0.409602	-0.0931479
-0.114912	-0.366782	-0.499166
-0.398902	-0.45085	-0.185772
-0.577916	-0.240023	0.0728191
0.0376503	0.563712	-0.278767
-0.0981208	-0.501275	-0.368776
-0.507517	-0.310464	0.207216
-0.0240581	0.504098	0.377102
0.428957	0.432942	0.159553
0.597765	-0.196221	-0.0327781
-0.430695	0.122214	-0.443245
-0.0709322	-0.3444	-0.52274
0.0250643	-0.182779	-0.602382
0.302873	-0.461984	0.302884
0.0754057	0.35853	0.512513
0.605612	0.170563	-0.0322934
0.0804085	-0.0160745	-0.624641
0.094043	0.240679	-0.574569
-0.00661312	-0.599579	0.193289
0.190225	-0.572586	-0.181273
-0.493413	-0.0744251	0.384583
0.187248	0.164009	0.578739
0.525486	-0.0263422	0.346511
0.108145	0.268237	0.559691
-0.496033	-0.371901	-0.111988
0.625912	0.0599283	-0.0392747
0.535411	-0.281304	-0.176361
0.0983235	-0.505405	0.36304
-0.00641896	0.0905529	-0.623425
0.0181513	0.104477	-0.621011
-0.445695	0.297921	-0.330906
-0.221721	-0.563357	-0.174267
-0.419682	0.109719	-0.456869
-0.273282	-0.567494	0.0129441
-0.38438	-0.149671	0.476183
0.0263024	0.116521	0.618572
0.591286	-0.120038	0.181305
0.499688	0.0929554	-0.372252
0.406096	-0.111871	-0.468477
0.278764	-0.130202	0.549762
-0.436617	0.454125	-0.00594274
-0.551089	-0.15389	0.263665
-0.174563	-0.522686	0.305331
-0.100929	-0.568282	-0.252524
0.0400128	-0.614804	0.131588
0.239334	0.57984	0.0583457
-0.137064	0.438205	-0.431382
0.414213	-0.212503	-0.424464
0.0366255	0.0983847	-0.621192
0.423695	0.307107	0.350811
0.12768	0.616762	0.0142299
0.208255	-0.216386	0.553811
-0.192703	-0.567899	-0.193018
-0.5718	-0.105349	-0.242583
-0.182591	-0.13923	0.586665
-0.612365	0.0883411	-0.118762
0.29293	-0.27666	0.484305
0.206178	0.150111	0.576071
-0.303714	-0.476054	0.279339
-0.512912	0.0161553	0.365458
0.00795792	-0.0993344	0.622069
0.350956	0.523045	-0.0123946
0.0296283	0.336419	-0.531832
-0.10383	-0.258589	0.565023
-0.144546	-0.266373	0.552315
-0.00348256	-0.615419	0.134714
-0.117752	-0.618872	0.0056688
-0.470242	-0.148033	-0.392248
-0.518284	0.343681	-0.100823
-0.534379	-0.331484	-0.0381771
-0.440647	-0.376716	0.246608
0.111787	0.380303	0.489667
-0.0374845	0.519531	-0.354376
0.497286	0.386523	-0.0143617
0.57852	0.0199482	0.248629
0.554062	-0.298723	-0.0260746
-0.222274	0.425799	-0.407664
-0.297139	-0.369312	-0.41499
0.00237355	-0.399795	0.486887
0.00592413	0.528743	0.342485
-0.469869	-0.375281	-0.187851
0.488554	-0.347447	-0.193637
-0.517127	-0.359442	0.0167582
-0.490493	0.0233179	0.394681
0.583992	0.0117155	0.236043
-0.12239	0.0556015	-0.615491
0.0941307	-0.0756689	-0.618315
-0.524363	-0.187754	0.294434
0.510447	0.320402	-0.183539
-0.268087	-0.180302	0.540852
0.102235	0.621428	0.0165948
-0.0173477	-0.475268	0.413182
0.5259	-0.0541123	-0.342639
0.51996	-0.317017	-0.161376
0.375887	0.274201	0.424762
0.521231	0.143702	-0.323369
0.179322	0.0268168	0.603344
-0.44899	0.190403	-0.398817
-0.238727	0.0949272	0.575238
0.249316	0.423234	-0.39448
0.144351	0.540049	0.290534
0.215544	-0.34011	0.484526
0.212233	-0.582119	-0.113995
0.617088	0.0760844	0.101554
-0.340368	-0.481393	0.22206
-0.209631	-0.408882	0.431011
0.0186174	-0.604214	0.177424
0.471868	-0.347246	0.231647
-0.00687387	-0.620288	0.10998
0.357722	-0.193988	0.480941
-0.436961	0.436313	0.124885
0.336067	0.52601	0.0852796
-0.154837	-0.157583	0.589994
-0.289849	-0.271914	0.488825
0.492945	0.109688	0.376661
0.057677	-0.625004	0.054256
-0.384229	-0.40015	-0.298576
0.54625	-0.26357	-0.170417
0.439263	0.227986	-0.389834
-0.407713	-0.47078	0.0950587
-0.340601	-0.481651	-0.221142
0.590823	0.115637	0.185623
0.14132	-0.562184	0.246734
0.198726	-0.589647	0.0986144
0.129165	-0.0403955	0.615292
0.491421	0.356726	-0.167786
-0.134972	0.61443	-0.0340319
0.0489885	0.147004	-0.610647
-0.248873	0.57676	-0.0480636
-0.116351	-0.405998	-0.46747
0.535015	0.0678637	-0.325658
0.604747	-0.105626	0.141506
-0.286775	-0.560935	0.00349969
-0.14333	-0.130673	-0.599401
0.110367	0.315045	0.53429
-0.62976	-0.00823578	0.01531
-0.259668	0.472092	0.326499
0.486593	-0.304334	0.259824
-0.211931	-0.145661	0.575124
0.134623	-0.459204	0.409766
-0.294054	0.294407	0.473029
0.114392	0.0438678	0.617973
-0.190651	0.472125	0.371013
0.446827	0.391334	0.210007
-0.422233	-0.456841	0.0995775
-0.40791	0.196912	0.437876
0.466274	-0.204006	0.371309
0.176107	0.254581	-0.548703
-0.577337	0.138272	-0.210863
0.338215	-0.247135	0.470569
-0.109567	-0.619866	-0.0257098
-0.460231	-0.0210225	0.429704
-0.204216	-0.593478	0.0545835
0.259362	0.465857	-0.335572
-0.447394	0.0914423	-0.434025
0.308606	0.333016	0.436764
0.175757	0.379844	-0.47088
-0.111904	0.611658	-0.101255
-0.176783	-0.583663	0.158065
-0.267916	-0.12791	-0.555662
-0.208791	-0.244701	0.54169
0.61265	0.128606	0.0708554
-0.326641	-0.212284	-0.495117
-0.416594	0.222141	-0.417137
-0.616113	0.123254	-0.0459696
0.535701	-0.137862	-0.301527
-0.078779	0.591956	0.200705
-0.193435	-0.402463	-0.444417
-0.512195	-0.365199	-0.0344385
0.392536	-0.233491	-0.433932
-0.319257	0.398449	0.369071
0.459389	-0.428498	0.0474463
0.576462	0.146789	-0.207471
0.488139	0.39813	-0.0106251
-0.476826	-0.409728	0.0407405
0.0280146	-0.160958	-0.608447
0.233862	-0.575307	0.105973
-0.0254146	0.627743	0.0468339
-0.458019	0.156846	-0.403135
-0.375124	-0.0565054	-0.50298
-0.529916	-0.247538	0.234125
-0.62714	-0.00947108	0.0592137
-0.47008	-0.234513	0.347747
0.606193	0.14976	-0.0836773
0.140724	-0.470014	-0.395201
0.420707	-0.43213	0.182123
-0.434584	-0.385418	-0.243905
-0.106443	0.0481813	0.619071
0.0611477	0.605553	-0.162684
0.221128	-0.176094	-0.563022
-0.360621	-0.491466	0.159101
-0.428201	0.0461361	-0.459799
0.37451	-0.417836	-0.286454
0.000866311	-0.496428	0.38789
0.415107	0.309975	-0.358471
0.573004	-0.103246	-0.240639
0.432285	0.374893	-0.263601
0.310301	0.245131	0.490433
-0.617382	-0.105005	0.0686502
-0.122237	-0.39403	-0.476129
0.0845289	-0.0911682	0.617611
0.419614	-0.381531	0.274331
0.25936	0.279777	0.501355
-0.0238884	-0.0418246	-0.628156
-0.02528	-0.411016	0.476788
-0.193051	0.590302	0.105713
-0.51283	-0.34429	0.123977
0.0806027	-0.315837	0.53912
0.314668	-0.544702	-0.0344074
-0.305083	-0.540466	0.108262
-0.124547	-0.356388	-0.504356
-0.513517	0.100672	-0.350808
-0.243447	-0.566305	0.130122
-0.285281	-0.275963	0.489244
0.10854	-0.208646	-0.584454
0.535725	0.279948	-0.17756
-0.0952348	-0.300854	0.545268
0.548197	0.184045	0.250016
-0.159763	-0.0513174	-0.607242
-0.5592	-0.280289	-0.075057
-0.539517	0.32367	-0.0325516
-0.283909	0.0418364	0.560843
-0.565441	-0.261895	0.0926696
-0.163398	0.547451	-0.265516
-0.445667	0.0667292	-0.44026
-0.0821001	0.240525	-0.576461
-0.332818	-0.53337	-0.0405988
-0.0526346	0.132497	-0.613656
0.343011	0.494829	-0.185439
0.205189	0.0526819	0.593314
0.504418	0.241716	0.289888
-0.517781	0.327746	-0.146239
-0.109413	0.544081	0.298169
-0.198665	0.563761	0.199011
0.509058	-0.146861	-0.340869
-0.193707	-0.27754	0.531365
0.558029	-0.213128	0.200201
0.299474	-0.109064	-0.543434
0.261394	0.0830078	-0.567171
0.562077	-0.159614	-0.23557
-0.47071	0.162212	0.38603
-0.486754	-0.278351	0.287212
-0.613086	0.132094	0.0598027
-0.540056	0.28871	-0.14794
0.1116	0.497259	-0.370377
-0.414746	-0.100087	-0.463539
-0.450644	0.260713	0.354751
0.552506	-0.220306	-0.207611
-0.614919	-0.0500938	0.127535
-0.498788	-0.288517	0.254694
-0.279772	-0.564468	-0.00190888
-0.394671	-0.354422	-0.339881
0.365999	-0.346139	-0.378329
-0.459663	-0.15148	0.403317
0.323421	0.336956	0.422799
-0.145284	0.602951	0.110645
0.113209	-0.126526	-0.606692
-0.30804	0.547475	-0.0477768
-0.353592	-0.504117	0.133186
-0.0369923	-0.628904	-0.00337589
-0.58663	-0.113073	-0.19995
0.583502	0.0982883	-0.216251
-0.0524609	-0.451361	-0.436373
0.0649074	0.150485	-0.60831
-0.454962	-0.357079	-0.249809
-0.401458	0.419347	0.244703
0.171328	-0.460098	-0.394787
0.22975	-0.381848	0.445317
0.173005	0.596343	0.106511
-0.58802	-0.163532	0.156173
0.554868	-0.2856	-0.0863352
-0.179874	0.194385	-0.571629
0.327106	0.164674	-0.512625
-0.364838	0.24348	0.452229
-0.506491	0.0883762	0.364083
-0.377906	0.451463	0.224205
-0.243285	-0.0217393	-0.580724
-0.251583	-0.201442	0.54132
0.357937	0.507841	0.104301
-0.326738	-0.400423	-0.360282
0.0688512	0.250622	-0.573888
0.261935	-0.451598	-0.352632
0.169573	0.567921	-0.213565
0.155805	-0.538747	-0.287013
-0.449338	0.189076	-0.399056
0.582683	-0.17002	0.168741
-0.280947	0.426369	0.369023
-0.437599	-0.150589	-0.427469
0.178194	0.198382	0.570781
0.101242	0.383031	-0.489834
-0.503631	-0.364994	-0.100176
0.523363	-0.338874	0.0903047
-0.609644	-0.0372802	0.154416
-0.417357	0.416368	-0.22215
-0.161042	0.0666977	-0.605406
-0.0260258	0.250217	-0.577593
-0.341705	-0.287682	-0.444271
-0.377634	0.229626	0.448959
-0.593368	0.0739315	-0.198364
0.239823	0.141602	-0.565096
0.563819	0.276487	0.0506324
-0.231263	0.195003	-0.552622
0.621866	-0.0604744	-0.0807781
0.252718	0.572745	0.0706841
0.586243	-0.0801778	0.216311
0.253455	-0.0707129	0.572416
0.123273	0.145735	-0.600387
-0.621465	0.0837393	-0.0605755
-0.301074	0.17814	-0.523947
0.171789	-0.244154	-0.554777
0.517493	-0.00912898	-0.35919
0.510537	-0.363338	0.0650899
-0.589308	-0.140956	-0.172476
-0.32855	-0.488594	0.224123
-0.164712	0.198201	-0.574879
