# Persistence diagram </home/jens/Uni/data_topology/Project/Graph_Data/Synthetic_Barabasi-Albert/bag_69.gml>
#
# Dimension   : 0
# Entries     : 69
# Betti number: 1
35	inf
35	40
35	40
35	39
35	39
35	39
35	39
35	38
35	40
35	40
35	38
35	38
35	37
35	38
35	38
35	38
35	37
35	38
35	38
35	38
35	38
35	38
35	40
35	40
35	38
35	37
35	37
35	37
35	40
35	38
35	40
35	37
35	38
35	38
35	37
35	37
35	38
35	37
35	37
35	37
35	39
35	37
35	37
35	39
35	37
35	37
35	37
35	37
35	37
35	39
35	38
35	38
35	37
35	37
35	40
35	42
35	37
35	37
35	37
36	39
36	37
36	37
36	37
36	37
36	38
36	37
36	37
38	39
38	40
