# Persistence diagram </home/jens/Uni/data_topology/Project/Graph_Data/Synthetic_Barabasi-Albert/bag_30.gml>
#
# Dimension   : 0
# Entries     : 64
# Betti number: 1
35	inf
35	41
35	43
35	39
35	39
35	38
35	38
35	38
35	38
35	41
35	38
35	37
35	38
35	38
35	38
35	39
35	37
35	38
35	37
35	37
35	37
35	38
35	38
35	39
35	39
35	37
35	37
35	37
35	38
35	37
35	37
35	37
35	37
35	37
35	37
35	40
35	37
35	37
35	37
35	39
35	39
35	37
35	37
35	37
35	37
35	37
36	39
36	40
36	39
36	38
36	39
36	39
36	38
36	37
36	38
36	37
36	37
36	38
36	37
36	37
36	37
37	40
38	39
40	41
