# Persistence diagram </home/jens/Uni/data_topology/Project/Graph_Data/Synthetic_Barabasi-Albert/bag_13.gml>
#
# Dimension   : 0
# Entries     : 71
# Betti number: 1
35	inf
35	39
35	38
35	39
35	40
35	38
35	38
35	38
35	39
35	38
35	38
35	41
35	39
35	38
35	37
35	38
35	38
35	38
35	37
35	38
35	37
35	38
35	38
35	37
35	38
35	39
35	37
35	37
35	37
35	38
35	37
35	39
35	37
35	37
35	38
35	37
35	37
35	38
35	37
35	37
35	37
35	37
35	38
35	40
35	38
35	37
35	38
35	37
35	38
35	37
35	37
35	37
35	37
36	38
36	38
36	38
36	37
36	38
36	38
36	37
36	38
36	37
36	37
36	37
36	38
37	39
37	39
37	38
38	39
38	39
41	42
