# Persistence diagram </home/jens/Uni/data_topology/Project/Graph_Data/Synthetic_Erdos_Reny_reduced/err_64.gml>
#
# Dimension   : 0
# Entries     : 31
# Betti number: 1
31	inf
31	41
31	42
32	40
33	39
34	39
34	40
34	39
34	38
34	38
35	39
35	39
35	41
35	40
36	41
36	39
36	39
36	40
37	39
37	41
37	39
38	39
38	39
38	40
38	39
39	41
39	41
39	40
39	40
40	42
40	41
