# Persistence diagram </home/jens/Uni/data_topology/Project/Graph_Data/Synthetic_Erdos_Reny_reduced/err_54.gml>
#
# Dimension   : 0
# Entries     : 38
# Betti number: 1
28	inf
30	40
32	40
32	39
34	41
34	38
34	36
34	41
34	40
35	38
35	40
35	39
35	39
35	38
35	41
36	42
36	41
36	40
36	40
37	38
37	40
37	39
37	39
38	39
38	40
38	39
38	39
38	44
39	41
39	40
39	40
39	41
39	41
40	41
40	42
40	41
41	42
42	44
