# Persistence diagram </home/jens/Uni/data_topology/Project/Graph_Data/Synthetic_Erdos_Reny_reduced/err_25.gml>
#
# Dimension   : 0
# Entries     : 37
# Betti number: 1
31	inf
31	41
33	41
33	40
34	39
34	40
34	39
34	38
35	41
35	37
35	39
35	36
35	36
35	39
36	40
36	38
36	39
37	38
37	39
37	40
37	40
38	41
38	40
38	41
38	41
38	39
38	40
38	42
38	39
38	41
38	39
38	39
38	39
39	43
40	41
40	43
41	43
