# Persistence diagram </home/jens/Uni/data_topology/Project/Graph_Data/Synthetic_Erdos_Reny_reduced/err_93.gml>
#
# Dimension   : 0
# Entries     : 35
# Betti number: 1
28	inf
30	41
31	40
32	40
33	39
34	41
34	37
34	41
34	40
34	36
35	40
35	40
35	38
35	40
36	40
36	39
36	40
36	37
36	40
37	39
37	39
37	40
38	42
38	41
38	39
38	40
38	39
38	40
39	40
39	40
39	42
39	40
40	41
41	42
41	42
