# Persistence diagram </home/jens/Uni/data_topology/Project/Graph_Data/Synthetic_Erdos_Reny_reduced/err_19.gml>
#
# Dimension   : 0
# Entries     : 31
# Betti number: 1
31	inf
31	38
31	40
32	39
32	39
33	40
33	37
33	39
33	35
33	34
33	39
34	40
34	39
34	38
35	41
35	38
35	39
36	39
36	39
36	39
37	38
37	40
38	39
38	39
39	41
39	42
39	41
40	41
40	41
40	42
40	41
