# Persistence diagram </home/jens/Uni/data_topology/Project/Graph_Data/Synthetic_Erdos_Reny_reduced/err_31.gml>
#
# Dimension   : 0
# Entries     : 32
# Betti number: 1
32	inf
32	40
32	42
32	38
32	38
32	38
33	38
33	35
34	35
34	37
34	38
34	40
34	40
34	40
35	37
35	38
35	40
35	40
36	40
36	40
37	42
37	38
38	42
38	39
39	41
39	40
39	41
39	42
40	41
40	43
41	42
42	44
