# Persistence diagram </home/jens/Uni/data_topology/Project/Graph_Data/Synthetic_Erdos_Reny_reduced/err_63.gml>
#
# Dimension   : 0
# Entries     : 34
# Betti number: 1
30	inf
30	43
30	42
32	39
33	40
33	42
34	39
34	39
34	39
34	39
34	39
35	38
35	40
36	39
36	40
36	39
36	39
36	43
36	39
36	38
36	39
37	38
37	38
38	40
38	39
38	39
38	39
38	39
38	39
38	41
38	41
40	42
41	42
42	43
