# Persistence diagram </home/jens/Uni/data_topology/Project/Graph_Data/Synthetic_Erdos_Reny_reduced/err_85.gml>
#
# Dimension   : 0
# Entries     : 24
# Betti number: 1
30	inf
33	40
33	40
34	40
35	38
35	40
35	40
36	39
36	40
37	40
37	42
37	38
37	38
37	38
37	41
38	43
38	40
39	41
39	40
39	40
41	43
41	42
41	42
42	43
