# Persistence diagram </home/jens/Uni/data_topology/Project/Graph_Data/Synthetic_Erdos_Reny_reduced/err_8.gml>
#
# Dimension   : 0
# Entries     : 36
# Betti number: 1
28	inf
30	43
31	39
32	39
33	42
33	42
34	39
34	39
34	39
34	40
35	39
35	41
35	39
35	40
35	40
36	41
36	44
36	37
36	37
36	40
36	42
37	40
37	42
37	39
38	43
38	39
38	40
38	40
38	39
38	39
38	40
38	41
39	42
39	40
39	42
41	42
