# Persistence diagram </home/jens/Uni/data_topology/Project/Graph_Data/Synthetic_Erdos-Reny/pdg_68.gml>
#
# Dimension   : 0
# Entries     : 23
# Betti number: 1
47	inf
49	55
49	57
49	55
50	55
51	55
51	60
51	54
51	58
52	56
53	57
53	55
53	57
53	55
53	55
54	56
54	58
55	58
56	58
56	58
56	57
57	58
58	59
