# Persistence diagram </home/jens/Uni/data_topology/Project/Graph_Data/Synthetic_Erdos-Reny/pdg_76.gml>
#
# Dimension   : 0
# Entries     : 20
# Betti number: 1
48	inf
50	58
51	57
51	55
51	56
51	58
52	53
52	55
52	56
54	56
54	57
54	57
54	56
55	56
55	57
55	57
55	56
56	59
57	58
58	59
