# Persistence diagram </home/jens/Uni/data_topology/Project/Graph_Data/Synthetic_Erdos-Reny/pdg_63.gml>
#
# Dimension   : 0
# Entries     : 25
# Betti number: 1
45	inf
47	57
48	58
49	56
49	54
50	54
50	57
50	55
50	52
51	55
52	58
52	55
52	58
53	54
53	55
53	57
53	56
54	56
54	55
54	56
54	58
55	59
55	56
57	59
57	60
