# Persistence diagram </home/jens/Uni/data_topology/Project/Graph_Data/Synthetic_Erdos-Reny/pdg_59.gml>
#
# Dimension   : 0
# Entries     : 24
# Betti number: 1
45	inf
46	56
47	54
49	57
49	56
49	54
50	57
50	56
51	57
51	55
52	54
52	53
53	55
53	56
53	58
53	55
53	56
54	55
54	57
54	57
55	57
55	56
55	56
58	60
