# Persistence diagram </home/jens/Uni/data_topology/Project/Graph_Data/Synthetic_Erdos-Reny/pdg_38.gml>
#
# Dimension   : 0
# Entries     : 19
# Betti number: 1
47	inf
48	57
50	56
50	55
51	54
52	53
52	57
52	61
53	54
53	54
53	58
53	56
54	57
54	56
55	58
55	58
55	59
56	57
58	59
