# Persistence diagram </home/jens/Uni/data_topology/Project/Graph_Data/Synthetic_Erdos-Reny/pdg_90.gml>
#
# Dimension   : 0
# Entries     : 25
# Betti number: 1
39	inf
44	56
48	57
49	56
49	57
49	56
50	56
50	58
50	57
51	57
51	56
52	56
54	55
54	57
54	56
55	57
55	58
55	56
56	59
56	59
56	59
56	59
56	59
57	58
58	59
