# Persistence diagram </home/jens/Uni/data_topology/Project/Graph_Data/Synthetic_Erdos-Reny/pdg_96.gml>
#
# Dimension   : 0
# Entries     : 17
# Betti number: 1
48	inf
49	54
49	53
50	56
50	55
50	56
50	52
50	56
52	53
53	57
54	55
55	58
55	57
56	58
56	57
56	58
57	58
