# Persistence diagram </home/jens/Uni/data_topology/Project/Graph_Data/Synthetic_Erdos-Reny/pdg_4.gml>
#
# Dimension   : 0
# Entries     : 21
# Betti number: 1
40	inf
47	57
48	56
49	56
50	53
50	56
51	60
51	55
52	54
53	57
53	56
53	57
53	54
53	59
54	57
54	59
55	59
55	57
56	58
57	58
58	59
