# Persistence diagram </home/jens/Uni/data_topology/Project/Graph_Data/Synthetic_Erdos-Reny/pdg_27.gml>
#
# Dimension   : 0
# Entries     : 20
# Betti number: 1
46	inf
48	55
48	55
49	57
51	55
52	53
52	54
53	57
54	55
54	58
54	57
54	56
55	56
55	58
55	58
56	57
56	58
56	58
57	59
58	59
