# Persistence diagram </home/jens/Uni/data_topology/Project/Graph_Data/Synthetic_Erdos-Reny/pdg_77.gml>
#
# Dimension   : 0
# Entries     : 19
# Betti number: 1
50	inf
50	57
51	59
51	57
52	55
53	57
53	57
53	57
53	55
53	55
54	59
54	56
54	56
55	56
55	56
55	56
56	58
56	57
56	57
