# Persistence diagram </home/jens/Uni/data_topology/Project/Graph_Data/Synthetic_Erdos-Reny/pdg_6.gml>
#
# Dimension   : 0
# Entries     : 24
# Betti number: 1
49	inf
50	57
50	56
50	56
51	56
52	59
52	57
52	54
52	56
53	55
53	55
54	58
54	58
55	58
55	58
56	58
56	57
57	58
57	59
57	58
57	58
57	58
58	59
58	59
