# Persistence diagram </home/jens/Uni/data_topology/Project/Graph_Data/Synthetic_Erdos-Reny/pdg_75.gml>
#
# Dimension   : 0
# Entries     : 23
# Betti number: 1
37	inf
44	56
45	57
46	54
49	56
49	55
50	55
52	57
52	53
52	58
52	56
53	56
53	57
53	55
53	54
54	57
54	57
55	57
55	59
56	58
56	57
56	58
56	60
