# Persistence diagram </home/jens/Uni/data_topology/Project/Graph_Data/Synthetic_Erdos-Reny_reduced/err_74.gml>
#
# Dimension   : 0
# Entries     : 5
# Betti number: 1
446	inf
454	460
454	464
455	462
460	463
