# Persistence diagram </home/jens/Uni/data_topology/Project/Graph_Data/Synthetic_Erdos-Reny/pdg_84.gml>
#
# Dimension   : 0
# Entries     : 21
# Betti number: 1
47	inf
47	55
48	55
48	58
50	55
51	55
51	56
52	57
52	54
52	59
52	57
52	54
53	56
53	58
55	58
55	58
55	57
55	56
56	57
57	58
58	60
