# Persistence diagram </home/jens/Uni/data_topology/Project/Graph_Data/Synthetic_Erdos-Reny/pdg_86.gml>
#
# Dimension   : 0
# Entries     : 22
# Betti number: 1
42	inf
46	57
47	56
49	56
49	53
49	55
50	55
50	55
50	51
51	52
51	55
52	57
52	55
53	58
53	54
54	55
54	58
54	55
55	57
55	56
56	59
57	60
