# Persistence diagram </home/jens/Uni/data_topology/Project/Graph_Data/Synthetic_Erdos-Reny/pdg_94.gml>
#
# Dimension   : 0
# Entries     : 25
# Betti number: 1
48	inf
49	58
49	59
50	57
50	57
51	59
51	58
52	57
52	57
52	57
52	53
52	54
52	57
52	56
53	60
54	57
54	57
54	58
55	56
55	57
56	58
56	57
56	58
56	59
57	59
