# Persistence diagram </home/jens/Uni/data_topology/Project/Graph_Data/Synthetic_Erdos-Reny/pdg_71.gml>
#
# Dimension   : 0
# Entries     : 22
# Betti number: 1
38	inf
45	57
48	59
49	57
49	58
49	52
51	59
51	56
51	55
51	55
51	55
51	56
53	56
53	54
53	54
53	57
53	56
54	57
54	56
56	58
58	61
58	59
