# Persistence diagram </home/jens/Uni/data_topology/Project/Graph_Data/Synthetic_Erdos-Reny/pdg_74.gml>
#
# Dimension   : 0
# Entries     : 18
# Betti number: 1
44	inf
46	56
49	56
50	60
50	57
50	55
51	56
52	58
53	55
53	57
53	55
53	56
54	55
54	56
55	57
56	58
57	61
59	60
