# Persistence diagram </home/jens/Uni/data_topology/Project/Graph_Data/Synthetic_Erdos-Reny/pdg_10.gml>
#
# Dimension   : 0
# Entries     : 27
# Betti number: 1
50	inf
51	61
52	58
52	57
52	58
53	57
53	57
53	55
53	58
53	57
53	58
54	60
54	58
54	59
54	57
54	56
54	57
55	56
55	57
55	59
55	57
56	57
56	57
56	58
57	58
57	60
58	60
