# Persistence diagram </home/jens/Uni/data_topology/Project/Graph_Data/Synthetic_Erdos-Reny/pdg_48.gml>
#
# Dimension   : 0
# Entries     : 20
# Betti number: 1
48	inf
48	58
49	57
49	55
49	59
50	55
51	57
51	56
51	57
51	55
51	56
52	59
53	55
54	56
54	60
55	59
55	56
55	56
57	60
58	59
