# Persistence diagram </home/jens/Uni/data_topology/Project/Graph_Data/Synthetic_Erdos-Reny/pdg_0.gml>
#
# Dimension   : 0
# Entries     : 21
# Betti number: 1
44	inf
47	61
49	57
51	56
51	58
51	61
51	57
52	56
53	55
53	57
53	56
53	54
53	56
53	60
53	57
54	57
54	60
56	57
56	57
56	57
57	61
