# Persistence diagram </home/jens/Uni/data_topology/Project/Graph_Data/Synthetic_Erdos-Reny/pdg_54.gml>
#
# Dimension   : 0
# Entries     : 20
# Betti number: 1
44	inf
45	60
47	57
47	55
50	54
50	57
50	56
51	56
52	58
53	55
53	54
54	57
54	57
54	56
54	55
55	56
55	57
56	57
56	57
56	57
