-0.202679	-0.230775	0.550058
-0.0355334	-0.446403	-0.443127
-0.118779	0.55305	0.277358
-0.449811	-0.321649	-0.301849
0.0191019	0.413691	-0.474758
-0.0331599	0.551434	0.302854
-0.4123	0.134174	-0.457062
-0.0764989	-0.265666	-0.5661
0.153194	-0.436626	0.427538
0.622075	0.0374134	0.0923227
-0.379117	-0.104941	-0.492095
0.540555	-0.316497	0.0673081
0.181008	-0.487366	-0.355824
-0.424021	0.0762805	-0.45966
-0.510258	0.0479349	0.366387
-0.394599	-0.484737	-0.0788824
0.0967491	-0.308637	-0.540632
0.205401	-0.447646	-0.39284
-0.0495785	0.458968	0.428707
-0.241541	-0.380481	-0.440218
-0.272205	0.567862	0.018342
0.178373	0.447595	-0.405884
-0.39337	-0.0412204	-0.490368
-0.368151	0.394634	0.325006
0.128316	0.129063	-0.60314
-0.227705	0.511437	0.288933
0.0558482	-0.531644	0.33337
0.525328	0.216771	-0.271921
-0.13989	0.538608	-0.295351
0.434687	-0.420181	-0.177188
0.322524	-0.0921628	0.533277
0.321873	0.48241	-0.246126
0.0166161	0.422855	0.466709
-0.121103	-0.583518	-0.204306
0.342242	-0.229784	-0.476413
-0.436789	-0.14741	0.429402
0.125564	0.571714	-0.232974
-0.128779	-0.574757	-0.223542
0.161699	0.423577	-0.43742
0.444104	-0.333806	-0.297061
-0.134478	-0.362775	0.497202
0.460455	-0.427451	-0.0465493
0.423047	0.426926	0.188853
-0.476773	0.0438819	-0.409465
-0.191037	0.162587	0.577902
-0.453309	0.165594	0.404956
0.128339	0.530797	-0.314139
-0.437459	0.14607	-0.429178
0.192409	0.210612	-0.561713
0.109432	-0.174981	-0.595236
0.358905	0.45319	-0.250411
0.252556	0.573342	0.0662871
-0.188223	-0.133511	-0.586214
-0.0401586	-0.574919	-0.254472
0.0106564	0.195259	-0.598883
-0.030148	0.380384	-0.501297
0.515663	0.0690052	-0.355288
-0.288188	-0.237162	0.507545
-0.3151	0.063037	0.541884
-0.573636	0.066101	0.251938
0.327813	-0.29636	-0.449009
-0.211031	-0.452868	0.383767
0.459341	-0.406823	0.142833
-0.510307	-0.369321	-0.00940086
0.391638	0.434392	0.234143
-0.209417	0.191475	0.562478
-0.313032	-0.149319	-0.525942
0.606466	0.0806597	0.150308
-0.189371	-0.340759	-0.494896
0.512241	0.0797627	0.357976
0.57937	0.242498	-0.0492461
-0.0223889	0.534538	0.332668
-0.0698282	0.586251	-0.219851
-0.348635	0.464805	-0.243536
-0.364793	-0.347415	0.378323
-0.319397	0.395899	-0.371684
-0.247886	-0.5552	0.164942
0.0922586	0.495382	0.378134
0.193361	-0.511169	-0.313397
0.327093	0.427	0.327996
-0.590181	-0.049138	-0.214875
0.454396	0.27405	0.339589
-0.128217	0.2747	0.552268
0.259565	0.556601	0.140435
-0.222089	0.165754	-0.565775
-0.40597	0.458656	-0.147388
-0.353809	-0.000724956	0.521266
0.00313111	-0.62861	0.0417142
-0.15552	-0.210987	-0.572885
0.430243	-0.106632	-0.447684
0.506312	-0.0871139	-0.364635
-0.0729149	-0.625389	0.0217235
0.202521	0.548106	-0.235509
0.105637	0.435338	-0.442969
-0.21338	0.380475	0.454541
0.485648	-0.104019	0.387591
-0.321213	-0.240919	-0.485469
-0.450761	-0.209146	0.387262
0.324442	-0.474425	0.25799
-0.280344	0.544956	0.146047
-0.586567	-0.203577	0.106749
-0.51482	0.121251	-0.342284
-0.534211	-0.333765	-0.010909
0.565777	0.141851	-0.238066
0.0860311	-0.389301	0.487794
-0.497879	-0.362333	0.13316
0.482372	-0.27877	0.294117
-0.460138	0.288471	-0.319308
0.204772	0.539095	0.253664
0.285835	0.443948	0.343669
0.365173	-0.306305	0.411978
-0.112821	-0.590682	0.187791
-0.571076	0.167293	0.206846
0.063912	-0.416014	-0.468772
-0.160736	0.600164	-0.104246
0.0313386	-0.454795	-0.434833
-0.515269	-0.192309	-0.307271
-0.434992	-0.455721	-0.000525546
0.549381	-0.0628797	0.301871
0.238158	0.579026	0.0700641
-0.109278	0.288798	-0.549139
0.240783	-0.578229	-0.0676418
0.258105	-0.16983	0.549035
-0.177718	-0.300695	0.524308
0.152313	0.0789513	0.606191
0.054022	-0.0417498	0.62629
0.476687	-0.409602	-0.0435386
0.131589	-0.391854	0.475431
0.0975212	-0.619018	-0.0648551
-0.113457	-0.486314	0.384092
0.301902	0.506818	0.221113
0.226354	-0.586555	0.0402106
0.261702	-0.354309	-0.450419
-0.226374	-0.234692	-0.539049
0.178565	-0.0800058	-0.598843
0.370852	-0.299833	-0.411665
0.208044	-0.592507	-0.0505278
0.00213016	-0.492058	-0.393413
-0.457396	-0.279156	-0.331301
-0.6213	0.0420776	-0.0954756
0.269866	-0.382339	0.421769
-0.589931	0.197466	0.0994414
-0.256461	-0.572702	0.0560367
-0.457647	0.279482	0.330679
-0.512296	-0.212632	-0.298731
-0.534318	0.191128	-0.273632
0.110974	0.129742	0.606425
-0.135901	0.194376	-0.583651
-0.0743361	-0.168643	0.60244
0.223806	-0.284546	0.515601
-0.0507227	0.375682	0.50318
0.0872863	0.208089	-0.588201
0.531714	-0.29871	-0.157966
-0.527872	0.168934	-0.299519
-0.033087	0.150271	-0.610921
0.501946	-0.11947	0.361493
-0.1624	-0.372518	0.481411
0.229947	-0.451456	-0.374449
-0.37819	0.495681	-0.090407
-0.0451659	0.512363	-0.363792
0.289589	-0.284858	0.481554
-0.471094	0.226962	0.351366
0.373277	-0.502116	0.0737859
-0.5149	-0.0198129	0.362471
-0.210331	-0.142583	-0.576482
0.513723	0.165337	0.325042
0.190019	-0.596416	-0.071283
0.0163367	0.399206	0.487101
-0.00032608	0.28128	-0.563721
0.200977	-0.222775	-0.553967
-0.0333388	-0.173642	0.604679
0.233812	-0.0425514	-0.583456
0.455873	0.153151	0.40697
0.209232	-0.369563	-0.465345
-0.533915	0.286118	-0.173121
0.484635	0.219531	-0.337396
0.235254	0.131422	0.569459
0.154626	-0.352587	-0.498672
-0.537007	0.140588	-0.297923
0.193917	-0.580919	0.147748
-0.374603	-0.283236	0.419941
0.501248	0.141502	-0.35444
0.518286	0.31035	0.17878
0.549268	-0.141874	-0.274001
0.626933	0.00494875	0.0618901
0.156364	0.601158	0.105162
0.375845	0.364917	-0.349966
0.554878	0.220661	-0.200798
-0.212639	-0.272063	-0.52694
0.484681	0.391788	-0.0921209
-0.50488	-0.376314	0.0195907
0.376192	-0.336289	0.377212
0.376809	-0.217462	-0.455659
-0.138351	0.560997	-0.251081
-0.163784	0.385138	-0.470897
-0.527439	-0.342676	-0.0357893
-0.501147	0.38172	-0.00646418
0.592028	0.205796	0.0636513
-0.520702	0.331638	0.125639
-0.0311934	0.132742	0.615066
-0.217779	0.499765	-0.315765
-0.0877077	0.581209	0.226724
0.244855	0.275372	0.510995
-0.057434	-0.256341	0.572617
-0.35225	0.147953	-0.500929
0.208899	-0.464039	-0.371388
0.612036	0.12225	0.0858288
0.596712	-0.196894	-0.0454641
0.370253	-0.36257	-0.358267
-0.519586	0.22912	-0.272826
-0.242904	0.284973	0.506643
-0.0497471	0.0156711	0.627837
-0.515668	0.0230308	-0.361187
0.0748281	-0.523314	0.342699
0.398527	-0.00412861	0.487913
-0.0875549	-0.161333	0.602665
0.38069	0.450586	0.22124
0.136826	0.27352	-0.550786
-0.0637496	-0.505289	0.370836
0.0841436	-0.189401	-0.594935
0.176424	-0.60118	0.0660057
0.259979	-0.16255	0.550353
-0.212311	0.348771	-0.479774
0.454884	0.394589	0.185148
-0.450946	0.0468307	0.437441
0.234597	0.122029	-0.571816
0.0377125	-0.178354	0.603049
0.293647	-0.507867	0.229658
-0.618954	-0.0800558	-0.0859483
0.29121	-0.541165	0.138697
-0.585445	0.152997	0.175345
0.433398	-0.418376	0.184467
-0.173419	-0.379677	0.47188
-0.338863	-0.238196	0.474694
0.541305	-0.248491	0.205283
-0.212989	-0.591405	0.0421315
-0.492752	-0.311795	0.238493
0.229093	0.192507	0.554399
-0.580553	0.0978144	0.224256
0.136285	0.498697	-0.360039
0.119272	0.54978	-0.283577
-0.306661	-0.41394	-0.362647
0.356889	-0.464143	0.232597
-0.262909	0.406884	-0.402771
0.412302	-0.376685	0.291575
0.266325	0.544029	-0.173216
-0.443187	-0.0984624	0.436796
-0.44774	0.300066	-0.326173
-0.311958	0.537526	0.103188
0.535416	0.331805	0.0116479
0.325666	-0.494126	0.216059
-0.0236943	0.443716	0.446604
-0.214438	0.468985	-0.361897
-0.42097	-0.282751	0.373813
0.250466	-0.406369	-0.411134
0.364211	0.170696	-0.484885
-0.538028	0.192372	0.265365
0.427672	0.151027	-0.43725
-0.573702	-0.0767542	-0.248745
-0.271314	-0.496667	0.276786
0.158151	-0.459355	0.401101
0.306638	0.444561	-0.324405
-0.264478	-0.561089	0.110137
-0.0271376	0.610691	0.152383
0.126986	0.578534	0.214646
-0.0205771	0.325854	-0.538791
0.345471	0.0866988	-0.519647
-0.358482	-0.512674	-0.0745398
0.604599	-0.0976481	0.147732
-0.191669	-0.128989	-0.58611
-0.0226242	0.625924	0.0678793
-0.466168	0.0906907	-0.41396
0.290251	0.171816	0.532103
0.341464	0.48815	-0.20497
0.389475	-0.369435	0.329738
-0.200269	-0.41274	0.431785
0.363467	0.0646977	-0.510496
0.37314	-0.407559	-0.302593
-0.476969	-0.138498	0.38758
-0.320515	0.541444	-0.031746
-0.00229319	0.600131	-0.191671
-0.412834	0.366544	0.303502
-0.069063	-0.587017	-0.218039
-0.512895	0.365535	-0.0149283
-0.317085	-0.470933	-0.273092
0.208604	-0.349289	-0.481021
-0.186209	-0.296681	-0.523648
-0.334582	-0.226285	0.483477
0.217661	0.432553	0.403016
0.30231	0.451594	-0.318703
-0.414915	-0.0588067	0.470412
0.0782218	-0.543514	0.308826
-0.0486693	-0.0508569	-0.626055
-0.20666	0.524677	0.280902
0.194136	-0.596118	0.0620896
0.223322	0.436886	0.395168
0.238945	-0.476205	-0.336204
0.152308	-0.0579715	-0.608557
-0.537506	0.328124	-0.0179401
0.00110665	0.471457	-0.417884
-0.190104	-0.407752	-0.44102
-0.135985	0.33481	0.516053
-0.00754669	0.0471733	-0.628186
0.42744	0.317263	-0.336956
-0.00697322	0.584464	-0.235059
0.496083	-0.20859	0.327554
-0.346536	0.324628	0.41404
0.221684	0.0107757	-0.58961
-0.543092	0.318639	0.0205144
-0.269308	0.496595	-0.278866
0.209722	-0.499962	0.320866
0.558197	-0.266129	0.120379
-0.00319209	0.556189	-0.295877
-0.351991	-0.297885	0.429263
-0.495007	-0.368666	-0.126309
-0.363137	-0.157749	-0.490048
0.563121	0.258517	0.113858
-0.0966453	0.568018	0.254784
0.236673	-0.569958	-0.126622
-0.234715	-0.101233	0.575813
0.252347	-0.516674	0.257429
-0.587135	-0.177009	0.144364
0.530438	0.0723809	0.33211
-0.516336	0.284037	0.222757
0.239469	0.387905	0.434838
-0.320252	-0.315203	-0.441572
0.362593	-0.512644	-0.0512167
0.602778	-0.182578	-0.0149618
0.201687	-0.434894	-0.408766
0.105714	-0.184824	0.592929
-0.523574	0.0841535	0.340129
0.324968	0.076184	-0.534314
0.498442	-0.379703	-0.0654324
0.468604	0.258855	-0.332121
-0.554181	0.169121	0.247349
-0.316374	-0.0455334	-0.542894
0.504465	0.0899069	0.366514
0.362331	-0.105606	0.504444
0.0285944	-0.610287	0.153729
0.42613	0.379859	-0.266497
0.567699	0.185089	-0.200899
0.322167	-0.157784	-0.517893
0.0561172	-0.455069	-0.432045
0.347608	0.494366	-0.177964
-0.528854	-0.0995879	0.327561
-0.380164	0.108602	-0.490491
-0.0926661	0.54481	-0.302482
0.169508	-0.567262	0.215361
0.285424	-0.165776	0.536611
-0.382018	0.120846	-0.486167
-0.280819	0.549598	-0.126421
-0.180483	-0.323952	0.509294
0.482982	0.312869	-0.2564
-0.0666353	-0.226176	-0.584212
-0.389949	0.0569495	0.491525
-0.424444	0.178718	0.429892
0.395911	-0.441799	0.212056
0.560683	0.000163378	-0.287288
-0.297342	0.473748	0.289915
-0.169699	-0.323206	-0.513459
0.616915	-0.114726	-0.0561587
0.456747	0.204071	-0.382932
0.317269	0.289145	0.461124
0.267999	0.565192	0.075065
-0.302252	0.169132	-0.526249
-0.232473	-0.0876235	-0.578946
-0.0709882	-0.569469	-0.259935
-0.587183	-0.18867	0.128531
-0.168276	0.567529	-0.215623
-0.468799	-0.362555	-0.213732
-0.400548	0.311914	-0.373057
0.112842	-0.483491	0.387818
-0.537478	-0.105452	0.311283
-0.267045	0.497565	-0.279313
0.417606	0.431572	-0.190396
0.264442	0.206337	0.533288
-0.611086	0.152394	0.015798
0.278054	-0.565094	-0.0159607
-0.239318	0.499718	0.299848
-0.515677	-0.175856	-0.31631
-0.618583	-0.00497139	-0.119292
-0.577253	-0.132783	0.214586
0.127352	-0.609709	0.0945329
-0.274923	0.272752	0.496914
0.532207	0.276887	-0.192326
0.525854	-0.34458	0.040525
-0.476051	-0.219225	-0.349594
-0.424429	-0.210111	0.415468
-0.479546	-0.142772	-0.382821
-0.535682	-0.128658	-0.305601
0.321129	-0.0241157	0.541474
0.233388	0.305974	-0.498808
-0.102022	0.234178	-0.575892
0.325615	0.388004	-0.374603
-0.520665	-0.281669	0.21557
0.143412	0.0375852	-0.612307
-0.204039	-0.373038	0.464877
-0.354278	0.460525	-0.243524
-0.157249	-0.283828	0.540013
0.460622	-0.394002	0.171725
0.575812	0.0161513	-0.255107
-0.189046	0.497339	-0.337365
-0.584161	0.0217462	-0.234911
-0.535069	-0.0788485	-0.323085
0.372049	0.251015	-0.442121
0.19109	0.5207	-0.298757
-0.062667	-0.617213	0.109638
-0.282387	-0.0906881	-0.555818
-0.58894	0.171451	-0.143717
0.504412	0.355948	-0.125575
0.134144	0.615237	-0.0197198
-0.226819	0.578494	-0.103913
0.22323	0.339672	-0.481343
0.277483	0.139904	-0.548024
-0.238001	0.434822	0.388826
0.0947131	-0.615996	-0.0920803
-0.014292	0.364332	0.513768
0.518817	0.230431	0.273185
-0.515235	0.263312	0.249198
0.343743	0.527958	-0.00133212
0.245875	0.416961	-0.403223
0.39241	0.406499	-0.278699
0.0501658	-0.568675	-0.266444
0.416733	-0.191793	0.431797
-0.599204	-0.0508965	-0.187787
0.478937	-0.322037	0.25261
0.249948	-0.446266	0.367795
0.511541	-0.314368	0.190783
0.594678	-0.102229	-0.181129
-0.394222	-0.33836	0.356372
-0.581393	0.15079	-0.190117
-0.493242	0.0820411	-0.383251
-0.112963	0.556661	-0.272521
-0.329659	0.244791	0.47781
-0.578955	0.240046	-0.0639503
0.00255246	0.411525	0.477012
-0.025747	0.614758	-0.135313
-0.251641	0.340595	0.466446
0.183831	0.112836	-0.591924
0.266483	0.552741	-0.142703
0.426414	-0.461179	0.0488346
-0.336644	-0.508424	-0.158353
-0.267842	-0.329287	0.465543
-0.253014	-0.469985	-0.334661
-0.486782	0.359696	0.17482
0.00994837	-0.59488	0.207168
-0.179287	-0.466462	0.383627
-0.158846	0.323663	-0.516633
0.140123	0.514671	-0.33523
-0.415498	-0.248281	0.403259
-0.436388	-0.233384	-0.389868
0.128519	0.531457	-0.312947
0.581392	-0.242646	0.00247058
-0.48387	0.330105	-0.231948
-0.578822	0.0371941	0.245929
0.581254	-0.196515	-0.142917
-0.357267	-0.500366	-0.137454
0.00757558	-0.628787	-0.0383371
0.0282039	-0.530933	0.337957
0.281523	0.362638	-0.431438
-0.204045	-0.577175	-0.148777
0.192828	0.454515	-0.391323
-0.205002	-0.478307	0.355101
0.0256582	0.505429	-0.375211
0.153536	0.0563373	0.608402
-0.434046	-0.456019	-0.0234774
-0.335902	0.511598	-0.149456
0.375806	0.402949	0.305453
-0.329264	0.0981824	0.528058
-0.12523	0.0439976	-0.615859
0.151769	0.583802	0.181772
-0.283856	0.283929	-0.4855
-0.35254	-0.161459	0.496534
0.409398	0.249973	0.40842
-0.613309	0.085373	-0.116031
0.455058	-0.083535	-0.427603
0.522053	0.346379	0.0661944
-0.127659	-0.505724	0.353336
-0.0155868	-0.342758	0.528369
-0.608074	-0.0967016	0.133399
-0.528683	-0.247744	0.23668
-0.245754	-0.241674	0.527351
-0.456343	0.033492	-0.433047
-0.369078	0.304336	0.409952
0.30793	0.291342	-0.466046
0.0832498	0.614283	0.112367
0.214217	-0.592267	-0.0152126
-0.450117	0.435885	0.0655709
-0.470825	0.171279	0.381953
0.366511	0.22393	-0.460896
-0.319152	-0.499806	-0.212688
-0.599743	0.18175	-0.0646161
0.312936	-0.480662	0.260645
-0.462565	0.360823	-0.229654
-0.519188	0.145231	0.325963
0.253517	-0.152776	-0.556137
0.365126	0.512723	0.0264321
-0.0281164	-0.610364	-0.153511
-0.266032	0.567373	0.0649195
0.531463	-0.241393	-0.237014
-0.389495	-0.432253	0.241561
0.487105	0.399164	-0.0172085
0.139394	0.614334	0.00794874
-0.267455	0.391354	0.414982
0.625513	0.0531226	0.0530183
-0.493116	-0.0396094	-0.390087
0.39413	0.0390744	-0.489934
0.527351	-0.332555	-0.0905995
-0.573774	0.0682882	0.251037
0.612164	-0.0798675	-0.125606
0.0989737	0.514204	0.350283
-0.505049	-0.230447	-0.297859
-0.3591	-0.517343	-0.0174176
0.248551	-0.520797	-0.252771
0.294239	0.539929	0.137113
0.346343	0.449971	0.272896
0.319436	0.441435	-0.316221
0.227507	-0.398467	-0.4317
-0.622298	0.022075	0.0956939
-0.210741	0.49514	0.327604
-0.619006	0.0668901	-0.096212
0.377743	-0.502765	0.0379163
-0.179605	-0.497912	-0.341651
-0.558324	0.101491	0.27363
-0.13353	0.0303509	-0.614938
-0.566349	0.240823	-0.134733
0.401382	-0.480576	0.0695598
-0.310331	-0.455792	0.30471
0.231416	0.0294883	0.585215
-0.368885	-0.464239	-0.212852
-0.152685	0.554129	-0.257931
-0.21709	0.486885	0.335731
-0.318014	0.54231	-0.0408327
0.0304654	-0.228719	-0.586225
0.545448	0.306482	-0.0738606
0.40797	0.473206	0.0808513
0.0424886	-0.583185	0.234499
-0.0666939	0.405756	0.477299
0.108707	0.599997	0.158386
-0.39212	0.234727	-0.433642
0.119294	0.321369	-0.528574
0.550161	-0.265534	0.153994
0.0652954	-0.490935	-0.389383
0.0396493	0.191899	-0.598751
0.354193	-0.0301562	0.520133
-0.294107	-0.492912	0.25969
-0.352003	-0.371692	-0.367205
0.0923497	0.0275671	0.622585
0.281394	0.53314	-0.182973
-0.485519	-0.350432	-0.19588
0.0416668	0.559174	0.287208
-0.629855	0.0132262	0.00276935
0.582913	-0.077721	0.225992
0.293638	-0.00181624	-0.557381
-0.407794	0.0718062	-0.474813
-0.453404	-0.291586	-0.32604
-0.244342	-0.311842	0.489848
0.272847	-0.55293	-0.129318
-0.0764216	-0.217574	-0.586277
0.272945	-0.557258	0.108925
0.328443	0.537229	-0.020257
-0.38191	-0.482631	0.13458
0.173553	-0.395565	0.458593
0.234167	0.15313	0.564461
0.285429	-0.0301847	-0.56082
-0.333645	0.360964	-0.394063
-0.238722	0.571225	0.11668
0.322858	0.394553	0.370122
-0.425014	-0.456693	0.087716
0.482427	0.346848	-0.209429
0.0150029	0.0535924	0.627537
0.437064	0.305691	-0.335303
0.389153	0.481727	-0.115756
-0.369616	0.289594	0.420023
0.229365	-0.362972	0.461024
-0.200141	0.529487	0.276563
-0.575007	0.0487341	0.252769
-0.140018	0.586793	-0.181574
-0.328011	0.533012	-0.0721589
0.510466	0.33894	0.146437
-0.420151	-0.463406	-0.0750201
-0.0811942	-0.148562	0.606825
-0.103605	-0.191823	0.591075
-0.507676	0.367129	0.0661905
0.247395	-0.0243768	-0.57888
-0.608051	-0.0859481	-0.140665
-0.299933	-0.459154	-0.310028
-0.119755	0.462213	0.410996
0.566964	-0.262151	-0.0820263
0.584995	-0.0992841	-0.211716
-0.218541	0.545875	0.226187
-0.213276	0.12524	0.579421
-0.608447	-0.0180238	0.162379
0.00629731	-0.0961059	-0.622595
0.507353	-0.146791	-0.343432
0.0778911	0.0589934	0.622377
0.339071	-0.449393	0.282802
0.0463684	0.34153	0.527359
-0.134468	-0.110487	-0.605484
0.275324	-0.56086	-0.0808236
-0.599881	-0.138438	0.133708
0.312005	-0.491521	0.24075
-0.156866	0.22243	0.568171
0.192413	0.228269	-0.554771
-0.282131	0.471232	0.308613
0.235984	-0.0964085	0.576122
0.333593	-0.204534	-0.493742
-0.611928	0.140444	0.052146
0.288384	-0.440449	-0.346034
0.278928	0.192311	-0.531145
-0.558387	-0.0204493	0.291009
0.59342	-0.166091	0.13102
-0.481873	-0.352665	-0.200813
-0.553427	-0.12388	0.274358
-0.412223	0.445041	0.17003
0.236437	0.161186	-0.561263
0.450387	0.419685	0.133852
0.232686	0.555706	-0.18425
-0.170309	-0.0731889	-0.602112
-0.330709	0.0892264	-0.528744
-0.441057	-0.376528	-0.246162
-0.275014	-0.417556	-0.383294
0.0326856	0.0985133	0.621391
0.558068	0.154021	-0.248469
-0.227649	-0.443458	-0.385254
-0.371148	-0.397339	-0.31823
-0.583902	0.186753	-0.145194
0.190036	-0.0808443	-0.595189
0.297009	-0.108847	-0.544829
-0.0175644	0.0207429	-0.629413
0.355255	0.314132	-0.414747
0.268563	-0.130721	0.554694
-0.0100061	-0.368771	-0.510694
0.0472995	-0.552628	0.298772
0.601336	0.179021	0.0569788
-0.386499	0.131786	-0.479741
0.0808777	-0.546464	0.302879
0.341133	0.521868	0.0904571
-0.132245	-0.207218	0.580062
0.160099	-0.580009	-0.186702
0.232201	-0.0591894	-0.582649
-0.455545	0.223318	0.373508
-0.0369328	0.530001	-0.338578
0.0273424	0.188565	0.600496
0.471014	0.263291	0.325152
0.473194	0.22835	-0.347625
0.223193	0.572233	-0.140122
-0.23249	-0.075914	-0.580591
-0.234063	-0.373943	0.449757
-0.612665	-0.14652	-0.00860002
-0.434145	0.269694	-0.368352
-0.333914	-0.501481	-0.184171
0.566664	0.244838	0.125881
-0.373509	-0.448924	0.236343
0.426491	-0.234314	-0.400127
0.28649	-0.498025	0.258446
-0.575186	0.0997551	0.236875
0.392057	-0.313775	0.380442
-0.568809	0.240396	-0.124762
0.592727	-0.211301	0.0304363
-0.0472107	-0.423992	-0.463575
-0.307294	-0.358136	-0.417383
-0.5091	0.2722	-0.252239
-0.334332	-0.469224	0.254854
0.314952	-0.465092	0.285297
0.358701	0.430054	0.288596
0.0381464	0.367014	-0.510633
-0.554778	-0.29088	0.0671595
0.0514117	-0.624457	-0.0656544
-0.2478	-0.430125	0.387928
0.291468	-0.124289	-0.544517
-0.0754647	0.625238	-0.0167949
-0.262703	-0.538936	-0.19348
0.10018	-0.15249	-0.603001
0.531804	0.220132	-0.256175
-0.602556	0.178831	0.0429622
0.114771	-0.534089	0.31381
0.435701	0.453886	0.0324447
-0.0815156	0.413318	0.468427
0.446992	0.384409	0.222099
-0.115423	-0.305164	0.538936
0.0570045	-0.568495	0.265449
0.122722	0.0631252	-0.614699
0.000184137	0.495911	-0.388552
-0.238045	-0.535006	0.232386
0.210544	0.269548	-0.52907
0.231436	-0.573328	0.120963
-0.310986	0.37833	0.3963
-0.00231057	-0.0937587	0.62298
-0.145384	-0.303806	0.532415
-0.495933	0.0451971	0.385885
0.538881	0.136097	-0.296622
-0.064277	-0.47407	0.40991
-0.330312	0.47157	-0.255766
0.146036	-0.0472795	-0.611014
0.537967	-0.0506942	-0.323917
0.493639	-0.015117	0.391142
-0.0278242	0.582514	-0.238333
-0.111168	-0.557417	-0.271713
0.193525	0.0398114	0.598217
-0.317247	0.263367	-0.476332
0.276259	0.471155	-0.313996
-0.447851	-0.357623	0.261602
0.607012	0.161396	0.0488634
-0.546	0.129983	0.286162
0.123425	0.617283	0.0250641
-0.580999	0.0405013	0.240208
0.327544	0.0197564	-0.537796
0.311658	-0.543371	0.067211
-0.401718	0.448438	-0.185542
-0.0157005	0.169497	-0.606568
0.345864	-0.226084	-0.475567
-0.257619	0.418034	-0.39469
-0.140081	-0.154959	-0.594361
0.462957	0.210922	-0.371594
0.297546	0.0982129	-0.546553
0.358955	0.263327	-0.445769
-0.487554	-0.00757365	0.398916
0.160116	0.508914	0.335067
-0.26089	-0.507594	-0.266805
-0.130114	-0.113861	0.60581
-0.209287	0.166189	-0.570509
0.616741	-0.00200478	-0.128556
-0.357676	-0.48488	0.18401
-0.546402	-0.00181375	0.313595
0.452769	-0.198226	-0.390649
-0.33977	-0.428288	0.313092
0.260635	0.00454589	0.57354
-0.579636	0.154536	0.19246
-0.488379	-0.39542	-0.0450495
0.493675	0.15613	-0.358899
-0.201322	-0.554322	-0.221577
0.309765	0.482358	0.261297
0.298255	0.476476	-0.284455
-0.0559945	-0.203861	0.593469
0.042364	0.191625	-0.598653
-0.449284	-0.182635	0.402105
0.559261	0.166634	0.237404
0.0978021	-0.256183	-0.56719
-0.428274	0.458988	-0.053021
-0.629734	0.0166619	0.00754095
0.625688	-0.0137253	-0.072296
0.182938	0.602414	0.0230344
0.00890123	0.140574	-0.614052
-0.214385	-0.294018	-0.514288
0.177829	-0.54805	0.254791
-0.355774	-0.509637	-0.102933
0.416969	0.0121006	0.472113
-0.26192	-0.362584	0.443656
0.408897	-0.339104	0.338691
0.527466	0.228297	-0.257993
0.439344	0.119774	-0.435352
0.445893	-0.0414952	0.443122
0.31384	0.0589774	0.543071
0.378913	-0.343742	0.367649
0.460571	0.0276621	-0.428963
0.57857	0.194197	-0.156346
0.301169	-0.553066	0.0177555
0.391736	-0.205255	0.44868
-0.291517	-0.558056	0.0221618
0.254899	-0.140796	0.558662
-0.503534	-0.122125	0.358384
0.0966573	-0.618361	0.0720201
-0.320705	-0.0278969	-0.541544
0.0785941	0.570113	0.256308
-0.0354559	-0.288645	-0.558862
-0.303635	0.2151	-0.508368
0.549087	-0.0596781	-0.303054
0.329663	0.46207	-0.273338
-0.148263	0.599796	-0.123135
-0.31917	0.0665681	0.539073
-0.569117	0.167	0.212406
0.191013	0.599467	-0.0324537
0.27694	-0.296998	0.48166
0.364514	-0.355179	0.371319
0.21933	0.587189	0.0632705
0.248415	-0.38712	-0.430498
-0.234809	-0.533712	0.238572
-0.164125	0.478142	0.375957
0.422659	-0.263741	0.385616
-0.603385	-0.173797	0.0511999
0.437627	0.268364	-0.36519
0.0294045	0.555432	-0.295855
-0.154874	-0.407143	-0.455136
0.411346	-0.458317	0.132816
0.621503	-0.0977596	0.0328234
-0.0623543	0.323299	0.537112
0.571378	0.222656	0.1444
-0.537034	0.251442	-0.212771
-0.146013	-0.304539	0.531823
-0.540699	-0.0796288	-0.313375
0.0554417	-0.537671	-0.323629
-0.389397	0.283323	0.4062
0.0869374	-0.113898	0.613489
0.148667	0.251434	-0.558193
0.18394	-0.521928	0.301094
-0.193485	-0.301642	-0.518146
-0.59464	0.20348	-0.043586
0.0673368	0.359542	0.512928
-0.145523	0.594059	0.151054
