-0.432177	-0.429414	-0.160394
-0.322027	-0.170667	0.513879
0.0956641	0.259858	-0.565882
0.588601	-0.115085	-0.192884
0.47817	-0.408403	-0.0382168
0.0973363	0.621688	0.0304934
-0.470155	-0.323091	-0.267333
-0.304049	0.362322	0.416145
-0.0996767	-0.0158522	0.621863
-0.503798	-0.293688	0.2384
0.183838	-0.578405	0.168973
-0.425297	-0.463737	0.0311405
0.610059	0.0618475	0.14458
0.384409	0.0503951	-0.496579
0.467168	0.057384	-0.418762
-0.141323	0.0311617	-0.613153
-0.458516	0.432022	-0.00456413
0.176538	-0.331969	-0.505501
0.53901	-0.00494036	0.326103
-0.033702	-0.62587	-0.0636481
0.0773266	0.521554	0.344822
0.202158	-0.483284	-0.349955
0.465915	0.407754	0.116448
-0.0659729	-0.54981	-0.300426
0.166827	-0.412189	0.446283
0.526249	0.333067	0.0950198
0.218497	0.410126	0.425389
0.141335	0.351665	-0.503245
0.0154528	-0.362205	-0.515237
-0.285105	-0.552949	-0.0993109
-0.263503	0.324451	0.471378
0.043844	-0.501856	-0.378309
0.529849	0.321208	0.113953
-0.530971	0.337252	-0.0350851
-0.037581	-0.203579	0.595015
-0.180155	-0.297463	0.525319
0.0300419	0.624152	0.0802005
-0.051608	0.231873	-0.583499
-0.0724462	0.594239	-0.196294
0.0998615	-0.0260374	-0.62149
-0.272809	0.420523	0.381622
-0.595065	-0.0471849	-0.201423
0.0128072	-0.0159982	0.629667
0.408806	0.266125	0.398692
-0.538343	0.203592	-0.256198
0.268657	-0.355173	0.445618
0.0212012	0.45294	-0.437374
0.0424555	-0.619816	-0.104525
0.122386	-0.543544	0.294078
0.151528	0.254062	0.55623
0.622762	0.0763188	-0.0569456
0.053377	-0.575587	0.250501
-0.00212129	-0.573793	0.260109
0.117794	-0.234555	-0.57272
-0.169182	0.577018	-0.187958
-0.266255	0.412081	-0.395218
-0.430221	0.0258868	0.459499
0.0136492	0.352508	-0.521969
0.415828	-0.01821	-0.472922
-0.532215	-0.0682644	0.330132
-0.25002	-0.0299552	-0.577488
-0.0639987	0.518286	-0.352397
-0.0268457	0.52573	-0.346103
0.446232	-0.198588	0.397919
0.466275	-0.052059	-0.420449
0.581522	-0.240288	0.0315323
0.41841	0.0248392	-0.470336
0.0747038	0.120364	0.613866
0.103983	-0.59469	0.180087
0.159488	0.602591	-0.0913677
-0.182094	-0.045582	0.601385
-0.290258	-0.267941	0.490773
-0.474965	-0.295761	-0.289541
0.388655	0.43977	-0.22902
-0.392165	0.391266	-0.30003
-0.0437971	0.464514	-0.423331
-0.0157705	-0.402158	-0.484685
-0.00912787	0.624841	-0.0799416
-0.0971369	0.374296	-0.49736
0.508533	-0.312027	-0.202318
-0.213605	0.0939687	-0.585186
-0.482937	0.346425	0.208954
0.458084	-0.337804	0.270088
0.0340928	-0.610075	0.15345
-0.404755	-0.420641	0.236927
0.313624	0.4532	-0.305205
0.191624	0.514396	0.309155
0.328797	-0.537115	0.0173118
-0.0643639	-0.61454	0.122873
-0.499318	0.0388926	-0.38219
0.350107	-0.217616	0.476412
-0.369078	0.475637	-0.185609
-0.0896756	-0.0447986	0.621974
0.23594	0.105011	0.574635
-0.446522	0.354056	0.26863
0.0416714	-0.548216	0.307608
-0.569565	-0.268759	-0.0162546
0.381016	0.499288	0.049381
0.32978	0.536008	-0.0289966
-0.030968	-0.387913	-0.495444
-0.308203	-0.00358589	-0.549453
-0.331103	-0.197615	0.498216
0.240095	-0.347723	0.467272
-0.02389	0.566197	-0.275228
0.561403	-0.284583	-0.0271943
0.27985	-0.550685	0.123815
-0.126234	0.219789	-0.576765
0.357897	0.440578	0.273314
-0.331299	0.0153738	-0.535635
-0.590607	-0.114355	-0.187101
0.558578	-0.199354	-0.212483
-0.430693	0.436645	-0.144031
0.430057	0.232347	-0.397449
-0.614803	-0.133868	-0.0315675
0.084654	-0.623768	-0.025435
-0.365184	0.302066	-0.415086
-0.171554	0.241536	0.555994
0.605513	0.146579	0.0936424
0.421901	-0.414546	-0.216913
-0.430364	0.164533	0.42967
-0.201999	-0.529453	0.275274
0.194011	0.560721	0.211782
0.32539	0.284867	0.458118
0.138753	0.235227	-0.567729
-0.343942	0.192723	0.491387
0.386097	0.0404958	0.496175
-0.317661	-0.487012	0.24251
-0.237522	-0.405945	0.419157
-0.425047	0.15673	-0.437802
0.0864027	0.519655	0.345533
0.126475	-0.613328	0.0687924
0.277561	0.530838	-0.195117
-0.531115	0.333453	0.060213
0.0315001	-0.0924414	-0.622384
0.569264	0.269154	0.0198626
-0.367054	0.453713	-0.237309
0.211381	0.0340029	0.592505
0.620934	-0.0190516	0.104777
0.489232	0.0330157	0.395553
-0.384287	-0.473247	-0.158936
0.0349983	0.1674	0.606343
0.556266	0.106788	-0.275798
-0.163384	-0.232296	-0.562356
-0.178267	0.156196	-0.583715
-0.269964	0.36194	-0.439339
-0.167323	0.394434	0.461871
0.221517	-0.183758	-0.560413
-0.428185	0.461687	-0.0200834
0.0644553	-0.147702	0.60904
-0.359412	-0.0117571	0.517286
-0.116789	-0.140503	-0.602926
0.272857	0.533282	-0.195089
0.266224	-0.414556	0.392643
0.421735	0.165846	0.437647
-0.530569	-0.0011833	-0.339699
-0.342783	-0.392624	-0.353902
-0.579795	-0.208951	-0.13068
0.164	0.581619	0.178111
0.0612361	0.512136	0.361755
0.0467637	0.511502	-0.3648
0.0319141	0.336534	-0.531626
-0.365727	-0.293406	0.420781
-0.292891	-0.182516	0.52707
-0.402174	-0.112843	-0.471617
0.465335	-0.164167	0.391679
-0.256414	-0.302844	0.489323
0.136623	-0.560862	0.252324
0.0578196	-0.618657	0.104023
-0.120665	-0.225982	-0.575562
0.259069	0.546261	-0.17715
-0.575788	0.0535804	-0.249995
0.442891	-0.305158	0.328064
0.368966	-0.0182272	0.510325
0.307722	0.478617	0.270431
-0.440077	-0.327628	0.309664
-0.447577	-0.415417	-0.154931
0.271445	-0.425874	0.376628
-0.100545	0.621751	0.0147196
0.430531	0.206244	-0.411104
-0.606749	-0.14042	-0.0950702
0.600469	-0.00449903	-0.190571
-0.0425468	-0.502185	-0.378021
-0.215982	-0.219589	0.549575
0.605495	-0.101984	0.140979
-0.498346	0.30878	-0.230664
0.243475	0.00854108	0.580988
0.317781	-0.330875	0.431783
-0.170793	-0.110418	-0.59627
0.311619	0.377844	-0.396267
0.537398	0.184924	0.271857
-0.607803	-0.160943	-0.0396535
0.510915	0.0245908	-0.367778
0.269759	0.482848	-0.301641
0.070736	-0.549068	0.300701
-0.108022	0.44578	0.43187
0.128724	0.611613	0.0791142
0.62703	0.0557633	-0.024972
0.12779	0.508032	-0.349962
-0.267343	0.44094	0.361939
0.134334	-0.615172	0.0204305
0.400081	0.165028	-0.457822
0.157819	-0.555708	-0.25136
-0.373845	0.434674	-0.261149
0.336425	0.471424	0.247947
-0.0206457	-0.337592	-0.531513
-0.594068	0.200645	-0.0610325
-0.1339	-0.228772	0.571519
0.49948	-0.0963965	0.371655
0.40561	0.469954	-0.107349
0.0192955	-0.24892	0.578417
0.580512	-0.2434	0.0257303
-0.033768	0.366394	-0.511386
0.251098	-0.327328	0.476137
-0.559847	0.263898	-0.117598
0.226599	-0.357834	0.466377
0.0788708	-0.604153	-0.160244
-0.285163	-0.25639	-0.499846
-0.0572468	0.536796	0.324765
0.365784	-0.136143	-0.494537
-0.548325	0.305738	0.0525737
0.454013	0.168089	-0.403136
0.215891	0.381166	-0.452773
0.461544	0.417151	0.0993064
0.170621	0.530588	0.293709
-0.172181	0.0273341	0.605398
-0.14077	0.613011	0.0360672
-0.0830246	-0.33283	0.528423
0.0663342	0.539569	-0.318379
-0.229914	-0.584271	-0.0516382
0.309586	0.452846	-0.309817
0.623574	-0.035411	0.0824701
0.0527789	-0.339482	-0.528078
0.089188	-0.618211	-0.0822258
0.0182076	0.507725	0.372536
0.111083	-0.480191	-0.3924
0.0308936	-0.582982	-0.236808
-0.453853	-0.387863	-0.201195
-0.339418	-0.24414	0.471265
0.554614	0.0220789	-0.298019
-0.565527	0.248532	0.123737
-0.194171	-0.550538	-0.236866
0.122561	-0.536086	-0.307393
-0.399257	-0.439351	-0.210867
0.127208	0.499637	0.362051
-0.284181	-0.348042	0.441597
-0.247618	0.554761	0.166809
-0.3105	0.533311	-0.126763
0.304594	0.516837	0.19236
0.36914	-0.465755	-0.209064
-0.00236491	0.201803	-0.5968
0.203972	-0.251166	-0.540565
0.0357809	-0.416775	-0.471083
0.470784	-0.382372	-0.170452
0.565105	-0.0697914	-0.269603
0.205912	0.594384	0.0347561
-0.123368	-0.601086	-0.142742
0.300766	-0.333883	0.441545
-0.0778713	-0.205828	0.590314
-0.223795	0.144269	-0.570966
-0.387638	0.495151	-0.038242
0.610432	-0.063555	0.142244
0.531971	-0.290188	0.172331
0.243384	-0.0105753	0.580993
0.45518	-0.065822	-0.430556
-0.107048	-0.483308	0.389685
-0.584592	-0.1328	0.19369
-0.211539	0.532999	0.260889
0.557945	-0.103781	-0.273545
0.0224276	-0.60291	-0.181374
-0.227438	-0.204144	0.550906
0.20859	-0.278854	-0.525006
-0.534082	-0.326992	0.0687968
0.133594	0.61552	0.0137046
-0.00281255	-0.601809	0.186327
-0.613239	0.0977868	-0.106188
-0.424592	0.378551	0.270778
0.377944	0.442825	0.240757
0.57319	-0.173249	0.195802
0.490179	-0.173388	0.355755
0.443513	0.419021	-0.1569
0.356076	-0.507853	0.110432
-0.0515277	0.574445	0.253491
0.391738	-0.285748	0.402231
0.604868	-0.0261928	-0.174209
0.480351	0.268963	0.306303
0.31757	-0.542886	0.0363883
0.277336	0.0633309	-0.562115
-0.415792	0.22355	0.417184
0.488314	0.0162012	0.397728
0.626039	0.010772	0.0697068
0.477276	0.407177	0.0575733
-0.360892	-0.12169	-0.501845
-0.562958	-0.280858	-0.0331261
0.090036	-0.53107	-0.326738
0.439001	-0.0178974	0.451507
0.322386	-0.266858	0.470908
0.0133144	0.0435159	0.628354
-0.628922	-0.0353978	0.010182
-0.312993	0.514803	-0.184155
-0.206039	-0.00685433	-0.595316
-0.0687617	0.280737	0.559785
0.511091	-0.345077	0.128871
-0.54326	-0.307495	-0.0849439
0.129265	0.37753	-0.487506
-0.578665	0.244501	-0.0476033
-0.487578	-0.359612	0.172763
-0.315337	0.264702	-0.47686
0.240317	-0.374668	0.445838
-0.38666	-0.185889	-0.461345
0.59221	-0.211415	0.0386134
-0.439773	-0.00155582	0.451107
-0.0726225	-0.504331	0.370508
-0.607575	-0.135799	-0.0964982
-0.364522	-0.450788	-0.246605
0.457615	0.270836	-0.33784
-0.0910296	-0.294235	0.549581
0.0625314	-0.317285	-0.540666
-0.199458	-0.436906	-0.407713
-0.0416841	0.61999	-0.103804
-0.10022	-0.233619	-0.576436
-0.600566	-0.107936	-0.156749
-0.558127	-0.284535	0.0665892
0.193966	0.225194	-0.555486
0.204792	-0.274086	0.528996
-0.406323	0.383867	0.290598
-0.0695742	-0.33824	-0.526928
0.22953	0.126166	0.572973
-0.456964	-0.163958	0.401499
-0.172008	-0.585909	0.154995
-0.42235	0.08096	-0.460398
-0.252003	-0.521076	0.248745
0.139514	0.182998	0.586471
0.22835	0.566075	0.155936
0.275538	-0.477417	0.305043
0.0932773	0.203716	-0.588812
-0.228676	-0.227433	0.541185
-0.435673	-0.205449	0.406054
-0.269426	0.304917	0.480973
-0.322165	0.539725	-0.0425104
-0.142927	-0.604777	0.103519
0.0279908	0.0278622	0.628761
5.5563e-06	0.546618	0.313224
0.298349	-0.447809	0.327651
-0.435264	0.156872	0.427594
-0.55873	0.0180663	-0.290507
-0.0691054	-0.222874	0.585194
-0.516515	0.0534855	0.356724
0.354875	0.517973	-0.0516504
0.301967	0.101134	-0.543588
-0.608017	-0.0622608	0.152769
0.0706532	0.0390075	-0.624809
0.494791	0.283323	-0.267974
0.316277	-0.309915	0.448131
0.171434	0.587214	0.150632
-0.283348	0.251763	0.503219
-0.575492	-0.158201	-0.201695
0.128256	0.299916	-0.538982
0.210189	-0.582109	0.11777
0.204744	0.0956612	0.588072
-0.454938	-0.389532	-0.195437
0.195944	-0.59169	-0.0916988
-0.371143	0.0536001	-0.506241
0.133898	-0.467127	-0.400953
-0.0794755	0.0624827	0.621836
0.152485	-0.0998899	-0.603051
-0.197909	-0.59243	0.0822143
-0.26321	-0.308013	0.48244
-0.0887127	-0.148883	0.605693
0.282461	-0.0992867	-0.554309
-0.275705	0.514876	0.236198
0.490639	0.347992	-0.187283
0.52163	-0.0428198	0.35067
-0.191023	0.417274	0.431616
0.480569	-0.0151272	-0.407092
-0.566923	0.181993	-0.205857
-0.0844292	-0.551541	-0.29253
0.0919918	-0.310217	0.540558
-0.276803	-0.565925	-0.0029943
-0.310896	0.469761	-0.282078
0.311568	0.49982	0.223619
0.348778	-0.467682	-0.237755
0.468469	0.282527	0.312435
-0.0496315	-0.436956	-0.451116
-0.236041	0.579094	0.0763811
0.4657	-0.331934	0.264279
-0.481526	-0.391251	-0.109342
0.511596	0.362673	0.0603169
-0.0182687	-0.160683	0.60889
0.583178	0.155397	0.180709
0.0477383	0.0727045	-0.623967
-0.527147	0.248561	0.239236
0.131852	0.561554	0.253323
-0.431326	-0.19613	0.4152
0.0162229	-0.353032	-0.521541
0.556352	0.261969	0.136912
0.222583	0.056833	0.586623
0.110194	-0.511673	-0.35064
-0.125203	0.402262	-0.468411
0.0185881	-0.0145689	-0.629557
0.373723	0.40418	-0.306381
-0.548339	-0.297751	-0.0869969
-0.0787506	0.497161	-0.378852
0.420348	-0.456223	-0.109855
-0.462368	-0.291346	0.313421
-0.605853	0.170734	0.026307
-0.309912	-0.256303	0.484936
0.348104	0.202431	0.484505
-0.0221681	0.511572	-0.367019
-0.0115959	-0.620298	0.109523
0.261764	0.0980697	0.56459
-0.287997	-0.431797	-0.357084
0.404876	-0.482671	0.00185392
-0.166323	-0.34626	-0.49934
0.362361	0.372212	0.356444
0.210071	0.546295	-0.233093
0.394432	-0.0651748	-0.486904
0.607755	-0.0771835	0.146889
0.0915998	-0.623304	0.00124893
0.395598	-0.294755	-0.391819
-0.569594	-0.208547	-0.170209
-0.430616	0.103823	0.447985
-0.279628	-0.110832	-0.553556
0.0714919	-0.183115	0.598546
-0.00900644	0.619673	-0.113243
0.370111	-0.507193	-0.0517042
-0.16671	0.508866	-0.331909
0.399419	-0.456752	0.169533
-0.348249	-0.308526	0.424776
0.0562976	0.306553	-0.547499
0.276208	-0.0229745	0.565757
-0.42964	0.456165	0.0649855
0.257352	-0.539708	0.198457
-0.172508	0.60561	-0.019424
0.360821	-0.444301	-0.263258
0.174508	0.600111	-0.0794573
0.0489939	-0.545415	0.311484
0.219585	-0.340932	0.482128
0.399139	0.48065	0.0810201
0.478956	0.323024	0.25131
-0.279409	-0.34968	0.443344
-0.13286	0.458551	0.411071
-0.301138	-0.0972422	-0.544757
-0.299446	0.277296	0.479937
-0.443526	0.395892	0.208455
-0.359449	-0.363502	-0.368188
0.165052	0.594251	-0.128544
0.564327	0.265697	-0.0885417
-0.0208115	0.22808	0.586895
0.14051	-0.571945	-0.223688
0.243449	0.580156	-0.0324294
-0.250351	0.0921823	0.570725
0.497843	0.0977475	0.373493
-0.619914	0.00129984	-0.112274
0.490319	-0.326933	0.222714
-0.603319	-0.053318	-0.173387
0.0758921	0.370803	-0.503632
0.103677	-0.234527	0.575455
0.327123	-0.511315	-0.168663
0.00226659	0.320842	0.542176
-0.349888	-0.121078	-0.509724
0.488356	0.394906	0.0495739
-0.164686	0.0187832	-0.607804
0.277219	-0.565396	0.0194142
-0.380385	-0.246092	-0.437774
-0.14508	0.0827279	0.60746
-0.277909	0.186339	-0.533802
0.192376	-0.0703043	-0.595776
0.463903	-0.37322	-0.205914
0.291311	0.230284	0.508927
-0.48282	0.256557	0.312991
-0.550616	0.306053	-0.00731679
-0.120873	-0.375164	-0.491469
0.158334	-0.505911	-0.340419
0.583161	0.237294	0.0226858
0.525061	0.34627	-0.0361705
0.0983417	0.315948	-0.536102
-0.574553	-0.255692	0.0375529
0.277565	-0.514777	-0.234227
-0.512968	-0.267237	-0.249696
0.512942	0.289282	-0.223844
0.222598	-0.141782	-0.572056
-0.629505	-0.0236068	0.00813863
-0.226459	-0.57207	0.13547
-0.235743	-0.148818	-0.564959
-0.503579	-0.101103	0.364809
-0.226629	0.250873	-0.531603
-0.372245	0.470003	0.19347
-0.175522	-0.438327	0.417086
-0.590081	-0.179159	-0.128866
-0.123902	-0.0514936	0.615546
-0.135878	-0.275617	0.549975
-0.266788	0.399051	-0.408023
0.326545	0.482334	0.240048
0.354968	-0.223225	-0.470179
0.551323	0.256673	0.164507
0.0440252	0.480985	-0.404494
-0.292361	0.522973	-0.194742
-0.331234	-0.0682173	0.531536
0.420499	0.467482	-0.0392642
-0.398181	0.482635	0.0735874
0.511297	0.158581	-0.332156
0.579908	0.208505	-0.130891
0.380096	0.442073	0.238744
-0.593773	0.174998	-0.117088
0.473548	-0.21918	-0.353004
0.0136495	-0.499545	-0.383626
-0.610725	0.0120869	-0.154173
-0.477189	0.148309	-0.38366
-0.182638	-0.532555	-0.282716
0.445907	0.046829	0.442577
0.242263	0.549401	-0.190701
-0.408363	0.029169	-0.478841
-0.126252	-0.329323	-0.522022
0.36409	0.076495	-0.508416
0.298694	0.374607	-0.409086
0.108111	-0.377612	0.492566
-0.448104	-0.439322	0.0556709
-0.589193	-0.163644	0.151568
0.0990254	0.276052	-0.557575
-0.0990793	0.111738	-0.612044
-0.282317	0.332778	-0.454374
-0.413157	0.321976	-0.350047
0.610151	-0.066928	-0.141903
0.48722	0.0244294	-0.398648
-0.452413	0.261748	-0.351726
-0.0752866	0.111537	0.61546
-0.308128	0.310576	-0.453321
0.126068	-0.616875	0.0217264
-0.480944	0.361332	-0.187169
-0.0314025	0.412218	-0.475384
0.316895	-0.487866	-0.241794
-0.275759	-0.413883	-0.386726
-0.425195	0.377893	-0.270751
-0.31583	-0.307001	0.450446
0.393013	-0.104239	-0.481222
0.382729	0.452024	-0.214693
0.519351	-0.156924	-0.320233
0.0861334	0.596288	-0.184177
0.397437	-0.0857107	0.481245
0.192345	-0.192813	-0.56809
-0.589616	0.217726	-0.0429879
-0.130183	0.340205	0.514017
0.213635	-0.162575	-0.569938
0.104721	-0.293325	0.547626
-0.613426	-0.0877449	0.113621
-0.171103	0.563179	-0.224619
-0.429078	0.1974	-0.416924
0.133368	0.588031	-0.182572
-0.0451278	0.614719	-0.130324
0.013056	0.167226	-0.60726
-0.242506	0.111469	0.570671
-0.468387	0.234265	-0.350191
-0.440385	-0.409242	0.188368
0.509993	-0.345572	0.13186
0.233944	0.58406	0.0323116
0.267984	-0.486316	-0.297626
-0.469005	0.374173	0.19217
-0.622107	0.096931	-0.0220844
0.593859	0.050341	0.204201
-0.398945	-0.486171	0.0371662
0.109068	0.595941	-0.172797
0.321081	0.412587	-0.351538
-0.279919	0.56123	0.0597168
0.193873	-0.269236	0.53556
0.449719	0.389393	-0.207427
-0.0987619	0.511172	0.354753
-0.102249	-0.524209	-0.33414
-0.424582	-0.458238	-0.0815357
0.339246	0.510226	-0.146568
0.379297	0.0509847	-0.500434
0.267316	0.260948	0.507295
-0.326172	-0.168527	-0.511967
0.524537	-0.34894	0.00113695
0.591842	0.0765605	-0.201896
0.598456	-0.0411613	0.192501
-0.237161	0.456222	0.364027
0.0554461	0.282951	0.560147
-0.0361225	-0.585363	0.230098
-0.134939	-0.0494409	0.61339
0.0834967	0.076685	-0.619716
0.331009	-0.100199	-0.526586
-0.481479	-0.0491143	0.403319
-0.582108	0.0429013	0.237086
-0.483281	-0.297385	-0.273681
-0.54242	-0.171614	-0.270609
-0.46075	0.410322	0.127457
0.0847096	0.348108	0.518213
-0.466251	-0.0908469	0.413832
0.292829	-0.0540884	0.555181
0.340442	0.509785	0.145323
-0.0737427	-0.533515	-0.326839
-0.383	0.211038	-0.453513
-0.57368	0.143018	-0.217571
-0.0271518	-0.380115	0.501673
-0.00410032	-0.116252	0.619168
0.626242	0.00762336	0.0682808
0.417442	-0.22083	-0.416985
0.224789	-0.0828431	0.582672
-0.429224	0.27174	0.372591
-0.0671687	0.378227	0.499332
0.245987	0.547123	0.192476
0.230782	-0.390036	-0.437621
0.436047	-0.234948	0.38931
0.0893076	-0.621603	-0.050342
-0.47708	-0.10674	-0.397368
0.188114	-0.409755	-0.440016
0.102229	-0.277413	-0.556319
-0.461144	-0.259406	0.341987
0.391079	-0.209444	-0.447315
0.0241338	-0.206407	-0.594738
0.0891517	0.454615	0.426939
-0.12462	0.230324	0.572993
-0.0119755	0.0863984	-0.623933
0.0260858	0.616007	-0.129442
-0.45714	-0.0913791	0.42376
0.366235	-0.207368	-0.468797
-0.117039	-0.606408	0.124382
0.120163	0.531213	0.316659
0.546161	-0.111416	-0.293589
0.246817	0.0456466	-0.577839
-0.0574513	-0.0473246	0.625588
-0.374132	0.130026	0.489916
-0.243757	-0.512518	0.273511
0.422218	-0.203316	-0.421064
-0.465914	0.410559	-0.106136
-0.358416	-0.518033	-0.00893959
0.0375337	0.230535	-0.585102
0.0960126	-0.593371	-0.188658
0.498945	-0.378947	0.0659771
-0.333816	0.021431	0.533861
-0.0948012	-0.101808	-0.614449
-0.460554	-0.4092	-0.131701
-0.480454	0.071874	0.401121
-0.574101	0.172944	-0.193388
-0.0947722	-0.614791	-0.0997497
-0.575234	-0.161384	-0.199903
-0.373317	0.395624	-0.31783
0.185643	-0.109881	0.591914
0.3123	0.301097	-0.456847
-0.424806	0.212358	0.413937
-0.539486	-0.303225	-0.117938
0.53539	-0.294995	-0.152433
-0.160789	-0.336614	0.507679
-0.328969	0.476313	0.248607
-0.303433	-0.520666	-0.183671
0.180548	0.345144	-0.495155
0.40236	0.0605398	-0.48098
-0.605581	0.158092	0.0719645
0.577123	-0.242337	-0.0714244
-0.475853	-0.412776	0.00891925
-0.182534	0.0561829	0.600354
0.129452	-0.397997	-0.470893
-0.250431	0.537137	0.213702
-0.113341	-0.314079	-0.534236
-0.337316	0.0269592	-0.531405
-0.0678978	0.316093	0.540718
0.0111131	0.556988	-0.294178
0.357028	0.477924	-0.202534
-0.211454	-0.460261	0.374629
-0.429462	-0.100842	-0.44977
0.107841	0.534701	-0.315223
-0.224969	-0.477681	0.343672
0.269801	-0.406999	0.398069
0.540451	0.208452	-0.247711
0.462794	0.118261	-0.410775
-0.0819216	-0.607456	0.145554
-0.0040448	0.611475	-0.151598
0.330324	-0.077374	-0.530848
-0.625703	0.0733813	0.00329973
-0.0605742	-0.580496	0.237181
0.297929	-0.553203	-0.0458744
0.539983	0.289517	0.146624
-0.560435	-0.0161324	-0.287318
-0.183836	0.201106	0.568032
-0.00782579	0.366021	0.512706
0.0678582	-0.151414	0.607757
0.499635	0.314862	-0.219377
0.573828	0.149122	0.213035
-0.333011	-0.522821	-0.112526
0.469049	0.391309	-0.154177
-0.000451978	-0.188867	-0.601023
-0.0124397	-0.414139	0.474589
-0.171592	0.585132	0.158356
0.553904	0.179616	0.240475
-0.475315	0.228993	-0.344294
0.194533	0.353992	-0.483474
-0.236817	-0.51588	-0.273286
0.159493	0.112093	0.59908
0.462292	-0.0509073	0.424964
-0.409084	0.140326	0.458104
-0.537892	-0.061252	-0.322212
-0.605881	-0.172588	0.00467886
-0.190428	0.53799	0.266841
-0.299013	-0.547898	-0.0854327
-0.341454	0.197736	-0.491131
-0.4023	-0.484723	0.00994981
-0.327153	-0.533546	0.0721095
-0.463124	-0.0080612	-0.427026
0.332815	0.230799	0.482562
0.53155	0.338163	0.000106062
0.00576371	0.486685	0.400006
0.169195	-0.43662	0.421469
0.370734	0.346049	0.373773
-0.461834	0.219381	-0.368078
0.242449	-0.203158	0.544835
0.589241	-0.144953	0.169365
-0.0228552	0.595111	0.205475
0.00445794	0.126869	-0.617077
0.208884	-0.594328	-0.00648553
-0.0411077	0.602902	0.1781
0.363115	0.500266	0.121577
0.106685	0.596932	-0.170853
-0.585283	-0.0838579	0.217513
-0.0344506	-0.164051	-0.607289
-0.494825	-0.20379	0.332442
0.616978	-0.102974	-0.0750641
-0.473008	0.41575	-0.0177598
0.560672	-0.0749637	0.277358
-0.416946	0.450265	0.142541
0.114189	0.233022	-0.574075
-0.108433	-0.311416	0.536808
0.00878403	0.62992	0.00488606
0.377985	-0.0275207	-0.503259
0.443284	0.191365	0.404696
0.252778	0.574802	0.051055
0.411222	0.26877	-0.39441
0.232836	-0.582286	0.0602515
0.509497	-0.30423	-0.211559
0.386518	-0.176094	-0.46529
0.442443	0.110989	0.434541
-0.0202257	0.199542	0.597222
-0.351021	-0.390088	0.34859
0.566654	0.252121	-0.110628
-0.345744	-0.428972	0.305523
0.432603	0.457393	0.0233682
-0.495054	-0.14312	-0.362406
-0.456947	-0.0959254	-0.422963
-0.469761	0.341114	-0.244676
0.17718	0.507633	0.328353
0.138898	-0.328878	-0.519082
-0.476704	-0.125872	0.392186
-0.562024	-0.081501	0.272738
0.194347	-0.434554	-0.412664
-0.607311	-0.141997	0.0889416
-0.434939	0.0111968	-0.455634
0.123467	0.0458815	0.616077
0.610629	0.0705868	-0.138022
-0.481568	0.0614033	-0.401525
-0.330622	-0.527811	-0.0948913
0.476903	-0.358961	-0.20152
-0.551628	-0.301244	0.0431049
-0.538048	-0.260918	-0.198307
0.327379	0.482708	0.23815
0.214983	0.287048	0.517963
0.587236	0.107207	0.201397
-0.126575	0.498932	-0.363243
0.134467	-0.454108	-0.415457
0.110682	0.603683	0.142185
0.126833	0.484324	0.382417
-0.0129587	-0.620606	-0.107611
0.278151	0.504311	0.255349
0.520462	0.344205	0.0868472
0.42764	0.299953	0.35221
0.594305	-0.208806	0.0100865
-0.339812	0.458319	0.267154
0.166572	0.478344	0.374621
-0.0927252	0.180797	-0.596334
0.245181	0.579385	-0.0331636
-0.469124	0.216759	-0.360331
-0.426625	-0.273119	0.374563
0.599293	0.038478	-0.19044
0.351674	0.401317	-0.334918
0.479973	-0.359371	-0.193334
-0.0369383	-0.03127	-0.628138
-0.0442886	0.101854	-0.620132
0.382183	-0.375651	0.331244
-0.580406	-0.0108468	0.244767
0.148394	0.245422	-0.560934
-0.418234	0.390083	-0.264227
0.582304	0.224883	-0.0851437
-0.376642	0.419854	0.280648
-0.326682	-0.292316	-0.452471
0.351691	0.175682	-0.49229
0.0210959	0.512482	-0.365811
0.0721447	0.58424	0.224408
0.215542	0.575788	0.137513
0.270962	-0.280292	-0.49489
-0.106131	-0.603869	0.14484
0.248074	-0.539619	-0.210169
0.249239	-0.443639	-0.371436
-0.389226	-0.0223736	-0.494876
0.598058	0.193242	-0.0434105
-0.156969	0.427399	0.43542
-0.265661	0.392035	-0.415491
-0.179638	0.374499	0.473689
0.507353	0.299864	-0.222653
-0.305092	-0.310277	0.455574
0.460811	0.357011	-0.238949
-0.0672292	0.507083	-0.367759
-0.492348	0.211827	0.331093
