0.337002	0.411287	-0.337894
-0.138755	-0.420389	0.448241
0.461409	0.28366	-0.321774
-0.59242	0.206368	0.0578826
-0.16029	-0.333353	-0.509983
-0.180098	0.593944	-0.108148
0.267151	-0.0759891	0.56547
-0.135297	-0.600344	0.134841
-0.334846	-0.0729978	-0.52863
-0.474084	0.143116	-0.389438
-0.353627	-0.218948	-0.473191
0.297084	-0.532979	-0.156764
-0.467002	-0.312331	-0.285058
0.196537	0.557212	0.218603
0.316646	-0.235633	0.491032
-0.0578642	-0.257622	-0.571999
-0.390311	-0.394242	0.298548
-0.5253	0.344199	-0.0498727
-0.0990638	0.265356	0.562737
-0.300838	-0.551636	-0.0457625
0.396683	0.312554	-0.376634
0.134384	-0.000136244	0.615501
0.1004	0.605087	0.143837
-0.271011	0.208876	-0.528984
0.512624	-0.0713769	0.359196
-0.516934	0.273814	0.23389
0.377239	-0.361956	-0.351538
-0.0945062	0.584983	0.213924
0.0506666	-0.594545	-0.202111
-0.173684	0.604621	-0.0341559
0.613468	0.116533	0.0835266
-0.221772	0.46301	-0.365156
0.43989	-0.321225	0.316562
-0.439734	0.219278	0.394272
0.331813	-0.0260139	0.534905
-0.242349	-0.527509	-0.244748
-0.484194	-0.40021	-0.0478275
-0.523465	0.145004	0.319153
-0.140658	0.541246	-0.290117
-0.251714	-0.237687	-0.526351
0.337515	0.436346	0.304279
0.210886	0.458727	0.376824
0.489584	-0.281119	-0.279607
-0.188856	-0.302242	0.519503
-0.101203	0.0684353	-0.618041
-0.473536	-0.387458	-0.150134
0.502406	-0.133465	-0.355914
-0.322136	0.532838	-0.0959793
0.305726	-0.19799	0.514034
0.0698354	0.610685	0.138156
-0.09227	-0.544738	-0.302732
-0.432979	0.264127	-0.37372
-0.378211	-0.478945	0.156425
0.424462	-0.463057	0.0480619
0.208938	0.26725	0.530869
0.422345	0.466863	-0.0237354
0.147441	0.109352	-0.602664
-0.261013	-0.560187	0.122321
-0.15205	0.362343	0.492431
0.495535	-0.363563	-0.138445
-0.283528	-0.1453	-0.543507
0.544987	-0.0131431	-0.315779
-0.506998	0.209633	-0.309688
-0.263114	0.263669	0.508085
-0.277997	0.4575	-0.332131
0.425881	-0.456906	-0.0822319
0.242315	0.513011	-0.273867
0.570522	0.103656	0.246293
0.114249	-0.450949	0.424844
-0.10435	-0.463408	-0.413841
-0.108521	0.176201	-0.595043
-0.31359	0.111123	-0.534989
0.256394	-0.295946	0.493537
-0.109324	-0.58271	0.213066
0.184887	0.23223	0.555685
0.342671	0.031623	-0.527709
0.235418	-0.577431	0.0897342
0.555414	-0.292732	-0.0521834
-0.477251	0.168769	0.375032
-0.586783	0.153148	-0.170677
0.625919	0.0653991	0.0291301
0.353992	0.510969	-0.102474
-0.0855347	-0.623937	-0.0169407
-0.292013	-0.459831	-0.316519
-0.588274	0.134107	0.181242
-0.417089	0.457443	-0.116975
0.551299	0.303685	-0.0272928
-0.213275	0.240424	-0.541858
-0.515902	-0.144662	-0.331388
0.231612	-0.581009	-0.0753919
0.16716	0.57979	-0.181109
0.194918	0.299664	-0.518757
-0.0596498	-0.276598	0.562881
-0.565591	0.270478	0.0620385
0.106788	0.227975	0.577515
0.316575	0.134076	-0.527924
-0.42603	0.0627511	-0.459849
0.280196	-0.526831	0.202086
-0.519438	-0.259142	0.244805
-0.335214	-0.491199	-0.207978
-0.456081	-0.0975287	-0.423531
0.405386	-0.48013	-0.0451397
0.17453	-0.369426	0.479545
0.486592	-0.399761	0.0178829
0.369555	0.466154	-0.207435
0.247619	0.578976	0.0192869
-0.382201	0.0118892	0.50068
0.224923	0.281661	0.516698
0.0104241	0.625644	-0.073218
-0.0294676	-0.583742	0.235109
0.0575284	0.507928	-0.368239
-0.580296	0.196405	0.146907
0.37593	0.466544	0.194713
-0.515309	-0.0760336	-0.354366
-0.491131	-0.387028	-0.0768117
-0.544155	0.17679	0.263706
0.12051	0.0434628	-0.616837
-0.214938	0.503565	-0.311647
0.14107	0.0366664	-0.612907
-0.210878	0.383163	0.45345
0.223776	-0.0925159	-0.581606
-0.179216	-0.323771	0.509857
-0.369167	-0.25825	0.440366
0.490842	-0.329376	-0.217912
-0.358776	-0.369194	0.363147
-0.0160165	-0.572947	0.261486
0.173693	-0.514027	0.320168
0.301254	0.290058	0.471182
0.41978	-0.127722	-0.452075
0.310333	0.15605	0.525587
0.0602303	-0.604232	0.167857
0.580325	-0.235375	-0.068715
-0.0840979	-0.62418	-0.0150748
0.406552	0.0842167	0.473838
0.370827	0.0570545	0.506095
-0.0748199	-0.575773	0.244515
0.0589969	-0.321188	-0.538756
0.386135	-0.49716	-0.0251315
0.151817	0.470415	0.390591
0.627049	-0.0342296	0.0503733
0.0401698	0.443912	0.445228
-0.310949	-0.251634	-0.486714
0.360134	0.514205	0.0528822
-0.462305	-0.397488	-0.158675
-0.109022	0.229206	0.57661
-0.0719791	0.60038	0.176812
-0.503066	-0.363619	0.107728
-0.15825	-0.25867	0.55222
-0.193489	0.00316128	-0.599543
0.0479884	0.127852	-0.615021
0.0626783	0.40976	-0.474413
-0.610564	0.0737114	0.136667
0.17923	0.538801	-0.272893
0.53994	0.101296	0.308388
-0.241911	-0.0574268	0.578862
-0.215617	0.530262	0.26312
0.219664	0.402278	0.432227
-0.0561945	0.39631	0.486499
0.141532	0.612624	0.0394947
0.530561	0.166726	-0.295985
0.0459176	-0.535175	0.329211
0.0214557	0.262494	-0.572308
-0.599988	0.0302163	-0.189741
-0.627732	0.0142025	0.051483
-0.296832	-0.11568	-0.543515
0.264178	0.0642367	-0.568317
-0.309396	-0.548443	0.0195995
-0.310267	0.519702	-0.174768
0.00933395	0.0183948	0.629662
-0.207881	-0.587598	-0.0917254
0.411437	0.325738	0.348589
-0.140923	0.457353	-0.409718
-0.0991565	0.579059	0.227505
-0.183022	0.0284467	-0.602157
-0.161696	-0.314283	0.521517
0.493256	-0.0214022	0.391331
0.48999	0.3872	0.0829826
-0.166267	0.607566	0.0109207
-0.345596	-0.315124	-0.422091
-0.424318	-0.255352	-0.389422
0.257306	0.0124784	0.574924
-0.196126	0.216191	-0.558297
-0.138078	0.614298	-0.0217365
0.497835	-0.33231	0.196547
-0.46615	-0.423081	-0.02463
0.45875	0.357905	-0.241562
0.487969	-0.173586	0.358685
-0.220676	0.275599	-0.521773
0.518068	0.354912	0.0504203
-0.106139	0.521982	0.336407
-0.0342871	0.625205	0.0695917
-0.15912	0.605655	-0.0690141
-0.276568	-0.134496	0.549837
-0.47245	0.261623	-0.324414
0.230913	-0.491484	0.319409
-0.172952	0.136944	0.590113
-0.36639	0.431142	-0.277082
-0.417921	0.177516	-0.436726
0.185157	0.388532	-0.460066
-0.485574	-0.399775	-0.0360262
0.0568738	0.366863	0.508996
-0.056948	-0.112962	0.617168
0.127805	-0.321422	0.526549
0.604117	-0.163769	0.0715699
0.045371	0.546089	-0.310851
0.217955	-0.546756	-0.224619
0.531857	-0.185791	-0.281975
0.110101	0.365805	0.500963
-0.0243153	0.120149	0.617959
0.0561206	0.488947	-0.393296
0.571342	0.253313	0.079378
0.367629	0.48398	-0.165868
0.616935	0.0358731	-0.122491
-0.466166	-0.0965961	0.412624
0.534426	0.219005	-0.251645
-0.435016	0.282774	0.357351
0.30588	0.486586	-0.258014
-0.481889	0.295448	0.278198
0.416051	-0.078517	0.466515
0.150154	0.561054	-0.244075
-0.295611	0.532366	0.161557
0.602212	0.0560844	0.176339
0.564787	-0.117762	0.253078
-0.597934	0.148615	0.131485
-0.0936455	-0.167811	0.599975
0.109145	-0.207558	0.584728
0.478794	-0.133958	-0.386926
0.0174654	0.418007	0.471026
0.217743	0.458925	-0.372661
-0.322997	-0.433454	-0.323559
-0.06078	0.539366	0.319828
0.0102351	-0.416221	-0.472816
0.150727	0.581828	0.188833
0.218587	-0.482688	0.340781
-0.323176	0.347853	-0.414072
0.0134725	-0.367896	0.511245
0.482256	0.385478	-0.125445
0.437989	0.0265129	-0.452065
-0.373805	0.506687	0.0209269
-0.147511	0.555898	0.257133
0.0243176	-0.00978493	-0.629454
-0.569357	-0.200764	-0.180073
0.393162	0.0516457	-0.489547
0.614869	-0.0132183	0.136609
0.572377	0.106861	0.240551
-0.0837019	-0.608218	-0.141298
-0.376233	-0.376874	-0.336623
0.0219588	-0.174044	-0.605084
-0.0891305	-0.590983	-0.199237
-0.629088	0.0294504	0.0167445
-0.592516	-0.203429	-0.0666472
-0.436753	0.406241	0.202768
-0.331458	0.373268	0.384326
-0.19917	0.156785	-0.576758
0.384501	-0.256914	0.427848
-0.371911	0.47367	-0.184984
0.197736	-0.548682	0.238219
-0.0118378	-0.118151	-0.618708
0.365965	-0.0695752	0.508064
0.270454	0.0193102	0.568667
-0.297898	0.137572	0.537802
0.0320622	-0.382903	-0.499257
0.20537	0.275566	-0.528003
-0.393964	-0.324574	-0.369248
-0.0372368	-0.172093	-0.604894
-0.112302	-0.443973	0.432638
0.270825	0.206087	-0.530171
0.305304	0.267774	-0.48165
0.607598	0.119659	0.115786
0.235725	-0.304599	0.498551
0.0618535	-0.559168	-0.283558
0.163072	0.269022	-0.545834
0.291533	-0.556891	0.0422001
0.072892	0.62188	-0.0696571
0.559625	-0.268596	0.107591
0.227196	-0.578135	0.105078
-0.59915	0.191301	0.0363825
-0.159889	-0.546464	-0.269652
0.21989	-0.560795	0.184545
-0.183056	-0.51855	-0.307403
0.420361	0.468931	-0.0173398
-0.22645	-0.513082	-0.286997
-0.299847	0.0277821	-0.553371
0.388882	0.49012	-0.0738472
-0.585179	0.193608	0.130312
-0.230877	-0.349952	-0.470244
0.519856	-0.271807	-0.229718
0.399498	-0.41461	0.255735
-0.132967	0.433232	-0.437641
-0.595085	-0.178429	-0.104582
-0.196484	-0.335467	-0.495738
0.212342	-0.134502	-0.577685
-0.386149	-0.234125	-0.439288
-0.117151	-0.519909	-0.335962
-0.425018	-0.0706215	-0.459643
0.27565	-0.258011	-0.504328
-0.449266	-0.432373	-0.090074
0.0527074	0.11829	0.616546
-0.0254615	-0.422959	-0.466216
-0.175961	0.0467658	-0.603117
0.378486	-0.483063	0.142471
0.352194	0.522239	0.0112103
-0.314592	-0.0803694	0.539882
0.0743714	-0.0215772	0.625223
0.155728	-0.504165	-0.344189
-0.515043	0.312616	0.184123
-0.210905	0.562265	0.190466
-0.552964	0.0880089	0.288766
0.543357	-0.16653	0.271903
0.49968	-0.359118	0.135108
-0.386734	0.0463002	0.495169
0.187237	0.100529	-0.593074
0.0899011	-0.604849	-0.151578
0.218172	0.504382	-0.308059
-0.103131	-0.601948	-0.154668
-0.0413994	-0.414667	-0.47248
-0.451128	0.4375	0.0444688
-0.529959	-0.264456	-0.214723
0.180411	-0.489203	0.353599
-0.0229237	0.565506	0.276727
-0.139932	0.29068	0.541132
0.435687	-0.424409	0.164177
-0.0214124	-0.612959	0.143953
0.406506	0.332151	-0.348322
-0.558987	0.284826	0.0575127
-0.449535	0.408169	-0.167976
-0.625595	-0.0690313	0.0276595
0.0706438	0.482726	0.398604
-0.459211	0.165415	0.398325
0.455169	-0.0481362	0.432902
-0.357348	0.518847	-0.000334838
-0.145932	-0.335099	-0.51314
-0.210709	0.571058	-0.162462
0.110461	0.5875	-0.198852
-0.0650797	-0.527478	-0.338277
-0.0460015	0.411726	0.474622
-0.114096	0.614288	-0.0808242
-0.234204	-0.244573	-0.531256
-0.478586	-0.294374	0.284954
-0.321211	0.000994777	-0.541962
-0.492157	-0.043691	0.390861
-0.0265726	0.616842	0.125301
0.448531	0.382972	-0.221477
0.132653	0.56283	0.250051
0.371999	-0.503023	-0.0740579
0.0599584	-0.427326	0.459018
0.421011	0.250129	-0.39634
-0.161272	0.101041	-0.600568
0.0275861	0.29789	-0.554437
-0.432577	-0.455105	0.051539
-0.0819547	0.309049	0.542837
-0.209064	0.367649	0.466933
-0.259564	-0.297546	0.49091
-0.359285	0.515137	0.0494784
0.552164	-0.182081	-0.242614
0.292522	0.532591	0.166366
0.149867	0.557091	0.253158
-0.559003	-0.2764	0.089545
0.422429	-0.316103	-0.344285
-0.322028	0.511246	-0.178396
0.0512028	0.279322	0.562368
0.570459	0.136323	0.229983
-0.191222	0.0909896	0.593342
0.166332	0.544987	0.268743
0.591895	-0.191131	0.100145
-0.431805	0.409145	0.207473
-0.400337	0.486109	0.0181245
-0.402424	0.481821	0.0529505
-0.125599	-0.511975	-0.344973
-0.159109	0.525961	-0.308138
0.289544	-0.414473	0.375867
0.0658192	-0.459614	0.42582
0.303837	0.20565	0.512143
-0.490128	-0.39108	-0.0610806
0.45728	-0.121714	-0.41591
-0.553345	-0.276796	-0.118713
0.198389	0.587898	-0.109169
-0.0172504	0.629763	-0.000920674
0.314401	-0.430137	-0.336205
0.509778	0.33391	-0.159784
0.555291	0.262027	0.141046
-0.370743	0.275558	0.428389
-0.435682	0.0604233	0.451032
0.616136	-0.101066	0.0840334
-0.143676	-0.377203	0.48371
-0.361763	-0.410638	0.312096
0.426158	0.45145	0.107156
0.419791	0.177221	0.43505
0.365309	-0.384049	0.340522
0.0611523	-0.557899	-0.286199
-0.404636	0.461983	0.140506
0.384186	0.379516	0.324451
-0.363945	-0.514219	-0.00479143
0.498221	-0.190242	0.335386
-0.471207	-0.077994	-0.41083
0.273432	-0.539659	-0.175792
0.544836	0.316238	0.00685244
0.0946736	0.616347	-0.0897426
-0.20938	0.405488	0.434326
0.3835	-0.348861	-0.357944
-0.50354	-0.0993849	0.365335
-0.13232	-0.475434	-0.391604
0.596158	-0.200992	-0.0331272
0.375183	0.117557	-0.492258
-0.0890815	-0.130436	0.609878
-0.496401	0.27397	0.274639
0.189714	0.193137	-0.568864
-0.282487	-0.48179	0.291512
-0.26428	-0.172597	0.545221
-0.149049	0.478406	-0.381854
0.117125	-0.198044	-0.586481
-0.35836	0.224389	0.467042
0.00454645	0.627446	0.0564835
0.504185	0.0648381	-0.372147
0.147523	-0.315923	0.524719
-0.399553	0.290854	0.390719
-0.322556	-0.225977	0.491723
0.0916389	-0.602958	-0.157937
-0.465684	-0.418908	-0.0674846
0.394445	-0.452742	-0.190625
0.182052	0.308547	0.518224
-0.117068	-0.467247	0.406049
0.320221	0.48656	0.240039
0.328498	-0.0433173	-0.535829
-0.0893736	-0.545127	0.302902
0.13734	0.4928	-0.367676
-0.369483	-0.39766	0.319763
0.352681	-0.455916	-0.254278
0.559027	0.275961	0.0907415
-0.332074	0.503676	0.181487
-0.568007	0.265444	-0.0617044
0.0320063	0.543833	-0.316419
0.338315	-0.145175	0.511241
-0.382272	-0.144338	0.479515
0.0728379	0.453111	0.431608
-0.0624088	0.613774	0.12762
0.4138	0.396913	0.261017
-0.102899	-0.237537	0.574359
0.338531	-0.466366	-0.254557
0.0399962	0.621727	0.0935703
-0.131758	-0.127846	0.602657
0.443533	0.405254	-0.189598
0.133922	0.437528	0.433052
-0.416331	-0.0548364	-0.46964
0.293659	-0.241229	-0.502467
0.555252	-0.112579	0.275539
-0.60706	0.155356	0.0651379
0.248012	0.138288	0.562376
-0.180846	-0.597657	-0.0836726
0.551038	0.155508	0.262819
-0.224438	-0.586203	-0.0537967
-0.368474	0.261333	0.439126
-0.202295	-0.174278	-0.570617
0.331348	-0.334464	0.41862
0.279832	0.564339	0.0107366
0.260455	0.187092	0.542273
0.353427	0.520239	0.036615
-0.606724	0.0372892	0.165517
0.608099	0.0287458	0.162141
-0.0864343	0.586458	0.213299
-0.337557	-0.49166	-0.20304
0.206488	0.497549	0.326662
-0.606453	-0.16049	0.0579449
0.586457	0.0515893	-0.224293
0.327276	0.538244	-0.00915632
0.013817	-0.0499735	0.627863
-0.256618	0.288308	-0.497921
0.120809	0.606257	-0.121479
0.54033	-0.316084	-0.0709547
-0.623273	0.075313	0.0525233
-0.388481	-0.350768	-0.350634
0.0695442	0.510031	-0.363225
0.314438	0.36076	0.409733
-0.373163	0.435969	0.259963
0.434354	0.318304	-0.326984
0.480624	-0.35052	0.207452
-0.450044	-0.186576	-0.399437
-0.602686	-0.121768	-0.137267
-0.498227	0.226501	0.312037
0.126033	-0.233538	0.571381
0.28891	-0.550808	0.100207
-0.512826	-0.271943	0.244861
-0.161744	0.127612	-0.59536
0.390534	0.123159	0.478764
-0.50125	-0.267947	0.27176
-0.502754	-0.0710073	0.372957
-0.419482	0.247438	0.399637
0.0859547	0.577357	0.237003
-0.132625	0.0692614	0.611975
-0.613739	-0.12816	0.0616399
0.156758	0.501075	0.348211
0.55942	-0.239867	0.16252
0.592922	0.0258492	0.211366
-0.360274	-0.00158653	-0.516818
-0.371329	0.343167	0.375834
-0.0102066	0.0341704	-0.62899
0.472911	0.259579	0.325382
-0.212974	0.0203747	0.592559
0.262441	-0.335744	0.464006
-0.182174	-0.410111	0.442178
-0.233827	-0.325476	0.486097
0.0530202	-0.134218	-0.613249
-0.444326	-0.17367	0.411477
-0.266575	-0.570124	-0.0282171
-0.6278	-0.0396138	-0.0346029
-0.390431	-0.0707241	-0.489348
-0.550155	0.292818	0.0921221
0.307409	-0.549451	0.0224361
0.0616642	0.0934025	-0.619979
0.40173	0.000753377	0.485296
0.174271	-0.576288	-0.185532
0.585562	-0.195597	-0.125535
0.485762	-0.232129	0.327187
-0.368614	0.497658	0.115588
-0.479725	-0.13417	-0.385697
0.214633	0.501006	0.315952
0.611144	-0.133127	-0.0753681
-0.34898	0.168351	0.49676
-0.269489	-0.0242874	-0.568934
0.0259505	0.52402	0.348754
0.303522	0.50078	-0.232366
0.0161242	-0.147872	-0.612188
0.275699	-0.489304	0.285432
-0.217305	0.442874	0.391843
-0.540263	-0.304003	0.112243
-0.420268	0.357886	0.303632
0.452531	0.115016	0.42295
-0.453932	-0.303941	-0.313792
0.418045	0.250294	0.399363
-0.191087	-0.516782	0.305487
0.386898	-0.362634	0.340157
-0.576226	0.0712585	0.24451
0.610028	-0.0715875	0.140149
0.52887	-0.340835	-0.032065
-0.483189	-0.0366104	0.402602
-0.263905	0.289426	0.493444
-0.383656	0.0203568	0.499293
-0.510149	0.194837	0.314143
0.450104	0.349828	-0.268193
0.256678	-0.426394	-0.38627
0.332048	0.408821	-0.345701
0.412877	-0.0587811	-0.472205
0.00283732	-0.612254	-0.14845
0.451762	-0.406027	0.167192
0.527565	-0.330797	-0.095648
0.305093	-0.398027	0.381304
0.35837	-0.244393	-0.456884
-0.621533	-0.0557822	0.0865157
-0.0718396	-0.431735	-0.453149
0.291852	0.0330802	0.55734
-0.162676	-0.0892277	0.602059
0.25656	0.114447	-0.563896
0.582712	-0.0775902	-0.226555
-0.408086	-0.475339	-0.0664752
0.405447	-0.477619	-0.0662765
0.25881	-0.286629	0.497756
-0.384854	-0.432441	-0.24856
-0.0511818	0.327682	-0.535635
-0.547384	-0.309386	0.0393803
0.455642	-0.022876	0.434473
0.149915	-0.14106	-0.595422
0.0338497	0.617567	-0.119857
-0.374551	-0.209908	0.461032
0.175446	0.581328	0.16786
-0.149571	0.517834	-0.326154
-0.125241	-0.0786086	-0.612401
0.0466462	0.234151	-0.583007
-0.200625	0.565015	-0.19341
-0.111542	0.390267	0.48182
0.57198	0.21588	-0.152101
-0.509782	0.0558157	-0.365933
-0.529752	0.0891322	-0.329118
-0.080294	-0.0308103	-0.624102
0.38622	-0.482002	-0.124128
0.388219	-0.00651099	0.496129
0.38028	0.502108	-0.0131934
0.535533	-0.325853	-0.0626414
-0.27905	-0.537852	-0.172471
0.194189	-0.351933	-0.485112
-0.316524	0.0745175	-0.539592
-0.151216	0.277024	0.545244
0.547201	0.157057	0.269823
-0.563066	0.23808	-0.152233
-0.418651	0.258695	-0.393329
-0.0851055	-0.507617	-0.363293
0.12592	0.610937	-0.0883189
-0.524461	-0.205402	-0.282225
0.250779	-0.130283	-0.56306
0.291238	-0.541845	0.135958
0.179136	-0.154116	0.584002
0.0913437	-0.44025	0.441289
-0.305707	-0.524494	-0.168372
-0.592968	-0.208478	0.0427349
-0.327094	-0.28709	-0.455509
0.395902	-0.254796	0.418618
0.46296	0.394557	0.163991
0.292215	0.239037	-0.504353
-0.0136999	0.537553	0.328251
-0.574779	-0.250898	-0.0598307
0.107107	0.134358	0.606116
-0.0402993	0.628679	0.00625389
-0.308669	0.544665	-0.0704505
-0.249203	-0.577028	0.0428568
-0.555309	-0.256655	0.150534
0.20413	0.117793	0.584257
0.557258	0.13368	-0.261712
0.145517	-0.423515	-0.443125
-0.0882788	-0.470472	-0.409588
-0.271839	-0.560523	0.0939015
0.00936968	-0.616288	-0.130387
-0.41176	-0.464831	0.106233
0.217382	-0.549921	0.217329
0.144631	-0.612776	0.0220881
-0.200852	-0.0557892	-0.594513
-0.000270996	-0.554125	-0.299743
-0.462278	-0.342689	0.256443
-0.0208058	-0.625816	-0.069434
0.596436	0.119384	0.164047
0.0861291	0.617775	-0.0885188
0.557986	0.252076	-0.148354
-0.446025	-0.26128	-0.360132
0.419531	-0.443252	0.156273
-0.294073	0.417827	-0.368567
-0.151517	-0.307993	0.528283
-0.619648	-0.0412165	-0.106005
-0.297536	-0.505941	-0.228902
0.152954	-0.0408652	0.609783
0.545913	0.311129	-0.0455824
-0.325642	-0.424884	0.332161
-0.411267	-0.290891	-0.378341
0.394754	-0.302965	0.386369
0.451031	0.282175	-0.337414
-0.618876	0.111197	0.0390849
-0.397894	0.335008	-0.355457
-0.0320397	-0.475206	0.412374
-0.370898	-0.492262	-0.130431
0.19583	0.569208	0.185885
0.351188	0.501229	0.149453
-0.0474007	0.458608	0.429339
-0.168968	0.494858	-0.351377
-0.00346819	0.629429	0.0265999
0.389182	-0.320967	0.377383
-0.60251	-0.146382	0.111599
0.543294	0.311629	0.0679621
-0.477301	0.249818	0.326611
0.00810351	-0.0720238	0.625817
0.0251678	0.444678	-0.445565
0.0804035	-0.014061	0.62469
0.156093	-0.463329	-0.397317
-0.512427	0.184062	0.316923
-0.210898	-0.555981	0.208103
0.592637	-0.0801367	-0.198139
0.612281	0.0139909	-0.147703
-0.460984	-0.429143	-0.015174
0.0598584	-0.448557	-0.438307
-0.0755783	-0.597419	-0.185146
-0.482721	-0.349185	0.204816
-0.122937	-0.592503	0.17529
0.0172891	0.623218	-0.0905564
0.342696	0.0471216	0.526535
-0.488999	-0.380065	0.115457
-0.613767	0.0976961	-0.103177
-0.505045	0.137675	0.350536
0.275576	0.446873	-0.348228
-0.577567	0.188634	-0.166532
-0.57872	0.179245	-0.172784
-0.407912	0.331729	-0.347079
0.107249	0.0795743	0.615683
0.388442	0.401601	0.291083
0.593426	-0.0910072	-0.190953
0.19484	0.521598	-0.294743
-0.435637	0.374466	0.258641
0.146461	0.591586	-0.159609
0.206134	-0.454583	-0.384399
0.134842	-0.120431	0.603502
-0.208767	0.466789	-0.368
0.466754	-0.419321	0.056669
-0.264022	-0.140859	0.554392
-0.164803	-0.168598	-0.584221
-0.155581	-0.248316	-0.557704
-0.301732	-0.14571	0.533504
-0.139134	0.0537712	-0.612087
0.106166	0.535624	0.314223
-0.0698647	-0.166523	-0.603563
0.600518	-0.126349	-0.142529
0.497376	-0.374177	0.0975137
0.277768	-0.374312	-0.423834
-0.0786468	-0.323747	0.534699
-0.413534	-0.304518	-0.364908
0.0990236	0.578892	-0.227987
0.0847146	0.555663	0.284538
0.151659	-0.597403	-0.130419
0.582127	-0.179393	-0.160766
-0.39511	-0.415135	0.261631
-0.052888	-0.612108	0.139378
-0.326786	0.254305	0.474805
-0.327794	-0.312291	0.438093
0.206365	-0.544788	0.239833
0.350395	0.520948	-0.0523125
0.48188	-0.175314	-0.366001
0.340166	0.398041	0.350358
-0.408621	0.0870828	0.471535
-0.453711	0.39646	-0.184025
0.568283	-0.0610854	0.264996
0.528056	-0.32964	0.0969211
-0.27805	-0.36574	-0.431072
-0.214124	0.454425	0.380196
-0.627254	-0.0587462	-0.00091373
-0.121488	0.300925	-0.539986
0.0804445	0.338163	-0.525428
0.333673	-0.291346	0.447973
0.274782	-0.417312	-0.383726
-0.394537	0.0367907	0.489783
0.15677	-0.425447	0.437399
-0.491218	0.00202782	0.394463
-0.281516	-0.540397	0.160064
0.266136	-0.336947	0.461018
0.429728	0.256508	-0.382671
0.465536	-0.340063	-0.254033
-0.310472	0.356292	0.416609
0.599752	-0.0312419	0.190321
-0.291502	-0.494754	-0.259124
0.029109	0.613524	0.140147
-0.591811	-0.0964724	-0.193269
-0.301242	0.290281	-0.471052
-0.169233	-0.0882047	-0.6004
0.264421	-0.477225	0.31502
-0.299631	0.523593	0.18158
0.365254	-0.202421	-0.471715
-0.0553683	0.248284	0.576359
-0.505146	-0.174768	0.333442
0.170725	-0.598689	0.0965636
0.324507	-0.535572	-0.0689782
0.380444	-0.479404	0.149445
0.392703	0.102334	-0.481884
-0.159717	-0.354363	0.4958
-0.367216	-0.438316	-0.264445
0.1204	0.337761	-0.517997
-0.618526	0.0680239	-0.0984806
-0.450443	-0.237923	-0.370666
-0.608919	-0.111754	0.116741
0.104458	0.390526	-0.483196
0.228111	-0.580469	-0.0890009
0.499589	-0.103568	-0.369574
-0.241876	0.31746	0.487458
-0.302435	-0.513786	0.203609
0.506398	0.340238	0.15716
0.28194	0.462203	-0.322146
0.434131	0.395059	-0.22882
0.526174	-0.177688	0.297437
-0.306974	-0.550116	0.00625917
0.552672	-0.192408	0.233307
0.530771	-0.323722	-0.101916
-0.404799	0.134144	0.463727
-0.428314	-0.229863	0.400762
-0.434785	0.00115312	0.455917
0.344895	-0.527192	0.00397867
0.50303	0.37349	0.066076
0.266074	-0.571055	-0.000557629
-0.263099	-0.553312	-0.146712
-0.494778	-0.389174	0.0252606
-0.0105474	-0.595656	-0.204898
-0.496259	-0.380955	0.0741633
0.308112	-0.54907	0.0221138
-0.55586	0.213514	-0.205744
-0.326459	0.444374	-0.304724
0.169275	0.140406	-0.590366
0.0105515	-0.619693	-0.113002
0.476834	-0.391143	0.128594
0.567619	0.0498295	0.268749
0.338607	0.0911622	-0.523388
0.504654	-0.0665262	-0.371212
-0.156154	-0.406815	-0.454991
0.482753	-0.242727	0.323934
0.383995	-0.103618	0.488581
0.298234	-0.359124	0.423068
0.247077	-0.0646329	-0.575913
0.549888	0.0921668	0.293306
-0.188329	0.367893	-0.475486
0.448914	-0.376539	0.231505
0.323054	0.381822	-0.383077
-0.460945	-0.26256	0.339841
0.324358	0.527134	0.117567
0.295144	-0.501987	0.240414
0.23983	-0.495024	-0.307136
0.177529	-0.573471	0.191087
-0.55724	0.117267	0.269503
0.0214525	0.202985	-0.596017
-0.170415	0.371356	0.479534
0.130799	-0.0588102	0.61346
-0.474244	0.0640978	0.409737
-0.583315	-0.0438732	0.23392
-0.0511049	0.611658	-0.141997
0.332957	-0.52211	0.115934
-0.283258	0.363912	-0.429224
-0.521571	0.0324832	-0.351865
0.304492	0.522215	-0.177415
-0.59083	-0.0297225	0.216647
-0.0684554	-0.0893249	-0.619867
0.00675913	-0.491105	-0.39455
