-0.513283	0.1022	-0.350707
0.477877	0.249678	-0.325874
-0.440662	-0.446932	0.0544812
-0.371303	0.242845	-0.447281
0.430215	0.459003	0.0336298
0.0651257	0.0800474	-0.621491
-0.221109	-0.549767	-0.213933
0.28163	-0.563128	-0.0217052
0.416684	-0.0775206	-0.466117
-0.0971664	0.468697	0.409612
0.408242	-0.449088	-0.168994
0.0867619	-0.315079	-0.538607
0.194884	0.539523	-0.260452
0.311222	-0.423667	0.347198
-0.43778	-0.453015	0.00511868
-0.27431	0.243694	-0.51212
0.225187	-0.319617	0.494
0.0965169	0.522063	0.339167
-0.23614	-0.439334	0.384868
0.623917	-0.00281967	-0.0872873
-0.329859	0.401507	0.356209
0.50044	-0.379403	-0.0501321
-0.240516	0.459869	-0.357173
0.177865	-0.036265	-0.603282
0.440018	0.343448	0.292109
-0.22757	0.151581	-0.56757
-0.139545	0.479087	0.384581
0.588987	-0.126203	-0.184574
0.335484	0.42677	0.319715
0.460551	0.240926	0.356017
-0.274787	0.557008	0.105516
0.36843	0.0524322	0.508341
0.156187	0.528115	0.305942
-0.562855	0.282828	-0.0101267
0.397756	-0.481242	-0.0842367
-0.406572	0.208671	-0.433654
-0.34487	-0.231122	-0.473864
0.0979715	0.561852	0.267627
-0.560297	-0.28208	-0.058289
-0.306082	-0.0352982	0.549516
-0.426061	0.174915	0.429856
0.624947	0.042988	-0.067032
-0.565621	-0.242272	-0.135193
0.0118436	0.554737	0.298372
0.259041	-0.454554	-0.350968
0.258697	0.507703	-0.268727
-0.626694	0.0610222	-0.02076
-0.171474	-0.28338	-0.535904
0.624407	0.0712157	-0.0440945
-0.10541	0.014567	0.620948
-0.309999	0.190143	-0.514438
0.625015	0.0595216	0.052095
-0.151981	0.611214	0.0148117
0.527861	-0.0299857	-0.342584
-0.352128	-0.137198	0.504066
-0.495028	0.0962673	-0.377598
-0.0730659	0.510365	-0.362062
-0.297997	-0.514956	0.207167
0.475412	-0.158712	0.381699
-0.366526	-0.484712	-0.16617
0.545471	-0.291336	0.120351
-0.277177	-0.100506	0.556751
-0.0125655	0.0507973	0.627823
0.00677846	-0.574739	0.257932
-0.221743	0.533494	0.251225
-0.135291	-0.613696	-0.0444304
-0.332383	-0.265571	0.464643
0.340736	0.523187	-0.0841085
0.619557	0.0633987	-0.0950235
-0.38968	-0.128885	0.477952
0.2537	-0.438412	0.374608
-0.273506	-0.0873972	0.560764
-0.491241	-0.205611	-0.336609
0.0602314	-0.320265	-0.539169
-0.140517	0.600147	0.1303
0.587405	-0.171314	0.150022
0.181174	-0.0647394	0.599904
-0.184182	-0.476267	-0.368981
-0.100422	-0.116166	-0.611
0.524121	0.189845	-0.293524
-0.494638	0.0424565	0.387854
0.00714897	-0.603894	0.179335
-0.394926	0.490773	-0.0087178
0.346966	-0.0558084	-0.522876
-0.13304	0.446887	-0.423665
0.0117138	-0.0270463	-0.62931
-0.228473	0.579277	0.0955931
-0.0997364	-0.165922	0.599519
0.53704	0.110294	-0.310359
0.624473	0.0441307	-0.0706135
0.315133	-0.210656	0.503205
-0.117301	-0.204595	-0.584193
-0.42791	0.459174	-0.0543337
0.321863	-0.527594	-0.122266
-0.344063	0.510648	-0.133267
-0.533926	0.00367223	0.334379
0.00728891	-0.60063	0.189975
0.375821	-0.181311	0.472001
-0.381073	-0.00114094	-0.501679
-0.556999	-0.294332	-0.00454198
-0.113103	0.385334	-0.485412
0.113498	0.53069	-0.319979
-0.240716	0.405372	0.417887
0.245225	0.426222	0.393827
0.297125	-0.0877364	-0.548561
-0.223479	0.576978	0.118548
-0.178436	-0.112328	-0.593669
-0.371881	0.0407395	-0.506897
-0.495022	0.32087	-0.221124
-0.594556	0.0596367	0.199616
-0.563382	0.281776	0.0101445
-0.51074	0.119371	-0.348991
-0.41655	0.356813	-0.309953
0.195996	0.315834	-0.508659
0.443359	-0.446822	0.0261257
0.492071	0.371044	0.130737
0.555792	0.148151	0.256996
-0.334416	0.206048	0.492554
-0.200637	-0.271796	0.531763
-0.150631	-0.105423	0.602575
-0.0416429	-0.406866	-0.479193
-0.115643	-0.607063	-0.122481
-0.610821	-0.0276571	-0.151767
0.106587	-0.580366	-0.220714
0.0982978	-0.381685	0.491481
-0.0707535	0.59507	0.194386
0.093851	-0.608773	0.132239
0.127638	-0.592262	0.172724
0.469543	0.0579746	-0.416014
0.238017	0.515957	0.272095
-0.467907	-0.327539	0.26586
0.120371	-0.532333	-0.314693
0.248274	-0.313063	-0.487084
0.138773	-0.251451	-0.560727
0.191862	-0.543652	-0.25403
0.147783	-0.5613	0.244955
-0.328222	0.376807	0.383649
-0.591647	-0.214176	-0.0313383
-0.448507	0.431275	-0.0987073
0.41826	0.471103	0.00454195
-0.127663	-0.45067	0.421306
0.281418	-0.457634	-0.329051
0.5736	0.221467	-0.137243
0.203339	-0.58212	0.129188
-0.601594	-0.180287	0.049808
-0.627927	-0.0510462	-0.00154187
0.325407	0.410189	0.350364
-0.376866	0.0342866	-0.503683
0.104748	-0.431114	0.44729
0.181446	-0.251041	0.548594
-0.340804	0.344804	-0.402322
0.41524	-0.471266	-0.0488295
-0.584347	-0.0754795	-0.223027
0.128978	0.445052	0.426841
-0.325405	-0.293325	-0.452739
0.532774	0.33623	-0.00123857
0.170976	-0.540046	0.275712
0.172481	0.0786693	-0.600801
-0.222734	-0.215897	-0.548341
0.591942	-0.189487	-0.102956
-0.313443	0.418732	0.351166
0.29548	-0.00713412	0.556364
-0.506872	0.228987	0.29588
-0.197908	0.575345	0.163432
0.398559	-0.48073	-0.0833625
-0.349748	0.364228	0.376715
-0.0844341	-0.531532	-0.327483
0.477862	-0.294639	-0.285894
-0.0330165	0.610199	0.153188
0.354618	-0.470863	0.222338
-0.572633	0.253189	-0.069905
-0.390182	0.487839	-0.0816756
0.267946	0.55903	0.112207
0.583037	0.225652	-0.0777767
0.156603	0.27973	0.542334
-0.509206	-0.260937	0.263669
-0.0700429	0.611422	0.134749
0.201676	-0.596261	0.0264637
0.210207	-0.585792	-0.0977794
-0.121839	-0.480929	0.388282
0.196789	-0.430007	0.416255
-0.0975356	0.611242	0.117345
0.579125	0.232483	-0.0864093
0.414299	-0.473858	-0.0267422
-0.575114	0.103761	-0.235325
-0.444073	-0.400638	-0.19796
0.20079	-0.0177988	0.596881
-0.614949	-0.0218102	0.135135
-0.49022	0.275663	-0.283892
0.547986	0.217544	-0.222006
-0.0761807	0.620054	0.0814184
-0.348635	-0.239904	-0.46669
-0.0502706	0.0897421	0.621546
0.386675	0.34077	0.362296
0.332526	0.261509	-0.46684
-0.524482	0.149474	0.315398
0.239335	0.532202	-0.237445
-0.0180259	0.352776	0.521656
0.0323257	-0.144789	0.612284
-0.227895	0.0932213	-0.579891
-0.107975	0.17217	-0.596321
0.0856652	-0.319067	-0.536431
-0.0281655	-0.324298	-0.539386
-0.418195	0.464385	0.0797472
0.221826	0.172274	0.563928
-0.242403	0.578148	-0.0623318
0.312251	-0.544495	-0.0540759
-0.197655	0.588432	-0.107609
0.216062	-0.049645	0.589705
-0.439824	-0.353389	0.280305
-0.436982	0.305613	-0.335481
0.618104	0.119212	0.0252274
0.425466	-0.45589	0.089683
0.0815141	-0.227462	-0.581822
0.587866	-0.201914	-0.102687
0.0633587	0.449311	-0.437041
-0.218182	0.555021	-0.203098
0.302618	-0.430335	-0.346603
-0.481508	0.16898	-0.369453
0.192322	-0.468257	0.37503
0.247987	0.536446	-0.218239
0.477116	-0.0939109	0.400551
0.60667	0.0780465	0.150863
-0.155433	0.433654	-0.42975
-0.078409	-0.43049	-0.453244
0.202631	0.422928	-0.420681
0.256297	0.16998	-0.549835
0.396515	0.0762234	-0.483596
-0.00206258	0.628966	0.0360209
0.577624	-0.235827	-0.0873879
0.0723143	-0.623303	0.0562473
0.476544	0.247885	0.329179
0.476255	0.208852	-0.355614
0.512144	0.103038	-0.352124
-0.416225	0.40955	0.236486
0.182419	-0.544672	0.258759
0.591	0.215067	0.0369462
-0.110101	-0.600042	-0.157248
-0.462361	0.189532	0.383666
-0.592972	0.2121	-0.0172504
0.482206	0.330116	-0.235374
0.460999	0.102153	-0.417067
-0.305357	0.176399	0.522054
0.428962	0.450742	0.0986038
0.448183	-0.440379	0.0458056
0.206658	0.238117	-0.545429
0.0235623	0.0907806	-0.62298
0.396561	0.221574	-0.436514
-0.282217	-0.139062	-0.545816
-0.521515	-0.325237	0.138358
0.0714689	0.371437	0.503812
-0.128189	0.155482	0.596903
-0.579782	-0.197017	0.148114
0.052788	-0.0215966	-0.627413
-0.485681	0.353164	-0.190497
-0.339655	0.191816	0.494713
-0.0932509	0.621459	-0.0446378
0.603075	0.177899	0.0394067
0.176109	-0.57807	0.178103
0.0460426	-0.520532	-0.35189
0.610553	-0.147077	-0.049932
0.530561	-0.326254	0.094673
0.00651817	-0.520474	0.354914
-0.524118	0.338331	0.0879373
-0.460956	0.406589	-0.138219
0.228341	0.549476	0.206972
0.473566	0.414984	0.0205722
0.304372	-0.427704	0.34832
0.359913	-0.515135	-0.0447099
-0.266915	0.516875	-0.241861
0.269209	0.49421	-0.283166
-0.417539	0.395206	-0.257631
-0.413313	-0.210274	0.426447
-0.208961	-0.486191	-0.341839
-0.299837	-0.247662	-0.495642
-0.332051	-0.345888	-0.408661
-0.3173	-0.246473	0.485255
0.558121	-0.291062	0.0261537
-0.102995	0.617286	0.0724556
-0.598558	-0.0319435	0.193928
0.538517	0.187189	0.268067
0.432416	0.139275	0.436485
0.14339	0.404604	0.461123
-0.124343	-0.318204	-0.529325
-0.332581	0.299382	-0.443464
-0.581901	0.0273394	-0.239882
-0.390341	0.159692	-0.468008
-0.516906	-0.248339	0.260837
-0.0218876	0.567455	-0.272792
0.55996	0.126271	0.259615
0.0923393	-0.614487	-0.103822
-0.305374	0.550845	0.0147066
-0.228436	-0.0684266	0.583125
-0.389702	0.164684	0.46681
0.242299	-0.426674	-0.395147
0.0268289	-0.58351	-0.236
0.185842	0.0544811	-0.599495
0.275335	-0.44175	0.354892
-0.363538	-0.0902842	0.506546
-0.543572	-0.037602	-0.316253
-0.388448	0.324371	0.375222
-0.484981	-0.326662	0.234489
0.302591	-0.125346	0.53817
0.0321928	-0.595904	0.201896
0.0565712	0.388998	0.492322
-0.283673	0.217503	0.51877
0.351822	0.278714	-0.442086
-0.0106961	0.311265	0.547631
0.518395	-0.349486	-0.0776234
-0.538125	-0.259189	0.200358
0.272873	0.562249	-0.0794736
-0.0236482	0.475927	0.41211
-0.318541	-0.0980662	0.534616
-0.0765196	-0.339319	-0.525269
-0.110283	-0.394188	-0.478909
0.337359	0.0189763	0.531723
0.334874	-0.523442	-0.103767
-0.551964	-0.0735294	-0.294667
0.10496	-0.13999	-0.605216
-0.0569765	0.624597	-0.0594303
0.581632	0.238225	0.0430467
0.145718	-0.609061	-0.0686376
0.124514	-0.617521	-0.0080422
-0.339752	-0.263584	0.460426
0.268228	-0.56744	0.0544607
0.347177	0.523602	0.046999
0.519051	-0.0788244	0.348242
0.564113	0.0578685	0.274459
0.0564184	0.409111	-0.475758
0.149097	0.59092	-0.159638
0.00974185	-0.208464	0.594431
0.500348	-0.3279	0.197569
-0.353676	-0.191245	0.485014
-0.0709458	0.473641	-0.409306
-0.497482	-0.217163	-0.319768
0.593801	0.198432	0.0701824
0.0447665	0.225708	-0.586474
-0.17795	0.146922	0.586215
0.233911	0.28639	0.510065
-0.458246	-0.307625	-0.303772
0.0415488	0.455623	0.433107
0.557675	0.133339	-0.260996
-0.454547	-0.052525	-0.433046
0.584893	0.0782445	0.220631
0.246095	0.579455	-0.0238702
0.0808053	-0.602871	-0.164064
-0.0275084	0.476426	0.411292
0.21256	-0.588571	-0.072818
0.147762	0.191623	0.581676
-0.499687	-0.2436	-0.296433
-0.238758	-0.574392	0.099843
0.330697	0.376645	-0.381678
-0.0390597	0.532179	0.334903
-0.112926	0.364774	-0.501086
-0.233257	-0.419392	0.408168
-0.484371	0.297478	-0.271647
-0.0377043	0.0961177	-0.621482
-0.493735	0.376702	-0.10593
-0.114797	0.618997	-0.023758
-0.196253	-0.598321	-0.0199264
0.600663	-0.0672503	0.177713
0.0207392	0.190986	0.599995
0.442159	0.24759	-0.374292
0.601241	-0.109786	0.152827
-0.504544	-0.278462	-0.254548
0.04093	0.161176	0.607657
-0.150364	-0.0120348	0.611674
-0.348204	-0.4726	0.2287
-0.195777	0.0960158	-0.59106
-0.470503	0.276979	-0.314341
0.154629	-0.163967	0.588307
2.04221e-05	0.609282	0.160234
-0.372194	0.307557	0.404698
0.509993	-0.197588	0.312676
0.388174	-0.154401	0.471574
0.288221	-0.544364	-0.132275
0.248651	0.492739	0.303778
-0.412448	-0.269692	0.392495
0.470224	0.418701	0.0218848
0.0890767	0.465197	-0.4154
0.323216	-0.363836	-0.400068
0.543008	-0.299592	0.110847
-0.433432	-0.370075	-0.268479
0.169094	0.583714	-0.166087
-0.365417	0.469883	0.206351
-0.264686	-0.174588	-0.54439
0.218998	0.160594	0.568462
-0.580599	0.191284	-0.152367
0.113516	-0.45302	0.422832
0.334392	0.306352	-0.437299
-0.157042	-0.220227	0.56898
0.458214	-0.123654	-0.414307
-0.0108316	-0.132773	-0.615755
0.138682	-0.604307	0.111715
-0.59588	-0.195016	0.0616123
-0.154538	-0.197004	-0.578107
0.185516	0.451924	0.397804
-0.295812	0.325106	-0.451333
-0.218171	-0.575446	0.13477
0.379687	0.462117	-0.197953
0.511894	-0.101165	0.35303
-0.52916	-0.334003	-0.0730209
0.595306	0.0425915	0.201733
-0.596127	0.196112	-0.0554342
0.0842883	0.470747	-0.410113
0.526437	-0.306163	0.161334
0.123278	-0.572076	-0.233306
0.553003	-0.0663187	-0.29443
0.517591	0.220685	-0.283368
0.445368	-0.316563	0.313584
0.212114	-0.170444	-0.568205
-0.134141	0.543988	-0.288067
0.143572	-0.515869	-0.331913
-0.373041	-0.380015	0.336643
-0.472713	-0.193229	-0.368924
0.506233	0.29607	-0.230154
-0.0515747	0.420962	-0.465866
-0.0485162	0.287882	0.558274
0.390701	0.340057	-0.358628
-0.39507	0.315607	0.375782
-0.134717	-0.608515	-0.0919822
-0.190212	-0.567788	0.195796
-0.323986	-0.454808	-0.291689
0.16632	-0.303768	-0.526273
0.219035	0.515754	0.28796
-0.0688507	0.527339	0.337747
-0.359111	-0.114147	-0.504886
0.0747762	-0.0629255	-0.622374
0.416754	0.416642	-0.222767
-0.204931	-0.0567362	0.59303
-0.163399	0.477694	0.376841
-0.3788	0.245507	0.439474
0.345937	0.00529976	0.526497
-0.446328	0.382385	-0.226875
0.353814	0.51655	0.069943
0.45526	0.041508	0.433492
0.462659	-0.14128	0.403593
-0.536616	-0.305737	0.124371
-0.0370591	-0.61314	-0.139948
-0.566416	-0.274022	0.0313881
-0.613	0.0912155	0.113184
0.295746	0.0896365	-0.548999
-0.380421	-0.294516	0.406744
-0.321924	-0.522606	-0.141943
0.0980552	0.498301	-0.372802
-0.472199	0.216427	-0.356494
-0.231268	0.0819875	0.580253
-0.396693	-0.0889705	0.481268
-0.048579	-0.162167	0.606829
0.217056	-0.126143	0.577819
-0.110015	-0.548003	-0.29067
0.528946	-0.133805	0.31498
0.358062	0.299908	0.422785
-0.198766	-0.429734	-0.415597
-0.0717244	-0.190507	-0.596207
-0.337162	0.448423	-0.286598
0.0937794	-0.484301	-0.391865
-0.249464	0.282947	-0.504587
-0.0484004	-0.597904	-0.192531
-0.302454	-0.477182	-0.278782
-0.578757	0.172765	0.179143
0.172724	-0.343847	0.498834
-0.541625	0.316028	0.0605633
0.404094	-0.0440409	-0.48132
-0.213181	-0.523121	0.278924
-0.165022	0.111456	-0.5977
0.596679	-0.0647814	-0.191513
0.562676	-0.243885	-0.144278
0.602303	0.082525	0.16529
0.446383	-0.443013	0.0371691
-0.0827086	-0.419749	-0.462461
-0.357586	0.476769	-0.204263
0.282895	-0.301036	0.475655
-0.629556	0.0174318	0.0159829
0.564256	0.262464	-0.0981205
-0.177559	-0.376105	0.473199
-0.0961143	-0.312824	0.538334
0.436864	-0.320949	0.321001
0.118196	-0.170995	-0.594719
0.446371	0.263624	-0.357988
-0.0983487	-0.586769	0.207194
-0.549244	0.233707	0.201523
-0.398153	0.230907	-0.430182
0.300402	-0.351035	-0.428291
-0.619403	-0.106717	-0.0430226
0.337764	-0.33565	-0.412497
0.271834	0.224738	-0.522014
0.312801	0.197857	-0.509812
-0.555535	-0.263079	-0.138096
-0.0992666	0.607504	0.134109
0.393794	-0.278874	-0.405038
0.553488	-0.15039	-0.260642
0.232956	0.57371	0.116141
0.156716	0.599808	-0.112116
-0.0147812	-0.576252	0.254196
-0.266571	-0.37881	0.427016
-0.456277	-0.130976	0.414194
0.617761	0.1134	0.0491134
0.379198	0.168927	-0.473891
0.6212	-0.0836882	0.0633001
0.455433	0.411707	-0.141343
-0.442369	-0.356776	-0.271884
0.435579	-0.445565	-0.0929681
0.503472	-0.327719	0.18978
-0.00790137	-0.44564	-0.445244
-0.151001	-0.00872729	0.611574
-0.259544	0.570715	-0.0618165
-0.438614	0.0488574	-0.449589
-0.0775828	0.393836	0.485566
-0.072493	-0.188909	0.596622
0.539056	0.125143	-0.301094
0.349874	0.425229	0.306054
0.30523	-0.32348	-0.446201
0.179475	-0.481757	-0.364142
0.478055	-0.391359	-0.123298
0.364532	-0.506939	0.0838365
0.40945	-0.177527	0.444674
-0.581165	-0.230659	-0.0770946
0.290513	0.553368	-0.0792831
-0.148946	-0.603632	-0.101703
0.327193	0.134428	0.521319
0.471325	-0.1413	0.39343
-0.0256344	0.510599	-0.368145
-0.431938	0.386996	0.246096
0.172104	-0.155647	-0.585708
-0.42646	0.349843	-0.304372
-0.24209	-0.10854	-0.571412
0.625505	-0.0461657	0.0592649
0.332271	-0.0479532	-0.533101
-0.0703916	0.450502	0.434733
-0.30706	0.447503	-0.31993
-0.253392	-0.0711759	0.572387
0.189888	0.191041	-0.569514
-0.325294	-0.486169	0.233931
-0.0924214	0.370116	0.501371
0.537704	-0.206626	0.255108
-0.608185	0.0609794	-0.15262
0.105556	0.404984	0.470899
0.153001	-0.591506	-0.153659
0.427892	0.348268	-0.304167
0.40876	0.378647	-0.29401
0.5114	0.0856919	0.357809
-0.544975	-0.227879	-0.219028
0.554851	-0.2957	-0.0400267
-0.0781844	0.127353	-0.61202
-0.415912	0.377896	0.2848
-0.1061	0.618553	0.0550964
0.0293865	0.220052	-0.589588
0.283819	-0.412924	0.381891
-0.5054	-0.209196	-0.312582
0.00523263	-0.413772	0.475042
0.194757	-0.33738	0.495121
-0.16611	0.384196	0.470851
0.15991	0.411736	-0.449224
0.14747	0.495897	-0.359497
0.272684	-0.540036	-0.175798
-0.134971	0.590358	0.173666
-0.506613	-0.36969	-0.0597704
0.0603066	0.617548	0.109075
-0.179871	0.281161	0.534317
0.395934	0.382116	-0.306796
0.186033	0.596955	0.077051
-0.586963	-0.228716	-0.00796632
-0.175308	0.173858	-0.579604
-0.313378	-0.462978	-0.290424
-0.42204	-0.464616	-0.0539898
0.148931	-0.26548	-0.551579
0.199832	0.578227	-0.1504
-0.453042	0.116679	-0.421946
-0.383542	0.481844	-0.132748
0.264419	-0.528084	0.219341
0.155263	0.307493	0.527486
-0.0879639	0.467244	0.413335
-0.549133	0.247555	-0.184577
-0.166479	0.411509	-0.44704
-0.585657	-0.130962	-0.191714
0.403054	-0.172556	-0.452406
0.526183	0.267833	0.219766
0.396583	0.395432	0.28854
0.428753	0.383734	-0.256553
0.190588	-0.513191	-0.311788
-0.394536	-0.480483	-0.101868
-0.110175	0.49327	0.376094
0.572417	-0.242762	-0.101517
0.241311	-0.12798	0.567706
-0.384157	-0.0675557	-0.494732
-0.293388	0.530244	0.172234
0.281104	0.46092	0.324705
0.346612	-0.51237	-0.119322
0.0687184	0.323751	0.536063
-0.136455	-0.131173	-0.600894
-0.581233	-0.0655826	0.234023
-0.23063	-0.0143612	0.586092
0.378218	0.493562	-0.101233
-0.424385	-0.439609	-0.153433
0.577791	-0.167769	-0.186846
0.0792272	0.624569	0.0231621
0.183987	0.380271	-0.467379
-0.032308	-0.248536	0.578002
0.4367	-0.118768	0.438278
0.272134	-0.300378	0.482303
0.0169602	-0.523461	-0.350144
0.292545	0.393774	0.395297
0.230225	-0.153371	0.566016
0.389699	0.171739	0.464264
-0.262378	0.524898	-0.229216
0.327248	-0.517146	-0.149563
0.106519	0.523315	-0.334209
-0.379859	-0.444989	0.233648
-0.496732	0.33265	-0.198749
-0.0692163	-0.322429	-0.536795
-0.0233967	0.500482	0.381929
-0.352055	-0.0330534	-0.521407
0.377662	-0.151953	-0.480813
0.355039	0.472658	-0.217811
0.0100055	0.561636	0.285245
-0.289825	0.111369	0.548177
0.172674	-0.559854	0.231617
0.521644	0.123733	0.330874
-0.549662	-0.302228	-0.0585633
0.275525	0.235091	0.515478
-0.24543	-0.3635	0.452252
0.313239	-0.0163988	-0.546363
0.172407	0.192558	-0.574541
0.130735	-0.191311	0.58584
-0.0248146	0.196093	-0.59819
0.0270381	0.580942	-0.24223
-0.221878	0.170896	-0.564327
0.0278133	0.251458	-0.576971
0.413033	-0.283513	-0.382
0.452816	0.237684	0.367918
0.566318	0.27548	0.0171748
0.554985	0.248368	-0.164939
0.0581055	0.627219	0.0109632
0.347694	-0.344133	-0.396965
0.186417	-0.0331044	-0.600877
0.439453	-0.405457	-0.198459
-0.16846	-0.548513	-0.260106
-0.339562	-0.500747	-0.175643
0.287287	0.331433	0.452237
0.613221	-0.0782191	0.121418
0.266691	0.546273	0.165414
-0.62125	0.0426739	0.0955367
0.223546	-0.0985688	-0.580699
-0.500352	0.330555	0.193083
-0.482225	-0.289063	0.284256
-0.0304156	-0.62912	0.0135036
0.308002	0.541902	0.0915227
0.107014	0.3933	-0.480378
-0.576377	0.0852474	0.23963
-0.425488	0.43034	0.175123
-0.267981	0.0836568	0.563992
-0.0335862	0.558535	-0.2895
-0.152329	0.414795	0.449044
-0.0898305	0.350177	0.515952
0.185101	0.550481	-0.244148
-0.391718	-0.444815	-0.213534
-0.195612	0.149748	-0.579838
0.165528	-0.417513	0.441796
-0.548	-0.227974	0.211244
0.0582634	-0.449074	0.437993
0.102939	-0.262058	-0.563586
0.293003	-0.384448	0.404041
-0.391994	0.42413	-0.251702
-0.196047	-0.596827	-0.0475735
0.327531	-0.25197	-0.475536
0.23059	0.583044	0.0615461
-0.298828	0.113941	-0.542788
0.4663	-0.121237	-0.405914
0.424262	-0.272017	-0.378033
0.0356282	0.411579	-0.47564
-0.556013	-0.296224	-0.000884858
-0.298571	0.44239	-0.334733
0.493026	-0.156646	-0.359565
-0.163342	-0.551604	-0.256812
0.488784	0.392872	0.0603519
-0.559968	0.219923	0.187001
0.348059	0.422044	-0.312464
0.255288	-0.135026	-0.559907
0.379245	0.408796	-0.293186
-0.614902	-0.0722826	0.116495
-0.311104	-0.445181	-0.319263
0.456354	-0.426773	-0.0806614
-0.495304	0.387869	0.0336286
-0.209668	0.371049	-0.463963
0.562516	-0.152867	-0.238972
0.00419164	-0.629974	0.00384395
0.390005	0.361273	0.33805
-0.201066	-0.14788	0.57845
-0.629621	-0.0218225	0.00116381
-0.21925	-0.0891786	-0.583846
-0.0356778	-0.388382	0.494759
-0.0751472	0.317254	0.539076
-0.0683797	-0.622841	0.0655264
-0.537282	0.0762389	-0.320024
-0.0544019	-0.621696	0.0862225
-0.17445	-0.107128	0.595811
0.613591	-0.124301	0.0703947
0.518045	-0.278077	-0.22628
-0.149119	0.546142	-0.276391
-0.0608784	-0.246854	0.576417
-0.126528	0.477596	0.390887
-0.0405473	-0.224586	0.587211
0.57195	-0.233063	0.124317
0.0383968	0.356372	-0.518097
0.533388	0.333341	0.0357886
-0.624663	-0.0812365	-0.009865
0.43305	0.44961	-0.0849615
-0.345854	-0.143023	0.506783
0.62775	-0.0341723	-0.0407661
0.168745	0.434149	-0.424193
-0.328049	-0.137875	0.51988
0.120699	0.60854	0.109593
-0.0444002	-0.425518	0.462453
0.294334	-0.416623	-0.36972
-0.32494	0.41932	-0.33983
0.271321	0.566559	0.0479126
0.414928	0.169661	-0.442663
0.207407	-0.594636	-0.0170257
0.557867	0.0304413	0.291132
-0.38317	0.425426	-0.262856
0.469753	-0.317592	-0.274531
0.61392	-0.126972	-0.0622919
0.57971	-0.202891	0.140256
-0.609932	0.0375765	-0.153201
0.251789	0.555312	-0.158528
-0.33096	-0.526343	0.101627
0.018055	0.577747	0.250565
0.446123	0.318705	-0.310324
-0.186813	-0.265502	0.539917
-0.418303	0.391185	0.262484
0.201202	0.0387515	0.595748
0.396179	-0.0250267	-0.489199
0.0515916	-0.0945544	-0.620724
-0.0282572	-0.625339	-0.0710787
-0.554984	-0.111817	-0.276388
0.0131321	-0.62677	0.0623489
0.324235	0.472762	-0.261282
0.0210223	0.0112333	-0.629549
-0.443382	0.398575	-0.203593
0.489152	-0.306072	0.252885
0.589736	0.0747557	0.208621
0.323544	-0.0211987	0.540157
0.175608	-0.570332	-0.201949
-0.0187401	0.529752	0.340458
-0.0319973	-0.0200429	0.628868
-0.123871	0.146094	-0.600177
0.558866	-0.231941	0.175421
0.511636	-0.259373	-0.260489
-0.460583	0.273735	-0.331409
-0.0592867	0.559688	0.283081
0.175282	0.133176	0.590288
-0.128457	-0.115968	0.605764
-0.309782	0.484551	-0.257188
0.614927	0.117235	0.0708585
0.565841	0.187598	0.203792
0.584567	-0.233704	-0.0237519
-0.494328	0.13054	0.368102
-0.440612	-0.442302	-0.0844389
-0.190404	0.531633	-0.279308
-0.278577	0.499666	-0.263873
-0.404204	0.204739	-0.437722
-0.409372	-0.350414	0.32638
0.252381	-0.354865	-0.455274
-0.388351	0.324088	0.375568
-0.505498	-0.100906	-0.362201
0.327576	-0.0615383	-0.534609
0.302141	-0.0494797	-0.550602
-0.423693	0.0790936	0.459487
0.577327	-0.176962	-0.179661
-0.0737497	0.612543	0.127485
-0.595776	0.199558	0.0461231
0.577286	0.141171	-0.209072
0.474851	-0.0520671	0.410737
0.358018	0.516975	0.0382097
-0.145389	-0.52288	-0.319935
-0.158578	0.550108	-0.262935
-0.0404031	-0.207062	0.593627
-0.130148	-0.597013	-0.153417
0.33813	0.0173512	0.531288
-0.0891123	0.556048	0.282435
-0.0515705	0.397655	0.485913
-0.614838	0.111782	0.079867
-0.00956182	0.600104	-0.191529
-0.0129431	0.586629	0.229343
0.0647371	0.607873	-0.152314
-0.176743	0.595984	0.102296
0.270868	0.282158	-0.49388
0.294403	0.542155	0.127651
0.359974	0.187385	0.481877
-0.236015	0.41566	0.410394
-0.37924	-0.49332	-0.0985499
0.199289	-0.597286	-0.0208058
-0.573867	0.246189	-0.0834702
0.0100496	0.06326	0.626735
-0.268346	-0.239112	-0.517413
0.0804444	0.172711	-0.600499
0.365627	0.0872924	0.505566
0.305516	0.0311668	0.550081
-0.207214	0.0955482	0.587225
