0.523539	-0.32102	-0.140547
-0.376615	-0.31011	0.398614
-0.274319	-0.559261	0.0942156
0.139392	0.552556	0.26861
0.348407	-0.0856385	0.51786
-0.0815858	0.304057	-0.545704
-0.0335211	-0.589396	-0.219975
0.599468	0.120629	0.151615
0.144955	-0.60453	-0.102137
0.388806	0.473552	-0.146556
0.336026	-0.505542	0.168565
-0.308221	-0.252351	-0.488076
0.181358	-0.409296	0.443267
-0.0421987	-0.326243	0.537294
0.377276	-0.497878	-0.0817349
-0.492689	-0.29321	-0.261123
-0.140707	-0.133587	-0.59938
-0.530064	0.265989	0.21256
0.213467	-0.55078	-0.219027
-0.00345506	-0.442264	0.448654
-0.24764	0.103127	0.570034
-0.0380335	-0.0294321	0.628162
0.518787	0.154885	-0.322134
-0.302602	-0.53718	0.129501
-0.621929	0.0529704	0.0854299
-0.242211	0.14682	-0.562742
-0.624588	0.0152547	-0.080977
0.558146	0.0984704	-0.275094
0.575033	0.243681	-0.0828095
-0.146657	0.607731	-0.0778115
-0.201997	0.595888	0.0318536
0.0484731	-0.211052	0.591614
0.616062	-0.0830762	0.102301
0.125337	-0.16355	0.595351
0.209997	-0.545514	-0.234981
-0.589545	0.221531	0.0161486
0.146504	0.192792	-0.581608
0.361037	0.364496	-0.365644
-0.397258	-0.153815	0.464141
0.229064	-0.58647	-0.021976
0.248962	-0.573113	0.0803729
0.542742	0.295777	0.121847
0.300108	0.458038	-0.311507
0.336141	-0.512262	-0.146619
-0.555218	0.0236449	-0.296772
-0.562629	0.0855258	-0.270249
0.410291	-0.00150035	-0.478079
0.222892	0.559356	-0.185311
0.0945154	-0.478917	-0.398252
-0.349015	0.464994	0.24263
-0.0570048	0.510609	-0.364594
-0.504785	-0.338593	-0.165672
-0.626128	-0.017641	-0.0674743
-0.162951	0.227986	0.564242
0.0122015	0.094978	0.62268
-0.498035	0.131953	-0.362559
-0.55862	0.270702	-0.107536
-0.0269973	-0.622523	0.0929343
-0.176705	0.603957	0.0301769
0.0181288	-0.471148	0.417841
0.579897	0.104142	-0.223102
-0.228737	0.500252	-0.307127
-0.347037	0.449007	0.273602
0.302408	-0.473808	-0.284526
-0.37513	-0.0548683	-0.503157
-0.417944	0.0687325	-0.466368
-0.271444	-0.338338	0.456887
0.564993	-0.118541	-0.25225
-0.141923	0.593881	0.155123
0.116344	-0.402662	-0.470348
0.363824	-0.475847	-0.195197
0.212469	-0.0413501	-0.591648
-0.456895	-0.212636	-0.378065
0.571374	-0.260846	-0.0488941
-0.0818445	0.366862	0.505583
-0.0369651	0.396559	0.488134
0.464359	0.297378	0.304691
0.305033	-0.372782	-0.406064
0.0352489	-0.263745	-0.571048
-0.589498	0.151068	0.163003
-0.161071	-0.523452	-0.311374
-0.512561	0.140231	0.338403
0.290319	0.360854	-0.427082
0.235071	0.145611	-0.566073
-0.165295	-0.485808	-0.365469
-0.352893	0.071346	-0.516987
-0.530592	-0.306159	-0.1471
-0.0470465	-0.0260899	0.627699
0.177579	-0.190838	0.573539
-0.374241	0.500746	-0.0780853
-0.471157	0.302191	0.289122
0.171451	0.255217	0.549881
-0.412626	-0.0110899	-0.475937
-0.487433	-0.330165	0.224276
-0.205759	0.0411506	0.594028
-0.165014	-0.236902	0.559954
-0.28052	0.463855	-0.32101
0.145447	-0.546626	-0.277391
0.450351	0.322249	-0.300399
0.333637	0.510819	0.157002
-0.225828	0.224845	0.543458
0.51094	-0.324876	0.174057
-0.0222046	0.518783	0.35675
-0.331249	0.380583	0.377267
-0.599332	-0.133272	-0.141208
-0.0543738	0.492871	-0.388615
-0.0994412	0.525489	-0.332976
0.532342	0.327998	0.0769984
-0.122312	0.607711	0.112372
-0.0899106	0.418465	-0.46228
-0.363171	0.0229762	0.514275
0.295298	0.0880949	0.549489
0.429094	0.258773	0.381857
-0.0591406	0.461018	0.425282
0.247083	-0.391854	-0.426967
0.127651	0.23518	0.570347
-0.236989	-0.339314	-0.474976
0.532801	-0.24242	0.23293
0.0654039	0.358386	0.513986
-0.110523	0.195685	0.588551
0.584493	0.134022	-0.193149
0.100639	0.100516	0.613733
0.50983	0.0203202	-0.369541
0.378349	-0.140369	-0.483785
0.54317	-0.236686	-0.214117
0.243281	0.575771	-0.0787538
-0.587975	-0.131705	-0.183954
-0.0104305	0.629506	-0.0226623
0.49127	-0.205656	0.33654
-0.103099	-0.0490158	-0.619571
-0.057584	-0.48571	-0.397077
-0.0997242	-0.619592	-0.0553226
0.626785	-0.052171	0.0363147
-0.215154	0.580157	-0.118436
-0.480514	0.10958	-0.392427
0.305307	0.42944	-0.345353
-0.486861	-0.211621	-0.339239
-0.332258	0.4113	-0.342545
-0.422675	0.0890842	-0.458596
-0.465611	-0.394578	-0.15625
-0.1747	-0.539118	-0.275194
0.47244	0.0671507	0.411329
0.435914	0.307487	-0.335158
-0.12392	-0.564678	-0.250364
-0.361864	-0.178883	-0.48369
-0.258301	-0.324263	0.474378
-0.35676	0.364095	-0.370212
-0.0154302	-0.467759	-0.421738
0.0658239	-0.625979	-0.0267859
-0.205645	-0.165275	-0.572096
0.278162	0.403649	0.395719
-0.527878	-0.217875	0.266038
-0.392804	-0.271056	0.411259
0.107672	-0.592784	0.184159
0.303193	0.0570404	-0.549291
-0.475446	-0.294327	0.290211
-0.0724622	0.604767	0.160953
0.225776	0.489342	0.326298
0.00913502	-0.281786	-0.563394
0.307696	0.535633	0.123773
-0.574543	0.250028	-0.0654664
-0.195741	-0.409972	-0.436473
-0.19987	-0.121232	-0.585025
0.221835	0.577552	-0.118842
0.448718	0.327955	0.296644
-0.0864865	0.446581	-0.435874
-0.23149	-0.110041	-0.575503
0.190184	0.455759	-0.39117
0.492546	0.330123	-0.212878
-0.368761	0.134694	0.49272
0.408052	0.116666	0.465599
-0.612428	0.067151	0.131617
-0.523772	0.321169	-0.139332
0.605616	-0.128561	0.116623
0.357078	0.506291	0.114301
0.0619228	0.0893865	0.620545
0.0500339	0.374847	-0.503872
-0.494161	-0.137012	0.365968
-0.198683	-0.142427	-0.580637
-0.564673	-0.233945	0.152691
-0.431346	0.448587	-0.0980294
0.0840161	-0.620729	0.0673542
-0.464909	0.421297	-0.0571712
-0.558402	0.0232466	0.29077
0.25731	-0.356134	0.451509
-0.101311	0.179205	0.595417
-0.411272	0.462639	-0.117132
0.203899	0.572116	-0.167359
0.45931	0.30533	0.304479
-0.465238	-0.41405	0.0949557
-0.324787	-0.368577	0.394416
-0.224954	0.220607	-0.545553
-0.198738	0.289397	-0.523118
0.285619	0.210616	0.520541
0.532218	0.0233056	-0.336304
-0.0418545	-0.104578	-0.619848
-0.393764	-0.301205	-0.388749
-0.342327	-0.43379	-0.302553
0.356128	0.123957	0.504685
0.205607	-0.329951	-0.49574
0.123817	0.582909	-0.204418
0.547453	-0.301768	-0.0783037
-0.602251	-0.180475	-0.040286
0.529473	0.140316	0.311239
-0.0865715	-0.170066	0.600402
-0.488235	-0.163514	-0.363028
-0.0214421	0.604458	-0.176267
0.269675	-0.0704151	0.564993
-0.318564	-0.0242367	0.542982
0.332344	-0.00281527	-0.5352
-0.593784	-0.0660234	-0.199903
0.438126	0.38413	0.239561
-0.27635	-0.0452992	-0.564339
0.420024	-0.259796	0.391135
-0.383669	0.439953	0.236939
-0.20056	0.374096	0.46554
0.252303	-0.272002	0.509174
0.175866	-0.520356	0.308545
-0.539223	-0.0651759	0.319204
0.0406309	0.50526	0.374114
0.388198	-0.472307	-0.152081
0.38012	-0.370043	-0.33982
0.0237495	-0.171423	0.605764
-0.571103	0.244245	0.10529
-0.0625797	-0.603503	0.16961
-0.359847	0.421441	0.299663
0.523767	0.334971	-0.101797
0.413449	-0.475318	0.00574013
-0.240805	0.578917	-0.0613849
0.200246	0.533007	0.269639
0.170097	0.526407	-0.301434
-0.147258	-0.328355	0.517106
-0.00199254	-0.600879	-0.189317
0.0857691	0.446336	0.436266
0.302149	-0.508611	-0.216612
0.562769	-0.279132	0.0477115
0.244422	0.485994	0.317755
-0.0703461	-0.0312633	0.625279
0.337659	-0.164523	0.505785
-0.339055	0.235462	-0.475919
0.498595	0.307677	-0.231599
-0.586162	0.215824	0.0820581
0.239774	-0.564535	0.143905
0.599662	0.0314179	-0.190574
0.0673879	0.612164	-0.13272
-0.272415	-0.195066	-0.533516
0.257816	-0.486797	0.305711
0.55852	0.291412	-0.00582287
0.496865	-0.245964	0.299211
-0.490497	0.362561	-0.157677
0.322719	0.227717	-0.490813
0.331703	0.361692	-0.395034
-0.172034	0.406628	-0.449397
0.589553	0.133117	0.177783
-0.0883653	0.0387547	-0.622567
0.373679	0.25504	0.438427
0.478465	0.407815	0.0407222
0.0813137	-0.197439	-0.592711
0.375231	-0.488796	0.131071
-0.0615763	-0.0814898	0.621665
0.0234915	-0.0824817	-0.624135
-0.343565	0.512914	-0.125627
0.543873	0.00173746	0.317961
-0.413897	-0.340807	-0.330817
-0.535613	-0.230541	0.238474
0.391357	0.441899	0.220148
-0.202274	-0.501293	0.323559
0.613582	0.142822	0.00431084
-0.112152	0.521944	-0.334509
0.560193	0.0112605	0.288022
-0.23551	0.346158	0.470754
-0.0804455	-0.624594	0.0176367
0.228581	0.161449	0.564433
-0.608444	-0.162973	0.0116472
-0.422911	0.00148413	0.466952
-0.314865	0.479795	-0.259917
-0.111746	0.0328919	-0.619137
-0.144067	-0.605984	-0.0944903
0.113049	-0.137465	0.604337
0.231216	-0.393053	0.434682
0.324965	0.49932	0.204884
-0.181418	-0.235688	-0.555372
0.107097	0.600676	0.156904
0.0300818	0.14594	0.612125
0.468325	0.0980776	-0.40982
0.241983	-0.55591	0.171196
-0.023421	-0.00211181	0.629561
-0.551086	-0.26289	0.155218
0.595283	-0.180609	-0.099594
0.0555897	0.515763	0.357489
-0.0558034	-0.0971019	0.619965
-0.188506	0.595631	-0.0811708
0.275156	0.216955	0.523564
-0.3403	0.364727	-0.384799
0.0161296	-0.090775	0.623217
-0.208287	-0.218612	-0.552924
0.147551	0.194029	0.580932
0.23275	-0.00583398	-0.5854
-0.48443	-0.296516	0.272591
0.584102	0.0402422	0.232606
0.334952	0.51159	-0.151602
0.380395	-0.388183	0.318612
0.210178	-0.164077	-0.570792
-0.54957	-0.302152	-0.0598051
0.12096	-0.618248	-0.00621582
-0.00123194	-0.608424	0.163459
-0.584704	-0.0936737	-0.21505
0.568496	-0.239434	0.128
-0.489114	-0.274639	-0.286777
0.526661	0.0531143	0.341624
-0.0870969	0.372776	-0.500352
-0.219833	-0.322899	-0.494277
-0.192383	0.0360598	0.598823
-0.244254	-0.347883	0.464992
0.138581	-0.316587	0.526752
-0.37207	-0.504646	-0.0616158
-0.148645	0.367433	-0.489691
-0.37928	-0.321215	-0.387128
0.103831	-0.0233289	-0.620947
-0.576626	-0.16486	-0.192934
-0.22684	-0.448285	-0.38011
-0.241267	0.0305316	0.581169
-0.57924	-0.00375603	-0.247725
-0.527581	-0.310808	-0.14818
0.184816	-0.457224	-0.392033
-0.529271	0.296226	0.170359
-0.214874	-0.59158	-0.0276188
0.268356	-0.569367	-0.0265701
-0.487159	-0.343262	-0.204322
-0.00563491	-0.545642	0.314869
0.534864	0.103178	-0.316505
-0.263296	-0.0421511	-0.570788
-0.309087	-0.17846	0.519151
0.078772	-0.536323	0.321017
-0.559929	-0.220773	-0.186115
-0.582961	-0.152256	0.184051
0.0315495	0.61937	-0.110837
0.0214508	-0.479514	0.408052
-0.542442	0.0199702	0.319778
-0.400219	0.137277	0.466776
0.332068	0.349269	0.40576
-0.312084	0.475215	-0.27143
-0.451172	0.337323	0.282058
-0.169857	0.26821	-0.544162
-0.164499	-0.357663	-0.491851
0.472386	0.415123	-0.0377333
-0.390013	0.00960323	-0.494669
-0.483662	-0.240148	0.3245
0.294636	-0.17324	-0.529224
0.15071	0.425633	-0.439344
-0.556771	0.0440716	-0.291486
-0.203982	0.585708	0.11062
-0.143161	0.441676	0.425826
-0.273522	-0.534118	-0.191843
0.0870969	-0.538963	-0.314377
0.589044	0.00807077	0.223299
0.0594166	-0.556203	0.289841
0.41254	-0.464502	0.104636
-0.387948	-0.142878	0.475376
-0.15427	0.610084	0.0299633
-0.149379	0.336496	-0.51123
0.458941	0.301366	-0.308952
0.28141	-0.125491	0.54951
0.483573	0.389566	0.106282
-0.083071	0.491281	-0.385542
0.126932	0.560206	-0.258761
-0.0671348	0.593266	0.201067
-0.40208	-0.462012	0.147569
0.458181	-0.432377	0.00452118
0.3556	-0.293674	0.42919
-0.102571	0.508102	-0.358067
-0.429747	-0.418527	-0.192491
0.52906	-0.0345742	-0.340294
-0.0620621	0.294316	-0.553558
-0.39705	-0.297251	-0.388449
0.115149	-0.616879	0.0556845
-0.447051	-0.441087	-0.049876
0.604921	-0.161648	0.069576
-0.363535	0.497797	-0.130154
-0.497877	-0.2602	-0.285157
0.141915	0.554736	0.262731
0.325899	-0.199665	-0.500823
-0.461554	0.373362	0.210877
0.393732	0.457461	-0.180566
0.605996	-0.104224	0.137134
0.355729	0.220702	0.470795
-0.456096	-0.399608	-0.17085
-0.101629	0.510139	0.355429
-0.44258	0.446662	-0.0389405
-0.230219	-0.500641	-0.305381
-0.255245	-0.526763	-0.23296
0.21494	-0.344439	-0.481729
-0.29647	-0.0617672	0.552441
0.0738747	-0.587655	-0.214719
-0.0711805	-0.365063	-0.50849
0.486997	-0.399491	-0.0118872
0.262171	0.479841	-0.312921
-0.55805	-0.263393	-0.1269
-0.583499	-0.220743	-0.0877616
0.455052	0.159296	-0.405527
-0.479432	0.325244	-0.247511
0.461927	0.323236	0.281144
-0.45519	0.166077	0.402642
-0.260388	0.555389	0.143672
-0.590336	0.0709153	0.208264
-0.599104	-0.143088	-0.13229
0.020715	0.595777	0.203768
-0.121557	-0.563246	0.25471
0.463761	0.360814	-0.227241
-0.445809	-0.040339	0.443314
-0.227063	-0.156903	0.566325
0.0562805	0.0433101	-0.625985
0.58459	0.0796162	0.220944
0.0890183	0.0349684	0.622698
0.385129	0.231504	0.441567
-0.222077	0.380248	0.450548
0.282875	-0.511961	0.234047
-0.472573	0.0415604	0.414545
-0.389852	-0.403171	0.286999
-0.591231	-0.0841199	0.200674
0.595565	0.134016	0.155697
0.624768	-0.0183613	0.0789179
0.508087	0.368432	0.0548153
0.380448	0.39834	-0.305752
-0.453875	0.320373	-0.297084
0.586183	-0.0302446	0.228855
0.0894814	0.429114	0.452497
0.280234	0.122628	0.550755
0.283117	0.160513	-0.539426
-0.365732	-0.39268	0.330064
0.457847	-0.190667	0.388487
-0.41675	-0.456764	-0.120775
0.527589	0.0720098	0.336696
0.0617928	-0.590735	0.210032
0.424144	-0.348001	-0.309673
-0.198067	-0.2764	-0.530351
0.0868741	0.621256	-0.0582584
-0.0107636	0.583705	-0.236796
0.544315	-0.177634	0.262806
0.605633	0.166545	-0.0486987
0.146144	-0.452535	0.413224
-0.498293	-0.356363	-0.147003
-0.3372	-0.156696	-0.508569
0.310274	0.328736	0.43882
0.410384	0.306406	-0.366879
-0.411057	-0.428604	0.210311
0.492232	0.316656	-0.233101
-0.0338393	-0.274965	-0.565817
0.259868	-0.0401218	-0.572502
-0.599174	-0.0443549	0.189533
-0.0224381	-0.0933303	0.622644
0.0215281	-0.612715	-0.14497
-0.560668	0.246882	0.146973
-0.209778	0.152118	0.574242
-0.36675	0.0542843	-0.50936
0.232122	-0.012066	0.585554
-0.425073	0.460435	0.0649052
0.267871	-0.501957	0.270526
-0.324813	-0.512864	-0.168427
0.338041	-0.0472028	0.529528
0.220671	-0.578496	-0.116389
0.612448	-0.146192	0.0208794
0.274257	0.367493	0.43201
-0.310533	0.446177	0.318426
0.156649	0.591079	-0.151615
-0.228781	-0.586369	-0.0270341
-0.603409	-0.18	0.0199318
0.31521	-0.0846181	0.538872
-0.103859	-0.593154	-0.185153
-0.376058	0.11286	0.492689
-0.0282588	-0.499114	0.383388
-0.54615	-0.0925495	0.300091
-0.112089	-0.615818	-0.0714414
0.508787	0.0802033	0.362771
0.55367	0.130712	-0.270674
0.158141	0.351608	0.49826
0.466253	-0.273477	-0.323603
-0.308259	-0.331389	0.438244
-0.0409495	0.404842	0.480964
0.0226819	0.504949	-0.376048
-0.11609	0.494962	0.372069
0.468769	-0.209976	-0.364782
-0.156548	-0.0264349	0.609667
0.164954	-0.299174	-0.529325
-0.29625	0.224675	0.508583
-0.208	0.33941	-0.4883
0.616834	-0.0987539	0.0816327
0.124611	0.419317	-0.453371
0.017446	0.398033	0.488022
-0.0896597	-0.122908	0.611355
0.184152	0.385653	0.462882
-0.186654	-0.533741	0.277814
0.289174	0.0943518	-0.551703
-0.264205	0.508033	0.262676
0.554799	-0.145505	-0.260627
0.345353	0.201713	0.486768
-0.377183	0.00881314	0.504535
-0.261492	-0.467942	0.330987
0.34945	-0.25345	-0.458855
0.230521	-0.0872025	0.57979
0.313813	-0.0173334	-0.546005
0.160813	0.26122	0.550276
0.0677421	-0.114024	0.615881
0.327642	-0.137104	-0.520339
0.309013	0.542982	0.0811254
-0.0371339	0.013769	0.628754
0.521607	-0.349256	-0.0533493
-0.24161	0.572507	-0.10373
0.458251	-0.430031	0.0444886
-0.0564621	0.562972	0.277082
0.447298	0.139505	-0.421145
0.131389	0.184163	0.58798
-0.0155839	0.629806	-0.00111031
0.224309	0.389774	0.441205
0.0973878	0.389884	-0.485187
-0.557479	0.200895	0.213913
0.215919	-0.462508	0.369277
0.499604	0.28174	-0.260611
-0.303287	-0.0819827	0.546073
-0.0225133	0.417045	-0.471664
0.316434	0.394291	0.375905
0.584892	0.116903	-0.202817
-0.544614	-0.308571	-0.0712753
-0.443561	-0.377681	-0.239813
-0.0842428	0.337067	-0.525537
0.402525	-0.323526	0.360838
0.341226	0.4198	-0.322851
-0.497658	-0.349923	-0.163676
-0.421486	-0.434895	-0.17354
-0.332697	-0.00879837	-0.534916
-0.48656	0.35072	0.192755
-0.619077	-0.101899	0.0570975
-0.503953	0.201633	0.319806
0.263646	0.16794	0.54698
-0.333993	-0.425239	0.323296
0.337398	0.0961443	0.523277
0.0773288	-0.106146	0.61616
-0.52736	-0.344006	0.0212543
-0.58111	0.0221558	-0.242323
-0.0877442	-0.621435	-0.0549465
-0.232445	-0.558172	-0.176955
0.102166	-0.430155	-0.448808
-0.0172947	-0.3407	-0.529646
-0.111494	-0.606496	0.128962
-0.0265783	0.0887462	-0.623151
-0.224709	-0.393315	0.437846
0.0215069	0.354484	-0.520364
-0.54527	0.250118	-0.192411
0.34834	0.485737	0.199044
0.139361	-0.542083	0.28918
-0.301618	0.0930448	0.545224
-0.103302	-0.581209	0.220055
0.409764	0.105749	0.466702
0.502564	0.287229	-0.248654
0.342352	0.159428	0.50426
0.0394997	-0.323117	0.539384
-0.221103	-0.0504997	0.587761
-0.195401	0.594407	-0.0734745
-0.329659	0.464714	0.268824
-0.303223	-0.549355	0.0562558
-0.219375	-0.435477	-0.398916
-0.421835	-0.150455	0.443078
0.54678	-0.290863	0.115455
-0.564695	-0.276012	-0.0428625
-0.478627	0.333288	-0.238192
0.0131702	-0.428673	-0.461482
0.339624	-0.529263	-0.037895
-0.312057	0.15096	-0.526053
-0.0538073	-0.593453	0.204496
-0.549346	0.227838	-0.207867
0.262595	0.56858	-0.0682743
0.538362	-0.308931	0.107831
0.175985	0.21642	-0.564882
0.235154	-0.177373	-0.556903
0.321014	0.294798	-0.454911
0.293465	0.323785	0.453807
-0.0312901	0.296478	0.554997
0.467814	-0.159742	-0.390554
0.441001	-0.443773	0.074054
-0.556076	0.215876	-0.202675
-0.580516	0.164375	-0.181333
0.122602	-0.428568	-0.445195
0.26715	-0.564351	0.0838961
0.179519	0.196153	-0.571137
-0.0903381	-0.242255	-0.574501
-0.0747728	0.53153	-0.329826
0.39974	-0.484839	0.0451557
0.411528	-0.445563	0.170348
-0.505143	-0.183528	0.328707
0.455533	0.0997171	-0.423611
-0.363765	0.135269	0.496263
-0.151759	0.361913	0.492837
0.10019	0.59095	0.194012
0.31863	0.424639	0.3392
0.267331	0.304097	0.482658
-0.447007	0.13969	0.421393
0.286919	0.446647	-0.339241
-0.0575339	-0.134405	0.612801
0.525214	0.106452	-0.331237
-0.155103	-0.583511	-0.179884
-0.125389	0.573771	0.227957
-0.00379975	-0.629737	-0.0177908
-0.410152	-0.426572	-0.216129
-0.27487	-0.424937	-0.375201
-0.552862	0.186589	0.237547
-0.178054	-0.397675	-0.455029
0.08841	-0.421061	0.460208
-0.0849375	-0.569376	-0.255923
0.475714	-0.172265	-0.375395
0.576141	0.229012	0.11187
0.397965	0.16033	0.461322
0.0481585	0.294413	-0.554889
-0.549609	-0.0972842	-0.292173
-0.593084	0.174305	0.121528
-0.457584	-0.130911	0.41277
-0.552953	-0.151262	0.261271
-0.532357	-0.0178929	-0.336416
0.146611	0.612629	-0.00953964
0.195713	0.594099	-0.0751182
0.327345	-0.16581	-0.512106
0.0338496	0.398626	-0.486674
0.0193266	0.629117	-0.0271716
0.438157	-0.44672	0.0732106
-0.40374	-0.438304	-0.20441
-0.621823	-0.0181502	0.0995355
0.356145	-0.490043	-0.172969
0.550216	-0.0912455	-0.292979
0.0144388	0.143002	0.613386
0.569956	0.263923	-0.0489302
0.259391	0.470124	-0.329546
-0.489532	-0.0946352	-0.385101
0.303131	0.447782	-0.323269
0.570635	0.18781	0.189746
-0.251615	0.576365	0.0373324
-0.627835	0.0435274	-0.0287886
0.0859829	-0.377806	0.496759
-0.123483	-0.00994572	0.6177
0.619575	0.0525864	-0.101302
0.128108	0.213833	-0.578588
-0.102253	0.6213	0.0207386
-0.381551	-0.184789	-0.466017
-0.416175	0.366989	0.298358
0.299667	0.55157	-0.0535716
0.348996	0.516726	-0.0899801
-0.275554	-0.265554	0.500451
0.119955	0.31376	0.532978
-0.4202	0.407307	0.233309
-0.347767	-0.293006	-0.436011
0.246958	0.447745	0.368017
-0.558717	-0.288818	0.0363201
0.12912	-0.616192	-0.023131
-0.105603	-0.603222	0.147889
0.599858	0.0278213	0.190516
-0.0283985	0.457056	0.432659
0.398615	-0.484464	-0.0574525
0.472003	0.209483	-0.360875
-0.317596	-0.0349675	-0.542964
0.454441	-0.174941	0.399724
-0.32323	0.487974	-0.233032
0.156712	0.351059	-0.499098
0.031424	0.311675	0.5466
-0.018628	0.361556	-0.515587
-0.205274	0.434167	0.407752
-0.579213	0.163928	-0.185849
-0.0784575	0.617807	0.095177
0.132963	0.581355	0.203094
0.347214	0.49948	0.163896
-0.440666	0.13446	0.429691
0.285115	-0.0304957	-0.560963
-0.43842	0.180056	0.415051
-0.463947	-0.30399	-0.298735
-0.57995	0.245315	0.0194597
-0.365775	-0.0773817	-0.507071
0.159168	0.520077	-0.317939
0.104323	0.621055	-0.017518
-0.207944	0.588824	-0.0833381
0.396707	-0.108614	-0.477207
0.110357	-0.18307	-0.592627
-0.604454	-0.146996	-0.0996363
0.112811	0.484233	0.386901
-0.278818	0.404372	0.394518
0.434176	-0.36263	-0.277291
0.493349	-0.390331	-0.0338902
0.322743	-0.54028	0.0288925
-0.600846	-0.108437	-0.155323
-0.382272	-0.495233	0.0742427
0.284338	0.0663583	-0.558255
-0.256699	-0.0761898	-0.570264
0.20633	0.076754	-0.590285
0.571752	0.257386	0.0612524
0.236096	-0.022847	-0.583641
0.365326	-0.358908	0.366909
-0.453652	-0.422091	-0.113749
-0.0350142	-0.61988	0.106877
-0.437355	0.261567	-0.370409
-0.50273	0.0823728	0.370644
-0.0201354	-0.622386	-0.0955504
-0.0629997	-0.26727	-0.567008
-0.247025	0.512879	-0.269877
-0.0411278	0.563851	0.277994
-0.167211	0.0788692	-0.602262
0.374088	0.476524	-0.172868
-0.578758	-0.236195	0.0784276
0.496693	0.321246	0.216789
0.285565	-0.275406	0.489392
-0.360604	-0.417014	0.304899
0.430804	0.376964	0.263071
0.24543	0.0790124	-0.574823
0.390537	-0.485644	-0.0923621
0.0686495	0.413976	-0.469906
0.60919	-0.132746	-0.0903639
-0.00082955	0.144812	-0.61313
0.0884556	-0.0955575	-0.616396
0.544102	0.0642457	-0.311008
-0.175571	0.195754	0.572499
0.471293	0.0597298	0.413782
-0.082335	0.609516	-0.136421
0.605551	0.127798	0.117794
-0.116509	0.120164	-0.60736
0.421536	0.328944	0.333172
0.51503	0.359655	-0.0478807
0.611029	0.0394335	-0.148286
0.0294404	-0.612566	-0.14421
0.225691	0.587523	0.027939
0.039082	-0.628714	-0.00954845
-0.350856	-0.163004	-0.497222
0.614287	0.00175977	-0.139816
0.0353481	0.116083	0.618203
0.0345454	-0.363443	-0.513435
0.321747	0.527793	0.121709
-0.515528	-0.337215	-0.131973
0.409731	-0.419651	0.230029
0.0503647	-0.509408	-0.367242
-0.157709	-0.301207	-0.53038
0.323544	-0.509061	0.181868
0.328641	0.329793	0.424419
-0.119642	0.614381	-0.0715689
0.173681	0.558382	-0.234402
-0.597113	0.174713	-0.0991544
0.509729	-0.237912	-0.28368
-0.0512338	-0.607799	-0.157656
-0.261559	0.549353	0.163394
0.318049	-0.31251	-0.445065
-0.43835	-0.442947	0.0924532
-0.340536	-0.523665	0.0819132
-0.478219	-0.135391	-0.387138
-0.519296	-0.0424907	-0.354155
-0.44445	-0.00191092	-0.446498
-0.070106	-0.619754	0.0888255
-0.10818	-0.246634	0.569534
0.458372	-0.213211	-0.375947
-0.358868	0.515076	0.0530146
-0.19459	-0.152068	-0.579578
0.508322	-0.00133287	0.372166
-0.0769467	0.197686	0.593211
-0.568835	0.155926	-0.221391
-0.0998802	0.387456	-0.486623
0.0311873	-0.0253877	0.628715
0.4772	0.275322	-0.305577
0.173162	0.537149	-0.279975
-0.59614	-0.166131	-0.117975
0.537503	-0.111575	0.309099
-0.0925589	0.353471	0.513217
-0.182553	-0.351587	-0.489858
-0.0832887	-0.399611	0.479869
0.600304	-0.0569947	0.182447
-0.539865	-0.23025	0.228978
0.27202	-0.132969	0.552471
-0.158814	0.0267696	-0.609066
-0.610194	-0.148052	-0.0514156
-0.535784	-0.271194	0.190497
-0.294298	-0.210356	-0.51579
-0.388433	0.0638516	0.491877
-0.335634	-0.177704	-0.502664
0.21176	0.469315	0.363044
0.458469	0.404777	0.151201
-0.533214	0.0523587	-0.331423
0.384451	0.210529	-0.45252
0.591302	-0.182832	-0.11762
0.169099	-0.155611	0.586593
-0.232186	0.480287	-0.335133
0.433823	0.388278	0.240701
0.555823	-0.277776	-0.103932
0.505402	0.0216394	-0.375501
-0.618157	-0.023522	-0.119286
0.479966	-0.0642855	0.402988
-0.113991	-0.249433	-0.567176
0.0625715	0.623148	0.0683458
0.361429	0.116697	-0.502644
-0.27225	-0.568005	-0.0122679
0.262207	-0.170344	0.546928
0.123421	0.373007	-0.492477
0.591697	-0.203257	-0.0740366
-0.619112	0.107667	-0.044807
0.081376	-0.429167	0.453975
-0.515448	0.0519905	-0.358483
-0.523502	-0.329275	0.120095
0.512773	0.153754	-0.33215
0.541006	-0.287818	0.146197
0.27388	-0.191123	-0.534192
