-0.45269	-0.231927	-0.371729
-0.572701	-0.262099	-0.0147754
0.574422	-0.170268	0.194804
0.106533	0.551851	0.284626
-0.439875	0.0488329	-0.448358
-0.0940835	0.494103	-0.379356
-0.486541	0.324612	-0.234105
0.255912	0.42647	-0.386695
-0.540883	0.267386	0.181246
0.523959	0.262638	0.231059
-0.0182541	-0.580183	-0.244856
-0.147526	-0.550714	0.268049
0.127424	0.609346	-0.0967465
0.161025	0.485778	0.36741
0.0024129	-0.101724	0.621728
0.378935	-0.145521	-0.481801
-0.577256	-0.229416	0.105092
0.562641	-0.0239348	-0.282423
-0.314995	-0.385524	0.386069
-0.318829	0.3718	-0.396248
0.457012	-0.107716	-0.420045
-0.113534	-0.611335	0.101385
-0.382321	0.0294668	-0.499863
-0.157688	0.60532	0.0749819
0.611656	0.137006	0.0632985
-0.132196	0.613933	-0.0501089
0.192471	-0.165638	-0.576558
-0.596234	0.180623	0.0937003
0.136478	-0.0547869	-0.612595
-0.601818	-0.0363971	0.182731
-0.402225	-0.318972	0.365201
0.396256	-0.12995	0.472222
0.0239049	-0.384682	-0.498346
-0.480344	0.161781	-0.374161
0.420373	0.189519	0.429266
0.199372	-0.510939	-0.309987
-0.27522	-0.56656	0.0127737
0.621688	0.101877	-0.00501033
0.269372	-0.569187	-0.0190892
0.615485	0.0911083	-0.098879
-0.135567	0.610212	-0.078506
0.537468	-0.319995	-0.0750445
0.455391	0.299535	-0.315908
-0.0124862	-0.119719	0.618394
-0.0789501	-0.616718	-0.101615
-0.588075	0.15294	-0.166363
-0.301347	0.39619	0.386164
-0.0775715	-0.474869	0.406672
-0.332953	-0.53006	0.0712694
-0.0509164	-0.452062	-0.435829
-0.1173	0.594445	-0.172558
0.548149	0.285878	-0.121272
0.0683841	-0.623758	0.0561167
0.497609	0.144366	-0.358391
-0.629118	0.0180986	0.0279903
-0.204416	0.173921	0.56997
0.347136	-0.393862	-0.348237
0.564528	-0.0369407	0.277207
-0.213351	0.306993	-0.507086
-0.0522977	-0.170195	0.604317
-0.570135	0.238485	0.122357
0.424371	-0.456958	-0.0894347
0.128265	-0.216328	-0.577625
0.196986	0.591466	-0.0909089
0.546157	-0.155651	-0.272737
0.519706	0.0708642	0.348976
0.579516	0.0780966	0.234439
0.301066	0.13097	0.537686
0.14816	-0.258947	0.554883
0.40497	-0.45136	-0.170803
-0.506308	0.17319	0.332502
-0.589435	-0.169978	0.143434
0.469664	-0.214354	0.361064
-0.122651	0.444702	-0.429066
-0.281939	-0.550849	0.11822
-0.167402	-0.273773	-0.542149
0.190836	-0.138384	-0.584236
-0.192643	0.478545	0.361639
-0.0387349	-0.533688	-0.33253
0.204348	0.257323	0.537519
-0.151797	-0.432147	-0.432559
-0.529478	0.327872	0.095151
-0.190487	-0.0300101	-0.599762
-0.210794	-0.560195	-0.19659
-0.600383	-0.174915	-0.0764536
0.124842	-0.00791553	-0.617456
0.362872	0.510306	0.0693632
0.311118	-0.048459	-0.545671
-0.264753	-0.427922	-0.379063
-0.143445	-0.0551237	-0.61097
-0.5502	-0.237938	-0.193819
0.606468	-0.159192	0.0612772
-0.0549435	0.404286	0.480035
0.545061	0.167823	0.267663
0.280521	-0.26024	-0.500483
0.525888	-0.164619	0.305355
-0.613411	-0.0533645	0.133337
0.344295	0.242058	0.468795
-0.424451	0.0604825	0.461609
-0.485174	0.372097	-0.151824
0.394734	-0.0251614	-0.490359
0.433375	-0.300687	-0.344491
-0.0118691	-0.31365	-0.546244
0.406145	-0.464894	-0.125777
0.0264829	0.538053	-0.326646
-0.546715	-0.243878	-0.19628
-0.253435	0.472518	-0.330753
-0.305601	0.0704015	0.546399
-0.173951	-0.369852	0.479427
-0.439305	0.13434	-0.43112
-0.0761734	-0.612474	0.126386
0.349557	0.334083	-0.403855
-0.219774	-0.585075	0.0792877
0.449569	0.42083	0.133002
0.134572	-0.594197	-0.160375
-0.606788	-0.151572	0.0757246
0.461137	-0.155584	0.400058
0.0231066	0.393232	0.491665
0.573138	-0.102669	0.240566
-0.234233	-0.433623	-0.392436
-0.0822407	0.466143	0.415749
-0.107146	0.585456	-0.206545
0.211435	0.114258	0.582358
-0.374514	0.331324	-0.383228
-0.510129	-0.307808	-0.204751
0.436187	-0.421885	-0.169275
0.452888	0.142389	0.414147
-0.0211977	-0.522407	0.351485
0.39156	-0.260558	0.419154
-0.26031	0.21371	-0.532416
0.0687733	-0.585596	-0.221919
0.0101778	0.453219	0.43748
-0.0258065	-0.287799	-0.559826
0.0859035	0.389274	0.487839
0.391179	0.482582	-0.104853
-0.163646	0.5956	0.124018
0.475907	0.381748	-0.157103
-0.467421	-0.122593	0.404214
-0.51638	0.199329	0.300865
0.202675	-0.508735	0.311467
-0.459745	-0.102163	-0.418446
-0.104922	-0.541849	0.303795
-0.416336	0.464742	0.0870618
-0.351154	0.331006	0.405001
-0.473271	0.0120286	0.415655
0.2683	0.538978	-0.18552
0.522834	-0.0149949	-0.35117
0.501352	0.101748	0.367687
-0.585637	0.00358492	0.232199
0.41045	0.442732	-0.180053
-0.0903729	0.60089	0.166324
-0.388674	0.44426	0.220148
0.339241	-0.141655	-0.511615
0.121308	0.0102901	-0.618125
0.614395	-0.132307	-0.0437514
0.089658	-0.302496	0.545305
0.233252	0.576922	-0.0982561
0.114128	-0.615456	-0.07134
-0.269777	0.409065	-0.395963
0.443896	-0.088084	0.43829
0.0333651	-0.478352	-0.408615
0.309074	-0.25295	-0.487227
-0.541837	0.143593	0.287565
0.315617	0.163582	0.520122
0.51439	0.327825	-0.157589
0.341271	-0.509775	0.143399
0.404499	-0.172006	0.451325
0.154512	-0.448042	0.415072
0.4376	0.217286	-0.397734
-0.0188357	-0.591173	0.216933
-0.155674	0.587952	0.164252
-0.491987	0.033428	-0.392085
0.512687	-0.0742515	0.358523
0.122117	0.510168	0.348879
0.301612	0.145586	0.533606
0.0829136	0.566354	0.263189
0.538595	-0.0348991	-0.324958
0.458824	-0.0597754	-0.42756
-0.179336	-0.319678	-0.512391
-0.547193	0.140875	0.278629
0.497863	0.236629	-0.305023
-0.00490386	-0.209078	0.594275
-0.0724023	-0.0154557	-0.625635
-0.618577	-0.117832	-0.0194485
-0.371688	-0.265176	-0.434086
-0.128314	-0.496073	-0.366534
0.108555	-0.244006	0.570593
-0.310489	0.19449	0.512514
0.567988	0.210249	0.173451
-0.195193	0.151865	0.579428
-0.458234	-0.334006	0.27452
0.199863	0.0743027	0.592818
0.238293	-0.303337	0.498099
-0.426949	-0.414977	-0.205934
-0.202909	0.584186	0.120228
0.0967734	-0.618374	-0.0717526
-0.385912	0.0929063	-0.489224
-0.57423	-0.257992	-0.0245095
0.4014	0.468186	-0.128763
-0.321219	-0.146414	-0.521806
0.0193871	-0.301388	-0.552892
-0.1998	-0.53481	0.26638
0.0792298	-0.539655	0.315271
-0.0794066	0.296704	0.550056
0.146749	-0.596168	-0.141239
0.245044	0.569748	-0.110639
-0.609218	0.0460102	0.153742
0.438265	0.411292	0.188846
0.142989	0.613549	0.00349623
-0.366231	0.10788	0.501136
-0.185171	0.247844	-0.548803
-0.473881	-0.273287	-0.312492
-0.466743	-0.277145	0.319753
-0.0876867	-0.490858	-0.385058
-0.501539	0.248012	0.289566
0.136193	-0.430252	0.439584
0.51336	-0.291188	0.220388
0.170136	0.517647	-0.316221
-0.324196	-0.524974	0.127276
-0.13179	-0.0759969	-0.611356
0.00476613	0.0181604	0.62972
0.00624187	0.491156	0.394496
0.237562	0.0290653	-0.582769
0.293091	0.213639	0.515127
-0.256205	0.333395	0.469156
0.597573	0.120333	0.159144
-0.629458	0.00778521	-0.0249377
-0.304988	0.118092	-0.538457
-0.15121	0.437481	-0.427371
-0.0944063	0.622089	-0.0314979
0.542507	0.0961743	-0.305511
-0.225988	-0.150643	-0.568451
0.0019961	0.587699	-0.226949
0.190495	-0.587077	-0.126305
0.0394263	0.598555	-0.192556
0.500514	0.378128	0.0583529
0.549832	-0.296274	-0.0824986
-0.197907	0.500917	0.326825
0.216105	0.522684	0.277488
-0.482469	0.397045	0.0804904
0.453989	0.00335822	0.436787
0.105611	0.445993	0.432246
0.470894	-0.0389861	0.4167
0.226317	-0.462957	0.362424
0.157171	-0.35381	-0.497006
0.0547809	0.595378	0.198554
0.588375	0.183455	-0.130611
0.117922	-0.565741	0.250861
-0.179004	-0.0636887	0.600668
0.278723	-0.510254	0.242599
-0.188668	0.173963	-0.575362
-0.131654	0.549691	0.278222
-0.18299	0.602304	-0.0253853
-0.39789	0.463211	0.154982
-0.143573	0.585101	-0.184238
0.517817	-0.231471	-0.274203
-0.299774	0.551092	-0.0577345
-0.352009	-0.46414	-0.239925
-0.422668	-0.455993	0.1016
0.371278	-0.27114	-0.430739
0.215944	-0.0828056	0.586013
-0.301801	0.551489	-0.0409473
0.0839821	-0.417904	0.4639
0.511651	-0.201977	0.307112
0.327806	0.533795	0.067123
0.0587195	0.0870575	0.621187
0.0711742	0.194406	0.595013
-0.519106	0.356089	-0.0250864
0.16671	0.461854	-0.394713
-0.215801	0.0325436	0.590992
-0.305972	-0.32128	-0.447281
0.180957	-0.345899	-0.494478
-0.233594	0.396231	0.430505
-0.109257	0.439246	0.438208
-0.362019	-0.443426	0.263088
0.582528	0.0681991	0.230022
-0.434974	0.244946	-0.384316
0.581033	0.144803	-0.195787
0.140276	-0.517846	0.33024
-0.0494453	-0.360671	-0.514171
-0.0474378	-0.351342	-0.520777
-0.149562	-0.545459	0.277499
0.19642	-0.425972	0.420556
-0.0771739	-0.0283446	0.624612
0.540906	-0.284488	-0.152929
-0.13262	0.269733	-0.553675
-0.378154	-0.184291	0.468974
0.623327	0.0661739	-0.0631275
0.180674	0.346652	-0.494053
-0.305727	-0.476062	-0.27712
0.425729	-0.0395519	-0.462699
-0.203869	0.200332	0.561431
0.613879	-0.122587	0.0708874
-0.26154	-0.259217	-0.511179
-0.506491	0.291157	0.235785
0.618369	-0.0577725	-0.105746
-0.339475	-0.205291	-0.4894
-0.378362	-0.503466	0.0162492
-0.484827	-0.0625602	-0.397403
0.213405	0.306632	-0.507282
-0.489034	0.262242	-0.298287
0.330337	-0.51517	0.149589
-0.414655	0.17124	0.44231
0.45022	-0.309049	0.31415
-0.268757	-0.16971	0.543938
0.170893	-0.4848	-0.364232
0.495984	0.325618	-0.211832
0.314574	-0.531181	0.125656
-0.39118	0.319816	-0.376292
0.341961	-0.505166	0.157384
-0.431626	0.367221	0.275222
-0.607311	-0.167522	-0.00303694
0.378811	-0.354733	-0.357165
0.0907756	-0.397873	-0.479955
0.162744	-0.547003	-0.266837
0.454595	0.355325	-0.252958
0.396262	0.237871	0.428129
0.14396	0.300367	0.534748
-0.173313	-0.436502	0.419915
0.263035	-0.279335	0.499684
0.0207375	-0.387099	0.496613
0.185805	-0.187728	-0.571957
0.235824	-0.238795	-0.533164
0.398379	0.226743	-0.432183
-0.286605	-0.371029	-0.420827
0.505315	-0.315116	-0.20557
0.0218973	0.483627	-0.403144
0.474724	0.400429	-0.105799
0.394512	-0.118667	0.476632
-0.359096	-0.517174	0.021935
-0.0737977	0.568833	0.260544
0.27449	0.526292	0.211122
-0.427316	0.419326	0.19613
-0.257126	-0.181167	-0.545862
-0.592678	-0.212633	0.0204963
0.500152	-0.366571	-0.11124
-0.407899	0.197445	0.437646
-0.620356	0.0971141	-0.0512627
-0.0292536	0.0342308	-0.628389
-0.376422	0.468812	-0.188207
-0.282638	-0.20529	-0.524282
-0.578368	0.195777	-0.15512
-0.53919	-0.130839	0.298421
-0.105493	-0.384115	0.488085
0.457637	0.229641	0.367061
0.490864	0.254458	-0.301999
0.460064	-0.0638178	0.425639
-0.0802568	-0.15209	0.606075
-0.299853	0.0466606	0.552097
0.611815	-0.0510826	-0.141325
-0.491661	0.00304101	0.393904
-0.450191	-0.362133	0.251174
0.447105	0.106681	0.430832
0.0469364	-0.449952	0.438452
-0.0548676	-0.608119	0.155181
-0.60594	0.0667546	-0.159
-0.233944	-0.575312	-0.105768
-0.235876	0.143427	-0.566296
-0.249897	-0.49882	-0.292627
-0.0101371	-0.375765	-0.505567
0.135934	0.599185	-0.139281
0.106709	-0.0560928	0.618358
0.199963	0.306946	0.512542
-0.405993	-0.283735	0.389313
0.60482	0.158114	0.0780598
-0.117275	-0.601597	-0.145696
-0.500776	-0.0816521	0.373439
-0.444302	0.443121	0.0560241
-0.4742	0.408579	-0.0713956
-0.228938	-0.586724	-0.015557
0.465684	0.415183	-0.0875331
-0.290167	-0.40648	-0.384027
0.229619	-0.550454	0.202916
-0.383535	-0.0226798	0.499286
-0.555587	-0.221281	-0.198135
0.434561	0.446468	0.0933964
-0.559797	0.281887	-0.0637741
0.399403	0.374696	-0.311417
-0.151843	-0.603671	-0.0970824
0.56428	0.178309	0.216086
0.0467159	-0.447389	-0.44109
-0.00827792	0.531802	-0.337665
-0.292747	-0.00311524	0.557844
-0.50198	0.370741	-0.0864101
0.114647	-0.120579	-0.607632
-0.328925	0.531299	-0.080185
0.477627	0.0849457	-0.401941
-0.556072	0.291714	-0.0508634
-0.333541	0.312794	0.433371
0.552808	-0.0317111	0.300497
-0.44633	-0.443038	0.0375117
0.313351	0.313594	0.447627
-0.488158	-0.29404	-0.268593
0.217067	0.491087	0.329569
-0.38163	0.468374	-0.178562
0.189299	-0.387106	0.459581
0.0915246	-0.0388816	-0.622102
0.509305	0.105693	0.35544
-0.284401	0.416517	-0.377531
0.204952	-0.518434	0.293464
-0.471897	0.417318	-0.00767011
-0.356309	-0.439587	0.276961
-0.43757	0.452897	0.0178065
0.386927	0.497152	-0.00521292
-0.0518992	-0.611529	0.142263
0.531587	-0.209737	-0.265191
0.287983	0.414802	0.376703
0.372377	-0.290712	0.416799
-0.475161	0.220166	-0.350213
-0.533708	0.0132223	0.334486
-0.538452	-0.268222	-0.187153
-0.0982242	-0.621807	0.0246661
-0.525388	-0.346767	0.0249124
-0.0231179	0.553012	-0.300905
-0.00386811	-0.189672	-0.600757
0.326864	-0.109232	-0.527379
0.0762743	0.0801822	0.620204
-0.201388	-0.0122145	-0.59682
0.410155	0.475472	0.0509823
-0.191906	0.479605	-0.360626
-0.316327	-0.516912	-0.172161
-0.274496	0.209237	-0.52704
0.0636852	-0.375805	0.501612
-0.158686	0.588388	-0.159744
0.435957	-0.454744	-0.00698839
-0.444516	-0.366821	-0.254456
0.11344	-0.550609	0.284361
-0.0554925	-0.608598	-0.153067
-0.478544	0.0994942	-0.397487
-0.334907	-0.41067	-0.340716
-0.376578	0.494101	0.104657
-0.508255	-0.342983	-0.144705
-0.597424	-0.192593	-0.053787
0.025367	-0.21885	0.590221
-0.33884	0.491552	0.201155
0.0920168	0.0960255	-0.615802
-0.478663	0.125311	-0.389973
-0.426073	-0.331008	-0.325262
0.35194	-0.521652	-0.0302895
-0.0468599	0.268211	-0.568126
0.180942	-0.273161	0.538092
0.563121	0.0943654	0.266251
0.0699104	-0.52129	0.346798
-0.197966	0.461106	0.380907
0.236303	-0.0846689	0.577834
-0.179179	-0.385161	0.465238
0.513253	-0.36189	-0.0500713
-0.282086	0.0687111	0.559112
-0.256179	0.160272	0.552798
0.450188	0.178068	0.403141
0.203018	0.329749	-0.49694
-0.112159	-0.616742	0.0628499
0.256895	-0.492845	-0.296663
0.402738	0.162998	-0.456217
-0.2424	0.424281	0.397653
-0.558214	-0.0742771	0.282454
-0.522467	-0.350791	-0.0295669
-0.44294	0.322258	0.311214
-0.066241	-0.547455	-0.30464
0.311913	0.484055	-0.255541
-0.39109	0.409873	0.275596
-0.0120224	-0.616503	0.129149
-0.0590172	0.558858	-0.284772
0.100351	0.233749	0.57636
0.600897	0.157314	-0.105236
-0.136185	-0.604474	0.113863
0.284079	0.487331	0.280549
0.535419	0.24203	-0.227263
0.388318	0.460288	0.18505
0.531336	0.204816	-0.269504
0.363476	-0.505461	0.0964078
-0.401906	-0.240231	-0.421498
0.599032	0.0840904	0.176038
-0.202754	0.578539	-0.145201
0.356321	-0.433204	-0.286827
-0.125532	0.507215	-0.351959
-0.533789	0.273635	0.192596
0.292055	-0.508407	0.230491
-0.366572	0.379979	0.343717
-0.0930287	0.61898	0.0714831
-0.50409	-0.358649	0.119013
-0.274674	0.41108	0.390471
-0.282576	0.534388	0.177427
0.55518	0.0102355	0.297608
-0.6194	-0.111353	0.0290507
0.0960333	0.572766	-0.244166
0.33637	-0.379174	-0.374142
-0.171538	0.534405	0.286157
0.458715	-0.259048	0.345506
0.0910724	0.617761	-0.0835259
-0.0133804	-0.551987	-0.303367
0.135664	-0.340927	-0.512117
-0.498762	0.106542	0.369846
-0.433803	0.049357	0.45418
-0.562074	0.205896	0.196416
-0.194559	-0.568635	-0.188946
0.51675	-0.337447	-0.126486
0.116973	-0.563815	0.255597
0.598181	0.133665	-0.145647
0.263973	-0.392669	0.415967
0.523368	-0.254087	0.241715
-0.0786052	0.288537	0.554497
0.610421	-0.0724528	0.137975
0.200721	0.54899	0.234991
-0.601049	-0.183122	0.0458975
-0.204903	-0.000353992	0.595747
-0.0392108	0.202965	0.59512
0.605199	-0.126636	0.12082
0.166562	0.59191	0.137113
-0.553822	-0.0522402	-0.295723
0.510538	-0.3422	0.138381
0.514617	-0.305992	0.196057
-0.0237029	0.560771	-0.286137
-0.242375	0.0174681	0.581248
0.00236788	0.262489	-0.572707
-0.590712	-0.203893	-0.0799191
-0.169136	-0.0786338	0.601756
0.24975	0.530741	0.229868
0.255789	-0.532191	-0.219646
0.272756	0.505106	-0.259562
0.159268	0.346376	0.501555
-0.0638617	0.0272575	-0.626162
-0.233731	0.13521	0.5692
-0.569274	0.0799025	0.257766
0.171827	0.404833	-0.451094
-0.523023	0.268287	0.226647
-0.417699	-0.297889	-0.365637
-0.329342	-0.0377794	0.53573
0.224701	-0.498815	-0.312399
0.328016	-0.489465	0.223002
0.0335686	-0.628424	-0.0292745
0.12257	0.0241307	0.61749
-0.403618	-0.316347	0.365947
0.614715	0.133609	-0.0342606
0.320887	0.538435	0.0633928
0.0547798	-0.255681	-0.573172
0.268944	-0.116776	-0.557613
0.0149437	-0.629179	-0.0284708
-0.498732	-0.348706	0.163004
-0.367586	0.38441	0.337653
0.456232	0.228825	-0.369312
-0.515667	-0.137035	0.334977
0.428891	-0.406313	-0.218773
0.393834	-0.443623	0.212117
0.369538	-0.0393698	0.508716
-0.533629	0.286576	-0.173246
0.0996387	0.4205	-0.458424
-0.522061	-0.351872	0.0232071
-0.414509	0.472565	-0.042011
-0.611761	0.0962023	-0.115732
0.597916	0.141147	0.139551
-0.412917	-0.0399548	-0.474134
0.378061	-0.13582	-0.485307
0.141695	0.423328	-0.44454
0.130518	0.294824	0.541243
0.541058	-0.258054	-0.193815
0.49246	-0.381836	-0.0926505
-0.39272	0.396384	0.29249
0.0346359	0.586809	0.226619
-0.518033	-0.358145	0.0165503
-0.491109	-0.00742329	0.394533
-0.52408	-0.159751	-0.310999
0.156122	-0.488986	0.365265
-0.50147	-0.180992	0.335663
-0.603591	-0.0273867	-0.178403
-0.338295	0.180044	-0.50004
-0.0761233	-0.398759	0.481764
0.0321515	-0.625281	0.0699325
0.455193	0.430694	0.0648213
-0.0579533	0.546953	0.30722
0.249744	-0.569572	-0.100578
-0.254621	-0.269545	0.509327
0.386302	-0.22172	-0.445546
0.0541395	-0.547299	0.307299
-0.0632507	0.424701	-0.461008
0.231702	0.347996	-0.471288
0.531858	0.00961735	0.337543
-0.167126	-0.544378	-0.269484
0.049527	-0.29491	-0.554504
-0.311677	-0.484795	-0.254423
0.409346	0.072068	-0.473436
0.263263	-0.316603	0.476818
0.480988	-0.35237	0.203434
-0.252781	0.47368	0.32959
0.0877071	-0.475976	0.403305
0.551495	-0.214727	-0.215976
-0.320996	0.164401	-0.516559
-0.614954	0.0123826	0.136302
0.261472	-0.431046	-0.377798
0.403545	-0.00223251	-0.483783
-0.267581	-0.0592292	0.567267
0.542972	-0.0342225	0.317663
0.435829	0.436219	-0.129098
-0.559067	-0.261734	-0.125856
0.627113	-0.0276408	0.0535273
-0.595556	-0.176084	0.105867
-0.100377	-0.212118	0.584663
0.534276	0.254012	-0.216628
-0.459117	0.243371	0.356205
0.271509	0.565659	-0.0566779
0.223339	-0.443171	-0.388096
-0.269727	0.565401	-0.0668498
-0.078216	0.62316	-0.0495407
0.295718	-0.198167	-0.519789
-0.232077	0.572441	0.123901
-0.437646	-0.059521	-0.449247
-0.499521	0.187554	-0.334966
0.0728459	0.492611	0.385912
0.460209	0.00279026	-0.430232
0.0678817	0.600981	-0.176391
-0.625862	0.0445747	-0.0566533
0.154743	0.419493	-0.443825
-0.00887352	0.0876125	0.623815
-0.0254968	-0.526049	0.345721
0.165942	-0.0338436	0.606809
0.0344303	-0.457365	0.431893
-0.2192	-0.576411	0.128848
-0.332461	-0.500314	0.189885
-0.143006	-0.521448	0.323329
-0.107954	-0.401756	0.473115
0.148605	0.607341	0.0771623
0.202107	0.554328	0.220847
-0.15653	-0.303565	0.529383
0.128807	0.109007	-0.606981
0.541864	0.320346	0.0257172
-0.312169	0.405511	-0.367439
0.155386	0.482227	0.374449
-0.205642	-0.23402	-0.547582
0.166961	0.0248166	-0.606966
-0.0718706	0.380906	-0.496634
-0.568996	-0.0108831	-0.270232
-0.43697	-0.0967108	0.443401
-0.00737073	0.0965796	0.622509
-0.127552	0.0567654	0.614335
0.496496	0.0282238	-0.386775
0.360848	0.500818	-0.125976
-0.114337	0.476885	-0.395485
0.252154	0.00312879	0.577329
0.343302	0.361744	-0.384948
-0.351231	-0.173437	0.493413
0.111253	0.019282	-0.619799
0.363955	0.365823	0.361401
-0.509183	-0.13748	-0.344575
-0.288383	0.560072	0.007372
0.261104	0.090096	0.566222
-0.401762	-0.457042	-0.163094
-0.00738963	-0.526382	0.346074
-0.371817	-0.503334	-0.0728476
-0.310619	-0.225745	-0.499455
-0.216189	-0.590822	-0.0330395
-0.596415	0.0921692	-0.180815
0.47771	0.169958	0.373908
0.313704	-0.230807	0.495195
-0.285858	-0.0357739	0.560273
-0.349279	-0.524305	0.00294639
-0.36798	-0.505981	0.0739852
0.250819	0.164834	0.553913
0.145084	0.32306	0.52104
0.393769	-0.460074	0.173717
-0.0854507	0.151306	-0.605562
0.00876504	-0.435525	-0.455128
0.157651	-0.00993608	-0.609875
0.40913	0.00160321	0.479072
0.116055	-0.397214	0.475028
-0.120483	-0.029835	0.617652
-0.0212064	-0.612686	0.145143
-0.513907	-0.208648	-0.298774
-0.307529	0.28978	0.467283
-0.549804	0.307335	0.0126519
-0.322459	0.191522	0.506201
0.154574	-0.565604	-0.230432
-0.533021	-0.333627	-0.0384994
-0.598301	-0.0754739	-0.182317
-0.290846	0.548445	0.107314
-0.580072	-0.240371	0.0513634
0.00179253	0.537532	-0.328567
0.442133	0.0539722	0.445539
0.0519826	-0.627823	-0.00601342
0.24248	0.166278	-0.557185
0.189526	-0.599764	-0.0355326
0.371983	-0.099996	0.498527
0.229394	0.145295	-0.568479
0.20536	0.567122	-0.181932
0.485464	-0.29494	-0.272461
0.358913	0.0805259	-0.511466
0.199814	-0.403536	0.440605
-0.126787	0.541758	-0.295506
-0.123074	0.613251	0.0753365
0.432675	-0.437492	0.13525
0.0401231	0.279572	-0.563143
0.282646	-0.156266	-0.540918
-0.582772	-0.174602	-0.163679
-0.0583601	-0.26911	0.566634
0.488042	-0.0584091	-0.394086
0.482294	-0.270494	0.30187
0.26153	0.221366	-0.528676
0.316401	0.483317	-0.251386
0.199165	0.582352	0.134535
0.469196	-0.00409778	-0.420402
0.470021	-0.234261	-0.347998
-0.00261541	-0.558499	0.2915
0.0105279	0.461434	-0.428798
-0.551903	0.302484	0.0283976
-0.209006	-0.0451109	0.592606
0.447801	-0.391793	0.207056
0.510351	-0.369303	0.00760925
0.239875	0.58243	0.0116617
0.0303056	-0.586567	0.227861
-0.503685	-0.0498672	-0.37512
0.165726	0.444267	-0.414803
-0.602739	0.0897126	0.159866
-0.488724	0.310623	-0.248118
-0.0345786	0.582217	0.238175
0.423401	-0.418549	0.20603
-0.202084	-0.231155	0.550118
0.403462	-0.477949	0.0753862
0.225869	0.45025	-0.378363
0.164991	0.314003	-0.520654
0.159714	-0.606705	0.0574509
0.0973503	0.137424	-0.607073
0.576479	-0.108058	0.229991
0.267942	0.0528297	0.567729
-0.467752	0.33678	-0.254338
-0.51015	0.367658	-0.0384071
-0.0817131	-0.190128	0.595041
0.219706	-0.516271	0.286519
0.0970902	-0.49667	0.375223
0.115689	0.501162	0.363802
-0.610868	-0.137923	-0.0686804
-0.231906	0.00598541	-0.585734
-0.173064	0.525459	-0.3014
0.0947205	0.61287	-0.11099
-0.0434769	-0.611879	0.143577
0.0158179	-0.337755	0.531574
-0.579741	-0.0965251	0.226899
0.57587	-0.00280696	0.255473
0.027694	0.283486	0.561933
-0.243462	0.138514	-0.564305
0.328377	-0.168978	0.510407
0.470459	-0.401048	-0.121364
-0.45018	0.176079	-0.404022
-0.281914	0.499026	0.261529
0.251235	-0.572983	0.0739702
0.318584	-0.113644	-0.531497
-0.21896	-0.216055	-0.549797
0.390985	0.0375015	-0.492569
-0.492887	-0.237017	-0.312706
0.14162	-0.480544	0.381996
-0.0506673	0.522929	0.347676
0.29541	0.0385685	0.555108
-0.302689	-0.301166	0.463226
-0.130932	-0.308541	0.533441
0.26347	0.382668	0.425498
-0.232649	-0.488721	-0.322376
-0.538197	0.300803	-0.129466
0.309385	0.315993	-0.448698
-0.271794	-0.180471	-0.538942
0.468313	-0.0640121	-0.416516
-0.544283	-0.0252721	-0.316255
0.0330727	-0.458425	-0.430874
-0.148505	-0.443194	-0.422405
0.0321176	0.605356	-0.1715
0.254502	-0.190796	-0.543806
-0.530728	0.227893	0.25158
-0.614958	0.0194858	-0.135453
0.559325	0.286128	0.0467544
-0.475309	0.174275	0.374979
0.276147	-0.449445	0.344444
-0.0671448	-0.623495	-0.0603826
-0.328203	0.533507	0.0674783
-0.19345	-0.565529	0.199134
0.401505	-0.476486	0.0930344
-0.295299	-0.208699	-0.515891
-0.0039061	0.5779	-0.250832
0.629009	0.00334067	0.0351676
0.334381	0.305479	0.437918
0.222132	0.0204567	-0.589185
-0.521486	-0.260067	-0.239411
-0.351102	0.420068	-0.311721
0.450941	-0.420076	0.130721
0.201579	-0.47409	-0.362635
-0.338023	0.49267	-0.199791
-0.167588	-0.256869	0.550302
-0.35939	-0.405654	-0.321223
0.319962	0.454942	0.295892
0.297872	0.533909	0.152033
-0.50468	0.144987	0.348104
0.345045	-0.472351	-0.233941
-0.40906	-0.21842	-0.426453
-0.456739	0.408457	0.146468
0.61262	0.11042	0.0969776
-0.342814	0.343288	0.40191
0.213034	0.34796	0.480042
-0.593344	-0.0698942	-0.199893
0.125358	-0.410552	0.461121
-0.0788782	-0.438228	-0.445684
-0.0889444	-0.169623	-0.600181
0.592044	-0.207535	-0.0575552
-0.223425	-0.523939	0.269202
0.622614	-0.095635	0.0102867
