0.19168	-0.105442	0.590797
0.0734629	0.564834	-0.269194
0.449919	-0.160297	-0.410826
-0.52087	0.266668	0.233415
-0.539737	0.0593769	-0.319466
-0.307587	-0.350324	0.423749
-0.381399	-0.498807	-0.0512416
0.499124	-0.0985263	-0.371575
0.346501	-0.10034	0.516497
-0.506029	-0.235172	-0.292453
-0.395345	-0.464622	0.157251
-0.373092	-0.364734	-0.353088
0.0102255	0.594191	0.209123
-0.345177	-0.249966	0.463972
0.182465	-0.602026	-0.0342161
-0.459641	0.182845	0.390125
-0.579493	-0.147204	0.198541
-0.270047	0.134282	-0.553121
-0.262118	0.515079	-0.250774
-0.216569	0.591606	-0.000494067
-0.609651	-0.148081	0.0574267
0.311702	-0.487444	0.249278
0.532354	0.333102	0.0504209
-0.459958	0.344293	0.258459
-0.132368	0.24085	-0.566895
0.0626759	-0.0834407	-0.621297
-0.452875	-0.353176	0.258981
-0.252325	-0.0207437	-0.57689
0.131731	0.585563	-0.191476
-0.00120859	0.459872	-0.4306
0.102762	-0.531716	-0.321898
-0.378158	0.0119961	0.503738
0.115779	-0.526945	-0.325305
-0.424274	-0.298522	-0.357458
-0.365531	-0.481052	-0.178539
0.469686	-0.414908	-0.064395
-0.568907	0.265837	0.0507458
-0.209732	-0.593934	0.0124609
0.00945228	-0.361095	-0.51616
0.459583	-0.110487	-0.416504
-0.442931	-0.37946	-0.238164
0.380768	-0.496332	-0.0746331
-0.365724	-0.323075	-0.398458
-0.485341	-0.068039	-0.395872
-0.285704	-0.261683	-0.496785
-0.0764481	-0.614715	0.114812
-0.216788	-0.59028	0.0383799
-0.586778	-0.218518	-0.0695829
0.305023	0.550691	0.0245008
0.203628	-0.579746	0.139033
-0.0938071	-0.57728	-0.234197
-0.0324819	-0.436153	-0.453449
-0.292503	0.522089	-0.196889
0.422134	0.171727	0.434986
0.238687	0.400878	0.42335
0.544719	0.270994	-0.163534
0.530405	0.111774	0.321056
-0.400229	-0.21242	0.437715
-0.609004	-0.130965	-0.0941375
-0.602693	-0.179179	-0.039451
-0.0585937	0.11223	0.617148
0.0803224	0.152031	-0.606082
-0.477801	-0.137399	-0.386946
0.53164	-0.303739	-0.148328
0.39698	-0.484915	0.0645323
-0.21031	-0.151697	-0.574158
0.333548	-0.316254	-0.430847
-0.316164	0.451181	-0.305575
-0.289113	0.201567	-0.522192
0.548877	0.0849693	-0.297345
-0.400495	-0.360005	0.326955
-0.383313	0.0349748	0.498746
-0.411022	0.425884	-0.215834
-0.492502	-0.114013	-0.375956
-0.188094	0.473153	-0.371009
0.0644512	-0.328728	-0.533558
0.360475	0.0205536	-0.516271
0.56431	-0.183926	-0.211246
0.3948	-0.184699	-0.454884
-0.316738	0.455363	0.298699
-0.348325	-0.325087	0.412175
-0.354451	-0.519988	-0.0296112
0.174325	0.481242	0.367311
-0.435236	-0.384171	0.244709
-0.53788	0.240105	-0.223461
-0.361521	0.433613	0.279611
0.396138	0.0808722	-0.48315
-0.216048	-0.39341	-0.442099
-0.339849	0.162478	-0.504979
-0.60072	0.132756	0.13569
0.258658	0.540328	0.195044
0.461097	-0.303166	-0.30394
-0.573539	0.231869	0.119123
-0.30709	-0.50143	0.226194
-0.41135	-0.447283	-0.16622
-0.0656984	0.55909	-0.282847
-0.19871	0.271426	-0.532675
0.506649	-0.194317	-0.320075
0.525459	0.0114883	0.347362
-0.340509	-0.493944	0.192283
0.00126142	-0.289305	0.559643
-0.406278	-0.13909	-0.460969
-0.311685	0.494478	-0.235039
0.485689	-0.102162	0.388032
0.14923	-0.407041	-0.457108
0.150512	0.611421	0.0202573
0.550022	-0.307106	0.00780854
0.237892	0.0204765	0.582999
-0.536269	-0.285166	-0.167319
0.499864	0.299026	-0.24004
-0.163877	-0.523626	0.309613
0.424125	0.10425	0.454037
0.51012	0.284143	-0.236517
-0.0989903	0.280735	-0.555237
-0.0156442	-0.509801	0.369808
-0.370093	0.225113	-0.457444
0.120815	-0.438966	-0.435446
-0.13227	0.541709	-0.293183
0.0561358	0.395766	-0.486948
-0.173248	-0.220255	0.564245
-0.612616	0.138424	-0.0494023
-0.352399	-0.484537	-0.194778
-0.366836	0.131661	0.494971
0.322231	0.290765	0.456643
0.441034	-0.2774	0.354173
0.33714	0.531407	0.029037
-0.189136	-0.582644	0.147149
0.260376	0.511559	0.259639
0.0464957	-0.605546	0.167488
0.0364269	0.620309	0.103873
-0.103763	0.248457	-0.569563
0.118798	0.569359	-0.24211
0.215124	-0.581413	-0.112165
-0.126374	0.120268	0.605364
-0.560946	0.143003	0.248575
-0.474056	-0.388679	-0.145257
0.0892325	-0.623477	0.0146356
0.0959586	0.0745403	-0.618171
-0.251443	-0.407236	0.409677
-0.272188	-0.069029	-0.563958
-0.2736	0.522894	0.22051
0.0494307	0.303656	-0.549773
0.0717024	-0.624325	0.0444693
-0.465373	-0.286308	-0.313617
-0.62609	-0.0195764	0.067287
-0.318645	-0.16068	0.51918
0.597522	-0.18648	0.0713637
-0.539815	0.0147956	0.324469
-0.250233	0.50184	0.287123
-0.56887	-0.00856629	-0.270579
-0.304865	-0.259758	0.486295
-0.177426	-0.603858	0.0278378
-0.097331	0.0172654	-0.622197
0.424381	-0.0756147	-0.459438
-0.297994	-0.554406	0.0270816
0.396155	0.133418	0.47134
-0.363248	-0.118928	-0.500806
0.593701	0.0816278	0.19431
0.042244	-0.562779	-0.279991
0.380855	0.448912	-0.224337
-0.367841	0.0622748	0.507656
0.135332	0.489922	-0.372238
-0.518889	-0.328363	-0.140824
-0.574677	0.0884318	0.242541
-0.245521	0.543128	-0.204038
0.511853	0.35757	-0.0839677
-0.542318	-0.074184	-0.31191
-0.393379	-0.431113	-0.237264
0.0513894	0.590376	0.213811
0.124359	0.253466	0.563196
0.490751	0.0119306	-0.394868
0.0120781	0.615205	0.135194
-0.570564	0.249474	0.0954943
0.0568438	0.108098	0.618048
0.161553	-0.437377	-0.423677
-0.470635	-0.398702	-0.128219
-0.369745	0.0998605	-0.500217
-0.527425	0.281329	0.198938
0.424917	-0.272546	-0.376914
-0.0480135	-0.0841879	0.622501
0.571365	-0.229064	0.134061
0.513308	-0.362698	-0.0431847
-0.568303	0.013011	-0.271592
-0.312254	-0.508092	-0.203077
0.00160432	-0.626648	-0.0648861
0.102156	0.343924	0.517862
-0.515322	0.361066	-0.0312168
0.310567	-0.355696	0.417047
-0.169728	0.546326	-0.263857
0.373445	0.177556	0.475303
-0.225332	-0.137752	-0.57197
0.499831	-0.00625213	0.383445
0.166785	0.508681	-0.332154
0.279088	0.260988	-0.500894
0.0473488	-0.174059	0.603624
0.438274	0.283512	0.352756
0.402758	-0.358154	0.326207
-0.16655	-0.182549	-0.579515
-0.182591	-0.290801	0.5282
0.301022	-0.337615	-0.438522
0.568771	0.0283712	0.269434
-0.0427211	0.62329	0.0811474
0.228686	0.00453414	-0.587011
-0.319784	0.533536	0.0998844
0.130499	-0.264145	0.556864
-0.273754	0.126846	-0.553054
-0.0380315	0.424313	-0.464125
-0.434924	-0.44604	0.0937511
0.434123	-0.135203	0.43607
0.162867	0.193521	0.576996
-0.0616072	-0.295138	0.553171
-0.142387	-0.438003	0.42986
-0.506735	-0.00741223	-0.374253
-0.508506	-0.198746	0.31436
-0.352134	0.0101726	0.522301
-0.224027	-0.522711	0.271082
-0.500699	-0.334113	-0.185926
0.625747	-0.0490959	0.0541282
0.0660902	0.434237	0.45163
-0.474936	-0.162807	0.380565
-0.48999	-0.302008	-0.256128
-0.491238	0.174302	-0.353841
-0.375147	-0.413839	0.291379
0.114874	0.162121	-0.597847
-0.0963058	-0.349427	-0.515292
-0.0959042	0.0146402	0.622485
0.0413462	0.264469	-0.570304
-0.348897	-0.103805	-0.514194
-0.354064	-0.366133	0.370791
0.273097	-0.490308	0.28621
-0.132563	-0.301855	-0.536853
0.627051	0.0601776	-0.00926762
0.0226379	0.580664	0.243346
0.493846	0.380264	0.0917368
0.0842867	-0.45604	-0.426407
0.353041	0.0861674	-0.514624
0.175078	-0.582998	-0.162362
-0.109692	0.396906	-0.476795
-0.555112	0.293737	-0.0496922
-0.0623045	-0.491645	-0.388977
0.106777	-0.571769	0.242032
-0.362918	-0.0828292	-0.508261
-0.0418645	0.518331	0.35564
-0.342925	0.394608	0.35155
-0.487199	-0.276012	-0.288713
0.355027	0.519162	0.0364217
-0.413023	-0.464973	-0.100556
-0.0246365	-0.558768	0.289951
0.0388053	-0.0270739	-0.628221
0.192807	-0.587679	-0.119829
0.273538	0.0877237	0.560697
-0.350965	-0.519529	0.0617527
-0.353621	0.290984	0.432643
0.327711	0.500217	0.198215
-0.261105	-0.568855	0.0716079
0.615984	0.0190191	-0.130773
0.303357	-0.183673	-0.52071
-0.0426452	-0.525524	0.344827
0.149244	-0.610083	-0.049248
-0.037355	0.0396092	0.627643
-0.506492	0.111091	-0.357806
-0.357473	0.105407	-0.507939
0.175763	-0.592212	-0.12366
-0.130712	0.303312	0.536485
-0.400372	0.331873	0.355616
0.303185	-0.300088	0.463601
-0.127709	0.413204	-0.458097
0.536567	0.317575	-0.0902309
-0.119731	0.216961	0.579217
-0.221709	0.587749	0.0479142
-0.378332	0.256247	-0.433708
-0.394481	0.170529	-0.460657
-0.206946	-0.113164	0.584181
-0.394513	0.422804	-0.249993
0.422128	-0.270354	0.381598
-0.268229	-0.541418	-0.178381
0.11659	0.0537761	0.616778
-0.622986	-0.0464632	0.0814215
0.121658	0.455763	-0.417588
-0.231001	-0.543006	-0.220644
0.235997	-0.580577	-0.0643046
0.317818	-0.0769239	-0.538493
-0.0531607	0.623668	-0.0714996
-0.375769	-0.346826	-0.36798
-0.5934	-0.0372806	-0.208294
-0.257213	0.560215	-0.130001
0.234506	0.452998	0.369729
0.0757227	0.0795462	-0.620354
0.43624	0.452346	-0.0444705
-0.541379	-0.206335	0.247456
0.520795	-0.034214	-0.352849
0.242612	-0.518515	0.263023
-0.275807	-0.489633	-0.284762
-0.215348	-0.583466	0.100462
-0.291813	-0.553581	-0.0727591
0.462195	0.101029	0.416016
0.204301	0.585746	-0.109833
-0.584987	0.224782	-0.0645266
-0.545458	-0.133954	-0.285362
-0.254447	0.543585	0.191499
-0.00243349	-0.442837	0.448095
-0.0175264	-0.11181	-0.619751
-0.179309	0.133765	0.588944
0.53589	0.00715794	-0.331166
0.210877	0.593384	0.0180639
-0.242581	-0.558	-0.163372
-0.421967	-0.10026	-0.456937
0.0987989	-0.554431	-0.282391
0.531665	0.072234	-0.330174
0.385247	-0.280689	-0.411945
-0.000334115	-0.286419	0.561128
0.597855	0.186121	-0.0694862
0.408563	-0.278345	0.390513
0.338126	-0.0362584	-0.530336
-0.165057	0.279952	-0.539706
-0.419946	0.43741	-0.170934
0.325525	0.307272	0.443303
0.617217	-0.123563	0.0259973
0.0911254	0.621695	0.0457346
-0.0230962	-0.600431	-0.189338
-0.614508	-0.0621616	-0.124162
-0.584831	-0.197483	-0.125988
-0.506593	-0.28021	0.248487
-0.379054	-0.279343	0.418551
-0.612081	-0.149154	0.00307471
-0.15082	-0.447672	-0.416825
-0.194044	0.167572	-0.57547
-0.109909	0.370106	0.497837
0.426567	-0.117748	-0.448415
0.513643	0.346823	0.113067
0.00188108	-0.359902	0.517076
-0.368745	0.167963	-0.482406
0.0635885	-0.0384949	-0.625599
0.0229773	-0.36812	0.510744
0.18805	-0.544543	0.254972
-0.0237919	0.503621	0.377757
-0.337148	-0.323037	0.42294
0.292146	-0.190745	0.524563
0.381206	0.465039	0.187938
-0.227917	-0.56756	0.151096
-0.101331	-0.220965	-0.581211
0.592463	-0.0205276	0.213227
0.122591	-0.600432	0.146128
-0.588265	0.12345	0.188693
-0.619404	-0.0419844	0.107124
-0.582459	0.226099	0.0807504
0.421822	0.0692678	0.462783
0.179076	0.360119	-0.484919
0.436857	-0.102601	0.442187
-0.123113	0.56568	-0.248494
-0.113407	0.507374	0.355824
0.486981	0.324586	-0.233224
-0.0636693	-0.0740757	-0.622382
-0.140277	0.603036	0.116488
0.443163	0.143109	0.424296
-0.583936	-0.123533	0.201639
-0.247154	-0.579336	-0.0135784
-0.534848	-0.0708408	0.325299
0.608422	0.128008	0.101671
-0.272386	0.0179526	-0.567788
-0.612711	0.05635	0.135316
0.380406	0.500314	-0.0433239
0.230916	-0.333044	0.482348
0.23289	0.342504	-0.474714
0.212006	0.302526	-0.510325
0.519662	-0.181933	-0.306188
-0.0246301	0.260902	0.572908
0.418559	-0.393077	0.259228
0.161201	-0.451503	-0.408729
0.540871	0.0174624	0.322573
0.579406	-0.0385373	0.244344
0.542774	0.316544	-0.0457843
-0.612576	-0.134561	-0.0595365
0.414245	-0.333055	-0.338195
0.47005	-0.412063	0.0784691
0.209761	-0.509668	0.305187
0.0584052	0.0922896	0.620461
-0.239091	0.505231	-0.290649
-0.369806	0.352506	-0.368623
-0.15353	0.546637	0.272977
-0.0867016	-0.413484	-0.467347
0.077508	0.262693	-0.567349
-0.342318	0.320374	0.420807
-0.582767	-0.239061	0.0115434
0.56163	0.201023	0.202637
0.284786	-0.535068	0.171753
-0.410133	-0.196344	-0.43605
-0.568394	0.124331	-0.241599
-0.308213	0.463806	0.294599
-0.231032	-0.448318	0.377538
0.564674	0.117344	0.253523
0.408257	-0.346816	0.33158
-0.0534933	0.114658	0.617164
0.618929	0.111858	-0.0362574
0.045832	0.173828	0.603807
0.421714	-0.315279	0.345914
0.431348	0.0599841	0.455237
0.423813	-0.0424829	0.464196
0.478309	0.0734561	0.403392
-0.389097	0.170974	-0.46505
-0.0182378	0.062757	-0.626601
0.00602056	0.624543	0.0825223
-0.239812	0.333329	0.477788
-0.1478	0.00433318	0.612402
0.515195	0.142253	0.333524
0.292534	-0.540465	0.138641
0.0670363	-0.607792	-0.151642
-0.208881	-0.134001	-0.579062
-0.501358	-0.37808	0.0509422
0.393722	0.489964	0.0426329
0.371581	0.251213	-0.442402
0.211195	-0.580229	-0.125025
-0.000642927	-0.188447	-0.601155
-0.290629	-0.546474	0.117479
-0.615095	0.0934522	-0.0991207
0.0316789	0.590825	0.216383
-0.364382	0.19236	-0.476574
-0.16568	0.208154	-0.571071
0.0854837	-0.0558943	-0.621666
-0.393424	0.33335	0.361933
0.46863	0.368249	0.204154
-0.530052	-0.308492	-0.144145
-0.0438259	-0.597897	0.193645
0.268028	0.017437	0.569874
0.0391274	0.555754	0.294119
0.376134	0.273718	0.424855
-0.622803	0.0240893	-0.0918484
-0.0700712	-0.243112	0.576963
0.565881	0.173826	0.215554
-0.223879	0.145142	0.570712
0.343728	0.436428	-0.297122
0.104231	0.610264	0.116676
0.386343	0.370417	-0.332311
0.28169	-0.0722827	-0.558861
0.319498	0.392336	0.375358
0.460537	-0.0178652	-0.429518
0.24874	0.318945	0.483014
-0.0902272	0.614396	-0.106193
0.436534	0.385855	0.239697
0.122292	-0.58362	0.203302
-0.347841	0.451466	-0.268488
0.0954386	-0.242445	-0.573596
-0.0845941	-0.0502881	-0.622266
-0.408033	-0.109925	0.467254
0.0234712	0.489834	-0.395489
-0.379	-0.41311	-0.287402
0.256429	-0.43637	0.375133
0.317186	-0.543909	0.0213556
-0.404169	0.468179	-0.119815
0.566906	-0.234533	-0.143219
0.201058	-0.459244	0.381538
0.00292052	0.34592	-0.526527
-0.134905	-0.601443	-0.130255
-0.377158	0.123564	-0.489269
0.579634	0.150351	-0.195753
-0.194967	0.283554	-0.527717
0.112534	0.563572	0.258114
-0.292736	-0.478768	0.286335
-0.198628	-0.0526294	0.595548
0.0853346	0.579099	-0.232943
0.111335	-0.354423	0.508811
-0.174974	0.0155669	0.605014
0.255406	0.160737	-0.55302
0.456968	-0.0807801	0.426093
0.607518	0.020754	-0.165505
-0.564058	0.00836349	0.280479
-0.0449091	-0.473416	0.413232
0.0782092	-0.0417039	0.623734
-0.358884	-0.326436	-0.401923
0.27677	-0.469996	0.315281
-0.00784718	-0.330564	-0.536252
0.423956	-0.309946	-0.347986
-0.110438	0.387116	-0.484608
-0.0708029	-0.522021	0.345515
-0.516739	0.291133	-0.212419
0.1662	0.607338	-0.0204358
0.270887	0.493427	-0.282931
0.255433	0.573777	-0.0493337
0.622742	0.0530467	-0.0792398
0.316892	-0.166295	0.518484
-0.130961	0.45208	-0.418775
-0.0438186	0.389876	0.492927
-0.0108915	0.244818	-0.580384
0.114054	-0.289178	-0.547967
-0.351913	0.508399	-0.120778
0.350513	0.280877	-0.441757
-0.359573	-0.34621	-0.384377
-0.315209	0.415979	0.352852
0.57102	-0.128379	0.233143
0.14069	0.0894145	-0.607545
-0.329558	-0.347918	-0.408955
-0.501191	0.374652	-0.0730959
0.355655	0.145771	-0.49916
-0.484169	-0.386062	0.115918
-0.531201	0.294143	-0.167946
-0.521237	0.0380968	0.351796
0.580216	0.184259	0.162165
-0.0736052	0.614513	-0.117714
0.169561	-0.523469	0.306804
0.436631	-0.125371	0.436503
-0.245047	0.562669	-0.142321
-0.563223	-0.27437	-0.0663408
-0.0406093	0.33077	-0.534642
-0.173897	0.570908	0.201801
-0.042037	-0.263879	0.570527
-0.0525048	-0.626857	-0.0345545
0.549471	-0.061877	0.301916
-0.622285	0.0352582	-0.091753
0.347208	-0.471274	-0.23291
0.361027	-0.282311	0.432273
-0.0813181	0.581972	-0.227146
-0.425713	-0.273321	-0.375451
0.450447	0.183608	-0.400357
-0.105211	-0.516599	0.3449
0.115538	-0.119884	-0.607601
0.284145	-0.415751	-0.378567
0.110473	0.526845	0.327307
-0.500691	0.258123	-0.282101
0.361008	0.363672	0.366491
-0.227236	0.580068	0.09373
0.0837068	-0.41605	0.465613
-0.346754	0.228855	0.473589
0.477462	0.0279353	-0.410061
-0.159741	-0.25166	0.555023
-0.179604	0.0895955	0.597172
-0.604999	0.0798664	0.156517
0.613385	0.139763	-0.0335476
0.348556	0.0957504	0.515985
0.150206	-0.049147	-0.609855
0.597053	0.164112	0.116168
-0.0621888	0.0657896	-0.623462
0.0849871	-0.578254	-0.235158
0.276971	-0.176942	0.537474
-0.220065	0.553178	0.206073
0.261752	0.500153	-0.279701
-0.287885	-0.114653	-0.548522
0.447654	0.0929809	-0.433428
-0.510516	0.0112867	-0.36898
0.417929	-0.107074	0.459097
0.29019	-0.0322835	-0.558254
0.115801	-0.214046	-0.581098
0.0107353	0.329508	0.536851
-0.0785789	-0.615176	-0.110834
0.0339805	0.563147	-0.280376
-0.0291129	0.148657	-0.611517
0.401745	0.255147	0.412796
-0.543283	0.305626	0.0913045
-0.503292	0.171543	-0.33789
0.0631783	0.10597	-0.617802
-0.195569	0.272257	-0.533413
0.384065	0.353607	-0.352641
-0.27084	0.123975	0.555136
-0.395527	-0.0446145	-0.488332
0.438134	-0.224469	0.393131
0.62611	-0.0280784	-0.0640181
0.0731576	0.305965	-0.545833
0.0503068	0.0899393	-0.621514
0.486933	0.396016	0.0544711
-0.452415	-0.431514	-0.0775668
-0.39868	0.380499	0.305246
-0.12556	0.270142	0.55512
-0.357641	-0.243834	0.457754
0.344313	-0.0458293	0.525593
-0.494842	-0.191357	0.339726
0.256799	0.563603	0.11535
-0.341319	0.363163	-0.385376
0.275705	-0.521361	-0.221515
-0.33926	-0.513588	0.134276
-0.622291	0.0626952	-0.07565
0.0502145	0.606861	-0.16155
0.366667	-0.510578	0.0420239
-0.0145771	-0.629271	0.026559
-0.205043	0.279866	-0.525864
0.520527	-0.352633	0.0400237
0.454682	-0.41869	0.121913
0.330312	-0.375668	0.382972
0.603117	-0.0884396	-0.159149
0.0746949	0.226115	0.58326
-0.164467	0.336064	0.506864
-0.224019	-0.525429	0.265781
-0.0767561	-0.614337	0.116612
-0.239221	-0.401994	0.421989
0.494154	-0.38795	-0.0469716
0.411153	-0.465517	-0.105578
0.581126	0.0114696	0.243026
-0.00563101	0.593251	-0.211946
0.398515	-0.274816	-0.40319
0.158311	-0.469977	-0.388534
0.485311	0.40167	-0.0058661
-0.53817	-0.266508	-0.190384
-0.54273	0.278028	0.158255
0.156325	-0.377362	0.479646
0.163573	-0.521696	-0.313012
0.273308	-0.512272	-0.2445
0.0772805	0.319052	0.537711
0.0258151	0.623632	0.085538
0.204453	0.223819	0.552272
-0.320962	-0.202452	0.502888
-0.0457241	-0.618709	0.109584
0.131679	-0.380285	0.48471
0.54892	-0.296394	-0.0879623
-0.395506	0.38411	-0.304851
0.302091	0.528519	-0.162198
-0.346912	-0.484152	-0.205301
0.217404	-0.0578341	-0.588465
-0.582976	-0.11806	0.207609
-0.385033	-0.315167	0.386418
0.599231	0.188332	-0.048514
-0.162356	0.0233554	0.608272
0.322687	0.121335	-0.527306
0.546143	0.172365	0.262523
-0.328368	-0.202854	0.497921
-0.567335	-0.0659863	0.26585
-0.300814	-0.521816	0.184712
0.46414	-0.25335	0.342473
0.12647	0.399484	0.470445
0.611603	0.148864	0.0261038
-0.592732	-0.116833	0.178658
0.347161	0.420394	-0.315671
-0.272778	0.443237	0.355012
0.0772201	0.232109	0.580571
-0.612812	-0.102801	-0.103889
0.480552	-0.391246	0.113564
-0.265574	-0.540664	-0.184534
-0.225043	0.179633	0.560346
0.137292	-0.220844	-0.573828
0.404779	0.439284	-0.200208
0.46312	-0.307487	0.296432
0.100569	0.201982	-0.588208
-0.25552	-0.488527	0.304879
-0.423684	0.120193	-0.450495
-0.249183	0.191064	-0.546171
0.31135	-0.0758007	0.542416
0.479688	-0.308445	0.267695
-0.59312	-0.211207	0.022374
0.129387	0.14385	0.599555
0.503473	0.240545	-0.292494
-0.407352	0.466906	-0.113854
-0.0849604	-0.618275	-0.0861275
0.0104185	-0.61642	-0.129683
-0.161904	0.603793	-0.0782371
0.103078	0.208612	0.585453
-0.604485	0.00544205	-0.177393
0.0892374	0.158473	-0.603177
-0.225225	-0.511999	-0.289881
-0.600957	-0.0758826	0.173183
-0.34493	0.493872	0.184427
-0.590759	-0.00335881	0.218844
-0.329953	-0.461275	0.274328
-0.28475	0.4551	-0.329699
-0.0818045	-0.592195	0.19878
-0.260365	0.564	-0.104948
-0.181925	-0.273881	-0.537394
0.017878	0.629727	0.00489685
-0.085036	0.280822	-0.557501
-0.479955	-0.099935	0.395671
0.468581	0.246355	-0.341527
0.497365	0.283096	0.263411
0.23653	-0.427419	-0.397828
-0.295542	-0.547516	0.0988967
0.581924	0.0621883	-0.233232
-0.0412708	0.567586	0.270264
-0.627341	0.0410569	0.0407205
0.596308	0.0504272	-0.19691
-0.0787279	-0.38938	-0.488963
-0.524909	-0.348266	0.00904857
-0.295602	-0.551854	0.0705484
0.319601	-0.484446	0.245085
-0.136201	-0.133258	0.600493
0.582014	0.0415505	-0.237556
-0.262679	-0.261977	-0.509184
-0.0572144	-0.569373	-0.263517
0.265939	-0.551934	-0.146785
-0.319556	-0.121035	0.529277
-0.163192	-0.59255	-0.138392
0.240626	0.54994	0.19122
-0.510632	-0.0873335	-0.358508
-0.0401102	-0.528154	0.341094
0.531689	-0.310389	-0.13366
0.224251	0.0969119	0.580706
-0.503294	0.361825	-0.112597
-0.180442	-0.596195	0.0942951
0.387556	0.244514	0.432335
-0.626884	-0.00490607	-0.0623939
0.441996	-0.128502	0.430147
-0.436893	-0.00814754	-0.453826
-0.41444	-0.181727	-0.438309
0.182392	0.209852	0.565328
-0.101724	0.0884235	-0.615413
-0.499724	0.367392	0.110448
0.0182269	0.618651	-0.117639
-0.0520662	0.525296	-0.34388
0.141316	0.4269	-0.441233
-0.46016	-0.266517	-0.337818
0.192625	-0.108697	0.589899
-0.530388	-0.338336	-0.0334309
-0.154286	0.549621	0.266482
0.177249	-0.603733	0.0314623
0.592395	0.0957615	-0.191827
-0.269363	-0.56432	0.0767253
-0.182294	-0.0366455	0.601935
0.261045	-0.481314	0.311597
-0.510648	0.333687	-0.157452
-0.383707	0.292596	0.405039
-0.541255	0.322338	-0.0063888
-0.626211	0.0403751	-0.0559383
0.573829	0.239897	0.100351
0.227579	-0.439813	-0.389451
-0.504183	-0.0901467	0.366842
0.434587	0.399583	0.219926
-0.296674	-0.195775	0.520151
0.47767	0.139737	0.386271
-0.238012	0.546373	0.204271
-0.589502	-0.113941	0.1908
-0.443659	-0.43687	-0.0959787
-0.157371	-0.327337	0.514767
0.447793	0.435834	-0.0801907
-0.187395	-0.528157	0.287807
-0.140438	0.271852	0.550703
-0.188948	0.560943	-0.215735
-0.0624334	0.0149404	0.626721
-0.629441	-0.0209175	-0.0163091
-0.0723459	0.552402	0.29414
-0.239458	-0.304301	0.496952
-0.0763678	0.618145	-0.0946804
-0.0337929	-0.34323	-0.527211
-0.624654	-0.0816786	-0.00599438
-0.551567	0.230839	0.198462
0.24896	0.533937	0.223226
0.54531	0.0228128	-0.314669
-0.467285	0.313058	-0.283795
0.56749	-0.231211	-0.146276
0.153489	0.186244	0.58194
-0.246719	0.107475	0.569631
0.327364	0.535611	0.0534194
-0.624192	0.00103969	0.0853434
-0.42638	0.304538	-0.349795
-0.275506	0.324038	-0.464754
-0.564223	0.237002	-0.149606
0.542645	-0.29347	0.127717
-0.0152785	0.626838	0.0611579
-0.121446	-0.312767	-0.533224
-0.149415	-0.416867	0.448104
0.0935255	-0.622443	-0.0267887
0.626429	-0.0651431	-0.0155922
-0.0110782	0.621076	0.105078
0.610731	-0.139869	0.0659117
-0.266321	0.198421	0.535353
0.557717	0.116019	0.269056
-0.480502	-0.379526	0.148249
-0.571846	-0.215036	0.153792
-0.376267	-0.203004	-0.462723
-0.393084	-0.244392	-0.427385
0.495641	0.11643	0.371058
-0.597197	-0.0209882	0.199537
-0.346918	-0.525681	-0.0143823
-0.109568	0.0791354	0.615331
0.0185558	0.39586	-0.489745
0.135721	-0.150705	-0.596463
-0.114754	-0.173355	-0.59471
-0.54676	0.289171	0.119724
-0.269281	0.568669	0.0316853
-0.568174	-0.0950037	0.255054
-0.597849	0.174841	-0.0943809
0.159494	-0.204335	0.574203
0.359176	0.51334	0.0661409
-0.242884	-0.311898	0.490538
-0.197276	-0.231873	0.551559
-0.0866435	-0.317657	-0.53711
0.462287	-0.418904	-0.0878092
0.0919382	-0.303443	0.544398
-0.409231	-0.371052	0.302903
-0.00346889	0.230926	0.586141
-0.228262	0.578916	0.0982492
-0.436928	0.0096726	-0.453763
0.0205523	-0.0941797	-0.622582
-0.0793007	0.519894	-0.346874
-0.299387	-0.522214	-0.185904
-0.500639	0.259992	-0.280472
-0.214454	-0.10299	0.583354
0.499327	-0.277251	0.265903
0.251704	-0.356493	-0.454376
-0.567405	0.273286	-0.0163126
0.153406	-0.256871	-0.554422
0.327003	-0.0903039	-0.530862
0.0689548	-0.432505	-0.452863
0.340629	0.467047	-0.250478
-0.261144	0.430535	-0.378607
0.190168	-0.164359	-0.577687
-0.510609	0.0944333	0.356737
0.294975	0.111229	-0.545452
0.0126616	0.570454	0.267062
0.212254	0.593053	-0.011662
-0.2619	0.524458	-0.230765
0.307009	-0.187315	0.51726
0.531232	-0.311506	-0.132878
-0.47319	-0.406788	0.0866889
-0.145821	-0.0483337	-0.610983
0.243719	0.0654997	0.577244
0.359453	0.105802	-0.506458
