0.362417	0.112785	0.502826
-0.065745	0.479679	-0.403095
-0.195713	0.594352	0.0730864
-0.502093	0.0820471	0.371579
-0.580735	0.0330875	0.241975
-0.420359	0.00551821	0.469221
0.62075	0.106376	0.0159329
0.36297	-0.405123	0.31785
0.529354	-0.329206	-0.0911476
0.0976284	-0.17532	0.597186
0.191783	-0.574455	0.173555
0.585914	0.227775	0.0415127
-0.356927	-0.468681	-0.223253
-0.288498	0.0275434	0.559384
0.435285	-0.434207	-0.137444
0.139453	-0.399899	0.466405
0.593247	-0.0572207	-0.204167
0.370077	0.39506	-0.322289
0.160153	0.59968	-0.107867
-0.135498	0.575412	-0.21781
-0.396256	0.0753895	0.483939
0.0525778	-0.412936	-0.472884
0.582211	-0.194818	-0.141336
-0.162562	0.0878698	-0.602289
-0.222896	0.139571	0.572484
0.569806	-0.0941432	-0.25171
-0.362709	-0.395193	0.330401
-0.0559174	-0.0806436	-0.62231
0.252834	-0.117801	0.564888
0.44743	0.0229818	0.44292
0.177387	-0.0380016	0.603316
-0.109649	-0.39966	-0.474498
-0.112919	-0.568841	-0.246107
-0.327583	0.525978	-0.113739
-0.495461	0.387625	0.0341298
-0.617499	0.0169242	0.123729
0.153657	0.539263	-0.287201
0.0181246	-0.519073	-0.356559
0.0809404	-0.620156	-0.0758646
0.207121	-0.0650143	0.591417
0.564281	-0.253706	0.11883
0.0954642	-0.44106	-0.439605
0.237431	0.0941838	-0.575896
0.375622	0.501621	-0.064684
-0.298405	-0.0117699	0.554721
0.212953	0.132734	0.577869
0.27013	-0.561561	-0.09262
-0.180643	0.360828	-0.483809
-0.108596	-0.457476	0.419312
-0.546501	0.313218	-0.0114493
-0.415958	0.134768	0.45356
0.266545	-0.0444571	-0.569102
-0.376618	0.480053	0.156867
0.0924349	0.521494	-0.341174
0.488607	0.394148	0.0530127
0.59726	-0.196632	-0.0389381
-0.115187	-0.613792	0.0830142
0.0220826	-0.629325	0.0190256
0.466623	0.422542	0.0249316
-0.240593	-0.247901	0.52684
0.30737	-0.0498267	-0.547669
0.581741	0.187241	-0.153029
-0.234509	0.418002	0.408877
0.229784	0.0733522	0.581996
-0.261229	0.325997	0.471578
0.409122	-0.282064	-0.387246
-0.125274	-0.182301	0.589892
0.160616	-0.365924	-0.487034
-0.154171	0.517058	0.325241
0.0539575	0.382501	-0.497676
0.149262	0.574898	0.210031
0.0449799	0.613627	0.135421
0.348029	-0.524356	-0.0287575
0.364468	0.0766702	0.508119
-0.0988757	0.496579	0.374877
0.0918713	-0.561326	0.270874
-0.234869	-0.252522	0.527228
-0.36454	-0.478495	-0.187224
-0.578544	-0.0354973	-0.246834
-0.358274	-0.458975	0.240587
-0.618008	0.0952408	0.0767777
-0.0983032	-0.379479	0.493186
-0.522565	-0.273094	0.221914
0.292855	0.550725	-0.088534
-0.429976	-0.143944	0.43738
-0.224142	0.15715	-0.567419
-0.451258	-0.431972	0.0816464
0.160795	-0.194753	0.577162
0.211049	-0.468412	0.364621
-0.275124	-0.561349	0.0780641
-0.409372	-0.225681	-0.422354
-0.235201	0.425198	-0.400983
-0.342559	0.511573	-0.13359
-0.17275	0.0490243	0.603866
-0.460282	-0.423943	-0.0728899
0.470344	0.40962	-0.0888166
-0.302754	0.534682	0.139123
0.594681	-0.0834831	0.190485
-0.476406	-0.140934	-0.387395
0.565007	-0.203819	0.190065
0.619874	0.00240438	0.112474
-0.276941	0.494052	0.275892
0.338771	-0.519998	0.108332
0.450794	0.255124	-0.358605
-0.340046	0.386467	-0.363196
0.191195	0.600154	-0.0126184
0.102462	0.567981	0.252585
-0.211364	-0.128287	-0.579455
-0.0371532	-0.101503	-0.620658
-0.251137	-0.448891	0.363768
0.39219	0.165849	0.464308
-0.518242	0.220234	-0.282528
0.191956	-0.147015	-0.581755
-0.456142	-0.390848	0.189927
0.562594	0.184955	0.214895
-0.351596	0.341483	0.395816
-0.423877	0.3141	0.34434
-0.55121	-0.01886	0.304486
0.372762	-0.338156	0.378945
0.610419	-0.0886643	0.128168
-0.169618	0.274482	0.5411
-0.296329	0.548461	-0.0909929
-0.0618974	0.0660979	0.623458
0.168388	-0.170667	0.582596
-0.412067	-0.165243	0.446984
0.462098	0.181177	-0.387996
0.397934	-0.336157	0.354326
0.148272	-0.567485	-0.229947
-0.122195	-0.106046	0.60887
-0.622058	0.0997214	-0.000266303
0.211065	0.593589	-0.00209326
0.228623	-0.368295	0.457155
0.42025	-0.369033	0.290008
0.208985	0.576365	-0.145011
-0.198622	0.192857	-0.565911
0.0990313	0.440841	-0.439035
0.412643	-0.401025	0.256524
-0.0978624	0.258232	0.56625
-0.41448	-0.307392	-0.361409
0.621027	0.0743332	0.0754949
0.0113343	0.620319	-0.109437
0.0602935	-0.017211	0.626872
-0.396489	0.423331	-0.245943
0.358042	0.400832	-0.328694
0.0436522	0.443499	-0.445312
-0.333342	0.534359	-0.0156217
-0.372416	0.454075	-0.228084
0.165258	0.315568	-0.519622
-0.00432086	-0.432705	0.457873
0.429865	-0.208169	-0.41083
0.435264	0.402086	-0.213943
0.468608	0.318919	0.27495
0.540299	-0.200188	0.254759
0.185125	-0.487843	0.35304
0.603448	0.176625	0.0394185
-0.0433302	0.605672	0.167881
0.364621	-0.0595553	0.510298
-0.202535	0.574379	-0.161148
-0.222919	0.507371	0.299636
0.148966	-0.304323	0.531128
0.205592	0.151491	0.575918
0.548229	0.0827659	-0.299157
0.381282	-0.307563	-0.396143
0.590331	-0.17267	0.13636
0.0055894	0.360635	0.516538
-0.127247	-0.616519	0.0247494
-0.575799	0.104091	0.233496
-0.235779	0.398831	0.426898
0.20631	-0.367637	-0.468165
0.543896	0.0111924	0.317729
-0.537499	-0.116415	-0.307315
0.127018	0.588314	-0.186154
0.0601645	-0.547746	0.305376
0.115974	0.548198	-0.287974
0.561947	-0.136063	-0.250204
0.0536151	0.591483	0.210176
0.327149	-0.50069	0.197947
0.173859	0.238251	0.556695
-0.144442	0.571017	0.223553
0.321206	-0.533765	0.0939241
-0.593686	-0.181229	0.107671
0.461023	0.33074	0.273804
0.21225	-0.317982	0.500737
0.153184	-0.347696	0.502536
-0.115821	0.440374	-0.435381
0.451639	-0.0538668	-0.435914
-0.608321	0.15694	-0.0470693
-0.390238	0.294506	0.397342
-0.249119	-0.00906042	-0.578583
-0.173722	0.167477	0.581956
0.617344	-0.0770302	0.0992612
-0.250526	-0.549832	0.178385
0.306483	0.503308	-0.22282
-0.320905	0.132691	-0.525655
-0.240945	0.121133	0.569361
0.440902	0.332678	0.303036
0.311916	0.525642	-0.152672
-0.0122301	-0.200062	0.597265
0.0504255	-0.136565	-0.61295
0.101412	-0.493121	-0.378744
0.424924	0.125212	-0.447953
-0.330423	0.179938	-0.505314
-0.0153422	0.326611	0.538507
0.287576	-0.486377	-0.278635
0.190358	-0.123746	-0.587666
-0.448422	0.442372	-0.0111734
0.409649	-0.417676	0.23374
-0.363137	0.185603	-0.480191
-0.541754	0.0284845	0.320298
-0.580421	0.205348	0.133581
-0.53608	-0.138042	-0.30077
0.423664	0.451745	0.11548
-0.0839684	0.389385	0.488087
-0.14388	-0.114201	-0.602625
-0.418715	-0.357664	0.30603
-0.0798067	-0.623754	0.0382353
-0.183803	-0.496814	-0.341017
0.271398	0.422561	0.380374
-0.135896	0.0646931	0.611757
-0.212651	0.39502	0.442311
0.529339	0.159161	0.302272
-0.508352	0.021934	-0.371479
0.470358	-0.354776	0.223154
-0.322747	0.0639785	-0.537253
0.410814	-0.153444	0.452313
-0.61775	0.0386741	0.11743
-0.57224	-0.245695	0.0952617
0.490133	-0.248635	-0.307977
0.230588	0.511258	-0.286957
0.1683	-0.590242	-0.142088
0.169505	0.47074	0.382847
-0.315367	0.533154	0.114849
-0.0762959	-0.296939	-0.550369
0.548226	0.115894	-0.287954
-0.506699	0.330777	-0.175337
-0.302708	0.422343	-0.356222
-0.350363	-0.0706226	0.518804
-0.00137401	0.563918	0.280881
-0.0762611	-0.012392	0.625244
0.183865	0.289925	-0.52824
-0.536666	-0.241581	0.224784
0.0403196	0.225443	-0.586898
0.118102	0.173011	0.594154
-0.242371	-0.442654	0.377112
0.0663152	0.267387	0.566574
-0.0620466	0.395141	-0.486738
0.0122577	0.518914	-0.357041
-0.478203	-0.2203	-0.345961
0.521146	0.353901	-0.00777522
0.526642	-0.225392	0.262196
0.268245	0.465759	-0.328653
0.213433	-0.240879	-0.541594
-0.160542	-0.0250898	-0.608684
-0.290484	0.395255	0.395338
-0.551382	-0.297955	0.064037
0.585533	-0.157502	0.171009
0.0227794	-0.0483545	0.627728
-0.414566	0.292197	0.373706
-0.513647	-0.355452	0.081978
-0.586764	-0.219645	0.0660596
-0.425901	0.423346	-0.190492
0.209392	0.553994	-0.214815
0.00887744	-0.459483	-0.430926
0.603212	0.160062	0.0861118
-0.538262	0.129387	0.30072
0.46441	-0.232301	-0.356734
-0.433712	-0.0523649	-0.453929
-0.419688	0.205555	-0.422504
-0.396319	0.338735	-0.35368
0.0369508	-0.625949	-0.0610135
-0.616206	0.0127355	0.13049
-0.108822	-0.491805	0.378399
-0.546494	-0.0946871	-0.298795
0.280695	0.117901	0.551552
0.381184	-0.324737	-0.382289
-0.00503865	-0.606718	-0.169611
-0.21558	0.488238	-0.334737
0.503575	-0.295421	-0.236725
0.467877	-0.11193	0.406771
-0.502863	0.270932	0.265754
0.538063	-0.111322	0.308213
-0.455418	-0.428144	-0.0786585
-0.252871	0.400674	-0.41523
-0.595596	-0.204804	0.0148705
0.142118	-0.534223	-0.302172
0.39766	-0.453339	0.182348
0.53717	-0.27395	0.182483
-0.510756	0.29101	-0.226586
0.168904	0.0122091	0.606813
0.178296	-0.589984	0.130499
-0.0184158	0.573728	-0.259609
0.305555	0.0895438	-0.543616
-0.401429	-0.18611	-0.448461
-0.187106	-0.593092	-0.100661
0.407749	-0.0306976	-0.479269
-0.421784	-0.00947948	-0.467876
0.0964198	0.498304	-0.373224
0.253703	0.345617	0.461609
0.379834	-0.495673	-0.083272
0.0579358	0.398544	0.484465
-0.326244	0.212108	0.495454
-0.138979	0.419229	0.449257
-0.238662	-0.5217	0.260325
0.570118	0.16173	-0.213796
-0.459015	0.188476	-0.388178
-0.363657	0.432205	0.279021
-0.331196	0.416603	-0.337122
-0.108781	-0.0132812	0.620395
-0.286712	0.539724	0.152952
0.228287	0.224386	-0.54262
0.599416	0.19325	0.0159744
0.427789	-0.460643	0.0412908
-0.0567037	-0.240953	-0.579333
-0.130914	0.0343306	0.615291
0.405816	0.369633	0.309168
0.0311998	0.566055	-0.274787
-0.340567	-0.2357	0.474721
-0.586726	0.123135	-0.193623
0.448988	-0.19902	0.394589
0.156591	-0.526904	-0.307817
0.132712	-0.13262	0.601415
0.492772	0.294878	-0.259081
0.316379	0.544593	-0.0149166
0.300837	-0.318793	0.452513
-0.0194864	-0.460716	0.429256
0.390444	-0.480925	0.114738
-0.32078	-0.327636	0.432036
0.232661	-0.500559	0.30366
0.0551473	0.525429	0.343195
0.306225	-0.449685	-0.317662
0.289071	0.480775	-0.286694
0.491086	0.0230408	0.393959
-0.466033	-0.420599	-0.053011
0.10165	-0.36232	-0.505264
0.0846703	0.615818	0.102466
-0.384378	-0.444382	-0.227328
-0.545969	0.168503	-0.265376
-0.566183	-0.00357939	-0.276269
-0.498742	0.024804	0.384111
0.294076	0.55715	0.00167477
0.292801	-0.0724126	0.553104
-0.416288	0.0506982	-0.470142
0.133967	-0.563188	-0.248539
0.603272	0.118002	-0.137981
0.184922	0.512813	-0.315796
0.0108722	-0.599195	0.194286
0.182488	0.573492	0.186293
0.216955	0.356096	0.472256
-0.245342	-0.571042	-0.103045
0.439286	0.356976	0.276579
-0.0273567	0.0427023	-0.627956
-0.355455	-0.514997	-0.0730034
-0.555362	-0.0883024	-0.284035
-0.168381	0.517173	0.31793
0.0965674	0.110192	-0.612725
-0.532177	-0.235663	0.241144
0.448454	-0.240574	-0.371366
-0.389409	-0.352906	0.347445
0.437653	-0.452714	0.0202534
0.628467	-0.0223452	-0.0378098
0.147574	0.547866	-0.273797
0.426674	0.0382342	0.461939
-0.627288	0.050625	-0.0290954
0.0806105	0.334619	-0.527667
-0.149064	-0.602417	0.108507
-0.561947	0.0828256	0.272499
-0.511973	-0.266218	0.252809
0.399713	-0.237611	-0.425054
-0.366531	0.510958	0.0384255
-0.0423323	-0.412047	-0.474684
-0.540159	-0.289673	0.145663
-0.116066	-0.617328	0.0483162
-0.313731	0.439644	-0.324324
-0.131146	0.17628	-0.590446
-0.256899	-0.259079	-0.513596
-0.127868	0.112476	-0.606547
0.300868	-0.0766866	-0.548176
-0.222732	0.456775	0.372353
0.0315347	0.59413	0.207161
0.259976	-0.056751	-0.571044
0.141427	0.534432	-0.302127
0.475035	-0.250213	-0.329598
-0.493396	0.261247	0.291909
0.461537	-0.414807	-0.108713
-0.370245	0.13144	0.492486
-0.535197	0.280946	0.177575
-0.518409	-0.08112	-0.348671
0.592752	-0.197385	0.0811436
0.549777	0.0807621	-0.296854
0.503598	-0.244261	0.289181
-0.441399	0.162823	0.418994
0.260178	0.477565	0.318024
0.453936	0.280909	-0.334563
0.474201	-0.0757929	-0.407785
-0.131524	-0.615329	0.031175
-0.270213	0.512106	0.248258
-0.380763	-0.501862	-0.00734081
-0.195428	0.513695	0.307937
-0.132729	0.582918	-0.19872
0.298635	-0.133723	-0.538363
-0.568411	-0.246078	-0.11513
0.52138	-0.223992	0.273661
0.045684	-0.536605	0.326907
-0.481863	-0.405591	0.0142861
-0.499264	0.177382	0.340838
0.462603	-0.38133	-0.193614
-0.153909	-0.383097	0.475866
0.382396	0.485941	-0.120558
-0.580144	-0.200573	0.141787
-0.157538	0.58306	-0.179227
0.45334	-0.297676	-0.320581
-0.314664	-0.00658014	0.54575
-0.0355994	-0.591071	-0.215099
0.300039	-0.502978	-0.232142
0.146582	-0.460719	0.403921
0.457304	0.208629	-0.379799
-0.0155959	0.629265	-0.0261165
0.302764	0.0430865	-0.550797
-0.229704	-0.0134464	-0.586477
0.0892553	-0.0752433	0.61909
-0.56271	-0.181974	-0.217125
-0.336736	0.333811	0.414824
0.0211536	0.371361	-0.508472
0.0100977	0.502518	0.379834
0.447474	0.326977	0.299588
-0.31667	0.544413	-0.015308
0.177372	0.565469	-0.213739
-0.444196	0.237432	-0.378439
0.450442	-0.0648166	-0.435661
-0.486129	-0.39992	0.0253537
0.534801	0.138963	0.302618
0.160793	-0.35044	-0.498235
0.295505	-0.55129	0.0752067
0.0922368	-0.242639	-0.574037
-0.406358	0.0529793	0.478504
0.430748	0.277292	-0.366696
0.584632	-0.0828556	0.219636
0.156403	-0.00019821	0.610277
0.212816	0.534439	0.256875
-0.178081	-0.333398	-0.504017
-0.61201	-0.147064	0.026751
0.574358	0.207218	0.155154
0.472723	0.408935	-0.0787694
0.528651	-0.340965	0.0342184
0.421939	-0.396446	-0.248391
-0.266438	0.536225	-0.19589
-0.0731324	0.607684	0.149236
0.494816	0.362159	0.144563
-0.407768	-0.140522	0.459216
-0.368991	-0.0647855	0.506506
-0.167688	-0.572396	0.202837
-0.492859	0.025977	-0.391555
0.362261	-0.514036	0.0378656
-0.55256	0.0679483	-0.294891
0.00525602	0.43101	-0.459459
0.208202	0.586892	-0.0954469
-0.608621	0.158825	-0.0354298
-0.010716	-0.0311315	-0.629139
0.612864	0.0486711	0.137582
-0.375286	-0.50388	0.0465344
0.365055	-0.478017	0.187442
-0.492584	-0.174242	-0.351996
-0.0820238	-0.521436	0.343913
-0.454803	-0.212393	0.380714
-0.246762	-0.373956	-0.442906
-0.22049	0.270322	0.524605
0.514605	0.0727776	-0.356069
0.0859026	0.593732	-0.192361
0.0112544	0.106417	0.620845
0.15217	-0.0251299	-0.61083
0.166518	-0.589381	-0.147653
0.553197	-0.276188	-0.120805
0.145123	0.471882	-0.391366
0.455921	-0.0263584	-0.433983
-0.00371069	0.353889	0.521199
-0.237869	0.273964	0.515036
0.482066	-0.286957	0.28665
0.386895	-0.00564164	-0.497172
-0.585504	0.219599	-0.076562
0.0717243	0.579529	0.236435
-0.177887	0.326408	-0.508639
-0.261476	-0.557181	0.134459
0.48995	0.224052	0.326573
0.0848176	-0.126248	-0.611365
0.00680725	-0.500048	0.383152
0.13667	0.156288	0.594807
-0.0916881	-0.53139	0.325757
0.266026	-0.517286	-0.241963
-0.300008	-0.0457105	0.552092
-0.525484	0.165878	0.30537
-0.336069	0.123839	0.518287
0.0911303	-0.0147418	0.6232
-0.428604	-0.103856	0.449903
0.520668	-0.198975	0.293621
0.395104	0.435832	0.225485
0.338959	0.334972	0.412068
-0.196252	-0.575232	-0.165812
0.129719	-0.567556	0.240735
0.418253	-0.257757	0.394368
-0.250059	-0.576912	0.0392887
-0.587562	0.107673	-0.200193
-0.45448	-0.419868	0.118572
0.506839	0.201021	0.315603
-0.225118	-0.128155	0.574281
-0.0512683	-0.241442	0.579636
-0.0647213	-0.592755	0.203354
0.496829	0.346375	0.173453
0.0183769	0.629389	-0.020792
-0.0178551	-0.588343	0.224575
-0.134422	0.613778	0.0459096
0.33627	0.497528	0.190495
0.580153	0.152432	-0.192581
0.601614	0.107112	-0.153256
0.392591	0.164699	-0.464378
0.151266	0.44986	0.414301
-0.548609	-0.226313	0.211448
0.516316	-0.00605815	0.360945
-0.29996	-0.552785	-0.0367852
-0.621747	-0.032264	0.0963804
-0.244558	0.373029	0.444905
-0.257875	-0.0587936	-0.57179
-0.122331	0.031126	-0.617225
-0.172927	0.583747	0.161975
-0.146391	-0.171492	-0.588269
0.401533	0.354136	0.332053
0.141036	-0.306886	-0.531818
-0.205416	0.000249075	0.595571
0.607051	0.153247	-0.0700291
0.21676	-0.546764	0.225751
-0.277615	-0.192545	0.531749
-0.0446077	0.152388	-0.609662
0.109815	0.570155	0.244467
-0.396572	0.477483	-0.107893
-0.113345	-0.197665	-0.587351
-0.318201	-0.501836	-0.209307
0.258259	0.0819892	0.568753
-0.245753	0.434538	0.384295
-0.179152	0.407467	0.445842
0.175146	-0.108664	0.595329
0.450324	0.168788	0.406963
0.230443	0.375752	0.450118
0.143672	-0.602122	-0.117077
0.33205	-0.484518	-0.227782
0.0649632	-0.412063	0.472106
0.499513	-0.241834	0.298166
0.177515	-0.212542	-0.565875
-0.177267	-0.398903	-0.454261
0.458418	0.241974	-0.358052
-0.390301	-0.493576	0.03078
0.497131	-0.261039	-0.285691
0.160666	0.148184	-0.59087
0.314124	-0.184281	0.514069
0.164388	-0.599849	-0.100288
-0.334075	0.527962	0.080934
0.136032	0.606615	0.102046
0.348218	-0.366815	0.375621
0.276176	-0.565415	-0.0305328
0.416179	0.289087	0.37433
-0.356125	-0.302312	-0.422708
-0.178543	-0.448402	0.404918
0.321348	-0.414392	0.349163
-0.369263	0.501515	-0.0950129
-0.165573	0.393931	0.46293
-0.54622	-0.313431	-0.0174646
0.272707	0.554746	0.121606
-0.248342	-0.441222	-0.374899
-0.575219	0.21964	0.133347
-0.229516	-0.350993	-0.470134
0.585623	-0.0126651	-0.231916
-0.225995	0.417689	0.413959
0.0921905	0.22165	0.582471
0.320956	-0.156203	0.519122
-0.014779	-0.242425	-0.581302
-0.396885	0.371616	-0.318252
-0.479296	0.237348	0.332929
-0.601181	-0.186644	0.0254193
0.452908	0.168859	0.404055
-0.0998002	0.254702	0.56751
-0.182084	0.570201	0.196509
-0.361416	0.482486	-0.18299
-0.458416	0.419495	-0.103821
-0.305998	0.234606	0.498222
0.293426	0.293926	0.473718
-0.439674	-0.324533	-0.313472
0.559159	0.289985	0.0122679
-0.0800952	-0.520432	-0.345884
0.202172	0.240108	0.546237
-0.197302	0.195629	-0.565421
0.141513	-0.571908	-0.223149
-0.0267366	-0.611945	0.147339
0.0852877	-0.606369	-0.148131
-0.00177673	-0.181825	-0.603189
0.31399	0.20773	-0.505133
-0.0598346	-0.550261	-0.300887
-0.470587	-0.0157496	0.418568
-0.256909	0.243518	0.521149
0.527017	-0.0494444	0.341626
0.223974	0.571686	-0.141106
0.595369	0.182558	-0.0954383
0.00386039	-0.493504	0.391585
-0.269015	0.134676	-0.553528
0.392286	-0.474053	-0.135225
0.218673	-0.519776	0.280918
-0.201957	0.519583	-0.293508
0.0317991	-0.619744	-0.108657
0.195192	-0.540905	0.257337
0.0943854	-0.0991371	-0.61495
0.533295	0.280767	0.183484
-0.250143	-0.0490976	-0.576123
0.0441955	0.108725	-0.618971
-0.388403	0.440809	0.227442
0.425319	0.172369	-0.431616
0.556745	-0.287158	-0.0668983
0.551895	-0.0240162	0.302878
-0.480937	-0.227066	0.337698
-0.4852	-0.137807	0.377479
0.585731	-0.128684	0.193027
0.465574	0.372218	-0.203949
0.573455	-0.179715	-0.189083
0.28584	0.12919	0.546356
-0.266575	-0.498691	-0.277749
0.354688	-0.466617	0.231009
0.0758152	0.579546	0.235113
0.240229	-0.450403	0.369225
-0.00335865	0.539855	-0.324723
0.618735	-0.0535518	-0.105826
-0.0716135	0.114741	0.61531
-0.300976	0.426139	0.353156
0.294169	-0.219505	0.512037
-0.330485	-0.00806822	0.536297
0.625766	-0.0203054	0.0700371
0.210572	0.494417	0.328803
-0.397377	-0.398807	0.282744
0.163129	-0.291945	0.533907
-0.267307	0.556064	-0.127435
-0.516844	-0.00553256	-0.360196
-0.57144	0.0771276	0.253786
-0.455445	0.337981	-0.274296
-0.0883909	-0.62163	-0.0516066
0.369774	0.470172	0.19775
-0.616122	-0.0998362	-0.0855975
0.62669	-0.0412471	-0.0495818
0.400869	0.352716	0.334359
0.173073	-0.298768	-0.526957
-0.0349049	0.628384	0.0285557
0.0918995	0.597919	0.175917
-0.594188	0.091175	-0.188488
-0.330634	-0.531154	-0.0738707
-0.285668	-0.23099	-0.511798
-0.501822	-0.188303	-0.331083
0.328934	-0.0130484	0.537152
-0.0808473	0.00411224	-0.624777
0.608796	0.0100498	0.161762
0.486983	0.396719	0.0485968
-0.050168	-0.108889	-0.618487
0.14571	0.0249337	-0.612411
-0.0272479	-0.42443	-0.464776
-0.444642	-0.421712	-0.146124
0.477121	-0.381231	0.154656
-0.265278	-0.260108	-0.508794
-0.605016	0.0851509	-0.153637
-0.112164	-0.412494	-0.462783
-0.233892	0.458277	0.363562
-0.0170657	0.625648	0.0719224
0.424344	-0.457408	-0.0872332
0.300699	-0.285404	-0.474367
-0.188725	0.546239	0.250811
0.163183	0.608275	-0.0165177
0.518454	0.0281198	-0.356812
0.170336	0.566635	0.216358
-0.255178	0.538692	0.20395
0.253064	-0.280613	-0.504098
-0.0719087	-0.105391	0.616946
-0.521463	0.286689	0.206848
0.308436	0.276341	0.474766
-0.550843	-0.29405	-0.0837053
0.182672	0.576816	0.175539
-0.286237	0.107249	0.550877
-0.195785	0.523543	0.290639
-0.0930383	0.299019	0.546655
0.434281	-0.228479	0.395092
-0.259977	-0.553388	-0.1519
0.228983	-0.0567773	-0.58416
-0.49946	-0.275884	0.267073
-0.617551	0.0733799	0.100727
0.162825	0.0953562	0.601078
-0.0775248	0.530326	-0.331126
0.617162	0.0129062	0.125874
-0.297426	0.410934	-0.373593
0.212454	-0.343249	-0.483677
-0.579368	-0.189878	0.15868
0.305605	0.536373	0.125734
-0.143002	0.260658	-0.555435
-0.180389	0.597038	-0.0889117
-0.264578	-0.0031186	0.571742
-0.322261	0.492515	0.224671
-0.0619552	-0.5305	-0.334113
-0.225206	0.584987	-0.0630295
-0.5867	-0.221004	0.0619682
0.0340452	-0.265497	-0.570309
0.123827	0.506135	0.354111
-0.121064	0.374634	0.491826
0.3361	0.377469	0.376104
0.0365007	-0.623368	0.0835457
0.294759	0.535225	0.153462
0.0207949	0.328683	0.537061
-0.491031	-0.228503	0.321831
-0.27442	-0.567024	0.00876224
-0.5156	-0.362012	0.00182202
0.0459856	-0.356523	0.517375
-0.325557	-0.301081	0.447507
-0.301573	0.34756	0.430297
0.224244	0.553108	-0.201709
0.605786	-0.0783374	-0.154227
0.3285	-0.232813	-0.484547
-0.0782096	0.446118	-0.437907
0.0827197	-0.546898	0.301596
-0.530686	-0.0924207	-0.326697
0.551229	-0.19001	-0.238627
-0.191507	0.462025	0.38309
-0.435828	0.338794	-0.303599
-0.377044	0.0184192	0.504379
0.015796	-0.46044	0.429704
0.186551	-0.278579	0.533378
0.423552	-0.46619	-0.0130339
0.212563	0.0419316	0.591573
-0.529556	-0.239948	0.242685
-0.410285	-0.405767	-0.252822
-0.360394	0.396546	0.331312
0.524216	0.0138786	0.349148
-0.0735835	0.290456	-0.554185
0.155851	0.556373	-0.251117
-0.202212	0.450243	0.391525
-0.311484	-0.0355578	0.546455
-0.612803	-0.12051	-0.0827667
0.0610308	0.218974	0.587559
0.405529	0.480913	-0.0341829
0.479175	0.405797	-0.051187
-0.629456	-0.0173989	-0.0195398
-0.559531	-0.101012	0.271333
-0.198979	-0.41835	0.426955
0.0620782	-0.519077	-0.351576
-0.140819	0.419795	0.448155
-0.436433	-0.45276	0.0378783
0.23767	0.189104	0.551953
-0.257669	0.0890227	0.567963
0.177505	0.0215704	-0.604092
0.120281	-0.47088	-0.40088
-0.609569	-0.131809	-0.0891719
-0.345624	0.0640546	0.52282
0.0843352	-0.0621777	-0.621226
0.270492	0.175207	0.541329
0.246158	-0.579524	0.021403
0.129693	-0.587389	0.187227
0.2842	0.539203	-0.159345
-0.0228175	0.123203	0.617414
0.0961541	0.36825	0.502042
0.150993	-0.485575	-0.371912
-0.148429	-0.0293424	-0.611562
-0.509144	-0.266464	-0.258204
-0.433782	-0.32659	0.319487
0.183816	-0.0061749	-0.602556
-0.247031	-0.455775	-0.357973
0.108187	0.590685	-0.190491
-0.542929	0.31652	-0.0440838
-0.280532	0.561818	0.0506166
-0.172704	0.445817	0.410269
-0.179043	-0.487019	-0.35729
0.22449	0.453392	-0.37542
-0.10525	-0.164866	-0.598867
0.101644	0.544938	0.29935
-0.602782	0.0436484	-0.1779
0.345422	0.100503	-0.517187
0.0263039	-0.0843906	0.623768
-0.485092	-0.0627268	0.397053
-0.36937	-0.413743	-0.298802
0.00637714	0.596978	0.201189
-0.165623	-0.392253	-0.464334
0.281087	0.508747	0.243037
0.476655	0.360904	-0.198617
0.617377	0.0394263	-0.119129
0.609125	0.155976	-0.0392283
-0.330941	-0.536058	0.00452477
0.571912	-0.210383	0.159861
-0.464171	-0.26422	0.334115
-0.394951	-0.407821	0.273123
0.564193	-0.278166	0.0347824
0.0547566	-0.619015	-0.103547
0.559994	-0.226193	0.179285
0.353866	0.498922	0.150851
-0.206925	-0.213467	-0.55544
0.316777	-0.104757	0.534395
0.522664	0.165326	-0.310467
-0.270844	-0.0787287	-0.563334
0.020708	0.620698	-0.105855
0.233325	0.146397	0.566593
-0.44623	-0.0492644	-0.441986
0.555761	0.295082	-0.0309332
-0.573148	0.203073	-0.164811
0.12772	0.558998	0.260977
