0.0604483	0.0650108
0.0968494	0.0977942
0.114728	0.115261
0.134853	0.145963
0.142647	0.174799
0.143779	0.183815
0.148941	0.203002
0.153877	0.200197
0.158357	0.220611
0.165826	0.193889
0.166752	0.172882
0.176058	0.221158
0.181564	0.189488
0.195074	0.234521
0.19704	0.219571
0.19961	0.290839
0.200058	0.201577
0.204644	0.326309
0.208979	0.284158
0.210062	0.220626
0.210256	0.216439
0.211039	0.213273
0.21383	0.226506
0.217757	0.225685
0.217855	0.560982
0.218336	0.229182
0.221724	0.240491
0.223994	0.274005
0.22607	0.302327
0.226298	0.278737
0.234096	0.453998
0.234556	0.353547
0.238458	0.245419
0.242164	0.308359
0.24682	0.278828
0.246902	0.257421
0.250546	0.270138
0.25126	0.25873
0.256492	0.287604
0.258825	0.357276
0.267832	0.284341
0.270394	0.28851
0.276975	0.391091
0.277047	0.290367
0.282731	0.302584
0.301287	0.324921
0.313042	0.354391
0.315059	0.316221
0.395476	0.419616
0.458875	0.513322

