0.0382593	0.0416324
0.042467	0.0454289
0.0773816	0.0863724
0.083134	0.100174
0.0843913	0.0844307
0.090965	0.0949798
0.097044	0.0981005
0.118044	0.131296
0.118964	0.121585
0.138133	0.141664
0.164139	0.187556
0.164675	0.208043
0.165824	0.194017
0.175354	0.263923
0.175855	0.206059
0.176673	0.243366
0.178001	0.178726
0.181495	0.260206
0.182494	0.211237
0.186839	0.223635
0.188705	0.189583
0.196511	0.213205
0.196978	0.233159
0.203073	0.29421
0.203828	0.234301
0.205821	0.246806
0.20657	0.256314
0.212684	0.334717
0.212951	0.219476
0.215167	0.27359
0.217831	0.240777
0.219148	0.260019
0.219443	0.537849
0.230042	0.25254
0.233206	0.314987
0.234435	0.247143
0.243711	0.447155
0.243764	0.384791
0.247043	0.277566
0.268987	0.279179
0.270128	0.317076
0.275024	0.303784
0.27784	0.322237
0.284297	0.372456
0.285405	0.333765
0.288816	0.306903
0.296698	0.35039
0.301962	0.383767
0.321012	0.386113
0.325335	0.332569
0.339212	0.454213
0.397149	0.436193
0.547031	0.556605

