0.0678097	0.0688189
0.0908094	0.0950671
0.0978365	0.115925
0.112426	0.128817
0.124515	0.1488
0.130072	0.132825
0.142442	0.210079
0.147327	0.209168
0.147387	0.167176
0.149412	0.2053
0.150855	0.156913
0.15646	0.181196
0.164601	0.166125
0.17188	0.224198
0.172377	0.216843
0.17273	0.218941
0.180636	0.288645
0.182531	0.245821
0.182549	0.194104
0.192773	0.209507
0.193088	0.247817
0.202992	0.207404
0.215352	0.268364
0.222297	0.530727
0.223967	0.232478
0.22582	0.433352
0.23348	0.302564
0.23412	0.440192
0.238362	0.310746
0.240127	0.260642
0.240576	0.358158
0.241903	0.257406
0.246317	0.300536
0.254852	0.284411
0.255297	0.269186
0.275651	0.348582
0.283195	0.331994
0.287421	0.313403
0.303808	0.403241
0.337277	0.427153
0.375674	0.528785
0.376551	0.376633
0.438873	0.442647

