0.0554976	0.0597266
0.0576779	0.0640578
0.0606771	0.0651894
0.0759526	0.0945746
0.0760447	0.0764045
0.0963864	0.0979431
0.103224	0.127514
0.11212	0.116956
0.135502	0.175762
0.14019	0.153619
0.147196	0.24829
0.156678	0.180806
0.157269	0.165486
0.163597	0.187153
0.178624	0.183592
0.183355	0.184588
0.187305	0.325859
0.18771	0.254847
0.195671	0.203968
0.199552	0.261258
0.203401	0.374332
0.204645	0.213755
0.209951	0.22059
0.212783	0.318159
0.215111	0.251758
0.22117	0.525125
0.23405	0.267418
0.236461	0.274894
0.240432	0.25929
0.247342	0.355223
0.248006	0.27558
0.252131	0.257809
0.254295	0.259337
0.273605	0.408596
0.301632	0.379668
0.336077	0.348196
0.353629	0.531433
0.431944	0.516495
0.549517	0.559164

