0.044889	0.0480466
0.0824254	0.0890177
0.0827451	0.109982
0.0856165	0.0931896
0.0959167	0.104368
0.0989306	0.116035
0.100722	0.13107
0.124808	0.133791
0.127321	0.139171
0.137979	0.138458
0.14337	0.150102
0.148361	0.162305
0.160349	0.179112
0.163329	0.195814
0.169527	0.219335
0.170815	0.171458
0.171497	0.172834
0.171569	0.265101
0.171954	0.29939
0.175252	0.196289
0.176149	0.187928
0.180193	inf
0.184685	0.219604
0.190479	0.191661
0.192951	0.338065
0.193	0.210558
0.19898	0.260943
0.199729	0.215797
0.199893	0.200716
0.200055	0.213394
0.200701	0.425627
0.203939	0.22236
0.204109	0.209206
0.204915	0.226558
0.210331	0.22111
0.218846	0.229019
0.226569	0.23022
0.23257	0.300255
0.242292	0.250577
0.279609	0.304447
0.284878	0.293253
0.286194	0.322701
0.289241	0.320316
0.307469	0.410158

