0.0708926	0.0751752
0.0724261	0.0724475
0.0736054	0.0856901
0.0901821	0.113186
0.105007	0.122663
0.113183	0.141574
0.116451	0.132904
0.120303	0.126055
0.132753	0.139068
0.141428	0.161203
0.14348	0.151191
0.148774	0.234619
0.151556	0.156256
0.170291	0.214628
0.172319	0.194126
0.172703	0.184743
0.174087	0.198401
0.175222	0.19899
0.176761	0.187292
0.178922	0.250823
0.179675	0.260293
0.184132	0.200936
0.184683	0.192495
0.184721	0.216334
0.188171	0.222203
0.189341	0.222922
0.190923	0.241871
0.19303	0.235765
0.20443	0.257973
0.20511	0.22234
0.206699	0.223027
0.208315	0.232092
0.209854	0.570964
0.210297	0.41381
0.21421	0.393094
0.22096	0.222706
0.223668	0.270385
0.224562	0.225985
0.232598	0.288936
0.245648	0.275947
0.245872	0.265487
0.251721	0.277253
0.258719	0.337588
0.258971	0.369189
0.264562	0.27281
0.27261	0.425993
0.273273	0.316143
0.294153	0.474098
0.328606	0.54304
0.3289	0.394442

