# Persistence diagram </home/jens/Uni/data_topology/Project/Graph_Data/Synthetic_Barabasi-Albert/bag_40.gml>
#
# Dimension   : 0
# Entries     : 64
# Betti number: 1
35	inf
35	43
35	40
35	39
35	37
35	37
35	38
35	37
35	41
35	39
35	37
35	37
35	37
35	40
35	38
35	37
35	37
35	37
35	37
35	39
35	37
35	39
35	37
35	37
35	37
35	37
35	37
35	37
35	37
35	37
35	39
35	37
35	37
35	37
35	37
35	38
35	37
35	38
35	37
35	38
35	37
35	39
35	38
35	37
35	37
35	37
35	37
35	37
36	38
36	40
36	41
36	37
36	38
36	37
36	37
36	37
36	37
36	37
37	40
37	39
37	38
38	44
38	39
40	43


