# Persistence diagram </home/jens/Uni/data_topology/Project/Graph_Data/Synthetic_Barabasi-Albert/bag_91.gml>
#
# Dimension   : 0
# Entries     : 73
# Betti number: 1
33	inf
35	40
35	40
35	44
35	39
35	37
35	40
35	38
35	38
35	38
35	37
35	37
35	37
35	37
35	38
35	37
35	37
35	38
35	38
35	37
35	38
35	37
35	37
35	37
35	37
35	38
35	37
35	39
35	38
35	39
35	38
35	39
35	38
35	37
35	37
35	37
35	38
35	39
35	38
35	38
35	37
35	37
35	37
35	37
35	37
35	38
35	37
35	37
35	37
35	38
35	37
35	37
35	37
35	37
35	38
36	41
36	38
36	40
36	37
36	39
36	37
36	37
36	37
36	38
36	37
36	37
36	37
36	37
36	37
36	37
37	39
37	38
37	38


