# Persistence diagram </home/jens/Uni/data_topology/Project/Graph_Data/Synthetic_Erdos_Reny_reduced/err_50.gml>
#
# Dimension   : 0
# Entries     : 34
# Betti number: 1
31	inf
31	43
31	41
32	40
32	40
33	41
33	39
33	40
34	40
34	40
35	40
35	40
35	41
36	39
36	40
36	39
36	40
36	40
36	39
36	39
37	42
37	42
37	39
37	40
38	40
38	40
39	40
39	40
39	41
39	40
39	42
40	41
40	41
40	42


