# Persistence diagram </home/jens/Uni/data_topology/Project/Graph_Data/Synthetic_Erdos_Reny_reduced/err_5.gml>
#
# Dimension   : 0
# Entries     : 28
# Betti number: 1
30	inf
30	40
31	39
32	39
34	40
35	39
35	38
36	41
36	40
37	40
37	41
37	39
37	41
37	41
37	40
37	40
38	43
38	39
38	41
38	40
39	40
39	41
39	41
39	40
40	41
40	41
41	42
42	44


