# Persistence diagram </home/jens/Uni/data_topology/Project/Graph_Data/Synthetic_Erdos_Reny_reduced/err_33.gml>
#
# Dimension   : 0
# Entries     : 28
# Betti number: 1
30	inf
31	41
33	37
33	39
33	41
34	37
35	39
36	37
36	40
36	41
36	42
36	39
36	39
37	40
37	41
37	38
37	40
37	42
37	38
38	41
38	43
39	41
39	40
39	41
39	40
39	41
39	40
43	44


