# Persistence diagram </home/jens/Uni/data_topology/Project/Graph_Data/Synthetic_Erdos_Reny_reduced/err_27.gml>
#
# Dimension   : 0
# Entries     : 37
# Betti number: 1
28	inf
32	39
32	38
32	41
33	39
33	38
33	39
33	39
34	37
34	39
34	42
35	43
35	39
36	41
36	39
36	43
36	37
36	39
36	40
36	39
37	39
37	38
37	39
37	39
37	39
38	43
38	40
38	42
39	41
39	41
39	41
39	40
39	40
39	40
39	40
40	41
40	41


