# Persistence diagram </home/jens/Uni/data_topology/Project/Graph_Data/Synthetic_Erdos_Reny_reduced/err_62.gml>
#
# Dimension   : 0
# Entries     : 35
# Betti number: 1
28	inf
31	42
32	40
33	41
33	39
34	39
34	39
34	36
35	40
35	41
35	41
35	36
36	41
36	41
36	39
36	42
37	39
37	39
37	42
37	39
37	40
37	39
37	40
38	39
38	41
38	39
38	41
38	41
39	41
39	42
39	42
40	41
40	41
41	42
41	42


