# Persistence diagram </home/jens/Uni/data_topology/Project/Graph_Data/Synthetic_Erdos_Reny_reduced/err_71.gml>
#
# Dimension   : 0
# Entries     : 33
# Betti number: 1
29	inf
30	39
32	39
32	39
33	38
33	37
34	38
34	39
34	37
34	39
35	39
35	36
35	42
35	40
35	39
35	38
36	37
36	41
36	37
36	39
36	38
37	40
37	40
37	39
37	41
37	39
37	39
38	41
38	40
38	39
39	40
40	43
41	43


