# Persistence diagram </home/jens/Uni/data_topology/Project/Graph_Data/Synthetic_Erdos_Reny_reduced/err_90.gml>
#
# Dimension   : 0
# Entries     : 22
# Betti number: 1
29	inf
32	40
32	36
33	39
34	39
34	38
34	39
35	37
35	39
36	40
36	43
36	38
37	38
37	40
38	39
38	41
38	39
38	39
39	40
39	41
39	41
40	41


