# Persistence diagram </home/jens/Uni/data_topology/Project/Graph_Data/Synthetic_Erdos_Reny_reduced/err_68.gml>
#
# Dimension   : 0
# Entries     : 35
# Betti number: 1
27	inf
32	41
33	39
34	41
34	42
34	41
35	42
35	41
35	42
35	42
36	40
36	43
36	40
37	40
37	39
37	41
37	40
38	43
38	39
38	39
38	40
39	41
39	41
39	42
39	40
39	43
39	42
39	41
40	42
40	41
40	41
41	42
41	46
41	43
41	42


