# Persistence diagram </home/jens/Uni/data_topology/Project/Graph_Data/Synthetic_Erdos_Reny_reduced/err_53.gml>
#
# Dimension   : 0
# Entries     : 34
# Betti number: 1
28	inf
30	40
31	40
32	40
33	40
33	38
33	42
33	40
33	36
34	38
34	41
35	40
35	40
36	40
36	41
36	39
36	40
36	37
36	39
36	37
37	40
37	40
37	39
37	38
38	41
38	40
38	40
38	42
39	42
39	40
39	40
39	40
40	41
41	43


