0.235017	0.268713
0.315515	0.448925
0.327931	0.446144
0.331921	0.377026
0.35434	0.458883
0.366142	0.515357
0.376441	0.530545
0.398238	0.410852
0.409465	0.496773
0.426558	0.504298
0.436954	0.481659
0.447924	0.497345
0.458038	0.459612
0.461761	0.470486
0.477225	0.512854
0.495339	0.498234
0.511149	0.51413
