0.289066	0.330314
0.325419	0.414559
0.338265	0.370161
0.385331	inf
0.388364	0.432311
0.398025	0.405196
0.409317	0.455966
0.427164	0.490904
0.450791	0.469905
0.472126	0.480288
0.479761	0.506104
0.482051	0.487335
