0.313168	0.484638
0.325527	0.407752
0.354931	0.449879
0.361549	0.530572
0.361646	0.404856
0.371384	0.372446
0.375398	0.499309
0.379107	0.387639
0.383901	0.476146
0.384944	0.469751
0.390093	0.453834
0.391453	0.529309
0.414076	0.508032
0.415523	0.46068
0.446247	0.461856
0.487167	0.490915
