0.247415	0.256026
0.319124	0.472408
0.327383	0.472616
0.334559	0.437668
0.362611	0.40978
0.371192	0.49867
0.380358	0.403623
0.393448	0.417193
0.404724	0.433934
0.405435	inf
0.435052	0.548977
0.479643	0.492781
0.490517	0.491518
0.53767	inf
