0.0314845	0.0369107
0.0640577	0.0752953
0.0790596	0.0830176
0.0866722	0.12348
0.0913324	0.107275
0.0918334	0.0931564
0.0939134	0.0989651
0.0985133	0.11658
0.118752	0.121322
0.123297	0.127697
0.129726	0.138952
0.14755	0.167149
0.155083	0.164376
0.157548	0.220668
0.158771	0.194785
0.164098	0.243439
0.166104	0.223137
0.166329	0.166882
0.175561	0.195751
0.186283	0.186657
0.189444	0.28109
0.19836	0.272599
0.200707	0.26428
0.209884	0.614101
0.210861	0.313716
0.214122	0.23229
0.219098	0.297355
0.222969	0.238455
0.224792	0.272183
0.230154	0.270437
0.232037	0.292541
0.235832	0.289443
0.239417	0.246408
0.242775	0.266025
0.242776	0.24895
0.265776	0.268249
0.266338	0.31037
0.269793	0.300955
0.270885	0.271776
0.272147	0.465529
0.272579	0.273312
0.272825	0.381206
0.307362	0.378479
0.330772	0.337416
0.366826	0.417433
0.374217	0.375627
0.391582	0.426917

