0.0550455	0.0641853
0.0635465	0.068466
0.0741825	0.0898225
0.0819486	0.0900284
0.0970588	0.111593
0.126407	0.14119
0.134041	0.185348
0.149264	0.200541
0.1518	0.169721
0.151841	0.178672
0.153235	0.157963
0.158575	0.173383
0.158716	0.197318
0.159505	0.18988
0.162377	0.16823
0.164562	0.21168
0.165861	0.250469
0.166648	0.175577
0.168914	0.178071
0.169515	0.188046
0.177086	0.184834
0.178703	0.200854
0.182205	0.187833
0.185444	0.23154
0.188114	0.310537
0.194317	0.592609
0.194818	0.297099
0.196986	0.332714
0.19923	0.282547
0.199578	0.206533
0.200673	0.3466
0.202365	0.20328
0.206961	0.297655
0.216351	0.255574
0.224951	0.237676
0.237725	0.238237
0.241339	0.307532
0.247764	0.356012
0.259704	0.26188
0.259725	0.281878
0.268989	0.316195
0.270678	0.279285
0.27685	0.287561
0.277376	0.278511
0.280275	0.341246
0.289088	0.309518
0.290251	0.339135
0.315366	0.335362
0.320368	0.320663
0.346457	0.354187
0.487986	0.587782
0.52653	0.529718

