0.0733986	0.0737358
0.102278	0.104979
0.10365	0.122795
0.120141	0.162472
0.120509	0.126879
0.125024	0.135163
0.136055	0.159924
0.136157	0.13888
0.142412	0.147596
0.147247	0.157035
0.149793	0.189197
0.152806	0.188757
0.153144	0.195246
0.155426	0.182971
0.161603	0.189091
0.166574	0.174743
0.170373	0.273846
0.174917	0.207864
0.176734	0.224511
0.179044	0.215276
0.180888	0.194723
0.181882	0.31136
0.185148	0.251744
0.189856	0.230422
0.19487	0.216028
0.201559	0.202579
0.206512	0.238626
0.206649	0.225537
0.20699	0.248013
0.211755	0.298669
0.215528	0.233975
0.217585	0.228068
0.221223	0.266994
0.222606	0.517333
0.222781	0.253732
0.227082	0.248277
0.22787	0.407288
0.231854	0.266735
0.233453	0.297129
0.235261	0.255098
0.242448	0.254653
0.248108	0.258538
0.248906	0.305958
0.251968	0.294881
0.252976	0.260723
0.261777	0.277468
0.280117	0.289418
0.290445	0.311253
0.290631	0.407699
0.293891	0.309517
0.330663	0.450947
0.365023	0.387294
0.371861	0.400627
0.452892	0.481745

