0.37174	-0.524694	-0.205039
-0.132715	-0.488165	-0.249931
-0.424032	-0.271344	0.249977
-0.242548	0.702489	-0.0579847
-0.423301	-0.0578699	0.239177
-0.494566	-0.106902	-0.249928
-0.489576	-0.565522	0.0315856
0.598302	-0.44709	0.0392671
0.671167	0.331885	-0.0250645
0.252295	-0.0445954	0.0553583
-0.405093	-0.458109	0.223745
-0.0350385	-0.431131	-0.24073
-0.332474	0.517673	0.221854
-0.261828	-0.143894	-0.148336
-0.151581	0.627292	-0.203407
-0.13994	0.352212	0.218764
-0.503984	0.448668	-0.17877
-0.258273	-0.0542711	-0.0822391
-0.326851	-0.045442	0.183299
-0.0975972	-0.718393	-0.108988
0.17404	0.393986	-0.240207
0.701956	-0.158762	0.119324
-0.17967	-0.725901	0.0330489
0.692076	-0.283959	0.0310401
0.567217	-0.260743	-0.216922
-0.108367	0.612285	-0.218322
-0.472452	0.473134	0.184563
-0.00136811	0.70423	-0.144187
0.582666	-0.436004	-0.103134
-0.260373	-0.0605675	0.0914457
0.287708	0.00914136	-0.132264
-0.344098	0.114442	0.208876
0.716827	0.202477	-0.0503654
0.00675076	0.598316	-0.22984
0.298018	0.101559	-0.167984
-0.087009	-0.244462	0.0682067
-0.506188	0.385662	-0.209534
0.125487	-0.570878	-0.235284
0.0382112	-0.712701	0.129699
-0.00190154	-0.68809	-0.164685
0.699991	-0.0072194	0.149962
0.103889	-0.729809	-0.0790709
0.486299	-0.120886	-0.249998
0.688929	0.0139663	-0.163561
0.241198	-0.107289	0.0824396
-0.108481	-0.334016	0.200887
-0.382087	0.31034	0.24988
-0.257653	0.23533	0.199207
-0.093058	0.739657	0.0472848
0.592563	-0.402938	0.124869
-0.0347322	0.729679	0.0967843
-0.156561	0.606664	0.21561
0.60284	0.419786	-0.0863887
0.249078	0.0344283	-0.0268544
0.253507	-0.00170791	-0.0417603
0.241233	-0.0817827	0.0483435
0.0662174	-0.241496	0.014316
0.723576	0.0245813	0.111027
0.426706	-0.0783447	0.241086
-0.0416547	0.368274	0.213919
-0.366111	-0.649348	-0.0475006
-0.385058	0.254354	-0.247015
0.390835	0.0396254	-0.225868
-0.520484	-0.5132	-0.0957358
-0.517411	0.374945	0.207808
0.471026	-0.472434	-0.185926
-0.547572	0.506335	0.0456582
-0.191094	-0.161674	-0.0124556
-0.692772	0.287338	-0.00101928
0.0840565	0.389218	-0.228331
0.407705	0.169682	0.243084
-0.72771	0.100751	0.0862469
-0.514216	0.285704	-0.233904
0.0779105	0.741891	-0.0447059
-0.211596	-0.466282	0.24971
-0.600601	0.183827	-0.214685
-0.450678	0.548195	-0.136159
0.419371	-0.307197	0.249211
0.132502	-0.335816	0.207803
0.429383	-0.0499564	-0.240653
0.688135	0.0519895	-0.162368
0.23229	-0.652288	0.159614
-0.0863836	0.64445	0.19984
0.00801736	0.74093	0.066572
0.306729	0.563602	0.20599
-0.0315115	0.706121	0.140441
0.177613	-0.218723	0.121941
-0.629112	0.365233	-0.103771
0.102192	-0.474442	0.249569
0.187165	0.227648	-0.142676
0.43524	0.319378	-0.246804
0.039048	-0.695298	0.154692
-0.34422	-0.0429243	0.197626
0.369165	0.477189	-0.227652
-0.131087	0.408369	0.239674
-0.16534	-0.529188	0.244006
0.0261807	-0.265053	-0.0889073
0.365757	-0.0860804	0.216938
0.350831	-0.661975	0.0200454
-0.401502	0.0362105	0.23047
0.380485	0.643709	-0.0334633
-0.580726	0.155719	0.228583
-0.324487	-0.0367597	0.180054
-0.0645921	0.407331	0.234158
0.161472	0.626864	-0.201978
0.460086	0.0417032	0.247091
-0.348648	0.490942	-0.22818
-0.56665	-0.422573	0.140379
0.41036	-0.00417381	0.233385
0.55361	0.0119303	0.244156
0.153146	-0.255895	0.147599
-0.517056	0.0978647	0.24862
0.0459389	-0.47086	-0.248548
0.618646	0.0248727	-0.219782
-0.524495	-0.0589353	-0.24845
-0.0744725	-0.250431	0.0742146
-0.193751	0.306054	0.208611
-0.301267	0.311842	0.24102
-0.68503	-0.245541	-0.103198
-0.168568	0.718969	-0.0750617
0.444881	-0.468507	0.202881
0.414984	-0.298507	-0.249749
-0.473669	-0.41383	-0.214158
0.530216	0.508551	0.0861729
-0.358867	0.613066	0.135061
-0.289471	-0.60589	-0.181911
0.546008	0.511597	0.0296485
0.00705874	-0.734421	-0.0867817
0.146036	0.202977	0.00512125
-0.508967	-0.283293	0.235996
0.344458	0.546687	0.202826
0.626203	0.120754	-0.208633
-0.41104	-0.598003	0.107629
-0.709062	0.194329	-0.0847142
-0.739346	-0.0881169	0.0517815
0.435933	0.457229	-0.212472
0.521203	-0.378657	0.204199
0.687235	0.236251	-0.105369
-0.609271	-0.41382	-0.0809919
-0.370473	-0.34383	0.249941
-0.729561	-0.172746	0.01154
-0.518945	-0.314457	-0.226047
-0.294128	0.345156	0.245634
0.46396	-0.582611	-0.0508301
0.170319	0.30567	-0.199939
0.412021	-0.622938	0.0394437
-0.628516	-0.206013	-0.190904
0.624687	0.405045	0.0521041
-0.61977	-0.226369	-0.192247
0.253271	0.559892	-0.222232
-0.219008	0.237371	-0.176523
0.657819	0.301288	0.11195
0.527068	0.0751718	-0.247891
0.316458	0.67994	0.00348745
-0.558095	0.133248	-0.238865
