-0.350755	-0.656689	-0.052185
0.16191	-0.438466	-0.247866
-0.0411813	-0.63171	-0.211654
0.460848	0.439992	-0.209014
-0.384623	0.297316	0.249615
0.238968	0.645715	0.1642
-0.444643	0.586289	0.0829772
0.237409	-0.532591	0.235781
-0.55222	-0.38672	-0.17935
-0.0776835	0.243837	0.0540473
-0.314201	-0.0743705	-0.176435
0.0644822	-0.441207	0.244075
0.542936	-0.512422	0.041311
0.267071	-0.162069	0.165245
0.539615	0.503866	0.075632
0.421188	-0.494571	0.200288
-0.0346937	-0.507235	-0.249858
0.485827	-0.291879	0.24092
-0.149014	-0.680114	-0.154877
-0.270424	0.0450971	-0.107217
-0.159313	0.641393	0.191355
0.055103	-0.318283	-0.17657
0.0428044	0.262212	-0.0871529
-0.354435	0.585681	0.168615
0.203913	-0.451345	0.249955
-0.191638	0.177075	-0.0730896
-0.565951	0.409855	0.151624
-0.223724	-0.682514	0.121937
-0.266998	-0.0933572	0.123876
-0.13575	0.214727	0.0447552
-0.124618	0.306791	0.184349
0.733978	-0.148934	0.023042
-0.115952	0.394635	-0.233742
-0.440787	-0.570711	-0.116658
0.160001	0.661114	0.173286
-0.399114	0.634554	0.0135305
0.648334	0.374097	0.027143
-0.144351	0.214221	-0.0639479
-0.0248748	-0.433937	0.241308
0.209111	0.522923	0.241884
0.0822875	0.404174	-0.234175
-0.0595031	0.514858	0.24933
-0.192554	-0.44991	0.249774
0.248507	-0.0344341	-0.0209729
0.0171491	-0.613609	0.222572
0.0160696	-0.73509	-0.0845594
-0.0993907	0.619082	0.215334
0.564623	0.480886	0.0640594
-0.392355	0.637912	-0.0232581
0.0945033	0.506934	0.249509
0.303605	-0.427021	-0.24885
-0.207102	-0.711006	0.0680718
0.403417	0.397245	0.241084
0.041329	0.689647	-0.161441
0.692395	-0.208059	-0.11305
0.438259	-0.33278	0.244891
0.325531	-0.0111615	0.179241
-0.46131	-0.57865	-0.0699006
-0.526336	0.518828	-0.0731412
0.545606	-0.314772	0.213606
-0.0853529	0.743166	0.0311555
-0.0667768	-0.366348	0.214975
0.0356189	0.702088	-0.145926
0.428532	-0.271191	-0.249898
-0.500904	-0.557876	0.0110922
-0.634424	0.396959	0.0284255
0.324035	-0.213859	-0.223631
0.247701	0.125998	0.114778
0.491674	0.0423778	-0.249915
0.0795013	-0.268533	-0.118844
0.645817	0.251593	0.158793
-0.516211	-0.495586	-0.126562
0.616684	0.159514	0.209133
-0.128365	-0.306227	0.185177
-0.251005	0.365157	0.24344
0.332601	-0.586659	-0.179139
0.208422	0.487964	0.248119
0.47939	0.395503	0.218501
0.384549	0.5892	-0.145094
-0.258254	-0.674001	0.115377
-0.701497	0.0723506	-0.142778
-0.246355	-0.354072	0.240388
-0.242662	-0.442983	-0.249948
-0.177093	0.711751	0.0894434
-0.545393	-0.389676	-0.183025
0.454233	-0.583724	0.0712367
-0.206973	0.427905	-0.24878
-0.654903	-0.350717	-0.0591585
0.258303	0.286012	-0.22218
0.434864	0.596974	-0.0747301
-0.565157	-0.307365	-0.204832
-0.181119	-0.323722	0.214114
0.4908	-0.565184	-0.0269415
0.151384	-0.364635	-0.226794
0.282099	-0.565966	-0.212078
-0.178487	0.529473	-0.242999
0.182427	-0.250934	0.162758
0.215698	0.677476	0.134109
-0.457999	0.489294	0.183114
0.2903	0.0856407	0.153494
-0.449715	-0.244184	-0.249725
-0.539076	-0.240215	-0.233171
-0.123091	0.254664	-0.123883
0.0184064	-0.372294	0.215191
0.0431335	0.24954	-0.040119
-0.436141	-0.213613	-0.249587
-0.364185	-0.615918	-0.126673
-0.576173	0.026973	0.23791
-0.32302	-0.215062	-0.223541
-0.382169	-0.411198	0.24235
0.0893084	0.72496	0.0969398
-0.21919	-0.174531	0.119091
-0.0444668	-0.554026	0.243691
-0.552104	-0.225563	0.230665
-0.15198	0.704351	0.117699
-0.287729	0.530877	0.227416
0.729219	-0.0386336	0.0974093
0.342909	-0.227206	0.233755
-0.424201	0.205405	-0.248349
0.00299381	-0.25538	-0.0516666
-0.381508	-0.616879	-0.108311
0.581216	-0.465487	-0.0514876
-0.465735	0.0851138	-0.248586
0.322452	0.420122	0.248241
-0.261818	0.102435	-0.120838
-0.0535474	0.381166	-0.221933
0.721455	0.0762473	0.107991
-0.377045	-0.603508	-0.133125
0.458998	0.485411	-0.185084
0.419269	-0.326893	0.247989
0.448428	0.465115	0.202881
-0.311317	0.113687	-0.184615
0.0248271	-0.342457	0.19484
-0.241786	0.06956	-0.0281814
0.0327472	0.329784	-0.184597
0.161377	-0.667037	-0.166732
-0.665008	-0.192457	-0.159756
0.506906	0.499143	0.133446
0.0824091	0.681315	0.166732
0.232832	-0.395688	-0.246633
0.481589	0.561584	0.0706815
0.580883	0.295125	0.198824
-0.510167	-0.398617	-0.201902
0.0739257	-0.726141	-0.0982266
-0.358588	-0.125541	0.219278
0.191364	-0.725142	-0.00406001
0.44518	-0.125643	0.247182
0.173288	-0.576575	0.228222
