-0.723147	-0.012517	0.112504
-0.58298	0.158009	-0.227335
-0.098597	-0.318448	-0.186365
-0.388879	0.610513	0.111323
-0.61659	-0.401376	0.0832791
0.0500612	0.741463	-0.0581181
0.383585	0.64443	0.00491449
-0.0465378	0.327663	0.184181
-0.298748	0.106278	0.170422
0.0958067	-0.293303	-0.160774
0.30703	0.0759477	-0.169554
-0.372972	-0.367123	-0.248908
-0.0746642	-0.578194	0.235822
0.0528338	-0.710373	0.131961
-0.180419	-0.193896	0.0848851
-0.343107	0.0021641	0.194645
-0.215086	-0.127458	-0.00278225
-0.0292099	-0.279723	-0.121019
0.0974337	-0.428822	0.242632
0.748876	0.0397113	-0.00598137
0.0466626	0.746259	0.0337115
0.356148	0.576795	-0.175657
0.292698	-0.120291	-0.169736
-0.059093	0.249935	0.0580213
0.57544	0.288763	0.204483
-0.0453315	-0.705871	-0.1397
-0.0582307	-0.293228	0.148595
0.429991	0.123002	0.244369
0.626462	-0.40179	0.0533641
-0.0213412	-0.740433	0.0674078
-0.21057	0.266695	0.191929
-0.671494	0.296691	0.087684
0.271928	-0.0764778	-0.123224
0.63658	0.0938166	0.204745
0.122225	-0.332198	-0.202917
-0.635417	0.347874	-0.110181
-0.048765	0.747533	-0.0209373
0.507123	-0.0224468	0.249884
-0.37496	0.507805	0.212783
-0.0640598	-0.732768	-0.0837255
-0.394723	0.320144	0.249864
0.644605	0.156024	-0.189366
-0.0102709	-0.564093	0.24162
0.63435	-0.372846	0.0830331
-0.151174	0.205837	0.0516186
-0.112959	-0.240832	-0.0880182
-0.231312	-0.246182	-0.190242
-0.67526	0.215705	0.137371
0.740484	-0.103513	0.0339474
0.163725	-0.196101	-0.0519758
-0.48075	-0.570885	0.0425955
0.0881948	-0.235151	0.0239089
-0.202371	-0.721923	0.0111585
0.673825	-0.226071	0.134498
-0.114199	0.741254	-0.000589238
0.361849	-0.185988	-0.231998
-0.426544	0.61549	0.0240067
-0.0169625	-0.443286	0.243557
0.133386	0.683045	0.155257
-0.271784	-0.0732297	0.12144
0.668437	0.305681	-0.0852473
-0.31138	-0.0703048	0.172679
-0.245363	0.0946558	-0.0795313
-0.243113	0.31266	0.227366
0.424557	-0.209506	0.248585
-0.121269	-0.477461	0.249891
-0.355626	-0.229569	0.237939
-0.634168	0.294378	0.151111
0.191926	0.285614	0.195443
-0.656659	-0.25188	0.145482
-0.267131	-0.674072	-0.108821
-0.251383	0.484143	0.245822
-0.0316424	-0.314855	-0.169724
-0.294558	0.687899	0.0290144
-0.360414	-0.0897773	-0.214404
0.0275416	-0.608182	0.225081
0.703149	0.240679	-0.0579167
-0.627035	0.0035535	0.215313
0.43269	0.551292	-0.148905
-0.194722	0.179826	0.0854446
0.430283	-0.494046	-0.19603
0.163577	0.289075	-0.185271
0.0748358	-0.719991	0.111276
0.678525	0.0158794	-0.174821
0.717662	0.0362239	0.121345
-0.292825	-0.199575	-0.203202
-0.670362	0.131331	0.170213
0.0163662	-0.476754	0.248943
0.41299	0.0478359	0.235376
0.161135	-0.474789	0.249996
-0.740616	-0.075429	0.0523965
-0.339641	-0.533364	-0.212109
0.269088	0.160163	-0.166089
-0.196235	-0.248242	0.169719
-0.462815	0.571556	-0.0840686
-0.356	-0.621159	0.125971
-0.0630974	0.650789	0.197061
0.340897	0.556063	0.1983
0.319316	-0.0470349	0.176313
0.424342	-0.0454088	0.239033
0.71098	0.172128	-0.0943321
-0.329856	-0.0977128	-0.195375
-0.235599	0.703119	-0.0644805
0.409206	0.624306	0.0419017
-0.328708	0.266852	0.237973
0.687328	-0.266002	0.0795509
-0.182142	-0.337227	0.221076
-0.455511	-0.226767	0.249844
-0.724428	-0.193142	0.0115453
-0.393313	0.182698	0.241041
0.00489458	0.739573	-0.0713936
0.543051	0.342124	0.20587
-0.00719953	-0.352241	0.201715
0.435949	0.0373372	0.242073
0.400548	-0.502096	0.205555
0.737127	-0.0358947	0.0765233
0.552761	-0.450672	-0.130564
-0.743457	0.0919665	0.020918
-0.0879678	0.282466	0.144297
0.274773	0.255448	0.216605
-0.377425	-0.547019	-0.188176
0.53586	0.416195	0.175035
0.641162	-0.337391	-0.109969
0.591496	0.401191	0.128047
0.409936	0.030478	0.233647
0.725641	-0.0150571	-0.107311
0.352008	-0.110277	-0.212854
0.664872	-0.047739	0.186413
0.147348	0.619648	0.209168
-0.23949	0.272584	-0.209019
-0.66778	0.323269	0.0630776
-0.264259	0.57245	-0.213236
-0.696485	0.266841	0.0453502
-0.39281	0.192942	0.242097
-0.538443	0.114024	0.24487
-0.123839	-0.24642	0.110585
-0.42794	-0.548981	0.155103
0.183477	-0.187458	-0.0774694
0.0543869	-0.434132	0.242068
-0.560468	-0.0182415	0.242503
-0.335377	0.268895	-0.23996
0.333829	-0.413583	0.248008
-0.175411	-0.411413	-0.244371
-0.268369	0.272142	-0.220511
0.32357	0.114048	0.194618
0.477602	0.0489678	-0.249207
0.451241	0.30452	-0.246029
0.0254366	0.311597	-0.165511
-0.521099	-0.0772753	0.24856
-0.144417	-0.299826	-0.185855
0.455158	-0.570202	-0.0989397
-0.480834	0.391848	-0.219164
0.513384	0.186917	0.245665
