-0.494434	-0.253122	0.243771
-0.641607	-0.377516	0.0524717
-0.251154	-0.00481249	-0.0244616
0.242482	0.335993	-0.234872
0.623423	0.385744	0.0903238
0.644579	-0.117747	0.195957
-0.425052	0.349896	0.244838
-0.463021	0.589497	-0.014196
-0.268785	0.62625	-0.17193
0.247455	0.587437	0.208838
0.518043	-0.457178	-0.161391
0.136427	-0.243229	-0.116641
-0.387553	0.45388	0.230487
0.230711	-0.148529	-0.107697
-0.393914	0.633031	-0.0467773
0.18071	-0.721546	0.0551936
0.223451	-0.709287	0.0559808
0.699746	0.153983	0.125031
0.580258	0.113064	-0.232783
-0.376468	0.066898	0.220595
-0.317785	0.563308	0.202387
-0.180774	-0.301189	-0.20095
-0.313423	0.518721	-0.226389
0.623077	-0.412293	0.0377406
-0.356467	0.580068	0.172614
-0.365691	-0.640687	-0.0774347
0.306224	-0.330933	-0.245126
0.553718	-0.289422	0.216625
0.593461	0.248015	-0.204923
0.100489	-0.312879	-0.182014
-0.739636	-0.103574	-0.0395451
-0.0388626	-0.45431	0.246092
0.452479	0.28143	0.247831
0.493222	0.213575	-0.247175
-0.440793	0.150372	-0.247641
-0.410643	0.580461	-0.134039
0.495563	-0.161215	-0.249106
0.516228	-0.363344	0.212759
-0.433299	0.467643	-0.208775
0.306818	0.463832	0.243618
0.00226161	-0.705154	0.142865
-0.543459	-0.473248	0.117564
-0.000527855	-0.713328	-0.13035
0.65474	0.357559	-0.0444782
0.113065	0.724591	-0.0896863
0.0877789	0.591938	0.229816
-0.663324	-0.156524	0.17188
0.213091	-0.419373	0.248242
0.347648	0.331327	-0.249218
0.149334	0.394859	0.237571
-0.186546	0.490559	-0.248764
-0.527775	0.369453	0.204195
-0.459868	0.587764	0.0429229
-0.714655	-0.114779	-0.11139
0.297744	0.688337	0.00370323
0.586128	0.261924	0.205764
-0.208712	-0.164784	-0.0877905
-0.248758	-0.700928	-0.0555016
-0.245575	0.4354	-0.25
-0.700163	0.220065	0.088179
0.0372508	0.440989	0.243312
-0.0298983	-0.271969	-0.106049
-0.331912	0.648109	0.102201
-0.112991	0.433873	0.244605
0.0248635	0.715378	-0.126198
-0.244156	0.282737	0.215673
-0.484661	0.370884	0.224358
0.422955	0.0172945	0.237946
0.223372	-0.389035	-0.244659
0.227472	0.467427	0.249212
0.098734	-0.489907	0.25
0.200177	0.337292	-0.225574
0.32359	-0.672053	0.0450958
0.1463	0.221313	-0.0861116
-0.676169	0.242262	-0.121915
0.339861	-0.647637	-0.0946365
-0.685727	0.0911571	-0.1604
-0.616873	-0.0249364	-0.220732
0.306592	0.676966	-0.0580948
-0.0149718	-0.62212	0.218043
0.581708	0.353913	0.172544
0.439038	0.0188277	0.242554
0.00978649	-0.318685	0.172277
-0.250899	0.0551796	0.0583107
0.252482	-0.108905	-0.108907
0.622549	0.203664	0.196138
-0.00523135	-0.630965	-0.212938
0.0196345	-0.439833	-0.24276
0.679362	0.009354	0.174086
-0.235247	0.357888	0.239492
-0.263367	-0.152686	0.155727
0.362161	-0.224465	-0.238822
0.257916	-0.198642	0.179068
-0.11033	-0.226171	-0.0286449
-0.632802	0.377418	-0.0801439
0.741982	-0.0206285	0.06169
-0.288961	-0.279134	-0.229891
-0.179879	0.260799	0.170129
0.242003	-0.667022	-0.136316
-0.524577	0.481791	-0.132093
0.717824	-0.188228	0.0623796
-0.019285	-0.327519	-0.181509
-0.413304	0.558632	0.156566
0.526784	-0.395815	-0.192991
0.226168	-0.15983	-0.112897
0.281876	0.693614	0.0254455
0.26365	-0.636588	0.163613
-0.55436	0.326209	0.204912
0.647343	-0.292306	-0.135213
0.257177	0.0768885	-0.094196
0.606447	-0.423053	-0.0719368
-0.103757	-0.576582	-0.2348
0.0715389	-0.6699	-0.179792
-0.412411	0.452002	0.223572
-0.250745	-0.0576309	0.0599028
-0.0679638	0.683663	-0.165888
0.586473	0.0455297	-0.233911
0.12601	0.477997	0.249936
0.50045	0.253147	0.242486
0.498993	0.0244216	-0.25
-0.0397074	-0.453832	0.246019
-0.730028	0.119255	-0.0710065
0.171625	-0.198954	-0.0788206
-0.196471	-0.186445	0.0999635
0.553135	-0.149086	-0.239143
0.564491	-0.459683	-0.102587
0.481154	0.151767	-0.249959
0.608856	0.411837	0.0851233
0.343113	0.510713	-0.221841
0.607349	-0.436301	0.032963
-0.079012	0.697771	-0.146979
0.571229	0.447456	-0.107691
0.507942	0.54653	0.0438519
-0.718294	0.0027568	0.121843
-0.705817	0.14529	0.117596
-0.667157	-0.1635	0.166038
0.505485	-0.279303	-0.237679
-0.0542307	-0.605935	-0.225297
-0.328233	-0.0366134	-0.183552
-0.00524062	0.250704	-0.019466
-0.371502	0.284164	0.247907
-0.627598	0.266751	0.171463
-0.0167948	0.265353	-0.0876917
-0.338272	-0.558885	-0.197494
-0.626695	0.086383	-0.211924
-0.263088	-0.460125	-0.24819
0.444791	-0.388242	-0.233084
0.109166	-0.571813	0.236121
-0.368496	0.546862	0.192567
-0.363233	-0.156707	-0.227155
-0.456173	-0.1431	0.249038
0.354899	0.435547	-0.242233
0.379869	0.306836	-0.249727
-0.680387	0.312287	0.0261215
0.261738	0.0397539	-0.0845725
0.337701	0.669653	-0.0027382
-0.0848989	0.490764	0.249992
