-0.164824	-0.434408	-0.247485
0.132916	0.295218	0.177312
0.474283	-0.208238	-0.249352
0.409618	0.246254	0.249025
0.602828	-0.42952	0.0693292
0.382273	-0.132866	0.231125
-0.114294	0.234471	0.0728325
-0.0887919	0.480713	0.249751
0.00690152	-0.386519	0.222791
0.0386277	-0.356243	-0.205985
0.587066	0.39039	-0.143065
-0.0719932	0.503914	-0.249837
-0.663784	-0.272637	-0.123098
0.253901	-0.386517	-0.247164
0.381494	0.482118	0.222084
0.527241	0.18579	-0.242934
0.624431	0.323128	0.145799
-0.151286	-0.70963	0.107773
-0.150661	0.234213	-0.115894
-0.357638	0.0034002	-0.205518
-0.235354	-0.149341	0.116373
0.242073	0.300344	-0.222369
-0.238259	-0.131346	-0.102691
0.604612	-0.435571	0.0489044
0.167911	-0.690832	0.134171
-0.422201	0.476286	-0.209462
-0.100009	0.338139	-0.201937
-0.446606	-0.406436	-0.227405
0.213937	0.241687	-0.176324
-0.396685	0.63635	0.00815295
0.276622	0.274693	0.224421
-0.660363	0.254202	-0.139291
0.213838	-0.624882	0.191712
0.262483	0.0181597	0.079897
0.570108	-0.394751	0.158376
0.396298	-0.530618	0.190176
-0.524519	0.145813	-0.246024
0.621221	0.329844	-0.145415
0.550717	0.159522	0.238996
-0.0181261	-0.341564	0.193779
0.427048	-0.0718739	0.24087
-0.0499065	0.362993	0.211313
0.569091	0.472711	-0.0706446
0.323694	0.063447	0.183167
0.422822	0.618062	0.0239307
0.405364	-0.174903	-0.243056
0.690116	0.2936	-0.00356823
-0.663423	-0.0819225	0.184718
0.279906	0.439797	0.24909
-0.255898	0.166321	0.156693
0.746054	0.0345341	-0.0395419
0.128558	0.566848	-0.236431
-0.168739	0.296521	-0.193063
0.017157	-0.739986	0.0693633
0.602527	-0.129837	-0.221271
-0.18926	-0.294096	0.199798
-0.387601	0.596058	0.134088
-0.564419	-0.482391	0.0608739
-0.601112	-0.333516	-0.165432
-0.205885	0.524454	-0.241822
-0.0319677	0.570687	-0.239533
-0.23439	-0.352511	0.237951
-0.299456	0.470757	0.243196
-0.228089	-0.437263	0.249907
-0.201622	0.721666	0.0186757
0.536942	0.233522	-0.234916
-0.468374	-0.234875	0.248849
0.151517	-0.227175	-0.104889
-0.508493	-0.537804	-0.0695397
-0.170822	0.729627	-0.017914
0.325803	-0.230749	0.228796
0.660689	-0.343739	0.0509189
-0.365127	-0.00437811	-0.210515
0.0940012	0.254047	-0.10002
-0.528464	-0.091596	-0.247344
-0.500939	-0.438039	0.187423
-0.368683	0.0573021	0.215404
0.622247	-0.280373	0.170867
-0.328468	0.0321314	0.183337
-0.288032	0.0200812	-0.133662
-0.643272	0.21206	0.176228
-0.445214	0.591493	-0.0688793
-0.330834	0.667168	0.0512476
-0.018575	0.584902	0.235035
0.00238438	-0.318668	0.17211
-0.336036	0.480211	-0.234703
-0.264895	0.699751	-0.0298494
-0.731278	0.149028	0.0428007
0.289978	-0.246418	0.219611
0.223837	0.111459	0.00512312
-0.449859	-0.261902	0.249154
0.407699	-0.130764	-0.239454
-0.209617	0.145086	0.0494038
0.423258	-0.409202	-0.233727
-0.049623	0.569424	-0.239533
0.301109	0.0462135	-0.155989
-0.212066	-0.624563	0.19244
0.309272	0.170194	-0.202221
0.244809	-0.596905	0.203542
-0.174148	0.470683	-0.249993
-0.719353	0.211662	0.00877643
0.0396703	-0.505166	0.24991
0.689434	0.276228	-0.059923
0.0275546	-0.663309	0.188793
0.429	-0.084089	-0.241974
-0.488906	-0.0598288	0.249889
0.401469	0.118298	-0.236355
0.610869	-0.00336825	0.224067
-0.400042	-0.212742	0.24556
-0.243883	0.133364	0.114894
0.08785	-0.402821	0.234109
-0.706497	-0.153016	-0.113251
0.609057	-0.192146	-0.208031
0.390393	0.194599	0.241723
0.730296	-0.166703	-0.0214191
0.1189	0.592731	0.227094
0.506666	-0.546036	0.0502754
0.573519	-0.480078	0.0321077
-0.0499343	0.248022	0.0386069
-0.499771	-0.396094	0.208659
-0.279826	-0.00758784	0.118612
0.263177	0.306191	-0.23073
-0.198858	0.6914	-0.119795
0.196225	-0.666208	-0.15706
0.0106752	0.745913	-0.0446029
-0.496019	-0.452522	0.181971
-0.305048	0.231857	0.221017
0.515222	0.44375	-0.173518
0.707633	-0.189139	0.0919571
0.285336	0.601906	0.186832
0.413086	-0.530278	-0.18125
-0.446149	0.601308	0.025016
-0.0659774	-0.319576	0.179816
-0.307129	0.683705	-0.0154801
0.501907	-0.0253998	-0.249987
0.189006	-0.272958	-0.185145
0.462846	0.0925532	-0.248428
0.176791	0.229212	0.134823
0.180543	-0.425424	-0.247118
0.115072	-0.315231	0.188322
-0.0761567	0.534266	-0.246833
-0.0857667	0.251429	0.0870761
0.534723	0.27385	-0.228792
-0.248729	0.155137	0.140395
0.53213	0.315553	-0.220047
0.461187	-0.238456	0.249263
0.348557	-0.129795	0.21471
-0.0165064	-0.256106	0.0572263
-0.511368	-0.506167	0.119638
-0.165093	-0.52447	-0.244982
-0.624043	-0.24483	0.182976
