0.434547	0.370902	-0.239613
-0.698847	0.206591	0.100879
0.564943	-0.123993	-0.237392
0.180503	-0.48631	-0.249298
-0.103422	-0.693046	-0.149035
0.636422	0.0718419	0.206808
0.365873	-0.650171	0.0442853
-0.035781	-0.266821	-0.0961029
0.346143	0.558083	-0.194785
-0.357413	-0.34089	-0.249926
-0.111683	-0.280392	0.152391
-0.603464	0.439923	0.0399098
-0.364237	-0.165399	-0.229143
-0.144601	0.310369	-0.194068
-0.0829338	-0.352633	-0.208629
-0.385864	0.129011	0.232002
-0.330684	0.0783394	-0.191958
-0.553212	-0.299426	-0.214119
-0.609974	0.196841	-0.206479
-0.226153	-0.24236	-0.184671
0.309011	0.0451116	0.165117
-0.0973039	0.738677	0.0494635
0.375016	-0.0322401	-0.217308
0.294343	-0.405511	0.249998
0.558529	-0.474655	-0.0906794
-0.318704	-0.540085	0.215276
0.250736	-0.127036	-0.120724
-0.313105	-0.0922001	0.179895
0.346416	-0.18774	0.226424
0.0258549	0.676218	-0.176842
-0.117487	-0.626795	0.208652
0.290205	-0.670913	-0.0956282
-0.461463	0.0415397	0.247296
0.567162	0.349771	0.186628
-0.584876	0.305695	0.192138
-0.437549	0.441656	-0.218379
0.083663	-0.729207	0.0880254
0.0217261	-0.562472	-0.24196
0.551909	-0.242471	0.227876
0.279681	0.0957342	0.143964
0.679494	0.152075	0.154806
-0.137218	-0.407923	0.240112
-0.132957	0.30409	-0.185035
-0.485405	-0.21092	-0.248283
-0.00110797	0.281706	0.121854
-0.0224578	0.321156	-0.175485
-0.0114482	0.313634	0.16687
0.653267	0.0671115	0.194791
-0.235007	-0.222212	0.176983
0.3447	0.485013	0.231236
-0.707817	-0.112289	0.124718
-0.318931	0.233087	-0.226894
-0.346074	-0.620507	-0.134885
-0.504458	0.468269	-0.164451
-0.123632	0.711241	-0.115141
0.0942852	0.504122	-0.249669
0.457002	-0.549382	-0.128224
0.723192	0.0987923	0.098194
0.615084	0.424131	-0.0377166
-0.298446	0.677834	-0.0678099
0.614061	0.0435695	-0.221665
0.600565	-0.443874	0.0399063
0.200784	0.531743	-0.240464
-0.140436	0.600638	0.221018
0.550056	0.125884	-0.241596
0.353484	0.133357	0.218101
0.05429	-0.746455	-0.0280076
-0.302736	0.0173178	0.154214
0.338515	0.0265128	0.191719
-0.334248	-0.0570735	-0.191329
0.511092	-0.543725	0.0432833
-0.386291	-0.567302	-0.166674
-0.366767	-0.0491559	0.21357
-0.26537	0.152747	0.157918
-0.108817	0.551767	0.242089
0.637165	-0.369078	-0.0815049
0.133647	-0.680091	-0.158786
0.373162	0.112053	-0.224314
-0.244143	0.185343	-0.158327
0.34418	0.322437	0.248384
0.208771	0.144213	0.0430669
-0.311201	-0.672289	-0.0671136
0.268415	0.279455	0.223248
0.0208386	-0.539611	0.246777
-0.307142	0.670191	0.0789117
0.664311	0.34658	-0.0189053
-0.020519	-0.688805	0.163515
-0.0658128	-0.542329	0.245674
-0.125407	-0.321031	0.195878
-0.109809	-0.523249	0.247588
-0.609821	0.257664	-0.190392
-0.591356	0.0467694	0.231977
-0.439568	0.117414	0.245913
-0.635372	-0.259356	-0.166746
-0.710933	-0.237404	-0.0154162
0.25891	0.0583684	0.0864092
-0.646189	0.379867	0.0146152
0.559888	0.0439232	-0.24229
0.598265	0.443211	0.05191
-0.143289	-0.352689	-0.219691
0.216041	-0.686105	0.120004
0.652039	0.311197	-0.114001
0.542583	0.211237	0.236082
0.0890289	-0.592059	0.229685
-0.420158	-0.500989	0.197052
0.483514	0.56194	0.0652861
-0.461009	0.0388631	-0.247193
0.353416	-0.613597	-0.138546
0.0723528	0.538338	-0.246243
0.291926	-0.452197	-0.247058
-0.420956	0.12538	-0.242502
-0.481855	0.0382428	-0.249446
0.270511	0.69527	-0.0443186
-0.0349742	-0.6582	0.192817
0.210776	-0.435795	-0.249493
0.311636	-0.668837	-0.0769106
-0.647036	0.365709	-0.0577639
0.0353046	0.646501	0.201877
0.439377	-0.607723	-0.00634273
-0.226395	0.710564	0.045854
0.0319686	0.271947	-0.106501
-0.13752	-0.693867	-0.139644
-0.406957	-0.0948661	0.236123
0.204742	-0.67439	-0.143399
0.541609	-0.118469	-0.244006
0.456801	0.340796	0.240023
0.0835955	0.343401	0.202527
-0.284623	0.0259853	-0.128923
0.302634	-0.21259	0.213444
-0.182038	0.215323	-0.122306
-0.686559	-0.204877	-0.125053
0.560746	-0.385706	-0.172878
0.637436	-0.336321	0.1174
-0.128745	0.723782	-0.0848967
-0.674359	0.0441112	-0.177748
-0.55602	-0.0211663	-0.24355
-0.301153	0.58028	-0.197115
-0.451942	0.389765	-0.2305
0.193673	-0.164974	-0.0467611
-0.666107	-0.344416	0.00772214
0.484095	0.291892	-0.241325
0.34131	0.00610391	0.193223
-0.607488	0.182457	0.210866
0.2884	-0.133595	0.171224
0.0836253	0.46913	-0.248895
-0.160893	-0.390183	0.237538
-0.55998	0.324642	-0.202013
-0.688217	0.117655	0.152368
0.201176	0.529283	-0.241069
0.483122	-0.571645	-0.0277505
0.477988	0.431307	0.204492
-0.630305	0.132461	0.204311
0.590315	0.38134	-0.146227
