-0.600817	0.2974	-0.182937
-0.25828	-0.575151	-0.213248
0.22378	0.138817	0.0805703
-0.035355	0.505311	0.249914
-0.179752	-0.71808	0.0691838
-0.193534	0.536774	0.239825
0.598402	0.427597	0.0839722
0.147866	-0.203501	-0.0277926
-0.0470174	-0.400554	0.230543
0.320493	0.647826	0.113464
0.595077	0.453354	0.0308002
-0.27151	-0.301353	-0.231502
-0.687304	-0.269047	0.0762525
-0.286184	0.0197756	-0.130668
-0.301503	0.678711	-0.0601115
0.104398	0.639364	-0.201609
-0.613937	0.165099	0.209934
0.657846	-0.0918779	0.188489
-0.674695	-0.327449	-0.00462298
-0.208658	0.137866	-0.00673461
-0.0132436	-0.291138	-0.137849
-0.121468	-0.647139	-0.193382
-0.464218	0.416559	-0.217244
0.616163	0.04138	0.220639
0.0434811	-0.524213	-0.248643
-0.202228	-0.218011	-0.146418
0.303432	0.492188	0.237453
0.416991	-0.546254	-0.165673
-0.237498	0.512215	0.24151
0.0854411	0.490275	-0.249989
0.159708	0.305896	-0.196212
0.404441	-0.617372	-0.0763629
0.0720942	0.703232	-0.140304
0.674831	-0.326587	-0.0121698
0.217745	0.563249	-0.227399
-0.263486	-0.30602	-0.23076
0.214518	-0.304309	-0.214936
0.050921	-0.348469	-0.201609
-0.533353	-0.397641	0.187579
0.421731	0.616069	0.0411429
-0.214297	0.697782	-0.0981031
0.450493	-0.512628	0.17092
0.0767744	-0.525548	-0.248055
0.244067	-0.0630321	-0.0321448
-0.169917	0.729692	0.0198002
0.747	-0.0670113	9.00515e-05
-0.442845	-0.303481	0.247269
-0.255999	-0.181966	0.167135
0.212045	-0.198069	-0.135899
-0.674067	-0.291437	-0.0870052
-0.0693461	-0.437513	-0.243409
0.464076	0.521912	0.152114
0.0609043	0.642021	0.203723
0.379442	-0.291577	0.249077
-0.569878	0.486188	0.0212842
-0.105977	-0.226527	0.00673041
-0.0380982	-0.251293	-0.0454428
-0.468409	0.584361	0.0231861
0.320069	0.628789	0.142281
-0.382798	0.454965	-0.231418
-0.663096	-0.345595	-0.0334551
0.154173	0.359032	-0.224858
0.322225	0.566107	0.198952
-0.165519	-0.560506	-0.23531
-0.543142	-0.40934	0.173369
-0.693394	0.274146	0.0465842
-0.257039	-0.557698	-0.222453
-0.207678	-0.714179	0.0554986
-0.276346	0.644933	0.147781
-0.53205	-0.496068	0.103797
0.00819812	-0.299992	-0.150138
-0.300454	0.453512	-0.246096
0.682247	0.284889	-0.0722269
-0.0721421	-0.346396	0.202815
0.6171	-0.288145	0.17239
0.300695	0.142474	-0.185807
-0.0163912	0.304999	0.15699
0.152298	-0.73324	0.0235389
-0.49031	-0.495037	0.154234
-0.574438	0.0589516	-0.237699
-0.181486	-0.244272	0.155584
0.0534486	-0.650024	-0.198317
-0.132097	0.57968	-0.231435
0.745869	0.0304118	-0.0417499
-0.444555	0.400992	0.229698
0.108804	0.399285	0.234685
0.238395	0.705796	-0.0498978
0.265851	-0.0598656	-0.103671
-0.272623	0.602921	0.190671
-0.0907727	-0.672009	-0.175431
-0.597313	-0.127855	-0.224084
0.201711	-0.477209	-0.249345
-0.551664	-0.03422	0.244377
-0.598727	0.258478	0.198378
0.3148	0.480267	0.238721
-0.137782	-0.393257	0.235712
-0.744822	0.0702207	0.0305616
-0.621512	-0.38828	-0.0910533
0.421422	-0.580002	-0.124251
0.0498557	0.598325	-0.228954
-0.145112	-0.56071	-0.237129
0.345822	-0.313674	-0.247797
0.66459	-0.302297	-0.0977159
0.0129125	0.264141	0.0837798
-0.227869	-0.713399	-0.0233498
0.408356	0.366124	0.24526
0.680073	0.316108	-0.00507145
-0.229306	-0.131306	0.0831696
0.65136	0.149685	0.18483
0.0985261	-0.564109	0.239212
-0.168421	0.390983	-0.238708
-0.037193	0.435341	0.241913
-0.312075	-0.0180872	-0.165472
-0.00586503	0.50511	0.249947
-0.282993	0.67222	0.0994715
0.217215	-0.703683	0.0811986
0.39272	0.301146	-0.249948
-0.382835	0.0101604	0.220916
-0.141101	-0.733094	-0.0413935
0.167816	0.278815	0.17895
0.542856	0.21446	0.235578
-0.132707	-0.218608	-0.0532413
-0.18289	0.705758	-0.100134
-0.0771446	-0.696587	0.148866
-0.537377	-0.193797	-0.239631
-0.328902	-0.67401	-0.00336438
0.271465	0.690077	0.0644415
0.265021	0.453268	-0.248741
-0.207082	-0.39019	-0.243116
0.295654	0.0799053	-0.158005
0.582439	-0.220673	-0.217738
0.566352	0.484835	0.0470498
0.220471	0.300159	-0.215001
0.0177848	0.488589	-0.249754
0.677482	-0.12577	0.163577
0.063299	0.420902	0.238684
0.258776	0.317954	0.233219
0.200824	0.148975	-0.00487774
0.241796	-0.0805064	0.0489877
0.157455	0.618636	-0.208223
-0.639502	-0.1117	-0.20061
0.642204	0.386275	-0.0169809
-0.0438123	0.631149	-0.211895
-0.145857	-0.699359	0.128567
0.190515	0.298802	0.203205
0.153727	0.30177	-0.190978
-0.230015	-0.280472	-0.208941
-0.261285	0.225593	-0.196307
-0.605352	0.171028	-0.214118
