-0.573076	-0.481203	-0.0289929
0.0375523	-0.465263	0.247783
0.245987	0.144711	0.128238
0.517832	-0.00787171	0.249359
0.171915	0.192969	-0.0644156
-0.437663	0.299159	-0.248177
0.521976	0.0885503	0.248261
-0.0665431	0.742519	0.0472486
0.583403	-0.384802	-0.151483
-0.3614	-0.239608	0.241025
0.225791	0.109508	0.0217215
-0.0976705	-0.330921	0.196177
-0.639927	0.325404	0.122537
0.676161	-0.213575	0.137046
-0.681903	-0.164093	-0.148157
-0.390581	0.638246	-0.0293394
0.747344	0.0491515	-0.0227925
-0.0448621	0.747584	0.0231141
-0.737653	0.0378912	-0.0745519
-0.270342	-0.052591	-0.109814
0.302608	-0.445094	-0.247061
-0.727362	0.0689122	-0.0965129
0.167841	-0.232111	0.129965
-0.440341	-0.381974	-0.235846
0.0735244	0.574104	-0.237259
0.0372741	0.315156	-0.170704
0.71694	0.0205927	0.123729
0.440713	0.562112	-0.128777
0.0555731	-0.356759	-0.207837
0.112788	0.740724	-0.0192037
0.727736	0.166296	-0.0417173
-0.403125	0.255622	0.248971
-0.0559646	-0.671619	-0.179562
-0.452182	0.597559	0.0178323
0.424748	-0.601274	0.0820085
0.176883	0.727835	0.0221078
-0.334885	-0.0973762	-0.19906
-0.687554	-0.146588	-0.145905
-0.414355	-0.269607	-0.249936
0.664145	-0.258152	-0.131611
0.267107	-0.603925	0.191796
0.612305	0.0385945	0.22274
0.696714	0.277635	0.00175493
-0.599628	-0.449059	0.0207466
-0.218928	0.525165	-0.240298
0.242853	0.707133	-0.0340337
-0.31697	-0.36342	-0.249368
-0.749285	-0.0200779	-0.0149292
-0.344492	0.591899	0.168317
0.288057	0.670987	-0.0974947
0.71371	-0.0286664	-0.128771
-0.377294	-0.511447	0.21006
-0.713793	-0.229714	0.00876879
0.195129	-0.52941	-0.241609
0.703243	0.125751	0.128583
0.256883	0.0624619	-0.0835304
0.482167	-0.412017	-0.21091
-0.408536	-0.367937	0.24499
0.554096	-0.504781	0.0149874
0.233243	-0.129524	-0.0900803
-0.51396	-0.522876	0.0901477
0.45022	-0.530378	0.155569
0.633567	-0.347809	0.113487
-0.483928	0.429338	-0.202267
-0.0948264	0.635257	-0.205553
0.0603855	0.256386	-0.0807535
0.673064	-0.0435105	0.179055
0.408849	-0.143007	-0.240893
-0.599493	-0.437597	-0.0619024
-0.168694	-0.21111	-0.0985212
0.31438	-0.549141	-0.211834
0.601162	-0.113729	-0.223596
-0.626171	-0.386158	-0.0834306
-0.295055	-0.114526	-0.16979
-0.442857	0.212948	0.249852
-0.119362	-0.439853	-0.246055
-0.31196	0.681286	-0.0185178
-0.40387	-0.274292	0.249722
0.384761	0.490553	-0.217397
-0.0251028	-0.278376	0.117822
0.409285	0.50856	-0.197869
-0.342614	0.110086	-0.207033
-0.404995	0.292027	0.249999
0.267122	-0.329053	0.238113
-0.0595051	-0.26614	0.104114
-0.656808	0.344091	0.0647021
-0.407595	-0.384998	-0.242525
-0.118266	-0.222804	0.0334393
0.663062	-0.264884	0.129222
0.29098	0.684754	0.0543776
0.435817	-0.395102	-0.233905
-0.388117	-0.628218	0.0751442
-0.208764	0.624362	-0.193465
-0.68289	0.0884027	0.164117
0.114886	-0.328185	0.198264
-0.391237	0.520413	-0.199191
-0.15571	-0.733503	-0.00871789
0.692196	0.24787	0.0846347
-0.332881	-0.669977	0.0306249
0.319285	-0.508216	0.229046
-0.0498444	-0.737184	-0.0737717
0.608709	0.319842	0.16522
0.479204	-0.522038	-0.13774
-0.0327135	0.729668	0.0970319
0.688882	0.0445991	0.162101
0.183222	-0.64549	0.18238
0.510561	0.474317	-0.154065
-0.731387	-0.00380107	0.0946332
0.521393	0.178735	-0.244706
0.333178	0.291216	0.2433
0.483468	-0.0419708	-0.249567
-0.664051	0.257425	0.132176
0.140463	-0.290316	-0.176061
0.316528	-0.253157	0.231375
0.253574	-0.0526457	-0.0664071
0.53218	0.246739	-0.234523
0.536723	0.333647	-0.212327
0.14233	-0.636205	0.198537
-0.471049	-0.244378	0.248112
0.677714	-0.0547839	-0.173572
0.65007	-0.0966001	0.194385
-0.351381	-0.452667	0.239092
0.360713	-0.246362	0.241884
0.460936	0.564707	-0.100428
0.27422	0.505566	0.238439
0.130408	-0.465234	0.249433
0.318523	-0.629965	0.141774
-0.619131	0.144034	0.209988
0.170566	0.626264	-0.20069
0.738882	-0.113833	-0.0345627
-0.435706	0.60223	0.0574162
-0.381868	0.390901	0.245644
-0.0374041	-0.747203	0.0304497
-0.21318	0.710412	0.0638537
0.644841	-0.382988	-2.99859e-06
0.103437	0.306161	0.176715
-0.384068	0.282141	-0.248899
0.133124	0.728236	0.0689486
-0.680581	-0.141565	-0.156259
-0.144022	-0.352397	0.219694
-0.18601	-0.224604	0.138134
-0.620841	0.42042	0.0100473
0.0313471	0.529441	0.248149
0.219278	0.713975	-0.0393195
0.418596	0.163868	0.244852
0.710893	-0.0510362	-0.131336
-0.0780558	-0.372726	0.219759
-0.278156	0.465787	0.246358
0.596379	0.422095	0.0964679
0.458094	0.397525	-0.226167
-0.263533	-0.083061	-0.111642
-0.570942	-0.486196	0.0068008
0.374738	-0.599655	0.140008
