-0.22809	0.563499	0.225511
-0.421684	-0.588131	0.111654
-0.0167063	0.746247	0.042076
0.340707	-0.569028	-0.189357
0.17778	-0.469402	-0.249992
0.702309	0.226797	0.0764608
0.40711	-0.0473151	-0.23318
0.164709	0.296366	0.191307
0.148442	-0.201337	0.00845884
-0.162514	0.226477	-0.116401
-0.628092	0.262811	0.172598
-0.702712	0.0117494	-0.146178
0.29672	0.136455	-0.180083
-0.548431	-0.222818	0.23247
0.749787	-0.00867856	-0.00901539
0.228878	0.551193	-0.230489
0.160867	-0.676515	0.155972
0.657887	-0.321353	0.0927036
-0.661099	-0.348619	0.036055
-0.382012	-0.454022	0.231916
0.207012	0.237813	0.168472
-0.0411777	0.467669	-0.24813
0.56573	-0.337332	0.193195
-0.339653	-0.301556	-0.24577
0.0190909	0.66884	-0.184122
-0.540428	-0.152025	0.242342
-0.0314321	-0.413946	0.235156
0.270824	0.647304	-0.147739
0.271189	-0.400455	-0.249464
0.0427441	0.735287	-0.0809603
-0.138347	-0.213217	0.0454615
0.1097	-0.68823	-0.154024
-0.729861	-0.163759	-0.0315062
0.218999	-0.181248	0.126341
-0.290108	-0.501421	-0.237091
0.322286	0.46388	0.241443
-0.6154	-0.0793294	0.219047
-0.564399	-0.351765	-0.187777
0.255817	0.704065	-0.0212015
0.628108	0.0589307	0.213012
0.566227	-0.0570249	-0.240263
-0.429229	0.615007	0.00310197
-0.415323	-0.452577	-0.22236
0.382332	0.36194	-0.248594
-0.301424	-0.316383	0.241928
0.241439	-0.377722	-0.244594
0.0907266	0.69171	-0.153103
0.53116	-0.402754	-0.186408
0.0194471	-0.742469	-0.0598766
0.691517	0.283965	-0.0349074
0.631498	0.162809	0.198371
-0.143596	0.226336	-0.0932549
-0.217387	-0.510979	0.243807
0.546589	0.117415	0.242924
-0.659128	-0.291032	0.117776
-0.0036459	0.470848	0.248296
0.664372	-0.057421	-0.186176
-0.643807	-0.215805	-0.174512
0.385153	0.0395441	-0.223094
-0.590042	-0.431626	-0.0954496
0.261751	0.0683217	0.0991923
0.746579	-0.00970555	-0.0408363
0.306844	-0.63545	0.142146
-0.35921	0.325114	-0.249518
-0.0393328	0.247471	0.0169749
0.242773	0.0889548	-0.0648466
-0.0974234	0.536922	0.24579
-0.688733	0.0188215	0.163654
-0.282319	-0.495148	0.240006
-0.368602	-0.653041	-0.00751192
-0.291212	-0.69013	0.0217148
0.566886	-0.147359	0.234843
0.33486	0.514986	0.222351
-0.235271	-0.580794	-0.215553
0.115661	0.617125	-0.214824
0.14943	-0.284155	0.174577
0.322396	0.173828	0.211227
-0.422512	0.59911	-0.0903341
0.171989	0.458831	0.2498
-0.438604	0.492033	-0.192804
0.255714	-0.675154	-0.115042
-0.161762	0.47881	-0.249942
-0.0133135	0.37253	-0.215202
-0.333678	0.0243516	0.187434
0.188328	-0.167084	0.0296329
0.00677524	0.250142	-0.010805
-0.438365	0.513762	-0.178179
-0.204376	-0.161356	-0.071337
0.0177406	0.734721	0.0854732
0.58919	-0.0296094	-0.233264
0.163183	0.602438	-0.216996
-0.275523	0.226754	0.204947
0.433011	-0.58342	-0.105708
-0.11762	0.645044	0.195611
0.372472	-0.301313	-0.249124
-0.446922	-0.223071	0.249999
-0.566777	0.15702	0.233953
0.18677	0.166825	0.0145975
0.456419	0.538934	0.141305
-0.498108	0.33169	-0.229804
-0.290171	-0.63434	-0.153202
-0.656076	-0.0495241	-0.193789
-0.032211	-0.465247	0.247726
0.639339	-0.363456	-0.084105
0.438461	-0.477265	0.201413
0.258794	0.692526	-0.0723512
-0.642234	0.000974883	-0.205595
0.0609031	0.24265	-0.00939966
0.21444	0.374666	-0.240488
0.164685	-0.22891	-0.122367
-0.415728	0.175962	-0.245237
-0.213298	0.321192	0.222272
-0.0355965	-0.258916	-0.0744762
0.35341	0.540127	-0.203316
0.402867	0.351825	-0.247557
0.64025	0.336679	0.112263
-0.475434	-0.57997	0.00571621
0.449957	0.00654866	0.24495
-0.252107	-0.525825	0.235771
-0.037303	-0.737612	0.0747783
0.65895	0.186984	-0.168189
-0.476469	-0.0300176	0.248978
0.610422	-0.405854	-0.0905376
0.505104	0.178297	-0.247445
0.191875	-0.575213	0.226241
0.519191	-0.195018	0.243963
-0.343769	0.616542	0.141787
-0.234181	-0.553578	-0.228657
0.217503	-0.204678	-0.148203
-0.615344	-0.110898	-0.216357
0.406425	0.10567	-0.236833
-0.042718	-0.511298	-0.249658
-0.685649	0.268287	-0.0817103
-0.0276965	-0.643979	0.203956
-0.458873	0.321301	0.242649
-0.738367	-0.0330296	0.0729966
-0.182578	-0.557809	-0.2344
-0.250597	-0.0189196	0.0255601
0.245961	-0.374234	0.244495
-0.0896586	-0.653632	0.1923
-0.257445	0.111313	-0.119627
