-0.345805	-0.151062	-0.217852
-0.245798	-0.173727	-0.151317
-0.0909334	0.327614	-0.192093
-0.299436	0.686038	-0.0269939
0.229697	-0.665751	-0.144142
-0.677927	-0.241046	0.119656
0.169597	0.347751	0.222955
0.0100463	0.413863	0.234737
0.284398	-0.691004	0.0370382
-0.07816	-0.311864	-0.175045
-0.274897	0.237766	0.209418
-0.12279	0.421173	-0.24237
0.115297	-0.572509	0.235464
0.229723	-0.0990501	-0.00912837
0.152418	-0.201915	0.0385088
0.125676	-0.362716	0.221391
0.24233	0.58296	0.212732
0.00469762	0.668765	0.184426
-0.676921	-0.0584807	0.17407
0.644109	-0.357625	-0.0803647
-0.340666	0.616286	0.144266
-0.466843	-0.0782326	-0.248576
0.037212	0.679976	0.172457
0.588206	0.360564	0.162572
0.173814	-0.647784	0.182653
-0.116017	-0.707518	-0.124199
0.214564	-0.713102	0.0512874
0.325352	-0.318968	-0.24603
-0.189291	0.575418	0.226531
0.320125	0.057655	0.178806
-0.305203	0.684876	0.00992956
0.500162	0.0678246	-0.249955
-0.0515598	0.704427	-0.141194
-0.232856	-0.622969	0.187759
0.216005	0.615685	0.198118
-0.0541046	0.696527	0.151816
-0.663128	-0.326194	0.0732959
0.309275	-0.143793	0.192978
-0.404997	0.491733	0.209091
0.280076	0.609663	-0.182447
-0.224419	-0.585533	-0.2153
-0.362076	-0.53572	-0.202503
0.734674	-0.0767364	-0.0744078
0.645821	-0.121902	-0.194371
0.701256	-0.0824565	0.141521
0.615622	0.196144	0.202856
-0.634904	0.350714	0.108288
0.312739	-0.143252	0.195345
0.434529	0.0692125	-0.242695
0.161158	0.676085	-0.156411
-0.227409	-0.225638	-0.173862
-0.310249	-0.654686	0.110044
0.661481	-0.181447	-0.167139
-0.158813	-0.23557	0.12605
0.167944	-0.706904	-0.105648
-0.438901	-0.184955	-0.248872
-0.200994	-0.628915	0.191884
-0.304439	0.0507166	0.160871
-0.707205	-0.0235918	0.139294
-0.215989	0.135621	-0.0499366
-0.719072	0.201982	-0.0392376
-0.187919	0.165389	0.0129108
0.380616	-0.353858	-0.249223
-0.391186	0.322909	-0.249895
0.450136	-0.577705	-0.092219
0.410008	0.149951	-0.241819
0.509441	-0.184949	0.246451
0.64838	-0.2336	-0.163438
0.441759	0.0591995	-0.244034
0.550814	-0.453679	0.129909
0.0388391	-0.356245	-0.206002
0.483537	-0.26566	0.244594
-0.571802	-0.22247	-0.222722
0.449823	0.285972	-0.247808
0.430273	-0.269083	0.249888
-0.000912537	0.454097	-0.24575
-0.112715	0.532534	0.246038
-0.520867	0.539111	-0.0136225
0.394194	-0.184021	-0.241411
0.076469	0.578257	-0.235717
-0.179295	-0.601399	0.21501
-0.433724	-0.246272	0.249997
-0.312615	-0.282423	-0.237289
-0.401267	0.196307	0.244255
-0.480429	-0.310632	0.239376
-0.0843302	0.703072	0.138526
-0.0420662	0.531303	-0.247817
0.49443	-0.553329	-0.0625574
0.328281	-0.61957	-0.148431
0.245848	0.59258	-0.206064
-0.121451	-0.316424	0.191199
-0.434338	-0.0517298	0.242037
0.477622	0.469675	-0.18343
-0.702408	-0.254456	0.0381169
-0.134319	-0.211455	-0.0159466
0.271502	-0.110585	-0.140417
-0.0188547	-0.401704	0.230054
-0.464181	-0.302423	-0.244097
0.355826	-0.643444	-0.0845268
-0.17172	0.18606	0.0398195
0.0509646	0.537001	-0.246874
-0.1104	-0.704604	-0.130558
0.189474	-0.163177	0.00522354
-0.131577	-0.733577	0.0483306
-0.112098	0.652043	-0.190742
0.334674	-0.116707	-0.203254
-0.681491	-0.115738	0.161009
0.211378	-0.145986	-0.0582879
-0.293193	-0.11983	0.170042
-0.536488	-0.392882	-0.187849
0.303166	-0.0921205	0.170168
0.712716	-0.20434	0.0648953
-0.486383	0.0489741	-0.249751
-0.23532	0.709655	-0.0341691
-0.120119	-0.37264	0.225239
-0.035631	0.736497	0.0784928
-0.314028	0.586848	-0.1873
-0.24721	-0.0542945	-0.0392616
-0.127549	-0.310877	0.188712
0.517926	-0.114153	-0.24815
0.371925	0.0142259	0.214864
0.194133	0.212011	0.131639
0.445863	-0.21662	-0.249963
-0.0756545	-0.266334	-0.112754
0.67663	-0.0145193	0.176768
-0.229684	0.549002	-0.231201
-0.176456	0.219741	0.122056
0.0435787	-0.330059	0.185972
0.606773	-0.245565	0.196482
-0.333003	0.105551	0.199496
0.298815	-0.100252	0.168353
0.532413	0.431021	-0.168138
-0.0874874	-0.308834	0.174511
-0.213274	-0.29556	-0.210078
0.370896	-0.403397	0.245351
-0.502917	0.218511	-0.245283
0.662609	0.34132	0.0479806
-0.733578	0.155265	-0.00923182
0.484553	0.272768	0.243635
0.0865881	-0.640511	0.202696
-0.223024	0.149895	0.0949076
0.33178	0.0989819	0.197117
