-0.0225226	0.249597	-0.0174754
-0.230719	0.585902	0.213729
0.42965	0.5011	-0.192031
-0.705671	0.213513	-0.0787729
-0.448399	-0.0914696	-0.246384
-0.266171	0.682547	0.0916112
0.156191	-0.332506	0.211914
0.232303	-0.273442	-0.206305
0.422027	-0.545579	0.162766
-0.385028	0.443758	-0.234184
-0.399297	0.0808298	-0.232217
0.621241	-0.344972	-0.13472
0.000632117	-0.492993	-0.249902
-0.13384	0.282149	-0.165114
0.623557	-0.255727	-0.179551
0.341039	0.643173	0.102556
0.152373	0.469012	-0.249906
0.376448	-0.136169	0.229268
0.568499	0.39018	-0.163045
0.306964	-0.223958	0.219306
0.2483	0.0299788	-0.00718837
0.524371	-0.416848	-0.183423
0.0982053	0.285399	0.1524
-0.609318	-0.384188	-0.118138
0.247004	0.0684351	0.0558081
-0.0348995	0.738227	-0.0731726
0.416697	0.0383644	0.236328
0.0017537	0.500419	-0.25
-0.157996	-0.408218	0.24212
-0.565742	0.479546	0.0641155
0.529074	0.0598427	0.247885
0.573681	-0.448658	0.101905
-0.227256	-0.707476	-0.058415
0.341785	0.161727	-0.218276
-0.390359	0.606316	0.116664
-0.445324	0.318477	0.245449
0.00423377	0.689861	0.162628
-0.0126839	0.250857	-0.0242381
-0.128564	-0.323379	0.198483
-0.326811	-0.259962	0.236029
0.464492	-0.236383	-0.249101
0.693721	0.284731	0.00773333
0.380021	0.530511	0.198041
-0.608327	0.0647607	-0.223626
0.522554	0.43917	0.170763
-0.502318	-0.117418	0.249497
0.559107	0.0122671	0.242879
-0.460793	-0.584472	-0.053219
-0.301197	-0.431088	-0.248656
0.470444	0.513467	0.15469
-0.449782	-0.412443	0.224373
-0.349522	-0.129122	-0.215109
-0.142372	0.238653	-0.114756
0.622467	0.302934	-0.159792
-0.0624322	-0.747334	-0.00559192
0.345061	0.142105	-0.215443
0.395069	0.42053	0.237848
0.611974	-0.398368	-0.0974812
-0.387722	-0.63258	-0.062938
0.626301	0.206854	-0.192445
-0.152773	-0.386634	0.235366
0.282398	-0.513368	-0.234774
-0.590809	-0.393648	-0.13574
0.28025	-0.693459	-0.031969
0.614106	-0.204645	0.201992
-0.192572	-0.221235	0.140634
0.264634	0.148208	-0.154314
-0.416345	0.568997	0.143013
-0.0151762	0.708172	-0.13819
0.581367	0.17685	-0.225626
-0.714149	0.0631687	-0.124251
-0.738378	-0.0361298	-0.0724831
0.0715056	0.706798	-0.135015
0.388086	-0.512564	0.205126
-0.24946	0.0172088	0.00512162
0.240503	0.0693723	0.012405
0.578341	0.477029	0.0124436
0.0542907	0.355659	-0.206974
0.0210296	-0.682913	0.170072
0.123507	0.653228	0.187991
-0.46621	0.249116	0.24836
0.0570426	0.277807	0.125189
0.278823	-0.465316	0.246368
-0.197641	-0.718308	-0.0497357
0.202031	0.147255	0.000751603
0.213914	-0.239633	0.174751
0.267164	0.63993	-0.158345
-0.210765	-0.154677	0.0747354
-0.0725936	0.689902	-0.158039
0.470878	-0.306441	-0.242238
0.498372	0.503921	-0.13758
0.70057	-0.186966	0.108787
0.674964	-0.326583	-0.00943932
-0.616824	0.347363	0.138833
0.180828	0.172988	-0.0111064
0.594878	0.307212	-0.183746
-0.678325	-0.315975	-0.029035
0.524942	-0.225545	-0.239604
-0.582483	-0.327081	-0.185108
-0.541608	0.500338	0.0785328
-0.0838284	0.578329	-0.235332
0.13705	0.303886	0.186363
0.263576	-0.117689	0.133545
0.114805	0.228954	-0.0550017
-0.341731	0.0192202	-0.193963
-0.670857	0.286462	-0.0992418
0.674416	-0.29775	0.0789111
0.474125	0.0956211	0.249466
-0.705141	-0.172494	-0.107026
-0.33818	0.0510307	0.193749
0.3151	-0.618108	-0.15794
0.298161	0.563504	-0.208775
0.467675	-0.586328	0.000244017
0.223598	0.51533	-0.242254
0.102384	-0.292252	-0.162091
0.298385	0.435095	0.248474
0.441965	0.217175	-0.249886
0.102664	-0.354814	-0.213156
-0.0546936	0.69644	0.15187
0.373796	-0.554576	0.18442
0.38018	-0.591405	0.145828
-0.464446	-0.109298	-0.248952
-0.529437	-0.220097	-0.238993
-0.745349	-0.0570079	0.0350851
-0.448634	-0.301537	-0.246689
-0.672139	-0.220923	0.139419
-0.159736	-0.732103	0.0183383
0.648458	-0.164788	-0.184162
-0.603041	-0.405684	0.105176
-0.30984	0.48266	0.238936
-0.0550514	0.39034	-0.22651
0.116811	-0.630016	0.206612
0.0333776	-0.470584	-0.248401
-0.462383	0.5877	-0.0331705
-0.52251	0.38937	-0.198764
-0.0616261	0.2753	-0.122578
-0.185703	0.564167	0.231677
0.148514	0.211701	0.065006
-0.675912	0.308736	-0.0583939
0.339372	0.458579	0.239854
-0.516325	0.137516	0.247632
-0.0459631	0.331554	-0.187575
0.517264	-0.344978	0.218351
0.163515	0.191516	0.0301464
-0.684138	-0.0986652	0.161048
-0.0576355	-0.455656	0.246663
-0.183785	0.336925	-0.221349
-0.575385	-0.473506	-0.0489152
-0.320272	-0.645391	0.117834
0.364994	0.0780886	0.215489
-0.44836	-0.187996	-0.249618
-0.188621	-0.177917	-0.0675236
