# Persistence diagram </home/jens/Uni/data_topology/Project/reddit_results/graphs/00031.gml>
#
# Dimension   : 1
# Entries     : 101
# Betti number: 101
3	inf
4	inf
5	inf
6	inf
6	inf
6	inf
7	inf
7	inf
7	inf
7	inf
7	inf
7	inf
7	inf
7	inf
8	inf
8	inf
8	inf
8	inf
8	inf
8	inf
9	inf
9	inf
9	inf
9	inf
12	inf
12	inf
12	inf
12	inf
14	inf
14	inf
14	inf
14	inf
14	inf
14	inf
14	inf
14	inf
14	inf
14	inf
16	inf
16	inf
16	inf
16	inf
16	inf
259	inf
259	inf
259	inf
259	inf
259	inf
259	inf
259	inf
259	inf
259	inf
259	inf
259	inf
259	inf
259	inf
259	inf
259	inf
259	inf
259	inf
259	inf
259	inf
259	inf
259	inf
259	inf
259	inf
259	inf
259	inf
259	inf
259	inf
259	inf
259	inf
259	inf
259	inf
259	inf
259	inf
259	inf
259	inf
259	inf
259	inf
259	inf
259	inf
259	inf
259	inf
259	inf
259	inf
259	inf
259	inf
259	inf
259	inf
259	inf
259	inf
259	inf
259	inf
259	inf
259	inf
259	inf
259	inf
259	inf
259	inf
259	inf
