# Persistence diagram </home/jens/Uni/data_topology/Project/reddit_results/graphs/00051.gml>
#
# Dimension   : 0
# Entries     : 741
# Betti number: 9
1	inf
1	397
1	21
1	23
1	397
1	16
1	397
1	397
1	13
1	inf
1	17
1	397
1	10
1	9
1	397
1	16
1	9
1	13
1	13
1	5
1	397
1	21
1	inf
1	7
1	21
1	397
1	11
1	17
1	397
1	397
1	397
1	397
1	397
1	6
1	12
1	397
1	9
1	397
1	397
1	397
1	12
1	397
1	9
1	14
1	397
1	397
1	21
1	397
1	397
1	397
1	397
1	8
1	16
1	397
1	9
1	5
1	397
1	397
1	397
1	397
1	397
1	21
1	21
1	397
1	23
1	397
1	11
1	397
1	23
1	397
1	397
1	397
1	8
1	397
1	397
1	397
1	397
1	5
1	7
1	397
1	8
1	397
1	6
1	21
1	14
1	397
1	397
1	397
1	397
1	5
1	12
1	9
1	397
1	397
1	13
1	6
1	16
1	397
1	4
1	397
1	397
1	10
1	16
1	397
1	397
1	13
1	12
1	397
1	397
1	397
1	397
1	16
1	397
1	4
1	397
1	397
1	397
1	397
1	6
1	17
1	16
1	23
1	397
1	397
1	397
1	15
1	397
1	397
1	397
1	7
1	397
1	10
1	397
1	5
1	397
1	12
1	397
1	397
1	14
1	5
1	6
1	397
1	4
1	6
1	12
1	7
1	4
1	5
1	397
1	397
1	397
1	16
1	397
1	21
1	397
1	7
1	23
1	397
1	397
1	397
1	5
1	397
1	397
1	397
1	397
1	397
1	14
1	12
1	397
1	17
1	6
1	397
1	13
1	14
1	397
1	397
1	17
1	397
1	16
1	397
1	14
1	4
1	14
1	397
1	397
1	397
1	397
1	12
1	8
1	397
1	397
1	397
1	13
1	6
1	6
1	397
1	397
1	6
1	397
1	8
1	12
1	inf
1	13
1	6
1	23
1	16
1	16
1	23
1	9
1	13
1	12
1	397
1	14
1	9
1	23
1	7
1	397
1	397
1	16
1	397
1	7
1	17
1	7
1	4
1	6
1	397
1	397
1	9
1	13
1	397
1	21
1	397
1	397
1	17
1	397
1	397
1	8
1	397
1	13
1	14
1	397
1	397
1	12
1	12
1	397
1	11
1	13
1	397
1	397
1	397
1	397
1	4
1	397
1	21
1	397
1	397
1	397
1	397
1	17
1	397
1	397
1	inf
1	6
1	397
1	14
1	21
1	inf
1	14
1	397
1	397
1	12
1	8
1	4
1	397
1	397
1	397
1	397
1	397
1	397
1	397
1	397
1	397
1	397
1	17
1	397
1	397
1	21
1	397
1	21
1	21
1	14
1	397
1	397
1	397
1	11
1	6
1	397
1	397
1	397
1	397
1	6
1	6
1	397
1	397
1	397
1	6
1	397
1	397
1	397
1	397
1	397
1	17
1	397
1	397
1	397
1	397
1	397
1	5
1	16
1	9
1	9
1	397
1	397
1	12
1	12
1	397
1	397
1	8
1	17
1	397
1	397
1	397
1	397
1	397
1	11
1	5
1	13
1	3
1	14
1	397
1	21
1	21
1	13
1	8
1	397
1	21
1	397
1	10
1	397
1	14
1	397
1	6
1	6
1	12
1	397
1	397
1	397
1	inf
1	397
1	15
1	397
1	inf
1	16
1	397
1	13
1	9
1	397
1	3
1	12
1	7
1	13
1	6
1	14
1	14
1	5
1	5
1	397
1	397
1	397
1	6
1	397
1	397
1	397
1	3
1	397
1	397
1	397
1	397
1	12
1	397
1	397
1	inf
1	6
1	397
1	397
1	13
1	16
1	13
1	21
1	397
1	397
1	397
1	6
1	397
1	4
1	3
1	6
1	397
1	21
1	397
1	14
1	397
1	6
1	397
1	397
1	397
1	397
1	397
1	397
1	397
1	397
1	13
1	397
1	6
1	397
1	397
1	13
1	397
1	397
1	397
1	397
1	14
1	5
1	397
1	397
1	397
1	16
1	21
1	7
1	397
1	397
1	12
1	14
1	6
1	397
1	7
1	7
1	8
1	397
1	397
1	6
1	397
1	6
1	9
1	397
1	397
1	4
1	4
1	8
1	397
1	397
1	397
1	2
1	397
1	5
1	397
1	397
1	397
1	397
1	397
1	5
1	8
1	397
1	6
1	5
1	397
1	6
1	5
1	397
1	397
1	14
1	6
1	397
1	21
1	397
1	397
1	21
1	16
1	397
1	15
1	16
1	397
1	397
1	397
1	12
1	397
1	3
1	397
1	397
1	21
1	397
1	21
1	5
1	397
1	397
1	397
1	397
1	21
1	17
1	397
1	397
1	9
1	23
1	16
1	12
1	397
1	6
1	16
1	397
1	397
1	12
1	4
1	5
1	397
1	397
1	397
1	17
1	397
1	397
1	12
1	397
1	397
1	23
1	397
1	6
1	397
1	397
1	12
1	2
1	4
1	397
1	397
1	17
1	6
1	397
1	397
1	6
1	397
1	8
1	397
1	397
1	14
1	10
1	397
1	23
1	2
1	12
1	5
1	397
1	21
1	14
1	4
1	397
1	12
1	397
1	6
1	397
1	397
1	5
1	16
1	13
1	397
1	397
1	397
1	397
1	397
1	10
1	397
1	397
1	397
1	3
1	397
1	14
1	16
1	397
1	8
1	397
1	12
1	13
1	16
1	397
1	397
1	397
1	397
1	397
1	397
1	397
1	21
1	397
1	6
1	397
1	11
1	3
1	397
1	397
1	5
1	3
1	397
1	13
1	14
1	3
1	14
1	397
1	6
1	397
1	397
1	4
1	3
1	397
1	397
1	5
1	6
1	6
1	397
1	397
1	7
1	6
1	397
1	397
1	5
1	397
1	397
1	23
1	397
1	3
1	21
1	397
1	397
1	397
1	6
1	397
1	5
2	397
2	8
2	3
2	3
2	4
2	3
2	4
2	5
2	397
2	13
2	4
2	5
2	7
2	4
2	3
2	7
2	13
2	4
2	6
2	397
2	5
2	6
2	4
2	3
2	8
2	12
2	5
2	4
2	12
2	4
2	7
2	21
2	7
2	6
2	6
2	21
2	5
2	4
2	4
2	5
2	9
2	4
2	13
2	8
2	3
2	5
2	6
2	3
2	3
2	4
2	4
2	3
2	4
2	4
2	5
2	4
2	5
2	5
2	5
2	5
2	3
2	8
2	4
2	5
2	12
2	8
2	4
2	13
2	5
2	4
2	4
2	5
2	12
2	8
2	6
2	397
2	3
2	8
2	6
2	12
2	5
2	4
2	8
2	12
2	3
2	5
2	6
2	6
2	17
2	3
2	6
2	7
3	4
3	8
3	4
3	5
3	4
4	5
4	6


