# Persistence diagram </home/jens/Uni/data_topology/Project/reddit_results/graphs/00131.gml>
#
# Dimension   : 0
# Entries     : 394
# Betti number: 12
1	inf
1	257
1	10
1	8
1	10
1	16
1	257
1	257
1	257
1	inf
1	7
1	8
1	6
1	257
1	257
1	10
1	257
1	6
1	257
1	257
1	257
1	6
1	16
1	8
1	257
1	257
1	257
1	257
1	257
1	257
1	257
1	257
1	16
1	7
1	257
1	16
1	257
1	6
1	257
1	257
1	inf
1	257
1	257
1	10
1	257
1	8
1	257
1	inf
1	7
1	257
1	16
1	257
1	7
1	257
1	7
1	7
1	257
1	257
1	inf
1	9
1	257
1	257
1	257
1	inf
1	10
1	257
1	257
1	257
1	16
1	inf
1	257
1	8
1	257
1	257
1	9
1	16
1	257
1	257
1	257
1	257
1	12
1	inf
1	8
1	257
1	6
1	257
1	8
1	257
1	257
1	4
1	257
1	inf
1	5
1	8
1	5
1	257
1	5
1	257
1	6
1	257
1	4
1	16
1	257
1	5
1	7
1	7
1	16
1	257
1	257
1	4
1	3
1	257
1	6
1	16
1	257
1	7
1	257
1	inf
1	257
1	257
1	257
1	7
1	16
1	257
1	10
1	257
1	7
1	257
1	12
1	257
1	257
1	16
1	5
1	257
1	257
1	257
1	257
1	257
1	10
1	257
1	257
1	8
1	7
1	8
1	10
1	257
1	7
1	257
1	257
1	257
1	257
1	257
1	257
1	257
1	257
1	6
1	7
1	257
1	257
1	257
1	257
1	257
1	257
1	257
1	16
1	2
1	6
1	6
1	11
1	4
1	6
1	5
1	7
1	257
1	4
1	257
1	257
1	257
1	257
1	11
1	16
1	257
1	4
1	8
1	3
1	6
1	257
1	257
1	9
1	11
1	10
1	16
1	257
1	7
1	257
1	257
1	257
1	257
1	257
1	257
1	11
1	inf
1	257
1	257
1	7
1	3
1	257
1	11
1	5
1	257
1	257
1	257
1	8
1	7
1	257
1	257
1	257
1	257
1	8
1	257
1	2
1	257
1	257
1	5
1	16
1	257
1	257
1	257
1	257
1	7
1	5
1	4
1	257
1	5
1	257
1	4
1	257
1	inf
1	257
1	16
1	257
1	257
1	257
1	6
1	257
1	257
1	257
1	257
1	257
1	257
1	16
1	257
1	257
1	7
1	257
1	5
1	257
1	257
1	8
1	257
1	257
1	257
1	257
1	257
1	5
1	257
1	257
1	4
1	257
1	257
1	5
1	257
1	257
1	257
1	257
1	6
1	16
1	257
1	4
1	7
1	10
1	6
1	257
1	7
1	257
1	8
1	257
1	257
1	257
1	257
1	257
1	2
1	257
1	257
1	257
1	257
1	10
1	7
1	257
1	257
1	257
1	257
1	257
1	257
1	8
1	257
1	11
1	6
1	7
1	16
1	257
1	4
1	257
1	257
1	257
1	257
1	16
1	257
1	5
1	5
1	257
1	257
1	257
1	257
1	257
1	257
1	7
1	257
1	257
2	7
2	257
2	10
2	3
2	4
2	257
2	257
2	257
2	10
2	8
2	6
2	4
2	7
2	4
2	6
2	4
2	4
2	7
2	7
2	4
2	257
2	4
2	5
2	4
2	4
2	3
2	10
2	7
2	5
2	4
2	4
2	9
2	257
2	8
2	4
2	6
2	4
2	8
2	4
2	7
2	8
2	10
2	4
2	3
2	4
2	6
2	10
2	257
2	257
2	10
2	4
2	4
2	6
2	4
2	4
2	3
2	3
2	5
2	4
2	3
2	5
2	4
3	6
3	5
3	4


