# Persistence diagram </home/jens/Uni/data_topology/Project/reddit_results/graphs/00181.gml>
#
# Dimension   : 0
# Entries     : 163
# Betti number: 1
1	inf
1	100
1	100
1	100
1	9
1	100
1	100
1	100
1	100
1	8
1	8
1	100
1	100
1	100
1	10
1	100
1	7
1	7
1	8
1	100
1	13
1	100
1	8
1	100
1	100
1	100
1	7
1	5
1	6
1	100
1	8
1	100
1	100
1	7
1	8
1	100
1	8
1	10
1	9
1	5
1	100
1	100
1	13
1	100
1	100
1	100
1	5
1	100
1	100
1	8
1	100
1	100
1	100
1	100
1	9
1	13
1	13
1	100
1	7
1	4
1	100
1	100
1	100
1	100
1	100
1	100
1	100
1	100
1	100
1	6
1	5
1	100
1	5
1	6
1	100
1	100
1	9
1	5
1	100
1	8
1	100
1	8
1	8
1	6
1	100
1	100
1	100
1	100
1	3
1	13
1	6
1	100
1	8
1	8
1	7
1	100
1	100
1	6
1	13
1	8
1	8
1	100
1	100
1	6
1	13
1	100
1	100
1	13
1	100
1	100
1	100
1	100
1	8
1	6
1	8
1	100
1	100
1	100
1	100
1	13
1	10
1	100
1	100
1	9
1	100
1	7
1	100
1	100
1	100
1	100
1	5
1	6
1	9
1	100
1	10
1	100
1	100
1	5
1	8
1	100
1	100
1	100
2	6
2	6
2	100
2	5
2	8
2	3
2	7
2	3
2	3
2	4
2	3
2	4
2	3
2	3
2	8
2	3
2	5
2	6
3	7
3	6
3	5


