# Persistence diagram </home/jens/Uni/data_topology/Project/reddit_results/graphs/00221.gml>
#
# Dimension   : 1
# Entries     : 272
# Betti number: 272
6	inf
6	inf
7	inf
7	inf
7	inf
7	inf
8	inf
8	inf
8	inf
8	inf
8	inf
8	inf
9	inf
9	inf
9	inf
9	inf
9	inf
9	inf
9	inf
9	inf
9	inf
10	inf
10	inf
10	inf
10	inf
10	inf
10	inf
10	inf
10	inf
10	inf
10	inf
10	inf
10	inf
10	inf
10	inf
10	inf
11	inf
11	inf
11	inf
11	inf
11	inf
11	inf
11	inf
11	inf
11	inf
11	inf
11	inf
11	inf
11	inf
11	inf
12	inf
12	inf
12	inf
12	inf
12	inf
12	inf
13	inf
13	inf
13	inf
13	inf
13	inf
13	inf
13	inf
13	inf
13	inf
13	inf
13	inf
13	inf
13	inf
13	inf
13	inf
13	inf
13	inf
13	inf
16	inf
16	inf
16	inf
16	inf
16	inf
16	inf
16	inf
16	inf
16	inf
16	inf
16	inf
16	inf
16	inf
16	inf
16	inf
16	inf
17	inf
17	inf
17	inf
19	inf
19	inf
19	inf
19	inf
19	inf
19	inf
19	inf
19	inf
19	inf
19	inf
20	inf
20	inf
20	inf
20	inf
20	inf
20	inf
21	inf
21	inf
21	inf
21	inf
21	inf
21	inf
21	inf
21	inf
21	inf
22	inf
22	inf
22	inf
22	inf
22	inf
22	inf
22	inf
22	inf
22	inf
22	inf
22	inf
22	inf
22	inf
22	inf
22	inf
22	inf
22	inf
28	inf
28	inf
28	inf
28	inf
28	inf
28	inf
28	inf
28	inf
28	inf
28	inf
28	inf
707	inf
707	inf
707	inf
707	inf
707	inf
707	inf
707	inf
707	inf
707	inf
707	inf
707	inf
707	inf
707	inf
707	inf
707	inf
707	inf
707	inf
707	inf
707	inf
707	inf
707	inf
707	inf
707	inf
707	inf
707	inf
707	inf
707	inf
707	inf
707	inf
707	inf
707	inf
707	inf
707	inf
707	inf
707	inf
707	inf
707	inf
707	inf
707	inf
707	inf
707	inf
707	inf
707	inf
707	inf
707	inf
707	inf
707	inf
707	inf
707	inf
707	inf
707	inf
707	inf
707	inf
707	inf
707	inf
707	inf
707	inf
707	inf
707	inf
707	inf
707	inf
707	inf
707	inf
707	inf
707	inf
707	inf
707	inf
707	inf
707	inf
707	inf
707	inf
707	inf
707	inf
707	inf
707	inf
707	inf
707	inf
707	inf
707	inf
707	inf
707	inf
707	inf
707	inf
707	inf
707	inf
707	inf
707	inf
707	inf
707	inf
707	inf
707	inf
707	inf
707	inf
707	inf
707	inf
707	inf
707	inf
707	inf
707	inf
707	inf
707	inf
707	inf
707	inf
707	inf
707	inf
707	inf
707	inf
707	inf
707	inf
707	inf
707	inf
707	inf
707	inf
707	inf
707	inf
707	inf
707	inf
707	inf
707	inf
707	inf
707	inf
707	inf
707	inf
707	inf
707	inf
707	inf
