# Persistence diagram </home/jens/Uni/data_topology/Project/reddit_results/graphs/00331.gml>
#
# Dimension   : 0
# Entries     : 389
# Betti number: 3
1	inf
1	256
1	6
1	256
1	5
1	256
1	256
1	256
1	256
1	21
1	256
1	256
1	256
1	256
1	256
1	256
1	7
1	5
1	256
1	6
1	6
1	21
1	21
1	256
1	256
1	256
1	256
1	256
1	21
1	256
1	inf
1	256
1	256
1	7
1	256
1	256
1	256
1	256
1	5
1	256
1	256
1	19
1	256
1	256
1	19
1	11
1	256
1	256
1	256
1	256
1	256
1	256
1	256
1	256
1	256
1	256
1	256
1	256
1	256
1	256
1	256
1	256
1	10
1	8
1	5
1	10
1	256
1	8
1	256
1	256
1	256
1	256
1	256
1	256
1	256
1	256
1	256
1	256
1	6
1	256
1	256
1	256
1	256
1	256
1	11
1	256
1	256
1	21
1	256
1	256
1	256
1	4
1	6
1	256
1	5
1	256
1	4
1	256
1	256
1	5
1	10
1	256
1	19
1	256
1	256
1	256
1	6
1	inf
1	19
1	256
1	256
1	256
1	19
1	256
1	256
1	256
1	21
1	19
1	6
1	256
1	256
1	256
1	7
1	256
1	256
1	256
1	6
1	5
1	256
1	256
1	256
1	19
1	4
1	256
1	19
1	3
1	256
1	256
1	256
1	256
1	21
1	256
1	6
1	19
1	256
1	5
1	256
1	7
1	21
1	8
1	256
1	256
1	11
1	11
1	10
1	256
1	256
1	256
1	256
1	256
1	256
1	256
1	256
1	256
1	256
1	8
1	21
1	256
1	256
1	5
1	256
1	6
1	21
1	256
1	256
1	256
1	256
1	256
1	6
1	256
1	256
1	256
1	256
1	256
1	256
1	5
1	256
1	3
1	256
1	2
1	5
1	256
1	19
1	256
1	256
1	256
1	256
1	5
1	256
1	10
1	256
1	256
1	6
1	256
1	7
1	256
1	256
1	16
1	256
1	256
1	256
1	6
1	5
1	256
1	256
1	5
1	256
1	256
1	4
1	16
1	256
1	256
1	256
1	16
1	256
1	8
1	256
1	256
1	256
1	256
1	256
1	256
1	256
1	256
1	8
1	6
1	3
1	256
1	256
1	256
1	3
1	256
1	256
1	256
1	256
1	8
1	256
1	256
1	4
1	256
1	256
1	19
1	8
1	256
1	256
1	256
1	256
1	256
1	19
1	256
1	256
1	7
1	256
1	256
1	5
1	7
1	21
1	256
1	256
1	19
1	256
1	256
1	11
1	256
1	256
1	11
1	256
1	16
1	256
1	256
1	256
1	256
1	21
1	256
1	256
1	256
1	256
1	3
1	5
1	256
1	11
1	256
1	256
1	256
1	256
1	256
1	256
1	256
1	5
1	19
1	4
1	256
1	256
1	256
1	256
1	256
1	3
1	21
1	5
1	256
1	256
1	11
1	16
1	256
1	256
1	256
1	4
1	19
1	256
1	256
1	256
1	6
1	5
1	7
1	256
1	4
1	256
1	256
1	256
1	256
1	256
1	256
1	256
1	256
1	7
1	256
1	7
1	256
1	256
1	256
1	256
1	256
1	4
1	256
1	21
1	256
1	8
1	19
1	6
1	21
1	5
1	10
1	19
1	256
2	3
2	5
2	21
2	5
2	4
2	16
2	5
2	7
2	6
2	4
2	8
2	21
2	3
2	256
2	3
2	5
2	5
2	4
2	16
2	3
2	6
2	6
2	3
2	4
2	4
2	7
2	3
2	3
2	5
2	8
2	6
2	3
2	3
3	7
3	4


