# Persistence diagram </home/jens/Uni/data_topology/Project/reddit_results/graphs/00351.gml>
#
# Dimension   : 1
# Entries     : 124
# Betti number: 124
4	inf
4	inf
4	inf
4	inf
4	inf
5	inf
6	inf
6	inf
6	inf
6	inf
6	inf
6	inf
6	inf
8	inf
8	inf
8	inf
8	inf
8	inf
9	inf
9	inf
9	inf
9	inf
9	inf
9	inf
9	inf
9	inf
9	inf
10	inf
10	inf
10	inf
10	inf
10	inf
10	inf
10	inf
13	inf
13	inf
13	inf
13	inf
13	inf
13	inf
13	inf
13	inf
13	inf
14	inf
14	inf
14	inf
14	inf
14	inf
16	inf
16	inf
16	inf
16	inf
209	inf
209	inf
209	inf
209	inf
209	inf
209	inf
209	inf
209	inf
209	inf
209	inf
209	inf
209	inf
209	inf
209	inf
209	inf
209	inf
209	inf
209	inf
209	inf
209	inf
209	inf
209	inf
209	inf
209	inf
209	inf
209	inf
209	inf
209	inf
209	inf
209	inf
209	inf
209	inf
209	inf
209	inf
209	inf
209	inf
209	inf
209	inf
209	inf
209	inf
209	inf
209	inf
209	inf
209	inf
209	inf
209	inf
209	inf
209	inf
209	inf
209	inf
209	inf
209	inf
209	inf
209	inf
209	inf
209	inf
209	inf
209	inf
209	inf
209	inf
209	inf
209	inf
209	inf
209	inf
209	inf
209	inf
209	inf
209	inf
209	inf
209	inf
209	inf
209	inf
