# Persistence diagram </home/jens/Uni/data_topology/Project/reddit_results/graphs/00401.gml>
#
# Dimension   : 1
# Entries     : 96
# Betti number: 96
3	inf
4	inf
4	inf
6	inf
7	inf
7	inf
7	inf
7	inf
7	inf
8	inf
8	inf
8	inf
8	inf
9	inf
10	inf
10	inf
10	inf
10	inf
13	inf
13	inf
13	inf
17	inf
17	inf
17	inf
17	inf
18	inf
18	inf
18	inf
18	inf
18	inf
18	inf
18	inf
27	inf
27	inf
429	inf
429	inf
429	inf
429	inf
429	inf
429	inf
429	inf
429	inf
429	inf
429	inf
429	inf
429	inf
429	inf
429	inf
429	inf
429	inf
429	inf
429	inf
429	inf
429	inf
429	inf
429	inf
429	inf
429	inf
429	inf
429	inf
429	inf
429	inf
429	inf
429	inf
429	inf
429	inf
429	inf
429	inf
429	inf
429	inf
429	inf
429	inf
429	inf
429	inf
429	inf
429	inf
429	inf
429	inf
429	inf
429	inf
429	inf
429	inf
429	inf
429	inf
429	inf
429	inf
429	inf
429	inf
429	inf
429	inf
429	inf
429	inf
429	inf
429	inf
429	inf
429	inf
