# Persistence diagram </home/jens/Uni/data_topology/Project/reddit_results/graphs/00411.gml>
#
# Dimension   : 0
# Entries     : 274
# Betti number: 2
1	inf
1	174
1	174
1	10
1	16
1	6
1	174
1	174
1	174
1	17
1	174
1	174
1	16
1	17
1	15
1	174
1	174
1	174
1	9
1	174
1	17
1	5
1	9
1	25
1	12
1	5
1	174
1	174
1	10
1	174
1	6
1	174
1	174
1	174
1	17
1	25
1	174
1	12
1	10
1	9
1	5
1	174
1	174
1	8
1	174
1	3
1	174
1	174
1	174
1	174
1	174
1	174
1	174
1	174
1	16
1	5
1	174
1	16
1	6
1	16
1	174
1	9
1	174
1	5
1	174
1	9
1	6
1	174
1	6
1	5
1	174
1	4
1	9
1	174
1	9
1	174
1	9
1	174
1	4
1	9
1	174
1	5
1	5
1	174
1	15
1	17
1	174
1	174
1	16
1	inf
1	174
1	174
1	174
1	174
1	174
1	3
1	17
1	5
1	4
1	174
1	174
1	16
1	12
1	7
1	174
1	6
1	174
1	6
1	174
1	5
1	5
1	5
1	174
1	17
1	174
1	174
1	174
1	174
1	12
1	9
1	9
1	174
1	174
1	174
1	15
1	5
1	174
1	174
1	5
1	174
1	174
1	174
1	7
1	6
1	10
1	174
1	174
1	174
1	174
1	174
1	174
1	174
1	174
1	17
1	6
1	174
1	174
1	174
1	7
1	16
1	174
1	5
1	174
1	174
1	6
1	9
1	174
1	174
1	174
1	174
1	174
1	174
1	16
1	174
1	5
1	7
1	174
1	15
1	174
1	16
1	174
1	25
1	174
1	4
1	174
1	6
1	174
1	174
1	174
1	174
1	174
1	174
1	174
1	174
1	174
1	4
1	174
1	9
1	4
1	174
1	15
1	174
1	4
1	3
1	4
1	174
1	4
1	6
1	9
1	9
1	174
1	174
1	174
1	174
1	5
1	4
1	4
1	174
1	174
1	174
1	174
1	6
1	174
1	174
1	17
1	174
1	3
1	6
1	174
1	174
1	7
1	6
1	6
1	4
1	9
1	15
2	5
2	9
2	174
2	3
2	3
2	25
2	174
2	25
2	5
2	25
2	25
2	6
2	4
2	25
2	10
2	16
2	6
2	16
2	15
2	3
2	9
2	174
2	6
2	9
2	3
2	25
2	9
2	3
2	3
2	4
2	3
2	5
2	3
2	5
2	5
2	4
2	5
2	25
2	5
2	3
3	8
3	5
3	5
3	5
3	8
3	5
3	6
5	6


