# Persistence diagram </home/jens/Uni/data_topology/Project/reddit_results/graphs/00451.gml>
#
# Dimension   : 1
# Entries     : 41
# Betti number: 41
4	inf
4	inf
4	inf
6	inf
12	inf
12	inf
13	inf
13	inf
13	inf
13	inf
13	inf
13	inf
14	inf
14	inf
14	inf
14	inf
153	inf
153	inf
153	inf
153	inf
153	inf
153	inf
153	inf
153	inf
153	inf
153	inf
153	inf
153	inf
153	inf
153	inf
153	inf
153	inf
153	inf
153	inf
153	inf
153	inf
153	inf
153	inf
153	inf
153	inf
153	inf
