# Persistence diagram </home/jens/Uni/data_topology/Project/reddit_results/graphs/00471.gml>
#
# Dimension   : 1
# Entries     : 16
# Betti number: 16
4	inf
63	inf
63	inf
63	inf
63	inf
63	inf
63	inf
63	inf
63	inf
63	inf
63	inf
63	inf
63	inf
63	inf
63	inf
63	inf
