# Persistence diagram </home/jens/Uni/data_topology/Project/reddit_results/graphs/00501.gml>
#
# Dimension   : 1
# Entries     : 94
# Betti number: 94
4	inf
4	inf
5	inf
5	inf
6	inf
6	inf
6	inf
7	inf
7	inf
7	inf
7	inf
7	inf
7	inf
7	inf
8	inf
8	inf
8	inf
8	inf
9	inf
9	inf
10	inf
14	inf
14	inf
14	inf
14	inf
14	inf
14	inf
14	inf
14	inf
14	inf
14	inf
14	inf
14	inf
39	inf
39	inf
39	inf
39	inf
39	inf
39	inf
351	inf
351	inf
351	inf
351	inf
351	inf
351	inf
351	inf
351	inf
351	inf
351	inf
351	inf
351	inf
351	inf
351	inf
351	inf
351	inf
351	inf
351	inf
351	inf
351	inf
351	inf
351	inf
351	inf
351	inf
351	inf
351	inf
351	inf
351	inf
351	inf
351	inf
351	inf
351	inf
351	inf
351	inf
351	inf
351	inf
351	inf
351	inf
351	inf
351	inf
351	inf
351	inf
351	inf
351	inf
351	inf
351	inf
351	inf
351	inf
351	inf
351	inf
351	inf
351	inf
351	inf
351	inf
351	inf
