# Persistence diagram </home/jens/Uni/data_topology/Project/reddit_results/graphs/00551.gml>
#
# Dimension   : 0
# Entries     : 384
# Betti number: 3
1	inf
1	227
1	227
1	24
1	6
1	14
1	227
1	227
1	227
1	6
1	6
1	227
1	227
1	227
1	227
1	227
1	10
1	227
1	227
1	227
1	6
1	227
1	24
1	227
1	227
1	227
1	15
1	227
1	227
1	20
1	10
1	227
1	227
1	227
1	227
1	227
1	227
1	5
1	227
1	227
1	227
1	227
1	13
1	227
1	6
1	227
1	227
1	6
1	6
1	6
1	227
1	227
1	227
1	227
1	227
1	227
1	227
1	227
1	227
1	227
1	227
1	24
1	227
1	6
1	227
1	227
1	227
1	227
1	227
1	20
1	15
1	227
1	227
1	227
1	227
1	4
1	227
1	227
1	227
1	227
1	227
1	227
1	7
1	24
1	227
1	227
1	6
1	227
1	227
1	10
1	227
1	227
1	227
1	227
1	4
1	7
1	5
1	227
1	inf
1	14
1	227
1	227
1	227
1	227
1	6
1	3
1	5
1	227
1	10
1	5
1	inf
1	227
1	227
1	227
1	5
1	227
1	24
1	3
1	227
1	227
1	227
1	7
1	227
1	6
1	15
1	4
1	227
1	13
1	227
1	20
1	227
1	4
1	7
1	24
1	4
1	6
1	227
1	227
1	227
1	10
1	8
1	6
1	227
1	5
1	6
1	14
1	227
1	227
1	24
1	227
1	227
1	227
1	6
1	7
1	227
1	227
1	227
1	7
1	227
1	227
1	5
1	10
1	24
1	6
1	227
1	13
1	24
1	227
1	227
1	6
1	227
1	10
1	5
1	4
1	24
1	6
1	227
1	227
1	13
1	13
1	6
1	227
1	8
1	10
1	227
1	6
1	227
1	227
1	6
1	227
1	24
1	7
1	227
1	6
1	227
1	227
1	10
1	227
1	13
1	227
1	14
1	4
1	8
1	4
1	4
1	227
1	5
1	227
1	227
1	6
1	227
1	227
1	13
1	227
1	227
1	227
1	227
1	227
1	227
1	227
1	4
1	227
1	227
1	227
1	227
1	227
1	6
1	227
1	24
1	6
1	8
1	24
1	14
1	227
1	227
1	13
1	6
1	5
1	8
1	5
1	5
1	227
1	20
1	24
1	20
1	6
1	227
1	227
1	227
1	4
1	6
1	227
1	7
1	13
1	227
1	3
1	5
1	6
1	4
1	227
1	227
1	24
1	13
1	227
1	227
1	227
1	227
1	227
1	227
1	227
1	227
1	227
1	227
1	20
1	227
1	227
1	227
1	5
1	227
1	6
1	4
1	227
1	10
1	227
1	15
1	4
1	13
1	227
1	3
1	3
1	6
1	13
1	227
1	15
1	227
1	15
1	5
1	227
1	227
1	227
1	6
1	227
1	227
1	227
1	13
1	227
1	7
1	4
1	15
1	227
1	227
1	227
1	227
1	13
1	5
1	227
1	227
1	227
1	227
1	227
1	227
1	6
1	13
1	227
1	24
1	227
1	6
1	227
1	5
1	6
1	227
1	20
1	227
1	227
2	4
2	5
2	4
2	4
2	4
2	227
2	7
2	7
2	3
2	7
2	6
2	4
2	7
2	10
2	24
2	4
2	5
2	4
2	6
2	5
2	4
2	3
2	4
2	3
2	10
2	10
2	6
2	5
2	3
2	227
2	4
2	3
2	5
2	4
2	3
2	4
2	5
2	7
2	4
2	227
2	6
2	7
2	3
2	4
2	3
2	5
2	7
3	4
3	4
3	5


