# Persistence diagram </home/jens/Uni/data_topology/Project/reddit_results/graphs/00611.gml>
#
# Dimension   : 0
# Entries     : 143
# Betti number: 3
1	inf
1	66
1	66
1	9
1	inf
1	66
1	6
1	5
1	9
1	66
1	66
1	9
1	66
1	8
1	66
1	66
1	66
1	8
1	25
1	66
1	66
1	66
1	25
1	5
1	66
1	66
1	66
1	8
1	inf
1	66
1	7
1	66
1	5
1	4
1	66
1	66
1	66
1	66
1	7
1	5
1	25
1	8
1	66
1	6
1	7
1	66
1	9
1	66
1	8
1	66
1	66
1	8
1	5
1	9
1	4
1	66
1	6
1	8
1	8
1	25
1	6
1	9
1	3
1	8
1	25
1	8
1	66
1	5
1	9
1	9
1	66
1	8
1	66
1	7
1	66
1	66
1	66
1	4
1	8
1	5
1	5
1	66
1	5
1	4
1	25
1	25
1	25
1	66
1	8
1	66
1	66
1	66
1	25
1	66
1	3
1	8
1	66
1	25
1	66
1	25
1	66
1	9
1	66
1	66
1	66
1	66
1	66
1	9
1	66
1	9
1	9
1	4
1	8
2	5
2	5
2	25
2	6
2	8
2	4
2	3
2	7
2	5
2	3
2	3
2	3
2	3
2	3
2	3
2	5
2	3
2	6
2	4
2	3
2	3
2	5
2	3
2	4
2	4
2	3
2	8
2	8
3	4
3	4


