# Persistence diagram </home/jens/Uni/data_topology/Project/reddit_results/graphs/00641.gml>
#
# Dimension   : 1
# Entries     : 39
# Betti number: 39
7	inf
7	inf
7	inf
7	inf
8	inf
8	inf
8	inf
8	inf
9	inf
9	inf
9	inf
9	inf
9	inf
9	inf
133	inf
133	inf
133	inf
133	inf
133	inf
133	inf
133	inf
133	inf
133	inf
133	inf
133	inf
133	inf
133	inf
133	inf
133	inf
133	inf
133	inf
133	inf
133	inf
133	inf
133	inf
133	inf
133	inf
133	inf
133	inf
