# Persistence diagram </home/jens/Uni/data_topology/Project/reddit_results/graphs/00681.gml>
#
# Dimension   : 0
# Entries     : 792
# Betti number: 3
1	inf
1	400
1	400
1	400
1	400
1	inf
1	400
1	14
1	inf
1	9
1	7
1	400
1	18
1	11
1	14
1	400
1	15
1	400
1	8
1	400
1	8
1	15
1	6
1	400
1	14
1	400
1	7
1	400
1	400
1	8
1	7
1	6
1	400
1	15
1	400
1	6
1	400
1	6
1	400
1	400
1	12
1	6
1	10
1	400
1	400
1	7
1	400
1	8
1	400
1	400
1	400
1	400
1	400
1	6
1	400
1	8
1	400
1	400
1	400
1	23
1	12
1	9
1	15
1	400
1	6
1	400
1	400
1	9
1	8
1	8
1	400
1	10
1	23
1	14
1	400
1	17
1	400
1	400
1	400
1	21
1	6
1	400
1	8
1	10
1	400
1	400
1	400
1	400
1	400
1	5
1	23
1	400
1	7
1	400
1	400
1	400
1	15
1	12
1	7
1	400
1	400
1	400
1	23
1	400
1	400
1	6
1	15
1	9
1	400
1	14
1	400
1	5
1	7
1	400
1	400
1	400
1	9
1	20
1	6
1	400
1	9
1	400
1	400
1	400
1	11
1	400
1	400
1	400
1	400
1	400
1	400
1	7
1	5
1	400
1	23
1	7
1	17
1	400
1	400
1	6
1	400
1	21
1	400
1	8
1	12
1	18
1	400
1	10
1	400
1	23
1	400
1	22
1	400
1	16
1	400
1	400
1	400
1	400
1	400
1	15
1	400
1	9
1	20
1	15
1	400
1	400
1	400
1	400
1	12
1	4
1	400
1	400
1	15
1	400
1	5
1	9
1	400
1	400
1	400
1	6
1	400
1	400
1	20
1	15
1	400
1	400
1	20
1	6
1	400
1	400
1	23
1	6
1	9
1	11
1	6
1	400
1	8
1	5
1	400
1	5
1	15
1	400
1	18
1	400
1	14
1	11
1	400
1	400
1	15
1	400
1	6
1	13
1	400
1	12
1	400
1	6
1	8
1	10
1	6
1	9
1	8
1	12
1	15
1	400
1	15
1	8
1	400
1	5
1	22
1	8
1	8
1	12
1	400
1	400
1	400
1	400
1	11
1	22
1	400
1	400
1	400
1	7
1	6
1	14
1	400
1	9
1	400
1	400
1	8
1	11
1	400
1	10
1	9
1	400
1	4
1	4
1	400
1	12
1	21
1	400
1	400
1	400
1	17
1	400
1	400
1	400
1	400
1	400
1	400
1	22
1	23
1	17
1	400
1	13
1	400
1	400
1	27
1	400
1	400
1	400
1	400
1	400
1	400
1	7
1	400
1	400
1	5
1	400
1	400
1	400
1	14
1	17
1	12
1	400
1	15
1	400
1	11
1	400
1	10
1	20
1	400
1	400
1	11
1	10
1	400
1	400
1	400
1	14
1	6
1	400
1	7
1	400
1	400
1	12
1	21
1	400
1	17
1	400
1	12
1	15
1	8
1	400
1	23
1	5
1	400
1	10
1	9
1	400
1	400
1	400
1	400
1	4
1	20
1	11
1	400
1	8
1	27
1	400
1	20
1	400
1	400
1	22
1	400
1	4
1	400
1	21
1	8
1	400
1	400
1	5
1	400
1	20
1	400
1	400
1	400
1	400
1	400
1	400
1	400
1	4
1	400
1	5
1	400
1	5
1	7
1	4
1	400
1	15
1	3
1	10
1	400
1	400
1	6
1	14
1	9
1	400
1	400
1	5
1	8
1	22
1	12
1	8
1	11
1	6
1	12
1	400
1	20
1	3
1	6
1	400
1	10
1	5
1	21
1	400
1	400
1	400
1	400
1	11
1	5
1	400
1	400
1	23
1	400
1	400
1	7
1	400
1	400
1	9
1	22
1	4
1	400
1	400
1	400
1	400
1	4
1	400
1	400
1	6
1	400
1	5
1	22
1	23
1	400
1	400
1	400
1	400
1	20
1	11
1	15
1	27
1	4
1	6
1	9
1	21
1	17
1	6
1	400
1	4
1	400
1	5
1	11
1	400
1	3
1	11
1	15
1	17
1	8
1	15
1	8
1	400
1	5
1	400
1	400
1	400
1	400
1	6
1	400
1	3
1	400
1	400
1	400
1	12
1	400
1	23
1	7
1	400
1	21
1	5
1	7
1	400
1	400
1	400
1	400
1	5
1	27
1	7
1	400
1	5
1	400
1	5
1	5
1	20
1	400
1	400
1	15
1	12
1	400
1	400
1	400
1	9
1	6
1	400
1	5
1	8
1	7
1	20
1	9
1	14
1	12
1	400
1	400
1	15
1	8
1	5
1	400
1	10
1	8
1	400
1	11
1	400
1	400
1	15
1	12
1	22
1	3
1	6
1	400
1	20
1	400
1	23
1	6
1	400
1	12
1	400
1	400
1	400
1	400
1	15
1	400
1	11
1	400
1	5
1	400
1	400
1	8
1	7
1	400
1	400
1	12
1	7
1	9
1	9
1	400
1	400
1	400
1	400
1	400
1	13
1	8
1	400
1	400
1	16
1	400
1	400
1	400
1	7
1	10
1	400
1	10
1	400
1	12
1	400
1	400
1	400
1	12
1	20
1	400
1	400
1	400
1	12
1	400
1	400
1	23
1	400
1	400
1	4
1	7
1	400
1	14
1	400
1	400
1	27
1	400
1	400
1	9
1	10
1	12
1	400
1	400
1	400
1	9
1	400
1	400
1	8
1	17
1	400
1	14
1	5
1	8
1	400
1	400
1	6
1	9
1	15
1	400
1	400
1	400
1	400
1	400
1	400
1	6
1	8
1	400
1	400
1	400
1	400
1	15
1	4
1	8
1	11
1	21
1	21
1	17
1	400
1	10
1	15
1	400
1	400
1	400
1	400
1	20
1	15
1	400
1	400
1	400
1	400
1	17
1	400
1	400
1	15
1	8
1	15
1	15
1	400
1	400
1	400
1	4
1	12
1	4
1	12
1	400
1	400
1	400
1	400
1	21
1	17
1	400
1	5
1	7
1	5
1	400
1	400
1	9
1	4
1	21
1	5
1	15
1	400
1	4
1	400
1	22
1	9
1	400
1	400
1	400
1	400
1	4
2	4
2	11
2	3
2	9
2	23
2	18
2	400
2	6
2	8
2	5
2	4
2	7
2	8
2	8
2	9
2	21
2	7
2	3
2	5
2	6
2	7
2	9
2	13
2	15
2	11
2	5
2	3
2	21
2	4
2	7
2	6
2	9
2	11
2	8
2	4
2	400
2	3
2	4
2	22
2	6
2	10
2	4
2	21
2	7
2	12
2	27
2	10
2	3
2	12
2	11
2	6
2	4
2	4
2	3
2	400
2	4
2	4
2	3
2	5
2	10
2	16
2	7
2	6
2	8
2	3
2	12
2	14
2	21
2	18
2	12
2	6
2	3
2	5
2	21
2	4
2	5
2	3
2	11
2	11
2	5
2	5
2	8
2	12
2	12
2	16
2	7
2	5
2	16
3	18
3	4
3	6
3	5
3	11
3	5
3	8
3	7
3	6
3	5
3	4
3	5
3	5
3	5
3	5
3	12
3	6
3	5
3	5
3	11
3	8
3	4
3	6
4	9
4	5
5	7
5	6


