# Persistence diagram </home/jens/Uni/data_topology/Project/reddit_results/graphs/00751.gml>
#
# Dimension   : 0
# Entries     : 160
# Betti number: 2
1	inf
1	111
1	111
1	9
1	4
1	9
1	111
1	9
1	111
1	9
1	111
1	111
1	9
1	111
1	111
1	9
1	111
1	4
1	111
1	111
1	111
1	15
1	111
1	9
1	111
1	111
1	111
1	111
1	111
1	111
1	111
1	111
1	111
1	111
1	inf
1	111
1	9
1	111
1	111
1	111
1	111
1	111
1	5
1	3
1	7
1	111
1	111
1	9
1	111
1	9
1	111
1	2
1	9
1	111
1	9
1	111
1	111
1	111
1	111
1	111
1	111
1	111
1	111
1	9
1	7
1	111
1	111
1	111
1	7
1	111
1	111
1	5
1	15
1	111
1	111
1	111
1	111
1	111
1	111
1	9
1	111
1	5
1	15
1	111
1	111
1	111
1	4
1	111
1	111
1	5
1	111
1	111
1	111
1	7
1	111
1	9
1	111
1	111
1	111
1	15
1	4
1	111
1	111
1	15
1	111
1	111
1	3
1	7
1	3
1	111
1	111
1	111
1	111
1	7
1	7
1	5
1	111
1	5
1	111
1	111
1	111
1	111
1	111
1	111
1	15
1	111
1	111
1	5
1	111
1	15
1	4
1	111
1	111
1	111
1	111
1	111
1	111
1	111
1	111
1	3
1	15
1	111
1	111
2	7
2	111
2	5
2	4
2	4
2	4
2	3
2	111
2	5
2	4
2	5
2	3
2	5
2	9
2	5
3	4
3	5


