# Persistence diagram </home/jens/Uni/data_topology/Project/reddit_results/graphs/00771.gml>
#
# Dimension   : 0
# Entries     : 202
# Betti number: 5
1	inf
1	98
1	98
1	14
1	98
1	9
1	98
1	98
1	98
1	98
1	10
1	98
1	9
1	8
1	8
1	9
1	98
1	98
1	4
1	8
1	98
1	9
1	98
1	12
1	5
1	9
1	98
1	9
1	98
1	98
1	9
1	6
1	8
1	9
1	5
1	14
1	9
1	5
1	98
1	8
1	6
1	98
1	12
1	12
1	98
1	5
1	98
1	6
1	10
1	9
1	98
1	98
1	98
1	98
1	inf
1	8
1	98
1	98
1	inf
1	98
1	98
1	3
1	98
1	98
1	2
1	9
1	5
1	9
1	98
1	8
1	6
1	4
1	98
1	8
1	9
1	5
1	98
1	9
1	98
1	98
1	98
1	14
1	98
1	98
1	98
1	9
1	98
1	98
1	98
1	98
1	14
1	6
1	98
1	98
1	9
1	10
1	5
1	98
1	14
1	6
1	10
1	98
1	9
1	9
1	98
1	98
1	14
1	8
1	98
1	98
1	14
1	98
1	14
1	98
1	10
1	3
1	12
1	inf
1	4
1	98
1	98
1	98
1	98
1	3
1	3
1	5
1	98
1	14
1	9
1	3
1	10
1	98
1	98
1	98
1	98
1	3
1	98
1	12
1	5
1	98
1	9
1	98
1	3
1	12
1	9
1	3
1	2
1	98
1	9
1	inf
1	98
1	98
1	98
1	98
1	98
1	9
1	98
1	4
1	98
1	98
1	6
1	5
1	3
1	4
1	4
1	12
1	14
1	2
1	98
1	3
1	98
1	98
1	98
1	98
1	98
1	98
1	4
1	3
1	9
1	4
1	98
2	3
2	98
2	4
2	3
2	4
2	4
2	4
2	3
2	3
2	5
2	4
2	3
2	3
2	8
2	6
2	4
2	98
2	3
2	4
2	4
3	5


