# Persistence diagram </home/jens/Uni/data_topology/Project/reddit_results/graphs/00841.gml>
#
# Dimension   : 0
# Entries     : 214
# Betti number: 1
1	inf
1	152
1	152
1	152
1	12
1	152
1	152
1	152
1	152
1	152
1	152
1	9
1	7
1	152
1	7
1	6
1	6
1	152
1	152
1	12
1	5
1	152
1	152
1	7
1	7
1	152
1	152
1	152
1	152
1	152
1	152
1	152
1	152
1	7
1	6
1	152
1	152
1	4
1	7
1	152
1	5
1	152
1	152
1	152
1	152
1	152
1	5
1	152
1	152
1	152
1	152
1	152
1	4
1	152
1	6
1	152
1	152
1	152
1	12
1	152
1	5
1	152
1	152
1	152
1	5
1	152
1	6
1	3
1	7
1	152
1	152
1	12
1	152
1	12
1	7
1	152
1	152
1	152
1	152
1	152
1	152
1	152
1	12
1	152
1	152
1	6
1	152
1	152
1	4
1	152
1	152
1	152
1	12
1	152
1	152
1	5
1	6
1	152
1	9
1	12
1	152
1	152
1	6
1	152
1	9
1	152
1	152
1	152
1	152
1	152
1	12
1	152
1	152
1	152
1	7
1	152
1	152
1	5
1	9
1	152
1	152
1	7
1	152
1	152
1	4
1	152
1	152
1	3
1	6
1	12
1	152
1	7
1	152
1	152
1	152
1	152
1	152
1	9
1	6
1	152
1	152
1	152
1	152
1	152
1	6
1	152
1	5
1	6
1	152
1	152
1	152
1	3
1	152
1	9
1	5
1	12
1	152
1	152
1	152
1	4
1	3
1	152
1	152
1	152
1	6
1	4
1	152
1	152
1	152
1	152
1	152
1	152
1	152
1	5
1	152
1	4
1	12
1	152
1	5
1	152
1	152
1	152
1	5
1	9
1	152
1	152
1	152
1	152
1	7
2	3
2	4
2	7
2	5
2	4
2	6
2	12
2	3
2	4
2	3
2	152
2	3
2	152
2	4
2	3
2	3
2	5
2	3
2	3
2	4
2	5
2	4
2	5
2	3
2	4


