# Persistence diagram </home/jens/Uni/data_topology/Project/reddit_results/graphs/00891.gml>
#
# Dimension   : 1
# Entries     : 95
# Betti number: 95
3	inf
4	inf
4	inf
6	inf
6	inf
6	inf
6	inf
6	inf
6	inf
7	inf
8	inf
9	inf
9	inf
9	inf
9	inf
9	inf
9	inf
10	inf
10	inf
10	inf
10	inf
10	inf
10	inf
10	inf
14	inf
14	inf
14	inf
14	inf
17	inf
20	inf
20	inf
20	inf
20	inf
20	inf
20	inf
20	inf
20	inf
20	inf
266	inf
266	inf
266	inf
266	inf
266	inf
266	inf
266	inf
266	inf
266	inf
266	inf
266	inf
266	inf
266	inf
266	inf
266	inf
266	inf
266	inf
266	inf
266	inf
266	inf
266	inf
266	inf
266	inf
266	inf
266	inf
266	inf
266	inf
266	inf
266	inf
266	inf
266	inf
266	inf
266	inf
266	inf
266	inf
266	inf
266	inf
266	inf
266	inf
266	inf
266	inf
266	inf
266	inf
266	inf
266	inf
266	inf
266	inf
266	inf
266	inf
266	inf
266	inf
266	inf
266	inf
266	inf
266	inf
266	inf
266	inf
