# Persistence diagram </home/jens/Uni/data_topology/Project/reddit_results/graphs/00921.gml>
#
# Dimension   : 1
# Entries     : 207
# Betti number: 207
3	inf
5	inf
6	inf
6	inf
8	inf
8	inf
9	inf
9	inf
9	inf
9	inf
9	inf
10	inf
10	inf
10	inf
10	inf
10	inf
11	inf
11	inf
11	inf
11	inf
12	inf
12	inf
12	inf
14	inf
14	inf
14	inf
14	inf
14	inf
14	inf
14	inf
14	inf
14	inf
14	inf
15	inf
15	inf
15	inf
15	inf
15	inf
15	inf
15	inf
15	inf
15	inf
15	inf
15	inf
15	inf
16	inf
16	inf
21	inf
21	inf
21	inf
21	inf
21	inf
21	inf
21	inf
21	inf
21	inf
22	inf
22	inf
22	inf
22	inf
22	inf
22	inf
22	inf
22	inf
22	inf
22	inf
22	inf
22	inf
27	inf
27	inf
27	inf
27	inf
27	inf
27	inf
27	inf
27	inf
27	inf
27	inf
27	inf
27	inf
27	inf
27	inf
27	inf
27	inf
27	inf
27	inf
27	inf
27	inf
27	inf
27	inf
27	inf
27	inf
27	inf
27	inf
27	inf
27	inf
27	inf
27	inf
27	inf
27	inf
27	inf
27	inf
27	inf
27	inf
376	inf
376	inf
376	inf
376	inf
376	inf
376	inf
376	inf
376	inf
376	inf
376	inf
376	inf
376	inf
376	inf
376	inf
376	inf
376	inf
376	inf
376	inf
376	inf
376	inf
376	inf
376	inf
376	inf
376	inf
376	inf
376	inf
376	inf
376	inf
376	inf
376	inf
376	inf
376	inf
376	inf
376	inf
376	inf
376	inf
376	inf
376	inf
376	inf
376	inf
376	inf
376	inf
376	inf
376	inf
376	inf
376	inf
376	inf
376	inf
376	inf
376	inf
376	inf
376	inf
376	inf
376	inf
376	inf
376	inf
376	inf
376	inf
376	inf
376	inf
376	inf
376	inf
376	inf
376	inf
376	inf
376	inf
376	inf
376	inf
376	inf
376	inf
376	inf
376	inf
376	inf
376	inf
376	inf
376	inf
376	inf
376	inf
376	inf
376	inf
376	inf
376	inf
376	inf
376	inf
376	inf
376	inf
376	inf
376	inf
376	inf
376	inf
376	inf
376	inf
376	inf
376	inf
376	inf
376	inf
376	inf
376	inf
376	inf
376	inf
376	inf
376	inf
376	inf
