# Persistence diagram </home/jens/Uni/data_topology/Project/reddit_results/graphs/00961.gml>
#
# Dimension   : 0
# Entries     : 304
# Betti number: 3
1	inf
1	185
1	27
1	185
1	185
1	23
1	185
1	21
1	185
1	21
1	185
1	185
1	21
1	185
1	9
1	185
1	7
1	4
1	14
1	8
1	185
1	23
1	185
1	185
1	inf
1	185
1	185
1	23
1	185
1	14
1	185
1	185
1	185
1	27
1	185
1	185
1	185
1	23
1	185
1	27
1	185
1	185
1	9
1	23
1	27
1	23
1	185
1	185
1	185
1	185
1	23
1	185
1	inf
1	14
1	185
1	185
1	27
1	3
1	185
1	185
1	23
1	27
1	185
1	185
1	185
1	185
1	16
1	185
1	185
1	185
1	185
1	185
1	185
1	21
1	185
1	3
1	185
1	27
1	185
1	185
1	185
1	185
1	185
1	2
1	185
1	185
1	14
1	185
1	185
1	185
1	7
1	185
1	21
1	185
1	16
1	185
1	8
1	185
1	185
1	185
1	185
1	185
1	11
1	185
1	185
1	185
1	27
1	185
1	27
1	14
1	185
1	185
1	185
1	9
1	9
1	185
1	185
1	23
1	185
1	185
1	185
1	185
1	185
1	4
1	23
1	185
1	185
1	185
1	185
1	185
1	14
1	16
1	9
1	185
1	21
1	21
1	185
1	185
1	185
1	185
1	185
1	4
1	185
1	185
1	185
1	185
1	185
1	185
1	14
1	9
1	185
1	21
1	185
1	185
1	21
1	185
1	185
1	6
1	185
1	185
1	185
1	23
1	3
1	23
1	16
1	185
1	185
1	185
1	185
1	185
1	185
1	27
1	185
1	185
1	16
1	16
1	4
1	185
1	21
1	185
1	27
1	185
1	7
1	185
1	185
1	185
1	185
1	185
1	3
1	185
1	185
1	185
1	11
1	3
1	14
1	185
1	185
1	27
1	4
1	27
1	6
1	23
1	185
1	23
1	185
1	8
1	8
1	4
1	185
1	185
1	27
1	27
1	185
1	23
1	185
1	7
1	9
1	185
1	8
1	185
1	185
1	185
1	185
1	16
1	4
1	11
1	8
1	185
1	8
1	21
1	185
1	185
1	185
1	9
1	21
1	185
1	9
1	185
1	185
1	21
1	185
1	185
1	8
1	185
1	185
1	185
1	185
1	11
1	7
1	185
1	185
1	185
1	185
1	185
1	185
1	16
1	8
1	185
1	185
1	185
1	4
1	16
1	185
1	185
1	4
1	16
1	185
1	185
2	3
2	4
2	4
2	185
2	3
2	3
2	9
2	9
2	6
2	6
2	3
2	3
2	7
2	3
2	7
2	6
2	4
2	4
2	8
2	6
2	3
2	16
2	6
2	3
2	3
2	3
2	4
2	21
2	23
2	4
2	4
2	6
2	6
2	6
3	4
3	4


