# Persistence diagram </home/jens/Uni/data_topology/Project/reddit_results/graphs/00971.gml>
#
# Dimension   : 1
# Entries     : 125
# Betti number: 125
3	inf
4	inf
4	inf
5	inf
6	inf
6	inf
6	inf
6	inf
6	inf
6	inf
6	inf
6	inf
9	inf
9	inf
12	inf
12	inf
12	inf
12	inf
12	inf
12	inf
13	inf
13	inf
13	inf
15	inf
15	inf
15	inf
15	inf
15	inf
16	inf
16	inf
16	inf
16	inf
16	inf
21	inf
21	inf
21	inf
21	inf
21	inf
22	inf
22	inf
24	inf
24	inf
24	inf
24	inf
24	inf
24	inf
24	inf
24	inf
24	inf
24	inf
24	inf
24	inf
24	inf
390	inf
390	inf
390	inf
390	inf
390	inf
390	inf
390	inf
390	inf
390	inf
390	inf
390	inf
390	inf
390	inf
390	inf
390	inf
390	inf
390	inf
390	inf
390	inf
390	inf
390	inf
390	inf
390	inf
390	inf
390	inf
390	inf
390	inf
390	inf
390	inf
390	inf
390	inf
390	inf
390	inf
390	inf
390	inf
390	inf
390	inf
390	inf
390	inf
390	inf
390	inf
390	inf
390	inf
390	inf
390	inf
390	inf
390	inf
390	inf
390	inf
390	inf
390	inf
390	inf
390	inf
390	inf
390	inf
390	inf
390	inf
390	inf
390	inf
390	inf
390	inf
390	inf
390	inf
390	inf
390	inf
390	inf
390	inf
390	inf
390	inf
390	inf
390	inf
390	inf
