# Persistence diagram </home/jens/Uni/data_topology/Project/reddit_results/graphs/01051.gml>
#
# Dimension   : 1
# Entries     : 174
# Betti number: 174
5	inf
5	inf
5	inf
5	inf
6	inf
7	inf
8	inf
8	inf
9	inf
10	inf
10	inf
10	inf
10	inf
10	inf
10	inf
11	inf
11	inf
11	inf
11	inf
11	inf
12	inf
12	inf
12	inf
12	inf
12	inf
12	inf
12	inf
12	inf
12	inf
12	inf
13	inf
13	inf
13	inf
13	inf
13	inf
13	inf
13	inf
13	inf
13	inf
13	inf
13	inf
14	inf
14	inf
14	inf
14	inf
14	inf
14	inf
14	inf
14	inf
17	inf
17	inf
17	inf
17	inf
17	inf
17	inf
22	inf
22	inf
22	inf
22	inf
22	inf
22	inf
22	inf
22	inf
22	inf
22	inf
22	inf
22	inf
22	inf
22	inf
22	inf
22	inf
22	inf
22	inf
22	inf
22	inf
22	inf
22	inf
22	inf
37	inf
37	inf
37	inf
37	inf
37	inf
37	inf
37	inf
37	inf
37	inf
37	inf
37	inf
37	inf
37	inf
37	inf
37	inf
37	inf
37	inf
37	inf
37	inf
37	inf
37	inf
277	inf
277	inf
277	inf
277	inf
277	inf
277	inf
277	inf
277	inf
277	inf
277	inf
277	inf
277	inf
277	inf
277	inf
277	inf
277	inf
277	inf
277	inf
277	inf
277	inf
277	inf
277	inf
277	inf
277	inf
277	inf
277	inf
277	inf
277	inf
277	inf
277	inf
277	inf
277	inf
277	inf
277	inf
277	inf
277	inf
277	inf
277	inf
277	inf
277	inf
277	inf
277	inf
277	inf
277	inf
277	inf
277	inf
277	inf
277	inf
277	inf
277	inf
277	inf
277	inf
277	inf
277	inf
277	inf
277	inf
277	inf
277	inf
277	inf
277	inf
277	inf
277	inf
277	inf
277	inf
277	inf
277	inf
277	inf
277	inf
277	inf
277	inf
277	inf
277	inf
277	inf
277	inf
277	inf
