# Persistence diagram </home/jens/Uni/data_topology/Project/reddit_results/graphs/01101.gml>
#
# Dimension   : 0
# Entries     : 181
# Betti number: 5
1	inf
1	6
1	5
1	127
1	127
1	127
1	127
1	4
1	127
1	127
1	127
1	127
1	127
1	127
1	127
1	11
1	127
1	6
1	127
1	127
1	inf
1	7
1	6
1	127
1	127
1	127
1	127
1	3
1	127
1	4
1	9
1	5
1	127
1	5
1	6
1	127
1	127
1	inf
1	127
1	127
1	127
1	127
1	127
1	4
1	127
1	127
1	11
1	11
1	4
1	127
1	9
1	7
1	127
1	7
1	127
1	127
1	127
1	127
1	127
1	127
1	3
1	127
1	127
1	11
1	9
1	4
1	11
1	4
1	127
1	127
1	127
1	3
1	6
1	127
1	127
1	4
1	127
1	127
1	127
1	127
1	5
1	127
1	127
1	127
1	127
1	127
1	127
1	5
1	11
1	5
1	127
1	5
1	127
1	6
1	127
1	4
1	127
1	127
1	127
1	127
1	127
1	127
1	127
1	7
1	5
1	inf
1	inf
1	7
1	127
1	127
1	9
1	127
1	127
1	6
1	127
1	127
1	7
1	127
1	127
1	9
1	127
1	3
1	127
1	127
1	127
1	127
1	127
1	9
1	127
1	127
1	127
1	127
1	127
1	5
1	127
1	127
1	127
1	127
1	127
1	127
1	3
1	127
1	5
1	6
1	4
1	127
1	4
1	127
1	3
1	7
1	127
1	3
1	11
1	7
1	127
1	127
1	127
1	127
1	4
1	127
1	127
1	127
1	4
2	127
2	11
2	5
2	3
2	5
2	5
2	5
2	7
2	5
2	5
2	7
2	5
2	5
2	6
2	5
2	4
2	3
2	3


