# Persistence diagram </home/jens/Uni/data_topology/Project/reddit_results/graphs/01141.gml>
#
# Dimension   : 0
# Entries     : 394
# Betti number: 3
1	inf
1	207
1	207
1	207
1	12
1	8
1	207
1	4
1	16
1	7
1	207
1	10
1	8
1	11
1	16
1	207
1	207
1	207
1	207
1	207
1	207
1	6
1	207
1	16
1	207
1	16
1	207
1	207
1	17
1	6
1	12
1	5
1	207
1	6
1	6
1	207
1	207
1	207
1	207
1	207
1	5
1	5
1	207
1	207
1	11
1	17
1	6
1	11
1	207
1	5
1	12
1	5
1	207
1	5
1	207
1	207
1	207
1	3
1	22
1	207
1	207
1	207
1	207
1	22
1	207
1	7
1	5
1	207
1	10
1	207
1	16
1	207
1	inf
1	7
1	207
1	9
1	12
1	207
1	4
1	207
1	207
1	207
1	22
1	8
1	7
1	12
1	207
1	7
1	207
1	207
1	6
1	12
1	6
1	207
1	6
1	207
1	207
1	207
1	5
1	5
1	4
1	207
1	12
1	4
1	16
1	207
1	207
1	207
1	8
1	22
1	207
1	207
1	6
1	6
1	3
1	17
1	207
1	207
1	5
1	17
1	4
1	207
1	207
1	7
1	5
1	4
1	22
1	207
1	207
1	207
1	207
1	4
1	6
1	207
1	22
1	207
1	207
1	207
1	5
1	207
1	207
1	207
1	4
1	3
1	207
1	4
1	207
1	207
1	16
1	207
1	22
1	207
1	207
1	207
1	207
1	3
1	6
1	6
1	207
1	207
1	207
1	4
1	12
1	4
1	5
1	6
1	207
1	207
1	207
1	5
1	207
1	207
1	207
1	207
1	12
1	6
1	10
1	16
1	7
1	4
1	6
1	207
1	207
1	207
1	207
1	6
1	10
1	207
1	22
1	207
1	207
1	207
1	207
1	12
1	4
1	3
1	inf
1	22
1	207
1	207
1	207
1	22
1	5
1	12
1	11
1	207
1	7
1	207
1	207
1	4
1	6
1	7
1	5
1	207
1	207
1	5
1	207
1	207
1	207
1	207
1	6
1	207
1	207
1	207
1	11
1	207
1	22
1	207
1	207
1	207
1	207
1	3
1	6
1	207
1	6
1	207
1	207
1	207
1	207
1	207
1	207
1	9
1	6
1	16
1	10
1	4
1	4
1	4
1	207
1	207
1	22
1	16
1	207
1	12
1	4
1	207
1	207
1	4
1	4
1	3
1	207
1	5
1	8
1	4
1	207
1	22
1	12
1	6
1	207
1	207
1	4
1	5
1	4
1	17
1	207
1	207
1	4
1	8
1	207
1	207
1	207
1	5
1	207
1	4
1	207
1	207
1	5
1	17
1	4
1	207
1	5
1	3
1	3
1	16
1	207
1	207
1	22
1	207
1	207
1	16
1	5
1	207
1	17
1	5
1	207
1	207
1	4
1	3
1	207
1	6
1	6
1	6
1	22
1	5
1	207
1	16
1	207
1	207
1	11
1	207
1	207
1	4
1	207
1	8
1	207
1	207
1	207
1	6
1	207
1	207
1	207
1	207
1	10
1	207
1	207
1	207
1	207
1	207
1	207
1	207
1	207
1	22
1	8
1	5
1	6
1	4
1	3
1	207
1	3
2	207
2	3
2	3
2	5
2	3
2	4
2	22
2	3
2	4
2	16
2	4
2	9
2	5
2	3
2	5
2	9
2	4
2	3
2	4
2	4
2	7
2	9
2	4
2	4
2	5
2	3
2	3
2	4
2	17
2	3
2	4
2	3
2	4
2	5
2	5
2	5
2	3
2	3
2	4
2	5
2	9
2	11
2	3
2	4
3	4


