# Persistence diagram </home/jens/Uni/data_topology/Project/reddit_results/graphs/01181.gml>
#
# Dimension   : 0
# Entries     : 162
# Betti number: 2
1	inf
1	87
1	87
1	10
1	87
1	12
1	87
1	6
1	10
1	4
1	6
1	5
1	87
1	87
1	87
1	87
1	87
1	13
1	87
1	87
1	11
1	87
1	87
1	34
1	87
1	34
1	87
1	4
1	5
1	87
1	87
1	87
1	87
1	12
1	13
1	87
1	13
1	34
1	5
1	inf
1	15
1	87
1	87
1	87
1	4
1	5
1	87
1	87
1	5
1	87
1	13
1	6
1	87
1	34
1	87
1	5
1	87
1	12
1	13
1	6
1	12
1	87
1	87
1	3
1	13
1	5
1	34
1	4
1	87
1	11
1	87
1	4
1	12
1	15
1	4
1	87
1	12
1	11
1	34
1	87
1	87
1	6
1	87
1	87
1	34
1	87
1	87
1	87
1	13
1	3
1	4
1	87
1	5
1	87
1	10
1	5
1	87
1	87
1	87
1	6
1	87
1	10
1	87
1	87
1	34
1	87
1	6
1	5
1	5
1	87
1	87
1	4
1	15
1	13
1	87
1	87
1	11
1	13
1	87
1	87
1	34
1	3
1	5
1	15
1	87
1	87
1	13
2	5
2	10
2	34
2	34
2	7
2	3
2	5
2	6
2	5
2	3
2	34
2	4
2	34
2	34
2	34
2	34
2	4
2	3
2	5
2	34
2	3
2	6
2	34
2	6
2	4
2	11
2	3
2	34
2	34
2	15
3	4
3	5
3	5
3	10
3	5


