# Persistence diagram </home/jens/Uni/data_topology/Project/reddit_results/graphs/01261.gml>
#
# Dimension   : 1
# Entries     : 70
# Betti number: 70
5	inf
5	inf
7	inf
8	inf
8	inf
8	inf
8	inf
9	inf
9	inf
9	inf
9	inf
10	inf
10	inf
10	inf
12	inf
13	inf
13	inf
13	inf
13	inf
13	inf
13	inf
13	inf
13	inf
13	inf
13	inf
15	inf
15	inf
15	inf
15	inf
15	inf
15	inf
15	inf
15	inf
15	inf
15	inf
17	inf
17	inf
17	inf
17	inf
17	inf
17	inf
17	inf
17	inf
17	inf
69	inf
69	inf
69	inf
69	inf
69	inf
69	inf
69	inf
69	inf
69	inf
69	inf
69	inf
69	inf
69	inf
69	inf
69	inf
69	inf
69	inf
69	inf
69	inf
69	inf
69	inf
69	inf
69	inf
69	inf
69	inf
69	inf
