# Persistence diagram </home/jens/Uni/data_topology/Project/reddit_results/graphs/01291.gml>
#
# Dimension   : 1
# Entries     : 40
# Betti number: 40
7	inf
7	inf
9	inf
9	inf
11	inf
11	inf
30	inf
30	inf
30	inf
30	inf
30	inf
30	inf
30	inf
30	inf
30	inf
30	inf
30	inf
30	inf
30	inf
30	inf
241	inf
241	inf
241	inf
241	inf
241	inf
241	inf
241	inf
241	inf
241	inf
241	inf
241	inf
241	inf
241	inf
241	inf
241	inf
241	inf
241	inf
241	inf
241	inf
241	inf
