# Persistence diagram </home/jens/Uni/data_topology/Project/reddit_results/graphs/01331.gml>
#
# Dimension   : 1
# Entries     : 156
# Betti number: 156
3	inf
4	inf
7	inf
7	inf
8	inf
8	inf
8	inf
8	inf
8	inf
8	inf
9	inf
9	inf
9	inf
9	inf
9	inf
10	inf
10	inf
12	inf
12	inf
12	inf
12	inf
12	inf
12	inf
12	inf
12	inf
12	inf
13	inf
13	inf
13	inf
13	inf
13	inf
13	inf
13	inf
13	inf
14	inf
14	inf
14	inf
14	inf
14	inf
15	inf
15	inf
15	inf
15	inf
15	inf
15	inf
15	inf
16	inf
16	inf
16	inf
16	inf
420	inf
420	inf
420	inf
420	inf
420	inf
420	inf
420	inf
420	inf
420	inf
420	inf
420	inf
420	inf
420	inf
420	inf
420	inf
420	inf
420	inf
420	inf
420	inf
420	inf
420	inf
420	inf
420	inf
420	inf
420	inf
420	inf
420	inf
420	inf
420	inf
420	inf
420	inf
420	inf
420	inf
420	inf
420	inf
420	inf
420	inf
420	inf
420	inf
420	inf
420	inf
420	inf
420	inf
420	inf
420	inf
420	inf
420	inf
420	inf
420	inf
420	inf
420	inf
420	inf
420	inf
420	inf
420	inf
420	inf
420	inf
420	inf
420	inf
420	inf
420	inf
420	inf
420	inf
420	inf
420	inf
420	inf
420	inf
420	inf
420	inf
420	inf
420	inf
420	inf
420	inf
420	inf
420	inf
420	inf
420	inf
420	inf
420	inf
420	inf
420	inf
420	inf
420	inf
420	inf
420	inf
420	inf
420	inf
420	inf
420	inf
420	inf
420	inf
420	inf
420	inf
420	inf
420	inf
420	inf
420	inf
420	inf
420	inf
420	inf
420	inf
420	inf
420	inf
420	inf
420	inf
420	inf
