# Persistence diagram </home/jens/Uni/data_topology/Project/reddit_results/graphs/01371.gml>
#
# Dimension   : 1
# Entries     : 77
# Betti number: 77
6	inf
6	inf
6	inf
6	inf
7	inf
8	inf
8	inf
11	inf
11	inf
11	inf
11	inf
11	inf
11	inf
11	inf
12	inf
12	inf
12	inf
14	inf
14	inf
14	inf
15	inf
15	inf
15	inf
15	inf
30	inf
30	inf
30	inf
30	inf
30	inf
30	inf
30	inf
30	inf
30	inf
30	inf
30	inf
30	inf
477	inf
477	inf
477	inf
477	inf
477	inf
477	inf
477	inf
477	inf
477	inf
477	inf
477	inf
477	inf
477	inf
477	inf
477	inf
477	inf
477	inf
477	inf
477	inf
477	inf
477	inf
477	inf
477	inf
477	inf
477	inf
477	inf
477	inf
477	inf
477	inf
477	inf
477	inf
477	inf
477	inf
477	inf
477	inf
477	inf
477	inf
477	inf
477	inf
477	inf
477	inf
