# Persistence diagram </home/jens/Uni/data_topology/Project/reddit_results/graphs/01461.gml>
#
# Dimension   : 0
# Entries     : 275
# Betti number: 3
1	inf
1	165
1	9
1	165
1	165
1	165
1	6
1	17
1	165
1	17
1	5
1	17
1	165
1	inf
1	17
1	17
1	165
1	165
1	165
1	9
1	165
1	inf
1	165
1	165
1	165
1	13
1	165
1	165
1	165
1	165
1	12
1	9
1	17
1	9
1	165
1	9
1	165
1	17
1	5
1	4
1	7
1	165
1	165
1	4
1	165
1	12
1	165
1	17
1	165
1	165
1	165
1	165
1	165
1	17
1	9
1	17
1	165
1	11
1	17
1	5
1	165
1	9
1	17
1	7
1	165
1	165
1	165
1	11
1	9
1	165
1	5
1	17
1	9
1	17
1	13
1	165
1	165
1	7
1	165
1	9
1	165
1	165
1	17
1	165
1	11
1	165
1	8
1	165
1	11
1	5
1	165
1	165
1	165
1	165
1	7
1	165
1	165
1	5
1	165
1	165
1	9
1	165
1	165
1	165
1	4
1	165
1	165
1	165
1	165
1	4
1	7
1	7
1	5
1	165
1	5
1	6
1	165
1	165
1	7
1	165
1	7
1	165
1	165
1	165
1	6
1	165
1	165
1	11
1	5
1	6
1	165
1	13
1	7
1	165
1	5
1	5
1	165
1	165
1	165
1	3
1	165
1	7
1	165
1	165
1	165
1	165
1	17
1	165
1	165
1	5
1	165
1	17
1	5
1	5
1	6
1	165
1	165
1	5
1	7
1	165
1	165
1	7
1	165
1	9
1	4
1	165
1	6
1	165
1	165
1	4
1	165
1	6
1	6
1	9
1	165
1	165
1	3
1	165
1	165
1	165
1	9
1	13
1	8
1	8
1	6
1	165
1	5
1	6
1	4
1	165
1	9
1	165
1	3
1	165
1	9
1	165
1	165
1	165
1	165
1	7
1	165
1	12
1	165
1	165
1	7
1	165
1	17
1	165
1	7
1	165
1	7
1	12
1	165
1	5
1	17
1	165
1	5
1	4
1	165
1	5
1	9
1	165
1	165
1	3
1	9
1	5
1	17
1	165
1	165
1	6
1	165
1	165
1	17
1	165
1	9
2	4
2	5
2	17
2	9
2	4
2	5
2	5
2	4
2	7
2	7
2	6
2	4
2	3
2	4
2	5
2	3
2	5
2	165
2	3
2	4
2	4
2	3
2	5
2	4
2	5
2	5
2	6
2	17
2	4
2	5
2	6
2	3
2	9
2	7
2	3
3	7
3	13
3	4
3	9
3	4


