# Persistence diagram </home/jens/Uni/data_topology/Project/reddit_results/graphs/01481.gml>
#
# Dimension   : 0
# Entries     : 195
# Betti number: 3
1	inf
1	99
1	99
1	99
1	19
1	99
1	99
1	19
1	99
1	19
1	6
1	18
1	12
1	11
1	18
1	12
1	11
1	5
1	10
1	99
1	18
1	10
1	19
1	11
1	18
1	inf
1	99
1	18
1	7
1	99
1	inf
1	99
1	10
1	11
1	99
1	19
1	18
1	12
1	4
1	99
1	19
1	5
1	99
1	6
1	5
1	12
1	18
1	99
1	99
1	3
1	5
1	99
1	19
1	99
1	10
1	18
1	19
1	19
1	5
1	4
1	99
1	5
1	99
1	5
1	19
1	99
1	99
1	8
1	6
1	18
1	99
1	99
1	99
1	99
1	18
1	99
1	5
1	99
1	7
1	12
1	99
1	99
1	99
1	5
1	4
1	99
1	18
1	6
1	99
1	99
1	99
1	4
1	99
1	99
1	3
1	4
1	19
1	3
1	4
1	8
1	6
1	4
1	4
1	11
1	4
1	4
1	3
1	99
1	99
1	5
1	11
1	99
1	3
1	2
1	99
1	99
1	99
1	10
1	18
1	99
1	99
1	11
1	99
1	99
1	19
1	12
1	18
1	99
1	99
1	7
1	2
1	99
1	99
1	4
1	10
1	99
1	99
1	3
1	5
1	99
1	99
1	99
1	99
1	99
1	99
1	99
1	99
1	4
1	3
1	6
1	4
1	12
1	99
1	10
1	6
1	99
1	6
1	3
1	99
1	19
1	99
1	12
1	7
1	99
2	4
2	8
2	4
2	4
2	3
2	3
2	6
2	6
2	3
2	19
2	6
2	3
2	6
2	5
2	4
2	6
2	7
2	3
2	3
2	4
2	3
2	10
2	99
2	5
2	8
2	4
2	3
2	6
2	11
2	3
3	5


