# Persistence diagram </home/jens/Uni/data_topology/Project/reddit_results/graphs/01481.gml>
#
# Dimension   : 1
# Entries     : 56
# Betti number: 56
6	inf
8	inf
8	inf
8	inf
10	inf
11	inf
11	inf
11	inf
11	inf
11	inf
11	inf
11	inf
11	inf
11	inf
11	inf
12	inf
12	inf
18	inf
18	inf
18	inf
18	inf
19	inf
19	inf
19	inf
99	inf
99	inf
99	inf
99	inf
99	inf
99	inf
99	inf
99	inf
99	inf
99	inf
99	inf
99	inf
99	inf
99	inf
99	inf
99	inf
99	inf
99	inf
99	inf
99	inf
99	inf
99	inf
99	inf
99	inf
99	inf
99	inf
99	inf
99	inf
99	inf
99	inf
99	inf
99	inf
