# Persistence diagram </home/jens/Uni/data_topology/Project/reddit_results/graphs/01531.gml>
#
# Dimension   : 1
# Entries     : 60
# Betti number: 60
3	inf
4	inf
4	inf
5	inf
6	inf
6	inf
7	inf
7	inf
7	inf
7	inf
7	inf
8	inf
9	inf
9	inf
9	inf
9	inf
9	inf
9	inf
9	inf
9	inf
18	inf
201	inf
201	inf
201	inf
201	inf
201	inf
201	inf
201	inf
201	inf
201	inf
201	inf
201	inf
201	inf
201	inf
201	inf
201	inf
201	inf
201	inf
201	inf
201	inf
201	inf
201	inf
201	inf
201	inf
201	inf
201	inf
201	inf
201	inf
201	inf
201	inf
201	inf
201	inf
201	inf
201	inf
201	inf
201	inf
201	inf
201	inf
201	inf
201	inf
