# Persistence diagram </home/jens/Uni/data_topology/Project/reddit_results/graphs/01611.gml>
#
# Dimension   : 1
# Entries     : 123
# Betti number: 123
4	inf
6	inf
7	inf
7	inf
7	inf
8	inf
8	inf
8	inf
8	inf
8	inf
9	inf
9	inf
9	inf
9	inf
9	inf
9	inf
9	inf
11	inf
11	inf
11	inf
12	inf
12	inf
12	inf
12	inf
14	inf
14	inf
14	inf
14	inf
14	inf
14	inf
14	inf
14	inf
14	inf
14	inf
14	inf
15	inf
15	inf
15	inf
15	inf
18	inf
18	inf
18	inf
18	inf
18	inf
18	inf
18	inf
18	inf
18	inf
19	inf
19	inf
19	inf
19	inf
19	inf
19	inf
19	inf
19	inf
19	inf
19	inf
19	inf
341	inf
341	inf
341	inf
341	inf
341	inf
341	inf
341	inf
341	inf
341	inf
341	inf
341	inf
341	inf
341	inf
341	inf
341	inf
341	inf
341	inf
341	inf
341	inf
341	inf
341	inf
341	inf
341	inf
341	inf
341	inf
341	inf
341	inf
341	inf
341	inf
341	inf
341	inf
341	inf
341	inf
341	inf
341	inf
341	inf
341	inf
341	inf
341	inf
341	inf
341	inf
341	inf
341	inf
341	inf
341	inf
341	inf
341	inf
341	inf
341	inf
341	inf
341	inf
341	inf
341	inf
341	inf
341	inf
341	inf
341	inf
341	inf
341	inf
341	inf
341	inf
341	inf
341	inf
341	inf
