# Persistence diagram </home/jens/Uni/data_topology/Project/reddit_results/graphs/01621.gml>
#
# Dimension   : 0
# Entries     : 168
# Betti number: 5
1	inf
1	16
1	87
1	26
1	26
1	10
1	87
1	87
1	87
1	9
1	87
1	26
1	87
1	87
1	87
1	87
1	26
1	9
1	inf
1	87
1	87
1	9
1	87
1	87
1	87
1	87
1	87
1	87
1	87
1	9
1	87
1	16
1	9
1	9
1	7
1	87
1	87
1	7
1	87
1	6
1	9
1	26
1	5
1	inf
1	87
1	6
1	87
1	10
1	4
1	87
1	87
1	26
1	87
1	87
1	inf
1	6
1	9
1	9
1	2
1	4
1	26
1	5
1	9
1	87
1	87
1	87
1	26
1	87
1	6
1	87
1	87
1	87
1	87
1	87
1	26
1	9
1	87
1	87
1	5
1	7
1	6
1	87
1	87
1	6
1	87
1	4
1	16
1	7
1	87
1	16
1	inf
1	87
1	87
1	87
1	87
1	6
1	87
1	9
1	26
1	9
1	87
1	87
1	9
1	26
1	6
1	87
1	7
1	26
1	87
1	87
1	2
1	2
1	4
1	4
1	87
1	5
1	87
1	9
1	87
1	87
1	9
1	26
1	9
1	87
1	9
1	3
1	26
1	9
1	87
1	87
1	87
1	87
1	87
1	26
1	5
1	4
1	9
2	87
2	4
2	6
2	4
2	6
2	6
2	16
2	9
2	6
2	3
2	4
2	5
2	4
2	16
2	5
2	4
2	4
2	4
2	4
2	9
2	10
2	4
2	4
2	4
2	9
2	5
2	4
2	4
3	6
3	4
3	6


