# Persistence diagram </home/jens/Uni/data_topology/Project/reddit_results/graphs/01641.gml>
#
# Dimension   : 1
# Entries     : 32
# Betti number: 32
9	inf
10	inf
10	inf
13	inf
13	inf
13	inf
13	inf
32	inf
32	inf
32	inf
32	inf
32	inf
32	inf
32	inf
32	inf
32	inf
90	inf
90	inf
90	inf
90	inf
90	inf
90	inf
90	inf
90	inf
90	inf
90	inf
90	inf
90	inf
90	inf
90	inf
90	inf
90	inf
