# Persistence diagram </home/jens/Uni/data_topology/Project/reddit_results/graphs/01651.gml>
#
# Dimension   : 0
# Entries     : 125
# Betti number: 2
1	inf
1	78
1	78
1	16
1	12
1	12
1	16
1	78
1	78
1	78
1	78
1	6
1	78
1	78
1	4
1	78
1	78
1	78
1	16
1	78
1	12
1	78
1	5
1	78
1	78
1	78
1	78
1	6
1	10
1	78
1	78
1	78
1	78
1	5
1	6
1	78
1	78
1	16
1	6
1	10
1	78
1	78
1	10
1	5
1	5
1	11
1	5
1	78
1	78
1	12
1	7
1	78
1	78
1	78
1	16
1	11
1	78
1	6
1	78
1	6
1	5
1	78
1	78
1	78
1	78
1	78
1	78
1	78
1	78
1	12
1	4
1	7
1	78
1	78
1	78
1	78
1	78
1	10
1	5
1	6
1	78
1	78
1	16
1	16
1	5
1	inf
1	10
1	6
1	12
1	78
1	78
1	4
1	5
1	78
1	78
1	11
2	11
2	7
2	11
2	7
2	16
2	6
2	3
2	7
2	7
2	3
2	16
2	4
2	4
2	4
2	3
2	4
2	3
2	3
2	7
2	4
2	4
2	3
2	4
2	3
2	7
2	7
3	11
3	7
3	5


