# Persistence diagram </home/jens/Uni/data_topology/Project/reddit_results/graphs/01681.gml>
#
# Dimension   : 0
# Entries     : 117
# Betti number: 1
1	inf
1	15
1	63
1	15
1	63
1	63
1	7
1	15
1	4
1	15
1	8
1	8
1	4
1	63
1	6
1	3
1	63
1	63
1	7
1	63
1	63
1	63
1	6
1	63
1	8
1	6
1	63
1	6
1	63
1	63
1	5
1	63
1	63
1	63
1	3
1	6
1	6
1	63
1	63
1	63
1	6
1	63
1	6
1	7
1	63
1	63
1	4
1	6
1	6
1	63
1	63
1	63
1	63
1	7
1	5
1	8
1	63
1	4
1	63
1	63
1	63
1	5
1	7
1	15
1	63
1	4
1	63
1	63
1	63
1	63
1	63
1	63
1	3
1	7
1	3
1	63
1	3
1	7
1	15
1	15
1	15
1	15
1	5
1	63
1	63
1	63
1	63
1	63
1	63
1	4
1	63
1	63
1	63
1	63
1	63
1	15
1	5
1	63
1	8
1	63
1	8
1	63
1	7
1	63
1	3
1	63
1	7
1	15
2	3
2	15
2	3
2	5
2	3
2	3
2	3
2	5
3	4


