# Persistence diagram </home/jens/Uni/data_topology/Project/reddit_results/graphs/01781.gml>
#
# Dimension   : 1
# Entries     : 64
# Betti number: 64
4	inf
5	inf
7	inf
7	inf
9	inf
9	inf
9	inf
9	inf
12	inf
12	inf
12	inf
12	inf
15	inf
15	inf
15	inf
16	inf
16	inf
16	inf
16	inf
16	inf
16	inf
16	inf
17	inf
17	inf
17	inf
17	inf
18	inf
18	inf
18	inf
18	inf
18	inf
18	inf
18	inf
228	inf
228	inf
228	inf
228	inf
228	inf
228	inf
228	inf
228	inf
228	inf
228	inf
228	inf
228	inf
228	inf
228	inf
228	inf
228	inf
228	inf
228	inf
228	inf
228	inf
228	inf
228	inf
228	inf
228	inf
228	inf
228	inf
228	inf
228	inf
228	inf
228	inf
228	inf
