# Persistence diagram </home/jens/Uni/data_topology/Project/reddit_results/graphs/01791.gml>
#
# Dimension   : 0
# Entries     : 383
# Betti number: 2
1	inf
1	215
1	215
1	8
1	215
1	10
1	215
1	215
1	215
1	5
1	17
1	11
1	7
1	9
1	22
1	12
1	8
1	215
1	5
1	5
1	12
1	10
1	215
1	215
1	215
1	12
1	12
1	23
1	215
1	12
1	215
1	215
1	inf
1	8
1	10
1	23
1	215
1	215
1	215
1	215
1	5
1	215
1	17
1	5
1	22
1	215
1	215
1	11
1	215
1	215
1	215
1	215
1	12
1	215
1	215
1	215
1	20
1	9
1	215
1	215
1	215
1	7
1	5
1	215
1	215
1	12
1	7
1	12
1	215
1	215
1	215
1	215
1	215
1	215
1	7
1	215
1	215
1	215
1	215
1	5
1	215
1	215
1	20
1	12
1	215
1	4
1	215
1	22
1	215
1	215
1	7
1	5
1	12
1	8
1	3
1	6
1	215
1	5
1	9
1	215
1	11
1	10
1	215
1	11
1	7
1	215
1	215
1	17
1	11
1	23
1	12
1	215
1	5
1	22
1	215
1	11
1	215
1	9
1	6
1	7
1	215
1	215
1	8
1	22
1	8
1	215
1	215
1	11
1	9
1	12
1	215
1	215
1	215
1	215
1	7
1	215
1	7
1	5
1	5
1	4
1	215
1	215
1	215
1	215
1	5
1	4
1	215
1	215
1	5
1	7
1	6
1	3
1	23
1	215
1	9
1	215
1	14
1	215
1	5
1	11
1	7
1	3
1	3
1	22
1	4
1	7
1	5
1	7
1	9
1	9
1	5
1	215
1	11
1	7
1	215
1	215
1	20
1	215
1	215
1	10
1	215
1	215
1	9
1	9
1	23
1	215
1	12
1	215
1	22
1	6
1	215
1	215
1	5
1	215
1	215
1	9
1	215
1	5
1	215
1	11
1	17
1	215
1	23
1	7
1	215
1	215
1	215
1	215
1	14
1	4
1	20
1	215
1	215
1	215
1	7
1	215
1	11
1	8
1	215
1	11
1	5
1	215
1	9
1	215
1	215
1	8
1	12
1	8
1	14
1	215
1	215
1	9
1	4
1	5
1	215
1	215
1	6
1	215
1	215
1	8
1	5
1	215
1	215
1	215
1	215
1	5
1	215
1	215
1	6
1	215
1	12
1	11
1	215
1	215
1	11
1	5
1	215
1	215
1	215
1	215
1	6
1	5
1	215
1	215
1	215
1	215
1	10
1	5
1	5
1	215
1	215
1	3
1	215
1	11
1	11
1	215
1	215
1	10
1	9
1	215
1	5
1	215
1	215
1	5
1	7
1	215
1	215
1	215
1	7
1	6
1	215
1	215
1	215
1	9
1	4
1	22
1	5
1	215
1	215
1	9
1	12
1	12
1	215
1	12
1	215
1	215
1	12
1	215
1	4
1	215
1	215
1	23
1	215
1	215
1	23
1	215
1	215
1	9
1	215
1	23
1	5
1	6
2	4
2	11
2	7
2	5
2	10
2	5
2	4
2	20
2	4
2	11
2	12
2	4
2	215
2	4
2	5
2	5
2	5
2	3
2	11
2	11
2	7
2	4
2	20
2	8
2	7
2	5
2	8
2	4
2	5
2	4
2	9
2	4
2	3
2	3
2	4
2	3
2	7
2	8
2	4
2	6
2	5
2	5
2	4
2	4
2	17
2	9
2	4
2	22
3	4
3	8
3	4
3	17
3	20
3	7
3	5
3	4
3	4
3	8
3	9
4	5
4	5


