# Persistence diagram </home/jens/Uni/data_topology/Project/reddit_results/graphs/01811.gml>
#
# Dimension   : 0
# Entries     : 48
# Betti number: 2
1	inf
1	24
1	7
1	24
1	24
1	24
1	3
1	14
1	5
1	5
1	5
1	24
1	5
1	24
1	24
1	7
1	inf
1	3
1	24
1	24
1	14
1	7
1	24
1	5
1	14
1	7
1	5
1	7
1	24
1	24
1	24
1	3
1	3
1	24
1	24
1	24
1	24
1	7
2	5
2	3
2	5
2	7
2	3
2	5
2	5
2	3
2	4
2	4


