# Persistence diagram </home/jens/Uni/data_topology/Project/reddit_results/graphs/01841.gml>
#
# Dimension   : 0
# Entries     : 167
# Betti number: 1
1	inf
1	19
1	112
1	112
1	112
1	112
1	112
1	112
1	112
1	112
1	19
1	7
1	112
1	112
1	112
1	112
1	112
1	112
1	7
1	112
1	112
1	5
1	112
1	19
1	6
1	8
1	112
1	39
1	112
1	39
1	112
1	112
1	112
1	39
1	19
1	7
1	112
1	112
1	7
1	9
1	112
1	112
1	112
1	19
1	112
1	112
1	112
1	112
1	112
1	19
1	112
1	39
1	39
1	112
1	112
1	112
1	39
1	112
1	112
1	112
1	112
1	19
1	6
1	112
1	112
1	19
1	112
1	112
1	8
1	7
1	112
1	112
1	19
1	112
1	112
1	7
1	112
1	8
1	39
1	112
1	112
1	7
1	5
1	112
1	112
1	8
1	112
1	112
1	19
1	112
1	112
1	112
1	8
1	112
1	8
1	39
1	112
1	6
1	9
1	39
1	112
1	112
1	19
1	112
1	112
1	112
1	19
1	112
1	9
1	9
1	9
1	112
1	7
1	8
1	112
1	39
1	8
1	112
1	112
1	112
1	112
1	19
1	112
1	19
1	112
1	112
1	7
1	112
1	8
1	112
1	112
1	112
1	112
1	112
1	5
1	112
1	112
1	5
1	112
1	112
1	112
1	7
1	112
1	6
1	112
1	112
1	39
2	39
2	4
2	8
2	19
2	39
2	39
2	3
2	4
2	7
2	4
2	39
2	7
2	7
2	39
2	39
2	39
3	7
3	8
3	4
3	8


