# Persistence diagram </home/jens/Uni/data_topology/Project/reddit_results/graphs/01851.gml>
#
# Dimension   : 1
# Entries     : 66
# Betti number: 66
5	inf
6	inf
6	inf
6	inf
8	inf
8	inf
8	inf
9	inf
10	inf
10	inf
10	inf
12	inf
12	inf
13	inf
13	inf
13	inf
13	inf
13	inf
14	inf
14	inf
14	inf
14	inf
158	inf
158	inf
158	inf
158	inf
158	inf
158	inf
158	inf
158	inf
158	inf
158	inf
158	inf
158	inf
158	inf
158	inf
158	inf
158	inf
158	inf
158	inf
158	inf
158	inf
158	inf
158	inf
158	inf
158	inf
158	inf
158	inf
158	inf
158	inf
158	inf
158	inf
158	inf
158	inf
158	inf
158	inf
158	inf
158	inf
158	inf
158	inf
158	inf
158	inf
158	inf
158	inf
158	inf
158	inf
