# Persistence diagram </home/jens/Uni/data_topology/Project/reddit_results/graphs/01901.gml>
#
# Dimension   : 0
# Entries     : 181
# Betti number: 4
1	inf
1	126
1	12
1	126
1	126
1	126
1	126
1	126
1	6
1	126
1	9
1	126
1	12
1	126
1	126
1	126
1	126
1	126
1	126
1	126
1	6
1	126
1	126
1	126
1	inf
1	126
1	126
1	7
1	126
1	126
1	126
1	126
1	6
1	126
1	126
1	126
1	inf
1	126
1	4
1	126
1	126
1	126
1	126
1	126
1	3
1	6
1	4
1	126
1	126
1	126
1	126
1	4
1	6
1	126
1	6
1	5
1	126
1	126
1	5
1	126
1	7
1	126
1	126
1	4
1	126
1	4
1	9
1	126
1	126
1	126
1	7
1	5
1	126
1	126
1	126
1	126
1	126
1	12
1	126
1	126
1	126
1	inf
1	126
1	126
1	126
1	126
1	126
1	7
1	12
1	3
1	126
1	126
1	6
1	126
1	126
1	126
1	7
1	7
1	126
1	126
1	126
1	4
1	126
1	126
1	126
1	126
1	126
1	6
1	6
1	126
1	3
1	126
1	126
1	126
1	6
1	7
1	7
1	126
1	6
1	6
1	3
1	9
1	4
1	126
1	4
1	126
1	126
1	3
1	126
1	126
1	126
1	126
1	7
1	7
1	126
1	7
1	7
1	126
1	126
1	126
1	126
1	126
1	4
1	4
1	126
1	126
1	126
1	12
1	126
2	6
2	4
2	3
2	9
2	5
2	5
2	6
2	3
2	12
2	126
2	4
2	3
2	126
2	4
2	3
2	6
2	5
2	9
2	4
2	7
2	3
2	5
2	7
2	5
2	3
2	3
2	7
2	4
2	3
2	5
2	4
3	4


