# Persistence diagram </home/jens/Uni/data_topology/Project/reddit_results/graphs/01911.gml>
#
# Dimension   : 1
# Entries     : 99
# Betti number: 99
4	inf
5	inf
6	inf
6	inf
6	inf
6	inf
7	inf
7	inf
7	inf
9	inf
9	inf
9	inf
9	inf
9	inf
9	inf
9	inf
9	inf
9	inf
9	inf
9	inf
9	inf
9	inf
12	inf
12	inf
12	inf
18	inf
18	inf
18	inf
18	inf
20	inf
20	inf
20	inf
22	inf
22	inf
22	inf
22	inf
22	inf
22	inf
22	inf
27	inf
27	inf
27	inf
27	inf
27	inf
27	inf
27	inf
27	inf
28	inf
28	inf
28	inf
28	inf
28	inf
28	inf
28	inf
28	inf
28	inf
28	inf
28	inf
28	inf
28	inf
28	inf
28	inf
163	inf
163	inf
163	inf
163	inf
163	inf
163	inf
163	inf
163	inf
163	inf
163	inf
163	inf
163	inf
163	inf
163	inf
163	inf
163	inf
163	inf
163	inf
163	inf
163	inf
163	inf
163	inf
163	inf
163	inf
163	inf
163	inf
163	inf
163	inf
163	inf
163	inf
163	inf
163	inf
163	inf
163	inf
163	inf
163	inf
163	inf
