# Persistence diagram </home/jens/Uni/data_topology/Project/reddit_results/graphs/01921.gml>
#
# Dimension   : 0
# Entries     : 675
# Betti number: 2
1	inf
1	446
1	446
1	24
1	24
1	446
1	446
1	446
1	446
1	446
1	446
1	8
1	10
1	446
1	446
1	446
1	8
1	8
1	12
1	446
1	446
1	8
1	9
1	446
1	8
1	446
1	446
1	446
1	8
1	446
1	8
1	446
1	446
1	10
1	446
1	446
1	8
1	8
1	11
1	446
1	446
1	6
1	12
1	9
1	6
1	14
1	446
1	446
1	446
1	446
1	9
1	24
1	446
1	446
1	13
1	3
1	446
1	446
1	8
1	446
1	446
1	9
1	11
1	446
1	12
1	446
1	13
1	446
1	24
1	446
1	8
1	10
1	446
1	446
1	446
1	446
1	446
1	446
1	446
1	446
1	446
1	446
1	24
1	446
1	446
1	9
1	446
1	8
1	446
1	446
1	446
1	446
1	8
1	12
1	446
1	8
1	10
1	9
1	446
1	14
1	446
1	446
1	446
1	446
1	446
1	446
1	446
1	13
1	9
1	9
1	8
1	24
1	446
1	10
1	12
1	8
1	446
1	446
1	13
1	446
1	446
1	8
1	446
1	446
1	13
1	446
1	9
1	446
1	13
1	24
1	6
1	446
1	6
1	446
1	446
1	446
1	446
1	446
1	11
1	446
1	5
1	446
1	446
1	446
1	446
1	446
1	12
1	446
1	8
1	446
1	446
1	446
1	8
1	6
1	446
1	446
1	6
1	10
1	446
1	6
1	446
1	446
1	446
1	446
1	10
1	446
1	446
1	446
1	24
1	446
1	446
1	14
1	14
1	446
1	446
1	446
1	6
1	446
1	446
1	446
1	9
1	446
1	446
1	13
1	8
1	446
1	446
1	24
1	446
1	446
1	10
1	13
1	446
1	8
1	6
1	446
1	446
1	446
1	446
1	6
1	446
1	446
1	446
1	446
1	14
1	13
1	446
1	4
1	5
1	446
1	446
1	446
1	446
1	446
1	446
1	446
1	446
1	5
1	13
1	446
1	446
1	446
1	9
1	446
1	8
1	446
1	446
1	13
1	446
1	446
1	9
1	4
1	11
1	446
1	5
1	446
1	446
1	446
1	6
1	446
1	8
1	446
1	446
1	446
1	446
1	8
1	446
1	9
1	446
1	10
1	446
1	8
1	13
1	446
1	8
1	10
1	446
1	12
1	446
1	3
1	24
1	446
1	4
1	446
1	446
1	10
1	4
1	5
1	446
1	10
1	446
1	5
1	11
1	446
1	446
1	4
1	3
1	6
1	6
1	446
1	446
1	446
1	6
1	6
1	11
1	6
1	24
1	446
1	4
1	446
1	446
1	446
1	446
1	446
1	446
1	446
1	446
1	13
1	446
1	446
1	446
1	446
1	446
1	13
1	446
1	446
1	5
1	446
1	446
1	446
1	446
1	446
1	446
1	14
1	446
1	446
1	446
1	446
1	446
1	446
1	446
1	6
1	5
1	8
1	446
1	446
1	446
1	446
1	446
1	446
1	446
1	14
1	446
1	446
1	446
1	446
1	446
1	3
1	5
1	4
1	3
1	446
1	3
1	6
1	446
1	446
1	446
1	9
1	446
1	446
1	10
1	446
1	446
1	446
1	8
1	446
1	10
1	446
1	446
1	9
1	446
1	5
1	446
1	6
1	14
1	12
1	24
1	446
1	446
1	446
1	446
1	446
1	446
1	446
1	6
1	9
1	446
1	446
1	446
1	8
1	5
1	446
1	446
1	3
1	446
1	10
1	446
1	446
1	446
1	446
1	446
1	446
1	446
1	9
1	4
1	446
1	446
1	446
1	446
1	10
1	446
1	446
1	14
1	446
1	446
1	13
1	446
1	8
1	446
1	446
1	13
1	446
1	446
1	4
1	446
1	446
1	446
1	446
1	446
1	446
1	13
1	446
1	10
1	9
1	9
1	446
1	446
1	446
1	446
1	12
1	446
1	446
1	14
1	446
1	446
1	446
1	9
1	446
1	446
1	446
1	446
1	5
1	13
1	446
1	446
1	446
1	446
1	5
1	5
1	14
1	446
1	446
1	446
1	446
1	446
1	446
1	446
1	446
1	4
1	446
1	446
1	6
1	446
1	4
1	446
1	446
1	4
1	446
1	6
1	446
1	446
1	446
1	24
1	446
1	9
1	446
1	446
1	446
1	446
1	10
1	446
1	446
1	446
1	10
1	14
1	446
1	446
1	446
1	446
1	446
1	5
1	10
1	446
1	446
1	446
1	9
1	446
1	446
1	10
1	446
1	446
1	4
1	446
1	446
1	24
1	446
1	446
1	446
1	9
1	446
1	446
1	446
1	446
1	446
1	446
1	446
1	446
1	5
1	10
1	446
1	446
1	446
1	446
1	446
1	5
1	446
1	446
1	13
1	446
1	446
1	5
1	446
1	446
1	12
1	446
1	446
1	9
1	5
1	446
1	446
1	9
1	446
1	446
1	446
1	446
1	446
1	446
1	9
1	8
1	12
1	446
1	13
1	446
1	446
1	5
1	446
1	446
1	446
1	446
1	24
1	446
1	6
1	12
1	4
1	9
1	446
1	4
1	446
1	446
1	446
1	9
1	446
1	446
1	8
1	6
1	24
1	446
1	446
1	446
1	446
1	12
1	10
1	446
1	446
1	446
1	13
1	446
1	4
1	5
1	446
1	10
1	12
1	3
1	446
1	446
1	446
1	5
2	12
2	4
2	4
2	24
2	3
2	446
2	446
2	4
2	5
2	3
2	3
2	6
2	5
2	5
2	6
2	3
2	3
2	11
2	5
2	3
2	446
2	3
2	446
2	5
2	3
2	5
2	5
2	5
2	3
2	4
2	6
2	13
2	9
2	446
2	6
2	3
2	5
2	8
2	3
2	3
2	6
2	6
2	6
2	8
2	8
2	inf
2	6
2	8
2	446
2	12
2	3
2	8
2	3
2	6
2	4
2	3
2	5
2	3
2	4
2	5
2	5
2	3
2	5
2	5
2	6
2	9
2	13
2	3
2	5
2	3
2	6
2	3
3	13
3	8
3	5
3	5
3	6
4	8


