# Persistence diagram </home/jens/Uni/data_topology/Project/reddit_results/graphs/02031.gml>
#
# Dimension   : 1
# Entries     : 50
# Betti number: 50
5	inf
14	inf
14	inf
15	inf
15	inf
15	inf
15	inf
15	inf
15	inf
15	inf
20	inf
20	inf
20	inf
20	inf
20	inf
20	inf
20	inf
123	inf
123	inf
123	inf
123	inf
123	inf
123	inf
123	inf
123	inf
123	inf
123	inf
123	inf
123	inf
123	inf
123	inf
123	inf
123	inf
123	inf
123	inf
123	inf
123	inf
123	inf
123	inf
123	inf
123	inf
123	inf
123	inf
123	inf
123	inf
123	inf
123	inf
123	inf
123	inf
123	inf
