# Persistence diagram </home/jens/Uni/data_topology/Project/reddit_results/graphs/02111.gml>
#
# Dimension   : 0
# Entries     : 296
# Betti number: 3
1	inf
1	133
1	33
1	7
1	133
1	6
1	133
1	7
1	5
1	133
1	33
1	133
1	133
1	28
1	133
1	133
1	33
1	7
1	8
1	7
1	16
1	28
1	8
1	133
1	133
1	9
1	16
1	9
1	133
1	133
1	7
1	133
1	12
1	8
1	33
1	inf
1	8
1	133
1	7
1	33
1	16
1	133
1	5
1	33
1	133
1	3
1	133
1	33
1	133
1	8
1	7
1	inf
1	9
1	133
1	8
1	133
1	12
1	133
1	7
1	33
1	133
1	133
1	133
1	133
1	20
1	7
1	133
1	133
1	133
1	4
1	3
1	7
1	9
1	4
1	20
1	4
1	28
1	4
1	133
1	20
1	20
1	133
1	133
1	5
1	28
1	12
1	12
1	133
1	12
1	7
1	133
1	7
1	7
1	4
1	8
1	7
1	133
1	33
1	7
1	20
1	9
1	133
1	28
1	133
1	133
1	133
1	4
1	133
1	9
1	28
1	6
1	33
1	7
1	133
1	8
1	133
1	33
1	20
1	9
1	28
1	9
1	133
1	133
1	133
1	12
1	12
1	5
1	133
1	133
1	7
1	7
1	20
1	133
1	7
1	133
1	28
1	6
1	8
1	8
1	133
1	33
1	4
1	9
1	133
1	133
1	4
1	133
1	133
1	28
1	133
1	133
1	133
1	9
1	133
1	133
1	133
1	3
1	7
1	28
1	12
1	8
1	5
1	133
1	133
1	133
1	20
1	133
1	7
1	133
1	133
1	4
1	133
1	133
1	133
1	33
1	133
1	6
1	133
1	133
1	33
1	28
1	133
1	33
1	133
1	133
1	33
1	133
1	28
1	133
1	133
1	133
1	16
1	12
1	4
1	12
1	7
1	5
1	6
1	5
1	133
1	12
1	5
1	133
1	6
1	133
1	8
1	133
1	7
1	28
1	7
1	6
1	7
1	133
1	7
1	8
1	7
1	133
1	33
1	2
1	6
1	3
1	12
1	5
1	6
1	20
1	133
1	133
1	4
1	20
1	5
1	133
1	133
1	9
1	7
1	133
1	133
1	4
1	133
1	133
1	4
1	9
1	28
2	16
2	12
2	7
2	3
2	16
2	7
2	5
2	5
2	20
2	133
2	4
2	20
2	4
2	16
2	5
2	12
2	9
2	4
2	4
2	3
2	4
2	5
2	3
2	16
2	9
2	6
2	3
2	5
2	7
2	3
2	5
2	8
2	3
2	4
2	4
2	16
2	3
2	5
2	12
2	20
2	5
2	4
2	16
2	5
2	7
2	3
2	7
3	6
3	4
3	7
3	4
3	6
3	4
3	7


