# Persistence diagram </home/jens/Uni/data_topology/Project/reddit_results/graphs/02131.gml>
#
# Dimension   : 0
# Entries     : 224
# Betti number: 3
1	inf
1	132
1	inf
1	132
1	132
1	8
1	132
1	8
1	132
1	7
1	10
1	8
1	132
1	132
1	132
1	132
1	9
1	9
1	132
1	132
1	132
1	132
1	132
1	9
1	5
1	132
1	132
1	9
1	132
1	132
1	8
1	132
1	7
1	10
1	132
1	14
1	132
1	132
1	132
1	132
1	8
1	9
1	132
1	132
1	4
1	5
1	8
1	5
1	14
1	7
1	9
1	14
1	7
1	8
1	132
1	7
1	14
1	10
1	3
1	5
1	132
1	8
1	132
1	132
1	7
1	14
1	10
1	8
1	9
1	132
1	5
1	7
1	8
1	132
1	7
1	10
1	14
1	132
1	8
1	3
1	8
1	7
1	7
1	5
1	3
1	132
1	132
1	3
1	132
1	132
1	10
1	7
1	132
1	5
1	7
1	14
1	132
1	3
1	5
1	3
1	9
1	132
1	9
1	9
1	132
1	4
1	132
1	132
1	7
1	132
1	5
1	7
1	132
1	132
1	4
1	8
1	132
1	4
1	5
1	9
1	132
1	inf
1	4
1	132
1	132
1	14
1	5
1	132
1	10
1	9
1	10
1	132
1	7
1	10
1	132
1	132
1	5
1	132
1	4
1	132
1	132
1	132
1	132
1	7
1	5
1	3
1	4
1	132
1	132
1	10
1	7
1	8
1	132
1	7
1	132
1	7
1	132
1	132
1	8
1	132
1	132
1	132
1	7
1	132
1	132
1	132
1	132
1	10
1	5
1	132
1	10
1	132
1	7
1	7
1	132
2	8
2	8
2	7
2	4
2	4
2	9
2	7
2	14
2	4
2	14
2	3
2	7
2	5
2	3
2	6
2	3
2	9
2	9
2	8
2	4
2	8
2	7
2	7
2	7
2	4
2	7
2	8
2	3
2	7
2	5
2	5
2	9
2	3
2	3
2	7
2	3
2	3
2	5
2	4
2	3
2	4
2	9
2	4
2	4
2	3
2	4
3	5
3	4
3	4


