# Persistence diagram </home/jens/Uni/data_topology/Project/reddit_results/graphs/02181.gml>
#
# Dimension   : 1
# Entries     : 54
# Betti number: 54
5	inf
6	inf
7	inf
7	inf
9	inf
9	inf
9	inf
10	inf
10	inf
10	inf
10	inf
13	inf
13	inf
16	inf
16	inf
16	inf
16	inf
16	inf
19	inf
19	inf
19	inf
19	inf
19	inf
19	inf
19	inf
19	inf
19	inf
19	inf
86	inf
86	inf
86	inf
86	inf
86	inf
86	inf
86	inf
86	inf
86	inf
86	inf
86	inf
86	inf
86	inf
86	inf
86	inf
86	inf
86	inf
86	inf
86	inf
86	inf
86	inf
86	inf
86	inf
86	inf
86	inf
86	inf
