# Persistence diagram </home/jens/Uni/data_topology/Project/reddit_results/graphs/02261.gml>
#
# Dimension   : 1
# Entries     : 137
# Betti number: 137
5	inf
5	inf
5	inf
6	inf
6	inf
7	inf
7	inf
7	inf
7	inf
7	inf
7	inf
7	inf
7	inf
7	inf
8	inf
8	inf
8	inf
8	inf
8	inf
8	inf
8	inf
8	inf
8	inf
8	inf
9	inf
9	inf
9	inf
9	inf
9	inf
9	inf
9	inf
9	inf
9	inf
9	inf
9	inf
9	inf
9	inf
9	inf
13	inf
13	inf
13	inf
13	inf
14	inf
14	inf
14	inf
14	inf
14	inf
14	inf
14	inf
14	inf
14	inf
14	inf
14	inf
14	inf
14	inf
14	inf
14	inf
14	inf
14	inf
15	inf
15	inf
15	inf
15	inf
15	inf
15	inf
17	inf
17	inf
17	inf
17	inf
17	inf
17	inf
17	inf
17	inf
18	inf
18	inf
18	inf
18	inf
18	inf
18	inf
18	inf
18	inf
18	inf
18	inf
18	inf
18	inf
18	inf
18	inf
133	inf
133	inf
133	inf
133	inf
133	inf
133	inf
133	inf
133	inf
133	inf
133	inf
133	inf
133	inf
133	inf
133	inf
133	inf
133	inf
133	inf
133	inf
133	inf
133	inf
133	inf
133	inf
133	inf
133	inf
133	inf
133	inf
133	inf
133	inf
133	inf
133	inf
133	inf
133	inf
133	inf
133	inf
133	inf
133	inf
133	inf
133	inf
133	inf
133	inf
133	inf
133	inf
133	inf
133	inf
133	inf
133	inf
133	inf
133	inf
133	inf
133	inf
