# Persistence diagram </home/jens/Uni/data_topology/Project/reddit_results/graphs/02281.gml>
#
# Dimension   : 1
# Entries     : 115
# Betti number: 115
6	inf
6	inf
6	inf
6	inf
6	inf
6	inf
6	inf
6	inf
6	inf
6	inf
6	inf
7	inf
7	inf
7	inf
7	inf
7	inf
8	inf
8	inf
9	inf
9	inf
9	inf
9	inf
10	inf
10	inf
10	inf
10	inf
10	inf
10	inf
10	inf
10	inf
11	inf
11	inf
11	inf
13	inf
13	inf
13	inf
13	inf
13	inf
13	inf
13	inf
13	inf
13	inf
13	inf
13	inf
13	inf
13	inf
13	inf
13	inf
13	inf
13	inf
15	inf
15	inf
15	inf
15	inf
15	inf
15	inf
15	inf
15	inf
15	inf
15	inf
15	inf
16	inf
16	inf
16	inf
16	inf
20	inf
20	inf
20	inf
20	inf
20	inf
20	inf
20	inf
20	inf
20	inf
20	inf
149	inf
149	inf
149	inf
149	inf
149	inf
149	inf
149	inf
149	inf
149	inf
149	inf
149	inf
149	inf
149	inf
149	inf
149	inf
149	inf
149	inf
149	inf
149	inf
149	inf
149	inf
149	inf
149	inf
149	inf
149	inf
149	inf
149	inf
149	inf
149	inf
149	inf
149	inf
149	inf
149	inf
149	inf
149	inf
149	inf
149	inf
149	inf
149	inf
149	inf
