# Persistence diagram </home/jens/Uni/data_topology/Project/reddit_results/graphs/02301.gml>
#
# Dimension   : 1
# Entries     : 45
# Betti number: 45
5	inf
5	inf
5	inf
6	inf
6	inf
6	inf
6	inf
6	inf
8	inf
8	inf
9	inf
9	inf
9	inf
9	inf
9	inf
9	inf
10	inf
10	inf
13	inf
13	inf
13	inf
13	inf
13	inf
13	inf
14	inf
14	inf
14	inf
14	inf
14	inf
35	inf
35	inf
35	inf
35	inf
35	inf
35	inf
35	inf
35	inf
35	inf
35	inf
35	inf
35	inf
35	inf
35	inf
35	inf
35	inf
