# Persistence diagram </home/jens/Uni/data_topology/Project/reddit_results/graphs/02331.gml>
#
# Dimension   : 0
# Entries     : 135
# Betti number: 3
1	inf
1	11
1	10
1	19
1	71
1	6
1	19
1	13
1	5
1	7
1	71
1	4
1	6
1	71
1	inf
1	10
1	71
1	19
1	71
1	10
1	71
1	6
1	6
1	10
1	71
1	6
1	71
1	71
1	4
1	6
1	71
1	71
1	10
1	6
1	71
1	inf
1	19
1	7
1	71
1	71
1	6
1	6
1	19
1	10
1	6
1	6
1	6
1	13
1	11
1	4
1	71
1	71
1	71
1	6
1	71
1	10
1	3
1	71
1	71
1	6
1	11
1	3
1	71
1	7
1	6
1	71
1	10
1	71
1	7
1	4
1	10
1	5
1	71
1	5
1	19
1	71
1	71
1	5
1	71
1	71
1	6
1	71
1	4
1	71
1	71
1	71
1	4
1	19
1	5
1	71
1	19
1	19
1	71
1	3
1	71
1	71
1	5
1	71
1	71
1	71
1	19
1	71
2	4
2	5
2	10
2	11
2	4
2	5
2	5
2	4
2	5
2	7
2	7
2	6
2	71
2	7
2	6
2	10
2	4
2	4
2	6
2	7
2	3
2	7
2	7
2	3
2	3
2	7
2	5
2	4
2	7
2	13
2	3
3	4
3	5


