# Persistence diagram </home/jens/Uni/data_topology/Project/reddit_results/graphs/02471.gml>
#
# Dimension   : 1
# Entries     : 18
# Betti number: 18
3	inf
10	inf
10	inf
10	inf
10	inf
10	inf
10	inf
10	inf
80	inf
80	inf
80	inf
80	inf
80	inf
80	inf
80	inf
80	inf
80	inf
80	inf
