# Persistence diagram </home/jens/Uni/data_topology/Project/reddit_results/graphs/02471.gml>
#
# Dimension   : 0
# Entries     : 133
# Betti number: 2
1	inf
1	10
1	9
1	9
1	9
1	9
1	7
1	10
1	80
1	80
1	80
1	inf
1	7
1	80
1	80
1	80
1	80
1	9
1	9
1	80
1	80
1	80
1	7
1	10
1	7
1	8
1	8
1	80
1	80
1	9
1	80
1	6
1	80
1	80
1	80
1	80
1	80
1	5
1	7
1	80
1	80
1	80
1	80
1	80
1	4
1	80
1	80
1	80
1	80
1	80
1	6
1	80
1	10
1	80
1	80
1	4
1	80
1	80
1	10
1	80
1	80
1	9
1	3
1	80
1	80
1	80
1	80
1	8
1	80
1	80
1	80
1	80
1	10
1	80
1	80
1	9
1	4
1	80
1	80
1	8
1	80
1	6
1	9
1	80
1	80
1	6
1	4
1	80
1	4
1	10
1	80
1	80
1	80
1	9
1	80
1	3
1	8
1	4
1	80
1	9
1	80
1	80
1	80
1	80
1	3
1	80
1	80
1	80
1	5
1	3
1	4
1	10
1	80
1	80
1	80
1	80
1	80
1	4
1	80
1	9
1	5
2	5
2	5
2	9
2	4
2	4
2	4
2	8
2	4
2	10
2	4
2	10
3	5


