# Persistence diagram </home/jens/Uni/data_topology/Project/reddit_results/graphs/02481.gml>
#
# Dimension   : 1
# Entries     : 71
# Betti number: 71
5	inf
5	inf
6	inf
6	inf
6	inf
7	inf
7	inf
7	inf
7	inf
8	inf
8	inf
9	inf
9	inf
9	inf
10	inf
10	inf
10	inf
11	inf
11	inf
23	inf
23	inf
23	inf
23	inf
23	inf
23	inf
23	inf
23	inf
26	inf
26	inf
26	inf
26	inf
26	inf
26	inf
26	inf
26	inf
97	inf
97	inf
97	inf
97	inf
97	inf
97	inf
97	inf
97	inf
97	inf
97	inf
97	inf
97	inf
97	inf
97	inf
97	inf
97	inf
97	inf
97	inf
97	inf
97	inf
97	inf
97	inf
97	inf
97	inf
97	inf
97	inf
97	inf
97	inf
97	inf
97	inf
97	inf
97	inf
97	inf
97	inf
97	inf
97	inf
