# Persistence diagram </home/jens/Uni/data_topology/Project/reddit_results/graphs/02531.gml>
#
# Dimension   : 0
# Entries     : 276
# Betti number: 7
1	inf
1	7
1	79
1	inf
1	6
1	79
1	79
1	18
1	79
1	79
1	8
1	20
1	12
1	15
1	79
1	20
1	7
1	11
1	8
1	79
1	20
1	15
1	20
1	20
1	6
1	18
1	7
1	79
1	11
1	3
1	79
1	8
1	20
1	12
1	15
1	18
1	3
1	12
1	11
1	79
1	20
1	20
1	20
1	15
1	79
1	79
1	7
1	79
1	79
1	8
1	3
1	79
1	20
1	79
1	inf
1	7
1	inf
1	20
1	79
1	79
1	15
1	79
1	inf
1	20
1	7
1	7
1	15
1	3
1	3
1	79
1	6
1	11
1	79
1	18
1	6
1	79
1	79
1	5
1	7
1	79
1	79
1	7
1	20
1	10
1	18
1	8
1	79
1	11
1	3
1	3
1	79
1	7
1	5
1	inf
1	3
1	9
1	9
1	7
1	79
1	20
1	11
1	3
1	7
1	4
1	inf
1	79
1	79
1	5
1	79
1	8
1	4
1	79
1	7
1	79
1	4
1	79
1	4
1	5
1	79
1	11
1	8
1	15
1	15
1	79
1	5
1	79
1	4
1	5
1	20
1	15
1	4
1	6
1	5
1	79
1	79
1	5
1	20
1	2
1	79
1	6
1	6
1	20
1	79
1	7
1	4
1	20
1	79
1	6
1	20
1	5
1	12
1	18
1	4
1	11
1	5
1	11
1	4
1	4
1	79
1	11
1	4
1	15
1	15
1	79
1	9
1	7
1	4
1	79
1	18
1	10
1	79
1	10
1	4
1	79
1	15
1	79
1	7
1	6
1	20
1	18
1	79
1	7
1	8
1	18
1	8
1	6
1	20
1	4
1	4
1	12
1	4
1	20
1	7
1	4
1	79
1	3
1	7
1	6
1	79
1	79
1	79
1	12
1	3
1	4
1	11
1	7
1	4
1	79
1	8
1	18
1	79
1	20
1	6
1	8
1	4
1	10
1	20
1	4
1	79
1	4
1	5
1	20
1	5
1	9
1	5
1	4
1	4
1	7
1	79
1	79
1	79
1	6
1	79
1	79
1	3
1	10
1	3
1	79
1	20
1	11
1	8
1	8
1	79
1	8
2	4
2	4
2	4
2	4
2	18
2	4
2	4
2	4
2	5
2	12
2	11
2	4
2	3
2	11
2	3
2	4
2	3
2	4
2	10
2	3
2	6
2	5
2	4
2	5
2	3
2	5
2	3
2	4
2	5
3	4
3	4
3	4


