# Persistence diagram </home/jens/Uni/data_topology/Project/reddit_results/graphs/02571.gml>
#
# Dimension   : 1
# Entries     : 73
# Betti number: 73
3	inf
6	inf
6	inf
7	inf
7	inf
7	inf
7	inf
7	inf
8	inf
8	inf
8	inf
8	inf
8	inf
8	inf
9	inf
10	inf
11	inf
11	inf
11	inf
11	inf
11	inf
11	inf
21	inf
21	inf
21	inf
21	inf
21	inf
21	inf
21	inf
21	inf
211	inf
211	inf
211	inf
211	inf
211	inf
211	inf
211	inf
211	inf
211	inf
211	inf
211	inf
211	inf
211	inf
211	inf
211	inf
211	inf
211	inf
211	inf
211	inf
211	inf
211	inf
211	inf
211	inf
211	inf
211	inf
211	inf
211	inf
211	inf
211	inf
211	inf
211	inf
211	inf
211	inf
211	inf
211	inf
211	inf
211	inf
211	inf
211	inf
211	inf
211	inf
211	inf
211	inf
