# Persistence diagram </home/jens/Uni/data_topology/Project/reddit_results/graphs/02601.gml>
#
# Dimension   : 0
# Entries     : 257
# Betti number: 1
1	inf
1	140
1	140
1	15
1	140
1	15
1	140
1	17
1	140
1	140
1	140
1	140
1	140
1	140
1	140
1	15
1	7
1	17
1	14
1	140
1	17
1	17
1	140
1	8
1	6
1	11
1	7
1	140
1	16
1	14
1	16
1	4
1	8
1	22
1	7
1	5
1	18
1	15
1	140
1	10
1	18
1	10
1	140
1	140
1	140
1	10
1	15
1	140
1	140
1	16
1	140
1	140
1	140
1	7
1	140
1	18
1	140
1	140
1	5
1	3
1	140
1	22
1	140
1	8
1	140
1	14
1	11
1	140
1	4
1	140
1	140
1	6
1	140
1	17
1	9
1	140
1	140
1	18
1	5
1	140
1	17
1	16
1	140
1	140
1	140
1	3
1	9
1	6
1	22
1	140
1	3
1	4
1	6
1	140
1	140
1	11
1	140
1	140
1	15
1	140
1	15
1	140
1	140
1	140
1	18
1	16
1	11
1	10
1	4
1	5
1	15
1	140
1	140
1	140
1	140
1	140
1	140
1	4
1	140
1	5
1	22
1	140
1	9
1	140
1	140
1	10
1	22
1	140
1	22
1	15
1	7
1	14
1	7
1	140
1	7
1	140
1	3
1	140
1	140
1	18
1	16
1	140
1	17
1	140
1	5
1	140
1	15
1	18
1	140
1	5
1	17
1	140
1	11
1	140
1	10
1	140
1	15
1	140
1	18
1	18
1	140
1	14
1	140
1	140
1	140
1	140
1	22
1	140
1	140
1	140
1	15
1	10
1	4
1	8
1	15
1	140
1	140
1	3
1	17
1	7
1	140
1	6
1	15
1	5
1	8
1	140
1	140
1	7
1	140
1	4
1	14
1	140
1	140
1	140
1	9
1	140
1	7
1	15
1	5
1	140
1	140
1	22
1	140
1	140
1	140
2	4
2	3
2	4
2	3
2	15
2	16
2	8
2	3
2	4
2	3
2	15
2	6
2	5
2	8
2	7
2	9
2	3
2	4
2	5
2	8
2	3
2	4
2	5
2	6
2	6
2	8
2	8
2	17
2	17
2	3
2	3
2	5
2	3
2	4
2	3
2	4
2	3
2	6
2	3
2	4
2	8
2	5
2	6
2	3
2	3
2	6
3	5
3	5
3	4
3	5
3	6
4	5


