# Persistence diagram </home/jens/Uni/data_topology/Project/reddit_results/graphs/02641.gml>
#
# Dimension   : 0
# Entries     : 69
# Betti number: 1
1	inf
1	43
1	43
1	43
1	43
1	43
1	43
1	43
1	43
1	3
1	43
1	43
1	6
1	8
1	43
1	4
1	43
1	43
1	9
1	6
1	43
1	43
1	5
1	6
1	43
1	43
1	8
1	6
1	8
1	43
1	8
1	43
1	5
1	43
1	43
1	43
1	8
1	43
1	9
1	43
1	43
1	43
1	43
1	43
1	3
1	43
1	43
1	43
1	9
1	9
1	43
1	9
1	43
1	43
1	43
1	4
1	43
1	43
1	43
1	43
1	8
1	5
1	9
1	5
2	3
2	3
2	9
2	4
2	3


