# Persistence diagram </home/jens/Uni/data_topology/Project/reddit_results/graphs/02651.gml>
#
# Dimension   : 0
# Entries     : 82
# Betti number: 2
1	inf
1	41
1	9
1	41
1	8
1	7
1	9
1	41
1	9
1	9
1	41
1	7
1	41
1	6
1	41
1	6
1	41
1	9
1	3
1	12
1	41
1	6
1	4
1	6
1	12
1	41
1	8
1	6
1	41
1	6
1	12
1	12
1	41
1	9
1	41
1	41
1	inf
1	5
1	41
1	41
1	5
1	41
1	41
1	41
1	2
1	5
1	41
1	41
1	41
1	12
1	41
1	41
1	4
1	41
1	4
1	41
1	4
1	41
1	6
1	6
1	3
1	41
1	7
1	41
1	3
1	41
1	3
1	8
1	41
1	41
1	12
2	3
2	7
2	41
2	6
2	12
2	3
2	4
2	3
2	5
3	4
3	4


