# Persistence diagram </home/jens/Uni/data_topology/Project/reddit_results/graphs/02741.gml>
#
# Dimension   : 0
# Entries     : 511
# Betti number: 4
1	inf
1	263
1	23
1	21
1	263
1	20
1	inf
1	263
1	20
1	12
1	23
1	11
1	263
1	11
1	263
1	9
1	5
1	23
1	12
1	21
1	21
1	24
1	263
1	263
1	7
1	263
1	6
1	263
1	23
1	263
1	12
1	16
1	263
1	11
1	12
1	11
1	263
1	9
1	263
1	6
1	263
1	12
1	263
1	6
1	21
1	23
1	5
1	263
1	12
1	263
1	5
1	263
1	9
1	263
1	263
1	263
1	263
1	263
1	7
1	263
1	20
1	16
1	263
1	263
1	263
1	263
1	23
1	263
1	263
1	13
1	6
1	11
1	21
1	8
1	263
1	6
1	263
1	263
1	20
1	263
1	7
1	263
1	263
1	21
1	6
1	263
1	21
1	263
1	6
1	6
1	263
1	5
1	263
1	21
1	263
1	13
1	16
1	6
1	263
1	23
1	21
1	9
1	23
1	23
1	263
1	263
1	7
1	7
1	23
1	263
1	inf
1	20
1	263
1	6
1	263
1	263
1	23
1	263
1	5
1	16
1	23
1	263
1	263
1	263
1	6
1	7
1	5
1	12
1	8
1	263
1	3
1	23
1	7
1	263
1	263
1	21
1	263
1	23
1	14
1	263
1	263
1	11
1	4
1	21
1	263
1	263
1	12
1	5
1	5
1	21
1	263
1	7
1	263
1	23
1	4
1	263
1	263
1	14
1	7
1	9
1	263
1	14
1	263
1	21
1	263
1	6
1	263
1	21
1	263
1	6
1	263
1	263
1	263
1	20
1	263
1	263
1	263
1	263
1	21
1	5
1	263
1	14
1	13
1	263
1	7
1	263
1	5
1	6
1	7
1	5
1	263
1	4
1	5
1	11
1	20
1	8
1	6
1	6
1	263
1	9
1	12
1	inf
1	7
1	9
1	4
1	9
1	6
1	14
1	263
1	8
1	263
1	5
1	3
1	5
1	12
1	263
1	6
1	9
1	263
1	263
1	263
1	5
1	263
1	14
1	263
1	21
1	263
1	7
1	263
1	263
1	11
1	5
1	263
1	263
1	263
1	3
1	3
1	263
1	263
1	5
1	23
1	5
1	263
1	7
1	13
1	263
1	263
1	20
1	263
1	23
1	5
1	14
1	6
1	263
1	21
1	263
1	21
1	23
1	9
1	263
1	263
1	263
1	21
1	263
1	263
1	5
1	263
1	6
1	12
1	9
1	263
1	11
1	6
1	263
1	263
1	6
1	12
1	263
1	263
1	263
1	263
1	5
1	263
1	263
1	12
1	263
1	11
1	16
1	16
1	263
1	263
1	263
1	263
1	20
1	6
1	11
1	3
1	14
1	263
1	263
1	263
1	5
1	7
1	5
1	263
1	263
1	4
1	21
1	14
1	5
1	9
1	263
1	4
1	263
1	263
1	8
1	5
1	3
1	2
1	263
1	263
1	7
1	4
1	4
1	21
1	263
1	9
1	3
1	263
1	263
1	3
1	9
1	3
1	5
1	3
1	12
1	20
1	2
1	263
1	4
1	263
1	7
1	263
1	263
1	21
1	3
1	263
1	263
1	263
1	6
1	263
1	13
1	263
1	9
1	5
1	263
1	5
1	263
1	5
1	5
1	24
1	4
1	263
1	7
1	5
1	263
1	5
1	263
1	20
1	20
1	16
1	3
1	9
1	263
1	4
1	263
1	263
1	6
1	263
1	13
1	263
1	263
1	263
1	263
1	263
1	7
1	263
1	4
1	3
1	6
1	23
1	4
1	5
1	20
1	24
1	263
1	263
1	263
1	263
1	5
1	263
1	5
1	263
1	263
1	5
2	4
2	9
2	5
2	7
2	4
2	11
2	24
2	14
2	6
2	3
2	4
2	9
2	263
2	5
2	263
2	3
2	6
2	5
2	5
2	9
2	7
2	13
2	9
2	3
2	7
2	4
2	12
2	4
2	7
2	20
2	4
2	9
2	24
2	263
2	3
2	4
2	16
2	4
2	5
2	24
2	24
2	11
2	4
2	4
2	4
2	7
2	3
2	4
2	23
2	3
2	24
2	7
2	11
2	4
2	3
2	24
2	23
2	7
2	5
2	21
2	7
2	24
2	3
2	4
2	7
2	4
2	3
2	4
2	24
2	7
2	5
2	3
2	21
2	5
2	5
2	4
2	24
2	8
2	11
2	4
2	20
2	9
2	3
2	3
2	3
2	16
2	5
2	14
2	3
2	4
2	3
2	11
2	5
2	24
3	9
3	4
3	5
3	6
3	4
3	9
3	9
3	4
3	4
3	4
3	5
4	5


