# Persistence diagram </home/jens/Uni/data_topology/Project/reddit_results/graphs/02841.gml>
#
# Dimension   : 0
# Entries     : 84
# Betti number: 1
1	inf
1	41
1	41
1	41
1	41
1	41
1	15
1	41
1	41
1	41
1	10
1	41
1	41
1	5
1	4
1	41
1	6
1	41
1	5
1	41
1	15
1	6
1	6
1	41
1	8
1	4
1	41
1	5
1	15
1	41
1	41
1	4
1	15
1	8
1	15
1	41
1	8
1	4
1	10
1	3
1	15
1	41
1	7
1	8
1	4
1	41
1	5
1	10
1	15
1	41
1	41
1	41
1	41
1	41
1	41
1	15
1	15
1	5
1	6
1	8
1	4
1	8
1	41
1	5
1	41
1	41
1	10
1	5
1	5
1	41
1	15
1	4
1	41
1	5
2	4
2	4
2	3
2	7
2	3
2	3
2	7
2	3
2	4
3	7


