# Persistence diagram </home/jens/Uni/data_topology/Project/reddit_results/graphs/02981.gml>
#
# Dimension   : 1
# Entries     : 61
# Betti number: 61
4	inf
5	inf
5	inf
6	inf
6	inf
7	inf
7	inf
8	inf
8	inf
9	inf
10	inf
10	inf
12	inf
12	inf
12	inf
12	inf
12	inf
13	inf
13	inf
16	inf
16	inf
16	inf
16	inf
16	inf
16	inf
16	inf
305	inf
305	inf
305	inf
305	inf
305	inf
305	inf
305	inf
305	inf
305	inf
305	inf
305	inf
305	inf
305	inf
305	inf
305	inf
305	inf
305	inf
305	inf
305	inf
305	inf
305	inf
305	inf
305	inf
305	inf
305	inf
305	inf
305	inf
305	inf
305	inf
305	inf
305	inf
305	inf
305	inf
305	inf
305	inf
