# Persistence diagram </home/jens/Uni/data_topology/Project/reddit_results/graphs/03021.gml>
#
# Dimension   : 1
# Entries     : 50
# Betti number: 50
5	inf
5	inf
5	inf
5	inf
7	inf
7	inf
8	inf
8	inf
8	inf
8	inf
8	inf
10	inf
10	inf
10	inf
10	inf
10	inf
10	inf
10	inf
11	inf
11	inf
11	inf
11	inf
11	inf
12	inf
12	inf
12	inf
12	inf
12	inf
12	inf
12	inf
12	inf
12	inf
50	inf
50	inf
50	inf
50	inf
50	inf
50	inf
50	inf
50	inf
50	inf
50	inf
50	inf
50	inf
50	inf
50	inf
50	inf
50	inf
50	inf
50	inf
