# Persistence diagram </home/jens/Uni/data_topology/Project/reddit_results/graphs/03021.gml>
#
# Dimension   : 0
# Entries     : 107
# Betti number: 2
1	inf
1	50
1	50
1	50
1	8
1	50
1	8
1	inf
1	7
1	50
1	5
1	7
1	50
1	10
1	50
1	12
1	5
1	50
1	50
1	10
1	4
1	5
1	12
1	50
1	50
1	11
1	50
1	5
1	50
1	50
1	10
1	5
1	10
1	8
1	5
1	50
1	7
1	7
1	4
1	10
1	50
1	8
1	50
1	8
1	50
1	11
1	2
1	5
1	4
1	50
1	50
1	50
1	10
1	7
1	8
1	50
1	8
1	10
1	6
1	5
1	4
1	6
1	11
1	50
1	50
1	6
1	50
1	4
1	7
1	5
1	50
1	50
1	7
1	7
1	7
1	3
1	4
1	7
1	50
1	5
1	50
1	10
1	5
1	8
1	8
1	3
1	11
1	5
1	7
1	50
2	10
2	7
2	5
2	50
2	8
2	5
2	4
2	4
2	8
2	3
2	5
2	4
3	8
3	4
3	5
3	4
4	5


