# Persistence diagram </home/jens/Uni/data_topology/Project/reddit_results/graphs/03391.gml>
#
# Dimension   : 0
# Entries     : 175
# Betti number: 1
1	inf
1	108
1	108
1	108
1	108
1	108
1	108
1	12
1	108
1	7
1	108
1	7
1	108
1	108
1	7
1	108
1	108
1	5
1	41
1	108
1	108
1	108
1	108
1	5
1	108
1	108
1	108
1	41
1	41
1	6
1	41
1	108
1	108
1	6
1	24
1	108
1	108
1	6
1	108
1	6
1	108
1	108
1	41
1	108
1	108
1	108
1	5
1	108
1	108
1	108
1	7
1	108
1	108
1	41
1	108
1	5
1	108
1	41
1	108
1	108
1	41
1	12
1	41
1	12
1	108
1	41
1	5
1	108
1	12
1	108
1	108
1	108
1	108
1	108
1	6
1	5
1	108
1	108
1	6
1	41
1	5
1	108
1	108
1	4
1	4
1	41
1	108
1	108
1	108
1	108
1	108
1	24
1	108
1	6
1	7
1	41
1	5
1	108
1	5
1	7
1	108
1	12
1	108
1	5
1	108
1	41
1	5
1	108
1	108
1	5
1	108
1	4
1	108
1	4
1	3
1	41
1	41
1	5
1	108
1	4
1	108
1	41
1	41
1	108
1	41
1	108
1	108
2	24
2	24
2	41
2	24
2	24
2	24
2	10
2	5
2	3
2	4
2	4
2	24
2	24
2	10
2	24
2	24
2	5
2	7
2	7
2	4
2	4
2	24
2	24
2	6
2	24
2	4
2	5
2	4
2	5
2	24
2	24
2	41
2	24
2	41
2	6
2	7
2	4
2	24
2	7
2	7
2	7
2	3
2	24
2	5
2	5
3	6
3	7
3	7


