# Persistence diagram </home/jens/Uni/data_topology/Project/reddit_results/graphs/03511.gml>
#
# Dimension   : 1
# Entries     : 40
# Betti number: 40
3	inf
6	inf
6	inf
6	inf
6	inf
6	inf
10	inf
10	inf
20	inf
20	inf
20	inf
21	inf
21	inf
113	inf
113	inf
113	inf
113	inf
113	inf
113	inf
113	inf
113	inf
113	inf
113	inf
113	inf
113	inf
113	inf
113	inf
113	inf
113	inf
113	inf
113	inf
113	inf
113	inf
113	inf
113	inf
113	inf
113	inf
113	inf
113	inf
113	inf
