# Persistence diagram </home/jens/Uni/data_topology/Project/reddit_results/graphs/03701.gml>
#
# Dimension   : 1
# Entries     : 12
# Betti number: 12
4	inf
5	inf
5	inf
28	inf
28	inf
96	inf
96	inf
96	inf
96	inf
96	inf
96	inf
96	inf
