# Persistence diagram </home/jens/Uni/data_topology/Project/reddit_results/graphs/03711.gml>
#
# Dimension   : 0
# Entries     : 153
# Betti number: 1
1	inf
1	112
1	112
1	112
1	112
1	112
1	112
1	112
1	7
1	112
1	112
1	5
1	112
1	112
1	112
1	112
1	112
1	112
1	4
1	112
1	112
1	112
1	112
1	4
1	112
1	6
1	7
1	6
1	112
1	112
1	112
1	112
1	112
1	8
1	112
1	112
1	112
1	112
1	112
1	112
1	3
1	112
1	112
1	112
1	7
1	112
1	112
1	112
1	112
1	112
1	112
1	112
1	112
1	112
1	8
1	112
1	112
1	112
1	112
1	6
1	112
1	112
1	112
1	6
1	112
1	112
1	112
1	112
1	112
1	3
1	5
1	112
1	4
1	6
1	112
1	112
1	112
1	6
1	4
1	5
1	112
1	5
1	112
1	112
1	112
1	5
1	112
1	112
1	112
1	112
1	112
1	112
1	5
1	112
1	112
1	112
1	112
1	112
1	112
1	4
1	6
1	4
1	5
1	3
1	112
1	3
1	112
1	5
1	6
1	5
1	112
1	112
1	112
1	112
1	4
1	112
1	3
1	112
1	3
1	112
1	8
1	112
1	112
1	5
1	6
1	6
1	6
1	112
1	112
1	5
1	112
1	112
1	112
1	112
1	112
1	112
1	112
2	4
2	9
2	3
2	4
2	8
2	4
2	9
2	3
2	3
2	4
2	3
2	9
2	6
2	3
2	3
4	5


