# Persistence diagram </home/jens/Uni/data_topology/Project/reddit_results/graphs/03721.gml>
#
# Dimension   : 1
# Entries     : 55
# Betti number: 55
6	inf
6	inf
6	inf
9	inf
9	inf
9	inf
11	inf
11	inf
11	inf
11	inf
12	inf
13	inf
13	inf
13	inf
20	inf
20	inf
20	inf
20	inf
20	inf
20	inf
21	inf
21	inf
21	inf
21	inf
21	inf
21	inf
196	inf
196	inf
196	inf
196	inf
196	inf
196	inf
196	inf
196	inf
196	inf
196	inf
196	inf
196	inf
196	inf
196	inf
196	inf
196	inf
196	inf
196	inf
196	inf
196	inf
196	inf
196	inf
196	inf
196	inf
196	inf
196	inf
196	inf
196	inf
196	inf
