# Persistence diagram </home/jens/Uni/data_topology/Project/reddit_results/graphs/03731.gml>
#
# Dimension   : 0
# Entries     : 405
# Betti number: 2
1	inf
1	247
1	247
1	247
1	24
1	247
1	31
1	247
1	247
1	247
1	10
1	7
1	31
1	7
1	7
1	247
1	247
1	247
1	247
1	6
1	247
1	10
1	31
1	31
1	247
1	247
1	31
1	247
1	24
1	247
1	10
1	247
1	247
1	11
1	4
1	24
1	247
1	247
1	247
1	247
1	19
1	247
1	247
1	247
1	247
1	247
1	247
1	247
1	247
1	247
1	247
1	31
1	247
1	247
1	5
1	247
1	247
1	247
1	7
1	247
1	9
1	31
1	247
1	247
1	247
1	7
1	247
1	6
1	247
1	31
1	247
1	7
1	247
1	10
1	247
1	8
1	247
1	11
1	247
1	7
1	247
1	247
1	7
1	24
1	247
1	247
1	31
1	247
1	7
1	247
1	31
1	21
1	7
1	247
1	11
1	5
1	4
1	10
1	24
1	6
1	247
1	247
1	24
1	21
1	9
1	6
1	247
1	247
1	9
1	24
1	6
1	247
1	24
1	247
1	247
1	247
1	5
1	6
1	10
1	31
1	31
1	247
1	31
1	247
1	10
1	247
1	247
1	9
1	7
1	6
1	7
1	247
1	6
1	247
1	6
1	247
1	247
1	247
1	247
1	247
1	247
1	247
1	247
1	19
1	4
1	9
1	7
1	21
1	247
1	24
1	247
1	247
1	7
1	247
1	247
1	8
1	247
1	24
1	247
1	247
1	4
1	24
1	247
1	247
1	247
1	247
1	21
1	10
1	247
1	7
1	247
1	6
1	247
1	8
1	247
1	247
1	inf
1	31
1	247
1	247
1	247
1	10
1	31
1	19
1	247
1	247
1	11
1	247
1	247
1	5
1	247
1	247
1	7
1	247
1	6
1	19
1	247
1	9
1	247
1	247
1	247
1	247
1	247
1	247
1	247
1	247
1	5
1	4
1	6
1	3
1	19
1	2
1	8
1	247
1	247
1	19
1	11
1	247
1	247
1	247
1	7
1	247
1	24
1	10
1	6
1	31
1	7
1	247
1	9
1	4
1	10
1	247
1	247
1	6
1	247
1	6
1	31
1	5
1	31
1	4
1	247
1	247
1	4
1	247
1	8
1	6
1	7
1	247
1	247
1	247
1	10
1	247
1	28
1	247
1	31
1	31
1	247
1	247
1	247
1	247
1	247
1	247
1	19
1	8
1	247
1	247
1	28
1	247
1	3
1	5
1	247
1	247
1	11
1	247
1	247
1	247
1	5
1	4
1	6
1	247
1	247
1	247
1	247
1	9
1	247
1	21
1	247
1	11
1	247
1	6
1	247
1	19
1	9
1	247
1	247
1	247
1	247
1	6
1	6
1	7
1	6
1	247
1	247
1	7
1	247
1	247
1	247
1	247
1	247
1	19
1	247
1	247
1	3
1	247
1	247
1	247
1	247
1	247
1	28
1	247
2	28
2	5
2	10
2	28
2	28
2	28
2	3
2	5
2	28
2	28
2	4
2	4
2	6
2	4
2	3
2	4
2	10
2	7
2	4
2	6
2	6
2	5
2	4
2	4
2	28
2	7
2	4
2	3
2	6
2	3
2	4
2	11
2	6
2	9
2	3
2	28
2	6
2	6
2	4
2	247
2	5
2	28
2	21
2	28
2	3
2	28
2	28
2	4
2	28
2	28
2	4
2	4
2	4
2	6
2	247
2	4
2	28
2	28
2	3
2	10
2	31
2	28
2	3
2	24
2	4
2	6
2	28
2	4
2	4
2	4
2	6
2	4
2	4
2	21
2	28
2	4
2	3
3	4
3	5
3	4
3	4
3	4
3	4
3	7
3	4


