# Persistence diagram </home/jens/Uni/data_topology/Project/reddit_results/graphs/03791.gml>
#
# Dimension   : 0
# Entries     : 120
# Betti number: 3
1	inf
1	63
1	63
1	63
1	63
1	9
1	63
1	8
1	9
1	63
1	63
1	63
1	9
1	63
1	6
1	63
1	6
1	6
1	9
1	63
1	63
1	16
1	63
1	6
1	6
1	16
1	inf
1	8
1	4
1	63
1	63
1	63
1	63
1	63
1	6
1	8
1	63
1	63
1	63
1	63
1	63
1	63
1	63
1	5
1	63
1	6
1	63
1	inf
1	6
1	6
1	8
1	16
1	6
1	63
1	8
1	63
1	63
1	16
1	63
1	2
1	8
1	63
1	8
1	8
1	63
1	63
1	63
1	63
1	9
1	4
1	3
1	6
1	3
1	6
1	8
1	16
1	8
1	8
1	63
1	63
1	8
1	16
1	16
1	5
1	4
1	16
1	6
1	63
1	63
1	63
1	63
1	63
1	9
1	63
1	6
1	16
1	6
1	63
1	16
1	4
2	4
2	5
2	3
2	5
2	8
2	5
2	4
2	5
2	9
2	3
2	4
2	3
2	6
2	6
2	3
2	3
2	8
2	8
2	4
3	5


