# Persistence diagram </home/jens/Uni/data_topology/Project/reddit_results/graphs/03821.gml>
#
# Dimension   : 0
# Entries     : 231
# Betti number: 1
1	inf
1	128
1	128
1	128
1	128
1	128
1	128
1	9
1	128
1	11
1	9
1	128
1	128
1	128
1	9
1	128
1	9
1	14
1	128
1	128
1	128
1	128
1	128
1	128
1	128
1	8
1	128
1	7
1	7
1	14
1	16
1	128
1	128
1	14
1	128
1	7
1	7
1	14
1	128
1	128
1	7
1	128
1	14
1	5
1	128
1	128
1	7
1	128
1	14
1	7
1	128
1	16
1	128
1	14
1	128
1	128
1	128
1	6
1	7
1	128
1	7
1	128
1	128
1	8
1	14
1	128
1	128
1	128
1	128
1	128
1	11
1	6
1	7
1	128
1	3
1	14
1	7
1	128
1	128
1	128
1	128
1	9
1	10
1	14
1	128
1	128
1	128
1	128
1	4
1	128
1	5
1	16
1	10
1	5
1	128
1	7
1	11
1	128
1	128
1	16
1	14
1	128
1	128
1	128
1	128
1	3
1	8
1	4
1	7
1	128
1	128
1	5
1	7
1	128
1	4
1	16
1	128
1	7
1	11
1	128
1	5
1	128
1	10
1	128
1	6
1	14
1	5
1	128
1	128
1	128
1	14
1	128
1	3
1	16
1	14
1	128
1	16
1	128
1	8
1	128
1	128
1	128
1	128
1	5
1	7
1	128
1	128
1	3
1	128
1	128
1	7
1	128
1	128
1	128
1	7
1	128
1	128
1	6
1	128
1	128
1	4
1	4
1	6
1	128
1	128
1	128
1	3
1	7
1	128
1	128
1	128
1	4
1	128
1	6
1	128
1	14
1	11
1	5
1	7
1	128
1	128
1	3
1	128
1	3
1	14
1	128
1	16
1	128
1	128
1	128
1	5
1	128
1	8
1	10
1	4
1	5
1	7
1	128
1	6
2	6
2	3
2	4
2	4
2	7
2	3
2	3
2	6
2	9
2	4
2	6
2	5
2	4
2	14
2	14
2	5
2	8
2	4
2	3
2	6
2	5
2	7
2	10
2	6
2	4
2	4
2	4
2	3
2	7
3	6
3	9
3	4


