# Persistence diagram </home/jens/Uni/data_topology/Project/reddit_results/graphs/03851.gml>
#
# Dimension   : 1
# Entries     : 40
# Betti number: 40
7	inf
7	inf
8	inf
10	inf
17	inf
17	inf
17	inf
17	inf
17	inf
17	inf
17	inf
47	inf
47	inf
47	inf
47	inf
47	inf
47	inf
47	inf
47	inf
47	inf
47	inf
47	inf
47	inf
47	inf
101	inf
101	inf
101	inf
101	inf
101	inf
101	inf
101	inf
101	inf
101	inf
101	inf
101	inf
101	inf
101	inf
101	inf
101	inf
101	inf
