# Persistence diagram </home/jens/Uni/data_topology/Project/reddit_results/graphs/03861.gml>
#
# Dimension   : 0
# Entries     : 282
# Betti number: 4
1	inf
1	180
1	180
1	180
1	180
1	180
1	inf
1	180
1	180
1	180
1	180
1	20
1	10
1	180
1	180
1	8
1	180
1	180
1	180
1	10
1	180
1	180
1	180
1	180
1	180
1	180
1	180
1	180
1	180
1	20
1	7
1	8
1	8
1	20
1	180
1	180
1	180
1	180
1	6
1	4
1	7
1	180
1	180
1	180
1	180
1	5
1	180
1	180
1	180
1	180
1	180
1	8
1	180
1	180
1	180
1	inf
1	5
1	11
1	180
1	8
1	12
1	180
1	7
1	6
1	180
1	180
1	7
1	7
1	5
1	2
1	5
1	180
1	8
1	180
1	8
1	180
1	6
1	180
1	5
1	180
1	180
1	5
1	8
1	180
1	6
1	180
1	180
1	180
1	180
1	180
1	8
1	180
1	7
1	180
1	7
1	180
1	180
1	180
1	8
1	180
1	180
1	5
1	3
1	180
1	5
1	4
1	180
1	5
1	180
1	180
1	20
1	6
1	12
1	180
1	180
1	180
1	180
1	20
1	10
1	6
1	6
1	180
1	180
1	6
1	180
1	180
1	180
1	180
1	180
1	5
1	4
1	180
1	20
1	5
1	180
1	180
1	180
1	180
1	180
1	180
1	180
1	7
1	4
1	180
1	180
1	180
1	180
1	6
1	180
1	180
1	4
1	180
1	4
1	5
1	180
1	180
1	180
1	180
1	180
1	180
1	20
1	7
1	180
1	180
1	180
1	180
1	12
1	180
1	180
1	180
1	180
1	20
1	180
1	180
1	180
1	4
1	180
1	4
1	5
1	180
1	180
1	4
1	6
1	6
1	8
1	180
1	20
1	180
1	3
1	180
1	4
1	inf
1	7
1	180
1	180
1	8
1	180
1	10
1	4
1	180
1	180
1	6
1	180
1	6
1	7
1	180
1	8
1	12
1	180
1	12
1	2
1	8
1	180
1	180
1	180
1	6
1	8
1	180
1	180
1	4
1	20
1	180
1	5
1	7
1	180
1	180
1	180
1	180
1	180
1	12
1	5
1	180
1	180
1	180
1	180
1	180
1	180
1	180
2	4
2	11
2	10
2	6
2	6
2	4
2	6
2	4
2	4
2	5
2	4
2	5
2	5
2	4
2	12
2	5
2	4
2	5
2	11
2	4
2	5
2	5
2	11
2	6
2	6
2	7
2	4
2	8
2	4
2	6
2	7
2	5
2	4
2	3
2	3
2	5
2	3
2	3
2	5
2	12
2	11
2	3
2	7
3	6


