# Persistence diagram </home/jens/Uni/data_topology/Project/reddit_results/graphs/03891.gml>
#
# Dimension   : 1
# Entries     : 24
# Betti number: 24
5	inf
5	inf
7	inf
8	inf
8	inf
8	inf
8	inf
89	inf
89	inf
89	inf
89	inf
89	inf
89	inf
89	inf
89	inf
89	inf
89	inf
89	inf
89	inf
89	inf
89	inf
89	inf
89	inf
89	inf
