# Persistence diagram </home/jens/Uni/data_topology/Project/reddit_results/graphs/03941.gml>
#
# Dimension   : 0
# Entries     : 391
# Betti number: 3
1	inf
1	265
1	265
1	265
1	265
1	265
1	265
1	265
1	265
1	265
1	265
1	inf
1	14
1	9
1	265
1	265
1	265
1	265
1	14
1	265
1	265
1	265
1	265
1	9
1	4
1	265
1	265
1	265
1	265
1	265
1	265
1	12
1	6
1	9
1	265
1	6
1	265
1	18
1	265
1	265
1	12
1	265
1	265
1	265
1	3
1	265
1	11
1	265
1	inf
1	265
1	265
1	265
1	11
1	7
1	9
1	265
1	9
1	265
1	14
1	8
1	5
1	265
1	6
1	265
1	5
1	7
1	12
1	265
1	6
1	265
1	14
1	12
1	265
1	265
1	7
1	8
1	265
1	12
1	265
1	265
1	265
1	265
1	265
1	265
1	3
1	265
1	265
1	265
1	265
1	6
1	265
1	5
1	265
1	265
1	265
1	8
1	265
1	7
1	265
1	265
1	265
1	265
1	265
1	265
1	11
1	265
1	265
1	265
1	14
1	265
1	6
1	265
1	18
1	265
1	265
1	265
1	13
1	265
1	265
1	265
1	9
1	265
1	12
1	265
1	265
1	265
1	12
1	265
1	265
1	265
1	265
1	265
1	14
1	8
1	265
1	265
1	265
1	4
1	265
1	265
1	265
1	8
1	12
1	265
1	8
1	8
1	265
1	4
1	265
1	265
1	265
1	12
1	265
1	265
1	265
1	3
1	12
1	5
1	265
1	265
1	265
1	12
1	265
1	265
1	265
1	265
1	265
1	11
1	265
1	6
1	4
1	12
1	265
1	265
1	265
1	265
1	3
1	6
1	14
1	265
1	8
1	265
1	12
1	7
1	265
1	265
1	265
1	9
1	265
1	8
1	265
1	265
1	265
1	12
1	265
1	265
1	265
1	13
1	265
1	8
1	18
1	3
1	265
1	265
1	265
1	265
1	14
1	265
1	265
1	265
1	7
1	265
1	265
1	18
1	5
1	265
1	265
1	11
1	265
1	265
1	265
1	265
1	14
1	265
1	9
1	265
1	18
1	265
1	265
1	265
1	265
1	4
1	265
1	9
1	7
1	11
1	14
1	265
1	265
1	265
1	265
1	265
1	265
1	7
1	265
1	3
1	265
1	4
1	14
1	12
1	265
1	5
1	13
1	4
1	8
1	14
1	265
1	265
1	265
1	265
1	18
1	3
1	265
1	265
1	14
1	265
1	265
1	265
1	265
1	265
1	265
1	11
1	7
1	265
1	265
1	265
1	7
1	7
1	265
1	265
1	4
1	265
1	265
1	12
1	265
1	265
1	265
1	265
1	265
1	4
1	265
1	265
1	3
1	265
1	265
1	265
1	7
1	265
1	13
1	265
1	265
1	265
1	265
1	8
1	265
1	12
1	265
1	18
1	265
1	265
1	265
1	18
1	4
1	9
1	12
1	265
1	11
1	265
1	265
1	265
1	6
1	14
1	5
1	265
1	265
1	265
1	265
1	265
1	14
1	265
1	18
1	265
1	265
1	5
1	5
1	265
1	265
1	265
1	265
1	265
1	265
1	265
1	265
1	265
1	12
1	265
1	265
1	265
1	265
2	11
2	12
2	265
2	8
2	9
2	265
2	4
2	8
2	5
2	5
2	12
2	5
2	4
2	11
2	8
2	265
2	8
2	3
2	265
2	9
2	6
2	3
2	6
2	3
2	9
2	4
2	3
2	5
2	4
2	12
2	9
2	4
2	9
2	5
2	3
2	5
2	5
2	5
2	7
2	4
3	5
3	4


