# Persistence diagram </home/jens/Uni/data_topology/Project/reddit_results/graphs/04011.gml>
#
# Dimension   : 0
# Entries     : 138
# Betti number: 1
1	inf
1	102
1	102
1	6
1	102
1	102
1	102
1	102
1	9
1	102
1	7
1	102
1	102
1	102
1	102
1	102
1	102
1	102
1	102
1	102
1	102
1	102
1	7
1	7
1	5
1	7
1	102
1	102
1	102
1	102
1	6
1	102
1	102
1	5
1	9
1	102
1	102
1	102
1	102
1	7
1	102
1	102
1	102
1	12
1	102
1	5
1	102
1	7
1	102
1	102
1	7
1	3
1	12
1	7
1	10
1	3
1	102
1	102
1	102
1	102
1	102
1	7
1	102
1	4
1	102
1	6
1	102
1	102
1	102
1	102
1	102
1	5
1	102
1	102
1	102
1	102
1	10
1	102
1	7
1	102
1	102
1	5
1	7
1	102
1	4
1	7
1	3
1	102
1	102
1	3
1	102
1	7
1	4
1	9
1	102
1	7
1	102
1	102
1	102
1	102
1	7
1	102
1	102
1	102
1	102
1	102
1	102
1	102
1	3
1	102
1	5
1	102
1	102
1	12
1	102
2	5
2	3
2	5
2	4
2	3
2	7
2	7
2	5
2	3
2	3
2	5
2	6
2	3
2	3
2	5
2	4
2	7
3	7
3	4
3	5
3	4
3	4
4	5


