# Persistence diagram </home/jens/Uni/data_topology/Project/reddit_results/graphs/04061.gml>
#
# Dimension   : 1
# Entries     : 33
# Betti number: 33
7	inf
8	inf
8	inf
12	inf
12	inf
21	inf
21	inf
21	inf
209	inf
209	inf
209	inf
209	inf
209	inf
209	inf
209	inf
209	inf
209	inf
209	inf
209	inf
209	inf
209	inf
209	inf
209	inf
209	inf
209	inf
209	inf
209	inf
209	inf
209	inf
209	inf
209	inf
209	inf
209	inf
