# Persistence diagram </home/jens/Uni/data_topology/Project/reddit_results/graphs/04091.gml>
#
# Dimension   : 0
# Entries     : 368
# Betti number: 4
1	inf
1	228
1	228
1	228
1	228
1	228
1	228
1	13
1	228
1	228
1	228
1	228
1	12
1	12
1	13
1	12
1	8
1	228
1	228
1	7
1	228
1	228
1	228
1	228
1	13
1	228
1	7
1	228
1	228
1	228
1	8
1	8
1	12
1	228
1	228
1	228
1	5
1	228
1	228
1	12
1	7
1	228
1	8
1	10
1	5
1	18
1	228
1	7
1	228
1	4
1	19
1	10
1	18
1	10
1	10
1	7
1	228
1	228
1	13
1	7
1	228
1	35
1	10
1	228
1	10
1	inf
1	228
1	7
1	228
1	228
1	228
1	228
1	228
1	7
1	228
1	228
1	8
1	17
1	228
1	228
1	228
1	8
1	5
1	228
1	228
1	12
1	19
1	228
1	19
1	6
1	10
1	17
1	228
1	19
1	228
1	6
1	228
1	228
1	228
1	228
1	228
1	6
1	228
1	8
1	7
1	228
1	228
1	6
1	10
1	12
1	19
1	228
1	8
1	228
1	228
1	3
1	228
1	228
1	228
1	228
1	228
1	8
1	19
1	12
1	228
1	228
1	228
1	228
1	228
1	228
1	228
1	228
1	10
1	228
1	5
1	228
1	13
1	7
1	228
1	228
1	17
1	5
1	228
1	8
1	228
1	228
1	17
1	10
1	228
1	13
1	8
1	inf
1	228
1	228
1	7
1	228
1	17
1	228
1	228
1	228
1	228
1	228
1	228
1	10
1	10
1	13
1	228
1	228
1	228
1	228
1	12
1	228
1	228
1	228
1	6
1	12
1	6
1	12
1	5
1	228
1	4
1	228
1	12
1	228
1	228
1	6
1	228
1	17
1	4
1	19
1	228
1	228
1	5
1	4
1	8
1	12
1	10
1	12
1	7
1	4
1	3
1	228
1	4
1	228
1	228
1	228
1	228
1	228
1	4
1	8
1	18
1	8
1	228
1	228
1	6
1	17
1	228
1	228
1	228
1	13
1	228
1	228
1	228
1	228
1	10
1	228
1	8
1	12
1	6
1	228
1	228
1	228
1	8
1	3
1	228
1	228
1	3
1	228
1	228
1	12
1	228
1	10
1	inf
1	6
1	228
1	6
1	4
1	6
1	228
1	228
1	228
1	228
1	228
1	228
1	17
1	228
1	6
1	228
1	228
1	228
1	228
1	8
1	228
1	228
1	7
1	3
1	228
1	5
1	228
1	10
1	4
1	228
1	228
1	228
1	228
1	19
1	10
1	4
1	12
1	6
1	6
1	228
1	228
1	5
1	228
1	228
1	228
1	7
1	228
1	228
1	12
1	228
1	3
1	5
1	228
2	35
2	35
2	35
2	10
2	35
2	4
2	6
2	35
2	35
2	35
2	4
2	7
2	35
2	10
2	35
2	228
2	35
2	35
2	17
2	18
2	3
2	5
2	35
2	19
2	7
2	7
2	35
2	8
2	35
2	35
2	3
2	3
2	4
2	35
2	4
2	5
2	35
2	5
2	3
2	35
2	7
2	3
2	13
2	19
2	35
2	35
2	7
2	6
2	8
2	8
2	35
2	5
2	35
2	10
2	3
2	35
2	8
2	35
2	35
2	35
2	35
2	5
2	35
2	7
2	35
2	4
2	5
2	35
3	7
3	4
3	4
3	4
4	5


