# Persistence diagram </home/jens/Uni/data_topology/Project/reddit_results/graphs/04191.gml>
#
# Dimension   : 0
# Entries     : 78
# Betti number: 1
1	inf
1	35
1	35
1	35
1	35
1	35
1	7
1	35
1	7
1	6
1	35
1	7
1	6
1	6
1	35
1	7
1	35
1	3
1	7
1	7
1	35
1	5
1	35
1	6
1	35
1	35
1	6
1	7
1	6
1	7
1	6
1	35
1	35
1	5
1	6
1	3
1	35
1	35
1	6
1	4
1	35
1	35
1	6
1	3
1	35
1	6
1	35
1	4
1	3
1	6
1	5
1	7
1	6
1	7
1	35
1	35
1	35
1	3
2	4
2	3
2	6
2	4
2	3
2	3
2	5
2	4
2	5
2	5
2	5
2	5
2	4
2	5
2	4
2	6
2	4
2	3
2	3
2	4


