# Persistence diagram </home/jens/Uni/data_topology/Project/reddit_results/graphs/04221.gml>
#
# Dimension   : 0
# Entries     : 122
# Betti number: 1
1	inf
1	77
1	77
1	77
1	77
1	77
1	13
1	3
1	77
1	77
1	77
1	13
1	77
1	77
1	11
1	77
1	77
1	77
1	5
1	7
1	77
1	77
1	77
1	77
1	6
1	77
1	77
1	77
1	7
1	77
1	77
1	5
1	13
1	7
1	77
1	5
1	77
1	77
1	77
1	6
1	5
1	77
1	13
1	77
1	4
1	77
1	7
1	4
1	5
1	77
1	3
1	7
1	5
1	77
1	13
1	11
1	7
1	13
1	77
1	7
1	77
1	77
1	77
1	77
1	77
1	77
1	13
1	4
1	5
1	4
1	6
1	4
1	77
1	7
1	77
1	77
1	77
1	5
1	4
1	77
1	13
1	6
1	6
1	5
1	77
1	77
1	77
1	77
1	77
1	5
1	3
1	6
1	13
2	6
2	3
2	4
2	4
2	5
2	5
2	5
2	11
2	3
2	3
2	5
2	4
2	5
2	3
2	4
2	6
2	5
2	5
2	5
2	4
2	3
2	11
2	4
2	11
2	5
2	11
3	4
3	5
3	4


