# Persistence diagram </home/jens/Uni/data_topology/Project/reddit_results/graphs/04221.gml>
#
# Dimension   : 1
# Entries     : 38
# Betti number: 38
5	inf
5	inf
7	inf
7	inf
11	inf
11	inf
11	inf
11	inf
13	inf
13	inf
77	inf
77	inf
77	inf
77	inf
77	inf
77	inf
77	inf
77	inf
77	inf
77	inf
77	inf
77	inf
77	inf
77	inf
77	inf
77	inf
77	inf
77	inf
77	inf
77	inf
77	inf
77	inf
77	inf
77	inf
77	inf
77	inf
77	inf
77	inf
