# Persistence diagram </home/jens/Uni/data_topology/Project/reddit_results/graphs/04241.gml>
#
# Dimension   : 0
# Entries     : 49
# Betti number: 2
1	inf
1	23
1	23
1	13
1	23
1	6
1	3
1	9
1	23
1	23
1	13
1	23
1	23
1	13
1	23
1	inf
1	9
1	23
1	9
1	23
1	4
1	5
1	13
1	23
1	23
1	13
1	23
1	23
1	23
1	4
1	23
1	3
1	9
1	9
1	6
1	9
1	23
1	2
1	23
1	13
1	4
1	23
1	3
2	6
2	3
2	9
2	5
2	3
2	5


