# Persistence diagram </home/jens/Uni/data_topology/Project/reddit_results/graphs/04281.gml>
#
# Dimension   : 1
# Entries     : 131
# Betti number: 131
4	inf
4	inf
5	inf
5	inf
5	inf
7	inf
8	inf
8	inf
8	inf
8	inf
8	inf
8	inf
8	inf
8	inf
8	inf
9	inf
9	inf
9	inf
9	inf
9	inf
9	inf
16	inf
19	inf
19	inf
19	inf
21	inf
21	inf
21	inf
21	inf
21	inf
21	inf
21	inf
21	inf
21	inf
24	inf
24	inf
24	inf
24	inf
24	inf
24	inf
24	inf
24	inf
24	inf
24	inf
30	inf
30	inf
30	inf
30	inf
30	inf
30	inf
30	inf
30	inf
30	inf
30	inf
30	inf
30	inf
30	inf
30	inf
30	inf
257	inf
257	inf
257	inf
257	inf
257	inf
257	inf
257	inf
257	inf
257	inf
257	inf
257	inf
257	inf
257	inf
257	inf
257	inf
257	inf
257	inf
257	inf
257	inf
257	inf
257	inf
257	inf
257	inf
257	inf
257	inf
257	inf
257	inf
257	inf
257	inf
257	inf
257	inf
257	inf
257	inf
257	inf
257	inf
257	inf
257	inf
257	inf
257	inf
257	inf
257	inf
257	inf
257	inf
257	inf
257	inf
257	inf
257	inf
257	inf
257	inf
257	inf
257	inf
257	inf
257	inf
257	inf
257	inf
257	inf
257	inf
257	inf
257	inf
257	inf
257	inf
257	inf
257	inf
257	inf
257	inf
257	inf
257	inf
257	inf
257	inf
257	inf
257	inf
257	inf
