# Persistence diagram </home/jens/Uni/data_topology/Project/reddit_results/graphs/04301.gml>
#
# Dimension   : 1
# Entries     : 24
# Betti number: 24
3	inf
7	inf
7	inf
8	inf
9	inf
9	inf
9	inf
9	inf
9	inf
9	inf
9	inf
12	inf
12	inf
12	inf
12	inf
12	inf
42	inf
42	inf
42	inf
42	inf
42	inf
42	inf
42	inf
42	inf
