# Persistence diagram </home/jens/Uni/data_topology/Project/reddit_results/graphs/04311.gml>
#
# Dimension   : 0
# Entries     : 335
# Betti number: 2
1	inf
1	204
1	10
1	204
1	204
1	204
1	14
1	204
1	204
1	204
1	204
1	204
1	13
1	204
1	10
1	12
1	204
1	204
1	204
1	204
1	204
1	10
1	204
1	8
1	16
1	204
1	13
1	204
1	204
1	204
1	13
1	7
1	204
1	12
1	8
1	12
1	204
1	204
1	204
1	12
1	17
1	204
1	12
1	204
1	13
1	13
1	16
1	204
1	8
1	6
1	7
1	7
1	24
1	204
1	204
1	7
1	204
1	6
1	204
1	13
1	13
1	204
1	204
1	204
1	204
1	204
1	204
1	204
1	204
1	24
1	204
1	8
1	3
1	12
1	204
1	204
1	204
1	204
1	204
1	14
1	204
1	13
1	13
1	14
1	204
1	204
1	204
1	204
1	13
1	24
1	7
1	204
1	204
1	204
1	204
1	204
1	17
1	204
1	13
1	8
1	204
1	204
1	inf
1	204
1	204
1	204
1	204
1	204
1	204
1	204
1	204
1	204
1	204
1	204
1	24
1	4
1	204
1	204
1	204
1	17
1	17
1	16
1	204
1	204
1	204
1	17
1	5
1	204
1	8
1	204
1	17
1	17
1	24
1	204
1	6
1	7
1	204
1	13
1	204
1	204
1	7
1	12
1	24
1	204
1	6
1	204
1	204
1	4
1	8
1	204
1	204
1	204
1	7
1	204
1	204
1	204
1	204
1	7
1	17
1	4
1	204
1	24
1	12
1	204
1	17
1	4
1	204
1	204
1	9
1	204
1	204
1	204
1	6
1	204
1	204
1	7
1	204
1	4
1	16
1	9
1	204
1	24
1	6
1	7
1	204
1	204
1	17
1	204
1	4
1	204
1	8
1	8
1	13
1	204
1	14
1	7
1	204
1	16
1	204
1	204
1	204
1	7
1	204
1	9
1	16
1	204
1	204
1	204
1	204
1	4
1	12
1	10
1	13
1	204
1	14
1	13
1	24
1	4
1	204
1	204
1	6
1	204
1	4
1	24
1	13
1	204
1	204
1	6
1	204
1	13
1	204
1	204
1	204
1	12
1	9
1	12
1	4
1	5
1	12
1	204
1	5
1	204
1	3
1	13
1	204
1	5
1	3
1	204
1	204
1	204
1	204
1	12
1	12
1	3
1	5
1	204
1	13
1	14
1	204
1	204
1	14
1	204
1	204
1	204
1	16
1	12
1	204
1	204
1	13
1	24
1	204
1	204
1	16
1	204
1	7
1	204
1	13
1	204
1	204
1	4
1	8
1	204
1	204
2	7
2	3
2	13
2	8
2	204
2	3
2	204
2	3
2	9
2	5
2	9
2	5
2	13
2	3
2	13
2	5
2	8
2	4
2	5
2	12
2	6
2	3
2	13
2	5
2	12
2	5
2	9
2	5
2	6
2	204
2	16
2	6
2	3
2	13
2	7
2	3
2	6
2	7
2	13
2	5
2	6
2	4
2	7
2	12
2	12
2	5
2	7
2	3
2	7
2	6
2	3
3	8


