# Persistence diagram </home/jens/Uni/data_topology/Project/reddit_results/graphs/04321.gml>
#
# Dimension   : 0
# Entries     : 104
# Betti number: 3
1	inf
1	55
1	12
1	9
1	12
1	55
1	55
1	55
1	12
1	9
1	55
1	12
1	55
1	14
1	55
1	55
1	12
1	4
1	55
1	6
1	55
1	55
1	5
1	55
1	14
1	6
1	inf
1	55
1	55
1	7
1	9
1	55
1	55
1	55
1	55
1	4
1	6
1	14
1	55
1	6
1	55
1	55
1	inf
1	4
1	55
1	55
1	6
1	12
1	6
1	6
1	7
1	55
1	7
1	14
1	2
1	4
1	55
1	3
1	2
1	55
1	55
1	55
1	4
1	55
1	9
1	6
1	14
1	12
1	55
1	55
1	55
1	55
1	55
1	55
1	55
1	7
1	4
1	4
1	4
1	14
1	55
2	3
2	14
2	55
2	6
2	3
2	6
2	7
2	14
2	3
2	3
2	3
2	4
2	5
2	6
2	6
2	3
2	6
2	4
2	3
2	6
2	6
2	9
2	4


