# Persistence diagram </home/jens/Uni/data_topology/Project/reddit_results/graphs/04351.gml>
#
# Dimension   : 1
# Entries     : 24
# Betti number: 24
4	inf
5	inf
7	inf
7	inf
7	inf
7	inf
9	inf
9	inf
14	inf
14	inf
14	inf
14	inf
14	inf
14	inf
39	inf
39	inf
39	inf
39	inf
39	inf
39	inf
39	inf
39	inf
39	inf
39	inf
