# Persistence diagram </home/jens/Uni/data_topology/Project/reddit_results/graphs/04361.gml>
#
# Dimension   : 1
# Entries     : 47
# Betti number: 47
3	inf
3	inf
6	inf
7	inf
7	inf
9	inf
11	inf
11	inf
11	inf
11	inf
14	inf
14	inf
14	inf
14	inf
14	inf
14	inf
15	inf
15	inf
15	inf
15	inf
15	inf
15	inf
15	inf
15	inf
15	inf
15	inf
15	inf
16	inf
16	inf
16	inf
16	inf
16	inf
16	inf
52	inf
52	inf
52	inf
52	inf
52	inf
52	inf
52	inf
52	inf
52	inf
52	inf
52	inf
52	inf
52	inf
52	inf
