# Persistence diagram </home/jens/Uni/data_topology/Project/reddit_results/graphs/04451.gml>
#
# Dimension   : 1
# Entries     : 40
# Betti number: 40
6	inf
9	inf
10	inf
10	inf
10	inf
10	inf
10	inf
11	inf
11	inf
11	inf
11	inf
11	inf
11	inf
11	inf
11	inf
11	inf
11	inf
11	inf
11	inf
11	inf
11	inf
74	inf
74	inf
74	inf
74	inf
74	inf
74	inf
74	inf
74	inf
74	inf
74	inf
74	inf
74	inf
74	inf
74	inf
74	inf
74	inf
74	inf
74	inf
74	inf
