# Persistence diagram </home/jens/Uni/data_topology/Project/reddit_results/graphs/04471.gml>
#
# Dimension   : 1
# Entries     : 279
# Betti number: 279
4	inf
5	inf
5	inf
5	inf
5	inf
6	inf
6	inf
6	inf
7	inf
7	inf
7	inf
7	inf
7	inf
7	inf
7	inf
7	inf
7	inf
7	inf
8	inf
8	inf
8	inf
9	inf
9	inf
9	inf
9	inf
9	inf
10	inf
10	inf
10	inf
10	inf
10	inf
10	inf
10	inf
10	inf
10	inf
10	inf
10	inf
10	inf
10	inf
10	inf
10	inf
10	inf
10	inf
10	inf
10	inf
10	inf
10	inf
10	inf
10	inf
10	inf
10	inf
11	inf
11	inf
11	inf
11	inf
11	inf
11	inf
11	inf
11	inf
11	inf
11	inf
11	inf
11	inf
11	inf
11	inf
11	inf
11	inf
11	inf
11	inf
11	inf
11	inf
11	inf
11	inf
11	inf
11	inf
11	inf
11	inf
11	inf
11	inf
11	inf
11	inf
11	inf
11	inf
11	inf
11	inf
11	inf
11	inf
12	inf
12	inf
12	inf
12	inf
13	inf
13	inf
13	inf
13	inf
13	inf
13	inf
15	inf
15	inf
15	inf
15	inf
15	inf
17	inf
17	inf
17	inf
17	inf
17	inf
17	inf
17	inf
17	inf
17	inf
17	inf
17	inf
17	inf
18	inf
18	inf
18	inf
18	inf
18	inf
18	inf
18	inf
18	inf
18	inf
18	inf
18	inf
18	inf
18	inf
18	inf
18	inf
18	inf
18	inf
18	inf
18	inf
19	inf
19	inf
19	inf
19	inf
19	inf
19	inf
19	inf
19	inf
19	inf
19	inf
19	inf
19	inf
19	inf
19	inf
19	inf
19	inf
19	inf
30	inf
30	inf
30	inf
30	inf
30	inf
30	inf
30	inf
30	inf
30	inf
30	inf
30	inf
30	inf
30	inf
30	inf
30	inf
30	inf
30	inf
30	inf
30	inf
30	inf
340	inf
340	inf
340	inf
340	inf
340	inf
340	inf
340	inf
340	inf
340	inf
340	inf
340	inf
340	inf
340	inf
340	inf
340	inf
340	inf
340	inf
340	inf
340	inf
340	inf
340	inf
340	inf
340	inf
340	inf
340	inf
340	inf
340	inf
340	inf
340	inf
340	inf
340	inf
340	inf
340	inf
340	inf
340	inf
340	inf
340	inf
340	inf
340	inf
340	inf
340	inf
340	inf
340	inf
340	inf
340	inf
340	inf
340	inf
340	inf
340	inf
340	inf
340	inf
340	inf
340	inf
340	inf
340	inf
340	inf
340	inf
340	inf
340	inf
340	inf
340	inf
340	inf
340	inf
340	inf
340	inf
340	inf
340	inf
340	inf
340	inf
340	inf
340	inf
340	inf
340	inf
340	inf
340	inf
340	inf
340	inf
340	inf
340	inf
340	inf
340	inf
340	inf
340	inf
340	inf
340	inf
340	inf
340	inf
340	inf
340	inf
340	inf
340	inf
340	inf
340	inf
340	inf
340	inf
340	inf
340	inf
340	inf
340	inf
340	inf
340	inf
340	inf
340	inf
340	inf
340	inf
340	inf
340	inf
340	inf
340	inf
