# Persistence diagram </home/jens/Uni/data_topology/Project/reddit_results/graphs/04481.gml>
#
# Dimension   : 1
# Entries     : 99
# Betti number: 99
5	inf
5	inf
5	inf
6	inf
9	inf
9	inf
9	inf
9	inf
9	inf
10	inf
10	inf
11	inf
11	inf
11	inf
11	inf
11	inf
11	inf
11	inf
11	inf
11	inf
12	inf
12	inf
12	inf
12	inf
12	inf
12	inf
12	inf
12	inf
12	inf
12	inf
12	inf
14	inf
14	inf
14	inf
14	inf
14	inf
15	inf
15	inf
15	inf
15	inf
16	inf
16	inf
16	inf
16	inf
16	inf
16	inf
16	inf
16	inf
16	inf
16	inf
16	inf
16	inf
17	inf
17	inf
17	inf
17	inf
17	inf
17	inf
17	inf
17	inf
101	inf
101	inf
101	inf
101	inf
101	inf
101	inf
101	inf
101	inf
101	inf
101	inf
101	inf
101	inf
101	inf
101	inf
101	inf
101	inf
101	inf
101	inf
101	inf
101	inf
101	inf
101	inf
101	inf
101	inf
101	inf
101	inf
101	inf
101	inf
101	inf
101	inf
101	inf
101	inf
101	inf
101	inf
101	inf
101	inf
101	inf
101	inf
101	inf
