# Persistence diagram </home/jens/Uni/data_topology/Project/reddit_results/graphs/04521.gml>
#
# Dimension   : 1
# Entries     : 73
# Betti number: 73
5	inf
5	inf
8	inf
8	inf
8	inf
8	inf
8	inf
9	inf
10	inf
10	inf
10	inf
10	inf
11	inf
11	inf
11	inf
11	inf
11	inf
11	inf
11	inf
15	inf
15	inf
15	inf
15	inf
15	inf
15	inf
15	inf
19	inf
19	inf
19	inf
19	inf
19	inf
19	inf
19	inf
19	inf
125	inf
125	inf
125	inf
125	inf
125	inf
125	inf
125	inf
125	inf
125	inf
125	inf
125	inf
125	inf
125	inf
125	inf
125	inf
125	inf
125	inf
125	inf
125	inf
125	inf
125	inf
125	inf
125	inf
125	inf
125	inf
125	inf
125	inf
125	inf
125	inf
125	inf
125	inf
125	inf
125	inf
125	inf
125	inf
125	inf
125	inf
125	inf
125	inf
