# Persistence diagram </home/jens/Uni/data_topology/Project/reddit_results/graphs/04621.gml>
#
# Dimension   : 1
# Entries     : 93
# Betti number: 93
5	inf
6	inf
6	inf
6	inf
7	inf
8	inf
8	inf
8	inf
8	inf
8	inf
8	inf
8	inf
9	inf
9	inf
9	inf
9	inf
9	inf
9	inf
9	inf
9	inf
13	inf
13	inf
13	inf
20	inf
20	inf
20	inf
20	inf
20	inf
20	inf
20	inf
20	inf
20	inf
20	inf
21	inf
23	inf
23	inf
23	inf
23	inf
23	inf
23	inf
23	inf
23	inf
23	inf
23	inf
41	inf
41	inf
41	inf
41	inf
41	inf
41	inf
41	inf
41	inf
41	inf
41	inf
41	inf
41	inf
41	inf
240	inf
240	inf
240	inf
240	inf
240	inf
240	inf
240	inf
240	inf
240	inf
240	inf
240	inf
240	inf
240	inf
240	inf
240	inf
240	inf
240	inf
240	inf
240	inf
240	inf
240	inf
240	inf
240	inf
240	inf
240	inf
240	inf
240	inf
240	inf
240	inf
240	inf
240	inf
240	inf
240	inf
240	inf
240	inf
240	inf
