# Persistence diagram </home/jens/Uni/data_topology/Project/reddit_results/graphs/04761.gml>
#
# Dimension   : 1
# Entries     : 15
# Betti number: 15
6	inf
7	inf
7	inf
7	inf
10	inf
10	inf
10	inf
65	inf
65	inf
65	inf
65	inf
65	inf
65	inf
65	inf
65	inf
