# Persistence diagram </home/jens/Uni/data_topology/Project/reddit_results/graphs/04801.gml>
#
# Dimension   : 0
# Entries     : 375
# Betti number: 7
1	inf
1	211
1	7
1	21
1	211
1	21
1	211
1	6
1	13
1	211
1	211
1	13
1	211
1	8
1	8
1	211
1	7
1	211
1	211
1	211
1	211
1	211
1	8
1	9
1	9
1	211
1	211
1	21
1	8
1	211
1	inf
1	211
1	6
1	13
1	inf
1	8
1	211
1	211
1	211
1	211
1	211
1	211
1	8
1	8
1	211
1	211
1	211
1	211
1	211
1	21
1	5
1	6
1	211
1	211
1	211
1	211
1	211
1	7
1	211
1	13
1	211
1	211
1	5
1	inf
1	7
1	13
1	211
1	7
1	211
1	8
1	211
1	21
1	211
1	211
1	9
1	21
1	211
1	211
1	5
1	5
1	inf
1	211
1	5
1	21
1	211
1	5
1	211
1	211
1	6
1	211
1	211
1	211
1	inf
1	211
1	9
1	7
1	211
1	13
1	8
1	4
1	211
1	9
1	211
1	211
1	211
1	8
1	211
1	5
1	5
1	5
1	211
1	211
1	211
1	211
1	211
1	211
1	5
1	211
1	211
1	9
1	211
1	6
1	8
1	211
1	5
1	211
1	211
1	3
1	6
1	9
1	211
1	211
1	8
1	9
1	211
1	211
1	211
1	211
1	211
1	211
1	211
1	211
1	7
1	6
1	211
1	211
1	211
1	6
1	211
1	211
1	7
1	211
1	211
1	211
1	211
1	211
1	211
1	5
1	21
1	211
1	9
1	211
1	211
1	5
1	21
1	211
1	13
1	6
1	7
1	4
1	8
1	211
1	211
1	6
1	7
1	5
1	13
1	10
1	211
1	211
1	21
1	211
1	5
1	7
1	6
1	7
1	21
1	21
1	211
1	211
1	7
1	6
1	211
1	6
1	211
1	6
1	211
1	6
1	211
1	3
1	5
1	211
1	6
1	211
1	211
1	211
1	6
1	6
1	211
1	21
1	21
1	4
1	8
1	4
1	6
1	inf
1	4
1	21
1	7
1	3
1	211
1	9
1	2
1	211
1	6
1	3
1	211
1	211
1	3
1	7
1	8
1	211
1	211
1	211
1	211
1	3
1	7
1	211
1	5
1	21
1	211
1	211
1	4
1	5
1	211
1	211
1	211
1	211
1	9
1	211
1	211
1	21
1	5
1	3
1	211
1	3
1	211
1	211
1	13
1	211
1	211
1	21
1	211
1	7
1	6
1	211
1	211
1	5
1	8
1	4
1	211
1	211
1	211
1	5
1	4
1	211
1	211
1	5
1	21
1	21
1	211
1	211
1	211
1	211
1	211
1	9
1	211
1	211
1	8
1	211
1	211
1	4
1	4
1	10
1	10
1	211
1	211
1	21
1	4
1	211
1	211
1	8
1	211
1	3
1	211
1	5
1	6
1	3
1	211
1	5
1	8
1	5
1	211
1	21
1	211
1	211
1	8
1	5
1	9
1	4
1	211
1	211
1	5
1	3
1	211
2	5
2	9
2	3
2	6
2	4
2	211
2	4
2	3
2	3
2	21
2	7
2	7
2	4
2	13
2	3
2	4
2	6
2	7
2	5
2	21
2	5
2	5
2	5
2	6
2	5
2	6
2	3
2	5
2	9
2	10
2	9
2	13
2	211
2	6
2	211
2	3
2	4
2	4
2	13
2	3
2	8
2	4
2	9
2	3
2	3
2	5
2	4
2	6
3	4
3	4


