# Persistence diagram </home/jens/Uni/data_topology/Project/reddit_results/graphs/04801.gml>
#
# Dimension   : 1
# Entries     : 86
# Betti number: 86
3	inf
5	inf
5	inf
6	inf
7	inf
8	inf
8	inf
8	inf
9	inf
9	inf
9	inf
9	inf
10	inf
10	inf
10	inf
10	inf
13	inf
13	inf
13	inf
13	inf
13	inf
13	inf
13	inf
13	inf
13	inf
13	inf
21	inf
21	inf
21	inf
21	inf
21	inf
21	inf
21	inf
21	inf
21	inf
21	inf
21	inf
21	inf
21	inf
21	inf
211	inf
211	inf
211	inf
211	inf
211	inf
211	inf
211	inf
211	inf
211	inf
211	inf
211	inf
211	inf
211	inf
211	inf
211	inf
211	inf
211	inf
211	inf
211	inf
211	inf
211	inf
211	inf
211	inf
211	inf
211	inf
211	inf
211	inf
211	inf
211	inf
211	inf
211	inf
211	inf
211	inf
211	inf
211	inf
211	inf
211	inf
211	inf
211	inf
211	inf
211	inf
211	inf
211	inf
211	inf
211	inf
211	inf
