# Persistence diagram </home/jens/Uni/data_topology/Project/reddit_results/graphs/04831.gml>
#
# Dimension   : 0
# Entries     : 166
# Betti number: 4
1	inf
1	83
1	83
1	83
1	83
1	83
1	11
1	8
1	83
1	11
1	10
1	83
1	8
1	8
1	83
1	83
1	8
1	6
1	83
1	5
1	inf
1	83
1	83
1	8
1	83
1	11
1	83
1	8
1	8
1	83
1	11
1	11
1	83
1	7
1	5
1	83
1	83
1	10
1	83
1	9
1	83
1	5
1	5
1	83
1	11
1	8
1	6
1	8
1	83
1	83
1	11
1	11
1	83
1	8
1	83
1	83
1	83
1	83
1	5
1	11
1	83
1	83
1	83
1	8
1	83
1	83
1	83
1	inf
1	4
1	5
1	83
1	4
1	6
1	83
1	83
1	10
1	83
1	83
1	7
1	8
1	4
1	83
1	83
1	10
1	11
1	10
1	83
1	83
1	5
1	83
1	10
1	8
1	8
1	83
1	4
1	83
1	8
1	83
1	83
1	8
1	4
1	4
1	3
1	83
1	5
1	8
1	inf
1	83
1	2
1	5
1	83
1	11
1	8
1	83
1	5
1	8
1	8
1	5
1	83
1	7
1	5
1	11
1	83
1	7
1	7
1	83
1	4
2	4
2	9
2	3
2	11
2	6
2	9
2	4
2	6
2	8
2	5
2	10
2	7
2	4
2	3
2	3
2	7
2	6
2	3
2	4
2	4
2	4
2	8
2	3
2	7
2	7
2	3
2	4
2	5
2	4
2	7
2	11
2	3
2	3
2	7
3	4
3	5
3	5
3	4
4	6


