# Persistence diagram </home/jens/Uni/data_topology/Project/reddit_results/graphs/04831.gml>
#
# Dimension   : 1
# Entries     : 68
# Betti number: 68
5	inf
5	inf
5	inf
5	inf
5	inf
5	inf
7	inf
7	inf
7	inf
8	inf
8	inf
8	inf
8	inf
8	inf
8	inf
8	inf
8	inf
8	inf
8	inf
8	inf
8	inf
9	inf
9	inf
9	inf
9	inf
9	inf
10	inf
10	inf
11	inf
11	inf
11	inf
11	inf
11	inf
11	inf
11	inf
11	inf
11	inf
11	inf
11	inf
11	inf
11	inf
83	inf
83	inf
83	inf
83	inf
83	inf
83	inf
83	inf
83	inf
83	inf
83	inf
83	inf
83	inf
83	inf
83	inf
83	inf
83	inf
83	inf
83	inf
83	inf
83	inf
83	inf
83	inf
83	inf
83	inf
83	inf
83	inf
83	inf
