# Persistence diagram </home/jens/Uni/data_topology/Project/reddit_results/graphs/04851.gml>
#
# Dimension   : 1
# Entries     : 44
# Betti number: 44
7	inf
15	inf
15	inf
15	inf
15	inf
15	inf
15	inf
15	inf
16	inf
16	inf
16	inf
16	inf
16	inf
16	inf
16	inf
16	inf
16	inf
16	inf
16	inf
16	inf
16	inf
63	inf
63	inf
63	inf
63	inf
63	inf
63	inf
63	inf
63	inf
63	inf
63	inf
63	inf
63	inf
63	inf
63	inf
63	inf
63	inf
63	inf
63	inf
63	inf
63	inf
63	inf
63	inf
63	inf
