# Persistence diagram </home/jens/Uni/data_topology/Project/reddit_results/graphs/04921.gml>
#
# Dimension   : 1
# Entries     : 27
# Betti number: 27
5	inf
5	inf
5	inf
7	inf
7	inf
8	inf
9	inf
18	inf
18	inf
78	inf
78	inf
78	inf
78	inf
78	inf
78	inf
78	inf
78	inf
78	inf
78	inf
78	inf
78	inf
78	inf
78	inf
78	inf
78	inf
78	inf
78	inf
