# Persistence diagram </home/jens/Uni/data_topology/Project/reddit_results/graphs/0502-1.gml>
#
# Dimension   : 1
# Entries     : 256
# Betti number: 256
3	inf
3	inf
5	inf
6	inf
6	inf
7	inf
7	inf
7	inf
7	inf
7	inf
8	inf
8	inf
8	inf
9	inf
9	inf
9	inf
9	inf
9	inf
9	inf
9	inf
9	inf
9	inf
9	inf
9	inf
10	inf
10	inf
10	inf
10	inf
10	inf
10	inf
10	inf
10	inf
10	inf
10	inf
10	inf
10	inf
11	inf
11	inf
11	inf
11	inf
11	inf
11	inf
11	inf
11	inf
11	inf
11	inf
11	inf
11	inf
11	inf
11	inf
11	inf
11	inf
11	inf
11	inf
11	inf
11	inf
11	inf
11	inf
11	inf
11	inf
11	inf
11	inf
11	inf
11	inf
11	inf
12	inf
12	inf
12	inf
12	inf
12	inf
12	inf
12	inf
12	inf
12	inf
12	inf
14	inf
14	inf
14	inf
14	inf
14	inf
14	inf
14	inf
14	inf
14	inf
14	inf
14	inf
15	inf
15	inf
15	inf
15	inf
15	inf
16	inf
16	inf
16	inf
16	inf
16	inf
16	inf
16	inf
17	inf
17	inf
17	inf
17	inf
17	inf
17	inf
17	inf
17	inf
17	inf
18	inf
18	inf
18	inf
18	inf
18	inf
18	inf
18	inf
18	inf
18	inf
18	inf
18	inf
19	inf
19	inf
19	inf
19	inf
19	inf
19	inf
19	inf
19	inf
19	inf
19	inf
19	inf
19	inf
19	inf
19	inf
19	inf
19	inf
19	inf
21	inf
21	inf
21	inf
21	inf
21	inf
21	inf
21	inf
543	inf
543	inf
543	inf
543	inf
543	inf
543	inf
543	inf
543	inf
543	inf
543	inf
543	inf
543	inf
543	inf
543	inf
543	inf
543	inf
543	inf
543	inf
543	inf
543	inf
543	inf
543	inf
543	inf
543	inf
543	inf
543	inf
543	inf
543	inf
543	inf
543	inf
543	inf
543	inf
543	inf
543	inf
543	inf
543	inf
543	inf
543	inf
543	inf
543	inf
543	inf
543	inf
543	inf
543	inf
543	inf
543	inf
543	inf
543	inf
543	inf
543	inf
543	inf
543	inf
543	inf
543	inf
543	inf
543	inf
543	inf
543	inf
543	inf
543	inf
543	inf
543	inf
543	inf
543	inf
543	inf
543	inf
543	inf
543	inf
543	inf
543	inf
543	inf
543	inf
543	inf
543	inf
543	inf
543	inf
543	inf
543	inf
543	inf
543	inf
543	inf
543	inf
543	inf
543	inf
543	inf
543	inf
543	inf
543	inf
543	inf
543	inf
543	inf
543	inf
543	inf
543	inf
543	inf
543	inf
543	inf
543	inf
543	inf
543	inf
543	inf
543	inf
543	inf
543	inf
543	inf
543	inf
543	inf
543	inf
543	inf
543	inf
543	inf
543	inf
543	inf
543	inf
