# Persistence diagram </home/jens/Uni/data_topology/Project/reddit_results/graphs/0505-1.gml>
#
# Dimension   : 1
# Entries     : 137
# Betti number: 137
5	inf
5	inf
5	inf
5	inf
5	inf
6	inf
6	inf
6	inf
6	inf
6	inf
6	inf
6	inf
6	inf
6	inf
7	inf
7	inf
8	inf
9	inf
9	inf
9	inf
9	inf
9	inf
9	inf
9	inf
9	inf
10	inf
10	inf
11	inf
11	inf
11	inf
11	inf
12	inf
12	inf
12	inf
12	inf
14	inf
14	inf
14	inf
14	inf
14	inf
15	inf
15	inf
15	inf
15	inf
16	inf
16	inf
16	inf
16	inf
16	inf
16	inf
17	inf
17	inf
17	inf
18	inf
18	inf
18	inf
19	inf
19	inf
19	inf
20	inf
24	inf
24	inf
24	inf
24	inf
24	inf
26	inf
26	inf
26	inf
26	inf
26	inf
752	inf
752	inf
752	inf
752	inf
752	inf
752	inf
752	inf
752	inf
752	inf
752	inf
752	inf
752	inf
752	inf
752	inf
752	inf
752	inf
752	inf
752	inf
752	inf
752	inf
752	inf
752	inf
752	inf
752	inf
752	inf
752	inf
752	inf
752	inf
752	inf
752	inf
752	inf
752	inf
752	inf
752	inf
752	inf
752	inf
752	inf
752	inf
752	inf
752	inf
752	inf
752	inf
752	inf
752	inf
752	inf
752	inf
752	inf
752	inf
752	inf
752	inf
752	inf
752	inf
752	inf
752	inf
752	inf
752	inf
752	inf
752	inf
752	inf
752	inf
752	inf
752	inf
752	inf
752	inf
752	inf
752	inf
752	inf
