# Persistence diagram </home/jens/Uni/data_topology/Project/reddit_results/graphs/0505-1.gml>
#
# Dimension   : 0
# Entries     : 1203
# Betti number: 11
1	inf
1	752
1	752
1	20
1	752
1	752
1	10
1	752
1	12
1	16
1	752
1	9
1	752
1	752
1	9
1	11
1	10
1	752
1	7
1	752
1	14
1	18
1	752
1	752
1	6
1	14
1	752
1	752
1	9
1	9
1	752
1	6
1	752
1	18
1	752
1	9
1	752
1	18
1	752
1	9
1	752
1	752
1	752
1	24
1	752
1	752
1	11
1	7
1	752
1	752
1	752
1	24
1	752
1	752
1	752
1	752
1	15
1	752
1	12
1	19
1	752
1	752
1	752
1	26
1	752
1	11
1	752
1	752
1	9
1	8
1	752
1	752
1	12
1	11
1	inf
1	752
1	26
1	752
1	752
1	752
1	8
1	11
1	752
1	752
1	752
1	752
1	752
1	752
1	752
1	752
1	10
1	19
1	752
1	752
1	17
1	9
1	26
1	17
1	26
1	752
1	752
1	752
1	752
1	20
1	8
1	19
1	20
1	752
1	752
1	752
1	752
1	752
1	752
1	752
1	19
1	752
1	752
1	9
1	752
1	9
1	5
1	752
1	752
1	752
1	752
1	752
1	752
1	752
1	752
1	16
1	26
1	752
1	8
1	752
1	752
1	9
1	752
1	752
1	16
1	752
1	752
1	10
1	9
1	12
1	5
1	752
1	10
1	752
1	752
1	752
1	752
1	16
1	752
1	20
1	752
1	752
1	3
1	19
1	752
1	752
1	10
1	752
1	752
1	7
1	752
1	752
1	8
1	19
1	4
1	5
1	752
1	752
1	752
1	752
1	752
1	752
1	752
1	752
1	752
1	5
1	10
1	12
1	752
1	752
1	5
1	inf
1	4
1	5
1	752
1	6
1	9
1	752
1	inf
1	5
1	10
1	5
1	17
1	752
1	752
1	752
1	12
1	12
1	9
1	752
1	5
1	752
1	752
1	752
1	5
1	752
1	752
1	752
1	inf
1	8
1	9
1	752
1	6
1	7
1	14
1	752
1	14
1	9
1	8
1	8
1	752
1	752
1	752
1	752
1	752
1	752
1	752
1	752
1	752
1	752
1	752
1	752
1	752
1	7
1	752
1	752
1	752
1	752
1	15
1	752
1	7
1	19
1	752
1	15
1	752
1	752
1	24
1	752
1	752
1	752
1	20
1	24
1	24
1	752
1	752
1	752
1	15
1	9
1	752
1	752
1	752
1	24
1	752
1	752
1	8
1	5
1	752
1	14
1	752
1	8
1	7
1	752
1	5
1	752
1	18
1	752
1	752
1	752
1	752
1	752
1	752
1	10
1	10
1	752
1	8
1	752
1	752
1	752
1	14
1	752
1	10
1	5
1	20
1	752
1	752
1	752
1	752
1	752
1	752
1	752
1	752
1	inf
1	752
1	752
1	752
1	752
1	752
1	5
1	752
1	14
1	752
1	752
1	752
1	752
1	17
1	9
1	752
1	752
1	19
1	3
1	14
1	17
1	752
1	752
1	752
1	752
1	752
1	9
1	3
1	752
1	3
1	752
1	752
1	752
1	3
1	18
1	17
1	752
1	752
1	752
1	752
1	752
1	inf
1	752
1	752
1	752
1	752
1	752
1	8
1	7
1	752
1	26
1	752
1	26
1	5
1	17
1	19
1	752
1	11
1	752
1	752
1	752
1	752
1	752
1	752
1	11
1	752
1	752
1	752
1	752
1	752
1	4
1	752
1	752
1	752
1	752
1	752
1	5
1	752
1	752
1	752
1	5
1	5
1	752
1	752
1	752
1	752
1	752
1	17
1	752
1	5
1	752
1	17
1	752
1	752
1	752
1	752
1	752
1	752
1	752
1	14
1	8
1	12
1	5
1	14
1	4
1	752
1	9
1	16
1	752
1	752
1	752
1	752
1	752
1	9
1	5
1	752
1	5
1	752
1	752
1	752
1	752
1	752
1	6
1	752
1	752
1	752
1	752
1	752
1	16
1	752
1	752
1	752
1	20
1	752
1	752
1	8
1	6
1	752
1	752
1	752
1	752
1	752
1	752
1	9
1	752
1	9
1	752
1	752
1	752
1	752
1	9
1	4
1	10
1	752
1	11
1	752
1	752
1	752
1	752
1	752
1	752
1	752
1	752
1	18
1	752
1	inf
1	10
1	752
1	17
1	752
1	752
1	26
1	24
1	16
1	752
1	5
1	752
1	752
1	752
1	752
1	752
1	3
1	752
1	752
1	6
1	752
1	752
1	752
1	inf
1	5
1	5
1	752
1	752
1	752
1	752
1	3
1	6
1	8
1	752
1	752
1	752
1	26
1	5
1	752
1	752
1	752
1	752
1	16
1	24
1	752
1	752
1	752
1	752
1	752
1	14
1	752
1	10
1	752
1	5
1	752
1	752
1	15
1	752
1	16
1	752
1	752
1	752
1	752
1	752
1	752
1	752
1	6
1	8
1	24
1	6
1	752
1	752
1	752
1	752
1	26
1	18
1	10
1	17
1	752
1	752
1	752
1	752
1	752
1	10
1	9
1	752
1	752
1	752
1	752
1	24
1	752
1	752
1	752
1	752
1	752
1	752
1	752
1	752
1	752
1	752
1	752
1	3
1	752
1	752
1	752
1	752
1	8
1	26
1	752
1	752
1	752
1	752
1	20
1	752
1	24
1	752
1	20
1	inf
1	8
1	752
1	8
1	752
1	5
1	752
1	752
1	752
1	2
1	752
1	752
1	12
1	9
1	4
1	752
1	752
1	752
1	7
1	16
1	752
1	752
1	752
1	3
1	752
1	6
1	752
1	12
1	752
1	8
1	752
1	5
1	9
1	19
1	752
1	752
1	752
1	752
1	752
1	752
1	8
1	24
1	752
1	4
1	752
1	752
1	24
1	752
1	752
1	752
1	752
1	752
1	752
1	752
1	752
1	752
1	10
1	10
1	10
1	16
1	752
1	752
1	752
1	20
1	9
1	752
1	5
1	752
1	752
1	14
1	752
1	18
1	3
1	752
1	752
1	752
1	752
1	12
1	752
1	752
1	5
1	752
1	10
1	752
1	752
1	8
1	752
1	5
1	752
1	7
1	752
1	752
1	752
1	16
1	752
1	752
1	6
1	16
1	752
1	752
1	752
1	752
1	14
1	752
1	3
1	9
1	5
1	6
1	19
1	752
1	752
1	12
1	752
1	4
1	4
1	752
1	6
1	8
1	752
1	9
1	752
1	752
1	752
1	26
1	6
1	7
1	752
1	9
1	752
1	752
1	752
1	17
1	752
1	752
1	752
1	752
1	752
1	3
1	15
1	752
1	7
1	752
1	752
1	10
1	752
1	752
1	14
1	752
1	752
1	752
1	752
1	18
1	12
1	752
1	752
1	8
1	752
1	7
1	752
1	6
1	752
1	752
1	4
1	752
1	16
1	11
1	752
1	7
1	26
1	752
1	inf
1	752
1	752
1	7
1	752
1	752
1	752
1	6
1	752
1	752
1	14
1	752
1	752
1	3
1	10
1	752
1	752
1	8
1	752
1	752
1	4
1	752
1	7
1	752
1	14
1	752
1	752
1	752
1	6
1	11
1	752
1	5
1	752
1	752
1	752
1	19
1	752
1	26
1	752
1	752
1	8
1	16
1	752
1	752
1	8
1	752
1	752
1	8
1	752
1	752
1	752
1	752
1	752
1	752
1	7
1	752
1	20
1	752
1	752
1	4
1	752
1	18
1	10
1	752
1	5
1	752
1	752
1	752
1	752
1	20
1	752
1	752
1	752
1	8
1	752
1	3
1	752
1	6
1	752
1	752
1	8
1	752
1	752
1	752
1	752
1	5
1	752
1	752
1	7
1	752
1	752
1	19
1	752
1	752
1	752
1	5
1	752
1	11
1	752
1	26
1	752
1	752
1	752
1	752
1	752
1	16
1	752
1	752
1	752
1	4
1	752
1	9
1	752
1	752
1	752
1	752
1	752
1	752
1	20
1	18
1	752
1	752
1	752
1	3
1	20
1	752
1	15
1	5
1	9
1	752
1	6
1	8
1	14
1	4
1	752
1	4
1	6
1	752
1	752
1	752
1	14
1	752
1	752
1	3
1	10
1	752
1	752
1	752
1	9
1	752
1	752
1	752
1	7
1	752
1	3
1	752
1	752
1	752
1	4
1	752
1	752
1	8
1	752
1	752
1	752
1	12
1	752
1	12
1	26
1	752
1	752
1	10
1	752
1	6
1	752
1	752
1	752
1	752
1	5
1	6
1	24
1	5
1	752
1	5
1	752
1	10
1	752
1	752
1	752
1	26
1	752
1	752
1	20
1	16
1	8
1	752
1	11
1	752
1	26
1	4
1	752
1	8
1	752
1	16
1	752
1	752
1	752
1	4
1	5
1	8
1	11
1	752
1	752
1	752
1	12
1	752
1	4
1	752
1	5
1	752
1	752
1	19
1	11
1	752
1	752
1	752
1	752
1	752
1	752
1	752
1	752
1	752
1	752
1	6
1	5
1	10
1	5
1	4
1	3
1	752
1	752
1	752
1	5
1	5
1	752
1	752
1	752
1	752
1	5
1	752
1	752
1	752
1	752
1	26
1	752
1	20
1	752
1	26
1	752
1	752
1	752
1	8
1	752
1	752
1	752
1	16
1	752
1	752
1	752
1	9
1	7
1	18
1	752
1	752
1	752
1	752
1	6
1	752
1	3
1	752
1	752
1	752
1	752
1	752
1	752
1	752
1	752
1	752
1	8
1	15
1	5
1	752
1	752
1	10
1	752
1	7
1	7
1	752
1	752
1	7
1	16
1	16
1	5
1	8
1	6
1	4
1	4
1	752
1	3
1	10
1	752
1	752
1	8
1	14
1	752
1	5
1	6
1	752
1	752
1	24
1	752
1	752
1	752
1	752
1	752
1	752
1	5
1	7
1	752
1	4
1	752
1	752
1	9
1	24
1	11
1	752
1	752
1	6
1	8
1	24
1	9
1	6
1	2
1	752
1	752
1	20
1	752
1	752
1	752
1	10
1	6
1	9
1	752
1	752
1	752
1	6
1	752
1	752
1	752
1	752
1	752
1	752
1	752
1	7
1	752
2	3
2	9
2	3
2	6
2	6
2	5
2	4
2	752
2	752
2	3
2	5
2	3
2	9
2	3
2	752
2	5
2	3
2	5
2	3
2	18
2	4
2	3
2	3
2	5
2	3
2	752
2	3
2	752
2	5
2	9
2	5
2	10
2	5
2	10
2	6
2	5
2	7
2	3
2	4
2	7
2	6
2	5
2	16
2	6
2	3
2	3
2	10
2	5
2	3
2	6
2	8
2	5
2	4
2	3
2	3
2	3
2	9
2	3
2	3
2	3
2	5
2	4
2	10
2	5
2	7
2	11
2	9
2	5
2	5
2	4
2	7
3	5
3	6
3	5
3	4
3	4
3	4
3	5
3	4
3	5
3	4


