# Persistence diagram </home/jens/Uni/data_topology/Project/reddit_results/graphs/0506-1.gml>
#
# Dimension   : 0
# Entries     : 678
# Betti number: 6
1	inf
1	7
1	9
1	40
1	361
1	7
1	11
1	361
1	361
1	361
1	inf
1	8
1	361
1	7
1	8
1	4
1	361
1	361
1	15
1	20
1	361
1	361
1	7
1	361
1	9
1	361
1	40
1	7
1	361
1	361
1	11
1	20
1	9
1	361
1	7
1	27
1	4
1	361
1	361
1	40
1	8
1	361
1	10
1	16
1	8
1	7
1	361
1	361
1	15
1	361
1	6
1	20
1	361
1	8
1	361
1	361
1	6
1	361
1	20
1	inf
1	361
1	40
1	7
1	361
1	7
1	40
1	9
1	361
1	8
1	11
1	8
1	16
1	361
1	361
1	361
1	361
1	6
1	11
1	7
1	40
1	361
1	9
1	361
1	27
1	5
1	361
1	20
1	6
1	361
1	361
1	27
1	7
1	20
1	9
1	40
1	11
1	6
1	361
1	16
1	361
1	27
1	361
1	361
1	361
1	361
1	361
1	361
1	361
1	361
1	361
1	361
1	361
1	15
1	361
1	20
1	361
1	361
1	361
1	361
1	361
1	361
1	9
1	361
1	361
1	361
1	8
1	9
1	7
1	361
1	361
1	20
1	9
1	7
1	361
1	361
1	9
1	13
1	27
1	16
1	361
1	9
1	361
1	361
1	12
1	361
1	361
1	361
1	361
1	361
1	9
1	11
1	3
1	8
1	361
1	10
1	361
1	361
1	361
1	361
1	27
1	361
1	361
1	361
1	5
1	15
1	8
1	6
1	5
1	361
1	361
1	361
1	40
1	361
1	6
1	361
1	10
1	361
1	8
1	361
1	inf
1	5
1	11
1	4
1	7
1	361
1	361
1	20
1	8
1	361
1	9
1	7
1	7
1	6
1	361
1	6
1	361
1	16
1	361
1	6
1	361
1	11
1	361
1	361
1	9
1	361
1	9
1	361
1	12
1	361
1	13
1	361
1	5
1	40
1	7
1	9
1	361
1	361
1	6
1	27
1	361
1	361
1	8
1	361
1	11
1	11
1	7
1	361
1	16
1	10
1	5
1	361
1	361
1	5
1	20
1	361
1	6
1	361
1	5
1	40
1	7
1	361
1	27
1	361
1	361
1	361
1	361
1	361
1	361
1	5
1	40
1	361
1	361
1	5
1	361
1	9
1	11
1	361
1	9
1	11
1	361
1	361
1	361
1	6
1	7
1	361
1	361
1	5
1	361
1	5
1	361
1	361
1	361
1	5
1	8
1	361
1	4
1	361
1	361
1	27
1	11
1	361
1	20
1	361
1	2
1	361
1	361
1	361
1	361
1	12
1	4
1	361
1	13
1	5
1	5
1	27
1	4
1	361
1	361
1	361
1	6
1	40
1	361
1	20
1	5
1	361
1	3
1	361
1	361
1	5
1	3
1	361
1	40
1	7
1	inf
1	361
1	16
1	8
1	361
1	7
1	5
1	20
1	361
1	12
1	361
1	361
1	6
1	361
1	6
1	361
1	361
1	361
1	361
1	8
1	7
1	4
1	6
1	6
1	361
1	5
1	7
1	5
1	361
1	361
1	3
1	361
1	11
1	361
1	361
1	361
1	15
1	361
1	7
1	9
1	40
1	361
1	10
1	361
1	361
1	361
1	361
1	9
1	6
1	361
1	11
1	20
1	6
1	361
1	361
1	6
1	361
1	361
1	12
1	40
1	361
1	361
1	6
1	20
1	361
1	361
1	3
1	20
1	4
1	361
1	361
1	361
1	5
1	6
1	40
1	7
1	361
1	20
1	3
1	361
1	20
1	361
1	361
1	5
1	361
1	40
1	4
1	16
1	7
1	361
1	361
1	6
1	361
1	361
1	361
1	7
1	7
1	40
1	27
1	361
1	5
1	6
1	27
1	361
1	361
1	7
1	12
1	361
1	4
1	5
1	361
1	361
1	20
1	11
1	361
1	8
1	9
1	40
1	361
1	8
1	8
1	7
1	361
1	361
1	6
1	20
1	361
1	11
1	9
1	361
1	361
1	7
1	4
1	6
1	6
1	6
1	40
1	27
1	361
1	7
1	361
1	361
1	5
1	361
1	11
1	9
1	5
1	361
1	3
1	361
1	361
1	20
1	9
1	361
1	5
1	361
1	16
1	361
1	4
1	6
1	5
1	361
1	20
1	4
1	7
1	7
1	5
1	6
1	361
1	361
1	361
1	361
1	361
1	361
1	361
1	361
1	361
1	5
1	16
1	361
1	5
1	8
1	8
1	361
1	20
1	7
1	361
1	361
1	361
1	361
1	4
1	361
1	5
1	361
1	3
1	6
1	5
1	11
1	9
1	6
1	27
1	4
1	361
1	7
1	361
1	15
1	8
1	4
1	361
1	4
1	10
1	20
1	15
1	5
1	7
1	40
1	361
1	361
1	361
1	361
1	20
1	11
1	361
1	361
1	361
1	361
1	5
1	361
1	7
1	361
1	4
1	3
1	4
1	361
1	361
1	7
1	361
1	3
1	361
1	9
1	27
1	8
1	3
1	11
1	40
1	361
1	361
1	361
1	7
1	361
1	5
1	361
1	20
1	inf
1	4
1	361
1	361
1	361
1	361
1	7
1	361
1	40
1	361
1	7
1	361
1	2
1	361
1	361
1	9
1	361
1	40
2	6
2	5
2	3
2	5
2	361
2	5
2	5
2	5
2	11
2	8
2	6
2	4
2	7
2	7
2	361
2	3
2	3
2	4
2	3
2	9
2	5
2	10
2	361
2	3
2	20
2	11
2	6
2	7
2	13
2	4
2	27
2	7
2	6
2	20
2	5
2	3
2	3
2	9
2	4
2	5
2	6
2	3
2	7
2	9
2	3
2	6
2	4
2	5
2	3
2	3
2	4
2	5
2	4
2	7
2	7
2	9
2	11
2	7
2	5
2	3
2	4
2	5
2	9
2	3
2	6
2	5
2	4
2	3
2	4
2	5
2	5
2	8
2	3
2	5
2	4
2	10
2	4
2	8
2	10
2	3
2	7
2	3
2	12
2	4
2	7
2	5
2	5
3	7
3	5
3	5
3	13
3	9
3	7
4	5


