# Persistence diagram </home/jens/Uni/data_topology/Project/reddit_results/graphs/0518-1.gml>
#
# Dimension   : 0
# Entries     : 323
# Betti number: 10
1	inf
1	183
1	183
1	183
1	38
1	inf
1	183
1	14
1	183
1	183
1	13
1	183
1	9
1	183
1	38
1	183
1	14
1	183
1	183
1	8
1	inf
1	183
1	8
1	inf
1	8
1	12
1	183
1	183
1	inf
1	7
1	9
1	183
1	183
1	183
1	183
1	38
1	12
1	17
1	8
1	38
1	7
1	183
1	183
1	183
1	183
1	7
1	3
1	6
1	183
1	6
1	10
1	7
1	183
1	7
1	13
1	183
1	14
1	12
1	183
1	183
1	10
1	14
1	183
1	183
1	3
1	7
1	8
1	4
1	38
1	183
1	9
1	7
1	183
1	8
1	183
1	183
1	183
1	12
1	183
1	7
1	183
1	183
1	183
1	6
1	183
1	183
1	183
1	8
1	183
1	inf
1	183
1	8
1	183
1	17
1	183
1	183
1	183
1	38
1	14
1	183
1	183
1	8
1	8
1	13
1	183
1	14
1	5
1	183
1	inf
1	183
1	10
1	inf
1	9
1	183
1	12
1	8
1	9
1	183
1	183
1	183
1	183
1	183
1	183
1	8
1	183
1	5
1	4
1	38
1	183
1	183
1	14
1	8
1	inf
1	14
1	13
1	6
1	183
1	7
1	183
1	5
1	183
1	8
1	8
1	13
1	8
1	19
1	14
1	183
1	183
1	183
1	183
1	183
1	8
1	183
1	14
1	7
1	183
1	8
1	8
1	183
1	3
1	13
1	4
1	183
1	4
1	8
1	4
1	4
1	183
1	8
1	14
1	4
1	8
1	17
1	183
1	19
1	2
1	8
1	183
1	7
1	183
1	12
1	14
1	8
1	183
1	14
1	8
1	183
1	183
1	10
1	38
1	5
1	17
1	8
1	183
1	7
1	183
1	183
1	183
1	183
1	183
1	13
1	183
1	8
1	183
1	9
1	183
1	183
1	183
1	183
1	19
1	183
1	13
1	2
1	183
1	183
1	6
1	183
1	14
1	4
1	183
1	183
1	17
1	14
1	14
1	7
1	183
1	183
1	7
1	183
1	inf
1	183
1	183
1	6
1	8
1	6
1	4
1	38
1	4
1	17
1	5
1	183
1	8
1	5
1	4
1	183
1	4
1	3
1	183
1	14
1	2
1	183
1	38
1	183
1	6
1	183
1	183
1	183
2	5
2	6
2	3
2	5
2	38
2	7
2	38
2	38
2	5
2	4
2	7
2	7
2	8
2	7
2	4
2	6
2	3
2	38
2	5
2	3
2	8
2	8
2	4
2	183
2	5
2	4
2	3
2	183
2	7
2	3
2	12
2	4
2	5
2	5
2	13
2	6
2	8
2	10
2	38
2	19
2	4
2	5
2	5
2	5
2	19
2	7
2	9
2	8
2	3
2	5
2	4
2	5
2	3
2	14
2	4
3	19
3	5
3	4
3	5
3	4
3	13
3	19
3	12
3	19
4	6


