# Persistence diagram </home/jens/Uni/data_topology/Project/reddit_results/graphs/0530-1.gml>
#
# Dimension   : 0
# Entries     : 645
# Betti number: 3
1	inf
1	30
1	30
1	291
1	19
1	291
1	30
1	291
1	16
1	291
1	291
1	10
1	291
1	291
1	30
1	26
1	9
1	30
1	23
1	291
1	17
1	291
1	19
1	43
1	291
1	291
1	17
1	20
1	291
1	291
1	23
1	291
1	8
1	30
1	26
1	291
1	19
1	291
1	6
1	291
1	7
1	291
1	17
1	291
1	291
1	291
1	19
1	291
1	10
1	23
1	291
1	5
1	291
1	291
1	43
1	6
1	43
1	13
1	11
1	16
1	23
1	20
1	20
1	26
1	291
1	26
1	43
1	291
1	20
1	291
1	16
1	291
1	291
1	23
1	291
1	43
1	291
1	291
1	16
1	13
1	30
1	291
1	291
1	43
1	16
1	16
1	291
1	11
1	291
1	291
1	19
1	16
1	291
1	13
1	291
1	291
1	17
1	5
1	291
1	17
1	30
1	19
1	17
1	7
1	291
1	291
1	291
1	10
1	5
1	8
1	15
1	13
1	6
1	16
1	291
1	23
1	43
1	291
1	291
1	291
1	20
1	291
1	6
1	291
1	26
1	10
1	6
1	43
1	4
1	291
1	16
1	7
1	43
1	5
1	9
1	7
1	23
1	8
1	291
1	16
1	4
1	291
1	5
1	291
1	11
1	291
1	43
1	291
1	4
1	20
1	10
1	11
1	20
1	291
1	16
1	291
1	6
1	291
1	291
1	20
1	291
1	19
1	291
1	11
1	291
1	291
1	11
1	26
1	291
1	291
1	291
1	4
1	3
1	291
1	7
1	291
1	291
1	30
1	291
1	291
1	291
1	19
1	26
1	291
1	291
1	291
1	19
1	11
1	291
1	7
1	13
1	7
1	15
1	291
1	291
1	291
1	6
1	4
1	291
1	7
1	9
1	4
1	26
1	10
1	291
1	291
1	291
1	291
1	291
1	26
1	11
1	11
1	inf
1	19
1	6
1	4
1	5
1	10
1	26
1	291
1	19
1	291
1	5
1	291
1	291
1	291
1	11
1	20
1	7
1	4
1	291
1	291
1	6
1	43
1	291
1	43
1	291
1	26
1	30
1	3
1	291
1	16
1	291
1	291
1	26
1	291
1	9
1	43
1	26
1	291
1	7
1	3
1	6
1	9
1	291
1	7
1	291
1	20
1	8
1	26
1	17
1	6
1	9
1	4
1	291
1	291
1	11
1	291
1	291
1	291
1	291
1	291
1	291
1	291
1	26
1	7
1	inf
1	291
1	15
1	23
1	291
1	10
1	291
1	291
1	5
1	10
1	19
1	6
1	7
1	4
1	291
1	291
1	26
1	291
1	291
1	11
1	5
1	291
1	6
1	3
1	16
1	291
1	291
1	16
1	291
1	8
1	291
1	23
1	5
1	291
1	4
1	6
1	291
1	19
1	3
1	291
1	7
1	17
1	291
1	20
1	291
1	7
1	291
1	43
1	23
1	4
1	43
1	291
1	4
1	291
1	291
1	17
1	3
1	5
1	3
1	15
1	291
1	11
1	9
1	291
1	291
1	16
1	291
1	30
1	291
1	291
1	17
1	3
1	8
1	43
1	291
1	291
1	291
1	291
1	4
1	291
1	291
1	10
1	23
1	291
1	43
1	30
1	10
1	291
1	291
1	7
1	23
1	5
1	4
1	9
1	4
1	291
1	3
1	7
1	15
1	291
1	291
1	291
1	291
1	291
1	291
1	8
1	291
1	30
1	291
1	13
1	3
1	23
1	7
1	291
1	30
1	23
1	43
1	291
1	291
1	13
1	291
1	11
1	4
1	30
1	291
1	4
1	20
1	4
1	291
1	9
1	291
1	30
1	17
1	291
1	30
1	291
1	291
1	291
1	4
1	20
1	16
1	19
1	17
1	291
1	291
1	291
1	291
1	43
1	291
1	43
1	8
1	20
1	20
1	10
1	9
1	291
1	291
1	30
1	7
1	3
1	26
1	7
1	6
1	15
1	291
1	291
1	19
1	26
1	291
1	291
1	291
1	291
1	16
1	291
1	20
1	291
1	291
1	11
1	8
1	26
1	7
1	3
1	291
1	4
1	5
1	291
1	9
1	291
1	5
1	291
1	291
1	291
1	43
1	291
1	291
1	291
1	4
1	43
1	291
1	291
1	16
1	4
1	291
1	291
1	291
1	43
1	4
1	291
1	16
1	291
1	7
1	30
1	291
1	26
1	5
1	3
1	15
1	291
1	7
1	16
1	30
1	291
1	291
1	291
1	7
1	291
1	19
1	23
1	291
1	16
1	291
1	7
1	291
1	23
1	15
1	291
1	26
1	11
1	16
1	291
1	30
1	15
1	291
1	291
1	291
1	30
1	5
1	43
1	291
1	291
1	291
1	291
1	291
1	291
1	7
1	30
1	26
1	291
1	291
1	3
1	43
1	8
1	6
1	291
1	5
1	10
1	19
1	6
1	291
1	7
1	291
1	23
1	16
1	4
1	291
1	291
1	4
1	291
1	43
1	291
1	291
1	7
1	291
1	291
1	291
1	291
1	291
1	291
1	4
1	291
1	291
1	10
1	291
1	291
1	11
1	291
1	43
1	291
1	291
1	291
1	43
1	6
1	8
1	15
1	30
1	291
1	291
1	23
1	291
1	291
1	291
1	7
1	291
1	7
1	7
1	291
1	43
1	4
1	4
1	26
1	43
1	17
1	291
2	3
2	291
2	16
2	3
2	23
2	4
2	20
2	4
2	8
2	7
2	9
2	4
2	4
2	7
2	6
2	5
2	4
2	5
2	10
2	5
2	3
2	3
2	4
2	4
2	3
2	4
2	4
2	4
2	9
2	291
2	7
2	4
2	3
2	3
2	3
2	6
2	7
2	26
2	4
2	43
2	6
2	3
3	7
3	10
3	4
3	6


