# Persistence diagram </home/jens/Uni/data_topology/Project/reddit_results/graphs/0548-1.gml>
#
# Dimension   : 1
# Entries     : 222
# Betti number: 222
4	inf
5	inf
6	inf
6	inf
7	inf
7	inf
7	inf
8	inf
8	inf
8	inf
9	inf
9	inf
9	inf
9	inf
10	inf
10	inf
10	inf
10	inf
10	inf
10	inf
10	inf
10	inf
11	inf
11	inf
11	inf
11	inf
13	inf
13	inf
13	inf
13	inf
13	inf
13	inf
13	inf
13	inf
13	inf
13	inf
13	inf
13	inf
13	inf
13	inf
13	inf
13	inf
13	inf
13	inf
13	inf
13	inf
13	inf
13	inf
13	inf
13	inf
13	inf
13	inf
13	inf
13	inf
13	inf
13	inf
14	inf
14	inf
14	inf
15	inf
15	inf
15	inf
15	inf
15	inf
15	inf
15	inf
15	inf
15	inf
15	inf
15	inf
15	inf
15	inf
15	inf
15	inf
15	inf
15	inf
15	inf
15	inf
15	inf
16	inf
16	inf
16	inf
17	inf
17	inf
17	inf
17	inf
18	inf
18	inf
18	inf
18	inf
18	inf
18	inf
19	inf
19	inf
19	inf
19	inf
19	inf
19	inf
19	inf
19	inf
19	inf
19	inf
19	inf
19	inf
19	inf
19	inf
19	inf
19	inf
19	inf
19	inf
19	inf
22	inf
22	inf
22	inf
22	inf
22	inf
22	inf
22	inf
22	inf
22	inf
22	inf
22	inf
22	inf
22	inf
22	inf
22	inf
22	inf
22	inf
22	inf
23	inf
23	inf
23	inf
23	inf
23	inf
23	inf
23	inf
23	inf
23	inf
28	inf
28	inf
28	inf
28	inf
28	inf
28	inf
28	inf
28	inf
28	inf
28	inf
28	inf
28	inf
30	inf
30	inf
30	inf
30	inf
30	inf
30	inf
30	inf
30	inf
30	inf
30	inf
30	inf
30	inf
30	inf
34	inf
34	inf
34	inf
34	inf
34	inf
34	inf
34	inf
135	inf
135	inf
135	inf
135	inf
135	inf
135	inf
135	inf
135	inf
135	inf
135	inf
135	inf
135	inf
135	inf
135	inf
135	inf
135	inf
135	inf
135	inf
135	inf
135	inf
135	inf
135	inf
135	inf
135	inf
135	inf
135	inf
135	inf
135	inf
135	inf
135	inf
135	inf
135	inf
135	inf
135	inf
135	inf
135	inf
135	inf
135	inf
135	inf
135	inf
135	inf
135	inf
135	inf
135	inf
135	inf
135	inf
135	inf
135	inf
135	inf
135	inf
135	inf
135	inf
