# Persistence diagram </home/jens/Uni/data_topology/Project/reddit_results/graphs/0551-1.gml>
#
# Dimension   : 0
# Entries     : 516
# Betti number: 4
1	inf
1	261
1	261
1	29
1	261
1	31
1	inf
1	31
1	261
1	261
1	261
1	17
1	261
1	261
1	31
1	6
1	261
1	10
1	261
1	7
1	261
1	9
1	31
1	6
1	10
1	3
1	261
1	7
1	261
1	261
1	10
1	261
1	5
1	261
1	7
1	5
1	6
1	21
1	31
1	21
1	21
1	9
1	6
1	261
1	4
1	261
1	261
1	261
1	29
1	261
1	261
1	7
1	6
1	261
1	17
1	6
1	5
1	9
1	261
1	12
1	261
1	6
1	261
1	10
1	261
1	9
1	9
1	6
1	261
1	6
1	6
1	261
1	261
1	7
1	12
1	261
1	261
1	3
1	6
1	9
1	11
1	6
1	29
1	21
1	261
1	261
1	261
1	3
1	261
1	17
1	261
1	261
1	261
1	6
1	6
1	31
1	261
1	261
1	261
1	5
1	29
1	31
1	261
1	261
1	11
1	261
1	261
1	261
1	10
1	7
1	5
1	261
1	261
1	31
1	11
1	261
1	17
1	29
1	10
1	29
1	261
1	4
1	261
1	3
1	inf
1	261
1	261
1	12
1	261
1	29
1	4
1	261
1	261
1	261
1	inf
1	9
1	261
1	261
1	8
1	261
1	261
1	9
1	261
1	261
1	21
1	29
1	261
1	261
1	261
1	261
1	9
1	31
1	5
1	261
1	261
1	5
1	261
1	5
1	261
1	261
1	21
1	6
1	10
1	261
1	29
1	261
1	261
1	3
1	5
1	5
1	4
1	9
1	12
1	21
1	261
1	4
1	261
1	261
1	29
1	31
1	29
1	261
1	4
1	261
1	261
1	261
1	261
1	261
1	31
1	261
1	3
1	5
1	261
1	261
1	31
1	31
1	8
1	261
1	5
1	261
1	7
1	11
1	261
1	10
1	5
1	5
1	5
1	7
1	9
1	261
1	3
1	8
1	12
1	261
1	261
1	5
1	3
1	5
1	11
1	261
1	261
1	261
1	261
1	31
1	261
1	261
1	261
1	7
1	261
1	261
1	261
1	29
1	8
1	261
1	9
1	261
1	261
1	6
1	261
1	261
1	12
1	31
1	5
1	2
1	21
1	261
1	261
1	6
1	261
1	6
1	6
1	9
1	21
1	7
1	9
1	8
1	31
1	21
1	5
1	6
1	261
1	261
1	261
1	17
1	5
1	5
1	261
1	261
1	6
1	5
1	261
1	261
1	261
1	261
1	261
1	31
1	261
1	261
1	17
1	31
1	261
1	261
1	10
1	261
1	261
1	21
1	4
1	5
1	261
1	21
1	9
1	261
1	10
1	261
1	5
1	261
1	261
1	4
1	261
1	261
1	261
1	6
1	261
1	5
1	261
1	3
1	11
1	261
1	261
1	5
1	261
1	17
1	261
1	7
1	5
1	261
1	261
1	29
1	7
1	5
1	261
1	4
1	6
1	261
1	31
1	261
1	12
1	261
1	12
1	261
1	261
1	261
1	3
1	31
1	7
1	261
1	261
1	261
1	17
1	261
1	261
1	29
1	5
1	5
1	4
1	6
1	4
1	261
1	4
1	4
1	4
1	8
1	5
1	261
1	261
1	10
1	261
1	261
1	261
1	261
1	6
1	7
1	261
1	261
1	261
1	5
1	4
1	8
1	5
1	6
1	261
1	261
1	5
1	31
1	261
1	5
1	261
1	3
1	9
1	261
1	4
1	261
1	261
1	6
1	261
1	4
1	261
1	6
1	261
1	261
1	261
1	261
1	29
1	6
1	29
1	29
1	5
1	261
1	261
1	10
1	261
1	261
1	261
1	261
1	31
1	261
1	10
1	261
1	3
1	261
1	261
1	261
1	29
1	5
1	261
1	261
1	261
1	261
1	261
1	10
1	261
1	4
1	261
1	261
1	3
1	29
1	261
1	261
1	4
1	261
1	7
1	261
1	261
1	5
1	261
1	29
1	5
1	29
1	8
1	261
1	261
1	31
1	4
1	261
1	6
1	261
1	261
1	261
1	11
1	261
1	261
1	10
1	261
1	3
1	21
1	261
1	261
1	261
1	10
1	261
1	261
1	31
1	10
1	261
1	261
1	5
1	261
1	261
1	261
1	7
1	261
2	5
2	3
2	6
2	4
2	4
2	6
2	8
2	8
2	6
2	261
2	3
2	261
2	4
2	31
2	4
2	3
2	3
2	5
2	8
2	3
2	4
2	8
2	6
2	8
2	6
2	4
2	4
2	12
2	4
2	10
2	4
2	4
2	3
2	4
2	5
2	6
2	3
2	10
3	7
3	4
3	7
3	4
3	6
3	4
3	7


