# Persistence diagram </home/jens/Uni/data_topology/Project/reddit_results/graphs/0557-1.gml>
#
# Dimension   : 0
# Entries     : 1021
# Betti number: 2
1	inf
1	24
1	19
1	9
1	468
1	20
1	10
1	8
1	9
1	468
1	13
1	10
1	8
1	468
1	468
1	468
1	6
1	22
1	16
1	8
1	468
1	13
1	10
1	468
1	468
1	468
1	468
1	468
1	15
1	7
1	468
1	15
1	468
1	18
1	468
1	468
1	468
1	468
1	468
1	468
1	468
1	468
1	12
1	468
1	468
1	22
1	15
1	10
1	6
1	15
1	468
1	22
1	468
1	4
1	22
1	468
1	10
1	12
1	13
1	468
1	20
1	22
1	468
1	468
1	468
1	7
1	468
1	7
1	468
1	10
1	15
1	10
1	10
1	468
1	15
1	13
1	7
1	468
1	19
1	468
1	8
1	468
1	13
1	6
1	468
1	12
1	22
1	12
1	10
1	5
1	13
1	11
1	20
1	468
1	11
1	20
1	468
1	468
1	15
1	24
1	468
1	7
1	12
1	468
1	8
1	8
1	468
1	14
1	468
1	6
1	8
1	468
1	6
1	13
1	13
1	468
1	9
1	468
1	8
1	468
1	23
1	10
1	468
1	468
1	468
1	10
1	12
1	468
1	7
1	468
1	468
1	12
1	6
1	4
1	16
1	468
1	13
1	16
1	10
1	468
1	22
1	468
1	7
1	468
1	18
1	13
1	24
1	6
1	468
1	11
1	6
1	24
1	468
1	16
1	15
1	468
1	6
1	5
1	468
1	13
1	23
1	12
1	468
1	7
1	468
1	9
1	468
1	6
1	468
1	16
1	3
1	15
1	6
1	468
1	468
1	10
1	20
1	4
1	6
1	18
1	23
1	13
1	468
1	6
1	15
1	468
1	11
1	13
1	10
1	468
1	5
1	468
1	6
1	468
1	468
1	468
1	468
1	468
1	12
1	8
1	8
1	9
1	8
1	468
1	13
1	468
1	23
1	6
1	468
1	12
1	468
1	20
1	6
1	23
1	10
1	5
1	21
1	6
1	468
1	23
1	468
1	22
1	23
1	12
1	468
1	468
1	468
1	7
1	3
1	23
1	5
1	15
1	468
1	468
1	8
1	468
1	3
1	468
1	468
1	468
1	13
1	468
1	468
1	468
1	12
1	468
1	5
1	468
1	468
1	468
1	3
1	21
1	468
1	468
1	13
1	5
1	13
1	16
1	468
1	23
1	10
1	20
1	15
1	23
1	468
1	468
1	10
1	468
1	7
1	10
1	468
1	10
1	12
1	20
1	21
1	4
1	468
1	13
1	inf
1	468
1	468
1	468
1	15
1	15
1	18
1	4
1	468
1	21
1	468
1	6
1	468
1	468
1	468
1	7
1	8
1	4
1	468
1	468
1	468
1	15
1	6
1	468
1	468
1	6
1	4
1	23
1	23
1	15
1	468
1	468
1	5
1	4
1	10
1	468
1	12
1	468
1	23
1	468
1	468
1	12
1	15
1	468
1	12
1	468
1	21
1	4
1	22
1	13
1	10
1	22
1	9
1	468
1	16
1	468
1	13
1	18
1	22
1	468
1	4
1	468
1	5
1	16
1	10
1	468
1	468
1	468
1	468
1	3
1	22
1	22
1	468
1	15
1	13
1	9
1	468
1	10
1	468
1	6
1	21
1	22
1	468
1	24
1	5
1	468
1	16
1	10
1	7
1	468
1	468
1	13
1	21
1	9
1	4
1	9
1	24
1	6
1	10
1	22
1	468
1	10
1	468
1	6
1	9
1	468
1	468
1	468
1	3
1	7
1	6
1	20
1	7
1	12
1	468
1	468
1	468
1	468
1	21
1	10
1	22
1	468
1	468
1	24
1	8
1	468
1	468
1	468
1	9
1	468
1	13
1	9
1	9
1	468
1	468
1	24
1	468
1	468
1	7
1	16
1	6
1	468
1	468
1	5
1	21
1	468
1	468
1	6
1	468
1	20
1	6
1	3
1	468
1	468
1	10
1	8
1	24
1	23
1	22
1	13
1	468
1	7
1	6
1	19
1	6
1	468
1	7
1	468
1	9
1	3
1	5
1	7
1	9
1	9
1	468
1	468
1	10
1	5
1	468
1	468
1	8
1	6
1	24
1	4
1	9
1	7
1	468
1	11
1	8
1	6
1	14
1	7
1	468
1	19
1	468
1	468
1	468
1	11
1	468
1	468
1	22
1	23
1	468
1	468
1	4
1	21
1	10
1	468
1	468
1	6
1	6
1	10
1	468
1	20
1	19
1	18
1	5
1	468
1	16
1	4
1	468
1	8
1	468
1	23
1	10
1	23
1	7
1	6
1	16
1	468
1	468
1	468
1	6
1	468
1	468
1	468
1	24
1	8
1	11
1	468
1	5
1	15
1	468
1	15
1	468
1	21
1	7
1	10
1	468
1	6
1	6
1	468
1	7
1	468
1	468
1	9
1	3
1	468
1	468
1	468
1	12
1	3
1	5
1	12
1	20
1	468
1	468
1	6
1	12
1	468
1	21
1	9
1	468
1	6
1	9
1	468
1	9
1	12
1	13
1	468
1	468
1	9
1	468
1	10
1	468
1	9
1	468
1	468
1	468
1	468
1	9
1	468
1	468
1	468
1	5
1	9
1	468
1	6
1	468
1	3
1	10
1	468
1	7
1	468
1	7
1	10
1	468
1	468
1	468
1	10
1	15
1	468
1	12
1	4
1	12
1	3
1	15
1	11
1	22
1	9
1	468
1	24
1	468
1	5
1	12
1	20
1	14
1	5
1	468
1	4
1	5
1	23
1	468
1	8
1	9
1	6
1	468
1	14
1	468
1	23
1	468
1	468
1	9
1	5
1	468
1	7
1	4
1	3
1	9
1	468
1	23
1	468
1	22
1	6
1	4
1	468
1	468
1	22
1	468
1	468
1	12
1	7
1	468
1	468
1	20
1	13
1	4
1	19
1	468
1	468
1	6
1	6
1	7
1	5
1	468
1	4
1	468
1	468
1	14
1	5
1	468
1	468
1	7
1	468
1	10
1	468
1	4
1	18
1	468
1	468
1	6
1	468
1	12
1	468
1	6
1	10
1	13
1	468
1	21
1	3
1	5
1	5
1	468
1	24
1	9
1	12
1	6
1	12
1	468
1	4
1	3
1	468
1	15
1	23
1	468
1	468
1	12
1	20
1	5
1	12
1	468
1	16
1	468
1	21
1	15
1	13
1	6
1	13
1	15
1	468
1	468
1	468
1	468
1	468
1	10
1	468
1	468
1	10
1	7
1	4
1	13
1	7
1	8
1	468
1	468
1	10
1	4
1	468
1	468
1	468
1	12
1	3
1	468
1	11
1	4
1	11
1	3
1	12
1	468
1	468
1	468
1	8
1	468
1	5
1	468
1	468
1	12
1	8
1	5
1	468
1	19
1	24
1	468
1	7
1	13
1	468
1	20
1	9
1	9
1	16
1	6
1	7
1	468
1	12
1	468
1	9
1	468
1	8
1	22
1	9
1	468
1	468
1	468
1	24
1	468
1	4
1	9
1	468
1	468
1	22
1	468
1	468
1	11
1	8
1	19
1	7
1	4
1	468
1	468
1	4
1	468
1	8
1	5
1	468
1	468
1	468
1	468
1	468
1	468
1	468
1	8
1	468
1	20
1	468
1	468
1	13
1	468
1	468
1	5
1	468
1	468
1	10
1	5
1	468
1	5
1	468
1	20
1	9
1	13
1	5
1	468
1	6
1	13
1	468
1	468
1	3
1	468
1	15
1	18
1	4
1	9
1	4
1	7
1	20
1	468
1	13
1	7
1	20
1	3
1	24
1	468
1	468
1	468
1	5
1	4
1	23
1	23
1	468
1	468
1	468
1	468
1	13
1	10
1	4
1	18
1	11
1	9
1	468
1	4
1	468
1	468
1	468
1	468
1	6
1	468
1	15
1	23
1	468
1	468
1	15
1	468
1	6
1	4
1	468
1	19
1	16
1	468
1	4
1	6
1	3
2	3
2	5
2	6
2	12
2	21
2	11
2	3
2	6
2	3
2	5
2	3
2	5
2	5
2	9
2	9
2	4
2	6
2	12
2	3
2	6
2	3
2	3
2	5
2	3
2	4
2	4
2	6
2	5
2	6
2	4
2	3
2	3
2	9
2	6
2	4
2	4
2	9
2	7
2	9
2	3
2	4
2	7
2	14
2	468
2	4
2	4
2	4
2	24
2	7
2	8
2	8
2	7
2	3
2	3
2	3
2	12
2	14
2	5
2	5
2	6
2	6
2	4
2	3
2	18
2	6
2	3
2	9
2	3
2	9
2	4
2	7
2	4
2	6
2	6
2	5
2	4
2	8
2	4
2	6
2	6
2	11
2	4
2	20
2	3
2	9
2	5
2	23
2	5
2	5
2	6
2	15
2	7
2	5
2	21
2	9
2	4
2	4
2	6
2	3
2	20
2	11
2	6
2	4
2	6
2	3
2	5
2	9
2	7
2	6
2	3
2	3
2	10
2	5
2	22
2	3
2	5
2	3
2	3
2	6
2	12
2	16
2	13
2	5
2	12
2	5
2	9
2	3
2	9
2	3
2	3
3	10
3	5
3	9
3	8
3	4
3	4
3	6
3	8
3	16
3	6
3	6
4	5
4	12


