# Persistence diagram </home/jens/Uni/data_topology/Project/reddit_results/graphs/0560-1.gml>
#
# Dimension   : 1
# Entries     : 312
# Betti number: 312
4	inf
4	inf
5	inf
5	inf
5	inf
5	inf
5	inf
6	inf
6	inf
6	inf
6	inf
6	inf
6	inf
7	inf
7	inf
8	inf
8	inf
8	inf
8	inf
8	inf
8	inf
9	inf
9	inf
9	inf
9	inf
9	inf
9	inf
9	inf
9	inf
9	inf
9	inf
10	inf
10	inf
10	inf
10	inf
10	inf
10	inf
10	inf
10	inf
10	inf
11	inf
11	inf
11	inf
11	inf
11	inf
11	inf
11	inf
11	inf
11	inf
11	inf
11	inf
11	inf
11	inf
11	inf
11	inf
11	inf
11	inf
11	inf
11	inf
11	inf
11	inf
12	inf
12	inf
12	inf
12	inf
12	inf
12	inf
12	inf
12	inf
12	inf
12	inf
13	inf
13	inf
13	inf
13	inf
13	inf
13	inf
13	inf
13	inf
13	inf
13	inf
13	inf
13	inf
13	inf
13	inf
13	inf
13	inf
13	inf
13	inf
13	inf
13	inf
13	inf
13	inf
13	inf
13	inf
13	inf
14	inf
14	inf
14	inf
14	inf
14	inf
14	inf
14	inf
14	inf
14	inf
14	inf
14	inf
14	inf
14	inf
14	inf
14	inf
14	inf
14	inf
14	inf
14	inf
14	inf
14	inf
14	inf
15	inf
15	inf
15	inf
15	inf
15	inf
15	inf
15	inf
15	inf
15	inf
15	inf
15	inf
15	inf
15	inf
16	inf
16	inf
18	inf
18	inf
18	inf
18	inf
18	inf
18	inf
18	inf
18	inf
18	inf
18	inf
18	inf
18	inf
18	inf
18	inf
18	inf
18	inf
18	inf
18	inf
19	inf
19	inf
19	inf
19	inf
19	inf
19	inf
19	inf
19	inf
19	inf
19	inf
19	inf
19	inf
19	inf
19	inf
22	inf
22	inf
22	inf
22	inf
22	inf
22	inf
23	inf
23	inf
23	inf
23	inf
23	inf
23	inf
23	inf
23	inf
23	inf
23	inf
23	inf
23	inf
23	inf
23	inf
23	inf
23	inf
23	inf
23	inf
23	inf
23	inf
23	inf
23	inf
23	inf
23	inf
26	inf
26	inf
26	inf
26	inf
26	inf
26	inf
26	inf
26	inf
26	inf
26	inf
26	inf
26	inf
26	inf
26	inf
26	inf
26	inf
26	inf
26	inf
26	inf
26	inf
26	inf
45	inf
45	inf
45	inf
45	inf
45	inf
45	inf
45	inf
45	inf
45	inf
45	inf
45	inf
45	inf
45	inf
45	inf
254	inf
254	inf
254	inf
254	inf
254	inf
254	inf
254	inf
254	inf
254	inf
254	inf
254	inf
254	inf
254	inf
254	inf
254	inf
254	inf
254	inf
254	inf
254	inf
254	inf
254	inf
254	inf
254	inf
254	inf
254	inf
254	inf
254	inf
254	inf
254	inf
254	inf
254	inf
254	inf
254	inf
254	inf
254	inf
254	inf
254	inf
254	inf
254	inf
254	inf
254	inf
254	inf
254	inf
254	inf
254	inf
254	inf
254	inf
254	inf
254	inf
254	inf
254	inf
254	inf
254	inf
254	inf
254	inf
254	inf
254	inf
254	inf
254	inf
254	inf
254	inf
254	inf
254	inf
254	inf
254	inf
254	inf
254	inf
254	inf
254	inf
254	inf
254	inf
254	inf
254	inf
254	inf
254	inf
254	inf
254	inf
254	inf
254	inf
254	inf
254	inf
254	inf
