# Persistence diagram </home/jens/Uni/data_topology/Project/reddit_results/graphs/0560-1.gml>
#
# Dimension   : 0
# Entries     : 1350
# Betti number: 19
1	inf
1	12
1	254
1	14
1	8
1	7
1	254
1	254
1	254
1	12
1	7
1	12
1	14
1	18
1	7
1	7
1	9
1	8
1	13
1	9
1	23
1	18
1	254
1	4
1	254
1	9
1	12
1	10
1	10
1	12
1	18
1	12
1	11
1	19
1	254
1	8
1	254
1	14
1	10
1	8
1	6
1	12
1	254
1	6
1	18
1	8
1	254
1	18
1	12
1	8
1	45
1	12
1	6
1	23
1	15
1	9
1	13
1	45
1	18
1	6
1	14
1	7
1	23
1	11
1	12
1	26
1	12
1	22
1	6
1	254
1	13
1	8
1	8
1	12
1	7
1	9
1	7
1	6
1	22
1	12
1	13
1	6
1	11
1	9
1	13
1	inf
1	18
1	15
1	8
1	10
1	6
1	inf
1	45
1	16
1	7
1	254
1	15
1	254
1	4
1	19
1	8
1	13
1	254
1	18
1	11
1	8
1	11
1	5
1	254
1	13
1	10
1	26
1	254
1	12
1	inf
1	15
1	254
1	6
1	13
1	15
1	10
1	254
1	18
1	18
1	11
1	18
1	9
1	15
1	254
1	23
1	7
1	6
1	254
1	12
1	254
1	18
1	11
1	12
1	12
1	23
1	16
1	12
1	254
1	inf
1	45
1	inf
1	8
1	14
1	13
1	18
1	8
1	254
1	9
1	5
1	12
1	23
1	7
1	254
1	26
1	5
1	13
1	12
1	13
1	4
1	13
1	9
1	11
1	12
1	23
1	254
1	254
1	254
1	7
1	11
1	inf
1	254
1	23
1	254
1	11
1	7
1	inf
1	14
1	254
1	5
1	11
1	7
1	6
1	7
1	5
1	18
1	12
1	18
1	4
1	4
1	254
1	11
1	254
1	7
1	5
1	23
1	13
1	9
1	8
1	23
1	9
1	254
1	254
1	254
1	23
1	12
1	254
1	15
1	8
1	26
1	8
1	12
1	13
1	13
1	5
1	254
1	4
1	12
1	23
1	8
1	14
1	8
1	4
1	14
1	254
1	4
1	14
1	inf
1	9
1	4
1	19
1	12
1	254
1	7
1	5
1	45
1	23
1	inf
1	9
1	12
1	14
1	4
1	inf
1	12
1	12
1	18
1	45
1	16
1	13
1	14
1	4
1	8
1	15
1	254
1	10
1	5
1	4
1	7
1	45
1	13
1	12
1	15
1	13
1	22
1	254
1	7
1	23
1	23
1	12
1	11
1	9
1	11
1	26
1	12
1	7
1	11
1	254
1	14
1	23
1	15
1	inf
1	23
1	7
1	23
1	5
1	6
1	9
1	4
1	5
1	254
1	7
1	254
1	11
1	7
1	4
1	4
1	254
1	254
1	inf
1	15
1	11
1	5
1	45
1	26
1	7
1	4
1	45
1	10
1	9
1	254
1	3
1	5
1	254
1	254
1	254
1	19
1	254
1	7
1	254
1	18
1	5
1	254
1	5
1	6
1	9
1	14
1	11
1	5
1	254
1	5
1	11
1	15
1	5
1	13
1	12
1	254
1	13
1	16
1	9
1	19
1	12
1	8
1	10
1	16
1	11
1	254
1	22
1	26
1	7
1	26
1	3
1	254
1	12
1	254
1	7
1	16
1	11
1	26
1	inf
1	4
1	13
1	18
1	7
1	4
1	7
1	18
1	8
1	5
1	11
1	26
1	6
1	10
1	7
1	22
1	23
1	11
1	12
1	254
1	12
1	10
1	14
1	9
1	254
1	13
1	15
1	254
1	254
1	254
1	8
1	7
1	254
1	26
1	6
1	11
1	6
1	12
1	5
1	7
1	254
1	14
1	9
1	6
1	6
1	254
1	6
1	13
1	6
1	12
1	13
1	5
1	19
1	7
1	23
1	5
1	254
1	13
1	13
1	10
1	13
1	7
1	22
1	4
1	9
1	4
1	5
1	23
1	12
1	10
1	13
1	22
1	26
1	6
1	13
1	254
1	13
1	14
1	7
1	4
1	23
1	8
1	13
1	14
1	254
1	11
1	7
1	11
1	11
1	13
1	22
1	7
1	6
1	3
1	5
1	254
1	12
1	254
1	14
1	6
1	7
1	10
1	26
1	12
1	19
1	254
1	7
1	14
1	26
1	4
1	4
1	5
1	7
1	11
1	12
1	13
1	6
1	26
1	12
1	7
1	12
1	9
1	8
1	14
1	19
1	13
1	11
1	10
1	5
1	45
1	10
1	11
1	9
1	45
1	8
1	18
1	22
1	254
1	12
1	6
1	7
1	13
1	26
1	13
1	11
1	8
1	26
1	4
1	13
1	9
1	16
1	6
1	5
1	19
1	9
1	22
1	9
1	254
1	6
1	254
1	5
1	inf
1	4
1	7
1	13
1	11
1	3
1	12
1	8
1	11
1	15
1	7
1	2
1	9
1	3
1	4
1	15
1	7
1	13
1	5
1	5
1	13
1	9
1	254
1	254
1	254
1	6
1	5
1	14
1	12
1	7
1	6
1	13
1	9
1	254
1	9
1	9
1	3
1	9
1	7
1	15
1	11
1	14
1	4
1	inf
1	22
1	254
1	19
1	254
1	18
1	13
1	254
1	8
1	12
1	254
1	4
1	254
1	inf
1	13
1	254
1	254
1	6
1	7
1	26
1	4
1	8
1	254
1	12
1	15
1	9
1	14
1	15
1	13
1	7
1	5
1	7
1	13
1	10
1	14
1	254
1	254
1	15
1	9
1	13
1	10
1	254
1	10
1	3
1	254
1	14
1	254
1	5
1	11
1	7
1	15
1	4
1	7
1	13
1	12
1	254
1	254
1	15
1	8
1	254
1	11
1	12
1	3
1	12
1	5
1	5
1	5
1	7
1	13
1	19
1	6
1	5
1	5
1	4
1	inf
1	11
1	254
1	5
1	9
1	9
1	10
1	254
1	5
1	11
1	14
1	6
1	9
1	11
1	3
1	254
1	5
1	254
1	12
1	254
1	13
1	15
1	15
1	6
1	5
1	5
1	3
1	8
1	10
1	8
1	254
1	9
1	4
1	45
1	16
1	254
1	inf
1	18
1	254
1	12
1	5
1	3
1	6
1	12
1	8
1	3
1	45
1	7
1	5
1	254
1	254
1	3
1	23
1	8
1	19
1	8
1	12
1	11
1	26
1	11
1	254
1	13
1	13
1	5
1	7
1	13
1	23
1	254
1	8
1	254
1	5
1	5
1	7
1	5
1	14
1	8
1	26
1	45
1	15
1	6
1	12
1	6
1	6
1	254
1	4
1	9
1	19
1	254
1	7
1	8
1	254
1	12
1	7
1	15
1	254
1	13
1	254
1	45
1	254
1	18
1	5
1	19
1	19
1	7
1	7
1	11
1	9
1	12
1	7
1	254
1	11
1	7
1	13
1	15
1	254
1	254
1	23
1	254
1	9
1	13
1	18
1	23
1	14
1	14
1	15
1	7
1	14
1	23
1	9
1	6
1	3
1	12
1	10
1	23
1	6
1	5
1	11
1	6
1	11
1	254
1	14
1	254
1	7
1	14
1	8
1	3
1	10
1	7
1	3
1	4
1	11
1	254
1	5
1	11
1	11
1	7
1	23
1	18
1	6
1	6
1	11
1	5
1	23
1	10
1	5
1	18
1	254
1	254
1	7
1	254
1	4
1	6
1	5
1	2
1	14
1	7
1	12
1	26
1	23
1	14
1	4
1	7
1	7
1	4
1	8
1	5
1	12
1	6
1	18
1	11
1	16
1	12
1	4
1	8
1	45
1	8
1	254
1	254
1	5
1	10
1	6
1	7
1	13
1	6
1	15
1	254
1	7
1	5
1	254
1	11
1	5
1	4
1	3
1	254
1	11
1	45
1	15
1	5
1	3
1	5
1	13
1	23
1	5
1	12
1	45
1	12
1	254
1	26
1	5
1	13
1	14
1	8
1	18
1	7
1	13
1	254
1	3
1	10
1	4
1	8
1	9
1	26
1	5
1	3
1	5
1	9
1	4
1	254
1	9
1	4
1	5
1	6
1	5
1	7
1	19
1	10
1	18
1	13
1	6
1	13
1	5
1	254
1	18
1	12
1	9
1	6
1	9
1	3
1	254
1	7
1	6
1	45
1	9
1	254
1	5
1	7
1	254
1	254
1	5
1	8
1	254
1	3
1	26
1	14
1	14
1	11
1	6
1	5
1	9
1	4
1	4
1	254
1	3
1	18
1	3
1	8
1	254
1	12
1	12
1	7
1	5
1	5
1	16
1	7
1	10
1	7
1	13
1	3
1	19
1	14
1	15
1	9
1	12
1	4
1	7
1	7
1	3
1	4
1	8
1	45
1	11
1	5
1	4
1	15
1	11
1	254
1	5
1	9
1	5
1	4
1	18
1	254
1	10
1	4
1	8
1	254
1	10
1	3
1	4
1	45
1	9
1	8
1	13
1	11
1	19
1	254
1	254
1	13
1	8
1	254
1	16
1	2
1	11
1	13
1	13
1	18
1	7
1	9
1	9
1	5
1	7
1	8
1	7
1	18
1	254
1	13
1	8
1	254
1	5
1	12
1	22
1	254
1	5
1	254
1	23
1	254
1	254
1	4
1	19
1	254
1	5
1	12
1	8
1	12
1	18
1	6
1	254
1	4
1	45
1	8
1	6
1	12
1	254
1	14
1	18
1	6
1	22
1	4
1	6
1	10
1	45
1	12
1	8
1	15
1	6
1	13
1	254
1	254
1	4
1	7
1	13
1	26
1	45
1	12
1	13
1	5
1	6
1	22
1	16
1	18
1	18
1	5
1	45
1	5
1	12
1	5
1	5
1	14
1	15
1	13
1	18
1	254
1	5
1	23
1	23
1	3
1	9
1	7
1	14
1	5
1	12
1	3
1	7
1	4
1	4
1	4
1	2
1	14
1	26
1	13
1	12
1	6
1	5
1	3
1	6
1	12
1	14
1	7
1	12
1	13
1	4
1	4
1	4
1	14
1	12
1	6
1	18
1	254
1	7
1	254
1	5
1	5
1	8
1	18
1	15
1	7
1	254
1	23
1	254
1	9
1	6
1	11
1	23
1	10
1	18
1	254
1	45
1	13
1	45
1	4
1	5
1	6
1	23
1	254
1	10
1	9
1	254
1	15
1	254
1	254
1	12
1	254
1	4
1	7
1	13
1	5
1	3
1	9
1	4
1	7
1	7
1	12
1	12
1	7
1	7
1	254
1	14
1	4
1	19
1	5
1	26
1	5
1	11
1	5
1	14
1	12
1	3
1	12
1	254
2	4
2	4
2	8
2	13
2	11
2	3
2	7
2	10
2	4
2	3
2	18
2	4
2	5
2	5
2	3
2	5
2	3
2	10
2	6
2	14
2	4
2	8
2	254
2	12
2	4
2	3
2	3
2	10
2	12
2	4
2	3
2	5
2	3
2	4
2	3
2	4
2	5
2	4
2	3
2	4
2	3
2	3
2	7
2	6
2	6
2	5
2	4
2	11
2	3
2	7
2	12
2	7
2	4
2	4
2	4
2	3
2	5
2	5
2	4
2	5
2	4
2	7
2	7
2	8
2	12
2	3
2	4
2	4
2	7
2	45
2	4
2	12
2	7
2	7
2	5
2	6
2	6
2	3
2	4
2	6
2	3
2	4
2	4
2	4
2	13
2	5
2	7
2	5
2	4
2	4
2	4
2	5
2	3
2	9
2	6
2	4
2	7
2	45
2	3
2	3
2	14
2	3
2	4
2	4
2	11
2	5
2	4
2	8
2	4
2	4
2	6
2	12
2	6
2	3
2	4
2	7
2	4
2	3
2	4
2	8
2	3
2	3
2	7
2	4
2	12
2	3
2	3
2	3
2	3
2	26
2	22
2	18
2	4
2	4
2	5
2	3
2	5
2	7
2	5
2	5
2	4
2	5
2	4
2	3
2	4
2	7
2	8
2	3
2	3
2	3
2	6
2	7
2	6
2	6
2	6
2	5
2	5
2	5
2	9
2	3
2	7
2	4
2	9
2	15
3	14
3	4
3	5
3	4
3	5
3	5
3	5
3	7
3	6
3	5
3	7
3	10
3	6
3	5
3	7
3	8
3	5


