# Persistence diagram </home/jens/Uni/data_topology/Project/reddit_results/graphs/0561-1.gml>
#
# Dimension   : 0
# Entries     : 1227
# Betti number: 1
1	inf
1	9
1	17
1	65
1	7
1	7
1	41
1	391
1	8
1	391
1	19
1	9
1	14
1	7
1	19
1	15
1	391
1	391
1	15
1	4
1	391
1	11
1	12
1	14
1	19
1	18
1	7
1	41
1	391
1	19
1	391
1	391
1	21
1	18
1	391
1	18
1	65
1	391
1	27
1	9
1	9
1	65
1	14
1	19
1	12
1	12
1	13
1	12
1	391
1	7
1	12
1	12
1	6
1	7
1	13
1	6
1	10
1	13
1	8
1	391
1	13
1	21
1	391
1	391
1	7
1	391
1	15
1	6
1	8
1	391
1	391
1	6
1	17
1	17
1	65
1	16
1	7
1	391
1	9
1	19
1	391
1	391
1	10
1	10
1	391
1	21
1	5
1	391
1	391
1	6
1	391
1	11
1	10
1	12
1	391
1	19
1	391
1	391
1	6
1	21
1	19
1	15
1	391
1	23
1	17
1	16
1	27
1	13
1	16
1	391
1	11
1	6
1	10
1	7
1	391
1	9
1	13
1	14
1	11
1	16
1	14
1	41
1	4
1	391
1	11
1	9
1	7
1	13
1	12
1	19
1	16
1	391
1	15
1	8
1	27
1	15
1	11
1	8
1	17
1	9
1	12
1	6
1	12
1	391
1	391
1	15
1	19
1	391
1	18
1	19
1	391
1	6
1	391
1	391
1	5
1	13
1	391
1	9
1	21
1	391
1	391
1	9
1	18
1	15
1	391
1	391
1	15
1	391
1	16
1	15
1	19
1	391
1	391
1	14
1	19
1	7
1	6
1	391
1	391
1	12
1	14
1	391
1	391
1	15
1	7
1	11
1	19
1	391
1	11
1	19
1	17
1	16
1	391
1	391
1	391
1	391
1	3
1	19
1	65
1	41
1	8
1	9
1	41
1	391
1	14
1	15
1	41
1	18
1	391
1	9
1	6
1	391
1	391
1	65
1	391
1	15
1	12
1	391
1	21
1	5
1	391
1	9
1	10
1	391
1	391
1	9
1	14
1	391
1	4
1	11
1	391
1	391
1	7
1	9
1	15
1	18
1	391
1	15
1	391
1	391
1	19
1	391
1	391
1	16
1	391
1	11
1	10
1	391
1	391
1	19
1	6
1	7
1	391
1	391
1	391
1	391
1	391
1	5
1	5
1	14
1	19
1	12
1	7
1	15
1	13
1	391
1	18
1	391
1	9
1	21
1	9
1	13
1	10
1	391
1	41
1	391
1	10
1	14
1	10
1	391
1	391
1	391
1	391
1	9
1	15
1	8
1	13
1	19
1	11
1	391
1	19
1	391
1	11
1	7
1	65
1	12
1	15
1	11
1	12
1	15
1	391
1	11
1	391
1	19
1	14
1	14
1	8
1	7
1	391
1	21
1	11
1	391
1	391
1	12
1	41
1	18
1	9
1	21
1	9
1	21
1	12
1	14
1	13
1	16
1	12
1	7
1	4
1	9
1	391
1	391
1	15
1	391
1	7
1	27
1	5
1	16
1	19
1	15
1	391
1	19
1	391
1	17
1	21
1	391
1	27
1	18
1	19
1	7
1	5
1	9
1	65
1	13
1	391
1	10
1	10
1	7
1	65
1	12
1	13
1	11
1	3
1	391
1	6
1	15
1	65
1	15
1	5
1	391
1	21
1	391
1	10
1	10
1	12
1	23
1	21
1	7
1	8
1	391
1	391
1	15
1	10
1	41
1	391
1	391
1	18
1	13
1	21
1	14
1	21
1	391
1	391
1	7
1	9
1	19
1	13
1	65
1	6
1	391
1	14
1	391
1	15
1	9
1	21
1	19
1	7
1	8
1	391
1	12
1	9
1	41
1	3
1	391
1	391
1	18
1	6
1	10
1	391
1	65
1	7
1	19
1	5
1	13
1	12
1	6
1	15
1	391
1	18
1	391
1	9
1	391
1	17
1	391
1	391
1	18
1	7
1	15
1	12
1	12
1	391
1	12
1	391
1	391
1	10
1	391
1	391
1	65
1	6
1	391
1	8
1	391
1	8
1	10
1	8
1	8
1	391
1	6
1	391
1	9
1	14
1	11
1	3
1	65
1	11
1	19
1	391
1	13
1	391
1	391
1	14
1	13
1	8
1	27
1	23
1	16
1	7
1	65
1	13
1	6
1	14
1	7
1	19
1	391
1	8
1	391
1	391
1	41
1	391
1	15
1	18
1	10
1	7
1	9
1	19
1	391
1	21
1	391
1	3
1	65
1	12
1	9
1	6
1	16
1	3
1	19
1	5
1	391
1	13
1	391
1	391
1	15
1	19
1	10
1	15
1	65
1	9
1	391
1	391
1	65
1	13
1	391
1	13
1	9
1	23
1	12
1	21
1	65
1	21
1	8
1	9
1	8
1	391
1	7
1	13
1	9
1	4
1	41
1	391
1	391
1	391
1	21
1	391
1	10
1	391
1	16
1	17
1	3
1	391
1	391
1	391
1	23
1	12
1	12
1	391
1	391
1	8
1	391
1	23
1	391
1	18
1	10
1	391
1	27
1	391
1	9
1	391
1	391
1	9
1	6
1	7
1	391
1	391
1	12
1	391
1	5
1	65
1	391
1	15
1	391
1	391
1	391
1	391
1	391
1	391
1	391
1	8
1	3
1	7
1	13
1	391
1	391
1	65
1	7
1	23
1	19
1	9
1	23
1	12
1	21
1	8
1	391
1	9
1	41
1	391
1	41
1	7
1	391
1	13
1	391
1	391
1	9
1	7
1	10
1	12
1	21
1	9
1	7
1	12
1	15
1	4
1	11
1	12
1	6
1	5
1	391
1	8
1	391
1	18
1	12
1	18
1	391
1	6
1	391
1	391
1	65
1	391
1	5
1	391
1	14
1	391
1	41
1	9
1	391
1	14
1	12
1	12
1	17
1	7
1	391
1	391
1	23
1	4
1	391
1	19
1	11
1	6
1	12
1	16
1	17
1	391
1	8
1	391
1	19
1	13
1	391
1	11
1	7
1	23
1	21
1	15
1	391
1	27
1	10
1	391
1	21
1	391
1	391
1	7
1	9
1	10
1	7
1	7
1	391
1	391
1	391
1	16
1	41
1	391
1	19
1	15
1	4
1	3
1	7
1	19
1	19
1	65
1	65
1	15
1	391
1	16
1	391
1	5
1	5
1	391
1	17
1	12
1	6
1	10
1	15
1	19
1	10
1	11
1	7
1	14
1	7
1	391
1	391
1	5
1	13
1	65
1	13
1	8
1	13
1	6
1	15
1	17
1	4
1	7
1	14
1	391
1	19
1	9
1	9
1	391
1	6
1	21
1	41
1	391
1	16
1	6
1	7
1	9
1	7
1	65
1	21
1	391
1	41
1	7
1	391
1	16
1	391
1	8
1	18
1	14
1	6
1	14
1	19
1	13
1	11
1	10
1	12
1	391
1	27
1	12
1	65
1	16
1	391
1	27
1	15
1	4
1	7
1	65
1	12
1	18
1	10
1	5
1	16
1	6
1	12
1	391
1	4
1	4
1	7
1	9
1	6
1	9
1	11
1	15
1	41
1	3
1	3
1	11
1	4
1	5
1	5
1	15
1	391
1	10
1	391
1	9
1	8
1	391
1	7
1	391
1	15
1	6
1	391
1	391
1	391
1	10
1	391
1	17
1	3
1	19
1	7
1	5
1	391
1	9
1	10
1	19
1	27
1	391
1	7
1	3
1	5
1	10
1	3
1	391
1	16
1	7
1	10
1	7
1	11
1	391
1	10
1	391
1	65
1	6
1	17
1	12
1	391
1	65
1	13
1	391
1	7
1	391
1	391
1	391
1	16
1	391
1	391
1	4
1	41
1	391
1	19
1	3
1	15
1	15
1	7
1	15
1	16
1	15
1	391
1	15
1	7
1	19
1	13
1	19
1	3
1	9
1	7
1	7
1	27
1	9
1	391
1	391
1	9
1	6
1	391
1	17
1	8
1	391
1	391
1	11
1	6
1	391
1	19
1	391
1	7
1	391
1	65
1	19
1	391
1	9
1	4
1	19
1	11
1	15
1	15
1	10
1	12
1	41
1	11
1	3
1	391
1	391
1	4
1	18
1	5
1	391
1	9
1	391
1	7
1	391
1	11
1	5
1	17
1	5
1	3
1	15
1	9
1	7
1	65
1	15
1	391
1	6
1	19
1	391
1	41
1	12
1	4
1	13
1	6
1	65
1	8
1	391
1	13
1	391
1	391
1	7
1	391
1	18
1	6
1	8
1	3
1	13
1	13
1	391
1	391
1	391
1	10
1	15
1	391
1	391
1	8
1	391
1	21
1	7
1	65
1	391
1	23
1	391
1	4
1	12
1	391
1	3
1	23
1	16
1	17
1	391
1	19
1	5
1	65
1	6
1	5
1	391
1	6
1	391
1	6
1	391
1	391
1	8
1	19
1	391
1	12
1	391
1	6
1	391
1	19
1	4
1	41
1	4
1	65
1	4
1	21
1	13
1	27
1	391
1	7
1	10
1	391
1	391
1	15
1	391
1	391
1	8
1	14
1	7
1	391
1	19
1	9
1	18
1	391
1	7
1	391
1	6
1	391
1	16
1	6
1	65
1	16
1	391
1	391
1	15
1	391
1	5
1	7
1	12
1	391
1	10
1	9
1	7
1	391
1	7
1	19
1	391
1	391
1	3
1	8
1	14
1	11
1	6
1	391
1	16
1	19
1	391
1	391
1	6
1	12
1	4
1	13
1	6
1	11
1	391
1	8
1	13
1	12
1	3
1	391
1	7
1	6
1	18
1	4
1	391
1	7
1	12
2	7
2	9
2	21
2	4
2	391
2	7
2	10
2	12
2	17
2	5
2	9
2	5
2	3
2	6
2	391
2	6
2	3
2	12
2	12
2	12
2	12
2	6
2	7
2	9
2	7
2	14
2	5
2	12
2	3
2	4
2	11
2	3
2	12
2	5
2	3
2	18
2	3
2	13
2	14
2	391
2	3
2	391
2	3
2	13
2	9
2	19
2	17
2	4
2	9
2	19
2	16
2	391
2	6
2	11
2	5
2	6
2	12
2	11
2	7
2	12
2	391
2	14
2	3
2	19
2	9
2	13
2	3
2	4
2	18
2	19
2	10
2	3
2	8
2	5
2	3
2	6
2	12
2	6
2	9
2	15
2	4
2	5
2	6
2	41
2	8
2	6
2	11
2	9
2	3
2	9
2	12
2	5
2	5
2	6
2	13
2	27
2	11
2	7
2	3
2	4
2	12
2	14
2	8
2	15
2	3
2	9
2	13
2	14
2	3
2	23
2	8
2	7
2	4
2	4
2	10
2	3
2	4
2	4
2	5
2	5
2	7
2	9
2	10
2	21
2	8
2	7
2	7
2	9
2	4
2	4
2	18
2	8
2	12
2	7
2	10
3	14
3	4
3	11
3	4
3	17
3	5
3	6
3	7
3	11
3	9
3	5
3	7
3	7
3	5
3	10
3	6
3	4
3	4
3	14
3	4
3	6
3	5
3	4
4	7
4	7
4	14
4	5


