# Persistence diagram </home/jens/Uni/data_topology/Project/reddit_results/graphs/0561-1.gml>
#
# Dimension   : 1
# Entries     : 373
# Betti number: 373
7	inf
7	inf
7	inf
7	inf
7	inf
7	inf
8	inf
8	inf
8	inf
8	inf
8	inf
8	inf
8	inf
8	inf
8	inf
8	inf
9	inf
9	inf
9	inf
9	inf
9	inf
9	inf
9	inf
9	inf
9	inf
9	inf
10	inf
10	inf
10	inf
10	inf
10	inf
10	inf
10	inf
10	inf
10	inf
10	inf
10	inf
10	inf
10	inf
10	inf
10	inf
11	inf
11	inf
11	inf
11	inf
11	inf
11	inf
11	inf
11	inf
11	inf
11	inf
12	inf
12	inf
12	inf
12	inf
12	inf
12	inf
12	inf
12	inf
12	inf
12	inf
12	inf
12	inf
12	inf
12	inf
12	inf
12	inf
12	inf
12	inf
12	inf
12	inf
12	inf
13	inf
13	inf
13	inf
13	inf
13	inf
13	inf
13	inf
13	inf
13	inf
13	inf
13	inf
13	inf
13	inf
13	inf
13	inf
13	inf
13	inf
13	inf
13	inf
13	inf
13	inf
13	inf
13	inf
14	inf
14	inf
14	inf
14	inf
14	inf
14	inf
14	inf
14	inf
14	inf
14	inf
14	inf
14	inf
15	inf
15	inf
15	inf
15	inf
15	inf
15	inf
15	inf
15	inf
15	inf
15	inf
15	inf
15	inf
15	inf
15	inf
15	inf
15	inf
15	inf
15	inf
15	inf
15	inf
15	inf
15	inf
15	inf
16	inf
16	inf
16	inf
16	inf
16	inf
16	inf
16	inf
16	inf
16	inf
16	inf
16	inf
16	inf
16	inf
16	inf
17	inf
17	inf
17	inf
17	inf
17	inf
17	inf
17	inf
17	inf
17	inf
18	inf
18	inf
18	inf
18	inf
18	inf
18	inf
18	inf
18	inf
18	inf
18	inf
18	inf
18	inf
18	inf
18	inf
18	inf
18	inf
18	inf
18	inf
18	inf
18	inf
18	inf
18	inf
18	inf
19	inf
19	inf
19	inf
19	inf
19	inf
19	inf
19	inf
19	inf
19	inf
19	inf
19	inf
19	inf
19	inf
19	inf
19	inf
19	inf
19	inf
19	inf
19	inf
19	inf
19	inf
19	inf
19	inf
21	inf
21	inf
21	inf
21	inf
21	inf
21	inf
21	inf
21	inf
21	inf
21	inf
21	inf
21	inf
21	inf
21	inf
21	inf
21	inf
21	inf
21	inf
21	inf
21	inf
21	inf
21	inf
21	inf
21	inf
21	inf
21	inf
21	inf
21	inf
23	inf
23	inf
23	inf
23	inf
23	inf
23	inf
23	inf
23	inf
23	inf
27	inf
27	inf
27	inf
27	inf
27	inf
27	inf
27	inf
27	inf
27	inf
27	inf
41	inf
41	inf
41	inf
41	inf
41	inf
41	inf
41	inf
41	inf
41	inf
41	inf
41	inf
41	inf
41	inf
41	inf
41	inf
65	inf
65	inf
65	inf
65	inf
65	inf
65	inf
65	inf
65	inf
65	inf
65	inf
65	inf
65	inf
65	inf
65	inf
65	inf
65	inf
65	inf
65	inf
65	inf
65	inf
65	inf
65	inf
65	inf
65	inf
65	inf
65	inf
65	inf
391	inf
391	inf
391	inf
391	inf
391	inf
391	inf
391	inf
391	inf
391	inf
391	inf
391	inf
391	inf
391	inf
391	inf
391	inf
391	inf
391	inf
391	inf
391	inf
391	inf
391	inf
391	inf
391	inf
391	inf
391	inf
391	inf
391	inf
391	inf
391	inf
391	inf
391	inf
391	inf
391	inf
391	inf
391	inf
391	inf
391	inf
391	inf
391	inf
391	inf
391	inf
391	inf
391	inf
391	inf
391	inf
391	inf
391	inf
391	inf
391	inf
391	inf
391	inf
391	inf
391	inf
391	inf
391	inf
391	inf
391	inf
391	inf
391	inf
391	inf
391	inf
391	inf
391	inf
391	inf
391	inf
391	inf
391	inf
391	inf
391	inf
391	inf
391	inf
391	inf
391	inf
391	inf
391	inf
391	inf
391	inf
391	inf
391	inf
391	inf
391	inf
391	inf
391	inf
391	inf
391	inf
