# Persistence diagram </home/jens/Uni/data_topology/Project/reddit_results/graphs/0568-1.gml>
#
# Dimension   : 0
# Entries     : 1421
# Betti number: 1
1	inf
1	726
1	726
1	726
1	23
1	726
1	17
1	8
1	7
1	726
1	726
1	10
1	726
1	726
1	726
1	726
1	726
1	16
1	726
1	726
1	14
1	9
1	726
1	726
1	726
1	726
1	13
1	726
1	7
1	726
1	16
1	10
1	6
1	12
1	726
1	16
1	726
1	13
1	726
1	726
1	726
1	726
1	726
1	45
1	726
1	726
1	32
1	12
1	45
1	7
1	18
1	9
1	726
1	6
1	14
1	726
1	10
1	21
1	726
1	726
1	726
1	726
1	6
1	726
1	14
1	8
1	8
1	726
1	8
1	726
1	726
1	13
1	726
1	7
1	726
1	726
1	8
1	726
1	726
1	8
1	726
1	9
1	726
1	726
1	726
1	9
1	726
1	45
1	726
1	13
1	6
1	5
1	726
1	726
1	45
1	726
1	726
1	6
1	14
1	726
1	11
1	726
1	726
1	24
1	726
1	726
1	726
1	726
1	7
1	726
1	726
1	10
1	22
1	726
1	21
1	726
1	726
1	726
1	32
1	13
1	726
1	16
1	8
1	726
1	726
1	21
1	12
1	22
1	726
1	6
1	8
1	14
1	10
1	726
1	6
1	11
1	726
1	726
1	10
1	8
1	45
1	726
1	726
1	12
1	15
1	8
1	726
1	8
1	10
1	726
1	726
1	726
1	726
1	726
1	726
1	726
1	726
1	5
1	726
1	9
1	7
1	10
1	5
1	726
1	8
1	726
1	5
1	5
1	726
1	10
1	8
1	22
1	5
1	8
1	4
1	8
1	726
1	726
1	22
1	7
1	13
1	726
1	17
1	7
1	32
1	10
1	726
1	726
1	726
1	16
1	8
1	3
1	726
1	726
1	8
1	726
1	726
1	5
1	726
1	21
1	726
1	726
1	726
1	726
1	32
1	726
1	45
1	726
1	11
1	9
1	726
1	8
1	726
1	15
1	726
1	18
1	726
1	9
1	7
1	6
1	8
1	726
1	726
1	11
1	8
1	726
1	726
1	22
1	726
1	6
1	22
1	726
1	22
1	726
1	9
1	7
1	726
1	726
1	14
1	5
1	726
1	45
1	45
1	726
1	726
1	6
1	24
1	7
1	45
1	9
1	32
1	32
1	726
1	4
1	726
1	21
1	726
1	726
1	9
1	726
1	7
1	7
1	22
1	11
1	726
1	22
1	5
1	6
1	726
1	17
1	8
1	10
1	11
1	6
1	726
1	5
1	14
1	726
1	6
1	726
1	726
1	726
1	726
1	726
1	726
1	726
1	12
1	7
1	14
1	726
1	726
1	726
1	16
1	21
1	726
1	726
1	726
1	726
1	726
1	726
1	16
1	13
1	13
1	726
1	726
1	726
1	726
1	8
1	12
1	4
1	726
1	726
1	726
1	7
1	6
1	12
1	726
1	726
1	17
1	4
1	32
1	5
1	726
1	726
1	5
1	6
1	5
1	10
1	13
1	6
1	4
1	726
1	8
1	726
1	9
1	6
1	6
1	7
1	7
1	6
1	726
1	7
1	726
1	6
1	726
1	11
1	7
1	6
1	32
1	726
1	726
1	23
1	10
1	4
1	10
1	726
1	7
1	9
1	726
1	726
1	6
1	8
1	726
1	726
1	726
1	726
1	6
1	15
1	7
1	726
1	18
1	726
1	4
1	726
1	726
1	45
1	18
1	7
1	10
1	8
1	10
1	726
1	726
1	10
1	23
1	8
1	16
1	6
1	726
1	14
1	10
1	14
1	726
1	6
1	7
1	726
1	22
1	6
1	9
1	726
1	726
1	13
1	726
1	32
1	726
1	13
1	726
1	726
1	8
1	726
1	5
1	726
1	726
1	17
1	726
1	726
1	726
1	726
1	726
1	8
1	726
1	726
1	9
1	16
1	14
1	726
1	45
1	6
1	16
1	726
1	726
1	9
1	726
1	14
1	726
1	726
1	726
1	10
1	13
1	5
1	45
1	726
1	726
1	726
1	14
1	726
1	32
1	7
1	45
1	726
1	726
1	8
1	9
1	6
1	726
1	14
1	6
1	726
1	726
1	726
1	726
1	726
1	7
1	726
1	5
1	726
1	5
1	14
1	726
1	726
1	726
1	9
1	726
1	726
1	5
1	6
1	726
1	11
1	4
1	5
1	11
1	13
1	5
1	726
1	16
1	726
1	7
1	11
1	726
1	45
1	726
1	726
1	3
1	7
1	11
1	726
1	726
1	16
1	4
1	726
1	17
1	10
1	5
1	726
1	11
1	14
1	726
1	22
1	23
1	726
1	726
1	8
1	22
1	726
1	726
1	18
1	726
1	11
1	16
1	13
1	726
1	24
1	8
1	9
1	4
1	13
1	8
1	6
1	726
1	8
1	4
1	16
1	726
1	726
1	726
1	726
1	32
1	726
1	726
1	726
1	7
1	45
1	726
1	11
1	8
1	10
1	726
1	5
1	726
1	9
1	726
1	726
1	7
1	726
1	726
1	726
1	726
1	14
1	726
1	6
1	12
1	7
1	726
1	10
1	7
1	7
1	21
1	726
1	726
1	6
1	726
1	726
1	7
1	726
1	4
1	9
1	13
1	6
1	16
1	23
1	7
1	14
1	9
1	32
1	22
1	3
1	726
1	6
1	6
1	726
1	14
1	8
1	6
1	726
1	16
1	726
1	726
1	726
1	726
1	13
1	5
1	8
1	726
1	32
1	4
1	14
1	726
1	726
1	726
1	726
1	11
1	16
1	11
1	726
1	23
1	7
1	726
1	726
1	726
1	726
1	10
1	17
1	5
1	726
1	726
1	726
1	726
1	726
1	13
1	7
1	10
1	9
1	5
1	726
1	726
1	726
1	726
1	17
1	726
1	726
1	726
1	726
1	7
1	726
1	14
1	726
1	726
1	22
1	5
1	10
1	726
1	726
1	726
1	726
1	726
1	726
1	726
1	726
1	6
1	726
1	726
1	726
1	726
1	3
1	8
1	726
1	11
1	32
1	7
1	32
1	726
1	8
1	10
1	726
1	45
1	726
1	726
1	5
1	726
1	7
1	9
1	24
1	726
1	726
1	726
1	726
1	10
1	726
1	21
1	17
1	726
1	726
1	5
1	5
1	13
1	726
1	726
1	5
1	726
1	6
1	14
1	726
1	726
1	726
1	726
1	10
1	726
1	726
1	12
1	726
1	726
1	8
1	9
1	9
1	726
1	11
1	13
1	10
1	726
1	7
1	11
1	12
1	11
1	6
1	726
1	11
1	726
1	726
1	726
1	18
1	726
1	726
1	726
1	726
1	726
1	726
1	8
1	726
1	16
1	6
1	4
1	13
1	22
1	726
1	726
1	726
1	726
1	11
1	726
1	726
1	10
1	726
1	7
1	7
1	726
1	726
1	726
1	726
1	726
1	726
1	726
1	726
1	726
1	726
1	726
1	23
1	10
1	45
1	726
1	726
1	5
1	726
1	726
1	726
1	726
1	21
1	726
1	7
1	726
1	7
1	10
1	726
1	726
1	726
1	726
1	726
1	8
1	4
1	726
1	18
1	726
1	726
1	726
1	14
1	726
1	726
1	726
1	726
1	726
1	726
1	726
1	726
1	32
1	726
1	726
1	5
1	726
1	726
1	6
1	726
1	18
1	726
1	24
1	11
1	726
1	6
1	726
1	726
1	726
1	726
1	726
1	22
1	726
1	726
1	10
1	16
1	726
1	17
1	6
1	726
1	8
1	726
1	726
1	726
1	726
1	726
1	726
1	726
1	7
1	5
1	10
1	7
1	726
1	21
1	726
1	24
1	726
1	726
1	7
1	726
1	726
1	726
1	5
1	726
1	726
1	726
1	726
1	23
1	10
1	15
1	45
1	726
1	726
1	12
1	726
1	726
1	14
1	726
1	22
1	726
1	726
1	726
1	726
1	726
1	11
1	11
1	22
1	726
1	726
1	726
1	9
1	726
1	726
1	726
1	726
1	45
1	5
1	12
1	726
1	726
1	5
1	10
1	8
1	726
1	3
1	7
1	726
1	726
1	726
1	726
1	8
1	726
1	9
1	726
1	45
1	14
1	726
1	7
1	6
1	21
1	10
1	5
1	5
1	23
1	6
1	9
1	10
1	726
1	726
1	726
1	726
1	726
1	14
1	726
1	11
1	11
1	726
1	726
1	726
1	5
1	4
1	726
1	7
1	24
1	726
1	726
1	10
1	726
1	10
1	9
1	726
1	11
1	9
1	726
1	21
1	4
1	13
1	23
1	726
1	726
1	726
1	726
1	10
1	45
1	10
1	726
1	726
1	9
1	726
1	5
1	10
1	16
1	726
1	726
1	726
1	45
1	726
1	726
1	7
1	9
1	9
1	5
1	726
1	6
1	5
1	726
1	45
1	6
1	726
1	726
1	726
1	726
1	726
1	10
1	726
1	10
1	726
1	726
1	10
1	726
1	726
1	726
1	6
1	726
1	726
1	726
1	32
1	726
1	12
1	8
1	726
1	14
1	726
1	726
1	5
1	726
1	10
1	5
1	16
1	726
1	6
1	726
1	726
1	16
1	12
1	7
1	726
1	23
1	726
1	4
1	10
1	3
1	5
1	726
1	726
1	726
1	4
1	23
1	45
1	726
1	726
1	10
1	726
1	13
1	726
1	5
1	16
1	24
1	13
1	7
1	12
1	726
1	32
1	7
1	7
1	11
1	8
1	4
1	3
1	5
1	4
1	5
1	726
1	726
1	726
1	23
1	726
1	726
1	14
1	18
1	7
1	10
1	11
1	10
1	726
1	7
1	726
1	726
1	726
1	6
1	7
1	32
1	23
1	24
1	3
1	10
1	14
1	726
1	726
1	14
1	16
1	7
1	726
1	726
1	14
1	5
1	7
1	9
1	14
1	726
1	5
1	726
1	726
1	726
1	45
1	726
1	14
1	726
1	726
1	726
1	726
1	726
1	11
1	14
1	726
1	6
1	726
1	726
1	16
1	11
1	726
1	4
1	726
1	726
1	3
1	4
1	8
1	45
1	726
1	16
1	726
1	726
1	6
1	726
1	11
1	10
1	6
1	5
1	726
1	726
1	5
1	45
1	726
1	726
1	726
1	726
1	6
1	14
1	726
1	726
1	6
1	726
1	726
1	6
1	726
1	726
1	726
1	726
1	726
1	7
1	726
1	726
1	16
1	13
1	14
1	8
1	7
1	18
1	4
1	4
1	10
1	726
1	726
1	726
1	8
1	22
1	726
1	726
1	13
1	9
1	9
1	16
1	726
1	10
1	726
1	3
1	726
1	726
1	726
1	8
1	11
1	726
1	11
1	726
1	11
1	8
1	17
1	726
1	726
1	5
1	24
1	726
1	726
1	726
1	726
1	726
1	13
1	726
1	726
1	726
1	11
1	21
1	726
1	726
1	21
1	726
1	726
1	726
1	8
1	726
1	14
1	726
1	45
1	16
1	10
1	726
1	726
1	16
1	4
1	726
1	4
1	9
1	10
1	6
1	45
1	726
1	8
2	5
2	6
2	8
2	4
2	3
2	11
2	10
2	4
2	12
2	5
2	6
2	8
2	16
2	7
2	726
2	5
2	12
2	7
2	3
2	14
2	5
2	7
2	10
2	8
2	7
2	5
2	16
2	22
2	7
2	3
2	3
2	7
2	8
2	4
2	6
2	8
2	12
2	4
2	7
2	4
2	3
2	3
2	5
2	8
2	6
2	5
2	7
2	8
2	6
2	12
2	726
2	12
2	18
2	45
2	9
2	11
2	4
2	6
2	4
2	23
2	5
2	4
2	4
2	5
2	8
2	7
2	11
2	9
2	7
2	4
2	3
2	5
2	4
2	7
2	14
2	22
2	6
2	5
2	4
2	13
2	10
2	10
2	6
2	6
2	8
2	4
2	6
2	4
2	3
2	4
2	4
2	5
2	22
2	3
2	6
2	8
2	7
2	10
2	7
2	8
2	8
2	6
2	7
2	13
2	5
2	45
2	8
2	3
2	4
2	5
2	4
2	7
2	8
2	5
2	3
2	9
2	22
2	4
2	4
2	8
2	6
2	10
2	12
2	5
2	6
2	15
2	16
2	45
2	6
2	6
2	3
2	5
2	4
2	8
2	7
2	3
2	4
2	6
2	16
2	5
2	7
2	8
2	10
2	10
2	7
2	11
2	4
2	3
2	5
2	4
2	4
2	4
2	7
2	4
2	4
2	6
2	3
2	4
2	5
2	12
2	3
2	5
2	11
2	10
2	4
2	22
2	4
2	10
3	9
3	4
3	5
3	7
3	6
3	4
3	4
3	4
3	4
3	6
3	9
3	6
3	4
3	6
3	14
3	7
3	4
3	5
3	6
3	7
3	5
3	7
3	6
4	5
4	5
5	6


