# Persistence diagram </home/jens/Uni/data_topology/Project/reddit_results/graphs/0573-1.gml>
#
# Dimension   : 1
# Entries     : 311
# Betti number: 311
6	inf
7	inf
8	inf
8	inf
9	inf
9	inf
9	inf
9	inf
9	inf
9	inf
9	inf
9	inf
9	inf
9	inf
9	inf
9	inf
10	inf
10	inf
10	inf
10	inf
11	inf
11	inf
11	inf
11	inf
11	inf
11	inf
11	inf
13	inf
13	inf
13	inf
13	inf
13	inf
13	inf
13	inf
13	inf
13	inf
13	inf
13	inf
14	inf
14	inf
14	inf
14	inf
14	inf
14	inf
14	inf
14	inf
14	inf
14	inf
14	inf
14	inf
14	inf
14	inf
14	inf
14	inf
14	inf
14	inf
14	inf
14	inf
14	inf
14	inf
14	inf
14	inf
14	inf
14	inf
14	inf
15	inf
15	inf
15	inf
15	inf
15	inf
15	inf
15	inf
15	inf
15	inf
15	inf
16	inf
16	inf
16	inf
16	inf
16	inf
16	inf
16	inf
16	inf
16	inf
16	inf
16	inf
16	inf
16	inf
17	inf
17	inf
17	inf
17	inf
17	inf
18	inf
18	inf
18	inf
18	inf
18	inf
18	inf
18	inf
18	inf
18	inf
18	inf
18	inf
18	inf
18	inf
18	inf
18	inf
18	inf
18	inf
18	inf
18	inf
18	inf
19	inf
19	inf
19	inf
20	inf
20	inf
20	inf
20	inf
20	inf
20	inf
20	inf
20	inf
20	inf
21	inf
21	inf
21	inf
21	inf
21	inf
21	inf
21	inf
21	inf
21	inf
21	inf
21	inf
21	inf
21	inf
21	inf
21	inf
21	inf
21	inf
21	inf
23	inf
25	inf
25	inf
25	inf
25	inf
25	inf
25	inf
25	inf
25	inf
25	inf
25	inf
26	inf
26	inf
26	inf
29	inf
29	inf
29	inf
29	inf
29	inf
29	inf
29	inf
29	inf
29	inf
29	inf
37	inf
37	inf
37	inf
37	inf
37	inf
37	inf
37	inf
37	inf
37	inf
37	inf
37	inf
37	inf
37	inf
37	inf
37	inf
37	inf
37	inf
58	inf
58	inf
58	inf
58	inf
58	inf
58	inf
58	inf
58	inf
58	inf
58	inf
58	inf
58	inf
58	inf
58	inf
58	inf
58	inf
58	inf
58	inf
58	inf
58	inf
58	inf
58	inf
58	inf
1123	inf
1123	inf
1123	inf
1123	inf
1123	inf
1123	inf
1123	inf
1123	inf
1123	inf
1123	inf
1123	inf
1123	inf
1123	inf
1123	inf
1123	inf
1123	inf
1123	inf
1123	inf
1123	inf
1123	inf
1123	inf
1123	inf
1123	inf
1123	inf
1123	inf
1123	inf
1123	inf
1123	inf
1123	inf
1123	inf
1123	inf
1123	inf
1123	inf
1123	inf
1123	inf
1123	inf
1123	inf
1123	inf
1123	inf
1123	inf
1123	inf
1123	inf
1123	inf
1123	inf
1123	inf
1123	inf
1123	inf
1123	inf
1123	inf
1123	inf
1123	inf
1123	inf
1123	inf
1123	inf
1123	inf
1123	inf
1123	inf
1123	inf
1123	inf
1123	inf
1123	inf
1123	inf
1123	inf
1123	inf
1123	inf
1123	inf
1123	inf
1123	inf
1123	inf
1123	inf
1123	inf
1123	inf
1123	inf
1123	inf
1123	inf
1123	inf
1123	inf
1123	inf
1123	inf
1123	inf
1123	inf
1123	inf
1123	inf
1123	inf
1123	inf
1123	inf
1123	inf
1123	inf
1123	inf
1123	inf
1123	inf
1123	inf
1123	inf
1123	inf
1123	inf
1123	inf
1123	inf
1123	inf
1123	inf
1123	inf
1123	inf
1123	inf
1123	inf
1123	inf
