# Persistence diagram </home/jens/Uni/data_topology/Project/reddit_results/graphs/0576-1.gml>
#
# Dimension   : 1
# Entries     : 440
# Betti number: 440
6	inf
6	inf
6	inf
7	inf
8	inf
8	inf
8	inf
8	inf
9	inf
9	inf
9	inf
9	inf
9	inf
9	inf
9	inf
9	inf
9	inf
9	inf
9	inf
9	inf
10	inf
10	inf
10	inf
10	inf
10	inf
10	inf
10	inf
10	inf
10	inf
10	inf
10	inf
11	inf
11	inf
11	inf
11	inf
11	inf
12	inf
12	inf
12	inf
12	inf
12	inf
12	inf
12	inf
12	inf
12	inf
12	inf
12	inf
12	inf
12	inf
12	inf
12	inf
12	inf
12	inf
12	inf
12	inf
12	inf
12	inf
13	inf
13	inf
13	inf
13	inf
13	inf
13	inf
13	inf
13	inf
13	inf
13	inf
13	inf
14	inf
14	inf
14	inf
14	inf
14	inf
14	inf
14	inf
14	inf
14	inf
14	inf
14	inf
14	inf
14	inf
14	inf
14	inf
14	inf
14	inf
15	inf
15	inf
15	inf
15	inf
16	inf
16	inf
16	inf
16	inf
16	inf
16	inf
16	inf
16	inf
16	inf
16	inf
16	inf
16	inf
17	inf
17	inf
17	inf
17	inf
17	inf
17	inf
17	inf
17	inf
17	inf
17	inf
17	inf
17	inf
17	inf
17	inf
17	inf
17	inf
17	inf
17	inf
17	inf
17	inf
18	inf
18	inf
18	inf
18	inf
18	inf
18	inf
18	inf
18	inf
18	inf
18	inf
18	inf
18	inf
18	inf
18	inf
18	inf
18	inf
18	inf
18	inf
18	inf
20	inf
20	inf
20	inf
20	inf
20	inf
20	inf
20	inf
20	inf
21	inf
21	inf
21	inf
21	inf
23	inf
23	inf
23	inf
23	inf
23	inf
23	inf
23	inf
23	inf
23	inf
25	inf
25	inf
25	inf
25	inf
25	inf
25	inf
25	inf
25	inf
25	inf
25	inf
25	inf
25	inf
25	inf
25	inf
25	inf
25	inf
25	inf
25	inf
25	inf
25	inf
25	inf
25	inf
25	inf
25	inf
25	inf
28	inf
28	inf
28	inf
28	inf
28	inf
28	inf
28	inf
28	inf
28	inf
28	inf
28	inf
28	inf
28	inf
54	inf
54	inf
54	inf
54	inf
54	inf
54	inf
54	inf
54	inf
54	inf
54	inf
54	inf
54	inf
54	inf
54	inf
54	inf
54	inf
54	inf
54	inf
54	inf
54	inf
54	inf
54	inf
1405	inf
1405	inf
1405	inf
1405	inf
1405	inf
1405	inf
1405	inf
1405	inf
1405	inf
1405	inf
1405	inf
1405	inf
1405	inf
1405	inf
1405	inf
1405	inf
1405	inf
1405	inf
1405	inf
1405	inf
1405	inf
1405	inf
1405	inf
1405	inf
1405	inf
1405	inf
1405	inf
1405	inf
1405	inf
1405	inf
1405	inf
1405	inf
1405	inf
1405	inf
1405	inf
1405	inf
1405	inf
1405	inf
1405	inf
1405	inf
1405	inf
1405	inf
1405	inf
1405	inf
1405	inf
1405	inf
1405	inf
1405	inf
1405	inf
1405	inf
1405	inf
1405	inf
1405	inf
1405	inf
1405	inf
1405	inf
1405	inf
1405	inf
1405	inf
1405	inf
1405	inf
1405	inf
1405	inf
1405	inf
1405	inf
1405	inf
1405	inf
1405	inf
1405	inf
1405	inf
1405	inf
1405	inf
1405	inf
1405	inf
1405	inf
1405	inf
1405	inf
1405	inf
1405	inf
1405	inf
1405	inf
1405	inf
1405	inf
1405	inf
1405	inf
1405	inf
1405	inf
1405	inf
1405	inf
1405	inf
1405	inf
1405	inf
1405	inf
1405	inf
1405	inf
1405	inf
1405	inf
1405	inf
1405	inf
1405	inf
1405	inf
1405	inf
1405	inf
1405	inf
1405	inf
1405	inf
1405	inf
1405	inf
1405	inf
1405	inf
1405	inf
1405	inf
1405	inf
1405	inf
1405	inf
1405	inf
1405	inf
1405	inf
1405	inf
1405	inf
1405	inf
1405	inf
1405	inf
1405	inf
1405	inf
1405	inf
1405	inf
1405	inf
1405	inf
1405	inf
1405	inf
1405	inf
1405	inf
1405	inf
1405	inf
1405	inf
1405	inf
1405	inf
1405	inf
1405	inf
1405	inf
1405	inf
1405	inf
1405	inf
1405	inf
1405	inf
1405	inf
1405	inf
1405	inf
1405	inf
1405	inf
1405	inf
1405	inf
1405	inf
1405	inf
1405	inf
1405	inf
1405	inf
1405	inf
1405	inf
1405	inf
1405	inf
1405	inf
1405	inf
1405	inf
1405	inf
1405	inf
1405	inf
1405	inf
1405	inf
1405	inf
1405	inf
1405	inf
1405	inf
1405	inf
1405	inf
1405	inf
1405	inf
1405	inf
1405	inf
1405	inf
1405	inf
1405	inf
1405	inf
1405	inf
1405	inf
1405	inf
1405	inf
1405	inf
1405	inf
1405	inf
1405	inf
1405	inf
1405	inf
1405	inf
1405	inf
1405	inf
1405	inf
1405	inf
1405	inf
1405	inf
1405	inf
1405	inf
1405	inf
1405	inf
1405	inf
1405	inf
1405	inf
1405	inf
1405	inf
1405	inf
1405	inf
1405	inf
1405	inf
1405	inf
1405	inf
1405	inf
1405	inf
1405	inf
