# Persistence diagram </home/jens/Uni/data_topology/Project/reddit_results/graphs/0588-1.gml>
#
# Dimension   : 0
# Entries     : 2868
# Betti number: 4
1	inf
1	2224
1	2224
1	2224
1	2224
1	2224
1	28
1	2224
1	14
1	2224
1	2224
1	14
1	2224
1	2224
1	2224
1	2224
1	2224
1	2224
1	2224
1	10
1	2224
1	2224
1	2224
1	2224
1	2224
1	2224
1	2224
1	12
1	2224
1	2224
1	2224
1	12
1	2224
1	18
1	2224
1	2224
1	2224
1	2224
1	2224
1	2224
1	2224
1	2224
1	10
1	2224
1	2224
1	2224
1	2224
1	2224
1	2224
1	2224
1	11
1	2224
1	2224
1	2224
1	9
1	2224
1	2224
1	2224
1	2224
1	2224
1	2224
1	2224
1	2224
1	2224
1	2224
1	2224
1	2224
1	2224
1	2224
1	19
1	18
1	8
1	2224
1	2224
1	2224
1	18
1	2224
1	2224
1	2224
1	19
1	2224
1	2224
1	18
1	2224
1	11
1	2224
1	2224
1	2224
1	2224
1	2224
1	2224
1	10
1	9
1	2224
1	2224
1	2224
1	12
1	2224
1	2224
1	12
1	2224
1	2224
1	2224
1	2224
1	2224
1	10
1	2224
1	2224
1	2224
1	11
1	2224
1	2224
1	15
1	2224
1	11
1	2224
1	2224
1	7
1	2224
1	2224
1	2224
1	2224
1	9
1	2224
1	2224
1	9
1	2224
1	2224
1	2224
1	7
1	2224
1	2224
1	2224
1	2224
1	16
1	2224
1	18
1	11
1	12
1	19
1	2224
1	23
1	12
1	2224
1	2224
1	2224
1	18
1	2224
1	2224
1	2224
1	2224
1	2224
1	2224
1	9
1	2224
1	2224
1	2224
1	2224
1	2224
1	2224
1	2224
1	2224
1	2224
1	2224
1	2224
1	2224
1	2224
1	11
1	18
1	5
1	2224
1	2224
1	18
1	11
1	2224
1	2224
1	10
1	23
1	2224
1	2224
1	7
1	2224
1	2224
1	2224
1	2224
1	2224
1	9
1	7
1	2224
1	2224
1	2224
1	7
1	2224
1	10
1	2224
1	26
1	2224
1	2224
1	15
1	2224
1	2224
1	2224
1	2224
1	2224
1	2224
1	2224
1	2224
1	14
1	2224
1	2224
1	2224
1	2224
1	2224
1	2224
1	2224
1	2224
1	8
1	8
1	2224
1	2224
1	2224
1	2224
1	2224
1	2224
1	2224
1	11
1	2224
1	2224
1	2224
1	2224
1	2224
1	2224
1	2224
1	2224
1	16
1	5
1	23
1	2224
1	2224
1	2224
1	10
1	2224
1	2224
1	2224
1	14
1	2224
1	2224
1	2224
1	2224
1	2224
1	2224
1	14
1	2224
1	2224
1	2224
1	2224
1	14
1	8
1	2224
1	2224
1	2224
1	2224
1	2224
1	2224
1	2224
1	28
1	2224
1	2224
1	2224
1	28
1	2224
1	19
1	15
1	2224
1	2224
1	2224
1	2224
1	9
1	2224
1	2224
1	2224
1	2224
1	2224
1	2224
1	19
1	2224
1	2224
1	2224
1	2224
1	2224
1	2224
1	2224
1	14
1	7
1	2224
1	2224
1	2224
1	2224
1	2224
1	2224
1	2224
1	2224
1	18
1	18
1	2224
1	2224
1	2224
1	2224
1	2224
1	2224
1	2224
1	11
1	2224
1	2224
1	2224
1	2224
1	2224
1	23
1	2224
1	2224
1	2224
1	2224
1	2224
1	14
1	13
1	11
1	2224
1	2224
1	2224
1	2224
1	23
1	2224
1	2224
1	11
1	9
1	2224
1	2224
1	2224
1	28
1	2224
1	2224
1	14
1	8
1	10
1	2224
1	9
1	2224
1	2224
1	2224
1	13
1	2224
1	2224
1	2224
1	2224
1	2224
1	23
1	2224
1	2224
1	2224
1	2224
1	2224
1	2224
1	14
1	2224
1	19
1	2224
1	2224
1	12
1	28
1	2224
1	16
1	2224
1	2224
1	2224
1	2224
1	11
1	2224
1	2224
1	2224
1	2224
1	2224
1	5
1	2224
1	2224
1	2224
1	2224
1	2224
1	2224
1	2224
1	2224
1	2224
1	4
1	inf
1	2224
1	16
1	2224
1	2224
1	2224
1	16
1	2224
1	12
1	2224
1	2224
1	2224
1	2224
1	2224
1	2224
1	2224
1	11
1	6
1	2224
1	2224
1	2224
1	2224
1	11
1	2224
1	5
1	2224
1	8
1	2224
1	2224
1	2224
1	2224
1	2224
1	2224
1	2224
1	2224
1	2224
1	2224
1	2224
1	11
1	2224
1	2224
1	2224
1	5
1	2224
1	2224
1	2224
1	14
1	2224
1	2224
1	2224
1	9
1	2224
1	2224
1	2224
1	2224
1	10
1	2224
1	2224
1	2224
1	2224
1	2224
1	2224
1	2224
1	2224
1	6
1	2224
1	12
1	2224
1	2224
1	2224
1	11
1	2224
1	2224
1	2224
1	23
1	2224
1	2224
1	15
1	2224
1	2224
1	4
1	2224
1	2224
1	2224
1	2224
1	2224
1	13
1	2224
1	14
1	2224
1	2224
1	2224
1	2224
1	9
1	2224
1	2224
1	2224
1	18
1	2224
1	2224
1	2224
1	2224
1	13
1	6
1	2224
1	2224
1	2224
1	12
1	2224
1	18
1	2224
1	2224
1	14
1	2224
1	10
1	8
1	2224
1	15
1	2224
1	2224
1	2224
1	8
1	2224
1	2224
1	2224
1	2224
1	2224
1	2224
1	2224
1	4
1	2224
1	2224
1	7
1	18
1	2224
1	4
1	2224
1	18
1	2224
1	23
1	2224
1	2224
1	2224
1	23
1	2224
1	2224
1	2224
1	2224
1	2224
1	2224
1	12
1	2224
1	2224
1	2224
1	2224
1	2224
1	2224
1	23
1	2224
1	14
1	2224
1	11
1	2224
1	2224
1	2224
1	2224
1	7
1	2224
1	10
1	2224
1	28
1	2224
1	2224
1	2224
1	2224
1	2224
1	2224
1	2224
1	19
1	5
1	2224
1	2224
1	2224
1	2224
1	2224
1	4
1	2224
1	15
1	2224
1	2224
1	2224
1	2224
1	2224
1	2224
1	2224
1	2224
1	11
1	8
1	2224
1	28
1	2224
1	18
1	2224
1	2224
1	2224
1	2224
1	2224
1	2224
1	11
1	2224
1	12
1	2224
1	2224
1	2224
1	16
1	28
1	13
1	23
1	2224
1	11
1	2224
1	2224
1	2224
1	2224
1	2224
1	2224
1	2224
1	2224
1	2224
1	2224
1	2224
1	2224
1	2224
1	18
1	7
1	2224
1	8
1	inf
1	2224
1	2224
1	2224
1	2224
1	2224
1	2224
1	8
1	2224
1	2224
1	2224
1	2224
1	2224
1	2224
1	9
1	9
1	2224
1	2224
1	2224
1	2224
1	2224
1	2224
1	2224
1	2224
1	2224
1	23
1	2224
1	23
1	19
1	2224
1	2224
1	2224
1	2224
1	2224
1	19
1	2224
1	2224
1	2224
1	2224
1	2224
1	2224
1	2224
1	2224
1	2224
1	2224
1	2224
1	2224
1	2224
1	18
1	15
1	18
1	2224
1	6
1	2224
1	2224
1	2224
1	2224
1	16
1	2224
1	2224
1	23
1	2224
1	16
1	2224
1	14
1	2224
1	9
1	2224
1	2224
1	2224
1	2224
1	6
1	2224
1	2224
1	2224
1	2224
1	2224
1	2224
1	2224
1	12
1	2224
1	2224
1	2224
1	2224
1	2224
1	10
1	2224
1	2224
1	2224
1	2224
1	5
1	16
1	2224
1	2224
1	2224
1	2224
1	14
1	19
1	2224
1	2224
1	2224
1	14
1	14
1	2224
1	2224
1	19
1	2224
1	2224
1	2224
1	2224
1	2224
1	2224
1	2224
1	2224
1	2224
1	2224
1	2224
1	2224
1	15
1	28
1	2224
1	2224
1	2224
1	13
1	2224
1	2224
1	2224
1	2224
1	2224
1	10
1	2224
1	2224
1	2224
1	14
1	19
1	2224
1	2224
1	2224
1	2224
1	2224
1	2224
1	5
1	2224
1	2224
1	28
1	9
1	2224
1	16
1	2224
1	2224
1	7
1	2224
1	2224
1	11
1	26
1	2224
1	19
1	2224
1	2224
1	2224
1	2224
1	12
1	6
1	18
1	2224
1	2224
1	2224
1	2224
1	2224
1	2224
1	2224
1	2224
1	2224
1	2224
1	12
1	2224
1	2224
1	2224
1	2224
1	2224
1	2224
1	2224
1	2224
1	2224
1	2224
1	2224
1	2224
1	2224
1	2224
1	2224
1	8
1	2224
1	2224
1	2224
1	7
1	2224
1	2224
1	2224
1	2224
1	11
1	2224
1	18
1	2224
1	2224
1	2224
1	28
1	9
1	2224
1	23
1	2224
1	2224
1	2224
1	9
1	2224
1	2224
1	2224
1	2224
1	19
1	2224
1	2224
1	2224
1	2224
1	2224
1	19
1	2224
1	2224
1	2224
1	2224
1	2224
1	2224
1	11
1	18
1	2224
1	2224
1	2224
1	2224
1	12
1	2224
1	2224
1	2224
1	2224
1	2224
1	2224
1	2224
1	2224
1	9
1	7
1	2224
1	2224
1	2224
1	2224
1	2224
1	2224
1	12
1	19
1	2224
1	12
1	2224
1	15
1	2224
1	2224
1	2224
1	4
1	2224
1	2224
1	19
1	18
1	11
1	2224
1	2224
1	2224
1	2224
1	2224
1	2224
1	2224
1	7
1	18
1	2224
1	2224
1	2224
1	2224
1	2224
1	2224
1	2224
1	2224
1	2224
1	2224
1	28
1	16
1	2224
1	12
1	2224
1	2224
1	2224
1	2224
1	2224
1	2224
1	2224
1	2224
1	7
1	2224
1	2224
1	2224
1	2224
1	2224
1	7
1	14
1	2224
1	2224
1	19
1	2224
1	13
1	2224
1	2224
1	2224
1	2224
1	2224
1	2224
1	2224
1	2224
1	2224
1	16
1	2224
1	6
1	2224
1	8
1	2224
1	2224
1	2224
1	2224
1	11
1	2224
1	2224
1	2224
1	2224
1	2224
1	2224
1	2224
1	2224
1	2224
1	2224
1	2224
1	2224
1	2224
1	2224
1	2224
1	2224
1	2224
1	2224
1	2224
1	2224
1	2224
1	2224
1	2224
1	2224
1	2224
1	2224
1	2224
1	2224
1	2224
1	8
1	2224
1	2224
1	2224
1	2224
1	2224
1	2224
1	2224
1	2224
1	2224
1	2224
1	2224
1	2224
1	8
1	2224
1	2224
1	2224
1	2224
1	2224
1	2224
1	14
1	16
1	2224
1	8
1	2224
1	14
1	2224
1	2224
1	2224
1	2224
1	2224
1	6
1	15
1	2224
1	2224
1	2224
1	2224
1	2224
1	2224
1	11
1	2224
1	2224
1	15
1	18
1	2224
1	2224
1	2224
1	2224
1	2224
1	2224
1	23
1	2224
1	2224
1	2224
1	2224
1	2224
1	2224
1	2224
1	5
1	2224
1	2224
1	2224
1	2224
1	2224
1	9
1	9
1	15
1	6
1	2224
1	2224
1	11
1	2224
1	8
1	2224
1	2224
1	2224
1	2224
1	2224
1	2224
1	2224
1	2224
1	2224
1	2224
1	2224
1	2224
1	9
1	2224
1	2224
1	2224
1	2224
1	2224
1	2224
1	2224
1	2224
1	2224
1	2224
1	2224
1	2224
1	2224
1	2224
1	2224
1	8
1	18
1	2224
1	2224
1	2224
1	2224
1	2224
1	2224
1	10
1	2224
1	2224
1	12
1	2224
1	2224
1	2224
1	2224
1	9
1	2224
1	2224
1	2224
1	2224
1	2224
1	2224
1	2224
1	6
1	3
1	2224
1	2224
1	2224
1	6
1	2224
1	2224
1	2224
1	4
1	14
1	7
1	2224
1	2224
1	2224
1	2224
1	2224
1	2224
1	8
1	2224
1	23
1	2224
1	2224
1	12
1	16
1	2224
1	2224
1	2224
1	2224
1	9
1	2224
1	2224
1	8
1	10
1	2224
1	2224
1	2224
1	2224
1	2224
1	2224
1	2224
1	2224
1	2224
1	2224
1	2224
1	23
1	2224
1	2224
1	2224
1	2224
1	2224
1	11
1	2224
1	2224
1	11
1	2224
1	2224
1	9
1	16
1	2224
1	2224
1	4
1	5
1	7
1	2224
1	23
1	2224
1	2224
1	2224
1	8
1	2224
1	2224
1	2224
1	2224
1	2224
1	2224
1	2224
1	16
1	2224
1	10
1	2224
1	2224
1	2224
1	2224
1	2224
1	2224
1	2224
1	2224
1	2224
1	2224
1	2224
1	2224
1	7
1	2224
1	2224
1	2224
1	2224
1	2224
1	14
1	2224
1	2224
1	2224
1	inf
1	2224
1	11
1	8
1	2224
1	2224
1	11
1	2224
1	2224
1	7
1	8
1	2224
1	8
1	10
1	2224
1	2224
1	2224
1	23
1	2224
1	2224
1	9
1	2224
1	2224
1	2224
1	2224
1	2224
1	10
1	2224
1	12
1	2224
1	2224
1	2224
1	2224
1	2224
1	2224
1	2224
1	2224
1	2224
1	2224
1	8
1	2224
1	2224
1	2224
1	14
1	13
1	5
1	18
1	7
1	2224
1	42
1	2224
1	2224
1	9
1	2224
1	2224
1	2224
1	11
1	16
1	9
1	2224
1	2224
1	2224
1	2224
1	2224
1	2224
1	18
1	11
1	2224
1	2224
1	4
1	2224
1	2224
1	2224
1	2224
1	2224
1	2224
1	2224
1	2224
1	2224
1	2224
1	2224
1	2224
1	15
1	2224
1	2224
1	2224
1	2224
1	2224
1	2224
1	7
1	2224
1	2224
1	2224
1	2224
1	2224
1	15
1	2224
1	2224
1	2224
1	2224
1	14
1	2224
1	2224
1	2224
1	2224
1	18
1	2224
1	2224
1	11
1	2224
1	2224
1	2224
1	12
1	2224
1	2224
1	12
1	2224
1	2224
1	2224
1	15
1	2224
1	2224
1	8
1	12
1	23
1	2224
1	14
1	4
1	2224
1	2224
1	2224
1	2224
1	16
1	11
1	2224
1	2224
1	2224
1	2224
1	5
1	19
1	2224
1	2224
1	2224
1	8
1	11
1	2224
1	2224
1	2224
1	16
1	2224
1	2224
1	2224
1	2224
1	28
1	2224
1	2224
1	2224
1	2224
1	2224
1	2224
1	2224
1	7
1	2224
1	2224
1	12
1	2224
1	2224
1	2224
1	2224
1	2224
1	2224
1	2224
1	2224
1	4
1	2224
1	16
1	2224
1	2224
1	2224
1	2224
1	2224
1	2224
1	2224
1	2224
1	2224
1	2224
1	2224
1	2224
1	2224
1	3
1	2224
1	2224
1	2224
1	2224
1	4
1	2224
1	2224
1	23
1	2224
1	2224
1	2224
1	2224
1	2224
1	2224
1	5
1	7
1	2224
1	2224
1	15
1	7
1	2224
1	2224
1	2224
1	2224
1	13
1	2224
1	2224
1	4
1	2224
1	2224
1	28
1	2224
1	2224
1	4
1	2224
1	10
1	2224
1	18
1	2224
1	2224
1	2224
1	2224
1	2224
1	8
1	2224
1	13
1	2224
1	9
1	15
1	2224
1	2224
1	2224
1	2224
1	2224
1	2224
1	23
1	2224
1	2224
1	12
1	2224
1	6
1	18
1	2224
1	2224
1	2224
1	2224
1	2224
1	2224
1	3
1	2224
1	14
1	2224
1	2224
1	2224
1	18
1	2224
1	2224
1	10
1	2224
1	2224
1	2224
1	2224
1	4
1	2224
1	2224
1	2224
1	19
1	4
1	2224
1	2224
1	10
1	2224
1	8
1	2224
1	2224
1	2224
1	2224
1	28
1	2224
1	2224
1	2224
1	2224
1	2224
1	23
1	2224
1	2224
1	2224
1	2224
1	28
1	2224
1	2224
1	2224
1	5
1	2224
1	2224
1	5
1	2224
1	2224
1	2224
1	2224
1	14
1	2224
1	2224
1	2224
1	7
1	2224
1	26
1	9
1	2224
1	2224
1	2224
1	2224
1	2224
1	2224
1	2224
1	26
1	2224
1	2224
1	2224
1	2224
1	23
1	9
1	3
1	9
1	2224
1	2224
1	2224
1	2224
1	2224
1	8
1	2224
1	2224
1	9
1	2224
1	2224
1	2224
1	2224
1	8
1	11
1	2224
1	2224
1	2224
1	2224
1	2224
1	2224
1	2224
1	2224
1	2224
1	2224
1	2224
1	2224
1	13
1	2224
1	2224
1	2224
1	2224
1	9
1	2224
1	4
1	2224
1	2224
1	2224
1	2224
1	2224
1	2224
1	16
1	2224
1	2224
1	11
1	2224
1	12
1	2224
1	2224
1	2224
1	2224
1	2224
1	2224
1	12
1	2224
1	4
1	4
1	5
1	2224
1	2224
1	2224
1	2224
1	2224
1	12
1	2224
1	14
1	19
1	2224
1	2224
1	2224
1	7
1	2224
1	2224
1	2224
1	6
1	2224
1	2224
1	2224
1	7
1	2224
1	5
1	14
1	12
1	2224
1	2224
1	2224
1	2224
1	9
1	2224
1	2224
1	18
1	4
1	14
1	2224
1	2224
1	2224
1	2224
1	18
1	2224
1	18
1	2224
1	2224
1	15
1	11
1	2224
1	2224
1	2224
1	2224
1	2224
1	2224
1	2224
1	2224
1	2224
1	18
1	2224
1	2224
1	2224
1	2224
1	2224
1	4
1	2224
1	2224
1	2224
1	2224
1	2224
1	8
1	2224
1	2224
1	2224
1	2224
1	7
1	2224
1	2224
1	2224
1	2224
1	2224
1	2224
1	2224
1	2224
1	12
1	2224
1	2224
1	23
1	2224
1	2224
1	2224
1	2224
1	2224
1	2224
1	2224
1	2224
1	2224
1	2224
1	2224
1	2224
1	2224
1	2224
1	2224
1	2224
1	4
1	2224
1	18
1	18
1	12
1	2224
1	2224
1	2224
1	2224
1	2224
1	2224
1	2224
1	2224
1	2224
1	18
1	10
1	2224
1	2224
1	2224
1	2224
1	2224
1	2224
1	2224
1	2224
1	2224
1	2224
1	2224
1	2224
1	23
1	2224
1	2224
1	2224
1	2224
1	13
1	2224
1	2224
1	2224
1	2224
1	2224
1	2224
1	15
1	23
1	8
1	2224
1	14
1	2224
1	23
1	2224
1	2224
1	2224
1	2224
1	2224
1	2224
1	2224
1	2224
1	2224
1	2224
1	2224
1	2224
1	10
1	2224
1	11
1	2224
1	10
1	2224
1	2224
1	2224
1	5
1	2224
1	2224
1	3
1	2224
1	2224
1	2224
1	4
1	2224
1	19
1	2224
1	2224
1	2224
1	2224
1	2224
1	2224
1	2224
1	16
1	2224
1	2224
1	2224
1	2224
1	2224
1	2224
1	12
1	2224
1	2224
1	5
1	2224
1	16
1	2224
1	2224
1	2224
1	2224
1	2224
1	2224
1	2224
1	2224
1	2224
1	2224
1	2224
1	2224
1	2224
1	2224
1	2224
1	2224
1	2224
1	2224
1	6
1	2224
1	7
1	14
1	2224
1	2224
1	2224
1	2224
1	2224
1	2224
1	16
1	2224
1	2224
1	2224
1	2224
1	2224
1	2224
1	18
1	2224
1	2224
1	2224
1	2224
1	2224
1	2224
1	2224
1	2224
1	2224
1	2224
1	2224
1	6
1	2224
1	5
1	2224
1	18
1	2224
1	2224
1	2224
1	2224
1	2224
1	2224
1	2224
1	2224
1	2224
1	2224
1	2224
1	14
1	16
1	2224
1	7
1	2224
1	2224
1	2224
1	2224
1	2224
1	9
1	2224
1	28
1	2224
1	2224
1	2224
1	2224
1	2224
1	2224
1	6
1	2224
1	2224
1	11
1	2224
1	2224
1	2224
1	2224
1	2224
1	42
1	2224
1	2224
1	2224
1	2224
1	12
1	2224
1	2224
1	2224
1	2224
1	2224
1	12
1	2224
1	2224
1	2224
1	9
1	2224
1	2224
1	16
1	2224
1	2224
1	19
1	2224
1	2224
1	2224
1	4
1	2224
1	2224
1	2224
1	2224
1	2224
1	2224
1	2224
1	2224
1	2224
1	19
1	2224
1	2224
1	2224
1	4
1	11
1	2224
1	2224
1	2224
1	23
1	2224
1	2224
1	2224
1	2224
1	2224
1	2224
1	2224
1	2224
1	2224
1	2224
1	15
1	2224
1	18
1	2224
1	19
1	8
1	2224
1	10
1	2224
1	28
1	2224
1	16
1	5
1	2224
1	23
1	2224
1	13
1	12
1	2224
1	23
1	2224
1	2224
1	2224
1	8
1	2224
1	2224
1	12
1	4
1	2224
1	2224
1	2224
1	4
1	2224
1	2224
1	2224
1	2224
1	11
1	5
1	14
1	2224
1	2224
1	2224
1	2224
1	2224
1	13
1	2224
1	2224
1	2224
1	2224
1	8
1	2224
1	2224
1	2224
1	2224
1	19
1	2224
1	2224
1	2224
1	4
1	13
1	2224
1	2224
1	2224
1	10
1	2224
1	2224
1	2224
1	2224
1	2224
1	2224
1	2224
1	2224
1	2224
1	2224
1	2224
1	2224
1	2224
1	2224
1	2224
1	2224
1	2224
1	2224
1	2224
1	2224
1	2224
1	7
1	15
1	2224
1	2224
1	2224
1	2224
1	2224
1	2224
1	23
1	2224
1	2224
1	2224
1	2224
1	2224
1	2224
1	2224
1	5
1	23
1	2224
1	19
1	2224
1	2224
1	2224
1	2224
1	11
1	2224
1	2224
1	2224
1	18
1	2224
1	2224
1	2224
1	2224
1	2224
1	2224
1	2224
1	10
1	2224
1	2224
1	11
1	2224
1	2224
1	2224
1	3
1	2224
1	2224
1	2224
1	2224
1	2224
1	2224
1	2224
1	2224
1	11
1	18
1	2224
1	12
1	2224
1	2224
1	2224
1	2224
1	2224
1	2224
1	2224
1	7
1	2224
1	2224
1	2224
1	2224
1	2224
1	2224
1	2224
1	2224
1	2224
1	9
1	2224
1	2224
1	2224
1	2224
1	2224
1	15
1	2224
1	2224
1	4
1	2224
1	2224
1	2224
1	2224
1	12
1	7
1	3
1	2224
1	2224
1	2224
1	2224
1	2224
1	2224
1	14
1	2224
1	5
1	2224
1	2224
1	16
1	2224
1	14
1	2224
1	16
1	18
1	13
1	2224
1	2224
1	2224
1	7
1	2224
1	2224
1	2224
1	2224
1	2224
1	2224
1	2224
1	2224
1	2224
1	2224
1	10
1	2224
1	4
1	2224
1	13
1	2224
1	2224
1	2224
1	2224
1	2224
1	2224
1	2224
1	2224
1	2224
1	2224
1	26
1	2224
1	2224
1	2224
1	2224
1	2224
1	2224
1	2224
1	14
1	2224
1	12
1	2224
1	2224
1	2224
1	2224
1	2224
1	2224
1	2224
1	2224
1	2224
1	2224
1	2224
1	2224
1	2224
1	2224
1	18
1	14
1	14
1	2224
1	11
1	2224
1	2224
1	2224
1	2224
1	19
1	2224
1	2224
1	6
1	2224
1	2224
1	18
1	28
1	14
1	6
1	4
1	2224
1	2224
1	2224
1	2224
1	2224
1	2224
1	19
1	2224
1	11
1	2224
1	2224
1	2224
1	18
1	2224
1	2224
1	2224
1	12
1	12
1	2224
1	2224
1	2224
1	2224
1	2224
1	2224
1	5
1	2224
1	12
1	2224
1	15
1	10
1	2224
1	2224
1	18
1	2224
1	2224
1	2224
1	2224
1	2224
1	2224
1	2224
1	2224
1	2224
1	2224
1	2224
1	2224
1	18
1	18
1	2224
1	2224
1	13
1	2224
1	2224
1	11
1	2224
1	2224
1	2224
1	2224
1	2224
1	2224
1	2224
1	2224
1	2224
1	10
1	4
1	2224
1	2224
1	2224
1	2224
1	2224
1	2224
1	6
1	2224
1	2224
1	2224
1	2224
1	2224
1	2224
1	2224
1	12
1	2224
1	2224
1	2224
1	2224
1	2224
1	2224
1	2224
1	2224
1	2224
1	2224
1	2224
1	2224
1	12
1	2224
1	18
1	2224
1	2224
1	2224
1	2224
1	2224
1	2224
1	2224
1	14
1	2224
1	16
1	11
1	2224
1	7
1	2224
1	2224
1	2224
1	11
1	2224
1	18
1	2224
1	2224
1	11
1	2224
1	2224
1	2224
1	2224
1	2224
1	2224
1	2224
1	2224
1	19
1	16
1	2224
1	2224
1	2224
1	2224
1	2224
1	2224
1	2224
1	2224
1	4
1	2224
1	2224
1	2224
1	2224
1	2224
1	7
1	2224
1	2224
1	18
1	18
1	2224
1	2224
1	2224
1	2224
1	2224
1	2224
1	2224
1	16
1	2224
1	2224
1	2224
1	2224
1	2224
1	2224
1	2224
1	6
1	2224
1	2224
1	2224
1	2224
1	11
1	2224
1	2224
1	2224
1	2224
1	2224
1	2224
1	2224
1	12
1	15
1	2224
1	2224
1	2224
1	2224
1	18
1	23
1	2224
1	8
1	8
1	4
1	2224
1	2224
1	2224
1	16
1	2224
1	2224
1	2224
1	2224
1	2224
1	2224
1	2224
1	15
1	2224
1	19
1	2224
1	2224
1	2224
1	2224
1	2224
1	2224
1	13
1	2224
1	2224
1	2224
1	2224
1	2224
1	13
1	2224
1	18
1	2224
1	2224
1	2224
1	2224
1	2224
1	2224
1	12
1	2224
1	10
1	2224
1	12
1	2224
1	2224
1	2224
1	2224
1	2224
1	4
1	2224
1	11
1	7
1	2224
1	2224
1	2224
1	2224
1	2224
1	2224
1	2224
1	2224
1	2224
1	2224
1	19
1	2224
1	9
1	2224
1	2224
1	2224
1	2224
1	4
1	11
1	18
1	2224
1	19
1	2224
1	2224
1	15
1	2224
1	2224
1	2224
1	2224
1	19
1	2224
1	2224
1	12
1	16
1	2224
1	2224
1	2224
1	2224
1	2224
1	2224
1	2224
1	2224
1	2224
1	2224
1	2224
1	8
1	2224
1	2224
1	18
1	12
1	2224
1	2224
1	2224
1	2224
1	2224
1	2224
1	2224
1	2224
1	2224
1	2224
1	18
1	23
1	14
1	2224
1	2224
1	2224
1	12
1	3
1	2224
1	2224
1	2224
1	2224
1	2224
1	2224
1	2224
1	2224
1	15
1	2224
1	2224
1	14
1	2224
1	2224
1	2224
1	2224
1	11
1	2224
1	2224
1	5
1	2224
1	2224
1	7
1	18
1	2224
1	2224
1	2224
1	2224
1	2224
1	2224
1	2224
1	2224
1	5
1	2224
1	2224
1	2224
1	2224
1	18
1	2224
1	2224
1	2224
1	2224
1	2224
1	2224
1	11
1	2224
1	2224
1	2224
1	2224
1	2224
1	23
1	2224
1	2224
1	2224
1	2224
1	2224
1	2224
1	2224
1	14
1	5
1	8
1	2224
1	2224
1	12
1	2224
1	2224
1	2224
1	2224
1	2224
1	2224
1	14
1	2224
1	2224
1	2224
1	23
1	12
1	2224
1	23
1	2224
1	2224
1	2224
1	2224
1	2224
1	2224
1	18
1	18
1	2224
1	2224
1	4
1	10
1	2224
1	2224
1	2224
1	2224
1	2224
1	4
1	2224
1	7
1	2224
1	2224
1	2224
1	3
1	16
1	2224
1	11
1	9
1	2224
1	2224
1	2224
1	2224
1	2224
1	6
1	2224
1	2224
1	2224
1	2224
1	2224
1	2224
1	16
2	7
2	12
2	2224
2	12
2	42
2	42
2	42
2	42
2	5
2	26
2	11
2	2224
2	19
2	42
2	4
2	2224
2	4
2	11
2	42
2	26
2	8
2	2224
2	9
2	11
2	42
2	5
2	19
2	2224
2	3
2	7
2	9
2	42
2	6
2	11
2	9
2	8
2	6
2	42
2	15
2	26
2	14
2	26
2	11
2	42
2	4
2	2224
2	4
2	11
2	26
2	11
2	5
2	5
2	4
2	4
2	6
2	5
2	42
2	23
2	4
2	42
2	4
2	4
2	7
2	3
2	14
2	42
2	18
2	42
2	2224
2	5
2	16
2	5
2	9
2	42
2	26
2	18
2	14
2	23
2	16
2	5
2	42
2	42
2	4
2	3
2	42
2	9
2	2224
2	5
2	4
2	4
2	13
2	14
2	14
2	8
2	42
2	9
2	4
2	16
2	26
2	26
2	16
2	5
2	4
2	42
2	9
2	8
2	3
2	26
2	4
2	3
2	5
2	42
2	3
2	13
2	3
2	4
2	6
2	5
2	6
2	4
2	9
2	15
2	28
2	8
2	42
2	9
2	6
2	2224
2	42
2	3
2	5
2	42
2	5
2	26
2	26
2	15
2	8
2	10
2	7
2	42
2	11
2	6
2	3
2	8
2	9
2	18
2	2224
2	42
2	5
2	3
2	7
2	4
2	3
2	5
2	11
2	6
2	42
2	9
2	42
2	26
2	6
2	3
2	11
2	26
2	42
2	4
2	6
2	15
2	8
2	23
2	13
2	8
2	14
2	11
2	8
2	4
2	42
2	42
2	5
2	3
2	42
2	4
2	42
2	42
2	6
2	19
2	5
2	26
2	42
2	15
2	5
2	12
2	5
2	3
2	42
2	42
2	11
2	3
2	11
2	11
2	42
2	9
2	4
2	42
2	23
2	3
3	8
3	4
3	5
3	12
3	7
3	23
3	12
3	10
3	5
3	5
3	5
3	5
3	6
3	6
3	8
3	5
3	6
3	4
3	7
3	13
4	5
4	6
4	6


