# Persistence diagram </home/jens/Uni/data_topology/Project/reddit_results/graphs/0594-1.gml>
#
# Dimension   : 1
# Entries     : 299
# Betti number: 299
3	inf
4	inf
4	inf
7	inf
8	inf
8	inf
9	inf
9	inf
9	inf
10	inf
10	inf
10	inf
10	inf
10	inf
10	inf
10	inf
10	inf
10	inf
10	inf
10	inf
11	inf
11	inf
11	inf
11	inf
11	inf
11	inf
11	inf
11	inf
11	inf
12	inf
12	inf
12	inf
12	inf
12	inf
12	inf
12	inf
12	inf
12	inf
12	inf
12	inf
12	inf
12	inf
12	inf
12	inf
12	inf
12	inf
12	inf
13	inf
14	inf
14	inf
14	inf
14	inf
14	inf
14	inf
15	inf
15	inf
15	inf
15	inf
15	inf
15	inf
15	inf
15	inf
15	inf
15	inf
15	inf
15	inf
15	inf
15	inf
16	inf
16	inf
16	inf
16	inf
16	inf
16	inf
16	inf
16	inf
16	inf
16	inf
17	inf
17	inf
17	inf
17	inf
17	inf
17	inf
17	inf
17	inf
17	inf
17	inf
17	inf
17	inf
17	inf
17	inf
18	inf
18	inf
18	inf
18	inf
18	inf
18	inf
18	inf
18	inf
18	inf
18	inf
18	inf
18	inf
18	inf
18	inf
19	inf
19	inf
19	inf
19	inf
19	inf
19	inf
20	inf
20	inf
20	inf
20	inf
20	inf
20	inf
20	inf
20	inf
20	inf
20	inf
21	inf
21	inf
21	inf
21	inf
21	inf
21	inf
22	inf
22	inf
22	inf
22	inf
22	inf
22	inf
22	inf
22	inf
22	inf
24	inf
24	inf
24	inf
24	inf
24	inf
24	inf
27	inf
27	inf
27	inf
27	inf
27	inf
27	inf
27	inf
27	inf
2537	inf
2537	inf
2537	inf
2537	inf
2537	inf
2537	inf
2537	inf
2537	inf
2537	inf
2537	inf
2537	inf
2537	inf
2537	inf
2537	inf
2537	inf
2537	inf
2537	inf
2537	inf
2537	inf
2537	inf
2537	inf
2537	inf
2537	inf
2537	inf
2537	inf
2537	inf
2537	inf
2537	inf
2537	inf
2537	inf
2537	inf
2537	inf
2537	inf
2537	inf
2537	inf
2537	inf
2537	inf
2537	inf
2537	inf
2537	inf
2537	inf
2537	inf
2537	inf
2537	inf
2537	inf
2537	inf
2537	inf
2537	inf
2537	inf
2537	inf
2537	inf
2537	inf
2537	inf
2537	inf
2537	inf
2537	inf
2537	inf
2537	inf
2537	inf
2537	inf
2537	inf
2537	inf
2537	inf
2537	inf
2537	inf
2537	inf
2537	inf
2537	inf
2537	inf
2537	inf
2537	inf
2537	inf
2537	inf
2537	inf
2537	inf
2537	inf
2537	inf
2537	inf
2537	inf
2537	inf
2537	inf
2537	inf
2537	inf
2537	inf
2537	inf
2537	inf
2537	inf
2537	inf
2537	inf
2537	inf
2537	inf
2537	inf
2537	inf
2537	inf
2537	inf
2537	inf
2537	inf
2537	inf
2537	inf
2537	inf
2537	inf
2537	inf
2537	inf
2537	inf
2537	inf
2537	inf
2537	inf
2537	inf
2537	inf
2537	inf
2537	inf
2537	inf
2537	inf
2537	inf
2537	inf
2537	inf
2537	inf
2537	inf
2537	inf
2537	inf
2537	inf
2537	inf
2537	inf
2537	inf
2537	inf
2537	inf
2537	inf
2537	inf
2537	inf
2537	inf
2537	inf
2537	inf
2537	inf
2537	inf
2537	inf
2537	inf
2537	inf
2537	inf
2537	inf
2537	inf
2537	inf
2537	inf
2537	inf
2537	inf
2537	inf
2537	inf
2537	inf
2537	inf
