# Persistence diagram </home/jens/Uni/data_topology/Project/reddit_results/graphs/0594-1.gml>
#
# Dimension   : 0
# Entries     : 3368
# Betti number: 10
1	inf
1	2537
1	2537
1	2537
1	2537
1	2537
1	2537
1	2537
1	2537
1	18
1	2537
1	2537
1	8
1	2537
1	2537
1	8
1	2537
1	2537
1	2537
1	2537
1	2537
1	20
1	2537
1	11
1	2537
1	2537
1	2537
1	19
1	2537
1	2537
1	2537
1	2537
1	2537
1	2537
1	2537
1	2537
1	2537
1	2537
1	2537
1	18
1	9
1	2537
1	16
1	2537
1	2537
1	2537
1	2537
1	2537
1	24
1	2537
1	2537
1	2537
1	24
1	19
1	2537
1	2537
1	2537
1	2537
1	2537
1	2537
1	19
1	8
1	2537
1	2537
1	2537
1	2537
1	2537
1	2537
1	2537
1	2537
1	2537
1	2537
1	13
1	16
1	2537
1	13
1	2537
1	2537
1	2537
1	17
1	12
1	2537
1	2537
1	2537
1	2537
1	2537
1	19
1	8
1	12
1	2537
1	inf
1	2537
1	22
1	2537
1	2537
1	2537
1	27
1	19
1	2537
1	2537
1	17
1	18
1	2537
1	2537
1	2537
1	2537
1	2537
1	2537
1	2537
1	2537
1	2537
1	2537
1	2537
1	2537
1	2537
1	2537
1	2537
1	2537
1	12
1	2537
1	8
1	15
1	2537
1	2537
1	2537
1	2537
1	2537
1	2537
1	2537
1	13
1	2537
1	15
1	12
1	15
1	2537
1	2537
1	2537
1	12
1	2537
1	2537
1	9
1	12
1	17
1	2537
1	2537
1	2537
1	2537
1	8
1	24
1	2537
1	2537
1	2537
1	2537
1	2537
1	2537
1	2537
1	2537
1	2537
1	10
1	2537
1	2537
1	2537
1	2537
1	2537
1	2537
1	2537
1	2537
1	2537
1	2537
1	8
1	2537
1	2537
1	2537
1	7
1	15
1	2537
1	2537
1	2537
1	2537
1	2537
1	3
1	2537
1	11
1	2537
1	2537
1	2537
1	2537
1	2537
1	2537
1	2537
1	2537
1	2537
1	8
1	2537
1	2537
1	19
1	8
1	2537
1	22
1	2537
1	2537
1	15
1	2537
1	2537
1	2537
1	2537
1	4
1	2537
1	2537
1	2537
1	2537
1	2537
1	2537
1	2537
1	2537
1	12
1	2537
1	2537
1	2537
1	2537
1	2537
1	5
1	2537
1	2537
1	2537
1	2537
1	2537
1	2537
1	2537
1	22
1	2537
1	2537
1	15
1	15
1	2537
1	2537
1	2537
1	2537
1	2537
1	2537
1	11
1	2537
1	2537
1	2537
1	2537
1	2537
1	6
1	2537
1	2537
1	2537
1	2537
1	2537
1	2537
1	2537
1	17
1	2537
1	2537
1	2537
1	2537
1	2537
1	7
1	2537
1	2537
1	2537
1	22
1	2537
1	2537
1	2537
1	2537
1	2537
1	10
1	2537
1	2537
1	7
1	12
1	2537
1	2537
1	2537
1	2537
1	2537
1	2537
1	21
1	2537
1	2537
1	2537
1	2537
1	2537
1	2537
1	15
1	2537
1	2537
1	21
1	2537
1	2537
1	11
1	2537
1	2537
1	2537
1	2537
1	10
1	8
1	2537
1	2537
1	2537
1	2537
1	2537
1	2537
1	8
1	6
1	2537
1	2537
1	2537
1	17
1	2537
1	8
1	12
1	2537
1	2537
1	19
1	2537
1	9
1	17
1	2537
1	8
1	13
1	2537
1	2537
1	2537
1	9
1	2537
1	2537
1	2537
1	17
1	2537
1	2537
1	2537
1	2537
1	2537
1	17
1	2537
1	2537
1	8
1	2537
1	10
1	2537
1	2537
1	2537
1	2537
1	2537
1	2537
1	2537
1	2537
1	2537
1	20
1	2537
1	2537
1	2537
1	2537
1	6
1	2537
1	18
1	2537
1	14
1	20
1	2537
1	2537
1	2537
1	2537
1	2537
1	2537
1	2537
1	2537
1	2537
1	21
1	17
1	2537
1	2537
1	2537
1	2537
1	19
1	2537
1	2537
1	2537
1	2537
1	2537
1	2537
1	2537
1	2537
1	2537
1	18
1	2537
1	2537
1	2537
1	20
1	2537
1	2537
1	2537
1	2537
1	2537
1	2537
1	16
1	2537
1	2537
1	2537
1	10
1	2537
1	2537
1	2537
1	7
1	2537
1	2537
1	2537
1	2537
1	2537
1	2537
1	2537
1	2537
1	18
1	2537
1	2537
1	2537
1	2537
1	2537
1	2537
1	inf
1	2537
1	2537
1	2537
1	2537
1	2537
1	2537
1	2537
1	2537
1	7
1	20
1	2537
1	2537
1	2537
1	2537
1	2537
1	2537
1	2537
1	2537
1	2537
1	15
1	2537
1	2537
1	2537
1	16
1	7
1	2537
1	2537
1	2537
1	2537
1	17
1	2537
1	2537
1	22
1	2537
1	2537
1	2537
1	2537
1	7
1	2537
1	2537
1	2537
1	2537
1	2537
1	2537
1	2537
1	17
1	12
1	21
1	6
1	2537
1	19
1	2537
1	2537
1	2537
1	2537
1	2537
1	2537
1	2537
1	2537
1	2537
1	2537
1	2537
1	2537
1	7
1	2537
1	2537
1	6
1	2537
1	2537
1	2537
1	2537
1	2537
1	2537
1	2537
1	inf
1	2537
1	2537
1	22
1	2537
1	2537
1	7
1	18
1	2537
1	2537
1	2537
1	2537
1	17
1	24
1	16
1	2537
1	2537
1	2537
1	10
1	2537
1	2537
1	2537
1	16
1	2537
1	12
1	11
1	2537
1	11
1	6
1	9
1	2537
1	12
1	2537
1	2537
1	2537
1	7
1	12
1	2537
1	2537
1	2537
1	20
1	14
1	2537
1	2537
1	2537
1	2537
1	2537
1	2537
1	22
1	7
1	2537
1	10
1	2537
1	2537
1	2537
1	2537
1	6
1	2537
1	2537
1	inf
1	2537
1	17
1	13
1	2537
1	16
1	2537
1	2537
1	22
1	13
1	2537
1	2537
1	2537
1	2537
1	10
1	2537
1	18
1	2537
1	2537
1	12
1	13
1	2537
1	7
1	2537
1	2537
1	10
1	15
1	2537
1	16
1	2537
1	2537
1	18
1	2537
1	2537
1	21
1	2537
1	2537
1	2537
1	2537
1	2537
1	2537
1	12
1	2537
1	2537
1	2537
1	2537
1	6
1	2537
1	2537
1	2537
1	2537
1	2537
1	2537
1	2537
1	2537
1	2537
1	2537
1	2537
1	2537
1	2537
1	21
1	2537
1	8
1	2537
1	2537
1	2537
1	2537
1	2537
1	2537
1	2537
1	14
1	2537
1	2537
1	2537
1	2537
1	2537
1	inf
1	2537
1	2537
1	2537
1	2537
1	2537
1	15
1	11
1	2537
1	2537
1	2537
1	2537
1	27
1	2537
1	2537
1	2537
1	17
1	2537
1	12
1	10
1	2537
1	2537
1	2537
1	4
1	19
1	2537
1	2537
1	12
1	2537
1	17
1	2537
1	2537
1	2537
1	18
1	2537
1	2537
1	15
1	2537
1	2537
1	2537
1	7
1	2537
1	2537
1	2537
1	2537
1	2537
1	2537
1	2537
1	2537
1	2537
1	2537
1	2537
1	16
1	2537
1	2537
1	2537
1	2537
1	2537
1	2537
1	2537
1	2537
1	2537
1	2537
1	19
1	2537
1	2537
1	22
1	2537
1	2537
1	27
1	2537
1	22
1	8
1	2537
1	2537
1	19
1	2537
1	2537
1	18
1	2537
1	11
1	10
1	2537
1	13
1	2537
1	8
1	2537
1	2537
1	9
1	2537
1	2537
1	2537
1	2537
1	2537
1	2537
1	2537
1	2537
1	5
1	2537
1	2537
1	2537
1	2537
1	2537
1	19
1	2537
1	15
1	2537
1	2537
1	2537
1	2537
1	2537
1	2537
1	17
1	2537
1	2537
1	19
1	2537
1	12
1	2537
1	16
1	2537
1	2537
1	2537
1	2537
1	2537
1	2537
1	2537
1	2537
1	2537
1	4
1	2537
1	2537
1	2537
1	17
1	2537
1	2537
1	2537
1	2537
1	2537
1	2537
1	2537
1	21
1	19
1	2537
1	2537
1	2537
1	2537
1	2537
1	2537
1	2537
1	2537
1	16
1	2537
1	2537
1	2537
1	2537
1	2537
1	2537
1	16
1	2537
1	2537
1	2537
1	2537
1	7
1	2537
1	2537
1	27
1	2537
1	2537
1	2537
1	18
1	2537
1	2537
1	2537
1	2537
1	20
1	2537
1	2537
1	2537
1	2537
1	2537
1	20
1	2537
1	2537
1	2537
1	14
1	2537
1	2537
1	2537
1	2537
1	2537
1	2537
1	2537
1	2537
1	2537
1	15
1	2537
1	2537
1	2537
1	2537
1	2537
1	2537
1	2537
1	12
1	2537
1	16
1	2537
1	2537
1	2537
1	2537
1	2537
1	2537
1	2537
1	2537
1	2537
1	2537
1	2537
1	2537
1	2537
1	2537
1	2537
1	2537
1	2537
1	2537
1	2537
1	2537
1	2537
1	16
1	12
1	2537
1	2537
1	2537
1	2537
1	6
1	2537
1	2537
1	27
1	2537
1	2537
1	2537
1	2537
1	2537
1	2537
1	2537
1	2537
1	2537
1	2537
1	11
1	5
1	2537
1	2537
1	2537
1	2537
1	2537
1	2537
1	2537
1	2537
1	2537
1	2537
1	15
1	13
1	2537
1	2537
1	16
1	2537
1	2537
1	2537
1	2537
1	7
1	2537
1	11
1	18
1	2537
1	2537
1	2537
1	2537
1	2537
1	6
1	11
1	2537
1	2537
1	2537
1	12
1	2537
1	2537
1	2537
1	2537
1	2537
1	2537
1	2537
1	12
1	2537
1	2537
1	2537
1	2537
1	2537
1	2537
1	2537
1	2537
1	11
1	2537
1	2537
1	2537
1	7
1	2537
1	9
1	2537
1	8
1	2537
1	2537
1	2537
1	2537
1	2537
1	2537
1	2537
1	2537
1	2537
1	5
1	2537
1	5
1	15
1	9
1	2537
1	2537
1	2537
1	2537
1	2537
1	2537
1	2537
1	15
1	12
1	2537
1	20
1	2537
1	2537
1	2537
1	2537
1	2537
1	2537
1	2537
1	8
1	19
1	2537
1	2537
1	2537
1	22
1	2537
1	2537
1	27
1	20
1	2537
1	2537
1	2537
1	2537
1	2537
1	2537
1	7
1	2537
1	2537
1	2537
1	2537
1	2537
1	2537
1	2537
1	2537
1	12
1	2537
1	2537
1	6
1	15
1	2537
1	2537
1	2537
1	16
1	2537
1	2537
1	2537
1	2537
1	16
1	2537
1	12
1	14
1	2537
1	2537
1	2537
1	2537
1	2537
1	2537
1	2537
1	2537
1	2537
1	8
1	2537
1	2537
1	19
1	2537
1	2537
1	2537
1	2537
1	2537
1	3
1	2537
1	2537
1	17
1	2537
1	2537
1	2537
1	2537
1	2537
1	12
1	2537
1	2537
1	27
1	2537
1	2537
1	2537
1	2537
1	2537
1	2537
1	5
1	16
1	2537
1	2537
1	2537
1	2537
1	2537
1	2537
1	2537
1	2537
1	2537
1	2537
1	2537
1	2537
1	2537
1	2537
1	2537
1	2537
1	6
1	9
1	2537
1	4
1	15
1	2537
1	2537
1	9
1	3
1	2537
1	13
1	2537
1	2537
1	2537
1	inf
1	4
1	2537
1	2537
1	2537
1	2537
1	17
1	2537
1	2537
1	5
1	5
1	2537
1	2537
1	2537
1	2537
1	2537
1	2537
1	2537
1	2537
1	2537
1	2537
1	2537
1	2537
1	7
1	2537
1	2537
1	2537
1	2537
1	2537
1	2537
1	2537
1	2537
1	2537
1	2537
1	2537
1	2537
1	2537
1	5
1	2537
1	2537
1	2537
1	6
1	2537
1	9
1	2537
1	2537
1	16
1	20
1	2537
1	2537
1	3
1	2537
1	2537
1	2537
1	27
1	2537
1	2537
1	2537
1	2537
1	2537
1	2537
1	2537
1	2537
1	2537
1	12
1	2537
1	2537
1	2537
1	2537
1	2537
1	2537
1	24
1	2537
1	2537
1	2537
1	7
1	2537
1	2537
1	2537
1	6
1	2537
1	18
1	2537
1	4
1	2537
1	2537
1	2537
1	2537
1	2537
1	2537
1	2537
1	2537
1	2537
1	2537
1	2537
1	19
1	2537
1	22
1	22
1	15
1	2537
1	10
1	19
1	5
1	2537
1	2537
1	2537
1	2537
1	2537
1	17
1	2537
1	2537
1	2537
1	2537
1	11
1	2537
1	2537
1	5
1	2537
1	17
1	2537
1	2537
1	2537
1	2537
1	2537
1	2537
1	2537
1	2537
1	7
1	17
1	2537
1	2537
1	2537
1	2537
1	2537
1	2537
1	4
1	2537
1	13
1	2537
1	2537
1	6
1	2537
1	2537
1	2537
1	2537
1	2537
1	2537
1	2537
1	2537
1	2537
1	16
1	7
1	16
1	2537
1	2537
1	2537
1	2537
1	2537
1	2537
1	2537
1	12
1	2537
1	2537
1	2537
1	2537
1	2537
1	2537
1	2537
1	2537
1	7
1	inf
1	2537
1	18
1	2537
1	2537
1	2537
1	11
1	2537
1	2537
1	2537
1	8
1	2537
1	2537
1	2537
1	27
1	2537
1	2537
1	2537
1	2537
1	2537
1	2537
1	10
1	2537
1	2537
1	2537
1	12
1	2537
1	12
1	2537
1	2537
1	2537
1	2537
1	2537
1	2537
1	2537
1	2537
1	2537
1	2537
1	2537
1	2537
1	18
1	10
1	2537
1	2537
1	2537
1	8
1	2537
1	2537
1	2537
1	2537
1	2537
1	2537
1	11
1	2537
1	2537
1	18
1	2537
1	2537
1	2537
1	2537
1	2537
1	2537
1	2537
1	18
1	17
1	2537
1	2537
1	2537
1	17
1	2537
1	2537
1	2537
1	2537
1	4
1	2537
1	2537
1	2537
1	2537
1	2537
1	9
1	24
1	2537
1	2537
1	2537
1	2537
1	5
1	7
1	7
1	2537
1	24
1	18
1	2537
1	2537
1	15
1	19
1	11
1	2537
1	2537
1	8
1	2537
1	2537
1	2537
1	2537
1	2537
1	8
1	2537
1	2537
1	2537
1	20
1	18
1	2537
1	2537
1	2537
1	2537
1	2537
1	2537
1	2537
1	2537
1	5
1	2537
1	2537
1	9
1	2537
1	12
1	2537
1	2537
1	2537
1	2537
1	2537
1	2537
1	2537
1	2537
1	2537
1	2537
1	16
1	10
1	2537
1	2537
1	8
1	2537
1	2537
1	2537
1	2537
1	2537
1	2537
1	2537
1	2537
1	15
1	2537
1	17
1	2537
1	2537
1	7
1	2537
1	2537
1	2537
1	2537
1	2537
1	2537
1	2537
1	2537
1	2537
1	2537
1	2537
1	9
1	6
1	2537
1	2537
1	2537
1	2537
1	2537
1	2537
1	2537
1	2537
1	5
1	12
1	12
1	3
1	2537
1	2537
1	2537
1	2537
1	2537
1	12
1	15
1	2537
1	2537
1	2537
1	2537
1	6
1	8
1	2537
1	2537
1	16
1	2537
1	2537
1	2537
1	2537
1	2537
1	2537
1	2537
1	2537
1	2537
1	4
1	7
1	4
1	2537
1	inf
1	2537
1	9
1	12
1	2537
1	2537
1	2537
1	2537
1	18
1	2537
1	2537
1	22
1	12
1	2537
1	2537
1	19
1	17
1	2537
1	2537
1	2537
1	2537
1	18
1	2537
1	2537
1	8
1	2537
1	2537
1	2537
1	2537
1	2537
1	2537
1	12
1	2537
1	2537
1	12
1	2537
1	2537
1	2537
1	2537
1	2537
1	2537
1	10
1	7
1	2537
1	2537
1	2537
1	2537
1	2537
1	2537
1	2537
1	2537
1	2537
1	2537
1	2537
1	2537
1	18
1	2537
1	2537
1	2537
1	2537
1	2537
1	2537
1	22
1	2537
1	9
1	2537
1	10
1	27
1	2537
1	2537
1	12
1	12
1	2537
1	2537
1	2537
1	2537
1	2537
1	2537
1	2537
1	7
1	2537
1	15
1	2537
1	2537
1	2537
1	2537
1	2537
1	2537
1	2537
1	2537
1	2537
1	14
1	2537
1	2537
1	2537
1	8
1	14
1	5
1	2537
1	2537
1	2537
1	2537
1	2537
1	2537
1	2537
1	2537
1	2537
1	7
1	4
1	2537
1	2537
1	2537
1	5
1	2537
1	2537
1	2537
1	2537
1	2537
1	7
1	2537
1	2537
1	2537
1	2537
1	2537
1	2537
1	2537
1	2537
1	13
1	2537
1	2537
1	2537
1	16
1	2537
1	2537
1	21
1	2537
1	11
1	2537
1	2537
1	4
1	2537
1	2537
1	2537
1	16
1	2537
1	2537
1	2537
1	2537
1	2537
1	2537
1	2537
1	2537
1	2537
1	2537
1	2537
1	2537
1	2537
1	2537
1	2537
1	2537
1	19
1	2537
1	2537
1	2537
1	2537
1	2537
1	2537
1	2537
1	2537
1	2537
1	2537
1	2537
1	2537
1	2537
1	2537
1	2537
1	2537
1	18
1	2537
1	3
1	2537
1	2537
1	24
1	14
1	7
1	2537
1	2537
1	2537
1	2537
1	2537
1	20
1	2537
1	10
1	5
1	2537
1	2537
1	2537
1	2537
1	5
1	2537
1	2537
1	8
1	2537
1	2537
1	2537
1	7
1	2537
1	15
1	2537
1	2537
1	22
1	24
1	2537
1	2537
1	2537
1	17
1	2537
1	18
1	11
1	2537
1	2537
1	2537
1	2537
1	22
1	2537
1	12
1	2537
1	2537
1	2537
1	12
1	16
1	2537
1	2537
1	2537
1	2537
1	2537
1	6
1	2537
1	2537
1	2537
1	2537
1	15
1	17
1	2537
1	2537
1	2537
1	14
1	2537
1	2537
1	2537
1	20
1	2537
1	22
1	2537
1	2537
1	2537
1	2537
1	2537
1	2537
1	2537
1	10
1	7
1	2537
1	2537
1	15
1	24
1	2537
1	7
1	2537
1	6
1	2537
1	2537
1	2537
1	10
1	21
1	2537
1	2537
1	16
1	7
1	2537
1	2537
1	2537
1	7
1	18
1	24
1	4
1	5
1	2537
1	2537
1	2537
1	2537
1	2537
1	2537
1	2537
1	19
1	2537
1	22
1	2537
1	5
1	3
1	2537
1	2537
1	2537
1	2537
1	2537
1	2537
1	2537
1	2537
1	2537
1	2537
1	2537
1	2537
1	2537
1	2537
1	2537
1	2537
1	2537
1	2537
1	2537
1	2537
1	2537
1	10
1	2537
1	2537
1	2537
1	6
1	2537
1	2537
1	5
1	2537
1	10
1	2537
1	2537
1	2537
1	2537
1	21
1	2537
1	2537
1	2537
1	2537
1	2537
1	2537
1	2537
1	2537
1	2537
1	9
1	2537
1	2537
1	2537
1	2537
1	8
1	17
1	2537
1	2537
1	2537
1	19
1	2537
1	2537
1	2537
1	2537
1	2537
1	2537
1	19
1	7
1	2537
1	2537
1	2537
1	2537
1	11
1	2537
1	24
1	2537
1	2537
1	15
1	2537
1	2537
1	16
1	2537
1	2537
1	2537
1	2537
1	2537
1	2537
1	2537
1	2537
1	2537
1	2537
1	2537
1	22
1	2537
1	2537
1	2537
1	2537
1	2537
1	2537
1	2537
1	2537
1	2537
1	7
1	2537
1	7
1	2537
1	2537
1	2537
1	9
1	2537
1	2537
1	2537
1	2537
1	2537
1	5
1	6
1	2537
1	2537
1	2537
1	2537
1	2537
1	2537
1	2537
1	2537
1	2537
1	12
1	12
1	2537
1	2537
1	2537
1	2537
1	2537
1	2537
1	6
1	2537
1	2537
1	2537
1	2537
1	2537
1	2537
1	19
1	2537
1	2537
1	2537
1	2537
1	2537
1	2537
1	2537
1	2537
1	2537
1	2537
1	5
1	2537
1	2537
1	2537
1	5
1	27
1	2537
1	2537
1	2537
1	2537
1	7
1	2537
1	2537
1	2537
1	12
1	2537
1	2537
1	2537
1	2537
1	2537
1	2537
1	2537
1	2537
1	2537
1	2537
1	2537
1	2537
1	2537
1	4
1	2537
1	2537
1	2537
1	2537
1	11
1	2537
1	10
1	2537
1	27
1	14
1	2537
1	19
1	2537
1	2537
1	2537
1	2537
1	2537
1	16
1	2537
1	2537
1	2537
1	2537
1	3
1	2537
1	17
1	2537
1	2537
1	2537
1	2537
1	2537
1	5
1	2537
1	4
1	2537
1	2537
1	2537
1	2537
1	2537
1	2537
1	2537
1	20
1	2537
1	2537
1	2537
1	16
1	2537
1	2537
1	2537
1	2537
1	19
1	2537
1	5
1	2537
1	2537
1	2537
1	24
1	16
1	2537
1	2537
1	2537
1	2537
1	2537
1	2537
1	2537
1	2537
1	8
1	2537
1	2537
1	2537
1	2537
1	12
1	15
1	2537
1	7
1	2537
1	2537
1	2537
1	2537
1	2537
1	2537
1	2537
1	2537
1	2537
1	2537
1	17
1	2537
1	2537
1	2537
1	2537
1	2537
1	2537
1	2537
1	2537
1	2537
1	11
1	2537
1	6
1	17
1	2537
1	2537
1	2537
1	2537
1	2537
1	5
1	2537
1	2537
1	2537
1	2537
1	2537
1	2537
1	15
1	2537
1	2537
1	2537
1	2537
1	2537
1	2537
1	18
1	2537
1	2537
1	2537
1	2537
1	2537
1	4
1	2537
1	11
1	2537
1	2537
1	2537
1	2537
1	9
1	2537
1	2537
1	2537
1	15
1	2537
1	2537
1	2537
1	14
1	2537
1	8
1	2537
1	2537
1	2537
1	2537
1	2537
1	2537
1	2537
1	12
1	2537
1	2537
1	2537
1	12
1	2537
1	2537
1	2537
1	4
1	2537
1	2537
1	2537
1	10
1	2537
1	2537
1	2537
1	2537
1	7
1	2537
1	2537
1	2537
1	2537
1	2537
1	2537
1	27
1	20
1	2537
1	3
1	2537
1	2537
1	4
1	2537
1	2537
1	10
1	17
1	18
1	2537
1	inf
1	2537
1	2537
1	5
1	6
1	2537
1	2537
1	17
1	2537
1	2537
1	12
1	2537
1	2537
1	11
1	2537
1	5
1	8
1	2537
1	2537
1	2537
1	2537
1	2537
1	2537
1	2537
1	2537
1	2537
1	17
1	6
1	2537
1	2537
1	19
1	2537
1	10
1	2537
1	2537
1	7
1	2537
1	6
1	2537
1	19
1	12
1	2537
1	2537
1	3
1	2537
1	2537
1	2537
1	2537
1	2537
1	11
1	2537
1	2537
1	10
1	2537
1	8
1	11
1	2537
1	22
1	2537
1	2537
1	5
1	2537
1	2537
1	2537
1	2537
1	18
1	7
1	7
1	2537
1	2537
1	2537
1	10
1	2537
1	2537
1	2537
1	12
1	2537
1	13
1	2537
1	2537
1	2537
1	12
1	2537
1	2537
1	12
1	2537
1	7
1	2537
1	2537
1	2537
1	2537
1	2537
1	2537
1	2537
1	2537
1	9
1	2537
1	2537
1	2537
1	2537
1	10
1	2537
1	2537
1	2537
1	17
1	2537
1	2537
1	14
1	2537
1	11
1	2537
1	2537
1	2537
1	2537
1	2537
1	2537
1	2537
1	3
1	2537
1	2537
1	2537
1	2537
1	4
1	2537
1	2537
1	2537
1	2537
1	2537
1	2537
1	2537
1	2537
1	2537
1	16
1	15
1	2537
1	2537
1	2537
1	2537
1	2537
1	10
1	2537
1	2537
1	2537
1	17
1	10
1	2537
1	2537
1	2537
1	2537
1	18
1	2537
1	2537
1	8
1	27
1	2537
1	2537
1	2537
1	6
1	2537
1	2537
1	6
1	2537
1	8
1	2537
1	16
1	2537
1	2537
1	2537
1	11
1	12
1	2537
1	2537
1	2537
1	2537
1	2537
1	2537
1	10
1	2537
1	2537
1	2537
1	17
1	2537
1	16
1	17
1	2537
1	19
1	2537
1	2537
1	2537
1	2537
1	2537
1	2537
1	2537
1	12
1	2537
1	2537
1	16
1	2537
1	5
1	2537
1	17
1	2537
1	9
1	2537
1	2537
1	2537
1	2537
1	12
1	2537
1	2537
1	2537
1	2537
1	2537
1	2537
1	2537
1	5
1	2537
1	2537
1	2537
1	2537
1	2537
1	3
1	2537
1	2537
1	2537
1	2537
1	7
1	15
1	2537
1	2537
1	19
1	2537
1	2537
1	20
1	16
1	2537
1	15
1	17
1	2537
1	16
1	8
1	2537
1	2537
1	2537
1	2537
1	8
1	2537
1	2537
1	20
1	2537
1	2537
1	2537
1	2537
1	2537
1	2537
1	5
1	8
1	2537
1	2537
1	16
1	2537
1	11
1	2537
1	2537
1	2537
1	2537
1	2537
1	2537
1	14
1	5
1	20
1	2537
1	5
1	2537
1	2537
1	2537
1	3
1	2537
1	2537
1	2537
1	2537
1	19
1	2537
1	2537
1	2537
1	11
1	2537
1	24
1	2537
1	10
1	2537
1	2537
1	7
1	2537
1	2537
1	2537
1	12
1	2537
1	2537
1	2537
1	9
1	2537
1	13
1	2537
1	2537
1	2537
1	2537
1	5
1	2537
1	2537
1	2537
1	2537
1	6
1	2537
1	2537
1	2537
1	2537
1	8
1	19
1	16
1	15
1	2537
1	2537
1	2537
1	2537
1	2537
1	2537
1	2537
1	2537
1	17
1	2537
1	2537
1	2537
1	2537
1	2537
1	16
1	2537
1	2537
1	2537
1	2537
1	21
1	2537
1	2537
1	2537
1	2537
1	2537
1	2537
1	2537
1	2537
1	2537
1	2537
1	2537
1	2537
1	2537
1	2537
1	2537
1	2537
1	2537
1	2537
1	2537
1	2537
1	2537
1	2537
1	2537
1	2537
1	2537
1	2537
1	2537
1	2537
1	2537
1	17
1	2537
1	2537
1	2537
1	2537
1	3
1	2537
1	2537
1	2537
1	2537
1	2537
1	12
1	2537
1	4
1	6
1	2537
1	2537
1	2537
1	2537
1	2537
1	2537
1	20
1	2537
1	2537
1	2537
1	8
1	2537
1	2537
1	3
1	2537
1	2537
1	2537
1	8
1	2537
1	2537
1	2537
1	2537
1	2537
1	2537
1	6
1	2537
1	2537
1	5
1	2537
1	3
1	2537
1	9
1	2537
1	19
1	2537
1	2537
1	2537
1	2537
1	2537
1	2537
1	9
1	19
1	2537
1	2537
1	2537
1	2537
1	21
1	2537
1	7
1	18
1	2537
1	2537
1	2537
1	4
1	11
1	2537
1	2537
1	16
1	17
1	19
1	2537
1	2537
1	12
1	2537
1	12
1	2537
1	12
1	2537
1	2537
1	2537
1	2537
1	11
1	2537
1	2537
1	4
1	2537
1	2537
1	2537
1	2537
1	2537
1	16
1	2537
1	2537
1	2537
1	16
1	8
1	2537
1	2537
1	2537
1	2537
1	2537
1	21
1	2537
1	12
1	2537
1	2537
1	2537
1	11
1	2537
1	2537
1	22
1	2537
1	17
1	2537
1	2537
1	2537
1	17
1	2537
1	3
1	17
1	7
1	2537
1	2537
1	22
1	5
1	2537
1	4
1	19
1	2537
1	2537
1	2537
1	2537
1	2537
1	2537
1	15
1	2537
1	2537
1	2537
1	2537
1	2537
1	2537
1	2537
1	2537
1	2537
1	2537
1	13
1	2537
1	2537
1	2537
1	7
1	5
1	2537
1	2537
1	2537
1	2537
1	2537
1	2537
1	10
1	2537
1	11
1	2537
1	2537
1	2537
1	2537
1	2537
1	2537
1	3
1	2537
1	2537
1	2537
1	2537
1	24
1	2537
1	27
1	4
1	2537
1	2537
1	2537
1	2537
1	2537
1	5
1	2537
1	2537
1	22
1	9
1	9
1	9
1	2537
1	2537
1	8
1	4
1	15
1	17
1	2537
1	2537
1	4
1	6
1	2537
1	2537
1	2537
1	2537
1	4
1	2537
1	2537
1	2537
1	2537
1	2537
1	2537
1	9
1	2537
1	2537
1	19
1	11
1	2537
1	5
1	2537
1	7
1	2537
1	2537
1	8
1	2537
1	6
1	9
1	2537
1	2537
1	2537
1	2537
1	2537
1	2537
1	2537
1	2537
1	2537
1	2537
1	2537
1	2537
1	2537
1	2537
1	2537
1	2537
1	2537
1	12
1	2537
1	2537
1	2537
1	2537
1	2537
1	12
1	2537
1	2537
1	2537
1	8
1	2537
1	2537
1	2537
1	16
1	17
1	2537
1	2537
1	6
1	2537
1	2537
1	2537
1	2537
1	2537
1	8
1	2537
1	2537
1	2537
1	10
1	19
1	2537
1	3
1	2537
1	4
1	2537
1	3
1	2537
1	2537
1	2537
1	22
1	2537
1	7
1	2537
1	17
1	2537
1	2537
1	2537
1	11
1	2537
1	2537
1	11
1	2537
1	2537
1	15
1	5
1	2537
1	2537
1	2537
1	2537
1	5
1	18
1	2537
1	2537
1	2537
1	2537
1	2537
1	2537
1	2537
1	9
1	2537
1	2537
1	17
1	2537
1	2537
1	19
1	2537
1	2537
1	2537
1	2537
1	2537
1	2537
1	2537
1	12
1	2537
1	2537
1	2537
1	2537
1	2537
1	2537
1	2537
1	15
1	2537
1	2537
1	2537
1	2537
1	2537
1	2537
1	2537
1	2537
1	2537
1	2537
1	2537
1	12
1	2537
1	4
1	2537
1	2537
1	8
1	2537
1	2537
1	16
1	2537
1	9
1	2537
1	2537
1	10
1	9
1	2537
1	12
1	12
1	22
1	8
1	16
1	20
1	2537
1	2537
1	2537
1	2537
1	4
1	2537
1	2537
1	2537
1	2537
1	5
1	2537
1	16
1	2537
1	2537
1	5
1	7
1	2537
1	5
1	2537
1	2537
1	2537
1	2537
1	12
1	2537
1	2537
1	2537
1	2537
1	2537
1	2537
1	2537
1	2537
1	2537
1	2537
1	2537
1	2537
1	5
1	2537
1	22
1	2537
1	2537
1	2537
1	2537
1	2537
1	2537
1	2537
1	2537
1	2537
1	7
1	2537
1	11
1	2537
1	2537
1	2537
1	2537
1	2537
1	2537
1	2537
1	2537
1	15
1	2537
1	2537
1	10
1	17
1	2537
1	2537
1	2537
1	2537
1	2537
1	2537
1	2537
1	2537
1	2537
1	2537
1	2537
1	2537
1	2537
1	2537
1	2537
1	2537
1	27
1	2537
1	2537
1	2537
1	2537
1	2537
1	2537
1	2537
1	7
1	2537
1	2537
1	2537
1	9
1	2537
1	2537
1	2537
1	2537
1	4
1	2537
1	2537
1	2537
1	4
1	2537
1	5
1	15
1	2537
1	2537
1	2537
1	2537
1	2537
1	2537
1	2537
1	2537
1	4
1	2537
1	2537
1	15
1	2537
1	2537
1	2537
1	2537
1	13
1	2537
1	2537
1	2537
1	2537
1	2537
1	15
1	18
1	2537
1	2537
1	2537
1	2537
1	2537
1	2537
1	7
1	2537
1	2537
1	2537
1	2537
1	2537
1	2537
1	2537
1	15
1	2537
1	2537
1	2537
1	2537
1	15
1	2537
1	2537
1	2537
1	2537
1	2537
1	14
1	10
1	2537
1	2537
1	2537
1	2537
1	2537
1	2537
1	2537
1	2537
1	2537
1	2537
1	2537
1	16
1	2537
1	2537
1	2537
1	11
1	2537
1	2537
1	2537
1	2537
1	2537
1	2537
1	2537
1	15
1	7
1	2537
1	17
1	2537
1	16
1	4
1	21
1	2537
1	2537
1	2537
1	2537
1	11
1	2537
1	2537
1	2537
1	2537
1	2537
1	22
1	2537
1	7
1	2537
1	2537
1	2537
1	2537
1	2537
1	13
1	2537
1	6
1	2537
1	2537
1	2537
1	2537
1	4
1	18
1	2537
1	11
1	2537
1	2537
1	2537
1	2537
1	17
1	2537
1	2537
1	2537
1	11
1	2537
1	2537
1	2537
1	2537
1	2537
1	2537
1	2537
1	15
1	2537
1	2537
1	2537
1	2537
1	2537
1	2537
1	2537
1	2537
1	2537
1	19
1	22
1	2537
1	2537
1	2537
1	2537
1	4
1	2537
1	22
1	2537
1	2537
1	2537
1	16
1	2537
1	2537
1	17
1	2537
1	2537
1	2537
1	2537
1	2537
1	9
1	2537
1	2537
1	9
1	2537
1	2537
1	2537
1	2537
1	2537
1	6
1	10
1	4
1	16
1	2537
1	5
1	2537
1	2537
1	2537
1	2537
1	2537
1	17
1	2537
1	7
1	5
1	2537
1	2537
1	2537
1	2537
1	2537
1	2537
1	2537
1	2537
1	2537
1	7
1	2537
1	2537
1	17
1	2537
1	6
1	2537
1	2537
1	2537
1	2537
1	7
1	2537
1	2537
1	2537
1	2537
1	2537
1	2537
1	18
1	2537
1	2537
1	2537
1	2537
1	2537
1	2537
1	2537
1	8
2	3
2	4
2	15
2	18
2	13
2	2537
2	5
2	5
2	14
2	4
2	4
2	3
2	27
2	15
2	2537
2	10
2	6
2	12
2	8
2	4
2	2537
2	16
2	2537
2	8
2	6
2	3
2	16
2	15
2	5
2	17
2	3
2	6
2	4
2	7
2	5
2	3
2	5
2	14
2	4
2	4
2	10
2	2537
2	7
2	7
2	5
2	3
2	8
2	5
2	4
2	5
2	7
2	5
2	10
2	10
2	11
2	5
2	4
2	22
2	7
2	14
2	3
2	8
2	2537
2	4
2	5
2	4
2	4
2	12
2	19
2	17
2	3
2	5
2	20
2	3
2	3
2	2537
2	4
2	20
2	5
2	4
2	7
2	9
2	24
2	3
2	12
2	16
2	3
2	10
2	10
2	10
2	7
2	2537
2	3
2	3
2	10
2	7
2	3
2	22
2	5
2	6
2	8
2	4
2	8
2	11
2	15
2	3
2	5
2	14
2	4
2	2537
2	4
2	7
2	3
2	20
2	19
2	2537
2	4
2	7
2	3
2	3
2	5
2	3
2	17
2	5
2	17
2	18
2	5
2	2537
2	7
2	3
2	20
2	2537
2	19
2	3
2	5
2	4
2	15
2	4
2	17
2	16
2	4
2	3
2	7
2	16
2	3
2	2537
2	4
2	9
2	3
2	7
2	5
2	7
2	10
2	3
2	4
2	4
2	4
2	8
2	4
2	15
2	5
2	7
2	5
2	5
2	7
2	5
2	9
2	3
2	7
2	7
2	10
2	3
2	7
3	7
3	7
3	4
3	9
3	8
3	6
3	8
3	4
4	5
4	6
5	7


