# Persistence diagram </home/jens/Uni/data_topology/Project/reddit_results/graphs/0606-1.gml>
#
# Dimension   : 0
# Entries     : 650
# Betti number: 4
1	inf
1	20
1	16
1	inf
1	10
1	20
1	11
1	10
1	16
1	17
1	11
1	9
1	10
1	34
1	19
1	9
1	19
1	19
1	22
1	10
1	7
1	16
1	9
1	11
1	6
1	11
1	14
1	8
1	20
1	19
1	15
1	16
1	11
1	11
1	11
1	18
1	16
1	14
1	16
1	16
1	16
1	8
1	10
1	16
1	12
1	34
1	19
1	14
1	12
1	34
1	11
1	20
1	20
1	9
1	inf
1	5
1	11
1	6
1	19
1	17
1	11
1	10
1	10
1	16
1	15
1	19
1	11
1	16
1	18
1	35
1	12
1	16
1	12
1	12
1	10
1	8
1	11
1	9
1	13
1	17
1	12
1	6
1	15
1	19
1	17
1	11
1	10
1	17
1	10
1	11
1	17
1	9
1	19
1	7
1	6
1	20
1	11
1	10
1	16
1	6
1	11
1	7
1	11
1	17
1	17
1	8
1	10
1	6
1	5
1	20
1	10
1	9
1	11
1	19
1	12
1	6
1	11
1	17
1	9
1	11
1	12
1	22
1	10
1	6
1	19
1	13
1	19
1	6
1	16
1	7
1	11
1	16
1	12
1	9
1	15
1	12
1	14
1	5
1	22
1	7
1	7
1	9
1	10
1	inf
1	11
1	34
1	8
1	35
1	19
1	12
1	4
1	7
1	6
1	19
1	9
1	9
1	11
1	11
1	10
1	5
1	16
1	5
1	16
1	5
1	6
1	15
1	4
1	10
1	11
1	17
1	11
1	17
1	7
1	13
1	9
1	20
1	7
1	6
1	8
1	17
1	20
1	6
1	10
1	9
1	6
1	17
1	12
1	5
1	7
1	3
1	22
1	10
1	16
1	8
1	5
1	7
1	10
1	10
1	12
1	11
1	6
1	34
1	11
1	15
1	22
1	12
1	34
1	6
1	10
1	19
1	5
1	7
1	6
1	7
1	14
1	19
1	5
1	5
1	8
1	11
1	4
1	17
1	22
1	10
1	12
1	17
1	19
1	19
1	7
1	6
1	35
1	6
1	34
1	4
1	12
1	34
1	20
1	19
1	8
1	5
1	6
1	19
1	17
1	5
1	6
1	6
1	35
1	16
1	16
1	34
1	11
1	10
1	19
1	16
1	4
1	17
1	8
1	19
1	17
1	4
1	9
1	19
1	11
1	5
1	19
1	22
1	18
1	4
1	11
1	6
1	6
1	6
1	10
1	20
1	12
1	4
1	17
1	6
1	3
1	11
1	9
1	5
1	11
1	17
1	5
1	20
1	5
1	12
1	9
1	11
1	34
1	12
1	7
1	4
1	10
1	4
1	5
1	11
1	12
1	12
1	6
1	16
1	3
1	12
1	14
1	19
1	19
1	19
1	15
1	18
1	3
1	11
1	11
1	17
1	19
1	7
1	11
1	5
1	19
1	35
1	19
1	34
1	16
1	10
1	9
1	17
1	35
1	15
1	11
1	10
1	20
1	8
1	4
1	7
1	12
1	9
1	5
1	34
1	22
1	7
1	16
1	35
1	10
1	11
1	22
1	12
1	5
1	13
1	7
1	35
1	16
1	11
1	22
1	20
1	9
1	34
1	3
1	16
1	5
1	17
1	15
1	4
1	11
1	7
1	4
1	5
1	4
1	34
1	18
1	11
1	5
1	19
1	34
1	10
1	9
1	11
1	16
1	35
1	22
1	9
1	17
1	5
1	10
1	3
1	10
1	34
1	19
1	12
1	16
1	3
1	4
1	3
1	4
1	14
1	17
1	11
1	6
1	34
1	18
1	6
1	9
1	5
1	17
1	11
1	5
1	13
1	7
1	18
1	12
1	12
1	5
1	11
1	12
1	11
1	15
1	17
1	5
1	3
1	11
1	16
1	4
1	20
1	11
1	12
1	17
1	9
1	6
1	4
1	7
1	12
1	19
1	11
1	16
1	22
1	11
1	9
1	11
1	19
1	19
1	11
1	3
1	19
1	7
1	19
1	9
1	34
1	7
1	11
1	16
1	6
1	12
1	6
1	10
1	19
1	35
1	4
1	5
1	6
1	4
1	18
1	10
1	12
1	16
1	4
1	11
1	19
1	5
1	6
1	19
1	17
1	11
1	6
1	3
1	11
1	6
1	9
1	8
1	11
1	4
1	19
1	16
1	11
1	11
1	11
1	4
1	12
1	6
1	11
1	9
1	9
1	20
1	6
1	17
1	11
1	6
1	5
1	11
1	9
1	19
1	6
1	35
1	7
1	5
1	8
1	12
1	17
1	5
1	17
1	12
1	6
1	16
1	17
1	15
1	11
1	15
1	5
1	35
1	12
1	11
1	16
1	22
1	17
1	14
1	6
1	19
1	14
1	3
1	17
1	6
1	4
1	19
1	6
1	5
1	6
1	5
1	17
1	22
1	34
1	17
1	12
1	22
1	5
1	5
1	17
1	11
1	6
2	6
2	11
2	3
2	12
2	10
2	5
2	3
2	12
2	3
2	7
2	3
2	20
2	3
2	5
2	6
2	3
2	8
2	5
2	9
2	9
2	4
2	6
2	19
2	3
2	12
2	5
2	9
2	4
2	5
2	7
2	3
2	7
2	9
2	12
2	5
2	6
2	3
2	11
2	5
2	6
2	3
2	6
2	10
2	5
2	5
2	12
2	3
2	7
2	11
2	6
2	5
2	4
2	18
2	11
2	6
2	6
2	4
2	6
2	3
2	3
2	3
2	7
2	11
2	8
2	4
2	5
2	9
2	4
2	5
2	4
2	5
2	4
2	9
2	11
2	11
2	5
2	11
2	3
2	5
2	12
2	17
2	7
2	11
2	17
2	6
2	9
2	4
2	12
2	5
2	6
2	4
2	6
2	3
2	10
3	4
3	6
3	10
3	6
3	6
3	7
3	6
3	5
4	5
4	8


