# Persistence diagram </home/jens/Uni/data_topology/Project/reddit_results/graphs/0609-1.gml>
#
# Dimension   : 1
# Entries     : 8
# Betti number: 8
9	inf
178	inf
178	inf
178	inf
178	inf
178	inf
178	inf
178	inf
