# Persistence diagram </home/jens/Uni/data_topology/Project/reddit_results/graphs/0618-1.gml>
#
# Dimension   : 0
# Entries     : 752
# Betti number: 9
1	inf
1	548
1	30
1	548
1	548
1	30
1	548
1	20
1	548
1	30
1	20
1	548
1	548
1	548
1	548
1	548
1	548
1	548
1	548
1	548
1	20
1	548
1	548
1	548
1	548
1	548
1	548
1	548
1	548
1	548
1	548
1	16
1	548
1	5
1	16
1	548
1	548
1	548
1	548
1	30
1	16
1	548
1	548
1	548
1	548
1	548
1	548
1	548
1	548
1	548
1	30
1	548
1	548
1	548
1	7
1	9
1	548
1	548
1	548
1	28
1	28
1	548
1	548
1	548
1	16
1	10
1	548
1	inf
1	548
1	548
1	548
1	548
1	16
1	548
1	30
1	548
1	inf
1	inf
1	548
1	548
1	11
1	548
1	30
1	20
1	548
1	548
1	548
1	548
1	548
1	548
1	30
1	9
1	548
1	548
1	28
1	548
1	548
1	548
1	28
1	28
1	548
1	16
1	28
1	7
1	548
1	7
1	548
1	548
1	548
1	548
1	548
1	548
1	548
1	548
1	548
1	548
1	548
1	548
1	548
1	548
1	548
1	548
1	548
1	inf
1	548
1	28
1	7
1	548
1	548
1	7
1	548
1	548
1	548
1	4
1	9
1	548
1	548
1	4
1	548
1	20
1	548
1	548
1	548
1	548
1	548
1	20
1	548
1	16
1	548
1	548
1	548
1	9
1	548
1	548
1	548
1	28
1	548
1	548
1	10
1	9
1	548
1	548
1	9
1	548
1	20
1	548
1	548
1	548
1	548
1	9
1	548
1	548
1	548
1	548
1	548
1	548
1	7
1	4
1	548
1	548
1	5
1	548
1	5
1	28
1	548
1	548
1	548
1	548
1	7
1	548
1	28
1	30
1	548
1	548
1	548
1	548
1	548
1	3
1	7
1	548
1	548
1	548
1	548
1	5
1	5
1	10
1	20
1	548
1	7
1	4
1	15
1	548
1	548
1	10
1	inf
1	548
1	548
1	548
1	548
1	5
1	20
1	16
1	6
1	548
1	548
1	548
1	6
1	548
1	548
1	28
1	548
1	548
1	548
1	548
1	548
1	30
1	548
1	548
1	548
1	11
1	548
1	7
1	548
1	548
1	548
1	548
1	548
1	15
1	5
1	548
1	11
1	548
1	30
1	548
1	548
1	548
1	548
1	548
1	30
1	548
1	548
1	548
1	548
1	548
1	548
1	548
1	548
1	548
1	548
1	inf
1	11
1	8
1	20
1	3
1	9
1	548
1	548
1	548
1	548
1	548
1	548
1	548
1	28
1	16
1	20
1	7
1	548
1	548
1	28
1	548
1	548
1	548
1	7
1	548
1	548
1	548
1	548
1	548
1	548
1	548
1	548
1	548
1	548
1	548
1	548
1	548
1	548
1	548
1	548
1	548
1	10
1	548
1	4
1	548
1	7
1	548
1	4
1	30
1	548
1	8
1	548
1	548
1	548
1	548
1	548
1	548
1	30
1	548
1	548
1	548
1	20
1	548
1	16
1	548
1	inf
1	548
1	7
1	548
1	6
1	548
1	7
1	548
1	548
1	548
1	548
1	548
1	15
1	548
1	548
1	7
1	548
1	548
1	548
1	4
1	548
1	28
1	4
1	548
1	548
1	548
1	548
1	548
1	548
1	548
1	548
1	548
1	548
1	548
1	5
1	548
1	548
1	548
1	548
1	548
1	548
1	548
1	548
1	7
1	548
1	548
1	548
1	548
1	548
1	548
1	548
1	548
1	548
1	548
1	5
1	548
1	548
1	548
1	548
1	3
1	548
1	548
1	548
1	548
1	548
1	5
1	548
1	548
1	548
1	548
1	10
1	548
1	548
1	548
1	548
1	548
1	548
1	548
1	548
1	548
1	548
1	30
1	3
1	548
1	548
1	3
1	548
1	548
1	548
1	548
1	548
1	548
1	548
1	548
1	548
1	5
1	548
1	10
1	2
1	548
1	548
1	548
1	548
1	15
1	548
1	548
1	548
1	548
1	11
1	548
1	4
1	548
1	548
1	548
1	548
1	548
1	20
1	548
1	548
1	30
1	9
1	548
1	7
1	548
1	548
1	548
1	548
1	548
1	28
1	3
1	548
1	548
1	548
1	548
1	548
1	548
1	548
1	548
1	3
1	548
1	28
1	548
1	11
1	3
1	548
1	548
1	548
1	548
1	548
1	548
1	548
1	548
1	548
1	548
1	548
1	548
1	9
1	548
1	548
1	548
1	548
1	28
1	28
1	11
1	548
1	548
1	548
1	548
1	548
1	9
1	9
1	548
1	548
1	548
1	548
1	548
1	548
1	548
1	548
1	4
1	548
1	548
1	6
1	548
1	30
1	548
1	548
1	30
1	548
1	5
1	548
1	7
1	548
1	548
1	30
1	548
1	3
1	548
1	548
1	5
1	548
1	548
1	5
1	548
1	548
1	548
1	548
1	5
1	548
1	5
1	7
1	7
1	9
1	548
1	548
1	548
1	6
1	6
1	548
1	30
1	20
1	2
1	548
1	5
1	20
1	16
1	7
1	548
1	548
1	5
1	548
1	548
1	548
1	548
1	548
1	548
1	548
1	548
1	548
1	548
1	11
1	548
1	548
1	7
1	548
1	548
1	548
1	7
1	548
1	548
1	548
1	16
1	548
1	3
1	548
1	548
1	548
1	548
1	5
1	7
1	548
1	548
1	548
1	548
1	548
1	7
1	548
1	5
1	548
1	548
1	30
1	548
1	548
1	548
1	548
1	548
1	10
1	548
1	7
1	548
1	548
1	548
1	548
1	548
1	548
1	548
1	548
1	548
1	548
1	16
1	28
1	548
1	30
1	548
1	548
1	20
1	548
1	548
1	548
1	548
1	28
1	548
1	548
1	548
1	548
1	548
1	548
1	548
1	548
1	548
1	548
1	4
1	548
1	548
1	548
1	548
1	548
1	548
1	548
1	7
1	548
1	548
1	548
1	9
1	inf
1	548
1	548
1	548
1	548
1	15
1	28
1	548
1	548
1	548
1	4
1	548
1	28
1	10
1	548
1	548
1	548
1	28
1	548
1	7
1	548
1	548
1	548
1	7
1	16
1	3
1	9
1	6
1	4
1	8
1	3
1	8
1	28
1	7
1	5
1	548
1	3
1	548
1	548
1	548
1	548
1	28
1	548
1	15
1	548
1	5
1	15
1	548
1	548
1	548
1	548
1	548
1	2
1	6
1	7
1	548
1	548
1	8
1	15
1	548
1	548
1	548
1	5
1	548
2	7
2	3
2	3
2	3
2	5
2	6
2	548
2	548
2	15
2	548
2	3
2	548
2	548
2	3
2	30
2	3
2	3
2	3
2	3
2	30
2	6
2	3
2	548
2	4
2	15
2	4
2	7
2	15
3	5
3	7


