# Persistence diagram </home/jens/Uni/data_topology/Project/reddit_results/graphs/0619-1.gml>
#
# Dimension   : 0
# Entries     : 544
# Betti number: 10
1	inf
1	303
1	14
1	22
1	8
1	8
1	inf
1	inf
1	12
1	8
1	303
1	10
1	9
1	33
1	303
1	303
1	303
1	303
1	303
1	inf
1	303
1	303
1	12
1	23
1	303
1	2
1	10
1	5
1	303
1	5
1	inf
1	303
1	8
1	303
1	303
1	303
1	5
1	303
1	303
1	303
1	7
1	6
1	7
1	303
1	8
1	33
1	33
1	5
1	6
1	7
1	5
1	33
1	12
1	22
1	303
1	5
1	6
1	6
1	7
1	303
1	303
1	303
1	6
1	12
1	7
1	6
1	303
1	13
1	12
1	303
1	303
1	33
1	303
1	4
1	303
1	20
1	12
1	5
1	303
1	303
1	303
1	303
1	303
1	6
1	303
1	3
1	303
1	5
1	303
1	303
1	303
1	10
1	33
1	303
1	303
1	303
1	303
1	303
1	12
1	303
1	303
1	13
1	303
1	6
1	303
1	303
1	303
1	12
1	inf
1	22
1	303
1	6
1	303
1	8
1	303
1	5
1	6
1	23
1	22
1	303
1	22
1	5
1	12
1	7
1	303
1	22
1	5
1	303
1	303
1	5
1	303
1	303
1	7
1	5
1	303
1	3
1	303
1	6
1	22
1	6
1	6
1	10
1	303
1	10
1	303
1	33
1	20
1	303
1	303
1	5
1	303
1	303
1	303
1	13
1	7
1	5
1	303
1	8
1	303
1	6
1	6
1	303
1	303
1	5
1	14
1	303
1	7
1	303
1	303
1	303
1	5
1	13
1	303
1	303
1	303
1	5
1	14
1	6
1	303
1	303
1	303
1	303
1	303
1	303
1	303
1	33
1	303
1	6
1	303
1	303
1	303
1	303
1	22
1	303
1	9
1	303
1	303
1	4
1	5
1	303
1	7
1	33
1	inf
1	6
1	303
1	303
1	303
1	12
1	7
1	5
1	303
1	303
1	303
1	7
1	303
1	3
1	3
1	303
1	5
1	3
1	303
1	303
1	303
1	303
1	303
1	22
1	20
1	12
1	303
1	inf
1	7
1	33
1	303
1	303
1	303
1	7
1	303
1	5
1	303
1	303
1	303
1	13
1	13
1	303
1	33
1	303
1	303
1	303
1	303
1	303
1	6
1	303
1	303
1	303
1	8
1	6
1	303
1	inf
1	303
1	4
1	12
1	6
1	303
1	303
1	303
1	22
1	303
1	12
1	303
1	4
1	10
1	3
1	12
1	303
1	5
1	6
1	4
1	8
1	8
1	303
1	6
1	13
1	303
1	303
1	303
1	303
1	9
1	303
1	inf
1	6
1	303
1	303
1	303
1	6
1	303
1	303
1	22
1	303
1	303
1	303
1	303
1	4
1	13
1	23
1	303
1	303
1	9
1	303
1	13
1	4
1	303
1	14
1	303
1	303
1	4
1	22
1	8
1	303
1	5
1	303
1	303
1	2
1	2
1	303
1	303
1	303
1	303
1	13
1	303
1	303
1	303
1	303
1	303
1	303
1	303
1	303
1	303
1	22
1	12
1	10
1	303
1	303
1	6
1	6
1	5
1	12
1	303
1	303
1	303
1	22
1	2
1	33
1	303
1	303
1	303
1	303
1	303
1	5
1	5
1	303
1	3
1	303
1	303
1	303
1	13
1	5
1	33
1	5
1	303
1	303
1	5
1	9
1	4
1	303
1	3
1	303
1	303
1	303
1	33
1	3
1	7
1	4
1	22
1	303
1	33
1	7
1	7
1	303
1	303
1	303
1	303
1	22
1	303
1	14
1	303
1	4
1	303
1	303
1	303
1	303
1	6
1	33
1	12
1	303
1	7
1	9
1	303
1	5
1	303
1	13
1	5
1	12
1	303
1	10
1	6
1	303
1	20
1	303
1	22
1	10
1	12
1	303
1	4
1	303
1	5
1	12
1	303
1	303
1	5
1	5
1	7
1	303
1	7
1	5
1	33
1	303
1	12
1	303
1	303
1	5
1	303
1	9
1	4
1	10
1	303
1	5
1	303
1	303
1	303
1	9
1	2
1	12
1	22
1	12
1	23
1	8
1	303
1	4
1	14
1	5
1	303
1	303
1	303
1	23
1	303
1	303
1	303
1	33
1	303
2	303
2	12
2	3
2	4
2	6
2	3
2	303
2	4
2	303
2	303
2	3
2	3
2	303
2	4
2	3
2	4
2	3
2	10
2	14
2	23
2	5
2	7
2	3
2	4
2	3
2	303
2	20
2	3
2	3
2	5
2	20
2	6
2	12
2	3
2	3
2	12
2	4
2	20
2	20
2	9
2	3
2	8
2	12
2	8
2	5
2	3
2	3
2	4
2	3
2	5
2	3
2	4
2	3
2	4
2	5
2	5
2	5
2	4
2	22
2	6
2	23
2	10
2	3
2	9
2	4
2	22
3	4
3	8
3	4
3	9
3	4
3	4
3	4
4	6
4	5


