# Persistence diagram </home/jens/Uni/data_topology/Project/reddit_results/graphs/0620-1.gml>
#
# Dimension   : 1
# Entries     : 245
# Betti number: 245
3	inf
3	inf
5	inf
7	inf
7	inf
7	inf
7	inf
8	inf
8	inf
8	inf
8	inf
8	inf
9	inf
9	inf
9	inf
9	inf
9	inf
9	inf
10	inf
10	inf
10	inf
10	inf
10	inf
10	inf
10	inf
10	inf
10	inf
10	inf
10	inf
10	inf
10	inf
11	inf
11	inf
11	inf
11	inf
11	inf
11	inf
11	inf
11	inf
11	inf
11	inf
11	inf
11	inf
11	inf
11	inf
11	inf
11	inf
11	inf
11	inf
11	inf
11	inf
12	inf
12	inf
12	inf
12	inf
12	inf
12	inf
12	inf
12	inf
12	inf
12	inf
12	inf
12	inf
12	inf
13	inf
13	inf
13	inf
13	inf
13	inf
14	inf
14	inf
15	inf
15	inf
15	inf
17	inf
17	inf
17	inf
17	inf
17	inf
17	inf
17	inf
17	inf
17	inf
17	inf
17	inf
17	inf
17	inf
17	inf
19	inf
19	inf
19	inf
19	inf
19	inf
19	inf
19	inf
21	inf
21	inf
21	inf
21	inf
21	inf
21	inf
21	inf
22	inf
22	inf
22	inf
22	inf
22	inf
22	inf
22	inf
22	inf
22	inf
22	inf
22	inf
22	inf
22	inf
22	inf
22	inf
22	inf
22	inf
22	inf
22	inf
25	inf
25	inf
25	inf
25	inf
25	inf
25	inf
25	inf
25	inf
25	inf
25	inf
25	inf
25	inf
25	inf
25	inf
37	inf
37	inf
37	inf
37	inf
37	inf
37	inf
37	inf
37	inf
37	inf
37	inf
37	inf
37	inf
37	inf
37	inf
37	inf
37	inf
37	inf
37	inf
37	inf
37	inf
37	inf
37	inf
37	inf
37	inf
37	inf
345	inf
345	inf
345	inf
345	inf
345	inf
345	inf
345	inf
345	inf
345	inf
345	inf
345	inf
345	inf
345	inf
345	inf
345	inf
345	inf
345	inf
345	inf
345	inf
345	inf
345	inf
345	inf
345	inf
345	inf
345	inf
345	inf
345	inf
345	inf
345	inf
345	inf
345	inf
345	inf
345	inf
345	inf
345	inf
345	inf
345	inf
345	inf
345	inf
345	inf
345	inf
345	inf
345	inf
345	inf
345	inf
345	inf
345	inf
345	inf
345	inf
345	inf
345	inf
345	inf
345	inf
345	inf
345	inf
345	inf
345	inf
345	inf
345	inf
345	inf
345	inf
345	inf
345	inf
345	inf
345	inf
345	inf
345	inf
345	inf
345	inf
345	inf
345	inf
345	inf
345	inf
345	inf
345	inf
345	inf
345	inf
345	inf
345	inf
345	inf
345	inf
345	inf
345	inf
345	inf
345	inf
