# Persistence diagram </home/jens/Uni/data_topology/Project/reddit_results/graphs/0624-1.gml>
#
# Dimension   : 0
# Entries     : 113
# Betti number: 1
1	inf
1	86
1	86
1	86
1	86
1	16
1	86
1	86
1	16
1	86
1	9
1	9
1	16
1	86
1	86
1	7
1	6
1	86
1	6
1	86
1	86
1	86
1	86
1	86
1	86
1	9
1	9
1	6
1	16
1	86
1	86
1	86
1	86
1	16
1	16
1	86
1	86
1	86
1	6
1	86
1	5
1	86
1	86
1	86
1	6
1	86
1	86
1	86
1	9
1	86
1	86
1	86
1	86
1	6
1	86
1	4
1	86
1	16
1	7
1	7
1	86
1	86
1	86
1	5
1	86
1	16
1	86
1	4
1	86
1	86
1	86
1	86
1	86
1	5
1	86
1	86
1	86
1	86
1	86
1	86
1	86
1	86
1	4
1	86
1	7
1	86
1	86
1	86
2	6
2	4
2	16
2	9
2	5
2	3
2	3
2	3
2	16
2	16
2	86
2	3
2	3
2	9
2	9
2	3
2	9
2	5
2	3
2	9
2	3
2	3
2	5
2	9
3	6


