# Persistence diagram </home/jens/Uni/data_topology/Project/reddit_results/graphs/0625-1.gml>
#
# Dimension   : 1
# Entries     : 18
# Betti number: 18
10	inf
10	inf
64	inf
64	inf
64	inf
64	inf
64	inf
64	inf
64	inf
64	inf
64	inf
90	inf
90	inf
90	inf
90	inf
90	inf
90	inf
90	inf
