# Persistence diagram </home/jens/Uni/data_topology/Project/reddit_results/graphs/0626-1.gml>
#
# Dimension   : 1
# Entries     : 37
# Betti number: 37
6	inf
6	inf
6	inf
7	inf
7	inf
8	inf
8	inf
8	inf
10	inf
10	inf
10	inf
77	inf
77	inf
77	inf
77	inf
77	inf
77	inf
77	inf
77	inf
77	inf
77	inf
77	inf
77	inf
77	inf
77	inf
77	inf
77	inf
77	inf
77	inf
77	inf
77	inf
77	inf
77	inf
77	inf
77	inf
77	inf
77	inf
