# Persistence diagram </home/jens/Uni/data_topology/Project/reddit_results/graphs/0628-1.gml>
#
# Dimension   : 1
# Entries     : 22
# Betti number: 22
5	inf
5	inf
90	inf
90	inf
90	inf
90	inf
90	inf
90	inf
90	inf
90	inf
90	inf
90	inf
90	inf
90	inf
90	inf
90	inf
90	inf
90	inf
90	inf
90	inf
90	inf
90	inf
