# Persistence diagram </home/jens/Uni/data_topology/Project/reddit_results/graphs/0629-1.gml>
#
# Dimension   : 0
# Entries     : 215
# Betti number: 4
1	inf
1	inf
1	76
1	14
1	76
1	12
1	11
1	76
1	9
1	8
1	11
1	9
1	12
1	7
1	5
1	11
1	3
1	6
1	6
1	5
1	4
1	76
1	14
1	9
1	76
1	76
1	8
1	76
1	6
1	76
1	4
1	4
1	3
1	76
1	76
1	3
1	12
1	76
1	7
1	4
1	4
1	6
1	76
1	76
1	3
1	76
1	4
1	8
1	6
1	7
1	76
1	76
1	76
1	11
1	7
1	12
1	11
1	11
1	inf
1	4
1	7
1	5
1	76
1	6
1	14
1	inf
1	5
1	3
1	14
1	76
1	3
1	76
1	11
1	76
1	76
1	14
1	4
1	5
1	14
1	7
1	5
1	7
1	5
1	8
1	5
1	11
1	5
1	6
1	7
1	3
1	5
1	4
1	11
1	3
1	11
1	4
1	4
1	3
1	76
1	7
1	3
1	6
1	3
1	6
1	76
1	3
1	76
1	5
1	12
1	76
1	76
1	76
1	4
1	4
1	4
1	7
1	76
1	6
1	3
1	76
1	2
1	76
1	11
1	76
1	76
1	5
1	76
1	5
1	76
1	7
1	76
1	76
1	76
1	4
1	76
1	76
1	11
1	5
1	5
1	4
1	4
1	3
1	4
1	7
1	6
1	7
1	76
1	6
1	12
1	76
1	3
1	76
1	4
1	3
1	14
1	76
1	9
1	5
1	76
1	7
1	7
1	76
1	5
1	76
1	6
1	9
1	76
1	11
1	7
1	76
1	4
1	3
1	3
1	4
1	4
1	4
1	6
1	8
1	6
1	5
1	11
1	76
1	12
1	3
1	9
1	76
1	11
1	4
1	76
1	3
1	76
1	4
1	6
1	76
1	76
2	4
2	11
2	4
2	3
2	3
2	8
2	3
2	3
2	4
2	3
2	5
2	3
2	3
2	5
2	3
2	7
2	3
2	4
2	5
3	8


