# Persistence diagram </home/jens/Uni/data_topology/Project/reddit_results/graphs/0635-1.gml>
#
# Dimension   : 0
# Entries     : 274
# Betti number: 2
1	inf
1	118
1	10
1	9
1	13
1	9
1	118
1	118
1	118
1	118
1	16
1	118
1	118
1	14
1	16
1	118
1	118
1	118
1	13
1	118
1	10
1	118
1	10
1	118
1	118
1	16
1	118
1	4
1	7
1	118
1	118
1	15
1	7
1	118
1	10
1	118
1	9
1	118
1	16
1	13
1	118
1	15
1	8
1	16
1	inf
1	5
1	5
1	8
1	6
1	5
1	15
1	10
1	5
1	10
1	118
1	118
1	5
1	14
1	118
1	15
1	118
1	118
1	7
1	16
1	8
1	10
1	10
1	15
1	118
1	118
1	13
1	118
1	15
1	11
1	118
1	118
1	8
1	118
1	5
1	4
1	15
1	15
1	6
1	6
1	15
1	7
1	8
1	118
1	14
1	118
1	5
1	6
1	118
1	6
1	5
1	4
1	118
1	6
1	4
1	15
1	8
1	14
1	118
1	16
1	118
1	15
1	4
1	5
1	15
1	118
1	5
1	118
1	16
1	6
1	10
1	6
1	8
1	118
1	4
1	5
1	5
1	4
1	118
1	14
1	13
1	5
1	3
1	118
1	118
1	5
1	5
1	118
1	118
1	3
1	6
1	118
1	4
1	15
1	4
1	9
1	13
1	15
1	11
1	118
1	11
1	4
1	5
1	118
1	118
1	15
1	118
1	5
1	118
1	6
1	3
1	4
1	14
1	118
1	118
1	118
1	5
1	3
1	3
1	118
1	13
1	4
1	6
1	13
1	10
1	11
1	7
1	6
1	15
1	118
1	5
1	118
1	118
1	8
1	118
1	15
1	15
1	118
1	8
1	6
1	11
1	15
1	118
1	8
1	6
1	15
1	14
1	3
1	4
1	4
1	118
1	5
1	5
1	4
1	118
1	118
1	4
1	16
1	10
1	7
1	9
1	118
1	8
1	118
1	118
1	118
1	118
1	118
1	5
1	5
1	3
1	6
1	14
1	5
1	10
1	6
1	118
1	4
1	118
1	5
1	13
1	3
1	3
1	118
1	118
1	3
1	118
1	7
1	11
1	4
1	4
1	10
1	118
1	9
1	118
2	5
2	4
2	6
2	6
2	4
2	5
2	5
2	3
2	4
2	3
2	14
2	4
2	6
2	11
2	6
2	10
2	4
2	11
2	5
2	4
2	5
2	3
2	4
2	5
2	4
2	4
2	4
2	4
2	3
2	9
2	4
2	4
2	4
2	3
3	4


