# Persistence diagram </home/jens/Uni/data_topology/Project/reddit_results/graphs/0639-1.gml>
#
# Dimension   : 1
# Entries     : 47
# Betti number: 47
6	inf
6	inf
6	inf
7	inf
8	inf
8	inf
8	inf
8	inf
9	inf
9	inf
9	inf
21	inf
21	inf
21	inf
232	inf
232	inf
232	inf
232	inf
232	inf
232	inf
232	inf
232	inf
232	inf
232	inf
232	inf
232	inf
232	inf
232	inf
232	inf
232	inf
232	inf
232	inf
232	inf
232	inf
232	inf
232	inf
232	inf
232	inf
232	inf
232	inf
232	inf
232	inf
232	inf
232	inf
232	inf
232	inf
232	inf
