# Persistence diagram </home/jens/Uni/data_topology/Project/reddit_results/graphs/0646-1.gml>
#
# Dimension   : 1
# Entries     : 34
# Betti number: 34
8	inf
132	inf
132	inf
132	inf
132	inf
132	inf
132	inf
132	inf
132	inf
132	inf
132	inf
132	inf
132	inf
132	inf
132	inf
132	inf
132	inf
132	inf
132	inf
132	inf
132	inf
132	inf
132	inf
132	inf
132	inf
132	inf
132	inf
132	inf
132	inf
132	inf
132	inf
132	inf
132	inf
132	inf
