# Persistence diagram </home/jens/Uni/data_topology/Project/reddit_results/graphs/0648-1.gml>
#
# Dimension   : 1
# Entries     : 30
# Betti number: 30
5	inf
7	inf
7	inf
9	inf
9	inf
185	inf
185	inf
185	inf
185	inf
185	inf
185	inf
185	inf
185	inf
185	inf
185	inf
185	inf
185	inf
185	inf
185	inf
185	inf
185	inf
185	inf
185	inf
185	inf
185	inf
185	inf
185	inf
185	inf
185	inf
185	inf
