# Persistence diagram </home/jens/Uni/data_topology/Project/reddit_results/graphs/0655-1.gml>
#
# Dimension   : 1
# Entries     : 38
# Betti number: 38
4	inf
10	inf
10	inf
13	inf
13	inf
20	inf
20	inf
20	inf
20	inf
20	inf
20	inf
160	inf
160	inf
160	inf
160	inf
160	inf
160	inf
160	inf
160	inf
160	inf
160	inf
160	inf
160	inf
160	inf
160	inf
160	inf
160	inf
160	inf
160	inf
160	inf
160	inf
160	inf
160	inf
160	inf
160	inf
160	inf
160	inf
160	inf
