# Persistence diagram </home/jens/Uni/data_topology/Project/reddit_results/graphs/0661-1.gml>
#
# Dimension   : 0
# Entries     : 90
# Betti number: 1
1	inf
1	83
1	83
1	83
1	9
1	83
1	9
1	83
1	7
1	83
1	83
1	83
1	83
1	9
1	83
1	83
1	83
1	83
1	83
1	83
1	7
1	9
1	83
1	83
1	83
1	83
1	83
1	83
1	83
1	83
1	83
1	83
1	83
1	83
1	83
1	83
1	4
1	83
1	83
1	83
1	83
1	83
1	83
1	83
1	83
1	4
1	83
1	83
1	83
1	83
1	83
1	83
1	83
1	83
1	83
1	83
1	83
1	83
1	83
1	5
1	5
1	7
1	83
1	83
1	9
1	4
1	83
1	83
1	83
1	83
1	83
1	83
1	83
1	7
1	83
1	83
1	83
1	3
1	7
1	83
1	83
1	83
1	83
2	5
2	9
2	7
2	9
2	9
2	4
2	4


