# Persistence diagram </home/jens/Uni/data_topology/Project/reddit_results/graphs/0665-1.gml>
#
# Dimension   : 1
# Entries     : 102
# Betti number: 102
5	inf
6	inf
7	inf
7	inf
7	inf
7	inf
7	inf
7	inf
7	inf
7	inf
7	inf
8	inf
9	inf
9	inf
13	inf
13	inf
13	inf
13	inf
13	inf
13	inf
13	inf
13	inf
13	inf
13	inf
13	inf
13	inf
13	inf
13	inf
15	inf
15	inf
15	inf
15	inf
15	inf
15	inf
38	inf
38	inf
38	inf
38	inf
38	inf
38	inf
38	inf
38	inf
38	inf
38	inf
38	inf
38	inf
38	inf
38	inf
38	inf
38	inf
38	inf
38	inf
38	inf
38	inf
38	inf
38	inf
38	inf
38	inf
77	inf
77	inf
77	inf
77	inf
77	inf
77	inf
77	inf
77	inf
77	inf
77	inf
77	inf
77	inf
77	inf
77	inf
77	inf
77	inf
77	inf
77	inf
77	inf
77	inf
77	inf
77	inf
77	inf
77	inf
77	inf
77	inf
77	inf
77	inf
77	inf
77	inf
77	inf
77	inf
77	inf
77	inf
77	inf
77	inf
77	inf
77	inf
77	inf
77	inf
77	inf
77	inf
77	inf
77	inf
