# Persistence diagram </home/jens/Uni/data_topology/Project/reddit_results/graphs/0668-1.gml>
#
# Dimension   : 0
# Entries     : 91
# Betti number: 1
1	inf
1	95
1	95
1	95
1	95
1	95
1	95
1	95
1	95
1	95
1	95
1	95
1	95
1	95
1	95
1	95
1	95
1	95
1	95
1	95
1	4
1	95
1	95
1	95
1	95
1	95
1	95
1	95
1	95
1	95
1	4
1	3
1	95
1	95
1	95
1	95
1	95
1	95
1	95
1	95
1	95
1	95
1	95
1	95
1	95
1	95
1	95
1	95
1	95
1	95
1	95
1	95
1	95
1	95
1	95
1	95
1	95
1	95
1	95
1	95
1	95
1	95
1	95
1	95
1	95
1	95
1	95
1	95
1	95
1	95
1	95
1	95
1	95
1	95
1	95
1	95
1	95
1	95
1	95
1	95
1	95
1	95
1	95
2	95
2	95
2	95
2	95
2	4
2	4
2	95
2	3


