# Persistence diagram </home/jens/Uni/data_topology/Project/reddit_results/graphs/0669-1.gml>
#
# Dimension   : 1
# Entries     : 26
# Betti number: 26
5	inf
7	inf
8	inf
10	inf
11	inf
11	inf
11	inf
46	inf
46	inf
46	inf
46	inf
46	inf
46	inf
46	inf
46	inf
46	inf
46	inf
46	inf
46	inf
46	inf
46	inf
46	inf
46	inf
46	inf
46	inf
46	inf
