# Persistence diagram </home/jens/Uni/data_topology/Project/reddit_results/graphs/0672-1.gml>
#
# Dimension   : 1
# Entries     : 35
# Betti number: 35
5	inf
8	inf
10	inf
10	inf
10	inf
10	inf
10	inf
10	inf
121	inf
121	inf
121	inf
121	inf
121	inf
121	inf
121	inf
121	inf
121	inf
121	inf
121	inf
121	inf
121	inf
121	inf
121	inf
121	inf
121	inf
121	inf
121	inf
121	inf
121	inf
121	inf
121	inf
121	inf
121	inf
121	inf
121	inf
