# Persistence diagram </home/jens/Uni/data_topology/Project/reddit_results/graphs/0672-1.gml>
#
# Dimension   : 0
# Entries     : 279
# Betti number: 1
1	inf
1	121
1	121
1	8
1	121
1	121
1	10
1	121
1	6
1	7
1	121
1	121
1	121
1	121
1	8
1	121
1	7
1	121
1	5
1	6
1	121
1	7
1	8
1	5
1	8
1	121
1	6
1	4
1	121
1	7
1	121
1	121
1	121
1	5
1	121
1	7
1	3
1	121
1	4
1	7
1	121
1	121
1	121
1	7
1	7
1	5
1	6
1	10
1	121
1	121
1	121
1	121
1	7
1	10
1	121
1	6
1	7
1	121
1	121
1	5
1	121
1	7
1	6
1	121
1	3
1	7
1	5
1	4
1	5
1	4
1	5
1	121
1	5
1	5
1	121
1	7
1	121
1	4
1	4
1	3
1	121
1	121
1	6
1	121
1	4
1	4
1	7
1	6
1	121
1	121
1	121
1	5
1	121
1	4
1	5
1	4
1	121
1	6
1	3
1	4
1	4
1	10
1	121
1	7
1	121
1	5
1	6
1	5
1	7
1	121
1	8
1	10
1	121
1	121
1	7
1	121
1	3
1	6
1	7
1	5
1	4
1	4
1	5
1	121
1	121
1	5
1	4
1	6
1	7
1	121
1	5
1	5
1	121
1	3
1	121
1	6
1	4
1	3
1	5
1	8
1	121
1	5
1	6
1	6
1	5
1	8
1	6
1	4
1	121
1	121
1	4
1	10
1	5
1	121
1	121
1	6
1	7
1	121
1	7
1	4
1	8
1	121
1	121
1	7
1	121
1	4
1	121
1	7
1	121
1	4
1	4
1	6
1	121
1	121
1	7
1	121
1	121
1	5
1	3
1	121
1	5
1	121
1	6
1	6
1	4
1	6
1	5
1	3
1	121
1	121
1	4
1	3
1	121
1	121
1	10
1	121
1	121
1	121
1	5
1	5
1	5
1	3
1	4
1	121
1	4
1	10
1	5
1	4
1	7
1	121
1	7
1	7
1	6
1	121
1	5
1	121
1	7
1	121
1	5
1	6
1	5
1	3
1	121
1	3
1	7
1	7
1	10
1	10
1	4
1	5
1	7
1	7
1	121
1	121
1	7
1	5
1	121
1	121
1	8
1	121
1	121
1	121
1	7
1	121
1	7
1	4
1	4
1	6
1	3
1	121
1	5
1	121
1	4
1	3
1	8
1	4
1	3
2	7
2	10
2	5
2	4
2	3
2	4
2	3
2	5
2	4
2	3
2	3
2	6
2	3
2	5
2	5
2	4
2	3
2	5
2	5
2	4
2	5
4	6


