# Persistence diagram </home/jens/Uni/data_topology/Project/reddit_results/graphs/0675-1.gml>
#
# Dimension   : 1
# Entries     : 59
# Betti number: 59
6	inf
6	inf
7	inf
7	inf
8	inf
8	inf
8	inf
8	inf
13	inf
21	inf
21	inf
21	inf
21	inf
21	inf
21	inf
21	inf
21	inf
24	inf
24	inf
24	inf
24	inf
24	inf
24	inf
24	inf
24	inf
24	inf
24	inf
24	inf
86	inf
86	inf
86	inf
86	inf
86	inf
86	inf
86	inf
86	inf
86	inf
86	inf
86	inf
86	inf
86	inf
86	inf
86	inf
86	inf
86	inf
86	inf
86	inf
86	inf
86	inf
86	inf
86	inf
86	inf
86	inf
86	inf
86	inf
86	inf
86	inf
86	inf
86	inf
