# Persistence diagram </home/jens/Uni/data_topology/Project/reddit_results/graphs/0682-1.gml>
#
# Dimension   : 1
# Entries     : 38
# Betti number: 38
5	inf
7	inf
7	inf
7	inf
8	inf
8	inf
9	inf
9	inf
9	inf
9	inf
9	inf
13	inf
83	inf
83	inf
83	inf
83	inf
83	inf
83	inf
83	inf
83	inf
83	inf
83	inf
83	inf
83	inf
83	inf
83	inf
83	inf
83	inf
83	inf
83	inf
83	inf
83	inf
83	inf
83	inf
83	inf
83	inf
83	inf
83	inf
