# Persistence diagram </home/jens/Uni/data_topology/Project/reddit_results/graphs/0691-1.gml>
#
# Dimension   : 0
# Entries     : 242
# Betti number: 1
1	inf
1	11
1	81
1	11
1	81
1	6
1	6
1	8
1	81
1	8
1	81
1	5
1	10
1	10
1	7
1	7
1	11
1	81
1	10
1	5
1	8
1	5
1	6
1	6
1	6
1	4
1	5
1	11
1	81
1	5
1	6
1	5
1	4
1	81
1	81
1	5
1	6
1	81
1	7
1	5
1	81
1	6
1	6
1	6
1	11
1	5
1	81
1	81
1	81
1	5
1	8
1	4
1	5
1	8
1	5
1	6
1	81
1	6
1	6
1	3
1	81
1	8
1	6
1	7
1	81
1	5
1	4
1	5
1	11
1	81
1	6
1	81
1	11
1	5
1	5
1	7
1	81
1	81
1	5
1	5
1	3
1	10
1	8
1	5
1	5
1	5
1	5
1	6
1	6
1	81
1	81
1	6
1	5
1	4
1	4
1	3
1	3
1	4
1	81
1	3
1	3
1	81
1	8
1	81
1	5
1	5
1	5
1	81
1	81
1	6
1	4
1	81
1	6
1	81
1	81
1	5
1	4
1	4
1	6
1	81
1	8
1	3
1	6
1	10
1	6
1	5
1	3
1	3
1	5
1	5
1	81
1	81
1	8
1	5
1	3
1	3
1	5
1	5
1	5
1	81
1	81
1	4
1	81
1	3
1	81
1	6
1	81
1	8
1	3
1	81
1	81
1	5
1	81
1	5
1	81
1	5
1	8
1	3
1	81
1	81
1	4
1	4
1	3
1	4
1	6
1	81
1	5
1	3
1	4
1	3
1	81
1	81
1	3
1	5
1	8
1	81
1	4
1	4
1	5
1	3
1	5
1	3
1	81
1	5
1	3
1	3
1	8
1	5
1	81
1	4
1	6
1	4
1	6
1	5
1	81
1	5
1	10
1	81
1	3
1	5
1	3
1	6
1	5
1	11
1	5
1	5
1	8
1	4
1	81
1	4
1	4
1	11
1	3
2	4
2	5
2	3
2	4
2	8
2	3
2	3
2	3
2	5
2	3
2	5
2	3
2	4
2	4
2	4
2	5
2	4
2	6
2	4
2	5
2	5
2	6
2	3
2	4
2	3
2	5
2	3
2	5
3	5


