# Persistence diagram </home/jens/Uni/data_topology/Project/reddit_results/graphs/0697-1.gml>
#
# Dimension   : 1
# Entries     : 30
# Betti number: 30
7	inf
10	inf
271	inf
271	inf
271	inf
271	inf
271	inf
271	inf
271	inf
271	inf
271	inf
271	inf
271	inf
271	inf
271	inf
271	inf
271	inf
271	inf
271	inf
271	inf
271	inf
271	inf
271	inf
271	inf
271	inf
271	inf
271	inf
271	inf
271	inf
271	inf
