# Persistence diagram </home/jens/Uni/data_topology/Project/reddit_results/graphs/0699-1.gml>
#
# Dimension   : 1
# Entries     : 33
# Betti number: 33
4	inf
4	inf
4	inf
4	inf
11	inf
111	inf
111	inf
111	inf
111	inf
111	inf
111	inf
111	inf
111	inf
111	inf
111	inf
111	inf
111	inf
111	inf
111	inf
111	inf
111	inf
111	inf
111	inf
111	inf
111	inf
111	inf
111	inf
111	inf
111	inf
111	inf
111	inf
111	inf
111	inf
