# Persistence diagram </home/jens/Uni/data_topology/Project/reddit_results/graphs/0700-1.gml>
#
# Dimension   : 0
# Entries     : 281
# Betti number: 1
1	inf
1	21
1	139
1	139
1	10
1	139
1	8
1	21
1	139
1	7
1	139
1	10
1	9
1	8
1	4
1	139
1	4
1	139
1	9
1	139
1	139
1	139
1	139
1	139
1	6
1	139
1	5
1	5
1	6
1	8
1	10
1	10
1	139
1	7
1	139
1	3
1	7
1	7
1	139
1	7
1	139
1	139
1	9
1	139
1	10
1	139
1	3
1	7
1	6
1	139
1	139
1	139
1	5
1	3
1	139
1	8
1	139
1	8
1	7
1	21
1	139
1	139
1	5
1	4
1	9
1	10
1	139
1	139
1	139
1	139
1	4
1	139
1	139
1	5
1	5
1	139
1	139
1	139
1	21
1	7
1	139
1	9
1	139
1	6
1	7
1	9
1	139
1	6
1	139
1	139
1	21
1	3
1	5
1	5
1	139
1	5
1	9
1	8
1	6
1	4
1	139
1	9
1	4
1	21
1	7
1	4
1	139
1	7
1	139
1	139
1	21
1	5
1	139
1	139
1	5
1	21
1	139
1	139
1	5
1	9
1	9
1	139
1	10
1	9
1	139
1	6
1	4
1	4
1	139
1	139
1	9
1	4
1	6
1	139
1	4
1	9
1	10
1	9
1	4
1	3
1	7
1	3
1	139
1	9
1	5
1	139
1	139
1	6
1	5
1	139
1	139
1	139
1	6
1	4
1	8
1	139
1	139
1	139
1	4
1	139
1	7
1	10
1	3
1	10
1	139
1	5
1	139
1	7
1	9
1	139
1	10
1	139
1	21
1	139
1	21
1	139
1	10
1	139
1	7
1	21
1	9
1	139
1	5
1	21
1	6
1	9
1	4
1	139
1	139
1	8
1	139
1	139
1	139
1	139
1	7
1	5
1	3
1	6
1	21
1	9
1	139
1	139
1	6
1	21
1	8
1	139
1	7
1	139
1	7
1	3
1	7
1	139
1	139
1	139
1	6
1	8
1	139
1	7
1	4
1	4
1	139
1	10
1	139
1	5
1	139
1	6
1	5
1	9
1	139
1	139
1	4
1	139
1	10
1	139
1	139
1	3
1	7
1	5
1	10
1	139
1	139
1	10
1	5
1	4
1	21
1	5
1	4
1	3
1	4
1	139
1	4
1	10
1	8
1	139
1	3
1	139
1	4
1	3
1	7
1	139
2	7
2	7
2	3
2	7
2	7
2	7
2	8
2	5
2	3
2	10
2	4
2	7
2	4
2	4
2	5
2	5
2	5
2	10
2	7
2	3
2	5


