# Persistence diagram </home/jens/Uni/data_topology/Project/reddit_results/graphs/0703-1.gml>
#
# Dimension   : 0
# Entries     : 190
# Betti number: 2
1	inf
1	141
1	141
1	15
1	15
1	141
1	8
1	141
1	16
1	6
1	141
1	141
1	141
1	5
1	6
1	6
1	5
1	5
1	16
1	141
1	141
1	141
1	4
1	5
1	5
1	13
1	141
1	5
1	15
1	141
1	141
1	141
1	141
1	141
1	141
1	141
1	141
1	13
1	141
1	141
1	16
1	141
1	141
1	141
1	141
1	6
1	141
1	9
1	141
1	141
1	9
1	141
1	141
1	6
1	10
1	141
1	141
1	141
1	141
1	15
1	inf
1	141
1	8
1	141
1	6
1	141
1	141
1	141
1	5
1	141
1	141
1	2
1	141
1	141
1	5
1	141
1	141
1	9
1	141
1	141
1	141
1	141
1	6
1	5
1	16
1	5
1	15
1	141
1	5
1	15
1	141
1	141
1	5
1	141
1	16
1	141
1	5
1	141
1	141
1	10
1	141
1	141
1	141
1	5
1	5
1	6
1	16
1	6
1	141
1	15
1	13
1	141
1	16
1	141
1	4
1	4
1	141
1	141
1	3
1	141
1	141
1	141
1	8
1	13
1	5
1	6
1	141
1	141
1	6
1	9
1	16
1	4
1	141
1	6
1	141
1	141
1	15
1	141
1	141
1	141
1	141
1	141
1	8
1	141
1	141
1	141
1	141
1	141
1	3
1	141
1	141
1	141
2	5
2	4
2	6
2	3
2	4
2	4
2	3
2	141
2	4
2	5
2	3
2	6
2	5
2	4
2	141
2	3
2	4
2	3
2	4
2	4
2	141
2	4
2	3
2	141
2	6
2	6
2	4
2	6
2	5
2	4
2	3
2	6
2	6
2	4
3	5
3	8
3	4
3	6


