# Persistence diagram </home/jens/Uni/data_topology/Project/reddit_results/graphs/0707-1.gml>
#
# Dimension   : 1
# Entries     : 62
# Betti number: 62
6	inf
7	inf
7	inf
7	inf
7	inf
7	inf
8	inf
8	inf
8	inf
8	inf
8	inf
8	inf
8	inf
8	inf
12	inf
12	inf
12	inf
12	inf
13	inf
13	inf
13	inf
13	inf
13	inf
118	inf
118	inf
118	inf
118	inf
118	inf
118	inf
118	inf
118	inf
118	inf
118	inf
118	inf
118	inf
118	inf
118	inf
118	inf
118	inf
118	inf
118	inf
118	inf
118	inf
118	inf
118	inf
118	inf
118	inf
118	inf
118	inf
118	inf
118	inf
118	inf
118	inf
118	inf
118	inf
118	inf
118	inf
118	inf
118	inf
118	inf
118	inf
118	inf
