# Persistence diagram </home/jens/Uni/data_topology/Project/reddit_results/graphs/0708-1.gml>
#
# Dimension   : 0
# Entries     : 236
# Betti number: 5
1	inf
1	90
1	90
1	90
1	90
1	90
1	9
1	5
1	90
1	8
1	5
1	8
1	9
1	90
1	90
1	90
1	4
1	10
1	90
1	7
1	8
1	90
1	5
1	12
1	9
1	6
1	18
1	3
1	19
1	8
1	19
1	4
1	6
1	6
1	7
1	6
1	10
1	90
1	6
1	18
1	90
1	5
1	8
1	6
1	8
1	5
1	6
1	90
1	18
1	5
1	4
1	5
1	19
1	10
1	5
1	11
1	5
1	12
1	90
1	6
1	9
1	5
1	90
1	8
1	6
1	18
1	3
1	3
1	90
1	90
1	5
1	90
1	90
1	90
1	4
1	9
1	4
1	8
1	19
1	10
1	90
1	90
1	90
1	8
1	5
1	90
1	18
1	11
1	90
1	5
1	inf
1	6
1	3
1	8
1	11
1	4
1	6
1	inf
1	5
1	4
1	90
1	90
1	90
1	19
1	5
1	8
1	8
1	11
1	inf
1	4
1	4
1	7
1	19
1	90
1	6
1	18
1	9
1	90
1	4
1	8
1	6
1	8
1	6
1	6
1	10
1	10
1	4
1	4
1	9
1	3
1	5
1	6
1	4
1	4
1	4
1	8
1	5
1	90
1	7
1	90
1	11
1	4
1	90
1	5
1	7
1	5
1	6
1	3
1	12
1	10
1	90
1	90
1	90
1	90
1	9
1	9
1	5
1	5
1	9
1	6
1	90
1	90
1	4
1	6
1	9
1	5
1	4
1	90
1	4
1	7
1	90
1	8
1	19
1	7
1	3
1	5
1	90
1	4
1	5
1	5
1	inf
1	18
1	11
1	18
1	10
1	4
1	6
1	3
1	90
1	5
1	7
1	4
1	4
1	3
1	4
1	4
1	90
1	4
1	3
1	90
1	5
1	4
1	6
2	3
2	3
2	3
2	4
2	3
2	6
2	4
2	3
2	3
2	3
2	4
2	7
2	7
2	4
2	5
2	4
2	3
2	3
2	4
2	3
2	4
2	3
2	6
2	4
2	3
2	11
2	6
2	3
2	7
3	7
3	4
3	4
4	5


