# Persistence diagram </home/jens/Uni/data_topology/Project/reddit_results/graphs/0713-1.gml>
#
# Dimension   : 0
# Entries     : 42
# Betti number: 1
1	inf
1	41
1	41
1	41
1	41
1	41
1	41
1	41
1	41
1	41
1	41
1	41
1	41
1	41
1	41
1	41
1	41
1	41
1	41
1	41
1	41
1	5
1	41
1	41
1	41
1	41
1	5
1	41
1	41
1	41
1	41
1	41
1	41
1	41
1	41
1	41
1	41
1	41
1	41
2	41
2	5
2	3


