# Persistence diagram </home/jens/Uni/data_topology/Project/reddit_results/graphs/0715-1.gml>
#
# Dimension   : 0
# Entries     : 241
# Betti number: 1
1	inf
1	205
1	205
1	205
1	205
1	205
1	205
1	205
1	205
1	10
1	205
1	205
1	8
1	6
1	8
1	10
1	205
1	205
1	205
1	205
1	205
1	205
1	205
1	205
1	205
1	205
1	8
1	6
1	205
1	205
1	7
1	205
1	205
1	205
1	205
1	205
1	205
1	205
1	205
1	205
1	205
1	6
1	8
1	205
1	6
1	205
1	205
1	205
1	205
1	205
1	205
1	10
1	205
1	6
1	205
1	205
1	7
1	205
1	205
1	205
1	205
1	6
1	205
1	205
1	205
1	205
1	205
1	205
1	205
1	205
1	205
1	205
1	4
1	205
1	6
1	205
1	7
1	205
1	10
1	205
1	205
1	205
1	205
1	205
1	205
1	205
1	205
1	7
1	205
1	205
1	205
1	205
1	205
1	205
1	7
1	3
1	205
1	205
1	4
1	205
1	6
1	5
1	205
1	205
1	5
1	205
1	5
1	205
1	205
1	6
1	205
1	205
1	205
1	205
1	205
1	205
1	205
1	205
1	205
1	5
1	205
1	205
1	6
1	205
1	205
1	205
1	205
1	205
1	205
1	205
1	205
1	205
1	205
1	205
1	205
1	205
1	7
1	205
1	205
1	10
1	205
1	205
1	5
1	205
1	205
1	205
1	205
1	10
1	205
1	205
1	205
1	3
1	6
1	205
1	7
1	205
1	205
1	205
1	3
1	6
1	205
1	205
1	205
1	10
1	205
1	205
1	205
1	205
1	205
1	6
1	205
1	4
1	205
1	3
1	205
1	8
1	5
1	3
1	205
1	205
1	205
1	205
1	205
1	205
1	5
1	205
1	3
1	205
1	205
1	6
1	205
1	205
1	205
1	205
1	3
1	205
1	205
1	205
1	5
1	7
1	205
1	205
1	4
1	205
1	205
1	205
1	205
1	205
1	205
1	205
1	205
1	8
1	205
1	205
1	205
1	205
2	5
2	6
2	4
2	6
2	5
2	3
2	5
2	5
2	205
2	4
2	3
2	6
2	6
2	4
2	3
2	4
2	205
2	5
2	3
2	3
2	3
2	5
2	5
2	3
2	5


