# Persistence diagram </home/jens/Uni/data_topology/Project/reddit_results/graphs/0724-1.gml>
#
# Dimension   : 1
# Entries     : 34
# Betti number: 34
7	inf
7	inf
7	inf
7	inf
8	inf
8	inf
8	inf
8	inf
139	inf
139	inf
139	inf
139	inf
139	inf
139	inf
139	inf
139	inf
139	inf
139	inf
139	inf
139	inf
139	inf
139	inf
139	inf
139	inf
139	inf
139	inf
139	inf
139	inf
139	inf
139	inf
139	inf
139	inf
139	inf
139	inf
