# Persistence diagram </home/jens/Uni/data_topology/Project/reddit_results/graphs/0730-1.gml>
#
# Dimension   : 0
# Entries     : 255
# Betti number: 2
1	inf
1	69
1	69
1	4
1	13
1	9
1	13
1	69
1	69
1	69
1	6
1	69
1	8
1	10
1	8
1	9
1	10
1	10
1	10
1	69
1	6
1	69
1	6
1	69
1	69
1	13
1	11
1	69
1	6
1	8
1	69
1	6
1	10
1	8
1	6
1	9
1	3
1	69
1	69
1	69
1	9
1	4
1	9
1	inf
1	10
1	4
1	6
1	6
1	4
1	69
1	3
1	69
1	8
1	11
1	69
1	10
1	9
1	6
1	69
1	6
1	69
1	3
1	5
1	11
1	5
1	6
1	6
1	3
1	6
1	6
1	69
1	13
1	13
1	8
1	10
1	6
1	4
1	5
1	5
1	3
1	69
1	10
1	9
1	6
1	5
1	5
1	11
1	4
1	6
1	8
1	3
1	13
1	9
1	5
1	69
1	5
1	9
1	69
1	8
1	4
1	9
1	4
1	3
1	6
1	6
1	6
1	69
1	5
1	6
1	6
1	9
1	10
1	5
1	10
1	5
1	11
1	6
1	3
1	69
1	6
1	69
1	4
1	4
1	69
1	6
1	5
1	10
1	6
1	9
1	11
1	5
1	4
1	4
1	4
1	6
1	6
1	4
1	11
1	4
1	6
1	3
1	69
1	69
1	5
1	5
1	69
1	13
1	5
1	6
1	4
1	69
1	3
1	4
1	69
1	69
1	69
1	9
1	8
1	4
1	69
1	3
1	8
1	69
1	5
1	4
1	8
1	6
1	69
1	4
1	5
1	3
1	3
1	9
1	3
1	5
1	4
1	4
1	3
1	3
1	4
1	4
1	3
1	4
1	3
1	4
1	4
1	5
1	4
1	3
1	69
1	69
1	6
1	11
1	4
1	5
1	4
1	69
1	6
1	9
1	3
1	6
1	3
1	3
1	3
1	6
1	6
1	5
1	6
1	4
1	5
1	10
1	10
1	69
1	10
1	2
1	3
1	5
1	6
1	4
1	4
1	6
1	6
1	69
1	4
1	69
1	4
1	4
1	4
2	4
2	3
2	4
2	3
2	3
2	3
2	5
2	4
2	13
2	4
2	4
2	4
2	3
2	8
2	13
2	3
2	3
2	3
2	4
2	3
2	3
2	3
2	4
2	3
3	4
3	4
3	4


