# Persistence diagram </home/jens/Uni/data_topology/Project/reddit_results/graphs/0741-1.gml>
#
# Dimension   : 0
# Entries     : 267
# Betti number: 1
1	inf
1	104
1	104
1	104
1	104
1	8
1	10
1	8
1	10
1	104
1	104
1	104
1	104
1	13
1	8
1	5
1	104
1	5
1	8
1	8
1	104
1	8
1	7
1	104
1	19
1	10
1	104
1	104
1	19
1	104
1	104
1	6
1	104
1	6
1	19
1	104
1	104
1	8
1	104
1	19
1	104
1	4
1	104
1	104
1	104
1	3
1	13
1	104
1	104
1	8
1	8
1	10
1	5
1	8
1	104
1	6
1	4
1	104
1	104
1	104
1	4
1	13
1	3
1	104
1	13
1	6
1	7
1	104
1	19
1	104
1	104
1	3
1	104
1	8
1	10
1	8
1	104
1	6
1	104
1	6
1	13
1	5
1	4
1	104
1	104
1	4
1	8
1	8
1	104
1	104
1	5
1	6
1	3
1	3
1	6
1	4
1	10
1	104
1	104
1	4
1	5
1	8
1	5
1	104
1	104
1	104
1	104
1	6
1	5
1	6
1	4
1	8
1	5
1	104
1	13
1	104
1	8
1	13
1	3
1	6
1	104
1	104
1	5
1	8
1	3
1	4
1	3
1	104
1	5
1	7
1	5
1	5
1	3
1	104
1	8
1	6
1	6
1	8
1	5
1	7
1	8
1	3
1	104
1	3
1	4
1	3
1	8
1	7
1	104
1	5
1	104
1	104
1	6
1	104
1	8
1	10
1	104
1	6
1	104
1	6
1	5
1	104
1	5
1	5
1	7
1	104
1	6
1	6
1	4
1	6
1	6
1	8
1	4
1	4
1	4
1	3
1	104
1	5
1	13
1	5
1	104
1	6
1	19
1	7
1	8
1	8
1	4
1	5
1	4
1	5
1	4
1	5
1	104
1	4
1	3
1	4
1	7
1	13
1	3
1	4
1	104
1	3
1	8
1	5
1	3
1	6
1	8
1	19
1	104
1	4
1	8
1	5
1	104
1	19
1	104
1	3
1	3
1	19
1	5
1	6
1	104
1	13
1	8
1	10
1	3
1	6
1	6
1	4
1	5
1	104
1	5
1	8
1	3
1	3
1	4
1	5
1	104
1	3
1	6
1	104
1	104
1	3
1	8
1	104
1	5
1	4
1	4
1	3
1	7
2	19
2	6
2	8
2	3
2	104
2	19
2	6
2	6
2	3
2	19
2	5
2	8
2	4
2	4
2	19
2	3
2	5
2	5


