# Persistence diagram </home/jens/Uni/data_topology/Project/reddit_results/graphs/0742-1.gml>
#
# Dimension   : 1
# Entries     : 34
# Betti number: 34
5	inf
5	inf
8	inf
9	inf
9	inf
10	inf
10	inf
10	inf
10	inf
10	inf
14	inf
14	inf
14	inf
14	inf
14	inf
14	inf
94	inf
94	inf
94	inf
94	inf
94	inf
94	inf
94	inf
94	inf
94	inf
94	inf
94	inf
94	inf
94	inf
94	inf
94	inf
94	inf
94	inf
94	inf
