# Persistence diagram </home/jens/Uni/data_topology/Project/reddit_results/graphs/0752-1.gml>
#
# Dimension   : 0
# Entries     : 305
# Betti number: 2
1	inf
1	149
1	10
1	149
1	149
1	7
1	6
1	149
1	6
1	12
1	149
1	149
1	7
1	7
1	149
1	7
1	5
1	149
1	6
1	149
1	149
1	10
1	149
1	149
1	149
1	149
1	10
1	9
1	9
1	149
1	149
1	8
1	15
1	149
1	6
1	6
1	149
1	12
1	9
1	10
1	inf
1	15
1	7
1	12
1	15
1	4
1	149
1	7
1	149
1	149
1	5
1	8
1	6
1	7
1	10
1	5
1	10
1	8
1	15
1	12
1	5
1	4
1	15
1	149
1	15
1	149
1	12
1	5
1	149
1	8
1	149
1	5
1	149
1	12
1	149
1	7
1	149
1	9
1	149
1	149
1	149
1	12
1	4
1	149
1	149
1	149
1	149
1	7
1	9
1	149
1	149
1	149
1	149
1	5
1	15
1	15
1	8
1	149
1	15
1	5
1	4
1	7
1	149
1	5
1	149
1	149
1	5
1	5
1	149
1	149
1	8
1	149
1	15
1	149
1	9
1	149
1	7
1	12
1	8
1	149
1	149
1	149
1	12
1	149
1	5
1	4
1	7
1	149
1	7
1	149
1	7
1	149
1	12
1	149
1	149
1	3
1	149
1	149
1	149
1	149
1	15
1	149
1	149
1	6
1	5
1	10
1	4
1	15
1	10
1	149
1	149
1	149
1	6
1	12
1	149
1	149
1	10
1	149
1	3
1	8
1	149
1	5
1	5
1	15
1	5
1	3
1	10
1	15
1	5
1	12
1	149
1	149
1	3
1	5
1	6
1	4
1	8
1	8
1	12
1	15
1	6
1	149
1	15
1	8
1	149
1	4
1	15
1	8
1	9
1	149
1	7
1	12
1	5
1	6
1	149
1	149
1	149
1	7
1	15
1	10
1	149
1	12
1	4
1	6
1	9
1	15
1	149
1	149
1	149
1	10
1	15
1	149
1	6
1	149
1	4
1	149
1	4
1	5
1	5
1	6
1	149
1	6
1	6
1	5
1	149
1	5
1	149
1	3
1	10
1	149
1	149
1	3
1	149
1	149
1	9
1	149
1	149
1	149
1	5
1	6
1	5
1	5
1	9
1	149
1	12
1	149
1	149
1	149
1	149
1	9
1	5
1	5
1	3
1	149
1	149
1	3
1	15
1	149
1	10
1	5
1	3
1	9
1	5
1	149
1	3
1	5
1	149
1	12
1	9
1	5
1	5
1	149
1	4
1	10
1	149
1	15
2	5
2	5
2	5
2	7
2	5
2	3
2	3
2	4
2	3
2	4
2	5
2	4
2	149
2	3
2	3
2	4
2	5
2	3
2	3
2	5
2	3
2	5
2	3
2	5
2	3
2	4
2	3
2	3
3	4


