# Persistence diagram </home/jens/Uni/data_topology/Project/reddit_results/graphs/0753-1.gml>
#
# Dimension   : 0
# Entries     : 31
# Betti number: 1
1	inf
1	35
1	35
1	35
1	35
1	35
1	35
1	35
1	35
1	35
1	35
1	35
1	35
1	35
1	35
1	35
1	35
1	35
1	35
1	35
2	35
2	13
2	13
2	13
2	13
2	13
2	13
2	13
2	13
2	13
3	13


