# Persistence diagram </home/jens/Uni/data_topology/Project/reddit_results/graphs/0757-1.gml>
#
# Dimension   : 1
# Entries     : 36
# Betti number: 36
4	inf
12	inf
122	inf
122	inf
122	inf
122	inf
122	inf
122	inf
122	inf
122	inf
122	inf
122	inf
122	inf
122	inf
122	inf
122	inf
122	inf
122	inf
122	inf
122	inf
122	inf
122	inf
122	inf
122	inf
122	inf
122	inf
122	inf
122	inf
122	inf
122	inf
122	inf
122	inf
122	inf
122	inf
122	inf
122	inf
