# Persistence diagram </home/jens/Uni/data_topology/Project/reddit_results/graphs/0768-1.gml>
#
# Dimension   : 0
# Entries     : 316
# Betti number: 2
1	inf
1	105
1	105
1	35
1	35
1	35
1	17
1	105
1	13
1	20
1	105
1	105
1	105
1	19
1	17
1	35
1	13
1	19
1	7
1	7
1	19
1	105
1	35
1	19
1	6
1	9
1	5
1	13
1	19
1	5
1	35
1	7
1	105
1	20
1	105
1	35
1	105
1	105
1	105
1	105
1	35
1	105
1	105
1	105
1	20
1	105
1	9
1	105
1	6
1	35
1	20
1	6
1	7
1	35
1	17
1	7
1	105
1	5
1	35
1	inf
1	17
1	5
1	105
1	35
1	20
1	9
1	17
1	105
1	17
1	35
1	4
1	105
1	13
1	105
1	5
1	19
1	35
1	6
1	19
1	6
1	17
1	105
1	105
1	7
1	105
1	8
1	35
1	105
1	105
1	105
1	17
1	6
1	105
1	105
1	19
1	8
1	105
1	105
1	5
1	35
1	6
1	4
1	20
1	19
1	105
1	17
1	5
1	5
1	5
1	6
1	5
1	4
1	7
1	5
1	4
1	4
1	9
1	6
1	4
1	105
1	6
1	105
1	6
1	105
1	13
1	17
1	105
1	9
1	105
1	19
1	105
1	105
1	4
1	4
1	13
1	20
1	35
1	7
1	5
1	4
1	105
1	4
1	105
1	5
1	105
1	105
1	20
1	7
1	5
1	20
1	19
1	35
1	13
1	13
1	8
1	105
1	4
1	19
1	35
1	7
1	4
1	35
1	105
1	5
1	105
1	4
1	5
1	4
1	6
1	4
1	105
1	19
1	5
1	105
1	17
1	105
1	105
1	6
1	8
1	105
1	105
1	20
1	9
1	6
1	6
1	19
1	105
1	19
1	105
1	5
1	17
1	7
1	5
1	5
1	20
1	105
1	105
1	4
1	4
1	105
1	6
1	4
1	5
1	8
1	35
1	3
1	20
1	5
1	20
1	105
1	105
1	13
1	35
1	105
1	105
1	7
1	13
1	9
1	5
1	4
1	4
1	105
1	6
1	8
1	6
1	105
1	5
1	13
1	8
1	6
1	3
1	20
1	5
1	4
1	105
1	105
1	105
1	17
1	105
1	3
1	5
1	19
1	35
1	4
1	4
1	105
1	3
1	105
1	5
1	105
1	35
1	105
1	4
1	35
1	20
1	5
1	105
1	5
1	105
1	6
1	105
1	7
1	7
1	35
1	5
1	6
1	105
1	7
1	5
1	105
1	3
1	105
1	6
1	105
1	7
1	5
1	7
1	4
1	17
1	35
1	35
1	105
1	35
1	7
1	3
1	7
1	4
1	5
1	17
2	4
2	3
2	4
2	5
2	6
2	4
2	3
2	3
2	5
2	105
2	6
2	7
2	4
2	3
2	4
2	4
2	4
2	6
2	4
2	4
2	5
2	3
2	3
2	3
2	19
2	3
2	5


