# Persistence diagram </home/jens/Uni/data_topology/Project/reddit_results/graphs/0771-1.gml>
#
# Dimension   : 0
# Entries     : 43
# Betti number: 2
1	inf
1	41
1	41
1	41
1	41
1	41
1	41
1	41
1	41
1	41
1	41
1	41
1	41
1	41
1	41
1	41
1	41
1	41
1	41
1	41
1	41
1	41
1	41
1	41
1	41
1	inf
1	41
1	41
1	14
1	41
1	41
2	14
2	14
2	14
2	14
2	14
2	14
2	14
2	14
2	14
2	14
2	14
2	14


