# Persistence diagram </home/jens/Uni/data_topology/Project/reddit_results/graphs/0774-1.gml>
#
# Dimension   : 1
# Entries     : 53
# Betti number: 53
6	inf
7	inf
8	inf
8	inf
10	inf
10	inf
10	inf
10	inf
10	inf
10	inf
10	inf
12	inf
12	inf
12	inf
12	inf
13	inf
99	inf
99	inf
99	inf
99	inf
99	inf
99	inf
99	inf
99	inf
99	inf
99	inf
99	inf
99	inf
99	inf
99	inf
99	inf
99	inf
99	inf
99	inf
99	inf
99	inf
99	inf
99	inf
99	inf
99	inf
99	inf
99	inf
99	inf
99	inf
99	inf
99	inf
99	inf
99	inf
99	inf
99	inf
99	inf
99	inf
99	inf
