# Persistence diagram </home/jens/Uni/data_topology/Project/reddit_results/graphs/0776-1.gml>
#
# Dimension   : 0
# Entries     : 289
# Betti number: 2
1	inf
1	124
1	124
1	7
1	7
1	124
1	7
1	124
1	124
1	124
1	124
1	9
1	6
1	9
1	9
1	9
1	124
1	6
1	9
1	124
1	7
1	124
1	124
1	9
1	6
1	7
1	6
1	5
1	16
1	124
1	7
1	124
1	6
1	124
1	5
1	10
1	9
1	4
1	9
1	9
1	124
1	124
1	7
1	7
1	5
1	4
1	6
1	9
1	124
1	124
1	124
1	124
1	4
1	9
1	6
1	124
1	124
1	10
1	124
1	6
1	124
1	5
1	7
1	6
1	124
1	4
1	5
1	5
1	16
1	9
1	10
1	124
1	16
1	6
1	11
1	7
1	124
1	3
1	7
1	6
1	5
1	124
1	124
1	7
1	7
1	5
1	124
1	124
1	9
1	124
1	7
1	9
1	16
1	4
1	9
1	124
1	124
1	124
1	4
1	4
1	124
1	5
1	6
1	124
1	5
1	5
1	16
1	124
1	3
1	7
1	4
1	4
1	7
1	124
1	4
1	124
1	124
1	6
1	5
1	124
1	9
1	124
1	5
1	4
1	124
1	3
1	124
1	16
1	124
1	7
1	9
1	6
1	3
1	4
1	3
1	5
1	9
1	4
1	124
1	124
1	124
1	124
1	124
1	6
1	7
1	3
1	16
1	124
1	124
1	4
1	124
1	5
1	124
1	124
1	inf
1	124
1	124
1	4
1	6
1	10
1	124
1	124
1	4
1	9
1	6
1	124
1	124
1	4
1	11
1	7
1	7
1	4
1	124
1	124
1	124
1	5
1	124
1	5
1	10
1	124
1	124
1	4
1	7
1	4
1	3
1	6
1	11
1	124
1	11
1	9
1	6
1	7
1	124
1	9
1	11
1	7
1	124
1	7
1	3
1	124
1	9
1	7
1	10
1	10
1	9
1	16
1	4
1	16
1	6
1	4
1	5
1	124
1	124
1	124
1	4
1	5
1	124
1	5
1	124
1	124
1	6
1	6
1	9
1	124
1	124
1	9
1	124
1	11
1	9
1	5
1	7
1	10
1	4
1	5
1	6
1	124
1	124
1	5
1	9
1	16
1	7
1	5
1	7
1	7
1	124
1	124
1	7
1	5
1	5
1	4
1	7
1	5
1	6
1	9
1	5
1	10
1	124
1	4
1	7
1	124
1	6
1	9
1	16
2	5
2	4
2	3
2	3
2	4
2	5
2	3
2	3
2	5
2	4
2	3
2	7
2	3
2	4
2	5
2	9
2	5
2	5
2	9
2	4
2	3
2	6
2	4
2	4
2	5
3	4


