# Persistence diagram </home/jens/Uni/data_topology/Project/reddit_results/graphs/0777-1.gml>
#
# Dimension   : 0
# Entries     : 254
# Betti number: 3
1	inf
1	13
1	86
1	13
1	8
1	12
1	86
1	86
1	11
1	86
1	7
1	86
1	86
1	86
1	3
1	86
1	86
1	86
1	86
1	86
1	86
1	86
1	86
1	86
1	86
1	11
1	11
1	86
1	86
1	8
1	7
1	4
1	86
1	6
1	86
1	10
1	6
1	86
1	86
1	9
1	6
1	11
1	4
1	5
1	inf
1	10
1	86
1	8
1	12
1	86
1	86
1	9
1	11
1	9
1	7
1	10
1	86
1	11
1	8
1	86
1	11
1	86
1	13
1	86
1	86
1	6
1	13
1	13
1	9
1	7
1	4
1	86
1	5
1	86
1	86
1	7
1	86
1	3
1	inf
1	12
1	4
1	4
1	9
1	8
1	6
1	86
1	3
1	7
1	86
1	11
1	8
1	86
1	86
1	7
1	11
1	8
1	3
1	8
1	11
1	8
1	86
1	86
1	86
1	8
1	8
1	3
1	12
1	7
1	86
1	3
1	4
1	5
1	7
1	3
1	7
1	3
1	4
1	8
1	3
1	7
1	7
1	86
1	12
1	4
1	4
1	8
1	4
1	4
1	8
1	6
1	4
1	86
1	4
1	7
1	6
1	10
1	86
1	3
1	12
1	3
1	7
1	5
1	12
1	86
1	86
1	12
1	5
1	8
1	86
1	3
1	6
1	6
1	6
1	4
1	6
1	86
1	7
1	6
1	11
1	86
1	6
1	5
1	7
1	11
1	7
1	10
1	4
1	86
1	7
1	7
1	12
1	86
1	9
1	9
1	3
1	4
1	3
1	86
1	86
1	86
1	13
1	10
1	86
1	10
1	5
1	5
1	6
1	6
1	86
1	3
1	5
1	3
1	86
1	4
1	86
1	4
1	10
1	3
1	3
1	4
1	86
1	86
1	3
1	4
1	7
1	3
1	86
1	5
1	11
1	8
1	8
1	5
1	86
1	6
1	7
1	4
1	3
1	5
1	7
1	3
1	6
1	4
1	5
2	3
2	3
2	3
2	3
2	4
2	3
2	3
2	11
2	3
2	4
2	3
2	3
2	8
2	3
2	3
2	3
2	3
2	3
2	3
2	3
2	3
2	4
2	6
2	7
2	3
2	5
2	5
2	3
2	3
3	4
3	5


