# Persistence diagram </home/jens/Uni/data_topology/Project/reddit_results/graphs/0780-1.gml>
#
# Dimension   : 1
# Entries     : 30
# Betti number: 30
6	inf
12	inf
12	inf
195	inf
195	inf
195	inf
195	inf
195	inf
195	inf
195	inf
195	inf
195	inf
195	inf
195	inf
195	inf
195	inf
195	inf
195	inf
195	inf
195	inf
195	inf
195	inf
195	inf
195	inf
195	inf
195	inf
195	inf
195	inf
195	inf
195	inf
