# Persistence diagram </home/jens/Uni/data_topology/Project/reddit_results/graphs/0787-1.gml>
#
# Dimension   : 1
# Entries     : 34
# Betti number: 34
4	inf
7	inf
7	inf
9	inf
11	inf
11	inf
166	inf
166	inf
166	inf
166	inf
166	inf
166	inf
166	inf
166	inf
166	inf
166	inf
166	inf
166	inf
166	inf
166	inf
166	inf
166	inf
166	inf
166	inf
166	inf
166	inf
166	inf
166	inf
166	inf
166	inf
166	inf
166	inf
166	inf
166	inf
