# Persistence diagram </home/jens/Uni/data_topology/Project/reddit_results/graphs/0791-1.gml>
#
# Dimension   : 0
# Entries     : 239
# Betti number: 1
1	inf
1	12
1	8
1	10
1	12
1	20
1	111
1	111
1	111
1	111
1	10
1	26
1	111
1	111
1	111
1	111
1	8
1	8
1	8
1	7
1	111
1	111
1	7
1	5
1	11
1	26
1	3
1	111
1	8
1	111
1	111
1	12
1	26
1	4
1	8
1	10
1	10
1	111
1	111
1	8
1	111
1	111
1	111
1	111
1	111
1	7
1	20
1	17
1	3
1	20
1	111
1	26
1	17
1	17
1	6
1	10
1	5
1	8
1	6
1	3
1	111
1	111
1	111
1	17
1	111
1	4
1	111
1	11
1	111
1	26
1	111
1	111
1	4
1	111
1	8
1	3
1	111
1	111
1	11
1	4
1	111
1	6
1	111
1	5
1	8
1	3
1	12
1	111
1	4
1	111
1	17
1	111
1	8
1	20
1	3
1	111
1	8
1	111
1	111
1	111
1	111
1	111
1	7
1	20
1	111
1	6
1	6
1	111
1	4
1	3
1	6
1	3
1	3
1	8
1	4
1	111
1	111
1	6
1	111
1	4
1	6
1	7
1	111
1	5
1	5
1	26
1	5
1	11
1	111
1	111
1	3
1	10
1	26
1	3
1	20
1	111
1	111
1	11
1	10
1	4
1	20
1	12
1	3
1	5
1	4
1	3
1	4
1	8
1	5
1	26
1	3
1	4
1	11
1	3
1	111
1	11
1	111
1	111
1	3
1	4
1	5
1	4
1	111
1	8
1	4
1	4
1	111
1	111
1	4
1	5
1	6
1	3
1	6
1	111
1	7
1	111
1	5
1	12
1	111
1	3
1	111
1	5
1	5
1	111
1	5
1	12
1	5
1	11
1	111
1	111
1	111
1	111
1	4
1	111
1	111
1	111
1	4
1	7
1	111
1	6
1	6
1	11
1	111
1	11
1	3
1	111
1	17
1	11
1	111
1	11
2	3
2	7
2	6
2	20
2	8
2	3
2	26
2	8
2	17
2	20
2	4
2	10
2	10
2	7
2	4
2	4
2	12
2	17
2	20
2	6
2	4
2	4
3	11
3	4
3	6
3	4
3	8
3	11
4	5


