# Persistence diagram </home/jens/Uni/data_topology/Project/reddit_results/graphs/0792-1.gml>
#
# Dimension   : 0
# Entries     : 277
# Betti number: 1
1	inf
1	95
1	95
1	95
1	95
1	95
1	27
1	9
1	95
1	95
1	9
1	5
1	95
1	16
1	10
1	95
1	9
1	27
1	95
1	95
1	27
1	95
1	27
1	95
1	6
1	95
1	10
1	6
1	16
1	4
1	27
1	6
1	95
1	6
1	6
1	6
1	95
1	9
1	95
1	6
1	8
1	6
1	3
1	3
1	95
1	16
1	95
1	95
1	27
1	5
1	5
1	8
1	95
1	95
1	6
1	16
1	95
1	95
1	6
1	5
1	6
1	9
1	95
1	3
1	8
1	95
1	5
1	95
1	6
1	4
1	10
1	6
1	4
1	4
1	95
1	3
1	4
1	16
1	95
1	9
1	6
1	6
1	4
1	95
1	6
1	5
1	95
1	7
1	4
1	6
1	6
1	95
1	27
1	95
1	95
1	4
1	95
1	4
1	6
1	4
1	27
1	27
1	6
1	3
1	16
1	27
1	4
1	95
1	8
1	6
1	95
1	5
1	7
1	3
1	4
1	4
1	95
1	7
1	5
1	6
1	5
1	4
1	9
1	95
1	3
1	95
1	5
1	27
1	95
1	95
1	95
1	5
1	9
1	5
1	5
1	16
1	3
1	95
1	5
1	5
1	6
1	95
1	4
1	5
1	5
1	5
1	9
1	95
1	6
1	5
1	95
1	16
1	5
1	3
1	3
1	4
1	95
1	5
1	6
1	5
1	4
1	16
1	3
1	95
1	4
1	5
1	10
1	4
1	6
1	4
1	95
1	6
1	95
1	5
1	3
1	95
1	6
1	5
1	4
1	5
1	6
1	16
1	27
1	95
1	4
1	3
1	4
1	6
1	10
1	27
1	95
1	4
1	6
1	4
1	4
1	5
1	6
1	16
1	27
1	7
1	6
1	3
1	4
1	6
1	4
1	95
1	95
1	6
1	95
1	3
1	27
1	5
1	5
1	5
1	4
1	6
1	6
1	4
1	10
1	5
1	6
1	3
1	10
1	95
1	6
1	6
1	9
1	3
1	4
1	5
1	5
1	95
1	4
1	95
1	4
1	3
1	6
1	6
1	4
1	4
1	10
1	9
1	4
1	95
1	5
1	5
1	4
1	16
1	5
1	5
1	4
1	95
1	3
1	3
1	6
1	4
1	95
1	16
2	9
2	4
2	5
2	5
2	4
2	8
2	5
2	3
2	5
2	3
2	7
2	27
2	4
2	6
2	3
2	3
2	4
2	4
3	4


