# Persistence diagram </home/jens/Uni/data_topology/Project/reddit_results/graphs/0794-1.gml>
#
# Dimension   : 0
# Entries     : 297
# Betti number: 3
1	inf
1	175
1	175
1	175
1	175
1	175
1	175
1	175
1	175
1	175
1	175
1	175
1	175
1	175
1	175
1	175
1	175
1	175
1	175
1	175
1	6
1	175
1	175
1	5
1	21
1	175
1	11
1	11
1	175
1	5
1	8
1	175
1	175
1	9
1	175
1	6
1	175
1	175
1	3
1	6
1	3
1	175
1	175
1	175
1	175
1	175
1	175
1	21
1	9
1	175
1	5
1	175
1	11
1	5
1	175
1	8
1	9
1	175
1	175
1	21
1	21
1	3
1	6
1	175
1	11
1	175
1	175
1	175
1	175
1	175
1	175
1	175
1	175
1	21
1	175
1	175
1	175
1	175
1	175
1	175
1	9
1	21
1	175
1	175
1	6
1	175
1	175
1	9
1	5
1	175
1	175
1	175
1	175
1	175
1	175
1	175
1	6
1	175
1	175
1	3
1	8
1	4
1	175
1	175
1	175
1	175
1	175
1	6
1	3
1	175
1	175
1	175
1	175
1	175
1	4
1	175
1	175
1	175
1	175
1	6
1	175
1	9
1	175
1	175
1	9
1	21
1	5
1	21
1	175
1	175
1	175
1	175
1	175
1	6
1	6
1	inf
1	175
1	21
1	175
1	175
1	21
1	6
1	inf
1	175
1	2
1	175
1	175
1	175
1	175
1	6
1	5
1	175
1	9
1	21
1	9
1	175
1	4
1	6
1	4
1	175
1	11
1	9
1	175
1	21
1	175
1	175
1	175
1	175
1	175
1	4
1	6
1	175
1	175
1	4
1	175
1	175
1	9
1	175
1	8
1	175
1	5
1	175
1	4
1	6
1	175
1	11
1	175
1	4
1	8
1	175
1	175
1	21
1	3
1	3
1	3
1	8
1	175
1	21
1	21
1	21
1	175
1	6
1	6
1	175
1	175
1	175
1	6
1	175
1	5
1	8
1	3
1	8
1	6
1	3
1	3
1	6
1	6
1	3
1	9
1	175
1	3
1	175
1	175
1	4
1	175
1	175
1	175
1	175
1	11
1	21
1	5
1	175
1	6
1	175
1	175
1	3
1	4
1	175
1	175
1	175
1	175
1	175
1	6
1	175
1	175
1	5
1	175
1	3
1	21
1	4
1	5
1	175
1	6
1	175
1	3
1	6
1	21
1	175
1	175
1	5
1	175
1	3
1	175
1	9
1	175
1	175
1	3
1	175
1	175
1	175
1	175
1	6
1	175
1	175
1	175
1	9
1	175
1	11
1	175
1	6
1	175
1	175
2	3
2	4
2	5
2	8
2	8
2	8
2	3
2	5
2	11
2	3
2	3
2	4
2	3
2	3
3	4


