# Persistence diagram </home/jens/Uni/data_topology/Project/reddit_results/graphs/0797-1.gml>
#
# Dimension   : 0
# Entries     : 372
# Betti number: 1
1	inf
1	337
1	337
1	337
1	337
1	337
1	337
1	337
1	337
1	337
1	337
1	337
1	337
1	337
1	337
1	337
1	337
1	337
1	337
1	337
1	337
1	337
1	337
1	337
1	337
1	337
1	337
1	9
1	337
1	337
1	337
1	337
1	8
1	337
1	337
1	337
1	337
1	337
1	337
1	337
1	337
1	337
1	337
1	337
1	337
1	337
1	337
1	5
1	337
1	337
1	337
1	337
1	337
1	337
1	9
1	337
1	337
1	337
1	337
1	337
1	337
1	337
1	337
1	9
1	337
1	337
1	337
1	337
1	337
1	337
1	337
1	337
1	337
1	337
1	337
1	337
1	337
1	337
1	337
1	337
1	337
1	337
1	337
1	337
1	337
1	337
1	337
1	337
1	337
1	337
1	337
1	15
1	337
1	3
1	337
1	337
1	337
1	337
1	337
1	337
1	337
1	337
1	337
1	337
1	337
1	15
1	337
1	337
1	337
1	337
1	337
1	337
1	4
1	337
1	5
1	337
1	6
1	337
1	5
1	337
1	337
1	337
1	337
1	337
1	337
1	337
1	337
1	337
1	337
1	337
1	337
1	337
1	337
1	337
1	337
1	337
1	337
1	337
1	4
1	337
1	337
1	337
1	337
1	337
1	337
1	4
1	337
1	3
1	337
1	9
1	4
1	337
1	6
1	337
1	337
1	337
1	3
1	337
1	337
1	337
1	337
1	337
1	337
1	337
1	337
1	337
1	337
1	337
1	337
1	337
1	337
1	337
1	337
1	337
1	9
1	337
1	337
1	337
1	4
1	337
1	337
1	337
1	337
1	337
1	337
1	337
1	337
1	337
1	337
1	5
1	337
1	337
1	337
1	6
1	337
1	337
1	337
1	337
1	337
1	3
1	337
1	337
1	337
1	337
1	337
1	337
1	337
1	337
1	337
1	337
1	15
1	337
1	337
1	337
1	337
1	337
1	337
1	337
1	337
1	337
1	3
1	337
1	3
1	337
1	337
1	337
1	337
1	337
1	4
1	337
1	337
1	337
1	337
1	6
1	337
1	337
1	337
1	337
1	337
1	337
1	337
1	337
1	337
1	337
1	15
1	337
1	337
1	337
1	337
1	337
1	337
1	4
1	337
1	15
1	15
1	337
1	337
1	337
1	337
1	4
1	15
1	15
1	337
1	15
1	337
1	337
1	337
1	337
1	337
1	337
1	337
1	8
1	337
1	337
1	337
1	337
1	337
1	337
1	337
1	5
1	3
1	337
1	337
1	5
1	337
1	337
1	337
1	337
1	337
1	337
1	337
1	337
1	337
1	337
1	337
1	337
1	337
1	337
1	337
1	337
1	337
1	15
1	9
1	337
1	337
1	337
1	4
1	337
1	337
1	337
1	337
1	337
1	4
1	337
1	337
1	337
1	337
1	337
1	337
1	337
1	337
1	337
1	337
1	337
1	337
1	3
1	337
1	337
1	337
1	337
1	337
1	337
1	8
1	337
1	337
1	337
1	337
1	337
1	337
1	337
1	337
1	337
1	337
1	337
1	337
1	337
1	337
1	5
1	337
1	337
1	8
1	337
1	337
1	337
1	337
1	337
1	337
1	337
1	337
1	337
1	337
1	4
2	6
2	337
2	9
2	5
2	4
2	337
2	337
2	3
2	4
2	5


