# Persistence diagram </home/jens/Uni/data_topology/Project/reddit_results/graphs/0799-1.gml>
#
# Dimension   : 0
# Entries     : 439
# Betti number: 1
1	inf
1	436
1	436
1	436
1	436
1	436
1	436
1	436
1	436
1	436
1	436
1	436
1	436
1	436
1	436
1	436
1	436
1	436
1	436
1	436
1	436
1	436
1	436
1	436
1	436
1	436
1	436
1	436
1	436
1	436
1	436
1	436
1	436
1	436
1	436
1	436
1	436
1	436
1	436
1	436
1	436
1	436
1	436
1	436
1	436
1	436
1	436
1	436
1	436
1	436
1	436
1	436
1	436
1	436
1	436
1	436
1	436
1	436
1	436
1	436
1	436
1	436
1	436
1	436
1	436
1	436
1	436
1	436
1	436
1	436
1	436
1	436
1	436
1	436
1	436
1	436
1	436
1	436
1	436
1	436
1	436
1	436
1	436
1	436
1	436
1	436
1	436
1	436
1	436
1	436
1	436
1	436
1	436
1	436
1	436
1	436
1	436
1	436
1	436
1	436
1	436
1	436
1	436
1	436
1	436
1	436
1	436
1	436
1	436
1	436
1	436
1	436
1	436
1	436
1	436
1	436
1	436
1	436
1	436
1	436
1	436
1	436
1	436
1	4
1	436
1	436
1	436
1	436
1	436
1	436
1	436
1	436
1	436
1	436
1	436
1	436
1	436
1	436
1	436
1	436
1	436
1	436
1	436
1	436
1	436
1	436
1	436
1	436
1	436
1	436
1	436
1	436
1	436
1	436
1	436
1	436
1	436
1	436
1	436
1	436
1	436
1	436
1	436
1	436
1	436
1	436
1	436
1	436
1	436
1	436
1	436
1	436
1	436
1	436
1	436
1	3
1	436
1	436
1	436
1	436
1	436
1	436
1	436
1	436
1	436
1	436
1	436
1	436
1	436
1	436
1	436
1	436
1	436
1	436
1	436
1	436
1	436
1	436
1	436
1	436
1	436
1	436
1	436
1	436
1	436
1	436
1	436
1	436
1	436
1	436
1	436
1	436
1	436
1	436
1	436
1	436
1	436
1	436
1	436
1	436
1	436
1	7
1	436
1	436
1	436
1	436
1	436
1	436
1	436
1	436
1	436
1	436
1	436
1	436
1	436
1	436
1	436
1	436
1	436
1	436
1	436
1	436
1	436
1	436
1	436
1	436
1	436
1	436
1	436
1	436
1	436
1	436
1	436
1	436
1	436
1	436
1	436
1	436
1	436
1	436
1	436
1	436
1	436
1	436
1	436
1	436
1	436
1	436
1	436
1	436
1	436
1	436
1	436
1	436
1	436
1	436
1	436
1	436
1	436
1	436
1	436
1	436
1	436
1	436
1	436
1	436
1	436
1	436
1	436
1	436
1	436
1	436
1	436
1	436
1	436
1	436
1	436
1	436
1	436
1	436
1	436
1	436
1	436
1	436
1	436
1	436
1	436
1	436
1	436
1	436
1	436
1	436
1	436
1	436
1	436
1	436
1	436
1	436
1	436
1	436
1	436
1	436
1	436
1	436
1	436
1	436
1	7
1	436
1	436
1	436
1	436
1	436
1	436
1	436
1	436
1	436
1	436
1	436
1	436
1	436
1	436
1	436
1	436
1	436
1	436
1	436
1	436
1	436
1	436
1	436
1	436
1	436
1	436
1	436
1	436
1	436
1	436
1	436
1	436
1	436
1	436
1	436
1	436
1	436
1	436
1	436
1	436
1	436
1	436
1	436
1	436
1	436
1	436
1	4
1	436
1	436
1	436
1	436
1	436
1	436
1	436
1	436
1	436
1	436
1	436
1	4
1	436
1	436
1	436
1	436
1	436
1	436
1	436
1	436
1	436
1	436
1	436
1	436
1	436
1	436
1	436
1	436
1	436
1	436
1	436
1	436
1	436
1	436
1	436
1	436
1	436
1	436
1	436
1	436
1	436
1	436
1	436
1	436
1	436
1	436
1	436
1	436
1	436
1	436
1	436
1	436
1	436
1	436
1	436
1	436
1	436
2	436
2	436
2	436
2	4
2	7
2	3
2	7
2	7


