# Persistence diagram </home/jens/Uni/data_topology/Project/reddit_results/graphs/0800-1.gml>
#
# Dimension   : 0
# Entries     : 108
# Betti number: 2
1	inf
1	91
1	91
1	inf
1	91
1	91
1	91
1	91
1	13
1	91
1	91
1	91
1	91
1	91
1	7
1	7
1	13
1	6
1	91
1	91
1	6
1	91
1	91
1	91
1	91
1	91
1	91
1	2
1	91
1	6
1	4
1	91
1	91
1	91
1	91
1	5
1	91
1	91
1	6
1	91
1	91
1	91
1	91
1	6
1	91
1	91
1	91
1	91
1	91
1	91
1	5
1	13
1	6
1	4
1	91
1	6
1	91
1	91
1	91
1	91
1	91
1	91
1	5
1	91
1	91
1	91
1	91
1	91
1	91
1	91
1	91
1	91
1	7
1	6
1	91
1	91
1	13
1	5
1	91
1	6
1	91
1	7
1	3
2	5
2	5
2	91
2	3
2	5
2	3
2	7
2	3
2	6
2	5
2	3
2	6
2	6
2	4
2	4
2	13
2	13
2	5
2	5
2	3
2	7
2	6
2	6
3	5
3	6


