# Persistence diagram </home/jens/Uni/data_topology/Project/reddit_results/graphs/0800-1.gml>
#
# Dimension   : 1
# Entries     : 42
# Betti number: 42
4	inf
5	inf
6	inf
13	inf
13	inf
13	inf
13	inf
13	inf
13	inf
91	inf
91	inf
91	inf
91	inf
91	inf
91	inf
91	inf
91	inf
91	inf
91	inf
91	inf
91	inf
91	inf
91	inf
91	inf
91	inf
91	inf
91	inf
91	inf
91	inf
91	inf
91	inf
91	inf
91	inf
91	inf
91	inf
91	inf
91	inf
91	inf
91	inf
91	inf
91	inf
91	inf
