# Persistence diagram </home/jens/Uni/data_topology/Project/reddit_results/graphs/0803-1.gml>
#
# Dimension   : 1
# Entries     : 45
# Betti number: 45
5	inf
7	inf
7	inf
9	inf
9	inf
13	inf
13	inf
13	inf
22	inf
22	inf
22	inf
22	inf
22	inf
22	inf
22	inf
22	inf
29	inf
29	inf
29	inf
29	inf
29	inf
29	inf
29	inf
58	inf
58	inf
58	inf
58	inf
58	inf
58	inf
58	inf
58	inf
58	inf
58	inf
58	inf
58	inf
58	inf
58	inf
58	inf
58	inf
58	inf
58	inf
58	inf
58	inf
58	inf
58	inf
