# Persistence diagram </home/jens/Uni/data_topology/Project/reddit_results/graphs/0825-1.gml>
#
# Dimension   : 1
# Entries     : 15
# Betti number: 15
7	inf
60	inf
60	inf
60	inf
60	inf
60	inf
60	inf
60	inf
60	inf
60	inf
60	inf
60	inf
60	inf
60	inf
60	inf
