# Persistence diagram </home/jens/Uni/data_topology/Project/reddit_results/graphs/0827-1.gml>
#
# Dimension   : 1
# Entries     : 35
# Betti number: 35
3	inf
6	inf
9	inf
11	inf
12	inf
19	inf
19	inf
19	inf
19	inf
19	inf
131	inf
131	inf
131	inf
131	inf
131	inf
131	inf
131	inf
131	inf
131	inf
131	inf
131	inf
131	inf
131	inf
131	inf
131	inf
131	inf
131	inf
131	inf
131	inf
131	inf
131	inf
131	inf
131	inf
131	inf
131	inf
