# Persistence diagram </home/jens/Uni/data_topology/Project/reddit_results/graphs/0838-1.gml>
#
# Dimension   : 0
# Entries     : 311
# Betti number: 1
1	inf
1	189
1	189
1	189
1	189
1	189
1	189
1	189
1	189
1	189
1	7
1	189
1	189
1	189
1	189
1	189
1	9
1	8
1	189
1	8
1	189
1	9
1	189
1	7
1	189
1	189
1	189
1	189
1	189
1	9
1	189
1	6
1	6
1	189
1	189
1	6
1	6
1	7
1	189
1	6
1	189
1	4
1	189
1	5
1	5
1	7
1	9
1	189
1	3
1	6
1	189
1	189
1	189
1	189
1	189
1	9
1	189
1	189
1	7
1	5
1	189
1	189
1	6
1	6
1	189
1	189
1	189
1	189
1	189
1	189
1	5
1	189
1	3
1	189
1	189
1	189
1	189
1	5
1	6
1	8
1	7
1	189
1	8
1	6
1	189
1	9
1	189
1	5
1	189
1	189
1	4
1	6
1	6
1	189
1	189
1	189
1	9
1	189
1	189
1	189
1	8
1	189
1	6
1	9
1	189
1	189
1	189
1	8
1	9
1	8
1	6
1	8
1	189
1	189
1	8
1	9
1	4
1	7
1	189
1	189
1	8
1	189
1	8
1	189
1	189
1	189
1	9
1	4
1	6
1	3
1	189
1	3
1	189
1	189
1	5
1	9
1	189
1	189
1	189
1	3
1	9
1	189
1	189
1	8
1	189
1	189
1	189
1	189
1	3
1	189
1	189
1	189
1	189
1	189
1	5
1	189
1	189
1	189
1	189
1	189
1	189
1	189
1	189
1	189
1	4
1	189
1	189
1	189
1	3
1	5
1	189
1	8
1	189
1	5
1	5
1	189
1	189
1	5
1	6
1	5
1	189
1	5
1	189
1	189
1	6
1	189
1	6
1	6
1	9
1	189
1	189
1	3
1	4
1	5
1	189
1	6
1	5
1	5
1	189
1	8
1	189
1	189
1	9
1	189
1	189
1	189
1	189
1	4
1	3
1	189
1	6
1	5
1	189
1	3
1	5
1	5
1	9
1	189
1	189
1	189
1	189
1	189
1	4
1	189
1	9
1	6
1	8
1	189
1	189
1	189
1	189
1	5
1	7
1	8
1	189
1	189
1	3
1	3
1	189
1	189
1	189
1	5
1	189
1	8
1	7
1	189
1	189
1	189
1	189
1	189
1	189
1	189
1	189
1	189
1	6
1	7
1	189
1	189
1	5
1	189
1	6
1	3
1	3
1	5
1	4
1	189
1	189
1	6
1	3
1	189
1	3
1	189
1	3
1	4
1	189
1	5
1	189
1	189
1	189
1	5
1	3
2	3
2	3
2	6
2	5
2	3
2	3
2	5
2	189
2	3
2	6
2	4
2	6
2	4
2	8
2	5
2	3
2	4
2	3
2	3
2	5
2	5
2	4
2	8
2	9
2	3
2	3
2	3
2	4
2	3
2	8


