# Persistence diagram </home/jens/Uni/data_topology/Project/reddit_results/graphs/0841-1.gml>
#
# Dimension   : 1
# Entries     : 37
# Betti number: 37
4	inf
7	inf
10	inf
12	inf
16	inf
22	inf
22	inf
22	inf
123	inf
123	inf
123	inf
123	inf
123	inf
123	inf
123	inf
123	inf
123	inf
123	inf
123	inf
123	inf
123	inf
123	inf
123	inf
123	inf
123	inf
123	inf
123	inf
123	inf
123	inf
123	inf
123	inf
123	inf
123	inf
123	inf
123	inf
123	inf
123	inf
