# Persistence diagram </home/jens/Uni/data_topology/Project/reddit_results/graphs/0850-1.gml>
#
# Dimension   : 0
# Entries     : 272
# Betti number: 1
1	inf
1	114
1	8
1	114
1	114
1	114
1	5
1	114
1	7
1	114
1	6
1	5
1	114
1	6
1	114
1	114
1	6
1	114
1	114
1	8
1	7
1	114
1	6
1	8
1	7
1	6
1	114
1	114
1	8
1	114
1	114
1	114
1	9
1	9
1	8
1	114
1	114
1	7
1	6
1	5
1	114
1	114
1	114
1	6
1	6
1	5
1	7
1	7
1	114
1	114
1	114
1	7
1	5
1	8
1	114
1	6
1	114
1	3
1	5
1	5
1	6
1	114
1	5
1	114
1	4
1	4
1	5
1	6
1	114
1	4
1	7
1	114
1	114
1	5
1	4
1	6
1	3
1	114
1	4
1	4
1	10
1	6
1	7
1	114
1	6
1	114
1	4
1	7
1	114
1	4
1	3
1	5
1	4
1	114
1	5
1	7
1	114
1	8
1	114
1	114
1	7
1	7
1	114
1	6
1	114
1	114
1	10
1	10
1	114
1	7
1	6
1	114
1	7
1	4
1	114
1	114
1	4
1	114
1	114
1	114
1	114
1	8
1	114
1	114
1	114
1	7
1	5
1	8
1	114
1	3
1	9
1	114
1	6
1	6
1	4
1	4
1	5
1	4
1	5
1	114
1	3
1	5
1	4
1	4
1	3
1	4
1	114
1	114
1	7
1	4
1	5
1	114
1	7
1	7
1	8
1	114
1	9
1	114
1	5
1	6
1	5
1	4
1	5
1	3
1	8
1	4
1	6
1	114
1	4
1	4
1	3
1	4
1	4
1	8
1	5
1	6
1	5
1	114
1	4
1	7
1	6
1	9
1	114
1	4
1	7
1	5
1	5
1	114
1	3
1	6
1	10
1	3
1	114
1	114
1	114
1	5
1	5
1	7
1	9
1	6
1	7
1	114
1	4
1	5
1	3
1	4
1	5
1	114
1	8
1	114
1	3
1	8
1	8
1	7
1	10
1	7
1	10
1	4
1	4
1	114
1	10
1	5
1	5
1	7
1	5
1	4
1	7
1	114
1	114
1	6
1	4
1	6
1	9
1	7
1	5
1	3
1	114
1	3
1	114
1	7
1	5
1	4
1	4
1	5
1	5
1	114
1	8
2	4
2	4
2	3
2	5
2	3
2	6
2	5
2	5
2	3
2	4
2	5
2	7
2	3
2	3
2	3
2	6
2	5
2	5
2	5
2	3
2	6
2	7
2	3
3	5
3	5


