# Persistence diagram </home/jens/Uni/data_topology/Project/reddit_results/graphs/0854-1.gml>
#
# Dimension   : 1
# Entries     : 16
# Betti number: 16
7	inf
7	inf
22	inf
22	inf
53	inf
53	inf
53	inf
53	inf
53	inf
53	inf
53	inf
53	inf
53	inf
53	inf
53	inf
53	inf
