# Persistence diagram </home/jens/Uni/data_topology/Project/reddit_results/graphs/0860-1.gml>
#
# Dimension   : 1
# Entries     : 18
# Betti number: 18
5	inf
6	inf
6	inf
8	inf
9	inf
10	inf
26	inf
81	inf
81	inf
81	inf
81	inf
81	inf
81	inf
81	inf
81	inf
81	inf
81	inf
81	inf
