# Persistence diagram </home/jens/Uni/data_topology/Project/reddit_results/graphs/0865-1.gml>
#
# Dimension   : 1
# Entries     : 33
# Betti number: 33
5	inf
6	inf
30	inf
30	inf
30	inf
30	inf
30	inf
73	inf
73	inf
73	inf
73	inf
73	inf
73	inf
73	inf
73	inf
73	inf
73	inf
73	inf
73	inf
73	inf
73	inf
73	inf
73	inf
73	inf
73	inf
73	inf
73	inf
73	inf
73	inf
73	inf
73	inf
73	inf
73	inf
