# Persistence diagram </home/jens/Uni/data_topology/Project/reddit_results/graphs/0868-1.gml>
#
# Dimension   : 0
# Entries     : 267
# Betti number: 1
1	inf
1	16
1	12
1	12
1	13
1	71
1	71
1	3
1	71
1	13
1	71
1	71
1	12
1	71
1	9
1	9
1	9
1	71
1	8
1	6
1	71
1	5
1	71
1	71
1	6
1	9
1	71
1	71
1	5
1	71
1	8
1	13
1	11
1	10
1	11
1	5
1	16
1	8
1	4
1	13
1	71
1	5
1	71
1	6
1	5
1	71
1	7
1	10
1	4
1	16
1	13
1	71
1	7
1	71
1	5
1	5
1	8
1	3
1	3
1	5
1	71
1	9
1	5
1	3
1	10
1	7
1	12
1	5
1	3
1	5
1	9
1	12
1	6
1	3
1	5
1	5
1	6
1	5
1	71
1	12
1	9
1	11
1	9
1	3
1	6
1	71
1	5
1	10
1	16
1	16
1	71
1	4
1	12
1	71
1	71
1	11
1	9
1	71
1	71
1	3
1	6
1	6
1	12
1	4
1	3
1	4
1	71
1	8
1	13
1	4
1	10
1	16
1	71
1	3
1	71
1	4
1	6
1	4
1	5
1	71
1	4
1	12
1	6
1	9
1	6
1	6
1	71
1	12
1	4
1	71
1	71
1	12
1	16
1	4
1	3
1	4
1	6
1	3
1	4
1	4
1	8
1	71
1	4
1	5
1	71
1	12
1	6
1	71
1	4
1	5
1	5
1	6
1	4
1	4
1	16
1	4
1	6
1	5
1	3
1	5
1	5
1	11
1	71
1	8
1	16
1	12
1	13
1	71
1	5
1	4
1	5
1	13
1	3
1	12
1	6
1	8
1	6
1	10
1	6
1	12
1	71
1	3
1	12
1	4
1	3
1	12
1	4
1	4
1	6
1	4
1	3
1	5
1	16
1	4
1	5
1	4
1	5
1	6
1	7
1	11
1	13
1	5
1	4
1	3
1	11
1	6
1	5
1	3
1	71
1	4
1	4
1	11
1	71
1	3
1	4
1	10
1	7
1	3
1	5
1	4
1	5
1	4
1	16
1	5
1	5
1	3
1	71
1	4
1	13
1	6
1	5
1	6
1	4
1	6
2	8
2	4
2	3
2	4
2	12
2	3
2	5
2	9
2	8
2	3
2	6
2	3
2	4
2	5
2	4
2	3
2	4
2	3
2	6
2	3
2	3
2	3
2	3
2	3
2	5
2	3
2	3
2	4
2	5
2	3
2	5
2	3
2	4


