# Persistence diagram </home/jens/Uni/data_topology/Project/reddit_results/graphs/0873-1.gml>
#
# Dimension   : 0
# Entries     : 225
# Betti number: 1
1	inf
1	7
1	7
1	22
1	8
1	14
1	4
1	6
1	5
1	5
1	8
1	74
1	14
1	7
1	19
1	8
1	74
1	14
1	5
1	7
1	22
1	6
1	7
1	5
1	74
1	11
1	6
1	74
1	6
1	74
1	74
1	6
1	14
1	5
1	5
1	4
1	19
1	9
1	3
1	5
1	74
1	5
1	22
1	74
1	74
1	74
1	5
1	6
1	4
1	4
1	11
1	10
1	74
1	10
1	22
1	5
1	5
1	11
1	74
1	8
1	74
1	7
1	14
1	19
1	5
1	10
1	74
1	6
1	6
1	5
1	19
1	10
1	9
1	22
1	6
1	5
1	8
1	14
1	74
1	4
1	22
1	74
1	14
1	74
1	11
1	9
1	19
1	4
1	8
1	11
1	74
1	6
1	7
1	9
1	22
1	4
1	10
1	5
1	5
1	5
1	8
1	5
1	8
1	11
1	7
1	9
1	4
1	6
1	11
1	14
1	4
1	74
1	4
1	74
1	74
1	74
1	7
1	9
1	9
1	4
1	74
1	14
1	14
1	5
1	3
1	7
1	22
1	5
1	19
1	74
1	5
1	8
1	4
1	74
1	5
1	8
1	5
1	4
1	10
1	5
1	14
1	3
1	22
1	74
1	8
1	19
1	9
1	14
1	14
1	74
1	14
1	74
1	7
1	4
1	74
1	74
1	5
1	74
1	6
1	4
1	74
1	9
1	5
1	7
1	5
1	74
1	3
1	74
1	7
1	5
1	5
1	5
1	4
1	11
1	74
1	74
1	5
1	6
1	4
1	6
1	14
1	5
1	5
2	5
2	11
2	4
2	4
2	4
2	9
2	4
2	6
2	19
2	3
2	4
2	5
2	3
2	8
2	5
2	3
2	5
2	3
2	7
2	4
2	6
2	10
2	4
2	5
2	3
2	3
2	4
2	3
2	11
2	6
2	10
2	4
3	4
3	4
3	5
3	5
3	4
3	4
3	5
4	7
4	5
4	5


