# Persistence diagram </home/jens/Uni/data_topology/Project/reddit_results/graphs/0876-1.gml>
#
# Dimension   : 1
# Entries     : 102
# Betti number: 102
5	inf
5	inf
6	inf
6	inf
6	inf
6	inf
6	inf
6	inf
7	inf
7	inf
7	inf
7	inf
7	inf
7	inf
7	inf
8	inf
8	inf
8	inf
8	inf
8	inf
8	inf
8	inf
8	inf
8	inf
10	inf
10	inf
15	inf
15	inf
15	inf
15	inf
15	inf
15	inf
15	inf
15	inf
15	inf
109	inf
109	inf
109	inf
109	inf
109	inf
109	inf
109	inf
109	inf
109	inf
109	inf
109	inf
109	inf
109	inf
109	inf
109	inf
109	inf
109	inf
109	inf
109	inf
109	inf
109	inf
109	inf
109	inf
109	inf
109	inf
109	inf
109	inf
109	inf
109	inf
109	inf
109	inf
109	inf
109	inf
109	inf
109	inf
109	inf
109	inf
109	inf
109	inf
109	inf
109	inf
109	inf
109	inf
109	inf
109	inf
109	inf
109	inf
109	inf
109	inf
109	inf
109	inf
109	inf
109	inf
109	inf
109	inf
109	inf
109	inf
109	inf
109	inf
109	inf
109	inf
109	inf
109	inf
109	inf
109	inf
109	inf
109	inf
