# Persistence diagram </home/jens/Uni/data_topology/Project/reddit_results/graphs/0883-1.gml>
#
# Dimension   : 0
# Entries     : 279
# Betti number: 1
1	inf
1	153
1	153
1	10
1	153
1	153
1	153
1	153
1	153
1	11
1	153
1	10
1	153
1	153
1	153
1	153
1	153
1	10
1	153
1	153
1	153
1	10
1	153
1	153
1	10
1	153
1	153
1	4
1	153
1	153
1	153
1	26
1	153
1	153
1	153
1	153
1	153
1	153
1	153
1	153
1	26
1	153
1	153
1	153
1	10
1	8
1	10
1	153
1	8
1	3
1	7
1	6
1	5
1	3
1	153
1	153
1	10
1	153
1	26
1	6
1	7
1	153
1	26
1	153
1	5
1	26
1	8
1	153
1	8
1	153
1	10
1	8
1	153
1	8
1	8
1	153
1	153
1	153
1	10
1	10
1	26
1	153
1	5
1	4
1	26
1	153
1	153
1	26
1	4
1	5
1	153
1	153
1	8
1	4
1	153
1	153
1	153
1	153
1	153
1	153
1	8
1	10
1	153
1	6
1	26
1	153
1	153
1	153
1	11
1	153
1	26
1	4
1	153
1	153
1	11
1	26
1	5
1	10
1	10
1	153
1	4
1	10
1	153
1	10
1	153
1	6
1	153
1	8
1	26
1	3
1	6
1	26
1	3
1	153
1	5
1	6
1	153
1	153
1	5
1	7
1	11
1	153
1	153
1	153
1	153
1	153
1	10
1	26
1	153
1	26
1	10
1	153
1	8
1	5
1	153
1	26
1	153
1	153
1	10
1	3
1	26
1	153
1	26
1	10
1	3
1	153
1	6
1	3
1	26
1	7
1	5
1	153
1	6
1	153
1	11
1	153
1	153
1	3
1	4
1	5
1	3
1	11
1	11
1	6
1	7
1	4
1	10
1	3
1	153
1	153
1	3
1	153
1	5
1	26
1	8
1	4
1	153
1	8
1	3
1	4
1	153
1	153
1	153
1	5
1	8
1	11
1	153
1	153
1	153
1	10
1	153
1	153
1	153
1	153
1	26
1	153
1	153
1	3
1	10
1	3
1	153
1	8
1	153
1	6
1	153
1	153
1	10
1	26
1	8
1	4
1	153
1	153
1	153
1	3
1	4
1	10
1	26
1	4
1	153
1	153
1	153
1	153
1	11
1	4
1	153
1	3
1	3
1	153
1	153
1	26
1	3
1	5
1	10
1	153
1	153
2	153
2	3
2	4
2	3
2	3
2	10
2	153
2	5
2	3
2	5
2	4
2	6
2	6
2	3
2	11
2	8
2	3
2	3
2	10
2	3
2	4
2	6
3	6
3	8


