# Persistence diagram </home/jens/Uni/data_topology/Project/reddit_results/graphs/0897-1.gml>
#
# Dimension   : 1
# Entries     : 69
# Betti number: 69
7	inf
8	inf
8	inf
8	inf
9	inf
9	inf
10	inf
11	inf
11	inf
12	inf
12	inf
12	inf
12	inf
16	inf
16	inf
20	inf
20	inf
20	inf
20	inf
20	inf
20	inf
20	inf
20	inf
20	inf
20	inf
20	inf
20	inf
20	inf
20	inf
20	inf
20	inf
20	inf
20	inf
80	inf
80	inf
80	inf
80	inf
80	inf
80	inf
80	inf
80	inf
80	inf
80	inf
80	inf
80	inf
80	inf
80	inf
80	inf
80	inf
80	inf
80	inf
80	inf
80	inf
80	inf
80	inf
80	inf
80	inf
80	inf
80	inf
80	inf
80	inf
80	inf
80	inf
80	inf
80	inf
80	inf
80	inf
80	inf
80	inf
