# Persistence diagram </home/jens/Uni/data_topology/Project/reddit_results/graphs/0901-1.gml>
#
# Dimension   : 0
# Entries     : 300
# Betti number: 1
1	inf
1	195
1	195
1	195
1	195
1	10
1	195
1	195
1	8
1	7
1	195
1	195
1	7
1	195
1	195
1	10
1	6
1	195
1	195
1	195
1	195
1	195
1	195
1	9
1	195
1	7
1	5
1	195
1	195
1	195
1	195
1	195
1	195
1	6
1	7
1	195
1	195
1	195
1	195
1	195
1	195
1	195
1	10
1	195
1	6
1	195
1	195
1	7
1	195
1	195
1	195
1	195
1	7
1	195
1	7
1	10
1	195
1	195
1	195
1	195
1	195
1	5
1	195
1	5
1	195
1	6
1	195
1	195
1	5
1	195
1	195
1	7
1	5
1	195
1	6
1	9
1	195
1	6
1	6
1	6
1	195
1	195
1	9
1	195
1	10
1	195
1	195
1	5
1	195
1	4
1	195
1	195
1	195
1	10
1	6
1	8
1	195
1	5
1	195
1	195
1	10
1	195
1	5
1	195
1	195
1	6
1	195
1	195
1	195
1	195
1	10
1	4
1	4
1	6
1	6
1	195
1	4
1	5
1	195
1	195
1	195
1	3
1	4
1	195
1	3
1	4
1	195
1	195
1	6
1	195
1	5
1	6
1	195
1	195
1	5
1	6
1	195
1	6
1	5
1	5
1	195
1	5
1	9
1	195
1	195
1	5
1	195
1	4
1	7
1	3
1	5
1	195
1	5
1	195
1	4
1	195
1	6
1	6
1	195
1	195
1	7
1	195
1	195
1	195
1	195
1	4
1	195
1	195
1	195
1	195
1	8
1	195
1	5
1	195
1	195
1	4
1	195
1	195
1	4
1	3
1	195
1	5
1	195
1	195
1	6
1	195
1	195
1	195
1	195
1	6
1	5
1	195
1	4
1	195
1	195
1	195
1	3
1	195
1	195
1	10
1	195
1	195
1	195
1	195
1	9
1	195
1	195
1	5
1	195
1	195
1	3
1	9
1	195
1	195
1	4
1	195
1	195
1	4
1	4
1	195
1	195
1	195
1	3
1	4
1	195
1	195
1	195
1	4
1	195
1	4
1	195
1	6
1	3
1	195
1	195
1	5
1	195
1	195
1	10
1	4
1	6
1	195
1	195
1	4
1	8
1	7
1	195
1	195
1	7
1	195
1	195
1	7
1	10
1	6
1	195
1	195
1	4
1	195
1	195
1	195
1	4
1	4
1	195
1	5
1	3
1	195
1	3
1	6
1	6
1	5
1	5
1	195
1	195
1	4
1	4
1	195
1	195
1	195
1	195
2	4
2	10
2	5
2	3
2	4
2	7
2	5
2	3
2	4
2	3
2	3
2	195
2	3
2	3
2	3
2	3
2	3
2	6
2	3
2	5
2	4


