# Persistence diagram </home/jens/Uni/data_topology/Project/reddit_results/graphs/0908-1.gml>
#
# Dimension   : 1
# Entries     : 72
# Betti number: 72
5	inf
6	inf
6	inf
7	inf
7	inf
7	inf
7	inf
8	inf
8	inf
8	inf
8	inf
8	inf
8	inf
8	inf
11	inf
11	inf
11	inf
11	inf
11	inf
11	inf
11	inf
11	inf
13	inf
13	inf
13	inf
13	inf
131	inf
131	inf
131	inf
131	inf
131	inf
131	inf
131	inf
131	inf
131	inf
131	inf
131	inf
131	inf
131	inf
131	inf
131	inf
131	inf
131	inf
131	inf
131	inf
131	inf
131	inf
131	inf
131	inf
131	inf
131	inf
131	inf
131	inf
131	inf
131	inf
131	inf
131	inf
131	inf
131	inf
131	inf
131	inf
131	inf
131	inf
131	inf
131	inf
131	inf
131	inf
131	inf
131	inf
131	inf
131	inf
131	inf
