# Persistence diagram </home/jens/Uni/data_topology/Project/reddit_results/graphs/0909-1.gml>
#
# Dimension   : 1
# Entries     : 64
# Betti number: 64
6	inf
6	inf
6	inf
6	inf
7	inf
8	inf
8	inf
11	inf
11	inf
11	inf
11	inf
11	inf
11	inf
11	inf
154	inf
154	inf
154	inf
154	inf
154	inf
154	inf
154	inf
154	inf
154	inf
154	inf
154	inf
154	inf
154	inf
154	inf
154	inf
154	inf
154	inf
154	inf
154	inf
154	inf
154	inf
154	inf
154	inf
154	inf
154	inf
154	inf
154	inf
154	inf
154	inf
154	inf
154	inf
154	inf
154	inf
154	inf
154	inf
154	inf
154	inf
154	inf
154	inf
154	inf
154	inf
154	inf
154	inf
154	inf
154	inf
154	inf
154	inf
154	inf
154	inf
154	inf
