# Persistence diagram </home/jens/Uni/data_topology/Project/reddit_results/graphs/0911-1.gml>
#
# Dimension   : 1
# Entries     : 52
# Betti number: 52
6	inf
7	inf
7	inf
7	inf
7	inf
7	inf
10	inf
10	inf
14	inf
17	inf
17	inf
17	inf
17	inf
17	inf
151	inf
151	inf
151	inf
151	inf
151	inf
151	inf
151	inf
151	inf
151	inf
151	inf
151	inf
151	inf
151	inf
151	inf
151	inf
151	inf
151	inf
151	inf
151	inf
151	inf
151	inf
151	inf
151	inf
151	inf
151	inf
151	inf
151	inf
151	inf
151	inf
151	inf
151	inf
151	inf
151	inf
151	inf
151	inf
151	inf
151	inf
151	inf
