# Persistence diagram </home/jens/Uni/data_topology/Project/reddit_results/graphs/0920-1.gml>
#
# Dimension   : 1
# Entries     : 54
# Betti number: 54
5	inf
6	inf
6	inf
6	inf
6	inf
6	inf
10	inf
10	inf
12	inf
12	inf
12	inf
12	inf
12	inf
25	inf
25	inf
25	inf
35	inf
35	inf
35	inf
35	inf
35	inf
35	inf
35	inf
35	inf
35	inf
35	inf
35	inf
35	inf
68	inf
68	inf
68	inf
68	inf
68	inf
68	inf
68	inf
68	inf
68	inf
68	inf
68	inf
68	inf
68	inf
68	inf
68	inf
68	inf
68	inf
68	inf
68	inf
68	inf
68	inf
68	inf
68	inf
68	inf
68	inf
68	inf
