# Persistence diagram </home/jens/Uni/data_topology/Project/reddit_results/graphs/0931-1.gml>
#
# Dimension   : 0
# Entries     : 270
# Betti number: 2
1	inf
1	14
1	inf
1	50
1	14
1	8
1	50
1	14
1	50
1	50
1	50
1	8
1	8
1	9
1	10
1	50
1	6
1	5
1	9
1	50
1	5
1	10
1	50
1	4
1	50
1	50
1	4
1	5
1	50
1	5
1	4
1	50
1	5
1	4
1	9
1	9
1	9
1	5
1	5
1	7
1	50
1	10
1	5
1	6
1	50
1	3
1	9
1	9
1	6
1	5
1	50
1	50
1	50
1	8
1	4
1	13
1	5
1	50
1	9
1	50
1	4
1	6
1	3
1	4
1	50
1	4
1	5
1	9
1	5
1	5
1	4
1	8
1	8
1	9
1	4
1	10
1	5
1	5
1	9
1	8
1	4
1	5
1	10
1	8
1	3
1	50
1	7
1	9
1	13
1	3
1	5
1	5
1	50
1	14
1	9
1	5
1	4
1	5
1	4
1	3
1	50
1	5
1	13
1	50
1	9
1	4
1	3
1	4
1	50
1	9
1	50
1	4
1	4
1	5
1	7
1	4
1	8
1	7
1	4
1	50
1	3
1	3
1	3
1	4
1	5
1	4
1	3
1	6
1	9
1	4
1	5
1	13
1	4
1	4
1	3
1	9
1	9
1	7
1	4
1	50
1	4
1	3
1	8
1	9
1	9
1	3
1	4
1	50
1	3
1	3
1	5
1	50
1	7
1	13
1	3
1	5
1	3
1	3
1	14
1	5
1	3
1	5
1	9
1	5
1	14
1	13
1	3
1	14
1	4
1	7
1	4
1	5
1	9
1	3
1	4
1	13
1	8
1	9
1	4
1	4
1	50
1	7
1	9
1	5
1	4
1	5
1	9
1	5
1	9
1	4
1	50
1	5
1	3
1	6
1	5
1	4
1	4
1	5
1	4
1	9
1	5
1	4
1	8
1	50
1	10
1	7
1	3
1	4
1	50
1	3
1	10
1	4
1	3
1	4
1	4
1	3
1	5
1	3
1	4
1	3
1	13
1	3
1	3
1	5
1	9
1	9
1	5
1	3
1	5
1	4
1	3
1	5
1	9
1	50
1	9
1	50
1	13
1	10
1	3
1	4
1	9
1	9
1	9
1	4
1	6
2	4
2	4
2	3
2	3
2	3
2	4
2	3
2	4
2	4
2	5
2	4
2	3
2	3
2	3
2	7
2	3
2	4
2	3
2	3
2	4
2	3
2	4
3	4
3	4
3	4


