# Persistence diagram </home/jens/Uni/data_topology/Project/reddit_results/graphs/0933-1.gml>
#
# Dimension   : 1
# Entries     : 50
# Betti number: 50
4	inf
6	inf
6	inf
12	inf
13	inf
13	inf
18	inf
18	inf
18	inf
18	inf
18	inf
18	inf
18	inf
24	inf
24	inf
128	inf
128	inf
128	inf
128	inf
128	inf
128	inf
128	inf
128	inf
128	inf
128	inf
128	inf
128	inf
128	inf
128	inf
128	inf
128	inf
128	inf
128	inf
128	inf
128	inf
128	inf
128	inf
128	inf
128	inf
128	inf
128	inf
128	inf
128	inf
128	inf
128	inf
128	inf
128	inf
128	inf
128	inf
128	inf
