# Persistence diagram </home/jens/Uni/data_topology/Project/reddit_results/graphs/0933-1.gml>
#
# Dimension   : 0
# Entries     : 271
# Betti number: 1
1	inf
1	128
1	18
1	128
1	128
1	128
1	18
1	10
1	12
1	128
1	128
1	128
1	18
1	18
1	128
1	12
1	18
1	128
1	128
1	128
1	7
1	128
1	24
1	128
1	128
1	11
1	7
1	18
1	18
1	128
1	128
1	24
1	10
1	128
1	128
1	10
1	7
1	7
1	128
1	7
1	128
1	128
1	128
1	24
1	11
1	128
1	128
1	128
1	9
1	128
1	11
1	128
1	3
1	24
1	128
1	18
1	3
1	6
1	128
1	7
1	128
1	10
1	128
1	128
1	128
1	4
1	128
1	6
1	24
1	6
1	3
1	128
1	4
1	128
1	9
1	11
1	3
1	11
1	128
1	128
1	18
1	128
1	7
1	6
1	11
1	10
1	24
1	24
1	128
1	128
1	18
1	12
1	7
1	128
1	128
1	128
1	5
1	6
1	24
1	128
1	128
1	128
1	5
1	4
1	24
1	12
1	12
1	128
1	18
1	18
1	10
1	9
1	128
1	18
1	13
1	128
1	6
1	5
1	18
1	128
1	11
1	24
1	24
1	24
1	6
1	128
1	10
1	7
1	13
1	4
1	6
1	128
1	5
1	3
1	24
1	6
1	3
1	4
1	128
1	128
1	6
1	3
1	18
1	128
1	6
1	4
1	18
1	128
1	128
1	5
1	18
1	6
1	5
1	3
1	128
1	128
1	13
1	5
1	13
1	13
1	128
1	128
1	18
1	128
1	7
1	9
1	24
1	128
1	18
1	128
1	18
1	12
1	18
1	128
1	128
1	6
1	128
1	128
1	128
1	128
1	128
1	13
1	6
1	3
1	128
1	24
1	9
1	128
1	13
1	24
1	3
1	128
1	128
1	128
1	9
1	24
1	6
1	3
1	6
1	128
1	128
1	128
1	7
1	128
1	6
1	128
1	128
1	24
1	11
1	5
1	5
1	18
1	6
1	128
1	3
1	128
1	6
1	3
1	3
1	6
1	128
1	128
1	4
1	4
1	4
1	5
1	13
1	128
1	128
1	128
1	18
1	9
1	4
1	4
1	3
1	7
1	3
1	7
1	18
1	128
1	24
1	7
1	6
1	24
1	128
2	4
2	3
2	12
2	6
2	3
2	3
2	12
2	4
2	5
2	18
2	3
2	6
2	5
2	4
2	3
2	5
2	3
2	3
2	5
2	4
2	3
2	3
2	5
2	3
3	6
3	4


