# Persistence diagram </home/jens/Uni/data_topology/Project/reddit_results/graphs/0956-1.gml>
#
# Dimension   : 1
# Entries     : 60
# Betti number: 60
4	inf
6	inf
8	inf
9	inf
9	inf
10	inf
10	inf
10	inf
10	inf
11	inf
11	inf
11	inf
11	inf
127	inf
127	inf
127	inf
127	inf
127	inf
127	inf
127	inf
127	inf
127	inf
127	inf
127	inf
127	inf
127	inf
127	inf
127	inf
127	inf
127	inf
127	inf
127	inf
127	inf
127	inf
127	inf
127	inf
127	inf
127	inf
127	inf
127	inf
127	inf
127	inf
127	inf
127	inf
127	inf
127	inf
127	inf
127	inf
127	inf
127	inf
127	inf
127	inf
127	inf
127	inf
127	inf
127	inf
127	inf
127	inf
127	inf
127	inf
