# Persistence diagram </home/jens/Uni/data_topology/Project/reddit_results/graphs/0956-1.gml>
#
# Dimension   : 0
# Entries     : 261
# Betti number: 1
1	inf
1	11
1	6
1	127
1	127
1	127
1	127
1	6
1	127
1	10
1	127
1	127
1	127
1	9
1	3
1	9
1	127
1	127
1	9
1	8
1	127
1	127
1	4
1	127
1	127
1	8
1	127
1	127
1	127
1	7
1	127
1	10
1	6
1	127
1	9
1	127
1	127
1	127
1	127
1	127
1	9
1	127
1	9
1	4
1	10
1	4
1	9
1	11
1	5
1	3
1	7
1	127
1	6
1	127
1	3
1	5
1	5
1	9
1	6
1	127
1	9
1	127
1	8
1	127
1	127
1	8
1	8
1	4
1	8
1	127
1	4
1	127
1	5
1	127
1	4
1	3
1	11
1	127
1	4
1	127
1	7
1	6
1	7
1	8
1	127
1	11
1	5
1	7
1	127
1	11
1	11
1	11
1	11
1	6
1	11
1	11
1	8
1	6
1	9
1	127
1	127
1	9
1	127
1	127
1	4
1	6
1	5
1	5
1	9
1	127
1	127
1	127
1	11
1	127
1	4
1	127
1	6
1	7
1	127
1	3
1	127
1	4
1	127
1	127
1	3
1	8
1	127
1	127
1	8
1	127
1	8
1	5
1	127
1	5
1	4
1	6
1	3
1	5
1	127
1	4
1	4
1	9
1	127
1	10
1	6
1	7
1	4
1	3
1	4
1	127
1	6
1	127
1	3
1	6
1	127
1	4
1	4
1	3
1	127
1	6
1	9
1	4
1	10
1	127
1	6
1	3
1	3
1	127
1	5
1	6
1	5
1	6
1	5
1	127
1	11
1	127
1	11
1	4
1	3
1	127
1	127
1	127
1	5
1	3
1	7
1	127
1	4
1	8
1	5
1	3
1	4
1	3
1	4
1	4
1	4
1	8
1	9
1	4
1	3
1	127
1	8
1	127
1	4
1	3
1	3
1	3
1	4
1	127
1	3
1	127
1	127
1	127
1	4
1	127
1	4
1	4
1	127
1	3
1	3
1	4
1	127
1	6
1	7
1	4
1	8
1	127
2	6
2	3
2	3
2	3
2	3
2	4
2	3
2	8
2	3
2	9
2	11
2	4
2	3
2	3
2	3
2	3
2	4
2	3
2	4
2	3
2	5
2	3
2	3
2	3
2	5
2	5
2	3
2	3
2	3
2	3
2	9
2	3
3	4
3	6
3	4


