# Persistence diagram </home/jens/Uni/data_topology/Project/reddit_results/graphs/0962-1.gml>
#
# Dimension   : 1
# Entries     : 45
# Betti number: 45
5	inf
7	inf
7	inf
7	inf
7	inf
8	inf
8	inf
8	inf
8	inf
8	inf
9	inf
9	inf
9	inf
252	inf
252	inf
252	inf
252	inf
252	inf
252	inf
252	inf
252	inf
252	inf
252	inf
252	inf
252	inf
252	inf
252	inf
252	inf
252	inf
252	inf
252	inf
252	inf
252	inf
252	inf
252	inf
252	inf
252	inf
252	inf
252	inf
252	inf
252	inf
252	inf
252	inf
252	inf
252	inf
