# Persistence diagram </home/jens/Uni/data_topology/Project/reddit_results/graphs/0966-1.gml>
#
# Dimension   : 0
# Entries     : 270
# Betti number: 1
1	inf
1	104
1	104
1	9
1	10
1	8
1	104
1	8
1	8
1	104
1	8
1	6
1	104
1	8
1	6
1	104
1	6
1	3
1	8
1	8
1	104
1	6
1	10
1	104
1	104
1	6
1	3
1	104
1	3
1	5
1	3
1	104
1	5
1	6
1	6
1	104
1	7
1	6
1	12
1	7
1	4
1	104
1	7
1	104
1	6
1	4
1	104
1	6
1	12
1	8
1	104
1	7
1	104
1	8
1	5
1	4
1	8
1	5
1	6
1	6
1	5
1	8
1	6
1	8
1	8
1	7
1	104
1	4
1	8
1	6
1	6
1	104
1	10
1	7
1	5
1	8
1	104
1	104
1	104
1	5
1	5
1	5
1	3
1	3
1	3
1	6
1	104
1	8
1	7
1	5
1	104
1	104
1	10
1	7
1	104
1	5
1	104
1	104
1	5
1	104
1	5
1	5
1	6
1	4
1	3
1	9
1	5
1	6
1	8
1	104
1	5
1	3
1	104
1	104
1	104
1	4
1	104
1	104
1	5
1	104
1	104
1	8
1	4
1	4
1	104
1	12
1	9
1	7
1	7
1	6
1	6
1	104
1	7
1	104
1	8
1	104
1	6
1	5
1	8
1	6
1	5
1	6
1	104
1	104
1	4
1	4
1	104
1	8
1	104
1	8
1	8
1	3
1	4
1	5
1	104
1	4
1	6
1	8
1	8
1	6
1	6
1	104
1	4
1	3
1	104
1	104
1	104
1	5
1	4
1	12
1	104
1	104
1	5
1	104
1	104
1	3
1	6
1	7
1	12
1	3
1	104
1	104
1	3
1	104
1	4
1	7
1	4
1	104
1	3
1	5
1	104
1	104
1	3
1	104
1	8
1	4
1	8
1	104
1	3
1	104
1	4
1	3
1	5
1	6
1	10
1	10
1	3
1	6
1	6
1	104
1	5
1	104
1	7
1	104
1	7
1	7
1	5
1	104
1	104
1	6
1	9
1	7
1	3
1	9
1	3
1	104
1	8
1	104
1	3
1	6
1	5
1	104
1	5
1	4
1	9
1	104
1	6
1	104
2	3
2	5
2	5
2	8
2	4
2	4
2	6
2	6
2	5
2	4
2	3
2	4
2	8
2	4
2	6
2	6
2	7
2	3
2	3
2	6
2	5
2	4
2	3
2	5
2	3
2	5
2	5
2	4
2	5
2	6
2	5
3	6


