# Persistence diagram </home/jens/Uni/data_topology/Project/reddit_results/graphs/0968-1.gml>
#
# Dimension   : 1
# Entries     : 39
# Betti number: 39
7	inf
7	inf
8	inf
10	inf
10	inf
10	inf
10	inf
149	inf
149	inf
149	inf
149	inf
149	inf
149	inf
149	inf
149	inf
149	inf
149	inf
149	inf
149	inf
149	inf
149	inf
149	inf
149	inf
149	inf
149	inf
149	inf
149	inf
149	inf
149	inf
149	inf
149	inf
149	inf
149	inf
149	inf
149	inf
149	inf
149	inf
149	inf
149	inf
