# Persistence diagram </home/jens/Uni/data_topology/Project/reddit_results/graphs/0983-1.gml>
#
# Dimension   : 0
# Entries     : 288
# Betti number: 6
1	inf
1	123
1	123
1	123
1	123
1	123
1	123
1	11
1	inf
1	123
1	123
1	123
1	4
1	16
1	inf
1	123
1	123
1	123
1	16
1	6
1	14
1	11
1	123
1	16
1	123
1	123
1	11
1	14
1	11
1	4
1	123
1	6
1	123
1	14
1	123
1	123
1	123
1	123
1	8
1	11
1	123
1	9
1	4
1	14
1	123
1	5
1	123
1	123
1	6
1	9
1	123
1	6
1	123
1	3
1	123
1	6
1	123
1	6
1	123
1	123
1	5
1	6
1	123
1	5
1	9
1	123
1	123
1	123
1	8
1	inf
1	8
1	16
1	123
1	9
1	123
1	123
1	123
1	123
1	123
1	16
1	8
1	123
1	7
1	9
1	123
1	123
1	3
1	123
1	4
1	16
1	5
1	123
1	9
1	123
1	4
1	3
1	6
1	5
1	3
1	123
1	123
1	123
1	123
1	3
1	11
1	14
1	5
1	123
1	123
1	123
1	123
1	3
1	123
1	9
1	123
1	123
1	7
1	14
1	8
1	123
1	11
1	14
1	16
1	123
1	6
1	11
1	8
1	123
1	123
1	8
1	8
1	4
1	123
1	123
1	inf
1	16
1	3
1	123
1	123
1	4
1	9
1	123
1	4
1	123
1	8
1	3
1	4
1	6
1	6
1	123
1	123
1	123
1	123
1	3
1	123
1	16
1	4
1	4
1	4
1	inf
1	3
1	4
1	6
1	16
1	123
1	8
1	123
1	14
1	123
1	9
1	5
1	123
1	5
1	123
1	16
1	123
1	5
1	8
1	6
1	4
1	3
1	123
1	3
1	4
1	123
1	5
1	6
1	5
1	123
1	3
1	3
1	14
1	16
1	8
1	3
1	3
1	8
1	8
1	9
1	16
1	123
1	5
1	2
1	5
1	5
1	2
1	16
1	3
1	123
1	123
1	3
1	6
1	6
1	3
1	5
1	5
1	3
1	123
1	123
1	123
1	4
1	5
1	3
1	4
1	123
1	14
1	6
1	123
1	5
1	9
1	5
1	123
1	123
1	123
1	123
1	5
1	9
1	123
1	8
1	4
1	8
1	9
1	6
1	14
1	6
1	3
1	123
1	123
1	5
1	123
1	3
1	6
1	4
1	3
1	6
1	4
1	4
1	123
1	7
1	3
1	5
1	6
1	9
2	3
2	5
2	4
2	3
2	3
2	3
2	123
2	6
2	5
2	7
2	6
2	3
2	3
2	3
2	3
2	4
2	7
2	4
2	8
2	3
2	3
2	3
2	4
2	3
2	4


