# Persistence diagram </home/jens/Uni/data_topology/Project/reddit_results/graphs/0987-1.gml>
#
# Dimension   : 0
# Entries     : 301
# Betti number: 1
1	inf
1	149
1	149
1	9
1	9
1	149
1	10
1	149
1	149
1	9
1	9
1	149
1	9
1	149
1	149
1	8
1	149
1	5
1	4
1	149
1	149
1	4
1	149
1	149
1	7
1	4
1	149
1	4
1	149
1	8
1	3
1	149
1	149
1	149
1	149
1	149
1	149
1	149
1	3
1	10
1	8
1	8
1	4
1	7
1	149
1	4
1	8
1	4
1	8
1	3
1	149
1	149
1	149
1	149
1	149
1	3
1	149
1	149
1	9
1	9
1	7
1	8
1	7
1	149
1	9
1	7
1	149
1	8
1	149
1	149
1	149
1	4
1	10
1	7
1	7
1	149
1	9
1	149
1	4
1	149
1	149
1	149
1	149
1	149
1	7
1	9
1	149
1	6
1	3
1	149
1	149
1	149
1	149
1	10
1	149
1	7
1	149
1	3
1	7
1	149
1	149
1	149
1	10
1	149
1	3
1	8
1	6
1	149
1	149
1	7
1	5
1	149
1	149
1	4
1	6
1	149
1	149
1	7
1	8
1	149
1	149
1	149
1	3
1	149
1	149
1	149
1	4
1	149
1	149
1	4
1	5
1	5
1	149
1	149
1	149
1	5
1	3
1	149
1	4
1	5
1	149
1	7
1	149
1	149
1	149
1	7
1	7
1	3
1	10
1	8
1	149
1	149
1	7
1	149
1	149
1	4
1	149
1	149
1	149
1	5
1	4
1	149
1	3
1	7
1	149
1	4
1	3
1	7
1	7
1	9
1	149
1	4
1	4
1	4
1	3
1	3
1	149
1	149
1	149
1	5
1	7
1	149
1	149
1	149
1	3
1	149
1	4
1	149
1	149
1	9
1	9
1	4
1	9
1	5
1	8
1	8
1	149
1	6
1	149
1	8
1	6
1	10
1	149
1	149
1	6
1	149
1	9
1	149
1	9
1	4
1	9
1	5
1	3
1	6
1	4
1	5
1	8
1	7
1	4
1	149
1	3
1	6
1	149
1	149
1	149
1	9
1	3
1	8
1	3
1	4
1	149
1	9
1	10
1	8
1	9
1	4
1	149
1	149
1	3
1	149
1	8
1	149
1	149
1	149
1	8
1	5
1	149
1	149
1	149
1	7
1	149
1	6
1	149
1	8
1	5
1	7
1	149
1	149
1	149
1	8
1	7
1	7
1	6
1	149
1	149
1	3
1	3
1	149
1	149
1	8
1	3
1	149
1	149
1	3
1	149
1	149
1	6
2	7
2	3
2	4
2	3
2	3
2	4
2	3
2	4
2	3
2	4
2	3
2	4
2	3
2	7
2	3
2	3
2	4
2	4
2	3
2	6
2	3
2	3
2	4
3	4


