# Persistence diagram </home/jens/Uni/data_topology/Project/reddit_results/graphs/0997-1.gml>
#
# Dimension   : 0
# Entries     : 28
# Betti number: 1
1	inf
1	24
1	24
1	24
1	24
1	24
1	4
1	24
1	3
1	24
1	24
1	24
1	24
1	24
1	24
1	24
1	3
1	24
1	24
1	24
1	4
1	24
1	24
1	24
2	3
2	3
2	3
2	3


