# Persistence diagram </home/jens/Uni/data_topology/Project/reddit_results/graphs/0999-1.gml>
#
# Dimension   : 1
# Entries     : 51
# Betti number: 51
5	inf
6	inf
7	inf
8	inf
8	inf
9	inf
9	inf
9	inf
19	inf
19	inf
20	inf
20	inf
226	inf
226	inf
226	inf
226	inf
226	inf
226	inf
226	inf
226	inf
226	inf
226	inf
226	inf
226	inf
226	inf
226	inf
226	inf
226	inf
226	inf
226	inf
226	inf
226	inf
226	inf
226	inf
226	inf
226	inf
226	inf
226	inf
226	inf
226	inf
226	inf
226	inf
226	inf
226	inf
226	inf
226	inf
226	inf
226	inf
226	inf
226	inf
226	inf
