# Persistence diagram </home/jens/Uni/data_topology/Project/reddit_results/graphs/1000-1.gml>
#
# Dimension   : 0
# Entries     : 2212
# Betti number: 3
1	inf
1	1950
1	1950
1	21
1	1950
1	1950
1	1950
1	1950
1	1950
1	1950
1	1950
1	1950
1	1950
1	1950
1	1950
1	1950
1	15
1	1950
1	1950
1	1950
1	1950
1	1950
1	1950
1	1950
1	1950
1	1950
1	1950
1	1950
1	1950
1	1950
1	1950
1	11
1	1950
1	1950
1	1950
1	1950
1	16
1	1950
1	1950
1	1950
1	1950
1	1950
1	12
1	1950
1	1950
1	1950
1	1950
1	1950
1	1950
1	1950
1	1950
1	1950
1	1950
1	1950
1	7
1	1950
1	1950
1	1950
1	1950
1	1950
1	1950
1	1950
1	12
1	1950
1	1950
1	1950
1	1950
1	1950
1	1950
1	1950
1	1950
1	1950
1	1950
1	1950
1	1950
1	1950
1	1950
1	1950
1	1950
1	1950
1	12
1	1950
1	1950
1	1950
1	1950
1	1950
1	1950
1	13
1	1950
1	1950
1	1950
1	1950
1	1950
1	15
1	1950
1	1950
1	1950
1	1950
1	1950
1	19
1	1950
1	1950
1	1950
1	1950
1	1950
1	1950
1	1950
1	1950
1	1950
1	1950
1	1950
1	1950
1	1950
1	1950
1	12
1	1950
1	1950
1	1950
1	1950
1	1950
1	1950
1	1950
1	1950
1	1950
1	1950
1	3
1	1950
1	1950
1	1950
1	1950
1	1950
1	1950
1	23
1	1950
1	1950
1	1950
1	10
1	1950
1	1950
1	1950
1	1950
1	1950
1	16
1	1950
1	1950
1	1950
1	1950
1	1950
1	16
1	1950
1	1950
1	1950
1	1950
1	1950
1	1950
1	1950
1	1950
1	1950
1	13
1	7
1	1950
1	1950
1	1950
1	1950
1	1950
1	8
1	1950
1	1950
1	1950
1	1950
1	1950
1	1950
1	19
1	16
1	1950
1	1950
1	1950
1	21
1	1950
1	1950
1	1950
1	11
1	1950
1	1950
1	12
1	1950
1	1950
1	1950
1	1950
1	1950
1	1950
1	1950
1	1950
1	1950
1	1950
1	1950
1	9
1	1950
1	1950
1	1950
1	11
1	1950
1	1950
1	1950
1	1950
1	1950
1	11
1	1950
1	1950
1	1950
1	1950
1	1950
1	1950
1	1950
1	8
1	1950
1	1950
1	1950
1	1950
1	1950
1	1950
1	1950
1	1950
1	1950
1	1950
1	1950
1	1950
1	1950
1	1950
1	3
1	1950
1	1950
1	1950
1	1950
1	1950
1	1950
1	1950
1	1950
1	1950
1	1950
1	1950
1	1950
1	16
1	1950
1	15
1	1950
1	1950
1	15
1	1950
1	1950
1	1950
1	1950
1	1950
1	10
1	16
1	1950
1	1950
1	1950
1	1950
1	1950
1	1950
1	1950
1	1950
1	1950
1	11
1	1950
1	11
1	1950
1	1950
1	1950
1	1950
1	1950
1	1950
1	21
1	1950
1	1950
1	1950
1	1950
1	1950
1	1950
1	12
1	1950
1	11
1	1950
1	1950
1	1950
1	1950
1	1950
1	7
1	1950
1	1950
1	1950
1	1950
1	1950
1	1950
1	1950
1	1950
1	7
1	1950
1	1950
1	1950
1	1950
1	15
1	1950
1	1950
1	1950
1	7
1	1950
1	7
1	1950
1	1950
1	1950
1	1950
1	1950
1	1950
1	12
1	1950
1	1950
1	1950
1	1950
1	1950
1	1950
1	1950
1	1950
1	1950
1	1950
1	1950
1	1950
1	1950
1	1950
1	1950
1	11
1	1950
1	1950
1	12
1	1950
1	1950
1	1950
1	1950
1	1950
1	1950
1	1950
1	1950
1	1950
1	1950
1	1950
1	1950
1	1950
1	1950
1	1950
1	21
1	1950
1	1950
1	16
1	1950
1	1950
1	1950
1	1950
1	1950
1	1950
1	1950
1	1950
1	10
1	1950
1	1950
1	19
1	1950
1	1950
1	1950
1	1950
1	14
1	1950
1	1950
1	1950
1	1950
1	1950
1	1950
1	19
1	1950
1	1950
1	1950
1	3
1	1950
1	1950
1	1950
1	9
1	12
1	1950
1	1950
1	1950
1	1950
1	1950
1	1950
1	1950
1	1950
1	1950
1	1950
1	1950
1	1950
1	1950
1	8
1	1950
1	1950
1	1950
1	1950
1	1950
1	1950
1	1950
1	1950
1	1950
1	1950
1	1950
1	1950
1	1950
1	1950
1	1950
1	1950
1	1950
1	14
1	1950
1	1950
1	1950
1	1950
1	16
1	1950
1	1950
1	11
1	1950
1	1950
1	1950
1	1950
1	7
1	1950
1	1950
1	1950
1	1950
1	1950
1	1950
1	1950
1	1950
1	1950
1	11
1	11
1	1950
1	1950
1	inf
1	1950
1	1950
1	1950
1	1950
1	1950
1	1950
1	12
1	1950
1	1950
1	12
1	1950
1	1950
1	1950
1	11
1	1950
1	1950
1	1950
1	1950
1	1950
1	1950
1	8
1	1950
1	1950
1	1950
1	1950
1	1950
1	1950
1	1950
1	10
1	1950
1	1950
1	1950
1	1950
1	1950
1	3
1	1950
1	1950
1	1950
1	1950
1	4
1	1950
1	1950
1	1950
1	1950
1	1950
1	1950
1	1950
1	1950
1	17
1	1950
1	1950
1	1950
1	7
1	1950
1	11
1	1950
1	1950
1	1950
1	1950
1	1950
1	1950
1	1950
1	1950
1	1950
1	1950
1	1950
1	9
1	1950
1	1950
1	1950
1	16
1	1950
1	1950
1	1950
1	1950
1	1950
1	1950
1	1950
1	1950
1	17
1	1950
1	1950
1	1950
1	1950
1	4
1	1950
1	1950
1	1950
1	1950
1	1950
1	1950
1	11
1	1950
1	1950
1	1950
1	1950
1	1950
1	1950
1	1950
1	13
1	1950
1	1950
1	1950
1	1950
1	1950
1	1950
1	1950
1	1950
1	11
1	1950
1	1950
1	1950
1	11
1	1950
1	15
1	1950
1	1950
1	1950
1	1950
1	1950
1	1950
1	1950
1	1950
1	1950
1	1950
1	1950
1	7
1	1950
1	1950
1	1950
1	1950
1	1950
1	1950
1	1950
1	1950
1	1950
1	1950
1	1950
1	1950
1	8
1	1950
1	1950
1	4
1	1950
1	1950
1	1950
1	19
1	1950
1	1950
1	1950
1	16
1	1950
1	6
1	1950
1	1950
1	12
1	1950
1	1950
1	1950
1	1950
1	1950
1	1950
1	1950
1	1950
1	1950
1	1950
1	1950
1	1950
1	1950
1	1950
1	1950
1	1950
1	1950
1	1950
1	1950
1	1950
1	1950
1	1950
1	1950
1	1950
1	1950
1	23
1	1950
1	1950
1	10
1	1950
1	10
1	1950
1	1950
1	1950
1	1950
1	1950
1	1950
1	1950
1	1950
1	1950
1	1950
1	11
1	1950
1	1950
1	1950
1	1950
1	1950
1	1950
1	1950
1	1950
1	1950
1	1950
1	1950
1	1950
1	1950
1	1950
1	1950
1	1950
1	1950
1	1950
1	1950
1	1950
1	1950
1	7
1	1950
1	1950
1	1950
1	1950
1	1950
1	1950
1	1950
1	1950
1	1950
1	1950
1	1950
1	1950
1	1950
1	19
1	11
1	1950
1	3
1	1950
1	1950
1	1950
1	8
1	1950
1	1950
1	1950
1	1950
1	1950
1	1950
1	1950
1	1950
1	1950
1	inf
1	1950
1	7
1	1950
1	1950
1	1950
1	4
1	1950
1	1950
1	1950
1	15
1	1950
1	1950
1	1950
1	1950
1	1950
1	1950
1	1950
1	1950
1	1950
1	1950
1	1950
1	1950
1	1950
1	11
1	1950
1	1950
1	11
1	1950
1	1950
1	1950
1	1950
1	1950
1	1950
1	1950
1	8
1	1950
1	1950
1	1950
1	1950
1	1950
1	1950
1	1950
1	1950
1	1950
1	1950
1	1950
1	1950
1	1950
1	1950
1	16
1	1950
1	1950
1	14
1	8
1	1950
1	1950
1	1950
1	1950
1	5
1	1950
1	7
1	10
1	19
1	1950
1	1950
1	7
1	1950
1	1950
1	1950
1	1950
1	1950
1	1950
1	1950
1	1950
1	1950
1	1950
1	16
1	1950
1	1950
1	1950
1	8
1	1950
1	1950
1	1950
1	1950
1	1950
1	1950
1	1950
1	1950
1	1950
1	1950
1	1950
1	1950
1	1950
1	1950
1	1950
1	1950
1	21
1	8
1	1950
1	1950
1	15
1	1950
1	1950
1	17
1	7
1	1950
1	1950
1	1950
1	1950
1	1950
1	1950
1	1950
1	1950
1	1950
1	1950
1	1950
1	1950
1	1950
1	1950
1	1950
1	4
1	1950
1	1950
1	1950
1	1950
1	1950
1	1950
1	1950
1	1950
1	1950
1	12
1	1950
1	1950
1	1950
1	5
1	1950
1	1950
1	1950
1	1950
1	1950
1	1950
1	1950
1	1950
1	1950
1	1950
1	1950
1	1950
1	1950
1	8
1	1950
1	1950
1	3
1	1950
1	1950
1	12
1	1950
1	1950
1	1950
1	1950
1	1950
1	1950
1	1950
1	1950
1	12
1	1950
1	10
1	1950
1	1950
1	1950
1	1950
1	1950
1	1950
1	1950
1	1950
1	1950
1	1950
1	1950
1	1950
1	1950
1	1950
1	1950
1	1950
1	1950
1	8
1	1950
1	1950
1	1950
1	1950
1	16
1	1950
1	1950
1	5
1	11
1	1950
1	1950
1	1950
1	1950
1	12
1	11
1	1950
1	1950
1	1950
1	1950
1	1950
1	1950
1	1950
1	1950
1	10
1	1950
1	1950
1	1950
1	1950
1	1950
1	15
1	1950
1	1950
1	1950
1	1950
1	1950
1	1950
1	9
1	15
1	1950
1	1950
1	21
1	19
1	1950
1	1950
1	1950
1	9
1	1950
1	10
1	1950
1	1950
1	1950
1	4
1	1950
1	1950
1	1950
1	16
1	1950
1	12
1	1950
1	1950
1	1950
1	1950
1	1950
1	1950
1	7
1	1950
1	1950
1	1950
1	10
1	17
1	1950
1	1950
1	1950
1	1950
1	16
1	1950
1	1950
1	1950
1	8
1	1950
1	1950
1	1950
1	8
1	1950
1	1950
1	7
1	1950
1	1950
1	1950
1	1950
1	1950
1	1950
1	1950
1	1950
1	1950
1	1950
1	1950
1	1950
1	1950
1	11
1	23
1	1950
1	1950
1	1950
1	1950
1	1950
1	1950
1	1950
1	3
1	1950
1	1950
1	1950
1	1950
1	1950
1	10
1	1950
1	1950
1	11
1	1950
1	5
1	1950
1	1950
1	1950
1	1950
1	1950
1	11
1	12
1	1950
1	1950
1	1950
1	1950
1	4
1	1950
1	19
1	1950
1	1950
1	1950
1	1950
1	1950
1	1950
1	1950
1	1950
1	1950
1	8
1	1950
1	1950
1	1950
1	12
1	1950
1	1950
1	1950
1	11
1	1950
1	1950
1	1950
1	1950
1	1950
1	1950
1	1950
1	1950
1	1950
1	1950
1	1950
1	1950
1	1950
1	1950
1	1950
1	1950
1	11
1	11
1	1950
1	1950
1	1950
1	1950
1	11
1	1950
1	1950
1	11
1	1950
1	1950
1	1950
1	1950
1	1950
1	1950
1	7
1	1950
1	1950
1	1950
1	1950
1	8
1	1950
1	1950
1	11
1	1950
1	11
1	1950
1	1950
1	1950
1	11
1	1950
1	15
1	1950
1	1950
1	1950
1	1950
1	1950
1	1950
1	1950
1	1950
1	1950
1	17
1	1950
1	1950
1	1950
1	1950
1	12
1	1950
1	1950
1	1950
1	7
1	1950
1	1950
1	1950
1	1950
1	1950
1	1950
1	1950
1	1950
1	1950
1	1950
1	1950
1	1950
1	5
1	1950
1	1950
1	1950
1	5
1	1950
1	1950
1	11
1	1950
1	1950
1	1950
1	5
1	1950
1	1950
1	1950
1	1950
1	1950
1	1950
1	1950
1	1950
1	1950
1	1950
1	1950
1	1950
1	1950
1	7
1	1950
1	1950
1	1950
1	1950
1	1950
1	1950
1	1950
1	1950
1	1950
1	1950
1	1950
1	1950
1	15
1	1950
1	1950
1	1950
1	1950
1	1950
1	1950
1	1950
1	1950
1	1950
1	1950
1	1950
1	1950
1	1950
1	1950
1	1950
1	8
1	1950
1	1950
1	1950
1	1950
1	23
1	1950
1	6
1	1950
1	1950
1	1950
1	1950
1	15
1	1950
1	1950
1	1950
1	1950
1	1950
1	1950
1	1950
1	1950
1	1950
1	12
1	1950
1	8
1	1950
1	1950
1	11
1	1950
1	1950
1	5
1	1950
1	1950
1	1950
1	1950
1	1950
1	1950
1	6
1	8
1	1950
1	1950
1	15
1	1950
1	1950
1	4
1	1950
1	1950
1	1950
1	1950
1	1950
1	15
1	1950
1	1950
1	1950
1	1950
1	1950
1	1950
1	11
1	1950
1	1950
1	1950
1	15
1	1950
1	1950
1	1950
1	1950
1	1950
1	8
1	1950
1	1950
1	1950
1	1950
1	5
1	11
1	1950
1	6
1	1950
1	1950
1	19
1	11
1	1950
1	1950
1	1950
1	11
1	1950
1	1950
1	1950
1	1950
1	7
1	12
1	1950
1	1950
1	15
1	1950
1	15
1	1950
1	1950
1	11
1	1950
1	1950
1	1950
1	1950
1	1950
1	1950
1	1950
1	1950
1	1950
1	1950
1	8
1	4
1	1950
1	23
1	1950
1	8
1	1950
1	1950
1	1950
1	1950
1	1950
1	1950
1	1950
1	1950
1	1950
1	3
1	1950
1	21
1	1950
1	1950
1	1950
1	1950
1	1950
1	1950
1	1950
1	15
1	6
1	1950
1	15
1	1950
1	1950
1	1950
1	1950
1	1950
1	1950
1	1950
1	1950
1	1950
1	1950
1	1950
1	1950
1	1950
1	1950
1	1950
1	1950
1	2
1	1950
1	11
1	1950
1	1950
1	1950
1	1950
1	1950
1	4
1	1950
1	1950
1	1950
1	1950
1	17
1	14
1	1950
1	1950
1	1950
1	16
1	1950
1	1950
1	1950
1	1950
1	1950
1	1950
1	1950
1	1950
1	1950
1	1950
1	1950
1	1950
1	1950
1	1950
1	1950
1	12
1	1950
1	1950
1	7
1	7
1	1950
1	1950
1	4
1	1950
1	1950
1	13
1	1950
1	5
1	1950
1	7
1	1950
1	1950
1	1950
1	1950
1	1950
1	1950
1	1950
1	1950
1	1950
1	1950
1	1950
1	1950
1	1950
1	1950
1	1950
1	1950
1	1950
1	1950
1	1950
1	1950
1	1950
1	15
1	5
1	1950
1	1950
1	1950
1	1950
1	1950
1	1950
1	1950
1	1950
1	11
1	1950
1	1950
1	1950
1	1950
1	1950
1	1950
1	10
1	9
1	1950
1	1950
1	1950
1	23
1	1950
1	11
1	1950
1	1950
1	1950
1	1950
1	1950
1	1950
1	1950
1	1950
1	1950
1	1950
1	1950
1	1950
1	1950
1	1950
1	1950
1	1950
1	1950
1	1950
1	1950
1	1950
1	1950
1	1950
1	1950
1	1950
1	1950
1	1950
1	1950
1	1950
1	1950
1	1950
1	1950
1	7
1	1950
1	1950
1	1950
1	1950
1	1950
1	1950
1	1950
1	1950
1	1950
1	1950
1	1950
1	1950
1	1950
1	5
1	7
1	19
1	1950
1	5
1	1950
1	1950
1	1950
1	1950
1	1950
1	1950
1	13
1	4
1	1950
1	1950
1	1950
1	10
1	1950
1	10
1	1950
1	1950
1	1950
1	1950
1	1950
1	1950
1	1950
1	1950
1	1950
1	1950
1	1950
1	1950
1	1950
1	16
1	1950
1	12
1	1950
1	1950
1	1950
1	1950
1	1950
1	1950
1	6
1	1950
1	1950
1	1950
1	1950
1	1950
1	1950
1	1950
1	1950
1	8
1	1950
1	1950
1	1950
1	1950
1	1950
1	1950
1	1950
1	1950
1	1950
1	1950
1	1950
1	1950
1	23
1	1950
1	1950
1	12
1	1950
1	1950
1	12
1	1950
1	1950
1	1950
1	1950
1	6
1	1950
1	7
1	1950
1	1950
1	1950
1	1950
1	1950
1	15
1	1950
1	1950
1	1950
1	1950
1	1950
1	1950
1	15
1	1950
1	1950
1	1950
1	1950
1	1950
1	1950
1	1950
1	11
1	1950
1	1950
1	1950
1	1950
1	1950
1	1950
1	1950
1	1950
1	1950
1	1950
1	1950
1	1950
1	1950
1	1950
1	1950
1	1950
1	1950
1	1950
1	1950
1	1950
1	1950
1	1950
1	1950
1	1950
1	1950
1	1950
1	1950
1	16
1	1950
1	1950
1	6
1	1950
1	15
1	1950
1	1950
1	23
1	1950
1	1950
1	1950
1	1950
1	1950
1	1950
1	1950
1	23
1	1950
1	1950
1	1950
1	1950
1	1950
1	1950
1	1950
1	1950
1	1950
1	1950
1	1950
1	1950
1	19
1	1950
1	12
1	1950
1	1950
1	1950
1	1950
1	1950
1	1950
1	1950
1	1950
1	1950
1	11
1	7
1	1950
1	1950
1	4
1	14
1	1950
1	1950
1	1950
1	1950
1	1950
1	1950
1	1950
1	1950
1	3
1	1950
1	8
1	7
1	4
1	1950
1	1950
1	1950
1	1950
1	1950
1	1950
1	1950
1	1950
1	1950
1	1950
1	1950
1	1950
1	1950
1	11
1	1950
1	1950
1	6
1	1950
1	1950
1	1950
1	1950
1	1950
1	1950
1	1950
1	1950
1	1950
1	1950
1	1950
1	1950
1	1950
1	1950
1	1950
1	1950
1	1950
1	1950
1	15
1	23
1	1950
1	1950
1	1950
1	1950
1	15
1	1950
1	7
1	1950
1	1950
1	1950
1	1950
1	1950
1	1950
1	1950
1	10
1	1950
1	1950
1	1950
1	1950
1	1950
1	1950
1	1950
1	1950
1	1950
1	1950
1	1950
1	1950
1	1950
1	1950
1	1950
1	1950
1	1950
1	1950
1	1950
1	1950
1	8
1	1950
1	1950
1	1950
1	1950
1	1950
1	1950
1	1950
1	1950
1	1950
1	1950
1	1950
1	1950
1	1950
1	1950
1	1950
1	1950
1	1950
1	15
1	7
1	1950
1	1950
1	1950
1	1950
1	1950
1	1950
1	1950
1	1950
1	7
1	19
1	7
1	16
1	1950
1	1950
1	1950
1	1950
1	17
1	1950
1	1950
1	7
1	1950
1	1950
1	1950
1	1950
1	1950
1	12
1	12
1	4
1	1950
1	1950
1	11
1	8
1	1950
1	1950
1	1950
1	1950
1	1950
1	1950
1	1950
1	1950
1	1950
1	8
1	1950
1	1950
1	1950
1	1950
1	1950
1	1950
1	1950
1	1950
1	1950
1	1950
1	4
1	1950
1	1950
1	1950
1	1950
1	1950
1	1950
1	1950
1	1950
1	1950
1	8
1	1950
1	1950
1	1950
1	1950
1	1950
1	1950
1	6
1	1950
1	1950
1	1950
1	1950
1	1950
1	1950
1	1950
1	1950
1	1950
1	1950
1	1950
1	1950
1	1950
1	1950
1	1950
1	1950
1	1950
1	1950
1	1950
1	1950
1	1950
1	1950
1	1950
1	1950
1	1950
1	1950
1	1950
1	17
1	1950
1	1950
1	1950
1	5
1	1950
1	1950
1	1950
1	1950
1	1950
1	5
1	1950
1	1950
1	1950
1	1950
1	7
1	15
1	1950
1	1950
1	1950
1	1950
1	1950
1	13
1	1950
1	1950
1	1950
1	1950
1	1950
1	1950
1	1950
1	4
1	10
1	7
1	1950
1	4
1	1950
1	1950
1	1950
1	1950
1	1950
1	15
1	1950
1	1950
1	1950
1	1950
1	1950
1	12
1	1950
1	1950
1	1950
1	1950
1	1950
1	1950
1	1950
1	12
1	1950
1	1950
1	1950
1	1950
1	1950
1	1950
1	1950
1	1950
1	1950
1	1950
1	1950
1	1950
1	1950
1	1950
1	16
1	1950
1	12
1	1950
1	12
1	1950
1	1950
1	1950
1	1950
1	1950
1	1950
1	1950
1	1950
1	7
1	1950
1	1950
1	1950
1	1950
1	1950
1	1950
1	1950
1	1950
1	1950
1	1950
1	1950
1	1950
1	1950
1	1950
1	1950
1	1950
1	1950
1	1950
1	5
1	1950
1	1950
1	5
1	1950
1	1950
1	15
1	1950
1	10
1	9
1	1950
1	1950
1	1950
1	1950
1	1950
1	1950
1	19
1	1950
1	1950
1	1950
1	1950
1	1950
1	1950
1	7
1	15
1	1950
1	1950
1	1950
1	1950
1	1950
1	1950
1	1950
1	11
1	23
1	1950
1	1950
1	13
1	14
1	1950
1	1950
1	1950
1	1950
1	5
1	1950
1	1950
1	1950
1	1950
1	1950
1	8
1	1950
1	16
1	1950
1	1950
1	1950
1	1950
1	1950
1	1950
1	1950
1	1950
1	1950
1	1950
1	1950
1	1950
1	1950
1	1950
1	1950
1	1950
1	8
1	1950
1	5
1	1950
1	1950
1	1950
1	11
1	1950
1	10
1	1950
1	1950
1	1950
1	1950
1	1950
1	6
1	1950
1	1950
1	11
1	1950
1	1950
1	10
1	1950
1	1950
1	17
1	1950
1	1950
1	1950
1	1950
1	1950
1	1950
1	11
1	10
1	1950
1	1950
1	1950
1	1950
1	1950
1	1950
1	1950
1	1950
1	1950
1	1950
1	6
1	1950
1	1950
1	23
1	1950
1	1950
1	16
1	1950
1	1950
2	6
2	4
2	23
2	3
2	5
2	11
2	11
2	7
2	1950
2	14
2	5
2	15
2	11
2	8
2	3
2	7
2	3
2	12
2	5
2	13
2	6
2	12
2	15
2	16
2	23
2	6
2	6
2	6
2	5
2	5
2	21
2	5
2	1950
2	5
2	3
2	11
2	4
2	6
2	14
2	6
2	1950
2	19
2	7
2	6
2	4
2	11
2	7
2	8
2	6
2	5
2	11
2	10
2	3
2	1950
2	5
2	13
2	6
2	7
2	3
2	5
2	6
2	5
2	16
2	9
2	5
2	11
2	5
2	7
2	6
2	11
2	5
2	3
2	4
2	7
2	21
2	5
2	6
2	6
2	21
2	15
2	17
2	6
2	6
2	6
2	3
2	13
2	5
2	6
2	4
2	6
2	23
2	11
2	1950
2	1950
2	3
2	4
2	6
2	4
2	6
2	15
2	6
2	4
2	19
2	5
2	11
2	8
2	4
2	3
2	5
2	7
2	7
2	5
2	4
2	1950
2	11
2	14
2	5
2	11
2	4
2	4
2	12
2	4
2	3
2	5
2	5
2	8
2	4
2	8
2	6
2	3
2	11
2	3
2	7
2	23
2	8
2	14
2	7
3	5
3	4
3	11
3	4
3	6
3	5
3	4
3	11
3	4
3	4
3	11
3	4
3	6
3	4
3	6
3	6
3	6
3	4
3	4
4	10
4	6


