# Persistence diagram </home/jens/Uni/data_topology/Project/reddit_results/graphs/1005-1.gml>
#
# Dimension   : 1
# Entries     : 65
# Betti number: 65
5	inf
5	inf
6	inf
8	inf
9	inf
9	inf
9	inf
9	inf
9	inf
9	inf
9	inf
13	inf
13	inf
13	inf
13	inf
13	inf
15	inf
15	inf
15	inf
15	inf
17	inf
17	inf
17	inf
17	inf
18	inf
18	inf
18	inf
18	inf
18	inf
18	inf
430	inf
430	inf
430	inf
430	inf
430	inf
430	inf
430	inf
430	inf
430	inf
430	inf
430	inf
430	inf
430	inf
430	inf
430	inf
430	inf
430	inf
430	inf
430	inf
430	inf
430	inf
430	inf
430	inf
430	inf
430	inf
430	inf
430	inf
430	inf
430	inf
430	inf
430	inf
430	inf
430	inf
430	inf
430	inf
