# Persistence diagram </home/jens/Uni/data_topology/Project/reddit_results/graphs/1014-1.gml>
#
# Dimension   : 0
# Entries     : 1658
# Betti number: 3
1	inf
1	1485
1	1485
1	1485
1	1485
1	1485
1	1485
1	1485
1	1485
1	12
1	1485
1	1485
1	1485
1	1485
1	8
1	1485
1	1485
1	1485
1	1485
1	1485
1	1485
1	1485
1	1485
1	1485
1	1485
1	1485
1	1485
1	1485
1	1485
1	1485
1	1485
1	1485
1	1485
1	1485
1	1485
1	1485
1	1485
1	1485
1	1485
1	1485
1	1485
1	1485
1	1485
1	inf
1	12
1	16
1	1485
1	1485
1	1485
1	1485
1	1485
1	1485
1	1485
1	1485
1	7
1	1485
1	1485
1	1485
1	1485
1	1485
1	9
1	1485
1	1485
1	1485
1	1485
1	1485
1	1485
1	1485
1	1485
1	1485
1	1485
1	1485
1	10
1	1485
1	1485
1	1485
1	1485
1	1485
1	1485
1	1485
1	1485
1	1485
1	1485
1	1485
1	1485
1	1485
1	1485
1	1485
1	1485
1	1485
1	1485
1	1485
1	1485
1	1485
1	1485
1	1485
1	1485
1	1485
1	1485
1	1485
1	7
1	1485
1	1485
1	1485
1	1485
1	1485
1	1485
1	1485
1	1485
1	1485
1	1485
1	6
1	1485
1	1485
1	1485
1	1485
1	1485
1	1485
1	8
1	7
1	1485
1	1485
1	1485
1	1485
1	1485
1	1485
1	1485
1	12
1	1485
1	1485
1	1485
1	1485
1	1485
1	1485
1	5
1	1485
1	1485
1	8
1	1485
1	1485
1	1485
1	1485
1	1485
1	1485
1	1485
1	7
1	5
1	1485
1	1485
1	15
1	1485
1	1485
1	1485
1	1485
1	1485
1	14
1	1485
1	15
1	1485
1	1485
1	1485
1	1485
1	1485
1	1485
1	1485
1	1485
1	1485
1	14
1	1485
1	1485
1	1485
1	1485
1	1485
1	1485
1	1485
1	5
1	1485
1	1485
1	1485
1	1485
1	1485
1	1485
1	1485
1	1485
1	1485
1	1485
1	1485
1	1485
1	1485
1	1485
1	1485
1	1485
1	1485
1	1485
1	1485
1	1485
1	1485
1	1485
1	1485
1	1485
1	1485
1	1485
1	1485
1	1485
1	12
1	1485
1	1485
1	1485
1	1485
1	1485
1	1485
1	1485
1	1485
1	1485
1	1485
1	1485
1	12
1	1485
1	1485
1	1485
1	1485
1	7
1	1485
1	1485
1	1485
1	1485
1	1485
1	1485
1	1485
1	1485
1	8
1	1485
1	1485
1	12
1	1485
1	1485
1	8
1	1485
1	16
1	1485
1	1485
1	1485
1	1485
1	6
1	1485
1	1485
1	16
1	1485
1	6
1	1485
1	1485
1	1485
1	1485
1	1485
1	1485
1	1485
1	1485
1	7
1	5
1	1485
1	1485
1	1485
1	1485
1	1485
1	1485
1	1485
1	1485
1	8
1	1485
1	1485
1	1485
1	1485
1	1485
1	1485
1	1485
1	1485
1	1485
1	1485
1	10
1	1485
1	1485
1	1485
1	1485
1	1485
1	1485
1	1485
1	12
1	1485
1	1485
1	1485
1	1485
1	1485
1	6
1	1485
1	3
1	1485
1	1485
1	1485
1	1485
1	1485
1	6
1	1485
1	14
1	1485
1	1485
1	1485
1	1485
1	1485
1	1485
1	1485
1	1485
1	9
1	1485
1	8
1	1485
1	7
1	1485
1	1485
1	8
1	1485
1	1485
1	1485
1	1485
1	1485
1	1485
1	1485
1	1485
1	1485
1	1485
1	1485
1	1485
1	1485
1	1485
1	7
1	12
1	1485
1	1485
1	1485
1	1485
1	1485
1	11
1	1485
1	1485
1	7
1	1485
1	1485
1	1485
1	1485
1	1485
1	1485
1	1485
1	1485
1	1485
1	1485
1	1485
1	1485
1	1485
1	1485
1	1485
1	1485
1	1485
1	1485
1	1485
1	1485
1	12
1	1485
1	1485
1	14
1	1485
1	1485
1	1485
1	1485
1	1485
1	1485
1	1485
1	1485
1	1485
1	1485
1	5
1	1485
1	1485
1	1485
1	1485
1	1485
1	1485
1	1485
1	1485
1	8
1	1485
1	1485
1	8
1	1485
1	7
1	1485
1	1485
1	1485
1	1485
1	6
1	1485
1	1485
1	1485
1	1485
1	1485
1	1485
1	1485
1	1485
1	1485
1	1485
1	1485
1	1485
1	1485
1	1485
1	1485
1	1485
1	1485
1	1485
1	1485
1	1485
1	1485
1	6
1	1485
1	1485
1	1485
1	1485
1	1485
1	1485
1	16
1	1485
1	16
1	1485
1	1485
1	1485
1	1485
1	1485
1	1485
1	1485
1	1485
1	1485
1	1485
1	1485
1	12
1	1485
1	1485
1	1485
1	1485
1	1485
1	4
1	1485
1	1485
1	1485
1	1485
1	1485
1	1485
1	6
1	1485
1	1485
1	1485
1	12
1	1485
1	1485
1	5
1	1485
1	1485
1	1485
1	1485
1	1485
1	1485
1	1485
1	1485
1	1485
1	1485
1	1485
1	1485
1	1485
1	1485
1	1485
1	1485
1	1485
1	1485
1	1485
1	1485
1	1485
1	1485
1	1485
1	1485
1	1485
1	1485
1	1485
1	1485
1	7
1	1485
1	1485
1	1485
1	1485
1	1485
1	1485
1	1485
1	1485
1	5
1	1485
1	1485
1	1485
1	1485
1	1485
1	1485
1	1485
1	1485
1	1485
1	12
1	1485
1	1485
1	1485
1	1485
1	1485
1	1485
1	1485
1	1485
1	12
1	1485
1	1485
1	10
1	1485
1	1485
1	1485
1	11
1	1485
1	1485
1	5
1	1485
1	1485
1	1485
1	1485
1	1485
1	1485
1	1485
1	1485
1	12
1	1485
1	3
1	1485
1	1485
1	1485
1	1485
1	1485
1	1485
1	6
1	1485
1	1485
1	1485
1	5
1	1485
1	1485
1	1485
1	1485
1	1485
1	1485
1	1485
1	1485
1	1485
1	1485
1	1485
1	1485
1	1485
1	6
1	1485
1	1485
1	1485
1	1485
1	1485
1	1485
1	1485
1	14
1	1485
1	9
1	1485
1	1485
1	16
1	5
1	1485
1	1485
1	10
1	1485
1	1485
1	1485
1	1485
1	1485
1	1485
1	1485
1	1485
1	1485
1	1485
1	1485
1	1485
1	1485
1	1485
1	1485
1	1485
1	1485
1	1485
1	1485
1	1485
1	1485
1	1485
1	1485
1	1485
1	5
1	1485
1	1485
1	1485
1	1485
1	1485
1	1485
1	1485
1	1485
1	1485
1	1485
1	1485
1	1485
1	1485
1	1485
1	1485
1	16
1	8
1	1485
1	16
1	1485
1	15
1	15
1	1485
1	1485
1	1485
1	1485
1	1485
1	1485
1	1485
1	1485
1	16
1	1485
1	16
1	1485
1	1485
1	1485
1	1485
1	1485
1	1485
1	1485
1	1485
1	1485
1	1485
1	1485
1	14
1	1485
1	1485
1	1485
1	1485
1	1485
1	1485
1	1485
1	1485
1	1485
1	1485
1	1485
1	1485
1	1485
1	1485
1	1485
1	6
1	1485
1	1485
1	1485
1	1485
1	1485
1	1485
1	1485
1	1485
1	inf
1	1485
1	1485
1	1485
1	1485
1	1485
1	1485
1	1485
1	1485
1	7
1	1485
1	1485
1	1485
1	1485
1	1485
1	1485
1	1485
1	7
1	1485
1	1485
1	14
1	1485
1	1485
1	1485
1	1485
1	1485
1	1485
1	1485
1	1485
1	1485
1	1485
1	1485
1	1485
1	1485
1	1485
1	1485
1	1485
1	9
1	1485
1	1485
1	1485
1	1485
1	10
1	1485
1	1485
1	1485
1	1485
1	1485
1	1485
1	1485
1	1485
1	1485
1	1485
1	1485
1	1485
1	1485
1	1485
1	1485
1	1485
1	1485
1	15
1	1485
1	1485
1	1485
1	1485
1	1485
1	1485
1	1485
1	1485
1	1485
1	1485
1	1485
1	1485
1	1485
1	1485
1	7
1	6
1	1485
1	1485
1	1485
1	1485
1	14
1	14
1	1485
1	4
1	1485
1	1485
1	1485
1	1485
1	1485
1	1485
1	1485
1	1485
1	6
1	1485
1	1485
1	1485
1	1485
1	1485
1	1485
1	1485
1	1485
1	1485
1	1485
1	1485
1	1485
1	1485
1	1485
1	1485
1	1485
1	7
1	1485
1	1485
1	9
1	1485
1	1485
1	1485
1	1485
1	1485
1	1485
1	1485
1	1485
1	1485
1	1485
1	1485
1	1485
1	1485
1	1485
1	1485
1	1485
1	1485
1	1485
1	1485
1	1485
1	1485
1	1485
1	1485
1	1485
1	1485
1	1485
1	1485
1	1485
1	1485
1	8
1	8
1	1485
1	1485
1	1485
1	1485
1	6
1	1485
1	1485
1	14
1	1485
1	1485
1	5
1	1485
1	1485
1	1485
1	1485
1	1485
1	1485
1	1485
1	1485
1	1485
1	1485
1	1485
1	8
1	1485
1	1485
1	1485
1	1485
1	5
1	1485
1	1485
1	1485
1	1485
1	1485
1	1485
1	1485
1	11
1	1485
1	1485
1	1485
1	1485
1	1485
1	1485
1	1485
1	1485
1	1485
1	1485
1	1485
1	1485
1	5
1	1485
1	1485
1	1485
1	8
1	1485
1	1485
1	1485
1	1485
1	1485
1	1485
1	1485
1	1485
1	1485
1	1485
1	1485
1	1485
1	1485
1	16
1	1485
1	1485
1	1485
1	1485
1	6
1	1485
1	1485
1	1485
1	1485
1	1485
1	9
1	1485
1	1485
1	16
1	1485
1	1485
1	1485
1	1485
1	1485
1	1485
1	1485
1	1485
1	1485
1	5
1	1485
1	3
1	1485
1	1485
1	1485
1	1485
1	1485
1	1485
1	1485
1	1485
1	1485
1	1485
1	1485
1	1485
1	1485
1	1485
1	1485
1	1485
1	1485
1	1485
1	1485
1	1485
1	1485
1	1485
1	1485
1	1485
1	1485
1	1485
1	1485
1	16
1	4
1	1485
1	1485
1	1485
1	8
1	1485
1	1485
1	1485
1	1485
1	1485
1	15
1	1485
1	6
1	1485
1	1485
1	1485
1	1485
1	1485
1	1485
1	1485
1	1485
1	1485
1	1485
1	1485
1	1485
1	1485
1	1485
1	1485
1	6
1	1485
1	4
1	1485
1	1485
1	1485
1	1485
1	1485
1	1485
1	1485
1	1485
1	1485
1	1485
1	1485
1	1485
1	1485
1	1485
1	1485
1	1485
1	1485
1	1485
1	6
1	4
1	1485
1	1485
1	1485
1	1485
1	1485
1	1485
1	1485
1	1485
1	1485
1	1485
1	4
1	1485
1	1485
1	1485
1	1485
1	1485
1	5
1	1485
1	1485
1	4
1	1485
1	1485
1	1485
1	1485
1	1485
1	1485
1	4
1	1485
1	1485
1	1485
1	1485
1	1485
1	16
1	1485
1	6
1	1485
1	1485
1	1485
1	1485
1	1485
1	1485
1	12
1	12
1	1485
1	10
1	1485
1	1485
1	1485
1	1485
1	1485
1	1485
1	5
1	1485
1	4
1	1485
1	1485
1	1485
1	7
1	1485
1	1485
1	1485
1	1485
1	1485
1	1485
1	1485
1	16
1	1485
1	1485
1	1485
1	16
1	1485
1	5
1	1485
1	1485
1	1485
1	1485
1	1485
1	1485
1	1485
1	1485
1	1485
1	1485
1	8
1	1485
1	1485
1	8
1	1485
1	1485
1	1485
1	1485
1	5
1	1485
1	1485
1	5
1	1485
1	1485
1	1485
1	1485
1	1485
1	5
1	7
1	12
1	1485
1	1485
1	1485
1	1485
1	1485
1	1485
1	1485
1	1485
1	16
1	1485
1	1485
1	1485
1	1485
1	1485
1	1485
1	1485
1	1485
1	1485
1	1485
1	16
1	1485
1	1485
1	1485
1	1485
1	1485
1	1485
1	1485
1	1485
1	1485
1	1485
1	1485
1	1485
1	8
1	1485
1	1485
1	1485
1	1485
1	1485
1	1485
1	1485
1	1485
1	1485
1	1485
1	1485
1	1485
1	1485
1	1485
1	1485
1	1485
1	1485
1	1485
1	9
1	1485
1	1485
1	1485
1	1485
1	1485
1	1485
1	1485
1	1485
1	1485
1	1485
1	1485
1	1485
1	1485
1	1485
1	1485
1	1485
1	1485
1	1485
1	1485
1	1485
1	1485
1	12
1	1485
1	1485
1	1485
1	1485
1	1485
1	1485
1	1485
1	1485
1	1485
1	15
1	1485
1	1485
1	1485
1	6
1	1485
1	1485
1	1485
1	1485
1	1485
1	1485
1	1485
1	1485
1	1485
1	1485
1	1485
1	1485
1	1485
1	1485
1	1485
1	1485
1	1485
1	1485
1	1485
1	15
1	1485
1	1485
1	1485
1	1485
1	1485
1	1485
1	11
1	1485
1	1485
1	1485
1	1485
1	1485
1	1485
1	1485
1	1485
1	6
1	1485
1	8
1	1485
1	1485
1	1485
1	1485
1	1485
1	15
1	1485
1	1485
1	1485
1	1485
1	1485
1	6
1	4
1	1485
1	1485
1	1485
1	1485
1	1485
1	1485
1	1485
1	9
1	1485
1	1485
1	1485
1	1485
1	6
1	1485
1	1485
1	1485
1	1485
1	1485
1	1485
1	1485
1	1485
1	1485
1	1485
1	1485
1	6
1	4
1	1485
1	1485
1	1485
1	1485
1	1485
1	1485
1	1485
1	1485
1	16
1	1485
1	14
1	1485
1	1485
1	1485
1	1485
1	1485
1	1485
1	5
1	1485
1	1485
1	1485
1	1485
1	5
1	1485
1	1485
1	1485
1	1485
1	1485
1	1485
1	1485
1	1485
1	1485
1	1485
1	6
1	1485
1	1485
1	1485
1	1485
1	1485
1	4
1	7
1	1485
1	1485
1	1485
1	1485
1	1485
1	1485
1	1485
1	1485
1	1485
1	1485
1	8
1	1485
1	1485
1	1485
1	1485
1	16
1	4
1	1485
1	1485
1	1485
1	1485
1	10
1	1485
1	1485
1	1485
1	1485
1	1485
1	1485
1	1485
1	1485
1	1485
1	4
1	6
1	1485
1	1485
1	1485
1	1485
1	1485
1	1485
1	8
1	1485
1	1485
1	1485
1	1485
1	1485
1	1485
1	1485
1	1485
1	1485
1	15
1	1485
1	1485
1	1485
1	1485
1	1485
1	3
1	1485
1	1485
1	1485
1	1485
1	1485
1	9
1	1485
1	1485
1	1485
1	1485
1	1485
1	1485
1	1485
1	1485
1	1485
1	1485
1	1485
1	1485
1	1485
1	1485
1	1485
1	1485
1	1485
1	1485
1	1485
1	1485
1	1485
1	1485
1	1485
1	16
1	1485
1	1485
1	1485
1	1485
1	1485
1	1485
1	1485
1	4
1	1485
1	1485
1	1485
1	1485
1	1485
1	1485
1	1485
1	1485
1	1485
1	1485
1	1485
1	1485
1	1485
1	1485
1	8
1	1485
1	9
1	1485
1	1485
1	4
1	7
1	1485
1	1485
1	1485
1	12
1	1485
1	4
1	1485
1	1485
1	1485
1	1485
1	1485
1	1485
1	5
1	1485
1	1485
1	7
1	1485
1	1485
1	1485
1	9
1	1485
1	1485
1	1485
1	1485
1	1485
1	1485
1	1485
1	1485
1	1485
1	1485
1	1485
1	5
1	1485
1	1485
1	1485
1	1485
1	1485
1	1485
1	1485
1	1485
1	1485
1	1485
1	1485
1	1485
1	1485
1	1485
1	1485
1	14
1	1485
1	1485
1	1485
1	1485
1	1485
1	1485
1	12
1	1485
1	1485
1	1485
1	1485
1	1485
1	1485
1	1485
1	1485
1	1485
1	12
1	1485
1	1485
1	1485
1	1485
1	1485
1	1485
1	1485
1	1485
1	1485
1	1485
1	1485
1	1485
1	1485
1	9
1	1485
1	1485
1	1485
1	4
1	4
1	1485
1	10
1	1485
1	1485
1	1485
1	1485
1	1485
1	1485
1	7
1	5
1	1485
1	1485
1	1485
1	1485
1	1485
1	11
1	6
1	1485
1	7
1	1485
1	8
1	1485
1	1485
1	1485
1	1485
1	1485
1	1485
1	1485
1	1485
1	4
1	6
1	9
1	1485
2	7
2	16
2	1485
2	4
2	15
2	1485
2	1485
2	12
2	1485
2	4
2	5
2	15
2	4
2	5
2	9
2	12
2	15
2	15
2	7
2	6
2	6
2	16
2	1485
2	1485
2	5
2	5
2	15
2	5
2	3
2	1485
2	4
2	9
2	3
2	1485
2	6
2	4
2	3
2	8
2	1485
2	5
2	5
2	1485
2	6
2	4
2	15
2	4
2	15
2	1485
2	3
2	8
2	7
2	5
2	5
2	15
2	3
2	7
2	3
2	4
2	1485
2	1485
2	8
2	5
2	8
2	15
2	12
2	7
2	11
2	16
2	15
2	15
2	8
2	14
2	10
2	8
2	15
2	4
2	1485
2	5
2	5
2	3
2	15
2	10
2	8
2	7
2	12
2	3
2	15
2	10
2	3
2	11
2	5
2	15
2	5
2	5
2	15
2	15
2	15
2	6
2	4
2	8
2	4
2	7
2	5
2	14
2	8
2	15
2	3
2	5
2	16
2	7
2	10
2	4
2	3
2	5
2	8
2	5
2	7
2	15
2	3
2	5
2	3
2	3
3	6
3	12
3	5
3	5


