# Persistence diagram </home/jens/Uni/data_topology/Project/reddit_results/graphs/1018-1.gml>
#
# Dimension   : 0
# Entries     : 1717
# Betti number: 3
1	inf
1	1438
1	1438
1	1438
1	1438
1	10
1	42
1	8
1	1438
1	1438
1	8
1	1438
1	1438
1	1438
1	14
1	1438
1	1438
1	1438
1	14
1	1438
1	1438
1	inf
1	1438
1	1438
1	1438
1	1438
1	12
1	1438
1	1438
1	1438
1	1438
1	1438
1	1438
1	1438
1	1438
1	1438
1	1438
1	1438
1	1438
1	1438
1	11
1	1438
1	1438
1	1438
1	12
1	1438
1	18
1	1438
1	11
1	1438
1	18
1	1438
1	1438
1	1438
1	1438
1	1438
1	1438
1	1438
1	1438
1	1438
1	1438
1	14
1	1438
1	14
1	26
1	14
1	1438
1	1438
1	1438
1	13
1	1438
1	8
1	1438
1	1438
1	1438
1	1438
1	1438
1	1438
1	1438
1	1438
1	1438
1	1438
1	1438
1	1438
1	1438
1	1438
1	1438
1	1438
1	6
1	1438
1	1438
1	1438
1	1438
1	1438
1	1438
1	1438
1	1438
1	1438
1	1438
1	1438
1	9
1	1438
1	8
1	1438
1	1438
1	1438
1	1438
1	1438
1	1438
1	1438
1	1438
1	1438
1	42
1	8
1	1438
1	1438
1	1438
1	1438
1	1438
1	1438
1	18
1	1438
1	42
1	7
1	1438
1	18
1	1438
1	1438
1	11
1	1438
1	5
1	1438
1	13
1	13
1	1438
1	14
1	1438
1	8
1	1438
1	1438
1	1438
1	1438
1	1438
1	1438
1	26
1	1438
1	1438
1	1438
1	1438
1	1438
1	6
1	1438
1	8
1	1438
1	1438
1	1438
1	1438
1	6
1	1438
1	1438
1	1438
1	7
1	1438
1	8
1	1438
1	1438
1	1438
1	1438
1	1438
1	1438
1	1438
1	18
1	1438
1	1438
1	1438
1	1438
1	1438
1	1438
1	1438
1	1438
1	1438
1	1438
1	1438
1	14
1	1438
1	1438
1	1438
1	1438
1	11
1	8
1	1438
1	1438
1	1438
1	13
1	1438
1	1438
1	1438
1	1438
1	1438
1	1438
1	1438
1	1438
1	1438
1	1438
1	1438
1	1438
1	1438
1	1438
1	1438
1	1438
1	1438
1	1438
1	1438
1	1438
1	1438
1	1438
1	1438
1	11
1	1438
1	1438
1	1438
1	11
1	1438
1	1438
1	10
1	7
1	1438
1	6
1	1438
1	1438
1	1438
1	1438
1	6
1	1438
1	7
1	1438
1	1438
1	1438
1	1438
1	8
1	1438
1	1438
1	6
1	9
1	1438
1	1438
1	1438
1	1438
1	1438
1	1438
1	11
1	1438
1	1438
1	1438
1	1438
1	9
1	1438
1	5
1	4
1	1438
1	1438
1	4
1	1438
1	1438
1	1438
1	1438
1	1438
1	1438
1	1438
1	1438
1	1438
1	6
1	1438
1	13
1	18
1	1438
1	1438
1	1438
1	1438
1	1438
1	1438
1	1438
1	1438
1	13
1	1438
1	1438
1	10
1	1438
1	1438
1	1438
1	1438
1	1438
1	5
1	7
1	1438
1	1438
1	13
1	1438
1	9
1	1438
1	1438
1	1438
1	1438
1	1438
1	1438
1	1438
1	26
1	1438
1	1438
1	1438
1	1438
1	6
1	1438
1	1438
1	26
1	1438
1	1438
1	1438
1	10
1	1438
1	1438
1	1438
1	1438
1	1438
1	1438
1	1438
1	1438
1	1438
1	1438
1	1438
1	1438
1	1438
1	1438
1	1438
1	9
1	1438
1	1438
1	1438
1	6
1	1438
1	1438
1	1438
1	1438
1	1438
1	inf
1	1438
1	1438
1	1438
1	1438
1	26
1	1438
1	1438
1	1438
1	10
1	1438
1	1438
1	42
1	1438
1	1438
1	1438
1	1438
1	6
1	1438
1	1438
1	1438
1	1438
1	1438
1	1438
1	1438
1	1438
1	1438
1	1438
1	1438
1	18
1	1438
1	1438
1	1438
1	1438
1	1438
1	1438
1	1438
1	1438
1	1438
1	1438
1	1438
1	1438
1	1438
1	13
1	1438
1	9
1	1438
1	1438
1	1438
1	1438
1	1438
1	1438
1	1438
1	1438
1	1438
1	9
1	1438
1	13
1	1438
1	1438
1	1438
1	1438
1	1438
1	1438
1	1438
1	1438
1	1438
1	6
1	14
1	8
1	18
1	1438
1	1438
1	1438
1	1438
1	1438
1	1438
1	1438
1	1438
1	1438
1	1438
1	1438
1	1438
1	1438
1	1438
1	1438
1	1438
1	1438
1	42
1	1438
1	1438
1	1438
1	1438
1	1438
1	1438
1	1438
1	1438
1	6
1	1438
1	1438
1	1438
1	1438
1	5
1	11
1	8
1	1438
1	1438
1	1438
1	1438
1	1438
1	7
1	1438
1	1438
1	9
1	1438
1	1438
1	8
1	1438
1	1438
1	1438
1	1438
1	1438
1	1438
1	1438
1	4
1	1438
1	1438
1	1438
1	1438
1	1438
1	1438
1	1438
1	4
1	4
1	1438
1	1438
1	1438
1	1438
1	7
1	8
1	1438
1	1438
1	1438
1	42
1	1438
1	1438
1	1438
1	1438
1	1438
1	1438
1	1438
1	1438
1	1438
1	1438
1	1438
1	1438
1	1438
1	4
1	1438
1	1438
1	1438
1	1438
1	1438
1	1438
1	1438
1	1438
1	1438
1	1438
1	1438
1	6
1	14
1	1438
1	1438
1	8
1	1438
1	1438
1	1438
1	1438
1	1438
1	1438
1	1438
1	14
1	42
1	7
1	8
1	1438
1	1438
1	1438
1	1438
1	1438
1	1438
1	1438
1	1438
1	1438
1	1438
1	1438
1	1438
1	1438
1	5
1	1438
1	1438
1	1438
1	1438
1	1438
1	1438
1	1438
1	1438
1	1438
1	10
1	1438
1	1438
1	1438
1	1438
1	1438
1	1438
1	1438
1	1438
1	1438
1	1438
1	1438
1	1438
1	1438
1	1438
1	1438
1	9
1	1438
1	1438
1	1438
1	1438
1	1438
1	1438
1	1438
1	3
1	3
1	1438
1	6
1	1438
1	1438
1	1438
1	1438
1	1438
1	1438
1	1438
1	1438
1	1438
1	1438
1	1438
1	7
1	1438
1	1438
1	42
1	1438
1	1438
1	1438
1	1438
1	1438
1	3
1	1438
1	1438
1	1438
1	1438
1	1438
1	1438
1	1438
1	14
1	1438
1	1438
1	1438
1	8
1	1438
1	1438
1	1438
1	1438
1	1438
1	1438
1	1438
1	4
1	1438
1	6
1	8
1	5
1	1438
1	1438
1	4
1	18
1	1438
1	1438
1	1438
1	1438
1	1438
1	42
1	1438
1	1438
1	1438
1	1438
1	1438
1	1438
1	1438
1	1438
1	1438
1	6
1	1438
1	1438
1	12
1	1438
1	1438
1	1438
1	1438
1	1438
1	1438
1	1438
1	3
1	1438
1	1438
1	1438
1	1438
1	1438
1	1438
1	10
1	1438
1	1438
1	1438
1	1438
1	1438
1	1438
1	1438
1	1438
1	8
1	1438
1	1438
1	1438
1	1438
1	1438
1	1438
1	1438
1	1438
1	8
1	1438
1	1438
1	1438
1	1438
1	1438
1	5
1	6
1	1438
1	1438
1	1438
1	1438
1	1438
1	1438
1	1438
1	1438
1	1438
1	1438
1	1438
1	1438
1	1438
1	1438
1	1438
1	1438
1	4
1	5
1	1438
1	1438
1	4
1	1438
1	1438
1	1438
1	1438
1	1438
1	1438
1	14
1	1438
1	42
1	1438
1	1438
1	7
1	1438
1	1438
1	14
1	10
1	1438
1	1438
1	1438
1	1438
1	1438
1	42
1	1438
1	11
1	26
1	1438
1	1438
1	1438
1	1438
1	7
1	4
1	1438
1	1438
1	1438
1	1438
1	1438
1	1438
1	9
1	4
1	1438
1	3
1	1438
1	8
1	1438
1	6
1	1438
1	1438
1	1438
1	1438
1	1438
1	1438
1	1438
1	1438
1	13
1	1438
1	1438
1	1438
1	1438
1	1438
1	1438
1	1438
1	1438
1	1438
1	1438
1	1438
1	6
1	1438
1	1438
1	1438
1	9
1	1438
1	1438
1	1438
1	1438
1	3
1	7
1	1438
1	1438
1	1438
1	1438
1	42
1	1438
1	1438
1	4
1	1438
1	5
1	1438
1	14
1	1438
1	1438
1	1438
1	13
1	1438
1	1438
1	1438
1	5
1	1438
1	1438
1	1438
1	1438
1	1438
1	1438
1	1438
1	1438
1	1438
1	1438
1	1438
1	1438
1	1438
1	1438
1	1438
1	26
1	1438
1	6
1	1438
1	1438
1	1438
1	8
1	1438
1	1438
1	1438
1	1438
1	1438
1	42
1	1438
1	1438
1	1438
1	1438
1	4
1	1438
1	1438
1	1438
1	1438
1	5
1	1438
1	1438
1	14
1	10
1	26
1	1438
1	1438
1	1438
1	1438
1	1438
1	14
1	8
1	1438
1	42
1	1438
1	42
1	14
1	1438
1	1438
1	1438
1	1438
1	1438
1	1438
1	1438
1	1438
1	1438
1	1438
1	1438
1	4
1	1438
1	1438
1	1438
1	1438
1	1438
1	1438
1	1438
1	1438
1	5
1	1438
1	1438
1	4
1	1438
1	1438
1	13
1	1438
1	1438
1	1438
1	1438
1	6
1	1438
1	1438
1	8
1	1438
1	1438
1	1438
1	1438
1	1438
1	1438
1	1438
1	9
1	1438
1	1438
1	1438
1	1438
1	1438
1	1438
1	42
1	1438
1	1438
1	1438
1	1438
1	1438
1	1438
1	1438
1	1438
1	1438
1	1438
1	1438
1	1438
1	1438
1	1438
1	1438
1	1438
1	1438
1	1438
1	1438
1	1438
1	1438
1	1438
1	1438
1	1438
1	1438
1	1438
1	1438
1	1438
1	1438
1	1438
1	1438
1	1438
1	1438
1	1438
1	1438
1	1438
1	1438
1	1438
1	1438
1	1438
1	1438
1	1438
1	1438
1	1438
1	1438
1	1438
1	13
1	6
1	1438
1	14
1	1438
1	1438
1	1438
1	1438
1	1438
1	26
1	1438
1	4
1	1438
1	1438
1	5
1	1438
1	1438
1	1438
1	1438
1	10
1	1438
1	5
1	8
1	1438
1	1438
1	1438
1	1438
1	4
1	1438
1	1438
1	1438
1	6
1	1438
1	1438
1	1438
1	1438
1	6
1	1438
1	4
1	1438
1	1438
1	1438
1	1438
1	14
1	8
1	1438
1	1438
1	1438
1	1438
1	4
1	1438
1	1438
1	1438
1	1438
1	1438
1	7
1	1438
1	1438
1	1438
1	1438
1	1438
1	1438
1	1438
1	1438
1	26
1	6
1	1438
1	1438
1	1438
1	1438
1	1438
1	1438
1	3
1	1438
1	1438
1	1438
1	1438
1	8
1	1438
1	18
1	8
1	1438
1	7
1	12
1	1438
1	1438
1	13
1	14
1	1438
1	5
1	1438
1	8
1	1438
1	13
1	1438
1	1438
1	1438
1	1438
1	1438
1	5
1	1438
1	1438
1	13
1	42
1	1438
1	1438
1	1438
1	4
1	13
1	1438
1	1438
1	1438
1	1438
1	1438
1	1438
1	1438
1	1438
1	6
1	1438
1	1438
1	1438
1	1438
1	1438
1	1438
1	1438
1	26
1	1438
1	1438
1	1438
1	1438
1	1438
1	1438
1	1438
1	9
1	1438
1	1438
1	1438
1	1438
1	1438
1	1438
1	5
1	1438
1	1438
1	1438
1	1438
1	9
1	18
1	1438
1	1438
1	1438
1	1438
1	1438
1	9
1	42
1	1438
1	1438
1	1438
1	1438
1	1438
1	1438
1	1438
1	1438
1	1438
1	1438
1	1438
1	1438
1	7
1	1438
1	14
1	13
1	1438
1	1438
1	1438
1	1438
1	14
1	1438
1	1438
1	1438
1	1438
1	1438
1	7
1	1438
1	4
1	1438
1	1438
1	1438
1	26
1	1438
1	1438
1	1438
1	1438
1	1438
1	1438
1	1438
1	4
1	1438
1	1438
1	1438
1	1438
1	1438
1	1438
1	1438
1	1438
1	1438
1	1438
1	1438
1	1438
1	1438
1	1438
1	8
1	26
1	10
1	1438
1	1438
1	1438
1	1438
1	1438
1	1438
1	1438
1	1438
1	1438
1	1438
1	1438
1	1438
1	1438
1	1438
1	1438
1	4
1	8
1	1438
1	1438
1	1438
1	3
1	1438
1	1438
1	8
1	1438
1	1438
1	1438
1	1438
1	1438
1	1438
1	1438
1	1438
1	1438
1	1438
1	5
1	1438
1	1438
1	1438
1	1438
1	1438
1	1438
1	1438
1	1438
1	1438
1	1438
1	1438
1	5
1	12
1	1438
1	1438
1	1438
1	1438
1	1438
1	1438
1	1438
1	1438
1	4
1	1438
1	4
1	42
1	1438
1	1438
1	13
1	18
1	4
1	1438
1	1438
1	1438
1	14
1	1438
1	1438
1	1438
1	1438
1	1438
1	5
1	1438
1	1438
1	1438
1	1438
1	1438
1	1438
1	1438
1	5
1	1438
1	1438
1	1438
1	1438
1	18
1	1438
1	14
1	1438
1	1438
1	13
1	1438
1	1438
1	1438
1	1438
1	1438
1	1438
1	1438
1	1438
1	1438
1	1438
1	1438
1	1438
1	1438
1	1438
1	1438
1	1438
1	6
1	1438
1	1438
1	1438
1	1438
1	1438
1	1438
1	1438
1	1438
1	1438
1	1438
1	6
1	1438
1	1438
1	1438
1	1438
1	1438
1	1438
1	1438
1	11
1	1438
1	1438
1	1438
1	1438
1	6
1	1438
1	1438
1	1438
1	1438
1	1438
1	1438
1	1438
1	1438
1	1438
1	9
1	1438
1	1438
1	1438
1	13
1	1438
1	1438
1	42
1	1438
1	1438
1	1438
1	1438
1	1438
1	1438
1	1438
1	1438
1	1438
1	1438
1	1438
1	5
1	1438
1	1438
1	14
1	1438
1	1438
1	1438
1	1438
1	1438
1	1438
1	1438
1	1438
1	1438
1	1438
1	1438
1	4
1	4
1	9
1	14
1	1438
1	1438
1	1438
1	5
1	14
1	1438
1	1438
1	5
1	1438
1	13
1	1438
1	1438
1	1438
1	3
1	1438
1	1438
1	1438
1	1438
1	13
1	1438
1	1438
1	1438
1	1438
1	1438
1	1438
1	1438
1	1438
1	1438
1	1438
1	1438
1	1438
1	4
1	1438
1	1438
1	8
1	11
1	1438
1	42
1	5
1	1438
1	8
1	1438
1	1438
1	1438
1	1438
1	18
1	1438
1	1438
1	1438
1	1438
1	1438
1	1438
1	1438
1	1438
1	1438
1	1438
1	1438
1	1438
1	9
1	1438
1	1438
1	1438
1	1438
1	1438
1	1438
1	1438
1	1438
1	13
1	1438
1	1438
1	1438
1	1438
1	1438
1	1438
1	5
1	1438
1	9
1	6
1	1438
1	1438
1	1438
1	1438
1	1438
1	1438
1	6
1	1438
1	1438
1	1438
1	1438
1	1438
1	7
1	1438
1	1438
1	1438
1	1438
1	1438
1	1438
1	1438
1	1438
1	1438
1	1438
1	1438
1	1438
1	1438
1	1438
1	9
1	1438
1	1438
1	1438
1	1438
1	1438
1	1438
1	1438
1	9
1	6
1	7
1	1438
1	1438
1	3
1	1438
1	9
1	6
1	1438
1	1438
1	1438
1	1438
1	1438
1	1438
1	1438
1	1438
1	6
1	4
1	1438
1	5
1	1438
1	1438
1	1438
1	1438
1	1438
1	1438
1	1438
1	1438
1	1438
1	1438
1	1438
1	1438
1	1438
1	1438
1	1438
1	1438
1	1438
1	1438
1	1438
1	1438
1	1438
1	1438
1	1438
1	1438
1	1438
1	42
1	1438
1	1438
1	3
1	1438
1	1438
1	1438
1	1438
1	1438
1	1438
1	1438
1	1438
1	1438
1	1438
1	1438
1	1438
1	1438
1	1438
1	1438
1	1438
1	1438
1	1438
1	1438
1	1438
1	3
1	1438
1	1438
1	1438
1	1438
1	1438
1	1438
1	1438
1	1438
1	1438
1	1438
1	1438
1	1438
1	1438
1	1438
1	26
1	1438
1	1438
1	12
1	7
1	1438
1	1438
1	1438
1	1438
1	1438
1	8
1	1438
1	1438
1	1438
1	1438
1	1438
1	1438
1	1438
1	1438
1	1438
1	18
1	1438
1	1438
1	1438
1	6
1	1438
1	6
1	1438
1	3
1	26
1	1438
1	1438
1	1438
1	1438
1	1438
1	6
1	1438
1	1438
1	1438
1	4
1	1438
1	1438
1	1438
1	1438
2	6
2	3
2	1438
2	4
2	5
2	3
2	5
2	1438
2	12
2	6
2	3
2	14
2	42
2	6
2	3
2	42
2	9
2	3
2	9
2	42
2	9
2	5
2	26
2	11
2	4
2	6
2	5
2	26
2	6
2	6
2	6
2	42
2	4
2	8
2	5
2	1438
2	4
2	42
2	13
2	3
2	5
2	9
2	4
2	26
2	3
2	42
2	13
2	5
2	3
2	5
2	6
2	4
2	3
2	4
2	6
2	42
2	7
2	3
2	13
2	14
2	9
2	5
2	5
2	14
2	1438
2	11
2	4
2	5
2	3
2	6
2	6
2	42
2	4
2	3
2	3
2	42
2	9
2	6
2	42
2	4
2	3
2	8
2	5
2	5
2	4
2	9
2	5
2	14
2	14
2	3
2	4
2	42
2	13
2	4
2	3
2	3
2	3
2	3
2	3
2	3
2	5
2	4
2	9
2	5
2	9
2	9
2	4
2	6
2	5
2	4
2	3
2	3
2	11
2	5
2	9
2	11
2	42
2	9
2	42
2	8
3	5
3	5
3	4
3	4
4	6
4	6


