# Persistence diagram </home/jens/Uni/data_topology/Project/reddit_results/graphs/1026-1.gml>
#
# Dimension   : 0
# Entries     : 949
# Betti number: 2
1	inf
1	512
1	9
1	512
1	7
1	8
1	13
1	512
1	512
1	512
1	8
1	39
1	512
1	inf
1	9
1	12
1	7
1	6
1	34
1	512
1	512
1	17
1	512
1	512
1	8
1	11
1	11
1	4
1	512
1	512
1	6
1	6
1	12
1	512
1	17
1	512
1	7
1	512
1	512
1	6
1	7
1	512
1	39
1	34
1	512
1	39
1	34
1	512
1	512
1	14
1	34
1	512
1	11
1	512
1	6
1	512
1	512
1	7
1	512
1	20
1	8
1	6
1	8
1	18
1	512
1	512
1	6
1	512
1	512
1	512
1	512
1	4
1	512
1	512
1	512
1	512
1	39
1	8
1	10
1	14
1	11
1	11
1	512
1	14
1	512
1	512
1	9
1	7
1	512
1	512
1	11
1	512
1	512
1	6
1	6
1	18
1	18
1	10
1	512
1	6
1	512
1	11
1	512
1	6
1	512
1	512
1	9
1	7
1	14
1	9
1	34
1	512
1	18
1	512
1	512
1	9
1	512
1	512
1	10
1	17
1	9
1	5
1	512
1	8
1	11
1	18
1	512
1	512
1	17
1	512
1	14
1	512
1	512
1	8
1	6
1	512
1	11
1	9
1	512
1	18
1	11
1	512
1	6
1	512
1	17
1	5
1	6
1	5
1	14
1	512
1	512
1	7
1	39
1	512
1	512
1	512
1	512
1	512
1	512
1	8
1	512
1	512
1	512
1	512
1	512
1	7
1	13
1	9
1	34
1	8
1	512
1	13
1	512
1	8
1	12
1	4
1	512
1	8
1	512
1	4
1	512
1	8
1	512
1	11
1	7
1	6
1	34
1	512
1	512
1	17
1	18
1	512
1	6
1	512
1	512
1	512
1	6
1	512
1	6
1	9
1	3
1	8
1	512
1	512
1	512
1	6
1	512
1	5
1	512
1	18
1	512
1	512
1	512
1	512
1	512
1	512
1	17
1	13
1	512
1	5
1	6
1	512
1	512
1	6
1	512
1	9
1	12
1	512
1	512
1	512
1	512
1	512
1	512
1	3
1	12
1	8
1	12
1	9
1	512
1	512
1	512
1	4
1	20
1	7
1	9
1	512
1	18
1	512
1	5
1	17
1	512
1	17
1	9
1	39
1	512
1	7
1	10
1	512
1	512
1	7
1	8
1	6
1	9
1	512
1	8
1	9
1	39
1	6
1	9
1	10
1	9
1	512
1	13
1	512
1	512
1	34
1	4
1	39
1	512
1	11
1	512
1	512
1	9
1	512
1	512
1	512
1	512
1	14
1	512
1	512
1	18
1	10
1	512
1	512
1	14
1	39
1	512
1	512
1	512
1	512
1	512
1	512
1	9
1	512
1	6
1	6
1	512
1	8
1	6
1	15
1	5
1	512
1	11
1	34
1	512
1	512
1	13
1	9
1	7
1	512
1	13
1	512
1	17
1	512
1	512
1	17
1	17
1	512
1	512
1	512
1	7
1	512
1	10
1	6
1	512
1	8
1	512
1	18
1	15
1	512
1	7
1	512
1	512
1	512
1	5
1	512
1	512
1	512
1	512
1	11
1	13
1	6
1	512
1	17
1	512
1	7
1	4
1	512
1	7
1	512
1	3
1	11
1	11
1	512
1	11
1	512
1	512
1	512
1	6
1	512
1	512
1	19
1	512
1	14
1	512
1	512
1	512
1	512
1	512
1	10
1	512
1	19
1	512
1	9
1	7
1	512
1	6
1	9
1	39
1	512
1	512
1	6
1	512
1	39
1	3
1	7
1	14
1	39
1	10
1	6
1	512
1	9
1	512
1	512
1	5
1	512
1	11
1	7
1	512
1	8
1	512
1	512
1	512
1	512
1	13
1	512
1	13
1	14
1	4
1	512
1	512
1	512
1	17
1	512
1	12
1	512
1	512
1	17
1	512
1	512
1	10
1	512
1	7
1	5
1	13
1	512
1	6
1	512
1	39
1	512
1	512
1	13
1	6
1	39
1	512
1	11
1	512
1	6
1	13
1	512
1	6
1	512
1	19
1	7
1	512
1	512
1	512
1	512
1	11
1	4
1	512
1	512
1	512
1	6
1	10
1	512
1	512
1	512
1	4
1	512
1	10
1	512
1	15
1	12
1	8
1	512
1	10
1	10
1	512
1	6
1	14
1	13
1	512
1	512
1	11
1	512
1	512
1	512
1	6
1	14
1	4
1	512
1	512
1	512
1	8
1	512
1	512
1	4
1	6
1	20
1	18
1	512
1	12
1	512
1	512
1	512
1	17
1	18
1	6
1	9
1	18
1	13
1	6
1	39
1	6
1	6
1	5
1	34
1	15
1	5
1	512
1	512
1	512
1	512
1	512
1	17
1	512
1	5
1	512
1	512
1	512
1	3
1	7
1	512
1	10
1	8
1	512
1	512
1	512
1	17
1	512
1	512
1	8
1	11
1	512
1	4
1	7
1	4
1	8
1	512
1	512
1	512
1	512
1	7
1	8
1	7
1	512
1	18
1	512
1	512
1	17
1	512
1	512
1	512
1	512
1	512
1	512
1	512
1	512
1	15
1	512
1	4
1	512
1	512
1	19
1	512
1	4
1	512
1	512
1	512
1	512
1	7
1	18
1	512
1	17
1	512
1	512
1	512
1	512
1	5
1	8
1	17
1	512
1	15
1	512
1	8
1	512
1	11
1	512
1	6
1	512
1	512
1	512
1	512
1	512
1	512
1	512
1	17
1	512
1	39
1	12
1	7
1	6
1	17
1	10
1	5
1	7
1	11
1	6
1	512
1	6
1	18
1	512
1	512
1	512
1	7
1	7
1	512
1	512
1	512
1	3
1	512
1	4
1	9
1	512
1	17
1	9
1	5
1	512
1	5
1	512
1	512
1	7
1	34
1	8
1	5
1	512
1	512
1	6
1	512
1	512
1	512
1	512
1	512
1	512
1	512
1	512
1	512
1	11
1	512
1	15
1	12
1	512
1	4
1	14
1	512
1	7
1	17
1	9
1	512
1	13
1	512
1	5
1	8
1	7
1	7
1	512
1	512
1	512
1	11
1	512
1	5
1	8
1	39
1	512
1	512
1	512
1	6
1	8
1	19
1	12
1	20
1	10
1	512
1	5
1	6
1	512
1	512
1	512
1	512
1	6
1	512
1	8
1	17
1	512
1	13
1	512
1	512
1	512
1	17
1	5
1	512
1	512
1	512
1	4
1	512
1	512
1	9
1	19
1	34
1	512
1	6
1	5
1	17
1	8
1	512
1	512
1	7
1	512
1	512
1	14
1	6
1	5
1	512
1	19
1	512
1	4
1	512
1	512
1	512
1	13
1	17
1	512
1	512
1	512
1	512
1	512
1	512
1	512
1	7
1	5
1	512
1	5
1	512
1	20
1	512
1	4
1	512
1	512
1	34
1	5
1	8
1	12
1	9
1	512
1	512
1	5
1	512
1	5
1	6
1	512
1	512
1	6
1	39
1	8
1	4
1	512
1	10
1	512
1	512
1	512
1	13
1	6
1	512
1	34
1	512
1	512
2	5
2	8
2	12
2	4
2	3
2	13
2	9
2	4
2	6
2	6
2	3
2	512
2	5
2	4
2	11
2	6
2	8
2	7
2	8
2	6
2	6
2	5
2	14
2	4
2	7
2	512
2	4
2	4
2	11
2	6
2	8
2	17
2	13
2	6
2	4
2	8
2	8
2	3
2	6
2	9
2	5
2	13
2	17
2	4
2	7
2	9
2	20
2	4
2	12
2	3
2	7
2	5
2	4
2	6
2	3
2	4
2	7
2	4
2	4
2	18
2	4
2	3
2	7
2	7
2	3
2	13
2	3
2	6
2	14
2	6
2	3
2	512
2	3
2	3
2	5
2	8
2	9
2	5
2	3
2	512
2	5
2	7
2	3
2	3
2	13
2	4
2	20
2	5
2	7
2	17
2	9
2	17
2	8
2	8
2	14
2	6
2	5
2	4
2	3
2	4
2	8
2	5
2	3
2	6
2	3
2	4
2	8
2	3
2	5
2	4
2	3
2	4
2	4
2	3
2	9
2	3
2	4
2	6
2	11
2	4
2	6
2	8
2	4
2	4
2	3
2	6
2	7
2	6
2	3
2	3
2	3
2	6
2	4
2	6
2	13
2	6
3	11
3	5
3	6
3	6
3	7
3	13
3	13
3	4
3	6
3	4
3	9
3	9
3	6
3	6
3	5
3	5
3	6
3	5
3	4
3	8
3	5
3	11
4	11
4	5
4	9
4	8


