# Persistence diagram </home/jens/Uni/data_topology/Project/reddit_results/graphs/1030-1.gml>
#
# Dimension   : 1
# Entries     : 162
# Betti number: 162
4	inf
4	inf
5	inf
8	inf
8	inf
8	inf
10	inf
10	inf
11	inf
11	inf
12	inf
12	inf
13	inf
13	inf
13	inf
13	inf
13	inf
13	inf
13	inf
13	inf
13	inf
13	inf
14	inf
14	inf
14	inf
16	inf
16	inf
16	inf
16	inf
18	inf
18	inf
18	inf
18	inf
18	inf
18	inf
18	inf
18	inf
18	inf
19	inf
19	inf
19	inf
19	inf
19	inf
35	inf
35	inf
35	inf
35	inf
35	inf
35	inf
35	inf
35	inf
35	inf
1105	inf
1105	inf
1105	inf
1105	inf
1105	inf
1105	inf
1105	inf
1105	inf
1105	inf
1105	inf
1105	inf
1105	inf
1105	inf
1105	inf
1105	inf
1105	inf
1105	inf
1105	inf
1105	inf
1105	inf
1105	inf
1105	inf
1105	inf
1105	inf
1105	inf
1105	inf
1105	inf
1105	inf
1105	inf
1105	inf
1105	inf
1105	inf
1105	inf
1105	inf
1105	inf
1105	inf
1105	inf
1105	inf
1105	inf
1105	inf
1105	inf
1105	inf
1105	inf
1105	inf
1105	inf
1105	inf
1105	inf
1105	inf
1105	inf
1105	inf
1105	inf
1105	inf
1105	inf
1105	inf
1105	inf
1105	inf
1105	inf
1105	inf
1105	inf
1105	inf
1105	inf
1105	inf
1105	inf
1105	inf
1105	inf
1105	inf
1105	inf
1105	inf
1105	inf
1105	inf
1105	inf
1105	inf
1105	inf
1105	inf
1105	inf
1105	inf
1105	inf
1105	inf
1105	inf
1105	inf
1105	inf
1105	inf
1105	inf
1105	inf
1105	inf
1105	inf
1105	inf
1105	inf
1105	inf
1105	inf
1105	inf
1105	inf
1105	inf
1105	inf
1105	inf
1105	inf
1105	inf
1105	inf
1105	inf
1105	inf
1105	inf
1105	inf
1105	inf
1105	inf
1105	inf
1105	inf
1105	inf
1105	inf
1105	inf
1105	inf
