# Persistence diagram </home/jens/Uni/data_topology/Project/reddit_results/graphs/1031-1.gml>
#
# Dimension   : 0
# Entries     : 258
# Betti number: 1
1	inf
1	245
1	245
1	245
1	245
1	245
1	245
1	245
1	245
1	245
1	245
1	245
1	245
1	245
1	245
1	245
1	245
1	245
1	245
1	245
1	245
1	245
1	245
1	245
1	8
1	245
1	8
1	245
1	245
1	10
1	245
1	245
1	245
1	245
1	245
1	245
1	245
1	7
1	245
1	245
1	6
1	245
1	8
1	245
1	245
1	245
1	245
1	245
1	245
1	7
1	245
1	245
1	245
1	3
1	245
1	10
1	245
1	245
1	245
1	3
1	245
1	245
1	245
1	245
1	245
1	245
1	245
1	245
1	245
1	245
1	245
1	245
1	245
1	245
1	245
1	245
1	10
1	245
1	245
1	245
1	245
1	245
1	245
1	245
1	245
1	245
1	245
1	245
1	245
1	245
1	245
1	245
1	245
1	245
1	245
1	245
1	245
1	245
1	8
1	245
1	245
1	245
1	245
1	245
1	245
1	245
1	245
1	245
1	245
1	245
1	245
1	245
1	245
1	245
1	245
1	7
1	245
1	245
1	245
1	245
1	245
1	245
1	245
1	6
1	245
1	245
1	245
1	245
1	245
1	245
1	245
1	4
1	245
1	245
1	245
1	245
1	245
1	245
1	245
1	8
1	245
1	245
1	245
1	245
1	245
1	245
1	245
1	245
1	245
1	8
1	245
1	245
1	245
1	245
1	245
1	245
1	245
1	245
1	245
1	245
1	245
1	245
1	245
1	245
1	245
1	245
1	245
1	245
1	245
1	245
1	5
1	245
1	245
1	245
1	245
1	245
1	245
1	245
1	245
1	245
1	245
1	4
1	3
1	245
1	10
1	245
1	245
1	5
1	245
1	245
1	245
1	245
1	245
1	5
1	245
1	245
1	245
1	245
1	245
1	245
1	245
1	3
1	245
1	245
1	245
1	245
1	245
1	245
1	245
1	245
1	245
1	245
1	245
1	245
1	245
1	245
1	245
1	245
1	245
1	6
1	245
1	245
1	245
1	245
1	245
1	245
1	245
1	245
1	245
1	245
1	245
1	245
1	245
1	245
1	245
1	245
2	3
2	6
2	245
2	245
2	3
2	10
2	3
2	3
2	7
2	5
2	7
2	7
2	4
2	7
2	3
2	3
2	4
2	7
2	7
2	3
2	7
3	5


