# Persistence diagram </home/jens/Uni/data_topology/Project/reddit_results/graphs/1037-1.gml>
#
# Dimension   : 1
# Entries     : 115
# Betti number: 115
4	inf
6	inf
7	inf
8	inf
8	inf
8	inf
9	inf
10	inf
10	inf
10	inf
10	inf
10	inf
12	inf
12	inf
12	inf
12	inf
12	inf
13	inf
13	inf
14	inf
14	inf
14	inf
14	inf
14	inf
27	inf
27	inf
27	inf
27	inf
27	inf
27	inf
893	inf
893	inf
893	inf
893	inf
893	inf
893	inf
893	inf
893	inf
893	inf
893	inf
893	inf
893	inf
893	inf
893	inf
893	inf
893	inf
893	inf
893	inf
893	inf
893	inf
893	inf
893	inf
893	inf
893	inf
893	inf
893	inf
893	inf
893	inf
893	inf
893	inf
893	inf
893	inf
893	inf
893	inf
893	inf
893	inf
893	inf
893	inf
893	inf
893	inf
893	inf
893	inf
893	inf
893	inf
893	inf
893	inf
893	inf
893	inf
893	inf
893	inf
893	inf
893	inf
893	inf
893	inf
893	inf
893	inf
893	inf
893	inf
893	inf
893	inf
893	inf
893	inf
893	inf
893	inf
893	inf
893	inf
893	inf
893	inf
893	inf
893	inf
893	inf
893	inf
893	inf
893	inf
893	inf
893	inf
893	inf
893	inf
893	inf
893	inf
893	inf
893	inf
893	inf
893	inf
893	inf
