# Persistence diagram </home/jens/Uni/data_topology/Project/reddit_results/graphs/1051-1.gml>
#
# Dimension   : 1
# Entries     : 248
# Betti number: 248
4	inf
4	inf
4	inf
4	inf
5	inf
5	inf
5	inf
7	inf
7	inf
7	inf
8	inf
8	inf
8	inf
8	inf
8	inf
9	inf
9	inf
9	inf
9	inf
9	inf
10	inf
10	inf
10	inf
10	inf
10	inf
11	inf
11	inf
11	inf
11	inf
11	inf
12	inf
12	inf
12	inf
12	inf
13	inf
13	inf
13	inf
13	inf
15	inf
15	inf
15	inf
15	inf
16	inf
16	inf
17	inf
17	inf
17	inf
19	inf
19	inf
19	inf
19	inf
19	inf
19	inf
19	inf
19	inf
19	inf
19	inf
19	inf
19	inf
19	inf
20	inf
20	inf
20	inf
20	inf
20	inf
20	inf
23	inf
23	inf
23	inf
26	inf
26	inf
26	inf
26	inf
26	inf
26	inf
26	inf
26	inf
34	inf
34	inf
34	inf
34	inf
34	inf
34	inf
34	inf
1372	inf
1372	inf
1372	inf
1372	inf
1372	inf
1372	inf
1372	inf
1372	inf
1372	inf
1372	inf
1372	inf
1372	inf
1372	inf
1372	inf
1372	inf
1372	inf
1372	inf
1372	inf
1372	inf
1372	inf
1372	inf
1372	inf
1372	inf
1372	inf
1372	inf
1372	inf
1372	inf
1372	inf
1372	inf
1372	inf
1372	inf
1372	inf
1372	inf
1372	inf
1372	inf
1372	inf
1372	inf
1372	inf
1372	inf
1372	inf
1372	inf
1372	inf
1372	inf
1372	inf
1372	inf
1372	inf
1372	inf
1372	inf
1372	inf
1372	inf
1372	inf
1372	inf
1372	inf
1372	inf
1372	inf
1372	inf
1372	inf
1372	inf
1372	inf
1372	inf
1372	inf
1372	inf
1372	inf
1372	inf
1372	inf
1372	inf
1372	inf
1372	inf
1372	inf
1372	inf
1372	inf
1372	inf
1372	inf
1372	inf
1372	inf
1372	inf
1372	inf
1372	inf
1372	inf
1372	inf
1372	inf
1372	inf
1372	inf
1372	inf
1372	inf
1372	inf
1372	inf
1372	inf
1372	inf
1372	inf
1372	inf
1372	inf
1372	inf
1372	inf
1372	inf
1372	inf
1372	inf
1372	inf
1372	inf
1372	inf
1372	inf
1372	inf
1372	inf
1372	inf
1372	inf
1372	inf
1372	inf
1372	inf
1372	inf
1372	inf
1372	inf
1372	inf
1372	inf
1372	inf
1372	inf
1372	inf
1372	inf
1372	inf
1372	inf
1372	inf
1372	inf
1372	inf
1372	inf
1372	inf
1372	inf
1372	inf
1372	inf
1372	inf
1372	inf
1372	inf
1372	inf
1372	inf
1372	inf
1372	inf
1372	inf
1372	inf
1372	inf
1372	inf
1372	inf
1372	inf
1372	inf
1372	inf
1372	inf
1372	inf
1372	inf
1372	inf
1372	inf
1372	inf
1372	inf
1372	inf
1372	inf
1372	inf
1372	inf
1372	inf
1372	inf
1372	inf
1372	inf
1372	inf
1372	inf
1372	inf
1372	inf
1372	inf
1372	inf
1372	inf
