# Persistence diagram </home/jens/Uni/data_topology/Project/reddit_results/graphs/1064-1.gml>
#
# Dimension   : 0
# Entries     : 1268
# Betti number: 3
1	inf
1	1006
1	1006
1	1006
1	1006
1	1006
1	1006
1	1006
1	1006
1	1006
1	1006
1	1006
1	1006
1	22
1	6
1	1006
1	1006
1	1006
1	7
1	1006
1	1006
1	1006
1	9
1	1006
1	1006
1	1006
1	1006
1	9
1	1006
1	6
1	1006
1	6
1	1006
1	6
1	1006
1	1006
1	1006
1	18
1	1006
1	1006
1	1006
1	1006
1	1006
1	9
1	10
1	1006
1	10
1	1006
1	1006
1	6
1	1006
1	16
1	4
1	1006
1	1006
1	6
1	1006
1	1006
1	1006
1	1006
1	1006
1	1006
1	1006
1	1006
1	1006
1	1006
1	1006
1	1006
1	8
1	10
1	1006
1	1006
1	1006
1	1006
1	1006
1	1006
1	1006
1	1006
1	1006
1	1006
1	1006
1	1006
1	4
1	1006
1	1006
1	8
1	1006
1	16
1	1006
1	10
1	1006
1	1006
1	1006
1	1006
1	1006
1	10
1	16
1	1006
1	1006
1	1006
1	5
1	19
1	1006
1	7
1	1006
1	8
1	4
1	1006
1	1006
1	6
1	1006
1	1006
1	1006
1	1006
1	1006
1	1006
1	1006
1	1006
1	1006
1	1006
1	1006
1	18
1	22
1	1006
1	1006
1	1006
1	1006
1	1006
1	1006
1	1006
1	16
1	1006
1	7
1	1006
1	10
1	1006
1	1006
1	1006
1	1006
1	1006
1	1006
1	1006
1	1006
1	19
1	1006
1	1006
1	7
1	1006
1	1006
1	1006
1	1006
1	1006
1	1006
1	1006
1	1006
1	10
1	1006
1	1006
1	1006
1	6
1	1006
1	6
1	1006
1	1006
1	1006
1	3
1	1006
1	1006
1	1006
1	16
1	1006
1	1006
1	13
1	1006
1	1006
1	1006
1	6
1	1006
1	1006
1	1006
1	10
1	1006
1	1006
1	1006
1	1006
1	1006
1	1006
1	1006
1	1006
1	1006
1	1006
1	1006
1	1006
1	1006
1	1006
1	1006
1	1006
1	1006
1	1006
1	1006
1	1006
1	1006
1	1006
1	1006
1	1006
1	1006
1	1006
1	10
1	1006
1	3
1	1006
1	1006
1	10
1	1006
1	1006
1	1006
1	1006
1	1006
1	1006
1	1006
1	1006
1	1006
1	1006
1	1006
1	1006
1	1006
1	13
1	7
1	10
1	1006
1	1006
1	1006
1	1006
1	1006
1	1006
1	1006
1	1006
1	1006
1	19
1	18
1	1006
1	1006
1	1006
1	10
1	1006
1	1006
1	1006
1	1006
1	1006
1	1006
1	16
1	1006
1	1006
1	7
1	3
1	1006
1	1006
1	1006
1	7
1	1006
1	1006
1	1006
1	1006
1	1006
1	7
1	1006
1	1006
1	1006
1	1006
1	1006
1	1006
1	1006
1	9
1	1006
1	1006
1	1006
1	16
1	22
1	1006
1	1006
1	16
1	7
1	1006
1	22
1	10
1	1006
1	1006
1	1006
1	1006
1	1006
1	1006
1	1006
1	1006
1	1006
1	1006
1	1006
1	8
1	1006
1	1006
1	1006
1	1006
1	19
1	1006
1	1006
1	1006
1	1006
1	1006
1	1006
1	1006
1	1006
1	1006
1	1006
1	1006
1	1006
1	6
1	1006
1	1006
1	1006
1	1006
1	1006
1	1006
1	10
1	1006
1	1006
1	1006
1	1006
1	1006
1	1006
1	1006
1	1006
1	7
1	1006
1	1006
1	1006
1	10
1	1006
1	1006
1	1006
1	1006
1	1006
1	1006
1	1006
1	5
1	1006
1	1006
1	1006
1	16
1	6
1	1006
1	1006
1	10
1	1006
1	1006
1	1006
1	1006
1	1006
1	1006
1	6
1	1006
1	1006
1	1006
1	1006
1	1006
1	4
1	1006
1	1006
1	1006
1	1006
1	1006
1	1006
1	1006
1	1006
1	18
1	1006
1	1006
1	1006
1	1006
1	1006
1	1006
1	1006
1	1006
1	1006
1	1006
1	1006
1	1006
1	8
1	1006
1	1006
1	1006
1	1006
1	1006
1	1006
1	1006
1	inf
1	4
1	1006
1	1006
1	1006
1	1006
1	1006
1	1006
1	1006
1	1006
1	1006
1	10
1	1006
1	1006
1	1006
1	1006
1	1006
1	1006
1	inf
1	1006
1	1006
1	1006
1	1006
1	1006
1	1006
1	4
1	1006
1	1006
1	1006
1	1006
1	10
1	1006
1	16
1	7
1	6
1	1006
1	1006
1	1006
1	9
1	1006
1	1006
1	1006
1	1006
1	1006
1	7
1	1006
1	1006
1	7
1	1006
1	1006
1	1006
1	10
1	1006
1	1006
1	1006
1	7
1	1006
1	1006
1	1006
1	7
1	1006
1	1006
1	1006
1	3
1	1006
1	1006
1	1006
1	1006
1	1006
1	7
1	1006
1	6
1	10
1	1006
1	1006
1	1006
1	7
1	1006
1	8
1	1006
1	6
1	1006
1	1006
1	1006
1	1006
1	1006
1	1006
1	1006
1	6
1	1006
1	1006
1	1006
1	1006
1	1006
1	1006
1	1006
1	1006
1	1006
1	1006
1	1006
1	1006
1	1006
1	1006
1	8
1	1006
1	1006
1	1006
1	1006
1	1006
1	1006
1	4
1	1006
1	19
1	7
1	9
1	1006
1	16
1	7
1	1006
1	1006
1	1006
1	1006
1	8
1	1006
1	1006
1	1006
1	1006
1	1006
1	1006
1	1006
1	4
1	1006
1	19
1	1006
1	1006
1	1006
1	1006
1	1006
1	1006
1	1006
1	1006
1	1006
1	5
1	8
1	16
1	1006
1	7
1	1006
1	1006
1	1006
1	5
1	1006
1	1006
1	1006
1	1006
1	1006
1	1006
1	1006
1	1006
1	1006
1	1006
1	1006
1	1006
1	1006
1	1006
1	1006
1	1006
1	13
1	4
1	1006
1	1006
1	1006
1	4
1	5
1	1006
1	1006
1	4
1	1006
1	1006
1	1006
1	1006
1	3
1	1006
1	1006
1	1006
1	1006
1	1006
1	1006
1	1006
1	5
1	1006
1	1006
1	1006
1	1006
1	1006
1	1006
1	1006
1	5
1	1006
1	1006
1	1006
1	1006
1	1006
1	1006
1	1006
1	1006
1	6
1	1006
1	1006
1	1006
1	1006
1	1006
1	1006
1	1006
1	1006
1	9
1	1006
1	1006
1	1006
1	1006
1	1006
1	1006
1	1006
1	1006
1	1006
1	1006
1	1006
1	1006
1	22
1	1006
1	1006
1	1006
1	4
1	1006
1	1006
1	7
1	1006
1	1006
1	1006
1	6
1	5
1	1006
1	1006
1	1006
1	1006
1	1006
1	1006
1	1006
1	1006
1	1006
1	13
1	3
1	1006
1	1006
1	1006
1	1006
1	1006
1	1006
1	1006
1	1006
1	1006
1	10
1	5
1	7
1	1006
1	4
1	1006
1	1006
1	1006
1	1006
1	1006
1	1006
1	1006
1	1006
1	1006
1	1006
1	6
1	1006
1	1006
1	1006
1	1006
1	1006
1	9
1	1006
1	1006
1	22
1	16
1	16
1	4
1	1006
1	1006
1	1006
1	22
1	1006
1	1006
1	1006
1	1006
1	16
1	22
1	1006
1	1006
1	13
1	9
1	1006
1	1006
1	1006
1	1006
1	1006
1	1006
1	19
1	1006
1	1006
1	1006
1	1006
1	1006
1	1006
1	1006
1	1006
1	6
1	1006
1	9
1	1006
1	1006
1	1006
1	1006
1	1006
1	1006
1	1006
1	1006
1	1006
1	1006
1	5
1	1006
1	1006
1	5
1	7
1	1006
1	1006
1	9
1	1006
1	8
1	1006
1	1006
1	1006
1	1006
1	1006
1	6
1	1006
1	1006
1	10
1	8
1	4
1	1006
1	1006
1	1006
1	3
1	1006
1	1006
1	1006
1	1006
1	1006
1	1006
1	1006
1	1006
1	1006
1	6
1	6
1	5
1	1006
1	6
1	5
1	1006
1	1006
1	1006
1	1006
1	1006
1	1006
1	13
1	6
1	9
1	9
1	1006
1	1006
1	5
1	1006
1	1006
1	1006
1	6
1	1006
1	1006
1	1006
1	10
1	5
1	1006
1	18
1	1006
1	1006
1	1006
1	1006
1	1006
1	1006
1	1006
1	1006
1	10
1	1006
1	1006
1	1006
1	22
1	1006
1	1006
1	1006
1	1006
1	1006
1	1006
1	1006
1	1006
1	1006
1	1006
1	1006
1	1006
1	1006
1	1006
1	1006
1	1006
1	19
1	1006
1	1006
1	1006
1	1006
1	1006
1	13
1	1006
1	1006
1	3
1	16
1	10
1	3
1	1006
1	1006
1	1006
1	1006
1	1006
1	5
1	1006
1	1006
1	1006
1	5
1	1006
1	1006
1	1006
1	1006
1	1006
1	1006
1	1006
1	1006
1	1006
1	1006
1	1006
1	1006
1	1006
1	1006
1	1006
1	1006
1	1006
1	1006
1	1006
1	1006
1	7
1	1006
1	1006
1	1006
1	18
1	10
1	6
1	1006
1	1006
1	1006
1	5
1	1006
1	1006
1	1006
1	1006
1	13
1	1006
1	1006
1	7
1	7
1	1006
1	1006
1	1006
1	1006
1	1006
1	1006
1	1006
1	1006
1	5
1	1006
1	1006
1	19
1	1006
1	1006
1	1006
1	1006
1	1006
1	1006
1	1006
1	1006
1	1006
1	1006
1	10
1	1006
1	1006
1	1006
1	1006
1	1006
1	1006
1	1006
1	1006
1	1006
1	3
1	1006
1	9
1	1006
1	4
1	1006
1	1006
1	4
1	1006
1	1006
1	1006
1	1006
1	10
1	1006
1	1006
1	1006
1	1006
1	1006
1	16
1	1006
1	1006
1	1006
1	1006
1	1006
1	1006
1	1006
1	1006
1	1006
1	22
1	4
1	1006
1	5
1	1006
1	1006
1	1006
1	6
1	1006
1	1006
1	1006
1	1006
1	13
1	1006
1	1006
1	1006
1	1006
1	5
1	1006
1	1006
1	1006
1	4
1	1006
1	1006
1	1006
1	1006
1	1006
1	1006
1	1006
1	1006
1	7
1	1006
1	1006
1	1006
1	1006
1	1006
1	1006
1	1006
1	1006
1	1006
1	1006
1	1006
1	1006
1	10
1	1006
1	1006
1	1006
1	4
1	1006
1	1006
1	1006
1	1006
1	1006
1	1006
1	9
1	9
1	1006
1	1006
1	1006
1	1006
1	1006
1	1006
1	4
1	1006
1	1006
1	1006
1	10
1	1006
1	5
1	1006
1	16
1	1006
1	1006
1	3
1	1006
1	1006
1	1006
1	4
1	1006
1	5
1	4
1	1006
1	1006
1	1006
1	9
1	1006
1	1006
1	19
1	16
1	1006
1	1006
1	1006
1	19
1	1006
1	1006
1	1006
1	1006
1	1006
1	9
1	1006
1	1006
1	5
1	1006
1	1006
1	3
1	6
1	1006
1	1006
1	1006
1	1006
1	1006
1	1006
1	1006
1	1006
1	7
1	1006
1	1006
1	1006
1	1006
1	18
1	1006
1	1006
1	1006
1	1006
1	1006
1	1006
1	1006
1	1006
1	1006
1	1006
1	1006
1	1006
1	1006
1	1006
1	1006
1	5
1	1006
1	1006
1	19
1	1006
1	1006
1	1006
1	10
1	1006
1	1006
1	1006
1	1006
1	7
1	1006
1	1006
1	1006
1	1006
1	6
1	3
1	1006
1	1006
1	10
1	1006
1	1006
1	1006
1	18
1	1006
1	1006
1	1006
1	1006
1	1006
1	1006
1	1006
1	22
1	1006
1	7
1	1006
1	10
1	1006
1	1006
1	1006
1	1006
1	1006
1	1006
1	1006
1	1006
1	1006
1	1006
1	1006
1	1006
1	7
1	1006
1	1006
1	4
1	1006
1	1006
1	5
1	5
1	1006
1	1006
1	1006
1	1006
1	1006
1	1006
1	10
1	1006
1	1006
1	1006
1	1006
1	1006
1	16
1	16
1	1006
1	1006
1	7
1	1006
1	4
1	1006
1	8
1	1006
1	1006
1	1006
1	1006
1	5
1	1006
1	1006
1	1006
1	1006
1	1006
1	1006
1	1006
1	1006
1	1006
1	1006
1	1006
1	1006
1	1006
1	1006
1	1006
1	1006
1	1006
1	1006
1	1006
1	1006
1	5
1	1006
1	18
1	1006
1	1006
1	1006
1	1006
1	4
1	1006
1	1006
1	1006
1	1006
1	1006
1	1006
1	3
1	1006
1	1006
1	1006
1	1006
1	1006
1	1006
1	1006
1	1006
1	1006
1	1006
1	10
1	1006
1	5
1	1006
1	1006
2	5
2	5
2	9
2	3
2	4
2	4
2	18
2	16
2	6
2	1006
2	4
2	3
2	3
2	7
2	3
2	9
2	5
2	5
2	3
2	10
2	3
2	7
2	3
2	9
2	7
2	3
2	5
2	18
2	4
2	3
2	4
2	1006
2	7
2	5
2	6
2	4
2	6
2	1006
2	5
2	4
2	3
2	13
2	3
2	4
2	3
2	4
2	7
2	8
2	9
2	3
2	3
2	5
2	4
2	3
2	6
2	4
3	5
3	5
3	5


