# Persistence diagram </home/jens/Uni/data_topology/Project/reddit_results/graphs/1065-1.gml>
#
# Dimension   : 0
# Entries     : 704
# Betti number: 2
1	inf
1	596
1	596
1	596
1	596
1	596
1	596
1	596
1	596
1	596
1	596
1	596
1	596
1	596
1	596
1	596
1	596
1	596
1	596
1	596
1	596
1	596
1	596
1	16
1	596
1	596
1	596
1	596
1	596
1	596
1	596
1	596
1	596
1	596
1	596
1	596
1	596
1	10
1	596
1	596
1	596
1	596
1	596
1	596
1	7
1	596
1	596
1	596
1	8
1	596
1	596
1	596
1	596
1	596
1	11
1	596
1	inf
1	596
1	9
1	7
1	5
1	596
1	596
1	8
1	596
1	596
1	596
1	596
1	596
1	596
1	596
1	596
1	596
1	596
1	596
1	596
1	596
1	596
1	596
1	596
1	596
1	596
1	596
1	596
1	596
1	596
1	596
1	596
1	596
1	596
1	596
1	596
1	596
1	596
1	596
1	596
1	596
1	596
1	596
1	596
1	596
1	596
1	596
1	596
1	596
1	596
1	596
1	596
1	596
1	596
1	596
1	596
1	596
1	596
1	596
1	596
1	596
1	6
1	596
1	12
1	596
1	596
1	596
1	12
1	12
1	596
1	7
1	596
1	596
1	596
1	596
1	596
1	596
1	596
1	596
1	596
1	596
1	596
1	596
1	12
1	8
1	596
1	8
1	596
1	596
1	596
1	596
1	596
1	6
1	596
1	596
1	596
1	3
1	596
1	596
1	596
1	596
1	10
1	596
1	596
1	596
1	596
1	9
1	596
1	596
1	596
1	596
1	596
1	596
1	596
1	596
1	596
1	596
1	596
1	596
1	8
1	596
1	596
1	11
1	596
1	596
1	12
1	596
1	596
1	596
1	596
1	596
1	596
1	9
1	596
1	596
1	596
1	596
1	596
1	596
1	596
1	4
1	596
1	596
1	596
1	596
1	596
1	596
1	596
1	596
1	596
1	596
1	596
1	596
1	8
1	596
1	596
1	596
1	596
1	10
1	596
1	8
1	596
1	596
1	596
1	596
1	596
1	596
1	596
1	596
1	596
1	596
1	596
1	596
1	596
1	596
1	596
1	596
1	596
1	596
1	596
1	596
1	596
1	596
1	5
1	596
1	596
1	596
1	596
1	596
1	596
1	596
1	596
1	596
1	596
1	596
1	596
1	596
1	596
1	596
1	596
1	596
1	596
1	596
1	596
1	596
1	596
1	596
1	596
1	596
1	8
1	596
1	4
1	596
1	596
1	596
1	596
1	10
1	596
1	596
1	596
1	16
1	596
1	596
1	596
1	596
1	12
1	596
1	9
1	4
1	596
1	596
1	596
1	596
1	596
1	12
1	596
1	596
1	596
1	596
1	596
1	596
1	596
1	596
1	8
1	596
1	596
1	596
1	11
1	596
1	596
1	596
1	596
1	10
1	16
1	9
1	596
1	7
1	596
1	596
1	8
1	596
1	8
1	596
1	6
1	5
1	596
1	596
1	596
1	596
1	596
1	596
1	596
1	596
1	596
1	596
1	596
1	6
1	596
1	596
1	16
1	596
1	596
1	596
1	596
1	596
1	596
1	596
1	596
1	596
1	596
1	596
1	596
1	596
1	596
1	596
1	596
1	596
1	596
1	596
1	596
1	596
1	596
1	12
1	596
1	596
1	596
1	596
1	596
1	596
1	596
1	596
1	596
1	16
1	596
1	596
1	596
1	596
1	596
1	596
1	596
1	11
1	596
1	596
1	596
1	596
1	596
1	596
1	596
1	596
1	596
1	7
1	596
1	596
1	596
1	596
1	596
1	596
1	596
1	596
1	9
1	596
1	596
1	596
1	596
1	596
1	596
1	16
1	596
1	596
1	596
1	596
1	596
1	596
1	596
1	596
1	3
1	4
1	8
1	16
1	596
1	7
1	596
1	596
1	596
1	596
1	596
1	4
1	596
1	596
1	596
1	596
1	596
1	596
1	596
1	596
1	596
1	596
1	596
1	5
1	596
1	596
1	596
1	12
1	596
1	596
1	4
1	596
1	9
1	596
1	596
1	596
1	596
1	596
1	596
1	5
1	596
1	5
1	596
1	596
1	7
1	9
1	596
1	596
1	9
1	10
1	596
1	596
1	596
1	596
1	596
1	596
1	596
1	8
1	596
1	596
1	596
1	596
1	596
1	596
1	596
1	596
1	596
1	596
1	10
1	596
1	596
1	12
1	9
1	596
1	5
1	6
1	596
1	596
1	596
1	596
1	596
1	596
1	596
1	596
1	596
1	596
1	596
1	596
1	596
1	596
1	596
1	596
1	12
1	596
1	596
1	596
1	596
1	596
1	596
1	596
1	596
1	4
1	596
1	596
1	596
1	11
1	596
1	596
1	596
1	596
1	596
1	596
1	7
1	9
1	596
1	8
1	596
1	596
1	8
1	596
1	11
1	596
1	16
1	596
1	4
1	596
1	596
1	596
1	8
1	5
1	596
1	596
1	596
1	596
1	596
1	8
1	596
1	596
1	596
1	596
1	596
1	596
1	4
1	596
1	596
1	596
1	4
1	16
1	12
1	6
1	596
1	596
1	596
1	596
1	9
1	596
1	596
1	596
1	596
1	596
1	596
1	596
1	596
1	596
1	596
1	596
1	596
1	596
1	596
1	9
1	596
1	596
1	596
1	596
1	9
1	12
1	596
1	596
1	596
1	596
1	596
1	596
1	596
1	11
1	596
1	596
1	596
1	596
1	596
1	596
1	596
1	596
1	596
1	596
1	596
1	12
1	596
1	596
1	596
1	596
1	596
1	596
1	8
1	596
1	596
1	596
1	596
1	596
1	596
1	596
1	3
1	596
1	596
1	3
1	596
1	596
1	9
1	596
1	596
1	8
1	596
1	596
1	596
1	596
1	596
1	596
1	596
1	596
1	596
1	596
1	596
1	596
1	596
1	596
1	596
1	596
1	596
1	596
1	596
1	596
1	10
1	596
1	596
1	596
1	596
1	7
1	596
1	596
1	4
1	596
1	596
1	596
1	596
1	8
1	596
1	4
1	6
1	596
1	4
1	596
1	12
1	596
1	3
1	596
1	596
2	596
2	8
2	8
2	4
2	4
2	9
2	4
2	4
2	596
2	3
2	5
2	5
2	9
2	596
2	5
2	9
2	4
2	5
2	5
2	3
2	6
2	4
2	8
2	3
2	5
2	7
2	5
4	6


