# Persistence diagram </home/jens/Uni/data_topology/Project/reddit_results/graphs/1066-1.gml>
#
# Dimension   : 0
# Entries     : 2009
# Betti number: 6
1	inf
1	23
1	1242
1	1242
1	1242
1	1242
1	1242
1	1242
1	1242
1	15
1	1242
1	1242
1	10
1	23
1	8
1	1242
1	1242
1	18
1	1242
1	1242
1	12
1	17
1	1242
1	1242
1	1242
1	1242
1	11
1	1242
1	24
1	1242
1	22
1	1242
1	1242
1	22
1	40
1	54
1	1242
1	13
1	1242
1	15
1	1242
1	1242
1	1242
1	1242
1	1242
1	1242
1	3
1	1242
1	40
1	22
1	1242
1	1242
1	1242
1	11
1	1242
1	1242
1	1242
1	1242
1	1242
1	15
1	11
1	10
1	1242
1	34
1	13
1	13
1	1242
1	1242
1	1242
1	1242
1	1242
1	1242
1	34
1	1242
1	17
1	1242
1	1242
1	8
1	1242
1	1242
1	18
1	27
1	28
1	1242
1	1242
1	16
1	1242
1	1242
1	24
1	1242
1	1242
1	1242
1	40
1	54
1	1242
1	29
1	1242
1	1242
1	1242
1	29
1	9
1	13
1	21
1	11
1	1242
1	16
1	1242
1	10
1	20
1	17
1	1242
1	34
1	25
1	54
1	1242
1	1242
1	10
1	17
1	23
1	1242
1	7
1	6
1	1242
1	1242
1	1242
1	23
1	1242
1	10
1	1242
1	1242
1	10
1	9
1	1242
1	1242
1	1242
1	1242
1	16
1	17
1	1242
1	1242
1	1242
1	12
1	1242
1	1242
1	1242
1	1242
1	9
1	1242
1	9
1	1242
1	1242
1	1242
1	15
1	1242
1	25
1	1242
1	16
1	1242
1	1242
1	1242
1	10
1	1242
1	1242
1	9
1	1242
1	1242
1	1242
1	23
1	1242
1	11
1	1242
1	1242
1	9
1	1242
1	1242
1	1242
1	23
1	1242
1	9
1	23
1	17
1	1242
1	11
1	54
1	inf
1	1242
1	1242
1	1242
1	1242
1	12
1	15
1	22
1	1242
1	1242
1	1242
1	1242
1	16
1	17
1	1242
1	6
1	1242
1	10
1	1242
1	9
1	10
1	15
1	1242
1	9
1	1242
1	54
1	1242
1	15
1	1242
1	1242
1	1242
1	1242
1	1242
1	15
1	17
1	13
1	1242
1	1242
1	1242
1	1242
1	1242
1	1242
1	1242
1	1242
1	22
1	1242
1	1242
1	19
1	1242
1	18
1	1242
1	8
1	1242
1	11
1	15
1	13
1	1242
1	9
1	24
1	16
1	1242
1	10
1	1242
1	29
1	1242
1	1242
1	9
1	1242
1	1242
1	inf
1	1242
1	40
1	16
1	22
1	13
1	1242
1	1242
1	1242
1	1242
1	25
1	6
1	18
1	1242
1	1242
1	1242
1	1242
1	1242
1	1242
1	1242
1	1242
1	1242
1	28
1	1242
1	1242
1	1242
1	23
1	11
1	25
1	1242
1	1242
1	1242
1	17
1	1242
1	1242
1	1242
1	1242
1	1242
1	1242
1	40
1	17
1	24
1	1242
1	15
1	29
1	1242
1	1242
1	1242
1	1242
1	16
1	5
1	1242
1	1242
1	14
1	1242
1	1242
1	1242
1	1242
1	1242
1	27
1	1242
1	1242
1	1242
1	1242
1	1242
1	1242
1	10
1	1242
1	29
1	1242
1	1242
1	1242
1	1242
1	1242
1	34
1	1242
1	6
1	13
1	4
1	1242
1	1242
1	1242
1	1242
1	1242
1	1242
1	9
1	1242
1	1242
1	1242
1	17
1	4
1	1242
1	1242
1	40
1	1242
1	40
1	1242
1	9
1	1242
1	1242
1	1242
1	1242
1	1242
1	6
1	1242
1	1242
1	1242
1	54
1	23
1	23
1	1242
1	1242
1	1242
1	1242
1	1242
1	17
1	1242
1	11
1	1242
1	23
1	23
1	1242
1	1242
1	1242
1	1242
1	1242
1	1242
1	11
1	1242
1	1242
1	1242
1	1242
1	1242
1	17
1	1242
1	1242
1	1242
1	1242
1	1242
1	1242
1	1242
1	1242
1	1242
1	1242
1	1242
1	1242
1	29
1	25
1	1242
1	1242
1	19
1	1242
1	1242
1	1242
1	1242
1	1242
1	4
1	23
1	1242
1	1242
1	1242
1	1242
1	25
1	1242
1	1242
1	1242
1	10
1	1242
1	1242
1	9
1	54
1	1242
1	34
1	15
1	1242
1	40
1	1242
1	11
1	1242
1	15
1	9
1	1242
1	1242
1	25
1	1242
1	1242
1	1242
1	1242
1	54
1	1242
1	1242
1	1242
1	5
1	1242
1	17
1	23
1	10
1	1242
1	8
1	21
1	1242
1	18
1	8
1	4
1	1242
1	1242
1	1242
1	1242
1	5
1	54
1	1242
1	13
1	1242
1	4
1	15
1	10
1	6
1	1242
1	54
1	1242
1	20
1	1242
1	1242
1	1242
1	1242
1	6
1	13
1	1242
1	1242
1	18
1	16
1	1242
1	1242
1	1242
1	54
1	inf
1	10
1	1242
1	1242
1	1242
1	inf
1	1242
1	1242
1	1242
1	1242
1	5
1	1242
1	9
1	1242
1	13
1	1242
1	1242
1	54
1	1242
1	1242
1	1242
1	10
1	1242
1	1242
1	27
1	1242
1	19
1	1242
1	27
1	1242
1	1242
1	54
1	1242
1	9
1	1242
1	54
1	14
1	34
1	22
1	1242
1	1242
1	29
1	54
1	1242
1	7
1	54
1	16
1	13
1	1242
1	1242
1	9
1	1242
1	1242
1	1242
1	9
1	1242
1	1242
1	1242
1	20
1	1242
1	6
1	22
1	1242
1	6
1	1242
1	25
1	1242
1	1242
1	29
1	29
1	1242
1	1242
1	10
1	20
1	1242
1	23
1	21
1	1242
1	1242
1	13
1	1242
1	1242
1	1242
1	1242
1	1242
1	1242
1	1242
1	1242
1	40
1	24
1	1242
1	1242
1	1242
1	12
1	17
1	1242
1	23
1	1242
1	34
1	1242
1	1242
1	6
1	1242
1	1242
1	1242
1	10
1	1242
1	1242
1	1242
1	1242
1	1242
1	6
1	13
1	1242
1	1242
1	17
1	11
1	11
1	1242
1	1242
1	1242
1	28
1	20
1	1242
1	1242
1	1242
1	1242
1	6
1	8
1	16
1	1242
1	40
1	22
1	22
1	1242
1	22
1	22
1	13
1	1242
1	1242
1	1242
1	1242
1	1242
1	1242
1	9
1	17
1	16
1	1242
1	1242
1	29
1	6
1	1242
1	1242
1	1242
1	9
1	16
1	4
1	13
1	1242
1	1242
1	1242
1	1242
1	13
1	1242
1	1242
1	9
1	1242
1	7
1	1242
1	1242
1	1242
1	5
1	40
1	1242
1	7
1	23
1	54
1	14
1	3
1	1242
1	1242
1	40
1	10
1	1242
1	1242
1	1242
1	1242
1	1242
1	1242
1	1242
1	6
1	1242
1	1242
1	15
1	1242
1	29
1	1242
1	1242
1	1242
1	1242
1	21
1	11
1	1242
1	1242
1	1242
1	10
1	1242
1	1242
1	40
1	1242
1	1242
1	1242
1	29
1	15
1	19
1	13
1	1242
1	1242
1	1242
1	19
1	16
1	10
1	1242
1	24
1	1242
1	8
1	1242
1	1242
1	1242
1	1242
1	1242
1	1242
1	1242
1	15
1	11
1	1242
1	13
1	1242
1	1242
1	1242
1	4
1	1242
1	28
1	1242
1	5
1	17
1	1242
1	13
1	15
1	13
1	15
1	1242
1	1242
1	25
1	1242
1	1242
1	1242
1	20
1	1242
1	11
1	1242
1	1242
1	1242
1	1242
1	1242
1	1242
1	1242
1	15
1	1242
1	16
1	1242
1	1242
1	1242
1	5
1	1242
1	1242
1	1242
1	1242
1	1242
1	14
1	5
1	1242
1	1242
1	4
1	1242
1	4
1	6
1	1242
1	1242
1	5
1	8
1	10
1	10
1	1242
1	1242
1	1242
1	6
1	4
1	1242
1	20
1	1242
1	1242
1	1242
1	1242
1	1242
1	8
1	1242
1	1242
1	9
1	1242
1	10
1	1242
1	13
1	1242
1	1242
1	1242
1	1242
1	1242
1	34
1	1242
1	8
1	1242
1	1242
1	1242
1	1242
1	1242
1	54
1	1242
1	11
1	1242
1	9
1	1242
1	34
1	1242
1	4
1	1242
1	1242
1	22
1	1242
1	1242
1	1242
1	1242
1	1242
1	6
1	1242
1	20
1	13
1	1242
1	1242
1	1242
1	6
1	8
1	1242
1	1242
1	1242
1	1242
1	10
1	1242
1	3
1	1242
1	1242
1	13
1	1242
1	1242
1	21
1	1242
1	1242
1	1242
1	11
1	19
1	1242
1	1242
1	1242
1	54
1	11
1	22
1	1242
1	13
1	1242
1	6
1	1242
1	6
1	4
1	1242
1	1242
1	1242
1	34
1	10
1	16
1	10
1	1242
1	1242
1	9
1	1242
1	1242
1	1242
1	1242
1	1242
1	1242
1	1242
1	1242
1	1242
1	1242
1	1242
1	10
1	1242
1	1242
1	1242
1	1242
1	1242
1	1242
1	1242
1	1242
1	3
1	1242
1	1242
1	1242
1	1242
1	21
1	1242
1	1242
1	1242
1	27
1	1242
1	1242
1	1242
1	1242
1	9
1	15
1	4
1	3
1	1242
1	4
1	1242
1	20
1	3
1	1242
1	17
1	1242
1	5
1	22
1	4
1	5
1	34
1	15
1	1242
1	1242
1	8
1	1242
1	1242
1	1242
1	13
1	16
1	1242
1	1242
1	1242
1	1242
1	1242
1	1242
1	1242
1	22
1	1242
1	1242
1	1242
1	1242
1	10
1	10
1	1242
1	1242
1	15
1	40
1	54
1	54
1	1242
1	29
1	1242
1	6
1	11
1	1242
1	29
1	10
1	1242
1	4
1	10
1	54
1	1242
1	1242
1	3
1	1242
1	11
1	1242
1	1242
1	1242
1	21
1	1242
1	1242
1	22
1	1242
1	1242
1	23
1	1242
1	1242
1	1242
1	1242
1	6
1	12
1	5
1	1242
1	1242
1	1242
1	1242
1	1242
1	21
1	11
1	1242
1	1242
1	1242
1	1242
1	1242
1	1242
1	1242
1	1242
1	1242
1	20
1	1242
1	1242
1	1242
1	1242
1	1242
1	1242
1	1242
1	1242
1	15
1	22
1	9
1	1242
1	1242
1	10
1	1242
1	27
1	1242
1	1242
1	8
1	13
1	9
1	1242
1	16
1	1242
1	1242
1	7
1	1242
1	10
1	1242
1	1242
1	3
1	1242
1	1242
1	1242
1	1242
1	8
1	1242
1	1242
1	1242
1	23
1	1242
1	9
1	54
1	1242
1	19
1	9
1	1242
1	1242
1	1242
1	1242
1	1242
1	1242
1	1242
1	15
1	1242
1	11
1	1242
1	1242
1	1242
1	1242
1	11
1	13
1	10
1	21
1	10
1	54
1	1242
1	22
1	17
1	1242
1	9
1	1242
1	34
1	1242
1	1242
1	3
1	1242
1	1242
1	1242
1	1242
1	1242
1	34
1	22
1	15
1	1242
1	1242
1	1242
1	40
1	1242
1	15
1	1242
1	5
1	1242
1	1242
1	9
1	1242
1	22
1	1242
1	1242
1	8
1	1242
1	17
1	15
1	13
1	1242
1	1242
1	13
1	1242
1	1242
1	1242
1	15
1	1242
1	1242
1	1242
1	13
1	6
1	1242
1	1242
1	54
1	1242
1	1242
1	1242
1	1242
1	1242
1	23
1	54
1	1242
1	11
1	13
1	1242
1	18
1	1242
1	1242
1	13
1	12
1	5
1	1242
1	1242
1	1242
1	28
1	1242
1	1242
1	7
1	22
1	13
1	1242
1	9
1	1242
1	24
1	1242
1	10
1	1242
1	23
1	17
1	1242
1	1242
1	10
1	19
1	17
1	13
1	25
1	1242
1	25
1	9
1	1242
1	1242
1	1242
1	17
1	1242
1	1242
1	1242
1	8
1	1242
1	1242
1	1242
1	1242
1	1242
1	1242
1	1242
1	1242
1	3
1	1242
1	13
1	22
1	13
1	11
1	15
1	4
1	1242
1	15
1	12
1	12
1	18
1	1242
1	1242
1	1242
1	1242
1	8
1	34
1	15
1	16
1	13
1	1242
1	1242
1	1242
1	29
1	23
1	24
1	1242
1	10
1	10
1	1242
1	1242
1	21
1	1242
1	13
1	1242
1	16
1	1242
1	1242
1	1242
1	13
1	1242
1	16
1	4
1	5
1	1242
1	1242
1	17
1	1242
1	1242
1	24
1	1242
1	5
1	1242
1	1242
1	1242
1	1242
1	3
1	17
1	16
1	1242
1	1242
1	54
1	23
1	12
1	1242
1	1242
1	5
1	1242
1	1242
1	18
1	inf
1	1242
1	7
1	9
1	4
1	1242
1	22
1	5
1	1242
1	1242
1	1242
1	2
1	21
1	17
1	1242
1	14
1	1242
1	1242
1	1242
1	1242
1	1242
1	1242
1	1242
1	1242
1	6
1	9
1	20
1	1242
1	4
1	1242
1	1242
1	9
1	29
1	1242
1	1242
1	3
1	1242
1	1242
1	1242
1	1242
1	12
1	1242
1	1242
1	1242
1	1242
1	15
1	27
1	1242
1	1242
1	15
1	11
1	1242
1	1242
1	28
1	23
1	1242
1	1242
1	5
1	1242
1	1242
1	10
1	1242
1	1242
1	5
1	1242
1	1242
1	29
1	1242
1	1242
1	1242
1	1242
1	28
1	15
1	22
1	1242
1	1242
1	1242
1	1242
1	17
1	10
1	3
1	1242
1	9
1	1242
1	1242
1	1242
1	1242
1	6
1	1242
1	1242
1	20
1	11
1	34
1	1242
1	23
1	1242
1	1242
1	1242
1	22
1	16
1	10
1	1242
1	1242
1	1242
1	1242
1	54
1	11
1	22
1	29
1	15
1	1242
1	1242
1	1242
1	5
1	1242
1	1242
1	40
1	1242
1	9
1	1242
1	8
1	54
1	14
1	10
1	1242
1	17
1	1242
1	1242
1	13
1	4
1	1242
1	27
1	40
1	3
1	1242
1	3
1	34
1	1242
1	1242
1	1242
1	1242
1	16
1	1242
1	1242
1	1242
1	1242
1	1242
1	1242
1	1242
1	1242
1	1242
1	1242
1	1242
1	1242
1	1242
1	6
1	1242
1	40
1	6
1	15
1	1242
1	1242
1	11
1	29
1	1242
1	1242
1	1242
1	1242
1	9
1	1242
1	1242
1	1242
1	1242
1	1242
1	16
1	1242
1	54
1	29
1	15
1	1242
1	28
1	1242
1	1242
1	15
1	1242
1	13
1	1242
1	1242
1	1242
1	1242
1	3
1	1242
1	1242
1	54
1	8
1	1242
1	1242
1	6
1	1242
1	1242
1	1242
1	1242
1	24
1	1242
1	1242
1	1242
1	1242
1	1242
1	1242
1	16
1	1242
1	1242
1	1242
1	34
1	15
1	1242
1	7
1	4
1	22
1	1242
1	23
1	1242
1	1242
1	25
1	1242
1	18
1	11
1	1242
1	4
1	1242
1	1242
1	16
1	1242
1	1242
1	11
1	6
1	1242
1	1242
1	1242
1	1242
1	8
1	9
1	1242
1	14
1	1242
1	1242
1	1242
1	1242
1	21
1	1242
1	4
1	17
1	1242
1	1242
1	1242
1	1242
1	3
1	13
1	1242
1	9
1	11
1	1242
1	4
1	15
1	1242
1	1242
1	17
1	23
1	1242
1	18
1	3
1	13
1	1242
1	1242
1	1242
1	1242
1	1242
1	6
1	1242
1	1242
1	1242
1	1242
1	1242
1	1242
1	29
1	28
1	10
1	22
1	16
1	1242
1	3
1	1242
1	15
1	17
1	18
1	4
1	1242
1	16
1	1242
1	34
1	17
1	10
1	1242
1	11
1	1242
1	3
1	1242
1	6
1	1242
1	4
1	28
1	1242
1	18
1	1242
1	34
1	1242
1	7
1	1242
1	1242
1	23
1	1242
1	1242
1	1242
1	1242
1	1242
1	1242
1	1242
1	1242
1	1242
1	17
1	1242
1	1242
1	1242
1	20
1	1242
1	1242
1	1242
1	28
1	1242
1	1242
1	15
1	7
1	23
1	1242
1	1242
1	5
1	13
1	1242
1	1242
1	1242
1	6
1	14
1	6
1	1242
1	1242
1	8
1	4
1	6
1	1242
1	1242
1	1242
1	21
1	54
1	14
1	1242
1	1242
1	1242
1	3
1	13
1	1242
1	1242
1	1242
1	1242
1	22
1	1242
1	13
1	18
1	1242
1	13
1	1242
1	1242
1	1242
1	18
1	6
1	6
1	8
1	1242
1	10
1	8
1	1242
1	1242
1	4
1	1242
1	1242
1	24
1	1242
1	21
1	1242
1	24
1	27
1	13
1	40
1	54
1	1242
1	1242
1	15
1	1242
1	4
1	4
1	1242
1	1242
1	1242
1	19
1	1242
1	13
1	3
1	10
1	1242
1	1242
1	14
1	1242
1	1242
1	9
1	28
1	1242
1	12
1	13
1	1242
1	1242
1	1242
1	1242
1	1242
1	1242
1	1242
1	1242
1	9
1	54
1	1242
1	1242
1	1242
1	1242
1	8
1	17
1	13
1	54
1	1242
1	1242
1	15
1	17
1	1242
1	1242
1	13
1	1242
1	1242
1	1242
1	9
1	1242
1	4
1	3
1	20
1	1242
1	13
1	1242
1	1242
1	1242
1	1242
1	13
1	1242
1	22
1	1242
1	1242
1	28
1	1242
1	19
1	1242
1	1242
1	1242
1	1242
1	54
1	1242
1	1242
1	1242
1	1242
1	12
1	20
1	1242
1	4
1	1242
1	21
1	10
1	1242
1	1242
1	13
1	29
1	9
1	15
1	10
1	6
1	1242
1	1242
1	9
1	1242
1	4
1	13
1	1242
1	9
1	1242
1	6
1	1242
1	1242
1	16
1	11
1	1242
1	3
1	1242
1	1242
1	1242
1	19
1	1242
1	1242
1	1242
1	6
1	1242
1	1242
1	20
1	15
1	1242
1	23
1	10
1	1242
1	14
1	1242
1	5
1	1242
1	23
1	6
1	1242
1	1242
1	1242
1	1242
1	4
1	29
1	1242
1	11
1	24
1	4
1	9
1	1242
1	10
1	28
1	1242
1	13
1	40
1	1242
1	12
1	4
1	16
1	3
1	1242
1	1242
1	1242
1	1242
1	4
1	6
1	4
1	1242
1	1242
1	21
1	1242
1	17
1	1242
1	1242
1	1242
1	4
1	1242
1	1242
1	1242
1	1242
1	27
1	1242
1	1242
1	1242
1	1242
1	10
1	1242
1	3
1	1242
1	1242
1	1242
1	4
1	1242
1	1242
1	1242
1	1242
1	1242
1	1242
1	1242
1	1242
1	22
1	10
1	1242
1	1242
1	16
1	25
1	13
1	54
1	1242
1	16
1	1242
1	1242
1	22
2	24
2	3
2	16
2	1242
2	13
2	27
2	9
2	16
2	10
2	11
2	3
2	9
2	3
2	3
2	9
2	16
2	54
2	40
2	3
2	9
2	6
2	3
2	9
2	11
2	10
2	5
2	6
2	11
2	4
2	11
2	13
2	1242
2	4
2	4
2	1242
2	1242
2	17
2	27
2	8
2	8
2	29
2	8
2	4
2	6
2	1242
2	13
2	4
2	4
2	23
2	4
2	4
2	7
2	7
2	3
2	5
2	15
2	3
2	25
2	5
2	23
2	1242
2	10
2	10
2	16
2	22
2	5
2	27
2	4
2	8
2	1242
2	5
2	4
2	5
2	9
2	4
2	27
2	5
2	23
2	5
2	15
2	4
2	10
2	34
2	13
2	9
2	4
2	5
2	9
2	3
2	4
2	13
2	6
2	34
2	6
2	15
2	9
2	5
2	4
2	5
2	4
2	17
2	13
2	5
2	3
2	25
2	3
2	5
2	54
2	3
2	6
2	13
2	12
2	3
2	5
2	4
2	3
2	4
2	4
3	6
3	24
3	5
3	6
3	13
3	8
3	4
3	4
3	15
3	8
3	7
4	8
4	7
4	11
4	10
5	9


