# Persistence diagram </home/jens/Uni/data_topology/Project/reddit_results/graphs/1068-1.gml>
#
# Dimension   : 0
# Entries     : 659
# Betti number: 3
1	inf
1	394
1	394
1	394
1	394
1	394
1	394
1	11
1	9
1	394
1	7
1	7
1	394
1	394
1	13
1	394
1	7
1	11
1	394
1	394
1	7
1	7
1	394
1	12
1	394
1	394
1	6
1	394
1	394
1	394
1	394
1	394
1	27
1	9
1	394
1	17
1	394
1	394
1	30
1	394
1	394
1	6
1	5
1	12
1	9
1	394
1	394
1	17
1	12
1	6
1	394
1	394
1	13
1	7
1	7
1	394
1	394
1	12
1	19
1	inf
1	394
1	394
1	10
1	394
1	394
1	394
1	394
1	30
1	394
1	9
1	394
1	11
1	394
1	394
1	35
1	394
1	6
1	394
1	394
1	394
1	394
1	394
1	394
1	394
1	394
1	394
1	30
1	7
1	394
1	35
1	394
1	394
1	394
1	394
1	394
1	394
1	19
1	12
1	394
1	17
1	394
1	27
1	6
1	394
1	394
1	394
1	394
1	5
1	12
1	394
1	6
1	7
1	19
1	13
1	13
1	5
1	12
1	19
1	7
1	394
1	394
1	7
1	12
1	13
1	17
1	27
1	394
1	7
1	394
1	394
1	3
1	394
1	19
1	394
1	9
1	8
1	394
1	394
1	5
1	35
1	12
1	11
1	394
1	17
1	8
1	394
1	14
1	35
1	394
1	13
1	4
1	394
1	394
1	12
1	394
1	394
1	8
1	394
1	394
1	394
1	394
1	9
1	6
1	12
1	6
1	27
1	394
1	7
1	394
1	394
1	12
1	394
1	394
1	7
1	394
1	14
1	394
1	394
1	12
1	17
1	6
1	394
1	5
1	394
1	394
1	394
1	394
1	394
1	394
1	394
1	394
1	394
1	394
1	394
1	394
1	394
1	394
1	9
1	394
1	394
1	394
1	394
1	394
1	394
1	12
1	394
1	394
1	394
1	6
1	27
1	11
1	9
1	7
1	394
1	35
1	35
1	394
1	394
1	5
1	9
1	394
1	5
1	27
1	394
1	394
1	7
1	27
1	394
1	30
1	394
1	394
1	35
1	394
1	8
1	394
1	394
1	5
1	394
1	394
1	17
1	394
1	3
1	8
1	394
1	394
1	394
1	394
1	394
1	394
1	27
1	27
1	394
1	394
1	394
1	394
1	394
1	394
1	394
1	27
1	394
1	394
1	10
1	27
1	5
1	394
1	394
1	6
1	394
1	13
1	394
1	394
1	4
1	394
1	6
1	4
1	17
1	inf
1	394
1	30
1	394
1	394
1	394
1	394
1	394
1	394
1	4
1	394
1	35
1	8
1	394
1	394
1	394
1	394
1	394
1	394
1	394
1	394
1	19
1	394
1	13
1	394
1	27
1	394
1	394
1	394
1	394
1	394
1	17
1	3
1	394
1	394
1	5
1	4
1	394
1	394
1	394
1	12
1	394
1	6
1	6
1	7
1	19
1	394
1	27
1	394
1	394
1	394
1	394
1	394
1	19
1	394
1	394
1	394
1	394
1	10
1	35
1	9
1	30
1	394
1	394
1	4
1	394
1	394
1	9
1	9
1	12
1	394
1	394
1	5
1	394
1	9
1	12
1	12
1	394
1	5
1	394
1	5
1	394
1	394
1	394
1	4
1	6
1	394
1	394
1	14
1	10
1	394
1	9
1	394
1	27
1	12
1	394
1	7
1	394
1	11
1	394
1	394
1	394
1	394
1	27
1	13
1	394
1	394
1	394
1	19
1	10
1	394
1	394
1	6
1	394
1	3
1	5
1	394
1	394
1	394
1	394
1	394
1	5
1	8
1	394
1	394
1	394
1	9
1	394
1	394
1	6
1	12
1	394
1	394
1	394
1	12
1	394
1	394
1	394
1	394
1	5
1	10
1	5
1	35
1	5
1	9
1	394
1	394
1	27
1	8
1	13
1	394
1	394
1	394
1	394
1	8
1	394
1	35
1	394
1	17
1	394
1	394
1	11
1	7
1	6
1	394
1	394
1	7
1	11
1	12
1	394
1	394
1	7
1	6
1	394
1	8
1	394
1	394
1	394
1	394
1	394
1	394
1	394
1	8
1	5
1	394
1	394
1	394
1	394
1	30
1	35
1	394
1	394
1	5
1	394
1	394
1	394
1	6
1	6
1	7
1	6
1	394
1	394
1	27
1	394
1	5
1	394
1	9
1	394
1	8
1	394
1	394
1	35
1	394
1	12
1	4
1	12
1	17
1	394
1	394
1	394
1	394
1	394
1	17
1	394
1	394
1	7
1	27
1	35
1	19
1	8
1	4
1	394
1	394
1	5
1	394
1	394
1	394
1	6
1	6
1	394
1	7
1	35
1	35
1	394
1	11
1	394
1	17
1	5
1	394
1	394
1	35
1	394
1	394
1	394
1	394
1	8
1	394
1	394
1	394
1	19
1	19
1	394
1	14
1	394
1	35
1	5
1	394
1	5
1	12
1	35
1	394
1	30
1	394
1	4
1	394
1	8
1	394
1	7
1	27
1	14
1	394
1	3
1	394
1	17
1	394
1	394
1	19
1	5
1	394
1	394
1	394
1	4
1	394
1	394
1	394
1	394
1	13
1	17
1	7
1	4
1	394
1	6
1	9
1	35
1	394
1	394
1	5
1	35
1	394
1	394
1	394
2	4
2	394
2	13
2	3
2	30
2	6
2	19
2	4
2	6
2	30
2	3
2	4
2	10
2	6
2	13
2	5
2	9
2	4
2	8
2	11
2	7
2	7
2	3
2	13
2	30
2	6
2	4
2	12
2	17
2	3
2	5
2	11
2	30
2	8
2	30
2	4
2	5
2	4
2	12
2	30
2	3
2	13
2	17
2	3
2	3
2	4
2	4
2	6
2	5
2	3
2	3
2	3
2	4
2	5
2	30
2	4
2	30
2	30
2	11
2	5
2	27
3	13
3	4
3	4
3	4
3	5
3	4
3	4
3	13
3	6
3	4
3	6


