# Persistence diagram </home/jens/Uni/data_topology/Project/reddit_results/graphs/1071-1.gml>
#
# Dimension   : 1
# Entries     : 14
# Betti number: 14
4	inf
5	inf
153	inf
153	inf
153	inf
153	inf
153	inf
153	inf
153	inf
153	inf
153	inf
153	inf
153	inf
153	inf
