# Persistence diagram </home/jens/Uni/data_topology/Project/reddit_results/graphs/1072-1.gml>
#
# Dimension   : 0
# Entries     : 810
# Betti number: 4
1	inf
1	465
1	465
1	465
1	12
1	465
1	9
1	7
1	465
1	465
1	32
1	465
1	7
1	23
1	465
1	7
1	32
1	7
1	465
1	465
1	465
1	465
1	465
1	465
1	465
1	465
1	32
1	465
1	inf
1	465
1	465
1	7
1	465
1	7
1	7
1	9
1	465
1	465
1	10
1	23
1	11
1	465
1	465
1	7
1	8
1	465
1	14
1	465
1	7
1	465
1	22
1	465
1	6
1	465
1	8
1	14
1	12
1	465
1	14
1	10
1	11
1	15
1	465
1	7
1	13
1	465
1	465
1	465
1	6
1	465
1	465
1	465
1	9
1	465
1	465
1	14
1	465
1	465
1	465
1	465
1	7
1	11
1	7
1	32
1	7
1	5
1	465
1	9
1	5
1	22
1	5
1	7
1	5
1	7
1	465
1	7
1	465
1	7
1	7
1	10
1	4
1	13
1	23
1	465
1	465
1	465
1	465
1	9
1	7
1	465
1	465
1	465
1	4
1	465
1	7
1	12
1	32
1	32
1	465
1	22
1	5
1	10
1	6
1	22
1	6
1	7
1	5
1	465
1	465
1	5
1	465
1	7
1	22
1	465
1	10
1	14
1	7
1	6
1	32
1	10
1	465
1	465
1	7
1	15
1	7
1	465
1	465
1	11
1	465
1	465
1	7
1	9
1	14
1	465
1	6
1	465
1	465
1	13
1	10
1	10
1	465
1	465
1	465
1	465
1	465
1	12
1	465
1	465
1	465
1	465
1	465
1	22
1	465
1	7
1	465
1	465
1	6
1	23
1	13
1	14
1	14
1	465
1	9
1	5
1	7
1	9
1	465
1	465
1	465
1	5
1	465
1	12
1	465
1	5
1	12
1	465
1	465
1	23
1	22
1	5
1	465
1	12
1	465
1	465
1	465
1	465
1	5
1	19
1	465
1	465
1	5
1	7
1	465
1	7
1	465
1	7
1	465
1	465
1	465
1	5
1	7
1	465
1	6
1	6
1	15
1	22
1	465
1	23
1	465
1	465
1	465
1	4
1	465
1	15
1	465
1	465
1	7
1	10
1	3
1	10
1	465
1	13
1	6
1	465
1	465
1	6
1	465
1	465
1	465
1	13
1	15
1	22
1	465
1	19
1	4
1	4
1	inf
1	465
1	465
1	465
1	465
1	465
1	5
1	465
1	465
1	9
1	12
1	465
1	465
1	15
1	465
1	3
1	3
1	465
1	465
1	465
1	465
1	7
1	465
1	32
1	10
1	4
1	7
1	465
1	4
1	9
1	465
1	5
1	465
1	465
1	465
1	465
1	23
1	3
1	4
1	5
1	465
1	7
1	465
1	6
1	10
1	5
1	465
1	465
1	465
1	8
1	465
1	13
1	465
1	465
1	465
1	465
1	5
1	465
1	7
1	465
1	15
1	465
1	3
1	465
1	32
1	5
1	7
1	11
1	465
1	6
1	465
1	465
1	465
1	9
1	7
1	19
1	23
1	19
1	7
1	465
1	5
1	10
1	5
1	23
1	465
1	32
1	465
1	465
1	22
1	5
1	465
1	6
1	7
1	6
1	465
1	inf
1	465
1	10
1	4
1	465
1	465
1	8
1	9
1	465
1	13
1	465
1	465
1	6
1	22
1	465
1	9
1	465
1	465
1	465
1	5
1	465
1	4
1	9
1	6
1	13
1	7
1	465
1	465
1	465
1	465
1	32
1	465
1	465
1	465
1	9
1	5
1	4
1	465
1	465
1	465
1	9
1	465
1	465
1	465
1	7
1	465
1	465
1	465
1	14
1	465
1	32
1	465
1	8
1	465
1	465
1	465
1	465
1	11
1	15
1	465
1	465
1	465
1	465
1	4
1	5
1	465
1	10
1	15
1	465
1	11
1	465
1	465
1	4
1	465
1	11
1	465
1	9
1	465
1	32
1	6
1	6
1	465
1	465
1	5
1	13
1	465
1	465
1	5
1	5
1	4
1	13
1	7
1	465
1	5
1	465
1	3
1	465
1	465
1	465
1	465
1	465
1	19
1	6
1	465
1	10
1	465
1	465
1	12
1	465
1	23
1	4
1	12
1	465
1	14
1	14
1	6
1	7
1	10
1	4
1	465
1	465
1	5
1	465
1	465
1	7
1	465
1	465
1	23
1	9
1	13
1	465
1	465
1	465
1	4
1	465
1	5
1	13
1	3
1	465
1	465
1	465
1	5
1	6
1	465
1	8
1	5
1	32
1	7
1	7
1	9
1	10
1	19
1	32
1	32
1	4
1	465
1	465
1	465
1	3
1	12
1	6
1	23
1	465
1	12
1	465
1	10
1	32
1	6
1	23
1	465
1	465
1	10
1	13
1	13
1	14
1	6
1	465
1	32
1	14
1	465
1	13
1	465
1	3
1	465
1	465
1	7
1	6
1	3
1	10
1	465
1	7
1	3
1	465
1	465
1	6
1	465
1	465
1	32
1	465
1	11
1	465
1	32
1	465
1	32
1	13
1	7
1	3
1	6
1	465
1	23
1	5
1	10
1	7
1	465
1	465
1	9
1	6
1	4
1	465
1	7
1	465
1	465
1	4
1	465
1	12
1	465
1	12
1	15
1	465
1	465
1	3
1	465
1	23
1	12
1	10
1	6
1	465
1	465
1	465
1	9
1	6
1	4
1	4
1	3
1	465
1	465
1	465
1	465
1	9
1	6
1	465
1	32
1	465
1	6
1	465
1	465
1	465
1	465
1	4
1	6
1	3
1	9
1	7
1	465
1	5
1	465
1	465
1	32
1	22
1	19
1	465
1	465
1	10
1	5
1	32
1	465
1	10
1	7
1	7
1	3
1	465
1	13
1	23
1	465
1	19
1	6
1	10
1	465
1	14
1	10
1	465
1	465
1	5
1	5
1	465
1	465
1	465
1	13
1	19
1	5
1	465
1	9
1	6
1	465
1	465
1	4
1	7
1	23
1	14
1	465
1	465
1	5
1	32
1	465
1	465
1	13
1	465
1	465
1	465
1	9
1	465
1	465
2	3
2	7
2	4
2	13
2	6
2	3
2	3
2	7
2	5
2	5
2	13
2	5
2	3
2	4
2	5
2	5
2	465
2	4
2	4
2	13
2	5
2	5
2	465
2	3
2	3
2	5
2	8
2	7
2	5
2	4
2	5
2	4
2	465
2	3
2	6
2	9
2	12
2	5
2	465
2	10
2	4
2	7
2	5
2	19
2	5
2	9
2	4
2	7
2	10
2	23
2	23
2	4
2	15
2	9
2	4
2	5
2	7
2	4
2	4
2	6
2	23
2	4
2	465
2	23
2	4
2	3
2	4
2	7
2	5
2	3
2	3
2	6
2	7
2	6
2	5
2	7
2	7
2	15
2	4
2	5
2	7
2	12
2	23
2	4
2	23
2	4
2	3
2	13
2	23
2	5
2	5
2	3
2	5
2	10
2	4
2	5
2	14
2	4
2	6
2	4
2	15
2	23
2	5
2	5
2	6
2	4
2	4
2	5
2	3
2	23
2	6
2	13
2	11
2	3
2	3
2	7
2	3
2	9
2	8
3	4
3	9
3	7
3	5
3	4
3	5
3	10
3	6
3	5
3	4
3	7
3	8
3	12
3	4
3	5
3	6
4	6
4	5


