# Persistence diagram </home/jens/Uni/data_topology/Project/reddit_results/graphs/1084-1.gml>
#
# Dimension   : 0
# Entries     : 869
# Betti number: 7
1	inf
1	554
1	11
1	554
1	554
1	554
1	20
1	554
1	9
1	13
1	9
1	9
1	554
1	554
1	554
1	554
1	10
1	554
1	8
1	554
1	10
1	554
1	554
1	18
1	554
1	7
1	554
1	15
1	554
1	554
1	554
1	10
1	7
1	554
1	554
1	554
1	9
1	7
1	15
1	8
1	6
1	554
1	554
1	554
1	8
1	554
1	554
1	554
1	554
1	10
1	554
1	554
1	554
1	554
1	554
1	554
1	554
1	6
1	554
1	554
1	18
1	554
1	554
1	6
1	6
1	21
1	554
1	8
1	554
1	554
1	7
1	9
1	10
1	554
1	554
1	15
1	15
1	9
1	14
1	13
1	19
1	554
1	12
1	554
1	554
1	4
1	554
1	554
1	7
1	554
1	6
1	554
1	554
1	7
1	18
1	19
1	554
1	21
1	554
1	554
1	8
1	inf
1	6
1	9
1	14
1	554
1	554
1	554
1	554
1	9
1	4
1	20
1	554
1	554
1	554
1	7
1	21
1	7
1	8
1	18
1	554
1	6
1	13
1	554
1	554
1	6
1	554
1	554
1	14
1	25
1	554
1	554
1	6
1	21
1	554
1	554
1	554
1	554
1	15
1	554
1	8
1	554
1	554
1	554
1	554
1	4
1	19
1	15
1	554
1	6
1	12
1	11
1	554
1	6
1	554
1	554
1	6
1	5
1	554
1	554
1	10
1	554
1	554
1	20
1	15
1	554
1	554
1	554
1	5
1	10
1	18
1	554
1	6
1	554
1	18
1	554
1	6
1	554
1	20
1	5
1	6
1	554
1	554
1	6
1	554
1	554
1	554
1	14
1	554
1	554
1	5
1	554
1	20
1	15
1	10
1	554
1	554
1	554
1	554
1	554
1	554
1	12
1	554
1	9
1	6
1	554
1	554
1	554
1	554
1	554
1	554
1	554
1	7
1	6
1	554
1	554
1	10
1	4
1	10
1	554
1	18
1	554
1	6
1	554
1	9
1	7
1	554
1	6
1	554
1	554
1	20
1	554
1	554
1	554
1	554
1	3
1	5
1	554
1	554
1	554
1	554
1	554
1	9
1	5
1	554
1	554
1	554
1	18
1	20
1	20
1	554
1	554
1	554
1	554
1	17
1	5
1	17
1	554
1	554
1	554
1	7
1	554
1	21
1	554
1	inf
1	554
1	554
1	554
1	554
1	20
1	554
1	15
1	554
1	554
1	554
1	554
1	20
1	554
1	554
1	554
1	4
1	554
1	554
1	554
1	9
1	5
1	554
1	8
1	554
1	554
1	19
1	554
1	6
1	9
1	554
1	554
1	554
1	554
1	554
1	554
1	554
1	554
1	554
1	554
1	554
1	9
1	554
1	554
1	554
1	554
1	554
1	7
1	11
1	554
1	5
1	5
1	554
1	554
1	554
1	554
1	554
1	554
1	554
1	554
1	554
1	554
1	554
1	15
1	6
1	inf
1	4
1	554
1	554
1	9
1	4
1	554
1	4
1	6
1	15
1	6
1	554
1	554
1	554
1	554
1	554
1	8
1	554
1	554
1	554
1	6
1	5
1	554
1	554
1	554
1	554
1	9
1	554
1	554
1	554
1	554
1	554
1	554
1	14
1	17
1	9
1	554
1	554
1	15
1	4
1	554
1	554
1	554
1	554
1	554
1	554
1	554
1	6
1	554
1	554
1	20
1	4
1	554
1	6
1	554
1	18
1	554
1	554
1	554
1	554
1	554
1	9
1	554
1	5
1	554
1	554
1	554
1	554
1	4
1	15
1	554
1	554
1	554
1	554
1	9
1	554
1	554
1	10
1	5
1	554
1	18
1	20
1	554
1	15
1	554
1	6
1	554
1	5
1	554
1	13
1	9
1	554
1	554
1	554
1	554
1	554
1	554
1	7
1	554
1	554
1	554
1	554
1	554
1	10
1	554
1	554
1	15
1	554
1	19
1	21
1	554
1	4
1	554
1	554
1	554
1	554
1	554
1	554
1	18
1	554
1	5
1	554
1	554
1	5
1	15
1	554
1	4
1	19
1	554
1	554
1	3
1	6
1	13
1	554
1	554
1	554
1	554
1	554
1	554
1	18
1	554
1	9
1	8
1	21
1	5
1	554
1	14
1	10
1	554
1	554
1	554
1	554
1	554
1	554
1	4
1	554
1	554
1	554
1	554
1	554
1	554
1	554
1	13
1	554
1	15
1	5
1	554
1	4
1	6
1	13
1	554
1	554
1	554
1	554
1	20
1	554
1	17
1	21
1	9
1	5
1	15
1	554
1	554
1	12
1	554
1	554
1	554
1	3
1	554
1	5
1	554
1	7
1	12
1	554
1	554
1	15
1	554
1	4
1	9
1	5
1	554
1	5
1	554
1	554
1	554
1	554
1	554
1	554
1	554
1	5
1	554
1	14
1	554
1	554
1	554
1	8
1	20
1	3
1	554
1	554
1	3
1	554
1	554
1	554
1	554
1	554
1	11
1	5
1	6
1	554
1	554
1	554
1	17
1	4
1	8
1	8
1	554
1	20
1	8
1	554
1	554
1	554
1	554
1	554
1	554
1	554
1	12
1	inf
1	6
1	554
1	554
1	554
1	554
1	554
1	8
1	554
1	5
1	7
1	554
1	5
1	554
1	9
1	554
1	inf
1	554
1	554
1	9
1	554
1	15
1	4
1	3
1	18
1	554
1	554
1	14
1	8
1	9
1	6
1	4
1	554
1	554
1	21
1	554
1	554
1	554
1	554
1	554
1	554
1	14
1	554
1	554
1	inf
1	3
1	554
1	554
1	554
1	554
1	554
1	554
1	15
1	8
1	6
1	12
1	554
1	7
1	15
1	6
1	554
1	554
1	7
1	7
1	19
1	8
1	554
1	554
1	6
1	15
1	7
1	20
1	554
1	6
1	554
1	554
1	7
1	20
1	554
1	3
1	554
1	18
1	554
1	6
1	554
1	554
1	7
1	554
1	554
1	4
1	554
1	20
1	554
1	554
1	554
1	4
1	20
1	12
1	554
1	554
1	15
1	12
1	18
1	14
1	554
1	554
1	554
1	554
1	554
1	554
1	5
1	554
1	554
1	6
1	7
1	554
1	5
1	554
1	554
1	554
1	554
1	554
1	554
1	554
1	554
1	554
1	554
1	554
1	554
1	7
1	554
1	554
1	554
1	554
1	10
1	6
1	554
1	3
1	9
1	554
1	5
1	554
1	554
1	554
1	18
1	554
1	6
1	554
1	554
1	9
1	554
1	554
1	554
1	554
1	554
1	554
1	5
1	6
1	554
1	6
1	13
1	554
1	554
1	554
1	7
1	10
1	554
1	554
1	554
1	554
1	7
1	554
1	554
2	3
2	5
2	9
2	6
2	6
2	6
2	4
2	10
2	6
2	6
2	7
2	6
2	4
2	7
2	11
2	5
2	6
2	4
2	5
2	5
2	4
2	554
2	554
2	6
2	4
2	17
2	4
2	4
2	7
2	5
2	6
2	3
2	4
2	4
2	5
2	3
2	20
2	5
2	3
2	14
2	4
2	7
2	19
2	4
2	11
2	5
2	9
2	554
2	3
2	3
2	5
2	12
2	4
2	5
2	19
2	3
2	15
2	554
2	5
2	5
2	20
2	4
2	4
2	7
2	15
2	4
2	5
2	4
2	7
2	6
2	4
2	10
2	5
2	4
2	13
2	7
2	6
2	3
2	3
2	6
2	18
2	3
2	4
2	3
2	5
2	3
2	5
2	3
2	3
2	8
2	5
2	4
2	3
2	25
2	3
2	3
2	4
2	6
2	4
3	7
3	4
3	4
3	4
3	8
3	7
3	6
3	7
3	6
3	4
3	6
3	5
3	4
3	12
3	5
3	4
3	4
3	5
3	6
3	14
4	5


