# Persistence diagram </home/jens/Uni/data_topology/Project/reddit_results/graphs/1085-1.gml>
#
# Dimension   : 0
# Entries     : 811
# Betti number: 4
1	inf
1	588
1	588
1	588
1	588
1	588
1	588
1	588
1	588
1	588
1	9
1	588
1	20
1	588
1	588
1	18
1	10
1	588
1	588
1	588
1	7
1	588
1	588
1	11
1	588
1	12
1	588
1	588
1	588
1	588
1	588
1	588
1	7
1	inf
1	588
1	588
1	588
1	588
1	10
1	588
1	588
1	588
1	588
1	12
1	588
1	588
1	22
1	13
1	7
1	588
1	588
1	588
1	588
1	18
1	10
1	7
1	588
1	4
1	588
1	8
1	588
1	12
1	20
1	588
1	21
1	20
1	588
1	13
1	9
1	588
1	588
1	588
1	6
1	588
1	588
1	11
1	588
1	588
1	588
1	10
1	588
1	588
1	588
1	7
1	588
1	588
1	22
1	588
1	588
1	588
1	588
1	20
1	588
1	22
1	588
1	9
1	588
1	10
1	6
1	588
1	588
1	6
1	588
1	588
1	588
1	588
1	12
1	21
1	7
1	588
1	11
1	588
1	588
1	588
1	588
1	588
1	7
1	588
1	588
1	588
1	588
1	8
1	6
1	588
1	6
1	10
1	588
1	588
1	588
1	588
1	588
1	588
1	588
1	588
1	588
1	588
1	10
1	7
1	18
1	588
1	588
1	588
1	588
1	588
1	588
1	588
1	8
1	588
1	588
1	6
1	588
1	588
1	588
1	588
1	588
1	588
1	588
1	588
1	588
1	10
1	8
1	588
1	21
1	588
1	588
1	10
1	588
1	588
1	588
1	588
1	588
1	588
1	588
1	588
1	7
1	588
1	inf
1	588
1	588
1	9
1	5
1	588
1	588
1	588
1	588
1	588
1	10
1	588
1	14
1	588
1	588
1	6
1	5
1	588
1	588
1	7
1	588
1	13
1	588
1	12
1	588
1	5
1	588
1	588
1	5
1	588
1	10
1	588
1	588
1	16
1	588
1	588
1	588
1	588
1	588
1	inf
1	588
1	588
1	7
1	8
1	588
1	588
1	10
1	588
1	11
1	8
1	7
1	588
1	588
1	588
1	7
1	588
1	588
1	588
1	588
1	588
1	588
1	588
1	588
1	9
1	588
1	588
1	588
1	12
1	588
1	588
1	588
1	588
1	588
1	11
1	8
1	588
1	6
1	5
1	7
1	588
1	5
1	588
1	588
1	588
1	588
1	588
1	588
1	588
1	588
1	21
1	7
1	588
1	588
1	588
1	13
1	588
1	10
1	7
1	588
1	588
1	588
1	8
1	588
1	588
1	11
1	588
1	588
1	588
1	5
1	588
1	588
1	10
1	588
1	588
1	588
1	5
1	588
1	588
1	588
1	588
1	588
1	588
1	588
1	7
1	588
1	22
1	588
1	6
1	7
1	588
1	2
1	588
1	588
1	588
1	588
1	588
1	8
1	588
1	588
1	18
1	588
1	588
1	588
1	588
1	588
1	10
1	10
1	588
1	4
1	588
1	588
1	588
1	588
1	588
1	588
1	6
1	588
1	588
1	588
1	588
1	588
1	10
1	588
1	588
1	588
1	10
1	588
1	588
1	588
1	588
1	588
1	11
1	6
1	588
1	10
1	588
1	588
1	588
1	6
1	7
1	4
1	5
1	588
1	10
1	588
1	6
1	588
1	588
1	22
1	5
1	588
1	588
1	3
1	588
1	588
1	588
1	588
1	21
1	10
1	588
1	4
1	18
1	588
1	588
1	588
1	20
1	588
1	8
1	588
1	5
1	588
1	16
1	588
1	588
1	588
1	588
1	588
1	6
1	588
1	588
1	12
1	5
1	588
1	588
1	588
1	588
1	588
1	588
1	588
1	588
1	588
1	588
1	588
1	588
1	588
1	588
1	6
1	588
1	4
1	588
1	588
1	9
1	588
1	588
1	588
1	588
1	7
1	588
1	588
1	588
1	10
1	588
1	6
1	7
1	3
1	588
1	588
1	6
1	588
1	588
1	588
1	588
1	588
1	588
1	588
1	588
1	588
1	8
1	10
1	588
1	588
1	588
1	588
1	588
1	588
1	588
1	5
1	7
1	21
1	7
1	588
1	588
1	588
1	7
1	588
1	588
1	588
1	13
1	5
1	588
1	10
1	588
1	22
1	588
1	20
1	588
1	588
1	22
1	588
1	588
1	588
1	588
1	588
1	588
1	588
1	588
1	6
1	7
1	5
1	5
1	588
1	4
1	11
1	588
1	6
1	9
1	18
1	588
1	588
1	588
1	8
1	3
1	18
1	5
1	10
1	588
1	5
1	588
1	588
1	588
1	5
1	588
1	3
1	20
1	10
1	588
1	7
1	588
1	588
1	588
1	588
1	588
1	588
1	588
1	22
1	7
1	588
1	588
1	588
1	588
1	588
1	588
1	18
1	588
1	588
1	588
1	3
1	588
1	588
1	5
1	588
1	588
1	9
1	5
1	588
1	588
1	588
1	588
1	588
1	588
1	588
1	588
1	22
1	588
1	588
1	18
1	588
1	588
1	588
1	588
1	5
1	588
1	588
1	10
1	6
1	588
1	588
1	7
1	6
1	588
1	6
1	6
1	588
1	588
1	588
1	588
1	6
1	6
1	11
1	588
1	588
1	588
1	22
1	588
1	22
1	588
1	588
1	588
1	14
1	588
1	14
1	588
1	588
1	588
1	588
1	8
1	7
1	588
1	588
1	588
1	588
1	588
1	7
1	588
1	588
1	588
1	588
1	588
1	588
1	5
1	5
1	588
1	10
1	6
1	588
1	4
1	4
1	588
1	588
1	8
1	11
1	588
1	6
1	588
1	588
1	18
1	6
1	18
1	588
1	588
1	6
1	588
1	588
1	588
1	588
1	9
1	588
1	588
1	5
1	7
1	588
1	10
1	588
1	588
1	588
1	588
1	6
1	588
1	588
1	588
1	588
1	11
1	588
1	588
1	588
1	8
1	588
1	588
1	588
1	588
1	588
1	588
1	588
1	588
1	588
1	13
1	5
1	4
1	588
1	7
1	588
1	588
1	588
1	588
1	7
1	20
1	588
1	588
1	588
1	588
1	11
1	588
1	588
1	588
1	4
1	588
1	588
1	588
1	588
1	6
1	588
1	588
1	588
1	588
1	13
1	588
1	6
1	3
1	588
1	588
1	588
1	588
1	588
1	588
1	588
1	588
1	588
1	588
1	588
1	588
1	588
1	588
1	588
1	588
1	588
1	588
1	16
1	6
1	588
1	588
1	10
1	588
1	22
1	588
1	20
1	588
1	6
1	5
1	588
1	588
1	588
1	588
1	10
2	588
2	7
2	10
2	4
2	6
2	4
2	10
2	7
2	6
2	7
2	3
2	5
2	5
2	10
2	5
2	20
2	8
2	11
2	5
2	7
2	14
2	7
2	5
2	4
2	5
2	12
2	4
2	12
2	10
2	4
2	3
2	3
2	12
2	3
2	6
2	14
2	3
2	7
2	4
2	3
2	588
2	9
2	6
2	11
2	3
2	6
2	20
2	14
2	14
2	10
2	7
2	5
2	5
2	5
2	5
2	20
2	5
2	16
2	4
2	7
2	9
2	4
2	5
2	6
2	6
2	14
2	6
2	3
2	16
3	7
3	5
3	5
3	7
3	7
3	18
3	10
3	6
3	5
3	4
3	4
3	7
4	5


