# Persistence diagram </home/jens/Uni/data_topology/Project/reddit_results/graphs/1096-1.gml>
#
# Dimension   : 1
# Entries     : 69
# Betti number: 69
3	inf
6	inf
6	inf
7	inf
10	inf
21	inf
21	inf
21	inf
21	inf
21	inf
439	inf
439	inf
439	inf
439	inf
439	inf
439	inf
439	inf
439	inf
439	inf
439	inf
439	inf
439	inf
439	inf
439	inf
439	inf
439	inf
439	inf
439	inf
439	inf
439	inf
439	inf
439	inf
439	inf
439	inf
439	inf
439	inf
439	inf
439	inf
439	inf
439	inf
439	inf
439	inf
439	inf
439	inf
439	inf
439	inf
439	inf
439	inf
439	inf
439	inf
439	inf
439	inf
439	inf
439	inf
439	inf
439	inf
439	inf
439	inf
439	inf
439	inf
439	inf
439	inf
439	inf
439	inf
439	inf
439	inf
439	inf
439	inf
439	inf
