# Persistence diagram </home/jens/Uni/data_topology/Project/reddit_results/graphs/1096-1.gml>
#
# Dimension   : 0
# Entries     : 562
# Betti number: 3
1	inf
1	439
1	439
1	439
1	439
1	439
1	439
1	439
1	439
1	10
1	439
1	439
1	439
1	439
1	439
1	439
1	439
1	439
1	439
1	8
1	439
1	10
1	439
1	21
1	439
1	439
1	439
1	439
1	439
1	439
1	439
1	6
1	439
1	7
1	439
1	439
1	4
1	439
1	439
1	439
1	439
1	439
1	439
1	439
1	21
1	439
1	439
1	439
1	439
1	439
1	439
1	6
1	7
1	439
1	439
1	439
1	439
1	439
1	7
1	439
1	10
1	9
1	439
1	439
1	439
1	439
1	439
1	10
1	439
1	439
1	9
1	439
1	439
1	439
1	9
1	439
1	439
1	439
1	439
1	10
1	439
1	9
1	7
1	439
1	10
1	8
1	439
1	439
1	439
1	439
1	439
1	439
1	10
1	439
1	439
1	6
1	439
1	7
1	439
1	8
1	439
1	439
1	7
1	439
1	439
1	7
1	439
1	6
1	21
1	439
1	439
1	7
1	439
1	10
1	439
1	8
1	439
1	439
1	439
1	439
1	439
1	439
1	439
1	439
1	439
1	439
1	21
1	439
1	6
1	439
1	10
1	439
1	10
1	439
1	439
1	439
1	439
1	6
1	439
1	439
1	439
1	439
1	439
1	439
1	439
1	10
1	9
1	8
1	439
1	439
1	439
1	439
1	439
1	439
1	439
1	439
1	439
1	10
1	439
1	439
1	439
1	9
1	439
1	439
1	439
1	439
1	439
1	439
1	439
1	439
1	10
1	439
1	3
1	6
1	439
1	5
1	4
1	439
1	439
1	439
1	439
1	439
1	439
1	3
1	439
1	439
1	439
1	439
1	439
1	439
1	21
1	inf
1	439
1	7
1	439
1	439
1	439
1	439
1	8
1	439
1	inf
1	439
1	439
1	6
1	8
1	439
1	21
1	10
1	439
1	439
1	439
1	439
1	439
1	439
1	439
1	439
1	7
1	439
1	439
1	439
1	3
1	439
1	439
1	9
1	439
1	439
1	4
1	439
1	10
1	439
1	5
1	439
1	439
1	439
1	439
1	8
1	439
1	439
1	439
1	439
1	7
1	439
1	439
1	7
1	439
1	4
1	439
1	439
1	439
1	439
1	6
1	439
1	439
1	439
1	439
1	439
1	439
1	439
1	439
1	439
1	439
1	439
1	9
1	439
1	7
1	4
1	439
1	7
1	439
1	9
1	439
1	439
1	439
1	10
1	439
1	439
1	6
1	6
1	439
1	6
1	439
1	439
1	439
1	439
1	7
1	439
1	439
1	21
1	10
1	439
1	439
1	439
1	439
1	439
1	10
1	439
1	439
1	7
1	439
1	3
1	10
1	7
1	439
1	439
1	6
1	10
1	7
1	4
1	7
1	439
1	439
1	21
1	439
1	439
1	439
1	439
1	439
1	439
1	5
1	439
1	10
1	439
1	439
1	439
1	439
1	439
1	439
1	439
1	439
1	439
1	439
1	439
1	439
1	439
1	439
1	9
1	3
1	8
1	439
1	439
1	10
1	439
1	439
1	439
1	439
1	439
1	10
1	3
1	439
1	439
1	8
1	439
1	439
1	4
1	439
1	439
1	439
1	439
1	439
1	439
1	439
1	439
1	439
1	439
1	439
1	439
1	439
1	439
1	439
1	439
1	439
1	439
1	439
1	439
1	8
1	439
1	439
1	439
1	439
1	439
1	439
1	439
1	21
1	439
1	439
1	439
1	439
1	439
1	439
1	439
1	439
1	6
1	439
1	8
1	21
1	439
1	439
1	439
1	439
1	439
1	9
1	439
1	439
1	439
1	7
1	439
1	439
1	439
1	439
1	4
1	439
1	439
1	10
1	439
1	439
1	439
1	439
1	8
1	21
1	21
1	439
1	439
1	439
1	439
1	439
1	439
1	439
1	439
1	10
1	6
1	439
1	439
1	10
1	4
1	439
1	439
1	439
1	439
1	439
1	439
1	3
1	439
1	7
1	439
1	7
1	439
1	439
1	6
1	439
1	10
1	439
1	439
1	439
1	10
1	439
1	439
1	6
1	439
1	6
1	4
1	7
1	439
1	7
1	439
1	439
1	3
1	10
1	8
1	8
1	439
1	439
1	7
1	3
1	439
1	439
1	439
1	439
1	439
1	439
1	439
1	439
1	10
1	9
1	21
1	439
1	439
1	439
1	439
1	439
1	439
1	439
1	439
1	439
1	439
1	439
1	4
1	439
1	21
1	439
1	439
1	439
1	439
1	439
1	439
1	439
1	439
1	7
1	439
1	439
1	439
1	439
1	439
1	439
1	439
1	7
1	439
2	439
2	4
2	3
2	3
2	6
2	4
2	4
2	4
2	439
2	3
2	5
2	8
2	439
2	439
2	7
2	3
2	6
2	439
2	3
2	7
2	7
2	3
2	9
2	5
2	3
2	4
2	4
2	4
2	4
2	6
2	9
2	4
2	4
2	3
2	4
2	6
2	8
2	6
2	4
2	4
2	4
2	3
2	10
2	7
2	9
3	4


