# Persistence diagram </home/jens/Uni/data_topology/Project/reddit_results/graphs/1103-1.gml>
#
# Dimension   : 1
# Entries     : 180
# Betti number: 180
3	inf
4	inf
4	inf
6	inf
6	inf
7	inf
8	inf
9	inf
9	inf
10	inf
14	inf
14	inf
14	inf
14	inf
15	inf
15	inf
15	inf
17	inf
17	inf
17	inf
17	inf
17	inf
17	inf
17	inf
19	inf
19	inf
19	inf
19	inf
25	inf
25	inf
25	inf
25	inf
25	inf
25	inf
32	inf
32	inf
32	inf
32	inf
32	inf
32	inf
32	inf
1391	inf
1391	inf
1391	inf
1391	inf
1391	inf
1391	inf
1391	inf
1391	inf
1391	inf
1391	inf
1391	inf
1391	inf
1391	inf
1391	inf
1391	inf
1391	inf
1391	inf
1391	inf
1391	inf
1391	inf
1391	inf
1391	inf
1391	inf
1391	inf
1391	inf
1391	inf
1391	inf
1391	inf
1391	inf
1391	inf
1391	inf
1391	inf
1391	inf
1391	inf
1391	inf
1391	inf
1391	inf
1391	inf
1391	inf
1391	inf
1391	inf
1391	inf
1391	inf
1391	inf
1391	inf
1391	inf
1391	inf
1391	inf
1391	inf
1391	inf
1391	inf
1391	inf
1391	inf
1391	inf
1391	inf
1391	inf
1391	inf
1391	inf
1391	inf
1391	inf
1391	inf
1391	inf
1391	inf
1391	inf
1391	inf
1391	inf
1391	inf
1391	inf
1391	inf
1391	inf
1391	inf
1391	inf
1391	inf
1391	inf
1391	inf
1391	inf
1391	inf
1391	inf
1391	inf
1391	inf
1391	inf
1391	inf
1391	inf
1391	inf
1391	inf
1391	inf
1391	inf
1391	inf
1391	inf
1391	inf
1391	inf
1391	inf
1391	inf
1391	inf
1391	inf
1391	inf
1391	inf
1391	inf
1391	inf
1391	inf
1391	inf
1391	inf
1391	inf
1391	inf
1391	inf
1391	inf
1391	inf
1391	inf
1391	inf
1391	inf
1391	inf
1391	inf
1391	inf
1391	inf
1391	inf
1391	inf
1391	inf
1391	inf
1391	inf
1391	inf
1391	inf
1391	inf
1391	inf
1391	inf
1391	inf
1391	inf
1391	inf
1391	inf
1391	inf
1391	inf
1391	inf
1391	inf
1391	inf
1391	inf
1391	inf
1391	inf
1391	inf
1391	inf
1391	inf
