# Persistence diagram </home/jens/Uni/data_topology/Project/reddit_results/graphs/1108-1.gml>
#
# Dimension   : 1
# Entries     : 89
# Betti number: 89
3	inf
6	inf
7	inf
7	inf
7	inf
8	inf
9	inf
10	inf
10	inf
10	inf
991	inf
991	inf
991	inf
991	inf
991	inf
991	inf
991	inf
991	inf
991	inf
991	inf
991	inf
991	inf
991	inf
991	inf
991	inf
991	inf
991	inf
991	inf
991	inf
991	inf
991	inf
991	inf
991	inf
991	inf
991	inf
991	inf
991	inf
991	inf
991	inf
991	inf
991	inf
991	inf
991	inf
991	inf
991	inf
991	inf
991	inf
991	inf
991	inf
991	inf
991	inf
991	inf
991	inf
991	inf
991	inf
991	inf
991	inf
991	inf
991	inf
991	inf
991	inf
991	inf
991	inf
991	inf
991	inf
991	inf
991	inf
991	inf
991	inf
991	inf
991	inf
991	inf
991	inf
991	inf
991	inf
991	inf
991	inf
991	inf
991	inf
991	inf
991	inf
991	inf
991	inf
991	inf
991	inf
991	inf
991	inf
991	inf
991	inf
