# Persistence diagram </home/jens/Uni/data_topology/Project/reddit_results/graphs/1109-1.gml>
#
# Dimension   : 1
# Entries     : 10
# Betti number: 10
100	inf
100	inf
100	inf
100	inf
100	inf
100	inf
100	inf
100	inf
100	inf
100	inf
