# Persistence diagram </home/jens/Uni/data_topology/Project/reddit_results/graphs/1116-1.gml>
#
# Dimension   : 1
# Entries     : 236
# Betti number: 236
4	inf
4	inf
5	inf
5	inf
5	inf
6	inf
7	inf
8	inf
8	inf
9	inf
9	inf
9	inf
10	inf
10	inf
11	inf
11	inf
11	inf
11	inf
11	inf
11	inf
11	inf
11	inf
11	inf
13	inf
13	inf
13	inf
13	inf
13	inf
13	inf
13	inf
13	inf
13	inf
15	inf
15	inf
15	inf
15	inf
15	inf
15	inf
15	inf
15	inf
16	inf
16	inf
16	inf
16	inf
16	inf
16	inf
16	inf
16	inf
16	inf
20	inf
20	inf
20	inf
20	inf
24	inf
24	inf
24	inf
24	inf
24	inf
24	inf
24	inf
24	inf
24	inf
24	inf
24	inf
24	inf
29	inf
29	inf
29	inf
29	inf
29	inf
29	inf
29	inf
29	inf
29	inf
49	inf
49	inf
49	inf
49	inf
49	inf
49	inf
49	inf
49	inf
49	inf
49	inf
49	inf
49	inf
2271	inf
2271	inf
2271	inf
2271	inf
2271	inf
2271	inf
2271	inf
2271	inf
2271	inf
2271	inf
2271	inf
2271	inf
2271	inf
2271	inf
2271	inf
2271	inf
2271	inf
2271	inf
2271	inf
2271	inf
2271	inf
2271	inf
2271	inf
2271	inf
2271	inf
2271	inf
2271	inf
2271	inf
2271	inf
2271	inf
2271	inf
2271	inf
2271	inf
2271	inf
2271	inf
2271	inf
2271	inf
2271	inf
2271	inf
2271	inf
2271	inf
2271	inf
2271	inf
2271	inf
2271	inf
2271	inf
2271	inf
2271	inf
2271	inf
2271	inf
2271	inf
2271	inf
2271	inf
2271	inf
2271	inf
2271	inf
2271	inf
2271	inf
2271	inf
2271	inf
2271	inf
2271	inf
2271	inf
2271	inf
2271	inf
2271	inf
2271	inf
2271	inf
2271	inf
2271	inf
2271	inf
2271	inf
2271	inf
2271	inf
2271	inf
2271	inf
2271	inf
2271	inf
2271	inf
2271	inf
2271	inf
2271	inf
2271	inf
2271	inf
2271	inf
2271	inf
2271	inf
2271	inf
2271	inf
2271	inf
2271	inf
2271	inf
2271	inf
2271	inf
2271	inf
2271	inf
2271	inf
2271	inf
2271	inf
2271	inf
2271	inf
2271	inf
2271	inf
2271	inf
2271	inf
2271	inf
2271	inf
2271	inf
2271	inf
2271	inf
2271	inf
2271	inf
2271	inf
2271	inf
2271	inf
2271	inf
2271	inf
2271	inf
2271	inf
2271	inf
2271	inf
2271	inf
2271	inf
2271	inf
2271	inf
2271	inf
2271	inf
2271	inf
2271	inf
2271	inf
2271	inf
2271	inf
2271	inf
2271	inf
2271	inf
2271	inf
2271	inf
2271	inf
2271	inf
2271	inf
2271	inf
2271	inf
2271	inf
2271	inf
2271	inf
2271	inf
2271	inf
2271	inf
2271	inf
2271	inf
