# Persistence diagram </home/jens/Uni/data_topology/Project/reddit_results/graphs/1126-1.gml>
#
# Dimension   : 0
# Entries     : 406
# Betti number: 1
1	inf
1	294
1	294
1	10
1	294
1	294
1	294
1	294
1	294
1	294
1	10
1	294
1	294
1	294
1	294
1	294
1	294
1	294
1	294
1	10
1	294
1	294
1	10
1	294
1	294
1	10
1	7
1	294
1	8
1	7
1	294
1	294
1	8
1	294
1	8
1	294
1	8
1	294
1	294
1	16
1	294
1	294
1	294
1	294
1	294
1	294
1	294
1	294
1	6
1	294
1	294
1	6
1	294
1	294
1	294
1	294
1	4
1	294
1	294
1	294
1	10
1	294
1	16
1	5
1	294
1	8
1	294
1	294
1	5
1	294
1	294
1	294
1	14
1	6
1	294
1	8
1	294
1	294
1	16
1	16
1	294
1	4
1	5
1	294
1	294
1	294
1	7
1	294
1	4
1	294
1	14
1	8
1	9
1	294
1	4
1	5
1	294
1	14
1	294
1	294
1	294
1	294
1	294
1	294
1	294
1	294
1	4
1	294
1	6
1	5
1	294
1	294
1	16
1	294
1	5
1	4
1	294
1	294
1	294
1	9
1	294
1	294
1	294
1	5
1	6
1	294
1	294
1	294
1	294
1	294
1	294
1	5
1	294
1	294
1	5
1	294
1	5
1	294
1	294
1	6
1	7
1	294
1	294
1	8
1	14
1	294
1	294
1	294
1	294
1	16
1	294
1	294
1	294
1	10
1	4
1	294
1	8
1	14
1	294
1	10
1	294
1	294
1	294
1	5
1	294
1	294
1	294
1	294
1	3
1	294
1	16
1	294
1	294
1	14
1	7
1	294
1	294
1	9
1	4
1	294
1	294
1	294
1	14
1	6
1	294
1	5
1	4
1	294
1	8
1	294
1	294
1	294
1	294
1	8
1	294
1	294
1	294
1	5
1	294
1	294
1	294
1	294
1	5
1	8
1	294
1	9
1	7
1	294
1	294
1	294
1	294
1	294
1	8
1	294
1	294
1	294
1	3
1	294
1	294
1	10
1	14
1	5
1	294
1	294
1	294
1	294
1	294
1	294
1	294
1	294
1	294
1	294
1	294
1	294
1	8
1	4
1	294
1	294
1	4
1	7
1	294
1	294
1	294
1	294
1	294
1	294
1	7
1	16
1	294
1	294
1	294
1	294
1	294
1	294
1	3
1	14
1	294
1	294
1	294
1	294
1	294
1	8
1	3
1	294
1	294
1	294
1	294
1	294
1	294
1	294
1	294
1	294
1	16
1	294
1	294
1	294
1	6
1	294
1	294
1	294
1	8
1	294
1	294
1	294
1	294
1	294
1	294
1	8
1	294
1	294
1	4
1	294
1	294
1	294
1	294
1	294
1	14
1	294
1	8
1	294
1	294
1	294
1	294
1	294
1	10
1	294
1	294
1	294
1	294
1	294
1	294
1	294
1	294
1	3
1	294
1	294
1	294
1	294
1	294
1	7
1	8
1	294
1	294
1	294
1	294
1	294
1	3
1	4
1	294
1	294
1	294
1	4
1	14
1	6
1	294
1	5
1	294
1	3
1	294
1	294
1	294
1	294
1	294
1	4
1	16
1	4
1	5
1	16
1	294
1	5
1	294
1	294
1	294
1	294
1	294
1	294
1	294
1	294
1	294
1	6
1	8
1	6
1	4
1	9
1	294
1	294
1	294
1	6
1	9
1	294
1	294
1	4
1	14
1	294
1	294
1	294
1	294
1	294
2	16
2	6
2	8
2	6
2	9
2	4
2	4
2	294
2	5
2	3
2	3
2	4
2	3
2	6
2	6
2	10
2	5
2	5
2	9
2	4
2	4
2	3
2	10
2	5
2	4
3	5
3	5
3	4


