# Persistence diagram </home/jens/Uni/data_topology/Project/reddit_results/graphs/1131-1.gml>
#
# Dimension   : 1
# Entries     : 169
# Betti number: 169
4	inf
4	inf
9	inf
9	inf
9	inf
9	inf
9	inf
10	inf
10	inf
10	inf
10	inf
10	inf
10	inf
10	inf
10	inf
10	inf
10	inf
10	inf
10	inf
10	inf
13	inf
13	inf
13	inf
13	inf
13	inf
13	inf
13	inf
13	inf
13	inf
14	inf
14	inf
14	inf
14	inf
15	inf
15	inf
15	inf
15	inf
15	inf
15	inf
15	inf
738	inf
738	inf
738	inf
738	inf
738	inf
738	inf
738	inf
738	inf
738	inf
738	inf
738	inf
738	inf
738	inf
738	inf
738	inf
738	inf
738	inf
738	inf
738	inf
738	inf
738	inf
738	inf
738	inf
738	inf
738	inf
738	inf
738	inf
738	inf
738	inf
738	inf
738	inf
738	inf
738	inf
738	inf
738	inf
738	inf
738	inf
738	inf
738	inf
738	inf
738	inf
738	inf
738	inf
738	inf
738	inf
738	inf
738	inf
738	inf
738	inf
738	inf
738	inf
738	inf
738	inf
738	inf
738	inf
738	inf
738	inf
738	inf
738	inf
738	inf
738	inf
738	inf
738	inf
738	inf
738	inf
738	inf
738	inf
738	inf
738	inf
738	inf
738	inf
738	inf
738	inf
738	inf
738	inf
738	inf
738	inf
738	inf
738	inf
738	inf
738	inf
738	inf
738	inf
738	inf
738	inf
738	inf
738	inf
738	inf
738	inf
738	inf
738	inf
738	inf
738	inf
738	inf
738	inf
738	inf
738	inf
738	inf
738	inf
738	inf
738	inf
738	inf
738	inf
738	inf
738	inf
738	inf
738	inf
738	inf
738	inf
738	inf
738	inf
738	inf
738	inf
738	inf
738	inf
738	inf
738	inf
738	inf
738	inf
738	inf
738	inf
738	inf
738	inf
738	inf
738	inf
738	inf
738	inf
738	inf
738	inf
