# Persistence diagram </home/jens/Uni/data_topology/Project/reddit_results/graphs/1137-1.gml>
#
# Dimension   : 1
# Entries     : 107
# Betti number: 107
3	inf
5	inf
9	inf
9	inf
9	inf
11	inf
11	inf
11	inf
11	inf
12	inf
12	inf
12	inf
12	inf
12	inf
12	inf
12	inf
12	inf
16	inf
16	inf
16	inf
16	inf
16	inf
16	inf
16	inf
16	inf
16	inf
17	inf
17	inf
17	inf
17	inf
17	inf
18	inf
18	inf
18	inf
18	inf
435	inf
435	inf
435	inf
435	inf
435	inf
435	inf
435	inf
435	inf
435	inf
435	inf
435	inf
435	inf
435	inf
435	inf
435	inf
435	inf
435	inf
435	inf
435	inf
435	inf
435	inf
435	inf
435	inf
435	inf
435	inf
435	inf
435	inf
435	inf
435	inf
435	inf
435	inf
435	inf
435	inf
435	inf
435	inf
435	inf
435	inf
435	inf
435	inf
435	inf
435	inf
435	inf
435	inf
435	inf
435	inf
435	inf
435	inf
435	inf
435	inf
435	inf
435	inf
435	inf
435	inf
435	inf
435	inf
435	inf
435	inf
435	inf
435	inf
435	inf
435	inf
435	inf
435	inf
435	inf
435	inf
435	inf
435	inf
435	inf
435	inf
435	inf
435	inf
435	inf
