# Persistence diagram </home/jens/Uni/data_topology/Project/reddit_results/graphs/1148-1.gml>
#
# Dimension   : 0
# Entries     : 218
# Betti number: 2
1	inf
1	181
1	181
1	181
1	181
1	6
1	181
1	7
1	181
1	181
1	181
1	181
1	181
1	181
1	181
1	181
1	181
1	181
1	181
1	181
1	181
1	181
1	181
1	181
1	inf
1	181
1	181
1	181
1	181
1	181
1	181
1	7
1	7
1	181
1	181
1	181
1	181
1	181
1	6
1	181
1	181
1	181
1	181
1	181
1	181
1	9
1	181
1	181
1	181
1	7
1	181
1	181
1	7
1	181
1	181
1	181
1	181
1	181
1	181
1	4
1	181
1	181
1	181
1	181
1	181
1	181
1	181
1	181
1	181
1	181
1	181
1	181
1	181
1	181
1	181
1	7
1	181
1	4
1	181
1	181
1	181
1	7
1	181
1	6
1	181
1	181
1	181
1	181
1	9
1	181
1	181
1	6
1	181
1	181
1	181
1	181
1	181
1	9
1	181
1	181
1	181
1	181
1	4
1	181
1	9
1	181
1	181
1	181
1	181
1	181
1	181
1	181
1	181
1	181
1	4
1	181
1	181
1	4
1	3
1	181
1	181
1	181
1	181
1	5
1	181
1	4
1	6
1	181
1	9
1	7
1	7
1	181
1	181
1	181
1	181
1	7
1	181
1	181
1	181
1	7
1	181
1	181
1	3
1	181
1	4
1	181
1	181
1	181
1	181
1	181
1	6
1	181
1	181
1	181
1	181
1	181
1	7
1	181
1	3
1	181
1	181
1	4
1	181
1	181
1	181
1	181
1	4
1	6
1	6
1	181
1	7
1	181
1	181
1	181
1	181
1	9
1	181
1	181
1	181
1	181
1	181
1	181
1	181
1	181
1	181
1	181
1	4
1	181
1	181
1	181
1	181
1	181
1	3
1	181
1	7
1	181
1	181
1	181
1	6
1	181
1	181
1	181
2	181
2	3
2	7
2	181
2	6
2	5
2	5
2	3
2	4
2	3
2	3
2	7
2	5
2	3
2	4
2	5


