# Persistence diagram </home/jens/Uni/data_topology/Project/reddit_results/graphs/1152-1.gml>
#
# Dimension   : 0
# Entries     : 106
# Betti number: 1
1	inf
1	95
1	95
1	95
1	95
1	95
1	95
1	95
1	95
1	95
1	95
1	95
1	95
1	95
1	95
1	95
1	95
1	95
1	95
1	95
1	95
1	95
1	95
1	95
1	95
1	95
1	5
1	95
1	95
1	95
1	5
1	95
1	6
1	95
1	95
1	95
1	95
1	95
1	95
1	95
1	95
1	95
1	95
1	95
1	95
1	95
1	95
1	95
1	95
1	4
1	95
1	95
1	95
1	95
1	95
1	95
1	95
1	95
1	95
1	95
1	95
1	95
1	5
1	95
1	95
1	95
1	95
1	95
1	95
1	5
1	4
1	95
1	95
1	95
1	95
1	95
1	6
1	5
1	95
1	95
1	95
1	95
1	95
1	5
1	95
1	95
1	95
1	95
1	95
1	95
1	95
1	95
1	95
1	5
1	95
1	5
2	4
2	5
2	4
2	6
2	3
2	6
2	6
2	6
2	4
2	5


