# Persistence diagram </home/jens/Uni/data_topology/Project/reddit_results/graphs/1154-1.gml>
#
# Dimension   : 0
# Entries     : 1666
# Betti number: 1
1	inf
1	1542
1	1542
1	1542
1	1542
1	1542
1	1542
1	1542
1	1542
1	1542
1	1542
1	1542
1	1542
1	1542
1	1542
1	1542
1	1542
1	1542
1	1542
1	1542
1	1542
1	1542
1	1542
1	1542
1	1542
1	1542
1	1542
1	1542
1	1542
1	1542
1	1542
1	1542
1	1542
1	1542
1	1542
1	1542
1	1542
1	1542
1	1542
1	1542
1	9
1	1542
1	1542
1	1542
1	1542
1	1542
1	1542
1	1542
1	1542
1	1542
1	1542
1	1542
1	1542
1	1542
1	1542
1	1542
1	1542
1	1542
1	1542
1	1542
1	1542
1	5
1	1542
1	1542
1	1542
1	1542
1	1542
1	1542
1	1542
1	1542
1	1542
1	1542
1	1542
1	1542
1	1542
1	1542
1	1542
1	1542
1	7
1	1542
1	1542
1	1542
1	1542
1	1542
1	5
1	1542
1	4
1	1542
1	11
1	1542
1	1542
1	1542
1	1542
1	1542
1	1542
1	1542
1	1542
1	1542
1	1542
1	1542
1	1542
1	1542
1	1542
1	1542
1	1542
1	9
1	1542
1	1542
1	1542
1	12
1	1542
1	1542
1	1542
1	1542
1	1542
1	1542
1	1542
1	1542
1	1542
1	1542
1	1542
1	1542
1	1542
1	8
1	1542
1	1542
1	1542
1	1542
1	1542
1	1542
1	1542
1	1542
1	1542
1	1542
1	1542
1	1542
1	1542
1	1542
1	9
1	1542
1	1542
1	9
1	1542
1	1542
1	1542
1	7
1	1542
1	1542
1	1542
1	1542
1	1542
1	1542
1	1542
1	7
1	1542
1	1542
1	1542
1	1542
1	1542
1	1542
1	1542
1	1542
1	1542
1	1542
1	1542
1	5
1	1542
1	1542
1	1542
1	8
1	1542
1	1542
1	1542
1	1542
1	1542
1	1542
1	1542
1	1542
1	1542
1	1542
1	1542
1	1542
1	1542
1	1542
1	1542
1	1542
1	1542
1	1542
1	1542
1	1542
1	1542
1	1542
1	11
1	1542
1	1542
1	1542
1	1542
1	1542
1	1542
1	1542
1	1542
1	1542
1	1542
1	1542
1	5
1	1542
1	1542
1	1542
1	1542
1	1542
1	1542
1	1542
1	1542
1	1542
1	1542
1	1542
1	1542
1	1542
1	1542
1	1542
1	1542
1	1542
1	1542
1	1542
1	1542
1	1542
1	1542
1	12
1	1542
1	1542
1	1542
1	1542
1	1542
1	1542
1	1542
1	1542
1	1542
1	1542
1	9
1	12
1	1542
1	10
1	1542
1	1542
1	1542
1	1542
1	6
1	1542
1	1542
1	1542
1	1542
1	1542
1	1542
1	1542
1	1542
1	1542
1	1542
1	1542
1	1542
1	1542
1	1542
1	1542
1	1542
1	1542
1	1542
1	1542
1	1542
1	1542
1	1542
1	1542
1	1542
1	1542
1	1542
1	8
1	1542
1	1542
1	1542
1	1542
1	1542
1	1542
1	1542
1	1542
1	1542
1	1542
1	1542
1	1542
1	1542
1	1542
1	1542
1	1542
1	1542
1	1542
1	1542
1	1542
1	1542
1	1542
1	1542
1	1542
1	1542
1	1542
1	1542
1	1542
1	1542
1	1542
1	1542
1	1542
1	1542
1	1542
1	1542
1	1542
1	1542
1	1542
1	1542
1	1542
1	1542
1	1542
1	1542
1	1542
1	1542
1	1542
1	1542
1	1542
1	1542
1	1542
1	1542
1	1542
1	1542
1	1542
1	1542
1	1542
1	1542
1	1542
1	1542
1	1542
1	1542
1	1542
1	1542
1	1542
1	1542
1	1542
1	1542
1	1542
1	1542
1	1542
1	1542
1	1542
1	1542
1	1542
1	1542
1	1542
1	1542
1	1542
1	1542
1	1542
1	1542
1	1542
1	1542
1	10
1	1542
1	1542
1	12
1	1542
1	5
1	1542
1	1542
1	1542
1	7
1	1542
1	1542
1	1542
1	1542
1	1542
1	1542
1	1542
1	1542
1	1542
1	1542
1	1542
1	3
1	1542
1	1542
1	1542
1	3
1	4
1	1542
1	1542
1	1542
1	1542
1	1542
1	1542
1	1542
1	1542
1	1542
1	7
1	1542
1	1542
1	1542
1	1542
1	1542
1	1542
1	1542
1	1542
1	1542
1	1542
1	1542
1	1542
1	1542
1	1542
1	6
1	1542
1	1542
1	1542
1	1542
1	1542
1	1542
1	1542
1	1542
1	1542
1	1542
1	1542
1	10
1	1542
1	1542
1	1542
1	12
1	1542
1	1542
1	1542
1	1542
1	1542
1	1542
1	1542
1	1542
1	1542
1	1542
1	1542
1	1542
1	1542
1	7
1	1542
1	1542
1	1542
1	1542
1	1542
1	1542
1	1542
1	1542
1	1542
1	1542
1	1542
1	1542
1	1542
1	1542
1	1542
1	4
1	1542
1	1542
1	1542
1	1542
1	1542
1	1542
1	1542
1	1542
1	1542
1	1542
1	1542
1	1542
1	1542
1	4
1	1542
1	1542
1	1542
1	1542
1	1542
1	1542
1	1542
1	1542
1	1542
1	1542
1	1542
1	1542
1	1542
1	4
1	1542
1	1542
1	1542
1	1542
1	1542
1	1542
1	1542
1	1542
1	4
1	1542
1	12
1	1542
1	5
1	1542
1	1542
1	1542
1	1542
1	1542
1	1542
1	1542
1	1542
1	1542
1	1542
1	1542
1	1542
1	1542
1	9
1	1542
1	1542
1	1542
1	1542
1	1542
1	1542
1	1542
1	1542
1	1542
1	1542
1	1542
1	1542
1	1542
1	1542
1	1542
1	1542
1	1542
1	1542
1	1542
1	1542
1	1542
1	4
1	1542
1	1542
1	1542
1	1542
1	1542
1	1542
1	1542
1	1542
1	1542
1	1542
1	1542
1	1542
1	1542
1	1542
1	1542
1	1542
1	4
1	1542
1	1542
1	1542
1	5
1	1542
1	1542
1	1542
1	1542
1	1542
1	1542
1	1542
1	1542
1	1542
1	1542
1	1542
1	1542
1	1542
1	1542
1	1542
1	1542
1	1542
1	1542
1	4
1	1542
1	1542
1	1542
1	1542
1	1542
1	1542
1	1542
1	4
1	1542
1	1542
1	1542
1	1542
1	1542
1	1542
1	1542
1	1542
1	1542
1	1542
1	1542
1	1542
1	1542
1	1542
1	1542
1	1542
1	1542
1	1542
1	1542
1	1542
1	1542
1	1542
1	4
1	1542
1	1542
1	1542
1	1542
1	1542
1	1542
1	1542
1	1542
1	1542
1	1542
1	1542
1	10
1	1542
1	1542
1	9
1	1542
1	1542
1	1542
1	10
1	1542
1	1542
1	1542
1	1542
1	1542
1	5
1	1542
1	1542
1	1542
1	1542
1	1542
1	1542
1	1542
1	1542
1	1542
1	12
1	1542
1	1542
1	1542
1	1542
1	1542
1	5
1	1542
1	1542
1	1542
1	1542
1	1542
1	1542
1	1542
1	4
1	1542
1	1542
1	1542
1	1542
1	1542
1	6
1	1542
1	4
1	1542
1	1542
1	1542
1	3
1	1542
1	1542
1	1542
1	1542
1	1542
1	1542
1	1542
1	1542
1	1542
1	1542
1	1542
1	1542
1	1542
1	1542
1	1542
1	1542
1	1542
1	1542
1	1542
1	1542
1	1542
1	1542
1	1542
1	1542
1	1542
1	1542
1	1542
1	1542
1	1542
1	1542
1	1542
1	1542
1	1542
1	1542
1	1542
1	1542
1	1542
1	1542
1	1542
1	1542
1	1542
1	1542
1	1542
1	1542
1	1542
1	1542
1	1542
1	1542
1	1542
1	1542
1	1542
1	1542
1	1542
1	1542
1	1542
1	1542
1	1542
1	1542
1	1542
1	4
1	1542
1	1542
1	1542
1	1542
1	1542
1	1542
1	1542
1	1542
1	1542
1	1542
1	1542
1	1542
1	1542
1	4
1	1542
1	6
1	1542
1	1542
1	1542
1	1542
1	1542
1	1542
1	10
1	1542
1	1542
1	1542
1	1542
1	1542
1	1542
1	1542
1	1542
1	3
1	1542
1	1542
1	1542
1	1542
1	7
1	1542
1	1542
1	1542
1	1542
1	1542
1	1542
1	1542
1	1542
1	1542
1	1542
1	1542
1	1542
1	1542
1	11
1	1542
1	1542
1	1542
1	1542
1	1542
1	1542
1	1542
1	1542
1	1542
1	1542
1	1542
1	1542
1	1542
1	1542
1	1542
1	1542
1	1542
1	1542
1	1542
1	1542
1	1542
1	1542
1	1542
1	1542
1	1542
1	1542
1	1542
1	1542
1	1542
1	1542
1	1542
1	1542
1	1542
1	1542
1	1542
1	1542
1	1542
1	1542
1	1542
1	1542
1	1542
1	1542
1	1542
1	1542
1	1542
1	1542
1	1542
1	3
1	1542
1	1542
1	1542
1	1542
1	1542
1	6
1	1542
1	1542
1	1542
1	1542
1	1542
1	1542
1	1542
1	1542
1	1542
1	8
1	1542
1	1542
1	1542
1	1542
1	1542
1	1542
1	1542
1	1542
1	1542
1	1542
1	1542
1	1542
1	1542
1	1542
1	1542
1	1542
1	1542
1	1542
1	1542
1	1542
1	1542
1	1542
1	1542
1	1542
1	1542
1	1542
1	1542
1	1542
1	1542
1	1542
1	9
1	1542
1	4
1	3
1	1542
1	1542
1	1542
1	1542
1	1542
1	1542
1	3
1	1542
1	1542
1	1542
1	1542
1	1542
1	4
1	1542
1	1542
1	1542
1	1542
1	8
1	1542
1	1542
1	1542
1	1542
1	1542
1	1542
1	1542
1	1542
1	1542
1	1542
1	6
1	1542
1	1542
1	1542
1	1542
1	1542
1	1542
1	1542
1	1542
1	1542
1	1542
1	1542
1	5
1	1542
1	1542
1	1542
1	1542
1	1542
1	1542
1	1542
1	1542
1	1542
1	1542
1	1542
1	1542
1	1542
1	1542
1	1542
1	4
1	1542
1	1542
1	1542
1	1542
1	1542
1	1542
1	1542
1	1542
1	1542
1	1542
1	4
1	1542
1	1542
1	1542
1	1542
1	1542
1	1542
1	1542
1	1542
1	1542
1	1542
1	1542
1	1542
1	1542
1	1542
1	1542
1	1542
1	1542
1	1542
1	1542
1	1542
1	1542
1	4
1	1542
1	1542
1	1542
1	1542
1	1542
1	1542
1	1542
1	1542
1	5
1	1542
1	1542
1	1542
1	1542
1	1542
1	1542
1	1542
1	1542
1	1542
1	1542
1	1542
1	1542
1	7
1	1542
1	1542
1	6
1	1542
1	1542
1	1542
1	1542
1	1542
1	1542
1	4
1	1542
1	1542
1	1542
1	1542
1	1542
1	1542
1	1542
1	1542
1	1542
1	1542
1	1542
1	1542
1	1542
1	1542
1	1542
1	1542
1	7
1	4
1	5
1	1542
1	1542
1	6
1	1542
1	1542
1	1542
1	1542
1	1542
1	1542
1	1542
1	1542
1	1542
1	1542
1	1542
1	1542
1	1542
1	1542
1	7
1	1542
1	1542
1	4
1	1542
1	1542
1	1542
1	4
1	1542
1	1542
1	1542
1	1542
1	1542
1	1542
1	1542
1	8
1	1542
1	1542
1	1542
1	4
1	1542
1	1542
1	1542
1	1542
1	1542
1	1542
1	1542
1	3
1	1542
1	1542
1	6
1	1542
1	1542
1	3
1	1542
1	1542
1	1542
1	1542
1	1542
1	1542
1	1542
1	1542
1	1542
1	1542
1	1542
1	1542
1	1542
1	1542
1	1542
1	1542
1	7
1	1542
1	1542
1	5
1	1542
1	1542
1	1542
1	1542
1	1542
1	1542
1	1542
1	1542
1	1542
1	1542
1	1542
1	1542
1	1542
1	1542
1	1542
1	1542
1	1542
1	1542
1	1542
1	1542
1	1542
1	1542
1	1542
1	1542
1	4
1	1542
1	1542
1	1542
1	4
1	1542
1	1542
1	1542
1	1542
1	1542
1	1542
1	1542
1	1542
1	11
1	5
1	1542
1	1542
1	1542
1	1542
1	1542
1	1542
1	1542
1	1542
1	1542
1	1542
1	1542
1	1542
1	1542
1	1542
1	1542
1	1542
1	1542
1	1542
1	1542
1	1542
1	1542
1	1542
1	1542
1	1542
1	1542
1	1542
1	1542
1	1542
1	9
1	1542
1	1542
1	1542
1	1542
1	1542
1	1542
1	1542
1	6
1	1542
1	1542
1	4
1	1542
1	1542
1	1542
1	1542
1	1542
1	1542
1	4
1	1542
1	1542
1	1542
1	1542
1	1542
1	1542
1	1542
1	1542
1	1542
1	1542
1	1542
1	1542
1	1542
1	1542
1	1542
1	1542
1	1542
1	1542
1	1542
1	1542
1	1542
1	1542
1	1542
1	1542
1	1542
1	1542
1	1542
1	1542
1	1542
1	1542
1	1542
1	1542
1	1542
1	1542
1	1542
1	1542
1	1542
1	1542
1	1542
1	1542
1	1542
1	1542
1	1542
1	5
1	1542
1	1542
1	3
1	4
1	1542
1	1542
1	1542
1	1542
1	1542
1	1542
1	1542
1	11
1	1542
1	1542
1	1542
1	1542
1	1542
1	1542
1	1542
1	1542
1	1542
1	1542
1	1542
1	1542
1	1542
1	1542
1	4
1	1542
1	1542
1	5
1	1542
1	1542
1	1542
1	1542
1	1542
1	1542
1	1542
1	1542
1	4
1	1542
1	1542
1	1542
1	1542
1	1542
1	1542
1	1542
1	1542
1	1542
1	1542
1	1542
1	1542
1	1542
1	4
1	1542
1	1542
1	1542
1	1542
1	1542
1	12
1	1542
1	3
1	6
1	1542
1	1542
1	11
1	1542
1	1542
1	1542
1	1542
1	1542
1	1542
1	1542
1	1542
1	1542
1	1542
1	1542
1	1542
1	1542
1	1542
1	1542
1	1542
1	1542
1	1542
1	1542
1	1542
1	1542
1	1542
1	1542
1	1542
1	1542
1	1542
1	1542
1	1542
1	1542
1	1542
1	1542
1	1542
1	1542
1	1542
1	1542
1	1542
1	1542
1	1542
1	1542
1	1542
1	1542
1	1542
1	1542
1	1542
1	1542
1	1542
1	1542
1	1542
1	1542
1	4
1	1542
1	1542
1	1542
1	1542
1	1542
1	1542
1	1542
1	1542
1	1542
1	1542
1	1542
1	1542
1	1542
1	1542
1	1542
1	1542
1	1542
1	7
1	1542
1	1542
1	1542
1	1542
1	1542
1	1542
1	6
1	1542
1	1542
1	1542
1	4
1	1542
1	1542
1	1542
1	1542
1	1542
1	1542
1	1542
1	1542
1	3
1	1542
1	1542
1	1542
1	1542
1	1542
1	1542
1	1542
1	1542
1	1542
1	1542
1	1542
1	1542
1	1542
1	1542
1	1542
1	1542
1	1542
1	1542
1	1542
1	1542
1	1542
1	1542
1	1542
1	1542
1	10
1	1542
1	1542
1	1542
1	1542
1	1542
1	1542
1	1542
1	1542
1	1542
1	1542
1	1542
1	5
1	1542
1	1542
1	1542
1	1542
1	1542
1	1542
1	1542
1	1542
1	1542
1	1542
1	1542
1	1542
1	6
1	1542
1	1542
1	1542
1	1542
1	1542
1	1542
1	1542
1	1542
1	1542
1	1542
1	1542
1	1542
1	1542
1	1542
1	1542
1	1542
1	1542
1	1542
1	1542
1	1542
1	1542
1	1542
1	1542
1	1542
1	1542
1	1542
1	1542
1	7
1	1542
1	1542
1	1542
1	1542
1	1542
1	3
1	1542
1	3
1	1542
1	1542
1	1542
1	1542
1	1542
1	1542
1	1542
1	1542
1	1542
1	1542
1	1542
1	1542
1	1542
1	1542
1	1542
1	1542
1	1542
1	1542
1	1542
1	1542
1	5
1	1542
1	1542
1	1542
1	1542
1	1542
1	1542
1	7
1	3
1	1542
1	1542
1	1542
1	1542
1	1542
1	3
1	1542
1	1542
1	1542
1	1542
1	1542
1	1542
1	1542
1	1542
1	1542
1	1542
1	6
1	1542
1	1542
1	1542
1	1542
1	1542
1	1542
1	1542
1	1542
1	1542
1	1542
1	1542
1	1542
1	1542
1	1542
1	1542
1	1542
1	1542
1	1542
1	1542
1	1542
1	1542
1	1542
1	1542
1	1542
1	1542
1	1542
1	1542
1	1542
1	1542
1	3
1	1542
1	1542
1	1542
1	1542
1	1542
1	1542
1	1542
1	1542
1	1542
1	1542
1	1542
1	1542
1	1542
1	1542
1	1542
1	7
1	1542
1	1542
1	1542
1	1542
1	1542
1	4
1	1542
1	1542
1	1542
1	1542
1	1542
1	1542
1	1542
1	1542
1	1542
1	1542
1	1542
1	1542
1	1542
1	1542
1	1542
1	1542
1	1542
1	1542
1	1542
1	9
1	1542
1	1542
1	1542
1	1542
1	1542
1	1542
1	5
1	1542
1	1542
1	1542
1	1542
1	1542
1	1542
1	1542
1	1542
1	1542
1	1542
1	1542
1	1542
1	1542
1	1542
1	1542
1	1542
1	1542
1	1542
1	1542
1	1542
1	1542
1	1542
1	1542
1	1542
1	1542
1	1542
1	1542
1	4
1	8
1	1542
1	1542
1	1542
1	1542
1	1542
1	1542
1	1542
1	1542
1	1542
1	6
1	5
1	1542
1	1542
1	1542
1	1542
1	9
1	3
1	11
1	1542
1	1542
1	1542
1	1542
2	1542
2	11
2	3
2	3
2	1542
2	1542
2	3
2	1542
2	9
2	1542
2	1542
2	10
2	9
2	1542
2	6
2	3
2	1542
2	1542
2	4
2	6
2	6
2	6
2	3
2	3
2	3
2	3
2	4
2	12
2	4
2	3
2	9
2	11
3	6
3	4
3	4
4	5


