# Persistence diagram </home/jens/Uni/data_topology/Project/reddit_results/graphs/1161-1.gml>
#
# Dimension   : 0
# Entries     : 780
# Betti number: 1
1	inf
1	593
1	593
1	593
1	593
1	593
1	12
1	10
1	19
1	593
1	593
1	593
1	593
1	593
1	593
1	593
1	9
1	593
1	593
1	593
1	24
1	593
1	593
1	593
1	9
1	593
1	593
1	593
1	593
1	593
1	593
1	593
1	593
1	593
1	593
1	593
1	593
1	593
1	593
1	593
1	15
1	5
1	593
1	17
1	593
1	593
1	593
1	593
1	593
1	593
1	593
1	593
1	593
1	17
1	593
1	593
1	593
1	593
1	593
1	5
1	593
1	593
1	593
1	593
1	19
1	593
1	593
1	17
1	593
1	593
1	593
1	593
1	593
1	593
1	19
1	593
1	593
1	593
1	3
1	593
1	593
1	593
1	593
1	593
1	7
1	6
1	593
1	593
1	9
1	593
1	8
1	6
1	593
1	593
1	593
1	593
1	593
1	8
1	593
1	6
1	593
1	17
1	593
1	7
1	593
1	593
1	5
1	12
1	19
1	17
1	593
1	593
1	593
1	593
1	593
1	593
1	12
1	593
1	5
1	5
1	593
1	5
1	593
1	5
1	19
1	593
1	593
1	593
1	593
1	593
1	7
1	593
1	593
1	7
1	593
1	19
1	593
1	593
1	593
1	593
1	5
1	593
1	593
1	593
1	3
1	593
1	593
1	5
1	593
1	593
1	593
1	5
1	593
1	593
1	8
1	593
1	593
1	593
1	5
1	593
1	24
1	593
1	593
1	593
1	593
1	593
1	593
1	593
1	593
1	593
1	593
1	5
1	15
1	593
1	15
1	593
1	593
1	593
1	593
1	593
1	593
1	17
1	593
1	593
1	593
1	593
1	593
1	593
1	593
1	593
1	8
1	593
1	593
1	593
1	593
1	7
1	593
1	593
1	593
1	593
1	12
1	593
1	4
1	6
1	593
1	593
1	593
1	593
1	593
1	5
1	24
1	593
1	593
1	593
1	593
1	593
1	12
1	17
1	593
1	593
1	593
1	593
1	7
1	593
1	593
1	6
1	593
1	593
1	17
1	593
1	6
1	5
1	24
1	593
1	593
1	593
1	593
1	10
1	593
1	593
1	593
1	593
1	593
1	593
1	593
1	593
1	593
1	593
1	24
1	593
1	593
1	593
1	593
1	593
1	593
1	593
1	593
1	593
1	593
1	593
1	4
1	3
1	593
1	6
1	593
1	593
1	5
1	593
1	593
1	593
1	593
1	593
1	9
1	9
1	593
1	593
1	593
1	593
1	593
1	593
1	593
1	593
1	593
1	593
1	5
1	24
1	593
1	593
1	593
1	593
1	593
1	593
1	10
1	593
1	593
1	10
1	4
1	593
1	593
1	593
1	593
1	593
1	593
1	24
1	593
1	10
1	593
1	593
1	593
1	593
1	4
1	593
1	593
1	593
1	593
1	593
1	593
1	5
1	593
1	24
1	593
1	12
1	593
1	593
1	6
1	593
1	593
1	593
1	593
1	593
1	593
1	593
1	593
1	593
1	593
1	593
1	593
1	593
1	593
1	5
1	593
1	593
1	593
1	593
1	5
1	593
1	10
1	8
1	593
1	593
1	593
1	593
1	593
1	5
1	4
1	593
1	6
1	593
1	593
1	593
1	593
1	4
1	593
1	593
1	593
1	593
1	593
1	17
1	593
1	593
1	593
1	593
1	593
1	3
1	593
1	593
1	593
1	593
1	593
1	593
1	593
1	593
1	593
1	593
1	593
1	593
1	593
1	593
1	593
1	593
1	6
1	593
1	593
1	9
1	593
1	593
1	5
1	12
1	593
1	593
1	593
1	593
1	593
1	593
1	593
1	593
1	593
1	593
1	593
1	7
1	3
1	9
1	593
1	10
1	593
1	593
1	593
1	593
1	5
1	593
1	593
1	10
1	593
1	593
1	593
1	17
1	593
1	593
1	7
1	593
1	593
1	593
1	593
1	593
1	5
1	10
1	8
1	593
1	593
1	593
1	593
1	17
1	593
1	7
1	5
1	593
1	7
1	4
1	593
1	7
1	593
1	593
1	593
1	593
1	8
1	593
1	593
1	593
1	593
1	5
1	3
1	593
1	593
1	5
1	8
1	593
1	593
1	8
1	593
1	593
1	4
1	593
1	593
1	19
1	593
1	9
1	593
1	593
1	593
1	593
1	593
1	593
1	593
1	5
1	593
1	593
1	593
1	5
1	593
1	9
1	593
1	593
1	593
1	593
1	593
1	4
1	5
1	593
1	593
1	593
1	593
1	593
1	593
1	593
1	593
1	593
1	5
1	593
1	6
1	15
1	593
1	7
1	10
1	24
1	593
1	593
1	593
1	593
1	593
1	593
1	593
1	3
1	19
1	593
1	4
1	24
1	593
1	593
1	593
1	593
1	3
1	15
1	593
1	593
1	593
1	6
1	5
1	9
1	6
1	593
1	593
1	593
1	24
1	593
1	593
1	593
1	593
1	6
1	7
1	593
1	17
1	7
1	593
1	593
1	7
1	6
1	593
1	12
1	593
1	19
1	5
1	593
1	593
1	12
1	593
1	593
1	593
1	4
1	593
1	593
1	593
1	7
1	593
1	5
1	593
1	593
1	593
1	593
1	593
1	593
1	593
1	3
1	593
1	15
1	7
1	593
1	593
1	593
1	593
1	593
1	3
1	593
1	593
1	593
1	4
1	593
1	593
1	593
1	593
1	593
1	15
1	593
1	12
1	593
1	8
1	593
1	593
1	15
1	593
1	7
1	593
1	593
1	593
1	593
1	593
1	593
1	15
1	6
1	593
1	593
1	593
1	593
1	19
1	15
1	593
1	593
1	4
1	4
1	593
1	593
1	593
1	593
1	17
1	593
1	7
1	593
1	593
1	8
1	12
1	593
1	593
1	593
1	593
1	593
1	4
1	593
1	593
1	4
1	9
1	12
1	5
1	593
1	593
1	593
1	12
1	593
1	6
1	593
1	593
1	593
1	10
1	593
1	9
1	15
1	593
1	593
1	5
1	593
1	593
1	593
1	593
1	593
1	593
1	593
1	7
1	4
1	15
1	4
1	593
1	24
1	593
1	5
1	593
1	593
1	593
1	10
1	593
1	4
1	593
1	24
1	593
1	593
1	593
1	593
1	593
1	4
1	593
1	593
1	24
1	4
1	593
1	593
1	24
1	593
1	593
2	3
2	5
2	12
2	5
2	3
2	5
2	593
2	7
2	7
2	5
2	3
2	6
2	8
2	5
2	4
2	593
2	3
2	5
2	7
2	8
2	6
2	5
2	6
2	4
2	8
2	3
2	4
2	3
2	593
2	5
2	3
2	3
2	12
2	3
2	7
2	5
2	3
2	3
2	3
2	3
2	4
2	5
2	4
2	6
2	593
2	19
2	3
2	4
2	4
2	5
2	5
2	5
2	8
2	5
2	5
2	5
2	5
2	7
2	4
2	10
2	4
2	5
2	8
2	3
2	593
2	5
2	10
2	5
2	4
2	3
2	6
3	4
3	4
3	4
3	7


