# Persistence diagram </home/jens/Uni/data_topology/Project/reddit_results/graphs/1162-1.gml>
#
# Dimension   : 1
# Entries     : 18
# Betti number: 18
244	inf
244	inf
244	inf
244	inf
244	inf
244	inf
244	inf
244	inf
244	inf
244	inf
244	inf
244	inf
244	inf
244	inf
244	inf
244	inf
244	inf
244	inf
