# Persistence diagram </home/jens/Uni/data_topology/Project/reddit_results/graphs/1165-1.gml>
#
# Dimension   : 0
# Entries     : 678
# Betti number: 1
1	inf
1	428
1	183
1	14
1	428
1	428
1	428
1	428
1	183
1	428
1	183
1	183
1	183
1	183
1	428
1	428
1	428
1	428
1	428
1	428
1	13
1	428
1	428
1	428
1	428
1	428
1	14
1	15
1	15
1	11
1	428
1	5
1	428
1	183
1	183
1	183
1	428
1	183
1	183
1	183
1	10
1	428
1	428
1	428
1	428
1	428
1	183
1	428
1	428
1	15
1	428
1	183
1	183
1	428
1	428
1	428
1	8
1	428
1	3
1	428
1	428
1	428
1	428
1	428
1	183
1	183
1	183
1	10
1	9
1	183
1	428
1	7
1	183
1	183
1	183
1	428
1	183
1	428
1	428
1	428
1	183
1	428
1	183
1	14
1	428
1	428
1	428
1	428
1	183
1	7
1	428
1	428
1	183
1	428
1	9
1	6
1	13
1	14
1	183
1	428
1	183
1	428
1	428
1	428
1	9
1	428
1	428
1	428
1	428
1	428
1	9
1	428
1	183
1	428
1	428
1	428
1	428
1	428
1	4
1	428
1	428
1	428
1	428
1	428
1	428
1	428
1	428
1	428
1	428
1	8
1	428
1	428
1	428
1	183
1	15
1	428
1	428
1	9
1	428
1	428
1	183
1	428
1	428
1	428
1	428
1	428
1	9
1	15
1	183
1	428
1	15
1	428
1	428
1	14
1	183
1	8
1	428
1	183
1	183
1	428
1	428
1	9
1	428
1	8
1	428
1	428
1	428
1	428
1	183
1	428
1	183
1	428
1	428
1	428
1	183
1	428
1	8
1	6
1	15
1	428
1	428
1	183
1	428
1	4
1	428
1	428
1	183
1	428
1	428
1	428
1	428
1	428
1	8
1	428
1	3
1	428
1	428
1	9
1	15
1	5
1	183
1	13
1	5
1	13
1	428
1	428
1	10
1	428
1	183
1	183
1	428
1	15
1	183
1	14
1	428
1	428
1	7
1	428
1	428
1	428
1	428
1	428
1	6
1	9
1	428
1	9
1	8
1	428
1	428
1	8
1	428
1	428
1	428
1	428
1	428
1	183
1	14
1	428
1	14
1	183
1	183
1	5
1	9
1	428
1	428
1	428
1	183
1	428
1	7
1	428
1	428
1	428
1	428
1	8
1	9
1	183
1	428
1	428
1	428
1	183
1	428
1	428
1	428
1	7
1	428
1	6
1	8
1	5
1	428
1	428
1	428
1	428
1	428
1	428
1	428
1	428
1	428
1	428
1	183
1	5
1	183
1	183
1	428
1	428
1	428
1	428
1	428
1	428
1	4
1	9
1	428
1	183
1	428
1	428
1	428
1	9
1	13
1	428
1	183
1	10
1	428
1	428
1	428
1	183
1	7
1	15
1	428
1	428
1	428
1	428
1	428
1	428
1	428
1	6
1	428
1	428
1	428
1	428
1	428
1	8
1	428
1	428
1	428
1	428
1	5
1	183
1	428
1	428
1	428
1	428
1	428
1	428
1	428
1	428
1	428
1	6
1	428
1	428
1	428
1	5
1	428
1	183
1	428
1	4
1	428
1	183
1	428
1	183
1	428
1	183
1	7
1	428
1	10
1	428
1	428
1	428
1	9
1	183
1	428
1	6
1	428
1	428
1	13
1	428
1	6
1	6
1	5
1	183
1	428
1	428
1	183
1	428
1	5
1	183
1	183
1	183
1	428
1	428
1	10
1	428
1	183
1	428
1	15
1	5
1	428
1	428
1	428
1	428
1	183
1	428
1	428
1	428
1	428
1	10
1	6
1	183
1	5
1	428
1	428
1	183
1	428
1	428
1	428
1	428
1	428
1	183
1	5
1	428
1	428
1	428
1	10
1	11
1	5
1	428
1	428
1	8
1	6
1	7
1	428
1	8
1	428
1	428
1	428
1	428
1	8
1	428
1	4
1	428
1	3
1	14
1	428
1	7
1	428
1	9
1	5
1	428
1	6
1	8
1	183
1	183
1	428
1	428
1	428
1	428
1	428
1	428
1	428
1	428
1	4
1	183
1	183
1	428
1	9
1	428
1	183
1	8
1	428
1	428
1	183
1	183
1	428
1	428
1	428
1	428
1	8
1	8
1	428
1	7
1	15
1	428
1	428
1	3
1	428
1	183
1	5
1	428
1	183
1	428
1	428
1	428
1	183
1	428
1	4
1	13
1	183
1	428
1	13
1	4
1	428
1	428
1	10
1	7
1	183
1	428
1	428
1	428
1	10
1	428
1	428
1	428
1	183
1	7
1	428
1	183
1	13
1	428
1	5
1	183
1	183
1	5
1	428
1	183
1	428
1	10
1	10
1	428
1	428
1	428
1	428
1	183
1	428
1	183
1	428
1	428
1	15
1	428
1	183
1	14
1	8
1	428
1	428
1	428
1	6
1	428
1	6
1	428
1	428
1	183
1	428
1	183
1	428
1	428
1	183
1	5
1	428
1	4
1	5
1	428
1	428
1	428
1	428
1	4
1	428
1	183
1	428
1	7
1	4
1	428
1	8
1	428
1	183
1	428
1	428
1	428
1	428
1	10
1	428
1	183
1	428
1	428
1	428
1	428
1	183
1	183
1	3
1	428
1	8
1	428
1	4
1	11
1	13
1	428
1	428
1	428
1	428
1	428
1	9
1	6
1	428
1	8
1	14
1	428
1	428
1	428
1	428
1	3
1	428
1	428
2	183
2	4
2	5
2	14
2	183
2	4
2	183
2	183
2	4
2	5
2	183
2	6
2	9
2	7
2	5
2	183
2	183
2	183
2	183
2	183
2	183
2	183
2	3
2	8
2	183
2	183
2	10
2	183
2	3
2	183
2	183
2	183
2	183
2	183
2	183
2	3
2	183
2	183
2	9
2	183
2	5
2	183
2	183
2	183
2	183
2	10
2	183
2	183
2	183
2	183
2	183
2	7
2	3
2	183
2	183
2	183
2	183
2	6
2	13
2	183
2	9
2	183
2	183
2	183
2	183
2	183
2	183
2	183
2	11
2	183
2	11
2	183
2	6
2	183
2	11
3	8
3	6
3	5
3	11
3	4


