# Persistence diagram </home/jens/Uni/data_topology/Project/reddit_results/graphs/1167-1.gml>
#
# Dimension   : 0
# Entries     : 782
# Betti number: 5
1	inf
1	122
1	122
1	462
1	9
1	7
1	6
1	462
1	462
1	122
1	19
1	462
1	462
1	9
1	462
1	10
1	462
1	4
1	462
1	8
1	8
1	462
1	462
1	462
1	8
1	9
1	5
1	8
1	6
1	9
1	462
1	462
1	462
1	inf
1	462
1	462
1	462
1	5
1	24
1	122
1	16
1	462
1	462
1	462
1	14
1	462
1	122
1	462
1	462
1	7
1	462
1	6
1	8
1	28
1	462
1	462
1	462
1	462
1	462
1	6
1	462
1	8
1	6
1	462
1	462
1	462
1	462
1	5
1	462
1	5
1	462
1	122
1	462
1	122
1	462
1	462
1	462
1	462
1	462
1	6
1	462
1	122
1	462
1	462
1	462
1	462
1	462
1	462
1	462
1	6
1	462
1	462
1	4
1	462
1	462
1	462
1	462
1	462
1	7
1	462
1	462
1	462
1	462
1	6
1	462
1	462
1	462
1	462
1	462
1	462
1	8
1	462
1	19
1	462
1	8
1	6
1	122
1	462
1	462
1	122
1	462
1	462
1	462
1	462
1	462
1	462
1	122
1	462
1	462
1	14
1	462
1	462
1	462
1	462
1	9
1	462
1	6
1	462
1	9
1	7
1	462
1	462
1	122
1	462
1	462
1	122
1	122
1	122
1	462
1	462
1	462
1	5
1	462
1	14
1	462
1	462
1	462
1	25
1	462
1	462
1	462
1	462
1	462
1	462
1	462
1	8
1	462
1	122
1	462
1	462
1	7
1	24
1	6
1	14
1	5
1	462
1	25
1	462
1	14
1	462
1	24
1	462
1	inf
1	6
1	462
1	462
1	6
1	17
1	462
1	462
1	462
1	462
1	462
1	122
1	462
1	9
1	19
1	10
1	28
1	462
1	9
1	5
1	24
1	462
1	462
1	6
1	inf
1	13
1	462
1	462
1	462
1	8
1	6
1	462
1	10
1	6
1	462
1	462
1	28
1	462
1	462
1	122
1	462
1	8
1	462
1	122
1	462
1	462
1	122
1	462
1	462
1	462
1	8
1	6
1	462
1	14
1	18
1	19
1	10
1	462
1	462
1	6
1	462
1	462
1	5
1	462
1	5
1	19
1	462
1	3
1	462
1	8
1	462
1	462
1	462
1	5
1	462
1	462
1	462
1	462
1	462
1	9
1	462
1	462
1	6
1	12
1	6
1	17
1	462
1	122
1	24
1	462
1	462
1	122
1	7
1	24
1	462
1	462
1	462
1	462
1	122
1	462
1	462
1	462
1	462
1	462
1	462
1	462
1	462
1	462
1	5
1	462
1	7
1	6
1	8
1	122
1	462
1	6
1	462
1	5
1	462
1	462
1	inf
1	16
1	462
1	462
1	8
1	6
1	462
1	462
1	14
1	462
1	462
1	462
1	10
1	462
1	462
1	462
1	6
1	462
1	122
1	462
1	25
1	462
1	462
1	462
1	462
1	462
1	122
1	462
1	462
1	462
1	462
1	462
1	5
1	122
1	462
1	10
1	462
1	8
1	14
1	462
1	462
1	10
1	462
1	462
1	462
1	462
1	462
1	462
1	462
1	462
1	462
1	462
1	6
1	19
1	6
1	462
1	462
1	122
1	122
1	14
1	122
1	462
1	462
1	25
1	462
1	122
1	5
1	4
1	4
1	6
1	462
1	462
1	462
1	4
1	10
1	5
1	6
1	462
1	7
1	462
1	462
1	6
1	6
1	122
1	122
1	462
1	462
1	462
1	24
1	462
1	462
1	5
1	462
1	122
1	5
1	17
1	6
1	462
1	9
1	462
1	7
1	6
1	3
1	462
1	12
1	462
1	28
1	8
1	462
1	122
1	6
1	462
1	5
1	17
1	462
1	462
1	462
1	462
1	8
1	462
1	462
1	122
1	462
1	462
1	462
1	462
1	122
1	122
1	16
1	462
1	122
1	8
1	462
1	462
1	19
1	8
1	462
1	462
1	6
1	462
1	5
1	462
1	462
1	14
1	462
1	12
1	8
1	462
1	6
1	7
1	462
1	462
1	5
1	122
1	24
1	8
1	3
1	462
1	122
1	122
1	462
1	462
1	19
1	25
1	462
1	462
1	462
1	462
1	14
1	462
1	462
1	6
1	462
1	122
1	7
1	462
1	462
1	6
1	462
1	462
1	462
1	462
1	7
1	7
1	8
1	462
1	8
1	462
1	5
1	122
1	462
1	6
1	462
1	14
1	17
1	462
1	462
1	7
1	8
1	462
1	462
1	4
1	28
1	462
1	6
1	462
1	462
1	462
1	462
1	462
1	462
1	462
1	462
1	462
1	462
1	6
1	14
1	8
1	6
1	28
1	462
1	462
1	462
1	3
1	462
1	5
1	462
1	462
1	122
1	462
1	462
1	462
1	462
1	19
1	6
1	6
1	4
1	6
1	462
1	5
1	462
1	10
1	5
1	462
1	462
1	3
1	18
1	462
1	462
1	10
1	16
1	462
1	122
1	4
1	462
1	122
1	462
1	462
1	462
1	462
1	462
1	10
1	462
1	7
1	4
1	14
1	17
1	462
1	24
1	6
1	462
1	462
1	8
1	462
1	19
1	5
1	462
1	17
1	5
1	8
1	462
1	462
1	4
1	7
1	13
1	462
1	462
1	122
1	19
1	28
1	462
1	462
1	462
1	462
1	462
1	3
1	462
1	462
1	462
1	122
1	5
1	9
1	462
1	462
1	462
1	462
1	462
1	462
1	8
1	6
1	462
1	8
1	17
1	13
1	462
1	462
1	462
1	4
1	462
1	4
1	8
1	3
1	462
1	462
1	462
1	462
1	462
1	462
1	6
1	462
1	122
1	462
1	7
1	5
1	462
1	462
1	122
1	10
1	122
1	10
1	13
1	462
1	4
1	462
1	5
1	462
2	7
2	6
2	5
2	18
2	10
2	462
2	28
2	25
2	6
2	3
2	7
2	3
2	6
2	5
2	28
2	6
2	28
2	6
2	18
2	6
2	462
2	28
2	6
2	10
2	18
2	7
2	7
2	8
2	122
2	5
2	18
2	4
2	6
2	10
2	18
2	4
2	122
2	5
2	3
2	5
2	10
2	6
2	5
2	122
2	6
2	3
2	6
2	6
2	462
2	4
2	6
2	18
2	28
2	28
2	462
2	3
2	10
2	8
2	7
2	5
2	3
2	3
2	4
2	4
2	7
2	8
2	25
2	3
2	6
2	3
2	5
2	18
2	24
2	28
2	4
2	6
2	6
2	3
2	3
2	6
2	18
2	4
2	24
2	122
2	7
2	13
2	3
2	3
2	25
2	7
2	6
2	4
2	28
2	4
2	122
2	6
2	5
2	3
2	18
2	18
2	28
2	6
2	4
2	7
2	5
2	6
2	5
2	4
2	8
2	8
2	122
3	4
3	6
3	4
3	5
3	122
3	4
3	7
3	5
3	5
3	4
3	28
3	4
3	6
3	25
3	7
3	6
3	4
3	19
3	24
3	4
4	6
4	6
5	6


