# Persistence diagram </home/jens/Uni/data_topology/Project/reddit_results/graphs/1173-1.gml>
#
# Dimension   : 0
# Entries     : 2720
# Betti number: 14
1	inf
1	2330
1	2330
1	2330
1	18
1	10
1	2330
1	2330
1	2330
1	2330
1	2330
1	2330
1	2330
1	12
1	18
1	2330
1	10
1	2330
1	9
1	2330
1	2330
1	2330
1	2330
1	2330
1	2330
1	2330
1	2330
1	9
1	2330
1	2330
1	10
1	2330
1	16
1	8
1	2330
1	2330
1	8
1	2330
1	2330
1	2330
1	2330
1	2330
1	2330
1	2330
1	12
1	9
1	2330
1	2330
1	13
1	2330
1	2330
1	2330
1	2330
1	14
1	2330
1	inf
1	2330
1	2330
1	2330
1	2330
1	2330
1	2330
1	2330
1	12
1	2330
1	2330
1	2330
1	2330
1	2330
1	2330
1	2330
1	2330
1	2330
1	2330
1	2330
1	2330
1	18
1	2330
1	8
1	27
1	2330
1	11
1	2330
1	2330
1	2330
1	2330
1	2330
1	18
1	10
1	2330
1	7
1	2330
1	2330
1	2330
1	2330
1	2330
1	2330
1	2330
1	2330
1	2330
1	2330
1	2330
1	2330
1	2330
1	2330
1	2330
1	9
1	2330
1	54
1	2330
1	14
1	2330
1	13
1	2330
1	2330
1	2330
1	2330
1	2330
1	2330
1	2330
1	2330
1	2330
1	2330
1	2330
1	2330
1	2330
1	5
1	2330
1	2330
1	2330
1	8
1	2330
1	12
1	2330
1	2330
1	12
1	2330
1	2330
1	2330
1	2330
1	54
1	2330
1	2330
1	2330
1	7
1	2330
1	2330
1	2330
1	2330
1	2330
1	2330
1	2330
1	2330
1	2330
1	2330
1	2330
1	2330
1	2330
1	2330
1	2330
1	11
1	2330
1	2330
1	2330
1	2330
1	2330
1	2330
1	2330
1	54
1	2330
1	9
1	2330
1	2330
1	2330
1	2330
1	2330
1	2330
1	2330
1	2330
1	54
1	2330
1	2330
1	2330
1	2330
1	2330
1	2330
1	2330
1	inf
1	2330
1	6
1	2330
1	2330
1	2330
1	2330
1	5
1	2330
1	2330
1	2330
1	2330
1	9
1	2330
1	2330
1	9
1	16
1	54
1	2330
1	2330
1	14
1	10
1	2330
1	2330
1	2330
1	2330
1	2330
1	2330
1	2330
1	2330
1	8
1	2330
1	2330
1	2330
1	2330
1	2330
1	2330
1	2330
1	2330
1	2330
1	2330
1	2330
1	2330
1	2330
1	54
1	2330
1	2330
1	3
1	2330
1	2330
1	2330
1	2330
1	2330
1	2330
1	12
1	2330
1	2330
1	2330
1	6
1	4
1	2330
1	27
1	2330
1	2330
1	2330
1	2330
1	2330
1	2330
1	2330
1	6
1	2330
1	2330
1	8
1	2330
1	2330
1	8
1	2330
1	2330
1	2330
1	2330
1	2330
1	2330
1	2330
1	2330
1	2330
1	2330
1	2330
1	2330
1	2330
1	2330
1	2330
1	2330
1	14
1	2330
1	2330
1	2330
1	2330
1	2330
1	2330
1	2330
1	18
1	2330
1	2330
1	2330
1	8
1	7
1	2330
1	2330
1	11
1	2330
1	2330
1	2330
1	11
1	2330
1	12
1	2330
1	12
1	2330
1	54
1	2330
1	2330
1	2330
1	2330
1	2330
1	2330
1	2330
1	2330
1	2330
1	2330
1	2330
1	2330
1	2330
1	11
1	2330
1	2330
1	2330
1	2330
1	2330
1	2330
1	2330
1	2330
1	2330
1	2330
1	2330
1	2330
1	2330
1	2330
1	2330
1	2330
1	2330
1	2330
1	18
1	2330
1	13
1	2330
1	2330
1	27
1	2330
1	2330
1	2330
1	2330
1	2330
1	2330
1	2330
1	18
1	2330
1	2330
1	2330
1	2330
1	2330
1	7
1	2330
1	2330
1	2330
1	7
1	2330
1	6
1	2330
1	4
1	2330
1	2330
1	9
1	2330
1	2330
1	16
1	2330
1	2330
1	2330
1	2330
1	2330
1	2330
1	9
1	2330
1	2330
1	2330
1	2330
1	6
1	2330
1	2330
1	2330
1	3
1	2330
1	2330
1	2330
1	2330
1	8
1	2330
1	2330
1	2330
1	2330
1	2330
1	18
1	2330
1	2330
1	2330
1	2330
1	2330
1	2330
1	12
1	2330
1	2330
1	2330
1	2330
1	2330
1	18
1	12
1	6
1	2330
1	2330
1	2330
1	2330
1	5
1	2330
1	2330
1	2330
1	11
1	2330
1	2330
1	2330
1	2330
1	2330
1	54
1	2330
1	4
1	2330
1	2330
1	2330
1	9
1	2330
1	2330
1	2330
1	2330
1	2330
1	2330
1	2330
1	2330
1	2330
1	54
1	2330
1	2330
1	2330
1	2330
1	2330
1	2330
1	2330
1	2330
1	2330
1	2330
1	2330
1	2330
1	2330
1	2330
1	2330
1	2330
1	2330
1	2330
1	2330
1	2330
1	2330
1	2330
1	2330
1	2330
1	2330
1	2330
1	2330
1	2330
1	2330
1	2330
1	2330
1	2330
1	2330
1	2330
1	2330
1	2330
1	2330
1	2330
1	2330
1	2330
1	2330
1	2330
1	7
1	5
1	2330
1	2330
1	2330
1	2330
1	2330
1	2330
1	2330
1	2330
1	2330
1	2330
1	2330
1	2330
1	2330
1	2330
1	2330
1	2330
1	2330
1	2330
1	8
1	2330
1	2330
1	2330
1	2330
1	2330
1	2330
1	2330
1	2330
1	2330
1	7
1	2330
1	2330
1	2330
1	2330
1	2330
1	2330
1	2330
1	13
1	2330
1	2330
1	8
1	8
1	2330
1	2330
1	2330
1	2330
1	2330
1	2330
1	5
1	2330
1	2330
1	2330
1	2330
1	2330
1	14
1	9
1	2330
1	2330
1	16
1	2330
1	2330
1	2330
1	2330
1	2330
1	2330
1	2330
1	2330
1	2330
1	2330
1	2330
1	12
1	2330
1	2330
1	2330
1	2330
1	2330
1	2330
1	2330
1	10
1	2330
1	2330
1	2330
1	2330
1	2330
1	2330
1	2330
1	2330
1	2330
1	2330
1	2330
1	2330
1	2330
1	2330
1	2330
1	14
1	10
1	5
1	18
1	2330
1	2330
1	2330
1	6
1	2330
1	2330
1	2330
1	2330
1	2330
1	2330
1	5
1	2330
1	12
1	2330
1	2330
1	2330
1	2330
1	2330
1	2330
1	2330
1	2330
1	2330
1	2330
1	2330
1	2330
1	2330
1	2330
1	2330
1	2330
1	inf
1	2330
1	2330
1	2330
1	2330
1	2330
1	2330
1	2330
1	2330
1	2330
1	2330
1	2330
1	2330
1	2330
1	2330
1	2330
1	2330
1	2330
1	2330
1	2330
1	2330
1	2330
1	2330
1	2330
1	2330
1	7
1	2330
1	2330
1	2330
1	2330
1	2330
1	5
1	2330
1	2330
1	2330
1	2330
1	18
1	2330
1	6
1	2330
1	2330
1	2330
1	2330
1	2330
1	2330
1	12
1	2330
1	2330
1	2330
1	2330
1	2330
1	2330
1	2330
1	2330
1	6
1	2330
1	2330
1	2330
1	2330
1	54
1	2330
1	2330
1	2330
1	2330
1	2330
1	2330
1	2330
1	2330
1	2330
1	2330
1	2330
1	2330
1	2330
1	2330
1	2330
1	2330
1	2330
1	2330
1	2330
1	2330
1	2330
1	2330
1	2330
1	2330
1	2330
1	2330
1	2330
1	16
1	2330
1	2330
1	2330
1	2330
1	2330
1	2330
1	2330
1	2330
1	2330
1	2330
1	2330
1	2330
1	2330
1	2330
1	2330
1	2330
1	2330
1	2330
1	2330
1	2330
1	2330
1	6
1	2330
1	2330
1	2330
1	2330
1	2330
1	2330
1	2330
1	2330
1	2330
1	2330
1	2330
1	2330
1	2330
1	5
1	2330
1	2330
1	2330
1	2330
1	2330
1	2330
1	2330
1	18
1	16
1	2330
1	2330
1	2330
1	2330
1	2330
1	4
1	2330
1	2330
1	2330
1	2330
1	2330
1	6
1	2330
1	2330
1	2330
1	6
1	2330
1	2330
1	2330
1	2330
1	2330
1	2330
1	2330
1	2330
1	2330
1	2330
1	10
1	2330
1	2330
1	2330
1	2330
1	2330
1	2330
1	2330
1	6
1	2330
1	2330
1	2330
1	2330
1	10
1	2330
1	2330
1	18
1	2330
1	2330
1	2330
1	2330
1	2330
1	2330
1	2330
1	2330
1	2330
1	2330
1	2330
1	2330
1	12
1	2330
1	2330
1	5
1	2330
1	2330
1	2330
1	2330
1	12
1	2330
1	2330
1	10
1	2330
1	2330
1	2330
1	2330
1	2330
1	2330
1	2330
1	2330
1	2330
1	2330
1	2330
1	2330
1	2330
1	10
1	2330
1	2330
1	2330
1	2330
1	5
1	2330
1	2330
1	2330
1	2330
1	2330
1	5
1	2330
1	7
1	2330
1	2330
1	2330
1	6
1	2330
1	7
1	2330
1	2330
1	8
1	2330
1	4
1	2330
1	2330
1	2330
1	11
1	2330
1	2330
1	2330
1	2330
1	2330
1	14
1	2330
1	2330
1	2330
1	2330
1	2330
1	2330
1	27
1	2330
1	5
1	9
1	2330
1	8
1	2330
1	2330
1	2330
1	2330
1	6
1	2330
1	2330
1	2330
1	2330
1	12
1	2330
1	2330
1	11
1	2330
1	2330
1	2330
1	2330
1	2330
1	54
1	2330
1	11
1	2330
1	2330
1	2330
1	2330
1	2330
1	2330
1	2330
1	13
1	2330
1	2330
1	2330
1	2330
1	2330
1	2330
1	2330
1	2330
1	2330
1	18
1	5
1	2330
1	5
1	2330
1	2330
1	2330
1	2330
1	2330
1	2330
1	2330
1	2330
1	4
1	9
1	2330
1	2330
1	11
1	2330
1	2330
1	2330
1	2330
1	2330
1	2330
1	6
1	2330
1	2330
1	2330
1	2330
1	2330
1	2330
1	14
1	inf
1	2330
1	2330
1	2330
1	2330
1	2330
1	4
1	2330
1	2330
1	2330
1	2330
1	2330
1	inf
1	2330
1	2330
1	2330
1	2330
1	2330
1	2330
1	2330
1	2330
1	2330
1	2330
1	11
1	10
1	2330
1	8
1	2330
1	8
1	2330
1	2330
1	2330
1	2330
1	2330
1	2330
1	18
1	2330
1	2330
1	2330
1	2330
1	18
1	2330
1	2330
1	2330
1	2330
1	2330
1	2330
1	2330
1	54
1	2330
1	2330
1	5
1	2330
1	2330
1	2330
1	2330
1	2330
1	2330
1	2330
1	2330
1	2330
1	2330
1	2330
1	2330
1	2330
1	2330
1	2330
1	2330
1	2330
1	2330
1	2330
1	2330
1	7
1	2330
1	2330
1	2330
1	2330
1	2330
1	2330
1	2330
1	2330
1	2330
1	2330
1	12
1	2330
1	2330
1	2330
1	2330
1	2330
1	2330
1	2330
1	2330
1	2330
1	2330
1	11
1	2330
1	2330
1	18
1	2330
1	11
1	2330
1	16
1	7
1	2330
1	2330
1	2330
1	2330
1	2330
1	14
1	2330
1	54
1	2330
1	2330
1	16
1	2330
1	27
1	11
1	2330
1	2330
1	2330
1	2330
1	27
1	2330
1	2330
1	2330
1	2330
1	2330
1	2330
1	2330
1	2330
1	2330
1	2330
1	2330
1	2330
1	2330
1	4
1	2330
1	7
1	2330
1	2330
1	2330
1	18
1	2330
1	2330
1	2330
1	2330
1	2330
1	5
1	2330
1	2330
1	2330
1	2330
1	2330
1	2330
1	5
1	2330
1	2330
1	2330
1	2330
1	2330
1	2330
1	2330
1	2330
1	2330
1	2330
1	2330
1	2330
1	2330
1	2330
1	2330
1	2330
1	14
1	2330
1	7
1	2330
1	2330
1	2330
1	2330
1	2330
1	2330
1	2330
1	inf
1	2330
1	2330
1	2330
1	2330
1	2330
1	2330
1	2330
1	2330
1	2330
1	2330
1	2330
1	2330
1	2330
1	2330
1	2330
1	4
1	18
1	2330
1	2330
1	2330
1	2330
1	2330
1	18
1	14
1	16
1	2330
1	2330
1	2330
1	14
1	2330
1	2330
1	2330
1	3
1	2330
1	2330
1	2330
1	2330
1	2330
1	2330
1	2330
1	2330
1	2330
1	2330
1	2330
1	2330
1	2330
1	2330
1	2330
1	10
1	2330
1	inf
1	2330
1	2330
1	2330
1	27
1	2330
1	2330
1	2330
1	2330
1	2330
1	2330
1	5
1	7
1	2330
1	2330
1	2330
1	2330
1	2330
1	2330
1	2330
1	2330
1	2330
1	2330
1	2330
1	7
1	2330
1	2330
1	2330
1	2330
1	16
1	2330
1	2330
1	2330
1	inf
1	2330
1	2330
1	2330
1	2330
1	2330
1	2330
1	2330
1	2330
1	2330
1	2330
1	2330
1	12
1	7
1	9
1	2330
1	7
1	10
1	2330
1	12
1	2330
1	2330
1	2330
1	2330
1	2330
1	2330
1	2330
1	2330
1	2330
1	2330
1	2330
1	2330
1	2330
1	2330
1	2330
1	2330
1	5
1	2330
1	2330
1	2330
1	2330
1	2330
1	2330
1	2330
1	2330
1	2330
1	2330
1	2330
1	2330
1	2330
1	18
1	2330
1	2330
1	2330
1	2330
1	2330
1	2330
1	8
1	5
1	2330
1	2330
1	2330
1	2330
1	2330
1	2330
1	2330
1	2330
1	2330
1	2330
1	2330
1	13
1	2330
1	2330
1	2330
1	2330
1	2330
1	2330
1	2330
1	2330
1	2330
1	2330
1	2330
1	2330
1	54
1	2330
1	2330
1	2330
1	2330
1	2330
1	2330
1	5
1	2330
1	2330
1	2330
1	2330
1	2330
1	2330
1	2330
1	2330
1	2330
1	2330
1	14
1	2330
1	2330
1	2330
1	2330
1	2330
1	2330
1	2330
1	2330
1	2330
1	2330
1	2330
1	2330
1	2330
1	2330
1	2330
1	2330
1	2330
1	2330
1	2330
1	2330
1	2330
1	2330
1	2330
1	2330
1	14
1	2330
1	2330
1	2330
1	2330
1	2330
1	2330
1	2330
1	54
1	9
1	2330
1	2330
1	2330
1	2330
1	6
1	2330
1	2330
1	9
1	2330
1	2330
1	2330
1	2330
1	2330
1	2330
1	2330
1	2330
1	2330
1	2330
1	2330
1	2330
1	2330
1	2330
1	2330
1	inf
1	2330
1	2330
1	2330
1	2330
1	2330
1	2330
1	2330
1	2330
1	2330
1	2330
1	2330
1	2330
1	2330
1	2330
1	6
1	2330
1	2330
1	2330
1	2330
1	2330
1	6
1	2330
1	2330
1	2330
1	2330
1	2330
1	2330
1	2330
1	2330
1	3
1	2330
1	2330
1	2330
1	2330
1	2330
1	2330
1	11
1	2330
1	2330
1	2330
1	2330
1	8
1	2330
1	2330
1	9
1	2330
1	2330
1	4
1	6
1	2330
1	2330
1	2330
1	54
1	2330
1	2330
1	2330
1	2330
1	2330
1	2330
1	2330
1	2330
1	2330
1	2330
1	7
1	2330
1	2330
1	2330
1	2330
1	6
1	2330
1	2330
1	2330
1	6
1	2330
1	2330
1	2330
1	2330
1	2330
1	2330
1	2330
1	54
1	2330
1	2330
1	2330
1	2330
1	2330
1	2330
1	2330
1	27
1	2330
1	2330
1	2330
1	2330
1	2330
1	2330
1	2330
1	2330
1	2330
1	9
1	2330
1	2330
1	4
1	2330
1	2330
1	2330
1	2330
1	6
1	2330
1	2330
1	2330
1	2330
1	2330
1	2330
1	7
1	2330
1	2330
1	2330
1	16
1	2330
1	54
1	2330
1	2330
1	2330
1	2330
1	2330
1	2330
1	2330
1	8
1	2330
1	2330
1	2330
1	2330
1	2330
1	16
1	2330
1	2330
1	2330
1	8
1	2330
1	2330
1	2330
1	12
1	2330
1	5
1	2330
1	2330
1	2330
1	2330
1	2330
1	2
1	2330
1	2330
1	2330
1	2330
1	2330
1	2330
1	2330
1	2330
1	2330
1	54
1	2330
1	7
1	2330
1	2330
1	2330
1	3
1	2330
1	2330
1	2330
1	2330
1	2330
1	2330
1	2330
1	2330
1	2330
1	9
1	2330
1	6
1	2330
1	2330
1	2330
1	2330
1	2330
1	2330
1	2330
1	inf
1	13
1	2330
1	2330
1	13
1	12
1	2330
1	2330
1	2330
1	2330
1	2330
1	2330
1	2330
1	2330
1	2330
1	4
1	2330
1	2330
1	2330
1	2330
1	2330
1	2330
1	54
1	2330
1	2330
1	2330
1	2330
1	2330
1	54
1	2330
1	2330
1	10
1	2330
1	2330
1	9
1	12
1	2330
1	13
1	10
1	2330
1	2330
1	2330
1	2330
1	13
1	2330
1	2330
1	2330
1	2330
1	2330
1	2330
1	2330
1	2330
1	2330
1	2330
1	2330
1	2330
1	2330
1	2330
1	2330
1	5
1	2330
1	2330
1	2330
1	2330
1	2330
1	2330
1	2330
1	3
1	12
1	2330
1	2330
1	2330
1	2330
1	2330
1	12
1	inf
1	18
1	2330
1	2330
1	2330
1	2330
1	2330
1	2330
1	2330
1	2330
1	2330
1	11
1	2330
1	12
1	2330
1	4
1	2330
1	2330
1	4
1	2330
1	2330
1	2330
1	2330
1	2330
1	2330
1	2330
1	2330
1	2330
1	2330
1	2330
1	2330
1	2330
1	2330
1	18
1	2330
1	2330
1	2330
1	6
1	2330
1	2330
1	6
1	3
1	7
1	2330
1	2330
1	2330
1	2330
1	2330
1	2330
1	2330
1	2330
1	inf
1	2330
1	2330
1	2330
1	2330
1	2330
1	2330
1	5
1	2330
1	2330
1	2330
1	2330
1	2330
1	2330
1	2330
1	2330
1	2330
1	2330
1	2330
1	2330
1	2330
1	2330
1	2330
1	2330
1	2330
1	10
1	2330
1	2330
1	2330
1	27
1	10
1	2330
1	2330
1	2330
1	2330
1	2330
1	6
1	2330
1	2330
1	2330
1	2330
1	2330
1	2330
1	2330
1	2330
1	18
1	2330
1	2330
1	2330
1	2330
1	3
1	2330
1	14
1	2330
1	4
1	2330
1	2330
1	27
1	2330
1	7
1	2330
1	2330
1	3
1	8
1	5
1	2330
1	2330
1	2330
1	2330
1	2330
1	2330
1	2330
1	2330
1	3
1	2330
1	2330
1	2330
1	2330
1	2330
1	2330
1	2330
1	5
1	18
1	2330
1	2330
1	2330
1	2330
1	2330
1	2330
1	2330
1	9
1	2330
1	2330
1	6
1	2330
1	2330
1	2330
1	2330
1	2330
1	2330
1	2330
1	10
1	2330
1	2330
1	2330
1	2330
1	2330
1	16
1	2330
1	2330
1	7
1	2330
1	2330
1	2330
1	8
1	2330
1	2330
1	2330
1	2330
1	2330
1	2330
1	2330
1	2330
1	2330
1	3
1	12
1	inf
1	2330
1	2330
1	2330
1	2330
1	2330
1	27
1	2330
1	2330
1	2330
1	2330
1	2330
1	2330
1	2330
1	5
1	2330
1	2330
1	2330
1	12
1	2330
1	2330
1	2330
1	2330
1	2330
1	2330
1	2330
1	6
1	2330
1	2330
1	2330
1	2330
1	2330
1	2330
1	2330
1	2330
1	2330
1	2330
1	6
1	4
1	2330
1	2330
1	27
1	3
1	14
1	2330
1	2330
1	2330
1	2330
1	2330
1	2330
1	10
1	12
1	11
1	2330
1	2330
1	14
1	2330
1	2330
1	2330
1	2330
1	2330
1	2330
1	2330
1	54
1	9
1	2330
1	2330
1	6
1	2330
1	9
1	2330
1	10
1	2330
1	2330
1	2330
1	2330
1	2330
1	16
1	2330
1	12
1	2330
1	2330
1	2330
1	2330
1	2330
1	2330
1	2330
1	2330
1	2330
1	2330
1	2330
1	2330
1	2330
1	2330
1	2330
1	2330
1	2330
1	2330
1	2330
1	2330
1	2330
1	2330
1	2330
1	2330
1	2330
1	2330
1	16
1	2330
1	5
1	2330
1	10
1	2330
1	2330
1	2330
1	2330
1	7
1	2330
1	2330
1	2330
1	2330
1	12
1	2330
1	2330
1	2330
1	2330
1	2330
1	2330
1	2330
1	10
1	2330
1	2330
1	2330
1	2330
1	2330
1	2330
1	2330
1	2330
1	2330
1	2330
1	2330
1	2330
1	2330
1	2330
1	2330
1	2330
1	2330
1	2330
1	2330
1	2330
1	2330
1	6
1	2330
1	2330
1	12
1	2330
1	2330
1	27
1	5
1	2330
1	2330
1	2330
1	2330
1	2330
1	2330
1	2330
1	2330
1	2330
1	2330
1	2330
1	2330
1	18
1	2330
1	2330
1	2330
1	2330
1	2330
1	2330
1	2330
1	2330
1	2330
1	2330
1	2330
1	2330
1	2330
1	18
1	2330
1	7
1	2330
1	2330
1	2330
1	2330
1	2330
1	2330
1	2330
1	6
1	8
1	2330
1	2330
1	2330
1	2330
1	2330
1	2330
1	2330
1	2330
1	2330
1	2330
1	2330
1	13
1	2330
1	2330
1	2330
1	2330
1	4
1	2330
1	2330
1	2330
1	2330
1	2330
1	2330
1	2330
1	2330
1	2330
1	2330
1	2330
1	2330
1	2330
1	13
1	2330
1	2330
1	2330
1	2330
1	2330
1	2330
1	2330
1	2330
1	2330
1	13
1	2330
1	2330
1	2330
1	2330
1	11
1	2330
1	2330
1	2330
1	2330
1	5
1	2330
1	2330
1	2330
1	2330
1	2330
1	2330
1	2330
1	2330
1	2330
1	2330
1	2330
1	2330
1	2330
1	2330
1	2330
1	2330
1	2330
1	2330
1	13
1	2330
1	2330
1	8
1	2330
1	2330
1	5
1	2330
1	2330
1	2330
1	5
1	2330
1	2330
1	2330
1	12
1	2330
1	2330
1	2330
1	2330
1	2330
1	3
1	2330
1	18
1	2330
1	2330
1	3
1	2330
1	2330
1	2330
1	2330
1	2330
1	2330
1	2
1	2330
1	2330
1	2330
1	2330
1	2330
1	2330
1	2330
1	2330
1	2330
1	2330
1	2330
1	2330
1	2330
1	2330
1	2330
1	2330
1	13
1	2330
1	2330
1	2330
1	2330
1	2330
1	2330
1	2330
1	2330
1	2330
1	5
1	7
1	2330
1	2330
1	2330
1	2330
1	2330
1	2330
1	2330
1	10
1	6
1	2330
1	12
1	2330
1	2330
1	2330
1	2330
1	2330
1	2330
1	2330
1	2330
1	2330
1	2330
1	2330
1	2330
1	2330
1	2330
1	2330
1	2330
1	2330
1	2330
1	16
1	2330
1	2330
1	10
1	2330
1	2330
1	2330
1	2330
1	2330
1	2330
1	2330
1	2330
1	2330
1	2330
1	2330
1	3
1	2330
1	2330
1	2330
1	10
1	2330
1	6
1	18
1	54
1	2330
1	2330
1	2330
1	2330
1	2330
1	2330
1	2330
1	2330
1	2330
1	2330
1	2330
1	2330
1	2330
1	2330
1	2330
1	2330
1	2330
1	2330
1	2330
1	8
1	2330
1	2330
1	2330
1	2330
1	2330
1	54
1	2330
1	2330
1	2330
1	2330
1	2330
1	2330
1	2330
1	2330
1	10
1	2330
1	10
1	2330
1	2330
1	4
1	2330
1	2330
1	6
1	2330
1	2330
1	2330
1	2330
1	2330
1	2330
1	2330
1	2330
1	2330
1	2330
1	2330
1	2330
1	2330
1	2330
1	2330
1	2330
1	2330
1	2330
1	2330
1	12
1	2330
1	2330
1	2330
1	5
1	2330
1	2330
1	2330
1	2330
1	2330
1	2330
1	2330
1	2330
1	2330
1	2330
1	2330
1	2330
1	2330
1	2330
1	2330
1	2330
1	2330
1	2330
1	2330
1	2330
1	2330
1	2330
1	2330
1	2330
1	27
1	2330
1	8
1	2330
1	2330
1	2330
1	4
1	2330
1	5
1	2330
1	2330
1	2330
1	4
1	2330
1	2330
1	2330
1	14
1	2330
1	2330
1	2330
1	2330
1	2330
1	2330
1	2330
1	9
1	12
1	12
1	2330
1	2330
1	2330
1	2330
1	2330
1	2330
1	2330
1	2330
1	2330
1	2330
1	2330
1	12
1	2330
1	2330
1	5
1	2330
1	2330
1	2330
1	2330
1	2330
1	2330
1	2330
1	5
1	2330
1	2330
1	2330
1	2330
1	2330
1	2330
1	2330
1	2330
1	2330
1	2330
1	2330
1	3
1	2330
1	2330
1	2330
1	2330
1	16
1	2330
1	2330
1	2330
1	2330
1	2330
1	2330
1	8
1	2330
1	2330
1	6
1	2330
1	2330
1	2330
1	14
1	2330
1	2330
1	2330
1	2330
1	2330
1	2330
1	2330
1	27
1	2330
1	2330
1	2330
1	2330
1	2330
1	2330
1	3
1	5
1	10
1	2330
1	2330
1	2330
1	27
1	2330
1	5
1	2330
1	4
1	2330
1	2330
1	27
1	2330
1	2330
1	2330
1	27
1	2330
1	10
1	4
1	6
1	2330
1	2330
1	2330
1	27
1	2330
1	2330
1	2330
1	2330
1	2330
1	2330
1	2330
1	2330
1	2330
1	2330
1	2330
1	2330
1	2330
1	16
1	2330
1	5
1	54
1	2330
1	2330
1	18
1	2330
1	2330
1	2330
1	2330
1	2330
1	2330
1	2330
1	2330
1	2330
1	2330
1	2330
1	2330
1	2330
1	2330
1	2330
1	2330
1	2330
1	2330
1	5
1	2330
1	2330
1	2330
1	2330
1	18
1	2330
1	2330
1	2330
1	2330
1	2330
1	2330
1	3
1	2330
1	2330
1	2330
1	2330
1	2330
1	2330
1	7
1	2330
1	2330
1	2330
1	2330
1	2330
1	2330
1	2330
1	2330
1	12
1	2330
1	8
1	2330
1	2330
1	2330
1	2330
1	2330
1	12
1	2330
1	2330
1	2330
1	2330
1	2330
1	2330
1	2330
1	2330
1	2330
1	2330
1	2330
1	2330
1	2330
1	2330
1	2330
1	2330
1	2330
1	4
1	8
1	2330
1	2330
1	2330
1	16
1	2330
1	2
1	2330
1	2330
1	6
1	2330
1	2330
1	2330
1	16
1	2330
1	2330
1	2330
1	2330
1	9
1	7
1	11
1	2330
1	2330
1	2330
1	2330
1	2330
1	18
1	2330
1	2330
1	2330
1	2330
1	2330
1	2330
1	2330
1	2330
1	2330
1	2330
1	2330
1	2330
1	2330
1	2330
1	2330
1	2330
1	2330
1	2330
1	2330
1	2330
1	2330
1	2330
1	27
1	2330
1	2330
1	2330
1	54
1	2330
1	2330
1	2330
1	2330
1	2330
1	2330
1	2330
1	2330
1	2330
1	8
1	8
1	2330
1	2330
1	5
1	2330
1	2330
1	18
1	13
1	2330
1	18
1	2330
1	2330
1	2330
1	2330
1	2330
1	2330
1	2330
1	2330
1	2330
1	2330
1	2330
1	2330
1	2330
1	2330
1	9
1	4
1	2330
1	2330
1	2330
1	2330
1	2330
2	13
2	2330
2	7
2	4
2	8
2	4
2	4
2	3
2	18
2	5
2	6
2	5
2	5
2	3
2	6
2	9
2	4
2	12
2	9
2	4
2	6
2	16
2	54
2	3
2	7
2	4
2	6
2	9
2	10
2	12
2	5
2	7
2	2330
2	4
2	9
2	5
2	8
2	10
2	11
2	12
2	10
2	4
2	5
2	54
2	4
2	14
2	10
2	3
2	3
2	4
2	4
2	14
2	54
2	11
2	10
2	3
2	9
2	5
2	7
2	5
2	7
2	3
2	8
2	14
2	8
2	18
2	2330
2	9
2	2330
2	4
2	2330
2	3
2	2330
2	4
2	4
2	9
2	9
2	14
2	8
2	5
2	7
2	9
2	2330
2	3
2	2330
2	3
2	18
2	4
2	4
2	6
2	3
2	5
2	3
2	14
2	16
2	5
2	9
2	5
2	4
2	5
2	54
2	10
2	5
2	3
2	9
2	4
2	5
2	4
2	14
2	4
2	9
2	18
2	3
2	4
2	12
2	4
2	27
2	16
2	9
2	4
2	3
2	4
2	54
2	12
2	3
2	10
2	9
2	14
3	6
3	4
3	10
3	4
3	5
4	5
4	5


