# Persistence diagram </home/jens/Uni/data_topology/Project/reddit_results/graphs/1175-1.gml>
#
# Dimension   : 0
# Entries     : 239
# Betti number: 1
1	inf
1	156
1	7
1	156
1	156
1	156
1	156
1	82
1	156
1	156
1	82
1	156
1	5
1	156
1	156
1	82
1	8
1	156
1	156
1	4
1	156
1	156
1	156
1	6
1	5
1	156
1	4
1	156
1	156
1	4
1	156
1	156
1	156
1	156
1	156
1	82
1	7
1	156
1	156
1	6
1	6
1	156
1	82
1	6
1	156
1	5
1	5
1	82
1	156
1	6
1	5
1	4
1	156
1	156
1	156
1	82
1	4
1	156
1	4
1	8
1	3
1	5
1	82
1	156
1	4
1	82
1	82
1	4
1	6
1	156
1	4
1	82
1	5
1	82
1	9
1	6
1	82
1	6
1	5
1	5
1	5
1	3
1	156
1	156
1	156
1	7
1	9
1	156
1	156
1	82
1	4
1	3
1	156
1	82
1	5
1	5
1	5
1	9
1	156
1	156
1	8
1	4
1	3
1	156
1	5
1	4
1	7
1	156
1	3
1	6
1	156
1	156
1	4
1	3
1	3
1	156
1	6
1	5
1	82
1	156
1	156
1	3
1	156
1	156
1	6
1	4
1	5
1	3
1	8
1	82
1	5
1	6
1	4
1	3
1	3
1	4
1	82
1	156
1	3
1	82
1	82
1	156
1	3
1	156
1	156
1	5
1	7
1	156
1	4
1	8
1	5
1	156
1	156
1	156
1	3
1	3
1	156
1	9
1	3
1	156
1	4
1	5
1	5
1	82
1	4
1	5
2	4
2	4
2	9
2	82
2	82
2	82
2	3
2	4
2	82
2	82
2	82
2	82
2	82
2	82
2	82
2	82
2	82
2	82
2	6
2	82
2	82
2	82
2	82
2	82
2	82
2	82
2	82
2	82
2	82
2	4
2	82
2	3
2	8
2	82
2	82
2	82
2	82
2	4
2	82
2	82
2	82
2	82
2	82
2	4
2	82
2	82
2	82
2	4
2	82
2	82
2	3
2	82
2	82
2	82
2	82
2	82
2	82
2	82
2	4
2	156
2	82
2	82
2	82
2	82
2	82
2	4
2	82
2	9
2	82
2	82
2	82
2	82
3	4


