# Persistence diagram </home/jens/Uni/data_topology/Project/reddit_results/graphs/1180-1.gml>
#
# Dimension   : 0
# Entries     : 328
# Betti number: 1
1	inf
1	230
1	230
1	230
1	230
1	230
1	230
1	230
1	90
1	230
1	230
1	230
1	230
1	230
1	230
1	90
1	230
1	230
1	90
1	230
1	90
1	90
1	230
1	230
1	90
1	230
1	230
1	230
1	230
1	90
1	90
1	230
1	90
1	230
1	6
1	90
1	230
1	90
1	230
1	230
1	230
1	8
1	230
1	6
1	3
1	230
1	90
1	230
1	230
1	230
1	230
1	90
1	230
1	90
1	230
1	230
1	90
1	230
1	230
1	230
1	230
1	230
1	230
1	230
1	230
1	230
1	230
1	90
1	90
1	230
1	230
1	8
1	230
1	230
1	230
1	230
1	230
1	230
1	90
1	230
1	230
1	3
1	90
1	6
1	8
1	8
1	5
1	230
1	230
1	230
1	90
1	230
1	5
1	230
1	230
1	230
1	90
1	230
1	90
1	230
1	90
1	4
1	90
1	230
1	8
1	230
1	230
1	90
1	230
1	230
1	230
1	5
1	230
1	230
1	90
1	230
1	230
1	230
1	230
1	230
1	230
1	230
1	230
1	230
1	90
1	230
1	90
1	230
1	90
1	230
1	230
1	5
1	90
1	6
1	5
1	90
1	230
1	90
1	230
1	230
1	230
1	230
1	230
1	230
1	90
1	8
1	230
1	6
1	230
1	90
1	3
1	230
1	230
1	230
1	230
1	90
1	90
1	90
1	230
1	230
1	90
1	90
1	90
1	230
1	230
1	230
1	230
1	230
1	4
1	90
1	230
1	90
1	3
1	230
1	230
1	230
1	230
1	90
1	230
1	230
1	230
1	230
1	230
1	90
1	230
1	230
1	4
1	230
1	230
1	230
1	230
1	230
1	230
1	230
1	230
1	230
1	5
1	4
1	230
1	90
1	90
1	230
1	230
1	90
1	230
1	230
1	90
1	230
1	90
1	230
1	230
1	230
1	230
1	230
1	230
1	230
1	230
1	230
1	230
1	230
1	5
1	230
1	230
1	230
1	8
1	90
1	230
1	90
1	90
1	90
1	3
1	230
1	6
1	3
1	90
1	8
1	230
1	230
1	230
1	230
1	230
1	230
1	230
1	5
1	230
1	230
1	230
1	230
1	90
1	230
1	230
1	3
1	230
1	230
1	3
1	230
1	230
1	230
1	230
1	230
1	230
1	230
1	90
1	90
1	4
1	230
1	230
1	230
1	230
1	230
1	4
1	3
1	230
1	230
1	230
1	90
1	6
1	4
1	230
1	230
1	230
1	230
1	230
1	90
1	230
1	230
1	3
1	3
1	230
1	230
1	230
1	3
1	230
1	230
2	8
2	90
2	3
2	90
2	90
2	90
2	90
2	90
2	90
2	4
2	90
2	90
2	90
2	90
2	4
2	5
2	3
2	90
2	4
2	90
2	90
2	90
2	90
2	3
2	90
2	90
2	90
2	90
2	90
2	90
2	90
2	90
2	90
2	90


