# Persistence diagram </home/jens/Uni/data_topology/Project/reddit_results/graphs/1185-1.gml>
#
# Dimension   : 0
# Entries     : 203
# Betti number: 1
1	inf
1	170
1	170
1	170
1	170
1	148
1	170
1	170
1	148
1	148
1	12
1	170
1	170
1	170
1	148
1	148
1	148
1	148
1	170
1	148
1	170
1	12
1	170
1	148
1	170
1	148
1	148
1	12
1	170
1	170
1	170
1	148
1	148
1	148
1	170
1	170
1	148
1	148
1	148
1	148
1	148
1	148
1	170
1	148
1	148
1	148
1	170
1	170
1	170
1	170
1	170
1	170
1	170
1	170
1	170
1	170
1	12
1	170
1	170
1	170
1	170
1	148
1	170
1	148
1	170
1	170
1	148
1	170
1	12
1	148
1	170
1	170
1	148
1	148
1	170
1	148
1	170
1	148
1	148
1	170
1	12
1	170
1	170
1	170
1	170
1	170
1	170
1	170
1	170
1	148
1	170
1	170
1	170
1	170
1	170
1	170
1	148
1	170
1	170
2	148
2	12
2	148
2	148
2	148
2	148
2	148
2	148
2	148
2	148
2	148
2	148
2	148
2	148
2	148
2	148
2	148
2	148
2	12
2	148
2	148
2	148
2	170
2	148
2	148
2	148
2	148
2	4
2	148
2	148
2	148
2	148
2	148
2	148
2	148
2	148
2	148
2	148
2	148
2	148
2	148
2	148
2	148
2	148
2	148
2	148
2	148
2	148
2	12
2	148
2	148
2	148
2	148
2	148
2	148
2	148
2	148
2	148
2	148
2	148
2	148
2	148
2	148
2	148
2	148
2	148
2	148
2	148
2	148
2	5
2	12
2	5
2	148
2	148
2	6
2	12
2	148
2	148
2	148
2	148
2	148
2	4
2	148
2	148
2	148
2	148
2	148
2	148
2	148
2	3
2	148
2	148
2	148
3	148
3	12
3	12
3	12
3	6
3	6
3	12
3	6
3	12
3	12
3	12


