# Persistence diagram </home/jens/Uni/data_topology/Project/reddit_results/graphs/1195-1.gml>
#
# Dimension   : 0
# Entries     : 235
# Betti number: 1
1	inf
1	152
1	152
1	78
1	78
1	78
1	152
1	152
1	11
1	13
1	152
1	152
1	152
1	152
1	152
1	78
1	10
1	4
1	9
1	152
1	13
1	11
1	10
1	152
1	9
1	152
1	4
1	152
1	78
1	13
1	152
1	152
1	152
1	5
1	152
1	9
1	152
1	9
1	152
1	152
1	152
1	78
1	152
1	152
1	152
1	152
1	152
1	152
1	11
1	152
1	9
1	5
1	152
1	152
1	152
1	3
1	7
1	78
1	9
1	11
1	10
1	4
1	152
1	7
1	78
1	152
1	152
1	152
1	78
1	13
1	78
1	152
1	152
1	6
1	7
1	152
1	152
1	152
1	13
1	152
1	78
1	9
1	152
1	152
1	7
1	6
1	78
1	152
1	152
1	152
1	78
1	152
1	152
1	6
1	78
1	4
1	78
1	11
1	152
1	152
1	13
1	5
1	152
1	152
1	13
1	5
1	152
1	78
1	6
1	152
1	7
1	7
1	78
1	152
1	6
1	78
1	78
1	11
1	78
1	10
1	13
1	4
1	152
1	78
1	152
1	9
1	152
1	11
1	152
1	78
1	152
1	7
1	3
1	152
1	4
1	152
1	6
1	3
1	4
1	6
1	9
1	6
1	10
1	4
1	3
1	5
1	3
1	152
1	4
1	10
1	5
1	7
1	152
1	13
1	10
1	5
1	4
1	4
1	78
1	78
1	152
1	3
1	152
1	152
1	152
1	152
1	152
1	9
1	152
1	152
1	152
1	3
1	78
1	3
1	152
1	78
1	13
1	6
1	152
1	11
2	78
2	78
2	78
2	78
2	78
2	78
2	7
2	78
2	78
2	78
2	78
2	5
2	78
2	78
2	7
2	5
2	78
2	78
2	4
2	78
2	78
2	78
2	5
2	78
2	78
2	78
2	78
2	78
2	78
2	78
2	3
2	78
2	78
2	78
2	78
2	78
2	6
2	78
2	3
2	78
2	78
2	78
2	78
2	6
2	78
2	78
2	78
2	78
2	78
2	78
2	78
2	78
2	78
2	78
3	9


