# Persistence diagram </home/jens/Uni/data_topology/Project/reddit_results/graphs/1196-1.gml>
#
# Dimension   : 1
# Entries     : 59
# Betti number: 59
5	inf
6	inf
9	inf
9	inf
105	inf
105	inf
105	inf
105	inf
105	inf
105	inf
105	inf
105	inf
105	inf
105	inf
105	inf
105	inf
105	inf
137	inf
137	inf
137	inf
137	inf
137	inf
137	inf
137	inf
137	inf
137	inf
137	inf
137	inf
137	inf
137	inf
137	inf
137	inf
137	inf
137	inf
137	inf
137	inf
137	inf
137	inf
137	inf
137	inf
137	inf
137	inf
137	inf
137	inf
137	inf
137	inf
137	inf
137	inf
137	inf
137	inf
137	inf
137	inf
137	inf
137	inf
137	inf
137	inf
137	inf
137	inf
137	inf
