# Persistence diagram </home/jens/Uni/data_topology/Project/reddit_results/graphs/1216-1.gml>
#
# Dimension   : 1
# Entries     : 92
# Betti number: 92
8	inf
92	inf
92	inf
170	inf
170	inf
170	inf
170	inf
170	inf
170	inf
170	inf
170	inf
170	inf
170	inf
170	inf
170	inf
170	inf
170	inf
170	inf
170	inf
170	inf
170	inf
170	inf
170	inf
170	inf
170	inf
170	inf
170	inf
170	inf
170	inf
170	inf
170	inf
170	inf
170	inf
170	inf
170	inf
170	inf
170	inf
170	inf
170	inf
170	inf
170	inf
170	inf
170	inf
170	inf
170	inf
170	inf
170	inf
170	inf
170	inf
170	inf
170	inf
170	inf
170	inf
170	inf
170	inf
170	inf
170	inf
170	inf
170	inf
170	inf
170	inf
170	inf
170	inf
170	inf
170	inf
170	inf
170	inf
170	inf
170	inf
170	inf
170	inf
170	inf
170	inf
170	inf
170	inf
170	inf
170	inf
170	inf
170	inf
170	inf
170	inf
170	inf
170	inf
170	inf
170	inf
170	inf
170	inf
170	inf
170	inf
170	inf
170	inf
170	inf
