# Persistence diagram </home/jens/Uni/data_topology/Project/reddit_results/graphs/1218-1.gml>
#
# Dimension   : 1
# Entries     : 85
# Betti number: 85
5	inf
129	inf
129	inf
129	inf
129	inf
129	inf
147	inf
147	inf
147	inf
147	inf
147	inf
147	inf
147	inf
147	inf
147	inf
147	inf
147	inf
147	inf
147	inf
147	inf
147	inf
147	inf
147	inf
147	inf
147	inf
147	inf
147	inf
147	inf
147	inf
147	inf
147	inf
147	inf
147	inf
147	inf
147	inf
147	inf
147	inf
147	inf
147	inf
147	inf
147	inf
147	inf
147	inf
147	inf
147	inf
147	inf
147	inf
147	inf
147	inf
147	inf
147	inf
147	inf
147	inf
147	inf
147	inf
147	inf
147	inf
147	inf
147	inf
147	inf
147	inf
147	inf
147	inf
147	inf
147	inf
147	inf
147	inf
147	inf
147	inf
147	inf
147	inf
147	inf
147	inf
147	inf
147	inf
147	inf
147	inf
147	inf
147	inf
147	inf
147	inf
147	inf
147	inf
147	inf
147	inf
