# Persistence diagram </home/jens/Uni/data_topology/Project/reddit_results/graphs/1228-1.gml>
#
# Dimension   : 0
# Entries     : 320
# Betti number: 1
1	inf
1	313
1	313
1	313
1	313
1	313
1	313
1	313
1	313
1	313
1	313
1	313
1	313
1	313
1	313
1	313
1	313
1	313
1	313
1	313
1	313
1	313
1	313
1	313
1	313
1	313
1	313
1	313
1	41
1	313
1	313
1	313
1	313
1	313
1	313
1	313
1	313
1	313
1	313
1	313
1	313
1	313
1	313
1	313
1	313
1	313
1	313
1	313
1	313
1	313
1	313
1	313
1	313
1	313
1	313
1	313
1	313
1	313
1	313
1	313
1	313
1	313
1	313
1	313
1	313
1	313
1	313
1	313
1	313
1	313
1	41
1	313
1	313
1	313
1	313
1	313
1	313
1	313
1	313
1	313
1	313
1	313
1	313
1	313
1	313
1	313
1	313
1	313
1	313
1	313
1	313
1	313
1	313
1	313
1	41
1	313
1	313
1	313
1	313
1	41
1	313
1	313
1	313
1	313
1	313
1	313
1	313
1	313
1	313
1	313
1	313
1	313
1	313
1	313
1	313
1	313
1	313
1	313
1	313
1	313
1	313
1	313
1	313
1	313
1	313
1	313
1	313
1	313
1	313
1	313
1	313
1	313
1	313
1	313
1	313
1	313
1	313
1	313
1	313
1	313
1	313
1	313
1	313
1	313
1	313
1	313
1	313
1	313
1	313
1	313
1	41
1	313
1	313
1	313
1	313
1	313
1	313
1	313
1	41
1	313
1	313
1	313
1	313
1	313
1	313
1	313
1	313
1	313
1	313
1	313
1	313
1	313
1	313
1	313
1	313
1	313
1	313
1	313
1	313
1	313
1	313
1	313
1	313
1	313
1	313
1	313
1	313
1	313
1	313
1	313
1	41
1	5
1	313
1	313
1	313
1	313
1	313
1	313
1	313
1	313
1	313
1	313
1	313
1	313
1	313
1	313
1	313
1	313
1	313
1	313
1	313
1	313
1	313
1	313
1	313
1	313
1	313
1	313
1	313
1	313
1	313
1	313
1	313
1	313
1	313
1	313
1	313
1	313
1	313
1	313
1	313
1	313
1	313
1	313
1	313
1	313
1	313
1	313
1	313
1	313
1	313
1	313
1	313
1	313
1	313
1	313
1	313
1	313
1	313
1	313
1	313
1	313
1	313
1	313
1	313
1	313
1	313
1	313
1	313
1	313
1	313
1	313
1	313
1	313
1	313
1	313
1	313
1	313
1	313
1	313
1	313
1	313
1	313
1	313
1	313
1	313
1	313
1	313
1	313
1	313
1	41
1	313
1	313
1	313
1	313
1	313
1	313
1	313
1	313
1	41
1	313
1	313
1	313
2	41
2	41
2	41
2	41
2	41
2	41
2	41
2	41
2	41
2	41
2	41
2	41
2	41
2	41
2	5
2	41
2	41
2	41
2	41
2	41
2	41
2	41
2	41
2	41
3	41
3	41
3	4


