# Persistence diagram </home/jens/Uni/data_topology/Project/reddit_results/graphs/1229-1.gml>
#
# Dimension   : 1
# Entries     : 46
# Betti number: 46
49	inf
49	inf
243	inf
243	inf
243	inf
243	inf
243	inf
243	inf
243	inf
243	inf
243	inf
243	inf
243	inf
243	inf
243	inf
243	inf
243	inf
243	inf
243	inf
243	inf
243	inf
243	inf
243	inf
243	inf
243	inf
243	inf
243	inf
243	inf
243	inf
243	inf
243	inf
243	inf
243	inf
243	inf
243	inf
243	inf
243	inf
243	inf
243	inf
243	inf
243	inf
243	inf
243	inf
243	inf
243	inf
243	inf
