# Persistence diagram </home/jens/Uni/data_topology/Project/reddit_results/graphs/1232-1.gml>
#
# Dimension   : 0
# Entries     : 278
# Betti number: 1
1	inf
1	6
1	20
1	196
1	196
1	196
1	196
1	17
1	196
1	196
1	196
1	53
1	196
1	17
1	196
1	53
1	196
1	196
1	196
1	10
1	17
1	196
1	196
1	9
1	196
1	196
1	20
1	8
1	5
1	196
1	17
1	196
1	8
1	196
1	10
1	8
1	196
1	196
1	196
1	196
1	196
1	196
1	53
1	53
1	8
1	196
1	196
1	196
1	196
1	9
1	20
1	196
1	10
1	4
1	53
1	196
1	196
1	53
1	53
1	20
1	196
1	196
1	196
1	196
1	196
1	196
1	196
1	196
1	196
1	196
1	17
1	196
1	7
1	53
1	20
1	196
1	196
1	6
1	10
1	196
1	4
1	196
1	20
1	196
1	196
1	196
1	17
1	196
1	196
1	196
1	7
1	196
1	196
1	196
1	196
1	53
1	196
1	196
1	196
1	196
1	196
1	53
1	196
1	196
1	196
1	196
1	196
1	8
1	7
1	196
1	196
1	196
1	196
1	196
1	7
1	196
1	196
1	4
1	5
1	3
1	196
1	4
1	196
1	196
1	196
1	196
1	196
1	196
1	196
1	196
1	196
1	196
1	196
1	53
1	17
1	17
1	196
1	196
1	196
1	196
1	196
1	6
1	4
1	4
1	196
1	8
1	196
1	4
1	3
1	196
1	196
1	53
1	196
1	196
1	8
1	5
1	196
1	196
1	8
1	8
1	3
1	196
1	196
1	4
1	196
1	6
1	53
1	6
1	9
1	196
1	196
1	196
1	53
1	53
1	8
1	196
1	5
1	196
1	3
1	196
1	196
1	196
1	3
1	4
1	196
1	53
1	196
1	5
1	196
1	196
1	196
1	196
1	196
1	196
1	3
1	20
1	3
1	196
1	196
1	196
1	7
1	196
1	5
1	196
1	196
1	196
1	6
1	6
1	3
1	9
1	196
1	196
1	196
1	196
1	196
1	196
1	3
1	196
1	196
1	9
1	196
1	196
1	17
1	3
1	53
1	196
1	196
1	4
1	196
1	196
1	196
1	196
2	53
2	53
2	53
2	53
2	3
2	53
2	53
2	3
2	20
2	20
2	53
2	53
2	4
2	53
2	53
2	20
2	53
2	5
2	4
2	3
2	3
2	4
2	53
2	17
2	53
2	53
2	3
2	5
2	53
2	3
2	5
2	4
2	53
2	5
2	8
2	8
2	9
3	10
3	10
3	4
3	8
3	4
3	10
3	4
3	10
3	7


