# Persistence diagram </home/jens/Uni/data_topology/Project/reddit_results/graphs/1237-1.gml>
#
# Dimension   : 0
# Entries     : 251
# Betti number: 1
1	inf
1	139
1	76
1	139
1	76
1	76
1	76
1	139
1	76
1	139
1	76
1	76
1	139
1	139
1	139
1	76
1	7
1	139
1	8
1	8
1	76
1	76
1	10
1	10
1	76
1	7
1	139
1	7
1	5
1	139
1	76
1	76
1	8
1	139
1	139
1	139
1	139
1	139
1	139
1	5
1	76
1	139
1	139
1	6
1	4
1	139
1	139
1	139
1	76
1	10
1	139
1	5
1	139
1	139
1	76
1	76
1	139
1	4
1	139
1	76
1	139
1	76
1	139
1	139
1	139
1	5
1	4
1	139
1	8
1	3
1	5
1	139
1	10
1	76
1	7
1	76
1	4
1	8
1	139
1	76
1	139
1	76
1	4
1	4
1	139
1	6
1	3
1	7
1	139
1	139
1	7
1	5
1	139
1	139
1	76
1	4
1	5
1	139
1	76
1	4
1	4
1	4
1	7
1	139
1	4
1	10
1	76
1	139
1	139
1	6
1	8
1	3
1	4
1	76
1	5
1	76
1	5
1	139
1	4
1	139
1	3
1	4
1	76
1	4
1	139
1	3
1	7
1	76
1	8
1	139
1	7
1	8
1	139
1	3
1	76
1	5
1	4
1	139
1	139
1	139
1	7
1	139
1	4
1	5
1	5
1	4
1	4
1	139
1	4
1	139
1	139
1	4
1	3
1	8
1	4
1	139
1	7
1	5
1	139
1	8
1	76
1	3
1	76
1	139
1	139
1	3
1	10
1	3
1	139
1	3
1	4
1	139
1	7
1	3
1	139
1	3
1	6
1	4
1	139
1	4
1	76
1	76
1	4
1	139
1	139
1	139
1	7
1	3
1	7
1	3
1	3
1	4
1	3
1	139
1	76
1	7
1	10
1	4
1	139
2	76
2	76
2	76
2	76
2	76
2	76
2	3
2	3
2	76
2	76
2	3
2	4
2	5
2	76
2	76
2	76
2	76
2	5
2	3
2	10
2	76
2	76
2	76
2	76
2	8
2	4
2	5
2	76
2	5
2	76
2	76
2	76
2	76
2	5
2	76
2	76
2	4
2	76
2	76
2	76
2	76
2	76
2	76
2	4
2	76
2	76
2	76
2	76
2	76
3	5
3	4
3	5


