# Persistence diagram </home/jens/Uni/data_topology/Project/reddit_results/graphs/1240-1.gml>
#
# Dimension   : 1
# Entries     : 113
# Betti number: 113
11	inf
11	inf
11	inf
41	inf
78	inf
78	inf
78	inf
78	inf
78	inf
78	inf
78	inf
78	inf
78	inf
78	inf
78	inf
78	inf
78	inf
78	inf
78	inf
78	inf
78	inf
78	inf
78	inf
78	inf
78	inf
78	inf
78	inf
78	inf
78	inf
246	inf
246	inf
246	inf
246	inf
246	inf
246	inf
246	inf
246	inf
246	inf
246	inf
246	inf
246	inf
246	inf
246	inf
246	inf
246	inf
246	inf
246	inf
246	inf
246	inf
246	inf
246	inf
246	inf
246	inf
246	inf
246	inf
246	inf
246	inf
246	inf
246	inf
246	inf
246	inf
246	inf
246	inf
246	inf
246	inf
246	inf
246	inf
246	inf
246	inf
246	inf
246	inf
246	inf
246	inf
246	inf
246	inf
246	inf
246	inf
246	inf
246	inf
246	inf
246	inf
246	inf
246	inf
246	inf
246	inf
246	inf
246	inf
246	inf
246	inf
246	inf
246	inf
246	inf
246	inf
246	inf
246	inf
246	inf
246	inf
246	inf
246	inf
246	inf
246	inf
246	inf
246	inf
246	inf
246	inf
246	inf
246	inf
246	inf
246	inf
246	inf
246	inf
246	inf
246	inf
