# Persistence diagram </home/jens/Uni/data_topology/Project/reddit_results/graphs/1260-1.gml>
#
# Dimension   : 0
# Entries     : 263
# Betti number: 1
1	inf
1	225
1	225
1	225
1	225
1	225
1	225
1	225
1	225
1	225
1	225
1	225
1	225
1	225
1	38
1	225
1	61
1	225
1	225
1	225
1	225
1	61
1	225
1	225
1	225
1	225
1	225
1	225
1	225
1	225
1	225
1	225
1	38
1	22
1	225
1	225
1	61
1	225
1	225
1	225
1	225
1	225
1	225
1	225
1	225
1	225
1	61
1	225
1	225
1	225
1	225
1	225
1	38
1	225
1	225
1	225
1	16
1	225
1	225
1	225
1	225
1	16
1	225
1	225
1	61
1	225
1	61
1	225
1	8
1	225
1	225
1	61
1	225
1	16
1	225
1	225
1	225
1	225
1	225
1	16
1	225
1	225
1	61
1	225
1	225
1	225
1	225
1	225
1	225
1	61
1	225
1	225
1	225
1	225
1	225
1	225
1	225
1	225
1	16
1	8
1	225
1	225
1	225
1	225
1	225
1	3
1	225
1	225
1	225
1	225
1	225
1	225
1	225
1	38
1	225
1	225
1	225
1	22
1	225
1	225
1	225
1	225
1	225
1	38
1	225
1	225
1	225
1	61
1	225
1	225
1	22
1	225
1	225
1	225
1	16
1	225
1	225
1	225
1	225
1	225
1	225
1	8
1	225
1	225
1	225
1	61
1	225
1	225
1	225
1	225
1	225
1	225
1	225
1	225
1	225
1	225
1	61
1	38
1	225
1	225
1	16
1	16
1	225
1	3
1	225
1	225
1	8
1	225
1	225
1	225
1	225
1	225
1	225
1	61
1	225
1	16
1	225
1	225
1	225
1	225
1	225
1	225
1	225
1	3
1	225
1	225
1	61
1	225
1	38
1	61
1	225
1	225
1	225
1	225
1	225
1	225
1	225
1	225
1	22
1	225
2	61
2	16
2	8
2	3
2	61
2	8
2	38
2	61
2	61
2	38
2	3
2	38
2	16
2	38
2	38
2	38
2	61
2	61
2	3
2	22
2	61
2	16
2	16
2	4
2	38
2	16
2	61
2	16
2	61
2	61
2	61
2	16
2	61
2	38
2	61
2	22
2	61
2	61
2	38
2	61
2	38
2	61
2	61
2	4
2	61
2	61
3	16
3	22
3	16
3	38
3	22
3	38
3	38
3	38
3	38
3	22
3	38
4	16
4	5
4	22
4	16
5	16
6	16


