# Persistence diagram </home/jens/Uni/data_topology/Project/reddit_results/graphs/1269-1.gml>
#
# Dimension   : 1
# Entries     : 54
# Betti number: 54
4	inf
7	inf
106	inf
106	inf
137	inf
137	inf
137	inf
137	inf
137	inf
137	inf
137	inf
137	inf
137	inf
137	inf
137	inf
137	inf
137	inf
137	inf
137	inf
137	inf
137	inf
137	inf
137	inf
137	inf
137	inf
137	inf
137	inf
137	inf
137	inf
137	inf
137	inf
137	inf
137	inf
137	inf
137	inf
137	inf
137	inf
137	inf
137	inf
137	inf
137	inf
137	inf
137	inf
137	inf
137	inf
137	inf
137	inf
137	inf
137	inf
137	inf
137	inf
137	inf
137	inf
137	inf
