# Persistence diagram </home/jens/Uni/data_topology/Project/reddit_results/graphs/1270-1.gml>
#
# Dimension   : 1
# Entries     : 117
# Betti number: 117
4	inf
7	inf
9	inf
14	inf
14	inf
16	inf
16	inf
16	inf
16	inf
16	inf
17	inf
17	inf
17	inf
17	inf
43	inf
43	inf
43	inf
43	inf
43	inf
43	inf
43	inf
76	inf
76	inf
76	inf
76	inf
76	inf
76	inf
76	inf
76	inf
76	inf
76	inf
76	inf
76	inf
76	inf
76	inf
76	inf
76	inf
76	inf
76	inf
76	inf
76	inf
76	inf
95	inf
95	inf
95	inf
95	inf
95	inf
95	inf
95	inf
95	inf
95	inf
95	inf
95	inf
95	inf
95	inf
95	inf
95	inf
95	inf
95	inf
95	inf
95	inf
95	inf
95	inf
95	inf
95	inf
95	inf
95	inf
95	inf
95	inf
95	inf
95	inf
95	inf
95	inf
95	inf
95	inf
95	inf
95	inf
95	inf
95	inf
95	inf
95	inf
95	inf
95	inf
95	inf
95	inf
95	inf
95	inf
95	inf
95	inf
95	inf
95	inf
95	inf
95	inf
95	inf
95	inf
95	inf
95	inf
95	inf
95	inf
95	inf
95	inf
95	inf
95	inf
95	inf
95	inf
95	inf
95	inf
95	inf
95	inf
95	inf
95	inf
95	inf
95	inf
95	inf
95	inf
95	inf
95	inf
