# Persistence diagram </home/jens/Uni/data_topology/Project/reddit_results/graphs/1275-1.gml>
#
# Dimension   : 1
# Entries     : 104
# Betti number: 104
103	inf
103	inf
103	inf
103	inf
103	inf
103	inf
103	inf
103	inf
108	inf
108	inf
108	inf
108	inf
108	inf
108	inf
108	inf
108	inf
108	inf
108	inf
108	inf
108	inf
108	inf
108	inf
108	inf
108	inf
108	inf
108	inf
108	inf
108	inf
108	inf
108	inf
108	inf
108	inf
108	inf
108	inf
108	inf
108	inf
108	inf
108	inf
108	inf
108	inf
108	inf
108	inf
108	inf
108	inf
108	inf
108	inf
108	inf
108	inf
108	inf
108	inf
108	inf
108	inf
108	inf
108	inf
108	inf
108	inf
108	inf
108	inf
108	inf
108	inf
108	inf
108	inf
108	inf
108	inf
108	inf
108	inf
108	inf
108	inf
108	inf
108	inf
108	inf
108	inf
108	inf
108	inf
108	inf
108	inf
108	inf
108	inf
108	inf
108	inf
108	inf
108	inf
108	inf
108	inf
108	inf
108	inf
108	inf
108	inf
108	inf
108	inf
108	inf
108	inf
108	inf
108	inf
108	inf
108	inf
108	inf
108	inf
108	inf
108	inf
108	inf
108	inf
108	inf
108	inf
