# Persistence diagram </home/jens/Uni/data_topology/Project/reddit_results/graphs/1285-1.gml>
#
# Dimension   : 0
# Entries     : 92
# Betti number: 1
1	inf
1	76
1	76
1	76
1	76
1	76
1	76
1	60
1	60
1	76
1	76
1	60
1	60
1	60
1	60
1	60
1	76
1	60
1	60
1	76
1	76
1	76
1	76
1	60
1	76
1	76
1	76
1	60
1	76
1	60
1	60
1	60
1	76
1	76
1	76
1	60
1	76
1	76
1	60
1	76
1	4
1	76
1	76
1	60
1	60
1	60
1	76
1	76
1	76
1	60
1	76
1	76
1	76
2	60
2	60
2	60
2	60
2	60
2	60
2	4
2	60
2	60
2	60
2	60
2	60
2	60
2	60
2	60
2	60
2	60
2	60
2	60
2	60
2	60
2	60
2	60
2	60
2	4
2	60
2	60
2	60
2	60
2	60
2	60
2	60
2	60
2	60
2	60
2	60
2	60
2	60
3	60


