# Persistence diagram </home/jens/Uni/data_topology/Project/reddit_results/graphs/1287-1.gml>
#
# Dimension   : 0
# Entries     : 273
# Betti number: 2
1	inf
1	123
1	123
1	123
1	123
1	123
1	123
1	123
1	81
1	81
1	81
1	123
1	81
1	123
1	123
1	81
1	123
1	123
1	81
1	7
1	123
1	8
1	81
1	5
1	5
1	5
1	123
1	6
1	123
1	7
1	81
1	123
1	4
1	81
1	6
1	9
1	81
1	123
1	6
1	123
1	123
1	5
1	81
1	81
1	4
1	7
1	123
1	6
1	81
1	81
1	123
1	4
1	81
1	11
1	123
1	5
1	123
1	8
1	123
1	4
1	81
1	123
1	81
1	123
1	6
1	123
1	81
1	6
1	9
1	11
1	4
1	4
1	81
1	123
1	4
1	5
1	6
1	3
1	4
1	81
1	123
1	4
1	7
1	5
1	81
1	81
1	123
1	6
1	123
1	123
1	81
1	3
1	123
1	6
1	123
1	123
1	123
1	4
1	4
1	4
1	5
1	81
1	123
1	3
1	4
1	4
1	81
1	7
1	7
1	123
1	3
1	7
1	6
1	123
1	81
1	123
1	81
1	inf
1	81
1	11
1	81
1	4
1	5
1	123
1	123
1	6
1	8
1	123
1	8
1	81
1	123
1	5
1	4
1	5
1	81
1	3
1	5
1	5
1	123
1	9
1	6
1	7
1	4
1	4
1	11
1	3
1	123
1	123
1	5
1	9
1	123
1	123
1	123
1	11
1	5
1	81
1	3
1	123
1	3
1	81
1	9
1	81
1	123
1	123
1	3
1	3
1	7
1	4
1	81
1	81
1	123
1	123
1	6
1	9
1	4
1	4
1	81
1	81
1	3
1	3
1	3
1	11
1	123
1	123
1	4
1	7
1	81
1	123
1	123
1	11
1	5
1	3
1	123
1	123
1	81
1	11
1	4
1	6
1	123
1	81
1	123
1	4
1	5
1	123
1	123
1	123
1	123
1	5
1	123
1	6
1	3
1	3
1	9
1	6
1	4
1	81
1	6
1	3
1	4
1	4
1	81
1	123
1	6
1	8
1	9
1	123
2	81
2	81
2	4
2	81
2	81
2	81
2	3
2	81
2	81
2	81
2	81
2	81
2	81
2	81
2	3
2	4
2	81
2	81
2	81
2	4
2	3
2	4
2	81
2	81
2	81
2	81
2	81
2	3
2	81
2	81
2	3
2	4
2	81
2	4
2	81
2	11
2	5
2	81
2	81
2	81
2	81
2	3
2	81
2	81
3	4
3	4
3	4


