# Persistence diagram </home/jens/Uni/data_topology/Project/reddit_results/graphs/1298-1.gml>
#
# Dimension   : 1
# Entries     : 137
# Betti number: 137
5	inf
18	inf
111	inf
111	inf
111	inf
111	inf
111	inf
111	inf
111	inf
111	inf
111	inf
111	inf
111	inf
111	inf
111	inf
111	inf
111	inf
111	inf
111	inf
111	inf
111	inf
111	inf
111	inf
111	inf
111	inf
111	inf
111	inf
111	inf
111	inf
111	inf
111	inf
111	inf
111	inf
111	inf
111	inf
111	inf
214	inf
214	inf
214	inf
214	inf
214	inf
214	inf
214	inf
214	inf
214	inf
214	inf
214	inf
214	inf
214	inf
214	inf
214	inf
214	inf
214	inf
214	inf
214	inf
214	inf
214	inf
214	inf
214	inf
214	inf
214	inf
214	inf
214	inf
214	inf
214	inf
214	inf
214	inf
214	inf
214	inf
214	inf
214	inf
214	inf
214	inf
214	inf
214	inf
214	inf
214	inf
214	inf
214	inf
214	inf
214	inf
214	inf
214	inf
214	inf
214	inf
214	inf
214	inf
214	inf
214	inf
214	inf
214	inf
214	inf
214	inf
214	inf
214	inf
214	inf
214	inf
214	inf
214	inf
214	inf
214	inf
214	inf
214	inf
214	inf
214	inf
214	inf
214	inf
214	inf
214	inf
214	inf
214	inf
214	inf
214	inf
214	inf
214	inf
214	inf
214	inf
214	inf
214	inf
214	inf
214	inf
214	inf
214	inf
214	inf
214	inf
214	inf
214	inf
214	inf
214	inf
214	inf
214	inf
214	inf
214	inf
214	inf
214	inf
214	inf
214	inf
