# Persistence diagram </home/jens/Uni/data_topology/Project/reddit_results/graphs/1302-1.gml>
#
# Dimension   : 1
# Entries     : 48
# Betti number: 48
9	inf
9	inf
57	inf
57	inf
57	inf
57	inf
57	inf
57	inf
57	inf
57	inf
103	inf
103	inf
103	inf
103	inf
103	inf
103	inf
103	inf
103	inf
103	inf
103	inf
103	inf
103	inf
103	inf
103	inf
103	inf
103	inf
103	inf
103	inf
103	inf
103	inf
103	inf
103	inf
103	inf
103	inf
103	inf
103	inf
103	inf
103	inf
103	inf
103	inf
103	inf
103	inf
103	inf
103	inf
103	inf
103	inf
103	inf
103	inf
