# Persistence diagram </home/jens/Uni/data_topology/Project/reddit_results/graphs/1310-1.gml>
#
# Dimension   : 0
# Entries     : 27
# Betti number: 1
1	inf
1	18
1	25
1	25
1	25
1	4
1	18
1	25
1	18
1	25
1	25
1	25
1	25
1	25
2	18
2	18
2	18
2	18
2	18
2	18
2	18
2	18
2	18
2	18
2	18
3	18
3	4


