# Persistence diagram </home/jens/Uni/data_topology/Project/reddit_results/graphs/1312-1.gml>
#
# Dimension   : 0
# Entries     : 190
# Betti number: 1
1	inf
1	157
1	161
1	161
1	4
1	157
1	161
1	161
1	157
1	161
1	157
1	8
1	161
1	157
1	157
1	157
1	157
1	161
1	157
1	157
1	161
1	161
1	161
1	157
1	157
1	157
1	161
1	161
1	157
1	4
1	161
1	161
1	161
1	157
1	157
1	161
1	157
1	161
1	161
1	5
1	8
1	161
1	161
1	161
1	5
1	161
1	161
1	161
1	157
1	161
1	8
1	157
1	5
1	8
1	161
1	161
1	161
1	157
1	8
1	157
1	157
1	161
1	157
1	157
1	161
1	157
1	157
1	157
1	161
1	4
1	157
1	5
1	161
1	157
1	161
1	157
1	157
2	157
2	157
2	157
2	157
2	157
2	157
2	157
2	157
2	157
2	157
2	157
2	157
2	157
2	157
2	157
2	157
2	157
2	4
2	157
2	157
2	157
2	157
2	157
2	157
2	157
2	157
2	157
2	157
2	157
2	157
2	157
2	157
2	157
2	157
2	157
2	157
2	157
2	157
2	157
2	157
2	157
2	157
2	157
2	157
2	157
2	157
2	157
2	157
2	157
2	157
2	157
2	157
2	157
2	157
2	157
2	157
2	157
2	157
2	157
2	157
2	157
2	157
2	157
2	157
2	157
2	157
2	157
2	157
2	157
2	157
2	157
2	157
2	157
2	157
2	157
2	157
2	157
2	157
2	157
2	157
2	157
2	157
2	157
2	157
2	157
2	157
2	157
2	157
2	157
2	157
2	157
2	157
2	157
2	157
2	157
2	157
2	157
2	157
2	157
2	157
2	157
2	157
2	157
2	157
2	157
2	157
3	157
3	5
3	157
3	157
3	5
3	4
3	5


