# Persistence diagram </home/jens/Uni/data_topology/Project/reddit_results/graphs/1330-1.gml>
#
# Dimension   : 1
# Entries     : 43
# Betti number: 43
44	inf
44	inf
55	inf
55	inf
55	inf
55	inf
55	inf
55	inf
55	inf
55	inf
55	inf
55	inf
55	inf
55	inf
55	inf
55	inf
55	inf
55	inf
55	inf
55	inf
55	inf
55	inf
55	inf
55	inf
55	inf
55	inf
55	inf
55	inf
55	inf
55	inf
55	inf
55	inf
55	inf
55	inf
55	inf
55	inf
55	inf
55	inf
55	inf
55	inf
55	inf
55	inf
55	inf
