# Persistence diagram </home/jens/Uni/data_topology/Project/reddit_results/graphs/1331-1.gml>
#
# Dimension   : 0
# Entries     : 244
# Betti number: 1
1	inf
1	155
1	96
1	155
1	96
1	155
1	155
1	96
1	96
1	7
1	155
1	155
1	96
1	96
1	96
1	96
1	7
1	6
1	96
1	96
1	10
1	6
1	10
1	155
1	155
1	96
1	96
1	155
1	8
1	96
1	5
1	4
1	155
1	155
1	155
1	10
1	155
1	4
1	4
1	7
1	155
1	4
1	8
1	96
1	155
1	155
1	155
1	155
1	4
1	96
1	8
1	4
1	96
1	155
1	155
1	4
1	155
1	155
1	5
1	155
1	96
1	4
1	96
1	155
1	8
1	96
1	6
1	155
1	6
1	96
1	155
1	96
1	155
1	155
1	155
1	4
1	10
1	6
1	96
1	155
1	5
1	155
1	155
1	6
1	155
1	6
1	6
1	5
1	3
1	4
1	96
1	5
1	96
1	5
1	4
1	4
1	96
1	3
1	4
1	155
1	4
1	155
1	155
1	96
1	155
1	155
1	155
1	96
1	6
1	155
1	96
1	4
1	155
1	155
1	155
1	6
1	4
1	3
1	4
1	155
1	3
1	6
1	155
1	155
1	4
1	4
1	155
1	3
1	3
1	96
1	6
1	6
1	96
1	96
1	3
1	8
1	7
1	155
1	96
1	4
1	96
1	96
1	96
1	96
1	96
1	10
1	3
1	6
1	96
1	155
1	6
1	96
1	155
1	155
1	155
1	96
1	6
1	4
1	155
1	96
1	155
1	96
1	155
1	3
1	155
1	155
1	3
1	155
1	155
1	96
1	3
1	155
1	155
1	4
1	155
1	96
2	96
2	3
2	6
2	96
2	96
2	96
2	96
2	96
2	155
2	96
2	96
2	96
2	3
2	96
2	96
2	96
2	4
2	3
2	96
2	96
2	6
2	96
2	4
2	3
2	96
2	96
2	4
2	96
2	96
2	96
2	96
2	4
2	3
2	96
2	96
2	96
2	10
2	96
2	96
2	96
2	96
2	8
2	3
2	96
2	96
2	96
2	3
2	96
2	96
2	96
2	96
2	4
2	96
2	96
2	4
2	96
2	3
2	96
2	4
2	4
2	96
2	96
2	96
2	96
2	96
3	10
3	6
3	6


