# Persistence diagram </home/jens/Uni/data_topology/Project/reddit_results/graphs/1341-1.gml>
#
# Dimension   : 0
# Entries     : 248
# Betti number: 4
1	inf
1	58
1	7
1	72
1	72
1	58
1	72
1	8
1	72
1	58
1	13
1	72
1	72
1	72
1	58
1	7
1	58
1	72
1	58
1	4
1	72
1	72
1	7
1	72
1	72
1	58
1	72
1	72
1	7
1	13
1	72
1	5
1	7
1	58
1	6
1	6
1	72
1	6
1	7
1	58
1	5
1	58
1	72
1	6
1	6
1	7
1	7
1	5
1	58
1	4
1	7
1	13
1	72
1	58
1	72
1	58
1	72
1	7
1	6
1	72
1	6
1	72
1	58
1	72
1	58
1	58
1	72
1	4
1	4
1	58
1	7
1	58
1	58
1	4
1	72
1	7
1	58
1	58
1	inf
1	4
1	72
1	58
1	5
1	4
1	inf
1	72
1	58
1	72
1	58
1	72
1	13
1	7
1	58
1	58
1	7
1	5
1	6
1	5
1	5
1	7
1	58
1	5
1	7
1	58
1	7
1	72
1	8
1	72
1	72
1	72
1	58
1	3
1	4
1	13
1	72
1	13
1	72
1	4
1	3
1	5
1	5
1	4
1	6
1	inf
1	5
1	2
1	4
1	6
1	8
1	72
1	6
1	58
1	3
1	72
1	72
1	58
1	72
1	6
1	7
1	72
1	4
1	7
1	3
1	8
1	58
1	3
1	7
1	6
1	58
1	4
1	5
1	72
1	7
1	58
1	5
1	4
1	7
1	5
1	58
1	58
1	72
1	5
1	8
1	72
1	3
1	4
1	5
1	7
1	72
1	4
1	5
1	4
1	4
1	4
1	6
1	5
1	3
1	58
1	58
1	58
1	72
1	6
1	72
1	58
1	7
1	5
1	3
1	3
1	5
1	58
1	5
1	6
1	5
1	58
1	7
1	4
1	13
1	13
1	72
1	3
1	6
1	3
1	13
1	72
1	58
1	3
1	72
1	72
1	5
1	5
1	58
1	58
1	72
1	4
1	72
1	6
1	7
1	58
1	72
1	3
1	5
1	4
1	58
1	3
1	5
1	7
2	5
2	7
2	4
2	3
2	4
2	3
2	6
2	5
2	4
2	13
2	5
2	5
2	3
2	5
2	3
2	3
2	5
2	4
2	3
2	3
2	3
3	5


