# Persistence diagram </home/jens/Uni/data_topology/Project/reddit_results/graphs/1343-1.gml>
#
# Dimension   : 1
# Entries     : 93
# Betti number: 93
6	inf
8	inf
8	inf
15	inf
15	inf
102	inf
102	inf
102	inf
102	inf
102	inf
102	inf
102	inf
102	inf
102	inf
102	inf
102	inf
102	inf
102	inf
102	inf
102	inf
102	inf
102	inf
102	inf
102	inf
102	inf
102	inf
113	inf
113	inf
113	inf
113	inf
113	inf
113	inf
113	inf
113	inf
113	inf
113	inf
113	inf
113	inf
113	inf
113	inf
113	inf
113	inf
113	inf
113	inf
113	inf
113	inf
113	inf
113	inf
113	inf
113	inf
113	inf
113	inf
113	inf
113	inf
113	inf
113	inf
113	inf
113	inf
113	inf
113	inf
113	inf
113	inf
113	inf
113	inf
113	inf
113	inf
113	inf
113	inf
113	inf
113	inf
113	inf
113	inf
113	inf
113	inf
113	inf
113	inf
113	inf
113	inf
113	inf
113	inf
113	inf
113	inf
113	inf
113	inf
113	inf
113	inf
113	inf
113	inf
113	inf
113	inf
113	inf
113	inf
113	inf
