# Persistence diagram </home/jens/Uni/data_topology/Project/reddit_results/graphs/1345-1.gml>
#
# Dimension   : 1
# Entries     : 120
# Betti number: 120
5	inf
8	inf
15	inf
15	inf
15	inf
128	inf
128	inf
128	inf
128	inf
128	inf
128	inf
128	inf
128	inf
128	inf
143	inf
143	inf
143	inf
143	inf
143	inf
143	inf
143	inf
143	inf
143	inf
143	inf
143	inf
143	inf
143	inf
143	inf
143	inf
143	inf
143	inf
143	inf
143	inf
143	inf
143	inf
143	inf
143	inf
143	inf
143	inf
143	inf
143	inf
143	inf
143	inf
143	inf
143	inf
143	inf
143	inf
143	inf
143	inf
143	inf
143	inf
143	inf
143	inf
143	inf
143	inf
143	inf
143	inf
143	inf
143	inf
143	inf
143	inf
143	inf
143	inf
143	inf
143	inf
143	inf
143	inf
143	inf
143	inf
143	inf
143	inf
143	inf
143	inf
143	inf
143	inf
143	inf
143	inf
143	inf
143	inf
143	inf
143	inf
143	inf
143	inf
143	inf
143	inf
143	inf
143	inf
143	inf
143	inf
143	inf
143	inf
143	inf
143	inf
143	inf
143	inf
143	inf
143	inf
143	inf
143	inf
143	inf
143	inf
143	inf
143	inf
143	inf
143	inf
143	inf
143	inf
143	inf
143	inf
143	inf
143	inf
143	inf
143	inf
143	inf
143	inf
143	inf
143	inf
143	inf
143	inf
143	inf
