# Persistence diagram </home/jens/Uni/data_topology/Project/reddit_results/graphs/1349-1.gml>
#
# Dimension   : 1
# Entries     : 50
# Betti number: 50
47	inf
47	inf
47	inf
57	inf
57	inf
57	inf
57	inf
57	inf
57	inf
57	inf
57	inf
57	inf
57	inf
57	inf
57	inf
57	inf
57	inf
57	inf
57	inf
57	inf
57	inf
57	inf
57	inf
57	inf
57	inf
57	inf
57	inf
57	inf
57	inf
57	inf
57	inf
57	inf
57	inf
57	inf
57	inf
57	inf
57	inf
57	inf
57	inf
57	inf
57	inf
57	inf
57	inf
57	inf
57	inf
57	inf
57	inf
57	inf
57	inf
57	inf
