# Persistence diagram </home/jens/Uni/data_topology/Project/reddit_results/graphs/1355-1.gml>
#
# Dimension   : 0
# Entries     : 300
# Betti number: 1
1	inf
1	252
1	252
1	252
1	252
1	252
1	252
1	100
1	100
1	252
1	252
1	252
1	252
1	252
1	252
1	7
1	252
1	100
1	252
1	100
1	252
1	252
1	100
1	252
1	252
1	100
1	252
1	252
1	252
1	252
1	252
1	252
1	252
1	252
1	252
1	252
1	7
1	252
1	252
1	100
1	252
1	100
1	252
1	252
1	252
1	252
1	100
1	252
1	100
1	4
1	252
1	252
1	100
1	252
1	252
1	252
1	5
1	252
1	252
1	252
1	252
1	252
1	252
1	252
1	252
1	252
1	252
1	252
1	252
1	252
1	6
1	252
1	252
1	100
1	252
1	252
1	100
1	252
1	252
1	100
1	252
1	252
1	100
1	252
1	3
1	252
1	252
1	252
1	252
1	252
1	252
1	252
1	252
1	252
1	100
1	252
1	252
1	252
1	252
1	3
1	100
1	252
1	252
1	252
1	252
1	252
1	252
1	252
1	100
1	252
1	252
1	100
1	252
1	252
1	100
1	100
1	252
1	252
1	252
1	252
1	252
1	252
1	252
1	252
1	252
1	252
1	252
1	252
1	252
1	252
1	252
1	252
1	252
1	100
1	100
1	252
1	252
1	252
1	252
1	252
1	252
1	252
1	6
1	252
1	252
1	4
1	252
1	252
1	252
1	252
1	252
1	252
1	252
1	252
1	252
1	5
1	252
1	100
1	252
1	252
1	100
1	252
1	4
1	100
1	100
1	252
1	252
1	100
1	252
1	100
1	252
1	252
1	252
1	252
1	252
1	252
1	252
1	3
1	100
1	100
1	252
1	100
1	252
1	252
1	252
1	252
1	252
1	3
1	252
1	3
1	252
1	252
1	252
1	252
1	252
1	252
1	100
1	252
1	252
1	252
1	252
1	7
1	252
1	252
1	252
1	252
1	252
1	252
1	100
1	100
1	252
1	252
1	100
1	4
1	252
1	252
1	252
1	252
1	252
1	252
1	4
1	252
1	4
1	252
1	252
1	252
1	252
1	3
1	252
1	252
1	252
1	4
1	252
1	100
1	100
1	252
1	252
1	7
1	6
1	4
2	100
2	100
2	100
2	100
2	100
2	100
2	100
2	100
2	100
2	100
2	100
2	3
2	100
2	100
2	100
2	100
2	100
2	100
2	100
2	100
2	100
2	100
2	100
2	100
2	100
2	100
2	100
2	100
2	100
2	100
2	100
2	3
2	100
2	100
2	100
2	100
2	4
2	100
2	100
2	100
2	100
2	100
2	100
2	100
2	100
2	100
2	100
2	100
2	100
2	100
2	100
2	100
2	100
2	100
2	100
2	100
3	5
3	100
3	4
3	4


