# Persistence diagram </home/jens/Uni/data_topology/Project/reddit_results/graphs/1355-1.gml>
#
# Dimension   : 1
# Entries     : 81
# Betti number: 81
5	inf
100	inf
100	inf
100	inf
100	inf
100	inf
100	inf
100	inf
252	inf
252	inf
252	inf
252	inf
252	inf
252	inf
252	inf
252	inf
252	inf
252	inf
252	inf
252	inf
252	inf
252	inf
252	inf
252	inf
252	inf
252	inf
252	inf
252	inf
252	inf
252	inf
252	inf
252	inf
252	inf
252	inf
252	inf
252	inf
252	inf
252	inf
252	inf
252	inf
252	inf
252	inf
252	inf
252	inf
252	inf
252	inf
252	inf
252	inf
252	inf
252	inf
252	inf
252	inf
252	inf
252	inf
252	inf
252	inf
252	inf
252	inf
252	inf
252	inf
252	inf
252	inf
252	inf
252	inf
252	inf
252	inf
252	inf
252	inf
252	inf
252	inf
252	inf
252	inf
252	inf
252	inf
252	inf
252	inf
252	inf
252	inf
252	inf
252	inf
252	inf
