# Persistence diagram </home/jens/Uni/data_topology/Project/reddit_results/graphs/1359-1.gml>
#
# Dimension   : 1
# Entries     : 100
# Betti number: 100
26	inf
26	inf
26	inf
26	inf
26	inf
26	inf
26	inf
31	inf
31	inf
31	inf
31	inf
31	inf
31	inf
31	inf
31	inf
31	inf
31	inf
45	inf
45	inf
45	inf
45	inf
45	inf
45	inf
45	inf
45	inf
45	inf
45	inf
45	inf
45	inf
45	inf
45	inf
45	inf
45	inf
45	inf
45	inf
45	inf
45	inf
45	inf
45	inf
45	inf
45	inf
113	inf
113	inf
113	inf
113	inf
113	inf
113	inf
113	inf
113	inf
113	inf
113	inf
113	inf
113	inf
113	inf
113	inf
113	inf
113	inf
113	inf
113	inf
113	inf
113	inf
113	inf
113	inf
113	inf
113	inf
113	inf
113	inf
113	inf
113	inf
113	inf
113	inf
113	inf
113	inf
113	inf
113	inf
113	inf
113	inf
113	inf
113	inf
113	inf
113	inf
113	inf
113	inf
113	inf
113	inf
113	inf
113	inf
113	inf
113	inf
113	inf
113	inf
113	inf
113	inf
113	inf
113	inf
113	inf
113	inf
113	inf
113	inf
113	inf
