# Persistence diagram </home/jens/Uni/data_topology/Project/reddit_results/graphs/1360-1.gml>
#
# Dimension   : 0
# Entries     : 316
# Betti number: 1
1	inf
1	194
1	194
1	194
1	194
1	194
1	194
1	194
1	194
1	53
1	53
1	53
1	6
1	194
1	4
1	8
1	194
1	194
1	53
1	53
1	5
1	53
1	194
1	194
1	194
1	194
1	194
1	194
1	194
1	194
1	3
1	194
1	6
1	194
1	194
1	194
1	194
1	194
1	53
1	3
1	194
1	194
1	194
1	194
1	194
1	8
1	194
1	7
1	6
1	194
1	194
1	194
1	194
1	194
1	53
1	194
1	8
1	194
1	53
1	194
1	194
1	3
1	194
1	194
1	53
1	194
1	194
1	53
1	7
1	194
1	7
1	194
1	53
1	5
1	194
1	53
1	194
1	5
1	53
1	194
1	3
1	194
1	194
1	194
1	194
1	4
1	194
1	53
1	6
1	194
1	6
1	194
1	194
1	194
1	3
1	194
1	194
1	5
1	6
1	194
1	194
1	194
1	194
1	194
1	5
1	194
1	53
1	194
1	3
1	7
1	194
1	194
1	194
1	6
1	194
1	194
1	3
1	194
1	4
1	4
1	194
1	5
1	194
1	194
1	53
1	194
1	4
1	194
1	4
1	194
1	4
1	6
1	194
1	194
1	194
1	194
1	194
1	6
1	194
1	4
1	194
1	194
1	7
1	194
1	194
1	7
1	194
1	6
1	194
1	194
1	194
1	194
1	194
1	194
1	3
1	194
1	194
1	6
1	4
1	194
1	194
1	53
1	4
1	194
1	194
1	7
1	8
1	3
1	194
1	53
1	6
1	6
1	8
1	194
1	4
1	194
1	5
1	194
1	194
1	194
1	4
1	8
1	4
1	194
1	6
1	53
1	6
1	194
1	194
1	53
1	194
1	4
1	194
1	194
1	4
1	194
1	8
1	5
1	194
1	194
1	194
1	4
1	53
1	8
1	194
1	3
1	8
1	194
1	194
1	194
1	3
1	194
1	194
1	194
1	194
1	194
1	194
1	194
1	3
1	194
1	4
1	194
1	194
1	7
1	6
1	194
1	194
1	4
1	194
1	194
1	194
1	194
1	4
1	8
1	194
1	194
1	194
1	3
1	6
1	194
1	194
1	6
1	194
1	8
1	194
1	194
1	6
1	4
1	6
1	3
1	194
1	8
1	7
1	194
1	53
1	194
1	194
1	3
1	194
1	5
1	53
1	5
1	53
1	194
1	5
1	194
1	7
1	3
1	3
1	194
1	53
1	53
1	194
1	53
1	53
1	194
1	194
1	194
1	194
1	194
1	194
1	194
1	194
1	53
1	194
1	194
1	194
2	3
2	53
2	3
2	53
2	4
2	53
2	53
2	53
2	4
2	3
2	53
2	6
2	3
2	53
2	53
2	53
2	3
2	4
2	53
2	53
2	53
2	3
2	4
2	53
2	3
2	53
2	3
3	4
4	6


