# Persistence diagram </home/jens/Uni/data_topology/Project/reddit_results/graphs/1363-1.gml>
#
# Dimension   : 0
# Entries     : 171
# Betti number: 5
1	inf
1	82
1	82
1	8
1	82
1	82
1	5
1	82
1	8
1	82
1	8
1	7
1	82
1	82
1	82
1	82
1	82
1	82
1	7
1	7
1	inf
1	82
1	82
1	11
1	inf
1	7
1	inf
1	6
1	5
1	7
1	82
1	82
1	82
1	82
1	11
1	4
1	8
1	82
1	3
1	82
1	82
1	82
1	6
1	82
1	82
1	4
1	7
1	4
1	82
1	82
1	11
1	11
1	82
1	7
1	82
1	4
1	82
1	8
1	82
1	82
1	82
1	4
1	82
1	5
1	82
1	82
1	6
1	82
1	82
1	8
1	82
1	82
1	82
1	4
1	4
1	82
1	82
1	82
1	5
1	4
1	82
1	4
1	6
1	5
1	82
1	6
1	82
1	4
1	6
1	11
1	82
1	7
1	3
1	82
1	6
1	82
1	5
1	5
1	82
1	8
1	7
1	4
1	5
1	82
1	7
1	6
1	82
1	82
1	6
1	4
1	8
1	82
1	82
1	82
1	8
1	inf
1	4
1	3
1	8
1	6
1	11
1	5
1	4
1	82
1	82
1	5
1	11
1	82
1	82
1	82
1	4
1	4
1	11
1	4
1	5
1	7
1	7
1	82
1	7
1	82
1	82
1	2
1	82
1	82
1	82
1	82
1	2
1	82
1	8
2	4
2	4
2	6
2	4
2	3
2	4
2	4
2	7
2	3
2	5
2	3
2	3
2	4
2	4
2	4
2	8
2	4
2	6
2	4
2	3
2	4
2	4


