# Persistence diagram </home/jens/Uni/data_topology/Project/reddit_results/graphs/1366-1.gml>
#
# Dimension   : 1
# Entries     : 66
# Betti number: 66
3	inf
9	inf
10	inf
11	inf
12	inf
12	inf
12	inf
13	inf
13	inf
14	inf
14	inf
14	inf
14	inf
14	inf
14	inf
14	inf
14	inf
14	inf
14	inf
14	inf
14	inf
14	inf
14	inf
17	inf
17	inf
17	inf
17	inf
17	inf
17	inf
17	inf
17	inf
17	inf
17	inf
56	inf
56	inf
56	inf
56	inf
56	inf
56	inf
56	inf
56	inf
56	inf
56	inf
56	inf
56	inf
56	inf
87	inf
87	inf
87	inf
87	inf
87	inf
87	inf
87	inf
87	inf
87	inf
87	inf
87	inf
87	inf
87	inf
87	inf
87	inf
87	inf
87	inf
87	inf
87	inf
87	inf
