# Persistence diagram </home/jens/Uni/data_topology/Project/reddit_results/graphs/1369-1.gml>
#
# Dimension   : 0
# Entries     : 259
# Betti number: 1
1	inf
1	107
1	107
1	83
1	107
1	7
1	107
1	107
1	9
1	107
1	83
1	83
1	12
1	107
1	83
1	12
1	4
1	83
1	3
1	5
1	107
1	83
1	83
1	83
1	12
1	83
1	107
1	107
1	107
1	107
1	5
1	107
1	5
1	5
1	83
1	4
1	4
1	12
1	10
1	107
1	107
1	6
1	107
1	83
1	5
1	3
1	107
1	83
1	5
1	83
1	83
1	4
1	4
1	83
1	83
1	107
1	7
1	107
1	12
1	107
1	5
1	5
1	83
1	3
1	83
1	6
1	12
1	4
1	83
1	6
1	6
1	83
1	5
1	107
1	6
1	107
1	107
1	5
1	83
1	83
1	4
1	83
1	5
1	6
1	83
1	107
1	4
1	107
1	107
1	4
1	5
1	9
1	83
1	107
1	107
1	83
1	9
1	12
1	83
1	10
1	107
1	4
1	83
1	5
1	5
1	107
1	83
1	83
1	5
1	107
1	4
1	4
1	6
1	10
1	107
1	107
1	5
1	83
1	5
1	9
1	12
1	107
1	5
1	107
1	10
1	5
1	4
1	107
1	107
1	6
1	83
1	3
1	83
1	4
1	107
1	83
1	83
1	83
1	83
1	107
1	9
1	107
1	5
1	10
1	107
1	6
1	3
1	107
1	3
1	3
1	4
1	107
1	7
1	3
1	12
1	83
1	83
1	3
1	83
1	4
1	83
1	6
1	83
1	107
1	5
1	5
1	10
1	10
1	83
1	5
1	107
1	5
1	3
1	4
1	107
1	4
1	107
1	3
1	83
1	3
1	107
1	83
1	3
1	83
1	83
1	4
1	4
1	4
1	3
1	107
1	4
1	4
1	5
1	107
1	107
1	83
1	6
1	107
1	6
1	83
1	4
1	107
1	3
1	4
1	5
1	3
1	4
1	9
1	4
1	4
1	107
1	107
1	5
1	4
2	83
2	83
2	3
2	3
2	5
2	4
2	6
2	4
2	83
2	83
2	4
2	83
2	5
2	83
2	3
2	83
2	83
2	3
2	83
2	83
2	3
2	83
2	83
2	83
2	6
2	9
2	83
2	83
2	83
2	83
2	83
2	83
2	4
2	3
2	83
2	83
2	3
2	4
2	83
2	83
2	83
2	83
2	83
3	9
3	4


