# Persistence diagram </home/jens/Uni/data_topology/Project/reddit_results/graphs/1370-1.gml>
#
# Dimension   : 0
# Entries     : 245
# Betti number: 1
1	inf
1	159
1	161
1	159
1	161
1	159
1	161
1	161
1	159
1	159
1	159
1	161
1	161
1	159
1	159
1	159
1	159
1	159
1	161
1	159
1	161
1	159
1	161
1	159
1	159
1	161
1	161
1	159
1	159
1	3
1	161
1	159
1	159
1	161
1	161
1	161
1	161
1	161
1	159
1	159
1	161
1	159
1	8
1	161
1	159
1	161
1	161
1	8
1	159
1	159
1	159
1	161
1	161
1	159
1	159
1	161
1	4
1	159
1	159
1	161
1	161
1	161
1	161
1	159
1	161
1	161
1	8
1	159
1	161
1	161
1	3
1	5
1	161
1	161
1	159
1	159
1	159
1	159
1	159
1	161
1	161
1	161
1	159
1	159
1	161
1	161
1	159
1	161
1	161
1	3
1	159
1	159
1	161
1	161
1	159
1	5
1	159
1	159
1	159
1	4
1	159
1	159
1	161
1	5
1	161
1	5
1	4
1	159
1	6
1	161
1	161
1	161
1	161
1	161
1	161
1	159
1	159
1	8
1	161
1	161
1	161
1	161
1	161
1	159
1	161
1	161
1	161
1	159
1	5
1	161
1	159
1	159
1	159
1	159
1	161
1	161
1	161
1	161
1	161
1	161
1	161
1	161
1	159
1	161
1	161
1	159
1	3
2	159
2	159
2	159
2	159
2	159
2	159
2	159
2	8
2	159
2	159
2	159
2	159
2	159
2	159
2	159
2	3
2	159
2	159
2	159
2	159
2	159
2	159
2	161
2	159
2	159
2	159
2	3
2	159
2	159
2	159
2	159
2	159
2	159
2	159
2	159
2	159
2	5
2	159
2	159
2	159
2	159
2	6
2	159
2	4
2	159
2	6
2	159
2	159
2	3
2	159
2	159
2	159
2	159
2	159
2	3
2	159
2	159
2	159
2	159
2	8
2	3
2	159
2	159
2	159
2	159
2	159
2	159
2	159
2	3
2	159
2	159
2	159
2	159
2	159
2	159
2	6
2	159
2	159
2	159
2	159
2	159
2	159
2	159
2	159
2	159
2	159
2	159
2	159
2	159
2	159
2	159
2	159
2	159
2	159
2	159
2	159
3	4
3	5


