# Persistence diagram </home/jens/Uni/data_topology/Project/reddit_results/graphs/1371-1.gml>
#
# Dimension   : 1
# Entries     : 19
# Betti number: 19
21	inf
21	inf
21	inf
21	inf
21	inf
21	inf
21	inf
21	inf
21	inf
21	inf
21	inf
21	inf
21	inf
21	inf
21	inf
21	inf
21	inf
21	inf
21	inf
