# Persistence diagram </home/jens/Uni/data_topology/Project/reddit_results/graphs/1380-1.gml>
#
# Dimension   : 1
# Entries     : 77
# Betti number: 77
15	inf
15	inf
92	inf
92	inf
180	inf
180	inf
180	inf
180	inf
180	inf
180	inf
180	inf
180	inf
180	inf
180	inf
180	inf
180	inf
180	inf
180	inf
180	inf
180	inf
180	inf
180	inf
180	inf
180	inf
180	inf
180	inf
180	inf
180	inf
180	inf
180	inf
180	inf
180	inf
180	inf
180	inf
180	inf
180	inf
180	inf
180	inf
180	inf
180	inf
180	inf
180	inf
180	inf
180	inf
180	inf
180	inf
180	inf
180	inf
180	inf
180	inf
180	inf
180	inf
180	inf
180	inf
180	inf
180	inf
180	inf
180	inf
180	inf
180	inf
180	inf
180	inf
180	inf
180	inf
180	inf
180	inf
180	inf
180	inf
180	inf
180	inf
180	inf
180	inf
180	inf
180	inf
180	inf
180	inf
180	inf
