# Persistence diagram </home/jens/Uni/data_topology/Project/reddit_results/graphs/1389-1.gml>
#
# Dimension   : 1
# Entries     : 58
# Betti number: 58
10	inf
24	inf
24	inf
24	inf
24	inf
24	inf
52	inf
52	inf
52	inf
52	inf
52	inf
52	inf
52	inf
52	inf
52	inf
52	inf
52	inf
52	inf
52	inf
52	inf
52	inf
52	inf
52	inf
52	inf
89	inf
89	inf
89	inf
89	inf
89	inf
89	inf
89	inf
89	inf
89	inf
89	inf
89	inf
89	inf
89	inf
89	inf
89	inf
89	inf
89	inf
89	inf
89	inf
89	inf
89	inf
89	inf
89	inf
89	inf
89	inf
89	inf
89	inf
89	inf
89	inf
89	inf
89	inf
89	inf
89	inf
89	inf
