# Persistence diagram </home/jens/Uni/data_topology/Project/reddit_results/graphs/1392-1.gml>
#
# Dimension   : 0
# Entries     : 292
# Betti number: 2
1	inf
1	13
1	11
1	56
1	10
1	10
1	22
1	7
1	125
1	125
1	56
1	6
1	125
1	7
1	56
1	125
1	125
1	125
1	125
1	56
1	125
1	7
1	10
1	125
1	125
1	125
1	9
1	125
1	56
1	125
1	4
1	125
1	11
1	6
1	125
1	22
1	6
1	125
1	5
1	7
1	56
1	9
1	125
1	125
1	56
1	125
1	125
1	7
1	4
1	125
1	56
1	125
1	125
1	22
1	125
1	56
1	6
1	6
1	125
1	56
1	125
1	22
1	6
1	6
1	56
1	5
1	125
1	125
1	125
1	11
1	125
1	56
1	56
1	22
1	125
1	13
1	125
1	125
1	125
1	56
1	125
1	125
1	125
1	125
1	125
1	6
1	3
1	5
1	56
1	56
1	56
1	22
1	11
1	6
1	125
1	22
1	125
1	5
1	10
1	5
1	5
1	6
1	10
1	125
1	22
1	125
1	56
1	56
1	56
1	5
1	22
1	125
1	56
1	11
1	56
1	5
1	22
1	4
1	5
1	125
1	125
1	10
1	9
1	10
1	13
1	11
1	125
1	9
1	10
1	125
1	inf
1	5
1	9
1	125
1	125
1	9
1	125
1	125
1	56
1	56
1	125
1	7
1	125
1	125
1	11
1	125
1	5
1	22
1	125
1	3
1	56
1	125
1	125
1	125
1	3
1	13
1	5
1	125
1	6
1	125
1	13
1	6
1	6
1	125
1	6
1	125
1	125
1	125
1	125
1	4
1	56
1	3
1	7
1	9
1	4
1	22
1	125
1	13
1	11
1	125
1	125
1	125
1	125
1	7
1	3
1	3
1	125
1	125
1	3
1	3
1	125
1	5
1	4
1	11
1	13
1	13
1	13
1	125
1	56
1	5
1	125
1	13
1	3
1	3
1	3
1	22
1	125
1	3
1	125
1	4
1	125
1	125
1	125
1	125
1	125
1	3
1	3
1	125
1	125
1	5
1	5
1	5
1	125
1	5
1	125
1	13
1	22
1	7
1	56
1	56
1	125
1	6
1	125
1	125
1	6
1	125
1	22
1	3
1	125
1	56
1	125
1	56
1	7
1	125
1	125
1	3
1	5
1	56
1	4
1	3
1	125
1	125
1	125
1	125
1	3
1	125
1	6
1	125
1	3
1	125
1	5
1	22
2	56
2	3
2	56
2	3
2	56
2	4
2	56
2	6
2	6
2	56
2	7
2	3
2	56
2	56
2	3
2	5
2	3
2	3
2	3
2	3
2	3
2	6
2	4
2	3
2	3
2	3
2	3
3	5
3	5
3	5


