# Persistence diagram </home/jens/Uni/data_topology/Project/reddit_results/graphs/1395-1.gml>
#
# Dimension   : 1
# Entries     : 87
# Betti number: 87
5	inf
8	inf
79	inf
79	inf
79	inf
155	inf
155	inf
155	inf
155	inf
155	inf
155	inf
155	inf
155	inf
155	inf
155	inf
155	inf
155	inf
155	inf
155	inf
155	inf
155	inf
155	inf
155	inf
155	inf
155	inf
155	inf
155	inf
155	inf
155	inf
155	inf
155	inf
155	inf
155	inf
155	inf
155	inf
155	inf
155	inf
155	inf
155	inf
155	inf
155	inf
155	inf
155	inf
155	inf
155	inf
155	inf
155	inf
155	inf
155	inf
155	inf
155	inf
155	inf
155	inf
155	inf
155	inf
155	inf
155	inf
155	inf
155	inf
155	inf
155	inf
155	inf
155	inf
155	inf
155	inf
155	inf
155	inf
155	inf
155	inf
155	inf
155	inf
155	inf
155	inf
155	inf
155	inf
155	inf
155	inf
155	inf
155	inf
155	inf
155	inf
155	inf
155	inf
155	inf
155	inf
155	inf
155	inf
