# Persistence diagram </home/jens/Uni/data_topology/Project/reddit_results/graphs/1401-1.gml>
#
# Dimension   : 1
# Entries     : 36
# Betti number: 36
42	inf
42	inf
42	inf
42	inf
42	inf
42	inf
42	inf
42	inf
42	inf
42	inf
42	inf
42	inf
42	inf
42	inf
42	inf
42	inf
42	inf
42	inf
42	inf
42	inf
42	inf
42	inf
42	inf
42	inf
42	inf
42	inf
42	inf
42	inf
42	inf
42	inf
42	inf
42	inf
42	inf
42	inf
42	inf
42	inf
