# Persistence diagram </home/jens/Uni/data_topology/Project/reddit_results/graphs/1402-1.gml>
#
# Dimension   : 0
# Entries     : 217
# Betti number: 2
1	inf
1	inf
1	115
1	115
1	88
1	115
1	88
1	115
1	115
1	124
1	115
1	124
1	88
1	115
1	88
1	4
1	88
1	124
1	115
1	124
1	115
1	124
1	115
1	4
1	124
1	115
1	124
1	4
1	88
1	115
1	115
1	4
1	115
1	115
1	88
1	4
1	88
1	4
1	115
1	4
1	88
1	88
1	124
1	88
1	115
1	124
1	115
1	88
1	88
1	88
1	115
1	7
1	88
1	115
1	5
1	115
1	115
1	124
1	88
1	88
1	4
1	8
1	4
1	115
1	5
1	88
1	88
1	4
1	115
1	88
1	115
1	115
1	88
1	4
1	5
1	4
1	7
1	88
1	88
1	3
1	88
1	88
1	7
1	88
1	3
1	88
1	88
1	115
1	88
1	115
1	88
1	3
1	115
1	88
1	8
1	115
1	3
1	8
1	4
1	5
1	4
1	5
1	115
1	124
2	115
2	3
2	115
2	88
2	115
2	3
2	88
2	115
2	115
2	88
2	88
2	88
2	88
2	4
2	115
2	88
2	115
2	115
2	88
2	115
2	88
2	88
2	115
2	3
2	88
2	115
2	88
2	4
2	88
2	115
2	115
2	88
2	88
2	115
2	88
2	115
2	88
2	115
2	115
2	115
2	88
2	124
2	115
2	88
2	115
2	115
2	115
2	115
2	115
2	88
2	88
2	88
2	4
2	115
2	88
2	8
2	88
2	5
2	88
2	88
2	115
2	88
2	4
2	115
2	88
2	115
2	115
2	115
2	88
2	88
2	115
2	88
2	115
2	3
2	3
2	115
2	5
2	115
2	115
2	115
2	115
2	88
2	88
2	7
2	115
2	88
2	115
2	115
2	115
2	115
2	115
2	115
2	115
2	115
2	115
2	88
2	88
2	115
2	88
2	115
2	7
2	88
3	88
3	88
3	88
3	88
3	88
3	88
3	88
3	88
3	88
3	88
3	88


