# Persistence diagram </home/jens/Uni/data_topology/Project/reddit_results/graphs/1404-1.gml>
#
# Dimension   : 1
# Entries     : 80
# Betti number: 80
12	inf
105	inf
105	inf
105	inf
105	inf
105	inf
105	inf
105	inf
196	inf
196	inf
196	inf
196	inf
196	inf
196	inf
196	inf
196	inf
196	inf
196	inf
196	inf
196	inf
196	inf
196	inf
196	inf
196	inf
196	inf
196	inf
196	inf
196	inf
196	inf
196	inf
196	inf
196	inf
196	inf
196	inf
196	inf
196	inf
196	inf
196	inf
196	inf
196	inf
196	inf
196	inf
196	inf
196	inf
196	inf
196	inf
196	inf
196	inf
196	inf
196	inf
196	inf
196	inf
196	inf
196	inf
196	inf
196	inf
196	inf
196	inf
196	inf
196	inf
196	inf
196	inf
196	inf
196	inf
196	inf
196	inf
196	inf
196	inf
196	inf
196	inf
196	inf
196	inf
196	inf
196	inf
196	inf
196	inf
196	inf
196	inf
196	inf
196	inf
