# Persistence diagram </home/jens/Uni/data_topology/Project/reddit_results/graphs/1413-1.gml>
#
# Dimension   : 0
# Entries     : 232
# Betti number: 1
1	inf
1	112
1	112
1	5
1	7
1	112
1	112
1	139
1	112
1	112
1	112
1	139
1	112
1	11
1	139
1	139
1	11
1	112
1	112
1	8
1	5
1	5
1	112
1	139
1	11
1	139
1	139
1	112
1	139
1	139
1	11
1	139
1	139
1	5
1	112
1	139
1	6
1	5
1	8
1	139
1	11
1	8
1	139
1	112
1	139
1	139
1	112
1	112
1	5
1	139
1	112
1	139
1	112
1	139
1	5
1	112
1	112
1	112
1	112
1	139
1	4
1	11
1	6
1	112
1	112
1	4
1	7
1	112
1	139
1	11
1	112
1	112
1	112
1	7
1	11
1	139
1	5
1	4
1	112
1	139
1	139
1	112
1	112
1	6
1	7
1	6
1	4
1	6
1	7
1	112
1	139
1	139
1	139
1	5
1	8
1	112
1	139
1	5
1	5
1	139
1	112
1	5
1	112
1	139
1	112
1	7
1	112
1	112
1	6
1	5
1	139
1	8
1	3
1	139
1	112
1	112
1	112
1	139
1	112
1	4
1	4
1	112
1	112
1	112
1	112
1	5
1	8
1	3
1	5
1	139
1	8
1	8
1	112
1	112
1	112
1	5
1	112
1	112
1	3
1	5
1	139
1	112
1	112
1	5
1	139
1	139
1	5
1	139
1	139
1	112
1	4
1	139
1	112
1	112
1	139
1	139
1	4
1	112
1	7
1	139
1	5
1	139
1	139
1	139
1	4
1	139
1	139
1	8
1	112
2	4
2	8
2	112
2	112
2	112
2	3
2	112
2	112
2	112
2	5
2	112
2	112
2	139
2	112
2	112
2	3
2	3
2	112
2	112
2	8
2	112
2	112
2	5
2	112
2	112
2	112
2	112
2	112
2	3
2	112
2	112
2	112
2	3
2	112
2	112
2	3
2	112
2	4
2	112
2	112
2	3
2	7
2	112
2	112
2	112
2	3
2	112
2	112
2	112
2	112
2	112
2	112
2	112
2	112
2	112
2	112
2	5
2	112
2	4
2	5
2	112
3	4
3	4


