# Persistence diagram </home/jens/Uni/data_topology/Project/reddit_results/graphs/1416-1.gml>
#
# Dimension   : 1
# Entries     : 11
# Betti number: 11
4	inf
10	inf
10	inf
225	inf
225	inf
225	inf
225	inf
225	inf
225	inf
225	inf
225	inf
