# Persistence diagram </home/jens/Uni/data_topology/Project/reddit_results/graphs/1419-1.gml>
#
# Dimension   : 0
# Entries     : 238
# Betti number: 1
1	inf
1	204
1	204
1	204
1	204
1	112
1	204
1	204
1	204
1	204
1	9
1	204
1	204
1	112
1	204
1	204
1	4
1	112
1	204
1	9
1	204
1	3
1	204
1	4
1	204
1	112
1	204
1	204
1	204
1	204
1	112
1	204
1	204
1	204
1	7
1	204
1	8
1	5
1	204
1	112
1	204
1	204
1	204
1	8
1	204
1	204
1	4
1	204
1	9
1	204
1	204
1	112
1	8
1	9
1	204
1	112
1	112
1	204
1	8
1	204
1	204
1	112
1	204
1	204
1	204
1	112
1	112
1	204
1	204
1	3
1	204
1	204
1	204
1	204
1	204
1	4
1	7
1	4
1	204
1	204
1	204
1	204
1	7
1	204
1	204
1	204
1	204
1	3
1	204
1	204
1	204
1	112
1	204
1	204
1	204
1	204
1	3
1	5
1	204
1	204
1	204
1	204
1	5
1	3
1	204
1	204
1	204
1	204
1	204
1	204
1	4
1	4
1	204
1	204
1	204
1	204
1	204
1	4
1	4
1	204
1	204
1	204
1	204
1	204
1	7
1	3
1	204
1	112
1	3
1	204
1	4
1	112
2	8
2	112
2	3
2	112
2	112
2	112
2	112
2	112
2	3
2	112
2	112
2	112
2	112
2	3
2	112
2	112
2	112
2	112
2	112
2	112
2	3
2	8
2	112
2	112
2	112
2	112
2	112
2	112
2	112
2	112
2	112
2	112
2	112
2	112
2	112
2	112
2	112
2	112
2	112
2	112
2	112
2	112
2	112
2	3
2	112
2	112
2	112
2	5
2	112
2	3
2	112
2	112
2	112
2	112
2	112
2	112
2	112
2	112
2	112
2	112
2	112
2	112
2	112
2	112
2	112
2	112
2	112
2	112
2	112
2	112
2	112
2	112
2	112
2	112
2	112
2	112
2	112
2	112
2	112
2	112
2	112
2	4
2	112
2	112
2	112
2	112
2	112
2	112
2	112
2	3
2	112
2	112
2	112
2	112
2	112
2	112
2	112
2	112
2	112
2	112
2	112
2	112
2	112
2	112
3	4
3	9


