# Persistence diagram </home/jens/Uni/data_topology/Project/reddit_results/graphs/1432-1.gml>
#
# Dimension   : 1
# Entries     : 102
# Betti number: 102
124	inf
124	inf
124	inf
124	inf
124	inf
124	inf
124	inf
182	inf
182	inf
182	inf
182	inf
182	inf
182	inf
182	inf
182	inf
182	inf
182	inf
182	inf
182	inf
182	inf
182	inf
182	inf
182	inf
182	inf
182	inf
182	inf
182	inf
182	inf
182	inf
182	inf
182	inf
182	inf
182	inf
182	inf
182	inf
182	inf
182	inf
182	inf
182	inf
182	inf
182	inf
182	inf
182	inf
182	inf
182	inf
182	inf
182	inf
182	inf
182	inf
182	inf
182	inf
182	inf
182	inf
182	inf
182	inf
182	inf
182	inf
182	inf
182	inf
182	inf
182	inf
182	inf
182	inf
182	inf
182	inf
182	inf
182	inf
182	inf
182	inf
182	inf
182	inf
182	inf
182	inf
182	inf
182	inf
182	inf
182	inf
182	inf
182	inf
182	inf
182	inf
182	inf
182	inf
182	inf
182	inf
182	inf
182	inf
182	inf
182	inf
182	inf
182	inf
182	inf
182	inf
182	inf
182	inf
182	inf
182	inf
182	inf
182	inf
182	inf
182	inf
182	inf
