# Persistence diagram </home/jens/Uni/data_topology/Project/reddit_results/graphs/1433-1.gml>
#
# Dimension   : 1
# Entries     : 52
# Betti number: 52
50	inf
50	inf
68	inf
68	inf
68	inf
68	inf
68	inf
68	inf
68	inf
68	inf
68	inf
68	inf
68	inf
68	inf
68	inf
68	inf
68	inf
68	inf
68	inf
68	inf
68	inf
68	inf
68	inf
68	inf
68	inf
68	inf
68	inf
68	inf
68	inf
68	inf
68	inf
68	inf
68	inf
68	inf
68	inf
68	inf
68	inf
68	inf
68	inf
68	inf
68	inf
68	inf
68	inf
68	inf
68	inf
68	inf
68	inf
68	inf
68	inf
68	inf
68	inf
68	inf
