# Persistence diagram </home/jens/Uni/data_topology/Project/reddit_results/graphs/1439-1.gml>
#
# Dimension   : 1
# Entries     : 58
# Betti number: 58
4	inf
5	inf
6	inf
8	inf
8	inf
8	inf
9	inf
9	inf
9	inf
10	inf
10	inf
10	inf
10	inf
11	inf
11	inf
11	inf
11	inf
12	inf
13	inf
13	inf
13	inf
13	inf
14	inf
15	inf
15	inf
15	inf
15	inf
15	inf
19	inf
19	inf
19	inf
19	inf
19	inf
19	inf
19	inf
19	inf
19	inf
19	inf
19	inf
69	inf
69	inf
69	inf
69	inf
69	inf
69	inf
69	inf
69	inf
69	inf
69	inf
69	inf
69	inf
69	inf
69	inf
69	inf
69	inf
69	inf
69	inf
69	inf
