# Persistence diagram </home/jens/Uni/data_topology/Project/reddit_results/graphs/1442-1.gml>
#
# Dimension   : 0
# Entries     : 289
# Betti number: 1
1	inf
1	201
1	201
1	201
1	201
1	201
1	201
1	201
1	201
1	87
1	87
1	201
1	87
1	201
1	87
1	87
1	8
1	201
1	6
1	87
1	201
1	6
1	201
1	87
1	201
1	201
1	201
1	201
1	201
1	201
1	201
1	201
1	201
1	201
1	201
1	87
1	201
1	87
1	201
1	201
1	201
1	201
1	201
1	201
1	87
1	3
1	201
1	201
1	6
1	201
1	201
1	3
1	87
1	201
1	201
1	87
1	6
1	201
1	201
1	201
1	201
1	87
1	201
1	201
1	201
1	201
1	6
1	87
1	201
1	87
1	201
1	87
1	201
1	201
1	87
1	201
1	7
1	201
1	4
1	87
1	87
1	87
1	201
1	201
1	201
1	201
1	201
1	201
1	6
1	7
1	201
1	201
1	201
1	201
1	201
1	201
1	201
1	201
1	201
1	87
1	6
1	201
1	201
1	201
1	201
1	201
1	201
1	4
1	87
1	5
1	201
1	87
1	201
1	3
1	201
1	201
1	7
1	4
1	87
1	87
1	4
1	6
1	201
1	201
1	201
1	4
1	201
1	201
1	4
1	87
1	201
1	201
1	201
1	201
1	201
1	201
1	201
1	201
1	201
1	201
1	201
1	201
1	201
1	201
1	4
1	5
1	201
1	201
1	87
1	87
1	201
1	201
1	87
1	87
1	201
1	201
1	87
1	3
1	6
1	201
1	3
1	5
1	5
1	201
1	201
1	201
1	201
1	87
1	201
1	201
1	201
1	201
1	87
1	87
1	201
1	8
1	201
1	201
1	201
1	201
1	201
1	7
1	4
1	87
1	201
1	201
1	201
1	201
1	201
1	7
1	201
1	201
1	87
1	8
1	201
1	201
1	201
1	201
1	201
1	87
1	201
1	201
1	201
1	201
1	5
1	201
1	5
1	201
1	87
1	201
1	201
1	201
1	201
1	6
1	87
1	201
1	87
1	201
1	201
1	201
1	201
1	201
1	201
1	201
1	87
1	87
1	201
1	201
1	201
1	201
1	3
1	87
1	5
1	5
1	201
1	87
1	4
1	87
1	201
1	87
1	201
1	201
2	201
2	5
2	87
2	87
2	87
2	4
2	3
2	4
2	87
2	87
2	5
2	87
2	87
2	87
2	87
2	3
2	3
2	87
2	87
2	3
2	87
2	201
2	87
2	8
2	87
2	3
2	87
2	87
2	87
2	87
2	87
2	5
2	87
2	3
2	5
2	7
2	8
2	87
2	87
2	87
2	5
2	87
2	3
2	87
2	3
2	87
3	4


