# Persistence diagram </home/jens/Uni/data_topology/Project/reddit_results/graphs/1446-1.gml>
#
# Dimension   : 0
# Entries     : 230
# Betti number: 1
1	inf
1	9
1	83
1	83
1	8
1	83
1	83
1	8
1	83
1	21
1	9
1	8
1	14
1	7
1	83
1	7
1	6
1	83
1	6
1	83
1	8
1	83
1	6
1	9
1	83
1	8
1	83
1	8
1	10
1	6
1	83
1	10
1	7
1	9
1	21
1	14
1	4
1	9
1	8
1	7
1	83
1	13
1	83
1	9
1	6
1	83
1	83
1	83
1	4
1	6
1	21
1	14
1	7
1	7
1	21
1	6
1	10
1	9
1	7
1	4
1	83
1	8
1	21
1	83
1	21
1	4
1	83
1	6
1	21
1	6
1	83
1	13
1	10
1	5
1	6
1	21
1	83
1	7
1	7
1	9
1	5
1	21
1	4
1	6
1	83
1	83
1	10
1	83
1	6
1	5
1	4
1	6
1	83
1	6
1	83
1	6
1	83
1	6
1	5
1	10
1	5
1	4
1	5
1	6
1	13
1	83
1	83
1	5
1	83
1	83
1	83
1	10
1	83
1	8
1	4
1	8
1	83
1	8
1	83
1	83
1	9
1	9
1	13
1	10
1	9
1	83
1	7
1	5
1	83
1	9
1	6
1	10
1	10
1	83
1	83
1	10
1	6
1	5
1	6
1	10
1	6
1	4
1	83
1	4
1	83
1	10
1	83
1	6
1	8
1	83
1	10
1	6
1	83
1	4
1	10
1	10
1	3
1	9
1	83
1	10
1	83
1	4
1	4
1	3
1	5
1	83
1	4
1	3
1	83
1	4
1	83
1	83
1	6
1	3
1	13
1	4
1	6
1	3
1	83
1	4
1	7
1	5
1	9
1	7
1	5
1	83
1	5
1	6
1	7
1	4
1	4
1	7
2	9
2	5
2	6
2	6
2	6
2	4
2	5
2	9
2	4
2	12
2	5
2	10
2	13
2	4
2	3
2	3
2	14
2	4
2	7
2	9
2	5
2	3
2	3
2	3
2	14
2	4
2	3
2	14
2	3
2	3
2	4
3	4
3	5
3	6
3	4
3	10
3	4
4	6


