# Persistence diagram </home/jens/Uni/data_topology/Project/reddit_results/graphs/1452-1.gml>
#
# Dimension   : 1
# Entries     : 34
# Betti number: 34
55	inf
55	inf
58	inf
58	inf
58	inf
58	inf
58	inf
58	inf
58	inf
58	inf
58	inf
58	inf
58	inf
58	inf
58	inf
58	inf
58	inf
58	inf
58	inf
58	inf
58	inf
58	inf
58	inf
58	inf
58	inf
58	inf
58	inf
58	inf
58	inf
58	inf
58	inf
58	inf
58	inf
58	inf
