# Persistence diagram </home/jens/Uni/data_topology/Project/reddit_results/graphs/1453-1.gml>
#
# Dimension   : 1
# Entries     : 94
# Betti number: 94
98	inf
98	inf
182	inf
182	inf
182	inf
182	inf
182	inf
182	inf
182	inf
182	inf
182	inf
182	inf
182	inf
182	inf
182	inf
182	inf
182	inf
182	inf
182	inf
182	inf
182	inf
182	inf
182	inf
182	inf
182	inf
182	inf
182	inf
182	inf
182	inf
182	inf
182	inf
182	inf
182	inf
182	inf
182	inf
182	inf
182	inf
182	inf
182	inf
182	inf
182	inf
182	inf
182	inf
182	inf
182	inf
182	inf
182	inf
182	inf
182	inf
182	inf
182	inf
182	inf
182	inf
182	inf
182	inf
182	inf
182	inf
182	inf
182	inf
182	inf
182	inf
182	inf
182	inf
182	inf
182	inf
182	inf
182	inf
182	inf
182	inf
182	inf
182	inf
182	inf
182	inf
182	inf
182	inf
182	inf
182	inf
182	inf
182	inf
182	inf
182	inf
182	inf
182	inf
182	inf
182	inf
182	inf
182	inf
182	inf
182	inf
182	inf
182	inf
182	inf
182	inf
182	inf
