# Persistence diagram </home/jens/Uni/data_topology/Project/reddit_results/graphs/1464-1.gml>
#
# Dimension   : 0
# Entries     : 241
# Betti number: 2
1	inf
1	83
1	22
1	83
1	83
1	83
1	11
1	11
1	146
1	83
1	146
1	146
1	6
1	146
1	3
1	5
1	4
1	146
1	146
1	146
1	5
1	146
1	11
1	83
1	146
1	146
1	146
1	83
1	83
1	146
1	22
1	146
1	5
1	4
1	22
1	3
1	146
1	146
1	146
1	5
1	22
1	146
1	146
1	146
1	3
1	5
1	5
1	4
1	146
1	146
1	146
1	22
1	83
1	5
1	146
1	22
1	146
1	6
1	4
1	83
1	146
1	11
1	22
1	146
1	146
1	83
1	22
1	146
1	11
1	146
1	11
1	6
1	9
1	3
1	6
1	146
1	146
1	inf
1	146
1	5
1	146
1	6
1	146
1	146
1	83
1	22
1	146
1	83
1	83
1	146
1	146
1	5
1	6
1	146
1	4
1	146
1	3
1	6
1	146
1	8
1	5
1	11
1	5
1	5
1	5
1	146
1	146
1	146
1	83
1	146
1	22
1	22
1	5
1	3
1	8
1	22
1	83
1	9
1	3
1	6
1	4
1	3
1	146
1	146
1	146
1	6
1	4
1	146
1	146
1	146
1	83
1	4
1	22
1	146
1	83
1	146
1	5
1	22
1	146
1	6
1	9
1	8
1	22
1	146
1	146
1	3
1	9
1	9
1	8
1	6
1	2
1	6
1	9
1	146
1	11
1	5
1	22
1	146
1	146
1	5
1	3
2	83
2	5
2	83
2	83
2	83
2	6
2	83
2	83
2	83
2	6
2	3
2	83
2	83
2	83
2	3
2	3
2	83
2	83
2	83
2	6
2	4
2	83
2	83
2	83
2	83
2	83
2	83
2	83
2	5
2	83
2	3
2	6
2	83
2	83
2	83
2	83
2	83
2	83
2	83
2	83
2	83
2	83
2	83
2	5
2	83
2	83
2	83
2	83
2	83
2	83
2	83
2	83
2	83
2	83
2	83
2	83
2	83
2	3
2	83
2	3
2	83
2	83
2	4
2	83
2	83
2	22
2	83
2	83
2	83
2	83
2	83
2	83
2	83
2	83
2	83
2	4
2	6
2	4
3	4
4	8


