# Persistence diagram </home/jens/Uni/data_topology/Project/reddit_results/graphs/1474-1.gml>
#
# Dimension   : 1
# Entries     : 121
# Betti number: 121
3	inf
5	inf
151	inf
151	inf
151	inf
151	inf
151	inf
151	inf
151	inf
151	inf
151	inf
151	inf
151	inf
151	inf
151	inf
151	inf
151	inf
151	inf
151	inf
151	inf
151	inf
151	inf
155	inf
155	inf
155	inf
155	inf
155	inf
155	inf
155	inf
155	inf
155	inf
155	inf
155	inf
155	inf
155	inf
155	inf
155	inf
155	inf
155	inf
155	inf
155	inf
155	inf
155	inf
155	inf
155	inf
155	inf
155	inf
155	inf
155	inf
155	inf
155	inf
155	inf
155	inf
155	inf
155	inf
155	inf
155	inf
155	inf
155	inf
155	inf
155	inf
155	inf
155	inf
155	inf
155	inf
155	inf
155	inf
155	inf
155	inf
155	inf
155	inf
155	inf
155	inf
155	inf
155	inf
155	inf
155	inf
155	inf
155	inf
155	inf
155	inf
155	inf
155	inf
155	inf
155	inf
155	inf
155	inf
155	inf
155	inf
155	inf
155	inf
155	inf
155	inf
155	inf
155	inf
155	inf
155	inf
155	inf
155	inf
155	inf
155	inf
155	inf
155	inf
155	inf
155	inf
155	inf
155	inf
155	inf
155	inf
155	inf
155	inf
155	inf
155	inf
155	inf
155	inf
155	inf
155	inf
155	inf
155	inf
155	inf
155	inf
