# Persistence diagram </home/jens/Uni/data_topology/Project/reddit_results/graphs/1476-1.gml>
#
# Dimension   : 1
# Entries     : 65
# Betti number: 65
7	inf
27	inf
27	inf
27	inf
27	inf
64	inf
64	inf
126	inf
126	inf
126	inf
126	inf
126	inf
126	inf
126	inf
126	inf
126	inf
126	inf
126	inf
126	inf
126	inf
126	inf
126	inf
126	inf
126	inf
126	inf
126	inf
126	inf
126	inf
126	inf
126	inf
126	inf
126	inf
126	inf
126	inf
126	inf
126	inf
126	inf
126	inf
126	inf
126	inf
126	inf
126	inf
126	inf
126	inf
126	inf
126	inf
126	inf
126	inf
126	inf
126	inf
126	inf
126	inf
126	inf
126	inf
126	inf
126	inf
126	inf
126	inf
126	inf
126	inf
126	inf
126	inf
126	inf
126	inf
126	inf
