# Persistence diagram </home/jens/Uni/data_topology/Project/reddit_results/graphs/1484-1.gml>
#
# Dimension   : 0
# Entries     : 83
# Betti number: 1
1	inf
1	67
1	74
1	67
1	67
1	67
1	74
1	67
1	74
1	74
1	67
1	74
1	74
1	67
1	3
1	3
1	67
1	67
1	74
1	67
1	74
1	74
1	74
1	74
1	74
1	74
1	67
1	74
1	74
1	67
1	74
2	67
2	67
2	67
2	67
2	67
2	67
2	67
2	67
2	67
2	67
2	67
2	4
2	67
2	67
2	67
2	67
2	74
2	67
2	67
2	67
2	67
2	67
2	67
2	67
2	67
2	67
2	67
2	67
2	67
2	67
2	67
2	67
2	67
2	67
2	67
2	67
2	67
2	67
2	67
2	67
2	67
2	67
2	67
2	67
2	67
2	67
2	67
2	67
2	67
2	67
2	67
2	67


