# Persistence diagram </home/jens/Uni/data_topology/Project/reddit_results/graphs/1486-1.gml>
#
# Dimension   : 0
# Entries     : 229
# Betti number: 3
1	inf
1	inf
1	110
1	110
1	61
1	61
1	61
1	61
1	10
1	61
1	61
1	110
1	61
1	10
1	110
1	61
1	7
1	110
1	4
1	4
1	110
1	7
1	7
1	110
1	61
1	61
1	110
1	110
1	110
1	6
1	61
1	5
1	5
1	110
1	10
1	6
1	110
1	5
1	6
1	7
1	5
1	5
1	5
1	5
1	110
1	6
1	110
1	110
1	5
1	61
1	110
1	6
1	4
1	6
1	4
1	4
1	8
1	3
1	8
1	4
1	61
1	4
1	61
1	4
1	7
1	4
1	110
1	3
1	6
1	6
1	110
1	4
1	5
1	4
1	110
1	4
1	10
1	110
1	61
1	5
1	4
1	3
1	5
1	6
1	110
1	110
1	5
1	4
1	110
1	5
1	4
1	10
1	6
1	110
1	110
1	61
1	6
1	110
1	6
1	5
1	4
1	6
1	6
1	6
1	3
1	6
1	4
1	61
1	110
1	61
1	110
1	110
1	7
1	5
1	4
1	4
1	110
1	4
1	3
1	110
1	4
1	6
1	110
1	6
1	5
1	8
1	10
1	110
1	3
1	10
1	110
1	110
1	110
1	4
1	5
1	61
1	4
1	4
1	110
1	10
1	61
1	5
1	5
1	110
1	4
1	110
1	110
1	110
1	61
1	4
1	7
1	5
1	4
1	8
1	110
1	110
1	110
1	6
1	6
1	110
1	6
1	10
1	3
1	4
1	8
1	4
1	10
1	7
1	4
1	61
1	5
1	4
1	6
1	5
1	10
1	3
1	61
1	110
1	6
1	61
1	5
1	110
2	61
2	inf
2	3
2	61
2	4
2	4
2	3
2	61
2	61
2	61
2	61
2	61
2	61
2	61
2	61
2	3
2	4
2	61
2	3
2	3
2	7
2	61
2	61
2	61
2	3
2	4
2	61
2	61
2	61
2	3
2	61
2	61
2	3
2	3
2	61
2	61
2	61
2	4
2	4
2	61
2	61
3	4
3	6
3	8
3	4
3	5
3	7


