# Persistence diagram </home/jens/Uni/data_topology/Project/reddit_results/graphs/1493-1.gml>
#
# Dimension   : 0
# Entries     : 285
# Betti number: 2
1	inf
1	147
1	147
1	147
1	147
1	93
1	93
1	93
1	147
1	93
1	93
1	147
1	93
1	93
1	9
1	9
1	147
1	8
1	147
1	7
1	8
1	147
1	5
1	4
1	147
1	93
1	93
1	4
1	147
1	6
1	147
1	147
1	8
1	inf
1	147
1	8
1	7
1	147
1	6
1	6
1	8
1	147
1	6
1	12
1	147
1	93
1	147
1	147
1	147
1	12
1	93
1	93
1	147
1	4
1	147
1	147
1	6
1	7
1	93
1	147
1	147
1	93
1	4
1	7
1	4
1	6
1	147
1	93
1	6
1	5
1	5
1	93
1	6
1	5
1	147
1	147
1	6
1	147
1	93
1	4
1	93
1	4
1	93
1	147
1	93
1	147
1	12
1	8
1	93
1	147
1	9
1	5
1	93
1	147
1	6
1	147
1	4
1	147
1	93
1	93
1	4
1	93
1	4
1	147
1	6
1	12
1	5
1	147
1	5
1	147
1	93
1	93
1	147
1	147
1	147
1	9
1	7
1	4
1	93
1	147
1	93
1	7
1	93
1	147
1	147
1	147
1	2
1	9
1	147
1	3
1	147
1	93
1	147
1	147
1	4
1	4
1	147
1	147
1	6
1	93
1	147
1	147
1	147
1	93
1	147
1	4
1	5
1	7
1	147
1	147
1	93
1	147
1	5
1	147
1	147
1	93
1	7
1	147
1	6
1	147
1	12
1	147
1	147
1	4
1	147
1	147
1	147
1	147
1	147
1	5
1	147
1	7
1	147
1	8
1	93
1	93
1	6
1	147
1	147
1	147
1	147
1	12
1	3
1	147
1	9
1	6
1	93
1	147
1	147
1	7
1	93
1	147
1	147
1	93
1	7
1	147
1	147
1	147
1	147
1	93
1	147
1	147
1	147
1	93
1	6
1	12
1	12
1	93
1	147
1	147
1	147
1	147
1	3
1	5
1	147
1	147
1	3
1	5
1	7
1	147
1	5
1	147
1	3
1	147
1	93
1	147
1	3
1	147
1	147
1	93
1	147
1	147
1	93
1	5
1	147
1	147
1	93
1	93
1	3
1	147
1	147
1	147
1	93
2	93
2	5
2	5
2	93
2	93
2	7
2	93
2	5
2	93
2	147
2	5
2	4
2	4
2	3
2	93
2	93
2	3
2	5
2	5
2	93
2	93
2	4
2	93
2	93
2	5
2	93
2	93
2	93
2	93
2	93
2	93
2	4
2	93
2	3
2	93
2	93
2	93
2	4
2	93
3	4
3	4
3	4


