# Persistence diagram </home/jens/Uni/data_topology/Project/reddit_results/graphs/1496-1.gml>
#
# Dimension   : 0
# Entries     : 48
# Betti number: 1
1	inf
1	47
1	47
1	47
1	43
1	47
1	43
1	47
1	43
2	43
2	43
2	43
2	43
2	43
2	43
2	43
2	43
2	43
2	43
2	43
2	43
2	43
2	43
2	43
2	43
2	43
2	43
2	43
2	43
2	43
2	43
2	43
2	43
2	43
2	43
2	43
2	43
2	43
2	43
2	43
2	43
2	43
2	43
2	43
2	43
2	43
2	43
2	43


