# Persistence diagram </home/jens/Uni/data_topology/Project/reddit_results/graphs/1498-1.gml>
#
# Dimension   : 0
# Entries     : 288
# Betti number: 1
1	inf
1	196
1	86
1	196
1	196
1	6
1	196
1	86
1	86
1	196
1	196
1	196
1	12
1	86
1	86
1	196
1	196
1	196
1	196
1	196
1	86
1	9
1	196
1	196
1	196
1	196
1	196
1	196
1	196
1	196
1	6
1	196
1	12
1	86
1	196
1	196
1	12
1	196
1	196
1	196
1	196
1	86
1	86
1	86
1	196
1	86
1	12
1	6
1	12
1	86
1	6
1	6
1	196
1	86
1	6
1	196
1	6
1	196
1	86
1	196
1	86
1	86
1	196
1	86
1	196
1	196
1	196
1	6
1	86
1	196
1	196
1	86
1	6
1	12
1	196
1	5
1	196
1	196
1	196
1	196
1	86
1	12
1	9
1	196
1	3
1	196
1	3
1	86
1	196
1	196
1	196
1	196
1	12
1	86
1	196
1	196
1	196
1	5
1	12
1	4
1	3
1	196
1	196
1	86
1	3
1	196
1	3
1	196
1	196
1	86
1	86
1	86
1	196
1	196
1	196
1	4
1	196
1	196
1	196
1	196
1	196
1	196
1	196
1	12
1	196
1	196
1	196
1	196
1	196
1	196
1	86
1	12
1	86
1	196
1	6
1	196
1	9
1	196
1	86
1	196
1	196
1	196
1	196
1	196
1	5
1	196
1	196
1	196
1	196
1	196
1	196
1	86
1	9
1	196
1	196
1	196
1	12
1	196
1	196
1	6
1	12
1	196
1	196
1	196
1	196
1	12
1	6
1	196
1	196
1	6
1	196
1	196
1	196
1	196
1	5
1	196
1	196
1	4
1	86
1	196
1	196
1	196
1	6
1	12
1	86
1	86
1	196
1	6
1	196
1	196
1	196
1	3
1	86
1	6
1	196
1	196
1	3
1	12
1	86
1	196
1	196
1	196
1	196
1	196
1	196
1	196
1	12
1	196
1	196
1	5
1	196
1	196
1	5
1	196
1	4
1	86
1	196
1	86
1	12
1	196
1	3
1	6
1	196
1	196
1	5
1	196
1	196
1	196
1	196
1	196
1	6
1	196
1	196
1	9
1	196
1	196
1	86
1	86
1	196
1	86
1	196
1	196
2	3
2	86
2	3
2	86
2	86
2	86
2	86
2	86
2	86
2	86
2	86
2	86
2	86
2	86
2	86
2	4
2	86
2	86
2	4
2	5
2	86
2	3
2	86
2	6
2	86
2	3
2	3
2	86
2	86
2	3
2	86
2	6
2	86
2	3
2	9
2	86
2	4
2	86
2	86
2	86
2	86
2	86
3	5
3	6
3	4
3	4


