# Persistence diagram </home/jens/Uni/data_topology/Project/reddit_results/graphs/15191.gml>
#
# Dimension   : 0
# Entries     : 20
# Betti number: 1
1	inf
1	17
1	17
1	17
1	17
1	17
1	6
1	6
1	17
1	6
1	4
1	17
1	6
1	17
1	17
1	17
1	17
1	17
2	17
2	6


