# Persistence diagram </home/jens/Uni/data_topology/Project/reddit_results/graphs/15301.gml>
#
# Dimension   : 1
# Entries     : 20
# Betti number: 20
4	inf
5	inf
9	inf
9	inf
46	inf
46	inf
46	inf
46	inf
46	inf
46	inf
46	inf
46	inf
46	inf
46	inf
46	inf
46	inf
46	inf
46	inf
46	inf
46	inf
