# Persistence diagram </home/jens/Uni/data_topology/Project/reddit_results/graphs/15321.gml>
#
# Dimension   : 0
# Entries     : 47
# Betti number: 2
1	inf
1	37
1	37
1	37
1	37
1	37
1	37
1	37
1	37
1	37
1	37
1	37
1	4
1	37
1	inf
1	37
1	37
1	37
1	4
1	6
1	37
1	4
1	37
1	4
1	6
1	37
1	37
1	37
1	6
1	37
1	37
1	37
1	37
1	6
1	37
1	6
1	37
1	37
1	37
1	37
1	37
2	4
2	6
2	6
2	6
2	6
2	4


