# Persistence diagram </home/jens/Uni/data_topology/Project/reddit_results/graphs/15601.gml>
#
# Dimension   : 1
# Entries     : 9
# Betti number: 9
5	inf
6	inf
8	inf
8	inf
8	inf
15	inf
15	inf
15	inf
15	inf
