# Persistence diagram </home/jens/Uni/data_topology/Project/reddit_results/graphs/15651.gml>
#
# Dimension   : 0
# Entries     : 17
# Betti number: 1
1	inf
1	10
1	10
1	10
1	6
1	10
1	10
1	6
1	6
1	10
1	10
1	10
1	10
1	6
1	6
1	4
1	4
