# Persistence diagram </home/jens/Uni/data_topology/Project/reddit_results/graphs/15661.gml>
#
# Dimension   : 0
# Entries     : 14
# Betti number: 1
1	inf
1	11
1	11
1	11
1	11
1	4
1	11
1	3
1	4
1	11
1	3
1	11
1	11
2	4


