# Persistence diagram </home/jens/Uni/data_topology/Project/reddit_results/graphs/15721.gml>
#
# Dimension   : 0
# Entries     : 41
# Betti number: 3
1	inf
1	8
1	5
1	inf
1	6
1	3
1	22
1	22
1	22
1	22
1	8
1	8
1	5
1	5
1	8
1	6
1	22
1	22
1	6
1	5
1	8
1	22
1	22
1	3
1	4
1	5
1	inf
1	22
1	22
1	2
1	3
1	5
1	22
1	22
1	4
2	8
2	5
2	4
2	4
2	3
2	3


