# Persistence diagram </home/jens/Uni/data_topology/Project/reddit_results/graphs/15751.gml>
#
# Dimension   : 1
# Entries     : 24
# Betti number: 24
4	inf
5	inf
6	inf
7	inf
7	inf
86	inf
86	inf
86	inf
86	inf
86	inf
86	inf
86	inf
86	inf
86	inf
86	inf
86	inf
86	inf
86	inf
86	inf
86	inf
86	inf
86	inf
86	inf
86	inf
