# Persistence diagram </home/jens/Uni/data_topology/Project/reddit_results/graphs/15781.gml>
#
# Dimension   : 1
# Entries     : 10
# Betti number: 10
26	inf
26	inf
26	inf
26	inf
26	inf
26	inf
26	inf
26	inf
26	inf
26	inf
