# Persistence diagram </home/jens/Uni/data_topology/Project/reddit_results/graphs/15831.gml>
#
# Dimension   : 0
# Entries     : 75
# Betti number: 3
1	inf
1	42
1	6
1	5
1	6
1	6
1	6
1	42
1	42
1	42
1	6
1	42
1	6
1	4
1	inf
1	6
1	5
1	5
1	42
1	5
1	42
1	42
1	42
1	9
1	42
1	6
1	4
1	5
1	42
1	5
1	4
1	9
1	42
1	6
1	inf
1	6
1	42
1	42
1	4
1	42
1	42
1	9
1	42
1	4
1	42
1	4
1	42
1	42
1	4
1	6
1	42
1	6
1	4
1	42
1	42
1	9
1	42
1	42
1	42
1	6
1	42
1	3
1	4
2	4
2	6
2	4
2	4
2	4
2	6
2	3
2	4
2	4
2	4
3	5
3	4


