# Persistence diagram </home/jens/Uni/data_topology/Project/reddit_results/graphs/15941.gml>
#
# Dimension   : 1
# Entries     : 15
# Betti number: 15
9	inf
9	inf
9	inf
14	inf
14	inf
47	inf
47	inf
47	inf
47	inf
47	inf
47	inf
47	inf
47	inf
47	inf
47	inf
