# Persistence diagram </home/jens/Uni/data_topology/Project/reddit_results/graphs/15951.gml>
#
# Dimension   : 0
# Entries     : 16
# Betti number: 1
1	inf
1	13
1	13
1	13
1	13
1	13
1	13
1	13
1	4
1	4
1	13
1	4
1	3
1	13
2	4
3	4


