# Persistence diagram </home/jens/Uni/data_topology/Project/reddit_results/graphs/15961.gml>
#
# Dimension   : 0
# Entries     : 21
# Betti number: 2
1	inf
1	9
1	11
1	11
1	9
1	11
1	11
1	11
1	11
1	9
1	11
1	3
1	inf
1	11
1	9
1	11
1	9
1	9
1	2
2	3
2	9


