# Persistence diagram </home/jens/Uni/data_topology/Project/reddit_results/graphs/15971.gml>
#
# Dimension   : 0
# Entries     : 71
# Betti number: 3
1	inf
1	inf
1	47
1	47
1	47
1	47
1	47
1	47
1	47
1	47
1	47
1	47
1	6
1	47
1	6
1	47
1	5
1	4
1	47
1	47
1	47
1	47
1	47
1	6
1	6
1	4
1	2
1	6
1	47
1	3
1	6
1	4
1	47
1	inf
1	3
1	4
1	47
1	47
1	5
1	47
1	47
1	47
1	47
1	6
1	3
1	47
1	6
1	6
1	47
1	5
1	6
1	6
1	4
1	47
2	47
2	3
2	3
2	3
2	5
2	6
2	3
2	5
2	6
2	5
2	6
2	4
2	5
2	47
2	6
2	3
3	4


