# Persistence diagram </home/jens/Uni/data_topology/Project/reddit_results/graphs/15991.gml>
#
# Dimension   : 0
# Entries     : 22
# Betti number: 1
1	inf
1	15
1	15
1	15
1	15
1	15
1	15
1	4
1	3
1	15
1	15
1	3
1	15
1	15
1	15
1	15
1	3
1	4
1	15
1	3
1	15
2	3
