# Persistence diagram </home/jens/Uni/data_topology/Project/reddit_results/graphs/16021.gml>
#
# Dimension   : 0
# Entries     : 38
# Betti number: 1
1	inf
1	30
1	30
1	30
1	30
1	30
1	30
1	30
1	30
1	30
1	30
1	30
1	30
1	30
1	30
1	30
1	3
1	30
1	30
1	30
1	30
1	30
1	30
1	3
1	30
1	30
1	3
1	3
1	3
1	30
1	30
1	30
2	3
2	5
2	5
2	3
2	3
2	3


