# Persistence diagram </home/jens/Uni/data_topology/Project/reddit_results/graphs/16071.gml>
#
# Dimension   : 0
# Entries     : 85
# Betti number: 1
1	inf
1	45
1	45
1	45
1	11
1	9
1	45
1	45
1	45
1	45
1	45
1	10
1	45
1	45
1	45
1	10
1	10
1	45
1	9
1	4
1	45
1	45
1	7
1	6
1	45
1	11
1	5
1	10
1	4
1	4
1	45
1	9
1	45
1	45
1	4
1	45
1	11
1	45
1	7
1	45
1	45
1	5
1	45
1	5
1	45
1	11
1	6
1	5
1	11
1	45
1	45
1	45
1	5
1	45
1	5
1	45
1	11
1	10
1	45
1	11
1	3
1	6
1	4
1	45
1	11
1	45
1	45
1	7
1	4
1	9
1	45
1	7
1	9
1	3
1	45
2	5
2	4
2	11
2	3
2	6
2	6
2	5
2	3
2	5
2	4


