# Persistence diagram </home/jens/Uni/data_topology/Project/reddit_results/graphs/16081.gml>
#
# Dimension   : 1
# Entries     : 10
# Betti number: 10
3	inf
7	inf
25	inf
25	inf
25	inf
25	inf
25	inf
25	inf
25	inf
25	inf
