# Persistence diagram </home/jens/Uni/data_topology/Project/reddit_results/graphs/16241.gml>
#
# Dimension   : 1
# Entries     : 17
# Betti number: 17
8	inf
8	inf
8	inf
8	inf
8	inf
8	inf
8	inf
8	inf
8	inf
10	inf
10	inf
15	inf
15	inf
15	inf
15	inf
15	inf
15	inf
