# Persistence diagram </home/jens/Uni/data_topology/Project/reddit_results/graphs/16331.gml>
#
# Dimension   : 0
# Entries     : 20
# Betti number: 2
1	inf
1	18
1	inf
1	18
1	18
1	18
1	18
1	18
1	5
1	5
1	5
1	18
1	18
2	3
2	5
2	4
2	3
2	4
2	5
3	5


