# Persistence diagram </home/jens/Uni/data_topology/Project/reddit_results/graphs/16351.gml>
#
# Dimension   : 0
# Entries     : 22
# Betti number: 1
1	inf
1	18
1	18
1	18
1	18
1	18
1	5
1	18
1	18
1	18
1	18
1	18
1	18
1	18
1	18
1	3
1	18
1	18
1	18
1	5
1	18
1	5
