# Persistence diagram </home/jens/Uni/data_topology/Project/reddit_results/graphs/16371.gml>
#
# Dimension   : 0
# Entries     : 100
# Betti number: 5
1	inf
1	inf
1	54
1	9
1	5
1	8
1	7
1	7
1	6
1	5
1	10
1	54
1	54
1	8
1	54
1	8
1	5
1	inf
1	7
1	7
1	9
1	15
1	54
1	8
1	54
1	6
1	9
1	7
1	54
1	6
1	54
1	54
1	6
1	7
1	54
1	4
1	15
1	6
1	7
1	8
1	54
1	5
1	inf
1	15
1	8
1	9
1	inf
1	54
1	6
1	15
1	54
1	7
1	54
1	3
1	54
1	54
1	54
1	7
1	8
1	54
1	15
1	54
1	4
1	2
1	2
1	15
1	54
1	54
1	7
1	6
1	54
1	5
1	15
1	54
1	54
1	8
1	54
1	54
2	5
2	6
2	6
2	3
2	5
2	15
2	5
2	6
2	10
2	6
2	10
2	4
2	10
2	10
2	10
2	5
2	5
2	10
2	10
2	5
3	6
4	5


