# Persistence diagram </home/jens/Uni/data_topology/Project/reddit_results/graphs/16421.gml>
#
# Dimension   : 0
# Entries     : 34
# Betti number: 1
1	inf
1	18
1	4
1	7
1	18
1	5
1	7
1	18
1	5
1	3
1	18
1	7
1	4
1	10
1	18
1	18
1	10
1	5
1	18
1	18
1	10
1	18
1	4
1	7
1	10
1	5
1	7
1	18
1	18
1	18
1	18
2	3
2	3
2	5


