# Persistence diagram </home/jens/Uni/data_topology/Project/reddit_results/graphs/16431.gml>
#
# Dimension   : 0
# Entries     : 43
# Betti number: 1
1	inf
1	36
1	36
1	36
1	36
1	36
1	4
1	10
1	36
1	36
1	4
1	10
1	36
1	10
1	36
1	36
1	36
1	36
1	10
1	10
1	10
1	36
1	36
1	36
1	36
1	36
1	36
1	36
1	4
1	36
1	4
1	36
1	36
1	36
1	36
1	36
1	36
2	4
2	10
2	36
2	4
2	3
2	3


