# Persistence diagram </home/jens/Uni/data_topology/Project/reddit_results/graphs/16491.gml>
#
# Dimension   : 0
# Entries     : 25
# Betti number: 1
1	inf
1	24
1	24
1	24
1	24
1	3
1	3
1	24
1	24
1	24
1	24
1	24
1	24
1	24
1	24
1	24
1	24
1	24
1	24
1	24
1	24
1	24
1	24
1	24
2	3


