# Persistence diagram </home/jens/Uni/data_topology/Project/reddit_results/graphs/16501.gml>
#
# Dimension   : 0
# Entries     : 29
# Betti number: 2
1	inf
1	20
1	20
1	20
1	20
1	8
1	8
1	20
1	7
1	5
1	inf
1	20
1	20
1	20
1	7
1	20
1	20
1	20
1	20
1	4
1	20
1	20
1	8
2	7
2	3
2	7
2	3
2	3
2	5


