# Persistence diagram </home/jens/Uni/data_topology/Project/reddit_results/graphs/16621.gml>
#
# Dimension   : 0
# Entries     : 126
# Betti number: 2
1	inf
1	84
1	84
1	84
1	84
1	84
1	84
1	21
1	84
1	84
1	12
1	84
1	84
1	84
1	84
1	84
1	21
1	84
1	21
1	12
1	21
1	21
1	84
1	84
1	84
1	84
1	21
1	12
1	84
1	12
1	21
1	84
1	84
1	12
1	84
1	21
1	5
1	84
1	5
1	84
1	84
1	12
1	21
1	84
1	84
1	84
1	84
1	84
1	84
1	84
1	5
1	84
1	6
1	84
1	84
1	84
1	12
1	5
1	21
1	21
1	84
1	inf
1	12
1	84
1	84
1	21
1	5
1	84
1	84
1	84
1	4
1	84
1	84
1	84
1	3
1	84
1	84
1	84
1	4
1	84
1	84
1	84
1	21
1	84
1	4
1	4
1	84
1	84
1	84
1	84
1	3
1	84
1	84
1	84
1	84
1	8
1	8
1	84
1	84
1	4
1	21
1	84
1	5
1	84
1	84
1	84
1	21
1	4
1	4
2	8
2	3
2	84
2	3
2	12
2	8
2	84
2	3
2	3
2	3
2	8
2	21
2	5
3	4
3	4
3	5
3	4


