# Persistence diagram </home/jens/Uni/data_topology/Project/reddit_results/graphs/16661.gml>
#
# Dimension   : 0
# Entries     : 21
# Betti number: 2
1	inf
1	12
1	12
1	12
1	inf
1	12
1	12
1	12
1	6
1	12
1	3
1	4
1	6
1	4
1	12
1	2
1	6
1	12
2	6
2	3
2	3


