# Persistence diagram </home/jens/Uni/data_topology/Project/reddit_results/graphs/16811.gml>
#
# Dimension   : 0
# Entries     : 52
# Betti number: 2
1	inf
1	29
1	7
1	29
1	29
1	6
1	29
1	29
1	29
1	6
1	inf
1	7
1	7
1	6
1	6
1	29
1	3
1	4
1	6
1	29
1	7
1	29
1	29
1	6
1	29
1	29
1	4
1	29
1	6
1	7
1	29
1	4
1	7
1	29
1	29
1	29
1	29
1	29
1	6
1	6
1	29
1	6
1	7
1	29
1	7
1	29
1	6
1	2
1	29
2	4
2	6
2	5


