# Persistence diagram </home/jens/Uni/data_topology/Project/reddit_results/graphs/16911.gml>
#
# Dimension   : 0
# Entries     : 24
# Betti number: 2
1	inf
1	5
1	14
1	14
1	inf
1	14
1	5
1	14
1	5
1	14
1	7
1	7
1	14
1	7
1	14
1	14
1	14
1	3
1	2
1	7
2	3
2	7
2	3
2	14


