# Persistence diagram </home/jens/Uni/data_topology/Project/reddit_results/graphs/16951.gml>
#
# Dimension   : 0
# Entries     : 67
# Betti number: 3
1	inf
1	inf
1	36
1	10
1	9
1	36
1	36
1	36
1	5
1	10
1	9
1	4
1	36
1	36
1	36
1	36
1	4
1	36
1	9
1	36
1	36
1	4
1	36
1	5
1	36
1	inf
1	4
1	10
1	36
1	36
1	36
1	36
1	36
1	5
1	10
1	36
1	10
1	36
1	4
1	5
1	4
1	4
1	9
1	10
1	5
1	36
1	3
1	5
1	9
1	36
1	36
1	9
1	4
1	4
2	4
2	4
2	3
2	10
2	3
2	4
2	3
2	3
2	4
2	3
2	3
2	3
3	4


