# Persistence diagram </home/jens/Uni/data_topology/Project/reddit_results/graphs/16961.gml>
#
# Dimension   : 0
# Entries     : 10
# Betti number: 1
1	inf
1	10
1	10
1	10
1	10
1	10
1	10
1	10
1	10
1	10
