# Persistence diagram </home/jens/Uni/data_topology/Project/reddit_results/graphs/17001.gml>
#
# Dimension   : 0
# Entries     : 28
# Betti number: 1
1	inf
1	26
1	26
1	7
1	26
1	26
1	26
1	7
1	26
1	26
1	26
1	26
1	26
1	26
1	26
1	26
1	7
1	26
1	7
1	26
1	26
1	26
1	26
1	26
1	26
1	26
2	7
2	26


