# Persistence diagram </home/jens/Uni/data_topology/Project/reddit_results/graphs/17321.gml>
#
# Dimension   : 1
# Entries     : 17
# Betti number: 17
5	inf
7	inf
10	inf
10	inf
10	inf
10	inf
28	inf
28	inf
28	inf
28	inf
28	inf
28	inf
28	inf
28	inf
28	inf
28	inf
28	inf
