# Persistence diagram </home/jens/Uni/data_topology/Project/reddit_results/graphs/17321.gml>
#
# Dimension   : 0
# Entries     : 40
# Betti number: 1
1	inf
1	10
1	4
1	28
1	28
1	10
1	28
1	28
1	28
1	10
1	28
1	3
1	10
1	10
1	10
1	4
1	4
1	28
1	28
1	4
1	28
1	28
1	28
1	28
1	3
1	10
1	28
1	28
1	28
1	28
1	10
1	5
1	7
1	10
2	4
2	7
2	10
2	10
2	10
3	7


