# Persistence diagram </home/jens/Uni/data_topology/Project/reddit_results/graphs/17371.gml>
#
# Dimension   : 1
# Entries     : 26
# Betti number: 26
4	inf
5	inf
5	inf
6	inf
6	inf
6	inf
7	inf
7	inf
7	inf
7	inf
7	inf
9	inf
9	inf
9	inf
25	inf
25	inf
25	inf
25	inf
25	inf
25	inf
25	inf
25	inf
25	inf
25	inf
25	inf
25	inf
