# Persistence diagram </home/jens/Uni/data_topology/Project/reddit_results/graphs/17391.gml>
#
# Dimension   : 0
# Entries     : 18
# Betti number: 2
1	inf
1	11
1	11
1	11
1	11
1	11
1	inf
1	11
1	5
1	11
1	11
1	5
1	3
1	11
1	11
1	5
1	3
2	3
