# Persistence diagram </home/jens/Uni/data_topology/Project/reddit_results/graphs/17461.gml>
#
# Dimension   : 0
# Entries     : 21
# Betti number: 1
1	inf
1	18
1	18
1	18
1	18
1	18
1	18
1	18
1	18
1	18
1	18
1	18
1	18
1	3
1	18
1	18
1	3
1	18
1	18
2	3
2	3


