# Persistence diagram </home/jens/Uni/data_topology/Project/reddit_results/graphs/17541.gml>
#
# Dimension   : 0
# Entries     : 18
# Betti number: 1
1	inf
1	14
1	14
1	4
1	14
1	14
1	5
1	14
1	4
1	14
1	14
1	5
1	14
1	14
1	5
1	14
1	14
2	4


