# Persistence diagram </home/jens/Uni/data_topology/Project/reddit_results/graphs/17641.gml>
#
# Dimension   : 0
# Entries     : 52
# Betti number: 1
1	inf
1	7
1	7
1	38
1	38
1	38
1	38
1	38
1	6
1	38
1	7
1	38
1	6
1	38
1	38
1	38
1	38
1	38
1	5
1	7
1	6
1	38
1	38
1	38
1	6
1	38
1	5
1	5
1	8
1	38
1	3
1	38
1	7
1	38
1	38
1	8
1	4
1	7
1	38
1	7
1	4
1	38
1	3
2	6
2	7
2	3
2	5
2	4
2	6
2	5
2	5
3	5


