# Persistence diagram </home/jens/Uni/data_topology/Project/reddit_results/graphs/17691.gml>
#
# Dimension   : 0
# Entries     : 30
# Betti number: 1
1	inf
1	25
1	25
1	25
1	25
1	25
1	25
1	25
1	25
1	25
1	25
1	3
1	3
1	25
1	25
1	25
1	25
1	25
1	25
1	25
1	3
1	25
1	25
1	25
1	25
1	25
1	25
1	25
1	3
2	3
