# Persistence diagram </home/jens/Uni/data_topology/Project/reddit_results/graphs/17751.gml>
#
# Dimension   : 0
# Entries     : 40
# Betti number: 1
1	inf
1	39
1	39
1	39
1	39
1	39
1	39
1	39
1	39
1	39
1	3
1	39
1	39
1	39
1	39
1	39
1	39
1	39
1	39
1	39
1	39
1	39
1	39
1	39
1	39
1	39
1	39
1	3
1	39
1	39
1	39
1	39
1	39
1	39
1	39
1	39
1	39
1	39
1	39
2	39


