# Persistence diagram </home/jens/Uni/data_topology/Project/reddit_results/graphs/17761.gml>
#
# Dimension   : 0
# Entries     : 57
# Betti number: 2
1	inf
1	30
1	30
1	inf
1	30
1	30
1	5
1	15
1	15
1	5
1	5
1	15
1	30
1	3
1	30
1	30
1	30
1	4
1	4
1	15
1	3
1	15
1	5
1	30
1	30
1	30
1	15
1	30
1	30
1	15
1	30
1	4
1	30
1	30
1	4
1	30
1	5
1	15
1	30
1	4
1	15
1	4
1	30
1	15
1	30
1	15
1	30
1	4
1	30
2	3
2	4
2	3
2	3
2	5
2	3
2	3
2	5


