# Persistence diagram </home/jens/Uni/data_topology/Project/reddit_results/graphs/17791.gml>
#
# Dimension   : 0
# Entries     : 19
# Betti number: 1
1	inf
1	14
1	14
1	14
1	14
1	3
1	14
1	14
1	4
1	14
1	14
1	14
1	14
1	14
1	14
1	14
1	4
2	3
2	3


