# Persistence diagram </home/jens/Uni/data_topology/Project/reddit_results/graphs/17851.gml>
#
# Dimension   : 0
# Entries     : 39
# Betti number: 1
1	inf
1	29
1	29
1	29
1	29
1	29
1	29
1	5
1	29
1	4
1	29
1	29
1	29
1	5
1	29
1	29
1	29
1	29
1	5
1	29
1	29
1	29
1	29
1	29
1	29
1	29
1	29
1	29
1	5
1	4
1	29
1	29
1	5
1	29
1	4
1	4
1	5
1	29
2	3


