# Persistence diagram </home/jens/Uni/data_topology/Project/reddit_results/graphs/17891.gml>
#
# Dimension   : 0
# Entries     : 81
# Betti number: 7
1	inf
1	inf
1	18
1	32
1	32
1	32
1	6
1	7
1	32
1	inf
1	32
1	32
1	6
1	inf
1	32
1	inf
1	5
1	18
1	18
1	3
1	32
1	6
1	32
1	32
1	32
1	2
1	32
1	32
1	inf
1	4
1	inf
1	6
1	32
1	18
1	8
1	6
1	5
1	6
1	6
1	8
1	4
1	2
1	4
1	4
1	3
1	5
1	18
1	18
1	4
1	8
1	8
1	4
1	4
1	32
1	18
1	18
1	18
1	32
1	7
1	32
1	5
1	2
1	8
1	32
2	3
2	5
2	18
2	32
2	3
2	3
2	6
2	3
2	4
2	6
2	4
2	4
2	6
2	6
2	3
3	6
3	4


