# Persistence diagram </home/jens/Uni/data_topology/Project/reddit_results/graphs/18071.gml>
#
# Dimension   : 1
# Entries     : 20
# Betti number: 20
5	inf
6	inf
6	inf
6	inf
9	inf
9	inf
42	inf
42	inf
42	inf
42	inf
42	inf
42	inf
42	inf
42	inf
42	inf
42	inf
42	inf
42	inf
42	inf
42	inf
