# Persistence diagram </home/jens/Uni/data_topology/Project/reddit_results/graphs/18161.gml>
#
# Dimension   : 0
# Entries     : 53
# Betti number: 2
1	inf
1	35
1	5
1	35
1	35
1	35
1	8
1	35
1	35
1	6
1	8
1	35
1	8
1	35
1	3
1	35
1	5
1	35
1	5
1	5
1	35
1	35
1	35
1	inf
1	6
1	35
1	3
1	35
1	8
1	35
1	5
1	35
1	35
1	6
1	35
1	8
1	35
1	8
1	35
1	35
1	35
1	4
1	35
1	35
1	35
1	4
2	35
2	3
2	3
2	5
2	4
2	4
2	3


