# Persistence diagram </home/jens/Uni/data_topology/Project/reddit_results/graphs/18241.gml>
#
# Dimension   : 0
# Entries     : 32
# Betti number: 5
1	inf
1	inf
1	inf
1	20
1	20
1	inf
1	20
1	3
1	20
1	20
1	4
1	20
1	20
1	20
1	20
1	inf
1	20
1	20
1	2
1	20
1	3
1	20
1	3
1	20
1	20
1	20
1	20
1	3
1	20
1	20
1	4
1	3
