# Persistence diagram </home/jens/Uni/data_topology/Project/reddit_results/graphs/18281.gml>
#
# Dimension   : 0
# Entries     : 51
# Betti number: 3
1	inf
1	27
1	27
1	27
1	5
1	11
1	inf
1	27
1	27
1	5
1	11
1	11
1	27
1	4
1	11
1	27
1	27
1	11
1	inf
1	4
1	3
1	3
1	27
1	27
1	27
1	27
1	5
1	11
1	4
1	4
1	5
1	27
1	27
1	27
1	27
1	11
1	11
1	27
1	27
1	27
1	4
1	3
1	4
1	27
1	11
1	27
1	27
2	4
2	3
2	3
2	3


