# Persistence diagram </home/jens/Uni/data_topology/Project/reddit_results/graphs/18331.gml>
#
# Dimension   : 0
# Entries     : 28
# Betti number: 1
1	inf
1	17
1	17
1	17
1	7
1	4
1	3
1	7
1	17
1	7
1	5
1	17
1	17
1	17
1	17
1	3
1	4
1	7
1	17
1	17
1	17
1	5
1	4
1	17
1	17
1	7
1	3
2	5


