# Persistence diagram </home/jens/Uni/data_topology/Project/reddit_results/graphs/18351.gml>
#
# Dimension   : 1
# Entries     : 18
# Betti number: 18
16	inf
21	inf
21	inf
21	inf
89	inf
89	inf
89	inf
89	inf
89	inf
89	inf
89	inf
89	inf
89	inf
89	inf
89	inf
89	inf
89	inf
89	inf
