# Persistence diagram </home/jens/Uni/data_topology/Project/reddit_results/graphs/18381.gml>
#
# Dimension   : 0
# Entries     : 115
# Betti number: 3
1	inf
1	63
1	12
1	9
1	63
1	21
1	6
1	63
1	12
1	63
1	8
1	16
1	6
1	63
1	63
1	63
1	63
1	16
1	63
1	9
1	inf
1	63
1	63
1	16
1	12
1	63
1	21
1	inf
1	8
1	10
1	63
1	4
1	6
1	6
1	63
1	6
1	63
1	63
1	8
1	63
1	21
1	10
1	8
1	5
1	8
1	4
1	8
1	63
1	63
1	63
1	63
1	21
1	63
1	8
1	63
1	12
1	4
1	4
1	4
1	12
1	63
1	63
1	7
1	63
1	63
1	12
1	63
1	63
1	10
1	4
1	63
1	5
1	63
1	21
1	63
1	63
1	21
1	63
1	63
1	21
1	21
1	6
1	6
2	16
2	12
2	8
2	3
2	6
2	3
2	5
2	16
2	6
2	4
2	12
2	12
2	3
2	3
2	63
2	8
2	12
2	16
2	6
2	4
2	5
2	5
2	6
2	4
2	9
2	4
2	3
3	6
3	5
3	6
3	5
3	5


