# Persistence diagram </home/jens/Uni/data_topology/Project/reddit_results/graphs/18471.gml>
#
# Dimension   : 0
# Entries     : 52
# Betti number: 1
1	inf
1	23
1	26
1	26
1	23
1	7
1	23
1	26
1	7
1	23
1	23
1	7
1	26
1	23
1	26
1	23
1	26
1	26
1	26
1	26
1	23
1	23
1	26
1	23
1	23
1	5
1	23
1	23
1	26
1	26
1	26
1	26
1	26
1	26
1	26
1	23
1	26
1	26
1	23
1	23
1	3
1	26
1	23
1	23
1	23
1	26
1	7
1	26
1	26
2	7
2	3
2	5


