# Persistence diagram </home/jens/Uni/data_topology/Project/reddit_results/graphs/18601.gml>
#
# Dimension   : 0
# Entries     : 45
# Betti number: 4
1	inf
1	inf
1	inf
1	28
1	28
1	5
1	28
1	28
1	28
1	28
1	28
1	28
1	28
1	28
1	28
1	28
1	28
1	28
1	inf
1	28
1	28
1	2
1	4
1	28
1	28
1	28
1	3
1	4
1	5
1	5
1	28
1	3
1	5
1	5
1	28
1	28
1	5
1	3
1	28
1	28
2	3
2	3
2	3
2	4
2	3


