# Persistence diagram </home/jens/Uni/data_topology/Project/reddit_results/graphs/18631.gml>
#
# Dimension   : 1
# Entries     : 31
# Betti number: 31
7	inf
7	inf
8	inf
8	inf
8	inf
22	inf
22	inf
22	inf
22	inf
22	inf
22	inf
22	inf
22	inf
31	inf
31	inf
31	inf
31	inf
31	inf
31	inf
31	inf
31	inf
31	inf
31	inf
31	inf
31	inf
31	inf
31	inf
31	inf
31	inf
31	inf
31	inf
