# Persistence diagram </home/jens/Uni/data_topology/Project/reddit_results/graphs/18721.gml>
#
# Dimension   : 0
# Entries     : 30
# Betti number: 1
1	inf
1	28
1	28
1	28
1	28
1	28
1	28
1	28
1	4
1	28
1	28
1	4
1	28
1	28
1	28
1	28
1	28
1	28
1	28
1	28
1	28
1	28
1	28
1	28
1	28
1	28
1	28
1	28
1	28
2	3


