# Persistence diagram </home/jens/Uni/data_topology/Project/reddit_results/graphs/18881.gml>
#
# Dimension   : 0
# Entries     : 53
# Betti number: 2
1	inf
1	54
1	54
1	54
1	54
1	54
1	54
1	54
1	54
1	54
1	54
1	54
1	54
1	54
1	54
1	54
1	54
1	54
1	54
1	54
1	inf
1	54
1	54
1	6
1	54
1	54
1	54
1	54
1	7
1	54
1	54
1	54
1	54
1	54
1	54
1	54
1	54
1	54
1	54
1	54
1	54
1	54
1	6
1	54
1	54
2	7
2	54
2	54
2	54
2	7
2	3
2	7
2	6


