# Persistence diagram </home/jens/Uni/data_topology/Project/reddit_results/graphs/18921.gml>
#
# Dimension   : 1
# Entries     : 8
# Betti number: 8
3	inf
5	inf
36	inf
36	inf
36	inf
36	inf
36	inf
36	inf
