# Persistence diagram </home/jens/Uni/data_topology/Project/reddit_results/graphs/18921.gml>
#
# Dimension   : 0
# Entries     : 43
# Betti number: 3
1	inf
1	36
1	36
1	36
1	36
1	36
1	36
1	36
1	36
1	5
1	36
1	inf
1	3
1	36
1	36
1	36
1	36
1	36
1	inf
1	3
1	5
1	36
1	36
1	36
1	3
1	36
1	36
1	36
1	5
1	36
1	36
1	36
1	36
1	36
1	36
1	36
2	36
2	5
2	36
2	4
2	5
2	3
2	3


