# Persistence diagram </home/jens/Uni/data_topology/Project/reddit_results/graphs/19011.gml>
#
# Dimension   : 0
# Entries     : 52
# Betti number: 1
1	inf
1	46
1	46
1	3
1	46
1	46
1	46
1	46
1	46
1	46
1	46
1	46
1	46
1	46
1	46
1	46
1	46
1	46
1	5
1	46
1	5
1	46
1	46
1	46
1	5
1	5
1	46
1	46
1	46
1	46
1	46
1	46
1	46
1	46
1	46
1	46
1	46
1	46
1	46
1	46
1	46
1	5
1	5
1	46
1	46
1	46
1	46
1	46
1	46
1	46
2	3
2	46


