# Persistence diagram </home/jens/Uni/data_topology/Project/reddit_results/graphs/19071.gml>
#
# Dimension   : 0
# Entries     : 39
# Betti number: 2
1	inf
1	19
1	12
1	19
1	6
1	12
1	19
1	6
1	6
1	19
1	12
1	19
1	12
1	19
1	19
1	12
1	12
1	inf
1	12
1	5
1	19
1	19
1	6
1	6
1	5
1	5
1	19
1	19
1	19
1	4
1	3
1	12
1	19
1	6
2	4
2	6
2	4
2	6
3	6


