# Persistence diagram </home/jens/Uni/data_topology/Project/reddit_results/graphs/19221.gml>
#
# Dimension   : 1
# Entries     : 10
# Betti number: 10
5	inf
7	inf
50	inf
50	inf
50	inf
50	inf
50	inf
50	inf
50	inf
50	inf
