# Persistence diagram </home/jens/Uni/data_topology/Project/reddit_results/graphs/19241.gml>
#
# Dimension   : 0
# Entries     : 72
# Betti number: 1
1	inf
1	74
1	74
1	74
1	74
1	74
1	74
1	74
1	74
1	74
1	74
1	74
1	74
1	74
1	74
1	74
1	74
1	74
1	74
1	74
1	74
1	74
1	74
1	74
1	74
1	74
1	74
1	74
1	74
1	74
1	74
1	74
1	74
1	74
1	74
1	74
1	74
1	74
1	74
1	74
1	74
1	74
1	74
1	74
1	74
1	74
1	74
1	74
1	74
1	74
1	74
1	74
1	74
1	74
1	74
1	74
1	74
1	74
1	74
1	74
1	74
1	74
1	74
1	74
1	74
1	74
1	74
1	74
1	74
2	4
2	74
2	4


