# Persistence diagram </home/jens/Uni/data_topology/Project/reddit_results/graphs/19251.gml>
#
# Dimension   : 0
# Entries     : 54
# Betti number: 5
1	inf
1	21
1	inf
1	6
1	21
1	21
1	6
1	21
1	6
1	inf
1	3
1	6
1	21
1	21
1	3
1	21
1	6
1	3
1	6
1	6
1	3
1	3
1	3
1	21
1	inf
1	5
1	21
1	21
1	6
1	3
1	5
1	6
1	21
1	5
1	21
1	3
1	21
1	21
1	21
1	inf
1	21
1	2
1	21
1	6
1	6
1	3
1	21
1	4
2	4
2	3
2	3
2	3
2	4
2	4


