# Persistence diagram </home/jens/Uni/data_topology/Project/reddit_results/graphs/19301.gml>
#
# Dimension   : 0
# Entries     : 78
# Betti number: 3
1	inf
1	54
1	54
1	7
1	54
1	11
1	11
1	11
1	54
1	54
1	54
1	54
1	54
1	54
1	7
1	7
1	7
1	54
1	5
1	54
1	7
1	54
1	6
1	11
1	inf
1	11
1	54
1	54
1	54
1	7
1	54
1	11
1	54
1	54
1	7
1	54
1	54
1	5
1	5
1	54
1	54
1	54
1	54
1	54
1	54
1	11
1	7
1	6
1	54
1	54
1	inf
1	7
1	5
1	54
1	54
1	54
1	54
1	5
1	7
1	54
1	5
1	54
1	54
1	3
1	54
1	3
1	6
2	3
2	5
2	5
2	5
2	11
2	11
2	4
2	4
2	5
2	5
3	5


