# Persistence diagram </home/jens/Uni/data_topology/Project/reddit_results/graphs/19351.gml>
#
# Dimension   : 0
# Entries     : 52
# Betti number: 1
1	inf
1	44
1	44
1	44
1	44
1	44
1	44
1	44
1	44
1	44
1	44
1	44
1	44
1	44
1	44
1	44
1	8
1	44
1	44
1	44
1	3
1	8
1	44
1	44
1	44
1	44
1	44
1	44
1	4
1	44
1	44
1	8
1	44
1	44
1	44
1	44
1	44
1	44
1	44
1	8
1	44
1	44
1	44
1	44
1	44
1	44
1	8
2	8
2	4
2	3
2	3
2	3


