# Persistence diagram </home/jens/Uni/data_topology/Project/reddit_results/graphs/19381.gml>
#
# Dimension   : 0
# Entries     : 42
# Betti number: 1
1	inf
1	33
1	33
1	33
1	33
1	6
1	33
1	33
1	3
1	33
1	33
1	33
1	33
1	6
1	33
1	33
1	33
1	3
1	33
1	33
1	33
1	33
1	33
1	33
1	33
1	33
1	4
1	33
1	33
1	33
1	4
1	4
1	6
1	33
1	4
1	33
2	3
2	6
2	6
2	4
2	6
2	4


