# Persistence diagram </home/jens/Uni/data_topology/Project/reddit_results/graphs/19571.gml>
#
# Dimension   : 0
# Entries     : 26
# Betti number: 1
1	inf
1	13
1	13
1	13
1	13
1	6
1	6
1	6
1	13
1	3
1	13
1	5
1	6
1	13
1	13
1	7
1	7
1	7
1	13
1	7
1	13
1	5
1	7
2	5
2	4
3	4


