# Persistence diagram </home/jens/Uni/data_topology/Project/reddit_results/graphs/19621.gml>
#
# Dimension   : 1
# Entries     : 43
# Betti number: 43
3	inf
5	inf
5	inf
6	inf
6	inf
7	inf
7	inf
7	inf
7	inf
7	inf
7	inf
7	inf
7	inf
7	inf
7	inf
9	inf
9	inf
9	inf
9	inf
10	inf
10	inf
10	inf
10	inf
10	inf
10	inf
12	inf
12	inf
12	inf
12	inf
12	inf
30	inf
30	inf
30	inf
30	inf
30	inf
30	inf
30	inf
30	inf
30	inf
30	inf
30	inf
30	inf
30	inf
