0.0918256	0.0987934
0.0940699	0.0943097
0.0969449	0.098921
0.100797	0.115816
0.108395	0.109501
0.108437	0.170084
0.116331	0.132811
0.11763	0.135079
0.117811	0.147642
0.11906	0.15345
0.120508	0.127658
0.129615	0.134315
0.130764	0.166673
0.134502	0.151237
0.135807	0.16315
0.136721	0.216516
0.137567	0.170654
0.138327	0.156575
0.139234	0.176877
0.14284	0.241751
0.143651	0.150485
0.144326	0.181001
0.147985	0.174376
0.148	0.157488
0.148519	0.184765
0.149582	0.2469
0.15122	0.186082
0.151887	0.375749
0.153835	0.192357
0.155597	0.185243
0.155961	0.160649
0.156386	0.167288
0.157421	0.163136
0.15842	0.372474
0.159993	0.249542
0.162552	0.203527
0.162707	0.324456
0.164038	0.255303
0.164087	0.219964
0.165274	0.211464
0.166426	0.180869
0.166981	0.323489
0.167004	0.17263
0.167744	0.329106
0.168089	0.171472
0.169051	0.21945
0.169164	0.219088
0.172085	0.217442
0.173598	0.24643
0.175018	0.315499
0.175108	0.244102
0.175974	0.191874
0.177118	0.185688
0.180489	0.242619
0.181073	0.26726
0.186891	0.317355
0.1893	0.250204
0.189442	0.263968
0.194511	0.195303
0.195799	0.291171
0.196948	0.228897
0.197278	0.203594
0.197438	0.223012
0.198571	0.22832
0.199722	0.288561
0.200802	0.291955
0.201391	0.206979
0.203699	0.256493
0.203909	0.226698
0.206082	0.282087
0.21324	0.25248
0.220581	0.234431
0.228199	0.260855
0.231929	0.237278
0.239573	0.281365
0.241164	0.254252
0.249361	0.313208
0.283212	0.28357
0.29272	0.307701
0.324207	0.326621
