0.0757527	0.0795115
0.0821683	0.108193
0.101282	0.125647
0.121392	0.126488
0.128909	0.13967
0.132817	0.141254
0.139457	0.149171
0.139657	0.149286
0.14321	0.163973
0.144128	0.225862
0.147483	0.151047
0.149041	0.291549
0.149241	0.283968
0.150316	0.15845
0.152598	0.187312
0.153132	0.205958
0.156355	0.156667
0.158273	0.20705
0.163931	0.328802
0.165306	0.236085
0.16577	0.188236
0.167106	0.312222
0.168176	0.173992
0.169264	0.181252
0.169837	0.182376
0.170234	0.223592
0.170854	0.315462
0.172343	0.19088
0.173244	0.235703
0.173525	0.175682
0.173608	0.218131
0.174047	0.179779
0.174159	0.284864
0.177748	0.191475
0.177791	0.286053
0.178311	0.242948
0.180396	0.213204
0.180464	0.285173
0.181035	0.323259
0.183266	0.231799
0.184722	0.285412
0.185478	0.218108
0.185575	0.209983
0.18656	0.199944
0.187277	0.202924
0.189953	0.224033
0.191183	0.280124
0.19273	0.262851
0.195137	0.232303
0.19925	0.22501
0.199397	0.291538
0.200017	0.258967
0.201526	0.21031
0.203069	0.25172
0.203972	0.25901
0.210899	0.285392
0.212572	0.282261
0.212804	0.317748
0.221552	0.24049
0.222361	0.241579
0.222646	0.222864
0.22356	0.30063
0.227248	0.247051
0.228386	0.251621
0.230149	0.24805
0.230629	0.269831
0.235638	0.247588
0.239117	0.2563
0.239654	0.263601
0.248721	0.270884
0.258175	0.260493
0.265465	0.276084
0.286301	0.287429
0.307997	0.309398
