0.0851388	0.137015
0.0855414	0.0929455
0.0862084	0.0979362
0.0908889	0.0998911
0.104693	0.111007
0.107171	0.133738
0.110923	0.176447
0.110971	0.137166
0.114423	0.124758
0.115303	0.115803
0.119552	0.187125
0.119913	0.120173
0.126372	0.129911
0.126956	0.169639
0.13299	0.167985
0.135529	0.167711
0.136485	0.17295
0.138244	0.205896
0.138354	0.163934
0.138467	0.16431
0.138811	0.148239
0.138936	0.156009
0.141238	0.15523
0.144356	0.16561
0.144564	0.155735
0.146027	0.206324
0.149559	0.341712
0.151228	0.341009
0.152437	0.157782
0.155059	0.165279
0.156282	0.274283
0.157667	0.297941
0.157779	0.181773
0.159247	0.193619
0.159906	0.168904
0.160655	0.274762
0.163669	0.209993
0.163895	0.259683
0.164136	0.176918
0.165761	0.282381
0.166167	0.240171
0.166288	0.174224
0.166506	0.220969
0.166657	0.266362
0.168971	0.245989
0.169426	0.324609
0.174403	0.30826
0.174585	0.224081
0.176118	0.220192
0.176589	0.24452
0.177303	0.208549
0.178286	0.30976
0.178618	0.284253
0.178869	0.289659
0.179234	0.20955
0.180497	0.192378
0.180858	0.188571
0.182683	0.230191
0.184024	0.283063
0.18423	0.20636
0.184714	0.198836
0.185359	0.248345
0.186737	0.189629
0.195304	0.247392
0.196495	0.198557
0.196831	0.205253
0.202164	0.318216
0.202195	0.276092
0.209647	0.238602
0.210544	0.220397
0.214529	0.251712
0.215732	0.225226
0.218386	0.221641
0.218888	0.302585
0.219228	0.233216
0.220702	0.232717
0.223077	0.271652
0.225552	0.257179
0.22793	0.236634
0.235189	0.247426
0.236318	0.300794
0.240335	0.254055
0.265081	0.313672
0.283911	0.342832
