0.090785	0.0955306
0.101615	0.110677
0.109461	0.145806
0.111658	0.132039
0.117079	0.13018
0.118801	0.119743
0.118864	0.144209
0.12878	0.172455
0.133346	0.163221
0.133406	0.218395
0.133488	0.138943
0.138166	0.138683
0.139671	0.149826
0.140422	0.163552
0.141018	0.161063
0.141647	0.149131
0.144042	0.14623
0.144239	0.144247
0.147672	0.367638
0.148498	0.156658
0.14856	0.173521
0.148593	0.173742
0.149449	0.154234
0.150072	0.163326
0.150111	0.224866
0.15109	0.210902
0.152007	0.304066
0.152437	0.161506
0.152497	0.174429
0.154069	0.260424
0.15462	0.206564
0.15779	0.289244
0.158453	0.162206
0.160119	0.285235
0.161928	0.385096
0.162304	0.234676
0.162702	0.1747
0.162995	0.238793
0.163351	0.171765
0.166938	0.246437
0.168214	0.184111
0.170539	0.293482
0.171927	0.220205
0.17531	0.198076
0.179779	0.188456
0.179842	0.232032
0.179988	0.221004
0.180536	0.184306
0.181418	0.207651
0.182509	0.1998
0.186757	0.192999
0.18687	0.277498
0.187953	0.192287
0.191161	0.214158
0.191602	0.193768
0.194118	0.279853
0.194988	0.250706
0.195328	0.336467
0.196626	0.268028
0.198667	0.320049
0.198749	0.215503
0.201701	0.202917
0.202455	0.209595
0.205886	0.240548
0.207635	0.261337
0.211345	0.226686
0.212689	0.25184
0.213529	0.231601
0.215229	0.268014
0.215704	0.264432
0.218895	0.25376
0.219165	0.247428
0.22239	0.26341
0.22492	0.226432
0.226705	0.262194
0.226991	0.241967
0.234509	0.285363
0.236283	0.244489
0.240369	0.35405
0.242376	0.350827
0.243935	0.286442
0.245605	0.293294
