0.101498	0.107482
0.105397	0.111207
0.105497	0.109392
0.107578	0.120781
0.110939	0.148113
0.115324	0.179983
0.119026	0.1521
0.119205	0.165736
0.119439	0.119967
0.120089	0.138435
0.121167	0.214402
0.122645	0.124744
0.122768	0.131043
0.125109	0.138658
0.128883	0.152332
0.130505	0.152076
0.131334	0.262867
0.132314	0.136855
0.134455	0.161258
0.137155	0.155007
0.138421	0.138917
0.138962	0.150066
0.140822	0.145352
0.142004	0.233906
0.142049	0.206772
0.142346	0.156802
0.142519	0.266461
0.143599	0.170371
0.143665	0.219477
0.1478	0.27094
0.15	0.286115
0.15014	0.168941
0.153544	0.154608
0.154857	0.19792
0.161438	0.306452
0.162225	0.166762
0.163126	0.254011
0.163615	0.201625
0.165676	0.285029
0.165868	0.181558
0.166342	0.204866
0.16882	0.175251
0.169204	0.182629
0.171583	0.297569
0.171693	0.243913
0.173145	0.337026
0.173235	0.188693
0.173366	0.217798
0.174746	0.248337
0.17488	0.196749
0.178645	0.181902
0.179196	0.268858
0.179479	0.239386
0.181084	0.326285
0.181279	0.195696
0.1833	0.210844
0.184219	0.31186
0.185741	0.200313
0.185896	0.192541
0.187749	0.226654
0.190668	0.198901
0.19365	0.221147
0.195706	0.247743
0.196207	0.224396
0.199523	0.28166
0.20566	0.223989
0.207756	0.222882
0.20827	0.218846
0.208701	0.236159
0.211821	0.252453
0.212194	0.326171
0.216328	0.227919
0.218229	0.222403
0.218653	0.323642
0.221468	0.280769
0.223143	0.246171
0.225474	0.227253
0.228763	0.295857
0.231963	0.235748
0.250559	0.259387
0.26449	0.285682
0.280173	0.280919
