0.296033	0.471881
0.313168	0.358162
0.318629	0.319908
0.357985	0.416333
0.375472	0.527101
0.394061	0.501711
0.396616	0.476327
0.402584	0.404713
0.416713	0.475717
0.435511	0.487897
0.470066	0.499973
0.472746	0.517669
