0.203239	0.257943
0.237774	0.253315
0.278635	0.384017
0.301479	0.407789
0.366312	0.472407
0.370636	0.51191
0.379569	0.457986
0.381021	0.499839
0.391204	0.482572
0.396021	0.48629
0.4182	0.460849
0.421026	0.493343
0.423823	0.478374
0.425501	0.446376
0.433202	0.466742
0.442034	0.456754
0.475569	0.490976
