0.208947	0.209615
0.25331	0.258211
0.274229	0.28804
0.298724	0.347826
0.319277	0.461162
0.326434	0.459612
0.329519	0.463074
0.332949	0.439005
0.33893	0.373607
0.34505	0.37164
0.346649	0.399058
0.364608	0.518979
0.367438	0.394129
0.371091	0.473138
0.385466	0.498926
0.40907	0.428347
0.412878	0.446082
0.423522	0.430398
0.498669	0.503192
