0.27521	0.468383
0.275712	0.463736
0.283709	0.304679
0.285266	0.296484
0.291541	0.298692
0.32372	0.423016
0.338061	0.391705
0.34173	0.395846
0.357225	0.450126
0.358454	0.488531
0.361632	0.466602
0.365982	0.403353
0.369507	0.548301
0.372132	0.393952
0.37305	0.479183
0.425166	0.44576
0.546502	0.56748
