0.214053	0.244258
0.232683	0.285646
0.24824	0.269599
0.252199	0.279464
0.275389	0.331452
0.342306	0.38764
0.343258	0.3655
0.356653	0.449463
0.358236	0.478763
0.37685	0.406161
0.379482	0.452473
0.392977	0.456222
0.43682	0.593486
0.449181	0.558339
0.467552	0.496933
0.473663	0.494057
0.562222	0.580999
