0.281056	0.310877
0.300338	0.327677
0.317019	0.564458
0.320451	0.392342
0.321322	0.387761
0.325354	0.476578
0.337544	0.348001
0.339786	0.468031
0.341189	0.511962
0.356289	0.442658
0.362025	0.473788
0.401911	0.454061
0.40477	0.496543
0.421084	0.428106
0.433167	0.448081
0.441907	0.445028
0.476564	0.496543
