0.0610418	0.071953
0.0717812	0.0828238
0.0721044	0.0815387
0.0738141	0.0952496
0.074719	0.0760532
0.0788084	0.11925
0.0834613	0.0884547
0.0835611	0.0924922
0.0836122	0.0902661
0.0864653	0.123396
0.0896353	0.136677
0.0903557	0.138556
0.0920639	0.0971436
0.0976409	0.108266
0.0985663	0.138758
0.0997802	0.136129
0.101027	0.145287
0.101302	0.125425
0.101309	0.105117
0.103805	0.104359
0.104985	0.159512
0.105147	0.196482
0.10551	0.126161
0.109726	0.140232
0.110265	0.149684
0.111367	0.281602
0.112772	0.175534
0.114571	0.129486
0.115143	0.125218
0.115536	0.138572
0.115907	0.160126
0.116523	0.170044
0.117116	0.121638
0.117254	0.205023
0.117359	0.12385
0.117524	0.189825
0.118835	0.127843
0.118995	0.250648
0.120682	0.263812
0.120825	0.236884
0.120937	0.134805
0.121424	0.232507
0.121847	0.138229
0.121909	0.160221
0.122443	0.25454
0.122762	0.165251
0.123896	0.173702
0.124222	0.185812
0.124424	0.258742
0.124772	0.164332
0.125672	0.205626
0.126109	0.244929
0.12616	0.21743
0.12725	0.170294
0.127833	0.133392
0.128067	0.175259
0.128239	0.142394
0.129022	0.150203
0.12926	0.180962
0.129952	0.225776
0.131194	0.173635
0.131695	0.164701
0.131905	0.152779
0.13209	0.133987
0.133689	0.239098
0.134748	0.153151
0.135066	0.19665
0.135071	0.162988
0.135256	0.137399
0.135917	0.242817
0.136938	0.13743
0.136977	0.158191
0.137563	0.149363
0.137872	0.20058
0.138661	0.212059
0.13961	0.172746
0.139747	0.211385
0.140232	0.146646
0.140343	0.247594
0.141662	0.165334
0.142396	0.143242
0.143181	0.190714
0.144782	0.146374
0.14492	0.189519
0.146194	0.166594
0.146622	0.194236
0.148743	0.191435
0.151042	0.208407
0.152988	0.274889
0.153573	0.205058
0.153901	0.174755
0.155192	0.157444
0.157953	0.209344
0.158073	0.199781
0.158919	0.190713
0.15994	0.192521
0.160314	0.172131
0.162531	0.250589
0.164141	0.16901
0.166552	0.175216
0.167605	0.171232
0.167653	0.16921
0.167765	0.173818
0.168227	0.170343
0.168694	0.177154
0.16906	0.258124
0.169157	0.213331
0.170964	0.192648
0.172832	0.184325
0.175439	0.185137
0.180211	0.187513
0.180376	0.209667
0.180705	0.184021
0.184901	0.195465
0.185062	0.218049
0.18652	0.187436
0.196685	0.241247
0.198448	0.201809
0.199485	0.211948
0.208128	0.225454
0.211766	0.216756
0.229952	0.237937
0.268893	0.269066
