0.0582874	0.059536
0.0643114	0.0873481
0.077284	0.0779922
0.0787403	0.0807052
0.0820485	0.0892949
0.0833992	0.0945269
0.083592	0.140584
0.0858915	0.0944751
0.0875929	0.10527
0.0892422	0.132157
0.091296	0.115113
0.0935908	0.0984404
0.0937738	0.10603
0.0947301	0.120919
0.0948291	0.152002
0.0956325	0.114749
0.0958342	0.0975941
0.0971706	0.109382
0.099446	0.103486
0.100924	0.122859
0.102126	0.125407
0.102247	0.109914
0.102598	0.113087
0.103481	0.107118
0.103755	0.134411
0.104881	0.157901
0.105338	0.122567
0.10664	0.109132
0.107316	0.161316
0.108379	0.175741
0.108581	0.116801
0.109569	0.161779
0.112336	0.120544
0.112568	0.121039
0.112577	0.146416
0.112689	0.113095
0.112856	0.123162
0.112908	0.120901
0.113746	0.11515
0.113966	0.147804
0.114664	0.141827
0.114824	0.126993
0.115958	0.232345
0.116389	0.14327
0.118246	0.127203
0.11859	0.134076
0.118995	0.137817
0.119419	0.141968
0.120763	0.245587
0.121873	0.125416
0.122481	0.278901
0.123341	0.235069
0.123831	0.179639
0.125701	0.15958
0.125725	0.18068
0.125742	0.138813
0.126719	0.162414
0.127545	0.237932
0.128063	0.130789
0.12866	0.155078
0.129046	0.252437
0.129294	0.187859
0.129853	0.218661
0.130043	0.170239
0.130289	0.133771
0.130839	0.21813
0.131961	0.205984
0.132275	0.187513
0.132296	0.206676
0.132531	0.230823
0.133506	0.169629
0.133991	0.241894
0.134685	0.137553
0.135179	0.179502
0.135291	0.162247
0.135734	0.139191
0.136075	0.137965
0.136513	0.187946
0.136718	0.231759
0.137412	0.185842
0.138149	0.139348
0.138217	0.225552
0.138436	0.19182
0.138768	0.144018
0.139033	0.288933
0.140094	0.163575
0.140875	0.175863
0.142096	0.183653
0.142574	0.16753
0.144577	0.200575
0.146469	0.152332
0.147263	0.284496
0.148234	0.271619
0.150388	0.165027
0.151703	0.218442
0.152133	0.223407
0.152241	0.199611
0.152961	0.202651
0.153472	0.186468
0.154163	0.227972
0.154907	0.199836
0.156648	0.160432
0.159019	0.172346
0.159672	0.211223
0.160842	0.181517
0.167082	0.211586
0.169414	0.217874
0.170776	0.197369
0.172823	0.235851
0.173229	0.200621
0.173965	0.174892
0.174595	0.201846
0.175482	0.191923
0.180187	0.20685
0.18103	0.228802
0.181883	0.187748
0.183857	0.184493
0.184302	0.189403
0.186112	0.230593
0.189485	0.216952
0.18962	0.215461
0.193135	0.193491
0.193375	0.195001
0.196675	0.224056
0.199453	0.234543
0.201612	0.205578
0.207266	0.21806
0.213366	0.245237
0.224425	0.241267
