0.0535883	0.0592253
0.0654546	0.0696001
0.0762343	0.0971174
0.080644	0.0814788
0.081079	0.108185
0.0812731	0.104588
0.0824421	0.0839015
0.0855353	0.0981159
0.0874328	0.0906163
0.0879142	0.0943214
0.088598	0.108837
0.0894317	0.0937354
0.0901923	0.105895
0.0942286	0.0979859
0.0946251	0.104439
0.0952964	0.153481
0.0964546	0.107197
0.0968276	0.114943
0.0980262	0.109825
0.0984684	0.118239
0.0985584	0.104379
0.0993152	0.104273
0.100862	0.135999
0.103546	0.174042
0.104619	0.135299
0.104948	0.108167
0.106909	0.108742
0.107144	0.214891
0.107307	0.144713
0.108041	0.136071
0.109184	0.139042
0.109551	0.164209
0.109728	0.210888
0.111308	0.167199
0.111668	0.129472
0.113024	0.204696
0.113841	0.149501
0.114196	0.147215
0.114465	0.163106
0.116164	0.123568
0.117746	0.140973
0.119188	0.198833
0.119615	0.132761
0.120602	0.129716
0.121246	0.221796
0.122034	0.12625
0.123748	0.138896
0.123838	0.216018
0.123954	0.278051
0.12426	0.152719
0.124402	0.219615
0.125252	0.148039
0.125334	0.245723
0.125598	0.193958
0.125917	0.127978
0.126753	0.214817
0.127488	0.147649
0.127906	0.171077
0.128239	0.147121
0.129343	0.139714
0.129347	0.131749
0.129387	0.215445
0.130409	0.204142
0.131827	0.137859
0.131895	0.132837
0.132157	0.175727
0.132178	0.133966
0.132239	0.14222
0.132494	0.137781
0.132678	0.159208
0.133032	0.192817
0.133051	0.136193
0.13342	0.261436
0.133525	0.200069
0.13411	0.226926
0.135389	0.183265
0.135562	0.152504
0.13684	0.270714
0.137195	0.200095
0.137499	0.148295
0.138023	0.14273
0.138768	0.140911
0.139257	0.182821
0.139769	0.140685
0.14058	0.144273
0.141054	0.176462
0.141514	0.145849
0.142574	0.206411
0.142916	0.184347
0.144014	0.210209
0.144637	0.175616
0.146935	0.158093
0.148389	0.182936
0.149436	0.178976
0.149676	0.25938
0.150138	0.209342
0.150172	0.232489
0.151337	0.173665
0.151504	0.209703
0.152029	0.191033
0.154831	0.234772
0.154953	0.230585
0.155799	0.15856
0.157094	0.209717
0.158125	0.163514
0.159063	0.188585
0.159149	0.167534
0.159462	0.174525
0.160493	0.231959
0.161601	0.169675
0.162307	0.231782
0.16499	0.194254
0.165527	0.178002
0.166275	0.18648
0.166523	0.185677
0.168	0.185309
0.168353	0.221669
0.168834	0.199895
0.170505	0.216335
0.171692	0.174092
0.171809	0.206762
0.173297	0.183396
0.177509	0.223504
0.178336	0.186399
0.179034	0.193403
0.180037	0.200207
0.180597	0.199181
0.184221	0.196505
0.192912	0.204486
0.196478	0.266603
0.197409	0.210034
0.19777	0.217221
0.199395	0.233058
0.202417	0.213612
0.203188	0.237713
0.216388	0.247114
0.226504	0.230472
