0.056168	0.0565929
0.0664877	0.0912274
0.068253	0.0704413
0.069379	0.0853164
0.0694105	0.0707541
0.0718639	0.0728026
0.0748058	0.0939652
0.0810393	0.0944277
0.0815008	0.0859426
0.0824595	0.0845074
0.0867877	0.0875669
0.0903725	0.0940088
0.0921776	0.0959656
0.0935743	0.0955949
0.0939836	0.131777
0.0941552	0.101255
0.0954841	0.165241
0.098488	0.10591
0.100131	0.100983
0.100351	0.111629
0.102431	0.108001
0.104888	0.115058
0.106115	0.129155
0.106611	0.10707
0.107015	0.109765
0.107881	0.125852
0.108897	0.160983
0.10959	0.21708
0.110207	0.122752
0.110677	0.212156
0.112477	0.136141
0.112512	0.133269
0.112533	0.136498
0.113112	0.125754
0.114662	0.125759
0.114703	0.191959
0.114861	0.115356
0.115811	0.189903
0.116973	0.126672
0.117812	0.14257
0.118431	0.170753
0.118717	0.123362
0.118799	0.132685
0.119469	0.187799
0.120611	0.167008
0.121065	0.189733
0.121154	0.237309
0.122542	0.214059
0.122809	0.185818
0.123159	0.142566
0.123664	0.128778
0.126103	0.190253
0.126214	0.150645
0.127499	0.212241
0.127549	0.147399
0.128898	0.171576
0.129483	0.138975
0.129748	0.13019
0.130163	0.243007
0.130448	0.1601
0.131071	0.133402
0.132214	0.137068
0.132971	0.228201
0.133042	0.257626
0.13312	0.233556
0.133187	0.178699
0.133194	0.224577
0.133682	0.231848
0.133884	0.193761
0.134042	0.162702
0.134483	0.142421
0.134701	0.258014
0.136118	0.165635
0.137895	0.145151
0.138137	0.15017
0.138584	0.21213
0.138934	0.225044
0.139751	0.157502
0.139958	0.229455
0.140442	0.149556
0.140909	0.141458
0.14274	0.158012
0.142972	0.175427
0.143022	0.143842
0.143699	0.184321
0.143734	0.221368
0.143774	0.166129
0.143828	0.15821
0.144057	0.216251
0.144553	0.155037
0.145569	0.150261
0.146218	0.153583
0.146546	0.171406
0.147035	0.152262
0.149471	0.173621
0.14982	0.160386
0.150118	0.230466
0.150119	0.212243
0.150812	0.152219
0.150867	0.15883
0.151167	0.201939
0.151853	0.164058
0.153436	0.197588
0.153856	0.170487
0.154347	0.162484
0.154936	0.176853
0.155385	0.175561
0.155396	0.165508
0.156141	0.203845
0.156239	0.179878
0.15631	0.197937
0.156696	0.230994
0.157853	0.180165
0.158299	0.194669
0.159556	0.163403
0.160308	0.219368
0.161202	0.174171
0.16139	0.196508
0.162173	0.168779
0.163718	0.197236
0.164317	0.209492
0.164367	0.182424
0.165208	0.167675
0.168458	0.226117
0.168531	0.177498
0.16869	0.169902
0.169026	0.181986
0.169823	0.192805
0.170501	0.237676
0.173407	0.179591
0.173915	0.240825
0.174454	0.178905
0.174891	0.197444
0.175218	0.215023
0.177838	0.2332
0.178301	0.204116
0.181849	0.203987
0.182927	0.202706
0.184525	0.209402
0.189079	0.21763
0.192754	0.206302
0.193048	0.194869
0.194852	0.209837
0.207981	0.208554
0.209331	0.22781
0.211039	0.215649
0.213392	0.219174
0.228078	0.229143
