0.0680049	0.0796954
0.0736233	0.0839609
0.0737801	0.0743469
0.0769601	0.0775631
0.0787869	0.0937601
0.084306	0.124677
0.0873335	0.112404
0.0874646	0.0922523
0.0876742	0.118843
0.0915951	0.0957514
0.0933319	0.146188
0.0934257	0.10466
0.0934751	0.125456
0.0970812	0.105274
0.0994456	0.113671
0.0996114	0.145008
0.0996388	0.114838
0.100854	0.134853
0.102016	0.110375
0.10265	0.104792
0.103039	0.103315
0.103421	0.133368
0.103525	0.110779
0.103664	0.133539
0.104322	0.168128
0.105487	0.11413
0.106149	0.149377
0.106253	0.119705
0.106801	0.108257
0.107621	0.118089
0.108121	0.116179
0.109544	0.222873
0.112458	0.274496
0.112694	0.138623
0.11316	0.113852
0.113172	0.153637
0.113419	0.265056
0.113633	0.262602
0.114012	0.125258
0.114306	0.161077
0.114373	0.180251
0.114878	0.131965
0.115055	0.153986
0.115121	0.294614
0.11531	0.121045
0.115316	0.121076
0.116376	0.264386
0.11679	0.116997
0.117868	0.254088
0.118293	0.195658
0.118336	0.122585
0.119462	0.245301
0.120566	0.23791
0.121971	0.22514
0.122339	0.262921
0.122587	0.128276
0.123064	0.126272
0.123168	0.142381
0.124172	0.138804
0.125952	0.169934
0.125969	0.172896
0.126384	0.139639
0.127383	0.219909
0.127802	0.139095
0.127869	0.177508
0.127961	0.147061
0.128499	0.157234
0.128554	0.180313
0.129752	0.239333
0.129966	0.202792
0.130184	0.200143
0.130706	0.266171
0.130745	0.195282
0.130799	0.139973
0.131391	0.192012
0.132341	0.203333
0.133715	0.173003
0.134186	0.140637
0.135358	0.167913
0.138316	0.193442
0.138446	0.153487
0.139891	0.147868
0.139916	0.146236
0.140407	0.212741
0.14071	0.141869
0.14178	0.143168
0.142754	0.192446
0.142806	0.15256
0.143204	0.174915
0.143512	0.286921
0.144326	0.171304
0.144486	0.166283
0.146804	0.15383
0.147738	0.152732
0.14837	0.221145
0.149174	0.152574
0.149731	0.166806
0.150394	0.213437
0.150902	0.212517
0.152465	0.184279
0.153353	0.174225
0.153906	0.154926
0.154004	0.246863
0.154478	0.158387
0.156142	0.190008
0.157091	0.181642
0.157357	0.180709
0.158501	0.17273
0.158772	0.17502
0.158785	0.172515
0.159413	0.195584
0.161503	0.17481
0.164162	0.171964
0.164817	0.203842
0.168929	0.234058
0.174611	0.207295
0.176085	0.17902
0.176888	0.192204
0.177258	0.219169
0.177449	0.185469
0.178739	0.239396
0.184063	0.193845
0.188593	0.237821
0.188767	0.195268
0.199093	0.216968
0.199843	0.219236
0.205447	0.226336
0.213943	0.238104
0.226994	0.295478
