0.0466458	0.0475947
0.0589926	0.0783133
0.0706638	0.0739871
0.0721478	0.0811473
0.0748511	0.0881824
0.0784887	0.0889401
0.0840429	0.0934163
0.0864844	0.102411
0.0881158	0.124039
0.0885657	0.0949296
0.0885999	0.11831
0.089416	0.0952959
0.0897899	0.099314
0.0898582	0.0924001
0.0904973	0.0966563
0.0917945	0.0960797
0.0921193	0.110852
0.0923878	0.125719
0.0925416	0.114402
0.0952896	0.116723
0.0961203	0.111914
0.097892	0.112964
0.0983379	0.11174
0.098528	0.145586
0.100729	0.103321
0.10131	0.109226
0.101829	0.117272
0.103307	0.139977
0.103494	0.148391
0.104765	0.111471
0.104883	0.127253
0.105099	0.158833
0.105562	0.114545
0.105707	0.134822
0.107088	0.107382
0.1081	0.108526
0.108307	0.138777
0.108316	0.110092
0.108559	0.113672
0.109088	0.129459
0.109323	0.114342
0.110059	0.120903
0.110277	0.111317
0.110606	0.142649
0.111049	0.126931
0.111221	0.145388
0.111303	0.132953
0.111434	0.128733
0.1124	0.120204
0.112787	0.154934
0.113158	0.161224
0.114573	0.156935
0.114961	0.120861
0.115387	0.116691
0.118047	0.167666
0.118088	0.119427
0.119867	0.258207
0.120157	0.124547
0.120521	0.146813
0.120705	0.17471
0.121098	0.249701
0.122034	0.143227
0.122254	0.137319
0.122371	0.152386
0.122391	0.250033
0.122409	0.122756
0.123014	0.196502
0.123713	0.125867
0.124182	0.202655
0.12439	0.196571
0.124687	0.217327
0.124744	0.156676
0.126723	0.158157
0.127785	0.287118
0.128552	0.275229
0.128882	0.132499
0.128968	0.162109
0.129287	0.226991
0.130064	0.238464
0.130171	0.219669
0.130469	0.133559
0.130973	0.288727
0.131329	0.139439
0.131392	0.143636
0.132441	0.173921
0.132586	0.197775
0.133212	0.151431
0.133318	0.153071
0.133361	0.143603
0.133377	0.156172
0.133629	0.145503
0.134153	0.16497
0.134955	0.2252
0.135295	0.169785
0.136216	0.142327
0.136864	0.189723
0.137434	0.242501
0.137448	0.145092
0.137971	0.178444
0.138216	0.176694
0.139376	0.173421
0.140026	0.211194
0.140189	0.156548
0.140886	0.164416
0.141855	0.156624
0.142146	0.183287
0.143064	0.212192
0.143992	0.159074
0.144025	0.146094
0.1449	0.168411
0.144935	0.178102
0.145213	0.15859
0.145667	0.201538
0.146559	0.209564
0.147393	0.152015
0.147731	0.152103
0.147807	0.148152
0.148336	0.150967
0.150254	0.170707
0.150327	0.16844
0.151253	0.154875
0.152405	0.156544
0.152815	0.19625
0.153545	0.173122
0.153636	0.158026
0.15484	0.154867
0.155613	0.182327
0.156443	0.193623
0.156953	0.237924
0.159012	0.169588
0.161343	0.171934
0.1619	0.218929
0.163789	0.227202
0.1653	0.177774
0.165337	0.178718
0.16597	0.231345
0.168744	0.248675
0.170908	0.222979
0.172167	0.258695
0.174346	0.178607
0.178993	0.183679
0.179285	0.227865
0.179625	0.190471
0.179793	0.201556
0.182559	0.219291
0.193745	0.238568
0.197573	0.2004
0.200485	0.280632
0.201928	0.203166
0.205045	0.216242
0.223255	0.225529
0.235017	0.26862
0.26005	0.270999
