0.0644388	0.066097
0.0724961	0.0869232
0.0736398	0.0905144
0.0751174	0.0825142
0.0802343	0.0905641
0.080585	0.0969753
0.0837475	0.0966845
0.0849808	0.0886278
0.0867289	0.0933168
0.0868934	0.114762
0.0870939	0.0979318
0.0940277	0.104654
0.0958322	0.114347
0.0963042	0.124989
0.0973133	0.101873
0.0979184	0.0985994
0.0983962	0.162604
0.0993415	0.10322
0.102376	0.118033
0.10384	0.110603
0.106543	0.116018
0.106602	0.120479
0.106672	0.1075
0.107767	0.115523
0.108609	0.12599
0.11001	0.121999
0.110409	0.113201
0.111977	0.130709
0.112994	0.114682
0.113254	0.120288
0.11402	0.128449
0.114315	0.123323
0.114499	0.130414
0.114706	0.143344
0.115071	0.208505
0.115473	0.142544
0.116178	0.148829
0.117042	0.165311
0.11756	0.129555
0.118914	0.166546
0.11941	0.153669
0.119822	0.147082
0.121293	0.146151
0.123109	0.170593
0.123968	0.228389
0.124633	0.125478
0.124958	0.167231
0.125359	0.140928
0.12592	0.226029
0.126021	0.193355
0.126692	0.130644
0.126741	0.185895
0.127033	0.132172
0.127235	0.144196
0.127983	0.212856
0.128326	0.141968
0.128471	0.148548
0.128589	0.286691
0.12883	0.13323
0.12906	0.163018
0.129325	0.175899
0.129817	0.144936
0.130033	0.287988
0.130708	0.146011
0.131108	0.15282
0.131436	0.259101
0.131745	0.219715
0.132206	0.139483
0.132617	0.183378
0.13295	0.214409
0.132976	0.184028
0.133542	0.151296
0.13418	0.138111
0.135316	0.223269
0.135801	0.161988
0.13591	0.172807
0.135932	0.170229
0.135982	0.165226
0.136212	0.163712
0.138377	0.170525
0.139566	0.140209
0.142614	0.163781
0.142737	0.265718
0.143154	0.274471
0.143184	0.148261
0.143503	0.224567
0.145309	0.182661
0.145557	0.158734
0.147881	0.149407
0.147959	0.155324
0.148558	0.192981
0.149408	0.220565
0.149538	0.166524
0.150173	0.205006
0.151049	0.161238
0.151649	0.270944
0.152307	0.189914
0.152421	0.212985
0.155023	0.17797
0.157292	0.201849
0.158325	0.160767
0.158517	0.222945
0.158777	0.202275
0.158998	0.181576
0.159902	0.16199
0.15999	0.250118
0.160018	0.16224
0.161059	0.195521
0.161687	0.203975
0.16277	0.177712
0.164561	0.236094
0.164798	0.19215
0.164833	0.177288
0.166079	0.166478
0.167499	0.20127
0.168177	0.176975
0.169106	0.216088
0.169267	0.170604
0.170329	0.183578
0.171112	0.258238
0.171123	0.23412
0.171367	0.212951
0.174101	0.186624
0.174474	0.223369
0.174592	0.221882
0.182829	0.214215
0.183607	0.183644
0.186014	0.209915
0.18665	0.213492
0.188465	0.247534
0.191235	0.270904
0.191559	0.204723
0.198015	0.238056
0.199206	0.241226
0.211114	0.22524
0.214622	0.220124
0.227116	0.227378
