0.0605023	0.0636161
0.0631311	0.0705423
0.0734406	0.0846166
0.0783177	0.0796898
0.0833	0.0992414
0.0849777	0.111587
0.08573	0.0869525
0.086517	0.0919307
0.091906	0.102246
0.0926587	0.0978825
0.0933854	0.114367
0.0952978	0.098481
0.0953683	0.10004
0.0958929	0.11931
0.0959795	0.10014
0.0976595	0.1047
0.0983371	0.124844
0.100499	0.123936
0.101465	0.126968
0.101877	0.134274
0.102281	0.104308
0.102818	0.104961
0.103082	0.107935
0.103741	0.117714
0.103777	0.130487
0.103937	0.193212
0.105165	0.108277
0.105709	0.11773
0.106298	0.114088
0.10906	0.116295
0.109332	0.167735
0.109446	0.114801
0.109813	0.154289
0.110734	0.152694
0.110904	0.184377
0.111586	0.156261
0.112184	0.147379
0.113104	0.129825
0.114489	0.117332
0.114558	0.121685
0.114757	0.156412
0.11567	0.118691
0.115858	0.12945
0.116033	0.142089
0.117316	0.13571
0.117935	0.139138
0.118173	0.132047
0.118497	0.125036
0.118537	0.234094
0.118945	0.177814
0.118977	0.137149
0.119027	0.120114
0.119455	0.130037
0.119501	0.122803
0.12055	0.159204
0.123155	0.288916
0.123362	0.241764
0.123896	0.220821
0.124942	0.195968
0.125259	0.195193
0.125438	0.211787
0.125783	0.12611
0.127423	0.153923
0.128263	0.199372
0.130122	0.155167
0.130219	0.16505
0.130634	0.151944
0.131474	0.280531
0.131814	0.219026
0.132209	0.229043
0.132592	0.207991
0.132607	0.133048
0.132735	0.155022
0.134449	0.245557
0.134501	0.138868
0.135054	0.246861
0.135749	0.172495
0.135893	0.171673
0.136501	0.191923
0.137261	0.211337
0.13729	0.154212
0.137429	0.140635
0.138269	0.210962
0.139945	0.171663
0.140606	0.185281
0.141698	0.181036
0.143038	0.156068
0.143707	0.217726
0.144827	0.153045
0.145023	0.268711
0.146117	0.158802
0.146117	0.17487
0.146753	0.150579
0.147205	0.153252
0.147976	0.196887
0.148947	0.163689
0.14917	0.269291
0.150262	0.244055
0.151228	0.218226
0.15224	0.21171
0.152506	0.198517
0.152971	0.187557
0.153499	0.165434
0.154205	0.157828
0.154391	0.229596
0.155857	0.198245
0.156322	0.274567
0.156863	0.157712
0.156923	0.249092
0.157365	0.164499
0.15767	0.166003
0.157687	0.167052
0.158678	0.190892
0.159795	0.187205
0.161965	0.184283
0.162349	0.197274
0.163234	0.165853
0.164512	0.24265
0.167194	0.196522
0.167799	0.201852
0.169365	0.196172
0.17185	0.2238
0.172289	0.217533
0.174724	0.197099
0.177102	0.20072
0.177116	0.182059
0.177381	0.205392
0.177384	0.177466
0.177988	0.208818
0.1784	0.185392
0.181337	0.194444
0.181615	0.228698
0.193698	0.198314
0.193784	0.211043
0.194088	0.217771
0.194673	0.205193
0.195436	0.244993
0.196876	0.210688
0.19739	0.203387
0.212895	0.220317
0.218287	0.243999
0.228747	0.232117
0.26641	0.281133
