0.0586055	0.0654968
0.0588117	0.0660652
0.0592394	0.0609245
0.070331	0.0711245
0.0712559	0.0730828
0.0738801	0.0892703
0.0762857	0.0918602
0.0791607	0.0956579
0.0792611	0.0798645
0.0795623	0.0841927
0.0864036	0.0906861
0.0882	0.101843
0.0891408	0.0953669
0.0907849	0.120976
0.0918501	0.101822
0.092006	0.0981258
0.0933854	0.105072
0.0988866	0.098932
0.100885	0.180452
0.101937	0.115958
0.102091	0.116788
0.102471	0.104211
0.103205	0.148401
0.104308	0.109924
0.107339	0.107511
0.108299	0.122653
0.109866	0.143673
0.110416	0.12595
0.110818	0.119169
0.111296	0.119237
0.111736	0.176617
0.111768	0.162808
0.112685	0.123112
0.112891	0.168458
0.113638	0.11752
0.11365	0.163698
0.113828	0.220116
0.114057	0.11873
0.114144	0.120962
0.114549	0.139813
0.115184	0.122159
0.115445	0.117801
0.116127	0.122397
0.11647	0.147175
0.117046	0.129853
0.117165	0.119705
0.117412	0.137262
0.118354	0.157438
0.118601	0.226947
0.119515	0.124992
0.119717	0.15713
0.119867	0.271133
0.120284	0.133768
0.120599	0.136913
0.120645	0.166667
0.120967	0.14952
0.12129	0.15761
0.121858	0.129297
0.12191	0.15367
0.122036	0.132939
0.122758	0.17548
0.123096	0.140974
0.123498	0.143407
0.124082	0.162859
0.124356	0.295877
0.125063	0.132004
0.126141	0.182907
0.127171	0.1399
0.127254	0.130816
0.127272	0.139534
0.127356	0.164351
0.127485	0.130275
0.1279	0.177583
0.128094	0.184635
0.128187	0.135824
0.128778	0.245851
0.129794	0.147649
0.131159	0.1421
0.131378	0.143039
0.131978	0.23886
0.132283	0.156231
0.132462	0.230291
0.132493	0.177165
0.133072	0.142728
0.133265	0.184838
0.133851	0.148912
0.133856	0.140805
0.134277	0.134553
0.134329	0.182045
0.134856	0.161174
0.134987	0.276342
0.135345	0.198069
0.136669	0.157647
0.136905	0.150581
0.13736	0.208349
0.137534	0.139003
0.137628	0.163025
0.138954	0.243583
0.139011	0.155864
0.140875	0.19732
0.141227	0.14444
0.142682	0.246484
0.142685	0.26162
0.142694	0.287383
0.143777	0.226274
0.144535	0.195237
0.145803	0.18028
0.146624	0.147716
0.148248	0.162594
0.148948	0.15563
0.148972	0.155571
0.149554	0.157701
0.149768	0.192286
0.15135	0.220788
0.152255	0.198549
0.152888	0.17046
0.15361	0.195582
0.154907	0.222175
0.155249	0.202257
0.155374	0.175129
0.156872	0.191643
0.157588	0.227793
0.157713	0.182431
0.158582	0.205462
0.15883	0.227681
0.159495	0.160786
0.163811	0.189759
0.163859	0.217638
0.164138	0.169373
0.16429	0.165077
0.165656	0.180213
0.168906	0.196121
0.170082	0.243186
0.170185	0.171638
0.171344	0.183393
0.173706	0.224927
0.174051	0.269462
0.174508	0.180757
0.175256	0.217284
0.175993	0.186941
0.178794	0.257841
0.179205	0.288475
0.186106	0.193808
0.189716	0.210665
0.192182	0.220156
0.195248	0.199537
0.214214	0.22088
