0.0512515	0.0520862
0.0628913	0.0633051
0.0697456	0.0841876
0.0713897	0.0755032
0.0719514	0.0984586
0.0753816	0.0827671
0.0789111	0.0804899
0.0805191	0.0991134
0.0845664	0.112703
0.0889639	0.0942068
0.0907135	0.105195
0.0908149	0.106195
0.0915243	0.110395
0.10084	0.127913
0.1022	0.108686
0.102363	0.114607
0.102516	0.146065
0.103113	0.179763
0.10313	0.133848
0.103272	0.107654
0.103738	0.145524
0.105394	0.117408
0.105459	0.137416
0.107362	0.111266
0.107414	0.109832
0.108702	0.153787
0.109391	0.120663
0.110158	0.112559
0.110287	0.20944
0.112638	0.152334
0.112985	0.11458
0.114002	0.126987
0.114414	0.20206
0.114567	0.194549
0.114827	0.137132
0.115919	0.146154
0.116	0.157693
0.116072	0.181003
0.116777	0.118071
0.118788	0.13425
0.11924	0.283397
0.119545	0.149974
0.120388	0.163494
0.121667	0.140279
0.122016	0.132318
0.122167	0.126705
0.122183	0.194999
0.12245	0.169396
0.122816	0.197921
0.123536	0.202022
0.123804	0.18103
0.124621	0.156109
0.125354	0.181092
0.125741	0.196305
0.126038	0.127995
0.126156	0.167037
0.126579	0.227794
0.127	0.256348
0.127002	0.194068
0.127557	0.138639
0.127603	0.141808
0.127718	0.256441
0.12775	0.145471
0.128942	0.138273
0.129165	0.13268
0.129449	0.188391
0.129462	0.184709
0.129535	0.243877
0.12955	0.130181
0.130151	0.217093
0.130195	0.171703
0.130213	0.195954
0.13049	0.269321
0.130529	0.147279
0.130889	0.145793
0.131527	0.13607
0.131991	0.232955
0.132017	0.218688
0.132291	0.163286
0.134976	0.218947
0.13509	0.137706
0.135303	0.2002
0.137352	0.173591
0.137382	0.2162
0.137405	0.232362
0.139197	0.144488
0.1394	0.147397
0.139518	0.209818
0.139643	0.188193
0.140165	0.181825
0.14124	0.201826
0.141765	0.154858
0.141986	0.147824
0.14401	0.230111
0.145353	0.206721
0.146397	0.151164
0.147522	0.150248
0.148241	0.150603
0.149436	0.156868
0.150619	0.199287
0.153928	0.173483
0.154582	0.209203
0.154611	0.170725
0.154635	0.166597
0.156157	0.158796
0.156256	0.203759
0.157442	0.168251
0.157687	0.226964
0.157793	0.183426
0.157861	0.200689
0.158065	0.18976
0.158137	0.174142
0.158294	0.238822
0.158536	0.18678
0.159025	0.171397
0.159409	0.195319
0.160453	0.18319
0.161781	0.189507
0.163123	0.171373
0.163693	0.16395
0.163919	0.179857
0.165339	0.169274
0.165549	0.202293
0.166268	0.187287
0.166274	0.182949
0.166321	0.173468
0.166819	0.21288
0.166931	0.171261
0.167951	0.205932
0.168848	0.173356
0.169946	0.191363
0.171689	0.179418
0.173627	0.174995
0.174827	0.178825
0.176639	0.19539
0.17751	0.17765
0.181849	0.188517
0.183129	0.224889
0.183684	0.187531
0.186492	0.18713
0.190313	0.208568
0.1946	0.218402
0.196253	0.207562
0.202921	0.209697
0.208022	0.229007
0.215267	0.220964
0.216303	0.218773
0.222568	0.233058
