# Persistence diagram </home/jens/Uni/data_topology/Project/Graph_Data/Synthetic_Erdos-Reny/pdg_5.gml>
#
# Dimension   : 0
# Entries     : 20
# Betti number: 1
43	inf
44	56
48	58
50	56
51	56
53	58
53	56
53	60
53	56
54	57
54	58
54	58
54	57
55	58
55	58
55	57
56	59
56	58
57	58
57	60


