# Persistence diagram </home/jens/Uni/data_topology/Project/Graph_Data/Synthetic_Erdos-Reny/pdg_69.gml>
#
# Dimension   : 0
# Entries     : 21
# Betti number: 1
48	inf
50	56
51	56
52	55
52	57
52	54
53	54
53	56
54	59
54	57
54	57
54	55
55	57
55	58
55	58
55	57
55	58
56	57
57	58
57	58
60	61


