# Persistence diagram </home/jens/Uni/data_topology/Project/Graph_Data/Synthetic_Erdos-Reny/pdg_1.gml>
#
# Dimension   : 0
# Entries     : 24
# Betti number: 1
41	inf
44	57
47	55
48	54
49	54
50	55
50	55
50	59
51	57
51	55
52	57
52	57
52	54
52	54
52	56
52	56
54	56
54	57
55	57
55	56
55	56
55	56
56	57
56	57


