# Persistence diagram </home/jens/Uni/data_topology/Project/Graph_Data/Synthetic_Erdos-Reny/pdg_41.gml>
#
# Dimension   : 0
# Entries     : 26
# Betti number: 1
47	inf
47	57
48	59
49	56
49	56
49	56
50	56
51	56
51	56
51	54
51	55
52	56
52	56
53	56
53	57
53	55
53	54
54	56
55	56
55	59
55	56
55	59
56	57
56	57
56	58
57	58


