# Persistence diagram </home/jens/Uni/data_topology/Project/Graph_Data/Synthetic_Small_Gnp/sgnp_15.gml>
#
# Dimension   : 0
# Entries     : 25
# Betti number: 1
3	inf
3	7
3	6
3	7
3	10
3	8
3	7
4	7
4	8
4	7
4	6
4	7
4	6
4	9
4	7
5	7
5	7
5	6
6	7
6	7
6	8
6	7
6	8
6	7
6	7


