# Persistence diagram </home/jens/Uni/data_topology/Project/Graph_Data/Synthetic_Small_Gnp/sgnp_10.gml>
#
# Dimension   : 0
# Entries     : 26
# Betti number: 1
2	inf
2	9
2	8
3	8
3	7
3	7
3	10
4	6
4	5
4	7
4	6
4	5
4	5
4	6
4	9
4	6
5	7
5	7
5	6
5	8
5	8
5	8
6	7
6	7
7	8
7	8


