# Persistence diagram </home/jens/Uni/data_topology/Project/Graph_Data/Synthetic_Small_Gnp/sgnp_21.gml>
#
# Dimension   : 0
# Entries     : 22
# Betti number: 1
2	inf
3	7
3	7
3	7
3	7
4	6
4	6
4	7
4	7
4	6
4	6
4	7
4	6
4	6
5	6
5	7
5	6
5	6
5	6
6	7
6	8
6	7


