# Persistence diagram </home/jens/Uni/data_topology/Project/Graph_Data/Synthetic_Small_Gnp/sgnp_72.gml>
#
# Dimension   : 0
# Entries     : 23
# Betti number: 2
1.63042e-322	inf
1	6
2	8
2	6
3	6
3	6
3	6
3	6
3	7
3	6
4	6
4	5
4	6
4	6
4	6
4	6
4	6
4	9
4	6
5	7
5	6
6	7
7	inf


