# persistence landscape
# X Y
"layer 0:"
-inf 0
0.0717156 0
0.0791979 0.00748224
0.0833482 0.00333187
0.0842873 0.00427091
0.0849663 0.00359186
0.0864969 0.00512245
0.0902136 0.00140576
0.0918045 0.00299667
0.0946791 0.000122043
0.126497 0.0319398
0.134188 0.0242487
0.162693 0.0527535
0.175731 0.0397155
0.190963 0.054948
0.192143 0.053768
0.211245 0.0728704
0.215127 0.0689884
0.291088 0.144949
0.292335 0.143701
0.297027 0.148394
0.445421 0
inf 0


"layer 1:"
-inf 0
0.0782192 0
0.0803279 0.0021087
0.0812265 0.00121011
0.0833482 0.00333187
0.0840273 0.00265282
0.0849663 0.00359186
0.0883388 0.000219374
0.0890675 0.000948099
0.0894117 0.000603892
0.0902136 0.00140576
0.0916194 0
0.0945571 0
0.0946791 0.000122043
0.0948012 0
0.0962033 0
0.103378 0.00717466
0.10558 0.00497223
0.111402 0.0107935
0.116067 0.00612805
0.134188 0.0242487
0.1355 0.0229367
0.13738 0.0248165
0.140063 0.0221328
0.166029 0.0480983
0.175071 0.0390561
0.175731 0.0397155
0.17691 0.0385356
0.192143 0.053768
0.192273 0.0536381
0.193048 0.0544133
0.1968 0.0506612
0.215127 0.0689884
0.216375 0.0677411
0.292335 0.143701
0.436036 0
inf 0


"layer 2:"
-inf 0
0.0800164 0
0.0812265 0.00121011
0.0819055 0.000531052
0.0840273 0.00265282
0.0843643 0.00231585
0.0849306 0.00288223
0.0877946 1.82713e-05
0.0879648 0.000188516
0.0881364 1.69617e-05
0.0883388 0.000219374
0.0885582 0
0.0888078 0
0.0894117 0.000603892
0.0900156 0
0.100608 0
0.10558 0.00497223
0.105608 0.00494429
0.10604 0.00537557
0.110599 0.000816524
0.114801 0.00501859
0.114879 0.0049401
0.116067 0.00612805
0.117379 0.00481599
0.1355 0.0229367
0.135724 0.0227129
0.137013 0.0240019
0.139473 0.021542
0.140063 0.0221328
0.141083 0.0211135
0.151271 0.0313014
0.154827 0.0277449
0.161403 0.0343212
0.16587 0.0298548
0.175071 0.0390561
0.176251 0.0378762
0.17691 0.0385356
0.17704 0.0384056
0.192273 0.0536381
0.196025 0.049886
0.1968 0.0506612
0.198047 0.0494139
0.216375 0.0677411
0.218261 0.065855
0.223408 0.0710024
0.22629 0.0681204
0.238288 0.0801184
0.318406 0
inf 0


"layer 3:"
-inf 0
0.0813745 0
0.0819055 0.000531052
0.0822425 0.000194081
0.0843643 0.00231585
0.0866801 0
0.0877763 0
0.0877946 1.82713e-05
0.0878129 0
0.0881194 0
0.0881364 1.69617e-05
0.0881533 0
0.100664 0
0.105608 0.00494429
0.110167 0.00038524
0.110599 0.000816524
0.110641 0.000773845
0.111654 0.00178691
0.11169 0.0017511
0.114879 0.0049401
0.116191 0.00362803
0.117379 0.00481599
0.117603 0.00459223
0.135724 0.0227129
0.138184 0.020253
0.139473 0.021542
0.140492 0.0205227
0.141083 0.0211135
0.144639 0.0175569
0.154827 0.0277449
0.159294 0.0232785
0.16587 0.0298548
0.16705 0.0286749
0.176251 0.0378762
0.176381 0.0377462
0.17704 0.0384056
0.180793 0.0346535
0.196025 0.049886
0.197272 0.0486387
0.198047 0.0494139
0.199933 0.0475278
0.218261 0.065855
0.2197 0.0644157
0.221414 0.0661296
0.222856 0.064687
0.22629 0.0681204
0.233123 0.0612878
0.243436 0.071601
0.315037 0
inf 0


"layer 4:"
-inf 0
0.0820484 0
0.0822425 0.000194081
0.0824366 0
0.0830786 0
0.08345 0.000371346
0.0838213 0
0.101223 0
0.101698 0.000475092
0.102173 0
0.109782 0
0.110167 0.00038524
0.11021 0.000342561
0.110641 0.000773845
0.110677 0.000738035
0.11169 0.0017511
0.113002 0.000439035
0.116191 0.00362803
0.116415 0.00340427
0.117603 0.00459223
0.118843 0.0033524
0.124659 0.00916881
0.125879 0.00794875
0.138184 0.020253
0.139203 0.0192337
0.140492 0.0205227
0.144048 0.0169661
0.144639 0.0175569
0.147168 0.0150283
0.153885 0.021746
0.155823 0.0198082
0.159294 0.0232785
0.160147 0.0224253
0.162118 0.0243968
0.162445 0.0240701
0.16705 0.0286749
0.16718 0.0285449
0.176381 0.0377462
0.180133 0.0339941
0.180793 0.0346535
0.181496 0.03395
0.187957 0.0404105
0.1885 0.0398668
0.197272 0.0486387
0.199158 0.0467527
0.199933 0.0475278
0.201373 0.0460885
0.2197 0.0644157
0.221143 0.0629731
0.222856 0.064687
0.22396 0.0635833
0.22517 0.0647935
0.230899 0.0590645
0.233123 0.0612878
0.279672 0.0147386
0.279745 0.0148119
0.294557 0
inf 0


"layer 5:"
-inf 0
0.109868 0
0.11021 0.000342561
0.110246 0.000306752
0.110677 0.000738035
0.111401 1.462e-05
0.11158 0.000193546
0.111773 0
0.112563 0
0.113002 0.000439035
0.113226 0.000215277
0.116415 0.00340427
0.117655 0.00216445
0.118843 0.0033524
0.119982 0.00221295
0.120655 0.002886
0.120736 0.00280539
0.125879 0.00794875
0.126899 0.00692942
0.139203 0.0192337
0.141483 0.016954
0.141842 0.0173138
0.143119 0.0160369
0.144048 0.0169661
0.146577 0.0144375
0.147168 0.0150283
0.148563 0.0136332
0.152247 0.0173166
0.152789 0.0167741
0.155823 0.0198082
0.156676 0.018955
0.160147 0.0224253
0.160473 0.0220986
0.162445 0.0240701
0.162575 0.0239401
0.16718 0.0285449
0.169447 0.0262779
0.174565 0.0313959
0.17605 0.0299109
0.180133 0.0339941
0.180837 0.0332906
0.181496 0.03395
0.18204 0.0334063
0.1885 0.0398668
0.190386 0.0379808
0.199158 0.0467527
0.200598 0.0453133
0.201373 0.0460885
0.202815 0.0446459
0.221143 0.0629731
0.222246 0.0618694
0.22396 0.0635833
0.229689 0.0578544
0.230899 0.0590645
0.277449 0.0125153
0.279672 0.0147386
0.29441 0
inf 0


"layer 6:"
-inf 0
0.109939 0
0.110246 0.000306752
0.110553 0
0.111386 0
0.111401 1.462e-05
0.111415 0
0.113011 0
0.113226 0.000215277
0.113441 0
0.11549 0
0.117655 0.00216445
0.118794 0.001025
0.119982 0.00221295
0.120063 0.00213234
0.120736 0.00280539
0.121755 0.00178607
0.126899 0.00692942
0.127368 0.00646016
0.138069 0.0171608
0.139879 0.0153504
0.141483 0.016954
0.142759 0.0156771
0.143119 0.0160369
0.145648 0.0135083
0.146577 0.0144375
0.147972 0.0130423
0.148563 0.0136332
0.149106 0.0130906
0.152789 0.0167741
0.153642 0.0159209
0.156676 0.018955
0.157003 0.0186283
0.160473 0.0220986
0.160603 0.0219686
0.162575 0.0239401
0.164842 0.0216731
0.169447 0.0262779
0.170932 0.0247928
0.17605 0.0299109
0.176753 0.0292073
0.180837 0.0332906
0.18138 0.0327469
0.18204 0.0334063
0.182917 0.0325295
0.185297 0.0349096
0.186306 0.0339003
0.190386 0.0379808
0.191826 0.0365414
0.200598 0.0453133
0.20204 0.0438707
0.202815 0.0446459
0.203919 0.0435422
0.222246 0.0618694
0.227975 0.0561405
0.229689 0.0578544
0.276238 0.0113051
0.277449 0.0125153
0.289964 0
inf 0


"layer 7:"
-inf 0
0.117769 0
0.118794 0.001025
0.118875 0.000944388
0.120063 0.00213234
0.121082 0.00111302
0.121755 0.00178607
0.122225 0.0013168
0.127368 0.00646016
0.127991 0.00583741
0.132241 0.010088
0.132641 0.00968827
0.137163 0.0142105
0.137951 0.0134227
0.139879 0.0153504
0.141156 0.0140735
0.142759 0.0156771
0.145288 0.0131485
0.145648 0.0135083
0.147043 0.0121131
0.147972 0.0130423
0.148515 0.0124998
0.149106 0.0130906
0.149959 0.0122374
0.153642 0.0159209
0.153969 0.0155941
0.157003 0.0186283
0.157119 0.0185125
0.159304 0.0206972
0.159318 0.0206831
0.160603 0.0219686
0.16287 0.0197016
0.164842 0.0216731
0.166327 0.020188
0.170932 0.0247928
0.171635 0.0240893
0.176753 0.0292073
0.177297 0.0286636
0.18138 0.0327469
0.182257 0.0318701
0.182917 0.0325295
0.183926 0.0315202
0.186306 0.0339003
0.187745 0.032461
0.191826 0.0365414
0.193268 0.0350988
0.20204 0.0438707
0.203144 0.0427671
0.203919 0.0435422
0.206002 0.0414598
0.216092 0.0515499
0.219738 0.0479034
0.227975 0.0561405
0.274524 0.00959124
0.276238 0.0113051
0.287543 0
inf 0


"layer 8:"
-inf 0
0.117931 0
0.118875 0.000944388
0.119819 0
0.119969 0
0.121082 0.00111302
0.121551 0.000643757
0.122225 0.0013168
0.122568 0.000973258
0.123452 0.00185754
0.123559 0.00175077
0.127594 0.00578584
0.127767 0.00561341
0.127991 0.00583741
0.12839 0.00543764
0.132641 0.00968827
0.133429 0.00890039
0.137951 0.0134227
0.139228 0.0121458
0.141156 0.0140735
0.143684 0.011545
0.145288 0.0131485
0.146683 0.0117534
0.147043 0.0121131
0.147107 0.0120495
0.147622 0.0125651
0.148101 0.012086
0.148515 0.0124998
0.149368 0.0116466
0.149959 0.0122374
0.149969 0.0122268
0.151023 0.0132802
0.151221 0.0130825
0.152405 0.0142674
0.152524 0.014149
0.153969 0.0155941
0.154085 0.0154783
0.157119 0.0185125
0.157133 0.0184983
0.159318 0.0206831
0.161585 0.018416
0.16287 0.0197016
0.163695 0.0188768
0.16474 0.0199213
0.1654 0.0192611
0.166327 0.020188
0.167031 0.0194845
0.171635 0.0240893
0.172179 0.0235456
0.177297 0.0286636
0.178174 0.0277868
0.182257 0.0318701
0.183266 0.0308608
0.183926 0.0315202
0.185365 0.0300809
0.187745 0.032461
0.189188 0.0310184
0.193268 0.0350988
0.193325 0.0350426
0.1965 0.0382178
0.196696 0.0380211
0.201592 0.0429163
0.202442 0.0420655
0.203144 0.0427671
0.205226 0.0406846
0.206002 0.0414598
0.208684 0.0387774
0.213625 0.0437188
0.214589 0.0427547
0.219738 0.0479034
0.232142 0.0354996
0.235742 0.0390995
0.269887 0.00495412
0.274524 0.00959124
0.284116 0
inf 0


"layer 9:"
-inf 0
0.120908 0
0.121551 0.000643757
0.121895 0.00030021
0.122568 0.000973258
0.122675 0.000866484
0.123559 0.00175077
0.123732 0.00157834
0.127767 0.00561341
0.128166 0.00521364
0.12839 0.00543764
0.128566 0.00526198
0.131863 0.00855935
0.132476 0.00794712
0.133429 0.00890039
0.134706 0.0076235
0.139228 0.0121458
0.141198 0.010176
0.142102 0.0110796
0.14266 0.0105208
0.143684 0.011545
0.14508 0.0101498
0.146683 0.0117534
0.146747 0.0116898
0.147107 0.0120495
0.147586 0.0115705
0.148101 0.012086
0.148954 0.0112328
0.149368 0.0116466
0.149379 0.011636
0.149969 0.0122268
0.150167 0.0120291
0.151221 0.0130825
0.151339 0.012964
0.152524 0.014149
0.15264 0.0140332
0.154085 0.0154783
0.154099 0.0154642
0.157133 0.0184983
0.1594 0.0162313
0.161585 0.018416
0.16241 0.0175913
0.163695 0.0188768
0.164356 0.0182165
0.1654 0.0192611
0.166104 0.0185575
0.167031 0.0194845
0.167574 0.0189408
0.172179 0.0235456
0.173056 0.0226688
0.178174 0.0277868
0.179183 0.0267776
0.183266 0.0308608
0.184706 0.0294214
0.185365 0.0300809
0.186808 0.0286383
0.189188 0.0310184
0.189244 0.0309622
0.193325 0.0350426
0.193521 0.0348459
0.196696 0.0380211
0.197547 0.0371703
0.202442 0.0420655
0.204525 0.0399831
0.205226 0.0406846
0.207909 0.0380022
0.208684 0.0387774
0.209648 0.0378133
0.214589 0.0427547
0.226993 0.0303508
0.232142 0.0354996
0.235032 0.0326101
0.238033 0.0356114
0.269289 0.00435549
0.269887 0.00495412
0.274841 0
inf 0


"layer 10:"
-inf 0
0.121595 0
0.121895 0.00030021
0.122002 0.000193436
0.122675 0.000866484
0.122847 0.000694053
0.123732 0.00157834
0.124131 0.00117857
0.128166 0.00521364
0.128342 0.00503799
0.128566 0.00526198
0.129178 0.00464976
0.132476 0.00794712
0.133753 0.00667024
0.134706 0.0076235
0.1363 0.00602928
0.136671 0.00639979
0.137046 0.0060242
0.141198 0.010176
0.141757 0.00961718
0.14266 0.0105208
0.144056 0.00912564
0.14508 0.0101498
0.145143 0.0100862
0.146747 0.0116898
0.147226 0.0112108
0.147586 0.0115705
0.148439 0.0107173
0.148954 0.0112328
0.148965 0.0112222
0.149379 0.011636
0.149509 0.0115057
0.149518 0.0115148
0.149585 0.0114474
0.150167 0.0120291
0.150286 0.0119106
0.151339 0.012964
0.151455 0.0128482
0.15264 0.0140332
0.152654 0.014019
0.154099 0.0154642
0.156366 0.0131971
0.1594 0.0162313
0.160225 0.0154065
0.16241 0.0175913
0.16307 0.016931
0.164356 0.0182165
0.165059 0.017513
0.166104 0.0185575
0.166647 0.0180138
0.167574 0.0189408
0.168451 0.018064
0.173056 0.0226688
0.174065 0.0216595
0.179183 0.0267776
0.180623 0.0253382
0.184706 0.0294214
0.186148 0.0279789
0.186808 0.0286383
0.186864 0.0285821
0.189244 0.0309622
0.189441 0.0307655
0.193521 0.0348459
0.194372 0.0339951
0.197547 0.0371703
0.19963 0.0350879
0.204525 0.0399831
0.207207 0.0373007
0.207909 0.0380022
0.208873 0.0370381
0.209648 0.0378133
0.222052 0.0254094
0.226993 0.0303508
0.229883 0.0274613
0.235032 0.0326101
0.262648 0.00499341
0.265432 0.00777706
0.269071 0.00413785
0.269289 0.00435549
0.273644 0
inf 0


"layer 11:"
-inf 0
0.121808 0
0.122002 0.000193436
0.122174 2.10052e-05
0.122847 0.000694053
0.123247 0.000294282
0.124131 0.00117857
0.124307 0.00100291
0.128342 0.00503799
0.128954 0.00442576
0.129178 0.00464976
0.130455 0.00337287
0.133753 0.00667024
0.135347 0.00507601
0.1363 0.00602928
0.136676 0.00565369
0.137046 0.0060242
0.13737 0.00570005
0.138805 0.00713513
0.13904 0.0069005
0.141757 0.00961718
0.143152 0.00822199
0.144056 0.00912564
0.144119 0.00906207
0.145143 0.0100862
0.145622 0.00960718
0.147226 0.0112108
0.148079 0.0103576
0.148439 0.0107173
0.148449 0.0107067
0.148965 0.0112222
0.149095 0.0110919
0.149509 0.0115057
0.149576 0.0114383
0.149585 0.0114474
0.149704 0.011329
0.150286 0.0119106
0.150401 0.0117948
0.151455 0.0128482
0.151469 0.0128341
0.152654 0.014019
0.154921 0.011752
0.156366 0.0131971
0.157144 0.0124188
0.159315 0.0145894
0.159361 0.0145429
0.160225 0.0154065
0.160885 0.0147462
0.16307 0.016931
0.163774 0.0162274
0.165059 0.017513
0.165603 0.0169693
0.166647 0.0180138
0.167524 0.017137
0.168451 0.018064
0.16946 0.0170547
0.174065 0.0216595
0.175504 0.0202201
0.180623 0.0253382
0.182065 0.0238956
0.186148 0.0279789
0.186205 0.0279226
0.186864 0.0285821
0.187061 0.0283853
0.189441 0.0307655
0.190292 0.0299147
0.194372 0.0339951
0.194782 0.0335849
0.196626 0.0354283
0.198298 0.0337561
0.19963 0.0350879
0.199933 0.0347845
0.200798 0.0356499
0.201383 0.0350649
0.202575 0.0362563
0.204369 0.0344622
0.207207 0.0373007
0.208171 0.0363366
0.208873 0.0370381
0.214195 0.0317163
0.214571 0.032093
0.221653 0.0250109
0.222052 0.0254094
0.224941 0.0225199
0.229883 0.0274613
0.257344 0
0.257655 0
0.262648 0.00499341
0.266287 0.00135421
0.269071 0.00413785
0.273209 0
inf 0


"layer 12:"
-inf 0
0.122153 0
0.122174 2.10052e-05
0.122195 0
0.122953 0
0.123247 0.000294282
0.123423 0.000118629
0.124307 0.00100291
0.124919 0.000390687
0.128954 0.00442576
0.130231 0.00314887
0.130455 0.00337287
0.130674 0.00315382
0.131275 0.00375414
0.13265 0.00237897
0.135347 0.00507601
0.135722 0.00470042
0.136676 0.00565369
0.137 0.00532954
0.13737 0.00570005
0.137605 0.00546542
0.13904 0.0069005
0.140368 0.00557202
0.142083 0.00728617
0.142149 0.00721947
0.143152 0.00822199
0.143215 0.00815842
0.144119 0.00906207
0.144598 0.00858305
0.145622 0.00960718
0.146475 0.00875398
0.148079 0.0103576
0.14809 0.010347
0.148449 0.0107067
0.14858 0.0105764
0.149095 0.0110919
0.149163 0.0110245
0.149576 0.0114383
0.149695 0.0113198
0.149704 0.011329
0.14982 0.0112132
0.150401 0.0117948
0.150415 0.0117807
0.151469 0.0128341
0.153736 0.010567
0.154921 0.011752
0.155699 0.0109736
0.157144 0.0124188
0.157191 0.0123724
0.159361 0.0145429
0.160022 0.0138826
0.160885 0.0147462
0.161589 0.0140427
0.163774 0.0162274
0.164317 0.0156837
0.165603 0.0169693
0.16648 0.0160925
0.167524 0.017137
0.168533 0.0161277
0.16946 0.0170547
0.16956 0.016955
0.173771 0.0211656
0.17511 0.019826
0.175504 0.0202201
0.176947 0.0187776
0.182065 0.0238956
0.182121 0.0238394
0.186205 0.0279226
0.186401 0.0277259
0.187061 0.0283853
0.187911 0.0275346
0.190292 0.0299147
0.190702 0.0295045
0.194782 0.0335849
0.196454 0.0319127
0.198298 0.0337561
0.198601 0.0334527
0.199933 0.0347845
0.200518 0.0341995
0.201383 0.0350649
0.203177 0.0332709
0.204369 0.0344622
0.205333 0.0334981
0.208171 0.0363366
0.213493 0.0310148
0.214195 0.0317163
0.221277 0.0246342
0.221653 0.0250109
0.224543 0.0221215
0.224941 0.0225199
0.245242 0.00221982
0.246311 0.00328961
0.249601 0
0.264933 0
0.266287 0.00135421
0.267642 0
inf 0


"layer 13:"
-inf 0
0.123304 0
0.123423 0.000118629
0.123541 0
0.124529 0
0.124919 0.000390687
0.12531 0
0.125803 0
0.126145 0.000341965
0.126487 0
0.127082 0
0.130231 0.00314887
0.13045 0.00292982
0.130674 0.00315382
0.132049 0.00177864
0.13265 0.00237897
0.133025 0.00200338
0.135722 0.00470042
0.136047 0.00437627
0.137 0.00532954
0.137234 0.00509491
0.137605 0.00546542
0.138933 0.00413693
0.140368 0.00557202
0.140435 0.00550532
0.142149 0.00721947
0.142213 0.0071559
0.143215 0.00815842
0.143694 0.0076794
0.144598 0.00858305
0.145451 0.00772985
0.146475 0.00875398
0.146486 0.00874339
0.14809 0.010347
0.14822 0.0102167
0.14858 0.0105764
0.148647 0.010509
0.149163 0.0110245
0.149281 0.0109061
0.149695 0.0113198
0.149811 0.011204
0.14982 0.0112132
0.149834 0.011199
0.150415 0.0117807
0.152683 0.00951365
0.153736 0.010567
0.154514 0.00978871
0.155699 0.0109736
0.155746 0.0109272
0.157191 0.0123724
0.157851 0.0117121
0.160022 0.0138826
0.160725 0.0131791
0.161589 0.0140427
0.162132 0.013499
0.164317 0.0156837
0.165194 0.014807
0.16648 0.0160925
0.167489 0.0150832
0.168533 0.0161277
0.168633 0.016028
0.16956 0.016955
0.1709 0.0156154
0.17511 0.019826
0.176553 0.0183834
0.176947 0.0187776
0.177003 0.0187213
0.182121 0.0238394
0.182318 0.0236427
0.186401 0.0277259
0.187252 0.0268752
0.187911 0.0275346
0.188322 0.0271243
0.190702 0.0295045
0.192374 0.0278323
0.196454 0.0319127
0.196758 0.0316093
0.198601 0.0334527
0.199186 0.0328677
0.200518 0.0341995
0.202312 0.0324055
0.203177 0.0332709
0.204142 0.0323068
0.205333 0.0334981
0.210655 0.0281763
0.213493 0.0310148
0.220575 0.0239327
0.221277 0.0246342
0.224166 0.0217448
0.224543 0.0221215
0.244843 0.00182135
0.245242 0.00221982
0.247461 0
inf 0


"layer 14:"
-inf 0
0.12752 0
0.13045 0.00292982
0.131825 0.00155465
0.132049 0.00177864
0.132425 0.00140306
0.133025 0.00200338
0.133349 0.00167923
0.136047 0.00437627
0.136281 0.00414164
0.137234 0.00509491
0.138563 0.00376642
0.138933 0.00413693
0.139 0.00407024
0.140435 0.00550532
0.140499 0.00544174
0.142213 0.0071559
0.142692 0.00667688
0.143694 0.0076794
0.144548 0.0068262
0.145451 0.00772985
0.145462 0.00771926
0.146486 0.00874339
0.146616 0.00861309
0.14822 0.0102167
0.148287 0.0101493
0.148647 0.010509
0.148765 0.0103906
0.149281 0.0109061
0.149397 0.0107903
0.149811 0.011204
0.149825 0.0111899
0.149834 0.011199
0.152101 0.00893197
0.152683 0.00951365
0.153461 0.00873532
0.154514 0.00978871
0.154561 0.00974227
0.155746 0.0109272
0.156406 0.0102669
0.157851 0.0117121
0.158555 0.0110085
0.160725 0.0131791
0.161269 0.0126354
0.162132 0.013499
0.163009 0.0126222
0.165194 0.014807
0.166203 0.0137977
0.167489 0.0150832
0.167589 0.0149835
0.168633 0.016028
0.169973 0.0146884
0.1709 0.0156154
0.172342 0.0141728
0.176553 0.0183834
0.176609 0.0183272
0.177003 0.0187213
0.1772 0.0185246
0.182318 0.0236427
0.183169 0.0227919
0.187252 0.0268752
0.187656 0.0264716
0.188267 0.0270826
0.188273 0.027076
0.188322 0.0271243
0.189994 0.0254522
0.192374 0.0278323
0.192677 0.0275289
0.196758 0.0316093
0.197343 0.0310243
0.199186 0.0328677
0.20098 0.0310737
0.202312 0.0324055
0.203276 0.0314414
0.204142 0.0323068
0.205 0.0314487
0.205026 0.0314747
0.209489 0.027011
0.210655 0.0281763
0.214162 0.0246695
0.216278 0.0267864
0.219854 0.0232112
0.220575 0.0239327
0.223465 0.0210433
0.224166 0.0217448
0.244466 0.00144464
0.244843 0.00182135
0.246664 0
inf 0


"layer 15:"
-inf 0
0.128029 0
0.13017 0.00214167
0.131291 0.00102063
0.131825 0.00155465
0.132201 0.00117906
0.132425 0.00140306
0.132749 0.00107891
0.133349 0.00167923
0.133584 0.0014446
0.136281 0.00414164
0.136457 0.00396567
0.137212 0.0047204
0.138364 0.00356789
0.138563 0.00376642
0.13863 0.00369973
0.139 0.00407024
0.139064 0.00400666
0.140499 0.00544174
0.140566 0.00537466
0.141863 0.00667133
0.142274 0.0062594
0.142692 0.00667688
0.143545 0.00582368
0.144548 0.0068262
0.144558 0.00681562
0.145462 0.00771926
0.145592 0.00758896
0.146616 0.00861309
0.146684 0.00854569
0.148287 0.0101493
0.148406 0.0100309
0.148765 0.0103906
0.148881 0.0102748
0.149397 0.0107903
0.149411 0.0107762
0.149825 0.0111899
0.152092 0.00892284
0.152101 0.00893197
0.152879 0.00815363
0.153461 0.00873532
0.153507 0.00868887
0.154561 0.00974227
0.155221 0.00908199
0.156406 0.0102669
0.157109 0.0095634
0.158555 0.0110085
0.159098 0.0104648
0.161269 0.0126354
0.162052 0.0118527
0.162644 0.012445
0.162738 0.0123508
0.163009 0.0126222
0.163248 0.012383
0.163415 0.0125492
0.164185 0.0117792
0.166203 0.0137977
0.166303 0.013698
0.167589 0.0149835
0.168928 0.0136439
0.169973 0.0146884
0.171415 0.0132458
0.172342 0.0141728
0.172398 0.0141166
0.176609 0.0183272
0.176806 0.0181305
0.1772 0.0185246
0.178051 0.0176739
0.183169 0.0227919
0.183572 0.0223883
0.187656 0.0264716
0.187662 0.0264649
0.188273 0.027076
0.189946 0.0254038
0.189994 0.0254522
0.190297 0.0251487
0.192677 0.0275289
0.193262 0.0269439
0.197343 0.0310243
0.199137 0.0292303
0.20098 0.0310737
0.201944 0.0301096
0.203276 0.0314414
0.204134 0.0305833
0.205 0.0314487
0.209463 0.0269849
0.209489 0.027011
0.212996 0.0235042
0.214162 0.0246695
0.217737 0.0210942
0.219854 0.0232112
0.222743 0.0203217
0.223465 0.0210433
0.243765 0.000743133
0.244466 0.00144464
0.245911 0
inf 0


"layer 16:"
-inf 0
0.130271 0
0.131291 0.00102063
0.131667 0.000645047
0.132201 0.00117906
0.132525 0.000854908
0.132749 0.00107891
0.132984 0.000844278
0.133584 0.0014446
0.13376 0.00126862
0.136457 0.00396567
0.13761 0.00281316
0.138364 0.00356789
0.138431 0.0035012
0.13863 0.00369973
0.138693 0.00363615
0.139064 0.00400666
0.139131 0.00393958
0.140566 0.00537466
0.140978 0.00496272
0.142274 0.0062594
0.143128 0.0054062
0.143545 0.00582368
0.143556 0.00581309
0.144558 0.00681562
0.144689 0.00668532
0.145592 0.00758896
0.14566 0.00752156
0.146684 0.00854569
0.146802 0.00842726
0.148406 0.0100309
0.148522 0.00991504
0.148881 0.0102748
0.148895 0.0102606
0.149411 0.0107762
0.151678 0.00850911
0.152092 0.00892284
0.15287 0.0081445
0.152879 0.00815363
0.152926 0.00810719
0.153507 0.00868887
0.154168 0.00802859
0.155221 0.00908199
0.155925 0.00837846
0.157109 0.0095634
0.157653 0.00901967
0.159098 0.0104648
0.159881 0.00968216
0.162052 0.0118527
0.162146 0.0117586
0.162738 0.0123508
0.162977 0.0121116
0.163248 0.012383
0.164019 0.0116129
0.164185 0.0117792
0.164285 0.0116795
0.166303 0.013698
0.167643 0.0123583
0.168928 0.0136439
0.170371 0.0122013
0.171415 0.0132458
0.171472 0.0131896
0.172398 0.0141166
0.172595 0.0139198
0.176806 0.0181305
0.177657 0.0172797
0.178051 0.0176739
0.178454 0.0172703
0.183572 0.0223883
0.183579 0.0223817
0.187662 0.0264649
0.189334 0.0247927
0.189946 0.0254038
0.190249 0.0251004
0.190297 0.0251487
0.190882 0.0245638
0.193262 0.0269439
0.195056 0.0251499
0.199137 0.0292303
0.200101 0.0282662
0.201944 0.0301096
0.202802 0.0292515
0.204134 0.0305833
0.208598 0.0261195
0.209463 0.0269849
0.21297 0.0234781
0.212996 0.0235042
0.216571 0.0199289
0.217737 0.0210942
0.220626 0.0182048
0.222743 0.0203217
0.243043 2.15942e-05
0.243765 0.000743133
0.244508 0
inf 0


"layer 17:"
-inf 0
0.131022 0
0.131667 0.000645047
0.131991 0.000320893
0.132525 0.000854908
0.13276 0.000620281
0.132984 0.000844278
0.13316 0.000668301
0.13376 0.00126862
0.134333 0.000695574
0.136466 0.00282839
0.137045 0.00224893
0.13761 0.00281316
0.137676 0.00274646
0.138431 0.0035012
0.138495 0.00343762
0.138693 0.00363615
0.13876 0.00356907
0.139131 0.00393958
0.139543 0.00352764
0.140978 0.00496272
0.141831 0.00410953
0.143128 0.0054062
0.143138 0.00539561
0.143556 0.00581309
0.143686 0.00568279
0.144689 0.00668532
0.144756 0.00661792
0.14566 0.00752156
0.145778 0.00740313
0.146802 0.00842726
0.146918 0.00831145
0.148522 0.00991504
0.148536 0.0099009
0.148895 0.0102606
0.151162 0.00799358
0.151678 0.00850911
0.152456 0.00773078
0.15287 0.0081445
0.152917 0.00809806
0.152926 0.00810719
0.153586 0.00744691
0.154168 0.00802859
0.154871 0.00732506
0.155925 0.00837846
0.156468 0.00783474
0.157653 0.00901967
0.158436 0.00823701
0.159881 0.00968216
0.159975 0.00958805
0.162146 0.0117586
0.162385 0.0115194
0.162977 0.0121116
0.163747 0.0113415
0.164019 0.0116129
0.164118 0.0115132
0.164285 0.0116795
0.165624 0.0103398
0.167643 0.0123583
0.169085 0.0109157
0.170371 0.0122013
0.170427 0.0121451
0.171472 0.0131896
0.171668 0.0129929
0.172595 0.0139198
0.173131 0.0133843
0.176396 0.0166493
0.176711 0.0163341
0.177657 0.0172797
0.17806 0.0168761
0.178454 0.0172703
0.178461 0.0172636
0.183579 0.0223817
0.185251 0.0207095
0.189334 0.0247927
0.189638 0.0244893
0.190249 0.0251004
0.190834 0.0245154
0.190882 0.0245638
0.19123 0.0242157
0.191783 0.0247685
0.193229 0.0233226
0.195056 0.0251499
0.196021 0.0241858
0.200101 0.0282662
0.200959 0.0274081
0.202802 0.0292515
0.207266 0.0247877
0.208598 0.0261195
0.212105 0.0226127
0.21297 0.0234781
0.216545 0.0199029
0.216571 0.0199289
0.219461 0.0170395
0.220626 0.0182048
0.238831 0
0.243022 0
0.243043 2.15942e-05
0.243065 0
inf 0


"layer 18:"
-inf 0
0.13167 0
0.131991 0.000320893
0.132226 8.62656e-05
0.13276 0.000620281
0.132936 0.000444303
0.13316 0.000668301
0.133733 9.52536e-05
0.134333 0.000695574
0.134913 0.000116113
0.137045 0.00224893
0.137112 0.00218224
0.137676 0.00274646
0.13774 0.00268289
0.138495 0.00343762
0.138562 0.00337054
0.13876 0.00356907
0.139172 0.00315713
0.139543 0.00352764
0.140396 0.00267445
0.141831 0.00410953
0.141842 0.00409894
0.143138 0.00539561
0.143269 0.00526531
0.143686 0.00568279
0.143753 0.00561539
0.144756 0.00661792
0.144874 0.00649948
0.145778 0.00740313
0.145894 0.00728732
0.146918 0.00831145
0.146932 0.00829731
0.148536 0.0099009
0.150803 0.00763385
0.151162 0.00799358
0.151941 0.00721524
0.152456 0.00773078
0.152503 0.00768434
0.152917 0.00809806
0.153577 0.00743778
0.153586 0.00744691
0.154289 0.00674338
0.154871 0.00732506
0.155415 0.00678134
0.156468 0.00783474
0.157251 0.00705207
0.158436 0.00823701
0.15853 0.0081429
0.159975 0.00958805
0.160214 0.00934882
0.162385 0.0115194
0.163155 0.0107493
0.163747 0.0113415
0.163847 0.0112418
0.164118 0.0115132
0.165458 0.0101736
0.165624 0.0103398
0.167066 0.00889771
0.168612 0.0104437
0.168613 0.0104433
0.169085 0.0109157
0.169141 0.0108595
0.170427 0.0121451
0.170624 0.0119483
0.171668 0.0129929
0.172204 0.0124574
0.173131 0.0133843
0.173446 0.0130691
0.176711 0.0163341
0.177115 0.0159305
0.17806 0.0168761
0.178067 0.0168695
0.178461 0.0172636
0.180133 0.0155914
0.185251 0.0207095
0.185555 0.0204061
0.189638 0.0244893
0.190223 0.0239044
0.190834 0.0245154
0.191182 0.0241673
0.19123 0.0242157
0.192676 0.0227698
0.193229 0.0233226
0.194193 0.0223585
0.196021 0.0241858
0.196879 0.0233277
0.200959 0.0274081
0.205423 0.0229444
0.207266 0.0247877
0.210773 0.0212809
0.212105 0.0226127
0.21568 0.0190375
0.216545 0.0199029
0.219435 0.0170135
0.219461 0.0170395
0.2365 0
inf 0


"layer 19:"
-inf 0
0.132139 0
0.132226 8.62656e-05
0.132312 0
0.132491 0
0.132936 0.000444303
0.13338 0
0.133638 0
0.133733 9.52536e-05
0.133828 0
0.134796 0
0.134913 0.000116113
0.134979 4.94159e-05
0.137112 0.00218224
0.137176 0.00211866
0.13774 0.00268289
0.137807 0.0026158
0.138562 0.00337054
0.138974 0.0029586
0.139172 0.00315713
0.140025 0.00230394
0.140396 0.00267445
0.140406 0.00266386
0.141842 0.00409894
0.141972 0.00396864
0.143269 0.00526531
0.143336 0.00519791
0.143753 0.00561539
0.143872 0.00549696
0.144874 0.00649948
0.14499 0.00638367
0.145894 0.00728732
0.145908 0.00727318
0.146932 0.00829731
0.148926 0.00630298
0.149097 0.00647371
0.14937 0.00620099
0.150803 0.00763385
0.151581 0.00685552
0.151941 0.00721524
0.151987 0.0071688
0.152503 0.00768434
0.153163 0.00702405
0.153577 0.00743778
0.15428 0.00673425
0.154289 0.00674338
0.154833 0.00619966
0.155415 0.00678134
0.156198 0.00599868
0.157251 0.00705207
0.157345 0.00695796
0.15853 0.0081429
0.158769 0.00790367
0.160214 0.00934882
0.160627 0.00893654
0.161755 0.0100648
0.162113 0.00970705
0.163155 0.0107493
0.163255 0.0106496
0.163847 0.0112418
0.165187 0.0099022
0.165458 0.0101736
0.1669 0.00873144
0.167066 0.00889771
0.167067 0.00889724
0.168613 0.0104433
0.168669 0.0103871
0.169141 0.0108595
0.169338 0.0106628
0.170624 0.0119483
0.171159 0.0114128
0.172204 0.0124574
0.172519 0.0121421
0.173446 0.0130691
0.17385 0.0126655
0.177115 0.0159305
0.177121 0.0159239
0.178067 0.0168695
0.179739 0.0151973
0.180133 0.0155914
0.180437 0.015288
0.185555 0.0204061
0.18614 0.0198211
0.190223 0.0239044
0.190571 0.0235562
0.191182 0.0241673
0.192628 0.0227214
0.192676 0.0227698
0.19364 0.0218056
0.194193 0.0223585
0.195051 0.0215003
0.196879 0.0233277
0.200078 0.0201284
0.202135 0.0221855
0.203399 0.020921
0.205423 0.0229444
0.20893 0.0194375
0.210773 0.0212809
0.214348 0.0177057
0.21568 0.0190375
0.218569 0.0161481
0.219435 0.0170135
0.236448 0
inf 0


"layer 20:"
-inf 0
0.13493 0
0.134979 4.94159e-05
0.135029 0
0.135057 0
0.137176 0.00211866
0.137243 0.00205158
0.137807 0.0026158
0.138219 0.00220387
0.138974 0.0029586
0.139827 0.00210541
0.140025 0.00230394
0.140036 0.00229335
0.140406 0.00266386
0.140537 0.00253356
0.141972 0.00396864
0.142039 0.00390124
0.143336 0.00519791
0.143454 0.00507948
0.143872 0.00549696
0.143988 0.00538115
0.14499 0.00638367
0.145004 0.00636953
0.145908 0.00727318
0.14672 0.00646128
0.147395 0.00713593
0.148577 0.0059535
0.148926 0.00630298
0.149199 0.00603026
0.14937 0.00620099
0.150148 0.00542265
0.151581 0.00685552
0.151628 0.00680907
0.151987 0.0071688
0.152648 0.00650852
0.153163 0.00702405
0.153867 0.00632053
0.15428 0.00673425
0.154824 0.00619053
0.154833 0.00619966
0.155616 0.005417
0.156198 0.00599868
0.156292 0.00590457
0.157345 0.00695796
0.157584 0.00671873
0.158769 0.00790367
0.159181 0.00749139
0.160627 0.00893654
0.160984 0.00857875
0.162113 0.00970705
0.162212 0.00960734
0.163255 0.0106496
0.164594 0.00930997
0.165187 0.0099022
0.165945 0.00914423
0.165955 0.00915425
0.166639 0.0084701
0.1669 0.00873144
0.1669 0.00873098
0.167067 0.00889724
0.167123 0.00884103
0.168669 0.0103871
0.168866 0.0101903
0.169338 0.0106628
0.169874 0.0101273
0.171159 0.0114128
0.171474 0.0110976
0.172519 0.0121421
0.172923 0.0117385
0.17385 0.0126655
0.173856 0.0126588
0.177121 0.0159239
0.178793 0.0142517
0.179739 0.0151973
0.180042 0.0148939
0.180437 0.015288
0.181022 0.0147031
0.18614 0.0198211
0.186488 0.019473
0.190571 0.0235562
0.192017 0.0221104
0.192628 0.0227214
0.193592 0.0217573
0.19364 0.0218056
0.194499 0.0209475
0.195051 0.0215003
0.198251 0.0183011
0.200078 0.0201284
0.201342 0.0188639
0.203399 0.020921
0.206906 0.0174142
0.20893 0.0194375
0.212505 0.0158623
0.214348 0.0177057
0.217238 0.0148162
0.218569 0.0161481
0.234718 0
inf 0


"layer 21:"
-inf 0
0.135191 0
0.137243 0.00205158
0.137655 0.00163964
0.138219 0.00220387
0.139072 0.00135067
0.139827 0.00210541
0.139837 0.00209482
0.140036 0.00229335
0.140166 0.00216305
0.140537 0.00253356
0.140604 0.00246616
0.142039 0.00390124
0.142158 0.0037828
0.143454 0.00507948
0.14357 0.00496367
0.143988 0.00538115
0.144002 0.00536701
0.145004 0.00636953
0.145816 0.00555763
0.14672 0.00646128
0.147902 0.00527885
0.148577 0.0059535
0.14885 0.00568078
0.149199 0.00603026
0.149977 0.00525192
0.150148 0.00542265
0.150195 0.00537621
0.151628 0.00680907
0.152288 0.00614879
0.152648 0.00650852
0.153351 0.00580499
0.153867 0.00632053
0.15441 0.0057768
0.154824 0.00619053
0.155607 0.00540786
0.155616 0.005417
0.15571 0.00532288
0.156292 0.00590457
0.156531 0.00566534
0.157584 0.00671873
0.157997 0.00630645
0.159181 0.00749139
0.159539 0.00713361
0.160984 0.00857875
0.161084 0.00847905
0.162212 0.00960734
0.163552 0.0082677
0.164594 0.00930997
0.165352 0.008552
0.165945 0.00914423
0.166629 0.00846008
0.166639 0.0084701
0.166639 0.00846964
0.1669 0.00873098
0.166957 0.00867476
0.167123 0.00884103
0.16732 0.00864431
0.168866 0.0101903
0.169401 0.00965482
0.169874 0.0101273
0.170189 0.00981205
0.171474 0.0110976
0.171878 0.010694
0.172923 0.0117385
0.172929 0.0117319
0.173856 0.0126588
0.175528 0.0109867
0.178793 0.0142517
0.179097 0.0139482
0.180042 0.0148939
0.180627 0.0143089
0.181022 0.0147031
0.18137 0.0143549
0.186488 0.019473
0.187568 0.0183928
0.190499 0.0213234
0.190864 0.0209577
0.192017 0.0221104
0.192981 0.0211462
0.193592 0.0217573
0.19445 0.0208992
0.194499 0.0209475
0.197698 0.0177483
0.198251 0.0183011
0.199515 0.0170366
0.201342 0.0188639
0.204849 0.0153571
0.206906 0.0174142
0.210481 0.0138389
0.212505 0.0158623
0.215394 0.0129729
0.217238 0.0148162
0.224285 0.0077687
0.225304 0.00878793
0.234092 0
inf 0


"layer 22:"
-inf 0
0.136015 0
0.137655 0.00163964
0.138508 0.000786447
0.139072 0.00135067
0.139083 0.00134008
0.139837 0.00209482
0.139968 0.00196452
0.140166 0.00216305
0.140234 0.00209565
0.140604 0.00246616
0.140723 0.00234772
0.142158 0.0037828
0.142274 0.00366699
0.14357 0.00496367
0.143584 0.00494953
0.144002 0.00536701
0.144814 0.00455511
0.145816 0.00555763
0.146999 0.0043752
0.147902 0.00527885
0.148175 0.00500613
0.14885 0.00568078
0.149628 0.00490245
0.149977 0.00525192
0.150024 0.00520548
0.150195 0.00537621
0.150855 0.00471593
0.152288 0.00614879
0.152991 0.00544526
0.153351 0.00580499
0.153895 0.00526127
0.15441 0.0057768
0.155193 0.00499414
0.155607 0.00540786
0.155701 0.00531375
0.15571 0.00532288
0.155949 0.00508366
0.156531 0.00566534
0.156943 0.00525306
0.157997 0.00630645
0.158354 0.00594867
0.159539 0.00713361
0.159639 0.0070339
0.161084 0.00847905
0.162424 0.00713941
0.163552 0.0082677
0.16431 0.00750973
0.165352 0.008552
0.166036 0.00786785
0.166629 0.00846008
0.166629 0.00845962
0.166639 0.00846964
0.166695 0.00841342
0.166957 0.00867476
0.167153 0.00847804
0.16732 0.00864431
0.167855 0.00810879
0.169401 0.00965482
0.169716 0.0093396
0.170189 0.00981205
0.170593 0.00940845
0.171878 0.010694
0.171885 0.0106874
0.172929 0.0117319
0.174601 0.0100597
0.175528 0.0109867
0.175832 0.0106832
0.179097 0.0139482
0.179682 0.0133633
0.180627 0.0143089
0.180976 0.0139608
0.18137 0.0143549
0.182272 0.0134529
0.183911 0.0150925
0.184089 0.0149143
0.187568 0.0183928
0.187934 0.0180271
0.190864 0.0209577
0.191828 0.0199936
0.192981 0.0211462
0.193839 0.0202881
0.19445 0.0208992
0.197649 0.0176999
0.197698 0.0177483
0.198962 0.0164838
0.199515 0.0170366
0.201868 0.0146841
0.202229 0.0150456
0.203383 0.0138913
0.204849 0.0153571
0.208379 0.0118277
0.209697 0.0131466
0.209743 0.0131007
0.210481 0.0138389
0.213371 0.0109495
0.215394 0.0129729
0.222442 0.00592532
0.224285 0.0077687
0.232054 0
inf 0


"layer 23:"
-inf 0
0.136864 0
0.137126 0.000262076
0.137388 0
0.137721 0
0.138508 0.000786447
0.138518 0.000775858
0.139083 0.00134008
0.139213 0.00120978
0.139968 0.00196452
0.140035 0.00189712
0.140234 0.00209565
0.140352 0.00197721
0.140723 0.00234772
0.140838 0.00223191
0.142274 0.00366699
0.142288 0.00365285
0.143584 0.00494953
0.144396 0.00413763
0.144814 0.00455511
0.145996 0.00337268
0.146999 0.0043752
0.147271 0.00410248
0.148175 0.00500613
0.148953 0.00422779
0.149628 0.00490245
0.149674 0.004856
0.150024 0.00520548
0.150684 0.0045452
0.150855 0.00471593
0.151425 0.00414628
0.151952 0.00467332
0.152086 0.00453944
0.152991 0.00544526
0.153535 0.00490154
0.153895 0.00526127
0.154677 0.00447861
0.155193 0.00499414
0.155287 0.00490003
0.155701 0.00531375
0.15594 0.00507452
0.155949 0.00508366
0.156361 0.00467138
0.156943 0.00525306
0.157301 0.00489527
0.158354 0.00594867
0.158454 0.00584896
0.159639 0.0070339
0.160979 0.00569426
0.162424 0.00713941
0.163182 0.00638144
0.16431 0.00750973
0.164994 0.00682558
0.166036 0.00786785
0.166037 0.00786739
0.166629 0.00845962
0.166685 0.0084034
0.166695 0.00841342
0.166892 0.0082167
0.167153 0.00847804
0.167689 0.00794253
0.167855 0.00810879
0.16817 0.00779357
0.169716 0.0093396
0.17012 0.00893599
0.170593 0.00940845
0.170599 0.0094018
0.171885 0.0106874
0.173557 0.00901516
0.174601 0.0100597
0.174905 0.00975628
0.175832 0.0106832
0.176417 0.0100983
0.179682 0.0133633
0.18003 0.0130152
0.180976 0.0139608
0.181878 0.0130588
0.182272 0.0134529
0.18245 0.0132748
0.184089 0.0149143
0.184455 0.0145486
0.187934 0.0180271
0.188898 0.017063
0.191828 0.0199936
0.192686 0.0191355
0.193839 0.0202881
0.197038 0.0170889
0.197649 0.0176999
0.198914 0.0164354
0.198962 0.0164838
0.201315 0.0141313
0.201868 0.0146841
0.203022 0.0135298
0.203383 0.0138913
0.206913 0.0103619
0.208379 0.0118277
0.208424 0.0117819
0.209743 0.0131007
0.212633 0.0102113
0.213371 0.0109495
0.220418 0.00390195
0.222442 0.00592532
0.228367 0
inf 0


"layer 24:"
-inf 0
0.137743 0
0.138518 0.000775858
0.138649 0.000645557
0.139213 0.00120978
0.13928 0.00114238
0.140035 0.00189712
0.140154 0.00177868
0.140352 0.00197721
0.140468 0.0018614
0.140838 0.00223191
0.140853 0.00221777
0.142288 0.00365285
0.1431 0.00284096
0.144396 0.00413763
0.145579 0.0029552
0.145996 0.00337268
0.146269 0.00309996
0.147271 0.00410248
0.14805 0.00332414
0.148953 0.00422779
0.149 0.00418135
0.149674 0.004856
0.150335 0.00419572
0.150684 0.0045452
0.151254 0.00397555
0.151425 0.00414628
0.151558 0.0040124
0.152086 0.00453944
0.152629 0.00399572
0.153535 0.00490154
0.154318 0.00411888
0.154677 0.00447861
0.154772 0.00438449
0.155287 0.00490003
0.155526 0.0046608
0.15594 0.00507452
0.156352 0.00466224
0.156361 0.00467138
0.156719 0.00431359
0.157301 0.00489527
0.157401 0.00479557
0.158454 0.00584896
0.159794 0.00450932
0.160979 0.00569426
0.161737 0.00493629
0.163182 0.00638144
0.163866 0.00569729
0.164994 0.00682558
0.164995 0.00682511
0.166037 0.00786739
0.166093 0.00781117
0.166685 0.0084034
0.166882 0.00820668
0.166892 0.0082167
0.167428 0.00768119
0.167689 0.00794253
0.168004 0.0076273
0.16817 0.00779357
0.168574 0.00738996
0.17012 0.00893599
0.170127 0.00892935
0.170599 0.0094018
0.172271 0.00772961
0.173557 0.00901516
0.17386 0.00871175
0.174905 0.00975628
0.17549 0.00917134
0.176417 0.0100983
0.176551 0.00996427
0.179212 0.0126252
0.179426 0.0124111
0.18003 0.0130152
0.180932 0.0121132
0.181878 0.0130588
0.182056 0.0128806
0.18245 0.0132748
0.182816 0.012909
0.184455 0.0145486
0.185419 0.0135844
0.188898 0.017063
0.189756 0.0162049
0.192686 0.0191355
0.195886 0.0159362
0.197038 0.0170889
0.198303 0.0158244
0.198914 0.0164354
0.201266 0.0140829
0.201315 0.0141313
0.202469 0.012977
0.203022 0.0135298
0.206551 0.0100004
0.206913 0.0103619
0.206914 0.0103611
0.207364 0.0108118
0.207409 0.0107667
0.208424 0.0117819
0.209924 0.0102826
0.210432 0.0107912
0.211822 0.00940104
0.212633 0.0102113
0.21968 0.00316373
0.220418 0.00390195
0.22432 0
inf 0


"layer 25:"
-inf 0
0.138003 0
0.138649 0.000645557
0.138716 0.000578158
0.13928 0.00114238
0.139399 0.00102395
0.140154 0.00177868
0.140269 0.00166287
0.140468 0.0018614
0.140482 0.00184726
0.140853 0.00221777
0.141664 0.00140587
0.1431 0.00284096
0.144282 0.00165852
0.145579 0.0029552
0.145851 0.00268248
0.146269 0.00309996
0.147047 0.00232162
0.14805 0.00332414
0.148096 0.0032777
0.149 0.00418135
0.14966 0.00352107
0.150335 0.00419572
0.150904 0.00362607
0.151254 0.00397555
0.151388 0.00384167
0.151558 0.0040124
0.152102 0.00346868
0.152629 0.00399572
0.153412 0.00321306
0.154318 0.00411888
0.154412 0.00402477
0.154772 0.00438449
0.155011 0.00414526
0.155526 0.0046608
0.155939 0.00424852
0.156352 0.00466224
0.15671 0.00430446
0.156719 0.00431359
0.156819 0.00421389
0.157401 0.00479557
0.15874 0.00345593
0.159794 0.00450932
0.160552 0.00375135
0.161737 0.00493629
0.162421 0.00425214
0.163866 0.00569729
0.163866 0.00569682
0.164995 0.00682511
0.165051 0.0067689
0.166093 0.00781117
0.16629 0.00761445
0.166882 0.00820668
0.167418 0.00767116
0.167428 0.00768119
0.167743 0.00736596
0.168004 0.0076273
0.168408 0.0072237
0.168574 0.00738996
0.168581 0.00738332
0.170127 0.00892935
0.171799 0.00725715
0.172271 0.00772961
0.172575 0.0074262
0.17386 0.00871175
0.174445 0.00812681
0.17549 0.00917134
0.175624 0.00903731
0.176551 0.00996427
0.176765 0.00975015
0.179426 0.0124111
0.180328 0.0115091
0.180932 0.0121132
0.18111 0.011935
0.182056 0.0128806
0.182421 0.0125149
0.182816 0.012909
0.18378 0.0119449
0.185419 0.0135844
0.186277 0.0127263
0.189756 0.0162049
0.192955 0.0130056
0.195886 0.0159362
0.19715 0.0146717
0.198303 0.0158244
0.200655 0.0134719
0.201266 0.0140829
0.202421 0.0129286
0.202469 0.012977
0.205998 0.00944762
0.206551 0.0100004
0.206552 0.00999963
0.206914 0.0103611
0.206959 0.0103161
0.207409 0.0107667
0.208908 0.00926744
0.209924 0.0102826
0.211314 0.00889244
0.211822 0.00940104
0.21887 0.0023535
0.21968 0.00316373
0.222844 0
inf 0


"layer 26:"
-inf 0
0.138138 0
0.138716 0.000578158
0.138835 0.000459721
0.139399 0.00102395
0.139515 0.000908134
0.140269 0.00166287
0.140284 0.00164873
0.140482 0.00184726
0.141294 0.00103536
0.141664 0.00140587
0.142847 0.000223443
0.144282 0.00165852
0.144555 0.0013858
0.145851 0.00268248
0.146117 0.00241671
0.146432 0.00273179
0.146945 0.00221923
0.147047 0.00232162
0.147094 0.00227518
0.148096 0.0032777
0.148756 0.00261742
0.14966 0.00352107
0.15023 0.00295142
0.150904 0.00362607
0.151038 0.0034922
0.151388 0.00384167
0.151931 0.00329795
0.152102 0.00346868
0.152885 0.00268602
0.153412 0.00321306
0.153506 0.00311894
0.154412 0.00402477
0.154651 0.00378554
0.155011 0.00414526
0.155423 0.00373298
0.155939 0.00424852
0.156296 0.00389074
0.15671 0.00430446
0.15681 0.00420475
0.156819 0.00421389
0.157922 0.00311123
0.158332 0.0035219
0.158569 0.00328491
0.15874 0.00345593
0.159498 0.00269796
0.160552 0.00375135
0.161236 0.0030672
0.162421 0.00425214
0.162421 0.00425167
0.163866 0.00569682
0.163923 0.00564061
0.165051 0.0067689
0.165248 0.00657218
0.16629 0.00761445
0.166825 0.00707893
0.167418 0.00767116
0.167733 0.00735594
0.167743 0.00736596
0.168146 0.00696236
0.168408 0.0072237
0.168414 0.00721705
0.168581 0.00738332
0.170253 0.00571112
0.171799 0.00725715
0.172102 0.00695374
0.172575 0.0074262
0.17316 0.00684126
0.174445 0.00812681
0.174579 0.00799278
0.175624 0.00903731
0.175838 0.00882319
0.176765 0.00975015
0.177667 0.00884816
0.180328 0.0115091
0.180506 0.0113309
0.18111 0.011935
0.181476 0.0115693
0.182421 0.0125149
0.183386 0.0115508
0.18378 0.0119449
0.184638 0.0110868
0.186277 0.0127263
0.188161 0.0108423
0.189867 0.0125484
0.191183 0.0112332
0.192955 0.0130056
0.19422 0.0117412
0.19715 0.0146717
0.199503 0.0123192
0.200655 0.0134719
0.20181 0.0123176
0.202421 0.0129286
0.20595 0.00939924
0.205998 0.00944762
0.205999 0.00944682
0.206552 0.00999963
0.206597 0.00995458
0.206959 0.0103161
0.208458 0.00881681
0.208908 0.00926744
0.210299 0.00787725
0.211314 0.00889244
0.218361 0.0018449
0.21887 0.0023535
0.221224 0
inf 0


"layer 27:"
-inf 0
0.138375 0
0.138835 0.000459721
0.13895 0.00034391
0.139515 0.000908134
0.139529 0.000893995
0.140284 0.00164873
0.141095 0.000836833
0.141294 0.00103536
0.142329 0
0.142623 0
0.142847 0.000223443
0.14307 0
0.143169 0
0.144555 0.0013858
0.14482 0.00112003
0.146117 0.00241671
0.14663 0.00190414
0.146945 0.00221923
0.146991 0.00217279
0.147094 0.00227518
0.147754 0.0016149
0.148756 0.00261742
0.149326 0.00204777
0.15023 0.00295142
0.150364 0.00281754
0.151038 0.0034922
0.151582 0.00294847
0.151931 0.00329795
0.152714 0.00251529
0.152885 0.00268602
0.152979 0.0025919
0.153506 0.00311894
0.153745 0.00287971
0.154651 0.00378554
0.155063 0.00337326
0.155423 0.00373298
0.155781 0.0033752
0.156296 0.00389074
0.156396 0.00379103
0.15681 0.00420475
0.157912 0.0031021
0.157922 0.00311123
0.158159 0.00287425
0.158569 0.00328491
0.159327 0.00252694
0.159498 0.00269796
0.160182 0.00201381
0.161236 0.0030672
0.161236 0.00306674
0.162421 0.00425167
0.162477 0.00419546
0.163923 0.00564061
0.164119 0.00544389
0.165248 0.00657218
0.165783 0.00603666
0.166825 0.00707893
0.167141 0.00676371
0.167733 0.00735594
0.168136 0.00695234
0.168146 0.00696236
0.168153 0.00695571
0.168414 0.00721705
0.170087 0.00554486
0.170253 0.00571112
0.170556 0.00540771
0.172102 0.00695374
0.172687 0.0063688
0.17316 0.00684126
0.173294 0.00670723
0.174579 0.00799278
0.174793 0.00777866
0.175838 0.00882319
0.17674 0.0079212
0.177667 0.00884816
0.177845 0.00866999
0.180506 0.0113309
0.180872 0.0109652
0.181476 0.0115693
0.18244 0.0106051
0.183386 0.0115508
0.184244 0.0106927
0.184638 0.0110868
0.186522 0.00920279
0.188161 0.0108423
0.189477 0.00952707
0.191183 0.0112332
0.192447 0.00996868
0.19422 0.0117412
0.19478 0.0111803
0.197489 0.0138893
0.199281 0.0120976
0.199503 0.0123192
0.200657 0.0111649
0.20181 0.0123176
0.205339 0.0087882
0.20595 0.00939924
0.205951 0.00939844
0.205999 0.00944682
0.206044 0.00940177
0.206597 0.00995458
0.208096 0.00845532
0.208458 0.00881681
0.209848 0.00742662
0.210299 0.00787725
0.217346 0.000829706
0.218361 0.0018449
0.220206 0
inf 0


"layer 28:"
-inf 0
0.138607 0
0.13895 0.00034391
0.138965 0.00032977
0.139529 0.000893995
0.140341 8.20982e-05
0.141095 0.000836833
0.141932 0
0.1437 0
0.14482 0.00112003
0.145333 0.000607469
0.14663 0.00190414
0.146676 0.0018577
0.146991 0.00217279
0.147652 0.00151251
0.147754 0.0016149
0.148324 0.00104525
0.149326 0.00204777
0.14946 0.00191389
0.150364 0.00281754
0.150907 0.00227382
0.151582 0.00294847
0.152365 0.00216581
0.152714 0.00251529
0.152808 0.00242117
0.152979 0.0025919
0.153218 0.00235267
0.153745 0.00287971
0.154158 0.00246743
0.155063 0.00337326
0.155421 0.00301548
0.155781 0.0033752
0.155881 0.0032755
0.156396 0.00379103
0.157499 0.00268838
0.157912 0.0031021
0.158149 0.00286511
0.158159 0.00287425
0.15845 0.00258332
0.158607 0.0027411
0.159074 0.00227405
0.159327 0.00252694
0.160011 0.00184279
0.160182 0.00201381
0.160183 0.00201334
0.161236 0.00306674
0.161292 0.00301052
0.162477 0.00419546
0.162674 0.00399874
0.164119 0.00544389
0.164655 0.00490837
0.165783 0.00603666
0.166098 0.00572144
0.167141 0.00676371
0.167544 0.00636011
0.168136 0.00695234
0.168143 0.00694569
0.168153 0.00695571
0.169825 0.00528352
0.170087 0.00554486
0.17039 0.00524145
0.170556 0.00540771
0.171141 0.00482277
0.172687 0.0063688
0.172821 0.00623477
0.173294 0.00670723
0.173508 0.00649311
0.174793 0.00777866
0.175695 0.00687667
0.17674 0.0079212
0.176918 0.00774303
0.177845 0.00866999
0.178211 0.00830427
0.180872 0.0109652
0.181836 0.0100011
0.18244 0.0106051
0.183298 0.00974704
0.184244 0.0106927
0.186128 0.00880865
0.186522 0.00920279
0.187837 0.00788756
0.189477 0.00952707
0.190741 0.0082626
0.192447 0.00996868
0.193008 0.00940788
0.19478 0.0111803
0.196158 0.00980275
0.196323 0.0099673
0.196737 0.00955317
0.199281 0.0120976
0.200435 0.0109433
0.200657 0.0111649
0.203796 0.00802604
0.203999 0.00822893
0.204389 0.00783845
0.205339 0.0087882
0.20534 0.0087874
0.205951 0.00939844
0.205996 0.00935339
0.206044 0.00940177
0.207544 0.00790251
0.208096 0.00845532
0.209487 0.00706512
0.209848 0.00742662
0.216896 0.000379079
0.217346 0.000829706
0.218176 0
inf 0


"layer 29:"
-inf 0
0.138635 0
0.138965 0.00032977
0.139294 0
0.140259 0
0.140341 8.20982e-05
0.140423 0
0.144726 0
0.145333 0.000607469
0.145379 0.000561027
0.146676 0.0018577
0.147336 0.00119742
0.147652 0.00151251
0.148221 0.000942856
0.148324 0.00104525
0.148457 0.000911371
0.14946 0.00191389
0.150004 0.00137017
0.150907 0.00227382
0.15169 0.00149116
0.152365 0.00216581
0.152459 0.0020717
0.152808 0.00242117
0.153047 0.00218195
0.153218 0.00235267
0.15363 0.00194039
0.154158 0.00246743
0.154515 0.00210965
0.155421 0.00301548
0.155521 0.00291577
0.155881 0.0032755
0.156983 0.00217284
0.157499 0.00268838
0.157736 0.00245139
0.158149 0.00286511
0.15844 0.00257419
0.15845 0.00258332
0.158917 0.00211627
0.159074 0.00227405
0.159758 0.0015899
0.160011 0.00184279
0.160012 0.00184233
0.160183 0.00201334
0.160239 0.00195713
0.161292 0.00301052
0.161489 0.0028138
0.162674 0.00399874
0.16321 0.00346322
0.164655 0.00490837
0.16497 0.00459315
0.166098 0.00572144
0.166502 0.00531783
0.167544 0.00636011
0.167551 0.00635346
0.168143 0.00694569
0.169582 0.00550671
0.169592 0.00551666
0.169825 0.00528345
0.169825 0.00528352
0.170129 0.00498011
0.17039 0.00524145
0.170975 0.0046565
0.171141 0.00482277
0.171275 0.00468874
0.172821 0.00623477
0.173035 0.00602065
0.173508 0.00649311
0.17441 0.00559112
0.175695 0.00687667
0.175874 0.0066985
0.176918 0.00774303
0.177284 0.00737731
0.178211 0.00830427
0.179175 0.00734014
0.181836 0.0100011
0.182694 0.00914299
0.183298 0.00974704
0.185182 0.00786301
0.186128 0.00880865
0.187443 0.00749342
0.187837 0.00788756
0.188197 0.00752809
0.188692 0.00802376
0.189597 0.00711876
0.190741 0.0082626
0.191302 0.00770179
0.193008 0.00940788
0.194386 0.00803029
0.196158 0.00980275
0.196572 0.00938863
0.196737 0.00955317
0.197891 0.00839889
0.200435 0.0109433
0.203574 0.00780442
0.203796 0.00802604
0.204186 0.00763556
0.204389 0.00783845
0.20439 0.00783765
0.20534 0.0087874
0.205385 0.00874235
0.205996 0.00935339
0.207495 0.00785413
0.207544 0.00790251
0.208934 0.00651231
0.209487 0.00706512
0.216534 1.75817e-05
0.216896 0.000379079
0.217275 0
inf 0


"layer 30:"
-inf 0
0.144818 0
0.145379 0.000561027
0.145941 0
0.146139 0
0.147336 0.00119742
0.147906 0.000627768
0.148221 0.000942856
0.148355 0.00080898
0.148457 0.000911371
0.149001 0.000367649
0.150004 0.00137017
0.150786 0.000587509
0.15169 0.00149116
0.151784 0.00139704
0.152459 0.0020717
0.152698 0.00183247
0.153047 0.00218195
0.15346 0.00176967
0.15363 0.00194039
0.153988 0.00158261
0.154515 0.00210965
0.154615 0.00200995
0.155521 0.00291577
0.156623 0.00181312
0.156983 0.00217284
0.15722 0.00193586
0.157736 0.00245139
0.158027 0.00216047
0.15844 0.00257419
0.158907 0.00210714
0.158917 0.00211627
0.159601 0.00143213
0.159758 0.0015899
0.159759 0.00158944
0.160012 0.00184233
0.160068 0.00178611
0.160239 0.00195713
0.160436 0.00176041
0.161489 0.0028138
0.162025 0.00227829
0.16321 0.00346322
0.163525 0.003148
0.16497 0.00459315
0.165374 0.00418954
0.166502 0.00531783
0.166509 0.00531119
0.167551 0.00635346
0.16899 0.00491448
0.169582 0.00550671
0.169815 0.0052735
0.169825 0.00528345
0.170129 0.00498004
0.170129 0.00498011
0.170714 0.00439517
0.170975 0.0046565
0.171109 0.00452248
0.171275 0.00468874
0.171489 0.00447462
0.173035 0.00602065
0.173937 0.00511866
0.17441 0.00559112
0.174588 0.00541295
0.175874 0.0066985
0.176239 0.00633278
0.177284 0.00737731
0.178248 0.00641318
0.179175 0.00734014
0.180033 0.00648203
0.182694 0.00914299
0.184578 0.00725896
0.185182 0.00786301
0.186497 0.00654778
0.187443 0.00749342
0.187802 0.00713396
0.188197 0.00752809
0.189102 0.00662309
0.189597 0.00711876
0.190158 0.00655795
0.191302 0.00770179
0.192679 0.0063242
0.194386 0.00803029
0.1948 0.00761616
0.196572 0.00938863
0.197726 0.00823435
0.197891 0.00839889
0.200394 0.00589597
0.202077 0.00757948
0.202713 0.00694349
0.203574 0.00780442
0.203965 0.00741394
0.204186 0.00763556
0.204187 0.00763476
0.20439 0.00783765
0.204435 0.0077926
0.205385 0.00874235
0.206884 0.00724309
0.207495 0.00785413
0.208885 0.00646394
0.208934 0.00651231
0.215446 0
0.216517 0
0.216534 1.75817e-05
0.216552 0
inf 0


"layer 31:"
-inf 0
0.147278 0
0.147906 0.000627768
0.14804 0.000493892
0.148355 0.00080898
0.148899 0.000265258
0.149001 0.000367649
0.149369 0
0.150199 0
0.150786 0.000587509
0.15088 0.000493395
0.151784 0.00139704
0.152023 0.00115781
0.152698 0.00183247
0.15311 0.00142019
0.15346 0.00176967
0.153818 0.00141188
0.153988 0.00158261
0.154088 0.0014829
0.154615 0.00200995
0.155718 0.000907291
0.156623 0.00181312
0.15686 0.00157613
0.15722 0.00193586
0.157511 0.00164493
0.158027 0.00216047
0.158494 0.00169342
0.158907 0.00210714
0.159592 0.00142299
0.159601 0.00143213
0.159601 0.00143166
0.159759 0.00158944
0.159815 0.00153322
0.160068 0.00178611
0.160265 0.00158939
0.160436 0.00176041
0.160971 0.00122489
0.162025 0.00227829
0.16234 0.00196306
0.163525 0.003148
0.163928 0.00274439
0.165374 0.00418954
0.16538 0.0041829
0.166509 0.00531119
0.167948 0.00387221
0.16899 0.00491448
0.169223 0.00468127
0.169815 0.0052735
0.170119 0.00497009
0.170129 0.00498004
0.170714 0.00439509
0.170714 0.00439517
0.170848 0.00426114
0.171109 0.00452248
0.171323 0.00430836
0.171489 0.00447462
0.172391 0.00357263
0.173937 0.00511866
0.174116 0.00494049
0.174588 0.00541295
0.174954 0.00504723
0.176239 0.00633278
0.177203 0.00536865
0.178248 0.00641318
0.179106 0.00555507
0.180033 0.00648203
0.181917 0.00459801
0.184578 0.00725896
0.184705 0.00713164
0.185015 0.00744138
0.186203 0.00625347
0.186497 0.00654778
0.186857 0.00618832
0.187802 0.00713396
0.188707 0.00622895
0.189102 0.00662309
0.189662 0.00606228
0.190158 0.00655795
0.191536 0.00518036
0.192679 0.0063242
0.193094 0.00591007
0.1948 0.00761616
0.195954 0.00646188
0.197726 0.00823435
0.200229 0.00573143
0.200394 0.00589597
0.20103 0.00525999
0.202713 0.00694349
0.203104 0.00655302
0.203965 0.00741394
0.203966 0.00741314
0.204187 0.00763476
0.204232 0.00758971
0.204435 0.0077926
0.205934 0.00629334
0.206884 0.00724309
0.208274 0.0058529
0.208885 0.00646394
0.215349 0
inf 0


"layer 32:"
-inf 0
0.147546 0
0.14804 0.000493892
0.148534 0
0.148634 0
0.148899 0.000265258
0.149164 0
0.150387 0
0.15088 0.000493395
0.15112 0.000254167
0.152023 0.00115781
0.152436 0.000745535
0.15311 0.00142019
0.153468 0.00106241
0.153818 0.00141188
0.153917 0.00131218
0.154088 0.0014829
0.155191 0.000380251
0.155718 0.000907291
0.155955 0.000670306
0.15686 0.00157613
0.157151 0.00128521
0.157511 0.00164493
0.157978 0.00117788
0.158494 0.00169342
0.159178 0.00100927
0.159592 0.00142299
0.159592 0.00142253
0.159601 0.00143166
0.159657 0.00137545
0.159815 0.00153322
0.160012 0.0013365
0.160265 0.00158939
0.1608 0.00105387
0.160971 0.00122489
0.161287 0.000909669
0.16234 0.00196306
0.162744 0.00155946
0.163928 0.00274439
0.163935 0.00273775
0.16538 0.0041829
0.166819 0.00274392
0.167948 0.00387221
0.168181 0.003639
0.169223 0.00468127
0.169526 0.00437785
0.170119 0.00497009
0.170704 0.00438514
0.170714 0.00439509
0.170848 0.00426106
0.170848 0.00426114
0.171062 0.00404702
0.171323 0.00430836
0.172225 0.00340637
0.172391 0.00357263
0.17257 0.00339446
0.174116 0.00494049
0.174481 0.00457477
0.174954 0.00504723
0.175918 0.0040831
0.177203 0.00536865
0.178062 0.00451054
0.179106 0.00555507
0.18099 0.00367105
0.181917 0.00459801
0.182044 0.00447068
0.184705 0.00713164
0.184867 0.00696966
0.185161 0.00726379
0.186187 0.00623787
0.186203 0.00625347
0.186562 0.00589401
0.186857 0.00618832
0.187762 0.00528331
0.188707 0.00622895
0.189268 0.00566815
0.189662 0.00606228
0.19104 0.00468469
0.191536 0.00518036
0.19195 0.00476623
0.193094 0.00591007
0.194248 0.00475579
0.195954 0.00646188
0.198457 0.00395896
0.200229 0.00573143
0.200865 0.00509544
0.20103 0.00525999
0.20142 0.00486951
0.203104 0.00655302
0.203105 0.00655222
0.203966 0.00741314
0.204011 0.00736809
0.204232 0.00758971
0.205731 0.00609045
0.205934 0.00629334
0.207325 0.00490315
0.208274 0.0058529
0.214127 0
inf 0


"layer 33:"
-inf 0
0.150866 0
0.15112 0.000254167
0.151374 0
0.15169 0
0.152436 0.000745535
0.152793 0.000387752
0.153468 0.00106241
0.153568 0.000962701
0.153917 0.00131218
0.15502 0.000209524
0.155191 0.000380251
0.155428 0.000143266
0.155955 0.000670306
0.156246 0.000379382
0.157151 0.00128521
0.157618 0.000818156
0.157978 0.00117788
0.158662 0.000493735
0.159178 0.00100927
0.159178 0.00100881
0.159592 0.00142253
0.159648 0.00136631
0.159657 0.00137545
0.159854 0.00117873
0.160012 0.0013365
0.160547 0.000800986
0.1608 0.00105387
0.161116 0.000738653
0.161287 0.000909669
0.161503 0.000693379
0.16163 0.000820425
0.161817 0.000633109
0.162744 0.00155946
0.16275 0.00155281
0.163935 0.00273775
0.165374 0.00129877
0.166819 0.00274392
0.167052 0.0025107
0.168181 0.003639
0.168484 0.00333558
0.169526 0.00437785
0.170111 0.00379291
0.170704 0.00438514
0.170838 0.00425111
0.170848 0.00426106
0.171062 0.00404695
0.171062 0.00404702
0.171964 0.00314503
0.172225 0.00340637
0.172403 0.0032282
0.17257 0.00339446
0.172935 0.00302874
0.174481 0.00457477
0.175445 0.00361064
0.175918 0.0040831
0.176776 0.00322499
0.178062 0.00451054
0.179946 0.00262652
0.18099 0.00367105
0.181117 0.00354373
0.182044 0.00447068
0.182206 0.0043087
0.184867 0.00696966
0.185893 0.00594373
0.186187 0.00623787
0.186547 0.0058784
0.186562 0.00589401
0.187467 0.004989
0.187762 0.00528331
0.188323 0.00472251
0.189268 0.00566815
0.190646 0.00429055
0.19104 0.00468469
0.191454 0.00427056
0.19195 0.00476623
0.193104 0.00361195
0.194248 0.00475579
0.196751 0.00225287
0.198457 0.00395896
0.198671 0.00374504
0.198779 0.00385355
0.199201 0.00343149
0.200865 0.00509544
0.201256 0.00470497
0.20142 0.00486951
0.201421 0.00486871
0.203105 0.00655222
0.20315 0.00650717
0.204011 0.00736809
0.20551 0.00586883
0.205731 0.00609045
0.207122 0.00470025
0.207325 0.00490315
0.212228 0
inf 0


"layer 34:"
-inf 0
0.152406 0
0.152793 0.000387752
0.152893 0.000288047
0.153568 0.000962701
0.15453 0
0.15481 0
0.15502 0.000209524
0.155229 0
0.155284 0
0.155428 0.000143266
0.155571 0
0.155866 0
0.156246 0.000379382
0.156625 0
0.1568 0
0.157618 0.000818156
0.158303 0.00013401
0.158662 0.000493735
0.158663 0.000493268
0.159178 0.00100881
0.159235 0.000952591
0.159648 0.00136631
0.159845 0.00116959
0.159854 0.00117873
0.16039 0.00064321
0.160547 0.000800986
0.160863 0.000485764
0.161116 0.000738653
0.161332 0.000522363
0.161503 0.000693379
0.16169 0.000506063
0.161817 0.000633109
0.161824 0.000626465
0.16275 0.00155281
0.163758 0.000544748
0.164285 0.00107166
0.164716 0.000640743
0.165374 0.00129877
0.165607 0.00106556
0.167052 0.0025107
0.167356 0.00220729
0.168484 0.00333558
0.169069 0.00275064
0.170111 0.00379291
0.170245 0.00365888
0.170838 0.00425111
0.171052 0.004037
0.171062 0.00404695
0.171964 0.00314496
0.171964 0.00314503
0.172142 0.00296686
0.172403 0.0032282
0.172769 0.00286247
0.172935 0.00302874
0.173899 0.00206462
0.175445 0.00361064
0.176304 0.00275253
0.176776 0.00322499
0.17866 0.00134096
0.179946 0.00262652
0.180073 0.0024992
0.181117 0.00354373
0.181279 0.00338175
0.182206 0.0043087
0.183232 0.00328278
0.185893 0.00594373
0.186253 0.00558426
0.186547 0.0058784
0.187452 0.00497339
0.187467 0.004989
0.188028 0.0044282
0.188323 0.00472251
0.1897 0.00334491
0.190646 0.00429055
0.19106 0.00387642
0.191454 0.00427056
0.192608 0.00311628
0.193104 0.00361195
0.195607 0.00110903
0.196751 0.00225287
0.196965 0.00203895
0.198671 0.00374504
0.199093 0.00332298
0.199201 0.00343149
0.199592 0.00304101
0.201256 0.00470497
0.201257 0.00470417
0.201421 0.00486871
0.201466 0.00482366
0.20315 0.00650717
0.204649 0.0050079
0.20551 0.00586883
0.2069 0.00447864
0.207122 0.00470025
0.211822 0
inf 0


"layer 35:"
-inf 0
0.152605 0
0.152893 0.000288047
0.153181 0
0.156837 0
0.156978 0.000141348
0.15712 0
0.158169 0
0.158303 0.00013401
0.158303 0.000133543
0.158663 0.000493268
0.158719 0.000437054
0.159235 0.000952591
0.159431 0.000755869
0.159845 0.00116959
0.16038 0.000634076
0.16039 0.00064321
0.160705 0.000327988
0.160863 0.000485764
0.161079 0.000269474
0.161332 0.000522363
0.161519 0.000335047
0.16169 0.000506063
0.161697 0.000499419
0.161824 0.000626465
0.16245 0
0.163213 0
0.163758 0.000544748
0.164189 0.000113831
0.164716 0.000640743
0.164949 0.000407531
0.165607 0.00106556
0.165911 0.000762144
0.167356 0.00220729
0.167941 0.00162235
0.169069 0.00275064
0.169203 0.00261661
0.170245 0.00365888
0.17046 0.00344477
0.171052 0.004037
0.171954 0.00313501
0.171964 0.00314496
0.172142 0.00296678
0.172142 0.00296686
0.172508 0.00260114
0.172769 0.00286247
0.173733 0.00189835
0.173899 0.00206462
0.174757 0.00120651
0.176304 0.00275253
0.178188 0.000868507
0.17866 0.00134096
0.178787 0.00121364
0.180073 0.0024992
0.180235 0.00233722
0.181279 0.00338175
0.182305 0.00235582
0.183232 0.00328278
0.183592 0.00292331
0.186253 0.00558426
0.187158 0.00467926
0.187452 0.00497339
0.188013 0.00441259
0.188028 0.0044282
0.189406 0.0030506
0.1897 0.00334491
0.190114 0.00293078
0.19106 0.00387642
0.192214 0.00272214
0.192608 0.00311628
0.195111 0.000613362
0.195607 0.00110903
0.195821 0.000895108
0.196965 0.00203895
0.197387 0.00161689
0.199093 0.00332298
0.199483 0.0029325
0.199592 0.00304101
0.199593 0.00304021
0.201257 0.00470417
0.201302 0.00465912
0.201466 0.00482366
0.202965 0.0033244
0.204649 0.0050079
0.206039 0.00361771
0.2069 0.00447864
0.207203 0.00417554
0.207274 0.00424658
0.211521 0
inf 0


"layer 36:"
-inf 0
0.15817 0
0.158303 0.000133543
0.158359 7.73286e-05
0.158719 0.000437054
0.158916 0.000240332
0.159431 0.000755869
0.159967 0.000220354
0.16038 0.000634076
0.160696 0.000318854
0.160705 0.000327988
0.160921 0.000111698
0.161079 0.000269474
0.161266 8.21579e-05
0.161519 0.000335047
0.161526 0.000328402
0.161697 0.000499419
0.162196 0
0.164075 0
0.164189 0.000113831
0.164303 0
0.164542 0
0.164949 0.000407531
0.165253 0.000104119
0.165911 0.000762144
0.166496 0.000177201
0.167941 0.00162235
0.168075 0.00148832
0.169203 0.00261661
0.169417 0.00240249
0.17046 0.00344477
0.171362 0.00254278
0.171954 0.00313501
0.172132 0.00295683
0.172142 0.00296678
0.172508 0.00260106
0.172508 0.00260114
0.173472 0.00163701
0.173733 0.00189835
0.174591 0.00104024
0.174757 0.00120651
0.175964 0
0.177319 0
0.178188 0.000868507
0.178315 0.000741187
0.178787 0.00121364
0.178949 0.00105166
0.180235 0.00233722
0.181261 0.00131129
0.182305 0.00235582
0.182665 0.00199635
0.183592 0.00292331
0.184497 0.0020183
0.187158 0.00467926
0.187719 0.00411845
0.188013 0.00441259
0.18939 0.00303499
0.189406 0.0030506
0.18982 0.00263647
0.190114 0.00293078
0.191269 0.00177651
0.192214 0.00272214
0.194717 0.000219225
0.195111 0.000613362
0.195325 0.000399439
0.195821 0.000895108
0.196243 0.000473047
0.197387 0.00161689
0.197777 0.00122641
0.199483 0.0029325
0.199484 0.0029317
0.199593 0.00304021
0.199638 0.00299516
0.201302 0.00465912
0.202801 0.00315986
0.202965 0.0033244
0.204356 0.00193421
0.206039 0.00361771
0.206342 0.00331462
0.207203 0.00417554
0.211379 0
inf 0


"layer 37:"
-inf 0
0.158282 0
0.158359 7.73286e-05
0.158437 0
0.158675 0
0.158916 0.000240332
0.159156 0
0.159746 0
0.159967 0.000220354
0.160187 0
0.160377 0
0.160696 0.000318854
0.160912 0.000102564
0.160921 0.000111698
0.161033 0
0.161184 0
0.161266 8.21579e-05
0.161273 7.55134e-05
0.161526 0.000328402
0.161854 0
0.165149 0
0.165253 0.000104119
0.165357 0
0.166318 0
0.166496 0.000177201
0.16663 4.3172e-05
0.168075 0.00148832
0.168289 0.0012742
0.169417 0.00240249
0.170319 0.0015005
0.171362 0.00254278
0.17154 0.0023646
0.172132 0.00295683
0.172498 0.00259111
0.172508 0.00260106
0.173472 0.00163694
0.173472 0.00163701
0.17433 0.000778899
0.174591 0.00104024
0.175631 0
0.177574 0
0.178315 0.000741187
0.178477 0.000579205
0.178949 0.00105166
0.179975 2.57342e-05
0.181261 0.00131129
0.18162 0.000951822
0.182665 0.00199635
0.18357 0.00109135
0.184497 0.0020183
0.185058 0.0014575
0.187719 0.00411845
0.189096 0.00274086
0.18939 0.00303499
0.189804 0.00262087
0.18982 0.00263647
0.190974 0.0014822
0.191269 0.00177651
0.193045 0
0.194498 0
0.194717 0.000219225
0.194931 5.30199e-06
0.195325 0.000399439
0.195725 0
0.19577 0
0.196243 0.000473047
0.196633 8.2568e-05
0.197777 0.00122641
0.197778 0.00122561
0.199484 0.0029317
0.199529 0.00288665
0.199638 0.00299516
0.201137 0.0014959
0.202801 0.00315986
0.204191 0.00176966
0.204356 0.00193421
0.204659 0.00163111
0.206342 0.00331462
0.206652 0.00300506
0.206691 0.00304465
0.206802 0.00293384
0.207041 0.00317217
0.210213 0
inf 0


"layer 38:"
-inf 0
0.160809 0
0.160912 0.000102564
0.161015 0
0.161197 0
0.161273 7.55134e-05
0.161348 0
0.166587 0
0.16663 4.3172e-05
0.166673 0
0.167015 0
0.168289 0.0012742
0.168734 0.000828705
0.169459 0.00155285
0.169915 0.00109636
0.170319 0.0015005
0.170497 0.00132233
0.17154 0.0023646
0.171905 0.00199888
0.172498 0.00259111
0.173462 0.00162699
0.173472 0.00163694
0.17433 0.000778828
0.17433 0.000778899
0.175109 0
0.177898 0
0.178477 0.000579205
0.179056 0
0.179949 0
0.179975 2.57342e-05
0.180001 0
0.180668 0
0.18162 0.000951822
0.182525 4.68154e-05
0.18357 0.00109135
0.184131 0.000530542
0.185058 0.0014575
0.186435 7.9904e-05
0.189096 0.00274086
0.18951 0.00232673
0.189804 0.00262087
0.190959 0.00146659
0.190974 0.0014822
0.192456 0
0.194926 0
0.194931 5.30199e-06
0.194936 0
0.196551 0
0.196633 8.2568e-05
0.196634 8.17682e-05
0.197778 0.00122561
0.197823 0.00118056
0.199529 0.00288665
0.201028 0.00138739
0.201137 0.0014959
0.201961 0.000671654
0.203283 0.00199395
0.203849 0.001428
0.204191 0.00176966
0.204494 0.00146657
0.204659 0.00163111
0.204968 0.00132155
0.206652 0.00300506
0.206763 0.00289425
0.206802 0.00293384
0.209736 0
inf 0


"layer 39:"
-inf 0
0.167906 0
0.168734 0.000828705
0.169191 0.000372212
0.169915 0.00109636
0.170093 0.000918189
0.170497 0.00132233
0.170863 0.000956611
0.171905 0.00199888
0.17287 0.00103476
0.173462 0.00162699
0.17432 0.000768878
0.17433 0.000778828
0.175109 0
0.182478 0
0.182525 4.68154e-05
0.182572 0
0.1836 0
0.184131 0.000530542
0.184661 0
0.186355 0
0.186435 7.9904e-05
0.186515 0
0.187183 0
0.18951 0.00232673
0.190665 0.00117245
0.190959 0.00146659
0.192425 0
0.196552 0
0.196634 8.17682e-05
0.196679 3.67197e-05
0.197823 0.00118056
0.199004 0
0.199641 0
0.201028 0.00138739
0.201853 0.000563143
0.201961 0.000671654
0.202527 0.000105705
0.203849 0.001428
0.204153 0.00112491
0.204494 0.00146657
0.204804 0.00115701
0.204968 0.00132155
0.205079 0.00121075
0.206763 0.00289425
0.209657 0
inf 0


"layer 40:"
-inf 0
0.168819 0
0.169191 0.000372212
0.169369 0.00019404
0.170093 0.000918189
0.170459 0.000552469
0.170863 0.000956611
0.17182 0
0.171835 0
0.17287 0.00103476
0.173728 0.000176647
0.17432 0.000768878
0.175089 0
0.189492 0
0.190665 0.00117245
0.191837 0
0.196643 0
0.196679 3.67197e-05
0.196716 0
0.20129 0
0.201853 0.000563143
0.202416 0
0.202421 0
0.202527 0.000105705
0.202633 0
0.203028 0
0.204153 0.00112491
0.204462 0.000815345
0.204804 0.00115701
0.204915 0.0010462
0.205079 0.00121075
0.20629 0
inf 0


"layer 41:"
-inf 0
0.169175 0
0.169369 0.00019404
0.169563 0
0.169907 0
0.170459 0.000552469
0.171011 0
0.173551 0
0.173728 0.000176647
0.173904 0
0.203647 0
0.204462 0.000815345
0.204573 0.000704535
0.204915 0.0010462
0.205961 0
inf 0


"layer 42:"
-inf 0
0.203868 0
0.204573 0.000704535
0.205277 0
inf 0


