# Persistence diagram </home/jens/Uni/data_topology/Project/Graph_Data/Synthetic_Degree_Sequence_Trees/dst_79.gml>
#
# Dimension   : 0
# Entries     : 29
# Betti number: 1
1	inf
1	12
1	3
1	3
1	3
1	3
1	3
1	4
1	4
1	4
1	4
1	4
1	4
1	5
1	5
1	5
1	5
1	5
1	5
1	12
1	12
1	12
1	12
1	12
1	12
1	12
1	12
1	12
1	12
