0.0385361	0.0405597
0.0590986	0.0659348
0.0885361	0.0909714
0.0901472	0.0974618
0.100694	0.120128
0.110335	0.134537
0.112104	0.121098
0.113592	0.137113
0.122573	0.206405
0.129951	0.159831
0.133027	0.151298
0.133176	0.138169
0.13611	0.143002
0.137128	0.141627
0.138408	0.157644
0.141501	0.146659
0.141955	0.235367
0.142417	0.219243
0.142882	0.178001
0.143172	0.230478
0.143344	0.18622
0.144391	0.170409
0.14565	0.361266
0.14597	0.182897
0.148558	0.200156
0.14862	0.285522
0.149475	0.176967
0.149901	0.262087
0.150516	0.176943
0.151633	0.236583
0.151702	0.286772
0.15292	0.169464
0.153198	0.184549
0.153297	0.159752
0.154846	0.170778
0.15503	0.156679
0.157979	0.163293
0.162564	0.184556
0.162729	0.284024
0.163296	0.241248
0.163735	0.196119
0.163799	0.220361
0.164446	0.205237
0.165348	0.201956
0.165656	0.220819
0.166214	0.263644
0.16632	0.190055
0.167611	0.197943
0.169916	0.261352
0.171198	0.188926
0.172886	0.211452
0.175079	0.334187
0.17615	0.177586
0.177019	0.209271
0.180681	0.27844
0.180701	0.265369
0.180822	0.237881
0.181902	0.258148
0.182129	0.188345
0.183405	0.201948
0.1842	0.232083
0.184366	0.225783
0.185249	0.215714
0.187281	0.25333
0.188221	0.220998
0.191639	0.211922
0.192306	0.247381
0.194392	0.32776
0.196677	0.313862
0.198188	0.207801
0.198372	0.241601
0.199011	0.212769
0.200609	0.223913
0.20184	0.207114
0.205796	0.24997
0.211954	0.221099
0.213924	0.270533
0.215358	0.234487
0.215673	0.236008
0.219954	0.222645
0.220113	0.263563
0.223621	0.22427
0.230374	0.291167
0.244642	0.296549
0.244837	0.248871
0.246662	0.270714
0.254401	0.272584
0.259959	0.274126
0.288192	0.307179
