0.0743509	0.0749437
0.086066	0.0911777
0.104788	0.154703
0.111053	0.119114
0.112535	0.116452
0.112563	0.119809
0.119721	0.158043
0.124611	0.142482
0.126539	0.134842
0.132532	0.150869
0.13264	0.155049
0.133265	0.267623
0.134319	0.200829
0.13488	0.211277
0.136007	0.190015
0.138634	0.202964
0.140094	0.159768
0.143475	0.245387
0.145083	0.214143
0.147001	0.153171
0.147532	0.157808
0.148277	0.191739
0.150168	0.161619
0.151557	0.18082
0.154101	0.219563
0.154177	0.177774
0.154679	0.314297
0.156494	0.17895
0.15717	0.301196
0.158112	0.210181
0.161177	0.169164
0.161387	0.195422
0.162842	0.211122
0.165188	0.294114
0.165688	0.214097
0.165802	0.234094
0.166686	0.268923
0.168302	0.208563
0.168652	0.277953
0.171963	0.180685
0.173243	0.311187
0.174724	0.18486
0.177297	0.266811
0.177334	0.277023
0.177728	0.221
0.178076	0.182153
0.17963	0.221611
0.180502	0.185973
0.18083	0.310218
0.181913	0.291027
0.182436	0.238653
0.183622	0.22468
0.184399	0.195821
0.188015	0.19219
0.18926	0.202153
0.189265	0.190253
0.189993	0.259111
0.191141	0.275154
0.193023	0.213519
0.193388	0.212474
0.193533	0.240149
0.19363	0.287843
0.193711	0.21428
0.194267	0.222148
0.19801	0.242131
0.201201	0.269673
0.201655	0.30799
0.204438	0.262955
0.206317	0.233685
0.207748	0.211713
0.208867	0.24793
0.212141	0.317548
0.21427	0.233135
0.215044	0.220786
0.216563	0.304754
0.21898	0.246305
0.221049	0.230657
0.229354	0.23101
0.229547	0.235589
0.233986	0.287681
0.246972	0.265583
0.259993	0.270997
0.262377	0.271858
0.271698	0.27533
