0.0886563	0.0917235
0.0938403	0.11962
0.102561	0.107114
0.109538	0.114026
0.11357	0.132526
0.122563	0.197036
0.124336	0.143358
0.126686	0.127381
0.129409	0.144937
0.129841	0.141602
0.137144	0.157487
0.139978	0.178314
0.141372	0.173237
0.141885	0.188635
0.144488	0.218166
0.145242	0.179181
0.15323	0.349509
0.153259	0.345512
0.154518	0.165948
0.15542	0.17999
0.156475	0.200287
0.157054	0.335838
0.15917	0.217117
0.163138	0.17127
0.163474	0.292232
0.166231	0.335584
0.16826	0.278344
0.169132	0.26096
0.169555	0.196482
0.170477	0.173885
0.170809	0.21151
0.172058	0.213013
0.173045	0.215317
0.17313	0.255509
0.173177	0.245844
0.173285	0.251709
0.174798	0.215549
0.175293	0.277232
0.177251	0.228413
0.177839	0.211674
0.178336	0.201974
0.179442	0.236231
0.180553	0.237569
0.184496	0.204675
0.185774	0.276539
0.186008	0.242544
0.186458	0.194076
0.187095	0.200931
0.188601	0.26878
0.191837	0.337012
0.191895	0.273759
0.192219	0.286416
0.19569	0.233033
0.196455	0.202627
0.197197	0.214417
0.198128	0.313223
0.200037	0.230513
0.201399	0.217816
0.205331	0.230084
0.205938	0.221542
0.206266	0.212928
0.207001	0.2373
0.209356	0.223435
0.209787	0.22841
0.212317	0.251364
0.215768	0.227779
0.220055	0.242724
0.221765	0.234116
0.225423	0.225699
0.23044	0.252253
0.23602	0.275665
0.237544	0.259974
0.249907	0.265466
0.250592	0.290541
0.27375	0.325689
0.288102	0.296865
