0.0679977	0.0963972
0.1005	0.101259
0.100791	0.104144
0.101785	0.114786
0.106247	0.116757
0.108132	0.125266
0.108813	0.201025
0.110212	0.120971
0.111642	0.118555
0.117115	0.128817
0.119858	0.122568
0.119951	0.130235
0.121486	0.128296
0.122943	0.131061
0.126762	0.140661
0.129345	0.157511
0.135946	0.207116
0.136177	0.155832
0.136582	0.201242
0.13751	0.150195
0.141607	0.152388
0.143442	0.214987
0.146289	0.149849
0.147536	0.236701
0.147762	0.153878
0.148481	0.151267
0.148844	0.183503
0.1506	0.174742
0.154205	0.159219
0.159195	0.192861
0.160262	0.175343
0.161429	0.169569
0.164519	0.369536
0.165958	0.351395
0.167567	0.338942
0.167671	0.183437
0.169266	0.247554
0.169599	0.181785
0.171162	0.268602
0.172008	0.211405
0.173476	0.197818
0.176705	0.28956
0.177042	0.296232
0.180166	0.219043
0.180801	0.253125
0.182354	0.247837
0.18618	0.258313
0.187834	0.21737
0.187882	0.322376
0.190193	0.245979
0.190716	0.202607
0.193474	0.252589
0.19374	0.219636
0.195301	0.216639
0.196408	0.284782
0.197199	0.222499
0.197478	0.232793
0.198252	0.335252
0.201283	0.312895
0.204123	0.217486
0.205145	0.248955
0.205767	0.24265
0.20716	0.232891
0.211863	0.260058
0.212944	0.243017
0.214054	0.220056
0.217984	0.282705
0.218677	0.218917
0.22019	0.250408
0.220738	0.230652
0.221297	0.244699
0.222485	0.2596
0.223249	0.234935
0.223466	0.324219
0.223712	0.224291
0.224894	0.282112
0.226044	0.252997
0.230625	0.277309
0.245908	0.254417
0.246158	0.25
0.252116	0.263036
0.269891	0.270516
