0.0806888	0.0830643
0.0835219	0.0879773
0.109111	0.166438
0.117645	0.147999
0.11772	0.122994
0.123047	0.12797
0.123772	0.125586
0.124942	0.147624
0.125848	0.140828
0.128756	0.13518
0.133656	0.152245
0.134339	0.193733
0.134925	0.141047
0.135941	0.158442
0.136719	0.154415
0.137233	0.186565
0.137428	0.201541
0.137617	0.222272
0.139909	0.163993
0.139978	0.157174
0.141124	0.185709
0.144417	0.162997
0.148003	0.153293
0.15019	0.257061
0.150354	0.158164
0.150817	0.206136
0.150946	0.186527
0.152169	0.264102
0.152453	0.176315
0.154215	0.183473
0.15632	0.160279
0.156657	0.271728
0.157421	0.168985
0.157989	0.158957
0.159609	0.175109
0.160832	0.179626
0.162275	0.24273
0.163838	0.317638
0.165738	0.189519
0.166238	0.277369
0.166558	0.273007
0.167065	0.236104
0.167789	0.313347
0.168001	0.276962
0.168581	0.224937
0.170673	0.176723
0.171364	0.266399
0.173189	0.176591
0.174949	0.20884
0.175112	0.251531
0.177148	0.182735
0.179557	0.314804
0.179752	0.304583
0.183169	0.267938
0.183254	0.220803
0.183577	0.255575
0.18975	0.269106
0.191258	0.268814
0.193157	0.193797
0.193826	0.209612
0.197563	0.312918
0.198625	0.212409
0.202552	0.215873
0.208197	0.248446
0.209562	0.220801
0.210145	0.224485
0.211605	0.296802
0.212386	0.28513
0.214482	0.222145
0.216949	0.269392
0.217413	0.218647
0.219704	0.253588
0.220723	0.253259
0.221235	0.272023
0.225994	0.227369
0.227649	0.234521
0.233414	0.237876
0.235787	0.274571
0.23711	0.243149
0.239902	0.306233
0.24213	0.256332
0.245925	0.268558
0.251685	0.284239
