0.0867901	0.115079
0.096338	0.0998305
0.096697	0.0971486
0.0992238	0.109429
0.106589	0.111195
0.106871	0.107386
0.107834	0.115317
0.115355	0.115622
0.121539	0.134679
0.123253	0.204592
0.124265	0.128713
0.12977	0.135198
0.131217	0.135533
0.131317	0.132469
0.131744	0.26014
0.131932	0.134886
0.132775	0.139708
0.13545	0.141784
0.137647	0.263398
0.140054	0.19984
0.141261	0.269477
0.141325	0.182402
0.143281	0.143438
0.145451	0.194212
0.145846	0.185171
0.14822	0.148322
0.149659	0.213887
0.15033	0.156487
0.15051	0.161815
0.150975	0.178521
0.151179	0.172331
0.151791	0.17291
0.152676	0.166836
0.15371	0.176
0.153967	0.282262
0.15529	0.206336
0.155467	0.331538
0.156093	0.167608
0.158312	0.182478
0.15964	0.191017
0.16036	0.265295
0.160688	0.164573
0.16127	0.186473
0.161905	0.22243
0.167135	0.173889
0.167597	0.221668
0.172409	0.234972
0.172842	0.181407
0.173025	0.297983
0.174345	0.202315
0.175348	0.192449
0.176646	0.176705
0.17809	0.202592
0.178219	0.222994
0.180117	0.265009
0.181312	0.285242
0.182143	0.283592
0.182814	0.309266
0.182891	0.189851
0.183014	0.304766
0.183804	0.274442
0.183993	0.240013
0.184159	0.196039
0.185698	0.207188
0.185823	0.239742
0.192454	0.214642
0.196325	0.198256
0.197627	0.206993
0.198986	0.348546
0.19996	0.233016
0.204736	0.245832
0.204848	0.332017
0.205723	0.299848
0.207963	0.241095
0.216572	0.220293
0.216975	0.233472
0.217271	0.219357
0.21816	0.218659
0.221552	0.246271
0.221627	0.274392
0.227524	0.317192
0.227652	0.266239
0.242736	0.254688
0.245201	0.27353
0.248396	0.250457
0.254259	0.281027
0.25749	0.267145
0.257879	0.279319
0.262531	0.286551
0.281079	0.293942
0.289109	0.306121
