0.0624867	0.0791318
0.0756341	0.0762666
0.0801905	0.0824447
0.109812	0.204566
0.109822	0.120334
0.111592	0.1183
0.111803	0.13428
0.117381	0.148795
0.117539	0.128246
0.118376	0.148115
0.120253	0.182412
0.120676	0.126669
0.120969	0.156987
0.12486	0.148494
0.133327	0.133831
0.134705	0.171496
0.13702	0.165659
0.141199	0.14667
0.143637	0.155727
0.143837	0.203291
0.147947	0.170712
0.14857	0.206751
0.149405	0.192059
0.152731	0.171493
0.153762	0.162005
0.155943	0.218974
0.156048	0.23055
0.158584	0.297005
0.161014	0.163224
0.161355	0.280171
0.161595	0.185983
0.162118	0.162332
0.16343	0.228339
0.164508	0.182326
0.166302	0.199278
0.166541	0.246011
0.166561	0.234356
0.16689	0.212479
0.169681	0.172123
0.169936	0.18926
0.171177	0.273872
0.174865	0.218509
0.177971	0.19574
0.178199	0.403351
0.178637	0.210003
0.178984	0.369488
0.180988	0.226915
0.181244	0.255341
0.181796	0.333399
0.181798	0.205714
0.182619	0.260892
0.182898	0.274087
0.18629	0.278503
0.186431	0.212852
0.186747	0.288941
0.186972	0.187956
0.188993	0.297715
0.189554	0.192175
0.189595	0.197694
0.196162	0.221549
0.197682	0.217116
0.201354	0.230911
0.202434	0.231754
0.20284	0.213712
0.203234	0.206682
0.203386	0.266774
0.204065	0.209462
0.205159	0.272764
0.206145	0.253423
0.208843	0.210741
0.210033	0.237088
0.21028	0.219909
0.213534	0.224269
0.213684	0.248266
0.214215	0.247391
0.21575	0.226993
0.222354	0.265352
0.2234	0.260417
0.224717	0.225913
0.232716	0.235194
0.236182	0.237361
0.238628	0.319342
0.264778	0.384897
0.273591	0.304747
0.292436	0.293777
