# Persistence diagram </home/jens/Uni/data_topology/Project/Graph_Data/Synthetic_Small_Barabasi_Albert/sba_19.gml>
#
# Dimension   : 0
# Entries     : 46
# Betti number: 1
1	inf
3	30
3	7
3	8
3	7
3	7
3	6
3	6
3	7
3	8
3	21
3	6
3	8
3	19
3	6
3	8
3	5
3	19
3	8
3	6
3	6
3	9
3	8
3	12
3	6
3	7
3	8
3	10
3	5
3	7
3	5
3	6
3	6
3	5
3	5
3	5
3	5
3	5
3	5
3	5
3	7
3	7
4	7
4	7
4	6
4	5


