# Persistence diagram </home/jens/Uni/data_topology/Project/Graph_Data/Synthetic_Small_Barabasi_Albert/sba_5.gml>
#
# Dimension   : 0
# Entries     : 41
# Betti number: 1
3	inf
3	20
3	10
3	9
3	8
3	8
3	8
3	6
3	5
3	9
3	8
3	6
3	7
3	5
3	5
3	7
3	11
3	12
3	5
3	5
3	7
3	11
3	5
3	7
3	8
3	5
3	8
3	8
3	12
3	5
3	5
3	9
3	8
3	7
3	5
3	5
3	11
3	5
3	8
4	5
4	5


