# Persistence diagram </home/jens/Uni/data_topology/Project/Graph_Data/Synthetic_Small_Barabasi_Albert/sba_43.gml>
#
# Dimension   : 1
# Entries     : 192
# Betti number: 192
6	inf
6	inf
6	inf
8	inf
8	inf
9	inf
9	inf
9	inf
9	inf
9	inf
9	inf
9	inf
9	inf
9	inf
9	inf
9	inf
9	inf
9	inf
9	inf
9	inf
9	inf
9	inf
9	inf
9	inf
9	inf
9	inf
10	inf
10	inf
10	inf
10	inf
10	inf
10	inf
10	inf
10	inf
10	inf
10	inf
10	inf
10	inf
10	inf
10	inf
10	inf
10	inf
10	inf
10	inf
10	inf
10	inf
11	inf
11	inf
11	inf
11	inf
11	inf
11	inf
12	inf
12	inf
12	inf
12	inf
12	inf
12	inf
12	inf
14	inf
14	inf
14	inf
14	inf
14	inf
14	inf
14	inf
14	inf
14	inf
15	inf
15	inf
15	inf
15	inf
15	inf
15	inf
15	inf
15	inf
15	inf
15	inf
15	inf
15	inf
18	inf
18	inf
18	inf
18	inf
18	inf
18	inf
18	inf
18	inf
18	inf
18	inf
18	inf
18	inf
18	inf
19	inf
19	inf
19	inf
19	inf
19	inf
19	inf
19	inf
19	inf
19	inf
19	inf
19	inf
19	inf
19	inf
19	inf
19	inf
19	inf
21	inf
21	inf
21	inf
21	inf
21	inf
21	inf
21	inf
21	inf
21	inf
21	inf
21	inf
21	inf
21	inf
21	inf
21	inf
21	inf
21	inf
21	inf
22	inf
22	inf
22	inf
22	inf
22	inf
22	inf
22	inf
22	inf
22	inf
22	inf
22	inf
22	inf
22	inf
22	inf
22	inf
22	inf
22	inf
22	inf
22	inf
22	inf
23	inf
23	inf
23	inf
23	inf
23	inf
23	inf
23	inf
23	inf
23	inf
23	inf
23	inf
23	inf
23	inf
23	inf
23	inf
23	inf
23	inf
23	inf
23	inf
23	inf
23	inf
25	inf
25	inf
25	inf
25	inf
25	inf
25	inf
25	inf
25	inf
25	inf
25	inf
25	inf
25	inf
25	inf
25	inf
25	inf
25	inf
25	inf
25	inf
25	inf
25	inf
25	inf
25	inf
25	inf
25	inf
