# Persistence diagram </home/jens/Uni/data_topology/Project/Graph_Data/Synthetic_Small_Barabasi_Albert/sba_16.gml>
#
# Dimension   : 0
# Entries     : 45
# Betti number: 1
3	inf
3	8
3	8
3	6
3	6
3	13
3	8
3	8
3	8
3	6
3	8
3	9
3	6
3	7
3	7
3	17
3	8
3	6
3	6
3	6
3	8
3	6
3	6
3	5
3	6
3	8
3	10
3	6
3	5
3	5
3	6
3	8
3	6
3	9
3	8
3	6
3	6
3	6
3	5
3	6
3	6
4	7
4	5
4	5
5	8


