# Persistence diagram </home/jens/Uni/data_topology/Project/Graph_Data/Synthetic_Small_Barabasi_Albert/sba_50.gml>
#
# Dimension   : 0
# Entries     : 36
# Betti number: 1
3	inf
3	10
3	6
3	10
3	6
3	6
3	7
3	10
3	6
3	6
3	5
3	10
3	6
3	7
3	6
3	7
3	7
3	5
3	9
3	7
3	5
3	6
3	6
3	5
3	6
3	10
3	6
3	12
3	11
3	6
3	5
3	6
3	5
3	5
4	7
4	6


