# Persistence diagram </home/jens/Uni/data_topology/Project/Graph_Data/Synthetic_Small_Barabasi_Albert/sba_11.gml>
#
# Dimension   : 0
# Entries     : 43
# Betti number: 1
3	inf
3	8
3	7
3	7
3	8
3	7
3	8
3	7
3	6
3	7
3	8
3	8
3	7
3	6
3	8
3	6
3	8
3	6
3	8
3	6
3	7
3	7
3	7
3	7
3	7
3	5
3	7
3	6
3	6
3	6
3	5
3	6
3	5
3	6
3	6
3	6
3	8
3	6
3	6
3	6
3	5
3	5
4	6


