# Persistence diagram </home/jens/Uni/data_topology/Project/Graph_Data/Synthetic_Small_Barabasi_Albert/sba_44.gml>
#
# Dimension   : 1
# Entries     : 192
# Betti number: 192
6	inf
6	inf
7	inf
7	inf
7	inf
7	inf
7	inf
7	inf
7	inf
7	inf
7	inf
7	inf
8	inf
8	inf
8	inf
8	inf
8	inf
8	inf
8	inf
8	inf
8	inf
8	inf
8	inf
8	inf
8	inf
8	inf
8	inf
8	inf
8	inf
9	inf
9	inf
9	inf
9	inf
9	inf
9	inf
9	inf
9	inf
9	inf
9	inf
9	inf
9	inf
9	inf
10	inf
10	inf
10	inf
10	inf
10	inf
11	inf
11	inf
11	inf
11	inf
11	inf
11	inf
11	inf
11	inf
11	inf
11	inf
11	inf
11	inf
11	inf
11	inf
11	inf
11	inf
11	inf
11	inf
11	inf
11	inf
11	inf
11	inf
11	inf
11	inf
11	inf
11	inf
11	inf
11	inf
11	inf
11	inf
11	inf
11	inf
11	inf
11	inf
11	inf
11	inf
11	inf
11	inf
11	inf
11	inf
11	inf
12	inf
12	inf
12	inf
12	inf
12	inf
12	inf
12	inf
12	inf
12	inf
15	inf
15	inf
15	inf
15	inf
15	inf
15	inf
15	inf
15	inf
15	inf
15	inf
15	inf
15	inf
18	inf
18	inf
18	inf
18	inf
18	inf
18	inf
18	inf
18	inf
18	inf
18	inf
18	inf
18	inf
18	inf
18	inf
18	inf
19	inf
19	inf
19	inf
19	inf
19	inf
19	inf
19	inf
19	inf
19	inf
19	inf
19	inf
19	inf
19	inf
19	inf
19	inf
19	inf
23	inf
23	inf
23	inf
23	inf
23	inf
23	inf
23	inf
23	inf
23	inf
23	inf
23	inf
23	inf
23	inf
23	inf
23	inf
23	inf
23	inf
23	inf
23	inf
23	inf
23	inf
32	inf
32	inf
32	inf
32	inf
32	inf
32	inf
32	inf
32	inf
32	inf
32	inf
32	inf
32	inf
32	inf
32	inf
32	inf
32	inf
32	inf
32	inf
32	inf
32	inf
32	inf
32	inf
32	inf
32	inf
32	inf
32	inf
32	inf
32	inf
32	inf
32	inf
32	inf
