# Persistence diagram </home/jens/Uni/data_topology/Project/Graph_Data/Synthetic_Small_Barabasi_Albert/sba_41.gml>
#
# Dimension   : 1
# Entries     : 192
# Betti number: 192
6	inf
6	inf
7	inf
7	inf
7	inf
7	inf
7	inf
7	inf
7	inf
7	inf
7	inf
7	inf
7	inf
7	inf
7	inf
7	inf
7	inf
7	inf
7	inf
7	inf
7	inf
7	inf
7	inf
7	inf
7	inf
7	inf
7	inf
7	inf
8	inf
8	inf
8	inf
8	inf
8	inf
8	inf
8	inf
8	inf
8	inf
8	inf
8	inf
8	inf
8	inf
8	inf
8	inf
8	inf
8	inf
8	inf
8	inf
9	inf
9	inf
9	inf
9	inf
9	inf
9	inf
9	inf
9	inf
9	inf
10	inf
10	inf
10	inf
10	inf
10	inf
10	inf
10	inf
10	inf
10	inf
10	inf
10	inf
10	inf
11	inf
11	inf
11	inf
11	inf
11	inf
11	inf
13	inf
13	inf
13	inf
13	inf
13	inf
13	inf
13	inf
13	inf
13	inf
14	inf
14	inf
14	inf
14	inf
14	inf
14	inf
14	inf
14	inf
14	inf
14	inf
14	inf
15	inf
15	inf
15	inf
15	inf
15	inf
15	inf
15	inf
15	inf
15	inf
15	inf
15	inf
15	inf
15	inf
15	inf
15	inf
15	inf
15	inf
15	inf
15	inf
15	inf
15	inf
15	inf
15	inf
15	inf
15	inf
19	inf
19	inf
19	inf
19	inf
19	inf
19	inf
19	inf
19	inf
19	inf
19	inf
19	inf
19	inf
19	inf
19	inf
19	inf
19	inf
26	inf
26	inf
26	inf
26	inf
26	inf
26	inf
26	inf
26	inf
26	inf
26	inf
26	inf
26	inf
26	inf
26	inf
26	inf
26	inf
26	inf
26	inf
26	inf
26	inf
26	inf
26	inf
26	inf
26	inf
34	inf
34	inf
34	inf
34	inf
34	inf
34	inf
34	inf
34	inf
34	inf
34	inf
34	inf
34	inf
34	inf
34	inf
34	inf
34	inf
34	inf
34	inf
34	inf
34	inf
34	inf
34	inf
34	inf
34	inf
34	inf
34	inf
34	inf
34	inf
34	inf
34	inf
34	inf
34	inf
34	inf
