0.0916254	-0.527614	0.247465
0.239249	-0.148232	-0.121386
-0.673416	0.0812754	-0.175237
0.323863	-0.548637	0.209058
0.736765	-0.083288	-0.064792
-0.300421	-0.0108338	-0.150818
0.268567	-0.0736017	0.115863
0.256633	-0.661818	0.135904
0.360426	-0.31226	0.248929
0.112981	0.368503	-0.222204
-0.323349	-0.400491	-0.249566
-0.0472618	0.680874	-0.170849
0.585938	0.468111	-0.00406362
-0.0711484	0.699057	-0.146374
0.711952	-0.0269299	-0.131759
0.264946	0.0874446	0.116879
0.0142483	0.294499	-0.142866
-0.0775358	0.346816	-0.203922
-0.391754	0.202681	0.242958
-0.242107	0.152464	0.129432
-0.674845	0.313211	0.0544999
-0.269539	0.520021	0.234843
-0.352406	0.582992	-0.172212
-0.680236	0.0569674	-0.170736
-0.211895	0.132834	0.00663984
-0.194438	-0.270707	0.186308
0.329885	0.0652667	-0.188932
-0.354317	-0.111923	-0.214492
0.297961	-0.370972	-0.248828
0.200463	-0.717367	0.0504844
-0.0297061	0.530476	-0.248032
-0.279831	-0.684884	0.0705276
0.00876406	-0.73919	-0.0725493
0.399579	-0.516454	0.197727
0.458163	-0.123882	-0.248708
0.58599	-0.362042	0.163863
-0.320639	-0.640359	0.125617
0.172875	0.518202	-0.245679
0.309372	0.366641	-0.249177
-0.55603	-0.0342404	-0.243396
0.0918208	-0.591601	-0.229699
-0.351903	0.0420757	0.203233
0.714625	-0.206766	-0.0547287
0.589045	-0.155318	0.2249
0.294931	-0.0914415	-0.161045
0.363007	0.360608	-0.249727
0.421584	-0.12554	-0.242663
0.245686	-0.237123	-0.193293
0.210991	0.712276	-0.0592864
0.400582	-0.155051	-0.239866
-0.537274	-0.0932032	0.245862
-0.0974988	0.653638	0.191366
0.450701	-0.00762994	0.245104
-0.250458	0.687159	-0.0946744
-0.687634	0.169378	0.138412
0.10457	0.69076	-0.151809
0.165657	-0.584192	0.225838
0.271953	-0.106012	-0.138522
0.137946	-0.214813	0.0511663
0.0360509	-0.5118	-0.249658
-0.710181	0.0101432	0.135254
0.0963787	0.733328	-0.0712406
-0.219095	0.124311	0.0307991
0.481938	0.398048	0.216469
0.0128102	0.672344	-0.180985
0.143395	0.401059	0.238773
0.0167087	-0.725307	0.107935
0.248296	-0.44138	-0.249917
-0.741031	-0.0311318	0.06394
0.279355	-0.492855	-0.240988
0.0132325	0.646448	0.202517
0.723175	-0.075422	0.104531
0.0973475	-0.730271	-0.0803644
-0.530119	-0.235083	-0.236886
0.0409799	-0.686624	-0.164967
0.175454	0.191665	0.0694663
-0.0661812	0.352659	0.206317
-0.554475	-0.27941	0.218825
0.202517	0.60838	0.206306
-0.322247	0.355738	0.249198
0.453899	0.0377674	-0.246002
0.218516	-0.121716	-0.00801079
-0.54576	-0.302719	-0.217027
-0.365484	0.651767	0.0369954
-0.118543	0.587489	-0.22942
-0.140216	0.227046	-0.0902359
-0.505208	-0.540298	-0.0710179
-0.32682	-0.441804	-0.245041
0.11158	-0.226081	-0.0324643
0.434462	-0.269534	-0.249745
-0.0262231	-0.742697	-0.0580808
-0.33952	-0.10034	-0.202965
-0.322374	-0.0311973	0.177431
-0.051411	0.598218	-0.228944
-0.432576	-0.0292786	-0.241011
-0.671862	0.0811871	-0.176804
-0.067763	-0.730148	0.0898769
0.613789	0.429606	0.0200072
0.1485	-0.468123	-0.249842
-0.206201	0.397538	-0.244497
-0.0919412	-0.240399	-0.060299
0.325379	-0.269524	-0.237687
-0.217685	0.126972	0.0316322
0.0951562	0.733185	0.072243
-0.6467	0.160073	-0.186741
-0.427538	-0.567866	0.134373
-0.418988	-0.109852	-0.240896
-0.0982596	-0.717139	0.111337
0.0565158	0.455909	-0.246681
-0.526505	0.43876	-0.167755
-0.419434	0.0444481	-0.237449
-0.499751	0.559215	-0.00303599
0.403194	-0.348057	0.24786
-0.504845	-0.545585	0.0573854
0.236087	0.703153	-0.0637745
0.237605	-0.0925298	0.0496792
-0.481671	0.302755	-0.240313
0.21016	0.163548	-0.0887913
-0.245341	-0.487585	-0.245763
0.368858	0.207698	-0.237948
0.280563	0.621056	-0.171936
-0.309251	0.659384	-0.101873
0.302589	0.686058	0.00939677
0.099538	-0.717154	-0.110956
0.700962	0.149394	0.124655
0.361092	-0.63475	0.0973426
0.11906	0.739105	0.0261035
-0.0628852	0.704568	-0.139636
0.696893	-0.158218	0.128199
0.034186	-0.743063	0.0551142
0.126325	0.730217	-0.0662454
0.160811	0.714448	-0.0923381
-0.128985	0.716398	0.102731
0.17364	-0.533174	-0.24251
0.0460184	0.260335	0.0835414
0.463856	-0.292936	0.245228
0.541991	0.216959	0.235536
-0.182567	-0.725697	-0.0290261
0.159558	0.577988	-0.2293
0.443708	0.602849	0.0270283
0.673889	0.288155	0.0908422
0.268849	-0.480677	-0.244794
0.217664	0.657821	0.15903
0.463411	0.5239	0.150739
-0.392382	-0.381466	-0.245495
0.274485	-0.380955	-0.248138
0.476082	-0.558535	-0.0882542
-0.395148	-0.619111	0.0867508
0.0808443	-0.291893	0.153767
-0.703511	-0.258738	0.014454
0.0896535	-0.739035	0.0523696
0.713124	0.0458793	0.128249
0.314376	-0.534478	0.219273
0.724966	0.17542	0.0451586
0.272875	0.239211	-0.209042
0.37568	0.244986	0.244638
-0.499558	0.551439	0.0541169
0.548355	0.443219	0.142978
0.351096	0.432339	0.243429
0.473736	-0.124959	0.249797
-0.436694	-0.459932	0.210913
0.463679	-0.254995	0.248292
0.543922	-0.463521	-0.128187
-0.323753	0.4056	-0.249279
0.508817	0.11222	-0.249113
0.013583	0.266224	0.0895025
0.1484	-0.734467	0.0185755
0.410133	0.429568	0.231688
-0.711993	-0.0839514	0.124271
-0.244503	-0.321405	0.230765
-0.209258	0.138809	0.0235445
0.325086	0.188546	0.21697
-0.168518	0.556475	0.236366
0.190323	-0.244958	-0.16272
0.424551	0.595325	-0.0951106
-0.116082	-0.530984	0.246182
0.526768	0.0882432	0.247662
-0.114307	0.528313	-0.246692
-0.511561	-0.541636	-0.0496187
0.33192	-0.629775	0.132675
-0.231376	0.108292	-0.0519837
-0.114365	-0.627448	-0.208603
-0.516072	0.313186	0.227492
0.718761	-0.175565	-0.0703679
0.278357	-0.323353	-0.239001
-0.472281	0.273962	-0.245734
0.627852	0.0910646	-0.210786
-0.0761723	-0.240112	-0.0308043
-0.622672	-0.353486	-0.125852
-0.310567	-0.496395	-0.23491
0.416961	-0.398345	0.237957
0.467759	0.188087	0.249965
0.233922	-0.102367	0.0513937
-0.363453	0.0114604	0.209534
-0.685545	-0.0748944	0.162919
-0.258568	-0.135203	-0.138367
-0.0243188	-0.249263	-0.0149401
0.451391	-0.567113	-0.109333
0.230981	0.686428	0.110511
0.286052	0.468579	-0.245153
0.627243	0.230198	0.185001
0.0214619	-0.606381	-0.226058
-0.0662772	0.355836	0.208431
0.576833	0.479299	0.0034748
0.442177	0.250107	0.249872
-0.509586	-0.408456	-0.197652
-0.209085	-0.296714	-0.209108
-0.440124	-0.542608	-0.151764
0.213249	0.598323	0.210294
-0.25074	-0.18123	0.161751
-0.252825	0.130422	-0.126698
0.553386	0.338224	0.201071
-0.326627	-0.364615	-0.24978
0.217913	-0.317013	-0.221817
0.588417	-0.397619	0.13539
0.551728	-0.488363	0.0801045
0.124372	0.606072	-0.220023
-0.215477	0.155236	0.0868524
0.362302	0.416582	0.244513
0.239551	0.10236	0.0717053
-0.169624	0.184579	-0.0184598
0.127926	-0.738958	-0.00504678
0.123479	-0.221183	0.0405845
0.494646	0.309188	0.235704
-0.183594	0.20375	-0.10744
0.0649832	-0.615734	0.219778
-0.659529	-0.319115	0.0914451
-0.0334426	-0.673535	-0.179157
0.342257	0.610583	-0.150046
-0.359499	-0.647581	-0.0676394
0.456111	-0.457081	-0.203136
0.4336	-0.0113694	0.241062
0.330012	0.536729	-0.2135
-0.334504	-0.237329	-0.233294
-0.507151	-0.195081	-0.246208
-0.344268	-0.101366	-0.206362
0.425153	-0.275754	0.249909
-0.345763	-0.605112	-0.154007
0.0395325	-0.372403	0.216214
0.462563	0.146839	-0.249568
-0.381501	0.167217	-0.235657
-0.439286	-0.420002	0.225582
0.255731	-0.526464	0.235002
0.195089	-0.223642	0.1456
-0.0676178	0.242062	-0.0257421
-0.312784	-0.53994	-0.217084
0.174094	-0.226385	0.128555
-0.101484	0.373227	-0.222892
0.480271	0.338909	-0.234072
0.317816	0.0730564	0.179612
-0.735915	-0.0330721	-0.0805787
-0.535006	0.515885	0.0578461
-0.431801	-0.221054	-0.249555
0.385673	-0.416354	0.240706
