0.10698	0.476136	0.249712
-0.301996	0.587609	-0.191533
0.557054	-0.324772	-0.203786
0.169308	0.687514	0.138613
0.59217	0.35065	0.164561
0.100896	0.239668	0.0701379
-0.484154	-0.0981315	0.249928
0.298264	-0.102487	0.16857
0.346922	-0.465403	-0.236692
0.615571	0.42247	0.0411022
-0.460166	-0.078294	0.247783
-0.205649	-0.720488	0.019183
-0.422528	-0.273464	-0.249978
0.398768	-0.0840249	0.232268
0.504819	-0.370672	0.215756
-0.615802	-0.0106565	-0.221514
0.157107	-0.24494	-0.137174
0.264086	0.367472	0.24545
-0.105679	-0.231722	-0.0481591
-0.154102	0.713389	0.0983463
-0.192956	0.190854	0.101201
0.377253	0.0394331	-0.218937
-0.209715	-0.176078	-0.106527
-0.341762	-0.643445	0.101257
0.297094	0.128918	0.17741
-0.26681	0.270588	0.219321
-0.488411	0.419034	-0.20469
0.465502	-0.467063	-0.192572
0.698771	-0.262741	0.0414808
-0.735973	0.0989367	0.0604021
-0.350936	0.65778	0.0470119
0.102576	0.237981	-0.0670028
0.241136	0.456288	0.249482
0.331643	0.65207	-0.0942291
0.256219	-0.404271	-0.249085
-0.549223	-0.142623	0.240732
0.19693	-0.594974	0.215505
-0.523029	0.192835	-0.243311
0.543988	-0.492209	0.0890135
0.252531	0.681317	0.105579
0.210032	-0.346948	0.23148
-0.299006	0.144469	-0.185208
0.322453	-0.227469	0.226701
-0.153227	-0.20044	0.0338281
-0.174869	-0.620604	0.203818
0.196761	0.710385	0.0791762
0.449165	-0.397641	0.229177
0.610583	0.154767	-0.213607
-0.116068	-0.391385	-0.232548
-0.549137	0.0282026	-0.244977
0.288257	-0.108468	0.1601
0.373395	-0.138357	-0.228337
0.466768	0.116335	-0.249281
-0.539985	0.403818	0.179239
0.687524	-0.282436	-0.0575917
0.696562	-0.251515	-0.0679819
0.492403	0.564324	-0.0229134
-0.335821	0.620674	-0.142083
0.317187	-0.214404	0.220854
-0.16932	0.185866	0.0266655
0.268866	0.00604963	0.0954384
-0.31431	-0.257412	-0.231762
-0.380847	0.62449	0.094481
0.411119	0.16978	0.243829
-0.472406	-0.0807151	-0.249138
-0.545964	-0.382882	-0.186184
-0.133474	0.359281	0.221076
0.064925	0.745138	0.0318596
-0.61972	0.0148231	0.219373
-0.611234	0.428251	0.042691
-0.496138	-0.464693	-0.173728
-0.562445	0.0259255	-0.241921
-0.0106109	-0.368972	-0.213006
-0.536714	-0.461796	-0.138637
0.0902208	0.744139	0.0143494
-0.47952	0.00122032	0.24916
0.0695456	0.261419	-0.0991726
0.103784	0.554582	0.241614
0.584259	0.0867107	0.232983
0.411831	-0.180957	0.244915
0.630152	-0.289154	-0.158508
-0.40504	-0.555176	-0.165671
-0.0192887	-0.606973	-0.225812
-0.226607	0.708407	0.0554732
0.668635	0.157033	0.166118
-0.281891	-0.213052	0.202467
0.235325	-0.0890717	-0.0283979
0.318814	0.610654	0.163794
-0.208434	0.491786	-0.247659
0.304122	0.671397	-0.079376
-0.20698	0.170804	-0.0940256
-0.577405	0.465583	-0.0637683
0.106243	-0.673088	0.172006
-0.356671	0.0195821	0.205208
-0.195995	0.367939	-0.235779
-0.495545	0.442534	-0.188359
0.233914	0.689097	0.103177
0.578139	0.235618	0.216905
0.347376	-0.558989	0.193634
0.0122956	0.734006	0.0877093
0.653486	0.254851	0.148085
-0.304001	-0.240172	0.22322
-0.0332516	-0.482739	-0.24948
-0.586386	-0.429279	0.105337
0.338162	0.531665	0.213483
0.425001	-0.470943	0.210825
-0.558023	-0.407149	0.161579
-0.66729	-0.339538	0.0253964
-0.15607	0.420914	0.244725
0.341923	-0.0391408	-0.195481
0.125209	0.597012	0.224499
-0.129084	-0.239173	-0.102066
0.631878	-0.227674	0.181765
0.742933	-0.0299672	0.0564773
-0.0420104	0.718442	-0.119355
-0.400545	0.133902	-0.23763
0.13005	0.259546	-0.136118
0.570992	-0.369339	-0.173461
0.265268	0.540139	-0.228352
0.19148	-0.189893	0.0972098
0.440448	0.514989	-0.1759
-0.245194	-0.232302	0.190209
0.726541	0.168763	-0.0451783
0.025744	-0.536097	-0.247289
-0.18221	0.427004	0.247431
0.304405	-0.639187	0.138738
0.0157891	-0.31494	-0.16852
-0.199986	-0.513551	0.244718
-0.198927	-0.282699	0.196682
-0.335705	-0.506101	-0.225793
0.00240552	0.251001	-0.0224806
0.353077	0.414894	-0.245954
-0.72379	0.0822539	-0.101543
-0.619833	0.341072	-0.139475
0.293038	-0.0016874	-0.140245
-0.639751	-0.386362	0.03619
0.712263	0.167865	0.0936997
0.695598	0.266523	-0.0501887
0.438329	0.0440124	-0.242824
0.11083	0.559848	0.239791
-0.0832555	-0.247704	-0.0743789
0.0625348	0.743404	-0.0443792
-0.67996	0.17852	-0.145908
0.395328	0.636308	0.0210313
-0.387745	0.29454	0.249658
0.0214673	0.706101	-0.141025
-0.606297	-0.378128	-0.128335
-0.443845	0.135065	-0.247386
-0.530383	-0.436107	-0.166312
0.220524	-0.154488	-0.0962078
-0.240572	0.242707	0.193524
0.700125	-0.0122573	0.14969
0.182046	0.446331	0.249353
-0.266378	-0.508383	0.238815
-0.639009	-0.0747452	0.204808
0.539278	-0.198692	0.238574
0.673908	0.143742	-0.163565
-0.160855	0.333599	-0.213757
0.231994	0.681362	0.11916
-0.489279	0.027679	0.249802
0.205874	-0.680817	0.133671
-0.269304	-0.426075	-0.249967
0.363038	0.00547571	0.209171
-0.137538	0.320268	-0.198905
-0.394594	-0.212876	0.244607
0.657308	-0.13854	-0.181665
-0.240193	0.627654	-0.181387
-0.47033	0.0378152	-0.24841
0.490557	0.381017	0.218687
-0.305012	0.0945901	-0.172809
0.465304	0.348122	0.236474
0.745113	-0.06408	-0.0326161
0.0348298	-0.485326	-0.249639
0.696184	-0.277513	-0.0164767
0.185323	0.72089	-0.0529427
-0.193536	0.335124	0.223001
-0.352254	-0.0958462	0.210455
-0.221918	-0.37838	-0.242357
0.443288	-0.589403	-0.0780751
0.446015	0.596623	-0.050199
-0.43565	0.553724	-0.143723
-0.622648	0.0379787	-0.217192
-0.533775	-0.508429	0.079067
-0.529218	-0.50515	0.0941195
0.497371	0.540383	0.0868404
-0.578759	-0.443706	-0.0996717
-0.600329	-0.447561	0.0244404
0.00319343	0.413959	0.234732
-0.58031	-0.227642	-0.217444
-0.228016	-0.247069	-0.188869
-0.623042	0.0451463	0.216694
-0.256024	0.00293541	0.0546267
-0.656827	-0.274667	0.13259
-0.00332191	0.317327	-0.170695
-0.655974	0.293667	0.121105
0.0569878	0.550166	0.244294
0.664625	-0.298633	-0.101126
0.36811	-0.511166	-0.213592
0.143371	0.389968	-0.235282
0.261271	-0.67964	0.102259
0.0240895	0.335074	-0.188637
-0.0124358	-0.254656	-0.0495476
-0.0345311	-0.648317	0.200571
-0.124457	-0.703591	-0.12839
-0.70394	0.181492	-0.104829
0.317745	0.589284	-0.183774
-0.554996	0.373653	-0.184173
-0.285242	0.113812	0.159038
-0.242216	-0.708994	-0.0196443
0.254127	0.498603	-0.242784
0.0285075	0.616457	0.220871
-0.0305739	0.747162	0.0331874
0.144423	-0.213916	0.0631418
0.557779	0.376261	-0.180645
-0.25678	-0.112076	-0.119064
-0.438815	-0.3158	-0.246675
0.33135	-0.0389083	-0.186601
-0.135119	-0.501224	-0.249268
-0.326609	-0.270985	-0.238292
0.0502594	-0.631277	-0.211513
-0.417761	-0.37005	-0.243158
-0.121547	-0.422496	0.242602
0.113518	-0.352035	-0.213472
0.387324	-0.525037	-0.198143
0.265053	-0.156617	-0.159953
0.2144	0.401451	-0.245938
-0.487946	0.419246	-0.204841
0.724211	0.0517082	0.106768
-0.726255	-0.180349	0.0289981
0.321325	0.0713867	0.182519
0.586012	-0.0750575	-0.232928
-0.133613	-0.708523	0.11685
0.446745	0.386717	-0.232899
0.433169	0.132935	-0.245563
0.281441	0.316674	-0.238061
-0.371399	-0.599812	0.142391
0.123522	0.534058	0.245318
0.224117	0.409134	-0.247745
-0.342233	-0.073766	-0.200069
0.3952	-0.504509	0.206533
-0.0456751	-0.605396	0.225889
0.584501	0.250262	-0.209885
0.329643	0.43931	-0.245104
0.702379	-0.104972	-0.135367
0.131153	0.615464	0.213976
0.44644	0.31652	0.245492
-0.579911	-0.474915	-0.0148229
