-0.276221	-0.68605	0.0714609
0.368054	-0.221362	-0.239852
-0.50108	-0.516581	0.119338
0.594048	-0.327675	0.17511
0.192873	0.210663	0.128613
-0.515238	0.00602583	0.249533
0.461081	0.0247659	0.247056
-0.229287	0.442052	-0.249992
-0.347297	-0.650961	-0.07711
-0.0591353	0.746562	-0.0234263
-0.368893	0.0338821	0.213812
0.663058	-0.132572	0.17737
-0.0472656	-0.642122	0.204461
-0.241711	0.520902	-0.238719
-0.475238	0.476964	0.180177
-0.176526	0.544801	-0.2392
0.249117	-0.0269019	-0.01681
0.305394	-0.280647	-0.23502
0.488609	0.39983	0.212714
0.436133	-0.373277	0.238778
0.570484	0.485737	0.0192137
-0.277106	-0.324395	0.238994
0.683198	0.278454	0.0772527
-0.521816	0.370251	0.20724
0.232142	-0.384534	-0.244779
-0.0626428	0.59383	0.230362
0.53354	0.45281	0.150284
-0.133722	-0.230844	0.0900422
0.684686	0.01841	-0.168225
-0.389814	0.633293	0.0559897
0.66194	-0.239404	0.14465
-0.637182	-0.341458	-0.113193
-0.668111	-0.316884	-0.0718553
0.247969	0.445259	-0.249814
-0.611539	0.408869	0.0835322
-0.192593	0.2127	-0.130785
-0.0990341	-0.262354	0.119525
0.476782	-0.152225	0.25
0.469031	-0.375675	0.228719
-0.29368	-0.509437	0.23399
-0.0749608	-0.729952	-0.0885537
0.425938	-0.209648	-0.24872
-0.126956	0.233124	0.0865282
-0.508382	-0.23398	-0.242782
-0.239286	0.126174	-0.0991765
-0.28199	-0.440675	0.248923
0.285184	0.676959	-0.0864493
0.749032	-0.0143445	0.0203614
0.362861	0.517962	-0.21205
0.17545	-0.191148	0.0681249
0.444049	0.0504517	0.244297
0.0503646	0.59857	-0.228828
-0.362427	-0.613974	0.130944
0.506647	-0.174765	-0.247403
0.500344	0.551319	-0.0520989
-0.583349	0.239751	-0.213117
-0.171111	0.185051	-0.0318524
-0.00892355	0.308108	0.160397
-0.623134	-0.253841	-0.180615
-0.720347	0.208603	0.00532544
0.319768	0.137775	0.198626
-0.732162	0.0518039	-0.0880193
-0.263556	-0.0670252	0.102425
-0.326528	0.444573	0.244616
-0.324977	0.0559112	-0.183072
-0.119499	-0.724725	-0.0866306
-0.561957	0.37699	-0.176858
-0.674605	-0.0565444	0.176582
0.559162	0.473928	-0.0906495
-0.292321	-0.644685	-0.138899
-0.139559	0.433189	0.245938
0.36569	-0.0418318	0.212358
0.585676	0.229447	0.214137
-0.233826	-0.468979	-0.248842
-0.337664	0.133292	-0.209133
-0.743025	-0.0981865	-0.0160493
-0.402224	-0.488482	-0.21183
0.158354	-0.363509	0.227571
-0.0871588	0.248662	0.0810252
-0.198379	-0.415901	0.246906
-0.339249	0.665391	0.0393529
-0.208834	0.710304	-0.0687308
0.232826	-0.571405	-0.220923
-0.28373	-0.0152145	-0.126108
0.0550643	0.327231	0.184985
0.292137	0.345096	0.245377
-0.0729768	0.745811	0.0176997
0.400452	-0.60447	0.1088
0.615188	-0.42315	-0.0406861
0.219519	-0.125521	-0.0377834
0.471825	-0.28198	-0.245017
0.119821	0.330214	0.200954
-0.0776331	0.258136	-0.0969345
0.712096	0.0835323	0.124179
0.329463	-0.15024	-0.208529
-0.25031	-0.332012	0.235393
0.601103	-0.437382	0.0571115
-0.486015	-0.457982	0.185318
-0.646092	0.0955807	0.197618
-0.486546	-0.300357	0.239471
-0.0566156	-0.260722	0.0900952
0.557136	-0.271439	0.219458
0.378617	0.165998	0.234525
-0.247938	-0.0535973	0.0426502
-0.734572	0.148165	-0.0178026
0.430782	0.608061	0.0487956
-0.428144	-0.558936	-0.144412
0.728801	0.0234422	0.0998874
-0.540792	0.390287	0.186114
0.224673	-0.710576	-0.0485075
-0.724508	0.154883	-0.0669149
0.518909	-0.168857	0.245789
-0.678945	0.0381988	0.173475
0.259916	0.682008	-0.0983155
0.366593	0.0719017	-0.215679
-0.481964	0.269491	-0.244491
0.734589	0.090615	-0.0694616
-0.47151	0.227528	-0.24889
0.295991	0.230037	0.216431
0.608743	-0.189438	0.208766
-0.188591	0.274412	0.186013
-0.275236	-0.208937	0.196589
0.246783	-0.0507549	-0.0311508
0.460842	0.492393	0.179114
-0.236826	0.239138	0.189177
0.322369	0.0288699	0.177212
-0.247334	-0.107666	-0.0973947
0.629564	-0.304137	-0.15109
0.2466	-0.0414779	0.00563399
0.285602	-0.317166	0.239045
0.651975	-0.199003	0.171744
0.0650774	-0.270838	-0.116011
-0.192142	-0.503345	-0.246975
0.569074	-0.0379487	-0.239901
-0.0946762	0.724893	-0.0954776
0.218408	0.349952	0.234193
-0.573875	0.437044	-0.116215
0.129893	0.401546	-0.237531
-0.229286	0.138693	0.0930706
0.59259	0.372655	0.149967
0.584547	0.334714	-0.179903
-0.306031	-0.150012	0.192775
0.591397	-0.460823	-0.0114318
0.285988	-0.609555	0.180176
-0.17158	0.251909	-0.156185
0.517605	0.311	0.227409
0.367516	0.272387	-0.246353
-0.180645	-0.690792	0.129209
0.652193	-0.124373	-0.188737
-0.475478	-0.396001	0.219977
-0.439512	-0.465692	-0.20689
-0.547621	-0.512453	0.00109482
0.4534	0.597055	0.0122903
-0.655273	-0.204593	-0.16652
-0.389226	-0.037885	-0.225019
-0.646636	-0.314055	-0.12082
0.20315	-0.152827	0.0457188
-0.409297	0.299722	-0.249893
0.198084	-0.567562	0.22863
-0.370182	0.252645	-0.24457
-0.309899	0.137309	0.19122
0.294051	-0.465014	-0.244911
0.579571	-0.104534	0.233651
-0.747127	0.052819	0.0224326
0.02629	-0.508644	-0.249826
-0.245867	-0.0781393	0.0626808
-0.210976	0.613249	-0.201097
0.111557	-0.325928	0.195747
0.18175	0.656235	-0.172514
-0.365465	0.459631	-0.234293
0.0733848	-0.532897	-0.247106
0.257521	-0.681761	0.100803
-0.571794	0.0907493	-0.237206
-0.744133	0.0859749	0.0213965
0.517877	-0.239479	0.239834
0.351933	0.200102	0.231182
-0.185079	0.168559	-0.0128805
-0.560897	0.49773	0.00728224
-0.472578	0.544559	-0.116828
0.261236	0.155489	0.155201
-0.228675	0.249828	0.190989
-0.312495	-0.057684	-0.171154
0.567832	0.0734982	-0.239236
-0.052532	-0.609628	0.223565
-0.0504697	-0.286558	0.137134
-0.348649	-0.337148	0.24955
0.74171	-0.00541281	-0.0637701
-0.735895	-0.117591	0.0485985
0.602763	0.117425	-0.222446
-0.0255596	-0.258735	0.0699794
-0.45319	0.552343	-0.128467
-0.233608	-0.335985	-0.232934
0.744243	0.0500348	-0.0449642
-0.255556	0.400959	-0.248794
0.166715	-0.322953	0.209411
0.215627	0.452335	0.249998
-0.244533	0.354213	-0.240123
0.664558	-0.291047	0.10794
0.460157	0.509067	-0.166803
0.718829	0.204133	-0.0369664
-0.347658	0.0318254	0.19933
0.25977	0.671186	-0.119294
0.0398385	-0.414191	-0.235502
0.200488	0.171521	0.0820466
-0.296913	-0.609741	0.175353
-0.595119	-0.456401	0.00325584
-0.112282	-0.577561	0.233859
-0.317407	0.597901	-0.176624
-0.198445	-0.331156	0.222527
0.686183	-0.247051	0.0996022
-0.676024	0.27748	-0.096188
0.245765	-0.122974	-0.108588
-0.599529	0.286436	-0.188307
-0.108866	-0.690446	-0.151356
0.0357714	-0.691653	-0.159418
0.263957	0.0389557	-0.0901401
-0.241729	-0.148219	-0.125102
-0.423249	-0.617654	-0.0249041
0.28243	0.0775084	0.139993
0.595636	-0.358783	0.156012
-0.331184	0.647326	0.104466
0.497911	0.470838	0.167847
0.043623	-0.297507	-0.150914
0.00294698	-0.28815	-0.132762
-0.513768	0.531908	-0.0716397
0.223149	0.412482	-0.248067
0.554765	-0.238526	0.2274
0.546943	0.455912	0.132434
-0.595794	0.0719388	0.229076
-0.686785	0.169807	-0.139491
-0.0286476	0.405663	0.231927
-0.633733	0.0165506	-0.211087
0.430846	0.392167	-0.23596
