0.550339	0.47718	-0.101641
0.639896	-0.370186	0.0724911
0.525349	0.534422	-0.0173256
-0.669536	0.143595	-0.168414
0.726066	-0.184532	-0.0206182
-0.721406	0.125182	-0.0926801
-0.675086	0.000471646	-0.178451
-0.267919	0.10561	0.132472
0.232407	-0.264797	0.201721
-0.664305	0.337562	0.0490001
0.278138	0.109804	-0.148695
-0.748014	-0.0363012	-0.0234863
0.296029	-0.346037	0.245987
0.503223	-0.065476	0.249889
0.256452	0.673022	-0.118322
-0.528986	0.501989	0.099701
-0.714224	-0.16221	-0.0921107
0.0703178	0.332861	-0.192267
0.17893	-0.282683	0.187423
-0.0701009	0.529414	0.247672
0.416362	-0.522322	0.18517
-0.0299731	-0.346894	-0.198627
0.677832	0.0222185	0.175346
0.0091518	-0.724997	0.10886
-0.433586	0.417959	0.228141
-0.259487	-0.179589	-0.168779
-0.66738	-0.304354	0.089309
-0.100734	0.74319	-0.0026696
0.586398	-0.460445	0.0468624
-0.214092	-0.289881	0.207373
-0.295581	-0.397419	-0.249956
0.471184	-0.525492	-0.141935
0.312634	-0.0680642	0.173449
-0.0246554	-0.42181	-0.237694
0.413798	0.522673	0.186358
-0.249078	-0.0231784	0.00876733
-0.32334	-0.171017	0.210915
0.6816	-0.0741404	-0.167467
0.476912	0.561831	0.0797082
0.14621	-0.24866	-0.133233
-0.208968	0.346162	0.230977
-0.157968	0.732736	0.01465
-0.727089	-0.148205	0.062585
0.27418	-0.675807	-0.0995884
-0.235318	0.152597	-0.1196
-0.644395	0.376608	-0.0424102
-0.301564	0.185063	-0.202809
0.132013	0.736321	-0.0310693
-0.314067	0.0600387	-0.173238
-0.139444	-0.344254	-0.214401
0.581244	-0.212271	0.219974
-0.222065	0.613713	-0.197983
0.355127	-0.464203	-0.235299
0.627909	-0.144024	-0.204211
0.508769	-0.208981	-0.244945
-0.693799	0.0469126	0.155967
-0.115448	-0.318074	-0.19073
0.325434	0.345059	0.248677
0.603413	0.276117	0.189048
-0.192581	-0.171908	-0.0633012
0.0883533	-0.592856	0.229388
0.41893	-0.207627	-0.247886
0.725716	-0.146717	-0.0686185
0.562571	-0.467207	0.0949222
-0.0813796	-0.571452	-0.237776
0.472974	-0.541855	0.120134
0.382971	0.16479	0.235792
0.377106	0.644582	-0.0399354
0.19589	0.226048	-0.148814
-0.257599	0.674567	0.114809
-0.456838	-0.264993	0.248412
0.405008	-0.294233	0.249999
-0.147453	0.725987	-0.0671611
0.153998	0.701592	0.121851
0.615295	-0.389509	-0.102056
-0.0837074	0.277564	0.13551
0.0322827	0.703397	-0.144319
0.281697	-0.000835074	-0.121838
0.173661	0.515638	0.24608
-0.7314	0.110448	-0.0710475
0.21477	0.12804	0.00450466
-0.204792	-0.159376	-0.0682648
-0.398611	0.349256	0.248197
0.641202	0.0285626	0.205869
-0.430753	-0.0914069	0.242778
-0.130638	0.692228	-0.14388
-0.221026	-0.264998	0.19621
-0.213565	0.331776	-0.226682
-0.375153	-0.116985	0.225931
0.0707684	0.737504	-0.0668681
0.29236	-0.635508	-0.150622
-0.668681	0.11515	-0.175012
0.592785	-0.131477	0.225854
-0.727032	-0.172501	0.0372035
-0.280769	0.599494	-0.190423
-0.616407	0.0923421	0.217487
0.151592	-0.444308	0.248127
0.7434	0.0992533	0.00123416
0.619722	0.32039	0.153093
0.043925	-0.737162	-0.0750498
0.477902	0.0772139	-0.249494
-0.669182	-0.329714	-0.0445421
-0.400359	0.517897	-0.196464
-0.34474	-0.464907	0.237263
0.0542198	0.679272	0.171995
-0.205796	-0.145457	0.0316481
-0.0647578	-0.410822	0.235428
0.34885	0.588932	0.168703
-0.742595	-0.0823902	0.0376333
0.35188	-0.607734	0.146947
0.227343	-0.140743	0.091592
-0.602507	-0.328266	-0.166901
0.0431265	-0.444351	0.244195
-0.406217	-0.630434	-0.00368899
-0.502891	-0.0804697	0.249827
-0.33689	0.669995	-0.0061041
0.0415905	-0.322699	-0.178896
-0.424951	0.597043	-0.0910436
-0.273372	-0.696027	-0.0331906
0.339971	-0.575726	-0.184581
-0.539305	0.0586549	0.246363
0.521716	-0.538749	-0.00453386
-0.188163	0.590473	-0.219465
0.0912213	0.278871	-0.140788
0.274252	0.487297	0.242897
-0.391717	0.11497	0.232551
-0.399554	-0.41548	0.238032
-0.353032	-0.411508	0.246414
0.476189	0.566174	-0.0706705
0.190894	0.660769	0.165029
0.0856836	0.683524	0.163788
-0.710664	0.235314	0.0263339
0.52935	0.332106	-0.216561
-0.0322488	0.696939	0.153038
0.532343	-0.354606	0.207368
-0.0020141	-0.381286	-0.220019
0.423864	0.275653	0.249937
-0.0604697	0.696125	-0.151656
-0.300706	0.659455	-0.109428
0.488728	-0.541358	-0.0995368
0.379969	-0.624235	-0.0961181
0.191391	0.505905	0.246632
-0.178924	0.175387	0.0165387
-0.114676	-0.564604	0.238126
-0.0766416	0.290568	-0.150672
-0.499048	0.271354	0.24056
-0.640541	-0.276959	0.152821
-0.326334	-0.638673	-0.123764
-0.578009	-0.180277	0.226663
0.147364	-0.297518	0.185151
0.336245	-0.66689	0.0394832
0.706802	-0.11382	-0.12603
-0.0320713	-0.45159	-0.24549
0.593137	0.323028	0.178147
0.284822	0.658241	0.123756
0.200103	0.51947	-0.24349
-0.699723	-0.0282955	0.149605
-0.154809	0.196643	0.0115929
0.347034	-0.0404425	0.199536
0.358865	0.649012	-0.0641862
-0.0452466	-0.735763	-0.0791094
-0.00238284	-0.250309	-0.0126589
0.720857	0.062011	0.111978
0.113751	0.706447	0.126649
-0.676003	-0.105725	-0.169005
-0.347768	0.498847	-0.225418
0.610926	-0.307171	0.169461
-0.495914	-0.374323	0.218586
0.478637	-0.455369	-0.191553
0.372359	-0.577969	0.165323
-0.706107	-0.177298	-0.102491
-0.401425	-0.551785	-0.171016
-0.234667	-0.609765	-0.197433
-0.23824	0.434405	0.249959
-0.362312	-0.498294	0.221412
0.726955	0.110295	0.0845344
0.366196	0.11287	-0.221036
0.490884	0.0617081	-0.249945
0.247258	-0.630541	-0.176264
0.638506	0.363696	-0.0857796
-0.0169768	-0.549249	0.245048
-0.0664564	-0.516087	-0.249171
-0.538886	0.416038	0.172662
0.717102	-0.00903105	-0.123863
-0.161295	-0.674859	0.157848
-0.124525	-0.413068	0.240412
-0.297582	-0.204227	-0.207743
-0.026929	-0.672463	-0.180472
0.0558711	-0.586718	0.233479
-0.424905	-0.0379627	0.238981
0.514824	0.0175233	0.249542
0.0120735	-0.254888	-0.0505957
-0.0381466	-0.264613	0.0915068
-0.622125	-0.400514	0.0703456
-0.502167	-0.50299	0.134473
0.0721033	-0.638097	-0.205648
-0.375824	0.187096	0.236793
0.675426	0.205352	-0.141716
-0.587078	0.162357	-0.224931
-0.407014	-0.0991146	0.236483
0.327465	0.32074	0.24651
0.382773	-0.534656	0.194108
0.167673	-0.594419	-0.220605
0.452592	-0.389317	-0.230416
-0.176606	-0.297623	-0.196996
-0.223177	-0.684979	0.117962
0.0571028	-0.255704	-0.0765327
0.42944	-0.300392	-0.248838
-0.637417	0.301392	0.142976
-0.328993	0.480633	-0.236014
0.550793	0.0185628	0.244721
-0.467065	0.32599	0.240123
-0.114379	0.692764	-0.1471
0.467526	-0.199995	-0.249855
0.271699	0.562458	0.216712
-0.0857203	0.271391	0.126908
-0.192195	-0.536615	-0.240001
0.120234	-0.711539	0.11568
-0.507855	0.524192	0.0983109
0.496065	-0.0878371	0.249971
-0.509232	-0.503495	-0.125671
-0.500957	-0.146849	-0.249027
0.225524	0.229749	0.175485
0.386028	0.501269	0.211885
-0.0127347	0.743982	0.0540317
-0.637038	-0.131648	0.199625
0.414818	-0.332197	-0.248015
0.102818	0.363265	0.21795
0.389959	0.18054	-0.239919
0.632758	-0.0802635	0.208575
0.106769	0.405433	0.236602
-0.661373	-0.285444	-0.118108
-0.294921	0.68956	-0.00305703
0.576865	-0.314048	0.194706
0.320581	0.118437	-0.193546
0.0127767	-0.534516	-0.247584
-0.305803	0.52808	-0.224385
-0.0659839	-0.277493	-0.127961
-0.231919	0.156291	-0.118123
-0.72268	0.027228	-0.112628
-0.560771	-0.114023	0.239333
0.45789	-0.10777	-0.248242
-0.38037	0.57408	-0.164038
0.527278	0.451017	0.157858
0.0735057	-0.475174	0.249264
0.5246	0.535839	-0.00756816
0.185205	-0.523923	0.243717
-0.202496	-0.154276	0.0475814
-0.437894	0.361422	-0.240636
0.00372606	-0.700293	0.149595
0.493409	-0.534769	0.103388
0.709093	0.130984	0.116702
-0.262825	0.699949	-0.0340779
-0.0401422	-0.731471	-0.0917075
0.415457	0.0769284	0.23769
-0.0940777	0.301024	0.168572
0.0172876	-0.311822	-0.165133
0.259284	0.00328891	-0.0675695
0.243605	-0.0900993	0.0690776
0.238428	0.487885	-0.246269
0.660981	0.286804	-0.117771
0.253919	-0.244837	0.20202
0.386442	-0.56026	-0.172859
0.717037	-0.196818	-0.0563847
0.606207	-0.441572	0.00298648
0.254743	-0.561357	-0.221221
-0.307013	-0.339138	0.246355
