0.101839	0.356611	0.214067
-0.165361	-0.330133	0.213072
0.0734728	-0.598086	0.227984
0.169656	0.624919	-0.201822
0.417743	-0.610777	0.0700981
0.0484394	-0.638761	-0.206719
0.331037	-0.349163	0.249288
0.371091	0.365301	-0.24914
-0.412733	0.611051	0.0784226
0.581757	0.468602	0.0385241
0.62835	-0.341353	-0.127431
0.543633	-0.412107	0.171204
-0.496776	-0.201367	0.247389
0.0180428	0.668237	0.1847
0.385207	-0.422598	0.239463
0.124832	-0.665515	0.176431
0.0952602	-0.298628	0.166435
-0.261113	-0.352394	0.24234
-0.0726243	-0.636615	-0.206618
0.102462	-0.241822	-0.0784675
0.223797	0.573574	-0.221622
0.139852	0.26342	-0.147628
-0.0887063	0.262029	0.112289
0.171245	0.317638	-0.207701
0.0960279	-0.397558	0.232846
0.31026	0.287243	-0.237785
0.747918	-0.00967891	-0.0317121
-0.59284	-0.0204946	0.23198
-0.337919	-0.088599	-0.199504
0.0203111	0.566342	0.240936
-0.34174	-0.309306	-0.246928
0.481766	0.502525	0.154995
0.0634393	-0.261441	0.0956644
-0.0325734	0.583183	0.235433
-0.387703	0.613012	-0.108298
-0.139783	0.636988	0.198373
0.634381	0.249095	-0.171889
0.161575	-0.697938	-0.12519
-0.614529	-0.315562	-0.161523
-0.43	0.323662	0.247065
0.227787	0.109107	-0.0357503
0.446889	-0.0988307	0.246393
-0.277702	-0.400712	0.249689
-0.698337	0.192018	-0.110496
-0.32291	-0.213705	0.223117
0.3252	0.17807	0.214003
0.674426	0.200457	0.145095
0.202566	0.29101	0.203347
-0.208165	0.167391	-0.0909188
0.616464	-0.302083	-0.166486
0.605499	0.412803	-0.0910578
-0.315188	-0.621015	-0.154656
-0.446335	0.266785	-0.2492
0.706432	-0.113146	0.126837
-0.0524823	0.733904	0.0831195
0.380804	-0.536841	-0.19359
0.554814	0.239922	-0.227126
-0.701844	-0.248915	-0.051316
-0.181542	-0.700115	0.112477
-0.329807	0.0329209	0.184634
0.413254	0.385996	-0.241271
-0.714748	-0.227227	-0.00102861
-0.014556	0.73632	-0.0811484
0.33738	-0.132079	0.208667
-0.742127	0.105025	0.0154629
-0.131424	-0.409065	-0.2399
-0.173089	0.499306	-0.248375
-0.528432	-0.143204	0.245448
-0.644159	-0.373167	-0.0524192
-0.0284287	-0.723508	0.11088
0.0851597	-0.636122	0.205897
-0.255927	0.0673358	0.0842869
0.698833	-0.268318	0.026672
-0.723782	0.16904	0.0576609
-0.269272	-0.297371	0.229636
-0.608125	0.0292217	0.225071
-0.218614	-0.671455	0.141434
0.194479	0.36664	0.235116
0.280767	-0.0812959	-0.139142
0.408094	-0.60437	0.0997242
-0.099296	-0.496044	-0.249931
-0.246738	0.175055	-0.153314
-0.224182	0.580252	0.218181
0.373356	-0.415879	-0.242967
0.0175755	-0.352312	0.202034
0.620105	0.293109	-0.167169
0.264312	-0.545217	0.226459
-0.456055	0.284444	0.247173
0.426537	0.492892	-0.198618
0.224453	0.110494	-0.00939195
-0.354638	-0.160271	0.224092
-0.507543	-0.525825	-0.0960417
0.611009	0.259181	0.188944
-0.152696	-0.54594	0.240885
-0.237719	0.0915734	-0.0484873
0.309551	0.658207	-0.103949
-0.230821	-0.696011	-0.0898738
-0.394717	-0.44094	0.232535
-0.365416	0.648296	0.0535902
-0.126973	-0.243548	-0.108266
-0.252609	-0.142333	0.135566
0.0822745	0.661239	0.186632
0.287774	-0.577136	0.203723
0.0329243	0.286235	-0.132695
0.357151	0.159406	0.22504
0.210415	0.701778	0.0915253
0.186357	0.718994	0.0597587
-0.0995127	0.685941	0.158757
0.242688	0.0742101	0.0433118
-0.0802453	0.540221	0.245704
-0.154564	-0.4736	0.249993
0.592553	-0.457557	-0.0259406
0.18331	-0.297478	-0.199565
-0.36993	0.000250651	0.213499
0.554717	0.492485	0.0635427
0.585501	0.277166	-0.201638
0.45471	0.213617	0.249989
0.255672	-0.29163	0.223426
-0.503975	0.273541	-0.238975
-0.670293	-0.331366	-0.0336311
0.498779	-0.127009	-0.249568
-0.634334	-0.399937	-0.00752391
0.559294	0.496793	-0.0309805
0.661833	0.177658	0.167862
-0.321446	0.215105	-0.222892
-0.605071	-0.43067	-0.0600155
0.658937	0.352533	0.036553
-0.334524	0.328574	0.248058
-0.62567	0.320311	-0.14606
-0.113564	-0.66468	-0.179208
-0.585872	-0.459194	-0.0527021
0.215798	0.563705	0.227524
0.256375	-0.530021	0.233709
0.48779	0.464843	-0.179696
0.297134	-0.0699807	-0.156773
0.532439	0.0129093	-0.247866
0.0520665	-0.550986	0.244222
0.457151	0.507465	0.170312
-0.621905	-0.302636	-0.160553
0.153099	-0.632118	0.199704
0.41114	0.0791688	0.236409
-0.436754	0.460713	0.210524
-0.488323	0.322751	-0.234982
0.685262	0.0415526	-0.166463
0.0501334	-0.715474	-0.123741
0.647628	-0.355606	0.0738753
-0.473341	-0.122465	0.249755
-0.0602828	-0.360029	0.210443
0.15649	0.296368	-0.187945
0.239437	0.588104	0.210431
-0.168825	0.498199	0.248642
-0.00172952	0.615505	-0.221716
-0.0487864	0.73342	-0.0851816
-0.3772	0.342993	0.249807
0.419365	-0.323007	0.248272
-0.0947885	0.700423	0.140465
-0.678677	0.0582516	0.172269
-0.328037	-0.202092	0.22213
0.112651	-0.33528	-0.202722
0.409356	0.628303	0.00737651
-0.248115	-0.0507667	0.0402155
-0.0901034	-0.249756	-0.0866924
0.209052	0.365584	0.237235
-0.235466	0.198932	-0.160412
-0.0418127	-0.316769	-0.17299
-0.724236	-0.194882	-0.000979067
-0.438631	0.564855	-0.127298
0.455847	-0.388851	0.22949
0.653909	-0.28848	-0.128052
-0.0314875	-0.672164	-0.180569
-0.37187	-0.011172	0.214769
-0.148935	-0.726139	0.0655439
-0.531303	0.0305178	-0.24792
0.0269339	-0.386186	-0.223067
-0.0801055	-0.272464	0.125865
-0.183991	0.17307	-0.035951
0.328944	0.223462	-0.228097
0.0910818	0.648659	-0.196133
-0.133691	0.341819	-0.211707
0.115887	-0.626015	0.209348
-0.603572	0.267444	0.191951
-0.394485	0.632021	-0.0496055
-0.126939	0.231479	0.082488
-0.388286	0.13139	0.233205
0.648023	-0.173625	0.182483
0.323925	0.539673	-0.213891
0.730923	-0.0432629	0.0926398
0.370802	-0.230128	-0.241777
0.540734	0.0541236	-0.246198
0.324137	-0.25259	0.233596
-0.0796489	-0.72727	0.0940904
0.0951384	-0.317858	0.184947
0.206953	-0.719182	0.0285343
0.656367	-0.303259	0.112935
-0.149032	0.222446	-0.0925315
0.231037	-0.0970852	-0.0174001
0.447034	0.587839	0.0749259
-0.476058	0.541335	-0.11709
0.180856	0.716329	0.0739661
0.252106	-0.0135769	-0.0350647
0.748471	0.025685	-0.0233016
-0.287931	0.542285	0.222503
-0.227195	0.568427	-0.223434
-0.598542	0.283394	-0.190204
-0.0880382	0.730281	0.0837107
-0.507514	0.327372	-0.227369
-0.0427444	-0.744573	-0.0456393
0.172588	0.597395	-0.218308
0.749339	-0.00226711	0.0181265
-0.459266	0.233259	0.249543
-0.449491	-0.088602	0.246471
-0.69208	0.128823	-0.144559
0.325218	0.67536	-0.0143985
-0.582589	0.353504	0.171976
0.039483	0.671839	-0.180476
0.670063	-0.304658	0.0822824
-0.0718099	0.362505	-0.213267
0.454359	-0.589771	0.0521785
-0.49428	-0.49518	0.15046
-0.424463	-0.61065	0.0558489
-0.380554	-0.111713	0.22762
0.735475	-0.0777052	0.0714616
-0.244707	-0.278237	0.213867
0.205577	-0.160718	0.0731616
0.262167	-0.219784	-0.193829
0.06483	-0.725019	0.102745
0.216613	-0.151424	0.0833193
-0.204909	-0.295408	-0.206797
-0.575963	-0.435577	-0.114725
-0.547008	-0.403025	-0.174066
0.0302999	-0.749352	0.00419434
0.218115	0.279331	-0.203227
0.149054	0.557348	-0.237868
0.245216	-0.632678	0.174999
0.300502	-0.00306835	0.150687
-0.502897	-0.20139	-0.246494
0.380953	-0.315355	-0.24994
-0.0521858	0.731425	0.0898791
-0.342387	0.587611	0.173405
0.0524807	-0.674618	0.176897
0.251053	0.118432	-0.114158
-0.250895	-0.0357637	-0.0412793
0.0325774	0.657424	0.193554
-0.527135	-0.203147	0.241423
-0.471137	-0.0941245	-0.249234
0.431527	-0.607799	0.0476883
-0.218175	-0.699094	0.0922757
0.275781	0.0509434	0.119568
-0.500195	0.555686	0.0341912
0.595403	-0.404684	0.118905
0.65191	0.212483	-0.167418
-0.442509	-0.499428	0.185802
-0.745544	0.0800772	-0.00915821
0.724312	-0.141022	0.0767973
0.69156	0.065152	-0.156914
0.328504	-0.230228	-0.229626
0.736911	0.101937	-0.0547621
