-0.182247	-0.216935	-0.124712
-0.579795	-0.0893536	0.234507
0.681472	0.218447	-0.12651
-0.59595	0.287908	-0.190536
-0.723622	0.142401	-0.0780616
0.438826	-0.608115	-0.00654057
0.634586	0.216805	-0.182745
0.081802	-0.662126	-0.185897
0.575125	-0.0209261	0.238325
0.591711	0.178851	0.220319
-0.427357	0.384325	-0.238563
-0.275733	-0.686184	-0.0716537
-0.701022	0.043334	0.1468
0.345423	-0.278971	0.243649
-0.455448	0.574225	0.090827
-0.545669	-0.0428556	-0.245475
-0.199717	-0.154307	0.0344418
-0.114673	-0.280057	0.153437
-0.724199	0.0822187	-0.100635
-0.328283	0.614293	0.154544
-0.268481	0.700287	0.00225695
-0.304956	-0.489364	-0.237974
-0.281595	-0.125653	-0.16054
-0.210506	-0.711964	0.0610444
0.0945302	0.333758	0.197627
-0.361294	-0.402449	0.246643
-0.315147	0.644807	0.122909
0.412547	0.240234	-0.248976
0.120578	0.740227	0.00291027
-0.710554	0.207584	-0.0691187
0.354155	-0.651449	-0.0646614
0.484218	0.143186	-0.249951
-0.268484	-0.399236	0.249286
-0.100071	0.261513	-0.118754
-0.0839679	-0.440157	-0.244552
-0.536672	-0.254202	0.231723
0.338353	0.623674	0.136351
-0.673849	-0.299788	-0.077981
-0.707175	-0.0244116	-0.139297
0.0178171	-0.661015	0.191042
0.0822458	0.432317	-0.242711
-0.224692	0.154548	-0.104116
-0.2107	-0.718226	0.0274021
-0.183364	-0.170424	-0.012899
0.156528	0.733229	-0.0111627
-0.735657	0.143177	-0.0164186
-0.134896	-0.398674	-0.237149
0.0268859	0.493574	0.249935
0.399005	0.404827	0.240458
-0.0506905	0.281548	0.129368
0.301315	-0.581404	0.196273
0.0378023	-0.730508	-0.0944165
-0.0336635	0.684797	0.167463
-0.340613	-0.324571	-0.248253
-0.412615	-0.0736104	-0.236559
0.326866	0.519808	-0.222476
-0.056354	0.631956	0.210759
0.032211	-0.276518	-0.115707
0.366388	0.0346097	0.212323
0.292406	-0.215872	0.209419
-0.0360242	-0.344619	-0.197324
-0.245083	-0.189578	0.162302
-0.366039	-0.629073	-0.102953
0.245694	-0.2794	0.214783
0.267735	0.646652	-0.150151
-0.162197	0.714965	-0.0902751
-0.506627	-0.529208	0.0915861
0.482298	-0.506451	0.15085
0.20155	0.604037	-0.209266
0.655023	-0.360484	-0.0340879
0.0352749	0.514282	0.24952
-0.0351681	0.636548	0.208779
0.366847	-0.643526	0.0673955
-0.327625	0.674623	-0.00389131
0.148297	-0.202064	0.017909
-0.705323	0.20962	-0.0830188
-0.551443	0.0290904	-0.244488
0.265796	0.142278	0.151954
-0.0241984	0.393701	0.226623
-0.638171	-0.385697	0.046325
0.177216	0.176341	0.00132934
0.631113	-0.350948	-0.114715
0.613922	0.195234	-0.204208
0.270055	0.696274	0.0398004
-0.0668619	0.739988	0.0587367
0.380033	0.124647	0.229108
-0.37296	0.650188	0.014791
0.379968	0.0433566	0.220631
0.449072	-0.535066	0.151924
-0.44164	0.240136	-0.249985
-0.118284	0.35037	0.213418
0.0619258	-0.245779	0.0414505
-0.150609	-0.216055	0.0806568
0.419944	0.407777	0.234979
0.219379	-0.676712	0.13348
-0.43578	-0.580999	0.106315
0.477033	-0.569171	0.0602103
0.249252	0.0220961	0.0107043
0.6611	-0.265093	0.132067
0.673675	0.186533	0.151295
0.112377	-0.399751	-0.235195
-0.0407287	-0.419906	-0.23748
-0.737388	0.0957435	0.0563003
-0.200065	-0.5237	0.242541
-0.195115	-0.191556	0.105667
0.264471	-0.566498	-0.216396
-0.0882811	0.53873	0.245747
-0.355815	0.311532	-0.248529
-0.203539	0.14715	0.0240546
-0.701268	0.159691	-0.120176
0.141465	0.35656	-0.221248
-0.246438	0.593134	-0.205555
0.536632	-0.356164	-0.204313
0.47012	-0.293077	-0.2441
0.0891254	-0.335698	-0.197968
-0.0604505	-0.280311	0.130486
-0.367576	0.647074	-0.0535902
0.271228	0.061575	-0.115212
-0.0602019	0.245006	-0.0337856
-0.203399	-0.647927	0.174419
-0.338216	0.651437	-0.0879918
-0.41356	0.611955	0.0746543
-0.371254	-0.508361	0.21385
0.0965857	0.733783	0.0696142
-0.35109	0.642234	-0.093306
-0.593936	-0.275236	0.196458
0.060124	0.724972	-0.103738
-0.0532125	0.747492	0.0175503
-0.494277	0.0726846	-0.25
0.234602	-0.128121	0.0914008
-0.407368	-0.00395557	-0.232213
0.441078	-0.147762	-0.247562
-0.267934	0.193404	0.183714
0.386002	0.564692	-0.16923
0.214368	0.319865	-0.222008
-0.132551	0.599412	0.22255
-0.0167253	0.479926	0.249216
0.708278	-0.217001	0.0672884
-0.248159	-0.265969	-0.209617
-0.476032	0.394975	0.220101
-0.526155	-0.0748953	0.248013
0.229053	-0.653095	0.159996
-0.301408	0.313287	-0.241331
0.15921	0.732724	-0.00943634
0.140743	0.727776	-0.0655261
-0.207302	0.143557	-0.0327612
-0.180309	-0.28245	-0.187901
-0.239384	-0.0731995	0.0127573
-0.224121	0.497497	-0.245797
0.101014	0.741024	-0.0325068
-0.149414	-0.548031	-0.240565
0.237915	0.111336	-0.0786005
-0.629653	0.388784	-0.0699614
0.336839	0.383414	-0.249785
0.157761	0.237152	-0.12729
0.0673452	-0.612936	0.22113
-0.109476	-0.537804	-0.245184
-0.188061	-0.581308	-0.224021
0.520068	-0.015831	0.249174
-0.355921	-0.320539	-0.249115
0.510635	0.270445	-0.237576
0.0703219	-0.303558	-0.16433
-0.459438	0.581785	-0.0652989
0.0364483	0.367141	-0.212896
-0.197387	-0.35902	0.233124
-0.500425	0.558048	0.0147901
0.285927	-0.113697	0.159756
-0.363617	0.580395	-0.168271
-0.187289	0.53724	0.240304
-0.645045	0.270701	-0.150606
0.505055	-0.506652	-0.126922
-0.742098	0.0885842	0.0361888
-0.138353	0.682414	-0.154813
-0.471981	0.159548	0.249994
0.680897	-0.0769093	-0.167902
0.627248	-0.0221254	-0.214962
-0.561062	-0.345999	0.192782
-0.0128089	0.553809	-0.244108
-0.293788	0.25601	0.224344
-0.0904448	0.711048	0.12453
0.652171	-0.24294	0.155253
0.72529	0.188387	0.0179252
0.0208433	0.261211	-0.0766517
0.21149	0.609547	0.203516
0.465445	-0.586027	-0.028443
-0.423658	0.32524	-0.247663
0.229483	-0.100743	-0.0176244
0.376611	-0.228306	-0.242794
0.263551	-0.38088	0.247273
-0.365485	-0.325118	0.249765
-0.445486	0.424415	-0.221828
0.67016	0.0412051	-0.18197
0.451608	-0.349692	0.239656
-0.580261	0.425824	-0.11922
-0.0233134	0.24896	-0.00497765
-0.0310638	0.298002	-0.149488
0.0534432	0.643596	-0.203074
0.510643	0.105452	-0.249081
-0.702783	0.167126	-0.114221
0.0697295	0.729054	0.09219
-0.166491	0.235229	-0.132798
0.694947	-0.050834	0.15417
0.286013	0.671996	0.0972013
-0.31988	0.626276	0.145581
0.476798	-0.555879	-0.092267
-0.170456	-0.729977	-0.013887
0.444629	-0.540713	0.149938
-0.430438	-0.501063	0.191625
0.334246	0.00859022	-0.187249
-0.509048	0.212515	-0.244611
-0.368239	-0.649955	0.0384736
-0.644564	0.00889303	0.203921
0.634798	-0.27384	-0.160895
0.251449	-0.104525	0.103232
0.58597	0.465702	-0.0274226
-0.677024	-0.14857	0.158744
-0.0867992	-0.518234	0.248701
-0.461229	-0.00119431	-0.246976
-0.638623	0.378967	0.0603747
-0.634198	0.218892	-0.182454
0.444847	-0.579134	-0.0973578
0.307017	-0.218047	-0.217404
0.19089	0.161435	-0.000597382
0.363013	-0.64591	-0.0667261
0.536434	0.503621	0.0830677
0.421306	-0.332925	-0.247251
-0.65998	-0.336451	0.0672241
-0.304151	-0.244923	0.224747
0.448694	-0.220659	-0.25
0.307629	0.665642	-0.0898647
-0.209851	-0.207109	0.142864
-0.424238	0.189102	-0.247463
0.723942	0.0553378	-0.10677
0.0227411	0.672593	0.180496
0.743986	-0.0764161	-0.032338
-0.541747	-0.505082	-0.0676465
-0.506498	0.547035	0.0471596
0.0325861	0.576842	-0.237599
-0.438523	0.564104	-0.128405
0.682104	0.0122447	-0.171167
