-0.451549	0.47736	-0.194479
0.323725	-0.61895	0.151985
-0.309231	0.453422	-0.245185
0.440429	0.599263	0.0557581
-0.47038	-0.581716	0.0307776
0.655358	0.212941	0.163545
-0.198229	0.673627	-0.147037
0.526541	-0.533824	0.00976446
-0.674743	0.314003	-0.0534108
0.250949	0.0916063	0.0909892
-0.502739	-0.302074	-0.234554
0.0608273	-0.532074	-0.247461
-0.606555	-0.441113	0.00181149
-0.223145	0.280678	-0.206151
-0.647692	-0.375689	0.0248287
-0.602233	0.421636	-0.0848494
0.360693	0.529376	0.206732
-0.0505439	-0.703006	-0.143348
-0.532748	-0.483286	-0.12004
-0.256271	-0.068463	-0.0860031
0.116866	-0.302707	-0.178027
-0.359901	0.302881	-0.24824
0.592205	0.0908962	-0.229502
-0.0565075	-0.599552	0.228152
0.00510647	-0.519823	-0.249211
0.241597	0.0643804	0.00373167
-0.707174	0.249039	-0.0113079
0.238341	0.689283	-0.099544
-0.0197048	0.283435	0.126077
0.582076	-0.411032	-0.131578
0.464258	0.423123	0.214659
0.189274	-0.696044	0.116266
0.412329	0.0645566	-0.235944
0.0282096	-0.328723	-0.183239
0.159484	0.338435	-0.216002
-0.362758	0.209844	-0.236542
0.5783	0.381284	0.159291
-0.471393	-0.583125	0.00919673
0.700976	0.265928	-0.0117597
0.0419459	-0.246964	0.0158203
0.325592	-0.135716	0.20203
0.143405	-0.459214	0.249283
-0.499842	-0.55118	0.0541241
0.469515	0.298969	0.243504
0.204996	0.143592	-0.0119223
-0.550464	0.410903	-0.166021
0.136454	-0.2179	0.0591569
0.225833	-0.64047	0.174403
0.23334	-0.0940594	-0.0280991
-0.129446	0.636245	0.200538
0.355839	-0.257616	-0.24252
-0.487359	-0.0136048	-0.24969
-0.414597	0.62397	-0.0205703
-0.377086	0.225348	0.242516
0.135396	0.713847	-0.105662
0.051502	0.266091	0.100362
0.475642	0.299466	0.242174
-0.577726	-0.477286	0.017605
-0.710211	-0.233893	0.0335894
-0.373762	-0.4326	-0.239498
0.319912	-0.644091	-0.12028
-0.169193	0.460979	0.24984
0.632524	-0.374702	0.0847993
-0.0666875	0.543306	-0.245468
-0.223585	-0.693827	-0.100381
-0.262671	0.356049	0.243287
-0.0408834	-0.738818	0.0701759
-0.570887	0.409542	0.146479
-0.573592	-0.285987	-0.206489
-0.0786463	0.567846	0.239023
-0.17043	0.653544	-0.178142
0.305212	-0.683607	0.0259734
0.408603	0.591462	0.120802
-0.457967	-0.582895	0.0654423
-0.592132	0.427246	0.0975613
-0.420417	-0.457027	-0.218775
0.305507	0.1725	0.200629
-0.0256562	-0.633738	0.210891
-0.332867	-0.133642	0.206234
0.250596	-0.368348	0.243989
-0.250724	0.00793107	0.0205944
0.579927	0.446892	0.0927975
0.305265	-0.100533	0.174928
0.253588	0.0221322	0.0474922
0.671064	-0.0712253	0.178699
0.727988	-0.100173	-0.0857108
-0.0371498	-0.267091	-0.0971834
-0.138308	-0.632959	-0.201563
-0.248037	0.0504236	0.0393165
0.513167	-0.460676	-0.162935
-0.252251	-0.402531	0.248751
0.674359	-0.13223	0.165698
0.437155	-0.241733	0.25
-0.224722	0.149553	-0.0978321
-0.542877	-0.0927486	0.244796
-0.365432	-0.150252	-0.226934
0.450003	-0.447244	-0.210767
0.66547	0.0244191	-0.187006
-0.147199	0.529024	-0.245127
0.57508	0.307379	0.198429
-0.331912	-0.129925	0.204669
0.431872	0.14848	-0.246219
-0.235087	0.417425	0.249122
0.0463773	-0.698168	-0.15039
0.105034	-0.273098	0.139589
-0.42761	-0.297231	-0.249136
0.614813	-0.410667	-0.072183
0.426018	-0.0726522	0.240622
-0.201522	-0.677071	-0.141027
-0.114884	-0.685114	0.156843
-0.616533	-0.249529	-0.187715
0.147078	-0.492536	0.249606
0.46875	-0.150692	-0.249884
-0.517701	-0.0189664	0.249348
0.72296	-0.0198051	-0.11255
0.648045	-0.149593	0.18774
-0.439819	-0.0776089	0.244233
-0.304542	-0.0343123	0.158258
0.693579	-0.185234	-0.122576
-0.0264551	0.254628	-0.0544364
-0.482436	0.573811	0.0128582
-0.386354	-0.517052	-0.203329
0.217207	0.429095	-0.249272
0.722375	0.125112	0.0902813
-0.670141	-0.278534	0.107472
0.119601	-0.562232	0.238544
0.491633	-0.452482	0.184989
-0.0359564	-0.268676	0.100458
0.0415307	0.58426	-0.23484
0.256186	-0.084701	-0.0975688
0.569474	-0.312254	0.200401
-0.168879	-0.635379	-0.194198
0.383177	0.639184	-0.0485601
-0.482341	0.516266	0.140875
0.256919	-0.168586	-0.15926
-0.281317	0.683426	-0.0731436
0.109274	-0.53328	-0.246033
-0.414813	-0.450269	0.223399
0.238393	-0.507003	0.242631
-0.100099	0.742112	0.0241377
0.625966	0.264301	-0.174035
0.172323	0.359398	-0.228502
-0.72519	0.16347	-0.0571243
0.474083	0.371527	-0.228103
0.266916	0.240458	0.206617
0.550708	0.474472	0.10493
-0.539436	0.246005	-0.232105
0.658184	0.355411	0.0314595
0.64336	-0.00153701	-0.204811
0.337719	-0.382118	0.249801
0.0207993	-0.286156	0.13074
0.609231	0.118317	-0.218981
-0.235281	0.084674	0.00515839
-0.437316	-0.10268	-0.244786
0.12843	0.351432	-0.216021
-0.683525	-0.235177	0.113301
-0.592914	0.453032	-0.0435343
0.481555	0.166668	0.249816
-0.111613	-0.740761	-0.0209292
-0.405327	-0.630787	-0.0102861
0.235999	-0.0848154	0.0197009
-0.0118978	-0.453622	-0.24569
0.172392	-0.458881	-0.249808
-0.581888	-0.429891	0.11209
0.730247	0.152614	-0.0444085
-0.46985	0.156821	0.249956
-0.720413	0.124711	-0.09529
0.672357	-0.330151	0.0218675
0.210801	0.590179	0.215518
-0.296733	-0.642423	0.13923
0.294917	0.0590605	-0.151024
0.324336	-0.349685	0.248934
-0.519711	-0.112181	-0.247985
-0.404069	0.394749	-0.241432
-0.653179	-0.368496	0.00472767
-0.518175	0.203886	0.243452
0.0963328	-0.458535	0.248013
0.239438	0.624322	-0.184536
0.477264	-0.52628	0.134934
-0.280012	0.0485331	0.126193
-0.266299	0.20637	0.189471
0.191522	-0.413505	-0.246045
0.615378	-0.413545	-0.0649192
-0.705248	-0.122696	-0.126145
0.30232	0.0722842	-0.16346
-3.12033e-05	0.748281	-0.0292637
-0.181287	-0.627917	-0.197277
-0.641561	0.240562	0.167954
0.155112	-0.406699	0.241476
-0.395107	-0.135062	-0.236014
0.586132	0.32496	-0.18313
-0.406521	0.382769	0.243091
-0.739107	0.120758	-0.0233472
-0.477913	-0.243815	0.247319
0.514729	0.397232	0.199862
0.277554	-0.345769	-0.243506
-0.385077	-0.625023	0.0876694
0.680556	0.0828385	-0.167512
0.509557	0.488582	0.141725
0.0226489	0.640934	-0.206215
0.493759	-0.118749	-0.249877
0.232085	0.104853	-0.0481028
0.16625	0.490035	0.249389
0.137669	-0.427769	-0.244821
0.557452	0.452795	0.122063
-0.0119375	-0.253486	0.0432344
0.680003	0.304843	-0.0487178
-0.666836	-0.157501	-0.167949
0.604418	-0.233609	-0.20149
0.0595366	0.397965	0.230159
0.175281	-0.411252	-0.244328
0.14608	-0.498846	-0.249215
-0.564125	0.0862045	0.239803
0.340242	-0.101664	-0.20373
-0.44571	0.46372	-0.204931
0.306737	0.566398	0.204276
-0.394656	-0.637662	-0.00668396
-0.386532	0.386568	0.245606
-0.167976	0.63385	-0.195572
-0.154492	-0.638708	-0.194451
-0.503815	0.303344	0.233967
-0.230762	-0.404109	0.247588
0.417187	0.0758505	-0.238176
-0.416033	-0.385573	-0.24079
0.703945	-0.114193	0.130646
0.734433	0.12016	0.0535491
-0.174462	0.400754	-0.241953
-0.351107	-0.338066	-0.249683
-0.0503945	-0.67679	-0.174869
0.524544	-0.176592	0.244215
-0.230123	-0.120571	0.0692961
0.261222	-0.426597	-0.25
-0.129686	0.696441	-0.138073
-0.322883	0.0496347	-0.180163
-0.188455	-0.635988	0.189277
0.737203	0.0547276	-0.072581
0.533266	-0.505011	-0.0868101
0.080135	0.278795	0.135776
