0.558002	-0.30903	0.208554
0.437933	-0.216818	0.249743
0.60432	0.425688	0.072696
0.649042	0.18505	0.178627
0.158703	-0.211443	0.0835559
-0.591308	0.335064	-0.173864
-0.16167	0.211279	-0.0881013
-0.728289	-0.178137	0.0109965
0.617271	-0.425727	0.00881427
-0.238828	0.279453	0.212064
-0.269175	-0.225622	-0.200915
-0.459891	0.4181	0.21847
0.268864	-0.166944	-0.169763
0.683139	0.255796	0.0992408
-0.0669632	0.545439	0.245044
0.713853	-0.0281744	-0.128564
-0.125996	0.728473	0.0723949
-0.176331	-0.206922	-0.102242
0.746531	-0.0290454	-0.0379954
-0.450599	-0.0781326	0.24633
0.16154	0.220674	-0.105781
-0.10552	-0.736592	-0.0539393
0.442261	0.461001	-0.207903
0.58235	0.268384	0.206294
-0.180455	0.666816	-0.161538
-0.45041	-0.106106	0.247208
0.687874	0.293168	0.0335249
-0.192113	-0.161435	0.0216065
-0.148658	-0.34372	-0.216211
-0.314957	0.599164	0.176652
-0.273254	0.17452	-0.177778
-0.7079	-0.136067	-0.117139
-0.720467	-0.118284	-0.0977162
0.193548	0.674976	-0.147051
-0.730707	-0.00825667	-0.0961904
0.250967	0.00496626	-0.0225127
0.198056	0.613609	-0.20381
0.57127	-0.355563	-0.180585
0.204089	0.277283	-0.19559
0.167284	0.68934	-0.136652
0.439808	-0.0772195	-0.244216
-0.73045	0.15312	0.0427002
0.575313	0.0981381	-0.2356
-0.610461	-0.432923	-0.028344
0.324477	-0.157104	0.207467
0.214507	0.315079	0.219951
0.453679	-0.0934297	-0.247277
0.135453	0.610932	-0.216061
-0.367444	-0.653436	-0.0129871
0.358709	-0.375329	0.249263
-0.553884	-0.304796	-0.212181
-0.0257382	0.249698	-0.0225766
0.595305	0.441821	-0.0652075
0.62704	0.41137	0.00563507
0.217747	-0.170022	-0.111542
-0.0564029	-0.250377	-0.0572825
0.17596	0.361518	-0.23002
0.708579	-0.0912881	-0.12852
-0.514535	-0.45912	0.162956
-0.670071	-0.022386	0.18289
-0.215382	0.601614	-0.207791
-0.715628	0.180064	-0.0767311
-0.225816	0.481545	0.247961
0.184983	0.61725	0.204099
0.577827	-0.466895	0.0592259
-0.1615	-0.334664	0.214504
-0.168752	-0.294565	-0.191658
0.0413873	-0.356449	0.206337
-0.0392823	0.250727	0.0433414
-0.0587869	0.247065	0.0443353
0.157837	0.294457	-0.187015
0.341423	0.667207	-0.0159625
-0.274934	0.366491	-0.246473
-0.204649	0.613331	-0.202525
-0.342362	0.63511	-0.115902
-0.468475	-0.112669	-0.249339
-0.0933358	-0.285953	0.151061
0.401694	0.542964	0.178141
-0.618196	-0.343187	0.140084
-0.499614	0.117609	-0.249648
-0.666859	0.283863	-0.109465
-0.621532	-0.17038	0.204036
-0.240438	0.110632	0.0843778
-0.126588	-0.72843	0.0722004
-0.0401566	-0.602442	0.227442
0.54918	-0.421157	0.160019
0.0779598	-0.44607	-0.24551
0.332461	-0.656191	-0.0836042
0.552394	0.493272	0.0679849
-0.249809	-0.491652	0.244643
-0.32778	0.336711	0.248182
0.423677	-0.226821	-0.249244
0.385902	0.00609279	0.222469
0.385436	-0.300311	0.249741
0.0396822	0.694285	-0.155922
-0.416102	-0.600225	-0.0971544
0.372238	-0.487915	0.222651
-0.113039	0.22725	0.0434882
0.597752	0.370023	-0.145899
-0.233712	0.663639	-0.145091
-0.558261	0.241315	0.22538
-0.142796	0.227689	0.0950215
0.15197	-0.428296	-0.245817
-0.329278	0.40488	-0.249041
-0.620181	0.0762188	-0.216595
0.0268009	-0.681586	-0.171275
0.57785	0.0855873	-0.235411
-0.679023	0.208033	-0.135374
0.221463	0.716556	-0.000721772
0.229879	-0.65336	-0.159365
-0.57008	0.439176	-0.119426
-0.528692	-0.430922	0.171329
0.544599	-0.168921	-0.239943
0.242249	0.340924	-0.236248
0.667142	0.340287	0.0232685
0.434176	0.398579	-0.233475
0.30819	-0.646585	0.125396
0.585514	0.463249	0.0410304
-0.635688	-0.108252	-0.203769
0.0130612	-0.58842	0.233787
0.0263733	0.706359	0.140401
-0.251447	0.303601	-0.226513
-0.0417282	0.493738	0.249959
-0.731887	-0.0862299	0.0797197
-0.709765	-0.0558894	0.132559
-0.420012	-0.312927	-0.248868
0.694216	-0.00406279	-0.157402
-0.74624	-0.0405508	0.0363628
-0.0311612	-0.720278	-0.116963
-0.320487	0.472628	0.239694
-0.274731	0.68499	-0.0764299
0.740045	-0.104042	-0.0364901
-0.0304664	-0.717571	-0.121987
0.607725	0.359692	0.141367
-0.241943	-0.212007	-0.175228
-0.644211	-0.348207	0.0924079
-0.317776	0.0364907	0.173352
-0.248651	0.518692	0.238418
-0.617113	0.175627	0.20602
0.666574	0.077886	-0.182268
-0.12087	-0.220572	0.0275113
-0.542034	-0.234023	-0.233085
-0.389311	-0.429699	-0.236911
0.682668	0.305528	-0.0321882
-0.253267	0.290146	-0.22205
0.28983	0.411205	0.249981
0.150959	-0.289634	-0.180103
0.316775	-0.632941	-0.139015
0.491449	0.555628	-0.0635637
0.284199	-0.665372	0.111966
0.288232	-0.673802	0.0909692
0.111236	-0.741375	-0.0127665
-0.30415	0.220893	-0.217024
-0.213648	0.130223	-0.0101619
-0.0476895	0.640058	-0.205873
-0.404954	0.438	-0.230618
-0.544575	-0.1227	0.243125
-0.677447	-0.320224	-0.0184429
0.0344526	0.725068	0.107124
-0.690748	-0.292175	0.000605309
0.157806	0.489874	0.24957
0.516097	-0.113263	0.248384
0.184006	-0.61953	-0.202738
0.287839	0.193042	-0.197387
-0.347444	0.272601	-0.243088
0.310015	-0.502865	0.232948
-0.456673	0.0232939	-0.246321
0.613751	0.407586	-0.0802779
0.260467	0.501142	0.241459
0.278767	-0.54619	0.222894
0.556306	-0.221709	0.229624
0.547541	0.342029	-0.203234
0.0078369	0.624166	-0.216957
0.033707	0.252776	0.049814
-0.480266	-0.374569	-0.224956
-0.24413	-0.0539311	0.00286454
0.232881	-0.31033	0.223505
-0.25475	-0.484783	-0.245418
-0.351576	0.019987	-0.20159
0.665916	-0.259089	0.12834
-0.117524	-0.72767	0.0792717
0.643068	0.0841963	-0.201075
-0.111596	0.706416	0.127276
-0.0338288	-0.280233	0.122851
-0.286473	0.468117	-0.245187
0.639492	-0.078385	0.204166
0.442464	-0.60405	0.0248039
0.297226	0.687886	-0.0179728
0.356478	-0.14278	0.221463
0.105231	0.260857	0.121091
-0.394281	0.134821	0.235712
-0.746245	0.0746371	0.00400199
0.0314884	0.697756	0.152024
-0.261708	0.0352335	0.0826845
0.55662	0.20312	-0.232249
0.471649	0.541943	0.121591
-0.317224	-0.00383174	-0.170591
0.457052	0.502401	-0.174327
0.268801	0.0622553	-0.110843
-0.0150155	0.428407	0.239608
0.138952	-0.220724	0.0727513
0.392701	0.623535	-0.0798893
-0.607089	0.0798835	0.223347
0.426916	0.565477	0.137889
0.277475	0.162632	0.175162
0.259729	0.685816	0.0897094
0.274066	0.0959093	0.136207
0.200457	0.715764	-0.0574732
-0.66587	-0.345118	0.00188457
0.709022	0.0920545	-0.127619
0.146995	0.341178	-0.214445
0.148573	-0.202015	-0.0195612
0.607703	-0.21435	0.204081
0.519863	-0.50012	-0.116165
-0.132924	-0.281282	0.163768
0.707559	0.175854	-0.100101
0.637929	-0.368661	0.0801811
0.568045	-0.445085	-0.115637
-0.297021	0.0443064	-0.150408
0.559689	0.351422	-0.191366
0.176504	0.460515	0.249907
-0.432464	-0.277887	0.249605
0.423923	-0.521653	-0.181252
0.225705	-0.672458	0.136686
0.664801	0.145866	-0.172853
-0.164935	0.261092	0.161096
-0.227508	0.254113	0.192985
-0.459096	0.582763	0.0632099
0.461445	-0.449903	-0.204029
-0.150539	0.522178	0.246196
