0.194554	0.533232	0.240683
-0.232406	0.124928	0.0820699
0.691776	-0.181206	0.12738
0.297107	-0.194287	-0.203649
0.118661	0.737546	-0.0384186
0.140402	-0.734555	-0.0326934
0.395775	0.636865	0.00938808
0.281237	-0.0438233	0.12695
0.604548	-0.28826	0.18353
-0.207128	-0.143521	-0.0314985
0.111833	-0.273171	-0.143344
-0.484488	0.477214	-0.173446
-0.463707	0.38083	0.229109
-0.388393	-0.520201	0.200599
0.559158	-0.495403	-0.0382989
0.102246	-0.29708	0.167248
-0.621838	-0.0378234	0.217656
0.396691	-0.027424	0.228083
0.239141	0.683885	0.110018
-0.577558	-0.47001	-0.0515104
-0.633937	-0.143651	0.199993
-0.110818	-0.552751	0.241735
-0.557209	-0.147741	0.23802
0.087108	-0.384396	-0.226482
0.269099	-0.639575	0.15783
-0.617697	-0.260361	-0.183
-0.461615	-0.589413	0.0258208
-0.107669	0.23533	0.0657143
0.533415	-0.0377313	-0.247573
-0.274879	0.464967	-0.246756
0.340156	-0.614482	0.146816
-0.1877	0.255852	0.170669
0.70554	0.13829	0.120642
-0.0987642	-0.650887	0.193467
-0.329663	-0.416523	0.248046
0.334013	-0.23999	-0.233732
0.348084	-0.627436	-0.123224
0.445008	-0.576244	0.102386
0.283332	0.352365	0.245378
0.55619	-0.344494	0.196752
-0.309233	0.659261	0.102141
-0.277896	0.639786	-0.153234
0.260291	0.70335	0.00398822
-0.227301	0.109385	0.0334778
-0.736256	-0.13539	0.026414
-0.134341	-0.248888	0.123843
0.444306	0.490171	0.190775
0.447143	0.143789	0.248156
-0.0320005	0.63323	0.21103
-0.061458	-0.30638	0.16534
0.0060656	-0.338677	-0.19103
0.458011	-0.548069	-0.128828
-0.326572	0.529993	-0.217915
0.319193	-0.505852	-0.229932
-0.0636323	-0.253161	0.0734569
-0.148329	0.666676	-0.170351
-0.0235854	-0.501142	-0.249994
-0.636127	0.362739	-0.0924393
-0.205416	0.166725	0.0840761
-0.0515893	0.367358	-0.214125
0.117457	0.586211	0.23005
0.236649	0.141324	0.110275
0.144154	0.359043	-0.222954
0.515511	0.396737	0.199623
0.279311	-0.00433172	0.117522
0.00794977	0.727954	-0.102553
-0.194608	0.504324	0.246686
0.64919	0.108709	0.193556
-0.205748	0.399008	-0.244728
0.205672	0.235352	0.165423
-0.102516	-0.67687	-0.168602
0.73969	-0.100038	0.0421339
0.604309	-0.0331653	0.22678
-0.298413	-0.469149	0.243644
-0.108685	-0.417667	-0.240454
-0.647547	-0.377455	0.0153797
-0.011203	0.337467	0.190114
-0.385848	-0.362282	0.248281
0.247833	-0.292714	0.221217
0.648152	0.217502	-0.169601
0.581661	0.46121	-0.0614775
-0.259894	0.498369	0.242174
0.461768	0.400135	0.224
-0.263923	-0.566874	0.216332
-0.438396	-0.153299	-0.247456
-0.313397	-0.359099	0.248905
0.61558	-0.296896	0.169855
0.540634	0.0748226	0.245771
0.567109	-0.48948	-0.0207742
0.392983	0.638729	-0.00546091
-0.264931	0.239683	-0.205246
-0.0812025	0.645723	0.199391
-0.341174	0.232221	0.234264
-0.407049	0.0170873	0.232221
-0.327146	0.462926	0.240895
-0.627657	0.145809	-0.2041
0.437072	0.5957	0.0738484
-0.0257566	0.390453	0.225133
0.233046	0.614252	0.194574
0.540655	-0.519108	-0.0154831
-0.284438	-0.0382762	0.130889
-0.673893	0.32064	0.042937
-0.227792	0.710473	0.0440012
0.0196407	-0.625429	0.216079
-0.229672	0.683581	-0.116621
-0.74067	-0.10874	0.0263261
0.361555	-0.535857	-0.202632
0.146045	-0.20318	0.0105481
-0.643642	0.193119	0.181438
0.286505	-0.0637985	0.14095
-0.187402	-0.192787	-0.0952622
0.0599644	0.246804	-0.0444548
-0.474209	0.117054	0.249733
-0.150915	0.634932	0.198007
-0.503375	0.534417	-0.0875803
-0.242945	-0.296531	0.221114
0.593306	-0.150537	-0.223456
0.570186	-0.483062	-0.036625
-0.304569	-0.293593	-0.237858
-0.496649	0.265967	-0.241832
-0.157498	-0.609937	0.213576
0.437085	0.606071	-0.0370576
0.501509	0.548723	0.0571666
0.609111	-0.0847554	0.22199
-0.631652	-0.402846	-0.0202443
0.163093	0.728973	-0.0386455
0.483268	0.551521	-0.089849
0.222206	-0.382539	-0.243272
0.250401	-0.591907	0.205277
-0.105667	-0.332201	-0.198944
0.636006	0.315517	0.135696
0.0675597	-0.740693	0.0554729
0.0555107	0.478413	-0.249324
-0.323051	-0.586171	-0.183952
-0.051939	0.515896	-0.249314
-0.163339	0.427793	0.246432
-0.413533	0.541433	0.172142
-0.722046	0.202178	-0.00955124
0.48742	-0.558995	-0.0640493
-0.0949791	-0.255384	0.103594
0.609495	0.204584	-0.205123
0.260414	-0.698807	0.0458874
-0.235741	-0.495386	0.245227
-0.281478	-0.0354188	0.125352
-0.369079	-0.0999756	0.220603
-0.638471	-0.101078	-0.202634
-0.0783503	0.244872	0.0591608
0.425198	0.578578	-0.12235
0.497812	0.0416602	0.25
-0.150992	0.199258	-0.0015333
-0.184536	0.68591	0.135181
0.442138	0.277275	-0.24904
0.333837	0.301742	0.244948
-0.186036	0.55316	0.235606
-0.128104	0.301255	0.18082
-0.216403	0.167468	-0.106106
-0.260312	0.649787	-0.150014
-0.318259	0.651899	0.108062
0.48074	-0.533548	-0.122052
-0.257808	-0.661258	-0.136052
-0.332626	-0.246577	-0.234762
-0.418817	0.509306	0.192597
0.59131	0.0855044	0.230221
-0.266517	-0.447362	0.249139
0.268917	-0.649474	0.14599
-0.078721	0.739521	0.0557738
0.316342	-0.014911	0.169996
0.262624	0.662159	-0.131957
0.432137	0.156381	0.246708
-0.105081	-0.727761	-0.08444
-0.262565	0.153818	0.155573
0.0645645	0.747126	0.00668188
-0.00199993	0.314441	0.167541
-0.317753	0.10745	-0.188192
0.271082	0.653049	0.140068
0.499216	0.308498	0.234431
0.562856	-0.484378	-0.0604463
-0.329576	-0.448633	0.24349
-0.39827	-0.0403254	0.229262
-0.474571	-0.556016	0.0955813
0.473432	-0.164298	-0.249997
-0.0283274	0.345123	-0.197158
-0.595945	-0.238626	0.205796
-0.558318	0.116809	0.239881
0.259072	0.131175	-0.136245
-0.490764	-0.542894	-0.093553
-0.553159	-0.154434	0.2387
-0.0613752	0.301767	0.160047
0.0677423	0.637141	-0.206627
0.395179	0.622928	0.0774417
0.219866	0.454147	-0.249958
0.741957	-0.102301	0.0225974
0.40961	-0.599607	-0.106544
-0.410499	-0.319941	0.249162
0.596726	0.106139	-0.226372
0.141136	-0.509192	0.248383
0.235878	0.0849062	0.0186186
-0.363578	-0.446828	0.238149
-0.150214	-0.338459	0.213721
-0.601077	-0.225326	0.20581
-0.492862	-0.425901	-0.198952
0.319199	-0.0510766	-0.176813
0.499932	-0.0148259	-0.25
-0.0204216	-0.415907	0.235611
-0.378429	-0.613216	0.117653
-0.361991	-0.518744	-0.211962
0.295033	-0.0796378	-0.157181
-0.215078	0.287923	0.206706
0.360956	-0.576039	0.173714
0.391155	0.000809734	-0.225062
0.168324	-0.457907	0.249705
0.18839	-0.507361	-0.24658
0.488744	0.500515	0.150583
-0.1052	0.612217	0.218662
-0.733364	0.111971	-0.0632634
-0.158507	0.378046	-0.233211
0.273725	0.204722	0.19359
-0.0202569	-0.507742	-0.249867
0.146629	-0.203361	-0.0188332
0.207869	-0.602238	-0.209052
0.164712	0.657367	-0.175861
-0.738385	-0.100615	-0.0487104
0.458791	0.57509	0.08341
-0.390716	0.201556	-0.242604
0.396142	-0.379788	0.245193
0.683623	0.29707	-0.0478394
-0.19503	-0.187568	0.0993509
-0.70646	-0.204951	0.0836544
0.133207	0.712322	-0.109652
-0.747334	-0.0393285	0.028519
0.0575741	0.473065	0.248898
0.42185	-0.364019	-0.243369
-0.703228	-0.242775	0.0546403
-0.269515	-0.29173	-0.227873
0.435506	0.576208	0.114428
0.494039	-0.0769179	0.25
0.519254	-0.400954	0.195324
0.39026	0.515521	-0.202521
0.0814055	-0.24204	-0.0515022
-0.612352	-0.413842	0.0730781
-0.472003	-0.262235	-0.246786
-0.599614	-0.24323	-0.202165
-0.708823	-0.147998	-0.110794
-0.254437	0.0274332	0.054045
0.0925917	-0.352623	0.210144
