0.289912	0.181851	-0.193926
-0.0854496	0.277356	-0.135988
0.139088	-0.348284	0.216523
-0.0554661	0.396341	0.229217
0.467795	-0.453738	0.198715
0.494033	0.55126	0.06917
-0.29806	-0.467443	-0.244013
-0.187121	0.468618	0.249958
0.0602066	0.409058	0.234546
-0.182205	0.599234	-0.215737
0.273285	0.276251	0.223801
-0.50418	0.424983	0.192592
0.0558911	-0.673439	0.177793
0.599016	0.443951	0.0467193
0.551892	-0.27736	0.220577
0.499257	-0.559378	-0.0106126
0.355595	0.330525	0.249578
-0.181539	-0.684507	0.138437
-0.528682	0.458042	0.150658
-0.745782	0.0450619	-0.0376908
-0.32755	0.635553	-0.127583
0.336345	0.668965	-0.0248686
-0.725232	0.176491	0.0422847
0.0881797	0.236319	0.0333546
-0.364567	-0.351042	0.249926
-0.0481056	0.533906	0.247384
-0.666908	-0.331114	-0.051765
-0.212572	-0.135397	0.0318001
-0.593367	-0.334697	-0.172184
0.54928	0.341094	-0.202527
0.151997	-0.540358	-0.242361
0.246957	0.657995	0.146176
0.549463	0.371306	0.18942
0.722706	-0.0610167	0.108398
-0.580919	-0.471861	0.0281335
-0.502846	0.144338	-0.248926
-0.338211	-0.580887	-0.181264
0.0644869	0.402786	-0.232423
0.699471	0.27057	-0.00328901
0.227821	0.460326	-0.249629
0.605304	0.233061	-0.201026
0.562086	-0.37421	-0.178283
0.740704	0.0844451	-0.0472067
0.318941	0.662226	0.0852158
0.250081	-0.0376858	0.0379954
-0.4917	-0.409814	-0.207062
0.0994376	0.591489	-0.22922
0.239005	0.332136	-0.232925
0.650023	-0.343417	0.0848429
0.507572	-0.551052	0.0200928
-0.339412	-0.189889	0.223967
0.145871	0.549392	0.240453
0.69651	-0.0835848	-0.147969
0.140246	0.693515	0.139361
0.732852	-0.145549	-0.0375414
-0.144406	0.365732	-0.226043
0.0882839	-0.729146	-0.0867361
0.667303	-0.334275	-0.0425826
-0.675062	0.314915	0.050223
-0.630389	0.3856	0.073436
-0.195197	-0.723536	-0.0172559
-0.322506	0.236074	0.228987
0.519766	-0.412616	0.189009
-0.00732338	-0.695574	-0.155678
0.565227	0.472648	-0.0801527
-0.524604	-0.301734	-0.226794
-0.494866	0.475862	-0.166442
0.543176	0.345811	-0.204423
0.0282033	0.65332	0.196992
-0.0626244	0.287333	0.141762
0.67145	0.227174	-0.137426
0.2603	0.209279	-0.18693
0.416357	0.46776	0.215797
0.160753	0.51594	0.246714
-0.724759	0.0402683	0.107144
-0.7258	0.129559	0.0787498
-0.572698	-0.0727599	-0.237749
-0.0538016	-0.637119	-0.207536
-0.0566114	0.293751	0.148868
0.305445	0.677234	-0.0590424
0.343701	-0.512966	0.220685
-0.643275	0.20335	-0.178877
-0.191133	-0.202781	-0.116229
0.48805	-0.320373	0.235534
0.149071	-0.722718	-0.0767378
0.385061	0.283388	0.249039
-0.0669713	-0.555717	-0.242758
-0.384517	-0.564122	0.170642
0.259476	0.212052	0.187907
0.11039	-0.264955	-0.130937
0.120752	0.293265	-0.170489
0.633572	0.356768	-0.104491
-0.201736	0.720859	0.0268405
0.474876	-0.56555	0.0750109
0.551835	0.217573	-0.231987
-0.201623	0.173866	-0.0886228
0.455571	-0.556587	0.120106
0.494219	0.387805	0.214622
0.318745	0.668977	0.066357
0.148323	0.508098	0.248277
-0.311882	0.538459	-0.218065
0.500342	-0.553294	-0.0446868
-0.0160204	-0.254241	-0.0484795
-0.396929	-0.373995	0.245849
-0.629716	-0.284955	-0.161081
-0.118572	-0.253759	0.118919
-0.558587	-0.361167	0.18766
-0.446496	0.510602	-0.175253
-0.000548744	0.395559	0.227139
0.153218	0.640532	-0.193249
-0.233911	0.709697	-0.0369724
-0.313264	0.0897688	0.179386
-0.568603	-0.0107216	-0.240374
0.173911	-0.333791	-0.217297
0.39691	-0.087649	-0.231846
0.146663	0.559145	-0.237501
-0.3382	-0.591296	0.172258
-0.484046	0.504562	0.151059
0.716986	-0.169489	0.0803186
-0.33572	-0.666984	0.040425
0.338699	-0.661591	0.0577054
0.193975	0.344034	0.226858
-0.294577	-0.430147	-0.249087
0.576917	-0.386606	0.157095
0.386304	-0.317638	-0.25
-0.0406786	0.748859	-0.00432649
0.0947238	-0.231383	0.00323577
0.651656	0.366194	-0.0352786
0.288055	0.0735393	0.146323
0.0896718	-0.484815	0.249903
-0.626003	-0.39986	0.0595227
0.516731	0.156331	-0.246802
0.443089	-0.355454	-0.240561
0.309407	-0.287159	-0.237563
-0.480148	0.0304535	0.249286
-0.534821	-0.483228	0.117262
0.0285621	0.345587	0.197533
-0.541798	-0.463034	-0.131367
-0.598295	-0.095706	-0.226462
0.248874	0.705464	-0.0309552
0.201323	0.181812	-0.100906
0.270454	0.632567	-0.164839
-0.674664	0.132315	-0.165341
0.410573	-0.220229	-0.247665
-0.34337	-0.61199	0.147656
-0.167714	0.198526	-0.0696079
0.274664	0.588497	-0.200421
0.616208	0.288862	-0.172917
-0.369824	-0.130767	0.225594
-0.129744	0.3375	0.208182
-0.224218	0.135137	0.0758794
0.025527	0.353484	0.203229
0.18524	-0.637346	-0.188933
-0.128557	-0.612843	0.21582
0.335354	-0.643571	0.107508
0.454647	-0.0223745	-0.245953
-0.386893	0.241057	-0.24607
-0.20246	-0.675419	-0.142932
-0.107281	0.605806	-0.221859
0.673471	0.133034	-0.166503
0.00715122	0.341447	-0.193351
0.0384587	-0.541555	-0.246288
-0.50476	0.48939	0.145838
0.50464	0.403928	0.202657
-0.250149	0.00931084	-0.012694
-0.137332	0.271106	0.155071
-0.499829	0.535322	0.09216
0.605072	0.338193	0.158697
0.23731	0.139302	-0.109332
-0.432421	-0.279436	0.249558
0.379393	-0.621533	-0.102152
-0.701874	-0.0404259	-0.145862
-0.0651783	-0.422562	0.239275
-0.204648	-0.278201	-0.196438
-0.541481	0.453143	-0.14154
-0.169624	0.390115	0.238609
0.285689	-0.691633	-0.0289797
-0.550562	-0.163124	0.238729
0.448779	0.345625	0.241009
-0.193637	0.72365	-0.0210862
0.432191	-0.11398	-0.244311
-0.460306	-0.213921	-0.249885
0.249187	-0.0317802	-0.024524
-0.259688	-0.528382	-0.233717
0.505371	0.381609	0.211519
-0.0192375	0.726966	-0.104264
-0.511197	-0.417269	-0.192198
0.604972	0.139712	-0.218825
0.309279	-0.0589954	-0.167992
0.0448723	-0.744483	-0.04545
0.384675	0.641928	0.0285716
-0.0535512	0.493162	-0.249969
-0.302655	0.509716	-0.232138
-0.547793	0.46655	0.119582
0.565198	0.366489	0.179878
-0.664958	-0.0155706	-0.187693
-0.566176	0.434955	-0.129307
0.604172	-0.160477	-0.216436
0.25532	-0.0400769	-0.0644356
-0.218102	-0.54012	-0.235998
-0.430621	-0.573597	-0.123702
0.263717	0.100599	0.122826
-0.0439409	-0.660072	-0.190807
0.566559	0.353818	0.18517
0.38896	-0.61973	-0.0939382
0.272471	-0.676985	0.098541
-0.256325	-0.502671	0.241602
0.464258	-0.545559	0.125254
0.234526	-0.0918473	0.0305218
-0.296357	0.688851	0.00724001
-0.706307	0.0720346	0.135691
0.075176	-0.255817	0.089667
-0.707209	-0.247806	0.0177628
0.4047	-0.514802	-0.196284
-0.44905	0.184831	-0.249585
-0.717815	-0.0999409	0.109509
0.377694	-0.517309	0.206773
0.71267	-0.200853	-0.0684997
-0.55909	-0.49365	0.045436
0.649329	0.371048	0.0325905
-0.171502	0.182709	0.0171766
-0.571116	0.453842	-0.0991847
-0.483213	-0.259434	0.24526
-0.424881	-0.332788	-0.246828
0.183098	-0.180735	-0.059866
0.409905	0.393406	0.240533
0.535567	0.151187	-0.243532
0.108006	0.719085	0.104415
-0.0443768	0.738944	0.0690491
0.150029	-0.20418	-0.0409311
0.00994034	0.38841	-0.223777
-0.311186	0.679912	0.0335274
0.0294749	-0.74265	0.0577671
-0.307768	0.290263	0.237864
-0.0149703	0.263957	-0.0835684
-0.599316	0.152469	0.220182
-0.618125	0.188436	0.202788
0.611659	0.391889	-0.105964
0.153537	-0.728646	0.0514596
0.155622	0.20858	-0.0708129
-0.304572	0.547587	-0.215581
-0.261528	0.186909	-0.174988
-0.0890937	0.545088	-0.244464
-0.19269	-0.715162	0.067676
0.631281	0.00484513	0.212745
0.0390174	0.356957	-0.206501
-0.246449	0.708121	0.010443
0.201628	-0.212408	-0.139985
0.60581	0.0951379	-0.222885
-0.350714	0.320363	-0.248748
-0.35572	0.333733	0.2497
-0.599415	-0.181898	0.215688
-0.557516	0.496344	0.0420039
-0.487929	0.430212	-0.19962
0.229702	-0.166315	-0.125167
0.395736	-0.575627	-0.151932
