-0.253823	0.644872	0.158873
0.575359	0.436332	-0.114773
0.0014274	0.414067	0.234768
-0.529749	0.443758	0.161241
-0.550061	-0.396352	-0.175561
-0.294817	-0.632835	0.15245
-0.655293	-0.339985	0.0757733
0.227092	0.126985	0.0706303
0.073619	-0.437683	-0.243608
0.0951677	-0.439075	0.244799
0.370233	0.193829	-0.236135
0.0365957	-0.617127	-0.220286
-0.0775162	0.705526	-0.136
-0.59609	0.43929	0.0683606
-0.241211	0.255745	0.201154
-0.0195454	-0.499763	0.25
-0.249253	-0.0244693	0.0150134
0.523137	-0.221771	-0.240517
-0.345075	0.445232	-0.241853
0.139532	0.241038	0.115942
0.630171	-0.336378	-0.128697
0.512163	0.183917	0.246064
0.728709	-0.0783665	0.0908447
0.499012	0.5421	0.0801387
0.0205617	0.517315	-0.249371
-0.140972	-0.208676	0.0302017
-0.481302	0.420966	0.207511
0.460319	-0.249055	0.248905
0.388561	-0.251383	-0.247215
0.627648	-0.0957699	0.210472
-0.602314	-0.444643	0.0258639
-0.744834	-0.0627345	0.0354678
-0.316095	0.350412	0.248418
-0.370486	-0.0719891	0.217883
0.180685	-0.686954	0.135151
0.246498	-0.289371	-0.219387
0.204514	0.364943	0.236288
0.209738	-0.136957	0.0157191
0.236656	0.193204	-0.157073
0.367887	0.631546	0.0958781
-0.692858	0.285394	-0.0182293
-0.229729	-0.100851	0.0210853
0.512703	0.101464	-0.248972
0.369784	-0.447632	-0.236645
-0.518084	0.370289	0.209245
0.210031	0.138108	0.0261336
-0.281806	-0.23172	-0.210314
-0.71932	0.121108	-0.0992757
0.70479	-0.244543	0.0444884
0.375086	0.2618	0.246346
-0.331359	0.0314538	0.185904
0.153332	-0.612858	-0.212467
-0.691585	0.0879278	-0.153725
0.241979	0.280985	-0.214038
-0.229786	0.144443	-0.101234
-0.687575	0.277077	-0.0653652
0.576007	0.359876	0.174333
0.559595	-0.493467	0.0440211
-0.0819072	-0.237113	0.020734
-0.401668	-0.600635	0.113864
0.224982	-0.159676	-0.110784
0.339485	-0.630164	-0.126232
-0.0639941	-0.482001	-0.249621
-0.197994	0.28719	-0.199114
0.199873	0.502274	0.246684
-0.286267	-0.26932	-0.225965
0.538079	0.233677	-0.234511
0.539395	-0.510423	0.0603125
0.368003	0.0351544	0.213345
-0.17205	0.720951	-0.0657619
0.0794634	-0.473149	-0.249181
0.500327	-0.379774	-0.214665
0.501628	0.293321	-0.236483
0.238278	0.0881134	-0.0448069
-0.456307	0.175514	-0.249753
-0.231909	0.713231	-0.00260703
-0.402303	-0.632749	0.00967794
-0.388758	-0.425695	0.238009
-0.501204	-0.0785707	-0.249893
-0.173166	0.603	0.215119
-0.0831136	0.428449	-0.241784
0.47801	-0.495754	0.164023
-0.261376	-0.0708773	-0.0998722
-0.187271	-0.476314	-0.249721
-0.031078	0.72351	-0.110655
0.584513	-0.469892	-0.003928
-0.287135	0.22284	-0.209421
-0.000625356	0.749985	-0.0027533
0.444684	0.59092	0.0715337
-0.372801	-0.0156203	0.215414
-0.349015	-0.131753	0.215372
0.303159	0.539562	-0.219918
-0.111822	-0.248196	0.103043
0.10005	-0.23803	0.0635118
0.308973	-0.0440647	-0.164904
0.6304	-0.380552	0.0814531
-0.656766	0.185687	0.17085
0.637858	-0.134019	-0.198648
0.34992	-0.0853749	0.207248
-0.257425	-0.655608	0.144037
-0.250001	0.279945	-0.216694
-0.729591	0.0293648	0.0975529
-0.330248	0.472201	-0.238096
0.234009	-0.516857	-0.240753
0.12134	-0.66818	0.174414
0.384849	0.369032	-0.247787
0.649366	0.372534	0.0260678
0.598417	-0.169347	-0.218257
0.476699	-0.266751	-0.245683
-0.171522	-0.6539	0.177529
-0.190643	0.406641	0.244766
-0.370212	0.64499	-0.0558321
-0.226106	0.676275	0.130768
-0.39186	-0.0690863	-0.228202
0.522517	-0.295434	-0.229018
0.50615	-0.486458	-0.147272
-0.469292	-0.28712	-0.244917
-0.0028237	0.445347	-0.243955
-0.664066	0.232636	-0.145026
0.704078	-0.224015	-0.0738073
0.68803	0.222533	0.112767
0.00866367	-0.253772	0.0440965
0.749094	-0.0016416	-0.0212434
0.534374	-0.525329	0.0180075
-0.482909	-0.460114	0.186029
-0.586377	0.380452	0.151342
-0.290297	0.691524	-0.00273694
0.482339	0.485802	0.168609
0.41711	-0.264855	-0.24993
0.420991	-0.394097	-0.237954
-0.0482639	-0.251125	0.0531764
0.230557	0.598533	-0.206168
0.265456	0.334632	-0.239146
0.4641	-0.467794	-0.19296
-0.589825	-0.439288	0.0840801
-0.377738	0.0342866	-0.218928
0.1961	-0.713918	0.0687513
-0.493737	0.226459	-0.24624
-0.319618	-0.159567	0.205228
-0.505538	-0.515566	0.114836
-0.467091	0.130293	-0.249545
-0.68952	0.105009	-0.153315
-0.549285	-0.503813	0.0480078
-0.68823	-0.14979	-0.14403
0.512683	-0.515049	0.105352
-0.0922541	-0.581465	0.233721
-0.749071	-0.00184206	-0.0215105
-0.136041	-0.576127	-0.232468
-0.537893	0.406367	0.179376
0.114584	0.72942	-0.075381
-0.667569	0.215774	0.147878
-0.532696	0.440696	-0.160877
0.727698	-0.109443	0.0828247
0.380962	0.39796	-0.244761
-0.390972	-0.613792	-0.103133
0.665302	0.345382	-0.0139518
0.697941	0.0652527	-0.148678
-0.374364	0.109566	-0.224533
-0.44049	0.521743	-0.170516
0.213742	0.682283	-0.127608
0.602371	-0.409678	-0.101467
-0.686713	0.232028	0.109276
-0.155771	-0.26097	0.155094
0.610723	-0.00312249	-0.22414
-0.0523535	0.24648	-0.0313891
-0.476607	0.484277	0.174043
0.462437	-0.03848	0.2474
-0.584855	0.460103	-0.0537928
0.0605684	0.24306	-0.0156885
-0.504872	0.554413	-0.00875693
-0.227194	0.666222	-0.14466
-0.409149	0.590823	-0.12119
-0.119826	-0.677563	0.164703
0.131282	0.712659	-0.109691
0.401222	0.423568	-0.235668
0.681708	0.115188	-0.160863
-0.290753	0.602702	0.18407
0.716518	0.205048	-0.0483503
0.205964	-0.296266	-0.207679
0.331212	-0.430148	0.246294
-0.354592	0.112514	-0.214755
-0.679011	0.300936	0.0599336
-0.262596	0.00624847	-0.0785787
0.294738	0.0826109	0.157801
0.301912	-0.261454	0.22886
0.0587342	-0.716036	-0.121588
-0.475734	-0.346701	0.23375
-0.251314	0.0144437	0.0293466
-0.311176	0.507714	0.231046
0.47411	-0.313222	0.240509
-0.235533	0.656024	-0.153887
-0.592715	0.16164	-0.22231
-0.439689	0.591824	0.0787288
0.159674	-0.530926	-0.244006
0.451975	-0.113994	-0.247695
0.238778	-0.710632	0.0127451
-0.392439	0.621582	-0.0850158
-0.183315	-0.342291	-0.223652
-0.228164	-0.274568	0.205061
0.626646	0.402553	0.0506985
0.0133274	-0.323319	0.177147
0.12588	0.732671	-0.0570398
-0.0681755	-0.743327	-0.0419979
0.0805719	0.671089	0.177641
-0.593086	-0.268938	-0.199084
-0.287708	0.459304	-0.246451
-0.492363	0.564434	-0.02229
0.487664	-0.531245	0.116614
-0.437184	0.173195	0.248222
0.4802	-0.559229	-0.0792426
-0.692064	0.251233	0.0817557
0.47753	0.566022	0.0680814
0.134382	-0.305898	-0.187034
0.486522	0.405905	-0.211301
-0.122312	-0.285783	-0.163478
0.251921	-0.22502	0.190226
0.324736	-0.00407575	0.178302
0.284333	0.31011	0.2371
0.240882	-0.703927	0.0544374
-0.578924	-0.437702	-0.107377
-0.605292	-0.125555	-0.220305
-0.116059	0.663594	0.179833
-0.260952	-0.519569	-0.23637
0.0400508	0.313729	-0.169544
0.173804	-0.649072	-0.181485
0.558368	-0.218197	0.229352
0.0875546	-0.308875	-0.174571
0.11473	0.740624	-0.0164575
0.494361	-0.0018705	0.249936
-0.368502	0.553952	-0.187531
-0.369562	0.175099	0.232828
-0.616316	-0.336511	-0.14702
-0.416794	-0.21464	0.248047
-0.334844	0.635206	-0.122273
-0.453428	0.299189	-0.246232
-0.414255	0.536114	-0.176036
-0.153417	-0.202407	0.0444255
-0.374858	-0.26191	-0.246325
-0.240281	-0.578373	0.215751
-0.534034	0.089293	0.24654
0.225526	-0.426858	-0.249406
-0.468818	-0.365809	0.231391
-0.0785123	0.416008	-0.23796
0.192886	0.592235	0.217731
-0.0152171	0.324693	0.178584
-0.599328	0.265712	-0.195684
-0.162758	-0.32695	0.210558
0.0561105	0.703722	-0.141713
0.49383	0.215673	-0.24696
-0.156194	-0.378449	0.233011
0.740887	0.115002	0.0109665
0.404177	0.607182	0.0993697
0.209374	0.350477	-0.232557
-0.522313	-0.241745	0.238313
-0.0635328	0.296774	-0.154555
0.159242	0.219022	0.0998206
0.684272	0.300597	0.0360523
-0.00564192	-0.250211	0.0117123
0.491759	-0.146092	0.249662
