-0.507156	0.523802	-0.100084
0.615323	-0.31824	0.159212
-0.211353	-0.245942	0.177827
0.0251059	-0.543815	-0.246027
-0.105952	-0.718418	-0.106483
-0.104608	0.412764	0.238739
-0.189449	-0.575042	0.226674
-0.247967	0.0630169	0.0537627
0.710903	0.110874	0.11967
0.451153	-0.551394	-0.131788
0.212205	-0.486043	0.248151
0.0272966	0.255953	0.0603925
-0.166786	-0.635706	0.194375
0.672437	-0.0777611	-0.176635
-0.548298	-0.384188	-0.183765
-0.0769512	-0.289021	0.148779
-0.492757	0.52985	-0.111882
0.626265	-0.0904642	0.211833
0.305969	0.124157	-0.183488
0.680464	-0.171188	-0.147751
0.470788	0.477104	-0.183047
0.421184	-0.189665	-0.247083
0.153198	-0.648599	-0.186536
-0.0928004	-0.349946	0.208489
0.627686	0.104313	-0.20958
0.14988	0.55881	0.237336
-0.455206	-0.574068	-0.0915256
-0.401214	-0.500907	-0.205909
0.0976039	0.317216	0.18504
0.449815	0.251265	-0.249535
-0.731182	-0.165874	-0.0109334
0.373435	-0.424697	0.24126
-0.717756	-0.124659	0.101427
-0.0047691	-0.262744	-0.078931
0.711578	-0.215332	0.0568725
-0.569888	-0.108225	0.23683
-0.284613	0.681048	0.0761313
0.0834351	-0.45136	-0.246616
0.502963	-0.190072	-0.247144
0.325846	0.507013	0.227935
0.179163	-0.696437	0.120372
0.636771	-0.364962	-0.0881472
-0.0843731	0.490149	-0.249986
-0.195294	0.412339	0.246142
0.523199	-0.493119	0.12065
0.531144	0.497407	0.103242
-0.692295	0.245108	0.0869167
0.409201	-0.606405	0.0942467
0.567895	0.317869	0.199395
0.0829109	0.501515	0.249861
-0.0495715	-0.715817	0.123208
-0.342179	0.666064	0.0242862
0.12056	0.238261	-0.0906825
-0.510873	0.523394	0.0946479
0.246552	-0.0414274	0.00198982
0.658005	-0.147438	0.179199
0.313332	-0.0398947	-0.169094
-0.715316	0.0252682	0.12628
-0.09841	0.400773	-0.234254
-0.49534	-0.256593	-0.243214
-0.474844	-0.54639	-0.111233
-0.448614	0.593366	0.055037
0.0681458	-0.462665	0.247899
0.170433	-0.693567	0.128911
0.700014	-0.262459	-0.0345623
-0.250625	-0.172836	-0.155747
0.555704	0.387586	-0.176032
0.191522	-0.601137	-0.212985
-0.0604033	-0.434728	-0.24242
-0.188925	0.332826	0.220777
-0.196849	-0.719243	-0.0461987
0.565099	0.489895	-0.0324427
-0.445648	0.0632362	-0.244972
-0.320726	0.668728	-0.0640277
-0.262852	-0.0550342	-0.0945079
0.443012	-0.535141	0.156793
-0.599867	-0.081093	0.226731
-0.0423728	0.472916	-0.248728
0.357978	-0.331483	-0.249706
-0.414661	0.55092	0.163025
0.643835	0.276562	-0.149034
0.0215825	-0.409495	0.233262
-0.311341	0.222687	0.220817
0.279087	-0.440444	0.249081
0.391032	0.637805	-0.0305045
-0.204975	-0.179931	0.104187
0.621678	0.212141	0.194653
-0.473227	-0.0233439	0.248624
0.588015	0.397601	-0.135921
0.307038	0.00263649	-0.158966
-0.473776	0.569188	-0.0680282
-0.32195	0.539482	0.2146
-0.0688587	-0.285166	0.140714
-0.0816555	-0.241805	-0.0508204
-0.530865	0.516859	-0.0667676
0.487308	0.505281	0.147321
0.639876	0.16923	0.190516
0.0148062	0.510418	-0.249774
0.533195	-0.110991	0.245985
-0.632746	0.29335	-0.153354
0.252259	-0.469453	-0.247821
-0.305839	-0.0422279	-0.160997
0.422984	0.0557031	-0.238993
-0.208052	-0.70536	0.0841737
0.36403	-0.610242	-0.134757
-0.313742	-0.595002	0.180807
0.234735	0.400183	0.247387
0.173341	0.184744	0.0406874
-0.434432	0.565436	-0.130794
-0.65655	-0.346804	0.0607097
0.630763	0.405678	-0.00461776
0.467054	-0.12191	0.249401
0.53549	-0.363818	0.201932
-0.232063	0.309855	-0.223066
0.155416	0.706422	0.112383
-0.604002	-0.437597	-0.0453007
-0.65151	-0.365988	0.0368473
0.0804775	-0.29731	0.160124
0.223914	0.38049	-0.243056
0.44338	-0.0557124	0.244288
-0.219816	-0.716967	0.00682421
-0.208967	0.228723	-0.162257
0.542582	-0.142176	0.242469
-0.47726	0.319047	-0.238772
0.130415	0.716712	-0.101472
0.0924394	-0.656489	-0.189584
-0.254722	-0.701639	-0.0420084
-0.0696619	0.547593	0.244531
0.0169346	-0.470689	0.248312
0.290606	0.535508	0.224851
0.399977	0.390409	-0.242956
0.35462	-0.597268	0.156928
-0.573641	0.203435	-0.225158
0.653518	-0.03862	0.19642
-0.242535	-0.70962	0.00622563
-0.234294	-0.710884	-0.0273633
0.558407	0.451022	0.122729
-0.18488	0.168611	0.010495
-0.615662	-0.424964	-0.0308732
-0.700992	0.230308	0.0769716
0.145345	0.621552	0.208249
0.456278	0.369965	-0.234217
0.590931	-0.32685	-0.178241
0.549154	0.0233512	-0.24502
-0.700141	0.161584	0.1214
-0.360569	0.543234	-0.198479
-0.218442	0.247731	-0.183566
0.295411	-0.645814	-0.135381
0.0843419	0.288867	0.15123
-0.316852	-0.273544	-0.236375
0.622875	-0.380761	0.0978959
0.485123	0.0626371	-0.249764
0.487281	0.320553	-0.235727
-0.268205	0.698272	-0.0314858
-0.0285195	-0.255752	-0.0601243
0.411272	0.387646	0.241357
-0.369253	0.0687112	0.216847
-0.632186	-0.370821	-0.0908279
0.567551	0.0782639	0.239128
0.0682958	0.245971	-0.0510922
-0.256988	-0.459902	-0.248556
0.650154	-0.36464	0.0475924
-0.743915	-0.0325429	-0.0515538
0.21636	-0.129317	0.0320368
-0.647415	-0.368299	0.0505204
0.535508	0.13969	-0.244224
-0.254964	-0.0922632	-0.100623
0.546526	-0.112054	-0.243204
-0.56554	-0.445549	0.118809
-0.722108	0.145207	-0.0808571
-0.620861	-0.407319	-0.0605861
-0.136275	0.232099	0.0959553
0.310546	-0.592891	-0.183952
-0.626756	0.402405	0.050638
0.0130708	0.409097	-0.232969
0.457695	0.137054	0.24901
0.432341	0.466826	-0.209593
0.238589	0.518889	-0.239672
-0.535243	-0.374623	-0.197466
0.342391	-0.358974	0.249969
0.228444	0.349387	-0.235975
0.519484	0.538208	0.03142
0.421072	-0.229333	-0.249156
-0.147639	0.256605	0.144578
0.484247	-0.33501	-0.233684
0.210962	0.686489	-0.122067
0.294832	0.207193	0.207362
-0.163781	0.228227	-0.120418
-0.636255	-0.0253072	0.209278
0.408479	-0.101719	-0.237174
-0.523324	-0.13739	0.246605
0.698867	-0.223508	0.0886947
-0.677415	-0.0276405	0.175566
-0.290739	-0.206423	-0.204761
0.448027	0.0646727	-0.245479
-0.0905311	-0.686681	-0.159362
-0.497031	-0.255412	-0.242983
0.562768	0.454955	-0.111686
0.225486	-0.372537	-0.241526
0.10371	-0.281709	-0.150256
-0.237795	-0.0776716	-0.00891558
-0.379981	-0.531589	0.19738
0.1835	0.68722	0.133616
-0.457512	0.529112	-0.150687
-0.0830813	0.74479	-0.0171705
-0.606595	0.21207	-0.205343
-0.43245	-0.235267	-0.249882
0.548178	-0.112841	0.242774
-0.460348	0.441561	-0.208538
0.270813	0.665869	-0.12088
0.705896	0.0412382	0.140035
-0.0731251	-0.246795	-0.0603798
0.170124	0.703626	0.111215
-0.187583	-0.394822	0.241962
0.0580782	-0.453964	0.246389
-0.142695	0.205438	0.00815172
-0.575378	-0.438612	-0.112034
-0.196998	-0.654764	0.169509
0.451104	0.568894	-0.106796
0.337424	-0.222317	0.230866
-0.541779	0.433046	-0.158198
0.496466	-0.458376	0.177835
0.0987516	0.624152	-0.212363
0.0802636	-0.719367	0.111355
0.461093	0.476004	-0.189803
-0.668859	0.322441	0.060683
-0.733732	0.0118747	-0.0884547
-0.305317	-0.569656	-0.20271
-0.55576	0.285429	-0.216638
0.521511	0.502393	-0.110739
0.154753	-0.727039	0.0573783
-0.680765	0.300086	0.0545727
-0.520062	-0.442216	-0.170694
-0.677528	-0.31085	0.0475632
-0.103224	-0.650421	0.193283
0.353245	-0.278422	-0.244904
0.243094	0.112627	0.0929377
-0.624476	0.390784	0.0805457
-0.376354	0.164057	-0.233452
0.587173	-0.162394	-0.224882
-0.0516785	0.246427	-0.0298411
-0.749052	0.00628756	0.0214422
0.0820416	0.337362	0.197864
-0.233251	0.158586	0.122476
0.073153	0.310683	-0.172638
0.0975902	0.230185	-0.00301348
0.0841747	-0.740704	-0.0473669
-0.295781	0.0140195	0.144673
-0.258743	-0.66531	-0.129488
0.100969	-0.689993	-0.15348
0.444814	-0.546771	-0.1433
0.516147	-0.130076	-0.247907
0.675061	-0.00483542	-0.178459
-0.288646	-0.281423	-0.23047
-0.569006	0.327185	0.195062
0.398262	-0.542655	0.180362
0.29166	-0.194705	-0.200508
-0.473989	0.565939	-0.0758719
0.048414	0.443346	-0.244094
