0.30129	0.138226	0.184669
0.222604	0.690141	0.108656
0.278037	0.13157	-0.159626
0.30282	-0.240672	0.222909
-0.626768	0.306221	0.153182
-0.292811	-0.301942	0.237057
-0.614929	0.317747	-0.159907
-0.073667	-0.602057	0.226158
-0.285011	-0.580774	0.20226
-0.383171	-0.643727	-0.0207752
-0.652072	-0.270563	-0.141683
-0.47515	0.330692	-0.237223
-0.369906	0.0640584	-0.216744
0.221583	-0.577398	-0.220155
0.339124	-0.121441	-0.207267
0.132244	0.672495	0.167739
0.208154	0.152213	-0.062235
-0.365626	-0.562638	0.182369
0.102931	0.610014	0.220057
0.0442084	0.379548	-0.220461
-0.106253	-0.735856	-0.0566918
0.370967	-0.0263585	-0.214688
0.129639	-0.732642	0.0543374
-0.355409	-0.29852	0.247415
-0.280693	0.434505	0.249402
-0.109214	-0.464805	-0.248982
-0.677154	-0.140025	-0.160734
0.347205	-0.0637657	0.202224
-0.584697	-0.00720805	-0.2352
0.0169528	-0.249658	0.0107777
-0.695841	0.124668	-0.140298
-0.31083	0.119809	0.186149
-0.189494	0.640187	0.185461
-0.204588	0.146564	-0.0288399
-0.476025	-0.0132826	-0.248866
0.39624	-0.572596	-0.154775
0.530365	-0.236199	0.236657
-0.258383	-0.459293	-0.248539
-0.564705	-0.487629	-0.0439514
-0.181928	0.538484	-0.240465
-0.711808	0.235154	-0.0133204
-0.0329311	0.255651	-0.0618185
0.429934	0.470302	0.208987
-0.0651532	-0.24743	-0.053833
0.0856065	-0.737806	-0.0597466
-0.30532	-0.435936	0.247915
-0.490758	-0.510014	-0.139018
-0.0560408	0.420347	-0.238189
0.369324	0.621588	0.112951
0.336725	0.127396	0.207136
0.0450915	0.310874	0.167187
0.197667	-0.443257	0.249569
0.619001	-0.356701	0.128543
0.225437	-0.367284	0.240276
-0.307188	0.369527	0.249241
-0.415887	-0.566863	0.145829
-0.396397	0.314212	-0.249932
-0.513396	0.516387	0.102169
0.420232	0.619876	-0.0235035
-0.601966	0.0913708	-0.225054
-0.494	-0.499677	0.146404
-0.399228	0.321998	0.249667
0.495232	-0.425746	0.197652
0.117252	-0.240051	0.091015
-0.579657	-0.160993	0.228424
0.478275	-0.350768	0.232012
0.448653	-0.530585	0.156637
0.324191	0.0969197	0.190723
-0.378173	-0.638627	-0.061964
0.726281	0.170238	-0.0447273
0.199193	0.167991	-0.0719408
-0.14063	-0.704405	-0.12183
-0.258882	-0.701177	0.0356748
-0.631314	0.404493	0.0104637
-0.557876	0.014961	0.243161
0.586951	-0.310554	0.188652
0.045844	0.714738	-0.125517
-0.302489	-0.0517252	0.158759
-0.0221137	0.59648	-0.230461
0.596678	-0.453765	-0.0138114
-0.0481864	0.747813	0.0178182
0.530469	-0.529128	-0.0193601
0.233305	-0.651128	0.160515
-0.25393	0.0429947	0.060951
-0.590882	0.44369	0.0736016
0.288053	0.00155123	0.132591
0.3865	-0.170901	0.237716
-0.252923	-0.705225	0.019885
-0.631277	-0.268313	-0.167121
-0.44643	0.108669	0.246692
0.0321981	0.258781	0.0726082
-0.355036	0.26139	-0.242909
-0.187944	0.196984	0.103124
-0.0392863	0.330432	0.185824
0.361025	-0.072938	-0.212509
0.319111	-0.643274	0.122241
-0.496104	-0.0503873	0.249996
0.360377	0.244989	0.241607
-0.204148	0.247499	0.174351
0.412769	0.619649	-0.0519532
0.201699	0.530743	0.240637
0.741976	0.109361	-0.00203459
-0.078251	0.591896	-0.230395
0.360982	0.336601	0.249917
-0.493792	0.318611	-0.234128
0.592015	0.0548165	0.231432
0.260802	0.0837972	0.106743
0.281656	0.052484	-0.130075
-0.126358	-0.630219	-0.205229
-0.317452	-0.676698	-0.0355508
0.619448	-0.422406	-0.0109129
0.460138	-0.377022	-0.231299
0.138118	-0.728809	0.0635763
-0.439911	0.129954	-0.246566
0.554591	0.310246	-0.210113
0.701679	-0.264848	-0.000772235
0.136119	-0.226377	-0.0829143
0.155947	-0.26087	0.1551
0.418142	0.317786	-0.248727
-0.587847	0.0553677	0.233064
0.182011	-0.242444	-0.154125
0.696858	-0.261631	-0.0528323
-0.280216	0.523297	-0.231817
0.42799	0.397411	-0.235449
-0.0206161	-0.747658	0.0320127
0.57252	-0.474527	0.0561635
-0.0647441	0.347277	0.202405
0.696523	0.259778	0.0571072
-0.667495	-0.236695	-0.138364
0.687472	-0.0952518	-0.157634
-0.461599	-0.271221	-0.247483
-0.529542	0.0223082	-0.248192
-0.289462	-0.0532514	-0.142111
0.349842	-0.34394	-0.249823
0.263333	0.623542	-0.176686
-0.152981	-0.720883	-0.0797551
-0.741721	-0.0276779	0.0618165
-0.62172	0.350201	0.12996
-0.217485	0.128839	0.0371947
-0.632426	-0.373833	-0.0862465
-0.0162971	0.288861	0.134588
0.0558314	-0.640305	0.205249
0.26578	0.0647659	-0.105942
0.645511	0.00243667	-0.203286
-0.280975	0.322079	0.23923
0.301111	0.115955	-0.176218
0.315008	-0.189107	0.211944
-0.371342	0.12267	0.225025
0.341262	-0.307205	-0.246643
-0.0279897	0.733414	0.0881395
-0.600371	-0.443872	0.040864
0.249123	0.0209183	1.985e-05
-0.528871	-0.179898	-0.243028
-0.120659	0.639288	0.199567
0.44763	0.580407	0.0906912
0.713105	-0.173805	0.0880536
-0.537543	-0.0139321	0.247137
-0.320689	-0.0328862	0.17592
-0.330479	-0.259725	-0.236964
-0.262062	-0.619188	0.181085
-0.740386	0.0883389	0.0465002
-0.0801783	0.744967	0.0191027
-0.0634277	0.710893	-0.129711
-0.294884	0.47733	-0.242426
-0.447161	0.240251	-0.249884
-0.303989	-0.0395857	0.158364
-0.427301	0.256115	-0.249993
-0.277259	0.0254951	-0.115784
-0.314445	-0.675098	-0.0510271
0.0342566	-0.493124	0.249935
0.384477	-0.50849	-0.208802
-0.449114	-0.431264	0.217847
0.0208395	-0.743924	-0.0534675
-0.265172	-0.220692	0.196146
-0.702509	-0.227146	0.0755253
-0.118648	-0.603079	-0.222166
0.588972	-0.119556	-0.228697
-0.404506	0.201627	-0.245343
0.299332	0.0585224	0.156444
-0.718672	0.210654	0.0233322
-0.149594	0.732223	-0.0363177
0.637999	-0.386733	-0.0442129
0.34966	0.659813	0.0402646
0.351597	-0.208222	-0.232704
-0.724199	-0.13879	-0.0784322
-0.259117	0.0419445	-0.0780316
0.166887	-0.728164	-0.0383354
-0.468522	0.404755	-0.219784
0.545793	-0.493514	0.0829694
-0.38563	0.293785	-0.249537
-0.0577951	0.705531	0.138852
0.212012	-0.649593	-0.169987
0.570755	-0.00010622	-0.239778
0.0979145	-0.287889	-0.155297
0.610353	-0.370623	0.129133
-0.00466236	-0.748727	0.0250537
0.420113	-0.620734	0.0151987
0.112131	0.571771	-0.235938
0.513504	0.338369	0.221999
0.142648	-0.485682	-0.249923
-0.324832	0.0925429	0.190203
0.461833	0.560061	0.107055
-0.0545621	0.631892	-0.2109
-0.351744	0.624197	-0.125043
-0.40617	-0.598265	-0.112783
0.325677	0.335683	0.247905
0.543754	-0.173108	0.239811
-0.243187	0.559019	0.224683
0.401921	0.0100642	-0.230011
-0.122956	-0.723782	-0.0875949
-0.29363	-0.420508	-0.249668
-0.604646	-0.30535	0.176178
0.209767	0.206124	0.141779
0.506169	-0.0776615	-0.249707
-0.0678546	-0.427983	-0.240946
0.208071	0.413737	-0.247263
-0.437104	0.468554	-0.206592
-0.325318	0.0666702	0.18521
0.311998	-0.142256	0.194472
0.0978818	-0.557344	0.241165
0.152876	0.733698	-0.0164845
0.0420551	-0.675872	-0.176374
-0.55619	-0.502848	-0.00994002
0.454053	0.377092	-0.233152
0.465376	-0.531931	-0.140519
-0.173109	-0.663287	0.167595
-0.701565	0.0838357	0.140835
0.0788829	0.260826	-0.103638
-0.455998	0.0590376	-0.246747
-0.526689	-0.323665	0.220297
0.03904	-0.70016	0.148323
-0.234691	0.0957514	0.0415218
-0.602589	0.354446	-0.151188
0.0612927	-0.335321	0.192821
-0.114029	-0.677645	-0.165731
-0.510542	-0.190828	-0.245909
-0.310227	0.363326	0.249008
0.191939	-0.725011	0.00246916
0.148945	0.300902	0.188471
0.130554	0.730353	0.0630064
-0.362194	-0.258518	-0.243873
-0.148898	0.393667	-0.237152
-0.582884	0.105021	0.23235
-0.256555	0.471356	0.247298
-0.233086	-0.0958072	-0.031621
0.300974	0.312333	0.241062
0.407011	-0.412778	-0.236958
-0.383691	-0.638	-0.0522053
0.463582	-0.254899	0.248308
0.450762	0.524333	0.160763
0.303644	-0.639318	-0.139049
0.479979	0.491419	-0.166004
