0.679118	-0.178476	0.14705
-0.283968	0.279979	-0.228593
-0.407905	-0.11989	0.238535
0.385848	-0.259424	-0.247531
0.52261	-0.36739	-0.207913
-0.478659	0.0704203	-0.249475
0.425959	-0.595934	-0.0918504
-0.1648	0.226262	-0.11859
0.25265	0.175734	0.159821
0.502832	-0.548706	-0.0532757
0.5053	0.0205736	0.249935
-0.661403	-0.349872	-0.0296035
-0.546267	-0.485053	-0.0967098
-0.225351	-0.146557	0.0951527
-0.130905	-0.710796	0.113501
-0.271893	-0.231108	0.204953
-0.337753	0.631971	-0.1249
0.504476	0.518477	0.112207
-0.736782	-0.0526831	0.0744296
0.31053	-0.602503	-0.175728
-0.453972	-0.0627708	-0.246496
-0.542655	0.188765	-0.238626
0.189111	0.163516	0.00072237
-0.290017	-0.651062	-0.131315
0.199376	0.167398	-0.0711283
0.330895	-0.672609	0.0141995
0.374123	-0.0475537	0.217724
0.300684	-0.0710565	0.161264
0.420521	0.136569	0.243213
0.0410535	-0.325758	-0.181745
0.0953288	0.708779	-0.127302
-0.462758	0.204279	-0.249932
-0.40689	-0.513094	0.196271
0.161505	0.227106	-0.11626
-0.645592	0.0203593	0.203001
0.382693	-0.164273	-0.235629
0.322792	-0.600509	0.171642
0.639644	0.386447	-0.0365146
0.506154	-0.298691	-0.234107
0.0250163	0.560696	0.24238
0.156591	0.255384	-0.149424
0.321491	-0.358026	-0.249291
-0.219797	-0.156555	0.0976311
0.204859	-0.151582	0.0489657
-0.0182057	0.250832	0.0272749
-0.260667	-0.371983	-0.245773
-0.416061	0.596173	0.104743
0.354812	0.224128	0.236743
0.426721	0.0914048	0.241775
-0.443694	-0.412252	0.226577
0.302663	-0.634158	0.146357
-0.577062	0.329063	0.188437
-0.738747	-0.127222	0.0137488
-0.274905	-0.689316	-0.0623067
0.55244	-0.380413	-0.182606
0.0646709	0.5461	0.244966
0.553495	0.0264186	-0.244071
-0.716082	0.0859217	-0.116459
0.189729	0.635097	0.1897
-0.248656	0.0436746	-0.0350015
0.197121	0.530849	0.241058
0.438226	-0.39071	0.234333
0.480864	-0.0771695	-0.249663
-0.614075	0.256113	-0.187514
0.0208737	0.701423	-0.147661
-0.49001	0.480815	0.166478
0.17861	-0.345973	0.224183
-0.0175267	-0.662424	-0.18985
-0.0891526	0.464989	-0.248587
-0.685971	0.0980779	0.15897
0.542946	-0.516464	0.0180163
-0.475362	-0.100001	0.249595
0.623423	0.343857	-0.132555
0.27776	-0.0971112	-0.142006
0.35528	0.590533	0.163448
-0.627213	0.0459096	0.214213
0.028128	0.706918	0.139475
-0.24002	0.080901	0.040408
0.617459	-0.247846	0.187513
0.565939	0.0749005	0.239743
-0.544607	0.0228618	0.245901
-0.175831	-0.727359	0.0290229
-0.30997	0.275372	-0.234969
-0.303565	-0.463723	-0.244043
-0.0824252	0.571984	-0.237556
-0.117045	-0.607542	0.220016
-0.266465	0.60736	-0.189346
-0.741973	-0.108028	-0.0101016
-0.583525	-0.366328	0.163662
-0.173022	-0.487941	0.249372
0.371058	0.405892	-0.244962
0.439752	0.236697	0.249999
-0.310917	0.101543	-0.180549
0.202134	-0.320428	0.218688
0.0808059	0.236675	0.00666484
-0.0532272	0.64637	-0.201073
0.0873598	0.237048	-0.0361899
-0.433176	0.148176	-0.246416
-0.71964	0.203896	-0.0318147
-0.204898	-0.515011	0.244038
-0.506955	-0.460407	0.16835
0.722615	-0.200815	-0.000112927
-0.626032	0.41237	0.013351
0.136751	0.379898	-0.230734
0.172512	-0.313332	-0.205538
0.00787678	-0.581162	0.236441
-0.673551	0.00942828	0.179881
-0.163495	-0.658196	0.175343
0.573497	-0.480023	0.0325087
-0.307017	0.146685	-0.192309
-0.599237	-0.450756	0.00883585
-0.0631542	0.272773	-0.118722
-0.70561	-0.215756	-0.0769607
0.51345	-0.531358	-0.0736686
0.0392398	0.260457	-0.0807391
-0.58801	0.219518	0.214955
0.153731	0.288892	0.180713
0.585774	0.0629923	0.233564
0.115911	-0.607472	-0.220168
-0.321337	-0.0769262	-0.183688
-0.162813	0.532131	-0.243536
0.162142	0.210389	0.0869808
0.10511	0.600652	0.224607
0.619604	-0.112067	0.21375
-0.00771173	-0.642305	-0.205514
0.378855	-0.560407	-0.1771
-0.269816	0.259951	0.216314
0.522673	0.0767315	0.248396
0.639444	0.192946	0.185211
0.477436	-0.572511	-0.0474142
0.026354	0.248882	0.011685
-0.453983	0.0253425	0.24586
-0.0627678	-0.244076	-0.0316997
-0.557783	-0.0429164	0.242833
0.217501	0.392586	-0.244703
0.125537	-0.535751	-0.244895
0.12561	-0.298828	0.177703
0.34057	-0.662965	-0.0481156
-0.67037	0.242735	-0.130945
0.155123	-0.607415	-0.215392
0.525439	0.514596	-0.0840279
0.730263	0.151428	-0.0456418
0.632918	-0.394035	0.0469444
-0.631712	-0.401494	0.0273129
-0.229397	0.138369	-0.0928894
-0.251393	0.673579	0.120645
0.741917	0.0650439	0.0509048
-0.534639	-0.341257	-0.210885
-0.0825161	0.448972	0.246185
0.168729	0.677735	0.152081
-0.45218	0.054355	0.245996
-0.212364	-0.61312	0.200853
-0.588488	0.461348	0.0333177
0.474001	0.517939	-0.147165
0.155484	0.639374	-0.193735
-0.468578	-0.551787	0.11121
0.36094	0.257536	-0.243508
0.231527	0.111137	-0.0579947
-0.403358	0.613866	0.0865873
-0.278203	-0.453183	-0.247974
-0.37954	0.579322	0.159417
0.226509	-0.167159	-0.121501
0.582945	-0.276652	0.203469
0.151099	-0.704724	0.117362
-0.615001	-0.194443	0.203649
0.181728	-0.72764	0.00225218
-0.169419	-0.522157	0.24516
0.327312	0.672748	0.030384
-0.430185	0.46131	0.213073
-0.159656	0.231256	-0.120605
-0.202133	0.152805	-0.0410368
0.183156	-0.540922	-0.23968
-0.114934	-0.736331	-0.0485159
-0.749936	0.00631525	-0.00432202
-0.138479	0.574227	-0.232971
0.272379	0.581201	0.205854
-0.450172	-0.57827	0.0910302
-0.544481	-0.0876575	0.24464
0.577455	0.405353	0.142336
-0.264864	-0.00396692	0.0849988
0.231083	0.287093	0.212646
0.487389	-0.313618	-0.236998
-0.182752	0.722566	0.048156
-0.743136	-0.0774034	-0.0376017
-0.615163	0.414359	0.0638838
-0.125047	0.437525	0.245925
-0.372915	0.471972	-0.228461
0.136853	-0.546392	0.241861
-0.569379	0.0436769	-0.239691
-0.191036	-0.172485	-0.0603072
0.247077	0.412497	-0.249264
-0.393221	0.511169	0.203714
0.208746	0.189502	-0.122256
0.210033	-0.283794	0.20226
-0.38184	0.344141	0.249606
0.392245	0.478514	-0.220005
-0.188003	-0.428593	0.247945
0.108528	-0.360722	-0.217476
0.194026	0.370784	-0.236336
0.00940305	-0.675499	-0.177981
0.538398	-0.111369	0.244991
0.72115	-0.0245628	-0.115791
-0.21674	0.247279	0.182202
0.3569	0.119256	-0.21725
-0.575395	-0.154805	-0.230893
-0.134809	0.727934	0.068922
0.602967	0.345046	-0.156802
-0.315126	0.676825	-0.041154
-0.698933	-0.094815	0.14261
-0.322069	0.40892	0.249156
0.0708464	0.730383	0.0885011
-0.173107	0.239667	-0.144011
0.0946857	0.339068	-0.201514
0.417919	-0.0430742	-0.236899
0.267037	0.4695	-0.246758
-0.587543	-0.451446	-0.0666489
-0.194709	-0.166236	0.0545318
0.15986	0.250337	-0.145949
0.618964	-0.319653	0.15439
-0.372454	0.575454	0.167633
-0.389366	0.442607	-0.233432
0.617883	-0.362878	-0.124904
-0.347043	-0.402278	-0.248034
-0.685398	-0.237221	-0.108373
-0.298936	0.687	0.0197229
-0.188152	-0.201943	0.111036
-0.519985	0.514668	-0.0940861
0.630041	0.406758	0.00566099
0.160283	-0.729032	-0.0420204
0.177433	0.653254	-0.176632
-0.58091	-0.459794	0.0669963
0.294591	0.666458	0.10106
0.218805	0.636981	0.17998
-0.306424	-0.00141466	0.158207
0.0300976	0.740463	0.0662045
0.522293	-0.538072	0.00791317
0.482567	-0.571947	-0.0288712
0.062859	0.664059	0.186015
0.176077	-0.692606	0.128183
-0.509023	-0.55046	0.0113993
0.0817604	0.373052	0.22035
0.138202	-0.344309	0.214153
0.704707	0.240561	-0.0515109
0.447055	-0.528952	-0.159431
-0.36444	-0.639891	0.0813491
-0.394903	-0.549501	-0.176871
0.264683	-0.679335	-0.100119
0.624197	-0.397506	-0.0699239
0.395714	-0.569309	0.158508
-0.444052	-0.212253	-0.249877
0.431855	0.170213	-0.247422
