0.399567	-0.365361	-0.246544
-0.363196	-0.0612372	0.212511
-0.609564	0.433804	-0.0302164
-0.136431	-0.288524	-0.172612
0.0888429	0.456401	0.247533
-0.402262	0.578823	-0.143268
-0.598169	0.31946	0.175413
0.637019	0.0578906	0.207363
0.412319	-0.572866	0.141908
-0.552277	-0.183677	0.236163
-0.551712	-0.17662	0.237092
-0.319575	0.264662	0.235084
0.114843	0.709437	-0.121172
0.57871	-0.355323	-0.174435
-0.595493	0.102489	0.227227
-0.362291	-0.226926	0.239254
-0.194476	0.167972	-0.0586364
0.0314499	-0.535247	0.24737
0.532791	-0.513613	-0.0698508
-0.246523	0.656034	0.148895
0.384346	0.0672894	-0.224593
0.498456	-0.0816968	0.249948
-0.330259	0.489424	0.233072
-0.258155	-0.703903	-0.0111965
0.55169	-0.468943	0.110883
0.00690493	-0.499898	-0.25
0.594046	0.0377892	-0.231145
0.515543	0.161572	0.246736
-0.324518	-0.363088	-0.24966
0.603574	-0.407626	0.101818
-0.745285	-0.0499989	0.0388699
0.330821	0.253188	-0.235675
-0.561341	-0.00906833	0.242339
-0.305636	-0.264273	0.230853
0.258011	0.703161	-0.0223097
-0.727246	0.182506	0.0100691
-0.358028	0.429096	-0.242976
-0.579429	-0.0305676	-0.236775
-0.548171	0.107705	-0.243023
-0.315152	-0.656409	0.102226
-0.484035	0.215926	0.248192
-0.562735	0.46849	0.0925838
-0.27527	-0.294832	0.230566
0.340408	0.0204168	0.192938
-0.317392	0.589027	-0.184137
-0.402042	0.386483	-0.243255
-0.726156	0.103496	0.0893329
0.130005	-0.219268	0.0493083
-0.251804	-0.646427	-0.158004
-0.248101	0.593443	-0.204911
0.278781	-0.668727	-0.109979
0.554506	-0.0561262	-0.243336
-0.268506	-0.0584284	0.108537
-0.247652	0.49638	0.243936
0.254176	-0.0288235	-0.0535608
0.607556	-0.242098	-0.196925
-0.59215	0.104507	-0.228556
-0.200235	-0.446289	-0.249764
-0.606615	0.150567	-0.216494
0.259081	0.379805	0.246739
0.582419	-0.464255	0.0506693
0.528358	-0.319687	-0.220642
-0.135142	0.711179	-0.111205
0.261084	0.445514	0.249463
-0.327273	0.667515	0.0569478
0.235242	-0.0846394	0.00168676
-0.449306	-0.596	0.0423543
-0.697222	-0.0796838	0.147623
-0.230602	0.628784	-0.183547
0.180746	0.645266	-0.183208
0.152236	-0.216341	-0.0840044
0.592377	-0.0261652	-0.232076
0.230781	0.111506	-0.0558008
-0.0109334	0.424262	-0.238296
0.472493	0.0492571	0.248752
0.58452	0.1966	0.221093
0.00541646	0.395521	-0.227139
0.385665	-0.550588	0.181215
0.24338	0.132897	-0.1136
-0.264668	0.413319	0.249831
-0.0740215	0.256979	-0.091705
0.662194	0.295891	-0.108362
-0.723633	0.0244768	-0.110919
-0.281002	0.534564	-0.227377
0.436286	0.605914	-0.0408267
-0.717904	-0.206826	0.0379461
-0.255956	-0.031731	0.0624092
0.196345	0.155477	0.0149757
0.494071	-0.473669	0.168758
0.145064	-0.61608	0.211731
-0.249617	-0.50375	0.242138
0.413603	0.620698	-0.0452134
0.176065	-0.17792	-0.0124052
-0.269711	0.548788	-0.223766
0.21483	-0.164937	0.099937
0.0596483	0.534864	0.247067
0.188864	-0.398444	0.242923
0.253942	0.497437	-0.243057
0.0439326	-0.708044	-0.136563
-0.520403	0.479656	-0.139089
0.3655	0.0245017	-0.211258
0.247546	0.362735	0.242482
0.10293	-0.71089	0.121836
-0.607366	-0.164154	0.214052
0.652451	-0.332229	-0.0927278
-0.246808	0.047272	-0.0254076
0.0589734	0.243496	0.0163566
0.449231	-0.106481	-0.247045
-0.745089	-0.0685711	0.0296345
0.589064	0.0800272	-0.231461
0.0143638	-0.674513	-0.178862
-0.52117	0.381451	0.203046
0.465387	-0.539813	0.131325
-0.451708	0.427666	0.218186
0.094777	0.235489	-0.0436829
0.552532	-0.131748	-0.240568
-0.125157	-0.462233	-0.249106
0.383635	-0.455641	-0.230984
0.434821	0.374541	-0.238831
-0.562393	-0.49087	-0.0417765
0.477375	-0.2824	-0.243954
0.699256	0.208393	-0.0988012
0.573379	0.483456	0.00155079
-0.630178	-0.14461	-0.202536
-0.568411	-0.210499	-0.226352
0.127833	0.714876	-0.106427
-0.743453	-0.0977089	0.00875259
-0.027769	-0.663844	-0.18832
-0.225543	0.714585	-0.018236
0.16534	0.648912	-0.183632
0.705036	-0.019217	-0.142664
-0.047996	0.246115	-0.0193704
-0.720114	0.12334	0.0965579
-0.537667	-0.509577	0.0672701
-0.749489	-0.0272312	0.00287935
-0.179579	0.727431	-0.0191053
-0.0227825	0.339766	-0.192533
0.0820358	-0.693606	0.152057
0.670102	-0.332842	0.0298537
-0.506544	0.231644	-0.243416
-0.122803	0.690348	0.148407
0.604788	-0.395427	0.113822
0.733799	0.0549919	-0.0828957
-0.0752444	0.443965	0.245009
0.3661	0.167798	0.230298
-0.0807749	-0.636982	-0.2057
-0.290005	-0.200145	0.201752
-0.0479387	0.306894	0.163197
-0.272556	-0.434199	0.249679
-0.0159284	-0.749541	0.0120339
-0.248402	0.209097	-0.178234
-0.156149	-0.19772	0.0311137
-0.611877	-0.432675	-0.0173017
0.118182	0.608441	0.219419
0.0708612	-0.299375	-0.159689
0.289384	-0.313649	-0.239029
-0.137512	0.722925	-0.0828079
-0.104445	0.350171	-0.210682
-0.642711	0.339272	0.105258
-0.0823983	0.390498	0.228733
-0.433797	-0.316368	0.247261
0.505075	0.513331	0.118474
0.583575	0.0635049	0.234366
0.146523	0.395302	-0.237384
0.568573	0.227384	0.22333
0.0349104	0.725276	-0.106638
-0.61233	-0.39236	0.104196
0.641541	-0.381786	0.0413971
-0.641018	0.158989	-0.191726
-0.431843	-0.612891	-0.0111994
0.610528	-0.34258	-0.149899
-0.0134343	0.498376	-0.249996
0.396573	-0.634418	-0.0302047
0.0689395	-0.406749	0.234206
-0.205008	0.202933	0.133234
-0.395255	0.453063	-0.228583
0.165796	0.187242	-0.00692221
0.669285	0.303905	-0.0851508
-0.411228	0.0519959	0.234926
-0.427883	-0.284355	0.249621
-0.697479	0.270792	-0.0299349
0.164767	0.590689	0.222884
0.0365171	-0.453002	-0.245819
0.623011	-0.403244	0.0622576
-0.551774	0.344934	-0.199459
-0.217159	-0.50947	-0.244138
-0.33957	-0.367811	0.249999
0.0625922	-0.430661	0.241452
-0.401415	-0.278012	0.249725
0.711076	0.227868	0.0405188
0.608981	-0.432056	-0.0406104
0.596956	0.451679	-0.0266134
-0.462612	-0.0594983	0.247735
-0.695254	-0.280109	-0.014842
-0.254381	-0.286439	-0.220979
0.4973	0.523423	0.114967
-0.137622	-0.685889	0.150585
0.480382	-0.0301998	0.249302
-0.29807	0.133629	-0.180141
0.162658	0.246428	-0.143477
0.517587	-0.0651756	0.249059
-0.457454	0.592611	0.0261034
0.214914	0.128885	-0.0172851
-0.54275	-0.16729	0.240589
0.399013	0.196841	0.243858
-0.271556	-0.127254	0.149858
0.676203	-0.192646	-0.145762
-0.699982	0.248124	0.0601431
-0.408368	0.125103	-0.239135
-0.669277	0.305332	-0.0835233
0.444461	-0.431089	0.219764
0.742897	0.0925532	-0.0260418
-0.236792	-0.0847453	-0.0273437
-0.496877	0.187298	-0.24807
0.248314	-0.490392	0.245015
0.554367	0.300947	0.213061
0.186943	0.167369	-0.0214097
0.299451	0.656812	0.115243
-0.39525	-0.306061	-0.25
-0.231688	0.160139	0.121741
-0.235449	-0.420652	-0.249356
-0.173961	0.726008	0.041334
-0.28773	0.317411	0.239532
0.370513	0.0091586	-0.213922
0.591037	-0.113738	0.228299
0.181738	0.66525	-0.162916
-0.459676	0.581264	0.066258
0.40877	0.597236	-0.111559
-0.486456	0.35069	0.229266
-0.0652724	-0.593238	-0.230491
-0.429045	0.262289	0.249984
0.573083	-0.404549	-0.147997
0.707477	-0.203992	-0.0816269
0.243473	0.585733	-0.210851
-0.225672	-0.483546	0.24773
0.389775	0.153574	-0.236493
-0.103068	0.24501	0.0874838
0.0243153	-0.328848	-0.183067
-0.378093	-0.644896	-0.0348484
0.450279	-0.090367	0.246658
0.535528	0.523398	0.0242275
0.426426	-0.206708	0.248632
-0.0751788	0.40539	-0.234113
-0.628541	0.354766	0.115443
-0.347254	-0.417652	-0.246247
0.490923	-0.0110282	0.24984
