-0.629484	-0.277024	0.165082
-0.343973	0.297737	0.245905
0.37162	0.651166	-0.0112618
-0.618775	0.270471	-0.178236
-0.392937	0.525079	0.195496
-0.0427953	0.672302	0.179837
0.278053	0.696552	-0.000712821
0.0155092	-0.431488	0.240508
0.17648	-0.177292	-0.00880414
0.0476574	-0.718933	-0.117793
-0.0133339	-0.483288	0.249453
-0.446128	0.594589	0.0572863
-0.220243	0.122339	0.0310859
0.539704	0.0655268	0.246157
-0.0095908	-0.357233	-0.205315
0.584282	0.464587	-0.041828
0.288675	0.686854	-0.0494962
0.415143	0.405255	-0.236803
-0.0801631	-0.249077	0.0754573
0.736358	0.112129	0.0505006
-0.735765	-0.129262	0.0384007
-0.267633	-0.45397	-0.248539
0.506694	-0.484241	-0.148825
-0.00536801	0.710029	0.13557
0.575393	0.138911	-0.232487
-0.226697	-0.197482	-0.150864
-0.469084	0.480826	0.181675
0.725901	0.18733	0.0125862
0.337741	-0.349744	-0.249619
-0.748966	0.0262734	0.0169281
0.148748	0.405283	-0.240494
-0.330387	-0.132013	0.204211
0.261276	-0.696924	0.0531215
0.382285	0.352014	0.249225
0.11012	-0.338803	0.204538
-0.369185	0.54273	-0.195041
0.193946	-0.682708	0.136076
0.144945	-0.269978	0.158206
-0.16724	0.396785	-0.240171
0.65808	0.322222	0.0912996
-0.364015	-0.362939	0.249606
-0.0872735	0.648334	-0.196794
0.337283	0.00169417	-0.189802
0.307917	-0.648129	0.123168
0.66349	-0.149064	-0.173464
-0.59145	-0.221934	-0.212486
-0.470814	0.0293449	0.248396
0.352146	-0.0602097	-0.205242
-0.556059	0.399521	0.168478
-0.305417	-0.00132496	0.156967
-0.0305891	-0.293841	-0.143704
-0.545239	-0.182152	0.238528
-0.146513	0.338668	-0.21293
-0.164859	0.254334	0.154035
-0.150115	-0.334326	-0.211359
0.0772797	-0.617013	-0.218304
0.200393	-0.371006	0.237411
-0.585545	-0.450134	-0.0747336
-0.749501	-0.0262132	0.00449547
0.0435644	-0.655823	-0.194336
0.444291	-0.380211	-0.23519
-0.0277453	-0.677631	0.175343
0.740254	0.0943261	0.0431972
-0.550685	0.338877	0.202505
-0.322892	-0.0211047	-0.177134
-0.360551	-0.299223	-0.248013
0.464313	-0.0613879	0.247989
0.271624	0.0314716	0.105694
-0.666457	-0.22464	0.145498
0.538142	0.120212	0.244658
-0.235936	-0.0862687	0.0246005
0.146134	-0.549682	0.240354
0.589899	-0.314853	-0.184532
-0.0333669	0.720523	0.116311
0.161587	-0.190763	0.000992725
-0.703459	-0.167854	-0.112599
0.0170095	-0.259502	0.0702019
-0.648503	-0.0425372	-0.200077
-0.682421	0.206472	-0.13093
0.563064	-0.495257	-0.0077188
0.308349	-0.339012	0.246492
0.150519	0.218953	0.0871984
0.279395	-0.51697	0.234135
0.631431	-0.106086	-0.206933
-0.715155	-0.219841	0.0300891
-0.37729	-0.409335	0.243488
0.52203	-0.480597	-0.13631
-0.376619	-0.257687	-0.246158
0.00240956	0.698187	-0.152382
-0.730074	0.14317	0.0545337
-0.0711979	-0.243934	-0.0451557
-0.342234	-0.364437	-0.25
0.317317	0.670698	-0.0628375
-0.140172	0.684155	-0.152153
-0.182186	-0.711978	-0.0855194
0.25596	0.0182418	0.0571046
0.276617	-0.0117728	-0.112748
-0.211204	-0.701651	-0.091258
0.34008	0.40703	0.248144
0.00761638	0.680092	0.173353
-0.142706	-0.342959	0.214426
-0.0423268	-0.629454	0.213006
-0.0598924	-0.284477	0.136745
-0.326667	-0.172715	0.213246
-0.414096	0.174935	0.244853
-0.545537	-0.213346	0.234826
0.0970997	-0.580212	-0.233894
-0.0436606	-0.714004	-0.127003
-0.272974	0.305853	-0.23322
-0.117699	0.28679	-0.162484
-0.165569	0.40282	-0.241541
-0.118119	-0.414598	0.240317
0.731188	0.110656	-0.0716477
0.20314	0.162419	-0.0703014
-0.060237	-0.430375	-0.241286
-0.175949	0.54367	0.239577
0.218655	0.239524	-0.177864
-0.625355	-0.396875	0.0676931
0.377764	0.0911588	0.223811
-0.389298	0.276441	0.248982
0.74246	0.0774442	0.0417593
-0.260157	0.0356094	-0.0783143
0.45044	-0.599525	0.00762469
0.107542	0.734086	0.0630416
-0.323627	0.242791	0.231072
0.430671	-0.601088	-0.0718627
-0.100675	-0.31216	-0.181421
-0.404117	-0.479462	-0.215308
0.308555	-0.294295	-0.23892
-0.746231	-0.0680958	0.0182757
0.548847	-0.507423	-0.0354758
-0.255406	-0.239947	-0.200327
0.0380088	-0.293957	0.145082
0.467128	-0.0542359	-0.248226
-0.136812	0.671162	-0.168191
-0.312327	-0.5764	-0.195691
0.287181	-0.493785	0.23964
-0.260916	0.69081	0.0751384
-0.50154	0.20957	-0.246175
0.290067	-0.25084	0.221188
0.0055644	-0.31545	0.168699
-0.189424	0.587234	-0.220917
0.11206	0.720552	-0.0998062
-0.545769	-0.357619	0.198101
-0.54883	0.510794	0.0111776
0.498682	-0.416486	0.200205
0.176565	0.722255	-0.0565355
-0.717076	0.215231	0.025657
-0.348532	0.502945	-0.223556
0.524124	0.472654	0.141984
-0.443718	-0.18794	0.249342
-0.541293	0.099676	-0.244868
0.0909124	-0.255393	0.100504
-0.48967	0.0224033	-0.249807
0.69561	-0.154951	0.131438
0.472827	0.318543	0.239965
0.584106	-0.323893	-0.185231
0.28174	-0.404023	0.249889
0.211714	-0.3182	0.220505
-0.328761	-0.311167	-0.245479
0.263514	-0.697946	-0.0443463
0.215797	0.717967	0.0123062
-0.288943	0.11982	0.165701
-0.696499	-0.27582	0.0209106
-0.224093	-0.276319	-0.204198
-0.430333	0.23843	0.249871
-0.113266	-0.724058	-0.0909633
0.234814	-0.497492	-0.244924
0.18724	-0.250094	-0.165268
-0.423523	-0.0544562	0.239107
-0.289839	-0.129431	-0.170782
0.161559	-0.392025	-0.238171
0.665387	-0.100879	-0.180484
0.0163244	-0.25049	0.0225744
-0.340025	-0.495292	0.228789
0.345436	-0.189944	0.226516
0.666168	-0.255382	0.130163
0.497671	-0.0129137	0.249991
-0.00540084	0.488916	-0.249755
-0.340533	-0.274925	-0.242103
-0.140095	-0.522375	-0.246642
-0.364185	0.422849	-0.243164
-0.543308	0.492096	-0.0905209
0.235724	0.119585	0.0834017
0.0675688	-0.657375	0.191392
0.356292	-0.0649587	0.208571
-0.089457	-0.234095	-0.0173901
-0.578921	-0.38186	-0.158275
0.706864	-0.159957	-0.109515
0.272833	0.1388	-0.157818
-0.525491	-0.523618	0.0633757
-0.00427677	-0.289714	-0.135251
-0.734437	-0.0983654	0.0664928
0.0272	0.250648	0.0324845
-0.595226	0.288917	0.190716
-0.387192	-0.128705	0.232466
-0.342938	0.189303	0.225332
0.320015	-0.647995	0.113583
-0.519788	0.484032	-0.135247
0.470366	-0.0326609	0.24837
-0.353846	-0.332722	0.249591
0.35533	0.0366353	-0.205212
-0.0493428	-0.343483	-0.197721
-0.45887	-0.401853	0.224521
-0.73247	0.151759	0.0313545
-0.726367	0.0541908	-0.101686
-0.00275955	0.585682	-0.234856
0.0246711	-0.262462	0.0813871
0.299452	-0.394784	-0.24996
-0.071017	0.674085	0.175731
-0.449666	0.16109	0.248999
0.735693	0.0102779	0.0831568
0.297848	0.620188	0.164789
-0.105533	-0.25155	0.104287
-0.170192	-0.230408	-0.129985
0.657296	-0.143526	0.180682
-0.311116	0.347791	0.247764
0.223765	-0.407669	-0.247544
0.0501314	-0.715653	0.123427
0.392425	-0.10979	-0.232255
0.356156	-0.565637	0.184751
0.464564	-0.538226	0.134102
-0.554465	-0.504941	-0.00586568
0.315929	0.446965	-0.245476
0.143071	-0.704015	0.121651
-0.693086	-0.236332	-0.092467
-0.393452	0.208509	0.24394
0.0160325	-0.307509	0.160024
-0.633535	0.0941564	0.206789
-0.205425	0.265944	0.188729
-0.0473164	0.569717	-0.239504
0.595851	-0.0385777	0.230374
-0.309753	-0.147651	-0.194669
0.111096	0.740639	-0.0231599
-0.169913	-0.583078	0.225788
-0.442489	0.273696	-0.249175
-0.0337405	0.635021	-0.209825
0.252806	0.256093	-0.207024
-0.405286	-0.611673	0.0886398
0.397388	0.371895	0.24605
-0.633638	0.304231	0.146068
-0.15297	0.399188	0.239255
0.129397	-0.258706	0.134496
0.0266983	0.253134	-0.047416
-0.0983639	0.381173	-0.226256
-0.39921	-0.631627	0.0372521
0.542962	0.504985	-0.0646486
0.137063	-0.629213	0.204385
