0.424034	-0.128555	-0.243437
-0.0632825	-0.477787	-0.249348
-0.14229	0.652872	0.184958
-0.675519	-0.161062	0.157123
-0.0846609	-0.384512	0.226285
0.0558871	0.592099	0.231357
-0.143122	0.488444	-0.249839
-0.00980153	0.464433	-0.247472
-0.0601178	0.339573	0.196035
-0.0972326	0.606974	-0.222128
-0.1359	-0.474154	-0.249909
-0.318057	0.171548	-0.208043
0.0117077	-0.66985	0.183347
0.0807491	-0.428606	-0.241708
-0.60212	-0.167989	-0.21644
0.0396996	-0.512477	-0.249607
-0.109956	0.484527	0.24998
-0.157233	0.682684	0.149255
-0.187755	-0.300871	0.203403
-0.371434	0.100851	0.221919
0.667215	0.193926	-0.156662
-0.366038	-0.0184354	-0.211372
-0.401608	0.529876	0.187927
-0.495709	0.00951067	0.249965
-0.296671	-0.673431	-0.0828209
0.678101	0.234991	-0.122973
-0.626215	0.411476	0.0186289
0.00637485	-0.748926	-0.022859
-0.619296	0.372732	-0.113379
-0.536815	0.0703336	-0.246548
0.383678	0.036914	-0.222212
-0.581987	-0.470946	-0.0258048
-0.150443	-0.605491	0.217137
0.560762	0.262402	-0.219797
0.160488	0.522019	-0.245707
-0.000822222	0.742033	0.0626072
-0.0887749	-0.634388	0.206737
0.305203	0.0562272	-0.162876
0.45932	-0.490888	-0.181172
0.14743	0.725206	0.0698633
-0.645786	0.309967	0.125317
0.0174397	0.249451	-0.00547029
-0.166269	0.712249	0.0946284
-0.314621	0.104985	-0.184842
0.354529	0.220839	0.23606
0.252862	-0.0887047	-0.0930691
-0.192394	0.721295	-0.041609
0.0119894	0.271091	0.101103
0.266367	0.668327	0.119752
-0.352851	-0.652073	-0.0649357
0.469159	-0.56729	0.0820326
0.0349373	-0.678383	-0.174235
-0.636945	0.152586	-0.196177
0.320444	-0.645834	-0.116943
-0.200392	-0.650232	-0.173066
-0.345207	0.62054	-0.135496
-0.444673	-0.483313	0.194752
-0.472365	0.529878	0.135865
-0.635423	-0.397082	-0.0188239
-0.722128	0.194306	-0.0329972
0.385182	0.640319	0.0370209
-0.13396	0.235929	0.100993
-0.419501	0.620983	0.0173063
0.216359	0.226306	-0.166027
0.68673	-0.0769416	0.161272
0.559332	-0.22211	-0.228327
-0.542122	-0.451136	-0.142688
0.719689	0.196801	0.0439184
0.290359	0.523366	0.229771
0.141506	-0.257043	-0.1408
0.436706	0.332426	-0.245184
0.300289	-0.111137	0.173696
-0.132815	-0.684073	0.154114
-0.259233	-0.00309752	-0.0673816
0.746895	-0.0508881	0.0261707
-0.60173	-0.265674	-0.193929
-0.518927	0.357423	-0.213476
-0.205798	0.720761	-0.0147268
0.0756699	0.624401	-0.214165
-0.0523191	-0.723985	-0.107151
-0.18999	0.652517	0.173893
0.711379	-0.157098	0.101386
-0.229619	-0.120936	-0.0683306
-0.40451	0.304906	-0.249914
0.000446056	0.742986	-0.0588023
-0.535476	0.414269	0.176535
-0.164983	0.595734	-0.220315
-0.0721332	0.258493	-0.0940583
0.377638	0.486731	0.221432
-0.531454	0.186841	-0.241843
0.508437	-0.508765	0.120085
-0.330532	-0.182776	0.218044
-0.238166	0.0810794	0.0281428
0.246695	-0.495477	0.24421
0.746281	0.00894596	0.04265
0.657069	0.346877	-0.0587056
0.437611	-0.595663	-0.0729075
0.0235992	0.412262	-0.23435
-0.143086	-0.602337	0.219808
0.23463	0.292722	0.216593
-0.227826	0.245893	0.188004
-0.27368	0.651152	0.141168
0.575764	-0.471549	-0.0534507
0.680982	0.242454	0.113292
0.412936	0.00614802	-0.234367
0.0794631	0.596314	0.228431
0.490079	-0.504978	-0.144949
0.303579	-0.685643	-0.00883199
0.102063	-0.263798	0.123885
-0.0582638	0.320473	0.179245
0.08387	0.238197	-0.0354865
0.554737	0.254834	0.224269
-0.407951	0.134177	0.239839
-0.692688	0.0541977	0.156688
-0.31657	-0.595843	-0.178811
0.0749243	-0.725651	0.0991237
0.525483	-0.329581	0.21916
-0.157547	0.732783	-0.0153516
0.600534	-0.278986	0.190262
0.268026	0.0441723	-0.101747
0.191297	0.489283	0.248711
-0.264197	0.301539	0.229522
0.352184	-0.230362	0.237134
0.393927	0.60809	-0.109925
0.500164	0.438103	-0.1879
-0.100795	-0.545183	0.244004
-0.485872	0.524635	0.127469
0.292717	-0.682706	-0.059513
0.209995	0.672425	-0.143873
0.177264	-0.657082	-0.172898
-0.528306	0.189199	-0.242403
0.714561	0.227817	0.000911535
-0.255465	-0.0902464	-0.100151
0.222016	-0.437904	-0.249837
-0.3919	0.63933	0.00756807
0.422238	-0.23437	0.249416
-0.387954	-0.0869504	0.228056
-0.237087	-0.485701	0.246701
-0.742009	0.0650487	-0.0504599
-0.21249	-0.251493	-0.182598
0.218729	0.355641	0.236002
0.106055	0.619046	0.214708
0.34004	-0.659001	-0.064413
-0.28704	-0.618042	0.171981
-0.705792	0.217163	-0.0751253
0.139496	0.362917	-0.223909
0.626668	-0.0572581	-0.213979
0.192748	0.611487	-0.206344
0.0865672	0.241432	-0.0565605
-0.0110072	-0.507963	-0.249869
-0.583077	0.226561	0.21619
-0.709996	-0.241235	-0.00838528
-0.322572	0.676995	0.00644528
-0.725051	0.0386554	0.106713
0.294001	-0.141439	0.179756
-0.086649	0.601108	-0.225793
-0.597082	0.453813	-0.00392785
-0.13517	-0.211456	-0.0219687
-0.0600126	0.267684	-0.107575
0.601968	-0.447335	0.00290703
0.193746	-0.206595	0.124541
0.701559	-0.126377	0.131128
-0.219975	-0.626773	0.188469
-0.440512	0.206167	-0.249628
0.202715	0.23018	-0.158564
0.195371	-0.246981	-0.168055
-0.357848	-0.495673	-0.223834
0.291755	-0.217951	-0.209885
0.182681	0.284115	0.190221
-0.267762	-0.0793414	-0.117379
-0.436726	-0.239588	-0.249993
-0.231788	-0.590029	-0.211103
-0.242426	-0.670583	-0.130791
-0.372824	-0.0215866	-0.215603
-0.57207	0.0183484	0.239298
0.011352	-0.729056	-0.0999646
-0.601734	0.225892	0.205247
0.357281	0.211766	0.235223
0.42722	0.128999	-0.244158
-0.167471	0.621443	0.204634
-0.254854	-0.0853708	0.0950464
0.079284	-0.265657	-0.113473
-0.279837	-0.522631	0.232125
-0.681169	0.304011	0.0449198
0.646753	0.338406	-0.0981278
-0.345777	-0.269666	0.242317
-0.20891	0.371142	0.238766
0.28746	0.534373	-0.226047
0.323157	0.0175441	-0.177185
-0.480069	0.21116	0.248801
-0.734845	0.140632	0.0301075
0.631895	0.0216867	0.212145
-0.078962	-0.73549	0.0709656
-0.56251	0.211964	0.228636
0.216942	-0.193199	-0.136416
0.503976	0.273358	-0.239001
0.0243142	0.732865	0.0899226
-0.551601	0.153861	-0.239209
0.481082	-0.0271732	0.24934
-0.134808	-0.219476	0.0610589
-0.72209	0.172112	-0.0614944
0.398171	0.121273	-0.235547
0.17708	-0.289651	-0.19167
0.12496	-0.613562	-0.215834
0.411545	0.462199	0.219933
0.550503	-0.428932	0.152786
-0.617356	0.196488	0.201579
-0.375305	0.570512	-0.170445
0.405365	-0.455402	-0.224655
0.152387	0.734134	-0.0104058
-0.100466	0.359694	-0.215611
-0.0811123	-0.582774	-0.233853
0.109006	0.738045	0.0442568
-0.125486	0.469823	0.249624
0.255429	0.589612	-0.205368
0.0595569	-0.267401	-0.106785
-0.181467	-0.527051	0.243317
0.351263	-0.630072	0.116167
0.464117	0.57749	-0.0669183
0.275307	0.0376178	0.1147
0.463607	-0.550928	-0.118674
0.144315	0.20635	0.0300115
0.620163	0.17594	0.203912
-0.266412	0.075372	-0.112749
0.0828556	-0.298666	0.162418
-0.47015	0.356069	0.233328
