0.60704
0.585846
0.555909
0.561894
0.583386
0.606376
0.576315
0.590253
0.584935
0.573833
0.575901
0.587568
0.558138
0.557293
0.569256
0.632489
0.558355
0.565785
0.562986
0.610862
0.57382
0.6271
0.585779
0.655101
0.608489
0.594065
0.601357
0.604907
0.567533
0.61034
0.602023
0.596347
0.576036
0.581312
0.562374
0.614577
0.630884
0.581586
0.664918
0.577856
0.557514
0.643389
0.629532
0.62111
0.593333
0.705787
0.616734
0.589908
0.572194
0.583156
0.574909
0.608123
0.643534
0.605012
0.582315
0.646106
0.639926
0.643142
0.569979
0.561414
0.673259
0.60471
0.518009
0.579019
0.618494
0.538662
0.603578
0.559928
0.563304
0.605339
0.598324
0.63151
0.613194
0.590058
0.610131
0.562918
0.580698
0.654255
0.549269
0.566169
0.606614
0.643519
0.564375
0.575098
0.632313
0.572644
0.643359
0.627765
0.584805
0.618161
0.558688
0.574342
0.541593
0.613708
0.578276
0.592489
0.589608
0.585657
0.655957
0.623645
