0.0927863
0.0870606
0.0861794
0.0846058
0.0825545
0.0872699
0.0897132
0.0848338
0.0839623
0.0883592
0.0937477
0.0837189
0.0877676
0.090891
0.0878714
0.0857351
0.0918837
0.0897574
0.0920344
0.0897291
0.0897652
0.0890003
0.0859621
0.0894934
0.085424
0.088394
0.0887651
0.0863383
0.0906675
0.0914312
0.0889327
0.0903563
0.0888753
0.0869355
0.0911092
0.0916049
0.0884355
0.0847056
0.0908551
0.0924631
0.0921327
0.0850531
0.0845681
0.090742
0.0864023
0.0890789
0.0933357
0.0821533
0.0904983
0.0886083
0.089398
0.0849952
0.0894538
0.0835577
0.0906927
0.085983
0.0854733
0.0892498
0.0789423
0.0883307
0.087342
0.087512
0.0877509
0.0938228
0.0941815
0.0863614
0.0922814
0.0906371
0.0924397
0.0826597
0.0934223
0.0887964
0.0839016
0.0867432
0.0874817
0.0923544
0.0884522
0.0859407
0.0835738
0.0859933
0.0939238
0.086457
0.0846641
0.0892134
0.0938289
0.0837467
0.0923647
0.0890134
0.0939593
0.0898146
0.082005
0.0913422
0.0847007
0.0883334
0.0818297
0.0878266
0.0856398
0.0953742
0.0854956
0.089478
