0 0.381407 0.391929 0.372479 0.373277 1.15792e+77 1.15792e+77 1.15792e+77 0.391095 0.413072 0.432156 0.429365 0.405364 0.40573 0.416644 0.38769 0.413855 0.390963 0.410615 1.15792e+77 0.388692 1.15792e+77 0.392535 0.379258 0.418276 0.364545 0.390783 0.378617 0.391497 1.15792e+77 0.383431 0.412803 0.422709 0.354585 0.38445 0.399177 1.15792e+77 0.413218 0.42003 1.15792e+77 0.414034 0.445837 0.351411 0.383125 0.422433 0.39349 0.398462 0.389358 0.375225 0.380293 1.15792e+77 0.431685 1.15792e+77 0.543311 inf 0.494058 0.481718 0.460723 1.15792e+77 0.50937 1.15792e+77 0.49007 0.486037 1.15792e+77 1.15792e+77 1.15792e+77 0.480653 0.497477 0.488739 0.461976 0.515023 1.15792e+77 inf inf 0.484 0.509734 1.15792e+77 1.15792e+77 1.15792e+77 0.493523 0.50361 0.489249 0.487942 1.15792e+77 0.449722 0.499886 0.486167 0.484428 0.505614 0.463942 0.489434 0.488132 0.464055 0.468223 0.497381 0.498117 inf 1.15792e+77 0.494787 0.458834
0.381407 0 0.344999 0.406564 0.380608 1.15792e+77 1.15792e+77 1.15792e+77 0.354597 0.374931 0.379211 0.400498 0.421997 0.383227 0.398759 0.349246 0.375062 0.378341 0.413725 1.15792e+77 0.404251 1.15792e+77 0.416869 0.380105 0.364212 0.384433 0.357982 0.361933 0.364265 1.15792e+77 0.43868 0.382702 0.399316 0.399045 0.34331 0.366772 1.15792e+77 0.387916 0.430346 1.15792e+77 0.378209 0.426817 0.393992 0.346564 0.401424 0.393042 0.382639 0.346793 0.376861 0.384013 1.15792e+77 0.421783 1.15792e+77 0.5129 inf 0.469395 0.456366 0.418351 1.15792e+77 0.474543 1.15792e+77 0.457837 0.467264 1.15792e+77 1.15792e+77 1.15792e+77 0.449218 0.451795 0.456035 0.424084 0.476542 1.15792e+77 inf inf 0.460265 0.476543 1.15792e+77 1.15792e+77 1.15792e+77 0.458262 0.457661 0.459457 0.456411 1.15792e+77 0.424853 0.480839 0.442483 0.447782 0.46599 0.434584 0.451297 0.453041 0.419926 0.444641 0.469623 0.45757 inf 1.15792e+77 0.443521 0.428223
0.391929 0.344999 0 0.430443 0.405953 1.15792e+77 1.15792e+77 1.15792e+77 0.372234 0.363721 0.444683 0.452457 0.408757 0.434025 0.40989 0.363309 0.380748 0.380572 0.420861 1.15792e+77 0.431768 1.15792e+77 0.413562 0.408522 0.405927 0.417843 0.326016 0.410892 0.353841 1.15792e+77 0.424605 0.383607 0.467049 0.416808 0.363673 0.401219 1.15792e+77 0.367142 0.436883 1.15792e+77 0.375626 0.488542 0.419394 0.36938 0.381713 0.396747 0.380146 0.35312 0.393291 0.412659 1.15792e+77 0.463039 1.15792e+77 0.557113 inf 0.512545 0.496955 0.467059 1.15792e+77 0.531156 1.15792e+77 0.48944 0.510841 1.15792e+77 1.15792e+77 1.15792e+77 0.487658 0.501346 0.503651 0.457793 0.519221 1.15792e+77 inf inf 0.4922 0.524771 1.15792e+77 1.15792e+77 1.15792e+77 0.500563 0.508748 0.505776 0.496641 1.15792e+77 0.47289 0.51829 0.495226 0.49165 0.515696 0.487202 0.489647 0.5134 0.460077 0.492305 0.517261 0.501324 inf 1.15792e+77 0.501317 0.478612
0.372479 0.406564 0.430443 0 0.375058 1.15792e+77 1.15792e+77 1.15792e+77 0.392113 0.406025 0.415348 0.385971 0.443338 0.36747 0.416665 0.398557 0.408556 0.417356 0.40136 1.15792e+77 0.391659 1.15792e+77 0.387198 0.403607 0.410443 0.364554 0.388783 0.386522 0.390082 1.15792e+77 0.425843 0.434733 0.390883 0.357966 0.385289 0.397763 1.15792e+77 0.427022 0.415849 1.15792e+77 0.424744 0.409115 0.313895 0.3917 0.402779 0.405129 0.383448 0.411886 0.367198 0.330907 1.15792e+77 0.442618 1.15792e+77 0.530354 inf 0.481413 0.486938 0.451105 1.15792e+77 0.491804 1.15792e+77 0.486081 0.476134 1.15792e+77 1.15792e+77 1.15792e+77 0.473473 0.499664 0.479232 0.460368 0.491997 1.15792e+77 inf inf 0.486198 0.505664 1.15792e+77 1.15792e+77 1.15792e+77 0.475068 0.481055 0.476184 0.480295 1.15792e+77 0.441112 0.4939 0.473475 0.466952 0.483664 0.441853 0.4814 0.46175 0.437076 0.460317 0.497668 0.479256 inf 1.15792e+77 0.483373 0.466745
0.373277 0.380608 0.405953 0.375058 0 1.15792e+77 1.15792e+77 1.15792e+77 0.365784 0.402484 0.378563 0.389926 0.423865 0.377782 0.391282 0.390092 0.378621 0.42078 0.410187 1.15792e+77 0.353292 1.15792e+77 0.40361 0.396753 0.38182 0.377194 0.380002 0.362878 0.389652 1.15792e+77 0.449373 0.420225 0.37199 0.38566 0.378369 0.376605 1.15792e+77 0.413885 0.411672 1.15792e+77 0.357292 0.398786 0.359046 0.393202 0.401365 0.412056 0.389114 0.401973 0.376938 0.342752 1.15792e+77 0.389333 1.15792e+77 0.485282 inf 0.435874 0.428605 0.406845 1.15792e+77 0.45681 1.15792e+77 0.446756 0.433836 1.15792e+77 1.15792e+77 1.15792e+77 0.431321 0.449293 0.432809 0.41169 0.457338 1.15792e+77 inf inf 0.440329 0.448347 1.15792e+77 1.15792e+77 1.15792e+77 0.4356 0.453741 0.435388 0.436108 1.15792e+77 0.406457 0.462924 0.429936 0.419344 0.445582 0.428871 0.431722 0.42798 0.397242 0.413087 0.452356 0.447612 inf 1.15792e+77 0.429949 0.425647
1.15792e+77 1.15792e+77 1.15792e+77 1.15792e+77 1.15792e+77 0 0.633229 0.601583 1.15792e+77 1.15792e+77 1.15792e+77 1.15792e+77 1.15792e+77 1.15792e+77 1.15792e+77 1.15792e+77 1.15792e+77 1.15792e+77 1.15792e+77 0.61089 1.15792e+77 0.623678 1.15792e+77 1.15792e+77 1.15792e+77 1.15792e+77 1.15792e+77 1.15792e+77 1.15792e+77 0.627957 1.15792e+77 1.15792e+77 1.15792e+77 1.15792e+77 1.15792e+77 1.15792e+77 0.643358 1.15792e+77 1.15792e+77 0.642662 1.15792e+77 1.15792e+77 1.15792e+77 1.15792e+77 1.15792e+77 1.15792e+77 1.15792e+77 1.15792e+77 1.15792e+77 1.15792e+77 0.617774 1.15792e+77 0.602115 1.15792e+77 inf 1.15792e+77 1.15792e+77 1.15792e+77 0.63757 1.15792e+77 0.629579 1.15792e+77 1.15792e+77 0.621095 0.590871 0.646725 1.15792e+77 1.15792e+77 1.15792e+77 1.15792e+77 1.15792e+77 0.579141 inf inf 1.15792e+77 1.15792e+77 0.599347 0.620547 0.621887 1.15792e+77 1.15792e+77 1.15792e+77 1.15792e+77 0.48566 1.15792e+77 1.15792e+77 1.15792e+77 1.15792e+77 1.15792e+77 1.15792e+77 1.15792e+77 1.15792e+77 1.15792e+77 1.15792e+77 1.15792e+77 1.15792e+77 inf 0.639996 1.15792e+77 1.15792e+77
1.15792e+77 1.15792e+77 1.15792e+77 1.15792e+77 1.15792e+77 0.633229 0 0.40057 1.15792e+77 1.15792e+77 1.15792e+77 1.15792e+77 1.15792e+77 1.15792e+77 1.15792e+77 1.15792e+77 1.15792e+77 1.15792e+77 1.15792e+77 0.40374 1.15792e+77 0.389901 1.15792e+77 1.15792e+77 1.15792e+77 1.15792e+77 1.15792e+77 1.15792e+77 1.15792e+77 0.424009 1.15792e+77 1.15792e+77 1.15792e+77 1.15792e+77 1.15792e+77 1.15792e+77 0.391572 1.15792e+77 1.15792e+77 0.371622 1.15792e+77 1.15792e+77 1.15792e+77 1.15792e+77 1.15792e+77 1.15792e+77 1.15792e+77 1.15792e+77 1.15792e+77 1.15792e+77 0.473748 1.15792e+77 0.480547 1.15792e+77 inf 1.15792e+77 1.15792e+77 1.15792e+77 0.511693 1.15792e+77 0.476834 1.15792e+77 1.15792e+77 0.465064 0.506818 0.495831 1.15792e+77 1.15792e+77 1.15792e+77 1.15792e+77 1.15792e+77 0.428064 inf inf 1.15792e+77 1.15792e+77 0.457183 0.477954 0.502048 1.15792e+77 1.15792e+77 1.15792e+77 1.15792e+77 0.543541 1.15792e+77 1.15792e+77 1.15792e+77 1.15792e+77 1.15792e+77 1.15792e+77 1.15792e+77 1.15792e+77 1.15792e+77 1.15792e+77 1.15792e+77 1.15792e+77 inf 0.473403 1.15792e+77 1.15792e+77
1.15792e+77 1.15792e+77 1.15792e+77 1.15792e+77 1.15792e+77 0.601583 0.40057 0 1.15792e+77 1.15792e+77 1.15792e+77 1.15792e+77 1.15792e+77 1.15792e+77 1.15792e+77 1.15792e+77 1.15792e+77 1.15792e+77 1.15792e+77 0.375695 1.15792e+77 0.379009 1.15792e+77 1.15792e+77 1.15792e+77 1.15792e+77 1.15792e+77 1.15792e+77 1.15792e+77 0.37335 1.15792e+77 1.15792e+77 1.15792e+77 1.15792e+77 1.15792e+77 1.15792e+77 0.405965 1.15792e+77 1.15792e+77 0.415659 1.15792e+77 1.15792e+77 1.15792e+77 1.15792e+77 1.15792e+77 1.15792e+77 1.15792e+77 1.15792e+77 1.15792e+77 1.15792e+77 0.444162 1.15792e+77 0.454789 1.15792e+77 inf 1.15792e+77 1.15792e+77 1.15792e+77 0.481833 1.15792e+77 0.451281 1.15792e+77 1.15792e+77 0.459609 0.483521 0.476589 1.15792e+77 1.15792e+77 1.15792e+77 1.15792e+77 1.15792e+77 0.423803 inf inf 1.15792e+77 1.15792e+77 0.429358 0.448699 0.485543 1.15792e+77 1.15792e+77 1.15792e+77 1.15792e+77 0.492248 1.15792e+77 1.15792e+77 1.15792e+77 1.15792e+77 1.15792e+77 1.15792e+77 1.15792e+77 1.15792e+77 1.15792e+77 1.15792e+77 1.15792e+77 1.15792e+77 inf 0.459482 1.15792e+77 1.15792e+77
0.391095 0.354597 0.372234 0.392113 0.365784 1.15792e+77 1.15792e+77 1.15792e+77 0 0.383799 0.377401 0.364811 0.403208 0.369254 0.412589 0.368579 0.364812 0.411388 0.396349 1.15792e+77 0.389077 1.15792e+77 0.39822 0.375384 0.363751 0.393822 0.37933 0.375038 0.351301 1.15792e+77 0.44577 0.409153 0.373706 0.419369 0.369089 0.359281 1.15792e+77 0.421925 0.401342 1.15792e+77 0.347348 0.410377 0.377436 0.358952 0.410702 0.418518 0.389513 0.385224 0.354454 0.365531 1.15792e+77 0.357746 1.15792e+77 0.486193 inf 0.428774 0.426705 0.382728 1.15792e+77 0.456039 1.15792e+77 0.4177 0.417167 1.15792e+77 1.15792e+77 1.15792e+77 0.392279 0.433243 0.418938 0.37863 0.441342 1.15792e+77 inf inf 0.413436 0.436102 1.15792e+77 1.15792e+77 1.15792e+77 0.411506 0.431716 0.424147 0.41608 1.15792e+77 0.396964 0.458636 0.410861 0.419793 0.428173 0.401984 0.427459 0.428549 0.389475 0.410456 0.446023 0.425628 inf 1.15792e+77 0.427556 0.391469
0.413072 0.374931 0.363721 0.406025 0.402484 1.15792e+77 1.15792e+77 1.15792e+77 0.383799 0 0.413631 0.441571 0.399106 0.404557 0.421854 0.364489 0.395259 0.350754 0.40751 1.15792e+77 0.441531 1.15792e+77 0.412723 0.400065 0.374849 0.404687 0.35797 0.381971 0.364069 1.15792e+77 0.462689 0.370956 0.438334 0.413007 0.332948 0.425683 1.15792e+77 0.408894 0.41737 1.15792e+77 0.398161 0.454234 0.398069 0.414483 0.41159 0.400996 0.427542 0.382396 0.388747 0.381404 1.15792e+77 0.452237 1.15792e+77 0.529049 inf 0.498545 0.489067 0.462699 1.15792e+77 0.521302 1.15792e+77 0.490812 0.501851 1.15792e+77 1.15792e+77 1.15792e+77 0.48179 0.498434 0.491623 0.463816 0.499962 1.15792e+77 inf inf 0.487886 0.506057 1.15792e+77 1.15792e+77 1.15792e+77 0.483694 0.502384 0.501859 0.489654 1.15792e+77 0.457512 0.508703 0.480888 0.477903 0.5005 0.483397 0.479216 0.488187 0.455557 0.476282 0.510714 0.483689 inf 1.15792e+77 0.485557 0.477099
0.432156 0.379211 0.444683 0.415348 0.378563 1.15792e+77 1.15792e+77 1.15792e+77 0.377401 0.413631 0 0.382258 0.453188 0.373972 0.453766 0.411311 0.394728 0.448565 0.416091 1.15792e+77 0.40963 1.15792e+77 0.453479 0.377441 0.367203 0.408413 0.421424 0.380399 0.423449 1.15792e+77 0.47766 0.436175 0.340031 0.440774 0.389333 0.38266 1.15792e+77 0.480741 0.434063 1.15792e+77 0.393415 0.338971 0.393965 0.412521 0.434222 0.452273 0.441161 0.425215 0.390513 0.369789 1.15792e+77 0.386777 1.15792e+77 0.454197 inf 0.410678 0.40988 0.386557 1.15792e+77 0.408992 1.15792e+77 0.409085 0.408436 1.15792e+77 1.15792e+77 1.15792e+77 0.40013 0.417281 0.401611 0.384612 0.406995 1.15792e+77 inf inf 0.413624 0.420512 1.15792e+77 1.15792e+77 1.15792e+77 0.393662 0.386242 0.411077 0.402234 1.15792e+77 0.37548 0.424293 0.373607 0.403192 0.395648 0.393722 0.400242 0.365282 0.374746 0.398168 0.444412 0.407763 inf 1.15792e+77 0.382234 0.403528
0.429365 0.400498 0.452457 0.385971 0.389926 1.15792e+77 1.15792e+77 1.15792e+77 0.364811 0.441571 0.382258 0 0.474102 0.337856 0.45523 0.418306 0.411881 0.458458 0.430875 1.15792e+77 0.38844 1.15792e+77 0.449153 0.401325 0.413749 0.417733 0.420688 0.401191 0.417793 1.15792e+77 0.475727 0.460486 0.362491 0.432495 0.412711 0.35136 1.15792e+77 0.478393 0.442685 1.15792e+77 0.409931 0.382533 0.376099 0.403068 0.43403 0.449116 0.411255 0.431225 0.36814 0.346041 1.15792e+77 0.411027 1.15792e+77 0.494453 inf 0.446392 0.435235 0.40477 1.15792e+77 0.441487 1.15792e+77 0.436654 0.429038 1.15792e+77 1.15792e+77 1.15792e+77 0.423732 0.437067 0.42608 0.403857 0.454981 1.15792e+77 inf inf 0.441214 0.457481 1.15792e+77 1.15792e+77 1.15792e+77 0.429891 0.417519 0.429194 0.432671 1.15792e+77 0.399857 0.445922 0.426834 0.43645 0.440128 0.387118 0.426739 0.406774 0.418203 0.417513 0.46516 0.453393 inf 1.15792e+77 0.442602 0.414133
0.405364 0.421997 0.408757 0.443338 0.423865 1.15792e+77 1.15792e+77 1.15792e+77 0.403208 0.399106 0.453188 0.474102 0 0.451132 0.41434 0.451255 0.402809 0.416965 0.412812 1.15792e+77 0.440708 1.15792e+77 0.382861 0.384745 0.439643 0.409982 0.436064 0.451486 0.41467 1.15792e+77 0.435888 0.452786 0.459267 0.455568 0.43811 0.438497 1.15792e+77 0.423289 0.379701 1.15792e+77 0.400664 0.504221 0.424066 0.428265 0.402024 0.485861 0.439674 0.42316 0.416506 0.422063 1.15792e+77 0.434992 1.15792e+77 0.530111 inf 0.515987 0.48698 0.463155 1.15792e+77 0.533062 1.15792e+77 0.479724 0.477096 1.15792e+77 1.15792e+77 1.15792e+77 0.469892 0.483112 0.474758 0.455356 0.499474 1.15792e+77 inf inf 0.467644 0.48638 1.15792e+77 1.15792e+77 1.15792e+77 0.493854 0.517057 0.494079 0.484387 1.15792e+77 0.45471 0.497278 0.493691 0.463452 0.512234 0.497531 0.481882 0.514138 0.469785 0.482601 0.532589 0.480415 inf 1.15792e+77 0.49134 0.484833
0.40573 0.383227 0.434025 0.36747 0.377782 1.15792e+77 1.15792e+77 1.15792e+77 0.369254 0.404557 0.373972 0.337856 0.451132 0 0.426509 0.374658 0.393593 0.413524 0.422251 1.15792e+77 0.376045 1.15792e+77 0.415853 0.396392 0.380521 0.391318 0.382959 0.376561 0.377117 1.15792e+77 0.4528 0.415219 0.367273 0.39627 0.373283 0.357206 1.15792e+77 0.450397 0.426211 1.15792e+77 0.403053 0.386989 0.36303 0.383786 0.409179 0.396537 0.390812 0.4016 0.367678 0.326118 1.15792e+77 0.404926 1.15792e+77 0.489908 inf 0.444434 0.452189 0.410796 1.15792e+77 0.443372 1.15792e+77 0.44475 0.440977 1.15792e+77 1.15792e+77 1.15792e+77 0.43933 0.453039 0.43407 0.42178 0.459235 1.15792e+77 inf inf 0.444878 0.465212 1.15792e+77 1.15792e+77 1.15792e+77 0.437046 0.423372 0.447772 0.422843 1.15792e+77 0.415223 0.472621 0.42247 0.444297 0.44382 0.387782 0.441205 0.41185 0.392521 0.423277 0.455346 0.453402 inf 1.15792e+77 0.433829 0.429818
0.416644 0.398759 0.40989 0.416665 0.391282 1.15792e+77 1.15792e+77 1.15792e+77 0.412589 0.421854 0.453766 0.45523 0.41434 0.426509 0 0.448362 0.405031 0.437949 0.422712 1.15792e+77 0.408739 1.15792e+77 0.400881 0.42327 0.44698 0.412541 0.434198 0.450383 0.404669 1.15792e+77 0.431639 0.439796 0.465808 0.44252 0.434923 0.437332 1.15792e+77 0.380643 0.385689 1.15792e+77 0.417739 0.489791 0.395588 0.393303 0.417648 0.456273 0.423533 0.411102 0.429823 0.402312 1.15792e+77 0.446457 1.15792e+77 0.517214 inf 0.502387 0.48521 0.422706 1.15792e+77 0.526672 1.15792e+77 0.48456 0.484792 1.15792e+77 1.15792e+77 1.15792e+77 0.467229 0.483734 0.473151 0.445497 0.497959 1.15792e+77 inf inf 0.475784 0.481233 1.15792e+77 1.15792e+77 1.15792e+77 0.493902 0.504252 0.496706 0.469902 1.15792e+77 0.470844 0.493304 0.485096 0.466451 0.494605 0.496796 0.469043 0.50837 0.467733 0.463865 0.520403 0.461992 inf 1.15792e+77 0.493978 0.469466
0.38769 0.349246 0.363309 0.398557 0.390092 1.15792e+77 1.15792e+77 1.15792e+77 0.368579 0.364489 0.411311 0.418306 0.451255 0.374658 0.448362 0 0.393207 0.367019 0.417147 1.15792e+77 0.419223 1.15792e+77 0.414116 0.40751 0.366574 0.396336 0.349437 0.352887 0.367109 1.15792e+77 0.454116 0.362526 0.418361 0.372789 0.321163 0.406782 1.15792e+77 0.402586 0.435896 1.15792e+77 0.385718 0.43908 0.400394 0.370679 0.432109 0.355382 0.377495 0.339246 0.367178 0.383292 1.15792e+77 0.441664 1.15792e+77 0.531154 inf 0.479307 0.478004 0.444925 1.15792e+77 0.49293 1.15792e+77 0.483444 0.484449 1.15792e+77 1.15792e+77 1.15792e+77 0.476049 0.487487 0.477648 0.447148 0.498477 1.15792e+77 inf inf 0.488451 0.502056 1.15792e+77 1.15792e+77 1.15792e+77 0.474319 0.487636 0.487493 0.485847 1.15792e+77 0.450076 0.507669 0.461099 0.472521 0.486132 0.452547 0.476237 0.472528 0.438311 0.459967 0.486841 0.484345 inf 1.15792e+77 0.470465 0.462558
0.413855 0.375062 0.380748 0.408556 0.378621 1.15792e+77 1.15792e+77 1.15792e+77 0.364812 0.395259 0.394728 0.411881 0.402809 0.393593 0.405031 0.393207 0 0.424197 0.384807 1.15792e+77 0.400606 1.15792e+77 0.405656 0.397927 0.362294 0.39147 0.396495 0.39778 0.378797 1.15792e+77 0.459797 0.37228 0.412448 0.416525 0.370968 0.363867 1.15792e+77 0.414169 0.415163 1.15792e+77 0.341606 0.430809 0.392402 0.404584 0.381503 0.420652 0.396834 0.397418 0.388549 0.378869 1.15792e+77 0.412895 1.15792e+77 0.489949 inf 0.449787 0.441887 0.407751 1.15792e+77 0.487359 1.15792e+77 0.435531 0.462068 1.15792e+77 1.15792e+77 1.15792e+77 0.446808 0.455119 0.433738 0.414572 0.450081 1.15792e+77 inf inf 0.437669 0.452518 1.15792e+77 1.15792e+77 1.15792e+77 0.438118 0.462477 0.455822 0.433406 1.15792e+77 0.424268 0.454218 0.434635 0.422021 0.44643 0.443289 0.424047 0.453953 0.396202 0.421314 0.473482 0.417 inf 1.15792e+77 0.44321 0.432115
0.390963 0.378341 0.380572 0.417356 0.42078 1.15792e+77 1.15792e+77 1.15792e+77 0.411388 0.350754 0.448565 0.458458 0.416965 0.413524 0.437949 0.367019 0.424197 0 0.420789 1.15792e+77 0.443729 1.15792e+77 0.398643 0.402724 0.390406 0.388854 0.39828 0.395148 0.402647 1.15792e+77 0.451796 0.364376 0.469006 0.383992 0.358865 0.441244 1.15792e+77 0.410046 0.412417 1.15792e+77 0.424797 0.481049 0.409035 0.411241 0.427316 0.379809 0.429959 0.361617 0.406631 0.399671 1.15792e+77 0.470623 1.15792e+77 0.553685 inf 0.514207 0.508981 0.477885 1.15792e+77 0.534735 1.15792e+77 0.511569 0.517607 1.15792e+77 1.15792e+77 1.15792e+77 0.504509 0.515596 0.515179 0.485609 0.526285 1.15792e+77 inf inf 0.511109 0.528385 1.15792e+77 1.15792e+77 1.15792e+77 0.506174 0.521892 0.517569 0.50689 1.15792e+77 0.481186 0.53186 0.499846 0.497128 0.522507 0.50135 0.49841 0.511076 0.479005 0.495382 0.52125 0.508908 inf 1.15792e+77 0.500889 0.496464
0.410615 0.413725 0.420861 0.40136 0.410187 1.15792e+77 1.15792e+77 1.15792e+77 0.396349 0.40751 0.416091 0.430875 0.412812 0.422251 0.422712 0.417147 0.384807 0.420789 0 1.15792e+77 0.422524 1.15792e+77 0.400614 0.391902 0.394 0.391637 0.417144 0.428062 0.394406 1.15792e+77 0.452879 0.418509 0.438285 0.429333 0.415696 0.412075 1.15792e+77 0.433969 0.381821 1.15792e+77 0.393018 0.447918 0.392595 0.424487 0.433689 0.460311 0.444487 0.44089 0.416922 0.383715 1.15792e+77 0.436419 1.15792e+77 0.50845 inf 0.480666 0.47293 0.420902 1.15792e+77 0.506682 1.15792e+77 0.445402 0.479367 1.15792e+77 1.15792e+77 1.15792e+77 0.454056 0.475013 0.448577 0.422578 0.445962 1.15792e+77 inf inf 0.461837 0.486995 1.15792e+77 1.15792e+77 1.15792e+77 0.450665 0.47237 0.476033 0.456515 1.15792e+77 0.461595 0.463154 0.462046 0.428233 0.466627 0.469136 0.430241 0.470557 0.417888 0.425631 0.502659 0.410883 inf 1.15792e+77 0.469944 0.446912
1.15792e+77 1.15792e+77 1.15792e+77 1.15792e+77 1.15792e+77 0.61089 0.40374 0.375695 1.15792e+77 1.15792e+77 1.15792e+77 1.15792e+77 1.15792e+77 1.15792e+77 1.15792e+77 1.15792e+77 1.15792e+77 1.15792e+77 1.15792e+77 0 1.15792e+77 0.443722 1.15792e+77 1.15792e+77 1.15792e+77 1.15792e+77 1.15792e+77 1.15792e+77 1.15792e+77 0.403724 1.15792e+77 1.15792e+77 1.15792e+77 1.15792e+77 1.15792e+77 1.15792e+77 0.356069 1.15792e+77 1.15792e+77 0.388555 1.15792e+77 1.15792e+77 1.15792e+77 1.15792e+77 1.15792e+77 1.15792e+77 1.15792e+77 1.15792e+77 1.15792e+77 1.15792e+77 0.43304 1.15792e+77 0.424998 1.15792e+77 inf 1.15792e+77 1.15792e+77 1.15792e+77 0.464693 1.15792e+77 0.431887 1.15792e+77 1.15792e+77 0.413075 0.464756 0.45024 1.15792e+77 1.15792e+77 1.15792e+77 1.15792e+77 1.15792e+77 0.416318 inf inf 1.15792e+77 1.15792e+77 0.412845 0.458212 0.452667 1.15792e+77 1.15792e+77 1.15792e+77 1.15792e+77 0.496251 1.15792e+77 1.15792e+77 1.15792e+77 1.15792e+77 1.15792e+77 1.15792e+77 1.15792e+77 1.15792e+77 1.15792e+77 1.15792e+77 1.15792e+77 1.15792e+77 inf 0.442319 1.15792e+77 1.15792e+77
0.388692 0.404251 0.431768 0.391659 0.353292 1.15792e+77 1.15792e+77 1.15792e+77 0.389077 0.441531 0.40963 0.38844 0.440708 0.376045 0.408739 0.419223 0.400606 0.443729 0.422524 1.15792e+77 0 1.15792e+77 0.404115 0.402754 0.414976 0.378073 0.41135 0.408017 0.410272 1.15792e+77 0.432501 0.458177 0.393544 0.397436 0.415307 0.375988 1.15792e+77 0.431717 0.412467 1.15792e+77 0.389411 0.407764 0.370975 0.400138 0.406514 0.439332 0.389229 0.413424 0.39744 0.369895 1.15792e+77 0.390995 1.15792e+77 0.482836 inf 0.422837 0.409546 0.396031 1.15792e+77 0.451446 1.15792e+77 0.432355 0.419406 1.15792e+77 1.15792e+77 1.15792e+77 0.426409 0.429345 0.414101 0.405954 0.450154 1.15792e+77 inf inf 0.417479 0.438212 1.15792e+77 1.15792e+77 1.15792e+77 0.433122 0.44734 0.418045 0.427777 1.15792e+77 0.407112 0.450497 0.43138 0.420256 0.443391 0.412716 0.433134 0.429264 0.419079 0.416375 0.441685 0.433226 inf 1.15792e+77 0.445458 0.413106
1.15792e+77 1.15792e+77 1.15792e+77 1.15792e+77 1.15792e+77 0.623678 0.389901 0.379009 1.15792e+77 1.15792e+77 1.15792e+77 1.15792e+77 1.15792e+77 1.15792e+77 1.15792e+77 1.15792e+77 1.15792e+77 1.15792e+77 1.15792e+77 0.443722 1.15792e+77 0 1.15792e+77 1.15792e+77 1.15792e+77 1.15792e+77 1.15792e+77 1.15792e+77 1.15792e+77 0.387874 1.15792e+77 1.15792e+77 1.15792e+77 1.15792e+77 1.15792e+77 1.15792e+77 0.402296 1.15792e+77 1.15792e+77 0.403538 1.15792e+77 1.15792e+77 1.15792e+77 1.15792e+77 1.15792e+77 1.15792e+77 1.15792e+77 1.15792e+77 1.15792e+77 1.15792e+77 0.46579 1.15792e+77 0.471694 1.15792e+77 inf 1.15792e+77 1.15792e+77 1.15792e+77 0.500989 1.15792e+77 0.450569 1.15792e+77 1.15792e+77 0.468784 0.495599 0.479287 1.15792e+77 1.15792e+77 1.15792e+77 1.15792e+77 1.15792e+77 0.42271 inf inf 1.15792e+77 1.15792e+77 0.445789 0.450209 0.499518 1.15792e+77 1.15792e+77 1.15792e+77 1.15792e+77 0.532184 1.15792e+77 1.15792e+77 1.15792e+77 1.15792e+77 1.15792e+77 1.15792e+77 1.15792e+77 1.15792e+77 1.15792e+77 1.15792e+77 1.15792e+77 1.15792e+77 inf 0.458376 1.15792e+77 1.15792e+77
0.392535 0.416869 0.413562 0.387198 0.40361 1.15792e+77 1.15792e+77 1.15792e+77 0.39822 0.412723 0.453479 0.449153 0.382861 0.415853 0.400881 0.414116 0.405656 0.398643 0.400614 1.15792e+77 0.404115 1.15792e+77 0 0.400161 0.429105 0.384156 0.418822 0.420957 0.394872 1.15792e+77 0.414497 0.436693 0.449586 0.405204 0.414575 0.414776 1.15792e+77 0.410972 0.362095 1.15792e+77 0.407988 0.482024 0.390394 0.409971 0.41036 0.442761 0.412377 0.41825 0.408738 0.40445 1.15792e+77 0.448192 1.15792e+77 0.510174 inf 0.499697 0.488219 0.458218 1.15792e+77 0.518846 1.15792e+77 0.47796 0.487389 1.15792e+77 1.15792e+77 1.15792e+77 0.463717 0.490582 0.469459 0.44325 0.489839 1.15792e+77 inf inf 0.462331 0.487934 1.15792e+77 1.15792e+77 1.15792e+77 0.476821 0.503493 0.484982 0.465488 1.15792e+77 0.461432 0.482767 0.482863 0.449049 0.496237 0.484637 0.461663 0.50215 0.459774 0.449524 0.503885 0.464888 inf 1.15792e+77 0.49088 0.480815
0.379258 0.380105 0.408522 0.403607 0.396753 1.15792e+77 1.15792e+77 1.15792e+77 0.375384 0.400065 0.377441 0.401325 0.384745 0.396392 0.42327 0.40751 0.397927 0.402724 0.391902 1.15792e+77 0.402754 1.15792e+77 0.400161 0 0.379101 0.380921 0.406676 0.393585 0.40535 1.15792e+77 0.436461 0.422532 0.399025 0.424759 0.389206 0.378655 1.15792e+77 0.452612 0.363133 1.15792e+77 0.373427 0.42454 0.378485 0.385802 0.432899 0.447236 0.437559 0.411505 0.390039 0.373706 1.15792e+77 0.396361 1.15792e+77 0.50068 inf 0.461084 0.447716 0.395446 1.15792e+77 0.469821 1.15792e+77 0.426081 0.449709 1.15792e+77 1.15792e+77 1.15792e+77 0.418966 0.451308 0.44127 0.403608 0.459415 1.15792e+77 inf inf 0.437166 0.459662 1.15792e+77 1.15792e+77 1.15792e+77 0.439529 0.45448 0.453664 0.438918 1.15792e+77 0.420533 0.45306 0.437179 0.426917 0.452828 0.430802 0.417847 0.444498 0.43007 0.410369 0.47365 0.441856 inf 1.15792e+77 0.454208 0.417686
0.418276 0.364212 0.405927 0.410443 0.38182 1.15792e+77 1.15792e+77 1.15792e+77 0.363751 0.374849 0.367203 0.413749 0.439643 0.380521 0.44698 0.366574 0.362294 0.390406 0.394 1.15792e+77 0.414976 1.15792e+77 0.429105 0.379101 0 0.405405 0.38835 0.346071 0.383584 1.15792e+77 0.475239 0.383055 0.404769 0.415564 0.34842 0.401031 1.15792e+77 0.439986 0.414785 1.15792e+77 0.372184 0.400958 0.409472 0.408963 0.435263 0.401828 0.429124 0.383902 0.401861 0.382174 1.15792e+77 0.395839 1.15792e+77 0.470381 inf 0.43411 0.434018 0.422067 1.15792e+77 0.444269 1.15792e+77 0.442894 0.439647 1.15792e+77 1.15792e+77 1.15792e+77 0.434929 0.452918 0.437522 0.418266 0.438774 1.15792e+77 inf inf 0.446901 0.444188 1.15792e+77 1.15792e+77 1.15792e+77 0.425566 0.448242 0.443069 0.433165 1.15792e+77 0.396183 0.469468 0.394448 0.425106 0.423632 0.436519 0.435071 0.414984 0.393331 0.426752 0.455578 0.434276 inf 1.15792e+77 0.406052 0.426255
0.364545 0.384433 0.417843 0.364554 0.377194 1.15792e+77 1.15792e+77 1.15792e+77 0.393822 0.404687 0.408413 0.417733 0.409982 0.391318 0.412541 0.396336 0.39147 0.388854 0.391637 1.15792e+77 0.378073 1.15792e+77 0.384156 0.380921 0.405405 0 0.402739 0.380004 0.395736 1.15792e+77 0.410812 0.425089 0.411274 0.351049 0.396508 0.396464 1.15792e+77 0.421743 0.401752 1.15792e+77 0.396846 0.427421 0.357516 0.402484 0.40615 0.421826 0.406848 0.395388 0.37516 0.381962 1.15792e+77 0.412627 1.15792e+77 0.508409 inf 0.47692 0.461364 0.444511 1.15792e+77 0.48995 1.15792e+77 0.471337 0.462207 1.15792e+77 1.15792e+77 1.15792e+77 0.456285 0.472817 0.45882 0.43187 0.483892 1.15792e+77 inf inf 0.459513 0.480194 1.15792e+77 1.15792e+77 1.15792e+77 0.465887 0.479648 0.469144 0.463605 1.15792e+77 0.437906 0.476183 0.460336 0.446749 0.480501 0.456038 0.461349 0.464017 0.433185 0.445415 0.491607 0.4647 inf 1.15792e+77 0.468053 0.456557
0.390783 0.357982 0.326016 0.388783 0.380002 1.15792e+77 1.15792e+77 1.15792e+77 0.37933 0.35797 0.421424 0.420688 0.436064 0.382959 0.434198 0.349437 0.396495 0.39828 0.417144 1.15792e+77 0.41135 1.15792e+77 0.418822 0.406676 0.38835 0.402739 0 0.374153 0.328324 1.15792e+77 0.41604 0.40445 0.432639 0.387707 0.360409 0.368646 1.15792e+77 0.388541 0.439234 1.15792e+77 0.383273 0.453438 0.397689 0.37518 0.417068 0.380631 0.370853 0.361135 0.362735 0.387874 1.15792e+77 0.446705 1.15792e+77 0.539385 inf 0.488374 0.48585 0.449722 1.15792e+77 0.507478 1.15792e+77 0.479051 0.482173 1.15792e+77 1.15792e+77 1.15792e+77 0.479266 0.482215 0.48345 0.447485 0.502965 1.15792e+77 inf inf 0.481976 0.505623 1.15792e+77 1.15792e+77 1.15792e+77 0.473288 0.489495 0.487341 0.473238 1.15792e+77 0.463167 0.508812 0.468475 0.485525 0.492067 0.451646 0.477084 0.480359 0.442311 0.46632 0.494183 0.490895 inf 1.15792e+77 0.481267 0.466129
0.378617 0.361933 0.410892 0.386522 0.362878 1.15792e+77 1.15792e+77 1.15792e+77 0.375038 0.381971 0.380399 0.401191 0.451486 0.376561 0.450383 0.352887 0.39778 0.395148 0.428062 1.15792e+77 0.408017 1.15792e+77 0.420957 0.393585 0.346071 0.380004 0.374153 0 0.380441 1.15792e+77 0.430279 0.395918 0.398293 0.367958 0.334456 0.399157 1.15792e+77 0.447692 0.441398 1.15792e+77 0.408332 0.392789 0.394157 0.400123 0.423866 0.367691 0.396203 0.389998 0.382748 0.374977 1.15792e+77 0.425016 1.15792e+77 0.513559 inf 0.457993 0.46335 0.441514 1.15792e+77 0.460625 1.15792e+77 0.477921 0.46823 1.15792e+77 1.15792e+77 1.15792e+77 0.467015 0.488598 0.479493 0.446884 0.481773 1.15792e+77 inf inf 0.48288 0.485329 1.15792e+77 1.15792e+77 1.15792e+77 0.456515 0.468677 0.466316 0.468094 1.15792e+77 0.425765 0.492358 0.437255 0.462973 0.465526 0.429836 0.466916 0.439811 0.426885 0.451339 0.468552 0.477364 inf 1.15792e+77 0.445608 0.447873
0.391497 0.364265 0.353841 0.390082 0.389652 1.15792e+77 1.15792e+77 1.15792e+77 0.351301 0.364069 0.423449 0.417793 0.41467 0.377117 0.404669 0.367109 0.378797 0.402647 0.394406 1.15792e+77 0.410272 1.15792e+77 0.394872 0.40535 0.383584 0.395736 0.328324 0.380441 0 1.15792e+77 0.425066 0.396762 0.428124 0.396877 0.366894 0.389046 1.15792e+77 0.391549 0.417036 1.15792e+77 0.391785 0.449313 0.382663 0.368414 0.399444 0.396417 0.367568 0.374776 0.381754 0.389111 1.15792e+77 0.438686 1.15792e+77 0.529804 inf 0.480231 0.472684 0.435461 1.15792e+77 0.5052 1.15792e+77 0.477827 0.484152 1.15792e+77 1.15792e+77 1.15792e+77 0.467816 0.491696 0.479825 0.443404 0.498202 1.15792e+77 inf inf 0.473715 0.494147 1.15792e+77 1.15792e+77 1.15792e+77 0.474949 0.49055 0.476499 0.46776 1.15792e+77 0.451142 0.493093 0.468211 0.45795 0.493043 0.45328 0.464353 0.478645 0.446572 0.451591 0.485965 0.470577 inf 1.15792e+77 0.48714 0.465323
1.15792e+77 1.15792e+77 1.15792e+77 1.15792e+77 1.15792e+77 0.627957 0.424009 0.37335 1.15792e+77 1.15792e+77 1.15792e+77 1.15792e+77 1.15792e+77 1.15792e+77 1.15792e+77 1.15792e+77 1.15792e+77 1.15792e+77 1.15792e+77 0.403724 1.15792e+77 0.387874 1.15792e+77 1.15792e+77 1.15792e+77 1.15792e+77 1.15792e+77 1.15792e+77 1.15792e+77 0 1.15792e+77 1.15792e+77 1.15792e+77 1.15792e+77 1.15792e+77 1.15792e+77 0.399476 1.15792e+77 1.15792e+77 0.413623 1.15792e+77 1.15792e+77 1.15792e+77 1.15792e+77 1.15792e+77 1.15792e+77 1.15792e+77 1.15792e+77 1.15792e+77 1.15792e+77 0.399927 1.15792e+77 0.420986 1.15792e+77 inf 1.15792e+77 1.15792e+77 1.15792e+77 0.448153 1.15792e+77 0.421321 1.15792e+77 1.15792e+77 0.423126 0.464444 0.430397 1.15792e+77 1.15792e+77 1.15792e+77 1.15792e+77 1.15792e+77 0.403742 inf inf 1.15792e+77 1.15792e+77 0.40989 0.434209 0.437998 1.15792e+77 1.15792e+77 1.15792e+77 1.15792e+77 0.519431 1.15792e+77 1.15792e+77 1.15792e+77 1.15792e+77 1.15792e+77 1.15792e+77 1.15792e+77 1.15792e+77 1.15792e+77 1.15792e+77 1.15792e+77 1.15792e+77 inf 0.432965 1.15792e+77 1.15792e+77
0.383431 0.43868 0.424605 0.425843 0.449373 1.15792e+77 1.15792e+77 1.15792e+77 0.44577 0.462689 0.47766 0.475727 0.435888 0.4528 0.431639 0.454116 0.459797 0.451796 0.452879 1.15792e+77 0.432501 1.15792e+77 0.414497 0.436461 0.475239 0.410812 0.41604 0.430279 0.425066 1.15792e+77 0 0.473862 0.487485 0.369115 0.447111 0.442486 1.15792e+77 0.417918 0.458253 1.15792e+77 0.475074 0.492972 0.417385 0.415924 0.411168 0.444473 0.424202 0.453517 0.428524 0.446049 1.15792e+77 0.497639 1.15792e+77 0.57319 inf 0.53692 0.526614 0.481931 1.15792e+77 0.549804 1.15792e+77 0.525844 0.52976 1.15792e+77 1.15792e+77 1.15792e+77 0.503713 0.530729 0.521455 0.492569 0.538492 1.15792e+77 inf inf 0.514201 0.531715 1.15792e+77 1.15792e+77 1.15792e+77 0.521842 0.532724 0.533449 0.513794 1.15792e+77 0.502297 0.533005 0.524894 0.518589 0.534891 0.497558 0.528812 0.535172 0.498859 0.513859 0.543334 0.512639 inf 1.15792e+77 0.538984 0.496434
0.412803 0.382702 0.383607 0.434733 0.420225 1.15792e+77 1.15792e+77 1.15792e+77 0.409153 0.370956 0.436175 0.460486 0.452786 0.415219 0.439796 0.362526 0.37228 0.364376 0.418509 1.15792e+77 0.458177 1.15792e+77 0.436693 0.422532 0.383055 0.425089 0.40445 0.395918 0.396762 1.15792e+77 0.473862 0 0.464601 0.405599 0.36008 0.431435 1.15792e+77 0.426141 0.445357 1.15792e+77 0.39467 0.471763 0.441615 0.427151 0.432115 0.372591 0.444349 0.388057 0.421323 0.416534 1.15792e+77 0.468114 1.15792e+77 0.52989 inf 0.498742 0.48514 0.473026 1.15792e+77 0.526489 1.15792e+77 0.492272 0.499209 1.15792e+77 1.15792e+77 1.15792e+77 0.500199 0.506107 0.495754 0.468422 0.506196 1.15792e+77 inf inf 0.494821 0.507256 1.15792e+77 1.15792e+77 1.15792e+77 0.491645 0.505052 0.507251 0.494346 1.15792e+77 0.470226 0.505909 0.484614 0.477158 0.492419 0.495647 0.473853 0.495994 0.453272 0.483978 0.509122 0.478519 inf 1.15792e+77 0.480766 0.482265
0.422709 0.399316 0.467049 0.390883 0.37199 1.15792e+77 1.15792e+77 1.15792e+77 0.373706 0.438334 0.340031 0.362491 0.459267 0.367273 0.465808 0.418361 0.412448 0.469006 0.438285 1.15792e+77 0.393544 1.15792e+77 0.449586 0.399025 0.404769 0.411274 0.432639 0.398293 0.428124 1.15792e+77 0.487485 0.464601 0 0.440673 0.419874 0.383646 1.15792e+77 0.483845 0.450842 1.15792e+77 0.419372 0.331214 0.38549 0.423912 0.44558 0.456423 0.421495 0.448641 0.373194 0.3562 1.15792e+77 0.387741 1.15792e+77 0.478614 inf 0.419958 0.427281 0.391787 1.15792e+77 0.42114 1.15792e+77 0.41583 0.440512 1.15792e+77 1.15792e+77 1.15792e+77 0.418362 0.448222 0.427141 0.405311 0.43607 1.15792e+77 inf inf 0.430573 0.439461 1.15792e+77 1.15792e+77 1.15792e+77 0.420658 0.417912 0.415756 0.4292 1.15792e+77 0.363441 0.441014 0.411638 0.41858 0.417404 0.363058 0.433525 0.373717 0.404729 0.410828 0.452847 0.438368 inf 1.15792e+77 0.430154 0.40803
0.354585 0.399045 0.416808 0.357966 0.38566 1.15792e+77 1.15792e+77 1.15792e+77 0.419369 0.413007 0.440774 0.432495 0.455568 0.39627 0.44252 0.372789 0.416525 0.383992 0.429333 1.15792e+77 0.397436 1.15792e+77 0.405204 0.424759 0.415564 0.351049 0.387707 0.367958 0.396877 1.15792e+77 0.369115 0.405599 0.440673 0 0.373349 0.414989 1.15792e+77 0.420817 0.445652 1.15792e+77 0.429319 0.443655 0.363116 0.423848 0.413149 0.368942 0.391276 0.411554 0.378507 0.391089 1.15792e+77 0.458505 1.15792e+77 0.55669 inf 0.503262 0.511995 0.474922 1.15792e+77 0.51051 1.15792e+77 0.504642 0.51179 1.15792e+77 1.15792e+77 1.15792e+77 0.503902 0.520778 0.510655 0.478663 0.524161 1.15792e+77 inf inf 0.510528 0.533926 1.15792e+77 1.15792e+77 1.15792e+77 0.501838 0.505656 0.504743 0.507702 1.15792e+77 0.48374 0.518724 0.491834 0.492125 0.511563 0.47157 0.502259 0.487168 0.468347 0.486563 0.502288 0.506532 inf 1.15792e+77 0.500085 0.47928
0.38445 0.34331 0.363673 0.385289 0.378369 1.15792e+77 1.15792e+77 1.15792e+77 0.369089 0.332948 0.389333 0.412711 0.43811 0.373283 0.434923 0.321163 0.370968 0.358865 0.415696 1.15792e+77 0.415307 1.15792e+77 0.414575 0.389206 0.34842 0.396508 0.360409 0.334456 0.366894 1.15792e+77 0.447111 0.36008 0.419874 0.373349 0 0.400044 1.15792e+77 0.414339 0.410956 1.15792e+77 0.381688 0.4176 0.388189 0.372922 0.39304 0.350878 0.381017 0.338552 0.358399 0.354211 1.15792e+77 0.440027 1.15792e+77 0.521784 inf 0.471124 0.464935 0.438179 1.15792e+77 0.485573 1.15792e+77 0.479091 0.468878 1.15792e+77 1.15792e+77 1.15792e+77 0.470118 0.479964 0.472613 0.446937 0.487628 1.15792e+77 inf inf 0.476904 0.486672 1.15792e+77 1.15792e+77 1.15792e+77 0.464841 0.476893 0.481377 0.475367 1.15792e+77 0.432914 0.490011 0.453626 0.458213 0.474329 0.449825 0.461577 0.462255 0.433395 0.446827 0.484824 0.471881 inf 1.15792e+77 0.462052 0.451984
0.399177 0.366772 0.401219 0.397763 0.376605 1.15792e+77 1.15792e+77 1.15792e+77 0.359281 0.425683 0.38266 0.35136 0.438497 0.357206 0.437332 0.406782 0.363867 0.441244 0.412075 1.15792e+77 0.375988 1.15792e+77 0.414776 0.378655 0.401031 0.396464 0.368646 0.399157 0.389046 1.15792e+77 0.442486 0.431435 0.383646 0.414989 0.400044 0 1.15792e+77 0.449404 0.450521 1.15792e+77 0.372799 0.404763 0.374982 0.388408 0.381836 0.432685 0.377998 0.402583 0.356105 0.363696 1.15792e+77 0.412956 1.15792e+77 0.496566 inf 0.440666 0.431659 0.404303 1.15792e+77 0.448926 1.15792e+77 0.41349 0.443931 1.15792e+77 1.15792e+77 1.15792e+77 0.423876 0.421088 0.414639 0.392783 0.447646 1.15792e+77 inf inf 0.425271 0.467361 1.15792e+77 1.15792e+77 1.15792e+77 0.429178 0.413513 0.42329 0.418357 1.15792e+77 0.411713 0.443803 0.421927 0.431551 0.438319 0.379376 0.420043 0.423837 0.397384 0.419038 0.447519 0.447359 inf 1.15792e+77 0.43887 0.398651
1.15792e+77 1.15792e+77 1.15792e+77 1.15792e+77 1.15792e+77 0.643358 0.391572 0.405965 1.15792e+77 1.15792e+77 1.15792e+77 1.15792e+77 1.15792e+77 1.15792e+77 1.15792e+77 1.15792e+77 1.15792e+77 1.15792e+77 1.15792e+77 0.356069 1.15792e+77 0.402296 1.15792e+77 1.15792e+77 1.15792e+77 1.15792e+77 1.15792e+77 1.15792e+77 1.15792e+77 0.399476 1.15792e+77 1.15792e+77 1.15792e+77 1.15792e+77 1.15792e+77 1.15792e+77 0 1.15792e+77 1.15792e+77 0.363045 1.15792e+77 1.15792e+77 1.15792e+77 1.15792e+77 1.15792e+77 1.15792e+77 1.15792e+77 1.15792e+77 1.15792e+77 1.15792e+77 0.454227 1.15792e+77 0.456558 1.15792e+77 inf 1.15792e+77 1.15792e+77 1.15792e+77 0.484432 1.15792e+77 0.446078 1.15792e+77 1.15792e+77 0.440196 0.496622 0.462076 1.15792e+77 1.15792e+77 1.15792e+77 1.15792e+77 1.15792e+77 0.441277 inf inf 1.15792e+77 1.15792e+77 0.447881 0.481968 0.478072 1.15792e+77 1.15792e+77 1.15792e+77 1.15792e+77 0.543047 1.15792e+77 1.15792e+77 1.15792e+77 1.15792e+77 1.15792e+77 1.15792e+77 1.15792e+77 1.15792e+77 1.15792e+77 1.15792e+77 1.15792e+77 1.15792e+77 inf 0.47147 1.15792e+77 1.15792e+77
0.413218 0.387916 0.367142 0.427022 0.413885 1.15792e+77 1.15792e+77 1.15792e+77 0.421925 0.408894 0.480741 0.478393 0.423289 0.450397 0.380643 0.402586 0.414169 0.410046 0.433969 1.15792e+77 0.431717 1.15792e+77 0.410972 0.452612 0.439986 0.421743 0.388541 0.447692 0.391549 1.15792e+77 0.417918 0.426141 0.483845 0.420817 0.414339 0.449404 1.15792e+77 0 0.418667 1.15792e+77 0.420147 0.508615 0.41349 0.388209 0.42971 0.410676 0.413026 0.381275 0.422366 0.424158 1.15792e+77 0.486741 1.15792e+77 0.560345 inf 0.523147 0.516373 0.475544 1.15792e+77 0.553809 1.15792e+77 0.516205 0.519134 1.15792e+77 1.15792e+77 1.15792e+77 0.507957 0.514511 0.502984 0.489599 0.52895 1.15792e+77 inf inf 0.521235 0.529267 1.15792e+77 1.15792e+77 1.15792e+77 0.518929 0.539926 0.523638 0.520107 1.15792e+77 0.49838 0.535307 0.518423 0.507909 0.532398 0.520748 0.511822 0.536102 0.496494 0.506767 0.538207 0.497927 inf 1.15792e+77 0.527691 0.503593
0.42003 0.430346 0.436883 0.415849 0.411672 1.15792e+77 1.15792e+77 1.15792e+77 0.401342 0.41737 0.434063 0.442685 0.379701 0.426211 0.385689 0.435896 0.415163 0.412417 0.381821 1.15792e+77 0.412467 1.15792e+77 0.362095 0.363133 0.414785 0.401752 0.439234 0.441398 0.417036 1.15792e+77 0.458253 0.445357 0.450842 0.445652 0.410956 0.450521 1.15792e+77 0.418667 0 1.15792e+77 0.381427 0.466091 0.407572 0.413674 0.456595 0.469632 0.44473 0.420932 0.432624 0.400811 1.15792e+77 0.41871 1.15792e+77 0.490892 inf 0.482846 0.457731 0.43875 1.15792e+77 0.508028 1.15792e+77 0.458445 0.442249 1.15792e+77 1.15792e+77 1.15792e+77 0.445394 0.449858 0.433839 0.433989 0.475398 1.15792e+77 inf inf 0.447373 0.448353 1.15792e+77 1.15792e+77 1.15792e+77 0.467788 0.487799 0.476469 0.456166 1.15792e+77 0.449285 0.467271 0.463432 0.43626 0.483778 0.482485 0.443377 0.478569 0.455898 0.437195 0.494512 0.443142 inf 1.15792e+77 0.467565 0.460698
1.15792e+77 1.15792e+77 1.15792e+77 1.15792e+77 1.15792e+77 0.642662 0.371622 0.415659 1.15792e+77 1.15792e+77 1.15792e+77 1.15792e+77 1.15792e+77 1.15792e+77 1.15792e+77 1.15792e+77 1.15792e+77 1.15792e+77 1.15792e+77 0.388555 1.15792e+77 0.403538 1.15792e+77 1.15792e+77 1.15792e+77 1.15792e+77 1.15792e+77 1.15792e+77 1.15792e+77 0.413623 1.15792e+77 1.15792e+77 1.15792e+77 1.15792e+77 1.15792e+77 1.15792e+77 0.363045 1.15792e+77 1.15792e+77 0 1.15792e+77 1.15792e+77 1.15792e+77 1.15792e+77 1.15792e+77 1.15792e+77 1.15792e+77 1.15792e+77 1.15792e+77 1.15792e+77 0.484746 1.15792e+77 0.463922 1.15792e+77 inf 1.15792e+77 1.15792e+77 1.15792e+77 0.506321 1.15792e+77 0.472157 1.15792e+77 1.15792e+77 0.442994 0.509005 0.492376 1.15792e+77 1.15792e+77 1.15792e+77 1.15792e+77 1.15792e+77 0.429753 inf inf 1.15792e+77 1.15792e+77 0.438595 0.475871 0.486364 1.15792e+77 1.15792e+77 1.15792e+77 1.15792e+77 0.540208 1.15792e+77 1.15792e+77 1.15792e+77 1.15792e+77 1.15792e+77 1.15792e+77 1.15792e+77 1.15792e+77 1.15792e+77 1.15792e+77 1.15792e+77 1.15792e+77 inf 0.465619 1.15792e+77 1.15792e+77
0.414034 0.378209 0.375626 0.424744 0.357292 1.15792e+77 1.15792e+77 1.15792e+77 0.347348 0.398161 0.393415 0.409931 0.400664 0.403053 0.417739 0.385718 0.341606 0.424797 0.393018 1.15792e+77 0.389411 1.15792e+77 0.407988 0.373427 0.372184 0.396846 0.383273 0.408332 0.391785 1.15792e+77 0.475074 0.39467 0.419372 0.429319 0.381688 0.372799 1.15792e+77 0.420147 0.381427 1.15792e+77 0 0.433439 0.409997 0.372308 0.431313 0.426936 0.405948 0.389061 0.390756 0.390378 1.15792e+77 0.385214 1.15792e+77 0.482903 inf 0.430533 0.415637 0.390848 1.15792e+77 0.466337 1.15792e+77 0.410188 0.428915 1.15792e+77 1.15792e+77 1.15792e+77 0.405541 0.4093 0.401791 0.374506 0.443885 1.15792e+77 inf inf 0.405105 0.436635 1.15792e+77 1.15792e+77 1.15792e+77 0.419208 0.439707 0.435779 0.417388 1.15792e+77 0.417851 0.434284 0.416779 0.416752 0.436925 0.434303 0.400056 0.442363 0.396309 0.40341 0.445914 0.428443 inf 1.15792e+77 0.423616 0.404468
0.445837 0.426817 0.488542 0.409115 0.398786 1.15792e+77 1.15792e+77 1.15792e+77 0.410377 0.454234 0.338971 0.382533 0.504221 0.386989 0.489791 0.43908 0.430809 0.481049 0.447918 1.15792e+77 0.407764 1.15792e+77 0.482024 0.42454 0.400958 0.427421 0.453438 0.392789 0.449313 1.15792e+77 0.492972 0.471763 0.331214 0.443655 0.4176 0.404763 1.15792e+77 0.508615 0.466091 1.15792e+77 0.433439 0 0.405669 0.437409 0.458699 0.457195 0.442618 0.459773 0.418989 0.373102 1.15792e+77 0.404483 1.15792e+77 0.459264 inf 0.40031 0.412637 0.406727 1.15792e+77 0.388038 1.15792e+77 0.429441 0.414003 1.15792e+77 1.15792e+77 1.15792e+77 0.419012 0.439976 0.411208 0.415527 0.416672 1.15792e+77 inf inf 0.432009 0.432564 1.15792e+77 1.15792e+77 1.15792e+77 0.40331 0.385683 0.419386 0.400788 1.15792e+77 0.376457 0.444027 0.393487 0.419476 0.401334 0.391112 0.429075 0.359941 0.389708 0.394645 0.437523 0.427027 inf 1.15792e+77 0.395039 0.415957
0.351411 0.393992 0.419394 0.313895 0.359046 1.15792e+77 1.15792e+77 1.15792e+77 0.377436 0.398069 0.393965 0.376099 0.424066 0.36303 0.395588 0.400394 0.392402 0.409035 0.392595 1.15792e+77 0.370975 1.15792e+77 0.390394 0.378485 0.409472 0.357516 0.397689 0.394157 0.382663 1.15792e+77 0.417385 0.441615 0.38549 0.363116 0.388189 0.374982 1.15792e+77 0.41349 0.407572 1.15792e+77 0.409997 0.405669 0 0.382249 0.413266 0.417432 0.390276 0.399768 0.353858 0.320326 1.15792e+77 0.432224 1.15792e+77 0.514956 inf 0.463084 0.465861 0.420168 1.15792e+77 0.472959 1.15792e+77 0.460758 0.462793 1.15792e+77 1.15792e+77 1.15792e+77 0.454642 0.476749 0.459269 0.439321 0.481339 1.15792e+77 inf inf 0.467356 0.481558 1.15792e+77 1.15792e+77 1.15792e+77 0.466367 0.466014 0.458176 0.456648 1.15792e+77 0.420421 0.476766 0.453663 0.448553 0.474557 0.430845 0.456811 0.446806 0.440509 0.431482 0.487732 0.456997 inf 1.15792e+77 0.467691 0.45021
0.383125 0.346564 0.36938 0.3917 0.393202 1.15792e+77 1.15792e+77 1.15792e+77 0.358952 0.414483 0.412521 0.403068 0.428265 0.383786 0.393303 0.370679 0.404584 0.411241 0.424487 1.15792e+77 0.400138 1.15792e+77 0.409971 0.385802 0.408963 0.402484 0.37518 0.400123 0.368414 1.15792e+77 0.415924 0.427151 0.423912 0.423848 0.372922 0.388408 1.15792e+77 0.388209 0.413674 1.15792e+77 0.372308 0.437409 0.382249 0 0.442197 0.410524 0.37648 0.341625 0.374774 0.391064 1.15792e+77 0.430078 1.15792e+77 0.522328 inf 0.471165 0.462669 0.40463 1.15792e+77 0.482249 1.15792e+77 0.459032 0.457874 1.15792e+77 1.15792e+77 1.15792e+77 0.449125 0.455984 0.455378 0.427069 0.485852 1.15792e+77 inf inf 0.468856 0.481021 1.15792e+77 1.15792e+77 1.15792e+77 0.46141 0.469637 0.462491 0.464639 1.15792e+77 0.440705 0.486256 0.458536 0.464841 0.476276 0.441932 0.458041 0.461919 0.442591 0.441919 0.468757 0.469555 inf 1.15792e+77 0.471348 0.442613
0.422433 0.401424 0.381713 0.402779 0.401365 1.15792e+77 1.15792e+77 1.15792e+77 0.410702 0.41159 0.434222 0.43403 0.402024 0.409179 0.417648 0.432109 0.381503 0.427316 0.433689 1.15792e+77 0.406514 1.15792e+77 0.41036 0.432899 0.435263 0.40615 0.417068 0.423866 0.399444 1.15792e+77 0.411168 0.432115 0.44558 0.413149 0.39304 0.381836 1.15792e+77 0.42971 0.456595 1.15792e+77 0.431313 0.458699 0.413266 0.442197 0 0.435511 0.41326 0.420112 0.393998 0.414218 1.15792e+77 0.457759 1.15792e+77 0.5418 inf 0.497452 0.485188 0.452475 1.15792e+77 0.52435 1.15792e+77 0.481019 0.505514 1.15792e+77 1.15792e+77 1.15792e+77 0.484281 0.498549 0.484993 0.461939 0.505225 1.15792e+77 inf inf 0.484744 0.512995 1.15792e+77 1.15792e+77 1.15792e+77 0.489264 0.503212 0.493365 0.476923 1.15792e+77 0.467428 0.501424 0.485031 0.467491 0.504168 0.466854 0.475674 0.49534 0.436324 0.462908 0.510014 0.472585 inf 1.15792e+77 0.496338 0.473752
0.39349 0.393042 0.396747 0.405129 0.412056 1.15792e+77 1.15792e+77 1.15792e+77 0.418518 0.400996 0.452273 0.449116 0.485861 0.396537 0.456273 0.355382 0.420652 0.379809 0.460311 1.15792e+77 0.439332 1.15792e+77 0.442761 0.447236 0.401828 0.421826 0.380631 0.367691 0.396417 1.15792e+77 0.444473 0.372591 0.456423 0.368942 0.350878 0.432685 1.15792e+77 0.410676 0.469632 1.15792e+77 0.426936 0.457195 0.417432 0.410524 0.435511 0 0.399698 0.398167 0.406063 0.408029 1.15792e+77 0.472817 1.15792e+77 0.553871 inf 0.498727 0.498574 0.486083 1.15792e+77 0.516376 1.15792e+77 0.516626 0.513311 1.15792e+77 1.15792e+77 1.15792e+77 0.513369 0.519265 0.51441 0.48849 0.532273 1.15792e+77 inf inf 0.51679 0.533504 1.15792e+77 1.15792e+77 1.15792e+77 0.508139 0.5142 0.51167 0.512626 1.15792e+77 0.482 0.530535 0.498279 0.506977 0.515244 0.478151 0.502411 0.499696 0.472383 0.493148 0.499973 0.519873 inf 1.15792e+77 0.500037 0.490895
0.398462 0.382639 0.380146 0.383448 0.389114 1.15792e+77 1.15792e+77 1.15792e+77 0.389513 0.427542 0.441161 0.411255 0.439674 0.390812 0.423533 0.377495 0.396834 0.429959 0.444487 1.15792e+77 0.389229 1.15792e+77 0.412377 0.437559 0.429124 0.406848 0.370853 0.396203 0.367568 1.15792e+77 0.424202 0.444349 0.421495 0.391276 0.381017 0.377998 1.15792e+77 0.413026 0.44473 1.15792e+77 0.405948 0.442618 0.390276 0.37648 0.41326 0.399698 0 0.394283 0.373658 0.380799 1.15792e+77 0.448118 1.15792e+77 0.547416 inf 0.480799 0.484091 0.44808 1.15792e+77 0.512393 1.15792e+77 0.490134 0.497436 1.15792e+77 1.15792e+77 1.15792e+77 0.480129 0.491843 0.482472 0.458383 0.509941 1.15792e+77 inf inf 0.483798 0.50997 1.15792e+77 1.15792e+77 1.15792e+77 0.482642 0.495181 0.483671 0.48798 1.15792e+77 0.466254 0.50583 0.486837 0.486389 0.504742 0.439474 0.492669 0.482907 0.454918 0.47011 0.474019 0.494536 inf 1.15792e+77 0.502247 0.46466
0.389358 0.346793 0.35312 0.411886 0.401973 1.15792e+77 1.15792e+77 1.15792e+77 0.385224 0.382396 0.425215 0.431225 0.42316 0.4016 0.411102 0.339246 0.397418 0.361617 0.44089 1.15792e+77 0.413424 1.15792e+77 0.41825 0.411505 0.383902 0.395388 0.361135 0.389998 0.374776 1.15792e+77 0.453517 0.388057 0.448641 0.411554 0.338552 0.402583 1.15792e+77 0.381275 0.420932 1.15792e+77 0.389061 0.459773 0.399768 0.341625 0.420112 0.398167 0.394283 0 0.388896 0.408156 1.15792e+77 0.441428 1.15792e+77 0.52749 inf 0.477698 0.465986 0.439905 1.15792e+77 0.49663 1.15792e+77 0.481101 0.46889 1.15792e+77 1.15792e+77 1.15792e+77 0.471081 0.475398 0.473219 0.446157 0.498198 1.15792e+77 inf inf 0.48296 0.494278 1.15792e+77 1.15792e+77 1.15792e+77 0.47552 0.488961 0.479978 0.478452 1.15792e+77 0.443969 0.499043 0.465481 0.466473 0.492042 0.460347 0.472295 0.475602 0.455458 0.460778 0.487408 0.484108 inf 1.15792e+77 0.473694 0.462506
0.375225 0.376861 0.393291 0.367198 0.376938 1.15792e+77 1.15792e+77 1.15792e+77 0.354454 0.388747 0.390513 0.36814 0.416506 0.367678 0.429823 0.367178 0.388549 0.406631 0.416922 1.15792e+77 0.39744 1.15792e+77 0.408738 0.390039 0.401861 0.37516 0.362735 0.382748 0.381754 1.15792e+77 0.428524 0.421323 0.373194 0.378507 0.358399 0.356105 1.15792e+77 0.422366 0.432624 1.15792e+77 0.390756 0.418989 0.353858 0.374774 0.393998 0.406063 0.373658 0.388896 0 0.357438 1.15792e+77 0.426911 1.15792e+77 0.526911 inf 0.471913 0.466923 0.427316 1.15792e+77 0.483885 1.15792e+77 0.453972 0.476753 1.15792e+77 1.15792e+77 1.15792e+77 0.455041 0.467442 0.459922 0.421873 0.482767 1.15792e+77 inf inf 0.457497 0.493464 1.15792e+77 1.15792e+77 1.15792e+77 0.457271 0.464788 0.463862 0.457584 1.15792e+77 0.436047 0.476203 0.461804 0.463955 0.477694 0.410005 0.456681 0.461263 0.424869 0.438298 0.478388 0.472982 inf 1.15792e+77 0.476015 0.437151
0.380293 0.384013 0.412659 0.330907 0.342752 1.15792e+77 1.15792e+77 1.15792e+77 0.365531 0.381404 0.369789 0.346041 0.422063 0.326118 0.402312 0.383292 0.378869 0.399671 0.383715 1.15792e+77 0.369895 1.15792e+77 0.40445 0.373706 0.382174 0.381962 0.387874 0.374977 0.389111 1.15792e+77 0.446049 0.416534 0.3562 0.391089 0.354211 0.363696 1.15792e+77 0.424158 0.400811 1.15792e+77 0.390378 0.373102 0.320326 0.391064 0.414218 0.408029 0.380799 0.408156 0.357438 0 1.15792e+77 0.416043 1.15792e+77 0.505916 inf 0.457298 0.465948 0.414806 1.15792e+77 0.460234 1.15792e+77 0.442046 0.451544 1.15792e+77 1.15792e+77 1.15792e+77 0.43882 0.464121 0.444993 0.423061 0.462792 1.15792e+77 inf inf 0.457043 0.478883 1.15792e+77 1.15792e+77 1.15792e+77 0.450448 0.437738 0.446296 0.44867 1.15792e+77 0.418704 0.464522 0.441911 0.440531 0.449099 0.410422 0.436353 0.430062 0.421675 0.435763 0.485169 0.446417 inf 1.15792e+77 0.449111 0.43519
1.15792e+77 1.15792e+77 1.15792e+77 1.15792e+77 1.15792e+77 0.617774 0.473748 0.444162 1.15792e+77 1.15792e+77 1.15792e+77 1.15792e+77 1.15792e+77 1.15792e+77 1.15792e+77 1.15792e+77 1.15792e+77 1.15792e+77 1.15792e+77 0.43304 1.15792e+77 0.46579 1.15792e+77 1.15792e+77 1.15792e+77 1.15792e+77 1.15792e+77 1.15792e+77 1.15792e+77 0.399927 1.15792e+77 1.15792e+77 1.15792e+77 1.15792e+77 1.15792e+77 1.15792e+77 0.454227 1.15792e+77 1.15792e+77 0.484746 1.15792e+77 1.15792e+77 1.15792e+77 1.15792e+77 1.15792e+77 1.15792e+77 1.15792e+77 1.15792e+77 1.15792e+77 1.15792e+77 0 1.15792e+77 0.363528 1.15792e+77 inf 1.15792e+77 1.15792e+77 1.15792e+77 0.3742 1.15792e+77 0.396553 1.15792e+77 1.15792e+77 0.375067 0.399334 0.353571 1.15792e+77 1.15792e+77 1.15792e+77 1.15792e+77 1.15792e+77 0.379475 inf inf 1.15792e+77 1.15792e+77 0.402637 0.36649 0.368018 1.15792e+77 1.15792e+77 1.15792e+77 1.15792e+77 0.487178 1.15792e+77 1.15792e+77 1.15792e+77 1.15792e+77 1.15792e+77 1.15792e+77 1.15792e+77 1.15792e+77 1.15792e+77 1.15792e+77 1.15792e+77 1.15792e+77 inf 0.398001 1.15792e+77 1.15792e+77
0.431685 0.421783 0.463039 0.442618 0.389333 1.15792e+77 1.15792e+77 1.15792e+77 0.357746 0.452237 0.386777 0.411027 0.434992 0.404926 0.446457 0.441664 0.412895 0.470623 0.436419 1.15792e+77 0.390995 1.15792e+77 0.448192 0.396361 0.395839 0.412627 0.446705 0.425016 0.438686 1.15792e+77 0.497639 0.468114 0.387741 0.458505 0.440027 0.412956 1.15792e+77 0.486741 0.41871 1.15792e+77 0.385214 0.404483 0.432224 0.430078 0.457759 0.472817 0.448118 0.441428 0.426911 0.416043 1.15792e+77 0 1.15792e+77 0.417604 inf 0.375297 0.355402 0.364609 1.15792e+77 0.3898 1.15792e+77 0.36521 0.346429 1.15792e+77 1.15792e+77 1.15792e+77 0.351923 0.39902 0.375022 0.341783 0.390415 1.15792e+77 inf inf 0.350554 0.378857 1.15792e+77 1.15792e+77 1.15792e+77 0.358704 0.399121 0.372026 0.354414 1.15792e+77 0.345888 0.402543 0.354403 0.367185 0.357236 0.383666 0.372374 0.366448 0.359995 0.366408 0.395227 0.395931 inf 1.15792e+77 0.36357 0.356756
1.15792e+77 1.15792e+77 1.15792e+77 1.15792e+77 1.15792e+77 0.602115 0.480547 0.454789 1.15792e+77 1.15792e+77 1.15792e+77 1.15792e+77 1.15792e+77 1.15792e+77 1.15792e+77 1.15792e+77 1.15792e+77 1.15792e+77 1.15792e+77 0.424998 1.15792e+77 0.471694 1.15792e+77 1.15792e+77 1.15792e+77 1.15792e+77 1.15792e+77 1.15792e+77 1.15792e+77 0.420986 1.15792e+77 1.15792e+77 1.15792e+77 1.15792e+77 1.15792e+77 1.15792e+77 0.456558 1.15792e+77 1.15792e+77 0.463922 1.15792e+77 1.15792e+77 1.15792e+77 1.15792e+77 1.15792e+77 1.15792e+77 1.15792e+77 1.15792e+77 1.15792e+77 1.15792e+77 0.363528 1.15792e+77 0 1.15792e+77 inf 1.15792e+77 1.15792e+77 1.15792e+77 0.374514 1.15792e+77 0.37849 1.15792e+77 1.15792e+77 0.36304 0.382236 0.369802 1.15792e+77 1.15792e+77 1.15792e+77 1.15792e+77 1.15792e+77 0.379201 inf inf 1.15792e+77 1.15792e+77 0.370728 0.384163 0.366438 1.15792e+77 1.15792e+77 1.15792e+77 1.15792e+77 0.46049 1.15792e+77 1.15792e+77 1.15792e+77 1.15792e+77 1.15792e+77 1.15792e+77 1.15792e+77 1.15792e+77 1.15792e+77 1.15792e+77 1.15792e+77 1.15792e+77 inf 0.381573 1.15792e+77 1.15792e+77
0.543311 0.5129 0.557113 0.530354 0.485282 1.15792e+77 1.15792e+77 1.15792e+77 0.486193 0.529049 0.454197 0.494453 0.530111 0.489908 0.517214 0.531154 0.489949 0.553685 0.50845 1.15792e+77 0.482836 1.15792e+77 0.510174 0.50068 0.470381 0.508409 0.539385 0.513559 0.529804 1.15792e+77 0.57319 0.52989 0.478614 0.55669 0.521784 0.496566 1.15792e+77 0.560345 0.490892 1.15792e+77 0.482903 0.459264 0.514956 0.522328 0.5418 0.553871 0.547416 0.52749 0.526911 0.505916 1.15792e+77 0.417604 1.15792e+77 0 inf 0.371682 0.395213 0.435296 1.15792e+77 0.409257 1.15792e+77 0.412317 0.381173 1.15792e+77 1.15792e+77 1.15792e+77 0.397312 0.434338 0.399664 0.407695 0.373547 1.15792e+77 inf inf 0.39755 0.347815 1.15792e+77 1.15792e+77 1.15792e+77 0.396552 0.423439 0.42871 0.376806 1.15792e+77 0.419119 0.384607 0.379582 0.400702 0.345383 0.453191 0.407707 0.416359 0.427089 0.411701 0.415397 0.398757 inf 1.15792e+77 0.379713 0.434922
inf inf inf inf inf inf inf inf inf inf inf inf inf inf inf inf inf inf inf inf inf inf inf inf inf inf inf inf inf inf inf inf inf inf inf inf inf inf inf inf inf inf inf inf inf inf inf inf inf inf inf inf inf inf 0 inf inf inf inf inf inf inf inf inf inf inf inf inf inf inf inf inf 0.458161 0.420086 inf inf inf inf inf inf inf inf inf inf inf inf inf inf inf inf inf inf inf inf inf inf 0.568758 inf inf inf
0.494058 0.469395 0.512545 0.481413 0.435874 1.15792e+77 1.15792e+77 1.15792e+77 0.428774 0.498545 0.410678 0.446392 0.515987 0.444434 0.502387 0.479307 0.449787 0.514207 0.480666 1.15792e+77 0.422837 1.15792e+77 0.499697 0.461084 0.43411 0.47692 0.488374 0.457993 0.480231 1.15792e+77 0.53692 0.498742 0.419958 0.503262 0.471124 0.440666 1.15792e+77 0.523147 0.482846 1.15792e+77 0.430533 0.40031 0.463084 0.471165 0.497452 0.498727 0.480799 0.477698 0.471913 0.457298 1.15792e+77 0.375297 1.15792e+77 0.371682 inf 0 0.358718 0.382259 1.15792e+77 0.368317 1.15792e+77 0.362969 0.383962 1.15792e+77 1.15792e+77 1.15792e+77 0.371037 0.380825 0.370727 0.380374 0.374034 1.15792e+77 inf inf 0.388307 0.38625 1.15792e+77 1.15792e+77 1.15792e+77 0.352518 0.37784 0.348345 0.367926 1.15792e+77 0.380735 0.398111 0.340533 0.385845 0.350944 0.385538 0.387525 0.367956 0.380988 0.369327 0.362304 0.402487 inf 1.15792e+77 0.359991 0.372171
0.481718 0.456366 0.496955 0.486938 0.428605 1.15792e+77 1.15792e+77 1.15792e+77 0.426705 0.489067 0.40988 0.435235 0.48698 0.452189 0.48521 0.478004 0.441887 0.508981 0.47293 1.15792e+77 0.409546 1.15792e+77 0.488219 0.447716 0.434018 0.461364 0.48585 0.46335 0.472684 1.15792e+77 0.526614 0.48514 0.427281 0.511995 0.464935 0.431659 1.15792e+77 0.516373 0.457731 1.15792e+77 0.415637 0.412637 0.465861 0.462669 0.485188 0.498574 0.484091 0.465986 0.466923 0.465948 1.15792e+77 0.355402 1.15792e+77 0.395213 inf 0.358718 0 0.375167 1.15792e+77 0.385064 1.15792e+77 0.361878 0.364095 1.15792e+77 1.15792e+77 1.15792e+77 0.367193 0.36682 0.349521 0.362194 0.392211 1.15792e+77 inf inf 0.35146 0.359003 1.15792e+77 1.15792e+77 1.15792e+77 0.360423 0.367547 0.3597 0.365633 1.15792e+77 0.369245 0.361456 0.353912 0.361166 0.369704 0.387548 0.351756 0.381145 0.369743 0.34678 0.381933 0.391023 inf 1.15792e+77 0.378312 0.36054
0.460723 0.418351 0.467059 0.451105 0.406845 1.15792e+77 1.15792e+77 1.15792e+77 0.382728 0.462699 0.386557 0.40477 0.463155 0.410796 0.422706 0.444925 0.407751 0.477885 0.420902 1.15792e+77 0.396031 1.15792e+77 0.458218 0.395446 0.422067 0.444511 0.449722 0.441514 0.435461 1.15792e+77 0.481931 0.473026 0.391787 0.474922 0.438179 0.404303 1.15792e+77 0.475544 0.43875 1.15792e+77 0.390848 0.406727 0.420168 0.40463 0.452475 0.486083 0.44808 0.439905 0.427316 0.414806 1.15792e+77 0.364609 1.15792e+77 0.435296 inf 0.382259 0.375167 0 1.15792e+77 0.418071 1.15792e+77 0.355967 0.392881 1.15792e+77 1.15792e+77 1.15792e+77 0.356774 0.381428 0.360359 0.341633 0.387746 1.15792e+77 inf inf 0.382251 0.388664 1.15792e+77 1.15792e+77 1.15792e+77 0.367355 0.384826 0.369509 0.36869 1.15792e+77 0.366569 0.387286 0.374651 0.362454 0.383443 0.391256 0.35805 0.394712 0.379257 0.347957 0.43247 0.361551 inf 1.15792e+77 0.398846 0.35567
1.15792e+77 1.15792e+77 1.15792e+77 1.15792e+77 1.15792e+77 0.63757 0.511693 0.481833 1.15792e+77 1.15792e+77 1.15792e+77 1.15792e+77 1.15792e+77 1.15792e+77 1.15792e+77 1.15792e+77 1.15792e+77 1.15792e+77 1.15792e+77 0.464693 1.15792e+77 0.500989 1.15792e+77 1.15792e+77 1.15792e+77 1.15792e+77 1.15792e+77 1.15792e+77 1.15792e+77 0.448153 1.15792e+77 1.15792e+77 1.15792e+77 1.15792e+77 1.15792e+77 1.15792e+77 0.484432 1.15792e+77 1.15792e+77 0.506321 1.15792e+77 1.15792e+77 1.15792e+77 1.15792e+77 1.15792e+77 1.15792e+77 1.15792e+77 1.15792e+77 1.15792e+77 1.15792e+77 0.3742 1.15792e+77 0.374514 1.15792e+77 inf 1.15792e+77 1.15792e+77 1.15792e+77 0 1.15792e+77 0.388322 1.15792e+77 1.15792e+77 0.390986 0.362022 0.371571 1.15792e+77 1.15792e+77 1.15792e+77 1.15792e+77 1.15792e+77 0.4176 inf inf 1.15792e+77 1.15792e+77 0.403193 0.385075 0.357008 1.15792e+77 1.15792e+77 1.15792e+77 1.15792e+77 0.503008 1.15792e+77 1.15792e+77 1.15792e+77 1.15792e+77 1.15792e+77 1.15792e+77 1.15792e+77 1.15792e+77 1.15792e+77 1.15792e+77 1.15792e+77 1.15792e+77 inf 0.395677 1.15792e+77 1.15792e+77
0.50937 0.474543 0.531156 0.491804 0.45681 1.15792e+77 1.15792e+77 1.15792e+77 0.456039 0.521302 0.408992 0.441487 0.533062 0.443372 0.526672 0.49293 0.487359 0.534735 0.506682 1.15792e+77 0.451446 1.15792e+77 0.518846 0.469821 0.444269 0.48995 0.507478 0.460625 0.5052 1.15792e+77 0.549804 0.526489 0.42114 0.51051 0.485573 0.448926 1.15792e+77 0.553809 0.508028 1.15792e+77 0.466337 0.388038 0.472959 0.482249 0.52435 0.516376 0.512393 0.49663 0.483885 0.460234 1.15792e+77 0.3898 1.15792e+77 0.409257 inf 0.368317 0.385064 0.418071 1.15792e+77 0 1.15792e+77 0.406016 0.382212 1.15792e+77 1.15792e+77 1.15792e+77 0.383388 0.406485 0.387194 0.393229 0.37909 1.15792e+77 inf inf 0.397986 0.415719 1.15792e+77 1.15792e+77 1.15792e+77 0.361185 0.373401 0.360247 0.383644 1.15792e+77 0.363969 0.436924 0.326086 0.404918 0.353486 0.381869 0.414364 0.341454 0.393444 0.398322 0.393805 0.425016 inf 1.15792e+77 0.342178 0.399153
1.15792e+77 1.15792e+77 1.15792e+77 1.15792e+77 1.15792e+77 0.629579 0.476834 0.451281 1.15792e+77 1.15792e+77 1.15792e+77 1.15792e+77 1.15792e+77 1.15792e+77 1.15792e+77 1.15792e+77 1.15792e+77 1.15792e+77 1.15792e+77 0.431887 1.15792e+77 0.450569 1.15792e+77 1.15792e+77 1.15792e+77 1.15792e+77 1.15792e+77 1.15792e+77 1.15792e+77 0.421321 1.15792e+77 1.15792e+77 1.15792e+77 1.15792e+77 1.15792e+77 1.15792e+77 0.446078 1.15792e+77 1.15792e+77 0.472157 1.15792e+77 1.15792e+77 1.15792e+77 1.15792e+77 1.15792e+77 1.15792e+77 1.15792e+77 1.15792e+77 1.15792e+77 1.15792e+77 0.396553 1.15792e+77 0.37849 1.15792e+77 inf 1.15792e+77 1.15792e+77 1.15792e+77 0.388322 1.15792e+77 0 1.15792e+77 1.15792e+77 0.365984 0.413175 0.388754 1.15792e+77 1.15792e+77 1.15792e+77 1.15792e+77 1.15792e+77 0.412596 inf inf 1.15792e+77 1.15792e+77 0.400242 0.395733 0.402529 1.15792e+77 1.15792e+77 1.15792e+77 1.15792e+77 0.489197 1.15792e+77 1.15792e+77 1.15792e+77 1.15792e+77 1.15792e+77 1.15792e+77 1.15792e+77 1.15792e+77 1.15792e+77 1.15792e+77 1.15792e+77 1.15792e+77 inf 0.416809 1.15792e+77 1.15792e+77
0.49007 0.457837 0.48944 0.486081 0.446756 1.15792e+77 1.15792e+77 1.15792e+77 0.4177 0.490812 0.409085 0.436654 0.479724 0.44475 0.48456 0.483444 0.435531 0.511569 0.445402 1.15792e+77 0.432355 1.15792e+77 0.47796 0.426081 0.442894 0.471337 0.479051 0.477921 0.477827 1.15792e+77 0.525844 0.492272 0.41583 0.504642 0.479091 0.41349 1.15792e+77 0.516205 0.458445 1.15792e+77 0.410188 0.429441 0.460758 0.459032 0.481019 0.516626 0.490134 0.481101 0.453972 0.442046 1.15792e+77 0.36521 1.15792e+77 0.412317 inf 0.362969 0.361878 0.355967 1.15792e+77 0.406016 1.15792e+77 0 0.372871 1.15792e+77 1.15792e+77 1.15792e+77 0.349356 0.356565 0.342649 0.33508 0.358902 1.15792e+77 inf inf 0.354868 0.396295 1.15792e+77 1.15792e+77 1.15792e+77 0.364054 0.359849 0.355708 0.352283 1.15792e+77 0.378294 0.362456 0.353142 0.360922 0.341749 0.38027 0.34578 0.386893 0.379006 0.34207 0.412158 0.372354 inf 1.15792e+77 0.372515 0.34604
0.486037 0.467264 0.510841 0.476134 0.433836 1.15792e+77 1.15792e+77 1.15792e+77 0.417167 0.501851 0.408436 0.429038 0.477096 0.440977 0.484792 0.484449 0.462068 0.517607 0.479367 1.15792e+77 0.419406 1.15792e+77 0.487389 0.449709 0.439647 0.462207 0.482173 0.46823 0.484152 1.15792e+77 0.52976 0.499209 0.440512 0.51179 0.468878 0.443931 1.15792e+77 0.519134 0.442249 1.15792e+77 0.428915 0.414003 0.462793 0.457874 0.505514 0.513311 0.497436 0.46889 0.476753 0.451544 1.15792e+77 0.346429 1.15792e+77 0.381173 inf 0.383962 0.364095 0.392881 1.15792e+77 0.382212 1.15792e+77 0.372871 0 1.15792e+77 1.15792e+77 1.15792e+77 0.35145 0.363286 0.350765 0.365368 0.398271 1.15792e+77 inf inf 0.373934 0.346184 1.15792e+77 1.15792e+77 1.15792e+77 0.366594 0.374764 0.380746 0.386994 1.15792e+77 0.379474 0.389277 0.344927 0.390716 0.37445 0.417891 0.373212 0.383876 0.403845 0.374364 0.39393 0.400995 inf 1.15792e+77 0.361364 0.384256
1.15792e+77 1.15792e+77 1.15792e+77 1.15792e+77 1.15792e+77 0.621095 0.465064 0.459609 1.15792e+77 1.15792e+77 1.15792e+77 1.15792e+77 1.15792e+77 1.15792e+77 1.15792e+77 1.15792e+77 1.15792e+77 1.15792e+77 1.15792e+77 0.413075 1.15792e+77 0.468784 1.15792e+77 1.15792e+77 1.15792e+77 1.15792e+77 1.15792e+77 1.15792e+77 1.15792e+77 0.423126 1.15792e+77 1.15792e+77 1.15792e+77 1.15792e+77 1.15792e+77 1.15792e+77 0.440196 1.15792e+77 1.15792e+77 0.442994 1.15792e+77 1.15792e+77 1.15792e+77 1.15792e+77 1.15792e+77 1.15792e+77 1.15792e+77 1.15792e+77 1.15792e+77 1.15792e+77 0.375067 1.15792e+77 0.36304 1.15792e+77 inf 1.15792e+77 1.15792e+77 1.15792e+77 0.390986 1.15792e+77 0.365984 1.15792e+77 1.15792e+77 0 0.390312 0.369884 1.15792e+77 1.15792e+77 1.15792e+77 1.15792e+77 1.15792e+77 0.386342 inf inf 1.15792e+77 1.15792e+77 0.390149 0.399679 0.371852 1.15792e+77 1.15792e+77 1.15792e+77 1.15792e+77 0.488608 1.15792e+77 1.15792e+77 1.15792e+77 1.15792e+77 1.15792e+77 1.15792e+77 1.15792e+77 1.15792e+77 1.15792e+77 1.15792e+77 1.15792e+77 1.15792e+77 inf 0.383726 1.15792e+77 1.15792e+77
1.15792e+77 1.15792e+77 1.15792e+77 1.15792e+77 1.15792e+77 0.590871 0.506818 0.483521 1.15792e+77 1.15792e+77 1.15792e+77 1.15792e+77 1.15792e+77 1.15792e+77 1.15792e+77 1.15792e+77 1.15792e+77 1.15792e+77 1.15792e+77 0.464756 1.15792e+77 0.495599 1.15792e+77 1.15792e+77 1.15792e+77 1.15792e+77 1.15792e+77 1.15792e+77 1.15792e+77 0.464444 1.15792e+77 1.15792e+77 1.15792e+77 1.15792e+77 1.15792e+77 1.15792e+77 0.496622 1.15792e+77 1.15792e+77 0.509005 1.15792e+77 1.15792e+77 1.15792e+77 1.15792e+77 1.15792e+77 1.15792e+77 1.15792e+77 1.15792e+77 1.15792e+77 1.15792e+77 0.399334 1.15792e+77 0.382236 1.15792e+77 inf 1.15792e+77 1.15792e+77 1.15792e+77 0.362022 1.15792e+77 0.413175 1.15792e+77 1.15792e+77 0.390312 0 0.399812 1.15792e+77 1.15792e+77 1.15792e+77 1.15792e+77 1.15792e+77 0.394976 inf inf 1.15792e+77 1.15792e+77 0.413045 0.413511 0.382675 1.15792e+77 1.15792e+77 1.15792e+77 1.15792e+77 0.462913 1.15792e+77 1.15792e+77 1.15792e+77 1.15792e+77 1.15792e+77 1.15792e+77 1.15792e+77 1.15792e+77 1.15792e+77 1.15792e+77 1.15792e+77 1.15792e+77 inf 0.418153 1.15792e+77 1.15792e+77
1.15792e+77 1.15792e+77 1.15792e+77 1.15792e+77 1.15792e+77 0.646725 0.495831 0.476589 1.15792e+77 1.15792e+77 1.15792e+77 1.15792e+77 1.15792e+77 1.15792e+77 1.15792e+77 1.15792e+77 1.15792e+77 1.15792e+77 1.15792e+77 0.45024 1.15792e+77 0.479287 1.15792e+77 1.15792e+77 1.15792e+77 1.15792e+77 1.15792e+77 1.15792e+77 1.15792e+77 0.430397 1.15792e+77 1.15792e+77 1.15792e+77 1.15792e+77 1.15792e+77 1.15792e+77 0.462076 1.15792e+77 1.15792e+77 0.492376 1.15792e+77 1.15792e+77 1.15792e+77 1.15792e+77 1.15792e+77 1.15792e+77 1.15792e+77 1.15792e+77 1.15792e+77 1.15792e+77 0.353571 1.15792e+77 0.369802 1.15792e+77 inf 1.15792e+77 1.15792e+77 1.15792e+77 0.371571 1.15792e+77 0.388754 1.15792e+77 1.15792e+77 0.369884 0.399812 0 1.15792e+77 1.15792e+77 1.15792e+77 1.15792e+77 1.15792e+77 0.414763 inf inf 1.15792e+77 1.15792e+77 0.409196 0.390378 0.370168 1.15792e+77 1.15792e+77 1.15792e+77 1.15792e+77 0.521209 1.15792e+77 1.15792e+77 1.15792e+77 1.15792e+77 1.15792e+77 1.15792e+77 1.15792e+77 1.15792e+77 1.15792e+77 1.15792e+77 1.15792e+77 1.15792e+77 inf 0.379477 1.15792e+77 1.15792e+77
0.480653 0.449218 0.487658 0.473473 0.431321 1.15792e+77 1.15792e+77 1.15792e+77 0.392279 0.48179 0.40013 0.423732 0.469892 0.43933 0.467229 0.476049 0.446808 0.504509 0.454056 1.15792e+77 0.426409 1.15792e+77 0.463717 0.418966 0.434929 0.456285 0.479266 0.467015 0.467816 1.15792e+77 0.503713 0.500199 0.418362 0.503902 0.470118 0.423876 1.15792e+77 0.507957 0.445394 1.15792e+77 0.405541 0.419012 0.454642 0.449125 0.484281 0.513369 0.480129 0.471081 0.455041 0.43882 1.15792e+77 0.351923 1.15792e+77 0.397312 inf 0.371037 0.367193 0.356774 1.15792e+77 0.383388 1.15792e+77 0.349356 0.35145 1.15792e+77 1.15792e+77 1.15792e+77 0 0.360746 0.343632 0.339248 0.384202 1.15792e+77 inf inf 0.326732 0.360646 1.15792e+77 1.15792e+77 1.15792e+77 0.357082 0.378236 0.349246 0.356932 1.15792e+77 0.361391 0.395845 0.351941 0.367103 0.361175 0.380045 0.373296 0.385567 0.385693 0.368538 0.402084 0.383459 inf 1.15792e+77 0.368539 0.347574
0.497477 0.451795 0.501346 0.499664 0.449293 1.15792e+77 1.15792e+77 1.15792e+77 0.433243 0.498434 0.417281 0.437067 0.483112 0.453039 0.483734 0.487487 0.455119 0.515596 0.475013 1.15792e+77 0.429345 1.15792e+77 0.490582 0.451308 0.452918 0.472817 0.482215 0.488598 0.491696 1.15792e+77 0.530729 0.506107 0.448222 0.520778 0.479964 0.421088 1.15792e+77 0.514511 0.449858 1.15792e+77 0.4093 0.439976 0.476749 0.455984 0.498549 0.519265 0.491843 0.475398 0.467442 0.464121 1.15792e+77 0.39902 1.15792e+77 0.434338 inf 0.380825 0.36682 0.381428 1.15792e+77 0.406485 1.15792e+77 0.356565 0.363286 1.15792e+77 1.15792e+77 1.15792e+77 0.360746 0 0.346923 0.360929 0.40751 1.15792e+77 inf inf 0.363424 0.392375 1.15792e+77 1.15792e+77 1.15792e+77 0.396834 0.383729 0.369972 0.38347 1.15792e+77 0.380844 0.394045 0.368895 0.394116 0.391125 0.39863 0.378209 0.403504 0.402505 0.376576 0.404158 0.417576 inf 1.15792e+77 0.368868 0.364333
0.488739 0.456035 0.503651 0.479232 0.432809 1.15792e+77 1.15792e+77 1.15792e+77 0.418938 0.491623 0.401611 0.42608 0.474758 0.43407 0.473151 0.477648 0.433738 0.515179 0.448577 1.15792e+77 0.414101 1.15792e+77 0.469459 0.44127 0.437522 0.45882 0.48345 0.479493 0.479825 1.15792e+77 0.521455 0.495754 0.427141 0.510655 0.472613 0.414639 1.15792e+77 0.502984 0.433839 1.15792e+77 0.401791 0.411208 0.459269 0.455378 0.484993 0.51441 0.482472 0.473219 0.459922 0.444993 1.15792e+77 0.375022 1.15792e+77 0.399664 inf 0.370727 0.349521 0.360359 1.15792e+77 0.387194 1.15792e+77 0.342649 0.350765 1.15792e+77 1.15792e+77 1.15792e+77 0.343632 0.346923 0 0.351992 0.346546 1.15792e+77 inf inf 0.352103 0.364911 1.15792e+77 1.15792e+77 1.15792e+77 0.342672 0.357957 0.362748 0.35676 1.15792e+77 0.370236 0.365288 0.352768 0.35529 0.359138 0.394216 0.350358 0.379659 0.37228 0.343766 0.402287 0.363406 inf 1.15792e+77 0.365851 0.365978
0.461976 0.424084 0.457793 0.460368 0.41169 1.15792e+77 1.15792e+77 1.15792e+77 0.37863 0.463816 0.384612 0.403857 0.455356 0.42178 0.445497 0.447148 0.414572 0.485609 0.422578 1.15792e+77 0.405954 1.15792e+77 0.44325 0.403608 0.418266 0.43187 0.447485 0.446884 0.443404 1.15792e+77 0.492569 0.468422 0.405311 0.478663 0.446937 0.392783 1.15792e+77 0.489599 0.433989 1.15792e+77 0.374506 0.415527 0.439321 0.427069 0.461939 0.48849 0.458383 0.446157 0.421873 0.423061 1.15792e+77 0.341783 1.15792e+77 0.407695 inf 0.380374 0.362194 0.341633 1.15792e+77 0.393229 1.15792e+77 0.33508 0.365368 1.15792e+77 1.15792e+77 1.15792e+77 0.339248 0.360929 0.351992 0 0.36335 1.15792e+77 inf inf 0.33808 0.377152 1.15792e+77 1.15792e+77 1.15792e+77 0.33795 0.364582 0.37022 0.340939 1.15792e+77 0.359165 0.383494 0.344827 0.364368 0.354535 0.381712 0.346836 0.387581 0.352435 0.356238 0.415418 0.379516 inf 1.15792e+77 0.366671 0.355121
0.515023 0.476542 0.519221 0.491997 0.457338 1.15792e+77 1.15792e+77 1.15792e+77 0.441342 0.499962 0.406995 0.454981 0.499474 0.459235 0.497959 0.498477 0.450081 0.526285 0.445962 1.15792e+77 0.450154 1.15792e+77 0.489839 0.459415 0.438774 0.483892 0.502965 0.481773 0.498202 1.15792e+77 0.538492 0.506196 0.43607 0.524161 0.487628 0.447646 1.15792e+77 0.52895 0.475398 1.15792e+77 0.443885 0.416672 0.481339 0.485852 0.505225 0.532273 0.509941 0.498198 0.482767 0.462792 1.15792e+77 0.390415 1.15792e+77 0.373547 inf 0.374034 0.392211 0.387746 1.15792e+77 0.37909 1.15792e+77 0.358902 0.398271 1.15792e+77 1.15792e+77 1.15792e+77 0.384202 0.40751 0.346546 0.36335 0 1.15792e+77 inf inf 0.386343 0.389271 1.15792e+77 1.15792e+77 1.15792e+77 0.323823 0.364343 0.382093 0.362597 1.15792e+77 0.383419 0.383894 0.341429 0.370002 0.320506 0.414892 0.372085 0.377988 0.358217 0.381509 0.43957 0.333565 inf 1.15792e+77 0.351518 0.397096
1.15792e+77 1.15792e+77 1.15792e+77 1.15792e+77 1.15792e+77 0.579141 0.428064 0.423803 1.15792e+77 1.15792e+77 1.15792e+77 1.15792e+77 1.15792e+77 1.15792e+77 1.15792e+77 1.15792e+77 1.15792e+77 1.15792e+77 1.15792e+77 0.416318 1.15792e+77 0.42271 1.15792e+77 1.15792e+77 1.15792e+77 1.15792e+77 1.15792e+77 1.15792e+77 1.15792e+77 0.403742 1.15792e+77 1.15792e+77 1.15792e+77 1.15792e+77 1.15792e+77 1.15792e+77 0.441277 1.15792e+77 1.15792e+77 0.429753 1.15792e+77 1.15792e+77 1.15792e+77 1.15792e+77 1.15792e+77 1.15792e+77 1.15792e+77 1.15792e+77 1.15792e+77 1.15792e+77 0.379475 1.15792e+77 0.379201 1.15792e+77 inf 1.15792e+77 1.15792e+77 1.15792e+77 0.4176 1.15792e+77 0.412596 1.15792e+77 1.15792e+77 0.386342 0.394976 0.414763 1.15792e+77 1.15792e+77 1.15792e+77 1.15792e+77 1.15792e+77 0 inf inf 1.15792e+77 1.15792e+77 0.371175 0.410801 0.395919 1.15792e+77 1.15792e+77 1.15792e+77 1.15792e+77 0.454606 1.15792e+77 1.15792e+77 1.15792e+77 1.15792e+77 1.15792e+77 1.15792e+77 1.15792e+77 1.15792e+77 1.15792e+77 1.15792e+77 1.15792e+77 1.15792e+77 inf 0.410327 1.15792e+77 1.15792e+77
inf inf inf inf inf inf inf inf inf inf inf inf inf inf inf inf inf inf inf inf inf inf inf inf inf inf inf inf inf inf inf inf inf inf inf inf inf inf inf inf inf inf inf inf inf inf inf inf inf inf inf inf inf inf 0.458161 inf inf inf inf inf inf inf inf inf inf inf inf inf inf inf inf inf 0 0.42257 inf inf inf inf inf inf inf inf inf inf inf inf inf inf inf inf inf inf inf inf inf inf 0.534219 inf inf inf
inf inf inf inf inf inf inf inf inf inf inf inf inf inf inf inf inf inf inf inf inf inf inf inf inf inf inf inf inf inf inf inf inf inf inf inf inf inf inf inf inf inf inf inf inf inf inf inf inf inf inf inf inf inf 0.420086 inf inf inf inf inf inf inf inf inf inf inf inf inf inf inf inf inf 0.42257 0 inf inf inf inf inf inf inf inf inf inf inf inf inf inf inf inf inf inf inf inf inf inf 0.559347 inf inf inf
0.484 0.460265 0.4922 0.486198 0.440329 1.15792e+77 1.15792e+77 1.15792e+77 0.413436 0.487886 0.413624 0.441214 0.467644 0.444878 0.475784 0.488451 0.437669 0.511109 0.461837 1.15792e+77 0.417479 1.15792e+77 0.462331 0.437166 0.446901 0.459513 0.481976 0.48288 0.473715 1.15792e+77 0.514201 0.494821 0.430573 0.510528 0.476904 0.425271 1.15792e+77 0.521235 0.447373 1.15792e+77 0.405105 0.432009 0.467356 0.468856 0.484744 0.51679 0.483798 0.48296 0.457497 0.457043 1.15792e+77 0.350554 1.15792e+77 0.39755 inf 0.388307 0.35146 0.382251 1.15792e+77 0.397986 1.15792e+77 0.354868 0.373934 1.15792e+77 1.15792e+77 1.15792e+77 0.326732 0.363424 0.352103 0.33808 0.386343 1.15792e+77 inf inf 0 0.369949 1.15792e+77 1.15792e+77 1.15792e+77 0.357095 0.37048 0.361568 0.328451 1.15792e+77 0.367894 0.377823 0.357885 0.35748 0.364597 0.3916 0.361398 0.399777 0.366917 0.356344 0.396148 0.381744 inf 1.15792e+77 0.366476 0.365696
0.509734 0.476543 0.524771 0.505664 0.448347 1.15792e+77 1.15792e+77 1.15792e+77 0.436102 0.506057 0.420512 0.457481 0.48638 0.465212 0.481233 0.502056 0.452518 0.528385 0.486995 1.15792e+77 0.438212 1.15792e+77 0.487934 0.459662 0.444188 0.480194 0.505623 0.485329 0.494147 1.15792e+77 0.531715 0.507256 0.439461 0.533926 0.486672 0.467361 1.15792e+77 0.529267 0.448353 1.15792e+77 0.436635 0.432564 0.481558 0.481021 0.512995 0.533504 0.50997 0.494278 0.493464 0.478883 1.15792e+77 0.378857 1.15792e+77 0.347815 inf 0.38625 0.359003 0.388664 1.15792e+77 0.415719 1.15792e+77 0.396295 0.346184 1.15792e+77 1.15792e+77 1.15792e+77 0.360646 0.392375 0.364911 0.377152 0.389271 1.15792e+77 inf inf 0.369949 0 1.15792e+77 1.15792e+77 1.15792e+77 0.374678 0.417911 0.400141 0.378523 1.15792e+77 0.379295 0.375759 0.3727 0.382664 0.365987 0.430666 0.386175 0.405547 0.416973 0.383233 0.412202 0.391932 inf 1.15792e+77 0.381817 0.399642
1.15792e+77 1.15792e+77 1.15792e+77 1.15792e+77 1.15792e+77 0.599347 0.457183 0.429358 1.15792e+77 1.15792e+77 1.15792e+77 1.15792e+77 1.15792e+77 1.15792e+77 1.15792e+77 1.15792e+77 1.15792e+77 1.15792e+77 1.15792e+77 0.412845 1.15792e+77 0.445789 1.15792e+77 1.15792e+77 1.15792e+77 1.15792e+77 1.15792e+77 1.15792e+77 1.15792e+77 0.40989 1.15792e+77 1.15792e+77 1.15792e+77 1.15792e+77 1.15792e+77 1.15792e+77 0.447881 1.15792e+77 1.15792e+77 0.438595 1.15792e+77 1.15792e+77 1.15792e+77 1.15792e+77 1.15792e+77 1.15792e+77 1.15792e+77 1.15792e+77 1.15792e+77 1.15792e+77 0.402637 1.15792e+77 0.370728 1.15792e+77 inf 1.15792e+77 1.15792e+77 1.15792e+77 0.403193 1.15792e+77 0.400242 1.15792e+77 1.15792e+77 0.390149 0.413045 0.409196 1.15792e+77 1.15792e+77 1.15792e+77 1.15792e+77 1.15792e+77 0.371175 inf inf 1.15792e+77 1.15792e+77 0 0.374697 0.383901 1.15792e+77 1.15792e+77 1.15792e+77 1.15792e+77 0.453122 1.15792e+77 1.15792e+77 1.15792e+77 1.15792e+77 1.15792e+77 1.15792e+77 1.15792e+77 1.15792e+77 1.15792e+77 1.15792e+77 1.15792e+77 1.15792e+77 inf 0.391113 1.15792e+77 1.15792e+77
1.15792e+77 1.15792e+77 1.15792e+77 1.15792e+77 1.15792e+77 0.620547 0.477954 0.448699 1.15792e+77 1.15792e+77 1.15792e+77 1.15792e+77 1.15792e+77 1.15792e+77 1.15792e+77 1.15792e+77 1.15792e+77 1.15792e+77 1.15792e+77 0.458212 1.15792e+77 0.450209 1.15792e+77 1.15792e+77 1.15792e+77 1.15792e+77 1.15792e+77 1.15792e+77 1.15792e+77 0.434209 1.15792e+77 1.15792e+77 1.15792e+77 1.15792e+77 1.15792e+77 1.15792e+77 0.481968 1.15792e+77 1.15792e+77 0.475871 1.15792e+77 1.15792e+77 1.15792e+77 1.15792e+77 1.15792e+77 1.15792e+77 1.15792e+77 1.15792e+77 1.15792e+77 1.15792e+77 0.36649 1.15792e+77 0.384163 1.15792e+77 inf 1.15792e+77 1.15792e+77 1.15792e+77 0.385075 1.15792e+77 0.395733 1.15792e+77 1.15792e+77 0.399679 0.413511 0.390378 1.15792e+77 1.15792e+77 1.15792e+77 1.15792e+77 1.15792e+77 0.410801 inf inf 1.15792e+77 1.15792e+77 0.374697 0 0.389819 1.15792e+77 1.15792e+77 1.15792e+77 1.15792e+77 0.473877 1.15792e+77 1.15792e+77 1.15792e+77 1.15792e+77 1.15792e+77 1.15792e+77 1.15792e+77 1.15792e+77 1.15792e+77 1.15792e+77 1.15792e+77 1.15792e+77 inf 0.356165 1.15792e+77 1.15792e+77
1.15792e+77 1.15792e+77 1.15792e+77 1.15792e+77 1.15792e+77 0.621887 0.502048 0.485543 1.15792e+77 1.15792e+77 1.15792e+77 1.15792e+77 1.15792e+77 1.15792e+77 1.15792e+77 1.15792e+77 1.15792e+77 1.15792e+77 1.15792e+77 0.452667 1.15792e+77 0.499518 1.15792e+77 1.15792e+77 1.15792e+77 1.15792e+77 1.15792e+77 1.15792e+77 1.15792e+77 0.437998 1.15792e+77 1.15792e+77 1.15792e+77 1.15792e+77 1.15792e+77 1.15792e+77 0.478072 1.15792e+77 1.15792e+77 0.486364 1.15792e+77 1.15792e+77 1.15792e+77 1.15792e+77 1.15792e+77 1.15792e+77 1.15792e+77 1.15792e+77 1.15792e+77 1.15792e+77 0.368018 1.15792e+77 0.366438 1.15792e+77 inf 1.15792e+77 1.15792e+77 1.15792e+77 0.357008 1.15792e+77 0.402529 1.15792e+77 1.15792e+77 0.371852 0.382675 0.370168 1.15792e+77 1.15792e+77 1.15792e+77 1.15792e+77 1.15792e+77 0.395919 inf inf 1.15792e+77 1.15792e+77 0.383901 0.389819 0 1.15792e+77 1.15792e+77 1.15792e+77 1.15792e+77 0.49078 1.15792e+77 1.15792e+77 1.15792e+77 1.15792e+77 1.15792e+77 1.15792e+77 1.15792e+77 1.15792e+77 1.15792e+77 1.15792e+77 1.15792e+77 1.15792e+77 inf 0.389777 1.15792e+77 1.15792e+77
0.493523 0.458262 0.500563 0.475068 0.4356 1.15792e+77 1.15792e+77 1.15792e+77 0.411506 0.483694 0.393662 0.429891 0.493854 0.437046 0.493902 0.474319 0.438118 0.506174 0.450665 1.15792e+77 0.433122 1.15792e+77 0.476821 0.439529 0.425566 0.465887 0.473288 0.456515 0.474949 1.15792e+77 0.521842 0.491645 0.420658 0.501838 0.464841 0.429178 1.15792e+77 0.518929 0.467788 1.15792e+77 0.419208 0.40331 0.466367 0.46141 0.489264 0.508139 0.482642 0.47552 0.457271 0.450448 1.15792e+77 0.358704 1.15792e+77 0.396552 inf 0.352518 0.360423 0.367355 1.15792e+77 0.361185 1.15792e+77 0.364054 0.366594 1.15792e+77 1.15792e+77 1.15792e+77 0.357082 0.396834 0.342672 0.33795 0.323823 1.15792e+77 inf inf 0.357095 0.374678 1.15792e+77 1.15792e+77 1.15792e+77 0 0.342915 0.38182 0.349532 1.15792e+77 0.374404 0.379686 0.323843 0.365627 0.329966 0.380544 0.357172 0.366496 0.349607 0.354059 0.393965 0.362593 inf 1.15792e+77 0.363818 0.373334
0.50361 0.457661 0.508748 0.481055 0.453741 1.15792e+77 1.15792e+77 1.15792e+77 0.431716 0.502384 0.386242 0.417519 0.517057 0.423372 0.504252 0.487636 0.462477 0.521892 0.47237 1.15792e+77 0.44734 1.15792e+77 0.503493 0.45448 0.448242 0.479648 0.489495 0.468677 0.49055 1.15792e+77 0.532724 0.505052 0.417912 0.505656 0.476893 0.413513 1.15792e+77 0.539926 0.487799 1.15792e+77 0.439707 0.385683 0.466014 0.469637 0.503212 0.5142 0.495181 0.488961 0.464788 0.437738 1.15792e+77 0.399121 1.15792e+77 0.423439 inf 0.37784 0.367547 0.384826 1.15792e+77 0.373401 1.15792e+77 0.359849 0.374764 1.15792e+77 1.15792e+77 1.15792e+77 0.378236 0.383729 0.357957 0.364582 0.364343 1.15792e+77 inf inf 0.37048 0.417911 1.15792e+77 1.15792e+77 1.15792e+77 0.342915 0 0.378276 0.355804 1.15792e+77 0.384154 0.381326 0.353548 0.386511 0.362262 0.373451 0.356205 0.354147 0.370316 0.36523 0.400625 0.397921 inf 1.15792e+77 0.366088 0.363278
0.489249 0.459457 0.505776 0.476184 0.435388 1.15792e+77 1.15792e+77 1.15792e+77 0.424147 0.501859 0.411077 0.429194 0.494079 0.447772 0.496706 0.487493 0.455822 0.517569 0.476033 1.15792e+77 0.418045 1.15792e+77 0.484982 0.453664 0.443069 0.469144 0.487341 0.466316 0.476499 1.15792e+77 0.533449 0.507251 0.415756 0.504743 0.481377 0.42329 1.15792e+77 0.523638 0.476469 1.15792e+77 0.435779 0.419386 0.458176 0.462491 0.493365 0.51167 0.483671 0.479978 0.463862 0.446296 1.15792e+77 0.372026 1.15792e+77 0.42871 inf 0.348345 0.3597 0.369509 1.15792e+77 0.360247 1.15792e+77 0.355708 0.380746 1.15792e+77 1.15792e+77 1.15792e+77 0.349246 0.369972 0.362748 0.37022 0.382093 1.15792e+77 inf inf 0.361568 0.400141 1.15792e+77 1.15792e+77 1.15792e+77 0.38182 0.378276 0 0.367652 1.15792e+77 0.360393 0.402484 0.344027 0.36245 0.3728 0.377437 0.387791 0.370454 0.374607 0.36099 0.398 0.391041 inf 1.15792e+77 0.367358 0.352732
0.487942 0.456411 0.496641 0.480295 0.436108 1.15792e+77 1.15792e+77 1.15792e+77 0.41608 0.489654 0.402234 0.432671 0.484387 0.422843 0.469902 0.485847 0.433406 0.50689 0.456515 1.15792e+77 0.427777 1.15792e+77 0.465488 0.438918 0.433165 0.463605 0.473238 0.468094 0.46776 1.15792e+77 0.513794 0.494346 0.4292 0.507702 0.475367 0.418357 1.15792e+77 0.520107 0.456166 1.15792e+77 0.417388 0.400788 0.456648 0.464639 0.476923 0.512626 0.48798 0.478452 0.457584 0.44867 1.15792e+77 0.354414 1.15792e+77 0.376806 inf 0.367926 0.365633 0.36869 1.15792e+77 0.383644 1.15792e+77 0.352283 0.386994 1.15792e+77 1.15792e+77 1.15792e+77 0.356932 0.38347 0.35676 0.340939 0.362597 1.15792e+77 inf inf 0.328451 0.378523 1.15792e+77 1.15792e+77 1.15792e+77 0.349532 0.355804 0.367652 0 1.15792e+77 0.365482 0.386924 0.332921 0.353722 0.336007 0.390284 0.356128 0.385144 0.330398 0.335155 0.409271 0.367859 inf 1.15792e+77 0.365908 0.375724
1.15792e+77 1.15792e+77 1.15792e+77 1.15792e+77 1.15792e+77 0.48566 0.543541 0.492248 1.15792e+77 1.15792e+77 1.15792e+77 1.15792e+77 1.15792e+77 1.15792e+77 1.15792e+77 1.15792e+77 1.15792e+77 1.15792e+77 1.15792e+77 0.496251 1.15792e+77 0.532184 1.15792e+77 1.15792e+77 1.15792e+77 1.15792e+77 1.15792e+77 1.15792e+77 1.15792e+77 0.519431 1.15792e+77 1.15792e+77 1.15792e+77 1.15792e+77 1.15792e+77 1.15792e+77 0.543047 1.15792e+77 1.15792e+77 0.540208 1.15792e+77 1.15792e+77 1.15792e+77 1.15792e+77 1.15792e+77 1.15792e+77 1.15792e+77 1.15792e+77 1.15792e+77 1.15792e+77 0.487178 1.15792e+77 0.46049 1.15792e+77 inf 1.15792e+77 1.15792e+77 1.15792e+77 0.503008 1.15792e+77 0.489197 1.15792e+77 1.15792e+77 0.488608 0.462913 0.521209 1.15792e+77 1.15792e+77 1.15792e+77 1.15792e+77 1.15792e+77 0.454606 inf inf 1.15792e+77 1.15792e+77 0.453122 0.473877 0.49078 1.15792e+77 1.15792e+77 1.15792e+77 1.15792e+77 0 1.15792e+77 1.15792e+77 1.15792e+77 1.15792e+77 1.15792e+77 1.15792e+77 1.15792e+77 1.15792e+77 1.15792e+77 1.15792e+77 1.15792e+77 1.15792e+77 inf 0.505381 1.15792e+77 1.15792e+77
0.449722 0.424853 0.47289 0.441112 0.406457 1.15792e+77 1.15792e+77 1.15792e+77 0.396964 0.457512 0.37548 0.399857 0.45471 0.415223 0.470844 0.450076 0.424268 0.481186 0.461595 1.15792e+77 0.407112 1.15792e+77 0.461432 0.420533 0.396183 0.437906 0.463167 0.425765 0.451142 1.15792e+77 0.502297 0.470226 0.363441 0.48374 0.432914 0.411713 1.15792e+77 0.49838 0.449285 1.15792e+77 0.417851 0.376457 0.420421 0.440705 0.467428 0.482 0.466254 0.443969 0.436047 0.418704 1.15792e+77 0.345888 1.15792e+77 0.419119 inf 0.380735 0.369245 0.366569 1.15792e+77 0.363969 1.15792e+77 0.378294 0.379474 1.15792e+77 1.15792e+77 1.15792e+77 0.361391 0.380844 0.370236 0.359165 0.383419 1.15792e+77 inf inf 0.367894 0.379295 1.15792e+77 1.15792e+77 1.15792e+77 0.374404 0.384154 0.360393 0.365482 1.15792e+77 0 0.410575 0.346776 0.357939 0.384907 0.364081 0.389358 0.367971 0.349343 0.368136 0.406076 0.402209 inf 1.15792e+77 0.369875 0.373847
0.499886 0.480839 0.51829 0.4939 0.462924 1.15792e+77 1.15792e+77 1.15792e+77 0.458636 0.508703 0.424293 0.445922 0.497278 0.472621 0.493304 0.507669 0.454218 0.53186 0.463154 1.15792e+77 0.450497 1.15792e+77 0.482767 0.45306 0.469468 0.476183 0.508812 0.492358 0.493093 1.15792e+77 0.533005 0.505909 0.441014 0.518724 0.490011 0.443803 1.15792e+77 0.535307 0.467271 1.15792e+77 0.434284 0.444027 0.476766 0.486256 0.501424 0.530535 0.50583 0.499043 0.476203 0.464522 1.15792e+77 0.402543 1.15792e+77 0.384607 inf 0.398111 0.361456 0.387286 1.15792e+77 0.436924 1.15792e+77 0.362456 0.389277 1.15792e+77 1.15792e+77 1.15792e+77 0.395845 0.394045 0.365288 0.383494 0.383894 1.15792e+77 inf inf 0.377823 0.375759 1.15792e+77 1.15792e+77 1.15792e+77 0.379686 0.381326 0.402484 0.386924 1.15792e+77 0.410575 0 0.388148 0.375639 0.389835 0.428525 0.351752 0.414348 0.406858 0.366807 0.43356 0.382405 inf 1.15792e+77 0.406326 0.401307
0.486167 0.442483 0.495226 0.473475 0.429936 1.15792e+77 1.15792e+77 1.15792e+77 0.410861 0.480888 0.373607 0.426834 0.493691 0.42247 0.485096 0.461099 0.434635 0.499846 0.462046 1.15792e+77 0.43138 1.15792e+77 0.482863 0.437179 0.394448 0.460336 0.468475 0.437255 0.468211 1.15792e+77 0.524894 0.484614 0.411638 0.491834 0.453626 0.421927 1.15792e+77 0.518423 0.463432 1.15792e+77 0.416779 0.393487 0.453663 0.458536 0.485031 0.498279 0.486837 0.465481 0.461804 0.441911 1.15792e+77 0.354403 1.15792e+77 0.379582 inf 0.340533 0.353912 0.374651 1.15792e+77 0.326086 1.15792e+77 0.353142 0.344927 1.15792e+77 1.15792e+77 1.15792e+77 0.351941 0.368895 0.352768 0.344827 0.341429 1.15792e+77 inf inf 0.357885 0.3727 1.15792e+77 1.15792e+77 1.15792e+77 0.323843 0.353548 0.344027 0.332921 1.15792e+77 0.346776 0.388148 0 0.369779 0.312817 0.385399 0.360861 0.332326 0.347436 0.34648 0.397267 0.373956 inf 1.15792e+77 0.309769 0.358889
0.484428 0.447782 0.49165 0.466952 0.419344 1.15792e+77 1.15792e+77 1.15792e+77 0.419793 0.477903 0.403192 0.43645 0.463452 0.444297 0.466451 0.472521 0.422021 0.497128 0.428233 1.15792e+77 0.420256 1.15792e+77 0.449049 0.426917 0.425106 0.446749 0.485525 0.462973 0.45795 1.15792e+77 0.518589 0.477158 0.41858 0.492125 0.458213 0.431551 1.15792e+77 0.507909 0.43626 1.15792e+77 0.416752 0.419476 0.448553 0.464841 0.467491 0.506977 0.486389 0.466473 0.463955 0.440531 1.15792e+77 0.367185 1.15792e+77 0.400702 inf 0.385845 0.361166 0.362454 1.15792e+77 0.404918 1.15792e+77 0.360922 0.390716 1.15792e+77 1.15792e+77 1.15792e+77 0.367103 0.394116 0.35529 0.364368 0.370002 1.15792e+77 inf inf 0.35748 0.382664 1.15792e+77 1.15792e+77 1.15792e+77 0.365627 0.386511 0.36245 0.353722 1.15792e+77 0.357939 0.375639 0.369779 0 0.363245 0.407896 0.360308 0.393547 0.337155 0.359683 0.417395 0.347159 inf 1.15792e+77 0.383651 0.386692
0.505614 0.46599 0.515696 0.483664 0.445582 1.15792e+77 1.15792e+77 1.15792e+77 0.428173 0.5005 0.395648 0.440128 0.512234 0.44382 0.494605 0.486132 0.44643 0.522507 0.466627 1.15792e+77 0.443391 1.15792e+77 0.496237 0.452828 0.423632 0.480501 0.492067 0.465526 0.493043 1.15792e+77 0.534891 0.492419 0.417404 0.511563 0.474329 0.438319 1.15792e+77 0.532398 0.483778 1.15792e+77 0.436925 0.401334 0.474557 0.476276 0.504168 0.515244 0.504742 0.492042 0.477694 0.449099 1.15792e+77 0.357236 1.15792e+77 0.345383 inf 0.350944 0.369704 0.383443 1.15792e+77 0.353486 1.15792e+77 0.341749 0.37445 1.15792e+77 1.15792e+77 1.15792e+77 0.361175 0.391125 0.359138 0.354535 0.320506 1.15792e+77 inf inf 0.364597 0.365987 1.15792e+77 1.15792e+77 1.15792e+77 0.329966 0.362262 0.3728 0.336007 1.15792e+77 0.384907 0.389835 0.312817 0.363245 0 0.405042 0.360041 0.360774 0.355894 0.375911 0.405411 0.357502 inf 1.15792e+77 0.32914 0.375678
0.463942 0.434584 0.487202 0.441853 0.428871 1.15792e+77 1.15792e+77 1.15792e+77 0.401984 0.483397 0.393722 0.387118 0.497531 0.387782 0.496796 0.452547 0.443289 0.50135 0.469136 1.15792e+77 0.412716 1.15792e+77 0.484637 0.430802 0.436519 0.456038 0.451646 0.429836 0.45328 1.15792e+77 0.497558 0.495647 0.363058 0.47157 0.449825 0.379376 1.15792e+77 0.520748 0.482485 1.15792e+77 0.434303 0.391112 0.430845 0.441932 0.466854 0.478151 0.439474 0.460347 0.410005 0.410422 1.15792e+77 0.383666 1.15792e+77 0.453191 inf 0.385538 0.387548 0.391256 1.15792e+77 0.381869 1.15792e+77 0.38027 0.417891 1.15792e+77 1.15792e+77 1.15792e+77 0.380045 0.39863 0.394216 0.381712 0.414892 1.15792e+77 inf inf 0.3916 0.430666 1.15792e+77 1.15792e+77 1.15792e+77 0.380544 0.373451 0.377437 0.390284 1.15792e+77 0.364081 0.428525 0.385399 0.407896 0.405042 0 0.414792 0.38067 0.377707 0.390961 0.38909 0.429818 inf 1.15792e+77 0.4134 0.363115
0.489434 0.451297 0.489647 0.4814 0.431722 1.15792e+77 1.15792e+77 1.15792e+77 0.427459 0.479216 0.400242 0.426739 0.481882 0.441205 0.469043 0.476237 0.424047 0.49841 0.430241 1.15792e+77 0.433134 1.15792e+77 0.461663 0.417847 0.435071 0.461349 0.477084 0.466916 0.464353 1.15792e+77 0.528812 0.473853 0.433525 0.502259 0.461577 0.420043 1.15792e+77 0.511822 0.443377 1.15792e+77 0.400056 0.429075 0.456811 0.458041 0.475674 0.502411 0.492669 0.472295 0.456681 0.436353 1.15792e+77 0.372374 1.15792e+77 0.407707 inf 0.387525 0.351756 0.35805 1.15792e+77 0.414364 1.15792e+77 0.34578 0.373212 1.15792e+77 1.15792e+77 1.15792e+77 0.373296 0.378209 0.350358 0.346836 0.372085 1.15792e+77 inf inf 0.361398 0.386175 1.15792e+77 1.15792e+77 1.15792e+77 0.357172 0.356205 0.387791 0.356128 1.15792e+77 0.389358 0.351752 0.360861 0.360308 0.360041 0.414792 0 0.394996 0.366622 0.345549 0.423248 0.363804 inf 1.15792e+77 0.36975 0.376759
0.488132 0.453041 0.5134 0.46175 0.42798 1.15792e+77 1.15792e+77 1.15792e+77 0.428549 0.488187 0.365282 0.406774 0.514138 0.41185 0.50837 0.472528 0.453953 0.511076 0.470557 1.15792e+77 0.429264 1.15792e+77 0.50215 0.444498 0.414984 0.464017 0.480359 0.439811 0.478645 1.15792e+77 0.535172 0.495994 0.373717 0.487168 0.462255 0.423837 1.15792e+77 0.536102 0.478569 1.15792e+77 0.442363 0.359941 0.446806 0.461919 0.49534 0.499696 0.482907 0.475602 0.461263 0.430062 1.15792e+77 0.366448 1.15792e+77 0.416359 inf 0.367956 0.381145 0.394712 1.15792e+77 0.341454 1.15792e+77 0.386893 0.383876 1.15792e+77 1.15792e+77 1.15792e+77 0.385567 0.403504 0.379659 0.387581 0.377988 1.15792e+77 inf inf 0.399777 0.405547 1.15792e+77 1.15792e+77 1.15792e+77 0.366496 0.354147 0.370454 0.385144 1.15792e+77 0.367971 0.414348 0.332326 0.393547 0.360774 0.38067 0.394996 0 0.373765 0.386994 0.403192 0.402563 inf 1.15792e+77 0.336688 0.400909
0.464055 0.419926 0.460077 0.437076 0.397242 1.15792e+77 1.15792e+77 1.15792e+77 0.389475 0.455557 0.374746 0.418203 0.469785 0.392521 0.467733 0.438311 0.396202 0.479005 0.417888 1.15792e+77 0.419079 1.15792e+77 0.459774 0.43007 0.393331 0.433185 0.442311 0.426885 0.446572 1.15792e+77 0.498859 0.453272 0.404729 0.468347 0.433395 0.397384 1.15792e+77 0.496494 0.455898 1.15792e+77 0.396309 0.389708 0.440509 0.442591 0.436324 0.472383 0.454918 0.455458 0.424869 0.421675 1.15792e+77 0.359995 1.15792e+77 0.427089 inf 0.380988 0.369743 0.379257 1.15792e+77 0.393444 1.15792e+77 0.379006 0.403845 1.15792e+77 1.15792e+77 1.15792e+77 0.385693 0.402505 0.37228 0.352435 0.358217 1.15792e+77 inf inf 0.366917 0.416973 1.15792e+77 1.15792e+77 1.15792e+77 0.349607 0.370316 0.374607 0.330398 1.15792e+77 0.349343 0.406858 0.347436 0.337155 0.355894 0.377707 0.366622 0.373765 0 0.37417 0.415294 0.37191 inf 1.15792e+77 0.35535 0.374816
0.468223 0.444641 0.492305 0.460317 0.413087 1.15792e+77 1.15792e+77 1.15792e+77 0.410456 0.476282 0.398168 0.417513 0.482601 0.423277 0.463865 0.459967 0.421314 0.495382 0.425631 1.15792e+77 0.416375 1.15792e+77 0.449524 0.410369 0.426752 0.445415 0.46632 0.451339 0.451591 1.15792e+77 0.513859 0.483978 0.410828 0.486563 0.446827 0.419038 1.15792e+77 0.506767 0.437195 1.15792e+77 0.40341 0.394645 0.431482 0.441919 0.462908 0.493148 0.47011 0.460778 0.438298 0.435763 1.15792e+77 0.366408 1.15792e+77 0.411701 inf 0.369327 0.34678 0.347957 1.15792e+77 0.398322 1.15792e+77 0.34207 0.374364 1.15792e+77 1.15792e+77 1.15792e+77 0.368538 0.376576 0.343766 0.356238 0.381509 1.15792e+77 inf inf 0.356344 0.383233 1.15792e+77 1.15792e+77 1.15792e+77 0.354059 0.36523 0.36099 0.335155 1.15792e+77 0.368136 0.366807 0.34648 0.359683 0.375911 0.390961 0.345549 0.386994 0.37417 0 0.40402 0.371942 inf 1.15792e+77 0.380801 0.362083
0.497381 0.469623 0.517261 0.497668 0.452356 1.15792e+77 1.15792e+77 1.15792e+77 0.446023 0.510714 0.444412 0.46516 0.532589 0.455346 0.520403 0.486841 0.473482 0.52125 0.502659 1.15792e+77 0.441685 1.15792e+77 0.503885 0.47365 0.455578 0.491607 0.494183 0.468552 0.485965 1.15792e+77 0.543334 0.509122 0.452847 0.502288 0.484824 0.447519 1.15792e+77 0.538207 0.494512 1.15792e+77 0.445914 0.437523 0.487732 0.468757 0.510014 0.499973 0.474019 0.487408 0.478388 0.485169 1.15792e+77 0.395227 1.15792e+77 0.415397 inf 0.362304 0.381933 0.43247 1.15792e+77 0.393805 1.15792e+77 0.412158 0.39393 1.15792e+77 1.15792e+77 1.15792e+77 0.402084 0.404158 0.402287 0.415418 0.43957 1.15792e+77 inf inf 0.396148 0.412202 1.15792e+77 1.15792e+77 1.15792e+77 0.393965 0.400625 0.398 0.409271 1.15792e+77 0.406076 0.43356 0.397267 0.417395 0.405411 0.38909 0.423248 0.403192 0.415294 0.40402 0 0.446228 inf 1.15792e+77 0.402773 0.386945
0.498117 0.45757 0.501324 0.479256 0.447612 1.15792e+77 1.15792e+77 1.15792e+77 0.425628 0.483689 0.407763 0.453393 0.480415 0.453402 0.461992 0.484345 0.417 0.508908 0.410883 1.15792e+77 0.433226 1.15792e+77 0.464888 0.441856 0.434276 0.4647 0.490895 0.477364 0.470577 1.15792e+77 0.512639 0.478519 0.438368 0.506532 0.471881 0.447359 1.15792e+77 0.497927 0.443142 1.15792e+77 0.428443 0.427027 0.456997 0.469555 0.472585 0.519873 0.494536 0.484108 0.472982 0.446417 1.15792e+77 0.395931 1.15792e+77 0.398757 inf 0.402487 0.391023 0.361551 1.15792e+77 0.425016 1.15792e+77 0.372354 0.400995 1.15792e+77 1.15792e+77 1.15792e+77 0.383459 0.417576 0.363406 0.379516 0.333565 1.15792e+77 inf inf 0.381744 0.391932 1.15792e+77 1.15792e+77 1.15792e+77 0.362593 0.397921 0.391041 0.367859 1.15792e+77 0.402209 0.382405 0.373956 0.347159 0.357502 0.429818 0.363804 0.402563 0.37191 0.371942 0.446228 0 inf 1.15792e+77 0.386731 0.391026
inf inf inf inf inf inf inf inf inf inf inf inf inf inf inf inf inf inf inf inf inf inf inf inf inf inf inf inf inf inf inf inf inf inf inf inf inf inf inf inf inf inf inf inf inf inf inf inf inf inf inf inf inf inf 0.568758 inf inf inf inf inf inf inf inf inf inf inf inf inf inf inf inf inf 0.534219 0.559347 inf inf inf inf inf inf inf inf inf inf inf inf inf inf inf inf inf inf inf inf inf inf 0 inf inf inf
1.15792e+77 1.15792e+77 1.15792e+77 1.15792e+77 1.15792e+77 0.639996 0.473403 0.459482 1.15792e+77 1.15792e+77 1.15792e+77 1.15792e+77 1.15792e+77 1.15792e+77 1.15792e+77 1.15792e+77 1.15792e+77 1.15792e+77 1.15792e+77 0.442319 1.15792e+77 0.458376 1.15792e+77 1.15792e+77 1.15792e+77 1.15792e+77 1.15792e+77 1.15792e+77 1.15792e+77 0.432965 1.15792e+77 1.15792e+77 1.15792e+77 1.15792e+77 1.15792e+77 1.15792e+77 0.47147 1.15792e+77 1.15792e+77 0.465619 1.15792e+77 1.15792e+77 1.15792e+77 1.15792e+77 1.15792e+77 1.15792e+77 1.15792e+77 1.15792e+77 1.15792e+77 1.15792e+77 0.398001 1.15792e+77 0.381573 1.15792e+77 inf 1.15792e+77 1.15792e+77 1.15792e+77 0.395677 1.15792e+77 0.416809 1.15792e+77 1.15792e+77 0.383726 0.418153 0.379477 1.15792e+77 1.15792e+77 1.15792e+77 1.15792e+77 1.15792e+77 0.410327 inf inf 1.15792e+77 1.15792e+77 0.391113 0.356165 0.389777 1.15792e+77 1.15792e+77 1.15792e+77 1.15792e+77 0.505381 1.15792e+77 1.15792e+77 1.15792e+77 1.15792e+77 1.15792e+77 1.15792e+77 1.15792e+77 1.15792e+77 1.15792e+77 1.15792e+77 1.15792e+77 1.15792e+77 inf 0 1.15792e+77 1.15792e+77
0.494787 0.443521 0.501317 0.483373 0.429949 1.15792e+77 1.15792e+77 1.15792e+77 0.427556 0.485557 0.382234 0.442602 0.49134 0.433829 0.493978 0.470465 0.44321 0.500889 0.469944 1.15792e+77 0.445458 1.15792e+77 0.49088 0.454208 0.406052 0.468053 0.481267 0.445608 0.48714 1.15792e+77 0.538984 0.480766 0.430154 0.500085 0.462052 0.43887 1.15792e+77 0.527691 0.467565 1.15792e+77 0.423616 0.395039 0.467691 0.471348 0.496338 0.500037 0.502247 0.473694 0.476015 0.449111 1.15792e+77 0.36357 1.15792e+77 0.379713 inf 0.359991 0.378312 0.398846 1.15792e+77 0.342178 1.15792e+77 0.372515 0.361364 1.15792e+77 1.15792e+77 1.15792e+77 0.368539 0.368868 0.365851 0.366671 0.351518 1.15792e+77 inf inf 0.366476 0.381817 1.15792e+77 1.15792e+77 1.15792e+77 0.363818 0.366088 0.367358 0.365908 1.15792e+77 0.369875 0.406326 0.309769 0.383651 0.32914 0.4134 0.36975 0.336688 0.35535 0.380801 0.402773 0.386731 inf 1.15792e+77 0 0.391232
0.458834 0.428223 0.478612 0.466745 0.425647 1.15792e+77 1.15792e+77 1.15792e+77 0.391469 0.477099 0.403528 0.414133 0.484833 0.429818 0.469466 0.462558 0.432115 0.496464 0.446912 1.15792e+77 0.413106 1.15792e+77 0.480815 0.417686 0.426255 0.456557 0.466129 0.447873 0.465323 1.15792e+77 0.496434 0.482265 0.40803 0.47928 0.451984 0.398651 1.15792e+77 0.503593 0.460698 1.15792e+77 0.404468 0.415957 0.45021 0.442613 0.473752 0.490895 0.46466 0.462506 0.437151 0.43519 1.15792e+77 0.356756 1.15792e+77 0.434922 inf 0.372171 0.36054 0.35567 1.15792e+77 0.399153 1.15792e+77 0.34604 0.384256 1.15792e+77 1.15792e+77 1.15792e+77 0.347574 0.364333 0.365978 0.355121 0.397096 1.15792e+77 inf inf 0.365696 0.399642 1.15792e+77 1.15792e+77 1.15792e+77 0.373334 0.363278 0.352732 0.375724 1.15792e+77 0.373847 0.401307 0.358889 0.386692 0.375678 0.363115 0.376759 0.400909 0.374816 0.362083 0.386945 0.391026 inf 1.15792e+77 0.391232 0
