1	6124
1	342
1	343
1	342
1	18
1	17
1	342
1	342
1	342
1	25
1	12
1	342
1	342
1	11
1	342
1	342
1	342
1	342
1	11
1	14
1	19
1	342
1	342
1	24
1	342
1	342
1	11
1	342
1	342
1	17
1	342
1	342
1	342
1	11
1	9
1	342
1	342
1	342
1	342
1	16
1	342
1	342
1	343
1	342
1	342
1	26
1	342
1	342
1	342
1	8
1	342
1	342
1	342
1	342
1	8
1	12
1	22
1	13
1	342
1	16
1	343
1	17
1	13
1	18
1	342
1	342
1	342
1	342
1	6124
1	18
1	342
1	342
1	14
1	5
1	7
1	11
1	342
1	13
1	342
1	12
1	343
1	21
1	342
1	6124
1	344
1	342
1	342
1	342
1	19
1	14
1	342
1	342
1	10
1	11
1	16
1	7
1	342
1	7
1	20
1	342
1	18
1	342
1	18
1	342
1	342
1	12
1	342
1	343
1	342
1	342
1	342
1	9
1	13
1	6124
1	342
1	10
1	342
1	22
1	342
1	342
1	342
1	9
1	11
1	342
1	16
1	5
1	342
1	342
1	13
1	342
1	342
1	342
1	342
1	342
1	342
1	342
1	342
1	22
1	342
1	342
1	12
1	16
1	342
1	342
1	25
1	6124
1	8
1	342
1	342
1	342
1	23
1	16
1	25
1	13
1	342
1	342
1	10
1	9
1	342
1	342
1	342
1	342
1	14
1	7
1	342
1	342
1	8
1	342
1	9
1	5
1	342
1	22
1	342
1	12
1	343
1	342
1	13
1	7
1	342
1	342
1	22
1	342
1	342
1	342
1	342
1	6124
1	18
1	342
1	5
1	5
1	8
1	342
1	9
1	342
1	342
1	342
1	342
1	342
1	342
1	342
1	28
1	342
1	342
1	342
1	16
1	342
1	342
1	9
1	17
1	342
1	7
1	342
1	342
1	342
1	342
1	342
1	342
1	12
1	10
1	342
1	342
1	10
1	342
1	6
1	342
1	10
1	342
1	342
1	342
1	342
1	6124
1	342
1	342
1	25
1	22
1	342
1	25
1	7
1	342
1	10
1	343
1	342
1	342
1	342
1	8
1	342
1	342
1	14
1	2
1	342
1	342
1	343
1	9
1	342
1	342
1	9
1	11
1	19
1	342
1	342
1	4
1	342
1	344
1	343
1	342
1	9
1	9
1	342
1	342
1	342
1	342
1	12
1	342
1	342
1	10
1	5
1	14
1	7
1	342
1	342
1	5
1	6124
1	8
1	342
1	22
1	25
1	342
1	342
1	11
1	342
1	342
1	342
1	7
1	342
1	6124
1	342
1	342
1	25
1	22
1	342
1	10
1	16
1	343
1	342
1	13
1	342
1	342
1	342
1	11
1	342
1	16
1	342
1	6
1	9
1	6
1	8
1	342
1	342
1	342
1	13
1	8
1	2
1	10
1	343
1	343
1	342
1	6
1	2
1	9
1	18
1	13
1	9
1	342
1	342
1	25
1	12
1	342
1	342
1	22
1	342
1	17
1	7
1	342
1	14
1	13
1	7
1	25
1	5
1	22
1	343
1	342
1	8
1	18
1	342
1	10
1	342
1	342
1	342
1	342
1	18
1	17
1	4
1	23
1	6
1	342
1	342
1	342
1	342
1	9
1	8
1	22
1	342
1	342
1	342
1	22
1	342
1	342
1	342
1	342
1	342
1	5
1	13
1	19
1	6124
1	342
1	342
1	10
1	5
1	342
1	14
1	342
1	342
1	343
1	11
1	11
1	342
1	14
1	9
1	342
1	10
1	342
1	342
1	8
1	342
1	22
1	3
1	18
1	342
1	26
1	342
1	342
1	22
1	5
1	342
1	342
1	6
1	25
1	22
1	6
1	7
1	342
1	342
1	342
1	5
1	2
1	342
1	342
1	343
1	342
1	6
1	342
1	342
1	2
1	342
1	9
1	342
1	342
1	342
1	342
1	343
1	342
1	342
1	342
1	342
1	342
1	343
1	10
1	5
1	7
1	342
1	342
1	9
1	342
1	10
1	342
1	342
1	342
1	10
1	342
1	3
1	342
1	342
1	9
1	10
1	7
1	8
1	25
1	342
1	6
1	342
1	342
1	8
1	342
1	342
1	342
1	15
1	342
1	7
1	10
1	342
1	6
1	4
1	342
1	10
1	7
1	9
1	8
1	342
1	2
1	342
1	6
1	342
1	342
1	342
1	342
1	342
1	9
1	6
1	342
1	13
1	25
1	6
1	18
1	342
1	4
1	342
2	3
2	3
2	343
2	345
2	3
2	7
2	6
2	3
2	3
2	5
2	3
2	3
2	9
2	7
2	4
2	7
2	17
2	3
2	16
2	3
2	3
2	5
2	16
2	343
2	10
2	16
2	8
2	6
2	3
2	3
2	3
2	16
2	16
2	3
2	343
2	3
2	3
2	343
2	9
2	3
2	16
2	7
2	7
2	7
2	17
2	3
2	21
2	3
2	3
2	7
2	3
2	6
2	3
2	3
2	3
2	21
2	3
2	4
2	3
2	16
2	3
2	10
2	3
2	11
2	16
2	4
2	7
2	3
2	5
2	4
2	16
2	7
2	9
2	4
2	9
2	9
2	4
2	11
2	3
2	7
2	3
2	26
2	23
2	5
2	16
2	6
2	7
2	5
2	16
2	3
2	4
2	9
2	4
2	4
2	5
2	6
2	4
3	4
3	4
3	4
3	5
3	4
3	6
3	5
3	4
3	5
3	9
3	5
3	12
3	6
3	4
3	4
3	4
3	4
3	5
3	4
3	4
3	4
3	5
3	4
3	6
3	12
3	4
3	5
3	4
3	5
3	5
3	4
3	5
3	4
3	4
3	4
3	10
3	6
3	9
3	4
3	4
3	4
3	8
3	5
3	4
3	4
4	7
4	5
4	5
4	5
4	5
4	6
4	5
4	5
4	5
4	6
4	5
4	5
4	5
4	7
4	5
4	5
4	5
4	7
4	5
4	5
5	6
5	6
5	7
5	6
5	6
5	6
5	7
5	12
5	6
5	6
5	6
5	8
5	6
5	6
6	7
6	7
6	7
6	7
6	7
6	7
6	7
6	7
7	8
7	8
7	8
7	10
7	8
7	8
7	8
7	8
8	9
8	10
8	9
9	10
9	10
9	10
10	11
10	11
11	12
12	13
13	14
14	16
15	16
15	16
17	18
19	20
21	22
24	25
341	342
