1	6124
1	187
1	41
1	187
1	186
1	186
1	6124
1	22
1	186
1	187
1	186
1	40
1	186
1	186
1	40
1	186
1	186
1	41
1	11
1	16
1	186
1	186
1	186
1	22
1	11
1	186
1	186
1	12
1	186
1	11
1	188
1	186
1	40
1	186
1	186
1	6124
1	186
1	21
1	186
1	15
1	15
1	21
1	14
1	9
1	186
1	188
1	186
1	20
1	186
1	21
1	186
1	15
1	21
1	186
1	186
1	186
1	12
1	10
1	186
1	186
1	186
1	40
1	21
1	186
1	186
1	22
1	186
1	186
1	12
1	10
1	15
1	186
1	10
1	186
1	21
1	8
1	187
1	20
1	186
1	187
1	186
1	11
1	186
1	20
1	186
1	186
1	186
1	186
1	4
1	186
1	186
1	8
1	186
1	15
1	186
1	21
1	11
1	6
1	186
1	186
1	9
1	20
1	5
1	10
1	40
1	20
1	186
1	6124
1	9
1	20
1	186
1	186
1	8
1	186
1	187
1	186
1	3
1	40
1	186
1	40
1	186
1	186
1	186
1	186
1	186
1	186
1	186
1	186
1	5
1	186
1	186
1	186
1	12
1	186
1	5
1	21
1	2
1	187
1	7
1	17
1	186
1	6
1	186
1	6124
1	186
1	40
1	8
1	186
1	10
1	186
1	6
1	186
1	186
1	186
1	186
1	186
1	186
1	186
1	10
1	9
1	186
1	21
1	186
1	186
1	186
1	186
1	12
1	187
1	186
1	186
1	40
1	40
1	186
1	186
1	15
1	186
1	186
1	186
1	186
1	186
1	186
1	186
1	12
1	40
1	186
1	40
1	40
1	186
1	186
1	20
1	40
1	186
1	186
1	186
1	186
1	4
1	20
1	40
1	7
1	186
1	186
1	6124
1	187
1	186
1	4
1	8
1	186
1	6
1	186
1	187
1	186
1	40
1	186
1	5
1	8
1	8
1	186
1	186
1	186
1	186
1	10
1	40
1	186
1	186
1	186
1	6
1	2
1	186
1	186
1	186
1	15
1	186
1	20
1	186
1	186
1	15
1	186
1	186
1	9
1	2
1	186
1	9
1	186
1	186
1	186
1	8
1	21
1	2
1	20
1	8
1	6
1	40
1	186
1	20
1	186
1	6
1	40
1	186
1	8
1	21
1	186
1	186
1	186
1	10
1	186
1	186
1	6
1	186
1	187
1	186
1	9
1	186
1	186
1	5
2	3
2	3
2	6
2	7
2	4
2	6
2	7
2	4
2	12
2	12
2	3
2	6
2	3
2	13
2	187
2	3
2	8
2	3
2	9
2	4
2	3
2	5
2	4
2	6
2	3
2	6
2	22
2	6
2	4
2	9
2	5
2	5
2	4
2	21
2	3
2	5
2	7
2	7
2	3
2	6
2	3
2	7
2	3
2	4
2	12
2	4
2	4
2	3
2	4
2	3
2	7
2	3
2	5
2	3
2	12
2	22
2	6
2	9
2	4
2	12
2	13
2	7
2	4
3	4
3	4
3	4
3	4
3	4
3	5
3	4
3	22
3	9
3	4
3	4
3	7
3	4
3	5
3	6
3	4
3	7
3	4
3	4
3	4
3	5
3	5
4	5
4	7
4	5
4	6
4	5
4	5
4	5
4	6
4	5
4	5
4	6
4	7
5	6
5	6
5	6
5	6
5	6
5	6
5	6
5	7
5	10
5	6
6	7
6	7
6	7
6	8
7	8
7	8
8	9
10	11
11	12
14	15
19	20
20	21
39	40
185	186
