1	6124
1	6124
1	91
1	91
1	90
1	89
1	6124
1	89
1	90
1	89
1	89
1	13
1	4
1	7
1	89
1	89
1	7
1	89
1	89
1	89
1	89
1	89
1	89
1	89
1	90
1	9
1	90
1	89
1	89
1	89
1	6124
1	89
1	12
1	7
1	10
1	89
1	89
1	89
1	89
1	89
1	8
1	89
1	8
1	89
1	89
1	7
1	89
1	89
1	3
1	89
1	89
1	11
1	89
1	89
1	89
1	3
1	89
1	89
1	11
1	6124
1	12
1	89
1	89
1	89
1	89
1	8
1	12
1	12
1	89
1	6
1	6
1	12
1	2
1	5
1	4
1	12
1	89
1	89
1	89
1	89
1	7
1	89
1	4
1	10
1	89
1	7
1	89
1	89
1	9
1	90
1	89
1	89
1	89
1	89
1	89
1	5
1	5
1	89
1	89
1	6
1	89
1	8
1	89
1	89
1	7
2	7
2	5
2	7
2	90
2	10
2	6
2	90
2	3
2	3
2	8
2	8
2	3
2	3
2	8
2	6
2	7
2	4
2	4
2	3
2	4
2	4
2	4
2	5
2	5
2	4
2	5
2	3
2	7
2	3
2	4
2	3
2	7
2	4
2	8
2	7
2	6
2	3
2	7
2	3
2	3
3	7
3	4
3	5
3	5
3	4
3	4
3	5
3	4
3	5
3	5
3	4
3	5
4	5
4	5
4	5
4	5
4	8
5	6
5	7
5	6
5	6
5	6
5	6
6	7
6	7
8	9
11	12
88	89
