1	6124
1	23
1	172
1	22
1	172
1	21
1	13
1	13
1	171
1	171
1	171
1	10
1	171
1	171
1	171
1	171
1	172
1	6
1	171
1	172
1	171
1	21
1	171
1	171
1	14
1	171
1	11
1	20
1	171
1	6
1	171
1	171
1	171
1	12
1	14
1	173
1	21
1	171
1	171
1	12
1	11
1	171
1	171
1	171
1	11
1	9
1	11
1	171
1	5
1	11
1	11
1	11
1	8
1	21
1	8
1	11
1	7
1	171
1	9
1	9
1	171
1	11
1	9
1	171
1	171
1	12
1	9
1	171
1	23
1	12
1	171
1	6124
1	171
1	11
1	13
1	171
1	8
1	171
1	6124
1	172
1	172
1	171
1	6
1	171
1	171
1	171
1	9
1	8
1	14
1	21
1	171
1	171
1	171
1	171
1	171
1	171
1	14
1	171
1	171
1	5
1	13
1	171
1	171
1	171
1	172
1	10
1	171
1	21
1	171
1	171
1	9
1	171
1	171
1	9
1	171
1	6
1	171
1	9
1	13
1	171
1	14
1	172
1	171
1	21
1	14
1	21
1	171
1	6
1	10
1	171
1	171
1	171
1	6124
1	171
1	171
1	4
1	171
1	171
1	172
1	9
1	171
1	171
1	8
1	171
1	11
1	171
1	8
1	4
1	10
1	171
1	6124
1	171
1	22
1	9
1	171
1	171
1	171
1	8
1	6
1	9
1	10
1	21
1	6124
1	171
1	171
1	9
1	3
1	10
1	21
1	171
1	13
1	21
1	171
1	6
1	13
1	6
1	171
1	171
1	14
1	13
1	171
1	171
1	173
1	4
1	14
1	171
1	21
1	171
1	171
1	2
1	7
1	6
1	171
1	171
1	171
1	8
1	14
1	4
1	171
1	12
1	171
1	171
1	171
1	171
1	171
1	172
1	6
1	171
1	19
1	172
1	2
1	13
1	19
1	9
1	171
1	10
1	5
1	6
1	171
1	171
1	171
1	171
1	171
1	171
1	171
1	6
1	171
1	171
1	171
1	171
1	8
1	7
1	19
1	171
1	171
1	171
1	171
1	20
1	171
1	10
1	172
1	10
1	172
1	2
1	171
1	6124
1	9
1	3
1	6
1	171
1	22
1	171
1	171
1	171
1	15
1	171
1	9
1	172
1	3
1	171
1	171
1	12
1	171
1	171
1	172
1	6
1	7
1	6
1	171
1	171
1	171
1	5
1	171
1	19
1	171
1	171
1	7
1	14
1	9
1	5
1	171
2	9
2	10
2	3
2	4
2	172
2	3
2	5
2	172
2	3
2	8
2	8
2	3
2	5
2	9
2	5
2	3
2	3
2	3
2	3
2	4
2	3
2	5
2	3
2	3
2	4
2	3
2	9
2	4
2	5
2	6
2	12
2	4
2	8
2	6
2	12
2	9
2	6
2	5
2	3
2	7
2	172
2	4
2	4
2	4
2	4
2	7
2	3
2	6
2	3
2	3
2	6
2	3
2	4
2	7
2	4
2	4
2	3
2	3
2	5
2	3
2	4
2	8
2	6
2	5
2	3
2	3
2	4
2	3
2	6
2	3
2	6
2	3
2	3
2	8
2	10
2	7
3	5
3	5
3	6
3	4
3	4
3	5
3	5
3	6
3	4
3	4
3	4
3	9
3	4
3	5
3	5
3	4
3	5
3	5
3	4
3	5
3	7
3	4
3	4
3	4
3	4
3	4
3	4
3	6
3	4
3	4
4	6
4	5
4	5
4	6
4	5
4	5
4	7
4	5
4	5
4	5
4	5
5	6
5	6
5	6
5	6
5	6
5	6
5	6
5	6
5	7
5	7
5	7
6	7
6	8
6	7
6	7
6	7
6	7
7	8
7	8
7	8
8	9
8	9
8	9
9	10
9	11
9	10
10	12
11	12
12	13
13	14
18	19
20	21
170	171
