1	6124
1	6124
1	58
1	57
1	58
1	57
1	57
1	57
1	58
1	57
1	12
1	57
1	11
1	57
1	58
1	7
1	7
1	57
1	57
1	10
1	57
1	9
1	57
1	57
1	10
1	57
1	8
1	57
1	59
1	58
1	57
1	57
1	7
1	13
1	7
1	10
1	57
1	11
1	5
1	57
1	7
1	57
1	57
1	58
1	57
1	8
1	57
1	57
1	57
1	10
1	8
1	57
1	57
1	57
1	57
1	8
1	5
1	57
1	57
1	57
1	57
1	57
1	5
1	8
1	57
1	6
1	7
1	57
1	57
1	2
1	10
2	5
2	6
2	3
2	3
2	5
2	5
2	3
2	8
2	58
2	6
2	4
2	4
2	5
2	8
2	3
2	4
2	4
2	4
2	3
2	4
2	8
3	5
3	4
3	4
3	4
3	4
3	5
3	5
4	5
4	5
6	7
6	7
6	7
7	8
9	10
56	57
