1	6124
1	485
1	484
1	483
1	11
1	483
1	483
1	483
1	11
1	483
1	44
1	15
1	21
1	483
1	483
1	484
1	11
1	483
1	483
1	483
1	25
1	483
1	21
1	11
1	483
1	12
1	483
1	483
1	483
1	483
1	11
1	483
1	483
1	23
1	483
1	483
1	483
1	483
1	483
1	13
1	483
1	483
1	13
1	9
1	11
1	9
1	12
1	16
1	483
1	23
1	8
1	483
1	18
1	485
1	483
1	483
1	483
1	483
1	10
1	483
1	483
1	9
1	483
1	483
1	11
1	483
1	483
1	483
1	483
1	483
1	14
1	8
1	483
1	44
1	12
1	15
1	483
1	483
1	483
1	483
1	483
1	11
1	483
1	25
1	24
1	483
1	483
1	483
1	11
1	13
1	483
1	15
1	24
1	7
1	483
1	483
1	13
1	484
1	44
1	43
1	43
1	18
1	19
1	483
1	483
1	483
1	14
1	45
1	483
1	43
1	483
1	483
1	8
1	483
1	483
1	25
1	483
1	483
1	483
1	8
1	483
1	483
1	483
1	483
1	483
1	10
1	483
1	483
1	483
1	17
1	12
1	483
1	484
1	483
1	19
1	12
1	15
1	483
1	483
1	10
1	483
1	483
1	12
1	483
1	7
1	16
1	483
1	484
1	483
1	483
1	483
1	16
1	483
1	16
1	483
1	8
1	13
1	483
1	483
1	483
1	16
1	43
1	483
1	483
1	484
1	10
1	483
1	483
1	11
1	18
1	14
1	483
1	24
1	484
1	483
1	483
1	17
1	483
1	483
1	10
1	483
1	43
1	11
1	43
1	483
1	483
1	47
1	6
1	483
1	483
1	483
1	483
1	483
1	18
1	9
1	25
1	483
1	483
1	483
1	483
1	483
1	483
1	484
1	483
1	483
1	483
1	483
1	483
1	12
1	11
1	14
1	483
1	483
1	6
1	12
1	483
1	483
1	12
1	483
1	483
1	8
1	484
1	22
1	43
1	483
1	9
1	483
1	16
1	8
1	483
1	483
1	10
1	9
1	483
1	483
1	11
1	483
1	15
1	483
1	11
1	483
1	483
1	483
1	5
1	9
1	483
1	483
1	43
1	12
1	13
1	16
1	483
1	483
1	483
1	43
1	7
1	9
1	483
1	483
1	483
1	12
1	8
1	22
1	17
1	484
1	483
1	10
1	483
1	483
1	9
1	483
1	7
1	483
1	24
1	483
1	483
1	484
1	483
1	484
1	483
1	483
1	483
1	10
1	10
1	10
1	483
1	10
1	483
1	483
1	15
1	483
1	483
1	483
1	483
1	483
1	483
1	10
1	11
1	483
1	14
1	483
1	12
1	483
1	12
1	8
1	483
1	483
1	6
1	483
1	8
1	483
1	5
1	10
1	483
1	483
1	483
1	13
1	9
1	483
1	25
1	12
1	24
1	7
1	483
1	6
1	9
1	483
1	10
1	483
1	483
1	483
1	483
1	18
1	7
1	483
1	483
1	483
1	483
1	483
1	483
1	483
1	483
1	12
1	5
1	483
1	483
1	8
1	483
1	483
1	483
1	483
1	483
1	11
1	483
1	9
1	18
1	7
1	484
1	11
1	14
1	483
1	483
1	43
1	483
1	483
1	17
1	483
1	483
1	483
1	483
1	18
1	18
1	44
1	5
1	19
1	483
1	483
1	8
1	483
1	483
1	483
1	7
1	12
1	17
1	483
1	9
1	8
1	18
1	8
1	43
1	7
1	483
1	483
1	483
1	9
1	483
1	483
1	14
1	7
1	483
1	483
1	483
1	483
1	483
1	16
1	483
1	483
1	483
1	483
1	483
1	483
1	11
1	483
1	14
1	483
1	43
1	483
1	8
1	483
1	483
1	483
1	483
1	17
1	483
1	22
1	483
1	483
1	11
1	483
1	483
1	483
1	12
1	9
1	483
1	24
1	8
1	12
1	24
1	7
1	483
1	8
1	4
1	9
1	483
1	12
1	43
1	483
1	44
1	483
1	10
1	484
1	483
1	9
1	24
1	8
1	483
1	18
1	5
1	483
1	483
1	8
1	483
1	17
1	10
1	43
1	8
1	4
1	483
1	10
1	9
1	483
1	9
1	9
1	14
1	483
1	8
1	14
1	17
1	483
1	16
1	6
1	483
1	15
1	483
1	483
1	11
1	24
1	483
1	483
1	483
1	483
1	483
1	483
1	483
1	483
1	8
1	483
1	43
1	6
1	19
1	6124
1	483
1	16
1	483
1	483
1	483
1	483
1	483
1	483
1	22
1	483
1	7
1	483
1	483
1	483
1	483
1	483
1	483
1	483
1	7
1	483
1	4
1	483
1	43
1	4
1	483
1	483
1	43
1	11
1	483
1	483
1	483
1	483
1	10
1	10
1	483
1	483
1	9
1	14
1	5
1	483
1	9
1	483
1	483
1	484
1	483
1	483
1	16
1	483
1	483
1	483
1	14
1	484
1	7
1	483
1	6
1	483
1	8
1	483
1	483
1	483
1	483
1	483
1	483
1	7
1	16
1	483
1	16
1	10
1	483
1	4
1	483
1	8
1	483
1	483
1	483
1	483
1	483
1	483
1	484
1	14
1	483
1	483
1	483
1	483
1	483
1	483
1	483
1	10
1	483
1	484
1	9
1	483
1	483
1	483
1	6
1	483
1	9
1	483
1	483
1	483
1	483
1	483
1	483
1	483
1	5
1	9
1	483
1	16
1	2
1	483
1	483
1	8
1	483
1	483
1	18
1	16
1	7
1	9
1	483
1	9
1	15
1	16
1	483
1	16
1	16
1	483
1	10
1	483
1	484
1	483
1	16
1	483
1	483
1	483
1	483
1	483
1	7
1	483
1	13
1	14
1	483
1	483
1	483
1	483
1	483
1	16
1	483
1	8
1	483
1	483
1	16
1	8
1	483
1	483
1	9
1	6
1	483
1	483
1	483
1	483
1	483
1	483
1	16
1	14
1	16
1	6
1	6
1	483
1	6
1	483
1	16
1	16
1	483
1	483
2	3
2	4
2	6
2	8
2	11
2	9
2	7
2	7
2	5
2	3
2	3
2	3
2	9
2	3
2	7
2	3
2	3
2	13
2	9
2	7
2	3
2	3
2	8
2	17
2	3
2	19
2	4
2	9
2	9
2	484
2	6
2	5
2	6
2	9
2	5
2	7
2	4
2	484
2	44
2	11
2	10
2	17
2	8
2	4
2	4
2	484
2	7
2	5
2	10
2	8
2	17
2	17
2	3
2	15
2	7
2	5
2	3
2	7
2	3
2	6
2	6
2	3
2	8
2	7
2	8
2	7
2	4
2	12
2	18
2	3
2	6
2	4
2	5
2	10
2	3
2	10
2	3
2	19
2	3
2	3
2	5
2	4
2	3
2	7
2	7
2	3
2	3
2	17
2	7
2	8
2	3
2	4
2	12
2	484
2	4
2	9
2	12
2	3
2	7
2	3
2	6
2	5
2	15
2	10
2	3
2	3
2	4
2	8
2	5
2	3
2	13
2	3
2	9
2	5
2	11
2	8
2	4
2	4
2	3
2	3
2	9
2	3
2	4
2	4
2	9
2	10
2	10
2	5
2	3
2	3
2	3
2	9
2	4
2	12
2	7
2	5
2	3
2	4
2	3
2	6
2	3
2	5
2	3
2	9
2	4
2	5
2	9
2	3
2	3
2	4
2	4
2	3
2	4
3	4
3	4
3	5
3	4
3	11
3	4
3	4
3	5
3	10
3	5
3	10
3	4
3	12
3	5
3	4
3	5
3	7
3	4
3	4
3	4
3	4
3	5
3	4
3	4
3	4
3	5
3	10
3	7
3	5
3	4
3	5
3	4
3	5
3	4
3	6
3	5
3	7
3	5
3	4
3	4
3	9
3	7
3	4
3	5
3	4
3	5
3	5
3	5
3	4
3	5
3	9
3	7
3	7
3	6
3	4
4	5
4	6
4	8
4	5
4	5
4	7
4	6
4	7
4	6
4	7
4	5
4	6
4	5
4	5
4	5
4	7
4	7
4	9
4	11
4	5
4	5
4	5
4	9
4	6
4	5
4	5
4	5
4	5
4	5
4	6
4	5
4	5
4	5
4	5
4	5
4	5
4	5
4	9
4	5
5	8
5	6
5	6
5	6
5	6
5	6
5	6
5	9
5	6
5	6
5	7
5	6
5	6
5	6
5	8
5	6
5	6
5	6
5	6
6	7
6	7
6	7
6	7
6	7
6	7
6	7
6	7
6	7
6	7
6	8
6	7
6	7
7	8
7	8
7	8
7	8
7	9
7	8
7	8
7	8
7	8
7	8
7	8
7	8
7	8
7	8
7	8
7	8
8	10
8	10
8	10
8	9
8	9
9	10
9	10
9	10
9	10
10	11
10	11
10	12
11	12
11	12
11	12
13	14
13	14
13	14
14	15
15	16
15	16
15	16
15	16
16	18
16	17
17	18
21	22
23	24
42	43
482	483
