9	6124
12	6124
16	6124
17	6124
18	6124
18	6124
20	6124
21	6124
154	6124
154	6124
154	6124
154	6124
154	6124
154	6124
154	6124
154	6124
154	6124
154	6124
154	6124
154	6124
154	6124
155	6124
155	6124
155	6124
155	6124
155	6124
156	6124
156	6124
156	6124
156	6124
156	6124
156	6124
158	6124
158	6124
158	6124
160	6124
168	6124
