7	6124
7	6124
9	6124
9	6124
10	6124
10	6124
10	6124
10	6124
10	6124
10	6124
11	6124
12	6124
12	6124
12	6124
12	6124
13	6124
13	6124
13	6124
14	6124
15	6124
17	6124
17	6124
17	6124
17	6124
17	6124
18	6124
19	6124
20	6124
21	6124
22	6124
22	6124
23	6124
24	6124
42	6124
42	6124
42	6124
44	6124
47	6124
53	6124
353	6124
353	6124
353	6124
353	6124
353	6124
353	6124
353	6124
353	6124
353	6124
353	6124
353	6124
353	6124
353	6124
353	6124
353	6124
353	6124
354	6124
354	6124
354	6124
354	6124
354	6124
354	6124
354	6124
354	6124
354	6124
354	6124
354	6124
354	6124
354	6124
354	6124
354	6124
354	6124
354	6124
354	6124
355	6124
355	6124
355	6124
355	6124
355	6124
355	6124
355	6124
355	6124
355	6124
355	6124
355	6124
356	6124
356	6124
356	6124
356	6124
357	6124
357	6124
358	6124
365	6124
365	6124
390	6124
