9	6124
9	6124
10	6124
11	6124
12	6124
12	6124
13	6124
13	6124
14	6124
14	6124
14	6124
14	6124
15	6124
15	6124
15	6124
15	6124
15	6124
15	6124
15	6124
15	6124
15	6124
16	6124
16	6124
16	6124
16	6124
16	6124
17	6124
17	6124
17	6124
17	6124
17	6124
17	6124
17	6124
17	6124
17	6124
17	6124
18	6124
18	6124
18	6124
18	6124
18	6124
18	6124
18	6124
19	6124
19	6124
19	6124
19	6124
19	6124
19	6124
19	6124
19	6124
20	6124
20	6124
20	6124
20	6124
20	6124
20	6124
20	6124
20	6124
20	6124
20	6124
20	6124
21	6124
21	6124
21	6124
21	6124
21	6124
21	6124
21	6124
21	6124
21	6124
21	6124
21	6124
22	6124
22	6124
22	6124
22	6124
22	6124
22	6124
22	6124
23	6124
23	6124
23	6124
23	6124
23	6124
23	6124
23	6124
23	6124
23	6124
24	6124
24	6124
24	6124
24	6124
25	6124
25	6124
26	6124
27	6124
27	6124
28	6124
28	6124
28	6124
29	6124
29	6124
29	6124
29	6124
30	6124
31	6124
32	6124
32	6124
34	6124
35	6124
252	6124
252	6124
252	6124
252	6124
252	6124
252	6124
252	6124
252	6124
252	6124
252	6124
252	6124
252	6124
252	6124
252	6124
252	6124
252	6124
252	6124
252	6124
252	6124
252	6124
252	6124
252	6124
252	6124
252	6124
252	6124
252	6124
252	6124
252	6124
252	6124
252	6124
252	6124
252	6124
252	6124
252	6124
252	6124
252	6124
252	6124
252	6124
252	6124
252	6124
252	6124
252	6124
252	6124
252	6124
252	6124
253	6124
253	6124
253	6124
253	6124
253	6124
253	6124
253	6124
253	6124
253	6124
253	6124
253	6124
253	6124
253	6124
253	6124
254	6124
254	6124
254	6124
254	6124
254	6124
254	6124
254	6124
254	6124
254	6124
254	6124
254	6124
254	6124
254	6124
255	6124
255	6124
255	6124
255	6124
256	6124
256	6124
256	6124
256	6124
257	6124
257	6124
257	6124
257	6124
258	6124
260	6124
260	6124
261	6124
262	6124
264	6124
266	6124
268	6124
269	6124
271	6124
