9	6124
10	6124
10	6124
10	6124
10	6124
11	6124
11	6124
11	6124
11	6124
11	6124
12	6124
12	6124
13	6124
13	6124
15	6124
15	6124
16	6124
16	6124
17	6124
17	6124
18	6124
18	6124
18	6124
18	6124
18	6124
18	6124
18	6124
19	6124
19	6124
19	6124
19	6124
19	6124
20	6124
20	6124
20	6124
22	6124
22	6124
22	6124
23	6124
23	6124
23	6124
24	6124
24	6124
25	6124
26	6124
26	6124
26	6124
27	6124
27	6124
28	6124
28	6124
30	6124
33	6124
229	6124
229	6124
229	6124
229	6124
229	6124
229	6124
229	6124
229	6124
229	6124
229	6124
229	6124
229	6124
229	6124
230	6124
230	6124
230	6124
230	6124
230	6124
230	6124
230	6124
230	6124
231	6124
231	6124
231	6124
231	6124
231	6124
232	6124
232	6124
232	6124
232	6124
232	6124
233	6124
233	6124
234	6124
234	6124
237	6124
240	6124
242	6124
247	6124
