1	6124
1	229
1	228
1	26
1	10
1	18
1	228
1	228
1	228
1	11
1	8
1	228
1	228
1	228
1	228
1	228
1	13
1	228
1	228
1	228
1	10
1	228
1	25
1	228
1	228
1	228
1	18
1	228
1	228
1	22
1	16
1	228
1	228
1	230
1	228
1	228
1	228
1	6
1	228
1	228
1	228
1	228
1	16
1	228
1	11
1	228
1	228
1	9
1	9
1	8
1	228
1	228
1	229
1	228
1	228
1	228
1	228
1	228
1	228
1	228
1	228
1	25
1	228
1	8
1	228
1	228
1	228
1	228
1	228
1	21
1	18
1	228
1	228
1	229
1	228
1	5
1	228
1	228
1	228
1	228
1	228
1	228
1	10
1	25
1	228
1	228
1	10
1	230
1	228
1	16
1	228
1	228
1	228
1	228
1	7
1	10
1	10
1	228
1	6124
1	15
1	229
1	228
1	228
1	229
1	10
1	4
1	8
1	228
1	2
1	11
1	8
1	6124
1	229
1	228
1	228
1	8
1	228
1	25
1	4
1	228
1	228
1	228
1	10
1	228
1	8
1	17
1	5
1	228
1	14
1	228
1	21
1	228
1	5
1	10
1	25
1	5
1	7
1	228
1	228
1	228
1	11
1	11
1	10
1	228
1	8
1	8
1	16
1	228
1	228
1	26
1	228
1	2
1	228
1	228
1	7
1	10
1	228
1	228
1	228
1	8
1	228
1	228
1	8
1	12
1	25
1	8
1	228
1	15
1	26
1	228
1	228
1	7
1	228
1	11
1	9
1	7
1	25
1	8
1	228
1	228
1	19
1	16
1	8
1	228
1	12
1	11
1	228
1	8
1	228
1	228
1	7
1	228
1	25
1	8
1	228
1	7
1	228
1	228
1	11
1	228
1	15
1	228
1	15
1	7
1	10
1	5
1	5
1	228
1	6
1	228
1	228
1	7
1	228
1	228
1	14
1	228
1	228
1	228
1	228
1	229
1	228
1	228
1	7
1	228
1	228
1	228
1	228
1	228
1	7
1	228
1	25
1	7
1	10
1	25
1	15
1	228
1	228
1	14
1	7
1	7
1	9
1	6
1	6
1	228
1	21
1	25
1	21
1	7
1	228
1	228
1	228
1	5
1	8
1	228
1	8
1	14
1	228
1	4
1	6
1	7
1	7
1	228
1	228
1	25
1	14
1	228
1	229
1	229
1	228
1	228
1	228
1	228
1	228
1	228
1	228
1	21
1	229
1	228
1	228
1	6
1	228
1	7
1	8
1	229
1	11
1	228
1	17
1	5
1	16
1	228
1	4
1	6
1	7
1	15
1	229
1	17
1	228
1	17
1	6
1	228
1	228
1	228
1	8
1	228
1	228
1	228
1	15
1	228
1	10
1	5
1	16
1	228
1	228
1	228
1	228
1	14
1	6
1	228
1	228
1	228
1	228
1	228
1	228
1	9
1	14
1	228
1	25
1	228
1	7
1	228
1	9
1	7
1	228
1	21
1	228
1	228
2	8
2	10
2	3
2	3
2	7
2	4
2	6
2	6
2	3
2	229
2	9
2	9
2	3
2	6
2	3
2	9
2	8
2	3
2	7
2	9
2	3
2	3
2	12
2	3
2	4
2	3
2	26
2	6
2	8
2	6
2	8
2	3
2	4
2	4
2	3
2	3
2	3
2	7
2	7
2	5
2	4
2	6
2	6
2	12
2	13
2	8
2	7
2	6
2	229
2	4
2	7
2	3
2	6
2	3
2	7
2	6
2	5
2	6
2	7
2	10
2	6
2	4
2	3
2	4
2	3
2	229
2	8
2	9
2	3
2	3
2	4
2	3
2	4
2	5
2	8
2	4
2	5
2	3
2	3
2	3
2	4
2	3
2	7
2	9
2	3
2	4
2	3
2	3
2	4
2	3
3	5
3	5
3	4
3	7
3	5
3	5
3	4
3	5
3	5
3	5
3	5
3	7
3	5
3	4
3	5
3	5
3	5
3	4
3	5
3	5
3	4
3	5
3	5
3	4
3	5
3	6
3	6
3	5
3	5
3	6
3	5
3	6
3	6
3	8
3	4
3	4
3	4
3	4
3	4
4	5
4	5
4	5
4	5
4	5
4	8
4	5
4	5
4	7
4	5
4	8
4	5
4	6
4	7
4	6
4	5
4	6
4	5
4	5
4	5
4	5
4	6
5	7
5	6
5	6
5	6
5	6
5	6
5	6
5	7
5	7
5	6
5	6
6	7
6	7
6	7
6	7
6	7
6	7
6	7
6	7
6	7
6	7
6	7
7	9
7	8
7	8
7	8
8	9
10	11
10	11
13	14
13	14
14	15
15	16
20	21
24	25
227	228
