1	6124
1	128
1	8
1	21
1	127
1	127
1	127
1	127
1	127
1	18
1	127
1	127
1	127
1	127
1	127
1	127
1	127
1	127
1	127
1	12
1	127
1	9
1	127
1	127
1	18
1	20
1	17
1	127
1	127
1	10
1	127
1	127
1	7
1	10
1	20
1	21
1	20
1	127
1	24
1	127
1	5
1	8
1	127
1	127
1	22
1	127
1	127
1	127
1	9
1	127
1	127
1	127
1	127
1	127
1	127
1	9
1	127
1	16
1	127
1	127
1	20
1	127
1	127
1	16
1	127
1	127
1	127
1	127
1	128
1	127
1	127
1	6
1	127
1	6124
1	127
1	8
1	127
1	127
1	6124
1	127
1	127
1	127
1	127
1	16
1	127
1	127
1	127
1	16
1	127
1	127
1	127
1	8
1	6
1	11
1	127
1	127
1	127
1	127
1	127
1	127
1	6
1	127
1	128
1	20
1	17
1	127
1	127
1	5
1	7
1	5
1	127
1	4
1	127
1	8
1	127
1	7
1	127
1	127
1	127
1	20
1	127
1	127
1	3
1	127
1	127
1	127
1	20
1	127
1	127
1	127
1	127
1	127
1	127
1	16
1	127
1	128
1	6
1	129
1	127
1	7
1	127
1	127
1	20
1	127
1	127
1	127
1	16
1	6
1	127
1	10
1	127
1	4
1	127
1	6
2	3
2	3
2	8
2	9
2	5
2	3
2	7
2	128
2	3
2	17
2	3
2	6
2	9
2	4
2	6
2	7
2	3
2	4
2	7
2	4
2	6
2	3
2	4
2	6
2	6
2	9
2	6
2	3
2	5
2	3
2	4
2	3
2	3
2	128
2	3
2	3
2	6
2	3
2	3
2	4
2	6
2	3
2	4
2	4
3	4
3	6
3	5
3	6
3	4
3	7
3	4
3	5
3	5
3	6
3	5
3	5
3	5
3	4
3	5
3	5
3	6
3	4
4	6
4	5
4	5
4	6
4	6
4	5
5	6
5	6
5	6
5	6
6	8
6	8
7	8
7	8
15	16
19	20
126	127
