7	6124
18	6124
21	6124
21	6124
22	6124
22	6124
22	6124
23	6124
25	6124
26	6124
128	6124
128	6124
128	6124
128	6124
128	6124
128	6124
128	6124
128	6124
128	6124
128	6124
129	6124
129	6124
129	6124
129	6124
129	6124
130	6124
130	6124
130	6124
131	6124
131	6124
131	6124
132	6124
133	6124
