9	6124
11	6124
11	6124
11	6124
12	6124
12	6124
12	6124
13	6124
14	6124
15	6124
16	6124
16	6124
17	6124
17	6124
135	6124
135	6124
135	6124
135	6124
135	6124
135	6124
135	6124
135	6124
135	6124
135	6124
136	6124
136	6124
136	6124
136	6124
136	6124
137	6124
137	6124
138	6124
138	6124
139	6124
140	6124
140	6124
140	6124
140	6124
140	6124
