8	6124
8	6124
9	6124
12	6124
12	6124
12	6124
13	6124
15	6124
16	6124
18	6124
18	6124
20	6124
21	6124
21	6124
21	6124
21	6124
22	6124
22	6124
23	6124
24	6124
25	6124
27	6124
27	6124
283	6124
283	6124
283	6124
283	6124
283	6124
283	6124
283	6124
283	6124
283	6124
283	6124
283	6124
283	6124
283	6124
283	6124
283	6124
283	6124
283	6124
283	6124
283	6124
283	6124
283	6124
283	6124
284	6124
284	6124
284	6124
284	6124
284	6124
284	6124
285	6124
285	6124
286	6124
286	6124
287	6124
287	6124
287	6124
288	6124
288	6124
292	6124
299	6124
