7	6124
10	6124
11	6124
12	6124
12	6124
13	6124
13	6124
13	6124
13	6124
14	6124
15	6124
16	6124
16	6124
17	6124
17	6124
17	6124
17	6124
19	6124
19	6124
22	6124
24	6124
26	6124
26	6124
26	6124
26	6124
27	6124
27	6124
27	6124
28	6124
30	6124
30	6124
30	6124
31	6124
32	6124
37	6124
43	6124
43	6124
43	6124
44	6124
44	6124
44	6124
45	6124
45	6124
46	6124
46	6124
46	6124
47	6124
47	6124
48	6124
50	6124
51	6124
56	6124
254	6124
254	6124
254	6124
254	6124
254	6124
254	6124
254	6124
254	6124
254	6124
254	6124
254	6124
254	6124
254	6124
254	6124
254	6124
254	6124
254	6124
254	6124
254	6124
254	6124
254	6124
254	6124
254	6124
254	6124
254	6124
254	6124
254	6124
254	6124
254	6124
254	6124
254	6124
254	6124
254	6124
255	6124
255	6124
255	6124
255	6124
255	6124
255	6124
255	6124
255	6124
255	6124
255	6124
255	6124
256	6124
256	6124
256	6124
256	6124
256	6124
256	6124
256	6124
257	6124
262	6124
274	6124
275	6124
293	6124
