6	6124
8	6124
10	6124
11	6124
11	6124
12	6124
12	6124
12	6124
13	6124
13	6124
13	6124
13	6124
13	6124
14	6124
14	6124
15	6124
16	6124
17	6124
19	6124
19	6124
19	6124
20	6124
20	6124
21	6124
21	6124
21	6124
21	6124
21	6124
21	6124
21	6124
21	6124
22	6124
23	6124
23	6124
23	6124
23	6124
23	6124
23	6124
25	6124
29	6124
29	6124
29	6124
31	6124
31	6124
36	6124
37	6124
40	6124
291	6124
291	6124
291	6124
291	6124
291	6124
291	6124
291	6124
291	6124
291	6124
291	6124
291	6124
291	6124
291	6124
291	6124
291	6124
291	6124
291	6124
291	6124
291	6124
291	6124
291	6124
291	6124
291	6124
291	6124
291	6124
291	6124
291	6124
291	6124
291	6124
291	6124
291	6124
292	6124
292	6124
292	6124
292	6124
292	6124
292	6124
292	6124
292	6124
292	6124
292	6124
292	6124
292	6124
292	6124
292	6124
293	6124
293	6124
293	6124
293	6124
293	6124
293	6124
294	6124
294	6124
294	6124
294	6124
295	6124
295	6124
295	6124
297	6124
298	6124
298	6124
298	6124
299	6124
308	6124
