1	6124
1	397
1	396
1	396
1	396
1	396
1	396
1	396
1	397
1	396
1	20
1	396
1	21
1	396
1	11
1	396
1	396
1	396
1	396
1	396
1	21
1	10
1	396
1	9
1	396
1	396
1	12
1	396
1	12
1	396
1	15
1	396
1	396
1	396
1	14
1	396
1	396
1	9
1	11
1	396
1	396
1	396
1	16
1	396
1	21
1	20
1	18
1	396
1	16
1	396
1	396
1	396
1	396
1	10
1	396
1	396
1	10
1	396
1	396
1	12
1	9
1	16
1	396
1	13
1	20
1	397
1	15
1	396
1	396
1	396
1	396
1	396
1	396
1	396
1	396
1	10
1	397
1	10
1	396
1	13
1	17
1	10
1	18
1	8
1	397
1	396
1	23
1	396
1	18
1	396
1	397
1	396
1	9
1	396
1	396
1	9
1	396
1	21
1	396
1	396
1	12
1	396
1	396
1	9
1	396
1	396
1	12
1	396
1	396
1	11
1	396
1	5
1	396
1	10
1	396
1	396
1	396
1	14
1	396
1	396
1	15
1	396
1	396
1	396
1	9
1	8
1	396
1	396
1	396
1	396
1	396
1	396
1	18
1	396
1	396
1	396
1	396
1	396
1	9
1	396
1	397
1	396
1	396
1	396
1	396
1	7
1	10
1	396
1	396
1	396
1	396
1	396
1	396
1	396
1	396
1	396
1	21
1	396
1	14
1	396
1	396
1	396
1	396
1	396
1	396
1	396
1	396
1	396
1	7
1	397
1	396
1	9
1	396
1	396
1	396
1	396
1	396
1	7
1	396
1	396
1	18
1	396
1	396
1	396
1	396
1	397
1	396
1	396
1	396
1	396
1	396
1	396
1	20
1	6124
1	396
1	396
1	396
1	396
1	397
1	396
1	397
1	11
1	396
1	396
1	9
1	396
1	396
1	21
1	396
1	396
1	9
1	396
1	9
1	396
1	396
1	396
1	396
1	396
1	8
1	397
1	396
1	396
1	18
1	10
1	396
1	14
1	396
1	396
1	396
1	396
1	397
1	396
1	396
1	396
1	10
1	396
1	396
1	18
1	5
1	396
1	9
1	9
1	396
1	6124
1	396
1	396
1	6
1	396
1	396
1	396
1	13
1	396
1	396
1	396
1	22
1	22
1	396
1	396
1	9
1	20
1	15
1	10
1	396
1	15
1	396
1	397
1	396
1	396
1	11
1	9
1	396
1	396
1	8
1	20
1	7
1	396
1	6124
1	11
1	396
1	396
1	396
1	9
1	396
1	21
1	20
1	396
1	397
1	396
1	10
1	7
1	396
1	13
1	10
1	396
1	396
1	14
1	396
1	15
1	20
1	396
1	10
1	6
1	396
1	396
1	21
1	8
1	396
1	396
1	396
1	21
1	396
1	9
1	3
1	8
1	8
1	7
1	9
1	14
1	396
1	396
1	396
1	396
1	396
1	396
1	396
1	397
1	396
1	10
1	10
1	396
1	396
1	396
1	396
1	396
1	396
1	396
1	396
1	396
1	8
1	6
1	10
1	396
1	396
1	10
1	396
1	396
1	396
1	15
1	396
1	396
1	14
1	398
1	396
1	18
1	5
1	396
1	396
1	396
1	9
1	20
1	18
1	396
1	396
1	396
1	396
1	396
1	396
1	396
1	396
1	10
1	396
1	396
1	396
1	396
1	5
1	8
1	396
1	7
1	6
1	5
1	11
1	396
1	396
1	7
1	5
1	396
1	2
1	396
1	21
1	396
1	4
1	396
1	396
1	396
1	396
1	396
1	9
1	8
1	396
1	8
1	9
1	396
1	396
1	7
1	6
1	7
1	396
1	396
1	4
1	6
1	396
1	396
1	396
1	10
1	396
1	6
1	397
1	396
1	396
1	5
1	396
1	5
1	396
1	396
1	9
1	5
1	396
1	396
1	396
1	396
1	396
1	396
1	396
1	9
1	396
1	396
1	396
1	396
1	12
1	9
1	396
1	396
1	396
1	396
1	21
1	12
1	11
1	396
1	396
1	18
1	6
1	397
1	396
1	396
1	396
1	397
1	8
1	21
1	396
1	6
1	5
1	396
1	396
1	8
1	20
1	10
1	9
1	9
1	9
1	396
1	396
1	6
1	396
1	396
1	21
1	396
1	396
1	396
1	397
1	396
1	396
1	7
1	396
1	20
1	396
1	396
1	397
1	21
1	396
1	396
1	396
1	397
1	396
1	4
1	11
1	6
1	396
1	397
1	396
1	6
1	396
1	397
1	396
1	8
1	396
1	6
1	20
1	396
1	396
1	396
1	6
1	396
1	396
1	397
1	396
1	396
1	396
2	3
2	4
2	3
2	397
2	3
2	397
2	8
2	6
2	3
2	3
2	397
2	10
2	3
2	3
2	3
2	5
2	9
2	3
2	3
2	16
2	6
2	21
2	6
2	3
2	8
2	5
2	7
2	5
2	3
2	4
2	3
2	3
2	3
2	5
2	4
2	4
2	3
2	3
2	3
2	7
2	397
2	4
2	4
2	9
2	9
2	3
2	4
2	4
2	3
2	3
2	3
2	5
2	8
2	3
2	5
2	3
2	19
2	7
2	10
2	7
2	3
2	4
2	9
2	11
2	4
2	5
2	7
2	3
2	7
2	15
2	7
2	5
2	5
2	3
2	6
2	3
2	3
2	10
2	6
2	5
2	12
2	3
2	21
2	397
2	9
2	397
2	4
2	3
2	3
2	4
2	7
2	3
2	3
2	4
2	5
2	4
2	4
2	3
2	3
2	3
2	21
2	10
2	8
2	8
2	4
2	3
2	4
2	7
2	4
2	3
2	3
2	8
2	3
2	3
2	10
2	5
2	19
2	3
2	4
2	22
3	5
3	4
3	5
3	5
3	4
3	4
3	5
3	5
3	10
3	4
3	4
3	7
3	4
3	4
3	6
3	5
3	4
3	4
3	4
3	4
3	4
3	8
3	7
3	4
3	6
3	4
3	4
3	4
3	4
3	4
3	4
3	4
3	5
3	4
3	5
3	5
3	5
3	5
3	4
3	10
3	4
3	4
4	5
4	5
4	5
4	6
4	5
4	5
4	5
4	6
4	5
4	7
4	5
4	7
4	5
4	6
4	5
4	5
4	5
4	7
5	6
5	6
5	6
5	6
5	7
5	6
5	6
5	7
5	6
5	6
5	7
5	7
6	7
6	8
6	7
6	7
6	7
7	8
7	8
7	8
7	8
7	8
7	8
7	8
7	8
7	8
8	9
8	9
8	9
8	9
8	9
8	9
9	10
10	11
12	13
13	14
14	15
17	18
19	20
19	20
20	21
395	396
