8	6124
10	6124
10	6124
11	6124
11	6124
13	6124
14	6124
15	6124
132	6124
132	6124
132	6124
132	6124
132	6124
132	6124
132	6124
132	6124
132	6124
132	6124
132	6124
132	6124
132	6124
132	6124
133	6124
134	6124
134	6124
134	6124
134	6124
134	6124
134	6124
134	6124
135	6124
135	6124
136	6124
136	6124
137	6124
140	6124
