1	6124
1	208
1	209
1	208
1	18
1	11
1	208
1	6
1	20
1	11
1	208
1	13
1	10
1	13
1	17
1	208
1	209
1	208
1	209
1	208
1	208
1	10
1	208
1	17
1	208
1	17
1	208
1	208
1	19
1	10
1	16
1	9
1	208
1	10
1	8
1	208
1	208
1	208
1	208
1	208
1	8
1	8
1	208
1	209
1	13
1	19
1	10
1	12
1	208
1	10
1	13
1	9
1	208
1	8
1	209
1	208
1	208
1	5
1	25
1	208
1	209
1	208
1	208
1	25
1	208
1	8
1	9
1	208
1	14
1	208
1	17
1	208
1	6124
1	8
1	208
1	12
1	16
1	208
1	7
1	208
1	208
1	208
1	23
1	9
1	13
1	13
1	208
1	9
1	208
1	208
1	7
1	13
1	10
1	208
1	10
1	208
1	208
1	208
1	9
1	7
1	7
1	208
1	13
1	8
1	18
1	209
1	208
1	208
1	9
1	23
1	208
1	209
1	8
1	10
1	6
1	18
1	208
1	208
1	8
1	19
1	7
1	208
1	209
1	10
1	8
1	8
1	23
1	208
1	208
1	209
1	208
1	7
1	7
1	208
1	23
1	208
1	208
1	208
1	8
1	208
1	208
1	208
1	6
1	4
1	208
1	6
1	208
1	208
1	18
1	208
1	23
1	208
1	208
1	208
1	208
1	5
1	9
1	7
1	208
1	209
1	208
1	5
1	13
1	7
1	9
1	7
1	208
1	208
1	208
1	8
1	208
1	208
1	208
1	210
1	13
1	10
1	13
1	17
1	8
1	5
1	9
1	208
1	208
1	208
1	208
1	7
1	11
1	208
1	23
1	208
1	208
1	208
1	208
1	13
1	7
1	5
1	6124
1	23
1	209
1	2
1	208
1	208
1	23
1	7
1	13
1	13
1	208
1	11
1	208
1	208
1	5
1	8
1	8
1	8
1	208
1	208
1	7
1	208
1	208
1	208
1	208
1	8
1	208
1	209
1	208
1	12
1	208
1	23
1	208
1	208
1	209
1	208
1	4
1	7
1	208
1	9
1	208
1	208
1	208
1	208
1	208
1	208
1	11
1	7
1	17
1	11
1	5
1	5
1	6
1	208
1	208
1	23
1	17
1	208
1	13
1	5
1	208
1	208
1	6
1	6
1	4
1	209
1	8
1	9
1	7
1	208
1	23
1	13
1	7
1	208
1	208
1	6
1	6
1	6
1	18
1	209
1	208
1	6
1	9
1	208
1	208
1	208
1	9
1	208
1	8
1	208
1	208
1	6
1	18
1	6
1	208
1	7
1	5
1	4
1	17
1	208
1	208
1	23
1	208
1	208
1	17
1	7
1	208
1	18
1	7
1	208
1	208
1	7
1	5
1	208
1	9
1	9
1	8
1	23
1	6
1	208
1	17
1	208
1	208
1	12
1	208
1	208
1	5
1	208
1	11
1	208
1	208
1	208
1	7
1	208
1	208
1	208
1	208
1	11
1	208
1	208
1	208
1	208
1	208
1	208
1	208
1	208
1	24
1	9
1	6
1	7
1	5
1	4
1	208
1	5
2	209
2	5
2	6
2	3
2	3
2	4
2	3
2	7
2	3
2	3
2	5
2	7
2	4
2	3
2	3
2	24
2	5
2	7
2	18
2	7
2	3
2	11
2	3
2	7
2	5
2	3
2	4
2	4
2	7
2	11
2	6
2	4
2	3
2	3
2	4
2	4
2	3
2	5
2	6
2	7
2	3
2	3
2	4
2	3
2	3
2	9
2	4
2	3
2	4
2	12
2	3
2	6
2	6
2	7
2	5
2	5
2	7
2	4
2	19
2	3
2	4
2	3
2	5
2	3
2	7
2	5
2	6
2	7
2	4
2	4
2	3
2	3
2	3
2	4
2	4
2	3
2	3
2	3
2	3
2	4
2	4
2	3
2	9
2	4
2	3
2	7
2	4
2	5
2	6
2	3
2	4
2	6
2	7
2	3
2	3
2	11
2	13
2	5
2	7
2	3
2	3
3	7
3	4
3	4
3	4
3	4
3	4
3	4
3	5
3	4
3	4
3	5
3	4
3	4
3	4
3	4
3	4
3	5
3	5
3	4
3	5
3	5
3	5
3	4
3	4
3	4
3	4
3	4
3	4
3	4
3	5
3	4
3	5
3	4
3	5
3	4
3	4
3	4
3	4
3	5
3	4
4	6
4	5
4	6
4	6
4	7
4	7
4	5
4	7
4	5
4	5
4	5
4	5
4	5
4	5
4	5
4	5
4	5
4	5
4	5
4	5
4	8
4	5
4	5
4	6
4	5
4	5
4	5
4	6
5	6
5	6
5	6
5	6
5	6
5	6
5	6
5	7
5	6
5	6
5	6
5	6
5	6
6	7
6	7
6	7
6	7
6	7
6	7
6	7
6	7
7	9
7	9
7	8
8	9
8	9
9	10
10	11
11	12
12	13
12	13
16	17
17	18
22	23
207	208
