1	6124
1	156
1	21
1	155
1	155
1	15
1	20
1	6124
1	10
1	155
1	155
1	13
1	6124
1	155
1	156
1	14
1	41
1	156
1	6
1	40
1	155
1	39
1	155
1	155
1	11
1	155
1	20
1	155
1	39
1	155
1	155
1	39
1	155
1	155
1	155
1	20
1	155
1	155
1	155
1	155
1	12
1	39
1	13
1	17
1	155
1	39
1	155
1	155
1	18
1	14
1	5
1	155
1	6124
1	39
1	21
1	9
1	17
1	16
1	11
1	13
1	15
1	8
1	20
1	13
1	155
1	155
1	155
1	155
1	9
1	20
1	15
1	155
1	39
1	155
1	155
1	155
1	155
1	12
1	39
1	19
1	155
1	19
1	14
1	12
1	155
1	6124
1	155
1	155
1	155
1	12
1	155
1	12
1	10
1	155
1	12
1	10
1	156
1	155
1	15
1	155
1	11
1	155
1	10
1	155
1	5
1	155
1	8
1	18
1	155
1	155
1	8
1	10
1	4
1	39
1	155
1	39
1	155
1	12
1	19
1	155
1	8
1	155
1	155
1	10
1	155
1	155
1	9
1	155
1	41
1	155
1	155
1	39
1	6
1	3
1	39
1	39
1	13
1	155
1	9
1	20
1	155
1	8
1	13
1	5
1	12
1	9
1	8
1	155
1	155
1	6
1	155
1	12
1	155
1	155
1	155
1	155
1	18
1	8
1	155
1	155
1	19
1	8
1	6
1	16
1	155
1	155
1	155
1	17
1	8
1	155
1	7
1	40
1	155
1	155
1	155
1	155
1	39
1	12
1	19
1	20
1	11
1	155
1	155
1	15
1	12
1	39
1	155
1	12
1	155
1	155
1	155
1	155
1	155
1	2
1	4
1	155
1	15
1	6
1	155
1	4
1	155
1	5
1	12
1	18
1	155
1	155
1	155
1	155
1	155
1	155
1	17
1	155
1	155
2	8
2	3
2	8
2	3
2	12
2	5
2	5
2	7
2	12
2	11
2	156
2	5
2	12
2	156
2	8
2	12
2	4
2	9
2	11
2	3
2	3
2	3
2	3
2	10
2	10
2	9
2	8
2	5
2	6
2	3
2	9
2	11
2	4
2	4
2	3
2	9
2	10
2	9
2	10
2	13
2	3
2	7
2	4
2	8
2	13
2	20
2	6
2	3
2	4
2	21
2	6
2	5
2	13
2	14
2	3
2	16
2	10
2	6
2	4
2	13
2	6
2	4
2	4
2	3
2	3
2	3
2	10
2	7
3	5
3	7
3	9
3	6
3	7
3	14
3	7
3	14
3	4
3	4
3	4
3	5
3	9
3	9
3	4
3	11
3	4
3	5
3	9
3	8
3	5
3	5
3	7
3	4
3	12
3	4
3	4
3	7
3	5
3	4
3	5
3	5
3	4
3	6
3	8
3	11
3	9
4	5
4	6
4	7
4	5
4	6
4	7
4	6
4	8
4	5
4	8
4	5
4	6
4	6
4	7
4	5
4	5
4	8
4	5
4	6
5	6
5	6
5	7
5	7
5	6
5	6
5	7
5	7
6	7
6	8
6	7
6	7
6	8
6	7
6	9
6	8
7	8
7	9
7	8
7	8
7	8
8	11
8	10
8	9
8	9
9	11
9	11
10	11
11	12
11	12
11	12
11	12
14	15
14	15
16	17
18	19
19	20
38	39
154	155
