1	6124
1	19
1	314
1	313
1	9
1	313
1	313
1	313
1	313
1	12
1	13
1	314
1	10
1	313
1	313
1	313
1	313
1	313
1	313
1	313
1	9
1	313
1	313
1	313
1	21
1	314
1	13
1	313
1	29
1	313
1	313
1	26
1	313
1	313
1	10
1	313
1	313
1	313
1	313
1	313
1	313
1	313
1	25
1	313
1	313
1	20
1	313
1	313
1	21
1	50
1	313
1	313
1	26
1	313
1	313
1	49
1	313
1	20
1	313
1	313
1	12
1	12
1	12
1	49
1	20
1	9
1	313
1	313
1	20
1	313
1	20
1	313
1	7
1	10
1	27
1	12
1	313
1	12
1	11
1	26
1	26
1	313
1	27
1	6124
1	28
1	313
1	313
1	10
1	313
1	313
1	313
1	10
1	313
1	49
1	10
1	313
1	313
1	49
1	313
1	313
1	5
1	313
1	313
1	20
1	313
1	313
1	313
1	26
1	12
1	313
1	9
1	313
1	313
1	313
1	49
1	313
1	313
1	313
1	313
1	8
1	20
1	313
1	313
1	49
1	313
1	25
1	313
1	21
1	26
1	313
1	314
1	26
1	313
1	313
1	20
1	313
1	313
1	313
1	313
1	313
1	313
1	313
1	313
1	313
1	10
1	313
1	49
1	313
1	313
1	313
1	49
1	313
1	10
1	12
1	2
1	7
1	313
1	313
1	313
1	313
1	314
1	313
1	7
1	313
1	313
1	313
1	313
1	313
1	313
1	313
1	313
1	313
1	313
1	13
1	313
1	8
1	313
1	13
1	12
1	49
1	314
1	313
1	313
1	313
1	10
1	313
1	13
1	313
1	313
1	12
1	313
1	313
1	49
1	10
1	49
1	313
1	313
1	313
1	313
1	313
1	26
1	26
1	313
1	313
1	8
1	313
1	10
1	10
1	25
1	10
1	313
1	10
1	313
1	314
1	313
1	8
1	4
1	313
1	20
1	20
1	313
1	313
1	9
1	314
1	313
1	313
1	313
1	313
1	313
1	313
1	9
1	313
1	313
1	313
1	313
1	313
1	313
1	25
1	313
1	313
1	13
1	313
1	12
1	24
1	313
1	49
1	313
1	20
1	26
1	313
1	11
1	26
1	313
1	313
1	6
1	49
1	313
1	313
1	6
1	313
1	8
1	314
1	25
1	313
1	7
1	49
1	314
1	313
1	11
1	313
1	313
1	313
1	313
1	313
1	313
1	313
1	313
1	313
1	313
1	313
1	25
1	314
1	4
1	5
1	313
1	20
1	26
1	6
1	313
1	313
1	13
1	313
1	313
1	313
1	12
1	26
1	313
1	6
1	313
1	313
1	313
1	313
1	313
1	313
1	313
1	313
1	9
1	313
1	49
1	313
1	313
1	313
1	313
1	313
1	313
1	313
1	6
1	9
1	313
1	7
1	6
1	313
1	313
1	313
1	13
1	313
1	8
1	313
1	49
1	313
1	314
1	313
1	5
1	313
1	313
1	8
1	313
1	313
1	313
1	313
1	313
1	313
1	313
1	313
1	12
1	313
1	12
1	313
1	313
1	313
1	26
1	313
1	313
1	20
1	9
1	26
1	26
1	313
1	313
1	313
1	11
1	313
1	313
1	313
1	313
1	313
1	314
1	313
1	313
1	313
1	26
1	313
1	313
1	9
1	313
1	313
1	314
1	313
1	313
1	313
1	6
1	314
1	313
1	7
1	49
1	313
1	313
1	313
1	313
1	313
1	314
1	313
1	6
1	313
1	313
1	313
1	313
1	313
1	313
1	313
1	313
1	313
1	313
1	25
1	313
1	313
1	12
1	20
1	313
1	313
1	313
2	5
2	3
2	27
2	314
2	314
2	9
2	7
2	22
2	7
2	3
2	7
2	12
2	3
2	6
2	314
2	3
2	6
2	3
2	3
2	7
2	4
2	9
2	3
2	3
2	4
2	3
2	3
2	9
2	50
2	7
2	5
2	11
2	314
2	3
2	4
2	5
2	50
2	7
2	3
2	3
2	3
2	3
2	3
2	12
2	4
2	3
2	6
2	5
2	5
2	4
2	3
2	9
2	4
2	21
2	10
2	10
2	12
2	9
2	9
2	10
2	4
2	3
2	12
2	3
2	3
2	3
2	9
2	13
2	4
2	26
2	6
2	5
2	8
2	8
2	4
2	10
2	8
2	3
2	4
2	4
2	4
2	3
2	7
2	4
2	3
2	7
2	13
2	4
2	314
2	4
2	12
2	5
2	7
2	4
2	5
3	5
3	51
3	6
3	5
3	5
3	7
3	5
3	5
3	5
3	4
3	4
3	5
3	5
3	7
3	9
3	5
3	4
3	4
3	8
3	5
3	4
3	6
3	4
3	5
3	5
3	5
3	8
3	6
3	5
3	4
3	8
3	6
3	4
3	5
3	5
3	5
3	7
3	4
3	4
4	5
4	5
4	6
4	5
4	5
4	5
4	5
4	6
4	7
4	7
4	5
4	7
4	9
4	5
4	5
4	5
4	5
4	6
4	5
4	7
4	5
4	5
5	7
5	6
5	7
5	7
5	6
5	6
5	6
5	6
5	7
5	6
5	6
5	6
5	6
6	9
6	7
7	8
7	8
7	9
7	8
7	9
8	9
8	9
8	9
8	9
9	12
9	10
9	10
10	11
10	11
11	12
11	12
19	20
19	20
24	25
25	26
48	49
312	313
