11	6124
11	6124
11	6124
12	6124
12	6124
12	6124
12	6124
12	6124
12	6124
13	6124
13	6124
14	6124
14	6124
14	6124
14	6124
15	6124
15	6124
15	6124
16	6124
16	6124
16	6124
16	6124
17	6124
17	6124
17	6124
17	6124
17	6124
17	6124
18	6124
18	6124
18	6124
18	6124
18	6124
18	6124
18	6124
18	6124
19	6124
19	6124
19	6124
20	6124
20	6124
20	6124
21	6124
21	6124
22	6124
22	6124
22	6124
22	6124
22	6124
23	6124
24	6124
25	6124
25	6124
26	6124
27	6124
27	6124
31	6124
31	6124
204	6124
204	6124
204	6124
204	6124
204	6124
204	6124
204	6124
204	6124
204	6124
204	6124
204	6124
204	6124
204	6124
204	6124
204	6124
204	6124
204	6124
204	6124
204	6124
205	6124
205	6124
205	6124
205	6124
205	6124
205	6124
206	6124
206	6124
206	6124
206	6124
206	6124
207	6124
208	6124
209	6124
209	6124
210	6124
210	6124
210	6124
211	6124
211	6124
213	6124
214	6124
217	6124
