1	6124
1	64
1	63
1	64
1	63
1	65
1	63
1	63
1	64
1	63
1	6
1	21
1	12
1	21
1	11
1	10
1	63
1	63
1	64
1	21
1	10
1	7
1	11
1	6124
1	63
1	63
1	63
1	10
1	63
1	20
1	63
1	9
1	5
1	9
1	63
1	10
1	63
1	2
1	20
1	63
1	63
1	63
1	63
1	9
1	11
1	20
1	63
1	63
1	63
1	63
1	63
1	63
1	63
1	63
1	20
1	9
1	10
1	63
1	9
1	64
1	4
1	63
1	63
1	63
1	63
1	63
1	63
1	9
1	63
1	20
1	5
1	7
1	20
1	63
1	63
1	64
1	63
1	63
1	63
1	63
1	20
1	63
1	20
1	20
1	6
1	4
1	64
1	63
1	63
1	5
2	4
2	9
2	3
2	4
2	9
2	3
2	3
2	4
2	5
2	8
2	3
2	9
2	6
2	3
2	10
2	10
2	4
2	3
2	3
2	4
2	6
2	4
2	3
2	3
2	5
2	6
2	3
2	3
2	6
2	5
3	5
3	4
3	9
3	5
3	4
3	5
3	4
3	4
3	5
3	5
3	5
3	4
3	4
3	4
3	4
3	4
4	6
4	5
4	5
4	5
6	7
7	8
7	8
7	8
8	9
19	20
62	63
