10	230
11	230
12	230
12	230
12	230
12	230
12	230
14	230
14	230
15	230
16	230
16	230
16	230
17	230
17	230
20	230
36	230
36	230
37	230
37	230
38	230
39	230
39	230
40	230
40	230
40	230
40	230
43	230
45	230
