1	6124
1	21
1	327
1	327
1	19
1	13
1	19
1	327
1	326
1	13
1	326
1	326
1	327
1	326
1	13
1	10
1	15
1	19
1	10
1	11
1	326
1	326
1	17
1	326
1	326
1	326
1	9
1	18
1	11
1	14
1	6124
1	11
1	328
1	13
1	10
1	326
1	326
1	326
1	18
1	13
1	8
1	326
1	326
1	15
1	326
1	18
1	18
1	11
1	326
1	17
1	8
1	10
1	326
1	327
1	9
1	326
1	326
1	19
1	326
1	326
1	12
1	327
1	326
1	326
1	327
1	9
1	20
1	10
1	326
1	326
1	19
1	327
1	18
1	10
1	326
1	326
1	326
1	21
1	9
1	10
1	16
1	6
1	326
1	327
1	326
1	326
1	11
1	326
1	326
1	12
1	10
1	326
1	326
1	8
1	13
1	326
1	326
1	21
1	326
1	15
1	326
1	326
1	15
1	14
1	326
1	6
1	326
1	326
1	326
1	326
1	8
1	326
1	21
1	11
1	326
1	326
1	8
1	327
1	326
1	326
1	326
1	14
1	326
1	10
1	326
1	9
1	326
1	14
1	18
1	14
1	13
1	9
1	326
1	326
1	326
1	9
1	20
1	19
1	326
1	12
1	326
1	13
1	326
1	327
1	326
1	326
1	328
1	326
1	326
1	6
1	9
1	326
1	326
1	326
1	6
1	326
1	326
1	8
1	9
1	10
1	19
1	11
1	326
1	326
1	326
1	326
1	326
1	14
1	326
1	9
1	326
1	326
1	326
1	11
1	326
1	8
1	326
1	326
1	9
1	14
1	327
1	326
1	326
1	326
1	328
1	6124
1	326
1	18
1	20
1	11
1	326
1	326
1	5
1	326
1	326
1	326
1	326
1	4
1	17
1	2
1	7
1	8
1	327
1	326
1	10
1	14
1	10
1	9
1	10
1	9
1	326
1	326
1	20
1	326
1	9
1	8
1	9
1	13
1	326
1	326
1	326
1	8
1	10
1	18
1	9
1	11
1	9
1	326
1	326
1	326
1	13
1	327
1	4
1	8
1	7
1	326
1	9
1	4
1	16
1	326
1	326
1	326
1	326
1	10
1	326
1	326
1	14
1	10
1	326
1	11
1	326
1	17
1	326
1	326
1	10
1	10
1	327
1	11
1	19
1	326
1	19
1	326
1	9
1	327
1	326
1	9
1	8
1	10
1	326
1	326
1	327
1	9
1	9
1	10
1	326
1	6
1	14
1	326
1	7
1	326
1	7
1	326
1	326
1	7
1	326
1	8
1	7
1	326
1	9
1	326
1	326
1	326
1	326
1	6
1	6
1	326
1	326
1	326
1	326
1	19
1	326
1	6
1	326
1	18
1	20
1	326
1	7
1	326
1	9
1	8
1	326
1	326
1	20
1	326
1	18
1	326
1	326
1	6
1	9
1	16
1	326
1	326
1	8
1	7
1	7
1	327
1	326
1	326
1	9
1	20
1	7
1	326
1	10
1	8
1	326
1	326
1	326
1	326
1	326
1	326
1	326
1	10
1	7
1	14
1	326
1	326
1	13
1	326
1	7
1	327
1	327
1	326
1	9
1	14
1	326
1	326
1	326
1	16
1	327
1	10
1	326
1	326
1	8
1	326
1	326
1	20
1	9
1	5
1	6
1	326
1	6
1	326
1	16
1	6
1	10
1	14
1	326
1	2
1	8
1	326
1	8
1	326
1	18
1	10
1	326
1	19
1	5
1	326
1	7
1	326
1	13
1	9
1	326
1	326
1	326
1	327
1	326
1	326
1	326
1	326
1	13
1	326
1	326
1	9
1	326
1	326
1	5
1	16
1	326
1	10
1	326
1	326
1	326
1	8
1	14
1	326
1	326
1	326
1	326
1	326
1	7
1	326
1	326
1	18
1	9
1	326
1	326
1	20
1	7
1	326
1	14
1	326
1	326
1	326
1	20
1	6
1	12
1	326
1	326
1	326
1	13
1	11
1	326
1	14
1	7
1	6
1	7
1	326
1	326
1	14
1	326
1	7
1	4
1	11
1	5
1	12
1	13
1	6
1	16
1	326
1	326
1	326
1	326
1	326
1	326
1	326
1	21
1	5
1	7
1	326
1	19
1	4
1	19
1	14
1	5
1	327
1	7
1	8
2	3
2	7
2	5
2	3
2	4
2	3
2	9
2	7
2	5
2	19
2	3
2	8
2	8
2	3
2	9
2	8
2	12
2	6
2	6
2	3
2	327
2	3
2	5
2	10
2	3
2	9
2	9
2	3
2	8
2	10
2	3
2	4
2	4
2	3
2	3
2	6
2	11
2	19
2	9
2	4
2	8
2	8
2	5
2	5
2	7
2	11
2	4
2	3
2	4
2	3
2	4
2	8
2	3
2	8
2	6
2	3
2	8
2	7
2	4
2	3
2	6
2	3
2	6
2	9
2	6
2	8
2	3
2	7
2	3
2	3
2	5
2	3
2	3
2	3
2	3
2	5
2	19
2	8
2	3
2	4
2	3
2	9
2	3
2	6
2	4
2	8
2	3
2	8
2	3
2	3
2	7
2	3
2	3
2	4
2	3
2	9
2	3
2	7
2	4
2	9
2	3
2	9
2	3
2	7
2	13
2	5
2	9
2	4
2	7
2	7
2	3
2	3
2	5
2	10
2	4
2	4
2	7
2	3
2	19
2	3
2	3
2	6
2	3
2	7
2	3
2	5
2	12
2	4
2	3
2	4
2	3
2	5
2	7
2	11
2	6
2	12
2	3
2	4
2	14
2	6
2	7
2	4
2	6
2	6
2	5
2	4
2	6
2	4
2	3
2	6
2	3
2	15
2	6
2	19
2	8
2	14
3	4
3	4
3	4
3	5
3	4
3	8
3	4
3	4
3	4
3	6
3	4
3	4
3	6
3	4
3	4
3	4
3	9
3	5
3	9
3	4
3	5
3	5
3	4
3	4
3	5
3	4
3	6
3	6
3	7
3	4
3	4
3	4
3	5
3	5
3	6
3	4
3	4
3	6
3	4
3	5
3	7
3	4
3	4
3	4
3	7
3	4
3	6
3	5
3	4
3	6
3	5
3	5
3	6
3	5
3	7
3	4
3	4
3	7
3	5
3	4
3	5
4	6
4	6
4	5
4	6
4	6
4	5
4	5
4	5
4	6
4	6
4	6
4	5
4	6
4	5
4	5
4	5
4	5
4	5
4	6
4	7
4	5
4	5
4	6
4	5
4	6
4	5
4	6
4	6
4	5
4	5
4	5
4	5
4	5
5	6
5	6
5	6
5	7
5	6
5	6
5	6
5	7
5	6
5	7
5	6
5	7
5	7
5	6
5	6
5	6
5	6
5	7
6	8
6	7
6	8
6	7
6	7
6	7
6	7
6	7
6	7
6	7
7	9
7	8
7	8
7	8
7	8
7	8
7	9
7	8
7	8
8	10
8	9
8	9
8	9
8	9
9	10
9	10
9	10
9	10
10	11
10	11
10	11
12	13
12	13
12	13
13	14
13	14
13	14
15	16
17	18
17	18
18	19
19	20
325	326
