6	6124
9	6124
12	6124
12	6124
12	6124
14	6124
14	6124
15	6124
15	6124
16	6124
17	6124
17	6124
19	6124
19	6124
19	6124
20	6124
20	6124
20	6124
21	6124
25	6124
25	6124
26	6124
27	6124
48	6124
48	6124
48	6124
48	6124
48	6124
49	6124
49	6124
51	6124
53	6124
54	6124
54	6124
56	6124
61	6124
154	6124
154	6124
154	6124
154	6124
154	6124
154	6124
154	6124
154	6124
154	6124
154	6124
154	6124
154	6124
154	6124
154	6124
154	6124
155	6124
155	6124
155	6124
155	6124
155	6124
155	6124
156	6124
156	6124
156	6124
156	6124
157	6124
159	6124
159	6124
174	6124
198	6124
