6	6124
7	6124
8	6124
11	6124
13	6124
13	6124
14	6124
15	6124
15	6124
15	6124
15	6124
15	6124
16	6124
16	6124
16	6124
16	6124
16	6124
17	6124
17	6124
17	6124
17	6124
17	6124
17	6124
17	6124
18	6124
19	6124
20	6124
20	6124
20	6124
21	6124
21	6124
22	6124
23	6124
23	6124
24	6124
24	6124
24	6124
25	6124
25	6124
25	6124
27	6124
27	6124
27	6124
27	6124
27	6124
28	6124
29	6124
388	6124
388	6124
388	6124
388	6124
388	6124
388	6124
388	6124
388	6124
388	6124
388	6124
388	6124
388	6124
388	6124
388	6124
388	6124
388	6124
388	6124
388	6124
388	6124
388	6124
388	6124
388	6124
388	6124
388	6124
388	6124
388	6124
388	6124
388	6124
388	6124
388	6124
388	6124
388	6124
388	6124
388	6124
389	6124
389	6124
389	6124
389	6124
389	6124
389	6124
389	6124
389	6124
389	6124
389	6124
389	6124
389	6124
389	6124
389	6124
389	6124
390	6124
390	6124
390	6124
390	6124
390	6124
390	6124
390	6124
391	6124
391	6124
391	6124
392	6124
392	6124
394	6124
395	6124
397	6124
398	6124
400	6124
407	6124
408	6124
