1	6124
1	167
1	13
1	166
1	166
1	166
1	10
1	19
1	166
1	18
1	10
1	19
1	166
1	6124
1	18
1	19
1	166
1	167
1	166
1	11
1	166
1	6124
1	166
1	166
1	166
1	15
1	166
1	166
1	166
1	166
1	14
1	15
1	19
1	10
1	166
1	11
1	166
1	18
1	10
1	5
1	13
1	168
1	166
1	5
1	166
1	13
1	166
1	18
1	167
1	166
1	166
1	166
1	166
1	18
1	12
1	18
1	166
1	13
1	18
1	9
1	166
1	14
1	18
1	9
1	166
1	166
1	166
1	16
1	11
1	167
1	7
1	18
1	11
1	18
1	14
1	166
1	166
1	12
1	166
1	10
1	166
1	167
1	18
1	166
1	13
1	166
1	13
1	166
1	12
1	9
1	167
1	166
1	166
1	166
1	12
1	166
1	166
1	6
1	166
1	166
1	10
1	166
1	166
1	166
1	5
1	166
1	166
1	166
1	166
1	8
1	8
1	13
1	8
1	166
1	6
1	10
1	166
1	166
1	9
1	166
1	11
1	166
1	167
1	166
1	8
1	166
1	166
1	13
1	6
1	7
1	166
1	14
1	9
1	166
1	6
1	6
1	166
1	166
1	166
1	4
1	166
1	9
1	166
1	166
1	166
1	166
1	18
1	166
1	166
1	9
1	166
1	18
1	10
1	9
1	7
1	166
1	166
1	6
1	10
1	166
1	166
1	8
1	166
1	11
1	5
1	166
1	10
1	166
1	166
1	5
1	166
1	7
1	7
1	10
1	166
1	166
1	4
1	2
1	166
1	167
1	166
1	10
1	14
1	10
1	9
1	8
1	166
1	7
1	7
1	5
1	166
1	11
1	166
1	4
1	166
1	10
1	166
1	166
1	166
1	166
1	8
1	166
1	15
1	166
1	166
1	9
1	166
1	18
1	166
1	8
1	166
1	8
1	13
1	166
1	8
1	18
1	166
1	7
1	5
1	166
1	6
1	10
1	166
1	166
1	4
1	10
1	6
1	20
1	166
1	166
1	8
1	166
1	166
1	18
1	166
1	10
2	6
2	8
2	19
2	11
2	3
2	4
2	3
2	3
2	3
2	7
2	4
2	3
2	7
2	8
2	8
2	4
2	3
2	9
2	9
2	8
2	6
2	3
2	3
2	5
2	4
2	3
2	6
2	4
2	3
2	3
2	3
2	10
2	6
2	7
2	167
2	5
2	6
2	7
2	4
2	4
2	5
2	3
2	7
2	4
2	6
2	4
2	8
2	3
2	3
2	3
2	9
2	8
2	19
2	6
2	3
2	3
2	4
2	7
2	8
2	5
2	3
2	11
2	3
2	3
2	3
2	9
2	3
2	5
3	5
3	4
3	10
3	5
3	16
3	7
3	5
3	4
3	4
3	4
3	4
3	4
3	12
3	5
3	5
3	4
3	6
3	6
3	4
3	5
3	7
3	5
3	5
4	5
4	6
4	5
4	7
4	5
4	6
4	6
4	5
4	6
4	6
4	7
4	5
4	5
5	6
5	6
5	6
5	9
5	7
5	6
5	7
5	8
5	6
5	6
5	6
5	6
6	7
6	7
6	7
6	7
7	8
7	8
7	8
7	8
7	8
7	8
8	9
9	10
9	10
9	11
9	10
11	12
12	13
13	14
17	18
17	18
165	166
