1	230
1	62
1	62
1	63
1	63
1	63
1	62
1	62
1	12
1	62
1	62
1	62
1	64
1	63
1	62
1	62
1	62
1	62
1	9
1	12
1	63
1	62
1	10
1	63
1	62
1	63
1	13
1	7
1	63
1	7
1	6
1	230
1	9
1	8
1	62
1	62
1	8
1	9
1	9
1	62
1	8
1	6
1	62
1	62
1	62
1	7
1	6
1	63
1	3
1	63
1	62
1	62
1	62
1	7
1	62
1	62
1	62
1	62
1	62
1	62
1	62
1	63
2	12
2	3
2	3
2	6
2	4
2	3
2	3
2	6
2	7
2	6
2	3
2	11
2	6
2	4
2	4
2	3
2	3
2	3
2	5
2	4
2	3
2	6
2	3
2	3
2	4
2	6
2	4
2	6
2	3
2	4
2	4
2	3
2	8
2	5
2	3
2	3
3	4
3	7
3	5
3	6
3	4
3	4
3	4
3	4
3	4
3	4
3	5
3	5
3	5
3	4
3	6
3	5
4	5
4	5
4	5
4	6
4	6
4	5
4	5
4	6
6	7
6	7
9	11
61	62
