1	6124
1	91
1	92
1	92
1	34
1	91
1	91
1	91
1	33
1	91
1	91
1	13
1	91
1	91
1	91
1	91
1	91
1	15
1	91
1	20
1	91
1	10
1	91
1	92
1	14
1	91
1	33
1	16
1	12
1	92
1	13
1	91
1	13
1	91
1	33
1	91
1	7
1	91
1	91
1	91
1	91
1	33
1	91
1	7
1	12
1	6124
1	14
1	8
1	91
1	8
1	91
1	7
1	33
1	6124
1	36
1	14
1	34
1	13
1	7
1	33
1	91
1	91
1	5
1	7
1	6124
1	8
1	13
1	13
1	92
1	91
1	8
1	33
1	91
1	6124
1	92
1	91
1	33
1	4
1	91
1	91
1	91
1	12
1	91
1	91
1	91
1	16
1	10
1	33
1	12
1	91
1	33
1	33
1	91
1	7
1	92
1	91
1	6
1	91
1	2
1	91
1	91
1	7
1	33
1	91
1	91
1	14
1	91
1	7
1	34
1	91
1	91
1	91
1	91
1	6
1	33
1	5
1	5
1	2
1	91
1	5
1	13
1	91
1	9
1	91
1	9
1	91
1	33
1	91
1	91
1	92
1	33
1	4
1	91
1	91
1	14
1	10
1	91
1	91
1	12
1	3
1	91
1	6
1	91
1	14
1	14
1	91
1	91
1	33
1	2
1	11
1	7
1	8
1	91
1	91
2	5
2	9
2	5
2	4
2	5
2	7
2	3
2	6
2	5
2	3
2	5
2	6
2	3
2	12
2	3
2	3
2	3
2	7
2	3
2	3
2	12
2	34
2	3
2	3
2	7
2	5
2	5
2	9
2	3
2	3
2	6
2	7
2	6
2	3
2	6
2	4
2	7
2	3
2	4
2	3
2	8
2	12
3	5
3	5
3	4
3	4
3	4
3	4
3	4
3	5
3	4
3	4
3	4
3	4
3	4
3	8
3	8
3	4
3	4
4	5
4	5
4	5
4	5
4	5
4	5
5	6
5	6
5	6
5	7
6	7
7	8
7	8
9	10
10	11
11	12
13	14
32	33
90	91
