1	6124
1	12
1	292
1	291
1	291
1	14
1	13
1	11
1	291
1	13
1	15
1	20
1	15
1	291
1	291
1	291
1	11
1	293
1	291
1	291
1	12
1	291
1	15
1	291
1	12
1	291
1	291
1	13
1	5
1	12
1	10
1	8
1	13
1	291
1	17
1	13
1	291
1	291
1	11
1	291
1	9
1	12
1	7
1	10
1	291
1	12
1	11
1	291
1	12
1	291
1	291
1	14
1	9
1	11
1	10
1	291
1	19
1	15
1	19
1	291
1	14
1	291
1	12
1	291
1	9
1	291
1	291
1	12
1	14
1	6
1	9
1	9
1	19
1	6
1	7
1	8
1	30
1	291
1	291
1	9
1	9
1	291
1	291
1	291
1	14
1	291
1	291
1	8
1	6
1	12
1	291
1	291
1	291
1	291
1	16
1	291
1	291
1	12
1	10
1	11
1	32
1	291
1	12
1	10
1	291
1	291
1	291
1	291
1	11
1	7
1	6
1	10
1	291
1	291
1	291
1	291
1	291
1	13
1	291
1	10
1	9
1	16
1	291
1	9
1	15
1	6124
1	291
1	291
1	8
1	6
1	291
1	291
1	291
1	291
1	291
1	14
1	291
1	291
1	7
1	291
1	291
1	291
1	9
1	291
1	12
1	10
1	12
1	291
1	12
1	14
1	8
1	291
1	291
1	291
1	6
1	291
1	292
1	9
1	291
1	11
1	291
1	10
1	6124
1	291
1	291
1	15
1	291
1	5
1	12
1	291
1	10
1	9
1	291
1	9
1	291
1	291
1	10
1	291
1	13
1	291
1	291
1	291
1	11
1	291
1	10
1	291
1	5
1	291
1	9
1	12
1	10
1	291
1	291
1	3
1	12
1	291
1	291
1	9
1	10
1	11
1	291
1	292
1	30
1	12
1	291
1	11
1	291
1	11
1	291
1	291
1	291
1	10
1	6124
1	291
1	291
1	291
1	10
1	291
1	291
1	291
1	291
1	13
1	8
1	19
1	2
1	8
1	14
1	14
1	291
1	291
1	291
1	292
1	9
1	291
1	291
1	291
1	5
1	14
1	6
1	291
1	10
1	291
1	12
1	8
1	15
1	291
1	291
1	14
1	291
1	291
1	291
1	291
1	4
1	10
1	291
1	291
1	9
1	291
1	13
1	291
1	8
1	291
1	291
1	291
1	11
1	291
1	291
1	11
1	291
1	8
1	291
1	8
1	12
1	10
1	291
1	10
1	291
1	6
1	12
1	291
1	12
1	9
1	291
1	9
1	9
1	291
1	291
1	9
1	8
1	8
1	9
1	291
1	291
1	291
1	291
1	291
1	291
1	10
1	6
1	291
1	11
1	291
1	11
1	7
1	14
1	8
1	292
1	291
1	10
1	291
1	19
1	7
1	12
1	291
1	291
1	291
1	291
1	291
1	6
1	291
1	291
1	14
1	5
1	15
1	291
1	5
1	291
1	10
1	291
1	291
1	291
1	3
1	291
1	291
1	11
1	9
1	291
1	291
1	9
1	291
1	10
1	11
1	11
1	291
1	10
1	291
1	291
1	291
1	12
1	11
1	291
1	291
1	16
1	7
1	7
1	291
1	291
1	291
1	291
1	291
1	10
1	292
1	291
1	14
1	7
1	8
1	14
1	14
1	12
1	291
1	291
1	291
1	7
1	4
1	291
1	291
1	8
1	19
1	12
1	291
1	10
1	291
1	12
1	291
1	19
1	292
1	291
1	292
2	9
2	7
2	6
2	3
2	6
2	35
2	292
2	292
2	9
2	12
2	13
2	8
2	6
2	30
2	30
2	9
2	4
2	9
2	3
2	30
2	3
2	7
2	9
2	4
2	6
2	3
2	9
2	292
2	5
2	10
2	6
2	14
2	12
2	3
2	15
2	3
2	4
2	292
2	3
2	30
2	292
2	4
2	3
2	30
2	3
2	3
2	12
2	6
2	3
2	8
2	9
2	14
2	12
2	3
2	3
2	3
2	3
2	3
2	3
2	6
2	7
2	3
2	9
2	292
2	12
2	3
2	5
2	9
2	8
2	9
2	8
2	292
2	4
2	11
2	3
2	15
2	4
2	6
2	4
2	31
2	3
2	7
2	6
2	8
2	4
2	8
2	8
2	7
2	3
2	3
2	7
2	6
2	4
2	4
2	8
2	3
2	14
2	6
2	3
2	3
2	4
2	3
2	10
2	10
2	11
2	10
2	4
2	4
2	3
2	10
2	30
2	8
2	4
2	5
2	14
2	3
2	4
2	5
2	7
2	7
2	4
2	6
2	12
2	14
2	7
2	3
2	4
3	9
3	4
3	9
3	4
3	11
3	5
3	5
3	15
3	8
3	4
3	4
3	6
3	5
3	5
3	4
3	6
3	4
3	4
3	5
3	4
3	4
3	5
3	6
3	5
3	6
3	4
3	4
3	4
3	4
3	5
3	6
3	4
3	9
3	4
3	5
3	6
3	8
3	4
3	8
3	6
3	4
3	4
3	4
3	5
3	4
3	10
3	4
3	4
3	5
3	5
4	5
4	5
4	7
4	8
4	5
4	5
4	5
4	5
4	5
4	11
4	5
4	6
4	8
4	6
4	6
4	5
4	5
4	5
4	6
4	6
4	8
4	5
4	14
4	6
4	6
4	7
5	6
5	9
5	11
5	7
5	6
5	6
5	6
5	7
5	7
5	6
5	6
5	6
5	7
5	8
5	6
6	7
6	8
6	7
6	7
6	7
6	7
6	7
6	7
6	7
6	7
6	8
6	7
7	8
7	8
7	9
7	8
7	8
7	9
7	8
7	8
8	9
8	9
8	10
8	10
8	9
8	9
8	9
8	10
8	9
9	10
9	10
9	10
9	10
9	10
10	11
10	11
10	11
10	11
10	11
10	12
11	12
11	12
11	12
11	13
11	12
12	14
12	13
12	13
12	13
12	13
13	14
18	19
28	29
290	291
