1	6124
1	49
1	50
1	20
1	6124
1	49
1	49
1	20
1	19
1	49
1	49
1	49
1	10
1	9
1	49
1	12
1	49
1	49
1	2
1	10
1	49
1	49
1	8
1	9
1	49
1	9
1	49
1	10
1	13
1	49
1	49
1	12
1	19
1	49
1	12
1	6124
1	12
1	20
1	49
1	10
1	20
1	19
1	49
1	2
1	15
1	10
1	12
1	5
1	49
1	49
1	49
1	11
1	12
1	49
1	9
1	10
1	19
1	6
1	8
1	5
1	6
1	20
1	49
1	19
1	10
1	8
1	49
1	20
1	11
1	11
1	49
1	9
1	6
1	6
1	49
1	10
1	7
1	7
1	49
1	49
1	10
1	49
1	49
1	6
1	49
2	3
2	5
2	3
2	4
2	3
2	6
2	19
2	6
2	3
2	5
2	11
2	4
2	19
2	7
2	3
2	3
2	7
2	3
2	4
2	5
2	9
2	11
3	4
3	8
3	5
3	4
3	7
3	6
3	6
3	4
3	4
3	4
3	4
3	4
3	4
3	4
4	5
4	5
4	5
4	5
4	5
4	8
4	5
4	6
5	8
5	8
5	7
5	6
5	6
6	8
8	9
9	10
9	10
9	10
17	18
18	19
48	49
