1	6124
1	203
1	14
1	13
1	13
1	202
1	10
1	11
1	12
1	9
1	202
1	16
1	202
1	6124
1	202
1	202
1	10
1	202
1	202
1	202
1	9
1	12
1	202
1	202
1	202
1	202
1	11
1	202
1	12
1	202
1	202
1	204
1	204
1	202
1	202
1	8
1	10
1	202
1	11
1	202
1	202
1	14
1	204
1	202
1	203
1	202
1	202
1	13
1	202
1	10
1	202
1	4
1	9
1	8
1	202
1	202
1	202
1	203
1	202
1	10
1	203
1	202
1	202
1	202
1	14
1	7
1	203
1	9
1	4
1	202
1	202
1	6124
1	202
1	202
1	12
1	202
1	9
1	9
1	203
1	12
1	202
1	202
1	202
1	10
1	202
1	8
1	7
1	202
1	202
1	203
1	203
1	203
1	12
1	202
1	202
1	202
1	202
1	202
1	7
1	7
1	9
1	202
1	8
1	8
1	7
1	10
1	202
1	13
1	11
1	202
1	12
1	202
1	202
1	5
1	10
1	9
1	202
1	9
1	202
1	10
1	14
1	7
1	202
1	6
1	202
1	9
1	8
1	9
1	202
1	5
1	202
1	202
1	202
1	5
1	202
1	202
1	203
1	202
1	3
1	8
1	202
1	202
1	5
1	9
1	202
1	202
1	202
1	202
1	12
1	202
1	9
1	203
1	13
1	202
1	7
1	202
1	202
1	5
1	202
1	202
1	202
1	13
1	12
1	11
1	202
1	202
1	202
1	202
1	202
1	202
1	202
1	202
1	10
1	202
1	9
1	6
1	202
1	8
1	203
1	202
1	202
1	202
1	5
1	8
1	6
1	202
1	203
1	6
1	202
1	6124
1	202
1	203
1	4
1	202
1	7
1	202
1	202
1	202
1	202
1	202
1	202
1	8
1	8
1	5
1	9
1	14
1	202
1	3
1	202
1	202
1	202
1	6124
1	202
1	8
1	202
1	7
1	202
1	8
1	202
1	202
1	202
1	5
1	202
1	202
1	202
1	8
1	202
1	202
1	202
1	202
1	202
1	2
1	202
1	13
1	6
1	202
1	8
1	202
1	203
1	202
1	202
1	9
1	203
1	202
1	5
1	10
1	4
1	2
1	202
1	202
1	202
1	202
1	202
1	7
1	4
1	202
1	202
1	202
1	202
1	202
1	7
1	202
1	202
1	202
2	9
2	3
2	6
2	203
2	8
2	4
2	6
2	14
2	3
2	7
2	6
2	7
2	4
2	3
2	4
2	3
2	7
2	4
2	3
2	203
2	3
2	3
2	9
2	3
2	3
2	3
2	5
2	8
2	12
2	7
2	4
2	6
2	12
2	5
2	5
2	13
2	3
2	9
2	3
2	5
2	3
2	6
2	3
2	3
2	5
2	8
2	3
2	4
2	4
2	4
2	6
2	3
2	7
2	3
2	9
2	10
2	5
2	5
2	5
2	13
2	4
2	3
2	3
2	6
2	3
2	14
2	4
2	5
2	5
2	3
2	3
2	4
2	13
2	4
2	3
2	4
2	4
2	3
2	13
2	6
2	6
2	14
2	3
2	4
3	4
3	5
3	5
3	5
3	4
3	4
3	7
3	4
3	4
3	5
3	5
3	4
3	4
3	5
3	4
3	7
3	5
3	9
3	5
3	5
3	4
3	4
3	5
3	4
3	4
3	4
3	4
3	4
3	4
3	5
3	6
3	5
3	5
3	4
3	4
3	5
3	5
3	5
3	4
3	5
3	4
4	6
4	5
4	5
4	7
4	5
4	5
4	5
4	6
4	7
4	6
4	5
4	5
5	8
5	7
5	6
5	6
5	6
5	6
5	6
5	6
5	6
6	7
6	7
6	7
6	7
6	7
7	8
7	8
7	8
7	8
7	8
8	10
8	9
8	9
8	9
10	11
11	13
11	12
12	13
201	202
