7	6124
9	6124
9	6124
10	6124
10	6124
11	6124
11	6124
11	6124
11	6124
11	6124
11	6124
11	6124
12	6124
12	6124
12	6124
13	6124
13	6124
15	6124
15	6124
15	6124
15	6124
16	6124
16	6124
17	6124
18	6124
18	6124
128	6124
128	6124
128	6124
128	6124
128	6124
128	6124
128	6124
128	6124
128	6124
128	6124
129	6124
129	6124
129	6124
129	6124
129	6124
129	6124
129	6124
129	6124
129	6124
130	6124
130	6124
130	6124
131	6124
131	6124
133	6124
133	6124
133	6124
138	6124
