7	6124
8	6124
9	6124
10	6124
11	6124
11	6124
11	6124
11	6124
12	6124
12	6124
12	6124
12	6124
12	6124
13	6124
13	6124
13	6124
13	6124
13	6124
14	6124
14	6124
15	6124
15	6124
16	6124
16	6124
21	6124
22	6124
22	6124
23	6124
23	6124
24	6124
24	6124
24	6124
24	6124
25	6124
26	6124
26	6124
27	6124
29	6124
30	6124
30	6124
31	6124
31	6124
31	6124
31	6124
31	6124
31	6124
31	6124
32	6124
32	6124
32	6124
32	6124
32	6124
32	6124
32	6124
32	6124
33	6124
33	6124
35	6124
35	6124
36	6124
45	6124
47	6124
165	6124
165	6124
165	6124
165	6124
165	6124
165	6124
165	6124
165	6124
165	6124
165	6124
165	6124
165	6124
165	6124
166	6124
166	6124
166	6124
166	6124
166	6124
166	6124
167	6124
167	6124
167	6124
167	6124
167	6124
167	6124
167	6124
167	6124
167	6124
167	6124
168	6124
169	6124
169	6124
170	6124
175	6124
183	6124
185	6124
191	6124
