1	6124
1	166
1	167
1	14
1	166
1	12
1	167
1	32
1	16
1	167
1	166
1	31
1	13
1	166
1	11
1	166
1	166
1	166
1	166
1	166
1	166
1	13
1	11
1	15
1	5
1	166
1	13
1	30
1	16
1	8
1	166
1	30
1	166
1	166
1	166
1	9
1	16
1	30
1	166
1	166
1	168
1	16
1	11
1	166
1	166
1	166
1	166
1	16
1	9
1	166
1	166
1	166
1	166
1	166
1	166
1	10
1	166
1	11
1	166
1	167
1	8
1	166
1	166
1	166
1	10
1	10
1	9
1	9
1	9
1	166
1	7
1	12
1	166
1	8
1	166
1	166
1	11
1	166
1	166
1	11
1	12
1	15
1	166
1	166
1	11
1	6
1	9
1	166
1	8
1	8
1	10
1	166
1	5
1	8
1	166
1	10
1	166
1	167
1	166
1	6124
1	8
1	9
1	9
1	166
1	30
1	166
1	10
1	166
1	166
1	166
1	166
1	166
1	11
1	166
1	30
1	166
1	166
1	15
1	10
1	166
1	166
1	167
1	166
1	166
1	166
1	166
1	166
1	166
1	166
1	166
1	2
1	17
1	166
1	166
1	7
1	11
1	166
1	15
1	5
1	166
1	166
1	7
1	30
1	166
1	7
1	166
1	166
1	166
1	9
1	8
1	166
1	166
1	5
1	166
1	166
1	166
1	166
1	166
1	5
1	15
1	7
1	166
1	166
1	9
1	15
1	166
1	166
1	166
1	166
1	166
1	6
1	166
1	166
1	30
1	167
1	166
1	31
1	6
1	166
1	166
1	30
1	9
1	166
1	30
1	166
1	166
1	166
1	166
1	166
1	13
1	30
1	30
1	166
1	8
1	11
1	166
1	9
1	166
1	166
1	15
1	166
1	166
1	166
1	7
1	8
1	166
1	166
1	166
1	167
1	15
1	166
1	5
1	5
1	6
1	166
1	4
1	11
1	166
1	8
1	166
1	166
1	10
1	166
1	166
1	166
1	5
1	5
1	166
1	7
1	166
2	3
2	3
2	167
2	31
2	5
2	11
2	5
2	3
2	7
2	3
2	4
2	167
2	11
2	4
2	5
2	8
2	5
2	8
2	8
2	7
2	8
2	9
2	3
2	7
2	4
2	4
2	4
2	12
2	3
2	3
2	5
2	3
2	3
2	3
2	6
2	3
2	5
2	8
2	8
2	3
2	7
2	4
2	10
2	3
2	6
2	5
2	3
2	4
2	3
2	7
2	4
2	5
2	6
2	8
2	5
2	16
2	3
2	4
2	3
2	4
2	8
2	4
2	3
2	3
2	6
2	8
2	9
2	3
2	4
2	4
2	3
2	3
2	6
2	8
2	5
3	5
3	5
3	5
3	4
3	4
3	5
3	4
3	6
3	6
3	7
3	4
3	5
3	4
3	4
3	9
3	4
3	9
3	5
3	4
3	4
3	5
3	4
3	5
3	5
3	6
3	4
3	4
3	7
3	5
3	7
3	4
3	4
4	5
4	7
4	5
4	5
4	5
4	7
4	9
4	5
4	5
4	5
4	5
4	5
5	6
5	6
5	6
5	6
5	6
5	7
6	8
6	8
6	8
6	7
6	7
6	7
6	8
6	7
6	7
7	8
7	8
7	8
7	8
8	9
9	10
9	10
10	11
14	15
14	15
29	30
165	166
