8	6124
9	6124
10	6124
10	6124
10	6124
11	6124
11	6124
11	6124
12	6124
12	6124
14	6124
14	6124
20	6124
21	6124
21	6124
22	6124
22	6124
24	6124
130	6124
130	6124
130	6124
130	6124
130	6124
131	6124
131	6124
131	6124
131	6124
131	6124
131	6124
132	6124
132	6124
132	6124
132	6124
133	6124
134	6124
134	6124
134	6124
146	6124
