1	6124
1	6124
1	52
1	52
1	53
1	53
1	14
1	11
1	10
1	10
1	11
1	10
1	11
1	13
1	7
1	52
1	11
1	10
1	9
1	7
1	53
1	8
1	7
1	9
1	52
1	9
1	52
1	52
1	9
1	11
1	52
1	52
1	7
1	9
1	5
1	11
1	52
1	10
1	9
1	6
1	6124
1	10
1	52
1	52
1	6
1	6
1	52
1	10
1	6
1	10
1	10
1	6124
1	10
1	8
1	8
1	9
1	10
1	8
1	10
1	7
1	54
1	10
1	6
1	2
1	8
1	6
1	52
1	26
1	52
1	52
1	12
1	26
1	5
1	11
1	11
1	11
1	52
1	7
1	7
1	52
1	52
1	7
1	52
1	6
1	52
1	52
1	52
1	8
1	52
1	11
1	7
1	7
1	52
1	52
1	2
1	6
1	4
1	52
2	25
2	10
2	12
2	3
2	8
2	5
2	3
2	10
2	9
2	8
2	3
2	3
2	3
2	6
2	4
2	4
2	3
2	3
2	3
2	4
2	11
2	25
2	6
2	8
2	9
2	7
2	6
2	3
2	3
3	9
3	13
3	5
3	10
3	4
3	4
3	4
3	4
3	6
3	5
3	6
3	6
3	8
3	4
3	6
3	4
3	7
3	5
3	8
3	4
3	4
3	5
4	5
4	5
4	6
4	5
4	7
4	7
4	5
4	7
4	5
4	6
4	5
4	5
4	5
5	6
5	7
5	7
5	9
5	6
5	8
6	7
6	8
6	7
6	7
6	8
6	7
6	7
7	8
7	8
7	8
7	8
8	10
9	10
9	10
10	11
23	24
51	52
