8	6124
9	6124
10	6124
10	6124
10	6124
11	6124
11	6124
11	6124
12	6124
12	6124
13	6124
13	6124
13	6124
13	6124
13	6124
14	6124
14	6124
14	6124
14	6124
14	6124
15	6124
16	6124
17	6124
17	6124
17	6124
18	6124
19	6124
20	6124
20	6124
22	6124
22	6124
22	6124
22	6124
22	6124
23	6124
23	6124
23	6124
23	6124
24	6124
116	6124
116	6124
116	6124
116	6124
116	6124
116	6124
116	6124
116	6124
116	6124
117	6124
117	6124
117	6124
117	6124
117	6124
117	6124
117	6124
117	6124
117	6124
118	6124
118	6124
118	6124
118	6124
119	6124
119	6124
120	6124
120	6124
120	6124
123	6124
124	6124
125	6124
