1	6124
1	14
1	13
1	132
1	13
1	131
1	13
1	8
1	131
1	131
1	12
1	131
1	14
1	10
1	11
1	7
1	131
1	131
1	7
1	12
1	131
1	131
1	132
1	9
1	131
1	131
1	131
1	131
1	8
1	131
1	8
1	131
1	131
1	8
1	131
1	131
1	131
1	131
1	6124
1	7
1	131
1	131
1	10
1	131
1	131
1	12
1	131
1	131
1	131
1	131
1	10
1	131
1	131
1	14
1	10
1	131
1	131
1	131
1	131
1	131
1	131
1	132
1	5
1	6
1	131
1	131
1	131
1	131
1	131
1	7
1	131
1	132
1	131
1	131
1	131
1	131
1	6124
1	132
1	131
1	5
1	3
1	131
1	11
1	131
1	131
1	11
1	131
1	12
1	8
1	131
1	14
1	9
1	131
1	131
1	131
1	11
1	132
1	8
1	131
1	131
1	131
1	5
1	6
1	131
1	132
1	8
1	6
1	11
1	131
1	131
1	11
1	131
1	8
1	131
1	131
1	131
1	131
1	131
1	131
1	131
1	131
1	10
1	131
1	12
1	11
1	15
1	8
1	131
1	131
1	12
1	4
1	13
1	131
1	131
1	8
1	10
1	11
1	132
1	131
1	9
1	10
1	131
1	131
1	131
1	131
1	131
1	131
1	131
1	131
1	5
1	7
1	131
1	131
1	8
1	7
1	131
1	131
1	131
1	131
1	131
2	9
2	5
2	6
2	4
2	3
2	3
2	6
2	3
2	15
2	3
2	11
2	4
2	5
2	9
2	3
2	3
2	7
2	3
2	3
2	132
2	3
2	8
2	5
2	7
2	3
2	3
2	4
2	6
2	3
2	6
2	3
2	15
2	3
2	8
2	3
2	6
2	6
2	6
2	6
2	6
2	3
3	4
3	4
3	4
3	6
3	5
3	5
3	4
3	4
3	6
3	5
3	5
3	4
3	4
3	6
3	4
3	5
3	7
3	5
3	4
3	5
3	6
3	4
4	5
4	5
4	5
4	5
4	5
4	5
4	5
4	5
4	5
4	6
4	5
4	7
4	6
4	6
4	5
5	6
6	7
6	7
7	8
7	8
7	8
9	10
9	10
10	11
10	11
12	13
130	131
