1	6124
1	37
1	186
1	185
1	12
1	185
1	14
1	18
1	185
1	37
1	11
1	185
1	18
1	24
1	14
1	6124
1	15
1	185
1	20
1	17
1	185
1	12
1	9
1	10
1	23
1	15
1	16
1	18
1	22
1	8
1	12
1	17
1	185
1	36
1	15
1	185
1	185
1	185
1	20
1	20
1	8
1	23
1	12
1	185
1	17
1	14
1	15
1	185
1	7
1	7
1	23
1	21
1	17
1	8
1	185
1	23
1	14
1	20
1	11
1	20
1	185
1	23
1	8
1	12
1	12
1	185
1	11
1	36
1	12
1	186
1	12
1	185
1	5
1	8
1	17
1	7
1	22
1	185
1	8
1	36
1	9
1	23
1	185
1	6
1	185
1	10
1	18
1	36
1	7
1	12
1	19
1	13
1	186
1	7
1	185
1	6
1	11
1	4
1	185
1	12
1	36
1	8
1	185
1	185
1	185
1	10
1	7
1	19
1	185
1	17
1	185
1	13
1	23
1	10
1	14
1	14
1	185
1	16
1	7
1	23
1	185
1	7
1	20
1	9
1	10
1	8
1	10
1	9
1	12
1	20
1	10
1	185
1	185
1	38
1	9
1	185
1	185
1	185
1	13
1	36
1	7
1	21
1	13
1	185
1	7
1	185
1	185
1	8
1	185
1	10
1	10
1	9
1	19
1	186
1	185
1	10
1	16
1	185
1	185
1	23
1	8
1	186
1	19
1	185
1	6124
1	23
1	185
1	185
1	6
1	18
1	20
1	185
1	20
1	17
1	9
1	185
1	12
1	10
1	2
1	185
1	185
1	185
1	8
1	10
1	185
1	185
1	9
1	185
1	13
1	16
1	185
1	186
1	185
1	9
1	16
1	23
1	10
1	5
1	13
1	185
1	16
1	186
1	186
1	5
1	185
1	9
1	185
1	10
1	185
1	185
1	17
1	185
1	23
1	12
1	9
1	7
1	19
1	185
1	185
1	185
1	20
1	19
1	185
1	14
1	185
1	36
1	185
1	10
1	185
1	185
1	18
1	7
1	10
1	185
1	8
1	14
1	2
1	185
1	36
1	185
1	185
1	7
1	8
1	13
1	6
1	185
1	16
1	8
1	7
1	6
1	9
1	185
1	8
1	36
1	37
1	8
1	185
1	10
1	23
1	185
1	12
1	4
1	185
1	6
1	6
1	185
1	12
1	185
1	11
1	8
1	16
1	20
1	7
1	185
1	20
1	6
1	17
1	23
1	5
1	185
1	185
1	9
1	9
1	8
1	185
1	17
1	10
1	11
1	6
1	20
1	185
1	23
1	13
1	11
1	14
1	19
1	185
1	36
1	19
1	10
1	17
1	6
1	16
1	8
1	185
1	12
1	185
1	12
1	8
1	6
1	185
1	185
1	11
1	185
1	185
1	19
1	185
1	12
1	17
1	17
1	4
1	185
1	6
1	36
1	185
1	8
1	185
1	185
1	185
1	21
1	17
1	11
1	9
1	14
1	6
1	18
1	9
1	19
1	4
1	11
1	185
1	10
1	185
1	185
1	9
1	37
2	3
2	14
2	7
2	11
2	8
2	8
2	3
2	11
2	5
2	18
2	15
2	3
2	7
2	3
2	6
2	13
2	11
2	16
2	5
2	7
2	15
2	11
2	3
2	186
2	3
2	7
2	186
2	186
2	5
2	13
2	4
2	6
2	7
2	4
2	15
2	15
2	6
2	11
2	3
2	5
2	10
2	7
2	3
2	7
2	3
2	6
2	17
2	11
2	8
2	7
2	3
2	12
2	186
2	5
2	4
2	6
2	3
2	5
2	9
2	12
2	4
2	3
2	13
2	8
2	6
2	3
2	5
2	3
2	3
2	3
2	11
2	11
2	7
2	5
2	3
2	3
2	8
2	3
2	3
2	3
2	11
2	8
2	7
2	6
2	7
2	3
2	8
2	10
2	8
2	13
2	5
2	3
2	6
2	5
2	12
2	4
2	4
2	3
2	6
2	3
2	4
2	6
2	3
2	3
2	3
2	3
2	3
2	6
2	37
2	6
2	3
2	5
2	3
2	3
2	13
2	3
2	4
2	5
2	4
2	6
2	18
3	4
3	22
3	4
3	6
3	5
3	6
3	7
3	5
3	5
3	5
3	4
3	4
3	9
3	6
3	5
3	8
3	5
3	9
3	4
3	6
3	11
3	5
3	4
3	21
3	4
3	5
3	4
3	5
3	4
3	8
3	4
3	7
3	4
3	8
3	4
3	4
3	5
3	4
3	6
3	4
3	7
3	4
3	7
3	4
3	5
3	6
3	4
3	4
3	5
3	4
3	4
3	4
3	4
4	6
4	6
4	5
4	10
4	5
4	7
4	9
4	5
4	6
4	5
4	7
4	7
4	7
4	6
4	5
4	6
4	6
4	8
4	6
4	6
4	5
4	5
4	8
4	5
4	5
4	5
5	6
5	6
5	14
5	6
5	7
5	6
5	6
5	6
5	8
5	6
5	6
5	8
5	6
5	6
5	6
6	7
6	7
6	7
6	7
6	7
6	8
6	7
6	7
7	8
7	8
7	8
7	8
7	8
8	9
8	9
8	9
8	9
8	9
9	10
9	10
9	10
9	10
9	10
9	10
10	11
10	11
11	12
11	13
12	13
13	14
13	15
15	16
15	16
16	17
16	17
17	18
18	19
19	20
22	23
35	36
184	185
