1	6124
1	98
1	98
1	99
1	99
1	98
1	10
1	98
1	98
1	98
1	9
1	99
1	13
1	98
1	98
1	10
1	98
1	98
1	10
1	8
1	8
1	7
1	14
1	12
1	98
1	98
1	98
1	13
1	6124
1	98
1	98
1	98
1	9
1	98
1	99
1	98
1	9
1	99
1	14
1	14
1	8
1	12
1	7
1	10
1	98
1	98
1	6124
1	12
1	98
1	98
1	5
1	99
1	8
1	98
1	98
1	98
1	8
1	8
1	98
1	98
1	98
1	6
1	98
1	98
1	98
1	98
1	98
1	7
1	13
1	14
1	98
1	13
1	11
1	9
1	98
1	98
1	6124
1	98
1	99
1	98
1	98
1	12
1	10
1	98
1	98
1	98
1	98
1	6
1	7
1	7
1	7
1	98
1	98
1	98
1	10
1	98
1	7
1	7
1	98
1	98
1	3
1	8
1	6
1	11
1	7
1	98
1	8
1	11
1	8
1	13
1	7
1	5
1	98
1	98
1	15
1	98
1	4
1	14
1	8
1	98
1	7
1	8
1	98
1	5
1	98
1	98
1	99
1	98
1	6
1	6
1	2
1	98
1	98
2	7
2	7
2	7
2	3
2	99
2	3
2	3
2	5
2	5
2	8
2	3
2	6
2	4
2	3
2	5
2	8
2	9
2	4
2	7
2	7
2	5
2	3
2	3
2	3
2	4
2	3
2	4
2	3
2	7
2	5
2	5
2	3
2	3
2	3
2	3
2	5
2	4
2	3
2	4
2	5
2	4
2	8
2	3
2	5
2	4
2	4
2	3
2	6
3	5
3	5
3	5
3	6
3	6
3	4
3	4
3	7
3	4
3	4
3	4
3	7
3	4
3	4
3	4
3	6
3	5
3	4
3	4
3	4
3	4
3	4
3	4
4	5
4	5
4	5
4	5
4	6
5	7
5	7
5	7
5	6
5	6
5	6
5	6
5	6
6	7
6	9
6	7
6	7
7	9
7	8
7	8
10	11
10	11
12	13
97	98
