9	6124
10	6124
10	6124
10	6124
11	6124
11	6124
11	6124
11	6124
12	6124
12	6124
12	6124
12	6124
12	6124
13	6124
13	6124
13	6124
13	6124
13	6124
14	6124
14	6124
14	6124
15	6124
15	6124
15	6124
16	6124
16	6124
16	6124
16	6124
16	6124
16	6124
16	6124
16	6124
17	6124
17	6124
17	6124
17	6124
17	6124
18	6124
18	6124
18	6124
19	6124
19	6124
20	6124
20	6124
21	6124
21	6124
23	6124
23	6124
24	6124
24	6124
27	6124
27	6124
27	6124
28	6124
29	6124
29	6124
30	6124
30	6124
30	6124
30	6124
30	6124
30	6124
30	6124
30	6124
30	6124
30	6124
31	6124
31	6124
31	6124
31	6124
31	6124
31	6124
32	6124
32	6124
34	6124
34	6124
35	6124
36	6124
365	6124
365	6124
365	6124
365	6124
365	6124
365	6124
365	6124
365	6124
365	6124
365	6124
365	6124
365	6124
365	6124
366	6124
366	6124
366	6124
366	6124
366	6124
366	6124
366	6124
366	6124
366	6124
366	6124
366	6124
367	6124
367	6124
367	6124
367	6124
367	6124
368	6124
368	6124
368	6124
368	6124
368	6124
369	6124
369	6124
369	6124
369	6124
370	6124
371	6124
381	6124
388	6124
390	6124
