7	6124
8	6124
11	6124
11	6124
12	6124
12	6124
13	6124
13	6124
14	6124
14	6124
14	6124
15	6124
15	6124
16	6124
16	6124
16	6124
16	6124
17	6124
17	6124
17	6124
17	6124
17	6124
18	6124
18	6124
18	6124
19	6124
19	6124
19	6124
19	6124
19	6124
20	6124
20	6124
22	6124
25	6124
27	6124
27	6124
27	6124
27	6124
28	6124
28	6124
28	6124
28	6124
28	6124
28	6124
28	6124
29	6124
29	6124
29	6124
29	6124
30	6124
30	6124
31	6124
32	6124
32	6124
32	6124
33	6124
35	6124
37	6124
38	6124
38	6124
141	6124
141	6124
141	6124
141	6124
141	6124
141	6124
141	6124
141	6124
141	6124
141	6124
141	6124
141	6124
141	6124
141	6124
141	6124
141	6124
141	6124
141	6124
141	6124
142	6124
142	6124
142	6124
142	6124
142	6124
143	6124
143	6124
143	6124
143	6124
143	6124
143	6124
144	6124
144	6124
144	6124
147	6124
147	6124
148	6124
152	6124
153	6124
164	6124
164	6124
