1	6124
1	13
1	32
1	7
1	31
1	32
1	33
1	32
1	31
1	32
1	31
1	13
1	31
1	32
1	31
1	31
1	12
1	12
1	31
1	31
1	31
1	13
1	9
1	11
1	31
1	31
1	12
1	10
1	12
1	8
1	8
1	8
1	8
1	12
1	6
1	5
1	31
1	12
1	12
1	5
1	8
1	31
1	12
1	13
1	31
1	5
1	6
1	12
1	12
1	6
1	6
2	5
2	3
2	13
2	5
2	5
2	3
2	6
2	7
2	10
2	4
2	5
2	3
2	4
2	6
2	3
2	4
2	6
2	7
2	3
2	5
2	3
2	4
2	3
2	3
2	5
2	10
2	10
3	8
3	5
3	5
3	4
3	4
3	5
3	6
3	4
3	4
3	5
3	5
3	4
4	6
4	5
4	5
4	6
5	6
5	6
5	6
5	7
7	8
8	10
11	12
11	12
30	31
