6	6124
8	6124
9	6124
10	6124
10	6124
10	6124
11	6124
13	6124
13	6124
14	6124
14	6124
14	6124
14	6124
14	6124
14	6124
14	6124
14	6124
14	6124
15	6124
15	6124
15	6124
16	6124
16	6124
16	6124
16	6124
16	6124
17	6124
17	6124
17	6124
18	6124
18	6124
18	6124
19	6124
19	6124
20	6124
20	6124
21	6124
21	6124
22	6124
23	6124
23	6124
23	6124
23	6124
23	6124
23	6124
24	6124
24	6124
24	6124
24	6124
25	6124
25	6124
25	6124
25	6124
25	6124
25	6124
26	6124
26	6124
26	6124
26	6124
26	6124
26	6124
26	6124
26	6124
26	6124
26	6124
26	6124
27	6124
27	6124
27	6124
27	6124
27	6124
28	6124
28	6124
28	6124
28	6124
28	6124
28	6124
28	6124
29	6124
29	6124
30	6124
30	6124
30	6124
30	6124
30	6124
33	6124
33	6124
34	6124
35	6124
36	6124
265	6124
265	6124
265	6124
265	6124
265	6124
265	6124
265	6124
265	6124
265	6124
265	6124
265	6124
265	6124
265	6124
265	6124
265	6124
265	6124
265	6124
265	6124
265	6124
265	6124
265	6124
265	6124
265	6124
265	6124
265	6124
265	6124
265	6124
265	6124
265	6124
265	6124
265	6124
265	6124
265	6124
265	6124
265	6124
265	6124
265	6124
265	6124
265	6124
265	6124
265	6124
265	6124
265	6124
266	6124
266	6124
266	6124
266	6124
266	6124
266	6124
266	6124
266	6124
266	6124
266	6124
266	6124
266	6124
266	6124
266	6124
266	6124
266	6124
266	6124
267	6124
267	6124
267	6124
267	6124
267	6124
268	6124
268	6124
268	6124
268	6124
268	6124
268	6124
268	6124
268	6124
268	6124
268	6124
269	6124
269	6124
269	6124
269	6124
270	6124
270	6124
270	6124
270	6124
272	6124
272	6124
272	6124
274	6124
275	6124
277	6124
284	6124
286	6124
286	6124
