1	230
1	51
1	50
1	16
1	49
1	53
1	10
1	15
1	49
1	51
1	9
1	49
1	49
1	9
1	9
1	9
1	49
1	49
1	50
1	10
1	5
1	49
1	7
1	14
1	49
1	50
1	49
1	49
1	49
1	49
1	8
1	49
1	9
1	14
1	51
1	50
1	7
1	8
1	5
1	9
1	50
1	9
1	8
1	49
1	51
1	7
1	49
1	49
1	6
1	49
1	50
1	49
1	49
1	8
1	6
1	49
1	5
1	15
1	49
1	6
1	16
1	5
1	14
1	9
1	49
1	10
1	49
1	49
1	5
1	7
1	14
1	49
1	49
1	5
1	49
1	49
1	49
1	14
1	49
1	49
2	8
2	3
2	8
2	3
2	3
2	3
2	5
2	6
2	3
2	4
2	3
2	6
2	4
2	3
2	3
2	5
2	3
2	3
2	4
2	3
2	4
2	3
2	3
2	4
2	6
2	6
2	3
2	4
2	3
2	3
2	5
2	3
3	4
3	4
3	4
3	4
3	4
3	6
3	4
3	4
3	9
3	5
3	4
3	4
4	5
4	5
4	5
5	6
5	6
6	7
6	7
7	8
8	9
13	14
48	49
