1	6124
1	337
1	338
1	337
1	337
1	11
1	337
1	337
1	9
1	9
1	20
1	337
1	18
1	337
1	11
1	337
1	14
1	10
1	337
1	337
1	337
1	337
1	6
1	337
1	6124
1	337
1	337
1	337
1	337
1	337
1	17
1	337
1	338
1	337
1	337
1	338
1	337
1	17
1	337
1	14
1	17
1	337
1	337
1	337
1	337
1	12
1	337
1	337
1	15
1	337
1	337
1	337
1	337
1	337
1	337
1	10
1	10
1	19
1	337
1	337
1	5
1	337
1	338
1	337
1	11
1	337
1	337
1	337
1	337
1	337
1	337
1	337
1	17
1	337
1	13
1	337
1	337
1	337
1	337
1	338
1	6124
1	338
1	337
1	19
1	15
1	19
1	337
1	19
1	337
1	337
1	337
1	15
1	337
1	337
1	8
1	337
1	12
1	337
1	337
1	8
1	19
1	337
1	9
1	337
1	337
1	337
1	8
1	337
1	337
1	337
1	337
1	15
1	13
1	9
1	337
1	337
1	337
1	13
1	337
1	6124
1	7
1	337
1	337
1	14
1	11
1	337
1	17
1	339
1	337
1	337
1	9
1	337
1	337
1	337
1	11
1	337
1	337
1	337
1	6124
1	337
1	337
1	14
1	13
1	337
1	337
1	15
1	9
1	337
1	337
1	19
1	337
1	337
1	337
1	337
1	338
1	337
1	12
1	2
1	337
1	15
1	14
1	337
1	337
1	337
1	337
1	7
1	337
1	19
1	6124
1	337
1	7
1	13
1	4
1	11
1	5
1	9
1	337
1	337
1	337
1	337
1	6124
1	19
1	337
1	2
1	13
1	337
1	337
1	14
1	339
1	337
1	337
1	337
1	16
1	5
1	11
1	337
1	337
1	12
1	337
1	14
1	337
1	11
1	337
1	7
1	337
1	9
1	337
1	2
1	337
1	5
1	337
1	8
1	337
1	11
1	338
1	7
1	337
1	11
1	337
1	9
1	337
1	13
1	337
1	13
1	4
1	337
1	337
1	337
1	8
1	337
1	337
1	337
1	337
1	337
1	337
1	337
1	337
1	337
1	19
1	18
1	11
1	337
1	337
1	337
1	337
1	337
1	337
1	338
1	337
1	337
1	337
1	5
1	7
1	337
1	337
1	338
1	337
1	7
1	337
1	12
1	12
1	337
1	337
1	12
1	337
1	14
1	337
1	337
1	337
1	337
1	337
1	4
1	9
1	5
1	337
1	337
1	337
1	337
1	9
1	7
1	337
1	337
1	17
1	337
1	337
1	337
1	13
1	338
1	9
1	337
1	7
1	337
1	5
1	337
1	337
1	337
1	12
1	337
1	11
1	9
1	337
1	337
1	7
1	13
1	337
1	10
1	14
1	11
1	337
1	5
1	337
1	337
1	8
1	337
1	337
1	337
1	337
1	337
1	337
1	16
1	3
1	337
1	337
1	338
1	337
1	7
1	337
1	337
1	14
1	337
1	337
1	4
1	14
1	337
1	11
1	337
1	337
1	337
1	11
1	337
1	337
1	337
1	12
1	337
1	7
1	337
1	338
1	337
1	7
1	337
1	337
1	337
1	337
1	338
1	338
1	337
1	18
1	7
1	337
1	337
1	337
1	337
1	337
1	337
1	337
1	337
1	14
1	337
1	338
1	337
1	337
1	337
1	5
1	337
1	337
1	17
1	337
1	337
1	10
1	2
1	11
1	337
1	337
1	19
1	337
1	16
1	337
1	337
1	337
1	337
1	337
1	11
1	11
1	337
1	337
1	13
1	337
1	19
1	337
1	11
1	17
1	338
1	14
1	337
1	337
1	19
1	12
1	5
1	7
1	337
1	5
1	337
1	9
1	337
1	337
1	337
1	337
1	337
1	337
1	337
1	338
1	337
1	12
1	12
1	337
1	11
1	337
1	12
1	337
1	14
1	337
1	337
1	337
1	338
1	3
1	337
1	337
2	13
2	3
2	5
2	9
2	15
2	3
2	338
2	9
2	338
2	4
2	12
2	3
2	338
2	3
2	9
2	8
2	3
2	3
2	338
2	3
2	338
2	7
2	4
2	4
2	3
2	3
2	3
2	3
2	13
2	10
2	7
2	9
2	4
2	5
2	3
2	4
2	3
2	7
2	4
2	4
2	18
2	6
2	6
2	3
2	6
2	4
2	7
2	3
2	3
2	3
2	3
2	4
2	18
2	3
2	4
2	3
2	6
2	4
2	3
2	3
2	7
2	4
2	3
2	7
2	3
2	8
2	4
2	3
2	6
2	3
2	3
2	4
2	10
2	5
2	3
2	6
2	3
2	3
2	7
2	3
2	3
2	338
2	3
2	3
2	20
2	5
2	4
2	338
2	6
2	3
2	4
2	3
2	4
2	4
2	12
2	7
2	3
2	4
2	4
2	4
2	4
2	3
2	3
2	3
2	3
2	15
2	9
2	5
2	5
2	7
3	6
3	6
3	5
3	4
3	6
3	4
3	4
3	4
3	4
3	4
3	4
3	5
3	5
3	4
3	4
3	4
3	4
3	4
3	5
3	10
3	4
3	4
3	4
3	4
3	5
3	6
3	4
3	4
3	5
3	4
3	5
4	5
4	7
4	5
4	5
4	5
4	5
4	6
4	6
4	5
4	5
4	6
4	5
4	6
4	5
4	5
4	5
5	6
5	6
5	7
5	7
5	7
5	7
5	6
5	6
6	7
6	7
7	8
7	9
7	8
7	8
7	8
8	9
8	9
10	11
10	11
10	11
10	11
10	11
11	12
12	13
13	14
13	14
16	17
18	19
336	337
