1	6124
1	225
1	225
1	226
1	225
1	225
1	225
1	27
1	24
1	225
1	225
1	225
1	225
1	225
1	226
1	225
1	13
1	225
1	225
1	20
1	225
1	24
1	225
1	225
1	225
1	225
1	225
1	23
1	225
1	24
1	228
1	11
1	225
1	8
1	13
1	225
1	225
1	225
1	225
1	225
1	225
1	225
1	23
1	11
1	7
1	11
1	14
1	12
1	225
1	23
1	225
1	225
1	225
1	225
1	225
1	10
1	225
1	225
1	225
1	225
1	225
1	225
1	225
1	25
1	28
1	225
1	226
1	9
1	225
1	225
1	9
1	226
1	23
1	225
1	10
1	10
1	225
1	12
1	225
1	15
1	23
1	225
1	19
1	225
1	23
1	225
1	11
1	225
1	7
1	225
1	23
1	225
1	5
1	225
1	225
1	225
1	12
1	225
1	5
1	225
1	225
1	225
1	225
1	225
1	23
1	9
1	225
1	7
1	225
1	225
1	225
1	225
1	24
1	225
1	225
1	23
1	226
1	225
1	225
1	23
1	19
1	225
1	6
1	225
1	25
1	23
1	6
1	225
1	22
1	225
1	225
1	7
1	225
1	225
1	225
1	225
1	225
1	226
1	225
1	225
1	225
1	225
1	6
1	225
1	23
1	225
1	225
1	10
1	14
1	5
1	6
1	23
1	225
1	225
1	225
1	225
1	225
1	225
1	9
1	225
1	225
1	225
1	225
1	5
1	225
1	225
1	9
1	225
1	225
1	225
1	4
1	14
1	19
1	225
1	14
1	8
1	225
1	225
1	19
1	225
1	14
1	23
1	225
1	8
1	225
1	225
1	225
1	225
1	227
1	225
1	23
1	225
1	23
1	225
1	7
1	23
1	225
1	21
1	225
1	225
1	225
1	225
1	225
1	225
1	225
1	9
1	7
1	225
1	7
1	23
1	225
1	225
1	23
1	19
1	225
1	225
1	23
1	225
1	225
1	225
1	6
1	225
1	225
1	19
1	225
1	225
1	225
1	225
1	225
1	225
1	6
1	14
1	225
1	9
1	11
1	225
1	225
1	225
1	225
1	225
1	9
1	9
1	225
1	225
1	225
1	225
1	225
1	225
1	14
1	6
1	225
1	24
1	225
1	9
1	225
1	23
1	5
1	7
1	225
1	225
1	7
1	225
1	225
1	23
1	14
1	225
1	225
1	225
1	225
1	225
1	225
1	225
1	225
1	225
1	23
1	225
1	225
1	225
1	225
1	19
1	225
1	225
1	225
1	225
1	225
1	225
1	225
1	225
1	225
1	9
1	225
1	6
1	4
1	225
1	4
1	225
2	226
2	3
2	14
2	3
2	9
2	14
2	4
2	3
2	14
2	7
2	14
2	6
2	9
2	5
2	4
2	3
2	10
2	5
2	226
2	9
2	226
2	4
2	3
2	5
2	10
2	14
2	6
2	3
2	6
2	4
2	10
2	20
2	4
2	4
2	10
2	10
2	10
2	7
2	3
2	5
2	4
2	3
2	3
2	3
2	5
2	20
2	3
2	10
2	3
2	4
2	10
2	3
2	9
2	4
2	14
2	10
2	3
2	4
2	10
2	5
2	4
3	5
3	4
3	5
3	4
3	4
3	4
3	4
3	4
3	4
3	6
3	11
3	7
3	4
3	5
3	4
3	6
3	4
3	4
4	6
4	5
4	6
4	5
4	6
4	5
4	5
4	5
4	5
4	5
4	8
5	6
5	6
5	7
5	6
5	6
5	6
6	7
6	7
7	8
7	8
7	8
8	9
8	9
8	9
8	9
8	9
12	14
13	14
18	19
22	23
22	23
224	225
