1	230
1	62
1	62
1	61
1	12
1	230
1	61
1	61
1	62
1	61
1	61
1	230
1	12
1	61
1	9
1	61
1	61
1	15
1	10
1	61
1	11
1	13
1	61
1	9
1	61
1	9
1	62
1	8
1	63
1	63
1	4
1	61
1	61
1	63
1	61
1	7
1	10
1	61
1	61
1	61
1	62
1	7
1	61
1	61
1	11
1	6
1	7
1	61
1	61
1	61
1	12
1	61
1	5
1	61
1	61
1	7
1	9
1	61
1	7
1	12
1	5
1	9
1	9
1	61
1	61
1	6
1	61
1	61
1	62
1	9
1	2
1	7
1	5
1	4
1	3
1	8
1	61
1	61
1	61
1	62
1	5
1	61
1	6
1	61
1	61
1	8
2	3
2	5
2	3
2	10
2	3
2	10
2	3
2	10
2	6
2	4
2	3
2	3
2	3
2	4
2	3
2	5
2	3
2	3
2	6
2	3
2	6
2	5
2	11
2	6
2	5
3	4
3	5
3	4
3	7
3	5
3	4
3	4
3	5
3	5
3	4
3	5
3	6
3	4
4	5
4	5
4	5
4	5
4	5
4	5
4	7
5	8
6	7
6	7
7	8
8	9
8	9
9	10
60	61
