1	6124
1	232
1	232
1	233
1	232
1	232
1	10
1	232
1	25
1	232
1	12
1	232
1	12
1	232
1	232
1	232
1	232
1	232
1	232
1	232
1	11
1	233
1	19
1	232
1	14
1	232
1	11
1	232
1	232
1	232
1	7
1	232
1	232
1	233
1	232
1	232
1	232
1	6
1	19
1	14
1	232
1	232
1	232
1	232
1	232
1	233
1	6
1	13
1	232
1	232
1	232
1	232
1	232
1	232
1	232
1	232
1	232
1	24
1	232
1	232
1	232
1	232
1	14
1	232
1	232
1	18
1	232
1	232
1	23
1	233
1	232
1	232
1	232
1	9
1	232
1	10
1	10
1	232
1	232
1	232
1	232
1	7
1	232
1	9
1	232
1	232
1	232
1	232
1	232
1	232
1	232
1	11
1	18
1	7
1	232
1	233
1	232
1	7
1	232
1	232
1	9
1	9
1	232
1	232
1	18
1	10
1	232
1	10
1	232
1	232
1	232
1	232
1	232
1	232
1	19
1	232
1	11
1	233
1	232
1	8
1	232
1	232
1	10
1	232
1	232
1	233
1	233
1	7
1	232
1	232
1	19
1	232
1	233
1	9
1	232
1	232
1	232
1	232
1	18
1	9
1	18
1	232
1	232
1	16
1	232
1	10
1	233
1	4
1	18
1	9
1	232
1	6
1	232
1	10
1	232
1	232
1	232
1	232
1	232
1	9
1	232
1	5
1	232
1	232
1	232
1	232
1	232
1	8
1	10
1	6
1	9
1	232
1	4
1	232
1	232
1	233
1	6124
1	232
1	232
1	232
1	232
1	9
1	232
1	9
1	232
1	232
1	232
1	232
1	9
1	10
1	232
1	18
1	232
1	232
1	232
1	232
1	10
1	232
1	10
1	18
1	23
1	7
1	232
1	9
1	9
1	232
1	232
1	232
1	6
1	6
1	23
1	232
1	10
1	9
1	232
1	232
1	232
1	232
1	5
1	5
1	7
1	232
1	232
1	232
1	233
1	4
1	232
1	9
1	232
1	232
1	6
1	232
1	8
1	232
1	19
1	233
1	232
1	6
1	232
1	232
1	232
1	232
1	232
1	14
1	232
1	232
1	23
1	232
1	232
1	232
1	232
1	232
1	232
1	232
1	232
1	233
1	232
1	18
2	7
2	13
2	13
2	6
2	13
2	9
2	3
2	5
2	8
2	6
2	8
2	5
2	4
2	5
2	8
2	6
2	11
2	8
2	3
2	10
2	13
2	3
2	3
2	9
2	7
2	25
2	3
2	24
2	6
2	4
2	3
2	3
2	3
2	3
2	5
2	18
2	3
2	24
2	5
2	13
2	3
2	3
2	5
2	3
2	7
2	6
2	18
2	11
2	3
2	6
2	4
2	4
2	5
2	10
2	9
2	10
2	4
2	3
2	3
2	3
2	3
2	10
2	4
2	18
2	20
2	4
2	6
2	6
2	3
2	6
2	3
2	6
2	5
2	3
2	5
2	3
2	6
2	5
2	4
2	10
2	3
3	5
3	9
3	6
3	4
3	5
3	4
3	8
3	14
3	4
3	4
3	7
3	4
3	4
3	5
3	5
3	4
3	7
3	4
3	5
3	4
3	5
3	5
3	4
3	7
3	4
3	4
3	7
3	4
3	4
3	8
3	6
4	6
4	5
4	5
4	5
4	6
4	6
4	5
4	6
4	5
4	6
4	6
4	5
4	5
4	5
4	5
4	5
4	5
4	5
5	6
5	7
5	7
5	6
5	6
5	10
5	8
5	6
5	6
6	8
6	7
6	7
6	7
6	8
7	10
7	9
7	8
8	10
8	9
8	9
8	9
8	9
8	9
9	10
11	12
11	12
16	18
17	18
22	23
231	232
