6	6124
9	6124
10	6124
10	6124
11	6124
11	6124
12	6124
12	6124
13	6124
13	6124
13	6124
14	6124
14	6124
14	6124
14	6124
14	6124
14	6124
15	6124
15	6124
15	6124
15	6124
15	6124
15	6124
15	6124
15	6124
15	6124
15	6124
16	6124
16	6124
16	6124
16	6124
16	6124
16	6124
16	6124
17	6124
17	6124
17	6124
17	6124
17	6124
17	6124
17	6124
18	6124
18	6124
18	6124
18	6124
18	6124
19	6124
19	6124
20	6124
21	6124
22	6124
22	6124
23	6124
24	6124
24	6124
26	6124
26	6124
29	6124
32	6124
33	6124
566	6124
566	6124
566	6124
566	6124
566	6124
566	6124
566	6124
566	6124
566	6124
566	6124
566	6124
566	6124
566	6124
566	6124
566	6124
566	6124
566	6124
566	6124
566	6124
566	6124
566	6124
566	6124
566	6124
566	6124
566	6124
567	6124
567	6124
567	6124
567	6124
567	6124
567	6124
567	6124
567	6124
567	6124
567	6124
568	6124
568	6124
568	6124
568	6124
568	6124
568	6124
568	6124
569	6124
571	6124
571	6124
574	6124
574	6124
575	6124
576	6124
582	6124
