1	6124
1	83
1	15
1	23
1	8
1	13
1	82
1	11
1	82
1	23
1	82
1	82
1	82
1	83
1	84
1	82
1	11
1	82
1	82
1	9
1	82
1	82
1	82
1	10
1	82
1	82
1	82
1	82
1	82
1	83
1	22
1	10
1	9
1	10
1	6124
1	82
1	82
1	82
1	82
1	82
1	9
1	9
1	82
1	82
1	9
1	82
1	2
1	24
1	82
1	82
1	22
1	22
1	10
1	84
1	4
1	11
1	82
1	82
1	22
1	6124
1	13
1	82
1	10
1	83
1	5
1	82
1	82
1	83
1	82
1	9
1	22
1	22
1	7
1	2
1	82
1	22
1	82
1	82
1	11
1	82
1	82
1	11
1	82
1	82
1	10
1	84
1	83
1	11
1	83
1	9
1	8
1	10
1	82
1	82
1	10
1	82
1	10
1	8
1	82
1	82
1	9
1	8
1	8
1	9
1	8
1	10
1	82
1	82
1	8
1	82
1	22
1	10
1	4
1	8
1	5
1	7
1	6
1	10
2	9
2	3
2	5
2	3
2	3
2	4
2	4
2	8
2	6
2	3
2	7
2	3
2	9
2	8
2	8
2	4
2	4
2	3
2	7
2	3
2	7
2	7
2	3
2	6
2	8
2	8
2	4
2	5
2	5
2	3
2	8
2	9
2	6
2	7
2	4
2	3
2	10
2	5
2	9
2	3
2	4
2	3
2	3
2	4
2	3
2	4
2	10
2	4
2	5
2	8
2	3
3	5
3	4
3	6
3	5
3	5
3	4
3	5
3	4
3	4
3	4
3	4
3	4
3	4
3	5
3	4
3	4
3	4
3	5
3	4
3	5
4	6
4	6
5	7
5	6
5	6
5	6
6	7
6	8
7	8
7	8
7	9
7	8
8	9
8	9
9	10
9	10
21	22
81	82
