1	6124
1	91
1	90
1	90
1	17
1	90
1	90
1	16
1	90
1	91
1	90
1	90
1	90
1	90
1	21
1	90
1	9
1	90
1	90
1	90
1	91
1	90
1	15
1	10
1	11
1	90
1	15
1	90
1	90
1	15
1	11
1	9
1	15
1	90
1	90
1	90
1	90
1	10
1	90
1	91
1	90
1	7
1	9
1	90
1	8
1	90
1	11
1	90
1	90
1	90
1	15
1	90
1	90
1	10
1	7
1	90
1	90
1	90
1	8
1	9
1	7
1	7
1	90
1	90
1	90
1	10
1	10
1	9
1	8
1	90
1	90
1	90
1	90
1	10
1	6
1	90
1	90
1	90
1	6
1	90
1	10
1	90
1	90
1	90
1	90
1	8
1	90
1	90
1	90
1	91
1	90
1	4
1	7
1	90
1	8
1	8
1	5
1	90
1	8
1	7
1	8
1	90
1	8
1	90
1	90
1	4
1	90
1	90
1	90
1	7
1	15
1	6
1	90
2	8
2	8
2	5
2	9
2	6
2	3
2	5
2	5
2	3
2	4
2	5
2	3
2	8
2	3
2	8
2	4
2	7
2	7
2	5
2	4
2	5
2	4
2	3
2	7
2	4
2	3
2	3
2	91
2	3
2	5
2	6
2	3
2	8
2	4
2	6
2	5
2	4
2	8
2	6
2	7
2	4
2	4
2	4
2	4
2	6
2	4
2	3
2	3
3	4
3	4
3	4
3	4
3	6
3	7
3	4
3	5
3	4
3	5
3	4
3	4
3	4
3	4
3	8
4	6
4	6
4	6
5	6
5	7
5	6
5	6
5	7
5	7
5	6
5	6
6	7
6	7
6	7
6	8
6	7
6	8
7	8
7	8
9	10
14	15
89	90
