1	6124
1	21
1	54
1	53
1	16
1	28
1	53
1	17
1	20
1	6124
1	13
1	53
1	53
1	23
1	15
1	42
1	42
1	12
1	15
1	14
1	20
1	53
1	9
1	53
1	20
1	14
1	22
1	20
1	20
1	42
1	53
1	53
1	14
1	41
1	14
1	23
1	53
1	14
1	3
1	12
1	15
1	41
1	23
1	7
1	12
1	11
1	53
1	15
1	9
1	6
1	43
1	53
1	14
1	14
1	53
1	15
1	6
1	53
1	53
1	8
1	8
1	53
1	14
1	53
1	41
1	54
1	53
1	41
1	22
1	53
1	20
1	53
1	20
1	14
1	14
1	53
1	53
1	11
1	55
1	11
1	22
1	22
1	53
1	8
1	20
1	41
1	53
1	4
1	22
1	6
1	53
1	7
1	8
1	41
1	41
1	53
1	14
1	11
1	41
1	8
1	11
1	53
1	41
1	41
1	41
1	53
1	42
1	6
1	53
1	5
1	14
1	53
1	8
1	8
1	7
1	8
1	7
1	54
1	53
1	41
1	41
1	53
1	8
1	53
1	53
1	7
1	14
1	14
1	6
1	42
1	20
1	14
1	7
1	21
1	22
1	6
1	41
1	41
1	41
1	24
1	22
1	54
1	53
1	7
1	8
1	4
1	7
1	20
1	53
1	41
1	53
2	21
2	3
2	7
2	3
2	23
2	23
2	3
2	21
2	7
2	4
2	15
2	3
2	3
2	6
2	3
2	3
2	5
2	9
2	4
2	4
2	7
2	6
2	5
2	4
2	9
2	6
2	3
2	4
2	3
2	3
2	7
2	5
2	3
2	4
2	3
2	4
2	3
2	3
2	4
2	7
2	4
2	3
2	4
2	3
2	3
2	3
2	9
2	4
2	4
2	6
2	23
2	9
2	3
2	3
3	4
3	4
3	4
3	4
3	4
3	4
3	5
3	5
3	5
3	5
3	4
3	7
3	4
3	4
3	4
3	4
4	6
4	6
4	6
4	5
4	6
5	6
5	6
5	6
5	6
5	6
6	7
6	7
6	7
7	8
7	8
10	11
13	14
13	14
19	20
21	22
40	41
52	53
