1	6124
1	20
1	13
1	160
1	6124
1	159
1	159
1	159
1	159
1	161
1	160
1	159
1	159
1	159
1	13
1	160
1	10
1	159
1	159
1	6
1	19
1	159
1	161
1	159
1	6124
1	163
1	7
1	18
1	2
1	159
1	159
1	159
1	159
1	159
1	159
1	159
1	159
1	9
1	160
1	159
1	159
1	18
1	159
1	159
1	159
1	159
1	14
1	159
1	159
1	159
1	159
1	159
1	159
1	159
1	8
1	159
1	159
1	159
1	159
1	159
1	159
1	160
1	159
1	159
1	160
1	5
1	159
1	18
1	18
1	159
1	7
1	159
1	160
1	159
1	159
1	159
1	8
1	6124
1	159
1	159
1	159
1	159
1	7
1	6
1	159
1	159
1	7
1	159
1	159
1	160
1	159
1	159
1	159
1	159
1	159
1	159
1	160
1	159
1	159
1	160
1	4
1	159
1	159
1	159
1	159
1	159
1	159
1	18
1	159
1	159
1	10
1	159
1	18
1	159
1	159
1	159
1	159
1	159
1	159
1	6
1	18
1	6124
1	159
1	159
1	6
1	159
1	159
1	160
1	160
1	159
1	159
1	159
1	6
1	159
1	2
1	6
1	159
1	159
1	159
1	159
1	159
1	6
1	18
1	159
1	159
1	159
1	159
1	159
1	159
1	2
1	7
1	159
1	159
1	159
1	159
1	18
1	159
1	159
1	159
1	10
1	159
1	7
1	159
1	159
1	7
1	159
1	159
1	159
1	159
1	160
1	159
1	160
1	159
1	160
1	160
1	18
1	5
1	10
1	18
1	160
1	10
1	159
1	159
1	159
1	159
1	5
1	3
1	159
1	159
1	6
1	8
1	159
1	159
1	159
2	8
2	3
2	6
2	8
2	6
2	6
2	3
2	5
2	6
2	160
2	3
2	3
2	3
2	3
2	3
2	5
2	5
2	5
2	3
2	3
2	6
2	6
2	4
2	11
2	8
2	6
2	3
2	3
2	7
2	3
2	3
2	4
2	5
2	4
2	4
2	4
2	8
2	4
2	6
2	4
2	6
2	6
2	3
2	4
2	5
2	4
2	4
2	4
2	3
2	6
2	3
2	5
2	3
2	3
3	7
3	4
3	4
3	4
3	5
3	5
3	4
3	4
3	5
3	5
3	5
3	4
3	4
3	4
4	6
4	5
4	6
4	5
4	5
4	5
4	6
4	6
4	6
5	6
5	6
5	6
5	6
5	6
5	6
6	7
6	7
9	10
17	18
158	159
