1	6124
1	10
1	98
1	97
1	97
1	97
1	97
1	98
1	97
1	97
1	97
1	15
1	97
1	97
1	8
1	97
1	97
1	5
1	8
1	97
1	13
1	99
1	97
1	12
1	97
1	9
1	12
1	98
1	11
1	6
1	12
1	11
1	7
1	97
1	97
1	11
1	98
1	13
1	10
1	10
1	98
1	10
1	97
1	97
1	97
1	97
1	11
1	97
1	98
1	10
1	97
1	11
1	97
1	9
1	97
1	97
1	97
1	6
1	6
1	8
1	97
1	97
1	9
1	9
1	98
1	97
1	6124
1	97
1	97
1	7
1	97
1	97
1	98
1	7
1	97
1	10
1	97
1	9
1	7
1	5
1	2
1	98
1	97
1	7
1	97
1	97
1	12
1	9
1	5
1	6
1	9
1	4
1	12
1	5
1	8
1	97
1	10
1	97
1	7
1	9
1	97
1	97
1	97
1	97
1	97
1	10
1	4
1	97
1	5
1	5
1	98
1	7
1	5
1	97
1	97
1	11
1	5
1	9
1	97
1	7
1	4
1	98
1	97
1	97
1	11
1	97
1	7
2	8
2	3
2	7
2	3
2	12
2	12
2	4
2	5
2	3
2	4
2	3
2	3
2	7
2	6
2	5
2	6
2	3
2	8
2	5
2	6
2	3
2	3
2	4
2	9
2	10
2	3
2	8
2	4
2	5
2	4
2	7
2	5
2	3
2	3
2	3
2	5
2	4
2	3
2	6
2	3
2	4
2	6
2	10
2	7
2	3
2	4
2	9
2	6
2	3
2	5
2	4
2	5
2	3
2	5
2	6
2	4
3	4
3	4
3	5
3	4
3	6
3	4
3	4
3	5
3	5
3	8
3	5
3	7
3	4
3	5
3	4
3	4
3	4
3	4
3	4
3	4
3	5
3	5
3	4
3	5
3	6
3	4
3	7
4	8
4	5
4	5
4	5
4	5
4	5
4	5
4	6
4	5
4	5
4	5
4	7
4	6
5	6
5	6
5	6
6	7
6	7
7	9
8	9
8	9
8	9
10	11
10	11
96	97
