8	230
9	230
10	230
10	230
11	230
12	230
12	230
13	230
13	230
14	230
14	230
14	230
17	230
17	230
18	230
20	230
21	230
37	230
38	230
38	230
38	230
38	230
39	230
39	230
40	230
40	230
40	230
43	230
50	230
