8	6124
9	6124
9	6124
13	6124
13	6124
14	6124
14	6124
14	6124
15	6124
15	6124
15	6124
15	6124
16	6124
16	6124
18	6124
57	6124
57	6124
57	6124
57	6124
57	6124
58	6124
58	6124
58	6124
58	6124
59	6124
59	6124
59	6124
61	6124
61	6124
62	6124
66	6124
