1	6124
1	224
1	223
1	223
1	223
1	223
1	223
1	223
1	223
1	223
1	22
1	14
1	12
1	223
1	223
1	223
1	223
1	223
1	223
1	223
1	223
1	223
1	223
1	223
1	223
1	223
1	223
1	223
1	12
1	223
1	225
1	223
1	223
1	11
1	223
1	223
1	223
1	223
1	224
1	223
1	224
1	13
1	223
1	223
1	8
1	223
1	223
1	223
1	223
1	9
1	4
1	223
1	12
1	223
1	223
1	9
1	223
1	7
1	224
1	15
1	8
1	12
1	13
1	17
1	10
1	223
1	223
1	18
1	223
1	224
1	9
1	223
1	16
1	223
1	223
1	8
1	223
1	223
1	223
1	223
1	223
1	223
1	8
1	223
1	224
1	223
1	223
1	17
1	9
1	9
1	225
1	223
1	11
1	223
1	223
1	223
1	13
1	6
1	7
1	223
1	223
1	8
1	10
1	223
1	223
1	9
1	223
1	223
1	223
1	223
1	223
1	223
1	223
1	16
1	223
1	223
1	223
1	223
1	223
1	223
1	12
1	10
1	17
1	223
1	223
1	223
1	223
1	223
1	5
1	223
1	8
1	223
1	224
1	223
1	223
1	223
1	223
1	12
1	5
1	224
1	223
1	223
1	224
1	223
1	223
1	223
1	4
1	16
1	10
1	223
1	5
1	10
1	223
1	223
1	223
1	9
1	10
1	16
1	223
1	223
1	223
1	224
1	6
1	11
1	223
1	223
1	5
1	223
1	223
1	7
1	223
1	223
1	12
1	18
1	223
1	223
1	223
1	223
1	11
1	224
1	223
1	223
1	223
1	10
1	223
1	223
1	223
1	223
1	223
1	224
1	223
1	12
1	223
1	7
1	223
1	223
1	223
1	16
1	18
1	223
1	11
1	8
1	224
1	223
1	223
1	10
1	9
1	223
1	9
1	223
1	223
1	9
1	11
1	7
1	10
1	223
1	223
1	223
1	10
1	223
1	223
1	12
1	223
1	223
1	9
1	17
1	223
1	224
1	223
1	7
1	223
1	16
1	223
1	223
1	223
1	223
1	9
1	12
1	223
1	223
1	223
1	17
1	7
1	7
1	223
1	223
1	223
1	223
1	223
1	10
1	223
1	223
1	223
1	224
1	223
1	223
1	223
1	223
1	17
1	11
1	223
1	7
1	5
1	223
1	223
1	223
1	223
1	17
1	17
1	9
1	224
1	8
1	17
1	11
1	223
1	223
1	6
1	9
1	224
1	223
1	223
1	223
1	7
2	6
2	7
2	3
2	3
2	13
2	3
2	3
2	9
2	3
2	224
2	3
2	3
2	3
2	3
2	3
2	5
2	6
2	10
2	8
2	5
2	9
2	7
2	3
2	224
2	10
2	7
2	5
2	6
2	4
2	3
2	3
2	11
2	5
2	3
2	3
2	5
2	3
2	9
2	7
2	9
2	10
2	4
2	5
2	6
2	9
2	6
2	5
2	4
2	3
2	4
2	8
2	8
2	4
2	5
2	6
2	3
2	4
2	4
2	3
2	3
2	4
2	5
2	3
2	4
2	4
2	5
2	3
2	4
3	5
3	6
3	5
3	6
3	4
3	5
3	4
3	7
3	4
3	5
3	7
3	6
3	5
3	5
3	4
3	7
3	6
3	5
3	4
3	6
3	4
3	6
3	4
3	5
3	4
3	5
3	4
4	5
4	7
4	6
4	5
4	5
4	5
4	5
4	5
4	6
4	6
4	6
4	5
5	7
5	6
6	7
6	7
6	7
6	7
6	7
7	9
7	8
7	8
7	8
8	9
8	9
8	9
9	10
9	10
10	11
11	12
15	16
16	17
222	223
