1	6124
1	18
1	17
1	133
1	132
1	16
1	16
1	18
1	12
1	133
1	14
1	132
1	18
1	132
1	9
1	10
1	7
1	16
1	132
1	7
1	132
1	11
1	132
1	18
1	16
1	132
1	16
1	10
1	132
1	10
1	132
1	10
1	17
1	15
1	132
1	15
1	16
1	132
1	132
1	14
1	132
1	18
1	132
1	132
1	132
1	15
1	17
1	132
1	132
1	14
1	132
1	132
1	21
1	132
1	11
1	17
1	10
1	16
1	15
1	12
1	16
1	9
1	132
1	132
1	18
1	9
1	132
1	14
1	132
1	11
1	132
1	7
1	17
1	10
1	6
1	132
1	9
1	133
1	132
1	7
1	10
1	132
1	7
1	18
1	132
1	9
1	132
1	8
1	6
1	132
1	132
1	14
1	132
1	7
1	132
1	10
1	14
1	13
1	7
1	14
1	12
1	19
1	17
1	132
1	132
1	16
1	9
1	10
1	133
1	7
1	17
1	132
1	132
1	8
1	132
1	132
1	17
1	8
1	132
1	132
1	132
1	16
1	17
1	18
1	8
1	8
1	132
1	10
1	132
1	10
1	17
1	16
1	132
1	132
1	14
1	132
1	8
1	132
1	132
1	132
1	7
1	18
1	8
1	132
1	132
1	11
1	7
1	132
1	132
1	132
1	6
1	132
1	132
1	12
1	132
1	132
1	14
1	6
1	132
1	132
1	17
1	10
1	6
1	132
1	8
1	11
1	132
1	132
1	16
1	11
1	7
1	9
1	9
1	132
1	132
1	132
1	11
1	17
1	17
1	4
1	7
1	8
1	132
1	132
1	132
1	7
1	8
1	6
1	6
1	132
1	9
1	16
1	8
1	15
1	6
1	132
1	7
1	132
1	17
1	10
1	132
1	132
1	17
1	132
1	132
1	6
1	132
1	7
1	132
1	17
1	132
2	19
2	133
2	17
2	4
2	11
2	6
2	11
2	7
2	3
2	5
2	7
2	4
2	6
2	6
2	10
2	7
2	3
2	8
2	17
2	9
2	10
2	4
2	5
2	14
2	5
2	6
2	6
2	3
2	5
2	9
2	6
2	4
2	10
2	4
2	6
2	4
2	11
2	4
2	4
2	3
2	7
2	3
2	4
2	9
2	3
2	3
2	7
2	3
2	7
2	3
2	16
2	16
2	3
2	4
2	14
2	18
2	5
2	7
2	4
2	10
2	7
2	14
2	3
2	4
2	4
3	4
3	6
3	5
3	6
3	4
3	4
3	5
3	4
3	5
3	4
3	4
3	4
3	5
3	6
3	4
3	4
3	5
3	4
3	4
3	4
3	6
3	4
3	4
3	4
3	4
3	6
3	5
4	5
4	5
4	6
4	5
4	5
4	6
4	6
4	5
4	5
4	6
4	5
5	6
5	6
5	6
5	6
5	6
5	6
5	7
5	6
5	7
6	7
6	7
6	7
6	7
6	7
7	8
7	8
7	8
8	9
8	9
8	9
8	9
9	10
9	10
12	14
13	14
14	16
15	16
15	16
16	17
16	17
131	132
