9	6124
10	6124
11	6124
13	6124
15	6124
15	6124
15	6124
16	6124
16	6124
19	6124
20	6124
21	6124
22	6124
22	6124
23	6124
24	6124
24	6124
24	6124
25	6124
25	6124
25	6124
25	6124
25	6124
25	6124
29	6124
33	6124
198	6124
198	6124
198	6124
198	6124
198	6124
198	6124
198	6124
198	6124
198	6124
198	6124
198	6124
198	6124
198	6124
198	6124
198	6124
198	6124
199	6124
199	6124
199	6124
200	6124
200	6124
201	6124
201	6124
201	6124
202	6124
202	6124
204	6124
207	6124
217	6124
