1	6124
1	248
1	248
1	249
1	26
1	248
1	33
1	248
1	248
1	248
1	13
1	11
1	32
1	11
1	12
1	248
1	251
1	248
1	248
1	10
1	248
1	13
1	32
1	32
1	248
1	248
1	32
1	248
1	25
1	248
1	12
1	248
1	248
1	16
1	6
1	25
1	248
1	248
1	248
1	248
1	21
1	248
1	248
1	248
1	248
1	249
1	248
1	248
1	248
1	248
1	248
1	32
1	248
1	248
1	6
1	248
1	248
1	248
1	11
1	248
1	12
1	32
1	248
1	248
1	248
1	10
1	248
1	9
1	248
1	32
1	248
1	10
1	248
1	11
1	248
1	14
1	248
1	13
1	248
1	9
1	248
1	248
1	10
1	25
1	248
1	248
1	32
1	248
1	8
1	248
1	33
1	24
1	9
1	248
1	12
1	9
1	7
1	11
1	25
1	11
1	248
1	248
1	25
1	23
1	12
1	9
1	248
1	248
1	12
1	26
1	7
1	248
1	25
1	248
1	248
1	248
1	9
1	9
1	11
1	32
1	32
1	248
1	32
1	248
1	15
1	249
1	248
1	11
1	9
1	10
1	8
1	248
1	7
1	248
1	8
1	248
1	248
1	248
1	248
1	248
1	248
1	248
1	248
1	20
1	5
1	10
1	9
1	22
1	248
1	25
1	248
1	248
1	8
1	248
1	248
1	9
1	248
1	25
1	249
1	248
1	8
1	25
1	248
1	248
1	248
1	248
1	22
1	11
1	248
1	8
1	248
1	7
1	248
1	9
1	248
1	248
1	6124
1	32
1	248
1	248
1	248
1	11
1	32
1	20
1	248
1	248
1	15
1	248
1	248
1	9
1	248
1	248
1	8
1	248
1	10
1	20
1	248
1	10
1	248
1	248
1	249
1	248
1	248
1	248
1	248
1	248
1	6
1	7
1	8
1	4
1	20
1	3
1	9
1	248
1	249
1	20
1	15
1	248
1	248
1	248
1	8
1	248
1	25
1	13
1	8
1	32
1	10
1	248
1	10
1	6
1	11
1	248
1	248
1	9
1	248
1	7
1	32
1	6
1	32
1	5
1	248
1	248
1	7
1	248
1	9
1	9
1	11
1	248
1	248
1	248
1	11
1	248
1	32
1	248
1	32
1	32
1	248
1	248
1	248
1	248
1	248
1	248
1	20
1	9
1	248
1	248
1	32
1	248
1	4
1	7
1	248
1	248
1	12
1	248
1	248
1	248
1	8
1	5
1	7
1	248
1	248
1	248
1	248
1	10
1	248
1	22
1	248
1	13
1	248
1	8
1	248
1	20
1	10
1	248
1	248
1	248
1	248
1	7
1	10
1	8
1	7
1	248
1	248
1	8
1	248
1	248
1	248
1	248
1	248
1	20
1	249
1	248
1	5
1	248
1	248
1	248
1	248
1	248
1	31
1	248
2	30
2	8
2	12
2	30
2	3
2	30
2	30
2	5
2	8
2	30
2	30
2	7
2	3
2	6
2	9
2	7
2	5
2	6
2	4
2	12
2	9
2	7
2	8
2	3
2	8
2	7
2	3
2	6
2	6
2	30
2	9
2	6
2	5
2	8
2	5
2	6
2	4
2	13
2	10
2	11
2	4
2	4
2	3
2	3
2	5
2	30
2	4
2	3
2	8
2	9
2	6
2	249
2	4
2	8
2	30
2	23
2	30
2	5
2	30
2	30
2	6
2	3
2	3
2	30
2	30
2	7
2	7
2	7
2	8
2	3
2	249
2	6
2	30
2	30
2	6
2	12
2	33
2	30
2	5
2	3
2	4
2	26
2	6
2	4
2	8
2	30
2	4
2	7
2	4
2	6
2	7
2	8
2	6
2	6
2	23
2	30
2	6
2	5
3	5
3	7
3	5
3	4
3	4
3	4
3	8
3	5
3	5
3	4
3	4
3	5
3	6
3	4
3	4
3	8
3	4
3	4
3	5
3	4
3	4
3	4
3	7
3	5
3	5
3	7
3	4
3	4
3	7
3	10
3	6
3	5
3	4
3	5
3	4
3	5
3	7
4	5
4	5
4	5
4	5
4	6
4	5
4	5
4	6
4	7
4	5
4	6
4	6
4	5
4	5
4	8
4	5
4	5
4	5
4	6
4	5
4	7
4	5
4	5
4	5
5	6
5	7
5	6
5	6
5	6
5	6
5	7
6	7
6	7
6	7
6	7
6	7
6	7
6	8
6	8
6	8
6	7
7	8
7	8
7	8
7	8
7	8
7	10
7	8
7	8
8	9
9	10
9	10
10	11
10	11
10	11
11	12
11	13
19	20
21	22
24	25
28	30
31	32
247	248
