1	6124
1	562
1	29
1	11
1	561
1	13
1	13
1	13
1	12
1	12
1	561
1	24
1	561
1	11
1	561
1	561
1	561
1	13
1	18
1	561
1	561
1	561
1	13
1	561
1	567
1	11
1	561
1	561
1	561
1	561
1	561
1	561
1	14
1	561
1	16
1	561
1	16
1	561
1	561
1	13
1	23
1	561
1	8
1	10
1	561
1	561
1	13
1	11
1	10
1	561
1	12
1	16
1	561
1	12
1	10
1	9
1	11
1	562
1	561
1	12
1	13
1	561
1	561
1	561
1	561
1	561
1	11
1	561
1	561
1	561
1	561
1	561
1	11
1	24
1	561
1	561
1	12
1	11
1	10
1	561
1	561
1	9
1	561
1	7
1	19
1	561
1	561
1	561
1	15
1	8
1	561
1	561
1	561
1	561
1	12
1	21
1	561
1	561
1	561
1	561
1	9
1	561
1	23
1	561
1	561
1	561
1	561
1	11
1	561
1	561
1	561
1	41
1	8
1	12
1	10
1	18
1	12
1	28
1	561
1	13
1	561
1	8
1	9
1	561
1	561
1	17
1	561
1	9
1	561
1	11
1	561
1	12
1	12
1	7
1	20
1	561
1	561
1	561
1	15
1	561
1	9
1	561
1	561
1	561
1	561
1	9
1	561
1	15
1	561
1	10
1	561
1	561
1	561
1	561
1	10
1	562
1	561
1	561
1	561
1	561
1	561
1	561
1	561
1	561
1	19
1	19
1	561
1	561
1	14
1	561
1	15
1	561
1	561
1	561
1	561
1	561
1	562
1	561
1	561
1	11
1	8
1	12
1	7
1	12
1	6
1	561
1	561
1	561
1	6
1	562
1	561
1	9
1	561
1	15
1	19
1	561
1	561
1	22
1	561
1	561
1	561
1	562
1	562
1	561
1	6124
1	10
1	11
1	561
1	5
1	9
1	22
1	561
1	561
1	561
1	15
1	10
1	561
1	14
1	561
1	561
1	561
1	16
1	561
1	561
1	561
1	561
1	561
1	8
1	561
1	561
1	561
1	8
1	561
1	10
1	561
1	42
1	561
1	562
1	40
1	12
1	561
1	561
1	561
1	561
1	561
1	11
1	561
1	561
1	561
1	561
1	15
1	561
1	8
1	561
1	562
1	562
1	561
1	561
1	6
1	12
1	561
1	561
1	561
1	561
1	8
1	561
1	561
1	561
1	561
1	561
1	561
1	10
1	562
1	561
1	10
1	561
1	14
1	561
1	561
1	5
1	561
1	11
1	11
1	19
1	6124
1	6
1	561
1	561
1	561
1	561
1	561
1	10
1	12
1	561
1	561
1	561
1	9
1	561
1	7
1	561
1	561
1	561
1	561
1	7
1	6
1	561
1	7
1	18
1	561
1	561
1	561
1	561
1	561
1	561
1	561
1	21
1	21
1	561
1	561
1	561
1	561
1	562
1	561
1	13
1	561
1	561
1	561
1	561
1	15
1	561
1	561
1	8
1	12
1	10
1	11
1	8
1	561
1	11
1	13
1	561
1	4
1	561
1	561
1	561
1	7
1	10
1	561
1	561
1	561
1	7
1	561
1	561
1	561
1	21
1	9
1	561
1	6
1	561
1	561
1	561
1	7
1	561
1	561
1	562
1	561
1	9
1	561
1	9
1	561
1	561
1	18
1	561
1	561
1	2
1	10
1	12
1	16
1	561
1	8
1	9
1	561
1	561
1	10
1	561
1	561
1	561
1	7
1	561
1	561
1	561
1	40
1	561
1	8
1	561
1	11
1	8
1	8
1	12
1	8
1	8
1	10
1	561
1	561
1	561
1	8
1	28
1	561
1	561
1	561
1	40
1	7
1	561
1	10
1	561
1	561
1	561
1	8
1	561
1	561
1	561
1	561
1	10
1	561
1	561
1	10
1	8
1	561
1	561
1	561
1	40
1	40
1	561
1	561
1	14
1	8
1	13
1	21
1	561
1	561
1	561
1	561
1	561
1	561
1	5
1	561
1	11
1	10
1	23
1	9
1	23
1	561
1	561
1	564
1	10
1	561
1	23
1	23
1	561
1	5
1	5
1	14
1	9
1	7
1	561
1	561
1	561
1	561
1	9
1	5
1	23
1	8
1	561
1	8
1	561
1	13
1	561
1	561
1	561
1	561
1	561
1	10
1	561
1	18
1	11
1	561
1	8
1	6
1	8
1	10
1	12
1	561
1	561
1	561
1	14
1	561
1	561
1	9
1	561
1	561
1	561
1	561
1	561
1	561
1	561
1	8
1	23
1	28
1	561
1	561
1	561
1	561
1	5
1	561
1	561
1	10
1	562
1	11
1	11
1	561
1	561
1	561
1	561
1	9
1	561
1	561
1	561
1	18
1	561
1	561
1	5
1	8
1	561
1	561
1	5
1	561
1	12
1	561
1	23
1	561
1	19
1	9
1	561
1	561
1	11
1	561
1	11
1	561
1	23
1	8
1	561
1	561
1	561
1	6
1	561
1	561
1	561
1	561
1	23
1	561
1	13
1	23
1	561
1	7
1	561
1	8
1	562
1	561
1	562
1	561
1	15
1	561
1	561
1	561
1	561
1	561
1	11
1	562
1	561
1	561
1	561
1	11
1	11
1	14
1	561
1	19
1	561
1	561
1	561
1	561
1	561
1	562
1	8
1	561
1	561
1	561
1	562
1	11
1	561
1	13
1	562
1	561
1	561
1	561
1	561
1	40
1	7
1	561
1	6
1	28
1	15
1	561
1	561
1	8
1	561
1	561
1	23
1	21
1	9
1	19
1	28
1	561
1	561
1	561
1	561
1	561
1	11
1	28
1	23
1	561
1	9
1	561
1	6
1	561
1	561
1	561
1	561
1	11
1	561
1	561
1	9
1	561
1	561
1	6
1	561
1	561
1	561
1	561
1	561
1	561
1	561
1	18
1	561
1	561
1	8
1	561
1	561
1	4
1	561
1	14
1	7
1	561
1	561
1	561
1	6
1	561
1	561
1	561
1	561
1	561
1	8
1	561
1	561
1	561
1	6
1	7
1	561
1	9
1	6
1	561
1	561
1	561
1	561
1	14
1	561
1	561
1	2
1	561
1	561
1	10
1	561
1	11
1	12
1	561
1	561
1	561
1	561
1	561
1	15
1	561
1	561
1	562
1	561
1	561
1	561
1	5
1	5
1	561
1	14
1	561
1	561
1	561
1	23
1	9
1	561
1	561
1	562
1	561
1	561
1	561
1	561
1	7
1	561
1	7
1	561
1	561
1	18
1	561
1	13
1	8
1	9
1	561
1	15
1	561
1	561
1	561
1	8
1	13
1	8
1	561
1	561
1	561
1	561
1	5
1	7
1	561
1	561
2	4
2	7
2	10
2	14
2	562
2	20
2	562
2	11
2	10
2	4
2	562
2	9
2	3
2	11
2	8
2	10
2	9
2	3
2	562
2	3
2	3
2	3
2	5
2	3
2	4
2	7
2	8
2	8
2	10
2	8
2	14
2	3
2	10
2	562
2	9
2	6
2	13
2	562
2	9
2	3
2	562
2	19
2	9
2	3
2	562
2	4
2	3
2	3
2	5
2	16
2	13
2	6
2	4
2	4
2	7
2	5
2	4
2	19
2	11
2	7
2	8
2	4
2	10
2	7
2	5
2	3
2	8
2	3
2	10
2	22
2	4
2	11
2	4
2	6
2	3
2	4
2	3
2	8
2	4
2	7
2	6
2	13
2	4
2	3
2	12
2	13
2	15
2	5
2	3
2	9
2	4
2	12
2	11
2	4
2	6
2	3
2	6
2	8
2	6
2	4
2	5
2	3
2	6
2	4
2	3
2	3
2	4
2	8
2	3
2	6
2	21
2	3
2	3
2	562
2	8
2	4
2	12
2	8
2	6
2	7
2	6
2	3
2	3
2	4
2	4
2	7
2	7
2	10
2	4
2	6
2	5
2	5
2	3
2	6
2	4
2	3
2	11
2	4
2	7
2	8
2	3
2	4
2	4
2	562
2	9
2	3
2	3
2	3
2	3
2	5
2	10
2	14
2	7
2	3
2	7
2	10
2	7
2	8
2	4
2	9
2	4
2	4
2	41
2	10
2	3
2	10
2	3
2	25
2	6
2	4
2	41
2	3
2	3
2	4
2	4
2	19
2	3
2	3
2	13
2	5
2	4
2	4
2	8
2	7
2	10
2	3
2	22
2	12
2	8
3	4
3	7
3	4
3	5
3	5
3	4
3	4
3	4
3	5
3	4
3	5
3	4
3	4
3	5
3	5
3	4
3	7
3	4
3	5
3	6
3	12
3	4
3	4
3	5
3	5
3	4
3	6
3	4
3	9
3	8
3	5
3	5
3	7
3	6
3	5
3	4
3	12
3	5
3	5
3	4
3	6
3	5
3	13
3	4
3	5
3	4
3	7
3	5
3	8
3	4
3	4
3	11
3	4
3	5
3	4
3	6
3	4
3	7
3	4
3	4
3	7
3	4
3	5
3	5
3	4
4	6
4	5
4	6
4	5
4	6
4	7
4	5
4	5
4	5
4	5
4	6
4	5
4	5
4	5
4	5
4	5
4	5
4	7
4	5
4	5
4	5
4	5
4	5
4	5
4	6
4	6
4	7
4	5
4	5
4	6
4	5
4	5
4	5
4	5
4	5
4	5
4	6
4	6
4	8
5	6
5	6
5	6
5	10
5	7
5	7
5	6
5	6
5	6
5	6
5	7
5	6
5	7
5	6
5	6
5	7
5	6
5	6
5	8
5	6
5	6
5	10
5	8
6	7
6	7
6	7
6	7
6	7
6	7
6	8
6	7
6	7
6	7
6	7
6	8
6	8
6	7
6	7
6	7
6	7
6	7
6	7
7	9
7	8
7	8
7	8
7	9
7	9
7	8
7	8
7	8
7	8
7	8
7	8
8	9
8	9
8	9
8	9
8	10
8	9
8	9
8	9
8	9
9	10
9	10
9	10
9	10
9	10
9	10
9	10
10	11
10	11
10	11
10	11
11	12
11	12
11	12
12	13
12	13
13	14
14	15
14	15
17	18
18	19
20	21
20	21
22	26
22	23
27	28
39	40
560	561
