1	6124
1	104
1	12
1	10
1	5
1	104
1	103
1	18
1	8
1	8
1	103
1	9
1	8
1	103
1	104
1	8
1	103
1	14
1	14
1	11
1	8
1	104
1	103
1	8
1	103
1	10
1	9
1	6
1	103
1	9
1	15
1	103
1	6
1	14
1	103
1	103
1	103
1	103
1	103
1	103
1	103
1	7
1	103
1	15
1	7
1	103
1	103
1	103
1	103
1	9
1	8
1	9
1	103
1	8
1	6
1	6
1	104
1	103
1	103
1	103
1	104
1	103
1	103
1	15
1	103
1	104
1	103
1	8
1	8
1	11
1	11
1	9
1	103
1	103
1	103
1	103
1	7
1	103
1	13
1	14
1	103
1	103
1	103
1	5
1	103
1	103
1	14
1	7
1	103
1	5
1	10
1	9
1	103
1	13
1	6
1	103
1	103
1	104
1	103
1	103
1	103
1	8
1	5
1	103
1	103
1	5
1	103
1	103
1	4
1	103
1	103
1	103
1	6
1	104
1	103
1	5
1	103
1	103
1	5
1	8
1	5
1	103
1	103
1	5
1	103
1	103
1	103
1	103
1	6
1	103
1	7
1	13
1	104
1	103
1	5
1	104
1	103
1	14
1	104
1	10
1	103
2	8
2	3
2	4
2	3
2	9
2	7
2	3
2	6
2	3
2	4
2	3
2	3
2	4
2	3
2	5
2	3
2	7
2	4
2	7
2	7
2	6
2	104
2	6
2	15
2	7
2	6
2	4
2	3
2	104
2	4
2	3
2	4
2	3
2	3
2	7
2	5
2	4
2	7
2	4
2	3
2	3
2	7
2	4
2	6
2	4
2	3
2	5
2	4
2	4
2	3
2	3
2	4
2	3
2	3
3	5
3	4
3	4
3	6
3	4
3	4
3	6
3	5
3	5
3	4
3	4
3	7
3	4
3	4
4	5
4	5
4	7
4	5
4	5
4	8
4	5
4	6
4	5
4	5
4	5
4	5
4	6
4	5
4	5
4	6
4	6
4	5
4	6
4	5
5	9
5	6
5	6
5	7
5	7
5	6
5	7
6	7
6	9
8	9
9	10
10	11
13	14
102	103
