11	6124
12	6124
14	6124
14	6124
20	6124
20	6124
21	6124
21	6124
22	6124
23	6124
25	6124
49	6124
49	6124
49	6124
50	6124
50	6124
50	6124
51	6124
51	6124
52	6124
54	6124
55	6124
57	6124
64	6124
103	6124
103	6124
103	6124
103	6124
103	6124
103	6124
103	6124
103	6124
104	6124
104	6124
104	6124
105	6124
108	6124
109	6124
111	6124
148	6124
