1	6124
1	158
1	157
1	16
1	15
1	157
1	157
1	157
1	157
1	158
1	12
1	9
1	158
1	11
1	9
1	157
1	8
1	157
1	157
1	157
1	157
1	157
1	11
1	157
1	157
1	15
1	13
1	16
1	14
1	157
1	157
1	7
1	159
1	157
1	158
1	157
1	12
1	157
1	13
1	12
1	8
1	157
1	12
1	157
1	157
1	157
1	12
1	157
1	157
1	9
1	13
1	157
1	8
1	157
1	157
1	15
1	157
1	157
1	4
1	10
1	157
1	157
1	157
1	7
1	22
1	157
1	15
1	15
1	157
1	157
1	21
1	157
1	13
1	12
1	157
1	10
1	157
1	157
1	157
1	157
1	157
1	8
1	157
1	157
1	157
1	157
1	7
1	11
1	157
1	157
1	7
1	158
1	157
1	157
1	157
1	157
1	157
1	157
1	157
1	157
1	157
1	13
1	157
1	4
1	15
1	157
1	21
1	157
1	9
1	157
1	157
1	157
1	157
1	157
1	157
1	157
1	5
1	5
1	157
1	21
1	15
1	157
1	157
1	11
1	21
1	13
1	8
1	12
1	15
1	157
1	157
1	157
1	157
1	157
1	157
1	157
1	9
1	13
1	6
1	157
1	6
1	8
1	157
1	5
1	157
1	157
1	157
1	157
1	9
1	157
1	157
1	14
1	157
1	15
1	21
1	11
1	157
1	8
1	158
1	157
1	21
1	7
1	7
1	157
1	15
1	157
1	157
1	6
1	10
1	157
1	157
1	157
1	157
1	6
1	157
1	157
1	7
1	157
1	157
1	157
1	11
1	157
1	10
1	5
1	157
1	5
1	157
1	157
1	9
1	5
1	157
1	7
1	157
1	13
1	8
1	15
1	157
1	157
1	15
1	10
1	157
1	157
1	157
1	157
1	12
1	15
1	157
1	5
1	17
1	17
1	6
1	4
1	157
1	9
1	15
1	157
1	157
1	157
2	12
2	16
2	3
2	3
2	8
2	13
2	12
2	7
2	3
2	8
2	3
2	10
2	5
2	11
2	8
2	11
2	3
2	6
2	9
2	5
2	6
2	5
2	8
2	5
2	3
2	13
2	5
2	4
2	3
2	6
2	3
2	3
2	3
2	4
2	8
2	3
2	6
2	9
2	3
2	5
2	5
2	6
2	10
2	6
2	5
2	8
2	8
2	5
2	5
2	4
2	6
2	5
2	9
2	6
2	12
3	5
3	4
3	4
3	5
3	9
3	5
3	4
3	4
3	5
3	5
3	5
3	5
3	4
3	4
3	13
3	4
3	4
3	4
3	5
3	5
3	4
3	4
3	6
3	4
3	4
3	7
3	5
3	4
4	5
4	14
4	7
4	5
4	5
4	6
4	6
4	8
4	5
4	5
4	6
4	5
4	6
4	6
4	6
4	5
4	5
4	5
5	6
5	6
5	6
5	6
5	6
6	8
6	10
6	7
6	7
7	8
7	8
8	9
8	9
9	10
9	10
10	11
10	11
10	12
10	11
10	11
11	12
14	15
14	15
20	21
156	157
