5	6124
8	6124
10	6124
10	6124
10	6124
11	6124
11	6124
11	6124
12	6124
12	6124
13	6124
13	6124
14	6124
14	6124
15	6124
15	6124
15	6124
15	6124
15	6124
15	6124
16	6124
16	6124
16	6124
16	6124
17	6124
17	6124
17	6124
17	6124
18	6124
18	6124
18	6124
19	6124
20	6124
23	6124
23	6124
24	6124
27	6124
28	6124
28	6124
28	6124
28	6124
28	6124
29	6124
32	6124
32	6124
32	6124
34	6124
37	6124
198	6124
198	6124
198	6124
198	6124
198	6124
198	6124
198	6124
198	6124
198	6124
198	6124
198	6124
198	6124
198	6124
198	6124
198	6124
198	6124
198	6124
198	6124
198	6124
198	6124
199	6124
199	6124
199	6124
199	6124
199	6124
199	6124
199	6124
199	6124
199	6124
199	6124
200	6124
201	6124
201	6124
202	6124
202	6124
202	6124
202	6124
202	6124
202	6124
203	6124
203	6124
207	6124
208	6124
209	6124
221	6124
