1	6124
1	86
1	15
1	85
1	85
1	86
1	11
1	17
1	16
1	85
1	85
1	85
1	7
1	85
1	85
1	17
1	85
1	87
1	85
1	8
1	85
1	85
1	86
1	85
1	9
1	85
1	86
1	15
1	87
1	85
1	85
1	7
1	85
1	8
1	85
1	8
1	8
1	85
1	85
1	16
1	17
1	15
1	6
1	9
1	85
1	85
1	16
1	85
1	85
1	87
1	85
1	86
1	85
1	85
1	87
1	85
1	14
1	85
1	85
1	85
1	85
1	85
1	16
1	86
1	11
1	85
1	85
1	85
1	5
1	6
1	7
1	85
1	16
1	85
1	14
1	4
1	85
1	85
1	6
1	85
1	14
1	5
1	85
1	16
1	85
1	85
1	7
1	85
1	85
1	4
1	85
1	16
1	5
1	14
1	85
1	7
1	9
1	8
1	85
1	6
1	85
1	85
1	85
1	85
1	85
1	86
1	85
1	85
1	85
1	85
1	85
1	85
1	85
1	12
1	5
1	9
1	85
2	7
2	3
2	3
2	3
2	9
2	3
2	3
2	3
2	4
2	3
2	3
2	7
2	3
2	8
2	7
2	3
2	6
2	4
2	3
2	6
2	7
2	4
2	6
2	4
2	7
2	3
2	3
2	3
2	4
2	5
2	6
2	3
2	10
2	4
3	6
3	4
3	4
3	4
3	4
3	6
3	6
3	4
3	4
3	4
3	6
3	4
3	4
3	4
3	7
4	5
4	5
4	5
4	6
5	6
5	6
5	6
6	7
6	7
7	8
8	9
13	14
15	16
84	85
