11	6124
12	6124
23	6124
24	6124
27	6124
251	6124
251	6124
251	6124
251	6124
251	6124
251	6124
251	6124
251	6124
251	6124
251	6124
251	6124
251	6124
251	6124
251	6124
251	6124
251	6124
251	6124
251	6124
252	6124
252	6124
252	6124
252	6124
252	6124
252	6124
252	6124
252	6124
252	6124
252	6124
253	6124
253	6124
253	6124
254	6124
254	6124
254	6124
255	6124
255	6124
255	6124
255	6124
256	6124
256	6124
256	6124
257	6124
269	6124
