7	6124
9	6124
10	6124
10	6124
11	6124
11	6124
11	6124
11	6124
12	6124
12	6124
12	6124
12	6124
12	6124
13	6124
13	6124
13	6124
13	6124
13	6124
13	6124
13	6124
13	6124
13	6124
13	6124
14	6124
14	6124
14	6124
14	6124
14	6124
14	6124
15	6124
17	6124
17	6124
17	6124
17	6124
18	6124
18	6124
19	6124
19	6124
19	6124
21	6124
23	6124
85	6124
85	6124
85	6124
85	6124
85	6124
85	6124
85	6124
85	6124
86	6124
86	6124
86	6124
86	6124
86	6124
86	6124
86	6124
87	6124
87	6124
87	6124
87	6124
88	6124
88	6124
88	6124
88	6124
88	6124
88	6124
89	6124
89	6124
89	6124
90	6124
90	6124
91	6124
92	6124
92	6124
93	6124
96	6124
