1	6124
1	48
1	48
1	47
1	18
1	11
1	12
1	47
1	47
1	6124
1	11
1	9
1	5
1	48
1	7
1	48
1	7
1	47
1	16
1	5
1	11
1	48
1	47
1	47
1	47
1	47
1	47
1	47
1	7
1	47
1	2
1	47
1	7
1	47
1	6
1	15
1	7
1	10
1	47
1	11
1	47
1	47
1	47
1	48
1	48
1	10
1	47
1	6
1	47
1	15
1	48
1	47
1	48
1	47
1	15
1	47
1	6124
1	6
1	15
1	11
1	48
1	6124
1	47
1	2
1	7
1	47
1	47
1	11
1	47
1	47
1	47
1	2
1	47
1	15
1	47
1	10
1	15
2	9
2	4
2	4
2	4
2	8
2	3
2	3
2	11
2	11
2	3
2	3
2	3
2	3
2	3
2	3
2	3
2	6
2	3
2	8
2	3
2	5
2	4
2	5
2	3
2	4
2	3
2	3
3	6
3	4
3	4
3	5
3	5
3	5
3	4
3	6
3	4
3	5
4	5
4	6
4	5
4	5
6	7
6	7
9	10
9	10
9	10
14	15
46	47
