1	6124
1	84
1	82
1	81
1	11
1	22
1	11
1	8
1	81
1	13
1	14
1	13
1	14
1	13
1	81
1	17
1	81
1	84
1	12
1	12
1	7
1	20
1	11
1	7
1	13
1	10
1	81
1	81
1	11
1	21
1	81
1	11
1	7
1	81
1	8
1	13
1	10
1	5
1	9
1	8
1	81
1	21
1	15
1	81
1	11
1	11
1	10
1	81
1	81
1	81
1	81
1	7
1	7
1	6
1	81
1	81
1	9
1	81
1	8
1	81
1	81
1	8
1	6
1	21
1	81
1	81
1	10
1	81
1	6
1	8
1	5
1	8
1	7
1	81
1	81
1	81
1	13
1	7
1	21
1	13
1	6
1	5
1	81
1	8
1	5
1	8
1	81
1	7
1	81
1	10
1	4
1	7
1	6
1	81
1	9
1	8
1	13
1	6
1	7
1	7
1	21
1	6
1	81
1	4
1	7
1	81
1	7
1	81
1	4
1	21
1	81
1	81
1	7
1	7
1	82
1	81
1	10
1	82
1	18
1	81
1	19
1	81
1	81
1	81
1	8
1	81
1	10
1	13
1	10
1	81
1	81
1	82
1	10
1	7
2	18
2	3
2	10
2	18
2	3
2	3
2	5
2	7
2	3
2	18
2	6
2	4
2	3
2	6
2	12
2	19
2	6
2	3
2	11
2	12
2	8
2	4
2	4
2	3
2	6
2	12
2	18
2	4
2	8
2	6
2	7
2	6
2	7
2	6
2	3
2	4
2	6
2	18
2	9
2	3
2	3
2	8
2	4
2	18
2	7
2	14
2	4
2	5
2	4
2	6
2	6
2	5
2	3
2	3
2	4
2	3
2	3
2	4
3	4
3	10
3	4
3	4
3	5
3	4
3	4
3	4
3	6
3	5
3	5
3	4
3	5
3	4
3	4
3	8
3	5
3	6
3	4
3	5
3	5
3	4
3	4
4	6
4	6
4	5
4	6
4	5
4	6
4	5
4	5
4	5
4	5
4	5
4	7
4	5
4	6
4	5
4	6
4	5
5	6
5	6
5	7
5	6
5	6
5	7
5	6
6	7
6	7
6	7
6	7
6	7
7	8
7	8
8	9
9	10
10	11
11	12
12	13
16	17
20	21
80	81
