11	6124
12	6124
13	6124
15	6124
15	6124
16	6124
16	6124
17	6124
18	6124
18	6124
18	6124
18	6124
19	6124
19	6124
19	6124
19	6124
19	6124
20	6124
20	6124
21	6124
22	6124
24	6124
25	6124
26	6124
26	6124
27	6124
27	6124
27	6124
27	6124
27	6124
27	6124
29	6124
29	6124
29	6124
32	6124
34	6124
38	6124
206	6124
206	6124
206	6124
206	6124
206	6124
206	6124
206	6124
206	6124
206	6124
206	6124
206	6124
206	6124
206	6124
206	6124
206	6124
206	6124
206	6124
206	6124
206	6124
206	6124
206	6124
206	6124
206	6124
207	6124
207	6124
207	6124
207	6124
207	6124
207	6124
207	6124
208	6124
208	6124
208	6124
209	6124
209	6124
209	6124
209	6124
209	6124
210	6124
210	6124
211	6124
212	6124
212	6124
213	6124
216	6124
217	6124
217	6124
217	6124
218	6124
221	6124
228	6124
