1	6124
1	12
1	54
1	16
1	53
1	53
1	16
1	10
1	53
1	6124
1	12
1	53
1	6124
1	54
1	19
1	53
1	17
1	53
1	11
1	14
1	53
1	12
1	53
1	53
1	7
1	53
1	11
1	13
1	18
1	53
1	53
1	53
1	7
1	17
1	8
1	53
1	11
1	53
1	54
1	11
1	4
1	12
1	12
1	17
1	7
1	53
1	53
1	14
1	5
1	9
1	53
1	53
1	53
1	54
1	10
1	12
1	54
1	7
1	6
1	10
1	53
1	53
1	53
1	5
1	12
1	6
1	17
1	8
1	2
1	9
1	17
1	5
1	54
1	5
1	4
1	9
1	12
1	53
1	53
1	12
1	8
1	17
1	8
1	2
1	15
1	55
1	17
1	9
1	53
1	53
1	7
1	7
1	17
1	17
1	9
1	6
1	5
1	7
1	5
1	15
1	53
1	53
1	9
1	8
1	12
1	8
1	15
1	7
1	53
1	4
2	6
2	3
2	7
2	3
2	5
2	12
2	5
2	3
2	4
2	3
2	3
2	12
2	3
2	8
2	4
2	3
2	3
2	5
2	7
2	11
2	3
2	7
2	3
2	7
2	11
2	11
2	3
2	4
2	4
2	5
2	3
2	9
2	3
2	5
2	4
2	3
2	3
2	4
2	7
2	9
3	5
3	6
3	4
3	4
3	5
3	5
3	4
3	4
3	5
3	8
3	4
3	5
3	5
3	4
3	4
3	4
3	5
3	6
3	4
3	4
3	8
3	4
3	5
3	4
4	5
4	5
4	6
4	5
4	5
5	6
5	7
5	7
5	6
5	6
5	6
5	6
5	6
6	7
6	7
7	8
7	8
7	8
7	8
9	10
9	10
11	12
14	15
15	16
16	17
52	53
