6	6124
6	6124
11	6124
11	6124
12	6124
16	6124
16	6124
16	6124
16	6124
16	6124
17	6124
17	6124
17	6124
17	6124
18	6124
18	6124
18	6124
18	6124
19	6124
19	6124
20	6124
20	6124
20	6124
20	6124
21	6124
21	6124
22	6124
23	6124
24	6124
24	6124
25	6124
29	6124
31	6124
54	6124
54	6124
55	6124
55	6124
55	6124
55	6124
57	6124
57	6124
57	6124
57	6124
59	6124
63	6124
66	6124
68	6124
