6	6124
9	6124
9	6124
10	6124
10	6124
11	6124
11	6124
13	6124
15	6124
15	6124
15	6124
16	6124
16	6124
17	6124
17	6124
17	6124
17	6124
17	6124
19	6124
19	6124
20	6124
20	6124
21	6124
23	6124
103	6124
103	6124
103	6124
103	6124
103	6124
103	6124
103	6124
103	6124
103	6124
103	6124
103	6124
103	6124
103	6124
103	6124
103	6124
103	6124
104	6124
104	6124
104	6124
104	6124
104	6124
104	6124
104	6124
105	6124
105	6124
106	6124
106	6124
106	6124
109	6124
111	6124
112	6124
