1	6124
1	6124
1	16
1	9
1	42
1	41
1	11
1	11
1	9
1	9
1	42
1	10
1	10
1	41
1	10
1	9
1	10
1	2
1	42
1	43
1	10
1	9
1	12
1	10
1	11
1	7
1	10
1	10
1	7
1	6
1	7
1	9
1	10
1	41
1	41
1	11
1	41
1	8
1	9
1	10
1	13
1	13
1	41
1	8
1	11
1	6
1	5
1	7
1	9
1	8
1	5
1	7
1	8
1	9
1	8
1	41
1	12
1	6
1	41
1	6
1	41
1	41
1	8
1	6
1	11
1	6124
1	2
1	5
1	10
1	42
1	41
1	9
1	8
1	11
1	41
1	4
1	6
1	8
1	8
1	7
1	42
1	41
1	7
1	7
1	6
1	41
1	5
1	41
1	41
1	5
1	12
1	5
1	6
1	6
1	42
1	6
1	9
1	7
2	7
2	7
2	3
2	3
2	9
2	6
2	3
2	6
2	6
2	4
2	3
2	6
2	3
2	9
2	4
2	9
2	3
2	3
2	3
2	3
2	4
2	3
2	7
2	3
2	5
2	5
2	3
2	5
2	9
2	5
2	6
2	3
2	3
2	8
2	5
2	3
2	5
2	3
2	6
2	4
2	4
2	6
2	6
3	4
3	5
3	4
3	4
3	4
3	6
3	5
3	4
3	6
3	4
3	4
3	5
3	4
3	5
3	4
3	4
3	5
3	4
3	4
3	4
3	6
3	5
3	4
3	4
3	4
3	5
3	5
4	6
4	5
4	5
4	5
4	5
4	5
4	7
4	5
4	6
5	6
5	6
5	6
5	6
6	7
6	7
6	7
7	8
7	9
7	8
7	9
8	9
8	9
8	9
9	10
10	11
40	41
