1	6124
1	24
1	141
1	140
1	10
1	140
1	9
1	140
1	9
1	9
1	11
1	9
1	23
1	140
1	15
1	10
1	4
1	140
1	10
1	140
1	140
1	140
1	13
1	16
1	18
1	17
1	140
1	140
1	6
1	140
1	140
1	140
1	9
1	140
1	140
1	6
1	140
1	23
1	140
1	141
1	140
1	9
1	13
1	140
1	140
1	8
1	140
1	141
1	12
1	140
1	140
1	140
1	140
1	140
1	142
1	140
1	140
1	140
1	9
1	23
1	140
1	140
1	11
1	15
1	8
1	9
1	140
1	17
1	140
1	140
1	140
1	140
1	140
1	140
1	140
1	9
1	140
1	8
1	17
1	140
1	9
1	140
1	140
1	6
1	140
1	11
1	8
1	15
1	140
1	8
1	9
1	140
1	140
1	6124
1	140
1	140
1	140
1	140
1	140
1	140
1	140
1	17
1	9
1	140
1	6
1	2
1	17
1	17
1	140
1	140
1	14
1	140
1	140
1	140
1	140
1	14
1	7
1	140
1	140
1	140
1	140
1	140
1	17
1	10
1	6
1	6
1	140
1	140
1	140
1	140
1	12
1	140
1	140
1	7
1	23
1	5
1	9
1	9
1	9
1	11
1	23
1	140
1	140
1	140
1	140
1	140
1	4
1	140
1	9
1	23
1	23
1	23
1	140
1	17
1	7
1	140
1	5
1	140
1	140
1	140
1	140
1	18
1	140
1	140
1	140
1	140
1	141
1	15
1	23
1	9
1	140
1	140
1	14
1	140
2	9
2	141
2	6
2	141
2	3
2	15
2	7
2	7
2	24
2	7
2	141
2	8
2	3
2	4
2	6
2	6
2	3
2	6
2	4
2	4
2	7
2	4
2	4
2	10
2	4
2	3
2	8
2	7
2	8
2	7
2	7
2	7
2	6
2	3
2	6
2	3
2	3
2	3
2	141
2	15
2	5
2	14
2	4
2	4
2	6
2	6
2	5
2	8
2	16
2	5
2	4
2	4
2	7
2	6
2	7
2	8
2	6
2	7
2	4
2	3
2	4
2	13
2	8
2	6
2	3
2	15
2	5
3	5
3	6
3	6
3	4
3	5
3	5
3	5
3	8
3	6
3	6
3	4
3	5
3	5
3	4
3	5
3	7
3	8
3	5
3	6
3	5
3	8
3	5
3	4
3	5
3	6
3	5
3	5
3	6
3	7
3	5
3	6
3	5
4	6
4	5
4	5
4	5
4	5
4	5
4	5
4	7
4	5
4	5
4	6
4	8
4	5
4	5
4	6
4	6
5	6
5	6
5	7
5	7
5	7
5	7
5	6
5	6
5	7
5	6
6	8
6	8
6	7
6	8
6	7
6	7
6	7
7	8
7	8
8	9
11	12
13	14
13	14
14	15
16	17
22	23
139	140
