1	6124
1	87
1	87
1	86
1	86
1	87
1	86
1	86
1	86
1	86
1	86
1	13
1	86
1	12
1	87
1	86
1	86
1	11
1	12
1	11
1	86
1	7
1	18
1	86
1	12
1	9
1	86
1	17
1	86
1	86
1	86
1	9
1	8
1	9
1	8
1	7
1	18
1	6
1	86
1	86
1	86
1	17
1	86
1	86
1	9
1	87
1	9
1	86
1	7
1	8
1	86
1	17
1	86
1	86
1	86
1	8
1	9
1	9
1	8
1	86
1	86
1	8
1	86
1	8
1	86
1	17
1	86
1	8
1	7
1	18
1	86
1	86
1	16
1	10
1	18
1	86
1	6
1	86
1	86
1	86
1	4
1	7
1	10
1	86
1	86
1	86
1	6
1	10
1	6
1	86
1	86
1	86
1	4
1	86
1	86
1	86
1	86
1	9
1	86
1	86
1	86
1	17
1	86
1	86
1	86
1	10
1	86
1	86
1	15
1	7
2	8
2	3
2	9
2	87
2	6
2	4
2	7
2	8
2	10
2	3
2	3
2	3
2	4
2	87
2	8
2	6
2	5
2	4
2	3
2	6
2	3
2	6
2	3
2	9
2	7
2	10
2	3
2	4
2	7
2	4
2	5
2	16
2	7
2	10
2	3
2	3
2	4
2	4
2	5
3	5
3	8
3	5
3	4
3	4
3	4
3	5
3	5
3	5
3	6
3	10
3	5
3	9
3	4
4	5
4	7
4	5
4	8
4	5
4	7
4	5
4	6
5	6
5	6
5	6
5	6
5	6
6	7
6	7
6	8
6	7
7	8
7	8
7	9
8	9
9	10
14	15
16	17
85	86
