6	6124
7	6124
9	6124
9	6124
9	6124
10	6124
11	6124
11	6124
11	6124
11	6124
11	6124
11	6124
12	6124
12	6124
12	6124
13	6124
13	6124
13	6124
14	6124
14	6124
14	6124
14	6124
15	6124
15	6124
15	6124
16	6124
16	6124
17	6124
17	6124
18	6124
21	6124
21	6124
22	6124
23	6124
24	6124
25	6124
26	6124
29	6124
30	6124
30	6124
30	6124
30	6124
31	6124
31	6124
31	6124
32	6124
33	6124
33	6124
33	6124
34	6124
37	6124
41	6124
246	6124
246	6124
246	6124
246	6124
246	6124
246	6124
246	6124
246	6124
246	6124
246	6124
246	6124
246	6124
246	6124
246	6124
246	6124
246	6124
247	6124
247	6124
247	6124
247	6124
247	6124
247	6124
247	6124
247	6124
247	6124
247	6124
248	6124
248	6124
248	6124
248	6124
248	6124
248	6124
249	6124
249	6124
250	6124
250	6124
250	6124
251	6124
251	6124
252	6124
253	6124
254	6124
271	6124
272	6124
