10	6124
11	6124
11	6124
11	6124
12	6124
12	6124
13	6124
13	6124
13	6124
13	6124
13	6124
13	6124
13	6124
14	6124
14	6124
14	6124
14	6124
15	6124
15	6124
16	6124
17	6124
18	6124
19	6124
19	6124
19	6124
20	6124
20	6124
20	6124
20	6124
20	6124
20	6124
21	6124
21	6124
21	6124
21	6124
22	6124
22	6124
23	6124
24	6124
25	6124
33	6124
41	6124
41	6124
43	6124
43	6124
44	6124
45	6124
45	6124
46	6124
47	6124
56	6124
