9	6124
10	6124
13	6124
29	6124
31	6124
31	6124
143	6124
143	6124
143	6124
143	6124
143	6124
143	6124
143	6124
143	6124
143	6124
144	6124
144	6124
144	6124
145	6124
145	6124
145	6124
146	6124
150	6124
151	6124
168	6124
