8	6124
8	6124
9	6124
10	6124
10	6124
11	6124
13	6124
13	6124
15	6124
15	6124
15	6124
15	6124
15	6124
16	6124
17	6124
17	6124
19	6124
20	6124
22	6124
26	6124
28	6124
34	6124
34	6124
36	6124
38	6124
39	6124
42	6124
221	6124
221	6124
221	6124
221	6124
221	6124
221	6124
221	6124
221	6124
221	6124
221	6124
221	6124
221	6124
221	6124
221	6124
221	6124
221	6124
221	6124
221	6124
221	6124
221	6124
221	6124
221	6124
221	6124
221	6124
221	6124
222	6124
222	6124
223	6124
223	6124
223	6124
223	6124
224	6124
225	6124
225	6124
225	6124
225	6124
226	6124
226	6124
231	6124
232	6124
234	6124
250	6124
