1	6124
1	251
1	250
1	250
1	21
1	250
1	11
1	250
1	14
1	14
1	14
1	250
1	250
1	12
1	250
1	250
1	250
1	250
1	250
1	250
1	20
1	250
1	250
1	29
1	250
1	6124
1	28
1	25
1	14
1	250
1	250
1	250
1	250
1	13
1	250
1	250
1	250
1	9
1	6124
1	250
1	19
1	14
1	9
1	250
1	250
1	250
1	250
1	39
1	250
1	250
1	11
1	250
1	14
1	250
1	250
1	251
1	250
1	14
1	250
1	250
1	15
1	250
1	250
1	27
1	250
1	250
1	7
1	7
1	11
1	14
1	250
1	26
1	251
1	250
1	14
1	250
1	21
1	250
1	250
1	250
1	250
1	13
1	250
1	9
1	250
1	5
1	250
1	14
1	250
1	6124
1	4
1	21
1	21
1	20
1	250
1	7
1	22
1	22
1	10
1	19
1	250
1	250
1	8
1	21
1	11
1	250
1	10
1	250
1	250
1	250
1	250
1	250
1	250
1	250
1	250
1	250
1	250
1	8
1	252
1	250
1	250
1	10
1	251
1	7
1	19
1	250
1	22
1	250
1	20
1	12
1	21
1	26
1	8
1	7
1	250
1	8
1	5
1	26
1	20
1	251
1	7
1	11
1	2
1	21
1	9
1	250
1	19
1	4
1	22
1	250
1	8
1	21
1	20
1	8
1	250
1	19
1	20
1	250
1	6124
1	251
1	250
1	250
1	26
1	16
1	250
1	26
1	250
1	11
1	250
1	14
1	252
1	13
1	21
1	11
1	26
1	7
1	9
1	7
1	250
1	8
1	11
1	21
1	251
1	14
1	10
1	250
1	250
1	9
1	250
1	19
1	6
1	20
1	250
1	250
1	8
1	21
1	250
1	6
1	4
1	9
1	250
1	5
1	6
1	4
1	250
1	250
1	250
1	10
1	7
1	19
1	7
1	5
1	26
1	6124
1	20
1	9
1	5
1	9
1	19
1	26
1	250
1	8
1	250
1	9
1	2
1	10
1	7
1	250
1	250
1	250
1	26
1	20
1	20
1	11
1	6
1	250
1	26
1	8
1	10
1	250
1	21
1	7
1	6124
1	250
1	14
1	250
1	250
1	9
1	9
1	5
1	22
1	250
1	250
1	26
1	14
1	8
1	8
1	250
1	8
1	9
1	250
1	250
1	7
1	250
1	6
1	251
1	250
1	7
1	5
1	250
1	19
1	9
1	26
1	250
1	250
1	21
1	250
1	250
1	10
1	250
1	250
1	7
1	13
1	250
1	250
1	21
1	7
1	6
1	250
1	250
1	250
1	250
1	250
1	14
1	7
1	250
1	250
1	21
1	250
1	251
1	19
1	250
1	250
1	4
1	250
1	20
1	250
1	5
1	250
1	7
1	250
1	250
1	250
1	5
1	5
1	250
1	250
1	5
1	250
1	250
1	2
1	250
1	20
1	250
1	251
1	250
1	20
1	250
1	250
1	250
1	250
1	6
1	250
1	13
1	250
1	26
1	250
1	6
1	250
1	251
1	6
1	250
1	250
1	250
1	250
1	7
1	5
1	5
1	6
1	6
1	250
1	250
1	250
1	250
1	250
1	19
1	19
1	8
1	13
1	8
1	251
1	7
1	250
1	250
1	4
1	12
1	19
1	7
1	4
1	250
1	250
1	9
1	250
1	2
1	6
1	250
1	250
1	12
1	26
1	19
1	4
1	250
1	21
1	4
1	11
1	250
1	7
1	7
1	250
1	8
1	10
1	250
1	7
1	250
1	250
1	250
1	250
1	250
1	4
1	4
1	4
1	4
1	26
1	250
1	6124
1	6
1	19
1	250
1	8
1	250
1	9
1	250
1	250
1	21
1	26
1	250
1	250
1	16
1	250
1	3
1	250
1	19
1	250
1	251
1	21
1	250
1	250
1	250
1	250
1	250
1	250
1	250
1	250
1	3
1	250
1	6
1	250
1	250
1	5
1	251
1	26
1	26
1	8
1	19
1	250
1	250
1	250
1	250
1	7
1	5
1	250
1	250
1	250
1	12
1	250
1	250
1	8
1	250
1	250
1	250
1	7
1	21
1	250
1	19
1	251
1	250
1	251
1	6
2	3
2	3
2	4
2	3
2	3
2	5
2	5
2	5
2	3
2	3
2	3
2	3
2	3
2	6
2	6
2	5
2	12
2	3
2	4
2	6
2	3
2	3
2	27
2	20
2	3
2	3
2	15
2	5
2	20
2	5
2	4
2	6
2	7
2	9
2	3
2	3
2	3
2	4
2	7
2	5
2	3
2	3
2	10
2	3
2	4
2	3
2	3
2	8
2	3
2	3
2	8
2	22
2	3
2	3
2	3
2	3
2	3
2	3
2	3
2	3
2	3
2	5
2	3
2	3
2	4
2	3
3	4
3	4
3	4
3	8
3	4
3	5
3	4
3	4
3	4
3	4
3	6
3	4
3	6
3	4
3	4
3	5
3	4
3	4
3	5
3	5
3	4
3	4
3	4
3	4
3	4
3	4
3	4
3	4
3	4
3	4
3	4
3	4
3	4
3	4
3	4
4	5
4	5
4	5
4	5
4	5
4	5
4	5
4	5
4	5
4	5
4	5
4	5
4	5
5	6
5	6
5	6
5	6
5	6
5	6
5	6
5	6
5	6
5	6
5	8
6	7
6	7
6	7
6	7
6	7
6	7
6	7
6	7
7	8
7	8
7	8
7	8
7	8
8	9
8	9
8	9
10	11
11	12
13	14
18	19
18	19
19	20
20	21
25	26
249	250
