10	6124
10	6124
10	6124
11	6124
11	6124
12	6124
12	6124
12	6124
12	6124
13	6124
13	6124
13	6124
13	6124
13	6124
13	6124
14	6124
14	6124
14	6124
14	6124
14	6124
14	6124
14	6124
14	6124
14	6124
14	6124
15	6124
15	6124
15	6124
15	6124
15	6124
15	6124
15	6124
15	6124
16	6124
16	6124
16	6124
16	6124
16	6124
16	6124
16	6124
16	6124
17	6124
17	6124
17	6124
17	6124
17	6124
17	6124
17	6124
18	6124
18	6124
18	6124
18	6124
18	6124
18	6124
19	6124
19	6124
19	6124
19	6124
20	6124
20	6124
20	6124
20	6124
20	6124
20	6124
21	6124
21	6124
21	6124
21	6124
21	6124
21	6124
22	6124
22	6124
22	6124
22	6124
22	6124
22	6124
22	6124
22	6124
22	6124
22	6124
23	6124
23	6124
23	6124
23	6124
24	6124
24	6124
24	6124
24	6124
24	6124
25	6124
25	6124
26	6124
26	6124
27	6124
27	6124
27	6124
28	6124
28	6124
28	6124
28	6124
28	6124
29	6124
29	6124
29	6124
29	6124
29	6124
29	6124
30	6124
30	6124
31	6124
31	6124
32	6124
33	6124
33	6124
33	6124
34	6124
35	6124
36	6124
37	6124
41	6124
321	6124
321	6124
321	6124
321	6124
321	6124
321	6124
321	6124
321	6124
321	6124
321	6124
321	6124
321	6124
321	6124
321	6124
321	6124
321	6124
321	6124
322	6124
322	6124
322	6124
322	6124
322	6124
322	6124
322	6124
322	6124
322	6124
324	6124
324	6124
324	6124
325	6124
325	6124
325	6124
325	6124
326	6124
327	6124
329	6124
331	6124
334	6124
342	6124
