1	6124
1	321
1	321
1	14
1	12
1	9
1	320
1	13
1	12
1	320
1	26
1	13
1	10
1	16
1	320
1	320
1	12
1	320
1	15
1	320
1	10
1	12
1	320
1	8
1	320
1	320
1	7
1	6124
1	320
1	11
1	12
1	7
1	12
1	321
1	13
1	13
1	320
1	320
1	320
1	320
1	321
1	321
1	320
1	14
1	11
1	13
1	320
1	15
1	320
1	11
1	23
1	321
1	9
1	320
1	11
1	320
1	11
1	13
1	10
1	320
1	7
1	320
1	320
1	320
1	13
1	20
1	8
1	6124
1	19
1	320
1	10
1	12
1	4
1	20
1	10
1	15
1	320
1	320
1	13
1	14
1	9
1	22
1	320
1	320
1	320
1	9
1	11
1	320
1	6124
1	26
1	16
1	320
1	5
1	320
1	8
1	11
1	320
1	21
1	17
1	10
1	320
1	320
1	14
1	12
1	14
1	320
1	320
1	15
1	320
1	11
1	320
1	320
1	6
1	320
1	320
1	320
1	8
1	6124
1	14
1	320
1	6124
1	13
1	320
1	320
1	14
1	320
1	9
1	20
1	320
1	320
1	12
1	14
1	13
1	320
1	320
1	8
1	14
1	21
1	17
1	320
1	9
1	320
1	19
1	14
1	320
1	320
1	7
1	320
1	320
1	9
1	20
1	14
1	8
1	320
1	10
1	320
1	5
1	320
1	320
1	11
1	12
1	320
1	11
1	320
1	9
1	13
1	21
1	320
1	320
1	320
1	320
1	320
1	10
1	12
1	22
1	320
1	320
1	11
1	10
1	14
1	320
1	14
1	12
1	14
1	20
1	21
1	320
1	320
1	6124
1	320
1	21
1	3
1	15
1	10
1	8
1	13
1	320
1	17
1	320
1	11
1	7
1	320
1	16
1	12
1	12
1	7
1	10
1	320
1	320
1	320
1	13
1	16
1	9
1	9
1	320
1	320
1	11
1	321
1	12
1	4
1	320
1	320
1	10
1	320
1	14
1	320
1	320
1	320
1	320
1	14
1	320
1	19
1	320
1	9
1	19
1	22
1	9
1	12
1	320
1	320
1	320
1	12
1	320
1	321
1	320
1	320
1	17
1	6
1	320
1	6
1	2
1	8
1	9
1	320
1	320
1	320
1	16
1	11
1	10
1	320
1	320
1	5
1	21
1	5
1	320
1	8
1	7
1	7
1	19
1	320
1	320
1	320
1	19
1	20
1	11
1	9
1	10
1	12
1	320
1	8
1	320
1	8
1	321
1	321
1	320
1	320
1	320
1	10
1	320
1	320
1	320
1	320
1	11
1	8
1	7
1	6
1	12
1	6124
1	8
1	5
1	320
1	6124
1	9
1	320
1	8
1	320
1	321
1	8
1	24
1	6
1	16
1	16
1	19
1	320
1	12
1	15
1	320
1	13
1	14
1	4
1	20
1	320
1	320
1	320
1	22
1	6
1	13
1	16
1	7
1	321
1	320
1	320
1	320
1	2
1	20
1	5
1	320
1	321
1	11
1	15
1	320
1	320
1	320
1	24
1	8
1	16
1	7
1	13
1	6
1	16
1	320
1	12
1	6
1	12
1	11
1	7
1	16
1	11
1	320
1	320
1	320
1	320
1	320
1	13
1	320
1	25
1	15
1	7
1	5
1	11
1	320
1	320
1	321
1	7
1	320
1	320
1	12
1	8
1	320
1	10
1	8
1	24
1	320
1	320
1	9
1	7
1	11
1	11
1	12
1	9
1	6
1	20
1	320
1	320
1	7
1	11
1	20
1	320
1	14
1	320
1	2
1	4
1	320
1	320
1	320
1	320
1	22
1	12
1	320
1	13
1	320
1	10
1	320
1	320
1	19
1	12
1	321
1	9
1	10
1	10
1	22
1	7
1	10
1	13
1	9
1	7
1	8
1	320
1	6
1	20
1	24
1	320
1	12
1	320
1	320
1	19
1	13
1	10
1	320
1	24
1	8
1	320
1	11
1	320
1	11
1	20
1	320
1	5
1	4
1	11
1	10
1	320
1	320
1	15
1	320
1	320
1	320
1	19
1	320
1	19
1	6
1	8
1	11
1	320
1	11
1	320
1	9
1	321
1	320
1	7
1	15
1	320
1	14
1	8
1	320
1	19
1	321
1	7
1	320
1	320
1	8
1	20
1	320
1	320
1	320
1	320
1	11
1	24
1	22
1	8
1	7
1	320
1	321
1	320
1	320
1	9
1	9
1	320
1	320
1	7
1	320
1	2
1	24
1	10
1	7
1	320
1	320
1	14
1	320
1	6
1	22
1	320
1	320
1	7
1	320
1	320
1	320
1	320
1	320
1	20
1	320
1	320
1	20
1	10
1	2
1	9
1	12
1	320
1	20
1	20
1	320
1	320
1	10
1	320
1	8
1	320
1	320
1	320
1	320
1	5
1	320
1	13
1	320
1	13
1	320
1	320
1	320
1	320
1	320
1	320
1	10
1	8
1	20
1	14
1	321
1	8
1	19
1	320
1	24
1	7
1	13
1	11
1	320
1	10
1	320
1	5
1	11
1	7
1	321
1	320
1	7
1	12
1	12
1	13
1	11
1	10
1	13
1	320
1	9
1	16
1	8
1	321
1	5
1	320
1	8
1	12
1	321
1	320
1	14
1	5
1	320
1	5
1	320
1	320
1	320
1	12
1	24
1	320
1	6
1	12
1	320
1	8
1	320
1	320
1	10
1	19
1	7
1	10
1	9
1	7
1	24
1	320
1	9
1	19
1	11
1	9
1	320
1	320
1	10
1	320
1	320
1	6
1	9
1	320
1	4
1	320
1	320
1	6
1	12
1	320
1	14
1	320
1	320
1	320
1	2
1	320
1	320
1	22
1	13
1	320
1	320
1	8
1	320
1	320
1	320
1	320
1	9
1	320
1	4
1	320
1	19
1	6
1	320
1	12
1	320
1	14
1	8
1	320
1	14
1	16
1	20
2	13
2	3
2	14
2	7
2	3
2	5
2	3
2	3
2	13
2	6
2	5
2	5
2	3
2	6
2	14
2	10
2	3
2	8
2	6
2	8
2	3
2	3
2	3
2	8
2	7
2	4
2	6
2	3
2	7
2	6
2	4
2	14
2	15
2	9
2	7
2	4
2	11
2	4
2	3
2	3
2	3
2	9
2	3
2	4
2	11
2	6
2	3
2	3
2	4
2	4
2	3
2	9
2	6
2	12
2	3
2	9
2	3
2	9
2	8
2	3
2	4
2	3
2	6
2	3
2	7
2	7
2	8
2	6
2	3
2	9
2	3
2	7
2	3
2	13
2	3
2	5
2	3
2	5
2	12
2	3
2	9
2	13
2	321
2	4
2	3
2	3
2	9
2	3
2	4
2	10
2	6
2	4
2	8
2	12
2	8
2	10
2	3
2	3
2	5
2	5
2	3
2	8
2	3
2	5
2	3
2	4
2	4
2	3
2	7
2	9
2	3
2	4
2	3
2	7
2	9
2	3
2	3
2	10
2	4
2	6
2	8
2	4
2	6
2	12
2	4
2	14
2	12
2	3
2	3
2	3
2	13
2	3
2	3
2	3
2	3
2	5
2	13
2	8
2	3
2	3
2	3
2	7
2	5
2	3
2	3
2	3
2	3
2	11
2	3
2	3
2	5
2	3
2	7
2	3
2	3
2	6
2	4
2	6
2	4
2	3
2	3
2	16
2	6
2	8
2	3
2	3
2	3
2	5
2	3
2	3
3	5
3	4
3	7
3	4
3	6
3	5
3	5
3	5
3	4
3	6
3	4
3	4
3	4
3	4
3	5
3	4
3	5
3	8
3	4
3	4
3	4
3	4
3	4
3	4
3	5
3	4
3	4
3	5
3	8
3	8
3	4
3	4
3	4
3	4
3	4
3	8
3	4
3	6
3	12
3	4
3	4
3	4
3	4
3	7
3	4
3	4
3	4
3	5
3	5
3	5
3	4
3	4
4	5
4	5
4	5
4	6
4	5
4	5
4	5
4	5
4	6
4	5
4	5
4	5
4	5
4	5
4	6
4	6
4	5
4	5
4	6
5	7
5	7
5	6
5	7
5	6
5	6
5	6
5	6
5	6
5	6
5	6
5	6
5	6
5	6
5	6
5	6
5	10
5	6
5	6
5	6
5	6
6	7
6	7
6	7
6	7
6	7
6	7
6	7
6	7
6	7
6	7
6	7
6	8
6	7
6	7
6	7
6	8
6	7
7	9
7	9
7	8
7	8
7	8
7	9
7	8
7	8
7	8
7	8
7	8
7	8
7	8
8	9
8	9
8	9
8	9
8	9
8	9
9	10
9	10
9	10
9	10
9	10
9	10
9	10
10	11
10	11
10	11
10	12
10	12
11	12
11	12
11	12
12	13
12	13
12	13
12	13
13	14
13	14
14	15
15	16
15	16
18	19
18	19
19	20
19	20
21	22
23	24
319	320
