1	6124
1	502
1	502
1	25
1	22
1	501
1	26
1	501
1	502
1	19
1	501
1	501
1	501
1	501
1	501
1	501
1	501
1	501
1	501
1	21
1	17
1	9
1	502
1	501
1	15
1	11
1	501
1	501
1	15
1	15
1	501
1	501
1	14
1	12
1	18
1	13
1	13
1	14
1	501
1	22
1	9
1	15
1	501
1	501
1	501
1	501
1	501
1	15
1	25
1	501
1	18
1	501
1	502
1	501
1	6
1	501
1	501
1	520
1	501
1	12
1	14
1	501
1	502
1	19
1	501
1	501
1	17
1	8
1	501
1	501
1	6124
1	501
1	501
1	502
1	12
1	11
1	6
1	501
1	11
1	501
1	21
1	501
1	21
1	502
1	501
1	501
1	501
1	11
1	15
1	501
1	501
1	17
1	502
1	19
1	501
1	501
1	11
1	15
1	501
1	501
1	501
1	12
1	501
1	501
1	501
1	501
1	501
1	501
1	21
1	9
1	14
1	501
1	501
1	501
1	502
1	10
1	501
1	501
1	13
1	19
1	502
1	501
1	15
1	501
1	501
1	501
1	11
1	501
1	501
1	501
1	24
1	501
1	501
1	501
1	501
1	501
1	501
1	501
1	501
1	501
1	10
1	501
1	8
1	13
1	501
1	15
1	501
1	504
1	501
1	10
1	501
1	501
1	15
1	501
1	15
1	15
1	8
1	501
1	501
1	21
1	501
1	21
1	501
1	501
1	501
1	501
1	501
1	501
1	501
1	21
1	14
1	11
1	502
1	502
1	501
1	17
1	501
1	502
1	9
1	501
1	501
1	19
1	501
1	501
1	501
1	18
1	501
1	501
1	501
1	21
1	11
1	502
1	501
1	20
1	501
1	501
1	501
1	501
1	501
1	501
1	19
1	18
1	501
1	24
1	12
1	501
1	501
1	8
1	501
1	501
1	501
1	501
1	501
1	501
1	501
1	8
1	501
1	21
1	501
1	502
1	501
1	501
1	6
1	22
1	11
1	27
1	501
1	22
1	501
1	501
1	21
1	8
1	8
1	24
1	505
1	8
1	501
1	7
1	17
1	501
1	13
1	15
1	20
1	17
1	14
1	15
1	8
1	501
1	9
1	21
1	501
1	501
1	501
1	501
1	501
1	4
1	21
1	9
1	501
1	501
1	501
1	501
1	16
1	17
1	501
1	501
1	21
1	501
1	501
1	501
1	502
1	501
1	507
1	20
1	501
1	19
1	14
1	501
1	21
1	6124
1	501
1	501
1	6
1	17
1	8
1	501
1	501
1	501
1	501
1	501
1	21
1	10
1	501
1	502
1	10
1	13
1	501
1	14
1	501
1	501
1	18
1	13
1	501
1	9
1	20
1	6
1	501
1	27
1	11
1	501
1	501
1	502
1	501
1	12
1	502
1	501
1	501
1	501
1	501
1	501
1	18
1	16
1	501
1	502
1	501
1	501
1	21
1	19
1	501
1	501
1	501
1	502
1	9
1	501
1	501
1	21
1	502
1	501
1	21
1	501
1	14
1	8
1	501
1	501
1	501
1	501
1	501
1	8
1	501
1	21
1	6124
1	502
1	501
1	501
1	501
1	501
1	501
1	6
1	15
1	501
1	13
1	501
1	501
1	24
1	8
1	21
1	13
1	501
1	501
1	501
1	8
1	21
1	15
1	7
1	6
1	15
1	502
1	501
1	501
1	501
1	21
1	501
1	503
1	501
1	501
1	14
1	502
1	11
1	501
1	501
1	501
1	501
1	21
1	501
1	9
1	501
1	501
1	4
1	501
1	20
1	6124
1	6
1	501
1	501
1	501
1	501
1	502
1	10
1	21
1	501
1	11
1	18
1	11
1	501
1	11
1	501
1	10
1	24
1	501
1	12
1	501
1	6
1	11
1	501
1	501
1	16
1	9
1	18
1	501
1	501
1	11
1	13
1	501
1	16
1	501
1	11
1	8
1	501
1	502
1	501
1	501
1	6
1	6
1	501
1	502
1	8
1	15
1	501
1	501
1	10
1	16
1	501
1	19
1	501
1	9
1	501
1	501
1	6
1	502
1	501
1	21
1	501
1	10
1	501
1	501
1	501
1	17
1	501
1	501
1	14
1	8
1	501
1	501
1	501
1	501
1	16
1	501
1	13
1	5
1	501
1	501
1	501
1	501
1	501
1	21
1	24
1	501
1	501
1	11
1	15
1	501
1	501
1	501
1	501
1	501
1	5
1	2
1	22
1	11
1	501
1	501
1	501
1	19
1	15
1	21
1	4
1	11
1	22
1	501
1	501
1	21
1	14
1	8
1	501
1	501
1	501
1	19
1	501
1	501
1	9
1	502
1	501
1	501
1	8
1	5
1	501
1	503
1	501
1	501
1	24
1	11
1	21
1	501
1	501
1	501
1	2
1	501
1	501
1	8
1	4
1	501
1	501
1	501
1	21
1	501
1	501
1	21
1	5
1	13
1	501
1	502
1	501
1	21
1	501
1	501
1	501
1	13
1	501
1	7
1	501
1	21
1	14
1	501
1	501
1	501
1	501
1	7
1	501
1	21
1	501
1	501
1	7
1	8
1	7
1	501
1	501
1	501
1	14
1	501
1	7
1	5
1	501
1	501
1	21
1	6
1	24
1	501
1	501
1	19
1	20
1	501
1	4
1	24
1	21
1	11
1	501
1	501
1	501
1	18
1	502
1	501
1	501
1	14
1	501
1	501
1	501
1	501
1	501
1	501
1	21
1	13
1	501
1	9
1	501
1	6
1	501
1	9
1	19
1	18
1	501
1	17
1	501
1	501
1	501
1	11
1	501
1	501
1	21
1	21
1	9
1	501
1	501
1	501
1	5
1	501
1	501
1	501
1	21
1	6
1	501
1	6
1	13
1	14
1	19
1	4
1	501
1	501
1	501
1	21
1	501
1	501
1	8
1	15
1	501
1	501
1	502
1	501
1	501
1	501
1	501
1	501
1	15
1	501
1	8
1	21
1	501
1	501
1	501
1	7
1	20
1	501
1	501
1	17
1	7
1	4
1	10
1	9
1	7
1	17
1	7
1	501
1	501
1	501
1	501
1	501
1	501
1	14
1	22
1	501
1	501
1	501
1	501
1	5
1	8
1	501
1	502
1	4
1	501
1	21
1	501
1	20
1	501
1	501
1	9
1	13
1	501
1	12
1	7
1	18
1	501
1	501
1	501
1	2
1	9
1	501
1	9
1	501
1	501
1	12
1	501
1	501
1	501
1	501
1	501
1	501
1	9
1	501
1	501
1	9
1	2
1	501
1	15
1	9
1	11
1	9
1	501
1	9
1	501
1	501
1	21
1	501
1	501
1	501
1	14
1	501
1	501
1	501
1	6
1	501
1	501
1	501
1	17
1	501
1	21
1	21
1	21
1	502
1	501
1	501
1	501
1	501
1	20
1	501
1	501
1	20
2	11
2	10
2	3
2	21
2	3
2	21
2	7
2	15
2	5
2	9
2	3
2	6
2	6
2	5
2	4
2	3
2	17
2	3
2	3
2	12
2	7
2	3
2	3
2	3
2	502
2	6
2	4
2	3
2	3
2	5
2	5
2	9
2	3
2	6
2	8
2	502
2	16
2	10
2	12
2	15
2	3
2	3
2	5
2	4
2	10
2	6
2	7
2	3
2	502
2	4
2	6
2	4
2	4
2	3
2	22
2	10
2	3
2	3
2	9
2	4
2	7
2	502
2	3
2	3
2	12
2	5
2	502
2	8
2	5
2	4
2	6
2	6
2	3
2	3
2	3
2	3
2	5
2	8
2	3
2	3
2	10
2	4
2	4
2	5
2	14
2	7
2	3
2	4
2	4
2	7
2	3
2	3
2	13
2	3
2	10
2	3
2	14
2	9
2	3
2	3
2	3
2	4
2	9
2	6
2	3
2	4
2	10
2	3
2	4
2	3
2	5
2	18
2	7
2	3
2	3
2	12
2	3
2	6
2	6
2	5
2	3
2	4
2	5
2	3
2	3
2	4
2	4
2	3
2	3
2	7
2	3
2	6
2	3
2	3
2	3
2	4
2	3
2	8
2	4
2	3
2	8
2	10
2	6
2	4
2	3
2	4
2	6
3	5
3	4
3	4
3	4
3	4
3	5
3	4
3	5
3	4
3	4
3	6
3	7
3	5
3	5
3	4
3	4
3	6
3	4
3	4
3	8
3	5
3	7
3	5
3	5
3	4
3	4
3	4
3	6
3	5
3	6
3	5
3	5
3	4
3	5
3	4
3	4
3	4
3	6
3	4
3	5
3	4
3	5
3	4
3	5
3	4
4	5
4	5
4	5
4	6
4	5
4	6
4	5
4	6
4	5
4	7
4	6
4	5
4	5
4	6
4	6
4	5
4	5
4	6
4	5
4	8
4	6
5	6
5	6
5	6
5	6
5	6
5	6
5	6
5	6
5	7
5	6
5	6
6	7
6	7
6	7
6	7
6	7
7	8
7	8
7	8
7	8
7	9
7	8
7	8
8	9
8	9
8	9
8	9
8	9
8	10
8	9
9	10
10	11
10	11
10	11
11	12
12	13
12	13
12	13
13	14
13	14
14	15
14	15
15	16
16	17
17	18
18	19
19	20
20	21
20	21
20	21
20	21
23	24
500	501
