1	6124
1	933
1	934
1	933
1	933
1	933
1	933
1	933
1	933
1	37
1	12
1	933
1	933
1	933
1	11
1	10
1	36
1	15
1	19
1	13
1	933
1	10
1	45
1	44
1	933
1	933
1	933
1	933
1	933
1	15
1	18
1	933
1	934
1	933
1	933
1	933
1	933
1	933
1	933
1	933
1	28
1	933
1	12
1	933
1	933
1	21
1	933
1	11
1	38
1	933
1	934
1	27
1	933
1	933
1	14
1	933
1	933
1	933
1	933
1	934
1	933
1	28
1	933
1	933
1	12
1	11
1	933
1	933
1	933
1	933
1	933
1	933
1	933
1	933
1	933
1	933
1	933
1	933
1	9
1	8
1	36
1	933
1	933
1	9
1	13
1	24
1	21
1	16
1	933
1	933
1	11
1	12
1	11
1	933
1	933
1	933
1	933
1	933
1	933
1	933
1	44
1	934
1	933
1	20
1	933
1	36
1	933
1	933
1	9
1	933
1	31
1	933
1	26
1	933
1	7
1	933
1	934
1	933
1	933
1	933
1	933
1	13
1	933
1	933
1	933
1	933
1	933
1	10
1	10
1	933
1	933
1	933
1	14
1	933
1	933
1	933
1	933
1	18
1	18
1	933
1	933
1	36
1	933
1	933
1	933
1	933
1	933
1	933
1	933
1	10
1	19
1	933
1	933
1	933
1	15
1	933
1	44
1	20
1	933
1	933
1	10
1	14
1	933
1	36
1	933
1	5
1	933
1	933
1	933
1	50
1	933
1	933
1	933
1	933
1	933
1	933
1	18
1	933
1	933
1	933
1	933
1	14
1	933
1	933
1	20
1	15
1	933
1	933
1	934
1	933
1	16
1	20
1	933
1	933
1	19
1	933
1	44
1	933
1	933
1	18
1	27
1	933
1	933
1	933
1	933
1	933
1	10
1	24
1	933
1	933
1	8
1	933
1	933
1	14
1	933
1	934
1	933
1	933
1	934
1	933
1	933
1	933
1	12
1	933
1	15
1	11
1	933
1	933
1	933
1	933
1	933
1	29
1	36
1	11
1	933
1	933
1	18
1	933
1	933
1	933
1	933
1	933
1	933
1	20
1	933
1	23
1	933
1	933
1	933
1	13
1	933
1	933
1	933
1	933
1	933
1	13
1	933
1	933
1	9
1	933
1	933
1	16
1	933
1	12
1	933
1	6124
1	933
1	6124
1	10
1	13
1	934
1	933
1	933
1	933
1	933
1	933
1	933
1	15
1	933
1	933
1	933
1	933
1	933
1	28
1	18
1	10
1	933
1	933
1	7
1	44
1	933
1	933
1	933
1	933
1	14
1	933
1	933
1	14
1	8
1	933
1	15
1	933
1	933
1	933
1	933
1	28
1	10
1	933
1	933
1	20
1	8
1	933
1	933
1	933
1	933
1	933
1	933
1	18
1	14
1	933
1	933
1	44
1	20
1	933
1	933
1	933
1	11
1	933
1	933
1	933
1	933
1	933
1	44
1	933
1	933
1	7
1	933
1	933
1	933
1	12
1	933
1	8
1	933
1	7
1	20
1	933
1	23
1	8
1	933
1	933
1	10
1	5
1	933
1	933
1	933
1	933
1	31
1	933
1	933
1	9
1	9
1	933
1	25
1	933
1	933
1	933
1	933
1	933
1	933
1	933
1	15
1	933
1	933
1	6
1	933
1	22
1	933
1	8
1	15
1	933
1	933
1	7
1	44
1	36
1	933
1	933
1	933
1	9
1	933
1	933
1	933
1	933
1	933
1	933
1	933
1	16
1	14
1	933
1	933
1	18
1	933
1	933
1	14
1	933
1	933
1	933
1	14
1	933
1	10
1	36
1	19
1	25
1	14
1	10
1	12
1	933
1	933
1	933
1	933
1	933
1	933
1	933
1	9
1	933
1	18
1	933
1	933
1	14
1	10
1	9
1	933
1	933
1	44
1	933
1	933
1	16
1	933
1	11
1	6
1	933
1	20
1	933
1	933
1	933
1	12
1	933
1	20
1	933
1	20
1	933
1	933
1	933
1	9
1	25
1	933
1	933
1	933
1	28
1	10
1	933
1	8
1	44
1	933
1	933
1	13
1	933
1	933
1	6
1	933
1	933
1	19
1	934
1	933
1	933
1	933
1	934
1	27
1	13
1	933
1	933
1	12
1	933
1	933
1	933
1	933
1	36
1	933
1	933
1	933
1	933
1	933
1	934
1	12
1	934
1	933
1	933
1	933
1	933
1	933
1	10
1	933
1	25
1	933
1	933
1	933
1	933
1	933
1	933
1	933
1	933
1	933
1	13
1	933
1	16
1	9
1	19
1	933
1	933
1	933
1	933
1	933
1	933
1	20
1	4
1	28
1	933
1	933
1	9
1	933
1	933
1	12
1	933
1	5
1	933
1	933
1	2
1	933
1	9
1	16
1	933
1	16
1	3
1	9
1	15
1	17
1	933
1	933
1	18
1	933
1	933
1	933
1	933
1	933
1	933
1	933
1	10
1	11
1	933
1	933
1	933
1	11
1	13
1	933
1	6
1	933
1	933
1	9
1	933
1	933
1	933
1	933
1	933
1	933
1	44
1	933
1	933
1	933
1	933
1	933
1	933
1	933
1	933
1	933
1	933
1	36
1	933
1	933
1	933
1	933
1	933
1	8
1	933
1	8
1	933
1	4
1	933
1	44
1	933
1	44
1	933
1	933
1	933
1	933
1	933
1	933
1	44
1	933
1	933
1	934
1	933
1	933
1	26
1	933
1	44
1	933
1	933
1	933
1	20
1	933
1	933
1	935
1	933
1	933
1	933
1	933
1	933
1	933
1	9
1	933
1	933
1	933
1	16
1	9
1	12
1	933
1	933
1	933
1	933
1	13
1	933
1	933
1	9
1	933
1	10
1	6
1	933
1	933
1	44
1	25
1	8
1	933
1	933
1	11
1	933
1	933
1	10
1	933
1	7
1	10
1	11
1	10
1	11
1	933
1	933
1	4
1	44
1	933
1	13
1	933
1	18
1	933
1	16
1	933
1	933
1	933
1	16
1	933
1	44
1	9
1	933
1	933
1	933
1	933
1	933
1	933
1	933
1	933
1	933
1	933
1	933
1	933
1	28
1	7
1	933
1	933
1	15
1	27
1	14
1	933
1	933
1	933
1	8
1	25
1	933
1	933
1	6124
1	933
1	933
1	933
1	933
1	16
1	933
1	933
1	23
1	18
1	9
1	933
1	7
1	44
1	933
1	934
1	44
1	933
1	18
1	933
1	933
1	9
1	933
1	12
1	44
1	36
1	933
1	8
1	13
1	933
1	6
1	933
1	933
1	934
1	7
1	933
1	933
1	12
1	933
1	933
1	933
1	8
1	933
1	933
1	933
1	21
1	933
1	13
1	11
1	933
1	9
1	933
1	9
1	933
1	933
1	933
1	933
1	933
1	933
1	933
1	18
1	7
1	11
1	7
1	933
1	933
1	36
1	933
1	933
1	18
1	8
1	933
1	933
1	10
1	933
1	933
1	933
1	933
1	6
1	933
1	6
1	933
1	933
1	7
1	933
1	6
1	11
1	27
1	933
1	933
1	44
1	7
1	933
1	933
1	9
1	7
1	8
1	44
1	933
1	933
1	11
1	10
1	933
1	7
1	18
1	933
1	23
1	16
1	10
1	933
1	933
1	5
1	933
1	933
1	933
1	13
1	933
1	2
1	933
1	44
1	44
1	933
1	11
1	933
1	15
1	933
1	933
1	6
1	933
1	12
1	933
1	933
1	933
1	933
1	933
1	13
1	933
1	933
1	933
1	933
1	933
1	20
1	10
1	933
1	6124
1	13
1	12
1	933
1	933
1	44
1	933
1	933
1	933
1	933
1	22
1	4
1	933
1	933
1	933
1	44
1	933
1	933
1	933
1	933
1	933
1	933
1	933
1	933
1	933
1	933
1	933
1	933
1	933
1	933
1	36
1	933
1	933
1	8
1	13
1	933
1	933
1	933
1	933
1	933
1	10
1	933
1	933
1	933
1	7
1	933
1	933
1	933
1	933
1	20
1	12
1	933
1	933
1	933
1	7
1	8
1	933
1	11
1	933
1	933
1	933
1	933
1	933
1	933
1	5
1	933
1	933
1	933
1	933
1	933
1	933
1	933
1	933
1	9
1	5
1	933
1	933
1	934
1	933
1	933
1	27
1	11
1	9
1	933
1	933
1	934
1	933
1	9
1	2
1	9
1	933
1	933
1	7
1	933
1	933
1	20
1	933
1	7
1	36
1	13
1	10
1	933
1	933
1	23
1	44
1	933
1	9
1	933
1	933
1	933
1	934
1	933
1	933
1	933
1	933
1	933
1	933
1	933
1	4
1	8
1	933
1	933
1	933
1	12
1	933
1	933
1	44
1	933
1	934
1	933
1	10
1	934
1	8
1	933
1	36
1	933
1	933
1	933
1	933
1	933
1	933
1	933
1	8
1	933
1	6
1	20
1	933
1	933
1	933
1	933
1	6
1	7
1	933
1	23
1	933
1	11
1	933
1	12
1	19
1	8
1	933
1	933
1	933
1	933
1	933
1	38
1	933
1	13
1	933
1	44
1	6
1	935
1	933
1	7
1	933
1	933
1	933
1	933
1	933
1	933
1	933
1	7
1	933
1	10
1	933
1	933
1	933
1	23
1	933
1	933
1	933
1	4
1	933
1	933
1	933
1	933
1	933
1	933
1	933
1	933
1	933
1	14
1	933
1	933
1	36
1	11
1	933
1	933
1	5
1	933
1	933
1	25
1	10
1	933
1	933
1	934
1	933
1	933
1	9
1	934
1	933
1	933
1	933
1	933
1	14
1	11
1	10
1	933
1	933
1	6
1	933
1	933
1	933
1	9
1	933
1	934
1	20
1	933
1	8
1	933
1	933
1	933
1	933
1	933
1	933
1	933
1	8
1	933
1	933
1	16
1	933
1	44
1	933
1	933
1	933
1	8
1	933
1	8
1	933
1	933
1	933
1	44
1	933
1	933
1	10
1	20
1	933
1	933
1	933
1	933
1	933
1	933
1	933
1	15
1	8
1	8
1	9
1	7
1	933
1	933
1	933
1	933
1	16
1	933
1	933
1	933
1	933
1	933
1	933
1	934
1	933
1	933
1	933
1	9
1	933
1	44
1	933
1	933
1	17
1	26
1	7
1	933
1	933
1	933
1	20
1	933
1	13
1	933
1	933
1	9
1	933
1	933
1	933
1	10
1	933
1	933
1	25
1	19
1	933
1	933
1	933
1	933
1	933
1	933
1	933
1	18
1	933
1	16
1	933
1	933
1	11
1	933
1	933
1	933
1	13
1	933
1	6
1	933
1	933
1	8
1	933
1	933
1	933
1	933
1	933
1	933
1	27
1	933
1	933
1	933
1	933
1	933
1	933
1	13
1	933
1	7
1	933
1	933
1	9
1	25
1	933
1	933
1	933
1	933
1	933
1	933
1	933
1	933
1	6
1	933
1	933
1	933
1	25
1	933
1	933
1	9
1	933
1	4
1	933
1	933
1	933
1	19
1	27
1	933
1	934
1	933
1	44
1	933
1	5
1	933
1	933
1	44
1	933
1	25
1	933
1	933
1	10
1	12
1	14
1	14
1	10
1	20
1	14
1	933
1	933
1	7
1	44
1	7
1	933
1	933
1	933
1	16
1	933
1	933
1	933
1	8
1	933
1	933
2	5
2	26
2	6
2	934
2	6
2	7
2	3
2	3
2	10
2	6
2	934
2	11
2	5
2	3
2	934
2	3
2	7
2	3
2	8
2	25
2	13
2	7
2	10
2	3
2	5
2	3
2	10
2	6
2	6
2	5
2	934
2	3
2	5
2	25
2	3
2	10
2	37
2	19
2	3
2	4
2	6
2	3
2	7
2	3
2	19
2	26
2	26
2	6
2	6
2	3
2	934
2	6
2	8
2	3
2	5
2	3
2	7
2	16
2	7
2	10
2	13
2	3
2	9
2	9
2	3
2	3
2	3
2	3
2	3
2	7
2	3
2	5
2	3
2	4
2	3
2	3
2	10
2	8
2	25
2	25
2	25
2	7
2	10
2	5
2	3
2	4
2	3
2	3
2	3
2	25
2	6
2	3
2	10
2	25
2	3
2	4
2	6
2	25
2	5
2	7
2	11
2	7
2	3
2	7
2	7
2	5
2	3
2	3
2	3
2	25
2	11
2	3
2	4
2	6
2	4
2	45
2	7
2	4
2	3
2	6
2	4
2	4
2	28
2	20
2	3
2	25
2	3
2	3
2	7
2	25
2	3
2	3
2	19
2	8
2	25
2	5
2	3
2	3
2	4
2	3
2	14
2	3
2	5
2	3
2	3
2	3
2	3
2	934
2	21
2	5
2	4
2	4
2	15
2	3
2	11
2	4
2	4
2	3
2	4
2	3
2	4
2	4
2	25
2	4
3	4
3	4
3	6
3	5
3	4
3	5
3	8
3	4
3	4
3	4
3	5
3	4
3	8
3	6
3	6
3	4
3	6
3	7
3	4
3	5
3	4
3	5
3	5
3	5
3	5
3	9
3	4
3	5
3	4
3	6
3	4
3	4
3	5
3	8
3	7
3	4
3	4
3	4
3	5
3	4
3	4
3	7
3	4
3	4
3	4
3	5
3	5
3	4
3	6
3	5
3	5
3	4
3	4
3	5
3	4
3	6
3	5
3	4
3	5
3	5
3	9
3	5
3	4
3	7
3	4
3	8
3	4
3	4
4	8
4	5
4	7
4	10
4	5
4	5
4	5
4	5
4	6
4	10
4	5
4	9
4	5
4	6
4	5
4	7
4	6
4	7
4	5
4	8
4	5
4	6
4	5
4	6
4	5
4	5
4	5
4	5
4	5
4	5
4	5
4	5
5	6
5	7
5	6
5	6
5	6
5	6
5	6
5	6
5	6
5	6
5	7
5	6
5	12
5	6
5	6
5	7
5	6
5	6
5	6
5	8
6	7
6	7
6	8
6	7
6	7
6	7
6	7
6	7
6	7
6	7
6	7
6	7
7	8
7	8
7	8
7	8
7	9
7	8
7	8
8	9
8	9
8	9
8	9
8	9
8	9
8	9
8	9
8	9
9	10
9	10
9	10
9	10
9	10
9	10
10	11
10	11
10	11
10	11
11	12
11	12
11	12
12	13
12	13
13	14
13	14
14	15
15	16
15	16
17	18
17	18
18	19
19	20
19	20
22	23
23	24
24	25
26	27
35	36
43	44
932	933
