1	6124
1	544
1	37
1	21
1	14
1	543
1	543
1	14
1	14
1	543
1	20
1	543
1	543
1	543
1	543
1	18
1	18
1	543
1	18
1	17
1	22
1	543
1	14
1	543
1	543
1	13
1	19
1	20
1	543
1	12
1	12
1	12
1	543
1	10
1	543
1	543
1	543
1	30
1	25
1	19
1	544
1	27
1	17
1	32
1	13
1	15
1	21
1	17
1	543
1	21
1	36
1	12
1	14
1	11
1	543
1	15
1	543
1	10
1	14
1	13
1	11
1	543
1	543
1	15
1	543
1	14
1	543
1	543
1	17
1	29
1	10
1	13
1	543
1	15
1	36
1	22
1	12
1	543
1	10
1	543
1	12
1	8
1	10
1	543
1	544
1	30
1	29
1	543
1	14
1	544
1	15
1	9
1	22
1	21
1	10
1	25
1	544
1	21
1	11
1	15
1	543
1	543
1	13
1	15
1	10
1	543
1	543
1	9
1	14
1	543
1	543
1	543
1	36
1	543
1	543
1	12
1	13
1	543
1	543
1	9
1	543
1	14
1	19
1	543
1	6
1	12
1	543
1	14
1	543
1	26
1	543
1	22
1	17
1	28
1	22
1	543
1	543
1	543
1	9
1	543
1	543
1	17
1	543
1	24
1	543
1	24
1	543
1	22
1	9
1	543
1	31
1	19
1	7
1	13
1	543
1	543
1	13
1	543
1	11
1	543
1	543
1	15
1	26
1	14
1	24
1	543
1	13
1	543
1	19
1	19
1	543
1	12
1	10
1	12
1	543
1	8
1	543
1	13
1	11
1	36
1	543
1	9
1	543
1	543
1	543
1	15
1	543
1	543
1	25
1	17
1	12
1	543
1	29
1	543
1	29
1	31
1	21
1	543
1	12
1	12
1	543
1	543
1	543
1	21
1	543
1	13
1	543
1	10
1	543
1	544
1	8
1	543
1	543
1	16
1	543
1	6124
1	19
1	543
1	21
1	21
1	544
1	544
1	543
1	543
1	13
1	10
1	12
1	22
1	543
1	11
1	9
1	544
1	17
1	543
1	12
1	8
1	8
1	14
1	23
1	543
1	15
1	19
1	31
1	13
1	543
1	17
1	543
1	21
1	543
1	8
1	543
1	543
1	543
1	543
1	544
1	543
1	23
1	7
1	543
1	11
1	26
1	14
1	543
1	9
1	21
1	21
1	543
1	13
1	9
1	13
1	543
1	20
1	21
1	19
1	17
1	15
1	13
1	543
1	543
1	24
1	543
1	20
1	543
1	21
1	26
1	22
1	7
1	13
1	543
1	543
1	13
1	12
1	9
1	7
1	11
1	543
1	22
1	543
1	26
1	10
1	20
1	543
1	20
1	24
1	543
1	22
1	17
1	11
1	17
1	16
1	543
1	543
1	543
1	8
1	543
1	21
1	543
1	543
1	543
1	17
1	543
1	543
1	23
1	4
1	13
1	5
1	20
1	7
1	543
1	543
1	543
1	11
1	9
1	12
1	544
1	6124
1	543
1	16
1	544
1	22
1	543
1	543
1	543
1	543
1	6
1	543
1	9
1	17
1	12
1	543
1	7
1	19
1	545
1	9
1	26
1	20
1	18
1	7
1	5
1	14
1	543
1	9
1	20
1	543
1	25
1	8
1	11
1	36
1	26
1	9
1	8
1	543
1	16
1	543
1	543
1	543
1	20
1	5
1	543
1	543
1	10
1	543
1	36
1	11
1	30
1	543
1	543
1	544
1	25
1	543
1	31
1	21
1	12
1	543
1	12
1	11
1	6
1	24
1	543
1	543
1	11
1	543
1	543
1	543
1	21
1	13
1	543
1	27
1	19
1	24
1	543
1	13
1	543
1	8
1	18
1	25
1	5
1	12
1	21
1	10
1	26
1	9
1	543
1	10
1	543
1	543
1	11
1	543
1	17
1	9
1	20
1	31
1	8
1	8
1	9
1	10
1	26
1	23
1	543
1	7
1	13
1	543
1	543
1	543
1	543
1	543
1	543
1	4
1	543
1	10
1	26
1	13
1	9
1	8
1	10
1	19
1	9
1	22
1	9
1	543
1	25
1	21
1	24
1	543
1	6
1	543
1	12
1	30
1	8
1	543
1	13
1	29
1	7
1	543
1	13
1	36
1	20
1	543
1	12
1	543
1	15
1	29
1	11
1	543
1	25
1	543
1	25
1	13
1	10
1	543
1	12
1	12
1	10
1	543
1	543
1	13
1	543
1	8
1	6124
1	17
1	11
1	8
1	21
1	5
1	20
1	543
1	10
1	7
1	543
1	6
1	543
1	543
1	10
1	543
1	13
1	22
1	7
1	10
1	22
1	13
1	11
1	6
1	543
1	10
1	12
1	24
1	11
1	543
1	543
1	13
1	13
1	9
1	543
1	13
1	10
1	11
1	543
1	10
1	543
1	543
1	17
1	543
1	543
1	543
1	543
1	12
1	543
1	24
1	10
1	11
1	12
1	543
1	543
1	7
1	17
1	12
1	21
1	25
1	543
1	11
1	7
1	36
1	543
1	543
1	9
1	26
1	12
1	13
1	7
1	543
1	13
1	543
1	10
1	21
1	9
1	543
1	24
1	543
1	29
1	543
1	6
1	543
1	10
1	543
1	543
1	543
1	544
1	12
1	543
1	6
1	18
1	543
1	543
1	11
1	13
1	9
1	543
1	543
1	10
1	543
1	14
1	20
1	16
1	23
1	543
1	5
1	543
1	15
1	543
1	36
1	543
1	543
1	20
1	21
1	12
1	13
1	29
1	10
1	36
1	30
1	8
1	543
1	22
1	543
1	543
1	543
1	543
1	23
1	19
1	543
1	30
1	26
1	543
1	543
1	7
1	29
1	21
1	543
1	13
1	24
1	543
1	36
1	543
1	544
1	543
1	7
1	543
1	13
1	5
1	10
1	21
1	9
1	4
1	10
1	543
1	7
1	14
1	30
1	18
1	543
1	10
1	15
1	543
1	13
1	11
1	14
1	8
1	20
1	23
1	9
1	543
1	543
1	543
1	11
1	543
1	10
1	543
1	14
1	10
1	24
1	9
1	543
1	543
1	8
1	17
1	543
1	21
1	6
1	8
1	543
1	17
1	543
1	6
1	9
1	9
1	13
1	9
1	12
1	543
1	543
1	8
1	8
1	19
1	2
1	543
1	21
1	24
1	543
1	543
1	29
1	543
1	24
1	10
1	543
1	543
1	543
1	543
1	543
1	9
1	30
1	36
1	17
1	543
1	543
1	543
1	544
1	543
1	19
1	9
1	21
1	543
1	543
1	543
1	543
1	8
1	36
1	543
1	9
1	543
1	10
1	543
1	543
1	543
1	6
1	22
1	9
1	543
1	6
1	13
1	36
1	11
1	8
1	543
1	543
1	20
1	7
1	4
1	24
1	543
1	543
1	16
1	12
1	543
1	12
1	10
1	20
1	12
1	6124
1	6
1	19
1	543
1	9
1	543
1	21
1	20
1	36
1	543
1	9
1	543
1	16
1	5
1	6
1	543
1	20
1	543
1	7
1	543
1	544
1	543
1	4
1	543
1	36
1	543
1	4
1	543
1	36
1	7
1	17
1	543
1	543
1	10
1	20
1	543
1	9
1	543
1	543
1	543
1	9
1	543
1	543
1	10
1	543
1	5
1	543
1	8
1	543
1	543
1	543
1	543
1	23
1	10
1	23
1	543
1	2
1	10
1	13
1	543
1	25
1	13
1	543
1	543
1	20
1	21
1	11
1	544
1	544
1	543
1	543
1	543
1	543
1	11
1	543
1	9
1	5
1	543
1	4
1	543
1	9
1	36
1	21
1	543
1	20
1	22
1	14
1	11
1	10
1	12
1	8
1	13
1	543
1	9
1	13
1	6
1	543
1	10
1	543
1	12
1	11
1	20
1	6
1	543
1	543
1	17
1	21
1	543
1	543
1	10
1	21
1	543
1	543
1	543
1	9
1	7
1	543
1	543
1	544
1	543
1	544
1	543
1	543
1	23
1	543
1	8
1	25
1	543
1	543
1	543
1	20
1	543
1	543
1	16
1	543
1	543
1	543
1	8
1	12
1	543
1	543
1	20
1	18
1	543
1	543
1	8
1	26
1	10
1	6
1	7
1	543
1	543
1	8
1	36
1	23
1	9
1	23
1	543
1	26
1	6
1	20
1	12
1	543
1	543
1	13
1	8
1	10
1	543
1	22
1	543
1	6124
1	543
1	24
1	24
1	6
1	13
1	543
1	543
1	22
1	8
1	19
1	21
1	8
1	36
1	544
1	21
1	543
1	11
1	543
1	23
1	543
1	11
1	6
1	543
1	543
1	543
1	543
1	543
1	544
1	15
1	21
1	543
1	13
1	543
1	543
1	12
1	7
1	13
1	543
1	543
1	8
1	10
1	543
1	543
1	543
1	544
1	19
1	19
1	10
1	20
1	7
1	7
1	9
1	13
1	5
1	11
1	543
1	22
1	17
1	543
1	20
1	543
1	543
1	543
1	14
1	543
1	4
1	543
1	23
1	4
1	11
1	8
1	543
1	30
1	2
1	6
1	543
1	5
1	543
1	13
1	5
1	543
1	4
1	2
1	20
1	543
1	543
1	4
1	543
1	5
1	11
1	13
1	543
1	8
1	16
1	543
1	13
1	29
1	543
1	543
1	9
1	11
1	21
1	18
1	543
1	543
1	543
1	20
1	11
1	11
1	7
1	11
1	7
1	543
1	7
1	22
1	543
1	543
1	7
1	543
1	543
1	6
1	543
1	543
1	2
1	17
1	543
1	24
1	543
1	13
1	10
1	17
1	543
1	10
1	12
1	24
1	543
1	9
1	543
1	543
1	543
1	7
1	543
1	543
1	543
1	18
1	13
1	10
1	6
1	543
1	543
1	7
1	9
1	9
1	9
1	8
1	543
1	17
1	17
1	543
1	6
1	543
1	544
1	543
1	21
1	543
1	10
1	12
1	8
1	19
1	8
1	10
1	543
1	21
1	543
1	543
1	8
1	17
1	13
1	543
1	543
1	543
1	12
1	13
1	543
1	11
1	6
1	9
1	543
1	6
1	19
1	543
1	543
1	543
1	543
1	11
1	543
1	543
1	17
1	543
1	543
1	543
1	543
1	543
1	543
1	543
1	6
1	543
1	543
1	543
1	543
1	8
1	543
1	25
1	543
1	543
1	17
1	6
1	4
1	6
1	4
1	543
1	17
1	16
1	30
1	13
1	9
1	15
1	23
1	7
1	6
1	543
1	543
1	13
1	12
1	13
1	16
1	543
1	9
1	21
1	30
2	544
2	5
2	7
2	6
2	3
2	4
2	7
2	7
2	4
2	3
2	6
2	17
2	3
2	7
2	22
2	4
2	15
2	3
2	3
2	8
2	10
2	3
2	7
2	7
2	6
2	7
2	544
2	4
2	11
2	7
2	3
2	4
2	3
2	3
2	3
2	12
2	7
2	3
2	3
2	14
2	4
2	3
2	9
2	7
2	3
2	8
2	19
2	3
2	8
2	4
2	16
2	3
2	3
2	23
2	3
2	7
2	5
2	3
2	7
2	7
2	3
2	3
2	3
2	9
2	7
2	3
2	4
2	6
2	3
2	17
2	7
2	6
2	9
2	7
2	4
2	3
2	5
2	3
2	4
2	7
2	14
2	30
2	19
2	8
2	7
2	7
2	5
2	15
2	4
2	4
2	7
2	3
2	6
2	3
2	12
2	11
2	13
2	10
2	3
2	6
2	5
2	3
2	5
2	4
2	5
2	4
2	6
2	3
2	21
2	4
2	3
2	4
2	11
2	10
2	24
2	3
2	12
2	5
2	10
2	3
2	544
2	18
2	9
2	3
2	4
2	5
2	3
2	3
2	3
2	8
2	9
2	4
2	3
2	8
2	7
2	3
2	3
2	3
2	11
2	3
2	5
2	3
2	3
2	6
2	3
2	6
2	3
2	3
2	5
2	4
2	3
2	3
2	3
2	3
2	4
2	3
2	4
2	3
2	3
2	7
2	7
2	3
2	5
2	13
2	6
2	11
2	5
2	4
2	4
2	3
2	4
2	4
2	3
2	4
2	9
2	10
2	3
2	4
2	3
2	6
2	6
2	3
2	7
2	4
2	14
2	8
2	3
2	4
2	3
2	9
2	10
2	8
2	23
2	3
2	3
2	6
2	3
2	3
2	4
2	13
2	21
2	3
2	3
2	3
2	4
2	5
2	3
2	3
2	9
2	22
2	3
3	4
3	8
3	4
3	4
3	4
3	8
3	5
3	7
3	4
3	6
3	5
3	6
3	7
3	4
3	4
3	4
3	6
3	10
3	5
3	4
3	4
3	4
3	5
3	5
3	4
3	5
3	4
3	4
3	4
3	6
3	4
3	4
3	5
3	5
3	5
3	6
3	4
3	11
3	5
3	4
3	5
3	8
3	4
3	9
3	4
3	4
3	4
3	4
3	4
3	4
3	5
3	4
3	5
3	4
3	4
3	4
3	4
3	11
3	19
3	6
3	10
3	5
3	4
3	5
3	5
3	4
3	5
3	4
3	4
3	4
3	4
3	4
3	4
3	10
3	4
3	7
3	4
3	5
3	4
3	4
3	8
3	4
4	5
4	6
4	5
4	5
4	8
4	5
4	6
4	5
4	5
4	5
4	5
4	5
4	5
4	9
4	5
4	6
4	6
4	5
4	5
4	5
4	5
4	7
4	5
4	6
4	5
4	5
4	5
4	7
4	5
4	5
5	6
5	6
5	6
5	6
5	6
5	6
5	6
5	6
5	6
5	6
5	6
5	6
5	6
5	12
5	6
5	6
5	6
5	6
5	6
5	6
5	6
5	6
5	6
5	6
5	6
5	6
5	7
5	6
5	6
5	8
5	6
5	6
6	7
6	7
6	7
6	7
6	7
6	7
6	7
6	7
6	7
6	7
6	7
6	7
6	7
6	7
6	7
6	7
7	8
7	8
7	8
7	8
7	8
7	8
7	8
7	8
7	8
7	9
7	8
7	8
7	8
7	8
7	11
8	9
8	9
8	9
8	9
8	9
8	9
8	9
8	9
8	9
8	9
8	9
9	12
9	10
9	10
9	10
9	10
9	10
9	10
9	10
9	10
9	10
10	11
10	11
10	11
10	11
10	11
10	11
10	11
11	12
11	12
11	12
11	12
11	12
12	13
12	13
12	13
12	13
12	13
12	13
12	13
12	13
13	14
14	15
15	16
16	17
16	17
16	17
16	17
17	18
18	19
19	20
19	20
19	20
20	21
20	21
20	21
21	22
21	22
22	23
23	24
24	25
25	26
28	29
29	30
35	36
542	543
