1	6124
1	23
1	1193
1	14
1	1192
1	1192
1	13
1	1192
1	1192
1	1192
1	1192
1	1192
1	22
1	1192
1	12
1	1192
1	1192
1	1192
1	1193
1	1192
1	1192
1	1192
1	1192
1	1192
1	14
1	1192
1	1192
1	1192
1	1192
1	1192
1	20
1	1192
1	22
1	1192
1	1192
1	1192
1	1192
1	1192
1	1192
1	14
1	1192
1	13
1	1192
1	15
1	1192
1	1192
1	12
1	1192
1	25
1	1192
1	24
1	1192
1	1192
1	1192
1	1192
1	1192
1	20
1	14
1	29
1	1192
1	1192
1	63
1	14
1	1192
1	14
1	1192
1	1192
1	20
1	1192
1	1192
1	49
1	16
1	47
1	1192
1	1192
1	1192
1	10
1	1192
1	1192
1	1192
1	1192
1	34
1	1192
1	1193
1	17
1	11
1	1192
1	18
1	22
1	12
1	46
1	1192
1	1192
1	1192
1	1192
1	1192
1	1192
1	1192
1	15
1	1192
1	22
1	1192
1	13
1	1192
1	1192
1	15
1	14
1	1192
1	16
1	1192
1	1192
1	1192
1	15
1	10
1	1192
1	1192
1	11
1	1192
1	1192
1	1192
1	1192
1	1192
1	1192
1	1192
1	1192
1	1192
1	1193
1	55
1	1192
1	1192
1	1192
1	1192
1	7
1	1192
1	1193
1	18
1	1192
1	17
1	1192
1	1192
1	13
1	20
1	13
1	1192
1	1192
1	1192
1	1192
1	1192
1	1192
1	1192
1	11
1	1192
1	15
1	10
1	13
1	1192
1	1193
1	54
1	1193
1	30
1	1192
1	1192
1	11
1	1192
1	1192
1	1192
1	1192
1	1193
1	1192
1	1192
1	1192
1	1192
1	12
1	1192
1	1192
1	1192
1	1192
1	1192
1	7
1	12
1	1192
1	1192
1	63
1	1192
1	14
1	12
1	33
1	1192
1	1193
1	1192
1	1192
1	8
1	1192
1	1193
1	1192
1	1192
1	12
1	10
1	1192
1	1192
1	1192
1	1192
1	1192
1	1192
1	1192
1	1192
1	1192
1	1192
1	54
1	1193
1	1192
1	1192
1	1192
1	54
1	9
1	1192
1	1192
1	1192
1	1192
1	1192
1	10
1	1192
1	62
1	13
1	1192
1	10
1	1193
1	1192
1	10
1	1192
1	1192
1	11
1	62
1	1192
1	1192
1	1192
1	1192
1	1192
1	1192
1	67
1	1192
1	1192
1	10
1	1192
1	46
1	1192
1	1192
1	1192
1	1192
1	11
1	1192
1	11
1	1192
1	63
1	1192
1	1192
1	1192
1	16
1	1192
1	1192
1	1192
1	1192
1	9
1	1192
1	1192
1	1192
1	1192
1	1192
1	12
1	1192
1	1192
1	1192
1	1192
1	1192
1	1192
1	11
1	46
1	1192
1	8
1	16
1	14
1	1192
1	1193
1	1192
1	28
1	1192
1	12
1	1192
1	1192
1	7
1	1192
1	46
1	46
1	1192
1	1192
1	1192
1	1192
1	17
1	1192
1	1192
1	1192
1	1192
1	62
1	46
1	1192
1	1192
1	1192
1	1192
1	54
1	1192
1	1192
1	1192
1	10
1	1192
1	33
1	1192
1	1192
1	1192
1	27
1	1192
1	1193
1	1192
1	1192
1	12
1	1192
1	1192
1	8
1	1192
1	1192
1	1192
1	1192
1	1192
1	1192
1	1192
1	13
1	1192
1	1193
1	1192
1	1192
1	8
1	1192
1	14
1	1192
1	1192
1	1193
1	1192
1	1192
1	6
1	38
1	1192
1	1192
1	1192
1	1192
1	1192
1	1192
1	1192
1	1192
1	10
1	1193
1	12
1	1192
1	1192
1	1192
1	1192
1	1192
1	1192
1	13
1	1192
1	1192
1	33
1	1192
1	1192
1	1192
1	1193
1	22
1	13
1	1192
1	1192
1	1193
1	1192
1	27
1	1192
1	1192
1	46
1	1192
1	1192
1	1192
1	1192
1	1192
1	1192
1	12
1	1192
1	15
1	9
1	1192
1	1192
1	1192
1	62
1	10
1	6124
1	1192
1	1192
1	27
1	1192
1	1192
1	1192
1	27
1	1192
1	48
1	1192
1	1192
1	1192
1	8
1	1192
1	1192
1	1192
1	1192
1	8
1	1192
1	16
1	1192
1	1192
1	1192
1	1192
1	33
1	1192
1	1192
1	46
1	1192
1	1192
1	1192
1	1192
1	1192
1	1192
1	21
1	1192
1	1193
1	12
1	1192
1	1192
1	47
1	1192
1	1192
1	6124
1	1192
1	1192
1	1192
1	12
1	12
1	1192
1	1192
1	1192
1	8
1	9
1	1192
1	8
1	1192
1	1192
1	1192
1	1192
1	1192
1	13
1	1192
1	1192
1	9
1	7
1	1192
1	1192
1	1192
1	23
1	1192
1	1192
1	10
1	62
1	46
1	1192
1	1192
1	1192
1	1192
1	5
1	7
1	1192
1	1192
1	1192
1	1192
1	1192
1	4
1	6
1	62
1	1192
1	1192
1	1192
1	1192
1	7
1	1192
1	1192
1	1192
1	1192
1	1192
1	1192
1	1192
1	1192
1	1192
1	1192
1	1192
1	1192
1	1192
1	1192
1	9
1	11
1	10
1	14
1	1192
1	27
1	12
1	1192
1	1192
1	1192
1	1192
1	1194
1	1192
1	1192
1	1192
1	1192
1	1192
1	1192
1	1192
1	7
1	1192
1	1192
1	1192
1	1192
1	1192
1	1192
1	1192
1	1192
1	1192
1	1192
1	1192
1	1192
1	8
1	6
1	1192
1	1192
1	1192
1	1192
1	1192
1	1192
1	1192
1	10
1	1192
1	1192
1	1192
1	1196
1	13
1	1192
1	62
1	20
1	31
1	1192
1	12
1	9
1	1192
1	1192
1	1192
1	1192
1	10
1	1192
1	1192
1	1192
1	16
1	6
1	4
1	1192
1	1192
1	1192
1	1192
1	1192
1	20
1	1192
1	11
1	1192
1	7
1	46
1	1192
1	1192
1	1192
1	1192
1	27
1	1192
1	20
1	1192
1	1192
1	1192
1	1192
1	1192
1	6
1	1192
1	1192
1	1193
1	62
1	16
1	1192
1	1192
1	12
1	1192
1	54
1	1192
1	46
1	9
1	9
1	1192
1	1192
1	1192
1	54
1	1192
1	16
1	7
1	49
1	1192
1	1192
1	22
1	11
1	46
1	1192
1	12
1	1192
1	1192
1	4
1	1192
1	1192
1	16
1	1192
1	11
1	1192
1	1192
1	1192
1	1192
1	46
1	1192
1	1192
1	1192
1	1192
1	8
1	62
1	17
1	1192
1	8
1	1192
1	8
1	1192
1	1192
1	33
1	11
1	1192
1	1192
1	14
1	1192
1	1192
1	1192
1	1192
1	7
1	63
1	9
1	1192
1	1192
1	1192
1	1192
1	12
1	1192
1	62
1	1192
1	7
1	19
1	1192
1	1192
1	1192
1	1192
1	33
1	1192
1	11
1	1192
1	1192
1	19
1	1192
1	1192
1	1192
1	20
1	1192
1	7
1	46
1	10
1	1192
1	1192
1	1192
1	24
1	1192
1	5
1	7
1	1192
1	7
1	1192
1	1192
1	33
1	1192
1	1192
1	1192
1	1192
1	1192
1	1192
1	1192
1	1192
1	27
1	1192
1	1192
1	1192
1	1192
1	1192
1	1192
1	1192
1	6
1	1192
1	8
1	1192
1	1192
1	1192
1	1192
1	1192
1	1192
1	1192
1	1192
1	1192
1	1192
1	1192
1	1192
1	33
1	7
1	1192
1	1192
1	1192
1	7
1	1192
1	1192
1	54
1	1192
1	1192
1	1192
1	13
1	1192
1	7
1	10
1	1192
1	1192
1	1192
1	1192
1	12
1	1192
1	10
1	1192
1	1192
1	1192
1	16
1	8
1	1192
1	1192
1	1192
1	27
1	1192
1	1192
1	1192
1	10
1	1192
1	1192
1	1192
1	1192
1	1192
1	1192
1	20
1	1192
1	7
1	27
1	1192
1	46
1	1192
1	1192
1	1192
1	19
1	1192
1	22
1	1192
1	1192
1	19
1	1192
1	1192
1	16
1	1192
1	16
1	1192
1	1192
1	1192
1	1192
1	5
1	33
1	46
1	1192
1	1192
1	54
1	1192
1	1192
1	1192
1	1192
1	1192
1	1192
1	1192
1	8
1	8
1	1192
1	1192
1	1192
1	1192
1	9
1	1192
1	1192
1	1192
1	1192
1	6
1	1192
1	4
1	11
1	1192
1	1192
1	9
1	1192
1	1192
1	1193
1	1192
1	1192
1	1192
1	1192
1	1192
1	1192
1	8
1	7
1	1192
1	15
1	1192
1	1192
1	1192
1	1192
1	1192
1	1192
1	1192
1	1192
1	1192
1	1192
1	1192
1	1193
1	1192
1	1192
1	1192
1	1192
1	1192
1	1192
1	1192
1	10
1	1192
1	27
1	1192
1	1192
1	1192
1	15
1	1192
1	1192
1	1192
1	19
1	12
1	16
1	1192
1	1192
1	1192
1	1192
1	1192
1	63
1	1192
1	1192
1	1192
1	1192
1	1192
1	19
1	1192
1	1192
1	11
1	1192
1	1192
1	1192
1	28
1	8
1	1192
1	1192
1	1192
1	1192
1	1192
1	1192
1	1192
1	1192
1	1192
1	12
1	1192
1	1192
1	6
1	1192
1	1192
1	54
1	11
1	10
1	1192
1	1192
1	1192
1	1192
1	1192
1	1192
1	46
1	33
1	7
1	1193
1	1192
1	1192
1	1192
1	27
1	1192
1	8
1	1192
1	1192
1	1192
1	1192
1	5
1	1192
1	1192
1	1192
1	8
1	9
1	4
1	1192
1	1192
1	1192
1	1192
1	62
1	58
1	1192
1	1192
1	9
1	1192
1	8
1	6
1	8
1	1192
1	1192
1	1192
1	1192
1	12
1	9
1	1192
1	1192
1	1192
1	22
1	1192
1	11
1	1192
1	1192
1	1192
1	1192
1	1192
1	1192
1	1192
1	1192
1	1192
1	1192
1	1192
1	1192
1	10
1	1192
1	1192
1	1192
1	1192
1	9
1	27
1	33
1	5
1	13
1	7
1	1192
1	27
1	5
1	9
1	1192
1	1192
1	1192
1	1192
1	1192
1	1192
1	1192
1	1192
1	6
1	1192
1	1192
1	1192
1	1192
1	1192
1	1192
1	8
1	27
1	1192
1	46
1	1192
1	1192
1	1192
1	7
1	10
1	1192
1	1192
1	1192
1	33
1	1192
1	1192
1	1192
1	20
1	8
1	1192
1	1192
1	1192
1	1192
1	1192
1	9
1	1192
1	1192
1	1192
1	62
1	1192
1	1193
1	1192
1	1192
1	1192
1	14
1	1192
1	10
1	54
1	1192
1	1192
1	22
1	1192
1	9
1	1192
1	1192
1	1192
1	1192
1	22
1	1192
1	7
1	1192
1	27
1	27
1	1192
1	14
1	1192
1	1192
1	1192
1	11
1	1192
1	1192
1	1192
1	1192
1	1192
1	1192
1	1192
1	1192
1	18
1	20
1	1192
1	1192
1	12
1	4
1	1192
1	1192
1	1192
1	54
1	13
1	1192
1	9
1	21
1	1192
1	1192
1	1192
1	63
1	8
1	1192
1	8
1	6
1	1192
1	1192
1	1192
1	27
1	54
1	10
1	8
1	1192
1	1192
1	1192
1	1192
1	1192
1	1192
1	1192
1	21
1	13
1	1192
1	1192
1	11
1	1192
1	1192
1	7
1	1192
1	27
1	1192
1	1192
1	1192
1	6
1	1192
1	1192
1	1192
1	1192
1	1192
1	1192
1	1192
1	7
1	1192
1	20
1	54
1	6
1	1192
1	20
1	1192
1	1192
1	1192
1	27
1	1192
1	1192
1	1192
1	27
1	1192
1	1192
1	1192
1	6124
1	1192
1	1192
1	9
1	1192
1	1192
1	1192
1	1192
1	1192
1	1192
1	1192
1	1192
1	1192
1	1192
1	1192
1	1192
1	1192
1	1192
1	4
1	62
1	1192
1	1192
1	10
1	1192
1	1192
1	21
1	1192
1	1192
1	7
1	1192
1	16
1	1192
1	8
1	54
1	1192
1	2
1	1192
1	1192
1	1192
1	1192
1	1192
1	1192
1	7
1	1192
1	1192
1	27
1	1192
1	5
1	19
1	1192
1	1192
1	8
1	1192
1	9
1	1192
1	33
1	1192
1	33
1	9
1	1192
1	1192
1	1192
1	27
1	1192
1	1192
1	1192
1	1192
1	1192
1	1192
1	1192
1	1192
1	6
1	62
1	1192
1	1192
1	1192
1	1192
1	8
1	1192
1	1192
1	9
1	33
1	1192
1	1192
1	20
1	1192
1	7
1	1192
1	27
1	1192
1	1192
1	33
1	1192
1	1192
1	17
1	1192
1	1192
1	1192
1	1192
1	12
1	5
1	1192
1	1192
1	12
1	1192
1	1192
1	1192
1	27
1	1192
1	1192
1	1193
1	1192
1	16
1	10
1	1192
1	1192
1	1192
1	1192
1	7
1	1192
1	1192
1	1192
1	1192
1	7
1	62
1	1192
1	11
1	12
1	1192
1	1192
1	1192
1	1192
1	1192
1	1192
1	1192
1	1192
1	20
1	1192
1	54
1	1192
1	27
1	47
1	1192
1	1192
1	1192
1	1192
1	27
1	33
1	1192
1	1192
1	1193
1	1192
1	1193
1	1192
1	1192
1	1192
1	1192
1	1192
1	9
1	33
1	12
1	1192
1	1192
1	11
1	7
1	1192
1	8
1	7
1	14
1	1192
1	12
1	16
1	8
1	1193
1	1192
1	1192
1	8
1	1192
1	1192
1	1192
1	12
1	1192
1	1192
1	1192
1	1192
1	16
1	1192
1	1192
1	1192
1	1192
1	1193
1	1192
1	34
1	1192
1	62
1	1192
1	12
1	62
1	1192
1	1192
1	1192
1	1192
1	54
1	1192
1	21
1	1192
1	9
1	1192
1	1192
1	1192
1	62
1	22
1	7
1	1192
1	1192
1	1192
1	1192
1	19
1	6
1	1192
1	1192
1	1192
1	1192
1	7
1	5
1	1192
1	1192
1	8
1	21
1	12
1	15
1	1192
1	1192
1	62
1	1192
1	1192
1	1192
1	1192
1	27
1	1192
1	20
1	1192
1	1192
1	20
1	12
1	6
1	1192
1	22
1	1192
1	1192
1	1192
1	8
1	1192
1	1192
1	14
1	6
1	62
1	1192
1	1192
1	1192
1	46
1	12
1	1192
1	20
1	1192
1	1192
1	6
1	1192
1	1192
1	12
1	46
1	12
1	1192
1	1192
1	4
1	22
1	1192
1	1192
1	15
1	1192
1	1192
1	1192
1	9
1	1192
1	1192
1	1192
1	20
1	1192
1	54
1	13
1	1192
1	1192
1	1192
1	1192
1	1192
1	27
1	1192
1	1192
1	1192
1	7
1	1192
1	1192
1	33
1	1192
1	10
1	5
1	2
1	1192
1	1192
1	8
1	1192
1	1192
1	1192
1	1192
1	1192
1	1192
1	1192
1	8
1	54
1	1192
1	1192
1	1192
1	1192
1	1193
1	1192
1	1192
1	22
1	54
1	1192
1	1192
1	1192
1	1192
1	4
1	1192
1	54
1	1192
1	1193
1	1192
1	1192
1	1192
1	33
1	46
1	10
1	22
1	1192
1	1192
1	1192
1	1192
1	1192
1	1192
1	1193
1	5
1	1192
1	1192
1	1192
1	1192
1	1192
1	12
1	9
1	56
1	1192
1	1192
1	1192
1	9
1	15
1	1192
1	10
1	1192
1	8
1	1192
1	4
1	1192
1	1192
1	1192
1	1192
1	12
1	1192
1	1192
1	27
1	1192
1	1192
1	1192
1	1192
1	9
1	1192
1	1192
1	1192
1	1192
1	1192
1	1192
1	1192
1	12
1	1192
1	1192
1	27
1	7
1	8
1	1192
1	1192
1	1192
1	12
1	20
1	1192
1	1192
1	1192
1	27
1	1192
1	1192
1	1192
1	1192
1	1192
1	46
1	1192
1	1192
1	10
1	1192
1	4
1	1192
1	1192
1	1192
1	6
1	12
1	1192
1	1192
1	11
1	7
1	27
1	1193
1	1192
1	1192
1	1192
1	1192
1	1192
1	12
1	4
1	10
1	6
1	1192
1	13
1	8
1	1192
1	4
1	1192
1	1192
1	7
1	1192
1	10
1	1192
1	9
1	1192
1	1192
1	10
1	1192
1	9
1	1192
1	1192
1	1192
1	7
1	20
1	1192
1	1192
1	27
1	1192
1	1192
1	1192
1	1192
1	1192
1	1192
1	1192
1	1192
1	1192
1	1192
1	1192
1	5
1	4
1	1192
2	6
2	6
2	28
2	7
2	6
2	6
2	1193
2	6
2	28
2	55
2	3
2	5
2	9
2	8
2	4
2	3
2	7
2	1193
2	10
2	8
2	6
2	1193
2	3
2	8
2	5
2	6
2	13
2	3
2	7
2	13
2	1193
2	55
2	8
2	7
2	8
2	3
2	5
2	9
2	3
2	3
2	3
2	3
2	8
2	3
2	4
2	13
2	3
2	7
2	9
2	3
2	10
2	7
2	5
2	6
2	11
2	13
2	3
2	3
2	3
2	1193
2	1193
2	3
2	8
2	5
2	3
2	3
2	1193
2	12
2	63
2	6
2	3
2	5
2	4
2	6
2	3
2	6
2	6
2	3
2	3
2	3
2	5
2	3
2	4
2	6
2	3
2	3
2	3
2	3
2	3
2	5
2	3
2	3
2	6
2	3
2	8
2	11
2	5
2	3
2	3
2	7
2	3
2	47
2	5
2	3
2	3
2	13
2	16
2	5
2	9
2	6
2	4
2	5
2	3
2	3
2	9
2	3
2	4
2	12
2	3
2	3
2	6
2	3
2	8
2	9
2	3
2	3
2	5
2	3
2	3
2	7
2	6
2	6
2	5
2	3
2	55
2	4
2	6
2	4
2	9
2	3
2	5
2	9
2	4
2	3
2	4
2	4
2	6
2	4
2	3
2	63
2	3
2	6
2	5
2	3
2	4
2	3
2	4
2	4
2	9
2	5
2	3
2	5
2	6
2	3
2	3
2	3
2	3
2	3
2	3
2	34
2	5
2	5
2	3
2	4
2	5
2	12
2	63
2	6
2	3
2	3
2	4
2	3
2	9
2	11
2	8
2	55
2	4
2	4
2	4
2	3
2	3
2	3
2	9
2	3
2	3
2	6
2	6
2	8
2	8
2	6
2	3
2	4
2	3
2	4
2	3
2	3
2	5
2	3
2	3
2	5
2	3
2	3
2	3
2	3
2	15
2	3
2	6
2	3
3	4
3	4
3	4
3	5
3	5
3	5
3	13
3	5
3	4
3	5
3	4
3	5
3	4
3	4
3	4
3	4
3	4
3	4
3	4
3	4
3	4
3	6
3	6
3	4
3	5
3	4
3	4
3	5
3	4
3	6
3	5
3	6
3	5
3	4
3	5
3	6
3	5
3	5
3	4
3	9
3	4
3	4
3	6
3	4
3	7
3	5
3	4
3	4
3	5
3	6
3	14
3	7
3	5
3	4
3	5
3	5
3	5
3	4
3	4
3	4
3	5
3	4
3	4
3	4
3	4
3	4
3	5
3	4
3	6
3	5
3	4
3	4
3	4
3	5
3	5
3	8
4	6
4	5
4	6
4	5
4	5
4	5
4	6
4	5
4	5
4	6
4	6
4	5
4	5
4	5
4	7
4	6
4	7
4	5
4	5
4	5
4	5
4	6
4	5
4	5
4	5
4	5
4	6
4	5
4	5
4	6
4	5
4	5
4	7
4	5
4	5
4	5
4	5
4	6
4	10
5	6
5	7
5	6
5	6
5	7
5	6
5	6
5	6
5	6
5	6
5	6
5	7
5	6
5	6
5	6
5	6
5	6
5	6
6	7
6	7
6	7
6	7
6	7
6	11
6	7
6	7
6	7
6	7
6	7
6	7
6	7
6	7
6	7
6	7
6	7
6	7
7	8
7	8
7	8
7	8
7	8
7	8
7	8
7	8
7	8
7	8
7	8
7	8
8	9
8	9
8	9
8	9
8	9
8	9
8	9
9	10
9	10
9	10
9	10
9	10
9	10
10	11
10	11
10	11
10	11
10	11
11	12
11	12
11	12
11	12
11	12
11	12
11	12
11	12
13	14
14	15
15	16
15	16
18	19
19	20
19	20
21	22
26	27
26	27
32	33
45	46
53	54
61	62
1191	1192
