1	6124
1	168
1	26
1	22
1	16
1	167
1	15
1	16
1	23
1	19
1	22
1	29
1	13
1	22
1	167
1	15
1	14
1	25
1	169
1	28
1	15
1	167
1	8
1	6124
1	25
1	18
1	15
1	14
1	13
1	168
1	31
1	168
1	5
1	167
1	12
1	168
1	15
1	33
1	21
1	14
1	13
1	167
1	7
1	11
1	21
1	20
1	13
1	169
1	13
1	16
1	10
1	18
1	35
1	16
1	6124
1	13
1	14
1	11
1	12
1	12
1	25
1	16
1	28
1	19
1	13
1	167
1	15
1	26
1	168
1	167
1	10
1	15
1	167
1	169
1	16
1	8
1	18
1	167
1	14
1	5
1	167
1	11
1	12
1	10
1	12
1	15
1	13
1	11
1	25
1	19
1	6
1	18
1	168
1	15
1	168
1	17
1	167
1	14
1	21
1	11
1	17
1	6
1	14
1	6124
1	167
1	167
1	32
1	168
1	11
1	7
1	28
1	12
1	18
1	18
1	10
1	25
1	6124
1	18
1	9
1	20
1	14
1	28
1	9
1	11
1	10
1	11
1	12
1	18
1	25
1	13
1	6124
1	19
1	17
1	12
1	15
1	16
1	12
1	13
1	16
1	27
1	19
1	17
1	10
1	7
1	14
1	12
1	25
1	15
1	13
1	8
1	29
1	167
1	167
1	2
1	167
1	13
1	5
1	15
1	167
1	12
1	167
1	25
1	14
1	6
1	12
1	10
1	11
1	11
1	167
1	16
1	167
1	14
1	167
1	9
1	16
1	7
1	16
1	11
1	11
1	167
1	8
1	6124
1	8
1	4
1	18
1	11
1	11
1	15
1	168
1	32
1	169
1	14
1	10
1	11
1	12
1	10
1	16
1	11
1	16
1	8
1	7
1	11
1	13
1	21
1	12
1	11
1	12
1	12
1	167
1	18
1	9
1	7
1	167
1	6124
1	16
1	167
1	168
1	167
1	9
1	13
1	13
1	7
1	8
1	15
1	13
1	11
1	18
1	6
1	6
1	11
1	9
1	15
1	28
1	25
1	14
1	21
1	5
1	10
1	8
1	16
1	29
1	13
1	7
1	10
1	167
1	5
1	8
1	12
1	12
1	32
1	11
1	4
1	5
1	18
1	13
1	15
1	9
1	19
1	25
1	168
1	8
1	11
1	10
1	12
1	9
1	11
1	167
1	14
1	2
1	18
1	14
1	167
1	18
1	32
1	11
1	28
1	33
1	8
1	16
1	10
1	10
1	28
1	167
1	6124
1	167
1	4
1	22
1	21
1	12
1	4
1	32
1	16
1	8
1	9
1	167
1	169
1	7
1	9
1	28
1	7
1	11
1	5
1	15
1	167
1	5
1	5
1	8
1	28
1	19
1	10
1	18
1	4
1	11
1	9
1	167
1	167
1	10
1	12
1	12
1	10
1	4
1	11
1	28
1	14
1	167
1	11
1	33
1	12
1	9
1	8
1	11
1	18
1	15
1	12
1	8
1	12
1	12
1	5
1	18
1	14
1	11
1	21
1	167
1	11
1	167
1	28
1	11
1	4
1	25
1	167
1	10
1	6
1	12
1	7
1	14
1	167
1	7
1	14
1	8
1	169
1	10
1	16
1	18
1	25
1	167
1	28
1	9
1	7
1	167
1	32
1	28
1	11
1	15
1	11
1	3
1	167
1	15
1	10
1	25
1	6
1	13
1	9
1	170
1	14
1	168
1	7
1	6
1	25
1	9
1	14
1	8
1	6124
1	167
1	6
1	13
1	32
1	5
1	167
1	11
1	10
1	167
1	15
1	11
1	9
1	25
1	167
1	9
1	12
1	18
1	15
1	16
1	9
1	28
1	5
1	18
1	16
1	5
1	10
1	18
1	12
1	167
1	18
1	4
1	6
1	3
1	11
1	167
1	10
1	6124
1	11
1	25
1	167
1	4
1	6
1	19
1	10
1	5
1	25
1	14
1	9
1	9
1	6
1	4
1	15
1	12
1	7
1	167
1	5
1	9
1	11
1	13
1	10
1	19
1	5
1	167
1	11
1	7
1	25
1	15
1	9
1	167
1	8
1	11
1	11
1	10
1	8
1	10
1	32
1	167
1	167
1	13
1	13
1	4
1	11
1	9
1	14
1	5
1	13
1	13
1	5
1	14
1	12
1	32
1	167
1	18
1	7
1	167
1	7
1	19
1	11
1	8
1	15
1	11
1	15
1	7
1	28
1	13
1	12
1	10
1	16
1	4
1	18
1	10
1	167
1	11
1	19
1	167
1	6
1	167
1	12
1	167
1	14
1	25
1	9
1	6
1	167
1	16
1	14
1	18
1	167
1	25
1	167
1	7
1	28
1	18
1	9
1	11
1	7
1	6
1	167
1	12
1	7
1	8
1	167
1	10
1	13
1	16
1	5
1	168
1	11
1	12
1	18
1	32
1	11
1	11
1	7
1	167
1	8
1	10
1	25
1	10
1	11
1	167
1	11
1	32
1	2
1	8
1	15
1	14
1	6
1	19
1	16
1	25
1	9
1	10
1	20
1	19
1	7
1	11
1	7
1	9
1	21
1	2
1	5
1	8
1	14
1	11
1	14
1	9
1	167
1	7
1	6
1	167
1	13
1	10
1	7
1	11
1	167
1	167
1	14
1	21
1	11
1	6
1	167
1	167
1	5
1	26
1	12
1	8
1	14
1	18
1	5
1	14
1	6
1	12
1	12
1	5
1	12
1	18
1	7
1	8
1	11
1	18
1	15
1	6
1	10
1	10
1	10
1	167
1	15
1	167
1	7
1	11
1	26
1	14
1	18
1	12
1	11
1	7
1	7
1	168
1	167
1	9
1	167
1	6
1	15
1	18
1	5
1	8
1	5
1	14
1	6
1	6
1	7
1	16
1	14
1	167
1	3
1	5
1	5
1	9
1	11
1	32
1	21
1	7
1	32
1	12
1	167
1	167
1	15
1	12
1	15
1	167
1	12
1	14
1	17
1	8
1	167
1	18
1	11
1	167
1	16
1	32
1	17
1	12
1	10
1	25
1	167
1	5
1	18
1	7
1	6
1	6
1	7
1	2
1	12
1	168
1	5
1	167
1	11
1	167
1	13
1	7
1	8
1	14
1	8
1	16
1	5
1	167
1	17
1	12
1	15
1	12
1	7
1	19
1	8
1	25
1	26
1	12
1	12
1	167
1	12
1	11
1	7
1	8
1	8
1	7
1	167
1	18
1	7
1	6
1	6
1	5
1	11
1	21
1	6
1	11
1	13
1	5
1	6
1	32
1	5
1	167
2	8
2	12
2	12
2	14
2	5
2	6
2	3
2	3
2	3
2	7
2	3
2	3
2	3
2	10
2	6
2	3
2	3
2	3
2	3
2	8
2	5
2	3
2	12
2	7
2	8
2	26
2	4
2	4
2	4
2	3
2	5
2	3
2	5
2	8
2	8
2	13
2	4
2	11
2	3
2	8
2	3
2	3
2	9
2	4
2	11
2	20
2	3
2	13
2	3
2	15
2	7
2	9
2	9
2	3
2	3
2	6
2	4
2	5
2	3
2	6
2	7
2	5
2	9
2	12
2	3
2	6
2	3
2	3
2	3
2	4
2	7
2	3
2	3
2	3
2	11
2	8
2	4
2	7
2	3
2	3
2	7
2	4
2	5
2	11
2	4
2	8
2	3
2	11
2	6
2	7
2	15
2	9
2	4
2	3
2	4
2	3
2	3
2	3
2	3
2	3
2	3
2	3
2	3
2	6
2	3
2	8
2	5
2	6
2	7
2	3
2	3
2	3
2	3
2	4
2	3
2	3
2	6
2	3
2	3
2	3
2	7
2	3
2	3
2	9
2	3
2	4
2	3
2	11
2	16
2	4
2	3
2	3
2	6
2	6
2	3
2	22
2	6
2	7
2	3
2	5
2	4
2	3
2	3
2	9
2	169
2	7
2	11
2	3
2	3
2	5
2	3
2	4
2	3
2	3
2	3
2	3
2	4
2	4
2	4
2	9
2	3
2	5
2	8
2	3
2	3
2	4
2	4
2	4
2	5
2	10
2	8
2	4
2	9
2	3
2	3
2	3
2	3
2	3
2	5
2	7
2	4
2	3
2	4
2	12
2	4
2	6
2	3
2	16
2	15
2	3
2	3
2	3
2	7
2	3
3	4
3	4
3	4
3	4
3	4
3	5
3	14
3	4
3	5
3	5
3	5
3	5
3	10
3	4
3	4
3	4
3	4
3	4
3	5
3	4
3	6
3	16
3	5
3	6
3	5
3	5
3	4
3	4
3	7
3	4
3	4
3	4
3	4
3	5
3	5
3	4
3	4
3	4
3	4
3	4
3	6
3	4
3	5
3	4
3	4
3	4
3	11
3	5
3	4
3	4
3	4
3	5
3	4
3	4
3	4
3	4
3	4
3	5
3	5
3	4
3	8
3	4
3	5
3	4
3	4
3	4
3	6
3	4
3	5
3	4
4	6
4	6
4	5
4	6
4	5
4	5
4	5
4	7
4	5
4	5
4	5
4	5
4	5
4	5
4	6
4	5
4	5
4	8
4	5
4	5
4	5
4	7
4	5
4	5
4	5
4	5
4	5
4	5
4	5
4	6
4	5
4	5
4	5
4	6
4	5
4	5
4	5
4	10
4	5
4	5
4	5
4	5
4	5
5	6
5	6
5	6
5	6
5	6
5	6
5	6
5	6
5	7
5	6
5	6
5	6
5	6
5	6
5	6
5	6
5	6
5	6
5	6
5	6
5	6
5	6
6	7
6	7
6	7
6	7
6	8
6	7
6	7
6	7
6	7
6	7
6	7
6	7
6	7
6	7
6	7
6	7
6	7
6	7
6	7
7	8
7	8
7	8
7	8
7	8
7	8
7	8
7	8
7	8
7	8
7	8
8	9
8	9
9	10
9	10
9	10
9	10
9	10
9	10
9	10
9	10
10	11
10	11
10	11
10	11
10	11
10	11
10	11
10	11
10	11
10	11
11	12
11	12
11	12
11	12
11	12
11	12
12	13
12	13
12	13
13	14
13	14
13	14
13	14
13	14
13	14
14	15
14	15
14	15
15	16
16	17
17	18
17	18
17	18
18	19
20	21
24	25
24	25
27	28
31	32
166	167
