10	6124
10	6124
11	6124
11	6124
13	6124
13	6124
13	6124
13	6124
13	6124
13	6124
13	6124
13	6124
14	6124
14	6124
14	6124
14	6124
14	6124
14	6124
14	6124
14	6124
14	6124
14	6124
14	6124
14	6124
15	6124
15	6124
15	6124
15	6124
15	6124
15	6124
15	6124
15	6124
15	6124
15	6124
15	6124
15	6124
16	6124
16	6124
16	6124
16	6124
16	6124
16	6124
16	6124
16	6124
16	6124
16	6124
16	6124
17	6124
17	6124
17	6124
17	6124
17	6124
17	6124
17	6124
17	6124
17	6124
17	6124
17	6124
18	6124
18	6124
18	6124
18	6124
18	6124
18	6124
18	6124
18	6124
18	6124
18	6124
18	6124
18	6124
19	6124
19	6124
19	6124
19	6124
19	6124
19	6124
19	6124
19	6124
19	6124
19	6124
19	6124
20	6124
20	6124
20	6124
20	6124
20	6124
20	6124
20	6124
20	6124
20	6124
20	6124
20	6124
20	6124
21	6124
21	6124
21	6124
21	6124
21	6124
21	6124
21	6124
21	6124
21	6124
22	6124
22	6124
22	6124
22	6124
22	6124
22	6124
22	6124
23	6124
23	6124
23	6124
23	6124
23	6124
23	6124
23	6124
23	6124
24	6124
24	6124
24	6124
24	6124
24	6124
24	6124
24	6124
24	6124
24	6124
24	6124
24	6124
25	6124
25	6124
25	6124
25	6124
25	6124
25	6124
25	6124
25	6124
26	6124
26	6124
26	6124
26	6124
26	6124
26	6124
27	6124
27	6124
27	6124
27	6124
27	6124
27	6124
27	6124
27	6124
27	6124
28	6124
28	6124
28	6124
28	6124
28	6124
29	6124
29	6124
29	6124
29	6124
30	6124
30	6124
30	6124
30	6124
30	6124
30	6124
31	6124
31	6124
32	6124
33	6124
33	6124
36	6124
36	6124
36	6124
36	6124
37	6124
37	6124
44	6124
49	6124
49	6124
49	6124
49	6124
50	6124
50	6124
51	6124
51	6124
52	6124
53	6124
54	6124
54	6124
56	6124
57	6124
59	6124
63	6124
65	6124
68	6124
69	6124
70	6124
73	6124
472	6124
472	6124
472	6124
472	6124
472	6124
472	6124
472	6124
472	6124
472	6124
472	6124
472	6124
472	6124
472	6124
472	6124
472	6124
472	6124
472	6124
472	6124
472	6124
472	6124
472	6124
472	6124
472	6124
472	6124
472	6124
472	6124
472	6124
472	6124
472	6124
472	6124
472	6124
472	6124
472	6124
472	6124
472	6124
472	6124
472	6124
472	6124
472	6124
472	6124
472	6124
472	6124
472	6124
473	6124
473	6124
473	6124
473	6124
473	6124
473	6124
473	6124
473	6124
473	6124
473	6124
473	6124
473	6124
473	6124
473	6124
473	6124
473	6124
473	6124
473	6124
473	6124
473	6124
474	6124
474	6124
474	6124
474	6124
474	6124
474	6124
474	6124
475	6124
475	6124
475	6124
475	6124
475	6124
475	6124
475	6124
475	6124
475	6124
475	6124
475	6124
475	6124
475	6124
475	6124
476	6124
476	6124
476	6124
476	6124
477	6124
477	6124
477	6124
477	6124
477	6124
477	6124
478	6124
478	6124
478	6124
478	6124
478	6124
478	6124
479	6124
479	6124
480	6124
480	6124
480	6124
480	6124
481	6124
481	6124
481	6124
481	6124
482	6124
482	6124
482	6124
482	6124
483	6124
483	6124
485	6124
486	6124
486	6124
486	6124
486	6124
486	6124
486	6124
486	6124
487	6124
487	6124
487	6124
487	6124
487	6124
488	6124
488	6124
491	6124
492	6124
493	6124
496	6124
