7	6124
7	6124
8	6124
8	6124
9	6124
9	6124
9	6124
10	6124
10	6124
10	6124
11	6124
12	6124
12	6124
13	6124
13	6124
13	6124
13	6124
13	6124
14	6124
14	6124
14	6124
14	6124
15	6124
15	6124
15	6124
15	6124
15	6124
15	6124
16	6124
16	6124
16	6124
17	6124
17	6124
17	6124
17	6124
17	6124
17	6124
17	6124
18	6124
18	6124
18	6124
18	6124
18	6124
18	6124
19	6124
19	6124
19	6124
19	6124
19	6124
19	6124
20	6124
20	6124
20	6124
21	6124
21	6124
22	6124
22	6124
22	6124
22	6124
23	6124
23	6124
23	6124
23	6124
23	6124
23	6124
24	6124
24	6124
25	6124
26	6124
26	6124
26	6124
27	6124
27	6124
27	6124
27	6124
27	6124
28	6124
30	6124
30	6124
30	6124
30	6124
31	6124
31	6124
32	6124
32	6124
32	6124
33	6124
33	6124
34	6124
37	6124
38	6124
39	6124
637	6124
637	6124
637	6124
637	6124
637	6124
637	6124
637	6124
637	6124
637	6124
637	6124
637	6124
637	6124
637	6124
637	6124
637	6124
637	6124
638	6124
638	6124
638	6124
638	6124
638	6124
638	6124
638	6124
638	6124
639	6124
639	6124
639	6124
639	6124
639	6124
639	6124
639	6124
640	6124
640	6124
641	6124
641	6124
641	6124
641	6124
641	6124
642	6124
642	6124
643	6124
645	6124
645	6124
645	6124
645	6124
645	6124
647	6124
647	6124
647	6124
647	6124
648	6124
650	6124
653	6124
654	6124
660	6124
