1	6124
1	262
1	263
1	31
1	262
1	33
1	6124
1	32
1	263
1	262
1	262
1	20
1	262
1	262
1	32
1	11
1	262
1	13
1	263
1	10
1	262
1	13
1	32
1	9
1	16
1	4
1	262
1	10
1	262
1	262
1	16
1	262
1	8
1	262
1	11
1	7
1	10
1	23
1	32
1	22
1	22
1	12
1	10
1	262
1	5
1	262
1	262
1	262
1	31
1	262
1	262
1	10
1	11
1	263
1	22
1	10
1	6
1	12
1	262
1	16
1	262
1	7
1	262
1	13
1	262
1	12
1	10
1	10
1	262
1	10
1	10
1	262
1	262
1	10
1	15
1	262
1	262
1	5
1	10
1	10
1	13
1	12
1	30
1	22
1	262
1	262
1	262
1	4
1	262
1	19
1	262
1	262
1	262
1	9
1	9
1	32
1	262
1	262
1	262
1	6
1	31
1	32
1	262
1	262
1	12
1	262
1	262
1	262
1	11
1	10
1	10
1	262
1	262
1	32
1	12
1	262
1	19
1	30
1	14
1	30
1	262
1	7
1	262
1	4
1	6124
1	262
1	262
1	13
1	262
1	30
1	6
1	262
1	262
1	262
1	6124
1	11
1	262
1	262
1	15
1	262
1	262
1	11
1	262
1	262
1	26
1	31
1	262
1	262
1	262
1	262
1	10
1	32
1	6
1	262
1	262
1	6
1	262
1	8
1	262
1	262
1	22
1	7
1	11
1	262
1	30
1	262
1	262
1	5
1	8
1	9
1	6
1	10
1	17
1	22
1	262
1	7
1	262
1	262
1	30
1	32
1	33
1	262
1	5
1	263
1	262
1	262
1	262
1	262
1	32
1	262
1	5
1	10
1	262
1	262
1	32
1	32
1	11
1	262
1	6
1	262
1	11
1	12
1	262
1	11
1	10
1	9
1	8
1	8
1	10
1	262
1	4
1	11
1	14
1	263
1	262
1	9
1	4
1	9
1	13
1	262
1	262
1	262
1	262
1	32
1	262
1	262
1	262
1	10
1	262
1	262
1	262
1	30
1	9
1	262
1	10
1	262
1	262
1	7
1	262
1	262
1	13
1	32
1	10
1	3
1	22
1	262
1	262
1	9
1	262
1	8
1	7
1	10
1	22
1	10
1	10
1	9
1	32
1	22
1	6
1	2
1	11
1	262
1	262
1	262
1	18
1	6
1	6
1	262
1	262
1	7
1	6
1	262
1	262
1	263
1	262
1	262
1	32
1	262
1	262
1	18
1	33
1	264
1	262
1	11
1	262
1	262
1	22
1	6
1	9
1	262
1	22
1	10
1	262
1	12
1	262
1	8
1	262
1	262
1	5
1	262
1	262
1	262
1	7
1	262
1	7
1	262
1	5
1	12
1	262
1	263
1	10
1	262
1	18
1	262
1	10
1	6
1	262
1	262
1	31
1	8
1	8
1	262
1	7
1	7
1	262
1	32
1	262
1	15
1	262
1	13
1	262
1	262
1	262
1	5
1	32
1	12
1	262
1	262
1	262
1	18
1	262
1	262
1	30
1	6
1	6
1	5
1	9
1	5
1	262
1	5
1	6
1	6
1	11
1	7
1	262
1	262
1	11
1	262
1	263
1	262
1	262
1	7
1	8
1	262
1	262
1	262
1	6
1	6
1	10
1	6
1	8
1	262
1	263
1	6
1	32
1	262
1	6
1	262
1	6
1	11
1	262
1	6
1	262
1	262
1	7
1	262
1	5
1	262
1	7
1	262
1	262
1	262
1	262
1	30
1	7
1	30
1	30
1	8
1	262
1	263
1	11
1	262
1	262
1	262
1	262
1	32
1	262
1	11
1	262
1	4
1	262
1	262
1	262
1	30
1	6
1	262
1	262
1	262
1	262
1	262
1	11
1	262
1	5
1	262
1	262
1	5
1	30
1	262
1	262
1	8
1	262
1	8
1	262
1	262
1	8
1	2
1	262
1	30
1	6
1	30
1	9
1	263
1	262
1	32
1	5
1	262
1	7
1	262
1	262
1	262
1	12
1	262
1	262
1	11
1	262
1	4
1	22
1	262
1	262
1	262
1	11
1	262
1	262
1	32
1	11
1	262
1	262
1	6
1	262
1	262
1	262
1	11
1	262
2	7
2	3
2	5
2	8
2	6
2	6
2	3
2	8
2	4
2	12
2	10
2	3
2	8
2	4
2	3
2	263
2	4
2	5
2	3
2	263
2	7
2	33
2	6
2	3
2	3
2	3
2	3
2	4
2	5
2	3
2	3
2	3
2	4
2	5
2	7
2	4
2	3
2	10
2	3
2	3
2	5
2	3
2	3
2	6
2	3
2	10
2	8
2	4
2	10
2	4
2	3
2	10
2	3
2	3
2	3
2	3
2	3
2	4
2	6
2	3
2	6
2	3
2	14
2	3
2	7
2	3
2	4
2	3
2	13
2	4
2	6
2	6
2	4
2	6
2	6
2	3
2	3
2	7
2	8
2	3
2	3
2	5
2	12
2	3
2	4
2	3
3	4
3	4
3	4
3	5
3	10
3	6
3	4
3	4
3	4
3	4
3	7
3	4
3	5
3	5
3	5
3	4
3	4
3	4
3	10
3	4
3	4
3	6
3	7
3	4
3	6
3	4
3	4
3	4
3	9
3	7
3	4
3	4
3	4
3	6
3	4
3	4
3	5
3	10
3	4
3	4
3	5
4	5
4	5
4	5
4	5
4	5
4	5
4	5
4	6
4	7
4	5
4	5
4	5
4	5
4	5
4	5
4	5
4	5
4	6
4	5
4	5
4	6
4	5
4	5
4	5
5	6
5	6
5	6
5	6
5	6
5	6
5	6
5	6
5	6
5	6
5	6
5	6
5	6
5	6
5	6
5	6
5	6
5	6
6	7
6	7
6	7
6	8
6	8
6	7
6	7
6	7
6	8
6	7
6	7
7	8
7	8
7	9
7	9
7	8
8	9
8	9
8	10
9	10
9	10
9	10
10	11
10	11
10	11
11	12
12	13
17	18
21	22
29	30
31	32
261	262
