13	6124
16	6124
18	6124
19	6124
19	6124
22	6124
23	6124
24	6124
24	6124
25	6124
25	6124
26	6124
26	6124
26	6124
27	6124
27	6124
27	6124
27	6124
27	6124
28	6124
28	6124
28	6124
28	6124
29	6124
29	6124
29	6124
30	6124
31	6124
140	6124
140	6124
140	6124
140	6124
140	6124
140	6124
140	6124
140	6124
140	6124
141	6124
141	6124
141	6124
141	6124
141	6124
141	6124
142	6124
142	6124
143	6124
148	6124
149	6124
153	6124
154	6124
157	6124
160	6124
161	6124
161	6124
163	6124
