1	6124
1	27
1	140
1	25
1	18
1	27
1	26
1	18
1	18
1	16
1	159
1	139
1	139
1	18
1	8
1	18
1	22
1	139
1	23
1	28
1	17
1	139
1	10
1	27
1	10
1	22
1	139
1	11
1	17
1	22
1	139
1	139
1	16
1	139
1	25
1	139
1	17
1	8
1	26
1	25
1	139
1	139
1	139
1	139
1	15
1	12
1	17
1	139
1	16
1	16
1	9
1	26
1	22
1	6
1	24
1	139
1	139
1	139
1	22
1	21
1	139
1	139
1	7
1	24
1	139
1	20
1	22
1	10
1	14
1	139
1	141
1	15
1	23
1	22
1	7
1	5
1	26
1	139
1	20
1	8
1	139
1	25
1	139
1	25
1	6
1	24
1	9
1	139
1	139
1	26
1	139
1	26
1	14
1	25
1	26
1	139
1	23
1	139
1	16
1	23
1	139
1	5
1	22
1	139
1	12
1	6
1	22
1	23
1	24
1	11
1	27
1	24
1	139
1	139
1	8
1	139
1	139
1	139
1	139
1	10
1	139
1	140
1	139
1	7
1	4
1	22
1	11
1	139
1	11
1	6
1	11
1	17
1	9
1	139
1	7
1	4
1	25
1	13
1	139
1	16
1	14
1	24
1	139
1	139
1	139
1	139
1	139
1	13
1	25
1	10
1	20
1	12
1	139
1	9
1	24
1	7
1	12
1	139
1	10
1	139
1	20
1	22
1	24
1	7
1	25
1	139
1	6
1	139
1	7
1	139
1	139
1	140
1	23
1	8
1	139
1	22
1	24
1	139
1	6
1	139
1	5
1	139
1	139
1	139
1	23
1	5
1	8
1	16
1	6
1	7
1	139
1	139
1	22
1	17
1	8
1	4
1	24
1	139
1	139
1	139
1	6
1	22
1	7
1	139
1	139
1	7
1	4
1	17
1	15
1	11
1	20
1	9
1	17
1	15
1	8
1	140
1	139
1	27
1	6
1	140
1	18
1	11
1	24
1	26
1	140
1	8
1	23
1	4
1	9
1	139
1	17
1	139
1	24
1	139
1	23
1	9
1	5
1	139
1	9
1	140
1	27
1	24
1	139
1	11
1	24
1	139
1	22
1	25
1	16
1	4
1	6
1	15
1	12
1	139
1	139
1	139
1	24
1	139
1	17
1	13
1	139
1	139
1	4
1	6
1	24
1	139
1	139
1	6
1	139
1	23
1	139
1	139
1	20
1	24
1	139
1	20
1	23
1	7
1	26
1	17
1	9
1	20
1	7
1	5
1	139
1	26
1	11
1	6
1	139
1	140
1	15
1	4
1	25
1	24
1	17
1	139
1	24
1	4
1	20
1	8
1	5
1	9
1	26
1	139
1	139
1	16
1	140
1	25
1	24
1	27
1	26
1	17
1	20
1	21
1	139
1	9
1	6
1	139
1	7
1	24
1	21
1	139
1	9
1	24
1	139
1	139
1	20
1	139
1	22
1	139
2	6
2	4
2	4
2	7
2	4
2	7
2	3
2	3
2	3
2	3
2	17
2	10
2	3
2	3
2	3
2	3
2	25
2	3
2	3
2	4
2	3
2	3
2	5
2	3
2	5
2	24
2	5
2	5
2	6
2	3
2	25
2	140
2	3
2	11
2	3
2	3
2	4
2	3
2	3
2	5
2	6
2	5
2	3
2	6
2	4
2	3
2	3
2	3
2	7
2	5
2	4
2	4
2	3
2	3
2	6
2	4
2	13
2	3
2	8
2	3
2	5
2	25
2	3
2	5
2	3
2	3
2	3
2	3
2	3
2	3
2	3
2	3
2	3
2	3
2	4
2	3
2	3
2	25
2	4
2	7
2	4
2	6
2	25
2	3
2	3
2	4
2	4
2	3
2	4
2	4
2	8
2	3
2	4
2	3
2	7
2	5
2	5
3	4
3	4
3	7
3	4
3	4
3	6
3	5
3	4
3	4
3	5
3	4
3	5
3	4
3	4
3	4
3	5
3	4
3	5
3	4
3	4
3	4
3	4
3	4
3	4
3	6
3	4
3	4
3	5
3	4
3	4
3	4
3	5
3	4
3	4
3	4
3	4
3	4
3	4
4	5
4	5
4	5
4	5
4	5
4	5
4	5
4	5
4	5
4	5
4	5
4	6
4	5
5	6
5	6
5	6
5	6
5	7
5	6
5	6
5	6
5	6
6	7
6	7
6	7
6	7
8	9
8	9
8	9
10	11
11	12
14	15
15	16
16	17
19	20
21	22
22	23
23	24
23	24
25	26
138	139
