1	6124
1	611
1	611
1	612
1	35
1	31
1	616
1	611
1	611
1	611
1	18
1	21
1	19
1	16
1	32
1	16
1	15
1	19
1	7
1	611
1	19
1	14
1	38
1	611
1	611
1	16
1	611
1	37
1	19
1	611
1	611
1	37
1	30
1	611
1	14
1	14
1	611
1	611
1	19
1	611
1	31
1	611
1	612
1	24
1	18
1	19
1	611
1	13
1	611
1	15
1	611
1	611
1	611
1	12
1	611
1	26
1	611
1	611
1	611
1	9
1	611
1	611
1	19
1	611
1	611
1	611
1	612
1	614
1	18
1	9
1	16
1	12
1	16
1	611
1	23
1	611
1	611
1	611
1	23
1	611
1	10
1	611
1	611
1	611
1	611
1	612
1	17
1	16
1	17
1	611
1	12
1	611
1	611
1	611
1	6124
1	15
1	8
1	611
1	23
1	611
1	611
1	18
1	611
1	611
1	11
1	16
1	13
1	39
1	11
1	611
1	611
1	4
1	611
1	12
1	611
1	611
1	611
1	611
1	611
1	611
1	20
1	611
1	8
1	611
1	611
1	611
1	611
1	612
1	7
1	611
1	611
1	19
1	611
1	612
1	11
1	7
1	7
1	611
1	611
1	611
1	16
1	11
1	9
1	611
1	611
1	36
1	611
1	611
1	611
1	16
1	611
1	28
1	611
1	12
1	9
1	611
1	611
1	19
1	611
1	611
1	611
1	611
1	17
1	8
1	611
1	10
1	611
1	22
1	611
1	13
1	611
1	5
1	21
1	16
1	612
1	611
1	15
1	14
1	611
1	611
1	611
1	611
1	12
1	611
1	611
1	611
1	611
1	611
1	611
1	6
1	611
1	11
1	611
1	611
1	611
1	9
1	10
1	36
1	6
1	9
1	9
1	39
1	6
1	8
1	611
1	9
1	15
1	611
1	611
1	612
1	15
1	611
1	37
1	27
1	611
1	27
1	12
1	611
1	611
1	15
1	18
1	6
1	611
1	611
1	611
1	611
1	611
1	611
1	611
1	37
1	611
1	19
1	11
1	611
1	19
1	11
1	10
1	13
1	611
1	37
1	612
1	11
1	7
1	611
1	23
1	17
1	7
1	7
1	611
1	8
1	39
1	611
1	611
1	611
1	12
1	611
1	21
1	611
1	611
1	20
1	9
1	13
1	611
1	611
1	611
1	30
1	611
1	7
1	18
1	23
1	18
1	611
1	14
1	611
1	21
1	11
1	611
1	611
1	611
1	611
1	30
1	611
1	15
1	611
1	611
1	611
1	7
1	18
1	21
1	6
1	611
1	611
1	10
1	611
1	611
1	611
1	7
1	23
1	6
1	16
1	611
1	611
1	611
1	611
1	13
1	611
1	611
1	611
1	10
1	611
1	611
1	611
1	611
1	6
1	27
1	17
1	611
1	7
1	10
1	14
1	611
1	23
1	611
1	611
1	611
1	15
1	9
1	611
1	18
1	9
1	611
1	611
1	611
1	17
1	611
1	611
1	15
1	20
1	611
1	17
1	8
1	11
1	20
1	612
1	12
1	14
1	15
1	612
1	13
1	611
1	611
1	611
1	611
1	611
1	611
1	35
1	18
1	35
1	6
1	613
1	9
1	611
1	8
1	611
1	611
1	611
1	611
1	21
1	7
1	15
1	611
1	611
1	15
1	17
1	611
1	611
1	9
1	611
1	8
1	7
1	9
1	611
1	16
1	611
1	21
1	15
1	611
1	611
1	18
1	611
1	611
1	612
1	19
1	611
1	611
1	611
1	611
1	611
1	14
1	611
1	10
1	9
1	611
1	9
1	5
1	611
1	611
1	37
1	611
1	35
1	39
1	30
1	611
1	611
1	37
1	12
1	15
1	15
1	19
1	611
1	18
1	10
1	611
1	611
1	612
1	6
1	10
1	611
1	611
1	611
1	7
1	9
1	8
1	5
1	611
1	611
1	37
1	8
1	19
1	14
1	611
1	11
1	35
1	613
1	611
1	611
1	18
1	11
1	611
1	611
1	611
1	611
1	2
1	12
1	611
1	611
1	611
1	611
1	611
1	611
1	611
1	5
1	18
1	20
1	10
1	611
1	611
1	611
1	20
1	17
1	20
1	611
1	30
1	12
1	18
1	12
1	18
1	611
1	611
1	611
1	611
1	611
1	21
1	17
1	611
1	9
1	4
1	611
1	611
1	17
1	5
1	611
1	611
1	15
1	9
1	611
1	37
1	8
1	18
1	10
1	611
1	611
1	611
1	611
1	611
1	611
1	611
1	12
1	611
1	611
1	611
1	611
1	6
1	611
1	611
1	611
1	611
1	611
1	611
1	611
1	611
1	15
1	611
1	611
1	611
1	35
1	611
1	611
1	611
1	15
1	611
1	611
1	611
1	611
1	6
1	611
1	9
1	6
1	611
1	611
1	28
1	9
1	611
1	12
1	611
1	15
1	611
1	611
1	15
1	611
1	19
1	35
1	611
1	611
1	7
1	27
1	611
1	611
1	611
1	611
1	611
1	4
1	611
1	23
1	35
1	9
1	611
1	5
1	611
1	37
1	611
1	611
1	9
1	611
1	611
1	9
1	18
1	611
1	611
1	12
1	611
1	18
1	611
1	611
1	611
1	611
1	16
1	8
1	12
1	611
1	6
1	15
1	611
1	18
1	611
1	16
1	611
1	23
1	611
1	611
1	8
1	11
1	611
1	611
1	611
1	611
1	611
1	19
1	611
1	9
1	611
1	611
1	611
1	18
1	611
1	611
1	27
1	12
1	611
1	611
1	21
1	611
1	8
1	20
1	611
1	611
1	6
1	611
1	18
1	611
1	8
1	5
1	611
1	5
1	7
1	611
1	15
1	611
1	15
1	612
1	611
1	6
1	611
1	35
1	611
1	611
1	611
1	611
1	611
1	14
1	6
1	611
1	7
1	611
1	6
1	10
1	23
1	18
1	611
1	611
1	6
1	17
1	12
1	35
1	611
1	23
1	611
1	612
1	611
1	611
1	9
1	611
1	611
1	611
1	611
1	611
1	20
1	611
1	611
1	18
1	11
1	611
1	5
1	8
1	23
1	31
1	611
1	11
1	14
1	31
1	611
1	611
1	611
1	27
1	8
1	35
1	612
1	7
1	611
1	17
1	611
1	10
1	19
1	611
1	7
1	7
1	611
1	6
1	17
1	9
1	8
1	611
1	612
1	9
1	612
1	612
1	14
1	18
1	15
1	9
1	611
1	5
1	6124
1	611
1	611
1	611
1	611
1	611
1	2
1	611
1	611
1	22
1	23
1	611
1	7
1	611
1	611
1	611
1	17
1	23
1	611
1	12
1	16
1	611
1	611
1	611
1	20
1	10
1	5
1	12
1	611
1	17
1	611
1	8
1	611
1	4
1	611
1	9
1	9
1	611
1	612
1	611
1	12
1	30
1	611
1	611
1	611
1	8
1	7
1	611
1	10
1	7
1	14
1	611
1	611
1	5
1	35
1	17
1	15
1	4
1	8
1	6
1	10
1	611
1	21
1	611
1	611
1	37
1	8
1	611
1	612
1	18
1	611
1	11
1	611
1	611
1	27
1	611
1	611
1	19
1	30
1	611
1	611
1	611
1	611
1	611
1	611
1	611
1	611
1	9
1	7
1	611
1	611
1	15
1	611
1	30
1	9
1	18
1	611
1	611
1	611
1	611
1	611
1	6
1	35
1	12
1	611
1	5
1	611
1	9
1	611
1	10
1	611
1	611
1	15
1	611
1	611
1	611
1	37
1	611
1	611
1	9
1	611
1	8
1	611
1	6
1	8
1	37
1	6
1	19
1	4
1	611
1	611
1	611
1	4
1	611
1	611
1	16
1	6
1	611
1	611
1	611
1	6
1	10
1	611
1	5
1	23
1	11
1	30
1	6
1	19
1	611
1	27
1	11
1	18
1	8
1	15
1	611
1	7
1	611
1	611
1	611
1	611
1	612
1	611
1	611
1	8
1	611
1	11
1	16
1	14
1	7
1	611
1	611
1	12
1	19
1	19
1	611
1	611
1	611
1	17
1	611
1	8
1	611
1	11
1	612
1	612
1	7
1	15
1	16
1	16
1	611
1	611
1	11
1	611
1	611
1	8
1	611
1	611
1	611
1	7
1	37
1	30
1	19
1	611
1	611
1	611
1	6
1	37
1	10
1	7
1	611
1	10
1	9
1	12
1	13
1	4
1	9
1	9
1	14
1	18
1	611
1	9
1	19
1	19
1	611
1	5
1	8
1	611
1	9
1	6
1	8
1	9
1	6
1	17
1	611
1	6
1	19
1	611
1	611
1	611
1	611
1	17
1	611
1	611
1	611
1	30
1	611
1	611
1	6
1	17
1	611
1	20
1	11
1	611
1	611
1	20
1	611
1	11
1	37
1	611
1	14
1	5
1	27
1	11
1	611
1	10
1	23
1	611
1	611
1	6
1	14
1	9
1	18
1	12
1	8
1	611
1	21
1	611
1	611
1	12
1	12
1	611
1	11
1	15
1	21
1	6
1	8
1	8
1	10
1	16
1	14
1	611
1	611
1	611
1	611
1	611
1	7
1	21
1	611
1	8
1	611
1	611
1	611
1	21
1	9
1	611
1	611
1	16
1	7
1	611
1	10
1	24
1	20
1	6
1	611
1	23
2	5
2	15
2	15
2	4
2	5
2	3
2	6
2	3
2	18
2	4
2	3
2	12
2	5
2	8
2	11
2	5
2	7
2	17
2	8
2	612
2	9
2	3
2	3
2	11
2	11
2	4
2	3
2	5
2	7
2	7
2	3
2	3
2	7
2	6
2	3
2	3
2	3
2	7
2	3
2	20
2	4
2	8
2	7
2	3
2	10
2	3
2	4
2	8
2	612
2	3
2	3
2	5
2	3
2	6
2	7
2	17
2	3
2	4
2	5
2	9
2	11
2	3
2	3
2	4
2	612
2	6
2	5
2	10
2	3
2	3
2	10
2	12
2	3
2	6
2	3
2	7
2	6
2	3
2	4
2	10
2	15
2	3
2	3
2	612
2	3
2	3
2	3
2	3
2	9
2	16
2	6
2	7
2	3
2	4
2	19
2	5
2	3
2	7
2	3
2	6
2	3
2	612
2	4
2	9
2	24
2	10
2	3
2	612
2	9
2	4
2	8
2	7
2	3
2	3
2	4
2	4
2	21
2	6
2	5
2	11
2	17
2	3
2	12
2	28
2	4
2	5
2	17
2	5
2	3
2	9
2	15
2	4
2	4
2	4
2	3
2	4
2	8
2	4
2	5
2	7
2	3
2	7
2	3
2	4
2	19
2	5
2	3
2	4
2	8
2	3
2	18
2	15
2	4
2	4
2	13
2	3
2	3
2	10
2	3
2	6
2	7
2	3
2	3
2	16
2	3
2	4
2	3
2	3
2	4
2	4
2	3
2	6
2	4
2	3
2	6
2	4
2	4
2	7
2	4
2	4
2	3
2	3
2	5
3	4
3	12
3	7
3	4
3	4
3	4
3	4
3	4
3	6
3	5
3	4
3	7
3	4
3	5
3	4
3	12
3	4
3	10
3	5
3	5
3	4
3	4
3	4
3	4
3	6
3	4
3	4
3	4
3	4
3	4
3	4
3	4
3	4
3	5
3	4
3	4
3	5
3	4
3	5
3	6
3	5
3	5
3	4
3	4
3	4
3	4
3	4
3	4
3	4
3	8
3	4
3	4
3	5
3	4
4	5
4	6
4	6
4	5
4	5
4	9
4	5
4	5
4	5
4	5
4	5
4	5
4	5
4	5
4	8
4	6
4	5
4	6
4	6
4	5
4	5
4	5
4	6
4	5
4	5
4	6
4	5
4	5
4	5
4	5
4	6
5	6
5	6
5	6
5	6
5	6
5	6
5	6
5	6
5	6
5	6
5	6
5	6
5	6
5	6
5	6
5	6
5	6
5	6
5	6
5	6
5	7
5	7
5	6
5	6
5	6
5	6
5	6
5	6
5	6
5	9
6	7
6	7
6	7
6	7
6	7
6	7
6	7
6	7
6	7
6	9
7	8
7	8
7	8
7	8
7	8
7	8
7	8
7	8
7	8
7	8
7	8
7	8
8	9
8	9
8	9
8	9
8	9
8	10
8	9
9	10
9	10
9	10
9	10
9	10
10	11
10	11
11	12
11	12
11	12
11	12
13	14
13	14
13	14
14	15
14	15
14	15
15	16
15	16
16	17
16	17
17	18
17	18
17	18
18	19
18	19
19	20
20	21
22	23
26	27
29	30
34	35
36	37
610	611
