5	6124
10	6124
13	6124
13	6124
15	6124
15	6124
16	6124
16	6124
16	6124
17	6124
17	6124
18	6124
18	6124
18	6124
18	6124
18	6124
19	6124
19	6124
19	6124
19	6124
19	6124
20	6124
20	6124
20	6124
20	6124
21	6124
21	6124
21	6124
21	6124
21	6124
21	6124
21	6124
21	6124
21	6124
21	6124
22	6124
22	6124
22	6124
22	6124
22	6124
23	6124
23	6124
23	6124
24	6124
24	6124
24	6124
24	6124
25	6124
25	6124
25	6124
25	6124
26	6124
26	6124
26	6124
27	6124
27	6124
27	6124
28	6124
28	6124
28	6124
28	6124
28	6124
28	6124
29	6124
29	6124
30	6124
31	6124
31	6124
31	6124
33	6124
33	6124
33	6124
33	6124
34	6124
34	6124
34	6124
34	6124
34	6124
34	6124
34	6124
35	6124
36	6124
36	6124
36	6124
37	6124
37	6124
37	6124
37	6124
38	6124
38	6124
38	6124
38	6124
38	6124
38	6124
39	6124
40	6124
41	6124
41	6124
42	6124
42	6124
42	6124
42	6124
43	6124
43	6124
43	6124
44	6124
45	6124
47	6124
47	6124
48	6124
50	6124
52	6124
55	6124
55	6124
57	6124
60	6124
1829	6124
1829	6124
1829	6124
1829	6124
1829	6124
1829	6124
1829	6124
1829	6124
1829	6124
1829	6124
1829	6124
1829	6124
1829	6124
1829	6124
1829	6124
1829	6124
1829	6124
1829	6124
1829	6124
1829	6124
1829	6124
1829	6124
1829	6124
1829	6124
1829	6124
1829	6124
1829	6124
1829	6124
1829	6124
1829	6124
1829	6124
1829	6124
1829	6124
1829	6124
1829	6124
1829	6124
1829	6124
1829	6124
1829	6124
1829	6124
1829	6124
1829	6124
1829	6124
1829	6124
1829	6124
1829	6124
1829	6124
1829	6124
1829	6124
1829	6124
1829	6124
1829	6124
1829	6124
1829	6124
1829	6124
1829	6124
1829	6124
1830	6124
1830	6124
1830	6124
1830	6124
1830	6124
1830	6124
1830	6124
1830	6124
1830	6124
1830	6124
1830	6124
1830	6124
1830	6124
1830	6124
1830	6124
1830	6124
1830	6124
1830	6124
1831	6124
1831	6124
1831	6124
1831	6124
1831	6124
1831	6124
1832	6124
1832	6124
1832	6124
1832	6124
1833	6124
1833	6124
1833	6124
1833	6124
1834	6124
1834	6124
1835	6124
1835	6124
1835	6124
1835	6124
1835	6124
1836	6124
1836	6124
1836	6124
1836	6124
1836	6124
1837	6124
1837	6124
1837	6124
1837	6124
1837	6124
1838	6124
1838	6124
1838	6124
1838	6124
1840	6124
1840	6124
1840	6124
1841	6124
1843	6124
1844	6124
1844	6124
1846	6124
1848	6124
1850	6124
1851	6124
1857	6124
1858	6124
1861	6124
1863	6124
