1	6124
1	16
1	241
1	15
1	15
1	240
1	13
1	240
1	47
1	242
1	240
1	15
1	15
1	240
1	20
1	12
1	33
1	13
1	241
1	240
1	27
1	16
1	27
1	14
1	12
1	240
1	16
1	16
1	26
1	240
1	16
1	19
1	19
1	20
1	18
1	23
1	12
1	18
1	12
1	240
1	11
1	9
1	240
1	47
1	12
1	16
1	10
1	10
1	20
1	12
1	8
1	19
1	46
1	11
1	240
1	27
1	12
1	13
1	10
1	17
1	13
1	17
1	15
1	6
1	6124
1	6124
1	23
1	6
1	15
1	10
1	11
1	10
1	240
1	240
1	12
1	11
1	10
1	11
1	13
1	240
1	13
1	16
1	16
1	240
1	11
1	240
1	15
1	240
1	20
1	22
1	8
1	240
1	10
1	15
1	17
1	11
1	15
1	14
1	13
1	8
1	10
1	15
1	7
1	15
1	11
1	13
1	10
1	8
1	240
1	12
1	240
1	6
1	240
1	240
1	14
1	14
1	15
1	240
1	240
1	10
1	240
1	10
1	46
1	240
1	14
1	12
1	18
1	46
1	241
1	240
1	23
1	241
1	24
1	19
1	19
1	16
1	14
1	22
1	245
1	10
1	11
1	14
1	240
1	240
1	240
1	240
1	240
1	14
1	13
1	240
1	240
1	6124
1	24
1	8
1	15
1	15
1	240
1	21
1	11
1	9
1	16
1	23
1	12
1	240
1	16
1	16
1	240
1	240
1	9
1	240
1	22
1	240
1	16
1	6124
1	11
1	240
1	6124
1	17
1	17
1	22
1	52
1	12
1	26
1	6
1	6124
1	4
1	19
1	11
1	10
1	15
1	10
1	4
1	9
1	12
1	14
1	26
1	49
1	7
1	15
1	11
1	16
1	8
1	11
1	240
1	240
1	46
1	240
1	9
1	18
1	14
1	12
1	240
1	15
1	10
1	6124
1	19
1	50
1	13
1	240
1	6
1	14
1	11
1	14
1	12
1	15
1	12
1	11
1	14
1	9
1	26
1	15
1	9
1	15
1	19
1	240
1	5
1	12
1	9
1	14
1	6
1	8
1	17
1	240
1	2
1	26
1	5
1	23
1	240
1	10
1	15
1	17
1	240
1	15
1	240
1	16
1	25
1	46
1	10
1	240
1	9
1	11
1	9
1	10
1	240
1	8
1	16
1	17
1	16
1	8
1	240
1	24
1	13
1	12
1	8
1	5
1	13
1	15
1	240
1	11
1	8
1	4
1	8
1	5
1	12
1	6
1	17
1	15
1	19
1	9
1	18
1	16
1	8
1	16
1	20
1	7
1	12
1	7
1	12
1	22
1	7
1	14
1	11
1	240
1	10
1	7
1	11
1	26
1	46
1	240
1	11
1	240
1	2
1	12
1	11
1	13
1	15
1	12
1	14
1	240
1	241
1	19
1	9
1	7
1	15
1	46
1	7
1	240
1	12
1	10
1	26
1	15
1	15
1	12
1	240
1	14
1	16
1	16
1	240
1	11
1	13
1	22
1	8
1	15
1	11
1	13
1	9
1	15
1	23
1	13
1	240
1	8
1	22
1	12
1	240
1	13
1	240
1	8
1	240
1	11
1	16
1	13
1	240
1	14
1	23
1	10
1	240
1	12
1	12
1	4
1	9
1	10
1	6
1	18
1	10
1	15
1	240
1	11
1	21
1	8
1	240
1	26
1	7
1	240
1	16
1	12
1	6124
1	14
1	16
1	15
1	11
1	10
1	19
1	7
1	240
1	15
1	5
1	15
1	10
1	240
1	16
1	15
1	15
1	240
1	15
1	10
1	10
1	23
1	8
1	26
1	11
1	9
1	46
1	11
1	11
1	240
1	4
1	13
1	23
1	19
1	16
1	22
1	9
1	240
1	15
1	240
1	26
1	18
1	8
1	240
1	22
1	46
1	240
1	10
1	11
1	20
1	240
1	14
1	12
1	10
1	23
1	9
1	19
1	10
1	27
1	10
1	16
1	11
1	9
1	7
1	14
1	10
1	240
1	46
1	8
1	9
1	14
1	16
1	240
1	18
1	11
1	15
1	9
1	6
1	13
1	241
1	242
1	8
1	46
1	240
1	22
1	6
1	12
1	8
1	8
1	240
1	15
1	19
1	26
1	7
1	240
1	240
1	23
1	12
1	22
1	23
1	5
1	16
1	7
1	15
1	14
1	5
1	13
1	11
1	11
1	9
1	22
1	10
1	22
1	9
1	7
1	6124
1	11
1	240
1	11
1	10
1	26
1	10
1	22
1	23
1	6
1	9
1	7
1	16
1	240
1	26
1	9
1	5
1	7
1	6124
1	4
1	19
1	240
1	9
1	26
1	16
1	10
1	7
1	19
1	10
1	12
1	9
1	9
1	26
1	240
1	15
1	8
1	9
1	240
1	240
1	11
1	11
1	5
1	6
1	8
1	14
1	14
1	240
1	17
1	240
1	6124
1	15
1	241
1	11
1	8
1	10
1	10
1	6
1	240
1	240
1	5
1	11
1	240
1	240
1	6
1	2
1	240
1	5
1	16
1	10
1	15
1	11
1	7
1	13
1	11
1	20
1	240
1	10
1	13
1	6
1	11
1	241
1	11
1	9
1	10
1	14
1	9
1	11
1	240
1	23
1	19
1	5
1	240
1	10
1	11
1	22
1	6
1	240
1	11
1	7
1	6124
1	7
1	241
1	46
1	12
1	240
1	10
1	8
1	13
1	8
1	241
1	13
1	8
1	14
1	240
1	5
1	7
1	5
1	6
1	15
1	15
1	10
1	242
1	11
1	15
1	4
1	9
1	7
1	8
1	15
1	22
1	240
1	240
1	10
1	2
1	10
1	2
1	26
1	240
1	15
1	6
1	241
1	15
1	240
1	7
1	19
1	8
1	26
1	23
1	8
1	240
1	9
1	11
1	19
1	8
1	10
1	13
1	19
1	15
1	6
1	10
1	12
1	10
1	9
1	10
1	10
1	14
1	8
1	16
1	12
1	240
1	11
1	10
1	10
1	26
1	10
1	14
1	12
1	240
1	10
1	240
1	16
1	16
1	10
1	10
1	7
1	14
1	5
1	22
1	16
1	8
1	9
1	4
1	6
1	9
1	9
1	14
1	11
1	12
1	46
1	12
1	6
1	15
1	8
1	10
1	4
1	7
1	15
1	13
1	16
1	241
1	16
1	15
1	14
1	10
1	8
1	12
1	13
1	240
1	4
1	9
1	9
1	15
1	20
1	6
1	47
1	14
1	6124
1	6
1	240
1	15
1	26
1	18
1	22
1	15
1	9
1	240
1	26
1	14
1	9
1	240
1	240
1	14
1	11
1	240
1	15
1	2
1	2
1	23
1	15
1	17
1	240
1	5
1	240
1	15
1	46
1	8
1	11
1	9
1	6124
1	240
1	11
1	14
1	15
1	18
1	6
1	240
1	9
1	22
1	7
1	9
1	14
1	12
1	6
1	241
1	46
1	240
1	13
1	240
1	16
1	6
1	15
1	8
1	46
1	11
1	13
1	10
1	8
1	2
1	12
1	17
1	240
1	7
1	14
1	26
1	11
1	10
1	10
1	6
1	12
1	240
1	240
1	4
1	9
1	9
1	15
1	23
1	12
1	13
1	240
1	9
1	6
1	14
1	7
1	16
1	10
1	15
1	13
1	23
1	18
1	18
1	240
1	46
1	240
1	8
1	22
1	240
1	26
1	4
1	14
1	12
1	4
1	9
1	14
1	5
1	12
1	4
1	2
1	18
1	8
1	26
1	240
1	16
1	26
1	12
1	6
1	7
1	11
1	15
1	12
1	6
1	18
1	23
1	240
1	15
1	9
1	26
1	11
1	13
1	240
1	2
1	10
1	4
1	240
1	240
1	11
1	16
1	9
1	4
1	240
1	11
1	10
1	7
1	12
1	9
1	16
1	19
1	19
1	240
1	10
1	240
1	13
1	8
1	8
1	16
1	8
1	46
1	15
1	10
1	9
1	26
1	240
1	11
1	9
1	19
1	8
1	10
1	9
1	10
1	240
1	19
1	240
1	241
1	240
1	240
1	240
1	9
1	9
1	8
1	240
1	46
1	4
1	10
1	10
1	9
1	11
1	10
1	7
1	10
1	240
1	13
1	11
1	8
1	240
1	15
1	4
1	5
1	5
1	16
1	8
1	9
1	12
1	240
1	17
1	14
1	11
1	14
1	5
1	9
1	18
1	6
1	4
1	11
1	240
1	15
1	11
1	5
1	4
1	7
1	240
1	7
1	9
1	9
1	14
1	10
1	7
1	15
1	48
1	14
1	7
1	19
1	17
1	240
1	10
1	22
1	15
1	16
1	7
1	5
1	240
1	240
1	5
1	240
1	10
1	6
1	10
1	12
1	8
1	6
1	11
1	16
1	15
1	10
1	240
1	6
1	4
1	10
1	26
1	9
1	22
1	12
1	4
1	26
1	7
1	7
1	9
1	240
1	16
1	12
1	17
1	22
1	15
1	8
1	14
2	3
2	7
2	9
2	6
2	9
2	10
2	4
2	5
2	9
2	4
2	8
2	4
2	6
2	6
2	5
2	7
2	8
2	4
2	6
2	5
2	18
2	7
2	3
2	3
2	3
2	3
2	4
2	11
2	10
2	6
2	7
2	23
2	7
2	12
2	12
2	5
2	3
2	16
2	10
2	3
2	3
2	3
2	3
2	4
2	15
2	3
2	8
2	3
2	7
2	8
2	3
2	4
2	3
2	10
2	11
2	8
2	3
2	4
2	6
2	7
2	10
2	10
2	3
2	3
2	6
2	3
2	4
2	10
2	4
2	10
2	9
2	3
2	8
2	14
2	3
2	3
2	3
2	8
2	3
2	7
2	23
2	3
2	4
2	3
2	4
2	3
2	6
2	3
2	6
2	5
2	6
2	3
2	3
2	3
2	6
2	13
2	5
2	3
2	4
2	4
2	5
2	5
2	4
2	3
2	8
2	4
2	7
2	7
2	9
2	3
2	4
2	3
2	3
2	7
2	3
2	8
2	3
2	3
2	15
2	3
2	4
2	3
2	3
2	11
2	3
2	7
2	3
2	6
2	7
2	3
2	3
2	3
2	13
2	3
2	3
2	5
2	9
2	3
2	9
2	3
2	13
2	5
2	3
2	4
2	3
2	3
2	3
2	3
2	3
2	3
2	241
2	11
2	6
2	4
2	3
2	3
2	4
2	4
2	8
2	3
2	3
2	3
2	12
2	3
2	3
2	12
2	3
2	6
2	4
2	3
2	8
2	5
2	14
2	4
2	3
2	12
2	7
2	4
2	3
2	4
2	8
2	9
2	4
2	5
2	3
2	3
2	3
2	3
2	9
2	4
2	4
2	3
2	6
2	3
2	8
2	4
2	3
2	3
2	3
2	3
2	20
2	11
2	11
2	3
2	3
2	9
2	4
2	5
2	4
2	4
2	7
2	3
2	4
2	3
2	5
2	15
2	3
2	3
2	10
2	3
2	27
2	3
2	3
2	15
2	8
2	4
2	4
2	3
3	5
3	5
3	4
3	4
3	4
3	4
3	4
3	8
3	4
3	4
3	4
3	9
3	5
3	4
3	4
3	4
3	5
3	4
3	8
3	4
3	4
3	5
3	10
3	4
3	4
3	4
3	5
3	5
3	4
3	6
3	12
3	5
3	4
3	4
3	4
3	6
3	5
3	5
3	4
3	8
3	4
3	4
3	4
3	4
3	4
3	4
3	6
3	5
3	4
3	5
3	7
3	4
3	4
3	5
3	4
3	4
3	4
3	4
3	5
3	6
3	4
3	5
3	4
3	4
3	6
3	4
3	4
3	4
3	4
3	4
3	9
3	5
3	5
3	5
3	5
3	5
3	4
3	4
3	5
3	11
3	4
3	4
3	4
3	5
3	4
3	4
3	4
3	4
3	4
3	4
3	4
3	4
3	5
4	5
4	5
4	6
4	5
4	5
4	5
4	7
4	5
4	5
4	5
4	7
4	8
4	5
4	5
4	6
4	5
4	5
4	5
4	5
4	5
4	5
4	6
4	5
4	5
4	5
4	5
4	5
4	5
4	5
4	6
4	5
4	6
4	6
4	5
4	5
4	6
4	7
4	5
4	5
4	5
5	6
5	6
5	6
5	6
5	6
5	6
5	6
5	6
5	6
5	6
5	6
5	7
5	6
5	6
5	7
5	7
5	7
5	6
5	6
5	6
5	6
5	6
5	6
5	6
5	6
5	7
5	6
6	8
6	7
6	7
6	7
6	7
6	7
6	7
6	8
6	7
6	7
6	7
6	7
6	7
6	7
6	7
6	7
6	7
7	8
7	8
7	8
7	8
7	8
7	8
7	8
7	8
7	8
7	8
7	8
7	8
7	8
7	10
7	8
7	8
7	8
7	8
7	8
7	8
7	8
8	9
8	9
8	9
8	9
8	9
8	9
8	9
8	9
8	9
8	9
8	9
8	9
8	9
8	9
9	10
9	11
9	10
9	10
9	10
9	10
9	10
9	10
9	10
9	10
9	10
9	10
9	10
9	10
9	10
10	11
10	11
10	11
10	11
10	11
10	11
10	11
10	11
11	12
11	12
11	12
11	12
11	12
11	12
11	12
12	13
12	13
12	13
13	14
13	14
13	14
13	14
13	14
14	15
14	15
14	15
14	15
14	15
14	15
14	15
15	16
15	16
15	16
15	16
16	17
17	18
18	19
18	19
18	19
21	22
21	22
22	23
25	26
25	26
45	46
239	240
