6	6124
6	6124
6	6124
7	6124
7	6124
7	6124
8	6124
8	6124
9	6124
9	6124
9	6124
11	6124
11	6124
11	6124
13	6124
13	6124
13	6124
13	6124
14	6124
14	6124
14	6124
14	6124
14	6124
14	6124
14	6124
14	6124
15	6124
15	6124
15	6124
15	6124
15	6124
15	6124
15	6124
15	6124
15	6124
15	6124
15	6124
15	6124
15	6124
16	6124
16	6124
16	6124
16	6124
16	6124
16	6124
16	6124
16	6124
16	6124
16	6124
16	6124
16	6124
16	6124
16	6124
17	6124
17	6124
17	6124
17	6124
17	6124
17	6124
17	6124
17	6124
17	6124
17	6124
17	6124
17	6124
17	6124
17	6124
17	6124
17	6124
17	6124
17	6124
17	6124
17	6124
17	6124
18	6124
18	6124
18	6124
18	6124
18	6124
18	6124
18	6124
18	6124
18	6124
18	6124
18	6124
18	6124
18	6124
18	6124
18	6124
18	6124
18	6124
18	6124
18	6124
19	6124
19	6124
19	6124
19	6124
19	6124
19	6124
19	6124
19	6124
19	6124
19	6124
19	6124
19	6124
19	6124
19	6124
19	6124
19	6124
19	6124
19	6124
19	6124
19	6124
19	6124
20	6124
20	6124
20	6124
20	6124
20	6124
20	6124
20	6124
20	6124
20	6124
20	6124
20	6124
20	6124
20	6124
20	6124
20	6124
20	6124
20	6124
20	6124
20	6124
20	6124
21	6124
21	6124
21	6124
21	6124
21	6124
21	6124
21	6124
21	6124
21	6124
21	6124
21	6124
21	6124
21	6124
22	6124
22	6124
22	6124
22	6124
22	6124
22	6124
22	6124
22	6124
22	6124
22	6124
22	6124
22	6124
22	6124
22	6124
22	6124
23	6124
23	6124
23	6124
23	6124
23	6124
23	6124
23	6124
23	6124
23	6124
23	6124
24	6124
24	6124
24	6124
24	6124
24	6124
24	6124
24	6124
24	6124
24	6124
24	6124
24	6124
25	6124
25	6124
25	6124
25	6124
25	6124
25	6124
25	6124
25	6124
25	6124
25	6124
26	6124
26	6124
26	6124
26	6124
26	6124
26	6124
26	6124
26	6124
26	6124
26	6124
26	6124
26	6124
26	6124
26	6124
26	6124
26	6124
27	6124
27	6124
27	6124
27	6124
27	6124
27	6124
27	6124
27	6124
28	6124
28	6124
28	6124
28	6124
28	6124
28	6124
28	6124
28	6124
28	6124
28	6124
29	6124
29	6124
29	6124
29	6124
29	6124
30	6124
30	6124
30	6124
30	6124
30	6124
30	6124
30	6124
30	6124
30	6124
30	6124
30	6124
30	6124
30	6124
30	6124
30	6124
31	6124
31	6124
31	6124
31	6124
31	6124
31	6124
31	6124
31	6124
31	6124
31	6124
32	6124
32	6124
32	6124
32	6124
32	6124
32	6124
32	6124
33	6124
33	6124
33	6124
33	6124
34	6124
34	6124
34	6124
34	6124
34	6124
35	6124
35	6124
35	6124
35	6124
36	6124
36	6124
36	6124
37	6124
37	6124
37	6124
37	6124
38	6124
38	6124
39	6124
39	6124
39	6124
39	6124
39	6124
39	6124
40	6124
40	6124
40	6124
41	6124
41	6124
42	6124
42	6124
42	6124
42	6124
42	6124
42	6124
42	6124
42	6124
42	6124
43	6124
43	6124
43	6124
44	6124
44	6124
44	6124
44	6124
45	6124
46	6124
46	6124
46	6124
47	6124
47	6124
47	6124
47	6124
48	6124
48	6124
49	6124
52	6124
53	6124
53	6124
53	6124
54	6124
54	6124
56	6124
57	6124
57	6124
57	6124
57	6124
58	6124
58	6124
58	6124
58	6124
59	6124
59	6124
61	6124
62	6124
63	6124
64	6124
64	6124
65	6124
65	6124
65	6124
67	6124
69	6124
69	6124
85	6124
1357	6124
1357	6124
1357	6124
1357	6124
1357	6124
1357	6124
1357	6124
1357	6124
1357	6124
1357	6124
1357	6124
1357	6124
1357	6124
1357	6124
1357	6124
1357	6124
1357	6124
1357	6124
1357	6124
1357	6124
1357	6124
1357	6124
1357	6124
1357	6124
1357	6124
1357	6124
1357	6124
1357	6124
1357	6124
1357	6124
1357	6124
1357	6124
1357	6124
1357	6124
1357	6124
1357	6124
1357	6124
1357	6124
1357	6124
1357	6124
1357	6124
1357	6124
1357	6124
1357	6124
1357	6124
1357	6124
1357	6124
1357	6124
1357	6124
1357	6124
1357	6124
1357	6124
1357	6124
1357	6124
1357	6124
1357	6124
1357	6124
1357	6124
1357	6124
1357	6124
1357	6124
1357	6124
1357	6124
1357	6124
1357	6124
1357	6124
1357	6124
1357	6124
1357	6124
1357	6124
1357	6124
1357	6124
1357	6124
1357	6124
1357	6124
1357	6124
1357	6124
1357	6124
1357	6124
1357	6124
1357	6124
1357	6124
1357	6124
1357	6124
1357	6124
1357	6124
1357	6124
1357	6124
1357	6124
1357	6124
1357	6124
1357	6124
1357	6124
1357	6124
1357	6124
1357	6124
1357	6124
1357	6124
1357	6124
1357	6124
1357	6124
1358	6124
1358	6124
1358	6124
1358	6124
1358	6124
1358	6124
1358	6124
1358	6124
1358	6124
1358	6124
1358	6124
1358	6124
1358	6124
1358	6124
1358	6124
1358	6124
1358	6124
1358	6124
1358	6124
1358	6124
1358	6124
1358	6124
1358	6124
1358	6124
1358	6124
1358	6124
1358	6124
1358	6124
1358	6124
1358	6124
1358	6124
1358	6124
1358	6124
1358	6124
1358	6124
1358	6124
1358	6124
1358	6124
1358	6124
1358	6124
1358	6124
1358	6124
1359	6124
1359	6124
1359	6124
1359	6124
1359	6124
1359	6124
1359	6124
1360	6124
1360	6124
1360	6124
1361	6124
1361	6124
1361	6124
1361	6124
1361	6124
1362	6124
1362	6124
1362	6124
1362	6124
1362	6124
1363	6124
1363	6124
1363	6124
1363	6124
1363	6124
1364	6124
1364	6124
1365	6124
1365	6124
1365	6124
1365	6124
1366	6124
1366	6124
1366	6124
1366	6124
1367	6124
1367	6124
1367	6124
1368	6124
1369	6124
1369	6124
1370	6124
1370	6124
1370	6124
1371	6124
1371	6124
1371	6124
1371	6124
1372	6124
1373	6124
1373	6124
1375	6124
1376	6124
1377	6124
1378	6124
1379	6124
1381	6124
1385	6124
