10	230
12	230
12	230
12	230
13	230
13	230
14	230
14	230
14	230
15	230
20	230
45	230
45	230
45	230
45	230
45	230
45	230
45	230
46	230
46	230
46	230
46	230
46	230
47	230
47	230
47	230
47	230
47	230
48	230
49	230
53	230
53	230
