8	6124
8	6124
10	6124
10	6124
11	6124
11	6124
11	6124
12	6124
13	6124
13	6124
15	6124
17	6124
17	6124
18	6124
18	6124
19	6124
19	6124
20	6124
21	6124
22	6124
23	6124
23	6124
25	6124
26	6124
28	6124
28	6124
29	6124
29	6124
29	6124
30	6124
30	6124
30	6124
30	6124
30	6124
30	6124
30	6124
32	6124
32	6124
32	6124
32	6124
33	6124
37	6124
46	6124
88	6124
88	6124
88	6124
88	6124
89	6124
90	6124
90	6124
90	6124
92	6124
92	6124
92	6124
93	6124
93	6124
95	6124
97	6124
103	6124
107	6124
113	6124
238	6124
238	6124
238	6124
238	6124
238	6124
238	6124
238	6124
238	6124
238	6124
238	6124
238	6124
238	6124
238	6124
238	6124
238	6124
238	6124
238	6124
238	6124
238	6124
238	6124
238	6124
238	6124
238	6124
238	6124
238	6124
238	6124
238	6124
238	6124
238	6124
238	6124
238	6124
238	6124
238	6124
238	6124
238	6124
238	6124
239	6124
239	6124
239	6124
239	6124
239	6124
239	6124
239	6124
239	6124
239	6124
239	6124
239	6124
240	6124
240	6124
240	6124
240	6124
240	6124
240	6124
240	6124
240	6124
240	6124
241	6124
241	6124
241	6124
241	6124
243	6124
244	6124
244	6124
246	6124
247	6124
247	6124
247	6124
248	6124
248	6124
251	6124
251	6124
253	6124
258	6124
262	6124
263	6124
322	6124
