1	6124
1	18
1	12
1	12
1	10
1	13
1	20
1	13
1	164
1	28
1	18
1	6124
1	19
1	16
1	12
1	17
1	20
1	27
1	10
1	13
1	12
1	19
1	12
1	30
1	24
1	9
1	11
1	163
1	10
1	9
1	17
1	13
1	17
1	24
1	23
1	23
1	163
1	23
1	12
1	17
1	163
1	21
1	14
1	15
1	163
1	11
1	19
1	16
1	16
1	29
1	9
1	18
1	19
1	21
1	11
1	17
1	15
1	15
1	21
1	163
1	6
1	7
1	10
1	13
1	11
1	15
1	9
1	33
1	14
1	13
1	23
1	162
1	27
1	162
1	12
1	22
1	10
1	22
1	20
1	12
1	162
1	7
1	13
1	29
1	21
1	162
1	14
1	162
1	12
1	11
1	6
1	4
1	29
1	12
1	21
1	21
1	162
1	162
1	162
1	163
1	4
1	27
1	30
1	25
1	162
1	12
1	29
1	13
1	21
1	14
1	20
1	19
1	14
1	26
1	6
1	19
1	10
1	162
1	10
1	17
1	18
1	21
1	162
1	11
1	26
1	20
1	12
1	165
1	10
1	18
1	12
1	9
1	21
1	9
1	20
1	164
1	8
1	15
1	15
1	164
1	162
1	9
1	23
1	16
1	162
1	10
1	9
1	20
1	8
1	14
1	163
1	9
1	8
1	21
1	27
1	23
1	162
1	10
1	15
1	16
1	9
1	163
1	27
1	162
1	162
1	23
1	11
1	162
1	10
1	15
1	11
1	8
1	162
1	15
1	20
1	13
1	9
1	162
1	162
1	13
1	162
1	26
1	23
1	24
1	19
1	23
1	12
1	15
1	165
1	26
1	162
1	11
1	21
1	15
1	8
1	11
1	26
1	26
1	162
1	9
1	9
1	163
1	15
1	11
1	162
1	6
1	163
1	18
1	6
1	163
1	23
1	11
1	18
1	8
1	4
1	162
1	17
1	15
1	11
1	16
1	24
1	7
1	4
1	162
1	23
1	6
1	26
1	28
1	11
1	19
1	7
1	9
1	20
1	8
1	9
1	19
1	4
1	29
1	12
1	6
1	11
1	9
1	29
1	10
1	11
1	13
1	12
1	26
1	17
1	162
1	162
1	5
1	10
1	19
1	10
1	164
1	26
1	16
1	23
1	9
1	11
1	10
1	14
1	27
1	16
1	18
1	6
1	8
1	28
1	11
1	19
1	4
1	21
1	31
1	17
1	10
1	15
1	15
1	29
1	19
1	10
1	162
1	6
1	24
1	162
1	14
1	9
1	10
1	163
1	15
1	11
1	20
1	8
1	162
1	13
1	16
1	7
1	162
1	16
1	10
1	11
1	10
1	4
1	20
1	162
1	162
1	23
1	21
1	5
1	4
1	12
1	14
1	6
1	5
1	9
1	7
1	18
1	14
1	7
1	15
1	26
1	6
1	20
1	5
1	29
1	27
1	8
1	10
1	21
1	7
1	19
1	9
1	6
1	22
1	11
1	24
1	19
1	7
1	15
1	8
1	7
1	23
1	9
1	9
1	162
1	5
1	15
1	11
1	24
1	162
1	11
1	163
1	9
1	15
1	12
1	19
1	162
1	10
1	18
1	15
1	9
1	15
1	14
1	14
1	6
1	27
1	8
1	11
1	12
1	7
1	14
1	15
1	5
1	14
1	10
1	21
1	9
1	15
1	6
1	21
1	11
1	162
1	18
1	21
1	11
1	23
1	21
1	162
1	10
1	10
1	7
1	9
1	162
1	6
1	7
1	11
1	163
1	19
1	29
1	10
1	162
1	8
1	162
1	11
1	13
1	23
1	5
1	18
1	24
1	19
1	10
1	11
1	13
1	19
1	162
1	13
1	15
1	8
1	162
1	6
1	162
1	11
1	8
1	162
1	8
1	7
1	4
1	18
1	29
1	6
1	7
1	162
1	21
1	11
1	26
1	7
1	19
1	10
1	18
1	27
1	11
1	21
1	162
1	8
1	162
1	10
1	14
1	10
1	15
1	6
1	24
1	27
1	163
1	23
1	27
1	5
1	19
1	20
1	10
1	6
1	11
1	8
1	13
1	7
1	18
1	7
1	162
1	18
1	10
1	18
1	162
1	9
1	27
1	22
1	162
1	8
1	24
1	19
1	29
1	24
1	162
1	163
1	6
1	10
1	14
1	22
1	14
1	15
1	21
1	11
1	21
1	26
1	26
1	162
1	6
1	15
1	11
1	13
1	6
1	162
1	6
1	8
1	6
1	9
1	6
1	4
1	10
1	18
1	8
1	14
1	19
1	7
1	19
1	13
1	162
1	163
1	7
1	9
1	26
1	18
1	6
1	5
1	162
1	8
1	22
1	21
1	12
1	162
1	16
1	13
1	5
1	29
1	11
1	29
1	19
1	162
1	9
1	18
1	4
1	15
1	18
1	22
1	26
1	27
1	162
1	7
1	14
1	18
1	18
1	27
1	5
1	5
1	8
1	20
1	7
1	6
1	5
1	5
1	6
1	4
1	22
1	162
1	9
1	21
1	10
1	162
1	162
1	20
1	7
1	5
1	9
1	9
1	6
1	9
1	15
1	9
1	9
1	19
1	162
1	24
1	19
1	162
1	5
1	6
1	9
1	16
1	8
1	162
1	19
1	8
1	162
1	10
1	10
1	23
1	11
1	162
1	162
1	15
1	8
1	4
1	11
1	12
1	29
1	4
1	19
1	18
1	162
1	5
1	29
1	162
1	6
1	162
1	24
1	162
1	18
1	26
1	6
1	6
1	9
1	4
1	21
1	162
1	2
1	21
1	162
1	14
1	7
1	162
1	8
1	8
1	19
1	16
1	5
1	8
1	14
1	7
1	6
1	29
1	27
1	5
2	3
2	3
2	3
2	6
2	6
2	5
2	7
2	10
2	7
2	6
2	28
2	7
2	5
2	9
2	8
2	3
2	3
2	3
2	6
2	3
2	24
2	3
2	7
2	7
2	12
2	3
2	7
2	3
2	3
2	3
2	8
2	4
2	3
2	4
2	10
2	8
2	7
2	7
2	7
2	5
2	3
2	6
2	8
2	7
2	11
2	12
2	6
2	8
2	6
2	3
2	3
2	3
2	6
2	5
2	3
2	3
2	3
2	10
2	17
2	3
2	3
2	5
2	17
2	3
2	8
2	9
2	3
2	3
2	6
2	3
2	3
2	7
2	4
2	5
2	163
2	8
2	11
2	4
2	3
2	4
2	12
2	6
2	9
2	3
2	7
2	4
2	8
2	13
2	25
2	8
2	5
2	3
2	12
2	3
2	5
2	6
2	3
2	4
2	3
2	7
2	3
2	5
2	3
2	3
2	4
2	7
2	7
2	9
2	9
2	7
2	4
2	3
2	3
2	3
2	3
2	4
2	3
2	16
2	3
2	10
2	3
2	7
2	7
2	3
2	4
2	4
2	3
2	8
2	6
2	3
2	4
2	5
2	9
2	4
2	4
2	6
2	6
2	4
2	3
2	3
2	3
2	3
2	6
2	25
2	3
2	3
2	3
2	9
2	3
2	12
2	3
2	3
2	14
2	3
2	5
2	3
2	6
2	3
2	3
2	5
2	4
2	7
2	4
2	3
2	4
2	4
2	4
2	4
2	4
2	6
2	3
2	3
2	7
2	3
2	3
2	8
2	9
2	4
2	4
2	5
2	19
2	4
2	3
2	4
2	6
2	3
2	3
2	3
2	5
3	4
3	6
3	5
3	4
3	4
3	6
3	5
3	20
3	4
3	4
3	4
3	5
3	5
3	5
3	4
3	4
3	7
3	4
3	4
3	4
3	6
3	4
3	4
3	5
3	6
3	5
3	5
3	5
3	11
3	5
3	6
3	4
3	5
3	5
3	8
3	7
3	6
3	7
3	6
3	4
3	4
3	6
3	5
3	4
3	4
3	4
3	7
3	5
3	4
3	4
3	5
3	5
3	4
3	4
3	6
3	7
3	9
3	5
3	4
3	4
3	4
3	4
3	8
3	4
3	4
3	7
3	7
3	5
3	6
3	6
3	4
3	4
3	4
3	6
3	4
3	4
3	4
3	6
3	6
3	4
3	6
3	4
3	4
3	4
3	4
3	4
4	5
4	6
4	5
4	5
4	5
4	5
4	5
4	6
4	6
4	5
4	5
4	5
4	7
4	6
4	5
4	5
4	5
4	5
4	6
4	6
4	5
4	8
4	5
4	6
4	5
4	5
4	6
4	5
4	5
4	6
4	5
4	5
4	6
4	6
4	6
4	5
4	7
4	5
4	5
4	5
4	6
4	5
4	5
4	6
4	6
4	5
4	5
4	5
5	6
5	6
5	7
5	6
5	7
5	6
5	6
5	6
5	6
5	6
5	6
5	6
5	7
5	9
5	6
5	8
5	6
5	7
5	6
5	6
5	6
5	6
5	6
6	7
6	8
6	8
6	7
6	7
6	7
6	7
6	7
6	7
6	7
6	7
6	7
6	7
7	8
7	8
7	8
7	8
7	8
7	8
7	8
7	8
7	8
8	9
8	9
8	9
8	9
8	9
8	9
8	9
9	10
9	10
9	10
10	11
10	11
10	11
10	11
10	11
10	11
10	11
11	12
11	12
12	13
12	13
13	14
13	14
14	15
14	15
14	15
15	16
15	16
17	18
17	18
17	18
18	19
18	19
19	20
20	21
20	21
20	21
22	23
23	24
25	26
26	27
28	29
161	162
