6	6124
6	6124
11	6124
11	6124
13	6124
13	6124
13	6124
13	6124
13	6124
13	6124
14	6124
14	6124
14	6124
14	6124
15	6124
15	6124
15	6124
16	6124
16	6124
16	6124
16	6124
17	6124
18	6124
19	6124
19	6124
19	6124
19	6124
20	6124
21	6124
21	6124
21	6124
21	6124
21	6124
21	6124
21	6124
21	6124
21	6124
21	6124
21	6124
22	6124
22	6124
22	6124
22	6124
22	6124
22	6124
22	6124
23	6124
23	6124
23	6124
23	6124
24	6124
24	6124
24	6124
24	6124
24	6124
25	6124
25	6124
26	6124
26	6124
28	6124
28	6124
29	6124
30	6124
30	6124
34	6124
36	6124
36	6124
36	6124
36	6124
36	6124
36	6124
36	6124
36	6124
36	6124
37	6124
37	6124
37	6124
37	6124
37	6124
38	6124
38	6124
38	6124
38	6124
38	6124
39	6124
39	6124
39	6124
41	6124
41	6124
42	6124
42	6124
43	6124
44	6124
44	6124
45	6124
45	6124
60	6124
1890	6124
1890	6124
1890	6124
1890	6124
1890	6124
1890	6124
1890	6124
1890	6124
1890	6124
1890	6124
1890	6124
1890	6124
1890	6124
1890	6124
1890	6124
1890	6124
1890	6124
1890	6124
1890	6124
1890	6124
1890	6124
1890	6124
1890	6124
1890	6124
1890	6124
1890	6124
1890	6124
1890	6124
1890	6124
1890	6124
1890	6124
1890	6124
1890	6124
1890	6124
1890	6124
1890	6124
1890	6124
1890	6124
1890	6124
1890	6124
1890	6124
1890	6124
1890	6124
1890	6124
1890	6124
1890	6124
1890	6124
1890	6124
1890	6124
1890	6124
1890	6124
1890	6124
1890	6124
1890	6124
1890	6124
1890	6124
1890	6124
1890	6124
1890	6124
1890	6124
1890	6124
1890	6124
1890	6124
1890	6124
1890	6124
1891	6124
1891	6124
1891	6124
1891	6124
1891	6124
1891	6124
1891	6124
1891	6124
1891	6124
1891	6124
1891	6124
1891	6124
1891	6124
1891	6124
1891	6124
1891	6124
1891	6124
1891	6124
1891	6124
1891	6124
1892	6124
1892	6124
1892	6124
1892	6124
1892	6124
1892	6124
1892	6124
1893	6124
1893	6124
1893	6124
1893	6124
1893	6124
1893	6124
1893	6124
1894	6124
1894	6124
1894	6124
1894	6124
1895	6124
1895	6124
1895	6124
1895	6124
1896	6124
1896	6124
1897	6124
1897	6124
1898	6124
1898	6124
1898	6124
1898	6124
1898	6124
1899	6124
1899	6124
1899	6124
1899	6124
1901	6124
1902	6124
1905	6124
1905	6124
1906	6124
1906	6124
1907	6124
1909	6124
1921	6124
1922	6124
1922	6124
