1	6124
1	1117
1	134
1	1116
1	133
1	1116
1	1116
1	133
1	1116
1	15
1	1116
1	1116
1	16
1	1116
1	18
1	15
1	14
1	1116
1	13
1	12
1	1116
1	30
1	14
1	1116
1	17
1	1116
1	1116
1	1116
1	1116
1	1116
1	1116
1	1116
1	10
1	1116
1	1116
1	1116
1	18
1	1116
1	1116
1	1116
1	1116
1	1116
1	17
1	1116
1	36
1	1116
1	11
1	133
1	14
1	1116
1	1117
1	10
1	14
1	10
1	1116
1	1116
1	1116
1	15
1	1116
1	7
1	1116
1	19
1	11
1	1116
1	1116
1	1116
1	1116
1	1116
1	1116
1	1116
1	1116
1	1116
1	11
1	1116
1	1116
1	14
1	8
1	1116
1	18
1	135
1	25
1	18
1	1116
1	11
1	16
1	1116
1	1116
1	134
1	1116
1	1116
1	1116
1	1116
1	21
1	1116
1	1116
1	1117
1	1118
1	1116
1	1116
1	1116
1	1116
1	28
1	1116
1	1116
1	1116
1	1116
1	1116
1	1116
1	1116
1	20
1	19
1	1116
1	133
1	5
1	1116
1	1116
1	6124
1	21
1	23
1	1116
1	1116
1	1116
1	9
1	1116
1	1116
1	1116
1	17
1	1116
1	1116
1	133
1	1116
1	1116
1	1117
1	1116
1	1116
1	9
1	1116
1	18
1	1116
1	42
1	1116
1	1116
1	1116
1	1116
1	22
1	10
1	12
1	6124
1	1116
1	1116
1	1116
1	1116
1	1116
1	1116
1	1116
1	35
1	1116
1	133
1	1116
1	1116
1	1116
1	1116
1	1116
1	1116
1	1116
1	10
1	1116
1	15
1	1116
1	1116
1	1116
1	1116
1	1117
1	1116
1	1116
1	36
1	1116
1	9
1	10
1	1116
1	1116
1	1117
1	1116
1	1116
1	1116
1	19
1	18
1	1116
1	1116
1	1116
1	19
1	1116
1	133
1	1116
1	10
1	133
1	15
1	1116
1	1116
1	1116
1	1116
1	1116
1	12
1	1116
1	7
1	133
1	1116
1	6124
1	1116
1	10
1	9
1	133
1	35
1	1116
1	1116
1	1117
1	11
1	1116
1	1116
1	1116
1	19
1	1116
1	1116
1	1116
1	6
1	1117
1	1116
1	6
1	1116
1	1116
1	1116
1	1116
1	1116
1	1116
1	6124
1	1116
1	1116
1	1116
1	7
1	1116
1	1116
1	1116
1	5
1	6
1	15
1	1116
1	16
1	1116
1	1116
1	1116
1	8
1	19
1	1117
1	17
1	1116
1	1116
1	22
1	1116
1	9
1	1116
1	1116
1	1116
1	1116
1	1116
1	1116
1	1116
1	1116
1	1116
1	9
1	1116
1	10
1	1116
1	14
1	1116
1	1116
1	1116
1	1116
1	1116
1	1116
1	1116
1	18
1	1116
1	1116
1	14
1	1116
1	8
1	11
1	1116
1	6124
1	1117
1	16
1	1116
1	1116
1	22
1	1116
1	1116
1	1116
1	1116
1	1116
1	134
1	7
1	1116
1	1116
1	35
1	1116
1	16
1	1116
1	1116
1	1116
1	1116
1	1116
1	1116
1	17
1	1116
1	1116
1	17
1	1116
1	1116
1	14
1	1116
1	1117
1	1116
1	1116
1	1116
1	5
1	11
1	1116
1	1116
1	1116
1	1116
1	1116
1	1116
1	1116
1	1116
1	8
1	1116
1	1116
1	19
1	1116
1	1116
1	1117
1	1116
1	1116
1	1116
1	1116
1	1116
1	1116
1	10
1	16
1	1116
1	1116
1	1116
1	1116
1	1116
1	1116
1	12
1	1116
1	1116
1	16
1	9
1	1116
1	35
1	17
1	1116
1	1116
1	1116
1	1116
1	1116
1	1116
1	5
1	1116
1	1116
1	1116
1	35
1	1116
1	1117
1	1116
1	1116
1	15
1	1116
1	1116
1	1116
1	18
1	1116
1	1116
1	1116
1	1116
1	12
1	1117
1	1116
1	6
1	8
1	1116
1	1116
1	1116
1	1116
1	133
1	1116
1	133
1	1116
1	1116
1	1116
1	18
1	1116
1	13
1	1116
1	10
1	1116
1	1116
1	9
1	1116
1	1116
1	1116
1	1116
1	1116
1	1116
1	1117
1	10
1	21
1	1116
1	1116
1	1116
1	1116
1	1116
1	2
1	1116
1	1116
1	1116
1	1116
1	1116
1	1116
1	1116
1	1116
1	1116
1	13
1	1116
1	1116
1	2
1	12
1	2
1	133
1	5
1	1116
1	9
1	1116
1	1116
1	11
1	1116
1	1116
1	10
1	1116
1	6
1	1116
1	1116
1	35
1	20
1	35
1	1116
1	10
1	6
1	1116
1	1116
1	1116
1	1116
1	16
1	1116
1	1116
1	1116
1	133
1	1116
1	10
1	1116
1	1116
1	6
1	1116
1	35
1	1116
1	1116
1	9
1	1116
1	1116
1	22
1	1116
1	1116
1	1116
1	1116
1	1116
1	11
1	1116
1	28
1	1116
1	7
1	8
1	18
1	9
1	13
1	1116
1	1116
1	1116
1	11
1	17
1	1116
1	1116
1	1116
1	1116
1	35
1	1116
1	1116
1	1116
1	133
1	9
1	1116
1	28
1	1116
1	1116
1	1116
1	1116
1	1116
1	1116
1	4
1	1116
1	31
1	10
1	1116
1	16
1	1116
1	1116
1	28
1	1117
1	1116
1	1116
1	4
1	133
1	1116
1	1116
1	1116
1	1116
1	1116
1	15
1	7
1	1116
1	1116
1	9
1	1116
1	1116
1	11
1	1116
1	133
1	1116
1	1116
1	1116
1	1116
1	39
1	1116
1	6124
1	22
1	1116
1	1116
1	1116
1	1116
1	17
1	4
1	1116
1	1116
1	1116
1	8
1	1116
1	7
1	1116
1	14
1	1118
1	5
1	1116
1	11
1	1116
1	1116
1	1116
1	6
1	1116
1	18
1	1116
1	1117
1	1116
1	1116
1	1116
1	1116
1	1116
1	1116
1	1116
1	1116
1	18
1	1118
1	1116
1	1117
1	18
1	1116
1	1116
1	22
1	1116
1	1116
1	10
1	1116
1	17
1	9
1	1116
1	1116
1	1116
1	1116
1	1117
1	6
1	18
1	13
1	18
1	18
1	8
1	1116
1	1116
1	1116
1	1116
1	1116
1	1117
1	133
1	1116
1	1116
1	1116
1	1116
1	19
1	1116
1	17
1	10
1	1116
1	1116
1	1116
1	1116
1	28
1	5
1	1116
1	1116
1	1117
1	7
1	1116
1	9
1	1116
1	7
1	1116
1	1116
1	1116
1	1116
1	9
1	1116
1	1116
1	1116
1	1116
1	1116
1	7
1	19
1	1116
1	18
1	1116
1	1116
1	22
1	1116
1	133
1	1116
1	12
1	1116
1	1116
1	1116
1	18
1	1116
1	1116
1	1116
1	1116
1	8
1	15
1	1116
1	1116
1	1116
1	1116
1	1116
1	1116
1	1116
1	1116
1	1116
1	1116
1	22
1	17
1	16
1	7
1	19
1	10
1	1116
1	1116
1	7
1	1116
1	16
1	7
1	1116
1	1116
1	10
1	18
1	1116
1	1116
1	1116
1	15
1	1116
1	4
1	1116
1	1116
1	1116
1	1116
1	7
1	15
1	1116
1	8
1	1116
1	1116
1	1116
1	1116
1	1116
1	1116
1	35
1	1116
1	1116
1	1116
1	1116
1	1116
1	1116
1	1116
1	1116
1	1116
1	1116
1	1116
1	10
1	1116
1	11
1	1116
1	1116
1	1116
1	1116
1	1116
1	1116
1	10
1	136
1	1116
1	35
1	1116
1	1116
1	6
1	1116
1	1116
1	2
1	1116
1	1116
1	9
1	1116
1	1116
1	1116
1	1117
1	28
1	1116
1	1116
1	1116
1	1116
1	1116
1	1116
1	9
1	7
1	16
1	1116
1	1116
1	1116
1	1116
1	1116
1	8
1	1116
1	13
1	11
1	1117
1	22
1	1116
1	1116
1	28
1	1116
1	8
1	1116
1	15
1	1116
1	1116
1	1116
1	1116
1	22
1	7
1	1116
1	1116
1	16
1	1116
1	1116
1	1116
1	9
1	1116
1	1116
1	6
1	1116
1	1116
1	1116
1	35
1	1116
1	1116
1	1116
1	1116
1	1116
1	1116
1	19
1	28
1	18
1	1116
1	1116
1	1116
1	5
1	13
1	1116
1	1116
1	8
1	1116
1	1116
1	1116
1	1116
1	6
1	1116
1	4
1	18
1	133
1	35
1	1116
1	18
1	1116
1	35
1	1116
1	1116
1	7
1	8
1	1116
1	8
1	1116
1	1116
1	1116
1	9
1	1116
1	1116
1	1116
1	9
1	1116
1	1116
1	35
1	1116
1	7
1	1116
1	1116
1	1116
1	1116
1	19
1	133
1	1116
1	1116
1	1116
1	1116
1	1116
1	1116
1	1116
1	1116
1	1116
1	9
1	1116
1	9
1	6
1	1116
1	1116
1	8
1	1116
1	1116
1	1116
1	1116
1	1116
1	9
1	30
1	133
1	1116
1	35
1	1116
1	1116
1	1116
1	6
1	1116
1	1116
1	1116
1	19
1	1116
1	1116
1	1116
1	1116
1	6124
1	1116
1	9
1	1116
1	1116
1	1116
1	134
1	1116
1	1116
1	1116
1	1116
1	1116
1	7
1	5
1	1117
1	1116
1	1118
1	4
1	1116
1	1116
1	1116
1	17
1	7
1	1116
1	1116
1	1116
1	1117
1	1116
1	133
1	1116
1	1116
1	30
1	1116
1	7
1	133
1	22
1	1116
1	1116
1	17
1	1116
1	1116
1	1116
1	1116
1	14
1	6
1	1116
1	1116
1	19
1	1116
1	1116
1	1116
1	1116
1	1116
1	6
1	1116
1	7
1	1116
1	1116
1	1116
1	10
1	1116
1	1116
1	10
1	1116
1	1116
1	1116
1	1116
1	1116
1	1116
1	1116
1	1116
1	2
1	15
1	1116
1	1116
1	1116
1	1116
1	8
1	15
1	1116
1	1117
1	1116
1	1116
1	1116
1	16
1	1117
1	1116
1	1116
1	1116
1	12
1	6
1	9
1	1116
1	6
1	11
1	1116
1	1116
1	9
1	1116
1	1116
1	12
1	1116
1	1116
1	1116
1	1116
1	1116
1	1116
1	17
1	1116
1	16
1	1116
1	1116
1	22
1	1116
1	29
1	7
1	1116
1	8
1	1116
1	1116
1	1116
1	1116
1	1116
1	1116
1	17
1	1116
1	1116
1	1116
1	1116
1	1116
1	1116
1	14
1	1116
1	1116
1	1116
1	6
1	1116
1	1116
1	1116
1	1116
1	7
1	1116
1	6
1	1116
1	1116
1	1116
1	1116
1	1116
1	1116
1	18
1	1116
1	6
1	1116
1	1116
1	1116
1	1116
1	1116
1	1116
1	133
1	17
1	1116
1	1116
1	1116
1	18
1	1116
1	1116
1	1116
1	1116
1	1116
1	133
1	1116
1	10
1	133
1	1116
1	1116
1	1116
1	6
1	1116
1	1116
1	1116
1	1116
1	28
1	1116
1	1116
1	1116
1	1116
1	1116
1	9
1	1116
1	5
1	1116
1	13
1	1116
1	1116
1	1116
1	16
1	133
1	1116
1	1116
1	1116
1	1116
1	1116
1	1116
1	1116
1	133
1	1116
1	1116
1	1116
1	1116
1	1116
1	1116
1	17
1	1116
1	1116
1	1116
1	1116
1	1116
1	6
1	1117
1	1116
1	9
1	1116
1	1116
1	17
1	1116
1	8
1	1116
1	1116
1	1116
1	1116
1	1116
1	1116
1	1116
1	1116
1	1116
1	1116
1	1116
1	7
1	1116
1	1116
1	1116
1	1116
1	16
1	1117
1	1116
1	1116
1	1116
1	1116
1	1116
1	1116
1	1116
1	9
1	1116
1	1116
1	1116
1	135
1	17
1	1116
1	1116
1	1116
1	7
1	1116
1	35
1	1116
1	7
1	7
1	1116
1	1116
1	1116
1	1116
1	1116
1	9
1	1116
1	133
1	6
1	1116
1	1116
1	1116
1	1116
1	1116
1	1116
1	1116
1	1116
1	1116
1	1116
1	1116
1	7
1	14
1	1116
1	1116
1	1116
1	1116
1	1116
1	133
1	14
1	133
1	1116
1	1116
1	1116
1	1116
1	1116
1	1116
1	5
1	1116
1	1116
1	1116
1	18
1	1116
1	1116
1	1116
1	1116
1	1116
1	1116
1	1116
1	6
1	1116
1	1116
1	16
1	14
1	1116
1	28
1	11
1	1116
1	22
1	1116
1	1116
1	1117
1	1116
1	1116
1	5
1	6
1	1116
1	15
1	9
1	1116
1	9
1	1116
1	1116
1	1116
1	1116
1	1116
1	1116
1	19
1	1116
1	1116
1	1116
1	5
1	1116
1	4
1	1116
1	1116
1	17
1	1116
1	1116
1	1116
1	1116
1	17
1	1116
1	1117
1	1116
1	1116
1	1116
1	12
1	1116
1	1116
1	1116
1	22
1	13
1	1116
1	7
1	16
1	1116
1	1116
1	1116
1	1116
1	1116
1	1116
1	12
1	1116
1	1116
1	2
1	1116
1	6
1	16
1	1116
1	17
1	1116
1	1116
1	1116
1	133
1	1116
1	133
1	1116
1	1116
1	1116
1	133
1	9
1	1116
1	1116
1	1116
1	1116
1	133
1	8
1	12
1	9
1	1116
1	1116
1	7
1	1116
1	9
1	1116
1	6
1	1116
1	1116
1	1116
1	1116
1	1116
1	1116
1	1116
1	7
1	1116
1	1116
1	18
1	1116
1	1116
1	1116
1	1116
1	17
1	7
1	1116
1	6
1	9
1	1116
1	1116
1	1116
1	1117
1	4
1	1116
1	1116
1	1116
1	1116
1	133
1	1116
1	1116
1	1116
1	1116
1	15
1	1116
1	8
1	1116
1	1116
1	1116
1	1116
1	1116
1	1116
1	1116
1	1116
1	19
1	1116
1	1116
1	1116
1	15
1	1116
1	1116
1	1116
1	1116
1	1116
1	1116
1	1116
1	1116
1	1116
1	1116
1	1116
1	1116
1	1116
1	1116
1	1116
1	11
1	1116
1	1116
1	1116
1	1116
1	1116
1	1116
1	1116
1	5
1	1116
1	19
1	18
1	1116
1	1116
1	1116
1	35
1	1116
1	1116
2	13
2	3
2	134
2	5
2	5
2	8
2	3
2	7
2	18
2	11
2	29
2	5
2	134
2	3
2	134
2	9
2	7
2	3
2	134
2	1117
2	5
2	3
2	134
2	3
2	134
2	8
2	6
2	134
2	3
2	36
2	21
2	7
2	3
2	3
2	3
2	3
2	134
2	10
2	6
2	7
2	135
2	8
2	7
2	3
2	9
2	6
2	1117
2	134
2	134
2	5
2	134
2	29
2	1117
2	3
2	6
2	36
2	7
2	5
2	3
2	29
2	6
2	134
2	134
2	6
2	3
2	11
2	134
2	135
2	3
2	5
2	134
2	134
2	134
2	3
2	3
2	134
2	134
2	134
2	134
2	3
2	3
2	3
2	9
2	36
2	3
2	23
2	4
2	16
2	6
2	20
2	3
2	3
2	134
2	4
2	3
2	134
2	4
2	134
2	3
2	134
2	5
2	134
2	3
2	134
2	134
2	3
2	3
2	4
2	134
2	4
2	3
2	134
2	4
2	134
2	6
2	3
2	1117
2	3
2	3
2	6
2	29
2	4
2	15
2	134
2	134
2	10
2	3
2	8
2	3
2	3
2	3
2	1117
2	9
2	3
2	3
2	6
2	4
2	5
2	134
2	3
2	3
2	7
2	8
2	1117
2	7
2	134
2	6
2	3
2	5
2	3
2	6
2	10
2	3
2	3
2	1117
2	8
2	3
2	8
2	3
2	134
2	6
2	3
2	1117
2	3
2	5
2	9
2	6
2	3
2	10
2	6
2	134
2	1117
2	9
2	9
2	3
2	134
2	3
2	3
2	6
2	3
2	29
2	3
2	3
2	4
2	4
2	3
2	1117
2	4
2	3
2	3
2	9
2	7
2	3
2	3
2	134
2	5
2	134
2	134
2	4
2	4
2	4
2	3
2	134
2	4
2	3
2	5
2	3
2	134
2	4
2	4
2	134
2	4
2	4
2	3
2	7
2	3
2	134
2	6
2	3
2	4
2	8
2	134
2	3
2	7
2	3
2	4
2	7
2	4
2	6
2	3
2	36
2	29
2	9
2	20
2	3
2	134
2	5
2	6
2	6
2	3
2	4
2	3
2	6
2	4
2	4
2	134
2	3
2	7
2	134
2	134
2	9
2	4
2	134
2	3
2	16
2	4
2	134
3	4
3	7
3	5
3	11
3	4
3	7
3	4
3	4
3	7
3	8
3	5
3	4
3	5
3	5
3	4
3	5
3	4
3	24
3	4
3	7
3	5
3	4
3	5
3	4
3	5
3	5
3	4
3	12
3	4
3	4
3	5
3	4
3	5
3	5
3	7
3	4
3	4
3	5
3	5
3	9
3	6
3	5
3	7
3	5
3	4
3	4
3	4
3	16
3	4
3	5
3	4
3	5
3	8
3	5
3	7
3	8
3	4
3	6
3	11
3	4
3	14
3	10
3	7
3	4
3	4
3	7
3	4
4	6
4	5
4	5
4	6
4	5
4	6
4	5
4	5
4	5
4	6
4	6
4	6
4	5
4	5
4	6
4	6
4	6
4	5
4	5
4	5
4	5
4	5
4	5
4	5
4	5
4	5
4	6
4	5
4	5
4	5
4	5
4	5
4	5
4	5
4	5
4	6
4	5
4	7
4	5
4	5
4	5
4	6
4	6
4	6
5	7
5	6
5	6
5	6
5	6
5	6
5	7
5	6
5	6
5	6
5	6
5	6
5	6
5	6
5	6
5	6
5	6
5	6
5	6
5	6
5	6
5	6
5	6
6	8
6	7
6	7
6	7
6	7
6	7
6	7
6	7
6	7
6	7
6	7
6	7
6	7
6	9
6	7
7	8
7	9
7	8
7	8
7	8
8	9
8	11
8	9
8	9
8	9
8	9
8	9
8	9
8	9
8	9
8	9
8	9
9	10
10	11
11	12
11	12
12	13
12	13
13	14
14	15
14	15
15	16
15	16
16	17
16	17
16	17
16	17
17	18
17	18
18	19
21	22
27	28
34	35
132	133
1115	1116
