1	6124
1	179
1	179
1	179
1	180
1	27
1	12
1	180
1	179
1	179
1	179
1	21
1	179
1	179
1	179
1	179
1	8
1	21
1	179
1	179
1	21
1	179
1	179
1	21
1	181
1	179
1	179
1	179
1	9
1	179
1	179
1	21
1	179
1	179
1	179
1	179
1	179
1	179
1	179
1	179
1	179
1	179
1	179
1	179
1	179
1	179
1	179
1	179
1	179
1	179
1	179
1	179
1	179
1	179
1	179
1	179
1	6124
1	179
1	179
1	179
1	179
1	179
1	21
1	179
1	179
1	180
1	179
1	29
1	179
1	179
1	23
1	179
1	179
1	179
1	179
1	179
1	180
1	179
1	179
1	5
1	23
1	21
1	5
1	179
1	179
1	3
1	179
1	179
1	11
1	179
1	179
1	180
1	10
1	179
1	7
1	179
1	9
1	179
1	179
1	179
1	21
1	179
1	179
1	179
1	179
1	179
1	179
1	179
1	179
1	179
1	179
1	179
1	179
1	6124
1	179
1	179
1	179
1	7
1	179
1	179
1	179
1	179
1	179
1	179
1	179
1	179
1	179
1	179
1	179
1	179
1	179
1	179
1	179
1	179
1	179
1	179
1	179
1	179
1	8
1	179
1	21
1	21
1	179
1	179
1	179
1	179
1	179
1	179
1	179
1	21
1	179
1	179
1	179
1	179
1	8
1	179
1	179
1	179
1	179
1	179
1	179
1	21
1	179
1	179
1	4
1	179
1	179
1	179
1	179
1	179
1	179
1	179
1	179
1	179
1	179
1	21
1	181
1	179
1	4
1	179
1	179
1	179
1	4
1	179
1	179
1	179
1	10
1	179
1	4
1	179
1	4
1	179
1	10
1	179
1	179
1	179
1	179
1	179
1	179
1	4
1	179
1	179
1	5
1	179
1	179
1	179
1	179
1	11
1	179
1	179
1	21
1	179
2	3
2	3
2	180
2	3
2	5
2	180
2	3
2	3
2	6
2	6
2	6
2	4
2	3
2	3
2	3
2	5
2	5
2	3
2	3
2	5
2	11
2	3
2	4
2	4
3	5
3	4
3	5
3	4
3	4
3	4
3	5
3	4
3	4
4	5
4	5
5	6
7	8
9	10
20	21
178	179
