7	6124
7	6124
11	6124
12	6124
13	6124
13	6124
13	6124
14	6124
14	6124
14	6124
14	6124
14	6124
15	6124
15	6124
15	6124
15	6124
15	6124
16	6124
16	6124
17	6124
17	6124
17	6124
17	6124
17	6124
18	6124
18	6124
18	6124
18	6124
18	6124
18	6124
18	6124
18	6124
18	6124
19	6124
19	6124
19	6124
19	6124
19	6124
19	6124
19	6124
20	6124
20	6124
21	6124
22	6124
23	6124
24	6124
24	6124
25	6124
25	6124
26	6124
26	6124
27	6124
30	6124
35	6124
35	6124
35	6124
36	6124
36	6124
36	6124
36	6124
36	6124
36	6124
37	6124
37	6124
38	6124
40	6124
40	6124
40	6124
40	6124
40	6124
40	6124
41	6124
41	6124
41	6124
42	6124
42	6124
43	6124
43	6124
45	6124
50	6124
70	6124
70	6124
70	6124
70	6124
70	6124
70	6124
70	6124
70	6124
70	6124
70	6124
71	6124
71	6124
71	6124
71	6124
71	6124
71	6124
72	6124
72	6124
72	6124
73	6124
73	6124
74	6124
74	6124
75	6124
77	6124
77	6124
78	6124
78	6124
79	6124
82	6124
101	6124
557	6124
557	6124
557	6124
557	6124
557	6124
557	6124
557	6124
557	6124
557	6124
557	6124
557	6124
557	6124
557	6124
557	6124
557	6124
557	6124
557	6124
557	6124
557	6124
557	6124
557	6124
557	6124
557	6124
557	6124
557	6124
557	6124
557	6124
557	6124
557	6124
557	6124
557	6124
557	6124
557	6124
557	6124
557	6124
557	6124
558	6124
558	6124
558	6124
558	6124
558	6124
558	6124
558	6124
558	6124
558	6124
558	6124
558	6124
558	6124
558	6124
558	6124
558	6124
558	6124
558	6124
559	6124
559	6124
559	6124
559	6124
559	6124
559	6124
559	6124
559	6124
559	6124
559	6124
559	6124
560	6124
560	6124
560	6124
560	6124
560	6124
560	6124
561	6124
561	6124
561	6124
561	6124
561	6124
561	6124
562	6124
562	6124
562	6124
563	6124
565	6124
565	6124
566	6124
566	6124
568	6124
568	6124
569	6124
569	6124
573	6124
577	6124
592	6124
623	6124
