1	6124
1	349
1	350
1	349
1	349
1	349
1	27
1	15
1	13
1	11
1	25
1	349
1	349
1	12
1	349
1	349
1	11
1	349
1	349
1	349
1	11
1	14
1	349
1	349
1	349
1	349
1	13
1	349
1	349
1	349
1	15
1	14
1	11
1	12
1	349
1	349
1	349
1	349
1	349
1	350
1	349
1	11
1	12
1	10
1	349
1	349
1	6124
1	24
1	351
1	10
1	349
1	349
1	349
1	349
1	349
1	12
1	13
1	349
1	349
1	23
1	349
1	349
1	349
1	10
1	11
1	11
1	20
1	25
1	11
1	15
1	9
1	349
1	349
1	349
1	7
1	22
1	349
1	23
1	12
1	349
1	19
1	349
1	349
1	349
1	11
1	349
1	25
1	349
1	13
1	349
1	11
1	349
1	15
1	349
1	9
1	11
1	349
1	349
1	24
1	25
1	349
1	23
1	349
1	10
1	14
1	349
1	349
1	5
1	349
1	25
1	10
1	349
1	349
1	349
1	24
1	9
1	349
1	10
1	5
1	10
1	24
1	349
1	12
1	24
1	351
1	7
1	349
1	349
1	18
1	24
1	349
1	349
1	349
1	352
1	22
1	10
1	349
1	17
1	349
1	350
1	349
1	8
1	349
1	349
1	349
1	10
1	18
1	7
1	349
1	6124
1	12
1	13
1	350
1	349
1	18
1	12
1	14
1	6124
1	349
1	11
1	349
1	10
1	349
1	349
1	6124
1	349
1	349
1	24
1	15
1	14
1	7
1	14
1	349
1	7
1	4
1	10
1	25
1	349
1	22
1	11
1	349
1	8
1	7
1	349
1	349
1	24
1	23
1	349
1	26
1	349
1	4
1	11
1	349
1	10
1	3
1	9
1	12
1	349
1	6124
1	350
1	19
1	349
1	349
1	349
1	349
1	349
1	349
1	350
1	25
1	7
1	22
1	2
1	349
1	14
1	349
1	349
1	14
1	349
1	11
1	25
1	349
1	349
1	12
1	349
1	349
1	5
1	349
1	349
1	14
1	12
1	349
1	349
1	349
1	349
1	349
1	349
1	11
1	349
1	349
1	18
1	349
1	349
1	349
1	349
1	8
1	8
1	18
1	349
1	349
1	13
1	4
1	349
1	24
1	349
1	22
1	6
1	14
1	349
1	349
1	5
1	9
1	349
1	9
1	349
1	349
1	6124
1	349
1	18
1	18
1	9
1	25
1	6
1	349
1	349
1	349
1	350
1	349
1	349
1	9
1	349
1	349
1	349
1	349
1	349
1	14
1	349
1	349
1	24
1	349
1	6
1	349
1	10
1	22
1	6
1	2
1	4
1	8
1	9
1	4
1	349
1	22
1	349
1	349
1	24
1	349
1	8
1	349
1	349
1	7
1	6
1	25
1	349
1	349
1	349
1	349
1	349
1	349
1	349
1	349
1	349
1	13
1	350
1	8
1	14
1	9
1	349
1	349
1	10
1	349
1	25
1	10
1	349
1	5
1	5
1	349
1	8
1	25
1	6124
1	349
1	349
1	349
1	350
1	349
1	349
1	18
1	349
1	11
1	349
1	10
1	17
1	349
1	349
1	349
1	17
1	10
1	349
1	20
1	349
1	349
1	10
1	349
1	7
1	349
1	25
1	6
1	25
1	349
1	350
1	18
1	349
1	349
1	349
1	25
1	349
1	10
1	25
1	5
1	349
1	349
1	349
1	349
1	349
1	350
1	22
1	349
1	349
1	10
1	349
1	6
1	9
1	14
1	349
1	8
1	4
1	23
1	9
1	14
1	349
1	5
1	349
1	17
1	349
1	349
1	349
1	7
1	349
1	349
1	349
1	349
1	5
1	349
1	349
1	12
1	349
1	14
1	349
1	349
1	350
1	349
1	349
1	349
1	349
1	22
1	24
1	2
1	349
1	10
1	349
1	22
1	349
1	349
1	349
1	11
1	14
1	349
1	9
1	349
1	349
1	349
1	17
1	349
1	6
1	349
1	349
1	349
1	8
1	349
1	12
1	14
1	349
1	349
1	349
1	5
1	349
1	349
1	9
1	349
1	349
1	11
1	22
1	349
1	350
1	9
1	5
1	17
1	349
1	25
1	349
1	25
1	349
1	9
1	349
1	349
1	14
1	4
1	9
1	349
1	4
1	5
1	349
1	349
1	349
1	349
1	17
1	22
1	17
1	349
1	349
1	349
1	349
1	7
1	2
1	25
1	349
1	9
1	349
1	8
1	349
1	349
1	349
1	349
1	24
1	18
1	349
1	7
1	349
1	349
1	9
1	349
1	349
1	349
1	349
1	11
1	349
1	349
1	13
1	349
1	17
1	6
1	349
1	349
1	22
1	349
1	349
1	7
1	350
1	9
1	25
1	349
1	349
1	349
1	25
1	25
1	25
1	349
1	11
1	11
1	349
1	349
1	4
1	349
1	5
1	349
1	349
1	349
1	349
2	350
2	6
2	9
2	10
2	6
2	6
2	6
2	19
2	9
2	3
2	350
2	7
2	5
2	10
2	5
2	14
2	350
2	7
2	3
2	3
2	10
2	6
2	26
2	3
2	9
2	9
2	3
2	6
2	4
2	9
2	6
2	3
2	3
2	6
2	3
2	3
2	3
2	7
2	6
2	11
2	10
2	10
2	3
2	3
2	8
2	4
2	3
2	9
2	3
2	7
2	3
2	4
2	3
2	12
2	3
2	5
2	8
2	16
2	7
2	5
2	4
2	3
2	3
2	23
2	3
2	4
2	7
2	4
2	3
2	10
2	4
2	7
2	7
2	3
2	18
2	3
2	4
2	4
2	6
2	5
2	3
2	4
2	4
2	350
2	3
2	7
2	3
2	3
2	8
2	5
2	9
2	4
2	9
2	18
2	5
2	4
2	4
2	6
2	6
2	4
2	4
2	6
2	3
2	3
2	4
2	3
2	3
2	3
2	5
2	7
2	3
2	3
2	8
2	3
2	3
2	4
2	3
2	3
2	10
2	3
2	4
2	5
2	4
2	3
2	10
2	3
2	10
2	25
2	5
2	3
2	6
2	6
2	11
2	3
2	4
2	3
2	4
2	4
2	4
2	4
2	3
2	3
3	6
3	4
3	5
3	4
3	4
3	5
3	5
3	6
3	4
3	5
3	5
3	5
3	4
3	5
3	6
3	5
3	4
3	4
3	6
3	6
3	4
3	4
3	4
3	4
3	9
3	6
3	6
3	5
3	5
3	4
3	5
3	4
3	7
3	4
3	5
3	5
3	4
3	4
3	5
3	4
3	4
3	7
3	4
3	4
3	4
3	4
3	5
3	4
3	4
3	4
3	5
3	4
3	4
4	5
4	5
4	5
4	5
4	5
4	6
4	5
4	5
4	5
4	5
4	7
4	6
4	6
4	6
4	6
4	6
4	5
4	5
4	5
4	5
4	5
4	5
4	6
4	6
4	6
4	5
4	5
4	6
4	5
5	6
5	8
5	6
5	7
5	9
5	6
5	6
5	6
5	7
5	6
5	6
5	6
5	7
6	7
6	7
6	7
6	7
6	7
7	8
7	9
7	8
7	8
7	8
7	8
8	9
8	9
8	9
8	9
8	9
8	9
8	9
9	11
9	10
9	10
9	10
10	11
10	11
11	12
12	13
13	14
13	14
13	14
16	17
16	17
17	18
21	22
21	22
23	24
24	25
348	349
