1	6124
1	305
1	16
1	24
1	14
1	13
1	6124
1	6124
1	18
1	9
1	304
1	14
1	13
1	35
1	304
1	304
1	304
1	304
1	304
1	6124
1	304
1	304
1	16
1	25
1	304
1	3
1	12
1	9
1	304
1	6
1	6124
1	304
1	9
1	304
1	304
1	304
1	9
1	304
1	304
1	304
1	12
1	9
1	13
1	304
1	12
1	35
1	34
1	6
1	11
1	11
1	9
1	35
1	14
1	25
1	304
1	8
1	11
1	9
1	10
1	304
1	304
1	306
1	9
1	13
1	9
1	10
1	304
1	15
1	14
1	304
1	304
1	34
1	304
1	6
1	304
1	22
1	14
1	8
1	304
1	304
1	304
1	304
1	304
1	9
1	306
1	4
1	304
1	7
1	304
1	304
1	304
1	12
1	34
1	304
1	304
1	304
1	304
1	304
1	13
1	304
1	304
1	14
1	304
1	7
1	304
1	304
1	304
1	15
1	6124
1	23
1	304
1	11
1	304
1	9
1	304
1	8
1	7
1	26
1	23
1	304
1	23
1	7
1	13
1	8
1	304
1	23
1	8
1	304
1	304
1	6
1	304
1	304
1	13
1	9
1	305
1	4
1	304
1	7
1	26
1	8
1	9
1	13
1	304
1	11
1	304
1	34
1	23
1	304
1	304
1	8
1	304
1	304
1	304
1	14
1	13
1	9
1	304
1	11
1	304
1	7
1	10
1	304
1	304
1	6
1	15
1	304
1	11
1	304
1	304
1	304
1	6
1	14
1	304
1	304
1	304
1	6
1	15
1	11
1	304
1	304
1	304
1	304
1	304
1	304
1	304
1	34
1	304
1	8
1	304
1	304
1	304
1	304
1	23
1	304
1	15
1	304
1	304
1	8
1	9
1	304
1	10
1	34
1	6124
1	11
1	304
1	304
1	304
1	13
1	8
1	8
1	304
1	304
1	304
1	9
1	304
1	4
1	4
1	304
1	7
1	4
1	304
1	304
1	304
1	304
1	304
1	23
1	21
1	13
1	304
1	6124
1	10
1	34
1	304
1	304
1	304
1	8
1	304
1	6
1	304
1	304
1	304
1	14
1	14
1	304
1	34
1	304
1	2
1	304
1	304
1	304
1	305
1	8
1	304
1	304
1	304
1	11
1	8
1	304
1	6124
1	304
1	7
1	13
1	10
1	304
1	304
1	304
1	23
1	304
1	13
1	304
1	7
1	12
1	5
1	14
1	304
1	8
1	7
1	8
1	9
1	9
1	304
1	9
1	14
1	304
1	304
1	304
1	304
1	10
1	304
1	6124
1	7
1	304
1	304
1	304
1	7
1	304
1	304
1	23
1	304
1	304
1	304
1	305
1	5
1	14
1	25
1	304
1	304
1	12
1	304
1	14
1	5
1	304
1	15
1	304
1	304
1	5
1	23
1	9
1	304
1	9
1	304
1	304
1	3
1	3
1	304
1	304
1	305
1	304
1	14
1	304
1	304
1	304
1	304
1	304
1	304
1	304
1	304
1	304
1	23
1	14
1	11
1	304
1	304
1	8
1	9
1	6
1	13
1	304
1	304
1	304
1	23
1	4
1	34
1	304
1	304
1	304
1	304
1	304
1	9
1	8
1	304
1	4
1	304
1	304
1	304
1	14
1	7
1	34
1	6
1	304
1	304
1	8
1	10
1	6
1	304
1	4
1	304
1	304
1	304
1	34
1	4
1	8
1	6
1	23
1	304
1	34
1	8
1	8
1	304
1	304
1	304
1	305
1	24
1	304
1	15
1	304
1	5
1	304
1	304
1	305
1	304
1	9
1	34
1	15
1	304
1	8
1	10
1	304
1	6
1	304
1	15
1	6
1	13
1	304
1	11
1	7
1	304
1	21
1	304
1	24
1	11
1	13
1	305
1	6
1	304
1	6
1	13
1	305
1	304
1	6
1	6
1	8
1	304
1	8
1	6
1	35
1	304
1	13
1	304
1	304
1	7
1	304
1	10
1	5
1	11
1	304
1	6
1	304
1	304
1	304
1	10
1	3
1	13
1	23
1	13
1	27
1	10
1	304
1	8
1	15
1	6
1	304
1	304
1	304
1	27
1	304
1	304
1	304
1	35
1	304
2	305
2	14
2	5
2	3
2	3
2	7
2	12
2	6
2	305
2	6
2	305
2	305
2	3
2	3
2	5
2	3
2	3
2	5
2	305
2	7
2	3
2	5
2	7
2	5
2	4
2	12
2	3
2	4
2	3
2	16
2	3
2	3
2	25
2	7
2	4
2	9
2	3
2	5
2	6
2	3
2	4
2	6
2	3
2	4
2	3
2	305
2	22
2	4
2	4
2	3
2	3
2	4
2	3
2	3
2	5
2	3
2	5
2	7
2	3
2	22
2	3
2	8
2	4
2	14
2	4
2	5
2	5
2	3
2	14
2	4
2	6
2	22
2	3
2	23
2	4
2	11
2	5
2	10
2	14
2	3
2	10
2	7
2	3
2	3
2	5
2	3
2	5
2	4
2	4
2	3
2	3
2	3
2	7
2	3
2	5
2	4
2	3
2	7
2	5
2	3
2	6
2	3
2	5
2	6
2	3
2	7
2	7
2	7
2	6
2	3
2	24
2	8
2	25
2	4
2	12
2	5
2	4
2	3
2	4
2	3
2	11
2	6
2	24
2	3
2	3
2	3
3	8
3	5
3	4
3	6
3	4
3	11
3	7
3	4
3	4
3	4
3	4
3	6
3	4
3	4
3	5
3	12
3	4
3	4
3	4
3	7
3	5
3	5
3	6
3	7
3	5
3	8
3	4
3	6
3	5
3	4
3	5
3	6
3	4
3	4
3	4
3	5
3	4
3	5
3	5
3	4
3	6
3	4
3	4
3	4
3	4
3	4
3	4
3	4
3	4
4	10
4	5
4	7
4	8
4	5
4	5
4	5
4	5
4	9
4	6
4	6
4	5
4	5
4	6
4	7
4	5
4	5
4	5
4	7
4	7
4	5
4	6
4	5
4	5
4	7
4	6
4	6
4	5
5	6
5	6
5	9
5	6
5	6
5	6
5	6
5	6
5	7
5	6
5	6
5	6
5	6
5	6
5	6
5	6
5	7
5	6
6	7
6	7
6	7
6	7
6	7
6	7
6	7
6	7
6	7
6	7
6	8
7	8
7	9
7	8
7	8
7	8
8	9
8	9
8	9
9	10
9	10
10	11
10	11
12	13
12	13
12	13
12	13
13	14
14	15
20	21
22	23
23	25
33	34
303	304
