1	6124
1	658
1	26
1	658
1	657
1	657
1	657
1	657
1	657
1	14
1	22
1	19
1	19
1	14
1	16
1	6124
1	657
1	657
1	20
1	657
1	657
1	658
1	6124
1	657
1	657
1	657
1	20
1	657
1	14
1	657
1	6124
1	657
1	657
1	15
1	21
1	14
1	657
1	20
1	657
1	21
1	657
1	657
1	16
1	657
1	13
1	657
1	657
1	658
1	657
1	19
1	657
1	657
1	15
1	657
1	8
1	657
1	13
1	10
1	12
1	24
1	11
1	46
1	657
1	657
1	19
1	16
1	657
1	21
1	657
1	15
1	657
1	13
1	15
1	657
1	14
1	657
1	657
1	15
1	18
1	657
1	659
1	12
1	8
1	657
1	20
1	657
1	657
1	13
1	11
1	657
1	657
1	19
1	18
1	11
1	657
1	6124
1	657
1	16
1	657
1	15
1	657
1	657
1	13
1	17
1	12
1	23
1	657
1	16
1	657
1	657
1	657
1	657
1	657
1	657
1	45
1	660
1	657
1	657
1	657
1	18
1	657
1	8
1	13
1	657
1	20
1	657
1	6
1	657
1	7
1	15
1	13
1	12
1	657
1	6124
1	45
1	657
1	11
1	657
1	657
1	657
1	19
1	657
1	657
1	657
1	6124
1	657
1	657
1	19
1	10
1	657
1	12
1	18
1	7
1	12
1	6124
1	657
1	7
1	657
1	657
1	6124
1	12
1	13
1	657
1	657
1	22
1	657
1	657
1	657
1	13
1	14
1	657
1	4
1	15
1	7
1	12
1	20
1	14
1	657
1	9
1	657
1	657
1	657
1	17
1	657
1	657
1	657
1	657
1	657
1	5
1	10
1	657
1	657
1	657
1	22
1	17
1	19
1	18
1	24
1	7
1	12
1	7
1	15
1	657
1	657
1	657
1	657
1	657
1	15
1	657
1	657
1	5
1	8
1	657
1	11
1	657
1	12
1	12
1	11
1	657
1	22
1	13
1	15
1	10
1	15
1	6124
1	657
1	16
1	4
1	657
1	657
1	7
1	22
1	657
1	5
1	14
1	6124
1	657
1	657
1	657
1	14
1	657
1	8
1	20
1	657
1	12
1	6124
1	6124
1	8
1	6124
1	657
1	657
1	657
1	19
1	657
1	8
1	2
1	657
1	17
1	12
1	11
1	657
1	23
1	15
1	657
1	9
1	10
1	657
1	657
1	10
1	14
1	6
1	657
1	657
1	4
1	9
1	17
1	13
1	6124
1	8
1	21
1	11
1	14
1	657
1	45
1	13
1	45
1	7
1	9
1	657
1	8
1	657
1	657
1	18
1	11
1	657
1	11
1	4
1	9
1	657
1	657
1	657
1	6124
1	9
1	657
1	19
1	7
1	657
1	6124
1	25
1	657
1	14
1	657
1	657
1	5
1	45
1	657
1	12
1	657
1	16
1	4
1	657
1	9
1	15
1	22
1	11
1	657
1	11
1	10
1	10
1	657
1	12
1	11
1	657
1	657
1	8
1	6
1	14
1	657
1	15
1	19
1	657
1	16
1	657
1	8
1	657
1	657
1	657
1	45
1	16
1	657
1	45
1	657
1	657
1	657
1	12
1	657
1	23
1	6124
1	6
1	657
1	657
1	657
1	23
1	17
1	11
1	15
1	657
1	657
1	657
1	21
1	657
1	10
1	11
1	657
1	17
1	14
1	657
1	657
1	657
1	17
1	21
1	18
1	657
1	6
1	12
1	16
1	10
1	14
1	657
1	12
1	657
1	19
1	657
1	657
1	657
1	657
1	11
1	657
1	657
1	657
1	19
1	8
1	657
1	14
1	8
1	657
1	657
1	657
1	10
1	657
1	657
1	12
1	657
1	657
1	12
1	657
1	9
1	19
1	5
1	657
1	657
1	12
1	657
1	45
1	17
1	657
1	9
1	657
1	7
1	11
1	14
1	14
1	8
1	657
1	657
1	657
1	5
1	657
1	657
1	7
1	2
1	5
1	22
1	8
1	3
1	15
1	657
1	10
1	657
1	13
1	657
1	657
1	657
1	657
1	11
1	10
1	25
1	658
1	657
1	12
1	19
1	657
1	17
1	657
1	9
1	657
1	10
1	8
1	14
1	10
1	11
1	657
1	16
1	9
1	7
1	657
1	14
1	657
1	657
1	657
1	2
1	8
1	6124
1	657
1	4
1	16
1	18
1	657
1	657
1	11
1	657
1	657
1	657
1	657
1	657
1	657
1	657
1	13
1	6
1	657
1	657
1	657
1	657
1	657
1	13
1	16
1	657
1	657
1	657
1	657
1	657
1	657
1	22
1	7
1	657
1	657
1	8
1	10
1	10
1	47
1	14
1	657
1	657
1	45
1	657
1	12
1	657
1	657
1	13
1	9
1	14
1	657
1	16
1	9
1	657
1	657
1	22
1	11
1	4
1	16
1	657
1	657
1	657
1	657
1	657
1	14
1	13
1	18
1	657
1	657
1	657
1	657
1	9
1	657
1	14
1	657
1	657
1	657
1	14
1	12
1	8
1	8
1	16
1	12
1	23
1	657
1	657
1	657
1	13
1	657
1	657
1	10
1	21
1	14
1	657
1	45
1	9
1	9
1	657
1	657
1	11
1	657
1	657
1	657
1	657
1	18
1	17
1	657
1	21
1	11
1	8
1	14
1	12
1	13
1	657
1	657
1	13
1	657
1	14
1	657
1	15
1	10
1	19
1	23
1	12
1	657
1	657
1	657
1	657
1	657
1	657
1	2
1	6124
1	657
1	7
1	657
1	19
1	2
1	657
1	18
1	13
1	8
1	5
1	19
1	10
1	657
1	48
1	657
1	5
1	14
1	7
1	657
1	8
1	12
1	14
1	10
1	9
1	24
1	657
1	657
1	657
1	9
1	657
1	657
1	2
1	657
1	7
1	5
1	657
1	14
1	8
1	657
1	5
1	7
1	13
1	657
1	657
1	7
1	22
1	10
1	657
1	18
1	12
1	657
1	13
1	657
1	10
1	657
1	657
1	657
1	657
1	658
1	16
1	657
1	4
1	657
1	11
1	9
1	657
1	657
1	12
1	657
1	657
1	21
1	657
1	657
1	14
1	657
1	4
1	657
1	17
1	45
1	657
1	14
1	657
1	657
1	11
1	15
1	12
1	7
1	657
1	8
1	18
1	15
1	14
1	657
1	657
1	657
1	16
1	2
1	657
1	9
1	6124
1	657
1	10
1	6
1	657
1	10
1	657
1	657
1	657
1	11
1	657
1	657
1	2
1	657
1	657
1	8
1	19
1	17
1	6
1	5
1	17
1	657
1	657
1	14
1	657
1	25
1	657
1	657
1	657
1	657
1	14
1	657
1	9
1	657
1	16
1	17
1	8
1	657
1	45
1	14
1	14
1	657
1	657
1	10
1	657
1	13
1	657
1	9
1	657
1	9
1	10
1	13
1	657
1	7
1	6124
1	9
1	657
1	7
1	657
1	10
1	657
1	8
1	657
1	657
1	657
1	658
1	657
1	657
1	17
1	16
1	657
1	657
1	6
1	13
1	657
1	657
1	658
1	657
1	11
1	657
1	10
1	657
1	657
1	657
1	657
1	657
1	657
1	657
1	8
1	657
1	657
1	657
1	9
1	19
1	657
1	657
1	657
1	8
1	19
1	657
1	657
1	16
1	657
1	23
1	657
1	657
1	657
1	657
1	657
1	657
1	8
1	657
1	14
1	14
1	46
1	14
1	657
1	657
1	6
1	657
1	657
1	657
1	6
1	657
1	9
1	23
1	7
1	18
1	657
1	19
1	657
1	657
1	13
1	8
1	17
1	657
1	13
1	657
1	657
1	657
1	2
1	657
1	657
1	657
1	5
1	45
1	657
1	5
1	657
1	4
1	9
1	657
1	657
1	19
1	5
1	657
1	657
1	657
1	10
1	6124
1	657
1	657
1	9
1	8
1	5
1	657
1	657
1	5
1	657
1	657
1	657
1	15
1	657
1	657
1	658
1	10
1	657
1	6
1	657
1	657
1	657
1	658
1	22
1	657
1	10
1	10
1	16
1	8
1	9
1	14
1	17
1	16
1	657
1	10
1	657
1	7
1	657
1	9
1	8
1	5
1	22
1	10
1	657
1	657
1	16
1	19
1	657
1	657
1	657
1	7
1	7
1	657
1	8
1	11
1	5
1	16
1	657
1	657
1	5
1	23
1	5
1	11
1	14
1	657
1	657
1	11
1	657
1	13
1	8
1	20
1	657
1	657
1	9
1	657
1	657
1	657
1	5
1	657
1	8
1	13
1	7
1	657
1	657
1	13
1	11
1	657
1	657
1	22
1	9
1	14
1	657
1	657
1	9
1	9
1	9
1	657
1	8
1	11
1	657
1	657
1	5
1	7
1	5
1	657
1	19
1	9
1	2
1	5
1	10
1	19
1	657
1	657
1	13
1	657
1	657
1	17
1	2
1	7
1	657
1	657
1	657
1	9
1	8
1	9
1	11
1	5
1	657
1	2
1	657
1	657
1	12
1	657
1	5
1	657
1	10
1	657
1	657
1	657
1	657
1	4
1	657
1	9
1	9
1	25
1	7
1	657
1	657
1	657
1	11
1	657
1	7
1	11
1	46
1	657
1	657
1	17
1	22
1	657
1	657
1	657
1	658
1	658
1	657
1	5
1	657
1	5
1	11
1	11
1	13
1	657
1	6124
1	45
1	11
1	6
1	15
1	8
1	19
1	8
1	7
1	18
1	657
1	9
1	3
1	657
1	5
1	8
1	20
1	4
1	658
1	657
1	10
1	657
1	21
1	14
1	657
1	6
1	16
1	657
1	657
1	657
1	657
1	657
1	657
1	657
1	2
1	14
1	12
1	5
1	11
1	10
1	657
1	657
1	6124
1	5
1	13
1	7
1	657
1	5
1	657
1	11
1	657
1	657
1	657
1	657
1	19
1	21
1	19
1	14
1	657
1	657
1	45
1	657
1	13
1	8
1	10
1	6
1	657
1	9
1	5
1	8
1	17
1	17
1	657
1	14
1	657
1	5
1	658
1	8
1	14
1	5
1	14
1	11
1	15
1	657
1	657
1	658
1	658
1	9
1	9
1	657
1	657
1	23
1	45
1	657
1	5
1	10
1	657
1	19
1	657
1	657
1	6
1	657
1	657
1	657
1	11
1	657
1	657
1	657
1	657
1	657
1	11
1	657
1	7
1	657
1	14
1	12
1	657
1	657
1	7
1	23
1	657
1	19
1	4
1	657
1	657
1	657
1	657
1	2
1	21
1	657
1	20
1	9
1	657
1	657
1	6
1	20
1	5
1	17
1	23
1	5
1	657
1	8
1	657
1	5
1	657
1	7
1	657
1	657
1	657
1	6
1	657
1	45
1	657
1	7
1	16
1	8
1	22
1	14
1	657
1	657
1	9
1	657
1	657
1	11
1	657
1	657
1	23
1	8
1	15
1	22
1	657
1	18
1	657
1	14
1	657
1	657
1	9
1	11
1	4
1	657
1	7
1	17
1	22
1	12
1	11
1	657
1	657
1	7
1	657
1	657
1	657
1	14
1	657
1	657
1	657
1	5
1	11
1	10
1	8
1	657
1	657
1	14
1	18
1	8
1	17
1	6
1	9
1	657
1	7
1	6
1	657
1	9
1	657
1	4
1	657
1	13
1	657
1	657
1	2
1	657
1	9
1	6
1	657
1	10
1	657
1	658
1	8
1	45
1	13
1	9
1	7
1	19
1	6
1	657
1	657
1	658
1	16
2	5
2	3
2	7
2	7
2	3
2	17
2	3
2	3
2	7
2	3
2	5
2	12
2	3
2	20
2	14
2	3
2	6
2	658
2	18
2	5
2	4
2	3
2	7
2	3
2	4
2	22
2	8
2	7
2	4
2	3
2	4
2	4
2	3
2	3
2	9
2	6
2	3
2	3
2	3
2	7
2	3
2	3
2	7
2	3
2	3
2	8
2	3
2	3
2	3
2	3
2	3
2	8
2	7
2	4
2	3
2	10
2	4
2	7
2	20
2	9
2	3
2	20
2	5
2	12
2	4
2	3
2	5
2	4
2	3
2	3
2	6
2	11
2	3
2	11
2	24
2	3
2	3
2	7
2	6
2	6
2	3
2	20
2	7
2	3
2	3
2	3
2	4
2	6
2	4
2	9
2	9
2	7
2	3
2	3
2	7
2	8
2	4
2	3
2	3
2	7
2	3
2	9
2	11
2	16
2	7
2	6
2	3
2	4
2	3
2	16
2	8
2	9
2	6
2	8
2	7
2	3
2	7
2	3
2	4
2	3
2	3
2	3
2	3
2	3
2	5
2	7
2	4
2	3
2	3
2	3
2	3
2	6
2	46
2	7
2	4
2	4
2	3
2	3
2	9
2	4
2	3
2	4
2	11
2	3
2	5
2	4
2	3
2	7
2	5
2	6
2	4
2	9
2	3
2	3
2	4
2	4
2	5
2	6
2	14
2	6
2	5
2	4
2	4
2	7
2	12
2	5
2	7
2	6
2	5
2	17
2	6
2	3
2	4
2	8
2	9
2	3
2	5
2	7
2	3
2	3
2	3
2	3
2	3
2	4
2	3
2	3
2	4
2	4
3	4
3	4
3	4
3	4
3	4
3	4
3	4
3	6
3	5
3	4
3	4
3	4
3	4
3	4
3	9
3	4
3	6
3	5
3	5
3	5
3	4
3	5
3	4
3	9
3	4
3	5
3	6
3	5
3	4
3	6
3	5
3	4
3	4
3	4
3	4
3	12
3	11
3	4
3	6
3	5
3	4
3	4
3	4
3	5
3	4
3	4
3	4
3	4
3	4
3	4
3	6
3	4
3	4
3	4
3	4
3	5
3	5
3	4
3	6
3	4
3	5
3	4
3	4
3	10
3	4
3	4
3	4
3	5
3	4
3	7
3	4
3	4
3	4
3	9
4	5
4	5
4	5
4	5
4	5
4	5
4	5
4	5
4	5
4	5
4	5
4	5
4	5
4	5
4	5
4	6
4	5
4	5
4	5
4	5
4	5
4	5
4	6
4	6
4	5
4	5
4	5
4	5
4	5
4	6
4	5
4	7
4	5
4	5
4	5
4	5
4	5
4	5
5	6
5	6
5	6
5	6
5	7
5	6
5	6
5	6
5	6
5	6
5	6
5	6
5	6
5	6
5	7
5	6
5	6
5	6
5	6
5	7
5	6
5	6
5	6
6	7
6	7
6	7
6	7
6	7
6	7
6	8
6	7
6	8
6	8
6	7
6	7
6	7
6	7
6	7
6	7
6	7
6	7
7	8
7	8
7	8
7	9
7	8
7	8
7	8
7	10
7	8
7	8
7	8
7	8
7	8
8	9
8	9
8	9
8	9
8	9
8	9
8	9
8	9
8	9
9	10
9	10
9	10
9	10
9	10
9	10
9	10
10	11
10	11
10	11
10	11
10	11
10	11
10	11
10	11
11	12
11	12
12	13
12	13
12	13
12	13
12	13
13	14
13	14
13	14
13	14
13	14
14	15
14	15
15	16
15	16
15	16
16	17
16	17
17	18
18	19
18	19
18	19
20	21
21	22
22	23
44	45
656	657
