10	6124
17	6124
18	6124
247	6124
247	6124
247	6124
247	6124
247	6124
247	6124
248	6124
248	6124
248	6124
248	6124
248	6124
248	6124
248	6124
248	6124
248	6124
248	6124
248	6124
248	6124
248	6124
248	6124
248	6124
248	6124
248	6124
249	6124
249	6124
249	6124
249	6124
249	6124
249	6124
249	6124
249	6124
250	6124
250	6124
251	6124
251	6124
251	6124
252	6124
