1	6124
1	134
1	134
1	140
1	135
1	13
1	10
1	135
1	133
1	137
1	133
1	8
1	7
1	11
1	7
1	133
1	6
1	133
1	10
1	134
1	9
1	10
1	12
1	8
1	138
1	133
1	133
1	135
1	9
1	133
1	133
1	6
1	136
1	135
1	8
1	10
1	133
1	8
1	135
1	134
1	6
1	9
1	133
1	9
1	9
1	7
1	133
1	135
1	134
1	134
1	9
1	8
1	8
1	133
1	6
1	133
1	10
1	7
1	135
1	8
1	135
1	134
1	136
1	133
1	6
1	133
1	5
1	134
1	133
1	133
1	133
1	134
1	135
1	6
1	8
1	133
1	9
1	133
1	135
1	5
1	134
1	133
1	133
1	136
1	10
1	9
1	6
1	133
1	8
1	137
1	9
1	6
1	4
1	4
1	7
1	6
1	133
1	7
1	133
1	8
1	7
1	133
1	134
1	133
1	133
1	133
1	133
1	134
1	133
1	134
1	5
1	133
1	7
1	133
1	8
1	4
1	8
1	7
1	134
1	134
1	133
1	9
1	134
1	7
1	10
1	5
1	134
1	5
1	9
1	133
1	8
1	10
1	8
1	7
1	8
1	4
1	10
1	133
1	5
1	8
1	6
1	6
1	137
1	133
1	5
1	8
1	7
1	133
1	133
1	134
1	6
1	6
1	7
1	8
1	7
1	133
1	6
1	7
1	134
1	133
1	8
1	7
1	133
1	7
1	5
1	6
1	133
1	5
1	6
1	6
1	5
1	8
1	9
1	133
1	4
1	133
1	7
1	133
1	6
1	7
1	7
1	5
1	10
1	6
1	6
1	133
1	5
1	6
1	5
1	6
1	8
1	134
1	133
1	4
1	135
1	5
1	7
1	10
1	5
1	4
1	7
1	6
1	6
1	134
1	134
1	8
1	9
1	133
1	133
1	133
1	6
1	9
1	8
1	5
1	5
1	133
1	5
1	8
1	6
1	134
1	133
1	133
1	5
1	6
1	4
1	9
1	5
1	133
1	6
1	133
1	4
1	6
1	6
1	6
2	3
2	7
2	3
2	9
2	4
2	6
2	4
2	3
2	3
2	3
2	6
2	3
2	3
2	3
2	4
2	3
2	3
2	4
2	3
2	4
2	3
2	7
2	4
2	5
2	5
2	5
2	3
2	3
2	3
2	4
2	3
2	5
2	3
2	5
2	5
2	5
2	3
2	4
2	3
2	3
2	3
2	4
2	5
2	3
2	5
2	6
2	3
2	3
2	3
2	5
2	3
2	3
2	6
2	5
2	3
2	4
2	4
2	5
2	3
2	3
2	4
2	4
2	3
2	8
2	3
2	3
2	3
2	4
2	3
2	5
2	3
2	4
2	5
2	3
2	3
2	5
2	4
2	3
2	3
2	4
2	3
2	3
2	3
2	4
2	4
2	3
2	3
2	3
2	4
2	4
2	4
2	5
2	3
2	4
2	5
2	3
2	4
2	4
2	4
2	3
2	3
2	3
2	4
2	6
2	3
2	3
2	3
2	4
2	6
2	3
2	3
2	4
2	4
2	4
2	4
3	4
3	5
3	4
3	4
3	4
3	4
3	4
3	4
3	4
3	4
3	4
3	4
3	4
3	4
3	4
3	5
3	5
3	5
3	4
3	4
3	6
3	6
3	5
3	4
3	4
3	4
3	4
3	5
3	5
3	4
3	4
3	5
3	4
3	4
3	4
3	4
3	4
3	4
3	5
3	5
3	5
3	4
3	4
3	4
3	4
3	6
3	4
3	4
3	5
3	7
3	4
3	4
4	6
4	5
4	5
4	5
4	5
4	5
4	5
4	5
4	5
4	5
4	5
4	5
4	5
4	6
4	5
4	5
4	5
4	5
5	6
5	6
5	7
5	6
5	6
5	6
5	6
5	6
5	6
5	6
5	6
5	7
5	6
6	7
6	7
6	7
6	7
6	7
7	8
8	9
8	9
8	9
132	133
