12	6124
134	6124
134	6124
134	6124
134	6124
135	6124
135	6124
135	6124
135	6124
135	6124
135	6124
135	6124
135	6124
135	6124
136	6124
136	6124
136	6124
136	6124
136	6124
136	6124
136	6124
137	6124
137	6124
137	6124
137	6124
137	6124
137	6124
137	6124
138	6124
138	6124
138	6124
139	6124
140	6124
140	6124
