7	6124
10	6124
15	6124
17	6124
17	6124
17	6124
19	6124
19	6124
23	6124
27	6124
27	6124
28	6124
28	6124
28	6124
29	6124
30	6124
30	6124
32	6124
36	6124
102	6124
102	6124
102	6124
102	6124
102	6124
102	6124
102	6124
102	6124
102	6124
102	6124
102	6124
103	6124
103	6124
103	6124
103	6124
103	6124
104	6124
104	6124
104	6124
104	6124
104	6124
104	6124
104	6124
104	6124
105	6124
105	6124
105	6124
105	6124
105	6124
105	6124
105	6124
106	6124
106	6124
106	6124
106	6124
108	6124
108	6124
111	6124
112	6124
