1	6124
1	162
1	22
1	161
1	161
1	16
1	13
1	163
1	12
1	20
1	19
1	22
1	170
1	9
1	161
1	162
1	163
1	19
1	161
1	12
1	163
1	161
1	161
1	161
1	161
1	12
1	161
1	10
1	161
1	8
1	16
1	4
1	17
1	8
1	16
1	161
1	17
1	17
1	8
1	161
1	9
1	8
1	21
1	19
1	164
1	13
1	163
1	161
1	161
1	161
1	161
1	11
1	161
1	6124
1	161
1	14
1	11
1	161
1	161
1	12
1	22
1	161
1	9
1	161
1	161
1	6124
1	7
1	10
1	12
1	14
1	14
1	14
1	162
1	7
1	161
1	11
1	161
1	10
1	161
1	161
1	5
1	161
1	161
1	5
1	161
1	161
1	9
1	161
1	161
1	9
1	163
1	161
1	161
1	2
1	161
1	12
1	10
1	11
1	161
1	14
1	161
1	161
1	161
1	23
1	161
1	21
1	161
1	5
1	161
1	161
1	161
1	8
1	12
1	161
1	11
1	162
1	161
1	9
1	9
1	8
1	161
1	14
1	21
1	19
1	7
1	11
1	161
1	15
1	7
1	161
1	10
1	162
1	161
1	19
1	161
1	162
1	163
1	4
1	14
1	161
1	161
1	19
1	6
1	161
1	161
1	8
1	161
1	8
1	7
1	5
1	161
1	161
1	161
1	161
1	161
1	161
1	161
1	161
1	8
1	8
1	8
1	9
1	14
1	21
1	161
1	11
1	12
1	19
1	161
1	6
1	161
1	161
1	8
1	161
1	7
1	7
1	11
1	22
1	4
1	6
1	20
1	8
1	161
1	14
1	161
1	11
1	161
1	161
1	11
1	161
1	161
1	161
1	161
1	161
1	161
1	161
1	161
1	9
1	19
1	161
1	8
1	14
1	162
1	9
1	21
1	10
1	5
1	7
1	22
1	161
1	161
1	4
1	161
1	8
1	161
1	8
1	19
1	161
1	161
1	21
1	161
1	5
1	161
1	14
1	11
1	14
1	11
1	19
1	161
1	6
1	5
1	19
1	5
1	6
1	11
1	8
1	161
1	14
1	161
1	161
1	161
1	7
1	9
1	161
1	5
1	161
1	10
1	161
1	15
1	161
1	161
1	5
1	5
1	161
1	20
1	6
1	161
1	22
1	161
1	8
1	161
1	161
1	161
1	161
1	11
1	161
1	161
1	161
1	161
1	4
1	2
1	5
1	5
1	10
1	161
1	14
1	161
1	161
1	161
1	161
2	5
2	5
2	7
2	4
2	3
2	4
2	4
2	5
2	12
2	3
2	5
2	12
2	4
2	8
2	15
2	6
2	3
2	3
2	4
2	8
2	7
2	8
2	12
2	3
2	4
2	3
2	3
2	3
2	4
2	3
2	3
2	3
2	3
2	5
2	3
2	3
2	8
2	3
2	3
2	6
2	4
2	4
2	3
2	3
2	3
2	4
2	3
2	4
2	4
2	3
2	3
2	4
2	10
2	3
2	4
2	3
2	3
2	5
2	7
2	3
2	5
2	3
2	3
2	3
2	4
2	4
2	3
2	4
2	3
2	3
2	3
3	5
3	5
3	6
3	4
3	4
3	4
3	4
3	4
3	4
3	4
3	5
3	4
3	4
3	5
3	6
3	5
3	4
3	5
3	5
3	4
3	4
3	5
3	4
4	5
4	6
4	5
4	5
4	5
4	5
4	5
4	5
4	5
4	5
4	5
4	5
5	6
5	6
5	6
6	7
6	7
6	7
6	7
6	7
6	7
7	8
7	8
7	8
7	8
8	9
8	9
10	11
10	11
10	11
13	14
13	14
18	19
20	21
160	161
