1	6124
1	114
1	14
1	13
1	13
1	14
1	11
1	116
1	11
1	113
1	12
1	113
1	15
1	19
1	118
1	114
1	15
1	12
1	113
1	24
1	14
1	7
1	18
1	113
1	22
1	10
1	22
1	11
1	114
1	113
1	7
1	15
1	18
1	11
1	9
1	12
1	10
1	114
1	6
1	113
1	9
1	9
1	8
1	8
1	22
1	113
1	116
1	113
1	113
1	113
1	6
1	14
1	23
1	116
1	113
1	12
1	115
1	113
1	18
1	8
1	10
1	12
1	113
1	9
1	113
1	117
1	7
1	10
1	7
1	113
1	113
1	8
1	6
1	17
1	18
1	8
1	11
1	113
1	12
1	7
1	9
1	113
1	12
1	6
1	11
1	6
1	113
1	21
1	11
1	4
1	113
1	9
1	6
1	5
1	12
1	8
1	113
1	18
1	115
1	5
1	17
1	8
1	113
1	115
1	116
1	6
1	6
1	7
1	113
1	8
1	22
1	10
1	10
1	9
1	10
1	11
1	11
1	10
1	115
1	22
1	4
1	5
1	22
1	6
1	5
1	4
1	113
1	11
1	11
1	113
1	12
1	11
1	11
1	10
1	8
1	12
1	4
1	11
1	4
1	113
1	115
1	12
1	8
1	113
1	4
1	18
1	9
1	11
1	6
1	12
1	19
1	113
1	12
1	113
1	114
1	18
1	23
1	113
1	113
1	17
1	18
1	113
1	8
1	113
1	113
1	12
1	6
1	7
1	113
1	5
1	113
1	9
1	13
1	11
1	12
1	7
1	113
1	22
1	6
1	8
1	9
1	17
1	7
1	5
1	8
1	113
1	113
1	8
1	11
1	114
1	18
1	8
1	4
1	9
1	12
1	113
1	113
1	18
1	18
1	22
1	19
1	11
1	5
1	113
1	114
1	4
1	22
1	113
1	113
1	115
1	10
1	11
1	11
1	113
1	5
1	8
1	18
1	17
1	8
1	10
1	4
1	113
1	7
1	11
1	113
1	22
1	113
1	12
1	113
1	11
1	20
1	6
1	5
1	6
1	18
1	4
1	114
1	6
1	6
1	113
1	11
1	7
1	11
1	5
1	8
1	12
1	11
1	5
1	113
1	113
1	7
1	4
1	5
1	11
1	113
1	17
1	10
1	6
1	4
1	115
1	11
1	113
1	5
1	7
1	113
1	113
1	17
1	7
1	113
1	113
1	17
1	6
1	5
1	4
1	113
1	113
2	6
2	4
2	3
2	4
2	6
2	7
2	3
2	6
2	3
2	3
2	3
2	3
2	3
2	3
2	3
2	5
2	3
2	7
2	4
2	3
2	3
2	4
2	5
2	3
2	3
2	3
2	3
2	8
2	6
2	4
2	5
2	6
2	4
2	7
2	6
2	3
2	3
2	3
2	3
2	3
2	3
2	7
2	3
2	3
2	5
2	114
2	3
2	4
2	3
2	3
2	3
2	7
2	3
2	4
2	3
2	7
2	5
2	3
2	4
2	3
2	3
2	3
2	3
2	6
2	3
2	4
2	7
2	4
3	5
3	5
3	4
3	4
3	4
3	4
3	4
3	4
3	4
3	4
3	4
3	4
3	4
3	4
3	4
3	8
3	4
3	4
3	4
3	4
3	4
3	4
3	5
3	4
3	4
3	5
3	4
3	5
3	4
3	4
4	5
4	5
4	5
4	5
4	5
4	5
4	5
4	6
4	7
4	5
4	5
4	5
4	5
4	6
4	5
4	5
4	5
4	6
4	5
4	7
5	7
5	7
5	6
5	6
5	6
5	6
5	6
5	6
5	6
5	6
5	7
5	6
5	6
5	6
5	7
5	6
6	7
6	7
6	7
7	8
7	8
7	8
9	10
10	11
10	11
10	11
10	11
11	12
11	12
16	17
17	18
21	22
112	113
