1	6124
1	79
1	17
1	78
1	16
1	12
1	10
1	78
1	42
1	11
1	78
1	16
1	12
1	10
1	10
1	78
1	78
1	40
1	78
1	16
1	42
1	12
1	9
1	10
1	10
1	12
1	78
1	78
1	7
1	9
1	9
1	7
1	10
1	8
1	11
1	10
1	9
1	7
1	78
1	16
1	9
1	7
1	78
1	16
1	11
1	16
1	10
1	39
1	8
1	9
1	11
1	78
1	8
1	39
1	78
1	78
1	39
1	78
1	8
1	39
1	78
1	79
1	8
1	78
1	78
1	8
1	9
1	16
1	8
1	6
1	78
1	6
1	9
1	78
1	78
1	6
1	78
1	78
1	8
1	10
1	78
1	78
1	18
1	8
1	78
1	78
1	79
1	12
1	40
1	78
1	9
1	39
1	39
1	4
1	9
1	78
1	16
1	8
1	79
1	6
1	8
1	16
1	6
1	11
1	8
1	8
1	39
1	10
1	7
1	4
1	6
1	5
2	40
2	3
2	11
2	7
2	8
2	9
2	10
2	3
2	7
2	9
2	8
2	40
2	7
2	7
2	3
2	7
2	6
2	3
2	3
2	15
2	5
2	7
2	7
2	3
2	8
2	9
2	4
2	3
2	3
2	4
2	7
2	3
2	3
2	9
2	7
2	8
2	7
2	6
2	7
2	7
2	4
2	9
2	5
2	4
2	5
2	4
2	8
2	6
2	4
2	15
2	4
2	5
3	4
3	4
3	4
3	5
3	4
3	4
3	7
3	4
3	8
3	4
3	4
3	4
3	5
3	5
3	4
3	4
3	4
3	5
3	9
3	5
3	5
3	6
3	4
3	5
3	8
3	4
4	8
4	6
4	6
4	5
4	6
4	5
4	5
4	6
4	6
4	5
4	5
4	5
4	5
4	5
5	6
5	6
5	6
5	6
5	6
5	6
5	7
5	6
5	7
5	7
5	6
5	7
5	6
6	7
6	8
6	7
6	8
6	7
6	8
6	8
6	7
7	8
7	8
7	9
7	8
7	8
7	10
8	9
9	10
13	14
13	15
15	16
38	39
77	78
