1	6124
1	269
1	269
1	270
1	269
1	10
1	269
1	269
1	269
1	270
1	269
1	269
1	269
1	269
1	271
1	269
1	15
1	269
1	269
1	269
1	269
1	269
1	270
1	20
1	10
1	269
1	269
1	269
1	8
1	271
1	269
1	269
1	269
1	269
1	269
1	269
1	269
1	269
1	269
1	269
1	269
1	269
1	269
1	269
1	269
1	272
1	23
1	15
1	7
1	269
1	272
1	8
1	269
1	269
1	269
1	269
1	269
1	4
1	269
1	269
1	269
1	269
1	6
1	269
1	269
1	269
1	8
1	269
1	269
1	269
1	269
1	269
1	269
1	269
1	269
1	10
1	269
1	269
1	8
1	269
1	269
1	269
1	269
1	13
1	269
1	269
1	5
1	269
1	269
1	269
1	270
1	269
1	269
1	269
1	269
1	11
1	269
1	7
1	269
1	269
1	269
1	269
1	269
1	269
1	11
1	269
1	15
1	269
1	269
1	269
1	11
1	269
1	271
1	269
1	269
1	269
1	269
1	272
1	7
1	269
1	269
1	269
1	269
1	269
1	15
1	269
1	269
1	269
1	10
1	269
1	269
1	269
1	269
1	269
1	269
1	269
1	9
1	18
1	269
1	269
1	269
1	269
1	9
1	269
1	5
1	269
1	269
1	8
1	269
1	11
1	7
1	269
1	6
1	269
1	269
1	269
1	269
1	269
1	269
1	270
1	269
1	269
1	269
1	269
1	270
1	269
1	269
1	269
1	269
1	269
1	269
1	269
1	269
1	269
1	269
1	269
1	269
1	7
1	269
1	13
1	269
1	269
1	7
1	269
1	269
1	269
1	269
1	269
1	269
1	269
1	269
1	269
1	7
1	269
1	269
1	269
1	269
1	269
1	269
1	269
1	13
1	269
1	8
1	11
1	5
1	269
1	269
1	269
1	269
1	269
1	269
1	8
1	269
1	269
1	269
1	269
1	5
1	269
1	6
1	269
1	269
1	269
1	6
1	269
1	7
1	269
1	9
1	4
1	18
1	269
1	269
1	6
1	269
1	269
1	5
1	14
1	6
1	269
1	7
1	6
1	269
1	269
1	269
1	269
1	10
1	269
1	9
1	269
1	14
1	8
1	270
1	269
1	6
1	269
1	7
1	269
1	5
1	269
1	6
1	8
1	269
1	269
1	269
1	269
1	269
1	269
1	7
1	4
1	6
1	269
1	269
1	5
1	269
1	269
1	269
1	6
1	269
1	269
1	269
1	10
1	269
1	6
1	269
1	269
1	269
1	269
1	269
1	7
1	5
1	270
1	269
1	269
1	6
1	269
1	269
1	5
1	269
1	269
1	269
1	5
1	269
1	269
1	269
1	269
1	269
1	269
1	269
1	6
1	269
1	10
1	15
1	269
1	9
1	269
1	269
1	269
1	269
2	3
2	4
2	10
2	3
2	10
2	4
2	4
2	6
2	3
2	14
2	6
2	16
2	3
2	3
2	5
2	3
2	3
2	6
2	3
2	3
2	4
2	16
2	16
2	6
2	3
2	6
2	4
2	3
2	6
2	6
2	10
2	3
2	5
2	6
2	6
2	3
2	3
2	16
2	16
2	3
2	3
2	5
2	3
2	4
2	16
2	3
2	3
2	4
2	3
3	5
3	4
3	5
3	4
3	4
3	7
3	4
3	4
3	4
3	5
3	4
3	6
3	4
3	4
3	4
3	4
3	4
3	4
3	6
3	4
3	5
3	4
4	5
4	5
4	5
4	5
4	5
4	5
4	5
4	5
4	5
4	5
4	5
4	5
4	5
4	5
4	6
5	6
5	6
5	6
5	6
6	7
6	7
7	8
7	8
8	9
9	10
12	13
14	15
268	269
