11	6124
12	6124
12	6124
13	6124
13	6124
15	6124
15	6124
15	6124
16	6124
19	6124
19	6124
21	6124
21	6124
212	6124
212	6124
212	6124
212	6124
212	6124
212	6124
212	6124
212	6124
212	6124
212	6124
212	6124
212	6124
212	6124
212	6124
212	6124
212	6124
212	6124
212	6124
212	6124
212	6124
212	6124
212	6124
212	6124
213	6124
213	6124
213	6124
213	6124
213	6124
213	6124
214	6124
214	6124
214	6124
214	6124
214	6124
214	6124
214	6124
215	6124
215	6124
215	6124
215	6124
216	6124
217	6124
218	6124
219	6124
219	6124
220	6124
222	6124
226	6124
