1	6124
1	219
1	11
1	218
1	218
1	218
1	218
1	15
1	218
1	218
1	10
1	219
1	218
1	218
1	218
1	11
1	218
1	218
1	218
1	218
1	221
1	218
1	218
1	218
1	218
1	218
1	221
1	218
1	218
1	218
1	218
1	5
1	218
1	7
1	218
1	10
1	218
1	218
1	218
1	218
1	218
1	218
1	220
1	218
1	12
1	11
1	218
1	218
1	219
1	221
1	12
1	9
1	218
1	218
1	218
1	218
1	218
1	219
1	218
1	218
1	221
1	11
1	7
1	7
1	11
1	10
1	218
1	7
1	10
1	218
1	219
1	8
1	218
1	218
1	6124
1	8
1	10
1	218
1	218
1	218
1	218
1	218
1	218
1	218
1	218
1	218
1	218
1	10
1	10
1	218
1	6
1	218
1	218
1	222
1	5
1	8
1	5
1	10
1	219
1	218
1	6
1	8
1	218
1	219
1	221
1	6
1	218
1	218
1	218
1	11
1	219
1	218
1	218
1	218
1	218
1	11
1	218
1	218
1	6
1	219
1	218
1	10
1	218
1	218
1	218
1	9
1	7
1	13
1	10
1	218
1	218
1	218
1	218
1	218
1	218
1	218
1	5
1	10
1	6
1	218
1	6
1	8
1	218
1	7
1	218
1	11
1	7
1	218
1	218
1	11
1	8
1	218
1	218
1	218
1	220
1	218
1	221
1	219
1	5
1	218
1	6124
1	218
1	218
1	9
1	5
1	5
1	219
1	6
1	10
1	218
1	218
1	219
1	218
1	218
1	218
1	218
1	6
1	218
1	8
1	218
1	218
1	218
1	218
1	2
1	9
1	218
1	12
1	218
1	8
1	6
1	8
1	8
1	218
1	219
1	9
1	218
1	6
1	218
1	218
1	4
1	218
1	220
1	218
1	4
1	218
1	218
1	6
1	6
1	7
1	6
1	218
1	218
1	2
1	218
1	218
1	7
1	218
1	218
1	4
1	218
1	6
1	218
1	218
1	218
1	218
1	12
1	218
1	6
1	218
1	10
1	218
1	218
1	6
1	5
1	12
1	6
1	218
1	6
1	5
1	7
1	220
1	4
1	10
1	219
1	218
1	218
1	4
1	218
1	218
1	8
1	7
1	218
1	219
1	218
1	5
1	8
1	218
1	219
1	5
1	218
1	218
1	5
1	218
1	218
1	7
1	4
1	218
1	8
1	9
1	5
1	6
1	218
1	219
1	218
1	218
1	218
1	218
1	218
1	218
1	218
1	218
1	218
1	218
1	218
1	6
1	12
1	7
1	8
1	218
1	6
1	218
1	218
1	218
1	8
1	218
1	6
1	219
1	218
1	218
1	5
2	9
2	5
2	3
2	3
2	3
2	3
2	8
2	6
2	5
2	3
2	4
2	3
2	5
2	4
2	4
2	6
2	6
2	10
2	4
2	3
2	5
2	7
2	3
2	3
2	3
2	3
2	5
2	6
2	3
2	5
2	3
2	5
2	3
2	5
2	3
2	3
2	4
2	7
2	4
2	3
2	3
2	3
2	3
2	3
2	3
2	3
2	3
2	9
2	4
2	6
2	4
2	3
2	8
2	3
2	3
2	4
2	3
2	3
2	4
2	3
2	3
2	9
2	4
2	4
2	3
2	3
2	3
2	3
2	3
3	4
3	4
3	4
3	4
3	5
3	4
3	4
3	4
3	4
3	5
3	4
3	4
3	5
3	4
3	4
3	4
3	4
3	4
3	4
3	5
3	4
3	4
3	4
3	4
3	4
3	4
3	7
4	6
4	5
4	5
4	5
4	5
4	5
4	5
4	5
4	5
4	5
4	5
4	5
4	5
4	5
4	5
4	5
4	5
4	5
5	6
5	6
5	6
5	6
5	6
5	6
5	6
6	7
6	7
6	7
6	7
6	7
7	8
7	8
7	8
8	9
8	9
8	9
10	11
217	218
