11	6124
13	6124
14	6124
16	6124
16	6124
219	6124
219	6124
219	6124
219	6124
219	6124
220	6124
220	6124
220	6124
220	6124
220	6124
220	6124
220	6124
221	6124
221	6124
221	6124
221	6124
221	6124
221	6124
221	6124
222	6124
222	6124
223	6124
223	6124
224	6124
225	6124
225	6124
225	6124
227	6124
