7	6124
10	6124
11	6124
13	6124
13	6124
13	6124
14	6124
14	6124
14	6124
17	6124
19	6124
19	6124
26	6124
27	6124
33	6124
63	6124
63	6124
64	6124
64	6124
64	6124
64	6124
64	6124
65	6124
65	6124
65	6124
66	6124
66	6124
66	6124
66	6124
67	6124
67	6124
67	6124
68	6124
69	6124
69	6124
