11	6124
51	6124
52	6124
52	6124
52	6124
53	6124
53	6124
53	6124
53	6124
55	6124
55	6124
56	6124
57	6124
168	6124
168	6124
168	6124
168	6124
168	6124
168	6124
168	6124
168	6124
168	6124
168	6124
169	6124
169	6124
169	6124
169	6124
169	6124
170	6124
170	6124
170	6124
171	6124
171	6124
172	6124
172	6124
172	6124
173	6124
174	6124
174	6124
176	6124
215	6124
