1	6124
1	16
1	10
1	15
1	15
1	22
1	113
1	114
1	114
1	114
1	15
1	28
1	112
1	114
1	112
1	114
1	13
1	12
1	11
1	9
1	112
1	114
1	13
1	8
1	14
1	27
1	4
1	112
1	12
1	114
1	114
1	13
1	27
1	7
1	11
1	14
1	14
1	114
1	112
1	11
1	112
1	112
1	112
1	112
1	112
1	12
1	21
1	19
1	4
1	21
1	112
1	30
1	21
1	19
1	9
1	16
1	8
1	9
1	11
1	4
1	112
1	112
1	112
1	18
1	112
1	5
1	112
1	14
1	114
1	27
1	112
1	112
1	8
1	112
1	12
1	4
1	112
1	112
1	14
1	7
1	112
1	10
1	114
1	10
1	10
1	6
1	14
1	112
1	6
1	112
1	18
1	112
1	9
1	21
1	4
1	117
1	9
1	112
1	113
1	112
1	112
1	112
1	8
1	21
1	112
1	10
1	7
1	112
1	6
1	5
1	10
1	4
1	6
1	13
1	7
1	112
1	112
1	7
1	112
1	7
1	7
1	8
1	112
1	8
1	8
1	27
1	6
1	13
1	113
1	113
1	5
1	13
1	27
1	4
1	21
1	114
1	112
1	12
1	12
1	5
1	21
1	13
1	4
1	8
1	6
1	4
1	5
1	9
1	6
1	27
1	4
1	8
1	13
1	5
1	112
1	13
1	114
1	112
1	5
1	6
1	9
1	5
1	112
1	9
1	7
1	7
1	112
1	112
1	5
1	6
1	10
1	5
1	7
1	112
1	8
1	113
1	7
1	13
1	112
1	4
1	112
1	6
1	6
1	112
1	6
1	13
1	6
1	12
1	112
1	112
1	112
1	112
1	6
1	112
1	112
1	112
1	5
1	10
1	112
1	7
1	7
1	12
1	112
1	12
1	5
1	112
1	18
1	15
1	112
1	12
2	5
2	3
2	3
2	9
2	8
2	4
2	3
2	3
2	3
2	22
2	10
2	3
2	3
2	5
2	28
2	3
2	3
2	10
2	19
2	3
2	4
2	4
2	22
2	4
2	3
2	3
2	7
2	4
2	3
2	12
2	3
2	12
2	3
2	4
2	3
2	3
2	9
2	7
2	6
2	3
2	3
2	14
2	3
2	3
2	19
2	4
2	22
2	4
2	3
2	3
2	3
2	3
2	4
2	9
2	6
2	6
2	3
2	3
2	3
2	4
3	14
3	5
3	4
3	4
3	4
3	4
3	7
3	6
3	4
3	4
3	4
3	4
3	4
3	4
3	4
3	4
3	4
3	9
3	5
3	5
3	4
3	4
3	4
3	4
3	4
3	4
3	7
3	4
3	4
3	4
3	5
3	5
3	4
3	4
3	6
3	5
3	11
3	5
3	14
3	4
4	5
4	5
4	5
4	5
4	5
4	5
4	5
4	5
4	5
4	5
4	6
4	8
4	7
4	5
4	5
4	5
4	5
4	9
4	5
4	5
5	6
5	6
5	6
5	6
5	9
5	6
5	6
6	7
6	7
6	7
6	8
6	7
7	8
7	8
7	9
8	9
8	9
8	10
8	9
10	11
10	12
11	12
11	12
12	13
17	18
20	21
26	27
111	112
