1	6124
1	137
1	136
1	136
1	10
1	11
1	9
1	27
1	136
1	136
1	136
1	136
1	25
1	136
1	26
1	136
1	26
1	24
1	136
1	26
1	136
1	9
1	10
1	136
1	14
1	136
1	136
1	11
1	12
1	136
1	13
1	136
1	136
1	13
1	136
1	13
1	9
1	136
1	136
1	137
1	136
1	136
1	8
1	11
1	9
1	136
1	9
1	8
1	136
1	136
1	136
1	24
1	137
1	26
1	136
1	9
1	136
1	137
1	136
1	136
1	136
1	10
1	136
1	10
1	8
1	136
1	136
1	137
1	11
1	136
1	136
1	24
1	136
1	136
1	136
1	136
1	136
1	26
1	136
1	137
1	136
1	136
1	10
1	136
1	136
1	136
1	5
1	136
1	24
1	9
1	137
1	136
1	6
1	136
1	136
1	136
1	26
1	136
1	8
1	136
1	7
1	24
1	136
1	136
1	24
2	3
2	9
2	9
2	8
2	9
2	10
2	10
2	8
2	9
2	7
2	6
2	5
2	25
2	10
2	3
2	4
2	4
2	8
2	8
2	3
2	6
2	6
2	8
2	3
2	8
2	3
2	7
2	6
2	7
2	8
2	8
2	6
2	8
2	27
2	4
2	7
2	11
2	5
2	8
2	7
2	25
2	8
2	7
2	10
2	6
2	7
2	7
2	25
2	3
2	3
2	7
2	6
2	10
2	9
2	7
2	3
3	9
3	8
3	7
3	11
3	7
3	4
3	5
3	6
3	8
3	5
3	5
3	6
3	6
3	8
3	8
3	7
3	5
3	5
3	5
3	5
3	4
3	8
3	8
3	4
3	10
3	7
3	7
3	6
3	5
3	6
3	5
3	4
4	6
4	7
4	6
4	6
4	6
4	5
4	7
4	7
4	7
4	9
4	7
4	6
4	6
4	6
4	5
4	6
4	7
5	6
5	7
5	7
5	7
5	6
5	7
5	8
5	6
5	6
5	7
5	7
5	8
5	6
6	7
6	7
6	8
6	8
6	7
6	7
6	9
6	8
6	7
7	9
8	9
8	9
8	9
8	10
8	11
9	11
9	10
10	11
23	24
25	26
135	136
