1	6124
1	173
1	18
1	17
1	175
1	173
1	172
1	174
1	15
1	172
1	172
1	172
1	172
1	178
1	172
1	7
1	10
1	172
1	9
1	8
1	173
1	174
1	14
1	15
1	5
1	16
1	172
1	172
1	172
1	11
1	10
1	7
1	172
1	172
1	20
1	11
1	172
1	177
1	8
1	172
1	9
1	9
1	172
1	14
1	172
1	10
1	8
1	172
1	7
1	172
1	172
1	174
1	6
1	7
1	172
1	172
1	172
1	21
1	11
1	6
1	174
1	13
1	11
1	172
1	11
1	10
1	172
1	4
1	172
1	172
1	8
1	172
1	7
1	9
1	10
1	172
1	172
1	6
1	6
1	10
1	7
1	172
1	175
1	14
1	172
1	6
1	10
1	8
1	6
1	8
1	7
1	172
1	16
1	172
1	172
1	7
1	172
1	9
1	8
1	172
1	172
1	6
1	7
1	172
1	172
1	8
1	172
1	7
1	172
1	172
1	172
1	8
1	9
1	4
1	172
1	172
1	172
1	172
1	172
1	14
1	7
1	172
1	172
1	172
1	10
1	18
1	7
1	172
1	172
1	7
1	9
1	172
1	5
1	7
1	7
1	13
1	6
1	4
1	14
1	172
1	173
1	172
1	172
1	173
1	7
1	172
1	172
1	174
1	8
1	9
1	172
1	172
1	172
1	7
1	11
1	7
1	172
1	8
1	7
1	6
1	172
1	15
1	7
1	172
1	6
1	6
1	172
1	172
1	172
1	172
1	6
1	4
1	9
1	172
1	172
1	172
1	172
1	7
1	7
1	10
1	172
1	172
1	172
1	172
1	173
1	173
1	172
1	172
1	9
1	174
1	7
1	172
1	14
1	8
1	172
1	172
1	172
1	10
1	4
1	172
1	8
1	6
1	6
1	13
1	6
1	13
1	172
1	172
1	9
1	4
1	172
1	173
1	172
1	8
1	8
1	7
1	14
1	172
1	8
1	172
1	5
1	172
1	174
1	172
1	8
1	4
1	6
1	5
1	9
1	172
1	172
1	7
1	8
1	7
1	8
1	9
1	172
1	173
1	8
1	172
1	5
1	9
1	172
1	14
1	172
1	172
1	14
1	173
1	11
1	172
1	5
1	172
1	14
1	9
1	172
1	172
1	172
1	4
1	172
1	9
1	7
1	172
1	172
1	11
1	172
1	6
1	7
1	172
1	6
1	6
1	9
1	10
1	172
1	8
1	13
1	13
1	11
1	14
1	14
1	172
1	172
1	8
1	6
1	10
1	14
1	5
1	172
1	172
1	9
1	6
1	172
1	172
1	13
1	8
1	8
1	173
1	6
1	5
1	173
1	172
2	3
2	5
2	3
2	5
2	4
2	7
2	5
2	5
2	10
2	5
2	3
2	3
2	4
2	4
2	5
2	15
2	3
2	5
2	3
2	4
2	6
2	5
2	3
2	3
2	3
2	3
2	5
2	3
2	3
2	5
2	3
2	3
2	4
2	4
2	3
2	5
2	4
2	3
2	5
2	3
2	6
2	3
2	5
2	7
2	4
2	173
2	3
2	4
2	3
2	3
2	3
2	5
2	3
2	3
2	4
2	8
2	4
2	3
2	4
2	15
3	4
3	4
3	7
3	6
3	5
3	4
3	4
3	4
3	4
3	4
3	4
3	5
3	4
3	5
3	4
3	5
3	4
3	4
3	4
3	4
3	4
3	4
3	4
3	5
3	5
3	4
3	4
3	4
3	4
3	4
3	4
3	4
3	4
3	4
4	6
4	5
4	5
4	5
4	5
4	5
4	7
4	5
4	5
4	5
4	5
4	5
4	5
5	6
5	6
5	6
5	6
5	6
5	6
5	6
5	6
5	6
6	7
6	7
6	7
6	7
6	7
7	8
7	8
7	8
7	8
7	8
8	9
8	9
8	9
9	10
10	11
12	13
13	14
13	14
171	172
