1	6124
1	76
1	72
1	71
1	71
1	71
1	71
1	71
1	71
1	72
1	71
1	72
1	71
1	10
1	71
1	71
1	72
1	71
1	71
1	72
1	11
1	71
1	71
1	71
1	8
1	71
1	71
1	71
1	71
1	6
1	71
1	71
1	7
1	71
1	71
1	71
1	71
1	71
1	71
1	10
1	71
1	71
1	72
1	71
1	71
1	6
1	72
1	71
1	71
1	71
1	8
1	71
1	71
1	71
1	71
1	72
1	71
1	71
1	71
1	71
1	8
1	7
1	71
1	71
1	71
1	71
1	71
1	71
1	71
1	71
1	7
1	9
1	71
1	71
1	71
2	10
2	6
2	5
2	10
2	3
2	3
2	6
2	3
2	3
2	3
2	3
2	3
2	5
2	6
2	3
2	7
2	4
3	5
3	4
3	4
3	4
3	4
3	4
3	5
4	5
4	5
5	6
5	6
6	7
8	9
70	71
