5	6124
9	6124
10	6124
11	6124
12	6124
12	6124
12	6124
13	6124
14	6124
15	6124
15	6124
20	6124
99	6124
99	6124
100	6124
100	6124
100	6124
101	6124
101	6124
101	6124
101	6124
101	6124
101	6124
102	6124
102	6124
102	6124
103	6124
103	6124
104	6124
104	6124
104	6124
106	6124
108	6124
