1	6124
1	12
1	102
1	12
1	105
1	10
1	12
1	99
1	98
1	11
1	10
1	13
1	11
1	98
1	98
1	100
1	11
1	9
1	10
1	14
1	98
1	11
1	7
1	10
1	13
1	13
1	98
1	9
1	102
1	13
1	102
1	10
1	103
1	9
1	7
1	99
1	100
1	99
1	98
1	10
1	5
1	8
1	6
1	99
1	4
1	8
1	9
1	7
1	6
1	104
1	101
1	5
1	99
1	7
1	8
1	10
1	100
1	9
1	98
1	6
1	6
1	9
1	6
1	98
1	5
1	11
1	100
1	4
1	4
1	8
1	102
1	98
1	98
1	11
1	5
1	10
1	98
1	7
1	10
1	98
1	9
1	8
1	98
1	98
1	8
1	12
1	7
1	9
1	12
1	9
1	100
1	9
1	11
1	98
1	7
1	9
1	5
1	8
1	9
1	10
1	98
1	99
1	8
1	6
1	7
1	8
1	7
1	10
1	98
1	7
1	99
1	6
1	9
1	5
1	98
1	12
1	9
1	4
1	98
1	98
1	5
1	9
1	100
1	98
1	98
1	5
1	8
1	98
1	99
1	5
1	98
1	99
1	6
1	5
1	6
1	98
1	4
1	6
1	4
1	99
1	98
1	98
1	7
1	5
1	100
1	5
1	5
1	7
1	7
1	7
1	9
1	5
1	9
1	98
1	11
1	9
1	8
1	5
1	6
1	7
1	9
1	4
1	7
1	10
1	99
1	98
1	7
1	7
1	8
1	98
1	8
1	6
1	12
1	98
1	8
1	5
1	12
1	7
1	99
1	98
1	8
1	4
1	5
1	9
1	9
1	4
1	98
1	6
1	5
1	98
1	5
1	98
1	99
1	6
1	6
1	5
1	8
1	8
1	6
1	7
1	98
1	99
1	6
1	7
1	7
1	99
1	13
1	7
1	4
1	5
1	5
1	99
1	7
1	4
1	8
1	4
1	98
1	5
1	98
1	98
1	98
1	8
1	6
1	5
1	5
1	10
1	9
1	98
1	7
1	99
1	98
1	98
1	10
2	3
2	3
2	4
2	5
2	7
2	3
2	8
2	3
2	8
2	3
2	3
2	3
2	4
2	3
2	3
2	5
2	5
2	3
2	3
2	3
2	4
2	3
2	3
2	6
2	9
2	6
2	3
2	5
2	3
2	5
2	4
2	6
2	3
2	3
2	3
2	4
2	4
2	4
2	3
2	4
2	6
2	5
2	3
2	3
2	3
2	3
2	4
2	4
2	4
2	5
2	5
2	3
2	4
2	4
2	4
2	3
2	3
2	3
2	4
2	3
2	4
2	4
2	3
2	4
2	4
2	4
2	3
2	3
2	3
2	5
2	3
2	3
2	3
2	3
2	3
2	4
2	3
2	3
2	4
2	3
2	3
2	3
2	3
2	3
2	4
2	3
2	4
2	4
2	3
2	3
2	3
2	3
2	7
2	3
2	3
2	3
2	3
2	4
2	6
3	4
3	4
3	4
3	4
3	4
3	5
3	5
3	4
3	4
3	5
3	5
3	5
3	4
3	4
3	4
3	5
3	4
3	4
3	6
3	6
3	4
3	4
3	4
3	6
3	4
3	4
3	5
3	5
3	4
3	5
3	5
3	4
3	4
3	4
3	4
3	6
3	5
3	5
3	4
3	4
3	4
3	5
3	4
3	4
4	5
4	5
4	5
4	5
4	5
4	5
4	5
4	5
4	5
4	5
4	5
4	5
4	5
4	5
4	6
4	5
4	5
4	8
4	5
4	5
4	5
5	6
5	6
5	6
5	7
5	6
5	6
5	6
5	6
5	6
5	6
5	7
6	8
6	7
6	7
6	7
6	7
6	7
6	8
7	8
7	8
7	8
7	9
8	9
8	9
9	10
9	11
11	12
97	98
