6	6124
9	6124
10	6124
12	6124
13	6124
15	6124
16	6124
16	6124
16	6124
17	6124
19	6124
19	6124
20	6124
20	6124
21	6124
21	6124
22	6124
51	6124
51	6124
51	6124
51	6124
52	6124
52	6124
52	6124
52	6124
53	6124
53	6124
54	6124
54	6124
54	6124
55	6124
55	6124
55	6124
55	6124
57	6124
59	6124
63	6124
63	6124
