1	6124
1	81
1	20
1	71
1	18
1	77
1	18
1	72
1	70
1	73
1	75
1	6124
1	70
1	9
1	72
1	6
1	18
1	70
1	11
1	73
1	14
1	11
1	10
1	13
1	70
1	74
1	70
1	75
1	9
1	74
1	7
1	10
1	72
1	10
1	70
1	19
1	18
1	14
1	19
1	13
1	9
1	70
1	9
1	11
1	8
1	72
1	6
1	73
1	7
1	9
1	6
1	20
1	6124
1	70
1	10
1	12
1	13
1	6
1	6
1	8
1	12
1	72
1	11
1	2
1	70
1	70
1	7
1	13
1	21
1	72
1	7
1	6
1	5
1	7
1	18
1	9
1	8
1	3
1	70
1	71
1	10
1	6
1	74
1	9
1	13
1	7
1	7
1	7
1	18
1	8
1	14
1	8
1	70
1	11
1	70
1	70
1	6
1	7
1	8
1	7
1	70
1	8
1	7
1	6
1	4
1	72
1	6
1	8
1	6
1	8
1	70
1	6
1	5
1	6
1	6
1	8
1	8
1	70
1	9
1	12
1	10
1	7
1	6
1	8
1	5
1	70
1	7
1	71
1	6
1	5
1	5
1	8
1	7
1	70
1	4
1	7
1	6
1	7
1	5
1	6
1	7
1	5
1	9
1	19
1	5
1	70
1	6
1	70
1	6
1	13
1	5
1	6
1	7
1	7
1	6
1	5
1	9
1	5
1	8
1	6
1	18
1	72
1	8
1	9
1	6124
1	6
1	5
1	6
1	5
1	72
1	9
1	7
1	7
1	6
1	6
1	5
1	70
1	12
1	7
1	5
1	13
1	7
1	14
1	7
1	7
1	7
1	8
1	5
1	4
1	4
1	70
1	70
1	8
1	71
1	5
1	70
1	12
1	70
1	5
1	8
1	6
1	19
1	9
1	7
1	5
1	5
1	70
1	6
1	18
1	6
1	5
1	5
1	7
1	19
1	4
1	4
1	6
1	13
1	14
1	70
1	70
1	71
1	71
1	5
1	8
1	6
1	5
1	10
1	7
1	13
1	6
1	70
1	70
1	7
1	2
1	10
1	5
1	8
2	5
2	3
2	3
2	3
2	3
2	3
2	4
2	3
2	3
2	3
2	3
2	4
2	3
2	5
2	3
2	3
2	4
2	3
2	8
2	3
2	3
2	3
2	3
2	4
2	4
2	6
2	3
2	3
2	4
2	5
2	8
2	3
2	3
2	4
2	5
2	3
2	6
2	3
2	4
2	3
2	3
2	3
2	4
2	3
2	3
2	3
2	3
2	3
2	3
2	4
2	3
2	3
2	4
2	3
2	4
2	4
2	4
2	5
2	6
2	4
2	4
2	3
2	4
2	3
2	3
2	4
2	3
2	3
2	4
2	4
2	4
2	5
2	3
2	3
2	3
2	4
2	3
2	6
2	5
2	4
2	3
2	3
2	3
2	5
2	3
2	9
2	4
2	3
2	6
2	4
2	4
2	3
2	3
3	4
3	4
3	4
3	5
3	4
3	6
3	4
3	4
3	4
3	4
3	4
3	4
3	4
3	4
3	5
3	4
3	4
3	6
3	4
3	4
3	4
3	4
3	5
3	4
3	4
3	5
3	4
3	4
3	4
3	4
3	4
3	4
3	4
3	4
3	4
3	4
3	6
3	4
4	5
4	5
4	5
4	5
4	5
4	5
4	5
4	5
4	5
4	6
4	5
4	5
4	5
4	5
4	5
4	5
4	5
4	5
4	6
4	6
4	5
5	6
5	6
5	6
5	6
5	6
5	6
5	6
6	7
6	7
6	7
6	7
6	7
6	7
6	7
6	7
6	7
7	8
7	8
8	9
8	9
11	12
12	13
17	18
69	70
