1	230
1	85
1	82
1	82
1	82
1	82
1	82
1	82
1	82
1	83
1	83
1	82
1	82
1	82
1	82
1	82
1	82
1	82
1	82
1	82
1	82
1	82
1	83
1	82
1	10
1	82
1	6
1	82
1	82
1	82
1	82
1	10
1	86
1	82
1	82
1	83
1	82
1	82
1	9
1	82
1	5
1	6
1	82
1	82
1	82
1	82
1	9
1	6
1	82
1	82
1	82
1	82
1	82
1	82
1	83
1	82
1	82
1	9
1	7
1	82
1	82
1	7
1	82
1	82
1	5
1	82
1	82
1	9
1	82
1	82
1	82
1	82
1	82
1	5
1	83
1	82
1	82
1	6
1	82
1	82
1	82
1	82
1	9
1	82
1	82
1	82
1	82
1	6
1	83
1	82
2	3
2	3
2	3
2	3
2	8
2	3
2	3
2	4
2	83
2	10
2	4
2	6
2	4
3	4
3	4
3	6
3	4
4	5
4	5
4	5
5	6
6	7
8	9
81	82
