1	6124
1	54
1	23
1	53
1	53
1	53
1	53
1	53
1	53
1	53
1	53
1	53
1	53
1	25
1	23
1	53
1	53
1	53
1	53
1	23
1	53
1	26
1	53
1	53
1	25
1	53
1	53
1	53
1	6
1	54
1	53
1	25
1	5
1	53
1	53
1	53
1	53
1	53
1	53
2	26
2	3
2	24
2	24
2	24
2	24
2	25
2	7
2	24
2	24
2	4
2	6
2	4
2	8
3	25
3	6
3	7
3	7
3	6
3	7
3	7
3	5
4	5
4	6
4	5
4	5
4	6
4	6
5	6
22	23
52	53
