1	6124
1	215
1	215
1	216
1	13
1	217
1	215
1	215
1	215
1	215
1	216
1	19
1	215
1	215
1	215
1	14
1	215
1	216
1	13
1	216
1	215
1	7
1	215
1	5
1	215
1	7
1	217
1	8
1	8
1	215
1	215
1	215
1	11
1	216
1	4
1	215
1	11
1	11
1	215
1	215
1	215
1	9
1	215
1	11
1	7
1	215
1	215
1	13
1	215
1	215
1	217
1	215
1	215
1	215
1	216
1	215
1	215
1	217
1	215
1	215
1	216
1	13
1	12
1	215
1	10
1	12
1	215
1	215
1	215
1	9
1	9
1	11
1	215
1	215
1	215
1	12
1	215
1	215
1	215
1	11
1	215
1	215
1	215
1	215
1	215
1	11
1	215
1	215
1	7
1	215
1	215
1	215
1	215
1	4
1	215
1	215
1	9
1	215
1	215
1	215
1	215
1	7
1	215
1	12
1	215
1	217
1	215
1	7
1	10
1	215
1	216
1	12
1	8
1	215
1	216
1	215
1	215
1	215
1	4
1	215
1	215
1	215
1	7
1	9
1	215
1	6
1	215
1	215
1	9
1	215
1	7
1	215
1	6
1	215
1	216
1	215
1	215
1	6
1	8
1	215
1	215
1	9
1	6
1	5
1	215
1	215
1	12
1	215
1	7
1	215
1	215
1	12
1	215
1	215
1	215
1	6
1	8
1	215
1	215
1	7
1	215
1	9
1	6
1	215
1	215
1	217
1	215
1	6
1	215
1	215
1	215
1	4
1	215
1	215
1	4
1	215
1	215
1	215
1	5
1	215
1	9
1	215
1	215
1	215
1	215
1	215
1	9
1	215
1	12
1	9
1	6
1	215
1	10
1	215
1	215
1	215
1	215
1	215
1	4
1	215
1	5
1	215
1	215
1	6
1	215
1	215
1	5
1	216
1	9
1	215
1	215
1	5
1	5
1	8
1	215
1	8
1	215
1	216
1	9
1	8
1	215
1	8
1	215
1	11
1	215
1	215
1	215
1	215
1	5
1	215
1	215
1	7
1	215
1	10
1	215
1	215
1	215
1	215
1	215
1	215
1	215
1	215
1	5
1	215
1	5
1	215
1	215
1	8
1	215
1	6
1	13
1	215
1	215
1	13
1	9
1	6
1	215
1	215
1	215
1	5
1	215
1	12
1	215
2	10
2	3
2	216
2	6
2	5
2	3
2	3
2	6
2	3
2	3
2	5
2	3
2	6
2	3
2	6
2	5
2	4
2	5
2	3
2	7
2	6
2	7
2	6
2	4
2	3
2	4
2	9
2	3
2	3
2	7
2	5
2	6
2	6
2	3
2	4
2	3
2	3
2	3
2	5
2	3
2	3
2	3
2	7
2	10
2	4
2	7
2	4
2	4
2	4
2	6
2	4
2	4
2	4
2	5
2	4
2	3
2	7
2	6
2	4
2	6
2	4
2	3
2	4
2	4
3	4
3	4
3	8
3	5
3	4
3	4
3	5
3	4
3	4
3	6
3	4
3	4
3	5
3	4
3	7
3	6
3	5
3	4
3	4
3	5
3	6
3	6
3	5
3	5
3	8
3	5
3	5
3	4
3	7
3	4
3	4
3	4
3	4
3	4
3	4
3	5
3	4
3	4
4	5
4	6
4	5
4	5
4	6
4	5
4	5
4	5
4	5
4	6
4	5
4	6
4	5
4	6
4	5
5	6
5	6
5	6
5	7
5	6
5	6
5	6
6	7
6	7
6	7
7	8
7	9
8	9
8	9
8	9
11	12
11	12
214	215
