1	230
1	49
1	50
1	51
1	49
1	5
1	49
1	49
1	49
1	49
1	49
1	49
1	49
1	49
1	50
1	51
1	51
1	49
1	4
1	49
1	5
1	50
1	49
1	49
1	49
1	49
1	49
1	50
1	49
1	49
1	49
1	49
1	49
1	49
1	49
1	50
1	6
1	50
1	50
1	50
1	49
1	4
1	49
1	49
2	50
2	5
2	4
2	5
2	3
2	50
2	3
2	5
2	50
2	3
2	3
2	3
2	5
2	3
2	4
2	3
3	4
3	5
3	5
3	4
3	4
3	4
4	5
48	49
