1	6124
1	78
1	76
1	78
1	74
1	77
1	75
1	33
1	6
1	31
1	10
1	14
1	7
1	75
1	35
1	32
1	6
1	6
1	32
1	79
1	76
1	75
1	76
1	9
1	32
1	75
1	77
1	11
1	32
1	35
1	13
1	74
1	75
1	11
1	76
1	7
1	79
1	32
1	9
1	4
1	9
1	34
1	77
1	6
1	6
1	6
1	77
1	75
1	76
1	10
1	7
1	33
1	9
1	8
1	11
1	4
1	74
1	75
1	77
1	11
1	6
1	8
1	75
1	5
1	8
1	6124
1	32
1	8
1	9
1	10
1	7
1	76
1	11
1	6
1	9
1	5
1	76
1	6
1	5
1	10
1	74
1	8
1	5
1	9
1	7
1	7
1	6
1	5
1	6
1	10
1	8
1	8
1	77
1	5
1	11
1	5
1	6
1	7
1	74
1	5
1	7
1	10
1	6
1	6
1	8
1	6
1	9
1	7
1	8
1	6
1	8
1	36
1	32
1	6
1	5
1	8
1	31
1	74
1	7
1	4
1	8
1	6
1	4
1	8
1	76
1	5
1	75
1	6
1	6
1	9
1	8
1	7
1	6
1	7
1	9
1	8
1	33
1	4
1	9
1	9
1	74
1	10
1	7
1	74
1	74
1	31
1	7
1	76
1	6
1	75
1	6
1	15
1	33
1	7
1	4
1	9
1	6
1	5
1	8
1	74
1	33
1	8
1	9
1	74
1	10
1	6
1	31
1	5
1	4
1	7
1	5
1	74
1	6
1	5
1	6
1	7
1	75
1	8
1	5
1	7
1	10
1	5
1	6
1	6
1	6
1	5
1	8
1	6
1	6
1	7
1	6
1	75
1	2
1	7
1	8
1	9
1	4
1	4
1	31
1	8
1	6
1	7
1	9
1	4
1	9
1	75
1	4
1	6
1	33
1	5
1	74
1	10
1	5
1	10
1	74
1	5
1	4
1	10
1	6
1	7
1	5
1	8
1	5
1	5
1	5
1	7
2	3
2	5
2	6
2	4
2	3
2	4
2	3
2	3
2	4
2	3
2	4
2	3
2	3
2	3
2	3
2	4
2	4
2	3
2	3
2	4
2	3
2	3
2	5
2	6
2	3
2	3
2	3
2	3
2	3
2	4
2	3
2	6
2	3
2	7
2	7
2	3
2	6
2	3
2	3
2	3
2	3
2	3
2	3
2	4
2	5
2	3
2	3
2	4
2	3
2	6
2	3
2	3
2	7
2	3
2	4
2	4
2	4
2	4
2	3
2	5
2	7
2	6
2	4
2	5
2	3
2	3
2	6
2	4
2	10
2	4
2	4
2	4
2	5
2	3
2	4
2	3
2	5
2	3
2	3
2	5
2	32
2	3
2	3
2	4
2	4
2	4
2	3
2	3
2	5
2	3
2	3
2	3
2	3
2	3
2	3
2	3
2	4
2	4
2	3
2	3
2	4
2	3
2	4
2	3
2	4
2	4
2	3
2	3
2	3
2	3
2	10
2	3
2	4
2	3
2	3
2	3
2	4
3	4
3	4
3	4
3	4
3	4
3	4
3	4
3	6
3	4
3	5
3	4
3	4
3	6
3	4
3	5
3	4
3	4
3	4
3	4
3	7
3	4
3	4
3	4
3	4
3	4
3	4
3	5
3	4
3	4
3	4
3	4
3	5
3	5
3	4
3	4
3	4
3	4
3	4
3	5
3	4
3	4
4	6
4	5
4	5
4	5
4	5
4	8
4	5
4	5
4	5
4	5
4	5
4	5
4	5
4	5
4	6
4	5
4	5
4	5
4	5
4	5
4	5
4	5
5	6
5	6
5	6
5	6
5	6
5	6
5	6
5	6
5	6
5	6
5	6
5	6
5	6
5	6
5	6
6	7
6	7
6	7
6	7
6	7
7	8
7	8
7	8
8	9
8	9
8	9
8	9
30	31
73	74
