6	6124
8	6124
9	6124
11	6124
11	6124
13	6124
13	6124
13	6124
14	6124
14	6124
15	6124
16	6124
77	6124
77	6124
77	6124
77	6124
77	6124
78	6124
78	6124
78	6124
78	6124
79	6124
79	6124
79	6124
79	6124
79	6124
80	6124
80	6124
80	6124
80	6124
80	6124
81	6124
81	6124
81	6124
81	6124
81	6124
82	6124
82	6124
83	6124
