7	6124
8	6124
9	6124
10	6124
10	6124
12	6124
14	6124
14	6124
14	6124
15	6124
16	6124
16	6124
16	6124
20	6124
21	6124
21	6124
73	6124
74	6124
74	6124
74	6124
75	6124
75	6124
75	6124
75	6124
76	6124
76	6124
76	6124
76	6124
76	6124
76	6124
76	6124
77	6124
77	6124
77	6124
77	6124
78	6124
79	6124
80	6124
80	6124
81	6124
83	6124
83	6124
84	6124
87	6124
