1	6124
1	60
1	60
1	60
1	61
1	60
1	60
1	60
1	60
1	60
1	60
1	60
1	60
1	60
1	60
1	60
1	60
1	60
1	60
1	60
1	60
1	60
1	60
1	60
1	60
1	60
1	4
1	60
1	60
1	60
1	60
1	60
1	60
1	60
1	60
1	60
1	7
1	60
1	60
1	60
1	60
1	60
1	60
1	60
1	60
1	60
1	60
2	61
2	61
2	8
2	61
2	7
2	5
2	61
2	4
2	4
2	5
3	5
3	7
3	4
3	5
3	4
4	7
5	7
59	60
