1	6124
1	19
1	22
1	18
1	13
1	13
1	28
1	17
1	76
1	18
1	10
1	12
1	11
1	14
1	10
1	15
1	11
1	75
1	7
1	16
1	9
1	75
1	10
1	14
1	11
1	11
1	12
1	12
1	12
1	11
1	75
1	12
1	17
1	13
1	10
1	10
1	10
1	18
1	9
1	10
1	11
1	16
1	9
1	77
1	14
1	18
1	10
1	18
1	12
1	9
1	12
1	76
1	16
1	16
1	75
1	8
1	75
1	75
1	10
1	13
1	11
1	22
1	9
1	15
1	7
1	12
1	7
1	15
1	6
1	7
1	76
1	10
1	6
1	29
1	10
1	75
1	10
1	7
1	11
1	9
1	6
1	12
1	6124
1	16
1	18
1	9
1	75
1	15
1	75
1	12
1	11
1	10
1	12
1	7
1	10
1	10
1	8
1	8
1	7
1	9
1	10
1	10
1	5
1	11
1	16
1	16
1	10
1	9
1	75
1	18
1	4
1	10
1	12
1	7
1	75
1	7
1	12
1	75
1	16
1	10
1	17
1	6
1	10
1	6
1	18
1	75
1	10
1	77
1	18
1	10
1	2
1	75
1	12
1	10
1	9
1	75
1	10
1	13
1	8
1	7
1	6
1	75
1	76
1	7
1	12
1	13
1	6
1	75
1	76
1	17
1	18
1	15
1	16
1	9
1	10
1	12
1	26
1	14
1	6
1	4
1	7
1	5
1	9
1	77
1	6
1	8
1	16
1	7
1	4
1	12
1	12
1	8
1	6
1	5
1	18
1	18
1	7
1	8
1	13
1	5
1	16
1	75
1	4
1	10
1	75
1	11
1	75
1	10
1	9
1	9
1	75
1	8
1	9
1	7
1	6
1	10
1	13
1	7
1	13
1	6
1	11
1	8
1	7
1	5
1	75
1	9
1	5
1	5
1	9
1	75
1	8
2	26
2	3
2	4
2	3
2	14
2	4
2	5
2	3
2	3
2	3
2	6
2	9
2	3
2	3
2	26
2	4
2	7
2	3
2	4
2	3
2	3
2	3
2	3
2	3
2	3
2	8
2	3
2	6
2	6
2	3
2	5
2	26
2	3
2	3
2	3
2	9
2	3
2	3
2	10
2	3
2	3
2	3
2	6
2	26
2	4
2	5
2	3
2	3
2	6
2	6
2	3
2	10
2	4
2	3
2	6
2	3
2	3
2	3
2	4
2	3
2	8
2	3
2	3
2	5
2	4
2	8
2	6
2	8
2	7
2	3
2	3
2	6
2	8
2	9
2	14
2	3
2	4
2	3
3	4
3	4
3	4
3	4
3	5
3	4
3	5
3	5
3	5
3	4
3	4
3	5
3	4
3	4
3	4
3	5
3	5
3	5
3	4
3	5
3	6
3	4
3	5
3	4
3	5
3	5
4	5
4	5
4	6
4	6
4	7
4	9
4	5
4	5
4	5
4	6
4	5
4	5
4	5
4	5
4	5
4	6
5	6
5	6
5	6
5	6
5	6
5	6
5	6
5	6
5	8
5	6
5	6
6	7
6	7
6	7
6	7
6	7
6	7
7	8
7	8
7	8
7	8
7	8
7	8
8	9
8	9
9	10
9	10
9	10
9	10
10	11
11	12
11	12
12	13
14	15
15	16
17	18
24	26
74	75
