1	6124
1	13
1	95
1	12
1	9
1	12
1	23
1	15
1	5
1	11
1	14
1	12
1	20
1	97
1	9
1	94
1	13
1	94
1	94
1	10
1	19
1	16
1	13
1	95
1	22
1	95
1	94
1	94
1	9
1	94
1	20
1	95
1	94
1	9
1	11
1	5
1	17
1	6
1	21
1	9
1	11
1	20
1	6
1	15
1	94
1	11
1	94
1	13
1	95
1	94
1	94
1	21
1	6124
1	8
1	14
1	15
1	11
1	20
1	9
1	94
1	12
1	99
1	21
1	13
1	9
1	94
1	7
1	7
1	8
1	13
1	10
1	94
1	10
1	94
1	95
1	20
1	13
1	11
1	12
1	13
1	7
1	20
1	22
1	20
1	7
1	95
1	21
1	4
1	7
1	94
1	16
1	7
1	94
1	11
1	8
1	5
1	9
1	10
1	5
1	11
1	10
1	9
1	9
1	95
1	21
1	8
1	94
1	96
1	8
1	4
1	94
1	12
1	9
1	11
1	17
1	94
1	6
1	21
1	14
1	11
1	12
1	10
1	96
1	17
1	4
1	17
1	10
1	6
1	94
1	14
1	7
1	94
1	12
1	6
1	13
1	94
1	12
1	12
1	94
1	7
1	14
1	20
1	21
1	18
1	11
1	95
1	94
1	95
1	14
1	94
1	7
1	14
1	94
1	8
1	7
1	21
1	8
1	21
1	95
1	94
1	21
1	2
1	21
1	94
1	94
1	21
1	94
1	95
1	6
1	94
1	5
1	94
1	4
1	5
1	4
1	10
1	6
1	11
1	7
1	8
1	12
1	21
1	6
1	8
1	14
1	21
1	94
1	8
1	20
1	6
1	94
1	5
1	7
1	12
1	94
1	95
1	13
1	10
1	14
1	94
1	94
1	9
1	22
1	13
1	8
1	20
1	94
1	21
1	14
1	17
1	7
1	20
1	5
1	14
1	9
1	7
1	21
1	94
1	9
1	4
2	7
2	6
2	6
2	9
2	3
2	8
2	5
2	9
2	3
2	6
2	5
2	6
2	3
2	3
2	3
2	6
2	3
2	9
2	6
2	4
2	4
2	3
2	3
2	3
2	3
2	7
2	3
2	5
2	7
2	6
2	3
2	3
2	21
2	3
2	3
2	3
2	5
2	3
2	4
2	3
2	3
2	8
2	5
2	4
2	8
2	4
2	7
2	3
2	6
2	6
2	4
2	18
2	3
2	3
2	10
2	3
2	7
2	4
2	3
2	3
2	3
2	4
2	4
2	3
2	4
2	3
2	3
2	4
2	5
3	4
3	10
3	4
3	4
3	5
3	4
3	4
3	6
3	5
3	4
3	5
3	6
3	4
3	4
3	4
3	5
3	5
3	4
3	4
3	7
3	4
3	4
3	4
3	4
3	4
3	5
3	5
3	4
3	4
4	12
4	5
4	7
4	5
4	5
4	5
4	5
4	5
4	6
4	6
4	5
5	6
5	6
5	6
5	6
5	6
5	6
5	6
5	6
5	7
6	7
6	7
6	7
6	7
6	7
6	7
6	7
6	7
7	8
7	8
7	8
8	9
9	10
9	10
9	10
9	10
11	12
11	12
12	13
13	14
16	17
19	20
20	21
93	94
