7	6124
11	6124
11	6124
12	6124
12	6124
12	6124
12	6124
13	6124
13	6124
13	6124
13	6124
14	6124
14	6124
14	6124
14	6124
14	6124
15	6124
15	6124
16	6124
17	6124
17	6124
17	6124
17	6124
17	6124
17	6124
17	6124
18	6124
18	6124
18	6124
18	6124
18	6124
19	6124
19	6124
19	6124
20	6124
21	6124
21	6124
22	6124
25	6124
89	6124
89	6124
89	6124
89	6124
89	6124
89	6124
89	6124
89	6124
89	6124
89	6124
89	6124
89	6124
89	6124
89	6124
89	6124
89	6124
90	6124
90	6124
90	6124
90	6124
90	6124
90	6124
90	6124
90	6124
90	6124
90	6124
90	6124
90	6124
91	6124
91	6124
91	6124
91	6124
91	6124
91	6124
91	6124
91	6124
91	6124
91	6124
91	6124
92	6124
92	6124
93	6124
93	6124
93	6124
94	6124
94	6124
94	6124
95	6124
95	6124
98	6124
101	6124
101	6124
