8	6124
9	6124
10	6124
11	6124
11	6124
11	6124
12	6124
12	6124
12	6124
12	6124
15	6124
16	6124
16	6124
17	6124
18	6124
18	6124
18	6124
18	6124
20	6124
20	6124
20	6124
21	6124
22	6124
28	6124
29	6124
30	6124
30	6124
31	6124
32	6124
33	6124
33	6124
35	6124
41	6124
58	6124
58	6124
58	6124
59	6124
59	6124
60	6124
60	6124
61	6124
62	6124
63	6124
63	6124
67	6124
81	6124
