1	6124
1	236
1	236
1	236
1	236
1	237
1	236
1	236
1	236
1	236
1	236
1	236
1	236
1	236
1	236
1	13
1	236
1	236
1	236
1	236
1	236
1	16
1	236
1	236
1	236
1	236
1	236
1	236
1	236
1	236
1	25
1	22
1	236
1	236
1	20
1	236
1	236
1	236
1	11
1	236
1	236
1	236
1	236
1	11
1	16
1	236
1	236
1	9
1	236
1	9
1	236
1	9
1	236
1	12
1	236
1	236
1	236
1	7
1	236
1	14
1	236
1	236
1	236
1	236
1	236
1	236
1	236
1	236
1	20
1	237
1	236
1	14
1	236
1	236
1	11
1	236
1	236
1	12
1	236
1	236
1	11
1	236
1	6
1	4
1	9
1	236
1	4
1	236
1	236
1	236
1	236
1	236
1	236
1	14
1	10
1	236
1	236
1	236
1	9
1	236
1	236
1	238
1	236
1	236
1	9
1	236
1	236
1	9
1	236
1	236
1	13
1	236
1	236
1	9
1	236
1	12
1	236
1	236
1	236
1	236
1	236
1	236
1	9
1	15
1	5
1	236
1	236
1	10
1	238
1	7
1	236
1	236
1	21
1	236
1	236
1	236
1	9
1	6
1	238
1	236
1	8
1	236
1	11
1	236
1	21
1	236
1	7
1	236
1	4
1	236
1	10
1	21
1	236
1	236
1	236
1	236
1	236
1	236
1	236
1	236
1	236
1	9
1	236
1	236
1	236
1	236
1	236
1	236
1	237
1	236
1	7
1	236
1	236
1	8
1	4
1	10
1	236
1	236
1	14
1	236
1	236
1	8
1	236
1	236
1	236
1	9
1	236
1	236
1	6
1	15
1	7
1	236
1	236
1	236
1	236
1	236
1	236
1	236
1	236
1	14
1	6
1	5
1	4
1	236
1	7
1	236
1	236
1	236
1	236
1	236
1	236
1	236
1	8
1	236
1	9
1	236
1	6
1	236
1	236
1	9
1	236
1	236
1	236
1	236
1	236
1	236
1	236
1	236
1	5
1	9
1	7
1	236
1	7
1	7
1	236
1	236
1	7
1	236
1	8
1	236
1	236
1	236
1	20
1	237
1	236
1	236
1	19
1	236
1	8
1	23
1	6
1	236
1	236
1	236
1	10
1	236
1	236
1	236
1	236
1	237
1	236
1	21
1	236
1	5
1	6
1	236
1	236
1	236
1	236
1	9
1	236
1	10
1	236
1	236
1	236
1	6
1	236
1	236
1	236
1	7
1	236
1	236
1	236
1	14
1	236
1	236
1	236
1	236
1	236
1	236
1	19
1	236
2	3
2	7
2	3
2	7
2	3
2	3
2	6
2	5
2	4
2	5
2	4
2	4
2	5
2	7
2	8
2	9
2	3
2	19
2	3
2	19
2	3
2	3
2	22
2	10
2	22
2	4
2	237
2	8
2	3
2	3
2	19
2	4
2	10
2	3
2	3
2	4
2	10
2	3
2	3
2	3
2	8
2	8
2	5
2	3
3	5
3	4
3	4
3	9
3	4
3	4
3	4
3	4
3	5
3	6
3	11
3	4
3	4
3	6
3	4
3	4
3	5
3	4
3	4
3	5
3	4
3	4
3	4
3	4
3	5
3	6
3	4
3	4
3	4
4	7
4	5
4	5
4	7
4	5
5	6
5	6
5	6
5	6
5	6
5	6
5	6
6	7
6	7
6	7
6	7
6	7
6	7
6	7
6	7
7	8
8	10
8	9
8	9
8	9
13	14
17	18
20	21
235	236
