6	6124
12	6124
13	6124
16	6124
133	6124
133	6124
133	6124
133	6124
134	6124
134	6124
134	6124
134	6124
135	6124
135	6124
135	6124
135	6124
135	6124
135	6124
135	6124
136	6124
136	6124
137	6124
137	6124
137	6124
137	6124
138	6124
138	6124
139	6124
139	6124
139	6124
140	6124
148	6124
