1	6124
1	136
1	138
1	136
1	135
1	13
1	135
1	7
1	135
1	11
1	136
1	11
1	135
1	10
1	14
1	138
1	15
1	136
1	17
1	16
1	136
1	135
1	135
1	137
1	13
1	17
1	13
1	9
1	13
1	11
1	10
1	135
1	136
1	135
1	8
1	8
1	136
1	135
1	135
1	11
1	135
1	12
1	8
1	9
1	9
1	11
1	135
1	136
1	135
1	8
1	135
1	135
1	135
1	137
1	135
1	135
1	11
1	13
1	135
1	135
1	12
1	11
1	135
1	11
1	7
1	135
1	135
1	6
1	135
1	135
1	7
1	7
1	11
1	11
1	135
1	9
1	12
1	12
1	6
1	9
1	11
1	11
1	135
1	7
1	11
1	11
1	11
1	6
1	135
1	11
1	8
1	10
1	138
1	135
1	135
1	135
1	135
1	135
1	135
1	6
1	5
1	136
1	135
1	11
1	5
1	10
1	9
1	135
1	136
1	13
1	5
1	143
1	5
1	11
1	8
1	10
1	10
1	9
1	135
1	6
1	7
1	135
1	135
1	11
1	135
1	10
1	16
1	9
1	11
1	10
1	135
1	5
1	5
1	135
1	135
1	11
1	135
1	10
1	135
1	5
1	11
1	9
1	6
1	135
1	8
1	5
1	6
1	10
1	6
1	5
1	8
1	11
1	135
1	135
1	136
1	9
1	135
1	135
1	135
1	135
1	11
1	7
1	8
1	7
1	135
1	5
1	135
1	135
1	4
1	8
1	135
1	13
1	6
1	135
1	5
1	135
1	11
1	135
1	5
1	6
1	5
1	5
1	5
1	10
1	7
1	135
1	7
1	6
1	11
1	135
1	135
1	135
1	135
1	137
1	135
1	135
1	9
1	135
1	14
1	135
1	7
1	7
1	7
1	135
1	135
1	9
1	8
1	10
1	9
1	9
1	10
1	4
1	8
1	8
1	5
1	8
1	135
1	9
1	135
1	135
1	10
1	135
1	12
1	135
1	5
1	135
1	136
1	8
1	7
1	6
1	135
1	6
1	4
1	5
1	16
1	135
1	11
1	135
1	5
1	5
1	135
1	12
1	135
1	11
1	135
1	16
1	11
1	135
1	10
1	5
2	5
2	5
2	12
2	3
2	5
2	3
2	5
2	136
2	8
2	6
2	12
2	5
2	7
2	3
2	3
2	5
2	3
2	3
2	3
2	3
2	3
2	7
2	6
2	3
2	3
2	12
2	3
2	5
2	3
2	6
2	3
2	4
2	4
2	6
2	3
2	6
2	3
2	3
2	5
2	3
2	3
2	4
2	14
2	5
2	4
2	3
2	3
2	4
2	3
2	5
2	3
2	3
2	4
2	6
2	6
2	7
2	3
2	4
2	3
2	3
2	11
2	4
2	4
2	4
2	5
2	4
2	5
2	3
3	4
3	5
3	6
3	4
3	4
3	4
3	4
3	8
3	4
3	8
3	5
3	4
3	4
3	4
3	5
3	4
3	4
3	4
3	4
3	4
3	4
3	5
3	5
3	4
3	4
3	6
3	8
3	5
3	4
3	4
3	4
3	5
3	5
3	4
3	4
3	5
3	6
4	5
4	9
4	5
4	5
4	5
4	5
4	5
4	8
4	7
4	5
4	5
4	5
4	5
5	6
5	6
5	6
5	6
5	6
5	6
5	7
5	6
5	6
5	6
5	6
5	6
5	6
6	7
6	7
6	7
7	8
7	8
7	8
8	9
8	9
8	9
9	10
9	10
9	10
9	10
10	11
10	11
10	11
12	13
15	16
134	135
