1	6124
1	98
1	98
1	102
1	97
1	98
1	97
1	102
1	103
1	4
1	100
1	98
1	11
1	98
1	10
1	99
1	97
1	9
1	6124
1	6124
1	99
1	10
1	23
1	6124
1	97
1	11
1	96
1	8
1	7
1	7
1	10
1	96
1	8
1	11
1	97
1	97
1	98
1	98
1	2
1	99
1	96
1	9
1	9
1	100
1	7
1	97
1	100
1	99
1	23
1	99
1	7
1	98
1	100
1	98
1	97
1	12
1	9
1	98
1	6
1	98
1	4
1	23
1	99
1	5
1	9
1	11
1	10
1	4
1	99
1	96
1	7
1	2
1	6
1	11
1	10
1	96
1	11
1	10
1	6
1	9
1	97
1	100
1	5
1	11
1	6
1	4
1	5
1	7
1	4
1	11
1	6
1	98
1	9
1	96
1	98
1	7
1	8
1	6
1	6
1	98
1	5
1	7
1	4
1	5
1	97
1	8
1	6
1	9
1	97
1	12
1	9
1	9
1	6
1	11
1	97
1	7
1	7
1	9
1	23
1	6
1	5
1	7
1	6124
1	4
1	9
1	4
1	6
1	10
1	96
1	8
1	23
1	5
1	23
1	9
1	6
1	10
1	5
1	6
1	99
1	24
1	5
1	5
1	98
1	98
1	23
1	10
1	5
1	10
1	6
1	7
1	6
1	23
1	6
1	8
1	96
1	9
1	96
1	10
1	96
1	96
1	8
1	5
1	9
1	96
1	96
1	97
1	2
1	6
1	7
1	5
1	23
1	5
1	5
1	96
1	8
1	7
1	5
1	96
1	23
1	10
1	5
1	23
1	11
1	7
1	8
1	5
1	97
1	23
1	5
1	9
1	6
1	4
1	96
1	5
1	8
1	96
1	6
1	97
1	96
1	7
1	23
1	5
1	96
1	7
1	7
1	6
1	23
1	96
1	97
1	23
1	6
1	96
1	24
1	96
1	10
1	2
1	96
1	23
1	6
1	5
1	96
1	4
1	97
1	6
1	6
1	9
1	4
1	9
1	97
1	97
1	23
1	5
1	6
1	7
1	96
1	7
1	6
1	23
1	10
1	96
1	5
2	5
2	3
2	5
2	6
2	6
2	3
2	5
2	3
2	8
2	6
2	4
2	3
2	5
2	3
2	3
2	3
2	5
2	3
2	3
2	3
2	3
2	4
2	4
2	3
2	5
2	4
2	3
2	3
2	3
2	3
2	3
2	4
2	6
2	3
2	3
2	7
2	3
2	4
2	3
2	4
2	3
2	3
2	4
2	3
2	3
2	4
2	3
2	4
2	3
2	3
2	3
2	3
2	4
2	3
2	3
2	4
2	3
2	4
2	3
2	4
2	3
2	4
2	3
2	5
2	3
2	4
2	3
2	4
2	4
2	4
2	4
2	3
2	3
2	3
2	3
2	3
2	3
2	3
2	3
2	3
2	3
2	4
2	3
2	4
2	3
2	4
2	3
2	3
2	5
2	3
2	4
2	3
2	3
2	4
2	4
2	3
2	3
2	3
2	4
2	5
2	3
2	4
2	3
2	4
2	3
2	3
2	3
3	4
3	5
3	5
3	4
3	4
3	4
3	5
3	4
3	6
3	5
3	4
3	5
3	6
3	5
3	5
3	4
3	4
3	4
3	4
3	5
3	4
3	5
3	4
3	4
3	4
3	5
3	4
3	4
3	5
3	4
3	4
3	4
3	4
3	4
3	4
3	5
3	4
3	4
3	5
3	4
4	5
4	5
4	5
4	5
4	5
4	5
4	5
4	5
4	5
4	5
4	5
4	5
4	5
4	5
4	5
4	5
4	5
4	5
5	6
5	6
5	6
5	6
5	7
5	6
5	6
5	6
5	6
6	7
6	7
7	8
7	8
7	8
8	9
8	9
8	9
9	10
9	10
22	23
95	96
