1	6124
1	102
1	102
1	102
1	9
1	20
1	14
1	101
1	100
1	8
1	20
1	11
1	13
1	8
1	8
1	104
1	103
1	19
1	6
1	14
1	19
1	19
1	7
1	102
1	100
1	100
1	9
1	7
1	21
1	103
1	8
1	100
1	100
1	103
1	100
1	11
1	101
1	100
1	11
1	102
1	7
1	4
1	101
1	9
1	100
1	8
1	8
1	7
1	11
1	9
1	10
1	11
1	100
1	8
1	13
1	18
1	8
1	11
1	103
1	9
1	103
1	11
1	6
1	6
1	101
1	6
1	6
1	10
1	102
1	100
1	100
1	103
1	100
1	100
1	8
1	14
1	101
1	10
1	10
1	7
1	6
1	100
1	8
1	11
1	5
1	9
1	14
1	5
1	11
1	7
1	7
1	8
1	18
1	4
1	106
1	101
1	100
1	5
1	100
1	9
1	100
1	9
1	10
1	20
1	12
1	100
1	5
1	6
1	10
1	4
1	7
1	100
1	7
1	5
1	100
1	100
1	6
1	8
1	102
1	10
1	4
1	8
1	7
1	101
1	7
1	100
1	100
1	7
1	100
1	7
1	100
1	7
1	11
1	7
1	10
1	7
1	6
1	8
1	100
1	5
1	100
1	100
1	100
1	12
1	7
1	6
1	8
1	100
1	4
1	7
1	7
1	6
1	7
1	11
1	100
1	12
1	6
1	11
1	100
1	6
1	6
1	5
1	5
1	100
1	8
1	102
1	100
1	5
1	8
1	9
1	9
1	5
1	7
1	100
1	8
1	7
1	6
1	6
1	6
1	4
1	100
1	8
1	101
1	7
1	100
1	11
1	10
1	6
1	11
1	11
1	12
1	5
1	101
1	100
1	7
1	5
1	100
1	7
1	6
1	5
1	6
1	7
1	5
1	8
1	7
1	101
1	10
1	4
1	7
1	5
1	10
1	6
1	5
1	10
1	6
1	5
1	18
1	7
1	8
1	19
1	7
1	7
1	5
1	10
1	100
1	6
1	5
1	20
1	4
1	5
1	5
1	101
1	12
1	5
1	6
1	100
1	9
1	5
1	100
1	7
1	7
1	4
2	6
2	6
2	3
2	7
2	5
2	3
2	3
2	3
2	6
2	3
2	3
2	3
2	3
2	3
2	3
2	6
2	3
2	5
2	7
2	3
2	5
2	3
2	3
2	5
2	3
2	3
2	5
2	4
2	3
2	3
2	3
2	5
2	3
2	3
2	3
2	4
2	3
2	5
2	3
2	3
2	3
2	3
2	3
2	3
2	7
2	3
2	4
2	3
2	4
2	4
2	4
2	4
2	3
2	3
2	4
2	3
2	3
2	5
2	4
2	4
2	3
2	3
2	4
2	3
2	4
2	5
2	3
2	4
2	3
2	3
2	4
2	6
2	3
2	4
2	3
2	5
2	3
2	3
2	4
2	3
2	4
2	3
2	4
2	3
2	3
2	3
2	3
2	4
2	3
2	3
2	4
3	5
3	4
3	5
3	4
3	4
3	4
3	4
3	4
3	4
3	4
3	6
3	5
3	5
3	4
3	4
3	4
3	4
3	5
3	5
3	4
3	4
3	4
3	4
3	5
3	4
3	4
3	4
3	4
3	4
3	4
3	4
3	4
3	4
3	4
3	4
3	4
3	4
3	5
3	4
3	4
3	4
3	4
4	5
4	5
4	5
4	5
4	5
4	6
4	5
4	5
4	5
4	5
4	5
4	6
4	6
4	5
4	5
4	6
4	5
4	5
4	5
4	5
4	5
5	6
5	6
5	6
5	7
5	6
5	6
5	6
5	6
5	6
5	6
5	6
5	6
5	6
6	7
6	7
6	7
6	7
6	7
6	7
6	7
6	7
6	7
7	8
8	9
9	10
9	10
10	11
10	11
17	18
99	100
