16	6124
202	6124
202	6124
202	6124
202	6124
202	6124
202	6124
202	6124
202	6124
203	6124
203	6124
203	6124
203	6124
203	6124
203	6124
204	6124
204	6124
204	6124
204	6124
204	6124
204	6124
204	6124
204	6124
204	6124
204	6124
205	6124
205	6124
205	6124
205	6124
205	6124
206	6124
206	6124
207	6124
207	6124
207	6124
207	6124
208	6124
209	6124
209	6124
210	6124
214	6124
