10	6124
11	6124
12	6124
14	6124
14	6124
14	6124
15	6124
15	6124
15	6124
15	6124
16	6124
16	6124
16	6124
16	6124
16	6124
16	6124
17	6124
17	6124
17	6124
18	6124
18	6124
18	6124
18	6124
19	6124
24	6124
30	6124
30	6124
31	6124
31	6124
31	6124
31	6124
32	6124
33	6124
35	6124
35	6124
36	6124
37	6124
38	6124
38	6124
39	6124
98	6124
98	6124
98	6124
98	6124
98	6124
98	6124
98	6124
98	6124
98	6124
98	6124
98	6124
99	6124
99	6124
99	6124
99	6124
99	6124
100	6124
100	6124
100	6124
100	6124
100	6124
100	6124
101	6124
101	6124
102	6124
103	6124
103	6124
103	6124
104	6124
104	6124
104	6124
107	6124
124	6124
