1	6124
1	77
1	10
1	9
1	76
1	12
1	11
1	9
1	78
1	9
1	15
1	17
1	8
1	16
1	10
1	77
1	8
1	13
1	76
1	8
1	79
1	7
1	76
1	76
1	9
1	11
1	8
1	11
1	9
1	76
1	7
1	76
1	11
1	10
1	9
1	9
1	78
1	13
1	8
1	9
1	5
1	5
1	8
1	10
1	7
1	6
1	9
1	8
1	11
1	80
1	78
1	11
1	5
1	6
1	10
1	79
1	9
1	9
1	8
1	8
1	8
1	76
1	7
1	7
1	76
1	76
1	15
1	77
1	77
1	9
1	76
1	9
1	5
1	8
1	9
1	7
1	15
1	8
1	5
1	76
1	7
1	5
1	7
1	7
1	76
1	9
1	77
1	12
1	7
1	9
1	11
1	76
1	9
1	5
1	15
1	10
1	6
1	7
1	6
1	76
1	6
1	76
1	7
1	8
1	10
1	4
1	14
1	4
1	6
1	15
1	11
1	7
1	77
1	6
1	7
1	76
1	4
1	4
1	8
1	14
1	5
1	4
1	79
1	5
1	13
1	5
1	5
1	7
1	76
1	6
1	11
1	7
1	4
1	10
1	8
1	8
1	8
1	6
1	76
1	7
1	6
1	8
1	8
1	76
1	5
1	5
1	7
1	11
1	76
1	76
1	4
1	8
1	6
1	76
1	8
1	4
1	76
1	16
1	9
1	6
1	7
1	4
1	9
1	10
1	76
1	6
1	7
1	77
1	77
1	77
1	4
1	5
1	12
1	7
1	7
1	5
1	76
1	6
1	7
1	76
1	76
1	7
1	14
1	12
1	6
1	5
1	6
1	8
1	5
1	15
1	11
1	9
1	7
1	4
1	4
1	7
1	4
1	12
1	76
1	8
1	9
1	5
1	10
1	5
1	5
1	6
1	4
1	7
1	5
1	5
1	6
2	3
2	6
2	6
2	3
2	3
2	4
2	6
2	3
2	4
2	6
2	5
2	3
2	3
2	3
2	4
2	7
2	3
2	3
2	3
2	4
2	3
2	3
2	3
2	3
2	3
2	3
2	3
2	4
2	6
2	3
2	3
2	3
2	3
2	4
2	5
2	5
2	3
2	4
2	3
2	4
2	3
2	9
2	3
2	3
2	3
2	3
2	4
2	3
2	3
2	8
2	8
2	4
2	5
2	5
2	5
2	3
2	3
2	5
2	5
2	3
2	5
2	7
2	3
2	3
2	8
2	4
2	5
2	4
2	3
2	3
2	4
2	7
2	5
2	4
2	3
2	3
2	4
2	3
2	3
2	3
2	4
2	3
2	4
2	3
2	5
2	5
2	6
2	7
2	4
2	3
2	4
2	3
2	5
2	5
2	5
2	4
3	4
3	5
3	5
3	6
3	4
3	5
3	5
3	4
3	5
3	5
3	6
3	4
3	7
3	4
3	4
3	5
3	4
3	4
3	4
3	5
3	6
3	4
3	4
3	4
3	4
3	4
3	4
3	4
3	4
3	4
3	6
3	6
3	5
3	5
3	4
3	5
3	5
3	4
3	4
3	5
3	4
3	4
3	4
3	4
3	4
3	4
3	4
3	4
3	4
3	4
3	4
3	4
3	5
3	4
3	4
3	5
3	4
3	4
3	6
3	4
3	4
4	5
4	5
4	5
4	7
4	6
4	5
4	5
4	6
4	6
4	5
4	5
4	5
4	5
4	6
4	5
4	5
4	5
4	5
4	6
4	5
4	5
4	5
4	6
4	6
5	6
5	6
5	6
5	6
5	6
5	6
5	6
5	6
5	6
5	6
5	6
5	6
5	6
6	7
6	7
6	7
6	8
6	7
6	8
6	7
7	8
7	8
9	10
9	10
9	10
10	11
10	11
13	14
75	76
