1	6124
1	113
1	12
1	116
1	11
1	112
1	8
1	14
1	6124
1	121
1	18
1	111
1	15
1	20
1	111
1	13
1	18
1	15
1	111
1	14
1	9
1	11
1	12
1	18
1	113
1	116
1	113
1	9
1	14
1	8
1	114
1	111
1	111
1	19
1	10
1	17
1	5
1	16
1	9
1	12
1	18
1	111
1	111
1	112
1	111
1	111
1	10
1	12
1	111
1	111
1	111
1	112
1	6
1	111
1	111
1	12
1	12
1	6
1	10
1	111
1	4
1	111
1	5
1	112
1	14
1	8
1	6124
1	11
1	17
1	7
1	115
1	13
1	111
1	7
1	121
1	16
1	5
1	5
1	4
1	14
1	116
1	6
1	7
1	17
1	12
1	15
1	12
1	6
1	111
1	12
1	111
1	7
1	14
1	16
1	111
1	111
1	111
1	4
1	14
1	16
1	111
1	16
1	11
1	9
1	11
1	6
1	115
1	113
1	7
1	4
1	10
1	12
1	6
1	111
1	16
1	12
1	7
1	111
1	15
1	10
1	112
1	14
1	111
1	12
1	14
1	6
1	6
1	111
1	10
1	111
1	112
1	4
1	5
1	7
1	12
1	4
1	16
1	7
1	16
1	5
1	111
1	7
1	14
1	114
1	113
1	8
1	13
1	9
1	8
1	111
1	111
1	7
1	12
1	11
1	7
1	11
1	111
1	4
1	12
1	111
1	111
1	5
1	14
1	16
1	14
1	111
1	15
1	7
1	12
1	6
1	4
1	7
1	114
1	16
1	8
1	11
1	111
1	112
1	12
1	7
1	111
1	5
1	112
1	111
1	9
1	111
1	6
1	4
1	112
1	111
1	7
1	10
1	10
1	5
1	111
1	111
1	6
1	10
1	112
1	6
1	13
1	12
1	111
1	114
1	111
1	6
1	111
1	13
1	7
1	112
1	5
1	5
1	6
1	7
1	8
1	6
1	12
1	6
1	111
1	111
1	10
1	6
1	111
1	18
1	16
1	111
1	111
1	111
1	7
1	6
1	12
1	6
1	13
1	6
1	7
1	111
1	6
1	7
1	16
1	12
1	7
1	111
1	7
1	14
1	111
1	5
1	12
1	7
1	6
1	4
1	5
1	2
1	6
1	10
1	5
1	6
1	12
1	5
1	111
1	111
1	16
1	8
1	6
1	111
1	7
1	12
1	111
1	8
1	111
1	8
1	5
1	4
1	2
1	111
1	7
1	111
1	7
1	4
1	4
1	5
1	11
1	111
1	6
1	111
1	17
1	11
1	7
1	6
1	111
1	12
1	12
1	12
2	5
2	3
2	3
2	3
2	4
2	3
2	5
2	5
2	12
2	112
2	4
2	4
2	4
2	3
2	11
2	3
2	4
2	3
2	3
2	3
2	4
2	3
2	4
2	4
2	3
2	4
2	3
2	3
2	17
2	3
2	3
2	4
2	3
2	5
2	3
2	4
2	3
2	3
2	5
2	3
2	3
2	5
2	4
2	3
2	4
2	5
2	3
2	3
2	4
2	3
2	3
2	3
2	3
2	6
2	5
2	4
2	4
2	5
2	3
2	3
2	3
2	3
2	3
2	3
2	3
2	3
2	3
2	5
2	4
2	3
2	4
2	4
3	4
3	4
3	4
3	4
3	4
3	4
3	4
3	4
3	4
3	4
3	4
3	4
3	4
3	4
3	4
3	5
3	9
3	4
3	4
3	4
3	5
3	4
3	4
3	4
3	4
3	5
3	5
3	4
3	4
3	4
3	4
3	5
3	4
4	5
4	5
4	5
4	5
4	5
4	5
4	5
4	6
4	5
4	5
4	5
4	5
4	5
4	6
4	5
4	5
4	5
5	6
5	6
5	6
5	6
5	6
5	6
5	6
5	6
5	6
5	6
5	6
6	7
6	7
6	7
6	7
6	7
7	8
9	10
9	10
9	10
10	11
10	11
11	12
11	12
11	12
13	14
15	16
15	16
110	111
