1	6124
1	14
1	14
1	17
1	16
1	13
1	17
1	13
1	73
1	12
1	73
1	18
1	14
1	15
1	14
1	79
1	16
1	12
1	15
1	72
1	13
1	11
1	15
1	72
1	11
1	15
1	73
1	12
1	13
1	12
1	9
1	72
1	6
1	10
1	6
1	72
1	72
1	73
1	13
1	13
1	15
1	4
1	7
1	13
1	9
1	72
1	72
1	72
1	15
1	7
1	74
1	13
1	13
1	4
1	13
1	11
1	73
1	12
1	14
1	9
1	9
1	9
1	72
1	13
1	6
1	8
1	72
1	72
1	72
1	8
1	9
1	8
1	13
1	11
1	72
1	72
1	10
1	12
1	14
1	72
1	10
1	11
1	7
1	12
1	12
1	6
1	72
1	74
1	14
1	6
1	72
1	9
1	12
1	8
1	6
1	74
1	72
1	4
1	4
1	12
1	13
1	5
1	13
1	6
1	72
1	13
1	7
1	11
1	6
1	6
1	14
1	4
1	9
1	5
1	72
1	4
1	5
1	8
1	9
1	7
1	12
1	72
1	72
1	11
1	9
1	72
1	72
1	9
1	7
1	5
1	11
1	7
1	9
1	72
1	8
1	8
1	12
1	8
1	9
1	8
1	72
1	4
1	10
1	13
1	8
1	72
1	8
1	7
1	8
1	72
1	5
1	73
1	6
1	10
1	6
1	72
1	8
1	8
1	9
1	72
1	9
1	73
1	7
1	11
1	10
1	5
1	5
1	12
1	7
1	4
1	8
1	72
1	6
1	6
1	72
1	4
1	14
1	7
1	5
1	6
1	9
1	6
1	10
1	9
1	6
1	9
1	12
1	4
1	5
1	72
1	8
1	4
1	72
1	8
1	13
1	4
1	8
1	72
1	73
1	7
1	9
1	7
1	12
1	12
1	5
1	72
1	6
1	10
1	72
1	10
1	13
1	13
1	7
1	72
1	72
1	5
1	5
1	6
1	4
1	4
1	9
1	13
1	7
1	10
1	10
1	7
1	9
1	13
1	8
1	6
2	3
2	4
2	3
2	3
2	7
2	7
2	5
2	5
2	3
2	3
2	3
2	6
2	3
2	6
2	3
2	6
2	4
2	3
2	3
2	3
2	5
2	3
2	3
2	4
2	5
2	3
2	3
2	4
2	3
2	6
2	3
2	4
2	5
2	3
2	5
2	3
2	3
2	4
2	3
2	3
2	3
2	4
2	4
2	4
2	3
2	3
2	4
2	4
2	3
2	4
2	3
2	3
2	3
2	3
2	3
2	3
2	5
2	9
2	5
2	6
2	6
2	3
2	4
2	3
2	9
2	3
2	4
2	5
2	7
2	3
2	5
2	3
2	3
2	9
2	3
2	3
2	5
2	3
3	4
3	4
3	4
3	6
3	4
3	4
3	5
3	4
3	4
3	4
3	4
3	4
3	5
3	4
3	4
3	4
3	4
3	4
3	4
3	4
3	5
3	6
3	4
3	5
3	4
3	4
3	4
3	4
3	5
3	4
3	10
3	5
3	4
3	6
3	4
3	4
3	5
3	5
3	4
3	5
3	4
3	4
3	4
4	5
4	5
4	5
4	5
4	5
4	5
4	5
4	5
4	6
4	6
4	5
4	5
4	5
4	5
4	5
4	5
5	6
5	6
5	6
5	6
5	6
5	6
6	7
6	7
6	7
6	7
6	8
6	7
7	8
7	8
7	8
7	8
7	8
8	9
8	9
8	9
8	9
9	10
9	10
11	12
11	12
11	12
12	13
12	13
12	13
71	72
