1	6124
1	152
1	155
1	151
1	150
1	153
1	151
1	6
1	155
1	150
1	14
1	13
1	150
1	157
1	150
1	11
1	11
1	13
1	150
1	9
1	151
1	10
1	13
1	11
1	150
1	10
1	152
1	4
1	15
1	9
1	150
1	7
1	154
1	150
1	11
1	10
1	9
1	150
1	6
1	6
1	152
1	11
1	11
1	152
1	150
1	10
1	150
1	9
1	154
1	6
1	150
1	150
1	9
1	150
1	150
1	9
1	152
1	8
1	151
1	150
1	150
1	150
1	154
1	9
1	10
1	10
1	7
1	150
1	13
1	8
1	9
1	152
1	150
1	10
1	150
1	8
1	151
1	8
1	11
1	6
1	150
1	9
1	150
1	150
1	150
1	6
1	150
1	150
1	150
1	151
1	7
1	150
1	150
1	150
1	153
1	150
1	6
1	150
1	9
1	10
1	150
1	7
1	150
1	5
1	152
1	150
1	150
1	155
1	7
1	150
1	6
1	12
1	150
1	6
1	150
1	9
1	10
1	8
1	4
1	10
1	7
1	6
1	8
1	150
1	9
1	8
1	5
1	150
1	11
1	150
1	150
1	8
1	150
1	12
1	6
1	150
1	151
1	7
1	150
1	10
1	150
1	5
1	150
1	150
1	6
1	9
1	7
1	8
1	9
1	4
1	151
1	151
1	150
1	4
1	9
1	12
1	10
1	150
1	9
1	6
1	5
1	5
1	9
1	7
1	150
1	5
1	150
1	4
1	12
1	10
1	6
1	150
1	10
1	6
1	150
1	8
1	8
1	7
1	7
1	150
1	6
1	9
1	6
1	7
1	6
1	5
1	150
1	5
1	5
1	150
1	150
1	7
1	151
1	4
1	5
1	8
1	8
1	8
1	9
1	150
1	10
1	9
1	150
1	10
1	5
1	150
1	5
1	4
1	150
1	150
1	11
1	8
1	7
1	150
1	8
1	7
1	6
1	8
1	151
1	151
1	150
1	8
1	9
1	4
1	150
1	11
1	151
1	5
1	150
1	9
1	8
1	151
1	5
1	9
1	6
1	5
1	150
1	150
1	4
1	9
1	9
1	4
1	7
1	4
1	150
1	7
1	6
1	8
1	10
1	151
1	150
1	7
1	151
1	150
1	6
1	150
1	150
1	8
1	150
1	151
1	150
1	150
1	7
1	9
1	6
1	150
1	7
1	4
1	6
1	6
1	10
1	151
1	10
1	7
1	5
1	8
1	150
1	151
2	4
2	3
2	8
2	4
2	3
2	3
2	4
2	3
2	3
2	7
2	4
2	3
2	6
2	6
2	3
2	3
2	6
2	3
2	4
2	3
2	10
2	5
2	6
2	3
2	3
2	3
2	5
2	3
2	8
2	3
2	4
2	5
2	7
2	4
2	3
2	3
2	5
2	10
2	4
2	6
2	3
2	4
2	6
2	3
2	5
2	5
2	5
2	4
2	5
2	9
2	3
2	5
2	5
2	3
2	4
2	7
2	3
2	3
2	5
2	4
2	3
2	3
2	3
2	3
2	3
2	11
2	3
2	6
2	3
2	8
2	3
2	3
2	3
2	4
2	3
2	4
2	7
2	3
2	3
2	4
2	3
3	4
3	4
3	4
3	4
3	4
3	4
3	4
3	4
3	4
3	4
3	5
3	5
3	4
3	4
3	4
3	4
3	5
3	4
3	4
3	4
3	4
3	4
3	4
3	4
3	4
3	6
3	4
3	4
3	4
3	4
3	4
3	4
3	5
3	5
3	4
4	5
4	5
4	5
4	6
4	6
4	7
4	5
4	5
4	5
4	5
4	5
4	5
4	5
4	5
4	5
4	5
4	5
4	5
5	6
5	6
5	6
5	6
5	6
5	6
5	6
5	6
5	6
5	6
6	7
6	7
6	7
6	7
6	7
6	7
7	8
7	8
7	8
7	8
7	8
7	8
8	9
8	9
8	9
8	9
8	9
9	10
9	10
10	11
149	150
