1	6124
1	50
1	51
1	50
1	50
1	19
1	14
1	11
1	52
1	11
1	49
1	50
1	53
1	10
1	6124
1	12
1	9
1	4
1	6124
1	6124
1	6124
1	52
1	5
1	57
1	12
1	9
1	19
1	9
1	50
1	8
1	11
1	7
1	51
1	11
1	17
1	8
1	51
1	9
1	7
1	14
1	53
1	12
1	6124
1	6124
1	6
1	4
1	13
1	12
1	14
1	4
1	51
1	13
1	52
1	12
1	12
1	7
1	53
1	56
1	7
1	9
1	50
1	13
1	9
1	7
1	11
1	4
1	7
1	18
1	7
1	11
1	49
1	12
1	17
1	10
1	10
1	9
1	13
1	14
1	10
1	7
1	5
1	9
1	9
1	6
1	6
1	6
1	6124
1	10
1	7
1	8
1	4
1	10
1	5
1	6124
1	11
1	51
1	53
1	9
1	11
1	9
1	53
1	13
1	5
1	16
1	6124
1	5
1	5
1	50
1	11
1	11
1	6
1	6
1	6
1	9
1	9
1	6
1	7
1	8
1	6
1	5
1	11
1	3
1	11
1	6
1	6
1	6
1	5
1	11
1	9
1	7
1	6
1	5
1	11
1	6
1	7
1	10
1	2
1	9
1	6
1	11
1	10
1	6
1	6
1	7
1	49
1	16
1	5
1	11
1	16
1	7
1	5
1	5
1	6
1	7
1	9
1	10
1	10
1	7
1	9
1	12
1	4
1	7
1	11
1	7
1	11
1	49
1	6
1	6
1	8
1	12
1	4
1	12
1	6
1	6
1	10
1	7
1	4
1	11
1	7
1	7
1	5
1	11
1	6
1	6
1	12
1	8
1	16
1	13
1	6
1	6
1	6
1	4
1	7
1	8
1	10
1	10
1	12
1	2
1	10
1	50
1	50
1	10
1	9
1	10
1	6
1	4
1	7
1	49
1	4
1	9
1	6
1	3
1	5
1	10
1	49
1	16
1	4
1	49
1	10
1	5
1	7
1	4
1	10
1	16
1	6
1	10
1	7
1	6
1	7
1	7
1	8
1	49
1	16
1	5
1	5
1	16
1	12
1	6
1	4
1	6
1	10
1	7
1	6
1	5
1	8
1	6
1	9
1	11
1	3
1	50
1	5
1	6
1	11
1	6
1	5
1	7
2	5
2	5
2	4
2	4
2	3
2	3
2	3
2	3
2	3
2	4
2	3
2	3
2	3
2	5
2	3
2	3
2	3
2	4
2	3
2	3
2	7
2	3
2	3
2	4
2	3
2	3
2	3
2	3
2	4
2	3
2	3
2	3
2	3
2	4
2	4
2	3
2	3
2	4
2	4
2	5
2	3
2	3
2	4
2	3
2	4
2	8
2	8
2	7
2	3
2	3
2	3
2	4
2	6
2	3
2	4
2	6
2	5
2	3
2	4
2	4
2	3
2	4
2	5
2	3
2	3
2	3
2	4
2	3
2	4
2	3
2	3
2	8
2	3
2	3
2	4
2	4
2	12
2	3
2	4
2	3
2	3
2	4
2	3
2	5
2	3
2	7
2	3
2	3
2	4
2	3
2	3
2	3
2	3
2	4
2	4
3	4
3	7
3	4
3	4
3	4
3	5
3	4
3	4
3	4
3	5
3	4
3	4
3	5
3	4
3	4
3	4
3	4
3	4
3	4
3	5
3	4
3	4
3	4
3	4
3	4
3	4
3	4
3	4
3	4
3	4
3	4
3	4
3	4
3	4
4	5
4	5
4	5
4	5
4	5
4	5
4	5
4	5
4	5
4	5
4	5
4	5
4	5
4	5
4	5
4	5
5	6
5	6
5	6
5	6
5	6
5	6
5	6
5	6
5	6
5	6
5	6
5	6
5	6
5	6
5	6
5	6
6	7
6	7
6	7
6	7
6	7
6	7
6	7
7	8
8	9
8	9
8	9
9	10
9	10
9	10
10	11
10	11
10	11
11	12
15	16
48	49
