10	6124
13	6124
14	6124
18	6124
232	6124
232	6124
233	6124
233	6124
233	6124
233	6124
233	6124
234	6124
235	6124
235	6124
235	6124
235	6124
236	6124
236	6124
236	6124
237	6124
237	6124
238	6124
241	6124
241	6124
