8	6124
10	6124
14	6124
18	6124
19	6124
24	6124
24	6124
25	6124
26	6124
107	6124
107	6124
107	6124
108	6124
108	6124
108	6124
108	6124
108	6124
108	6124
108	6124
109	6124
109	6124
109	6124
109	6124
109	6124
109	6124
109	6124
110	6124
110	6124
110	6124
110	6124
110	6124
111	6124
112	6124
113	6124
113	6124
113	6124
113	6124
114	6124
127	6124
