1	6124
1	106
1	107
1	106
1	106
1	107
1	21
1	13
1	107
1	14
1	106
1	106
1	106
1	10
1	6124
1	15
1	24
1	12
1	110
1	18
1	11
1	13
1	23
1	109
1	10
1	6
1	13
1	9
1	6124
1	11
1	23
1	12
1	13
1	9
1	6
1	20
1	12
1	8
1	10
1	106
1	11
1	10
1	106
1	19
1	106
1	106
1	7
1	13
1	6
1	8
1	106
1	12
1	8
1	10
1	11
1	9
1	107
1	5
1	106
1	23
1	12
1	7
1	10
1	9
1	108
1	7
1	106
1	6
1	5
1	107
1	20
1	9
1	8
1	17
1	7
1	106
1	5
1	6
1	4
1	106
1	6
1	17
1	8
1	107
1	8
1	7
1	106
1	106
1	7
1	6
1	106
1	12
1	10
1	5
1	5
1	11
1	107
1	10
1	18
1	10
1	23
1	106
1	106
1	106
1	19
1	7
1	106
1	11
1	6
1	7
1	11
1	6
1	9
1	106
1	23
1	9
1	106
1	6
1	10
1	4
1	5
1	5
1	106
1	5
1	107
1	5
1	106
1	107
1	106
1	6
1	106
1	11
1	23
1	9
1	5
1	5
1	23
1	23
1	106
1	7
1	10
1	106
1	3
1	6
1	6
1	107
1	23
1	9
1	23
1	9
1	11
1	107
1	6
1	12
1	12
1	106
1	106
1	17
1	9
1	5
1	18
1	5
1	11
1	6
1	6
1	106
1	9
1	2
1	7
1	107
1	106
1	106
1	5
1	23
1	106
1	106
1	23
1	106
1	6
1	10
1	106
1	5
1	106
1	11
1	107
1	106
1	107
1	6
1	6
1	12
1	23
1	106
1	106
1	9
1	107
1	106
1	4
1	106
1	7
1	6
1	12
1	106
1	106
1	107
1	106
1	23
1	106
1	24
1	106
1	10
1	7
1	106
1	9
1	7
1	6
1	106
1	23
1	9
1	106
1	17
1	107
1	107
1	11
2	3
2	3
2	3
2	4
2	4
2	3
2	3
2	3
2	3
2	4
2	8
2	8
2	4
2	3
2	3
2	4
2	3
2	3
2	3
2	11
2	3
2	4
2	3
2	5
2	3
2	13
2	4
2	4
2	3
2	9
2	7
2	3
2	4
2	3
2	6
2	7
2	3
2	4
2	3
2	3
2	3
2	5
2	6
2	3
2	5
2	3
2	3
2	3
2	7
2	4
2	3
2	4
2	4
2	8
2	4
2	6
2	3
2	4
2	4
2	3
2	4
2	3
2	4
2	6
2	4
2	3
2	3
2	6
2	7
2	4
2	3
2	3
2	18
2	5
2	3
2	3
2	9
2	10
2	4
2	3
2	3
2	3
2	3
2	3
2	6
2	3
2	6
2	5
2	4
2	4
2	3
2	3
2	4
2	3
2	3
3	5
3	6
3	4
3	5
3	4
3	5
3	4
3	4
3	4
3	5
3	5
3	5
3	4
3	4
3	4
3	5
3	4
3	5
3	4
3	4
3	4
3	5
3	5
3	5
3	5
4	5
4	5
4	6
4	5
4	6
4	5
4	5
4	5
4	5
4	5
4	5
4	5
4	5
4	5
4	5
4	5
4	9
5	7
5	6
5	6
5	6
5	6
5	6
5	6
5	7
5	6
5	6
5	6
6	7
6	7
7	8
7	8
8	9
8	9
8	9
8	9
9	10
10	11
11	12
16	17
22	23
105	106
