1	6124
1	103
1	102
1	103
1	102
1	12
1	104
1	103
1	14
1	101
1	11
1	104
1	10
1	13
1	13
1	106
1	15
1	12
1	5
1	101
1	8
1	102
1	13
1	9
1	101
1	13
1	101
1	12
1	11
1	12
1	9
1	101
1	9
1	9
1	7
1	104
1	12
1	10
1	11
1	8
1	14
1	13
1	104
1	9
1	102
1	7
1	13
1	103
1	8
1	11
1	101
1	5
1	9
1	103
1	10
1	7
1	103
1	6
1	13
1	11
1	106
1	8
1	9
1	102
1	8
1	8
1	101
1	10
1	103
1	101
1	104
1	12
1	13
1	4
1	6
1	103
1	6
1	11
1	105
1	6124
1	6
1	102
1	9
1	8
1	16
1	9
1	8
1	9
1	11
1	101
1	6124
1	11
1	4
1	12
1	102
1	103
1	4
1	106
1	103
1	12
1	12
1	102
1	102
1	7
1	101
1	9
1	7
1	5
1	101
1	8
1	102
1	7
1	2
1	6
1	9
1	7
1	10
1	10
1	8
1	101
1	104
1	6
1	12
1	12
1	11
1	8
1	4
1	9
1	6
1	9
1	101
1	4
1	13
1	101
1	5
1	10
1	9
1	6
1	4
1	8
1	8
1	6
1	9
1	7
1	4
1	101
1	10
1	103
1	7
1	101
1	101
1	7
1	10
1	103
1	8
1	101
1	6
1	10
1	6
1	7
1	5
1	6
1	6
1	103
1	4
1	7
1	10
1	7
1	6
1	8
1	4
1	8
1	101
1	12
1	5
1	101
1	5
1	5
1	8
1	7
1	5
1	11
1	12
1	9
1	4
1	5
1	7
1	101
1	5
1	12
1	8
1	6
1	4
1	101
1	5
1	4
1	4
1	102
1	11
1	8
1	13
1	101
1	7
1	9
1	8
1	4
1	6
1	7
1	8
1	6
1	5
1	11
1	5
1	6
1	7
1	7
1	6
1	101
1	5
1	5
1	102
1	12
1	10
1	7
1	8
1	8
1	3
1	104
1	6
1	12
1	4
1	6
1	101
1	101
1	6
1	8
1	6
1	4
1	103
1	6
1	101
1	9
1	5
1	6
1	8
1	7
1	6
1	5
1	5
1	101
1	7
1	7
1	10
1	7
1	8
1	4
1	101
1	101
1	6
1	11
1	102
1	101
1	6
1	9
1	12
2	3
2	3
2	3
2	3
2	3
2	3
2	3
2	3
2	4
2	3
2	5
2	3
2	7
2	6
2	5
2	5
2	3
2	3
2	3
2	3
2	4
2	5
2	3
2	3
2	3
2	3
2	3
2	3
2	6
2	9
2	4
2	3
2	3
2	9
2	3
2	3
2	3
2	3
2	3
2	3
2	6
2	5
2	7
2	6
2	3
2	3
2	5
2	4
2	3
2	3
2	4
2	3
2	5
2	5
2	6
2	3
2	3
2	3
2	3
2	3
2	4
2	3
2	3
2	3
2	6
2	3
2	3
2	4
2	4
2	4
2	4
2	3
2	3
2	3
2	3
2	6
2	3
2	3
2	4
2	3
2	5
2	3
2	4
3	4
3	4
3	4
3	4
3	4
3	4
3	4
3	4
3	4
3	5
3	4
3	5
3	4
3	4
3	4
3	4
3	4
3	4
3	4
3	4
3	4
3	4
3	4
3	4
3	4
3	4
3	4
3	4
3	4
3	4
3	4
3	4
3	5
3	4
3	4
3	4
3	4
4	5
4	5
4	5
4	5
4	6
4	5
4	5
4	5
4	5
4	5
4	5
4	5
4	5
4	5
4	5
4	5
4	5
4	6
4	5
4	5
4	5
4	5
4	5
5	6
5	6
5	6
5	6
5	6
5	6
5	6
5	6
5	6
5	6
5	6
6	7
6	7
6	7
6	7
6	7
6	7
6	7
6	7
7	8
7	8
7	8
7	8
7	8
7	8
7	8
8	9
9	10
9	10
10	11
11	12
11	12
100	101
