1	230
1	37
1	37
1	37
1	37
1	37
1	37
1	37
1	37
1	37
1	37
1	37
1	37
1	41
1	37
1	37
1	37
1	6
1	37
1	37
1	38
1	37
1	39
1	37
1	37
1	7
1	6
1	37
1	4
1	37
1	37
1	37
1	38
1	37
1	37
1	37
1	37
1	37
2	3
2	3
2	3
2	38
2	4
2	4
3	4
5	6
36	37
