8	6124
8	6124
14	6124
328	6124
328	6124
328	6124
328	6124
328	6124
328	6124
328	6124
328	6124
328	6124
328	6124
328	6124
328	6124
328	6124
329	6124
329	6124
329	6124
329	6124
329	6124
329	6124
329	6124
330	6124
330	6124
330	6124
330	6124
330	6124
330	6124
331	6124
331	6124
333	6124
334	6124
334	6124
336	6124
