1	6124
1	1002
1	1001
1	1001
1	1001
1	1001
1	1001
1	1001
1	1001
1	6124
1	1001
1	1001
1	1001
1	1001
1	1003
1	1001
1	1001
1	1001
1	17
1	1001
1	1001
1	1001
1	1001
1	1001
1	1002
1	1001
1	1001
1	1001
1	1001
1	19
1	1001
1	1001
1	1001
1	1001
1	1001
1	1001
1	1001
1	18
1	1001
1	20
1	1001
1	6124
1	1001
1	1001
1	1001
1	1001
1	1001
1	1001
1	20
1	1001
1	20
1	1001
1	1002
1	1001
1	1001
1	1001
1	1001
1	1001
1	15
1	1004
1	6124
1	32
1	1001
1	1001
1	1002
1	10
1	6124
1	1001
1	1005
1	1001
1	1001
1	1001
1	17
1	25
1	6124
1	1001
1	10
1	12
1	14
1	17
1	18
1	1001
1	16
1	20
1	1001
1	1001
1	1001
1	1001
1	1001
1	1001
1	1001
1	1001
1	1001
1	1001
1	1004
1	16
1	18
1	19
1	19
1	1001
1	1001
1	1001
1	73
1	1001
1	72
1	30
1	1002
1	1001
1	1001
1	1001
1	1001
1	1001
1	1001
1	1001
1	14
1	1001
1	75
1	1001
1	1001
1	1001
1	1005
1	17
1	1001
1	1001
1	12
1	14
1	1001
1	1001
1	1001
1	1001
1	75
1	1001
1	1002
1	1002
1	6
1	1001
1	1001
1	1001
1	1001
1	1001
1	1001
1	1001
1	13
1	1001
1	1001
1	12
1	1001
1	12
1	19
1	19
1	10
1	19
1	1002
1	1001
1	15
1	1001
1	15
1	1001
1	1002
1	1001
1	1001
1	1001
1	14
1	20
1	1002
1	1001
1	11
1	17
1	72
1	8
1	1001
1	15
1	1001
1	1001
1	13
1	2
1	1001
1	1001
1	1001
1	1001
1	1001
1	19
1	1001
1	15
1	1001
1	1001
1	16
1	1001
1	13
1	11
1	1001
1	1001
1	1001
1	1001
1	1001
1	1002
1	6124
1	13
1	1001
1	1001
1	1001
1	1001
1	10
1	13
1	1001
1	1001
1	1001
1	16
1	1001
1	1001
1	2
1	1001
1	12
1	1001
1	1001
1	1001
1	1001
1	1003
1	1001
1	18
1	1001
1	15
1	72
1	1001
1	18
1	1001
1	1001
1	1001
1	72
1	1002
1	72
1	30
1	1001
1	72
1	1001
1	1001
1	5
1	1001
1	10
1	6
1	1001
1	1007
1	12
1	15
1	1001
1	1001
1	11
1	11
1	1001
1	13
1	1001
1	1001
1	1001
1	1001
1	30
1	1001
1	1002
1	1001
1	10
1	13
1	1001
1	1001
1	73
1	1001
1	15
1	1001
1	1001
1	1001
1	6
1	1001
1	1001
1	1001
1	8
1	1001
1	1001
1	13
1	1001
1	15
1	18
1	6124
1	6
1	1001
1	12
1	1001
1	1001
1	15
1	1001
1	72
1	16
1	36
1	1001
1	1001
1	1001
1	16
1	13
1	6
1	8
1	13
1	12
1	1001
1	30
1	1001
1	1001
1	1001
1	17
1	1001
1	9
1	72
1	1001
1	1001
1	1001
1	15
1	12
1	1001
1	1001
1	1002
1	1001
1	6
1	1001
1	12
1	15
1	1001
1	1001
1	4
1	14
1	1001
1	1001
1	9
1	1001
1	1001
1	34
1	1001
1	1001
1	30
1	7
1	1001
1	1001
1	18
1	1001
1	72
1	34
1	20
1	1001
1	7
1	1003
1	13
1	1001
1	1001
1	6124
1	19
1	1003
1	14
1	13
1	1001
1	8
1	4
1	1001
1	8
1	1001
1	1001
1	1001
1	1001
1	9
1	1001
1	15
1	1001
1	1002
1	1001
1	12
1	4
1	1001
1	14
1	1001
1	6
1	1001
1	1001
1	1001
1	18
1	10
1	1001
1	1001
1	1001
1	1001
1	1001
1	1001
1	5
1	1001
1	1001
1	1001
1	34
1	13
1	1001
1	1001
1	1001
1	1002
1	1001
1	72
1	1001
1	1001
1	1001
1	1001
1	1001
1	1001
1	1001
1	1001
1	1001
1	1001
1	1001
1	1001
1	1001
1	6
1	1001
1	1001
1	5
1	1001
1	1002
1	1001
1	1001
1	1001
1	13
1	12
1	1001
1	1001
1	9
1	72
1	1001
1	1001
1	18
1	1001
1	1001
1	11
1	16
1	19
1	17
1	1001
1	1001
1	1001
1	1001
1	1001
1	1001
1	34
1	1001
1	1001
1	1001
1	1001
1	1001
1	1001
1	1001
1	1001
1	18
1	1002
1	1004
1	1001
1	1002
1	11
1	17
1	1001
1	1001
1	18
1	10
1	1001
1	13
1	1001
1	11
1	1001
1	1001
1	34
1	1001
1	1001
1	13
1	15
1	1001
1	21
1	1001
1	1001
1	34
1	2
1	1001
1	1001
1	9
1	1001
1	1001
1	1001
1	1001
1	1001
1	1001
1	18
1	72
1	6
1	1001
1	1001
1	8
1	30
1	14
1	11
1	72
1	34
1	14
1	1001
1	18
1	1002
1	1001
1	1001
1	1001
1	1001
1	1001
1	72
1	1001
1	1001
1	30
1	1001
1	9
1	1001
1	1001
1	34
1	8
1	1001
1	1001
1	1001
1	1001
1	18
1	6
1	16
1	1001
1	1002
1	13
1	6124
1	1001
1	1001
1	1001
1	4
1	5
1	1001
1	1001
1	17
1	34
1	1001
1	1001
1	18
1	1001
1	1001
1	1001
1	72
1	1001
1	1001
1	30
1	6
1	1001
1	1001
1	1001
1	1001
1	1001
1	12
1	34
1	1002
1	5
1	1001
1	1001
1	1001
1	1001
1	1001
1	1001
1	1001
1	72
1	17
1	1001
1	1001
1	1001
1	1001
1	1001
1	1001
1	1001
1	74
1	9
1	1001
1	7
1	1001
1	1001
1	1001
1	1001
1	1001
1	1001
1	1001
1	1001
1	1001
1	31
1	6124
1	1003
1	1001
1	1001
1	19
1	12
1	1001
1	13
1	1001
1	1002
1	13
1	8
1	13
1	1001
1	1001
1	1001
1	1002
1	1001
1	1001
1	1001
1	1001
1	30
1	1002
1	30
1	1001
1	1001
1	1001
1	17
1	1001
1	1001
1	75
1	13
1	17
1	1002
1	1001
1	1001
1	1001
1	1002
1	16
1	1001
1	1001
1	11
1	1001
1	1001
1	1001
1	6
1	1001
1	1001
1	10
1	34
1	1001
1	1001
1	34
1	13
1	1001
1	1001
1	19
1	17
1	19
1	1001
1	1001
1	1001
1	72
1	17
1	1001
1	6
1	1001
1	1001
1	1001
1	1001
1	1001
1	1001
1	1001
1	6124
1	1001
1	11
1	10
1	1001
1	1001
1	1001
1	1002
1	1001
1	1001
1	1001
1	5
1	1001
1	19
1	1001
1	1001
1	1001
1	1001
1	1001
1	1001
1	12
1	34
1	5
1	1001
1	13
1	14
1	14
1	1001
1	1001
1	1001
1	30
1	1001
1	1001
1	1001
1	9
1	8
1	1001
1	7
1	9
1	1001
1	1001
1	1001
1	30
1	12
1	1001
1	1001
1	1001
1	17
1	1001
1	1001
1	1001
1	1001
1	1001
1	1002
1	1001
1	17
1	12
1	1001
1	1001
1	1001
1	1001
1	1002
1	1001
1	1001
1	1001
1	5
1	1001
1	1001
1	5
1	1001
1	1001
1	1001
1	1001
1	15
1	6
1	1001
1	30
1	14
1	11
1	19
1	11
1	17
1	1001
1	1001
1	1001
1	1001
1	1001
1	1001
1	1001
1	11
1	1001
1	1001
1	1001
1	1001
1	34
1	13
1	8
1	1001
1	1001
1	17
1	12
1	1001
1	1001
1	1001
1	1001
1	15
1	1001
1	1001
1	1001
1	1001
1	1001
1	1001
1	1001
1	6
1	1002
1	72
1	14
1	2
1	1001
1	1001
1	1001
1	1001
1	1001
1	1001
1	11
1	1001
1	1001
1	19
1	6
1	1001
1	1001
1	17
1	1001
1	1001
1	5
1	18
1	1001
1	17
1	1001
1	1001
1	1001
1	1001
1	12
1	72
1	1001
1	1001
1	1001
1	5
1	8
1	1001
1	1001
1	1001
1	11
1	1001
1	17
1	1001
1	1001
1	6124
1	7
1	72
1	1001
1	1001
1	1001
1	8
1	18
1	1001
1	34
1	1001
1	1001
1	1001
1	1002
1	1001
1	1001
1	1001
1	4
1	1001
1	1001
1	11
1	1001
1	11
1	1001
1	5
1	1001
1	13
1	1001
1	18
1	72
1	1001
1	12
1	1001
1	1001
1	14
1	1001
1	13
1	30
1	15
1	1001
1	1001
1	1001
1	13
1	1001
1	1001
1	1001
1	8
1	8
1	34
1	1001
1	1001
1	1001
1	1001
1	1001
1	1002
1	9
1	1001
1	1001
1	1001
1	1001
1	1001
1	13
1	1001
1	1001
1	12
1	1001
1	1001
1	1001
1	12
1	1001
1	9
1	1001
1	1001
1	1001
1	1003
1	1001
1	1001
1	1001
1	8
1	8
1	1001
1	1001
1	1001
1	5
1	19
1	1001
1	1001
1	1001
1	1001
1	6
1	15
1	1001
1	1001
1	14
1	11
1	1001
1	1001
1	6
1	1001
1	12
1	4
1	1001
1	1001
1	1001
1	13
1	1001
1	1001
1	1001
1	6
1	1001
1	1001
1	5
1	13
1	1001
1	1001
1	15
1	1001
1	1001
1	1001
1	72
1	1001
1	2
1	72
1	1001
1	1001
1	1001
1	1001
1	1001
1	1001
1	1001
1	1001
1	1001
1	1001
1	1001
1	15
1	73
1	15
1	1001
1	1001
1	1002
1	1001
1	1001
1	18
1	1001
1	1001
1	1001
1	4
1	12
1	1001
1	1001
1	1001
1	15
1	1001
1	1001
1	1001
1	72
1	13
1	1001
1	34
1	16
1	1001
1	3
1	1001
1	1001
1	1001
1	1001
1	16
1	15
1	1001
1	2
1	1001
1	11
1	1001
1	72
1	1001
1	1001
1	1001
1	1001
1	2
1	4
1	12
1	12
1	1001
1	1001
1	1001
1	11
1	1001
1	16
1	12
1	1001
1	1001
1	1001
1	1001
1	15
1	14
1	9
1	1001
1	1001
1	1001
1	1001
1	34
1	8
1	16
1	1001
1	1001
1	1001
1	34
1	1001
1	1001
1	1001
1	30
1	10
1	8
1	15
1	74
1	1001
1	1001
1	1001
1	1001
1	31
1	1001
1	1001
1	1001
1	1001
1	1001
1	1001
1	9
1	5
1	1001
1	1001
1	72
1	1001
1	1001
1	1001
1	1001
1	1001
1	8
1	1001
1	1001
1	1001
1	1001
1	1001
1	1001
1	72
1	1001
1	30
1	11
1	14
1	1001
1	17
1	11
1	1001
1	1001
1	1001
1	1001
1	18
1	7
1	11
1	1001
1	1001
1	1001
1	1001
1	2
1	14
1	1001
1	1001
1	1001
1	7
1	1001
1	34
1	1001
1	11
1	1001
1	1001
1	1001
1	1001
1	1001
1	1001
1	1002
1	6
1	13
1	1001
1	13
1	1001
1	6
1	1001
1	1001
1	1001
1	1001
1	1001
1	1001
1	1001
1	1001
1	11
1	7
1	12
1	8
1	1001
1	1001
1	8
1	1001
1	1001
1	34
1	1001
1	10
1	1001
1	30
1	13
1	1001
1	19
1	1001
1	8
1	1001
1	12
1	1001
1	1001
1	19
1	8
1	73
1	9
1	1001
1	15
1	1001
1	1001
1	1001
1	1001
1	1001
1	1001
1	1001
1	1001
1	1001
1	1001
1	1001
1	1001
1	2
1	1002
1	1001
1	1001
1	11
1	13
1	2
1	1001
1	1001
1	1001
1	1001
1	1001
1	1001
1	1001
1	15
1	1001
1	1001
1	16
1	1001
1	1001
1	6
1	2
1	1001
1	1001
1	1001
1	1001
1	1001
1	1001
1	1001
1	16
1	1001
1	12
1	1001
1	34
1	1002
1	18
1	8
1	1001
1	1001
1	8
1	1001
1	1001
1	1001
1	9
1	18
1	1001
1	1001
1	6
1	72
1	4
1	1001
1	1001
1	1001
1	1001
1	17
1	1001
1	6124
1	8
1	1001
1	13
1	1001
1	1001
1	1001
1	1001
1	1001
1	8
1	11
1	1002
1	1001
1	1001
1	30
1	10
1	18
1	1001
1	1001
1	72
1	1001
1	1001
1	1001
1	72
1	1001
1	1001
1	8
1	72
1	72
1	6
1	72
1	7
1	1001
1	5
1	1001
1	1001
1	17
1	1001
1	1001
1	1001
1	7
1	1001
1	1001
1	72
1	12
1	1001
1	1001
1	1001
1	1001
1	1001
1	1001
1	5
1	18
1	1001
1	1001
1	1001
1	1001
1	1001
1	1001
1	1001
1	12
1	6
1	5
1	1001
1	1001
1	1001
1	1001
1	1001
1	8
1	11
1	1001
1	1001
1	12
1	1001
1	1001
1	8
1	6
1	1001
1	8
1	12
1	2
1	12
1	1001
1	1001
1	1001
1	1001
1	1001
1	1001
1	1001
1	1001
1	15
1	1001
1	8
1	1001
1	1001
1	1001
1	1002
1	1002
1	8
1	1001
1	72
1	1001
1	7
1	1001
1	1001
1	1001
1	1001
1	1001
1	1001
1	30
1	1001
1	32
1	1001
1	12
1	14
1	1001
1	1001
1	1001
1	4
1	1002
1	6
1	1001
1	1001
1	1001
1	1001
1	1001
1	1001
1	1001
1	9
2	11
2	11
2	13
2	9
2	8
2	9
2	3
2	6
2	7
2	4
2	73
2	3
2	5
2	3
2	11
2	1002
2	10
2	6
2	12
2	3
2	3
2	73
2	7
2	8
2	9
2	3
2	3
2	6124
2	6
2	3
2	1002
2	3
2	3
2	7
2	11
2	73
2	19
2	3
2	4
2	6
2	9
2	14
2	8
2	3
2	1002
2	19
2	7
2	7
2	3
2	8
2	9
2	3
2	35
2	3
2	6
2	12
2	7
2	4
2	3
2	73
2	73
2	4
2	4
2	3
2	3
2	6
2	11
2	4
2	9
2	4
2	20
2	3
2	12
2	3
2	3
2	4
2	3
2	6
2	3
2	5
2	3
2	6
2	1002
2	7
2	8
2	3
2	10
2	5
2	3
2	7
2	3
2	5
2	4
2	13
2	3
2	4
2	3
2	35
2	6
2	10
2	6
2	12
2	5
2	9
2	8
2	9
2	8
2	9
2	7
2	13
2	1002
2	8
2	4
2	6
2	3
2	3
2	9
2	3
2	7
2	3
2	18
2	13
2	35
2	73
2	5
2	4
2	12
2	8
2	4
2	14
2	8
2	4
2	4
2	73
2	9
2	3
2	35
2	3
2	8
2	73
2	3
2	5
2	4
2	3
2	6
2	4
2	3
2	14
2	6
2	8
2	3
2	3
2	9
2	5
2	6
2	5
2	4
2	4
2	6
2	4
2	7
2	5
2	3
2	3
2	3
2	13
2	3
2	7
2	5
2	31
2	6
2	5
2	31
2	6
2	9
2	4
2	3
2	3
2	3
2	16
2	3
2	8
2	13
2	3
2	8
2	7
2	4
2	6
2	4
2	4
2	4
2	3
2	3
2	16
2	6
2	4
2	3
2	3
2	3
2	3
2	3
2	4
2	3
2	7
2	3
2	74
2	8
2	3
2	3
3	8
3	5
3	4
3	5
3	4
3	5
3	5
3	4
3	5
3	4
3	5
3	4
3	5
3	5
3	4
3	6
3	4
3	5
3	5
3	4
3	4
3	5
3	5
3	4
3	6
3	4
3	4
3	5
3	6
3	5
3	8
3	6
3	4
3	4
3	4
3	4
3	4
3	4
3	5
3	5
3	4
3	6
3	5
3	4
3	5
3	10
3	4
3	5
3	4
3	4
3	4
3	5
3	5
3	4
4	6
4	5
4	5
4	5
4	5
4	5
4	5
4	5
4	5
4	5
4	5
4	5
4	5
4	5
4	5
4	5
4	6
4	5
4	7
4	7
4	5
4	5
4	5
4	14
4	5
4	5
4	5
4	5
4	5
4	5
4	5
4	5
4	7
4	16
4	5
5	6
5	6
5	6
5	6
5	6
5	7
5	6
5	6
5	6
5	6
5	6
5	6
5	6
5	6
5	6
5	7
6	7
6	7
6	8
6	9
6	7
6	7
6	7
6	8
6	7
7	8
7	8
7	8
7	8
7	8
7	8
7	8
7	8
7	8
7	8
8	9
8	9
8	9
8	9
9	10
9	10
10	11
10	11
10	11
10	11
10	11
11	12
11	12
11	12
11	12
11	12
11	12
12	13
12	13
12	13
12	13
13	14
14	15
14	15
14	15
15	16
16	17
16	17
17	18
17	18
18	19
29	30
33	34
71	72
1000	1001
