1	230
1	35
1	35
1	35
1	35
1	35
1	35
1	35
1	35
1	37
1	35
1	35
1	36
1	36
1	36
1	36
1	35
1	35
1	4
1	35
1	35
1	36
1	35
1	35
1	35
2	36
2	36
2	3
2	8
2	4
2	8
2	7
2	7
2	3
2	3
2	4
2	3
2	3
3	5
3	5
3	4
3	6
5	7
34	35
