6	6124
10	6124
11	6124
11	6124
13	6124
13	6124
13	6124
13	6124
13	6124
14	6124
14	6124
14	6124
15	6124
15	6124
16	6124
16	6124
16	6124
16	6124
17	6124
17	6124
17	6124
17	6124
17	6124
17	6124
17	6124
18	6124
18	6124
18	6124
19	6124
19	6124
19	6124
19	6124
19	6124
19	6124
19	6124
19	6124
19	6124
19	6124
19	6124
19	6124
19	6124
20	6124
20	6124
21	6124
21	6124
21	6124
21	6124
21	6124
21	6124
21	6124
22	6124
22	6124
22	6124
23	6124
23	6124
24	6124
24	6124
24	6124
24	6124
24	6124
25	6124
26	6124
26	6124
26	6124
27	6124
29	6124
32	6124
53	6124
54	6124
54	6124
54	6124
54	6124
54	6124
54	6124
54	6124
55	6124
55	6124
56	6124
56	6124
56	6124
56	6124
57	6124
58	6124
58	6124
58	6124
59	6124
60	6124
60	6124
61	6124
62	6124
68	6124
633	6124
633	6124
633	6124
633	6124
633	6124
633	6124
633	6124
633	6124
633	6124
633	6124
633	6124
633	6124
633	6124
633	6124
633	6124
633	6124
633	6124
633	6124
633	6124
633	6124
633	6124
633	6124
633	6124
633	6124
633	6124
633	6124
633	6124
633	6124
633	6124
633	6124
633	6124
633	6124
633	6124
633	6124
633	6124
633	6124
633	6124
633	6124
633	6124
633	6124
633	6124
633	6124
633	6124
633	6124
633	6124
633	6124
633	6124
633	6124
634	6124
634	6124
634	6124
634	6124
634	6124
634	6124
634	6124
634	6124
634	6124
634	6124
634	6124
634	6124
634	6124
634	6124
634	6124
634	6124
634	6124
634	6124
634	6124
634	6124
634	6124
634	6124
634	6124
634	6124
634	6124
634	6124
634	6124
634	6124
634	6124
634	6124
634	6124
634	6124
634	6124
634	6124
635	6124
635	6124
635	6124
635	6124
635	6124
635	6124
635	6124
635	6124
635	6124
635	6124
635	6124
635	6124
635	6124
635	6124
636	6124
636	6124
636	6124
636	6124
636	6124
636	6124
636	6124
636	6124
636	6124
636	6124
636	6124
637	6124
637	6124
637	6124
637	6124
637	6124
637	6124
638	6124
638	6124
638	6124
638	6124
639	6124
639	6124
639	6124
640	6124
640	6124
640	6124
641	6124
641	6124
641	6124
641	6124
641	6124
642	6124
642	6124
642	6124
645	6124
646	6124
646	6124
647	6124
648	6124
682	6124
