6	6124
6	6124
7	6124
7	6124
8	6124
10	6124
11	6124
11	6124
12	6124
12	6124
12	6124
13	6124
13	6124
13	6124
14	6124
14	6124
14	6124
15	6124
15	6124
15	6124
16	6124
16	6124
17	6124
17	6124
17	6124
17	6124
17	6124
17	6124
18	6124
18	6124
18	6124
18	6124
18	6124
18	6124
18	6124
18	6124
18	6124
18	6124
18	6124
18	6124
19	6124
19	6124
20	6124
20	6124
20	6124
20	6124
20	6124
21	6124
21	6124
21	6124
21	6124
21	6124
22	6124
22	6124
22	6124
22	6124
22	6124
22	6124
22	6124
22	6124
22	6124
22	6124
22	6124
23	6124
23	6124
23	6124
23	6124
23	6124
23	6124
24	6124
24	6124
24	6124
24	6124
24	6124
24	6124
25	6124
25	6124
25	6124
25	6124
26	6124
26	6124
27	6124
28	6124
28	6124
28	6124
28	6124
29	6124
30	6124
30	6124
1270	6124
1270	6124
1270	6124
1270	6124
1270	6124
1270	6124
1270	6124
1270	6124
1270	6124
1270	6124
1270	6124
1270	6124
1270	6124
1270	6124
1270	6124
1270	6124
1270	6124
1270	6124
1270	6124
1270	6124
1270	6124
1270	6124
1270	6124
1270	6124
1270	6124
1270	6124
1270	6124
1270	6124
1270	6124
1270	6124
1270	6124
1270	6124
1270	6124
1270	6124
1270	6124
1270	6124
1270	6124
1270	6124
1270	6124
1270	6124
1270	6124
1270	6124
1270	6124
1270	6124
1270	6124
1270	6124
1270	6124
1270	6124
1270	6124
1270	6124
1271	6124
1271	6124
1271	6124
1271	6124
1271	6124
1271	6124
1271	6124
1271	6124
1271	6124
1271	6124
1271	6124
1271	6124
1271	6124
1271	6124
1271	6124
1271	6124
1271	6124
1271	6124
1271	6124
1271	6124
1271	6124
1271	6124
1271	6124
1271	6124
1271	6124
1271	6124
1271	6124
1271	6124
1271	6124
1272	6124
1272	6124
1272	6124
1272	6124
1272	6124
1272	6124
1272	6124
1272	6124
1272	6124
1272	6124
1272	6124
1272	6124
1272	6124
1273	6124
1273	6124
1273	6124
1273	6124
1273	6124
1273	6124
1273	6124
1274	6124
1274	6124
1274	6124
1274	6124
1274	6124
1274	6124
1274	6124
1274	6124
1274	6124
1275	6124
1275	6124
1275	6124
1275	6124
1275	6124
1275	6124
1275	6124
1275	6124
1276	6124
1276	6124
1276	6124
1277	6124
1277	6124
1278	6124
1278	6124
1278	6124
1278	6124
1280	6124
1280	6124
1281	6124
1282	6124
1282	6124
1283	6124
1283	6124
1283	6124
1284	6124
1284	6124
1286	6124
1286	6124
1286	6124
1286	6124
1286	6124
1287	6124
1287	6124
1288	6124
