8	6124
11	6124
11	6124
12	6124
14	6124
14	6124
14	6124
14	6124
14	6124
14	6124
14	6124
15	6124
15	6124
15	6124
15	6124
15	6124
15	6124
15	6124
15	6124
15	6124
16	6124
16	6124
16	6124
16	6124
16	6124
17	6124
17	6124
17	6124
17	6124
17	6124
17	6124
17	6124
18	6124
18	6124
18	6124
18	6124
18	6124
19	6124
19	6124
19	6124
19	6124
19	6124
19	6124
19	6124
19	6124
20	6124
20	6124
20	6124
20	6124
20	6124
21	6124
21	6124
21	6124
21	6124
21	6124
21	6124
21	6124
22	6124
22	6124
22	6124
23	6124
23	6124
23	6124
23	6124
23	6124
23	6124
24	6124
24	6124
24	6124
25	6124
26	6124
26	6124
26	6124
26	6124
27	6124
27	6124
28	6124
29	6124
29	6124
30	6124
30	6124
30	6124
30	6124
31	6124
31	6124
32	6124
32	6124
33	6124
33	6124
34	6124
34	6124
34	6124
35	6124
35	6124
35	6124
35	6124
35	6124
37	6124
37	6124
37	6124
37	6124
38	6124
38	6124
38	6124
39	6124
39	6124
40	6124
40	6124
40	6124
44	6124
1395	6124
1395	6124
1395	6124
1395	6124
1395	6124
1395	6124
1395	6124
1395	6124
1395	6124
1395	6124
1395	6124
1395	6124
1395	6124
1395	6124
1395	6124
1395	6124
1395	6124
1395	6124
1395	6124
1395	6124
1395	6124
1395	6124
1395	6124
1395	6124
1395	6124
1395	6124
1395	6124
1395	6124
1395	6124
1395	6124
1395	6124
1395	6124
1395	6124
1395	6124
1395	6124
1395	6124
1395	6124
1395	6124
1395	6124
1395	6124
1395	6124
1395	6124
1395	6124
1395	6124
1395	6124
1395	6124
1395	6124
1395	6124
1395	6124
1395	6124
1395	6124
1395	6124
1395	6124
1395	6124
1395	6124
1395	6124
1395	6124
1395	6124
1395	6124
1395	6124
1395	6124
1395	6124
1395	6124
1395	6124
1395	6124
1395	6124
1395	6124
1395	6124
1395	6124
1395	6124
1395	6124
1395	6124
1395	6124
1395	6124
1395	6124
1395	6124
1395	6124
1395	6124
1395	6124
1395	6124
1395	6124
1395	6124
1395	6124
1395	6124
1395	6124
1395	6124
1395	6124
1395	6124
1395	6124
1396	6124
1396	6124
1396	6124
1396	6124
1396	6124
1396	6124
1396	6124
1396	6124
1396	6124
1396	6124
1396	6124
1396	6124
1396	6124
1396	6124
1396	6124
1396	6124
1396	6124
1396	6124
1396	6124
1396	6124
1396	6124
1396	6124
1396	6124
1396	6124
1396	6124
1396	6124
1396	6124
1396	6124
1396	6124
1396	6124
1396	6124
1396	6124
1396	6124
1396	6124
1396	6124
1396	6124
1396	6124
1396	6124
1397	6124
1397	6124
1397	6124
1397	6124
1397	6124
1397	6124
1397	6124
1397	6124
1397	6124
1397	6124
1397	6124
1397	6124
1397	6124
1397	6124
1397	6124
1397	6124
1397	6124
1397	6124
1397	6124
1398	6124
1398	6124
1398	6124
1398	6124
1398	6124
1398	6124
1398	6124
1398	6124
1398	6124
1398	6124
1398	6124
1398	6124
1398	6124
1398	6124
1398	6124
1398	6124
1398	6124
1398	6124
1398	6124
1399	6124
1399	6124
1399	6124
1399	6124
1399	6124
1399	6124
1399	6124
1399	6124
1399	6124
1400	6124
1400	6124
1400	6124
1400	6124
1400	6124
1401	6124
1401	6124
1401	6124
1401	6124
1401	6124
1401	6124
1402	6124
1402	6124
1402	6124
1403	6124
1403	6124
1403	6124
1403	6124
1403	6124
1404	6124
1404	6124
1405	6124
1405	6124
1405	6124
1405	6124
1405	6124
1405	6124
1406	6124
1406	6124
1406	6124
1407	6124
1407	6124
1407	6124
1407	6124
1411	6124
1417	6124
1419	6124
1419	6124
1425	6124
