9	6124
9	6124
10	6124
11	6124
11	6124
11	6124
12	6124
12	6124
12	6124
13	6124
14	6124
14	6124
14	6124
15	6124
15	6124
15	6124
16	6124
16	6124
16	6124
16	6124
17	6124
17	6124
17	6124
18	6124
19	6124
19	6124
20	6124
20	6124
20	6124
21	6124
21	6124
22	6124
22	6124
23	6124
26	6124
38	6124
39	6124
39	6124
39	6124
40	6124
40	6124
42	6124
42	6124
43	6124
44	6124
44	6124
45	6124
45	6124
45	6124
45	6124
46	6124
46	6124
46	6124
46	6124
46	6124
47	6124
47	6124
50	6124
50	6124
50	6124
55	6124
757	6124
757	6124
757	6124
757	6124
757	6124
757	6124
757	6124
757	6124
757	6124
757	6124
757	6124
757	6124
757	6124
757	6124
757	6124
757	6124
757	6124
757	6124
757	6124
757	6124
757	6124
757	6124
757	6124
757	6124
757	6124
757	6124
757	6124
757	6124
757	6124
757	6124
757	6124
757	6124
757	6124
757	6124
757	6124
757	6124
757	6124
757	6124
757	6124
757	6124
757	6124
757	6124
758	6124
758	6124
758	6124
758	6124
758	6124
758	6124
758	6124
758	6124
758	6124
758	6124
758	6124
758	6124
759	6124
759	6124
759	6124
759	6124
759	6124
759	6124
759	6124
759	6124
759	6124
760	6124
760	6124
760	6124
760	6124
760	6124
760	6124
760	6124
761	6124
761	6124
761	6124
761	6124
761	6124
761	6124
761	6124
762	6124
762	6124
763	6124
763	6124
763	6124
764	6124
764	6124
767	6124
768	6124
769	6124
774	6124
791	6124
796	6124
