8	6124
22	6124
24	6124
36	6124
36	6124
36	6124
38	6124
53	6124
358	6124
358	6124
358	6124
358	6124
358	6124
358	6124
358	6124
358	6124
358	6124
358	6124
358	6124
358	6124
358	6124
358	6124
358	6124
358	6124
358	6124
358	6124
358	6124
358	6124
358	6124
358	6124
358	6124
358	6124
358	6124
358	6124
358	6124
358	6124
358	6124
358	6124
358	6124
358	6124
358	6124
358	6124
358	6124
359	6124
359	6124
359	6124
359	6124
359	6124
359	6124
359	6124
359	6124
359	6124
359	6124
359	6124
359	6124
359	6124
359	6124
360	6124
360	6124
360	6124
360	6124
360	6124
360	6124
360	6124
361	6124
362	6124
364	6124
365	6124
372	6124
376	6124
389	6124
