1	6124
1	1374
1	14
1	1373
1	14
1	1373
1	1373
1	12
1	1373
1	1373
1	15
1	1373
1	1373
1	1373
1	1373
1	1374
1	12
1	1373
1	1373
1	14
1	1373
1	13
1	1373
1	6124
1	36
1	18
1	1373
1	12
1	1373
1	1373
1	12
1	13
1	22
1	1373
1	1373
1	21
1	18
1	1373
1	1373
1	12
1	1373
1	1373
1	1374
1	1373
1	1374
1	1373
1	1373
1	1373
1	1373
1	6124
1	1373
1	1374
1	24
1	1373
1	1373
1	1373
1	1373
1	13
1	19
1	13
1	18
1	1373
1	6
1	1373
1	13
1	1373
1	1373
1	1373
1	11
1	18
1	1373
1	1373
1	1373
1	1373
1	1373
1	28
1	1373
1	1373
1	1373
1	1373
1	1373
1	1373
1	1376
1	1373
1	12
1	1373
1	1373
1	12
1	1373
1	13
1	26
1	1373
1	1373
1	1373
1	21
1	1373
1	1373
1	1373
1	1373
1	1373
1	1373
1	1373
1	6124
1	14
1	21
1	1373
1	1373
1	1373
1	11
1	22
1	1373
1	11
1	25
1	16
1	14
1	1373
1	12
1	1374
1	1373
1	10
1	1373
1	1375
1	1373
1	1374
1	1373
1	1373
1	1373
1	1373
1	27
1	1373
1	1373
1	1373
1	1373
1	22
1	6124
1	1373
1	1373
1	12
1	1373
1	1373
1	1373
1	1373
1	20
1	1373
1	1373
1	1373
1	1373
1	1373
1	1373
1	14
1	1373
1	1373
1	1373
1	1373
1	11
1	1373
1	1373
1	1373
1	1373
1	15
1	5
1	1373
1	19
1	1373
1	1374
1	1373
1	4
1	1373
1	9
1	20
1	1373
1	1373
1	1373
1	21
1	6124
1	11
1	1374
1	1373
1	1373
1	1373
1	1373
1	1373
1	10
1	1373
1	1374
1	1374
1	1373
1	1377
1	2
1	15
1	1373
1	1373
1	1374
1	1373
1	1373
1	11
1	20
1	6124
1	1373
1	1373
1	1373
1	1375
1	14
1	1373
1	1373
1	1373
1	1373
1	1373
1	1373
1	1373
1	15
1	1373
1	13
1	12
1	1373
1	1374
1	1373
1	1373
1	1373
1	1373
1	1373
1	24
1	1373
1	1373
1	1373
1	1373
1	1373
1	1373
1	1373
1	1373
1	1373
1	1373
1	1373
1	21
1	1373
1	1373
1	1373
1	1373
1	14
1	1373
1	18
1	1373
1	1373
1	1373
1	1373
1	1373
1	1373
1	1373
1	18
1	1373
1	1373
1	25
1	26
1	11
1	1373
1	1373
1	1373
1	14
1	1373
1	15
1	39
1	9
1	8
1	1373
1	1373
1	1373
1	10
1	1373
1	1373
1	27
1	35
1	1373
1	18
1	1373
1	1373
1	1373
1	11
1	1375
1	1373
1	1373
1	1373
1	1373
1	1373
1	1373
1	1373
1	1373
1	1373
1	24
1	1373
1	12
1	16
1	1373
1	1373
1	1373
1	12
1	1373
1	1373
1	13
1	1373
1	14
1	10
1	1373
1	7
1	10
1	1373
1	16
1	1373
1	1373
1	1373
1	1374
1	11
1	1373
1	1373
1	1373
1	1373
1	1373
1	1373
1	1373
1	1373
1	1373
1	1373
1	11
1	1373
1	12
1	1373
1	1373
1	11
1	1373
1	21
1	1373
1	1373
1	35
1	8
1	1373
1	1373
1	1373
1	1373
1	1373
1	1373
1	9
1	1373
1	7
1	18
1	1373
1	10
1	1373
1	17
1	1373
1	1373
1	1373
1	1373
1	1373
1	10
1	1373
1	1373
1	8
1	1373
1	1373
1	1373
1	1373
1	1373
1	24
1	1373
1	8
1	1373
1	1373
1	7
1	1374
1	1373
1	1373
1	1373
1	1373
1	1373
1	1373
1	7
1	7
1	1373
1	13
1	1373
1	1373
1	1373
1	12
1	1373
1	14
1	8
1	1373
1	1374
1	1373
1	1373
1	1373
1	1373
1	9
1	1373
1	1373
1	1373
1	1373
1	1374
1	1373
1	1373
1	1373
1	10
1	1373
1	1373
1	9
1	11
1	1373
1	11
1	1373
1	1373
1	1373
1	1373
1	1373
1	1373
1	1373
1	35
1	1373
1	5
1	28
1	1373
1	1373
1	1373
1	1373
1	1373
1	21
1	9
1	1373
1	1373
1	1373
1	1373
1	1373
1	1373
1	1373
1	1373
1	1373
1	1373
1	20
1	1373
1	1373
1	1373
1	1373
1	1373
1	1373
1	1373
1	1373
1	1373
1	9
1	6124
1	1373
1	1373
1	1373
1	6
1	1373
1	1373
1	1375
1	13
1	14
1	1373
1	1373
1	1373
1	20
1	1373
1	1373
1	10
1	6124
1	1373
1	1373
1	1373
1	1373
1	1373
1	1373
1	10
1	1373
1	1373
1	1373
1	21
1	1373
1	1374
1	1373
1	1373
1	6
1	16
1	1373
1	1373
1	14
1	1373
1	1373
1	1373
1	1373
1	1374
1	30
1	1373
1	1373
1	1373
1	1373
1	21
1	1376
1	1373
1	1373
1	1373
1	1373
1	1373
1	1373
1	1373
1	1373
1	1373
1	1373
1	2
1	1373
1	1373
1	1373
1	1373
1	1373
1	12
1	1373
1	1373
1	10
1	1375
1	1373
1	1373
1	14
1	1373
1	12
1	1373
1	27
1	1373
1	10
1	1373
1	1373
1	13
1	1373
1	32
1	1373
1	20
1	5
1	1373
1	1373
1	1373
1	1373
1	1373
1	17
1	1373
1	1373
1	7
1	11
1	1373
1	1373
1	1373
1	1373
1	1373
1	1373
1	20
1	11
1	8
1	1378
1	1373
1	1373
1	1373
1	1373
1	11
1	1373
1	4
1	1373
1	1373
1	11
1	1373
1	1373
1	7
1	12
1	1373
1	1373
1	1373
1	1373
1	1373
1	35
1	7
1	1373
1	1373
1	1373
1	1373
1	1373
1	1373
1	1373
1	1373
1	1373
1	1373
1	1373
1	6124
1	25
1	1373
1	1373
1	1373
1	15
1	8
1	9
1	1373
1	1373
1	37
1	4
1	1373
1	1374
1	1373
1	1373
1	1373
1	16
1	1373
1	1373
1	10
1	1373
1	6
1	1373
1	1373
1	1373
1	1373
1	1373
1	14
1	1373
1	1373
1	1373
1	7
1	1373
1	35
1	8
1	1373
1	10
1	1373
1	1373
1	10
1	1373
1	1373
1	20
1	1373
1	1373
1	1373
1	1373
1	1373
1	1373
1	1373
1	10
1	1373
1	2
1	1374
1	1373
1	1373
1	1373
1	5
1	6
1	18
1	1373
1	9
1	13
1	16
1	1373
1	1373
1	1373
1	18
1	1373
1	6
1	1373
1	11
1	21
1	1373
1	1374
1	1373
1	20
1	7
1	1373
1	21
1	1373
1	1373
1	1373
1	1373
1	1373
1	1373
1	1373
1	1373
1	6124
1	17
1	13
1	1373
1	11
1	1373
1	1373
1	1373
1	9
1	1374
1	10
1	1373
1	1373
1	1373
1	1373
1	17
1	6
1	1373
1	8
1	1373
1	1374
1	1373
1	6
1	5
1	1373
1	10
1	1373
1	1373
1	35
1	7
1	9
1	1373
1	8
1	1373
1	5
1	1373
1	1373
1	1373
1	11
1	6124
1	10
1	10
1	1373
1	4
1	1373
1	5
1	1373
1	8
1	1373
1	1373
1	1373
1	16
1	1373
1	6
1	8
1	1373
1	1373
1	4
1	1373
1	9
1	1373
1	1373
1	1373
1	1373
1	20
1	5
1	11
1	1373
1	11
1	8
1	1373
1	1373
1	1373
1	9
1	6
1	1373
1	9
1	9
1	22
1	1373
1	1373
1	1373
1	1373
1	1373
1	8
1	1373
1	11
1	6
1	1373
1	1373
1	1373
1	1373
1	1373
1	20
1	1373
1	8
1	1373
1	1373
1	1373
1	5
1	15
1	1373
1	11
1	1373
1	1373
1	1373
1	21
1	1373
1	1373
1	1373
1	10
1	1373
1	9
1	1373
1	1373
1	1373
1	1373
1	10
1	1373
1	1373
1	1373
1	7
1	1373
1	6
1	1373
1	1373
1	1373
1	1374
1	1373
1	9
1	5
1	1373
1	4
1	1373
1	1373
1	1373
1	1373
1	1373
1	1373
1	14
1	8
1	1373
1	1373
1	1373
1	1373
1	1373
1	1373
1	1373
1	1373
1	8
1	6
1	1374
1	1373
1	1373
1	17
1	6124
1	1373
1	10
1	1373
1	1373
1	1373
1	1373
1	1376
1	1373
1	1373
1	1373
1	1373
1	1374
1	1373
1	11
1	9
1	1373
1	1373
1	1373
1	24
1	9
1	1373
1	1373
1	1373
1	9
1	20
1	11
1	6
1	1373
1	1374
1	1373
1	16
1	11
1	11
1	4
1	1373
1	1373
1	1373
1	10
1	7
1	1373
1	24
1	11
1	9
1	6
1	1373
1	1373
1	1373
1	1373
1	14
1	1373
1	1373
1	1373
1	1373
1	1373
1	1373
1	1373
1	1373
1	14
1	1373
1	18
1	1373
1	1373
1	24
1	1373
1	1373
1	9
1	5
1	12
1	18
1	1373
1	1373
1	14
1	1373
1	1373
1	1373
1	1373
1	1373
1	7
1	1373
1	1373
1	1373
1	1373
1	21
1	1373
1	1373
1	1373
1	5
1	1373
1	1373
1	1373
1	1373
1	1373
1	1373
1	8
1	1373
1	1373
1	1373
1	1373
1	1373
1	20
1	8
1	11
1	7
1	8
1	1373
1	1373
1	1373
1	1373
1	18
1	18
1	21
1	1373
1	1373
1	10
1	1373
1	13
1	1373
1	1373
1	18
1	1373
1	1373
1	13
1	1373
1	3
1	1373
1	1374
1	1373
1	1373
1	1373
1	1373
1	1373
1	1373
1	20
1	1373
1	1373
1	1373
1	1373
1	14
1	1373
1	1373
1	1373
1	1374
1	1373
1	37
1	1374
1	10
1	1373
1	1373
1	1373
1	4
1	1373
1	1373
1	1373
1	1373
1	18
1	21
1	1373
1	1373
1	14
1	1373
1	1373
1	1373
1	12
1	1373
1	1373
1	1373
1	1373
1	1373
1	16
1	6
1	1373
1	1373
1	1373
1	1373
1	1373
1	13
1	1373
1	14
1	1373
1	35
1	1373
1	1373
1	17
1	1373
1	1373
1	1373
1	12
1	1373
1	6
1	13
1	5
1	1373
1	1373
1	1373
1	1373
1	1373
1	1373
1	6
1	5
1	1373
1	5
1	18
1	1373
1	1373
1	7
1	1373
1	1373
1	1373
1	6
1	1373
1	1373
1	10
1	1373
1	1373
1	1373
1	1373
1	1373
1	1373
1	11
1	1373
1	1373
1	1373
1	1373
1	1373
1	1373
1	1373
1	9
1	10
1	4
1	10
1	27
1	10
1	11
1	9
1	1373
1	1373
1	4
1	1373
1	1373
1	7
1	20
1	1373
1	1373
1	1373
1	10
1	1373
1	1373
1	1373
1	1374
1	8
1	1373
1	1373
1	1373
1	1373
1	35
1	6
1	1373
1	13
1	1373
1	1373
1	1373
1	1373
1	1373
1	1373
1	1373
1	1374
1	1373
1	1373
1	13
1	6
1	1373
1	2
1	1373
1	1373
1	1373
1	17
1	1373
1	27
1	1373
1	8
1	2
1	5
1	1373
1	20
1	1373
1	1373
1	1373
1	1373
1	1373
1	1373
1	12
1	12
1	6
1	27
1	1373
1	12
1	9
1	1373
1	1373
1	1373
1	1373
1	20
1	1373
1	1373
1	1373
1	1373
1	10
1	1373
1	6124
1	1373
1	1373
1	2
1	1374
1	1373
1	5
1	13
1	1373
1	24
1	1373
1	1373
1	1373
1	1373
1	1373
1	7
1	1373
1	1373
1	1373
1	7
1	1373
1	1373
1	1373
1	1373
1	11
1	17
1	1373
1	21
1	1373
1	1373
1	4
1	1373
1	1373
1	7
1	9
1	1373
1	1373
1	1373
1	6
1	5
1	1373
1	1374
1	1373
1	1373
1	1373
1	4
1	10
1	1373
1	1373
1	1373
1	17
1	1373
1	9
1	1373
1	1373
1	1373
1	1373
1	1373
1	1373
1	1373
1	1373
1	9
1	1373
1	1373
1	11
1	1373
1	1373
1	1373
1	1373
1	7
1	6
1	21
1	1373
1	1373
1	1373
1	1373
1	1373
1	1373
1	8
1	1373
1	1373
1	1373
1	1373
1	1373
1	24
1	7
1	1373
1	2
1	1373
1	1373
1	1373
1	1373
1	20
1	1374
1	21
1	1374
1	9
1	1373
1	1373
1	9
1	1373
1	7
1	1373
1	8
1	7
1	1373
1	1373
1	1373
1	5
1	13
1	10
1	1373
1	1373
1	1373
1	1373
1	1373
1	1373
1	1373
1	2
1	1373
1	1373
1	1373
1	1373
1	1373
1	11
1	1373
1	1373
1	20
1	1373
1	1373
1	1373
1	1373
1	1374
1	5
1	1373
1	1373
1	1373
1	16
1	6
1	13
1	1373
1	1373
1	1373
1	1373
1	1373
1	1373
1	1373
1	1373
1	1373
1	7
1	13
1	1373
1	1374
1	4
1	1373
1	1373
1	1373
1	21
1	7
1	1373
1	1373
1	1373
1	1373
1	1373
1	1373
1	1374
1	1373
1	1373
1	1373
1	35
1	1373
1	1373
1	9
1	1373
1	1373
1	6
1	1374
1	21
1	1373
1	1373
1	8
1	1373
1	1373
1	8
1	1373
1	1373
1	1373
1	14
1	1373
1	1373
1	1373
1	1373
1	9
1	14
1	11
1	3
1	12
1	1373
1	1373
1	1373
1	1373
1	1373
1	6
1	1373
1	19
1	10
1	1374
1	1373
1	1373
1	6
1	1373
1	4
1	1373
1	1373
1	1373
1	1373
1	1373
1	5
1	14
1	1373
1	12
1	35
1	1373
1	13
1	1373
1	1373
1	1373
1	1373
1	1373
1	1374
1	8
1	1373
1	8
1	1373
1	12
1	1373
1	8
1	1374
1	6
1	1373
1	1373
1	9
1	1373
1	1373
1	1373
1	1373
1	1373
1	21
1	1373
1	7
1	6
1	1373
1	1373
1	1373
1	1373
1	1373
1	24
1	6
1	1373
1	1373
1	1373
1	24
1	10
1	1373
1	1376
1	1373
1	7
1	1373
1	1373
1	1373
1	27
1	8
1	1373
1	9
1	1373
1	1373
1	1373
1	1373
1	1373
1	1373
1	13
1	1373
1	1373
1	1373
1	1373
1	1373
1	1373
1	10
1	1373
1	1373
1	20
1	1373
1	1373
1	1373
1	10
1	14
1	1373
1	1373
1	1373
1	21
1	1373
1	27
1	1373
1	11
1	12
1	9
1	1373
1	6
1	6
1	1373
1	1373
1	1373
1	1373
1	7
1	1373
1	8
1	1373
1	5
1	1373
1	20
1	35
1	1373
1	1373
1	1373
1	14
1	1373
1	13
1	1373
1	1373
1	1373
1	11
1	1373
1	1373
1	9
1	1373
1	3
1	1375
1	1373
1	1373
1	1373
1	1373
1	1373
1	1373
1	1373
1	1373
1	1373
1	1373
1	6
1	4
1	1373
1	20
1	1373
1	7
1	1373
1	1373
1	1373
1	1373
1	1373
1	28
1	1373
1	9
1	17
1	17
1	11
1	1374
1	1373
1	1373
1	1373
1	18
1	1373
1	1373
1	1373
1	1373
1	1373
1	13
1	7
1	1373
1	1373
1	1373
1	1373
1	8
1	11
1	1374
1	7
1	20
1	1373
1	1373
1	27
1	1373
1	1373
1	1373
1	8
1	1373
1	1373
1	1373
1	18
1	1373
1	1373
1	1373
1	20
1	1373
1	1373
1	20
1	7
1	1373
1	1373
1	6
1	1373
1	1373
1	1373
1	1373
1	6
1	12
1	1373
1	7
1	1373
1	8
1	1373
1	1373
1	1374
1	1373
1	1373
1	1373
1	1373
1	1373
1	8
1	1373
1	1373
1	6
1	9
1	1373
1	13
1	1373
1	1373
1	1373
1	12
1	1373
1	5
1	8
1	1373
1	1373
1	10
1	1373
1	7
1	1373
1	12
1	1373
1	1373
1	35
1	6
1	1373
1	1373
1	10
1	1373
1	24
1	6
1	1373
1	1373
1	9
1	1373
1	1373
1	11
1	7
1	1373
1	1373
1	1373
1	1373
1	1373
1	1373
1	4
1	13
1	1373
1	1373
1	1373
1	8
1	1373
1	4
1	1373
1	1373
1	1373
1	7
1	27
1	1373
1	11
1	1373
1	21
1	5
1	1373
1	8
1	1373
1	1373
1	21
1	12
1	7
1	24
1	22
1	7
1	1373
1	1373
1	21
1	1373
1	20
1	1373
1	1373
1	1373
1	10
1	8
1	12
1	1373
1	1373
1	1373
1	1373
1	1373
1	11
1	10
1	1373
1	1373
1	27
1	12
1	1373
1	11
1	1373
1	1373
1	24
1	1373
1	1373
1	1373
1	1373
1	1373
1	20
1	1373
1	12
1	1373
1	4
1	1373
1	1373
1	1373
1	6
1	1373
1	1373
1	1373
1	6
1	13
1	1373
1	7
1	1373
1	35
1	1374
1	1373
1	4
1	1373
1	1373
1	11
1	1373
1	6
1	1373
1	1373
1	1373
1	1373
1	1373
1	6
1	1373
1	1373
1	13
1	9
1	1373
1	7
1	1373
1	12
1	8
1	1373
1	1373
1	8
1	1373
1	1373
1	10
1	1373
1	11
1	24
1	1373
1	1373
1	11
1	1373
1	1373
1	1373
1	1373
1	1373
1	2
1	10
1	1373
1	1373
1	1373
1	1373
1	13
1	35
1	1373
1	1373
1	1373
1	8
1	11
1	21
1	1373
1	1373
1	11
1	1373
1	1373
1	7
1	1373
1	1373
1	7
1	1373
1	1373
1	1373
1	1373
1	1373
1	1373
1	1373
1	13
1	7
1	6
1	20
1	1373
1	1373
1	8
1	1373
1	9
1	14
1	1373
1	1373
1	1373
1	1373
1	1373
1	1373
1	8
1	25
1	1373
1	1373
1	1373
1	1373
1	1373
1	1373
1	1373
1	1373
1	21
1	35
1	9
1	6
1	1373
1	1373
1	11
1	13
1	20
1	1373
1	8
1	13
1	35
1	1373
1	1373
1	1373
1	7
1	1373
1	7
1	1373
1	1373
1	1373
1	1373
2	12
2	1374
2	7
2	6
2	3
2	9
2	3
2	3
2	3
2	9
2	3
2	15
2	3
2	1374
2	3
2	10
2	9
2	3
2	4
2	1374
2	21
2	6
2	3
2	7
2	3
2	10
2	7
2	8
2	3
2	3
2	3
2	3
2	3
2	7
2	3
2	6
2	3
2	22
2	11
2	5
2	3
2	3
2	5
2	4
2	5
2	7
2	6
2	13
2	3
2	6
2	3
2	6
2	5
2	7
2	5
2	1374
2	5
2	7
2	3
2	8
2	3
2	4
2	3
2	7
2	3
2	5
2	6
2	3
2	13
2	4
2	5
2	3
2	8
2	6
2	7
2	6
2	6
2	10
2	3
2	7
2	3
2	3
2	3
2	3
2	5
2	4
2	7
2	3
2	37
2	3
2	3
2	13
2	5
2	3
2	7
2	28
2	3
2	3
2	3
2	9
2	9
2	9
2	4
2	3
2	3
2	10
2	3
2	13
2	4
2	36
2	9
2	3
2	3
2	3
2	3
2	3
2	3
2	7
2	6
2	3
2	3
2	11
2	3
2	36
2	9
2	3
2	3
2	3
2	3
2	5
2	22
2	3
2	3
2	4
2	3
2	4
2	3
2	15
2	14
2	8
2	9
2	3
2	8
2	3
2	3
2	1374
2	4
2	1374
2	8
2	9
2	21
2	9
2	13
2	5
2	9
2	3
2	3
2	4
2	3
2	13
2	36
2	12
2	10
2	3
2	3
2	8
2	4
2	1374
2	3
2	3
2	3
2	3
2	6
2	3
2	4
2	6
2	5
2	8
2	3
2	28
2	6
2	3
2	25
2	3
2	3
2	8
2	3
2	1374
2	7
2	3
2	5
2	4
2	3
2	6
2	4
2	3
2	4
2	9
2	3
2	4
2	3
2	5
2	3
2	8
2	4
2	4
2	13
2	8
2	4
2	8
2	3
2	3
2	3
2	4
2	5
2	36
2	11
2	14
2	5
2	5
2	13
2	4
2	3
2	3
2	4
2	4
2	7
2	3
2	4
2	6
2	3
2	4
2	1374
2	6
2	7
2	3
2	3
2	4
2	3
2	9
2	4
2	7
2	12
2	4
2	3
2	4
2	4
2	4
2	4
2	14
2	5
2	3
2	3
2	3
2	4
2	4
2	6
2	4
2	4
2	15
2	4
2	3
2	4
2	4
2	5
2	4
2	9
2	4
2	4
2	4
2	4
2	3
2	3
2	3
2	4
2	11
2	7
2	4
2	3
2	7
2	4
2	3
2	3
2	3
2	3
2	3
2	3
2	4
2	4
2	13
2	6
2	5
2	13
2	3
2	3
2	4
2	3
2	6
2	4
3	5
3	11
3	4
3	4
3	4
3	5
3	7
3	4
3	4
3	4
3	5
3	4
3	4
3	4
3	4
3	4
3	5
3	4
3	4
3	4
3	4
3	4
3	5
3	5
3	4
3	4
3	4
3	4
3	7
3	4
3	4
3	4
3	8
3	6
3	4
3	7
3	4
3	4
3	8
3	4
3	6
3	5
3	4
3	4
3	5
3	4
3	4
3	5
3	5
3	4
3	6
3	5
3	4
3	5
3	5
3	4
3	4
3	4
3	4
3	4
3	4
3	6
3	4
3	5
3	4
3	5
3	5
3	5
3	5
3	4
3	5
3	5
3	7
3	4
3	5
3	4
3	5
3	4
3	4
3	5
3	8
3	5
3	5
3	7
3	4
3	5
3	4
3	4
3	8
3	5
3	6
4	5
4	5
4	6
4	5
4	5
4	5
4	5
4	6
4	5
4	5
4	7
4	5
4	5
4	10
4	5
4	5
4	6
4	6
4	6
4	5
4	5
4	5
4	5
4	5
4	5
4	6
4	7
4	5
4	5
4	5
4	5
4	5
4	5
4	5
4	5
4	5
4	5
4	9
4	5
4	5
4	5
4	5
4	5
4	5
4	5
4	5
4	5
4	5
4	5
4	6
4	5
4	5
5	6
5	6
5	6
5	6
5	6
5	6
5	7
5	7
5	6
5	6
5	6
5	7
5	6
5	6
5	6
5	6
5	6
5	6
5	6
5	6
5	6
5	6
5	6
5	6
5	7
5	6
5	7
5	6
5	7
5	6
5	6
5	6
6	7
6	8
6	7
6	7
6	7
6	7
6	7
6	7
6	8
6	7
6	7
6	7
6	8
6	7
6	7
6	7
6	7
6	7
7	8
7	8
7	8
7	8
7	8
7	8
7	8
7	8
7	9
7	8
7	8
7	8
7	8
7	8
8	9
8	9
8	10
8	9
8	9
8	9
8	9
8	9
8	9
8	9
9	10
9	10
9	10
9	10
9	10
9	10
9	10
10	11
10	11
10	11
10	11
10	12
10	11
11	12
11	12
11	12
11	12
11	12
12	13
12	13
12	13
12	13
13	14
13	14
15	16
16	17
17	18
19	20
19	20
19	20
20	21
20	21
23	24
26	27
34	35
1372	1373
