1	6124
1	769
1	16
1	768
1	13
1	768
1	768
1	13
1	11
1	14
1	12
1	768
1	768
1	20
1	19
1	9
1	11
1	768
1	768
1	768
1	768
1	768
1	770
1	768
1	768
1	11
1	768
1	768
1	769
1	768
1	771
1	768
1	768
1	768
1	768
1	768
1	768
1	14
1	768
1	768
1	768
1	768
1	12
1	768
1	768
1	768
1	13
1	17
1	768
1	768
1	768
1	768
1	769
1	768
1	768
1	768
1	768
1	768
1	11
1	15
1	768
1	768
1	768
1	5
1	768
1	768
1	768
1	6
1	16
1	9
1	768
1	4
1	768
1	768
1	14
1	768
1	768
1	768
1	768
1	768
1	768
1	768
1	768
1	10
1	10
1	19
1	18
1	768
1	769
1	768
1	768
1	23
1	9
1	768
1	23
1	768
1	13
1	768
1	768
1	768
1	768
1	11
1	23
1	16
1	768
1	11
1	768
1	768
1	768
1	768
1	768
1	768
1	770
1	22
1	10
1	15
1	768
1	15
1	28
1	6
1	768
1	768
1	12
1	768
1	5
1	768
1	12
1	768
1	768
1	768
1	768
1	768
1	768
1	769
1	768
1	9
1	768
1	768
1	11
1	768
1	768
1	768
1	768
1	9
1	768
1	768
1	28
1	10
1	768
1	768
1	13
1	768
1	20
1	768
1	768
1	768
1	769
1	768
1	21
1	768
1	768
1	768
1	768
1	28
1	9
1	768
1	16
1	768
1	768
1	768
1	769
1	768
1	768
1	768
1	768
1	768
1	769
1	768
1	768
1	11
1	768
1	10
1	13
1	768
1	12
1	768
1	768
1	22
1	768
1	9
1	768
1	768
1	768
1	768
1	8
1	768
1	768
1	769
1	768
1	10
1	768
1	8
1	768
1	768
1	768
1	768
1	768
1	8
1	10
1	769
1	768
1	23
1	15
1	10
1	768
1	768
1	768
1	768
1	768
1	768
1	768
1	19
1	768
1	768
1	768
1	8
1	10
1	768
1	768
1	19
1	5
1	768
1	768
1	9
1	768
1	8
1	769
1	19
1	768
1	11
1	768
1	768
1	768
1	768
1	17
1	768
1	768
1	768
1	5
1	10
1	11
1	11
1	768
1	768
1	768
1	768
1	768
1	768
1	768
1	768
1	768
1	19
1	768
1	768
1	768
1	768
1	768
1	10
1	10
1	9
1	768
1	768
1	768
1	768
1	16
1	11
1	768
1	768
1	9
1	6
1	9
1	21
1	768
1	768
1	7
1	768
1	768
1	769
1	768
1	768
1	14
1	27
1	768
1	768
1	27
1	768
1	768
1	770
1	768
1	768
1	768
1	768
1	768
1	768
1	768
1	11
1	768
1	4
1	7
1	768
1	9
1	768
1	768
1	768
1	768
1	768
1	12
1	768
1	768
1	16
1	768
1	768
1	14
1	11
1	768
1	768
1	768
1	19
1	768
1	768
1	9
1	768
1	768
1	7
1	768
1	768
1	8
1	768
1	10
1	768
1	768
1	768
1	13
1	768
1	768
1	768
1	768
1	768
1	768
1	768
1	768
1	12
1	15
1	768
1	6
1	768
1	768
1	8
1	768
1	22
1	768
1	768
1	6
1	768
1	768
1	768
1	768
1	768
1	9
1	768
1	7
1	11
1	768
1	768
1	768
1	768
1	769
1	7
1	768
1	768
1	768
1	768
1	768
1	6
1	768
1	768
1	768
1	768
1	13
1	768
1	14
1	8
1	11
1	9
1	768
1	768
1	768
1	768
1	768
1	768
1	8
1	768
1	768
1	768
1	9
1	768
1	768
1	768
1	768
1	9
1	768
1	27
1	769
1	768
1	768
1	768
1	768
1	768
1	768
1	17
1	4
1	768
1	768
1	27
1	769
1	27
1	770
1	768
1	6124
1	768
1	768
1	21
1	8
1	768
1	768
1	6
1	768
1	768
1	9
1	768
1	12
1	768
1	768
1	5
1	768
1	768
1	768
1	7
1	768
1	19
1	768
1	7
1	768
1	768
1	768
1	768
1	768
1	768
1	19
1	768
1	768
1	768
1	768
1	768
1	768
1	11
1	768
1	15
1	11
1	768
1	768
1	768
1	8
1	768
1	768
1	6124
1	13
1	768
1	6
1	768
1	11
1	768
1	10
1	768
1	9
1	22
1	12
1	771
1	768
1	27
1	768
1	13
1	768
1	768
1	9
1	8
1	768
1	11
1	770
1	768
1	768
1	19
1	5
1	769
1	11
1	8
1	9
1	5
1	768
1	768
1	9
1	15
1	6
1	768
1	16
1	768
1	768
1	9
1	768
1	768
1	768
1	768
1	768
1	770
1	768
1	768
1	768
1	771
1	12
1	768
1	768
1	6
1	13
1	768
1	768
1	10
1	768
1	768
1	768
1	768
1	9
1	19
1	768
1	21
1	14
1	9
1	768
1	768
1	11
1	12
1	14
1	8
1	8
1	768
1	768
1	768
1	768
1	768
1	768
1	768
1	6
1	768
1	768
1	768
1	768
1	768
1	768
1	11
1	768
1	768
1	768
1	768
1	768
1	768
1	7
1	9
1	768
1	12
1	768
1	768
1	768
1	768
1	7
1	768
1	7
1	4
1	768
1	7
1	768
1	768
1	768
1	768
1	768
1	769
1	768
1	768
1	768
1	768
1	768
1	5
1	16
1	768
1	768
1	768
1	5
1	21
1	10
1	4
1	8
1	9
1	768
1	768
1	6
1	12
1	5
1	9
1	10
1	768
1	6
1	8
1	12
1	768
1	21
1	768
1	768
1	768
1	6
1	768
1	9
1	6
1	12
1	768
1	768
1	6
1	768
1	27
1	768
1	768
1	19
1	768
1	6
1	768
1	768
1	768
1	768
1	7
1	768
1	768
1	768
1	2
1	16
1	21
1	5
1	768
1	768
1	768
1	8
1	7
1	768
1	768
1	10
1	768
1	768
1	768
1	768
1	768
1	5
1	770
1	13
1	10
1	13
1	768
1	768
1	768
1	5
1	768
1	8
1	27
1	769
1	768
1	768
1	768
1	768
1	27
1	768
1	19
1	8
1	5
1	21
1	768
1	768
1	768
1	22
1	768
1	768
1	5
1	768
1	23
1	768
1	768
1	12
1	768
1	9
1	768
1	768
1	768
1	14
1	768
1	12
1	19
1	768
1	22
1	5
1	16
1	5
1	768
1	768
1	768
1	768
1	768
1	768
1	768
1	768
1	768
1	768
1	768
1	13
1	768
1	12
1	11
1	768
1	5
1	768
1	768
1	19
1	768
1	768
1	5
1	5
1	770
1	768
1	768
1	21
1	768
1	6
1	5
1	768
1	768
1	22
1	9
1	768
1	14
1	7
1	9
1	768
1	768
1	768
1	768
1	768
1	769
1	7
1	768
1	768
1	768
1	768
1	768
1	768
1	768
1	13
1	14
1	768
1	768
1	768
1	7
1	6
1	768
1	8
1	5
1	768
1	768
1	768
1	768
1	768
1	768
1	9
1	768
1	27
1	9
1	768
1	9
1	768
1	768
1	768
1	768
1	768
1	768
1	768
1	22
1	768
1	22
1	21
1	768
1	769
1	768
1	768
1	768
1	7
1	768
1	768
1	8
1	10
1	9
1	6
1	768
1	768
1	768
1	14
1	768
1	8
1	768
1	768
1	768
1	768
1	4
1	7
1	768
1	768
1	768
1	768
1	768
1	768
1	22
1	768
1	5
1	5
1	768
1	21
1	768
1	768
1	768
1	768
1	768
1	7
1	768
1	5
1	5
1	768
1	6
1	768
1	7
1	768
1	22
1	768
1	768
1	4
1	5
1	768
1	768
1	21
1	7
1	768
1	768
1	768
1	768
1	768
1	6
1	8
1	5
1	768
1	768
1	768
1	768
1	768
1	768
1	768
1	15
1	768
1	6
1	768
1	7
1	768
1	5
1	12
1	768
1	768
1	768
1	19
1	768
1	768
1	16
1	768
1	768
1	8
1	768
1	768
1	768
1	768
1	9
1	768
1	768
1	19
1	21
1	768
1	768
1	768
1	14
1	768
1	768
1	768
1	768
1	768
1	27
1	8
1	768
1	768
1	8
1	8
1	8
1	8
1	768
1	768
1	6
1	768
1	5
1	768
1	7
1	768
1	768
1	768
1	768
1	12
1	768
1	6
1	768
1	768
1	768
1	9
1	7
1	12
1	7
1	768
1	768
1	768
1	768
1	768
1	8
1	768
1	768
1	769
1	768
1	768
1	768
1	768
1	768
1	769
1	768
1	8
1	10
1	768
1	768
1	768
1	768
1	27
1	768
1	769
1	11
1	768
1	768
1	768
1	768
1	768
1	768
1	12
1	10
1	10
1	7
1	768
1	21
1	768
1	22
1	6
1	6
1	768
1	768
1	768
1	768
1	768
1	768
1	768
1	4
1	768
1	768
1	768
1	769
1	19
1	768
1	768
1	768
1	768
1	768
1	768
1	19
1	768
1	768
1	768
1	768
1	768
1	768
1	768
1	768
1	768
1	16
1	768
1	768
1	6
1	7
1	768
1	14
1	768
1	768
1	768
1	8
1	769
1	768
1	768
1	2
1	768
1	768
1	768
1	768
1	768
1	768
1	768
1	768
1	768
1	6
1	9
1	7
1	11
1	6
1	768
1	768
1	768
1	768
2	5
2	9
2	3
2	7
2	3
2	3
2	6
2	3
2	14
2	3
2	4
2	3
2	8
2	3
2	3
2	6
2	3
2	9
2	5
2	3
2	8
2	9
2	5
2	3
2	7
2	9
2	3
2	3
2	12
2	3
2	3
2	769
2	3
2	9
2	4
2	3
2	20
2	8
2	4
2	9
2	4
2	6
2	3
2	8
2	3
2	3
2	6
2	4
2	6
2	9
2	3
2	4
2	4
2	3
2	7
2	5
2	3
2	7
2	5
2	9
2	15
2	5
2	3
2	3
2	3
2	7
2	4
2	28
2	3
2	4
2	3
2	6
2	3
2	4
2	3
2	14
2	8
2	9
2	7
2	6
2	7
2	8
2	4
2	3
2	4
2	3
2	4
2	8
2	3
2	4
2	3
2	3
2	3
2	3
2	23
2	3
2	3
2	3
2	5
2	3
2	3
2	3
2	10
2	4
2	12
2	5
2	8
2	5
2	9
2	3
2	5
2	6
2	9
2	3
2	3
2	4
2	4
2	4
2	3
2	28
2	3
2	3
2	4
2	6
2	4
2	9
2	4
2	3
2	4
2	6
2	3
2	5
2	3
2	7
2	3
2	5
2	9
2	3
2	3
2	4
2	4
2	3
2	3
2	6
2	8
2	4
2	3
2	4
2	6
3	4
3	4
3	7
3	5
3	4
3	8
3	4
3	15
3	5
3	4
3	4
3	12
3	5
3	6
3	4
3	4
3	6
3	8
3	4
3	5
3	7
3	5
3	7
3	4
3	4
3	4
3	4
3	4
3	4
3	4
3	5
3	4
3	4
3	4
3	4
3	4
3	4
3	5
3	4
3	5
3	4
3	4
3	4
3	4
3	4
3	5
3	4
3	7
3	4
3	4
3	4
3	5
3	5
3	4
3	5
3	4
3	4
3	4
3	4
3	5
3	4
3	4
3	4
4	7
4	6
4	6
4	5
4	5
4	5
4	6
4	5
4	5
4	6
4	5
4	5
4	5
4	5
4	5
4	5
4	5
4	6
4	6
4	5
4	5
4	5
4	9
4	5
4	5
4	6
4	5
4	6
4	5
4	8
4	5
4	5
4	6
4	5
4	5
4	5
4	5
5	6
5	8
5	6
5	6
5	6
5	6
5	9
5	6
5	6
5	6
5	7
5	6
5	6
5	6
5	6
5	6
5	6
5	6
5	6
5	6
5	6
5	7
6	7
6	7
6	7
6	8
6	7
6	7
6	7
6	7
6	7
6	7
6	7
6	7
6	7
6	7
6	7
6	7
7	8
7	8
7	8
7	8
7	8
7	8
7	8
7	8
7	8
8	9
8	9
8	9
8	9
9	10
9	10
9	10
10	11
10	11
11	12
11	12
12	14
12	13
12	13
13	14
13	14
15	16
18	19
18	19
20	21
21	22
26	27
767	768
