1	6124
1	2055
1	2055
1	2055
1	2055
1	2055
1	2055
1	2055
1	2055
1	2055
1	2055
1	2055
1	2055
1	2055
1	2055
1	2056
1	2055
1	2055
1	2055
1	17
1	2056
1	2055
1	2055
1	13
1	2055
1	2055
1	2055
1	2055
1	2055
1	2055
1	2055
1	2055
1	15
1	2055
1	2055
1	2055
1	2055
1	2055
1	2055
1	12
1	2055
1	27
1	14
1	2055
1	2055
1	2055
1	2055
1	2055
1	2055
1	2055
1	2055
1	2055
1	2055
1	11
1	9
1	10
1	2055
1	2055
1	2055
1	2055
1	2055
1	2055
1	2055
1	2055
1	2055
1	2055
1	2055
1	2055
1	2055
1	22
1	2055
1	2055
1	2055
1	2055
1	2055
1	2055
1	2055
1	2056
1	2055
1	27
1	2055
1	2055
1	2055
1	2055
1	2055
1	9
1	2055
1	2055
1	2055
1	2055
1	2055
1	24
1	2055
1	2055
1	2055
1	2055
1	14
1	2055
1	2055
1	2055
1	2055
1	2055
1	2055
1	2055
1	12
1	2055
1	2055
1	2055
1	2055
1	20
1	14
1	2055
1	2055
1	13
1	15
1	2055
1	2055
1	2055
1	2055
1	2055
1	2055
1	2055
1	2055
1	2055
1	2055
1	2055
1	2055
1	2055
1	2055
1	19
1	2055
1	2055
1	2055
1	2055
1	11
1	2055
1	2055
1	10
1	2055
1	12
1	2055
1	2055
1	13
1	17
1	2055
1	2055
1	2055
1	2055
1	2055
1	2055
1	2055
1	2055
1	20
1	12
1	2055
1	2055
1	2055
1	2055
1	2055
1	2055
1	2055
1	2055
1	2055
1	2055
1	11
1	2055
1	2055
1	2055
1	2055
1	2055
1	2055
1	2055
1	2055
1	2055
1	2055
1	2055
1	2055
1	2055
1	18
1	2055
1	2055
1	22
1	2055
1	2055
1	2055
1	9
1	2055
1	2055
1	2055
1	2055
1	2055
1	2055
1	2055
1	2055
1	2055
1	10
1	2055
1	2055
1	2056
1	2055
1	2055
1	2055
1	9
1	2055
1	2055
1	2055
1	2055
1	2055
1	2055
1	2055
1	2055
1	2055
1	2055
1	2055
1	2055
1	2055
1	15
1	15
1	2055
1	2055
1	2055
1	2055
1	2055
1	2055
1	2055
1	2055
1	2055
1	2055
1	2055
1	2055
1	2055
1	2055
1	2055
1	2055
1	2055
1	2055
1	2055
1	9
1	2055
1	2055
1	2055
1	2055
1	2055
1	2055
1	2055
1	2055
1	2055
1	9
1	11
1	2055
1	2055
1	2055
1	2055
1	2055
1	15
1	2055
1	2055
1	2055
1	19
1	2055
1	17
1	14
1	2055
1	2055
1	2055
1	2055
1	2055
1	2055
1	2055
1	2055
1	2055
1	2055
1	2055
1	2055
1	19
1	2055
1	2055
1	2055
1	2055
1	2055
1	2055
1	2055
1	2055
1	2055
1	2055
1	2055
1	2055
1	2055
1	2055
1	2055
1	2055
1	2055
1	2055
1	2055
1	2055
1	2055
1	2055
1	17
1	22
1	2055
1	2055
1	19
1	2055
1	2055
1	2055
1	14
1	10
1	2055
1	2055
1	2055
1	2055
1	2055
1	2055
1	2055
1	2055
1	2055
1	19
1	2055
1	2055
1	2055
1	2055
1	2055
1	2055
1	2055
1	2055
1	2055
1	5
1	2055
1	2055
1	2055
1	19
1	15
1	2055
1	2055
1	2055
1	2055
1	9
1	2055
1	2055
1	17
1	2055
1	2055
1	2055
1	2055
1	2055
1	2055
1	2055
1	2055
1	2055
1	2055
1	13
1	2055
1	2055
1	2055
1	23
1	2055
1	2055
1	19
1	2055
1	10
1	2055
1	9
1	2055
1	2055
1	2055
1	2055
1	2055
1	2055
1	2055
1	2055
1	2055
1	2055
1	2055
1	2055
1	2055
1	2055
1	16
1	2055
1	2055
1	2055
1	2055
1	2055
1	2055
1	2055
1	2055
1	2055
1	2055
1	2055
1	2055
1	2055
1	2055
1	19
1	11
1	2055
1	2055
1	7
1	11
1	2056
1	2055
1	2055
1	2055
1	2055
1	14
1	11
1	2055
1	2055
1	2055
1	2055
1	2055
1	2055
1	2055
1	2055
1	2055
1	8
1	2055
1	2055
1	2055
1	8
1	2055
1	2055
1	2055
1	2055
1	2055
1	2057
1	2055
1	11
1	2055
1	13
1	2055
1	2055
1	2055
1	2055
1	2055
1	2055
1	2055
1	2055
1	2055
1	2055
1	11
1	7
1	2057
1	2055
1	2055
1	2055
1	2055
1	19
1	2055
1	2055
1	2055
1	2055
1	17
1	8
1	2055
1	10
1	2055
1	2055
1	2055
1	2055
1	2055
1	2055
1	10
1	2055
1	2055
1	2055
1	2055
1	2055
1	2055
1	2055
1	2055
1	15
1	2055
1	8
1	2055
1	2055
1	2055
1	2055
1	2055
1	2055
1	6124
1	2055
1	2055
1	2055
1	2055
1	2055
1	2055
1	2055
1	2055
1	4
1	2055
1	2055
1	2055
1	6
1	2055
1	2055
1	2055
1	2055
1	2055
1	2055
1	2055
1	2055
1	2055
1	2055
1	2055
1	2055
1	2055
1	2055
1	2055
1	2055
1	2055
1	2055
1	2055
1	10
1	2055
1	2055
1	26
1	2055
1	2055
1	2055
1	2055
1	2055
1	2055
1	11
1	8
1	2055
1	9
1	2055
1	2055
1	9
1	2055
1	2055
1	2055
1	2055
1	2055
1	2055
1	2055
1	2055
1	2055
1	2055
1	2055
1	2055
1	2055
1	2055
1	2055
1	2055
1	19
1	2055
1	2055
1	2055
1	2055
1	2055
1	22
1	7
1	2055
1	23
1	2055
1	2055
1	2055
1	2055
1	2055
1	2055
1	2055
1	2055
1	2055
1	2055
1	2055
1	2055
1	13
1	2055
1	2055
1	2055
1	2055
1	14
1	2055
1	2055
1	2055
1	2055
1	2055
1	2055
1	30
1	2055
1	2055
1	2055
1	2055
1	2055
1	2055
1	2055
1	2055
1	2055
1	2055
1	2055
1	2055
1	2055
1	2055
1	2055
1	2055
1	2055
1	2055
1	2055
1	2055
1	2055
1	2055
1	2055
1	2055
1	2055
1	2055
1	2055
1	2055
1	2055
1	2055
1	12
1	2055
1	2055
1	26
1	2055
1	2055
1	11
1	2055
1	2055
1	2055
1	2055
1	2055
1	2055
1	2055
1	2055
1	2055
1	2055
1	2055
1	9
1	2055
1	2055
1	2055
1	2055
1	15
1	2055
1	2055
1	2055
1	2055
1	2055
1	2055
1	11
1	13
1	2055
1	2055
1	22
1	2055
1	6124
1	15
1	2055
1	2055
1	2055
1	2055
1	2055
1	2055
1	2055
1	2055
1	2055
1	2055
1	2055
1	2055
1	2055
1	2055
1	2055
1	2055
1	2055
1	2055
1	2055
1	2055
1	2055
1	2055
1	2055
1	2055
1	2055
1	2055
1	2055
1	2055
1	11
1	2055
1	9
1	2055
1	2055
1	2055
1	2055
1	2055
1	2055
1	2055
1	7
1	8
1	2055
1	2055
1	2055
1	2055
1	2055
1	2055
1	2055
1	2055
1	2055
1	2055
1	8
1	2055
1	2055
1	2055
1	2055
1	2055
1	22
1	9
1	2055
1	2055
1	2055
1	2055
1	2055
1	2055
1	2055
1	2055
1	2055
1	2056
1	10
1	2055
1	23
1	2055
1	2055
1	2055
1	2055
1	2055
1	2055
1	2055
1	18
1	2055
1	4
1	17
1	21
1	2055
1	2055
1	2055
1	2055
1	2055
1	2055
1	2055
1	13
1	2055
1	2055
1	2055
1	2055
1	2055
1	2055
1	22
1	2055
1	2055
1	2055
1	2055
1	2055
1	2055
1	2055
1	2055
1	6
1	2055
1	4
1	2055
1	2055
1	2055
1	2055
1	9
1	13
1	2055
1	13
1	2055
1	2055
1	2055
1	2055
1	2055
1	2055
1	2055
1	2055
1	2055
1	22
1	14
1	2055
1	2055
1	2055
1	2055
1	2055
1	2055
1	2055
1	2055
1	2055
1	2055
1	2055
1	2055
1	2055
1	2055
1	2055
1	2055
1	2055
1	8
1	2055
1	2055
1	2055
1	2055
1	2055
1	2055
1	2055
1	2055
1	2055
1	2055
1	2055
1	2055
1	2055
1	8
1	2055
1	2055
1	18
1	2055
1	2055
1	2055
1	2055
1	26
1	2055
1	2055
1	2055
1	2055
1	2055
1	8
1	2055
1	2055
1	2055
1	2055
1	2055
1	2055
1	2055
1	2055
1	11
1	2055
1	8
1	9
1	2055
1	2055
1	2055
1	2055
1	2055
1	2055
1	2055
1	13
1	2055
1	2055
1	2055
1	2055
1	2055
1	6
1	2055
1	4
1	2055
1	2055
1	2055
1	2055
1	2055
1	14
1	2055
1	18
1	2055
1	2055
1	2055
1	2055
1	2055
1	2055
1	2055
1	2055
1	2055
1	2055
1	2055
1	2055
1	2055
1	2055
1	2055
1	2055
1	2055
1	12
1	2055
1	2055
1	2055
1	2055
1	2055
1	2055
1	2055
1	2055
1	2055
1	2055
1	6
1	2055
1	2055
1	2055
1	2055
1	2055
1	2055
1	2055
1	2056
1	2055
1	2055
1	2055
1	2055
1	2055
1	2055
1	2055
1	2055
1	2055
1	2055
1	2055
1	2055
1	2055
1	2055
1	10
1	7
1	13
1	2055
1	2055
1	2055
1	2055
1	7
1	2055
1	2055
1	13
1	2055
1	2055
1	2055
1	2055
1	26
1	2055
1	2055
1	6
1	2055
1	2055
1	2055
1	2055
1	13
1	2055
1	2055
1	2055
1	2055
1	2055
1	2055
1	2055
1	2055
1	2055
1	2056
1	2055
1	2055
1	2055
1	23
1	2055
1	2055
1	2055
1	2055
1	2055
1	2055
1	2055
1	2055
1	2055
1	2055
1	2055
1	2055
1	2055
1	2055
1	2055
1	2056
1	9
1	2055
1	2055
1	2055
1	2055
1	2055
1	2055
1	2055
1	2055
1	2055
1	2056
1	2055
1	5
1	2055
1	2055
1	2055
1	17
1	2055
1	2055
1	2055
1	18
1	2055
1	2055
1	12
1	2055
1	2055
1	2055
1	2055
1	2055
1	22
1	2055
1	2055
1	2055
1	2055
1	10
1	2055
1	2055
1	2055
1	2055
1	2055
1	14
1	2055
1	2055
1	2055
1	2055
1	2055
1	4
1	2055
1	2055
1	2055
1	2055
1	2055
1	2055
1	8
1	2055
1	2055
1	8
1	2055
1	2055
1	2055
1	2055
1	2055
1	2055
1	2055
1	2055
1	2055
1	2055
1	2055
1	2055
1	2055
1	2055
1	2055
1	2055
1	2055
1	2055
1	2055
1	2055
1	2055
1	2055
1	2055
1	2055
1	2055
1	2055
1	2055
1	2055
1	2055
1	2055
1	2055
1	2055
1	2055
1	22
1	2055
1	2055
1	2055
1	2055
1	2055
1	2055
1	2055
1	2055
1	2055
1	2055
1	2055
1	2055
1	7
1	2055
1	2055
1	2055
1	2055
1	2055
1	2055
1	8
1	2055
1	2055
1	11
1	4
1	2055
1	6
1	2055
1	2055
1	2055
1	2055
1	8
1	2055
1	8
1	2055
1	2055
1	2055
1	2055
1	2055
1	2055
1	2055
1	2055
1	2055
1	2055
1	2055
1	2055
1	2055
1	9
1	2055
1	2055
1	9
1	2055
1	2055
1	14
1	2055
1	2055
1	2055
1	2055
1	2055
1	2055
1	2055
1	10
1	2055
1	2055
1	2055
1	2055
1	2055
1	2055
1	2055
1	2055
1	2055
1	2055
1	2055
1	2055
1	2055
1	12
1	2055
1	2055
1	2055
1	2055
1	2055
1	2055
1	2055
1	2055
1	2055
1	2055
1	2055
1	2055
1	2055
1	2055
1	2055
1	2055
1	2055
1	2055
1	2055
1	2055
1	2055
1	22
1	2055
1	11
1	2055
1	2055
1	2055
1	13
1	14
1	11
1	2055
1	2055
1	6124
1	2055
1	11
1	2055
1	2055
1	2055
1	2055
1	2055
1	2056
1	2056
1	2055
1	2055
1	2055
1	2055
1	2055
1	2055
1	2055
1	15
1	2055
1	9
1	2055
1	2055
1	12
1	2055
1	2055
1	2055
1	2055
1	2055
1	2055
1	2055
1	2055
1	2055
1	2055
1	2055
1	2055
1	2055
1	2055
1	2055
1	2055
1	2055
1	2055
1	2055
1	2055
1	2055
1	2055
1	2055
1	2055
1	2055
1	2055
1	2055
1	2055
1	2055
1	2055
1	2055
1	2055
1	2055
1	2055
1	2055
1	2056
1	2055
1	2055
1	2055
1	2055
1	23
1	2055
1	2055
1	2055
1	2055
1	2055
1	2055
1	2055
1	2055
1	2055
1	2055
1	2055
1	2055
1	2055
1	2055
1	2056
1	2055
1	2055
1	2055
1	2055
1	2055
1	18
1	2055
1	2055
1	2055
1	2055
1	13
1	2055
1	2055
1	2055
1	2055
1	2055
1	2055
1	2055
1	2055
1	2055
1	2055
1	2055
1	2055
1	2055
1	2055
1	2055
1	2055
1	26
1	2055
1	2055
1	2055
1	2056
1	2055
1	8
1	2055
1	2055
1	14
1	2055
1	6
1	2055
1	2055
1	2055
1	2055
1	2055
1	2055
1	2055
1	12
1	2055
1	2055
1	2055
1	2055
1	2055
1	2055
1	2055
1	2055
1	2056
1	2055
1	2055
1	2055
1	2055
1	2055
1	2055
1	2055
1	17
1	2055
1	2055
1	2055
1	2055
1	6124
1	2055
1	17
1	2055
1	5
1	2055
1	9
1	2055
1	8
1	2055
1	8
1	6
1	11
1	2055
1	5
1	6
1	11
1	7
1	2055
1	2055
1	2055
1	2055
1	2055
1	2055
1	8
1	2055
1	2055
1	2055
1	2055
1	2056
1	2055
1	2055
1	11
1	2055
1	2055
1	7
1	2055
1	2055
1	2055
1	2055
1	2055
1	2055
1	2055
1	2055
1	2055
1	18
1	2055
1	2055
1	2055
1	19
1	11
1	2055
1	2055
1	2055
1	2055
1	2055
1	2055
1	2055
1	9
1	18
1	2055
1	2055
1	2055
1	2055
1	2055
1	2055
1	2056
1	2055
1	2055
1	2055
1	2055
1	6
1	2055
1	2055
1	2055
1	2055
1	2055
1	2055
1	14
1	2055
1	2055
1	2055
1	14
1	2055
1	2055
1	2055
1	2055
1	6
1	7
1	2055
1	2055
1	2055
1	2055
1	2055
1	2055
1	2055
1	2055
1	2055
1	2055
1	2055
1	2055
1	2055
1	2056
1	2055
1	2055
1	6
1	2055
1	2055
1	2055
1	2055
1	2055
1	11
1	17
1	2055
1	2055
1	2055
1	2055
1	2055
1	2055
1	2055
1	2055
1	17
1	10
1	2056
1	6
1	2055
1	2055
1	2055
1	2055
1	2055
1	2055
1	2055
1	2055
1	2055
1	2055
1	2055
1	2055
1	22
1	2055
1	2055
1	2055
1	2055
1	2055
1	2055
1	2055
1	7
1	2055
1	2055
1	2055
1	2055
1	2055
1	2055
1	2055
1	11
1	2055
1	2055
1	2057
1	2055
1	2055
1	2055
1	2055
1	4
1	2055
1	2055
1	2055
1	2055
1	10
1	2055
1	2055
1	2055
1	2055
1	2055
1	2055
1	2055
1	2055
1	2055
1	2055
1	2055
1	2055
1	2055
1	2055
1	2055
1	2055
1	2055
1	2055
1	2055
1	2055
1	2055
1	2055
1	2055
1	2055
1	2055
1	2055
1	2055
1	2055
1	2055
1	2
1	2055
1	9
1	2055
1	2055
1	2055
1	2055
1	2055
1	2055
1	6
1	14
1	2055
1	2055
1	2055
1	2055
1	2055
1	14
1	2055
1	2055
1	2055
1	6
1	19
1	2055
1	2055
1	2055
1	2055
1	2055
1	2055
1	2055
1	2055
1	2055
1	2055
1	2055
1	2055
1	2055
1	2055
1	2055
1	8
1	6
1	2055
1	2055
1	2055
1	9
1	22
1	2055
1	2055
1	2055
1	2055
1	2055
1	22
1	2055
1	14
1	2055
1	2055
1	2055
1	4
1	2055
1	2055
1	2055
1	2055
1	2055
1	2055
1	2055
1	2055
1	2055
1	2055
1	2055
1	14
1	2057
1	2055
1	4
1	2055
1	2055
1	2055
1	2055
1	2055
1	2055
1	19
1	2055
1	2055
1	2055
1	2055
1	2055
1	2055
1	2055
1	2055
1	2055
1	2055
1	2055
1	2055
1	2055
1	2055
1	2055
1	2055
1	2055
1	2055
1	2055
1	2055
1	2055
1	2055
1	2055
1	2055
1	2055
1	26
1	2055
1	5
1	2055
1	26
1	2055
1	2055
1	2055
1	2055
1	2055
1	2055
1	10
1	2055
1	2055
1	2055
1	2055
1	2055
1	2055
1	2055
1	2055
1	2055
1	2055
1	2055
1	2055
1	2055
1	2055
1	2055
1	2055
1	2056
1	2055
1	2055
1	2055
1	2055
1	2055
1	2055
1	2055
1	2055
1	2055
1	13
1	2055
1	2055
1	2055
1	2055
1	2055
1	2055
1	2055
1	2055
1	22
1	2055
1	2055
1	2055
1	11
1	9
1	2055
1	2055
1	2055
1	2055
1	2055
1	2055
1	2055
1	2056
1	2055
1	2055
1	2055
1	2055
1	2055
1	2055
1	12
1	15
1	2055
1	2055
1	2055
1	2055
1	2055
1	6
1	2055
1	2055
1	2055
1	2055
1	2055
1	2055
1	2055
1	2055
1	2055
1	2055
1	2055
1	2055
1	7
1	2055
1	2055
1	2055
1	2055
1	2055
1	4
1	2055
1	2055
1	2055
1	2055
1	2055
1	2055
1	2055
1	2055
1	2055
1	2055
1	2055
1	2055
1	2055
1	2055
1	4
1	2055
1	22
1	2055
1	2055
1	2055
1	26
1	2055
1	2055
1	8
1	2055
1	2055
1	2055
1	2055
1	2055
1	2055
1	2055
1	2055
1	2055
1	2056
1	2055
1	6
1	2055
1	2055
1	2055
1	2055
1	2055
1	2055
1	2055
1	2055
1	2055
1	2055
1	8
1	2055
1	2055
1	2055
1	11
1	2055
1	2055
1	14
1	2055
1	2055
1	14
1	2055
1	2055
1	2055
1	2056
1	2055
1	2055
1	2055
1	2055
1	2055
1	2055
1	5
1	2055
1	2055
1	2055
1	2055
1	2055
1	2055
1	2055
1	2055
1	2055
1	2055
1	2055
1	2055
1	2055
1	2055
1	22
1	2055
1	2055
1	6
1	2055
1	2055
1	2055
1	2055
1	2055
1	9
1	2055
1	2055
1	2055
1	2055
1	2055
1	2055
1	2055
1	2055
1	2055
1	2055
1	2055
1	2056
1	13
1	12
1	2055
1	2055
1	2055
1	2055
1	2055
1	2055
1	2055
1	2055
1	2055
1	2055
1	2055
1	2055
1	2055
1	2055
1	10
1	2055
1	2055
1	2055
1	2055
1	2055
1	2055
1	2055
1	2055
1	2055
1	2055
1	2055
1	2055
1	2055
1	2055
1	2055
1	14
1	2055
1	2055
1	2055
1	2055
1	2055
1	2055
1	2055
1	2055
1	2055
1	2055
1	2055
1	2055
1	2055
1	8
1	2055
1	3
1	2055
1	2055
1	2055
1	2055
1	2055
1	2055
1	2055
1	2055
1	2055
1	12
1	2055
1	2055
1	2055
1	2055
1	2055
1	2055
1	2055
1	2055
1	20
1	2055
1	4
1	2055
1	2055
1	2055
1	26
1	9
1	2055
1	2055
1	22
1	2055
1	2055
1	2055
1	2055
1	2055
1	2055
1	2055
1	2055
1	4
1	2055
1	2055
1	2055
1	2055
1	22
1	2055
1	2055
1	2055
1	6
1	2055
1	2055
1	2055
1	2055
1	2055
1	2055
1	2055
1	2055
1	2055
1	2055
1	2055
1	2055
1	2055
1	2055
1	2055
1	2055
1	2055
1	2055
1	2055
1	2055
1	2055
1	2055
1	2055
1	2055
1	2055
1	2055
1	2056
1	2055
1	2055
1	8
1	2055
1	2055
1	2055
1	2055
1	2055
1	2055
1	2055
1	2055
1	2055
1	2055
1	2055
1	2055
1	2055
1	2055
1	2055
1	2055
1	2055
1	2055
1	2055
1	5
1	2055
1	2055
1	2055
1	9
1	2055
1	2055
1	2055
1	2055
1	2055
1	2055
1	2055
1	2055
1	2055
1	2055
1	2055
1	2055
1	12
1	2056
1	2055
1	2055
1	2055
1	2055
1	2055
1	2055
1	2055
1	2055
1	2055
1	18
1	2055
1	2055
1	2055
1	2055
1	13
1	2055
1	2055
1	2055
1	2055
1	2055
1	2055
1	13
1	2055
1	2055
1	2055
1	2055
1	2055
1	2055
1	2055
1	2056
1	2055
1	2055
1	2055
1	2055
1	2055
1	2055
1	2055
1	2055
1	2055
1	2055
1	2055
1	17
1	2055
1	2055
1	2055
1	2055
1	2055
1	2055
1	2055
1	7
1	22
1	2055
1	2055
1	2055
1	2055
1	2055
1	2055
1	2055
1	2055
1	2055
1	7
1	2055
1	2055
1	2055
1	2055
1	2055
1	2055
1	2055
1	2055
1	2055
1	2055
1	2055
1	2055
1	2056
1	8
1	2055
1	12
1	2055
1	2055
1	2055
1	2055
1	2056
1	2055
1	2055
1	2055
1	2055
1	2055
1	6
1	2055
1	2055
1	2055
1	18
1	4
1	2055
1	2055
1	2055
1	18
1	2055
1	2055
1	2055
1	2055
1	2055
1	2055
1	2055
1	2055
1	2055
1	2055
1	2055
1	2055
1	2055
1	2055
1	2055
1	2055
1	2055
1	2055
1	18
1	2055
1	2055
1	2055
1	2055
1	2055
1	2055
1	2055
1	2055
1	2055
1	2055
1	2055
1	2055
1	2055
1	2055
1	2055
1	2055
1	2055
1	2055
1	2055
1	2055
1	2055
1	2055
1	2055
1	14
1	8
1	2056
1	9
1	2055
1	2055
1	2055
1	2055
1	2055
1	2055
1	2055
1	2055
1	2055
1	2055
1	2055
1	7
1	8
1	2055
1	14
1	9
1	2055
1	2055
1	2055
1	2055
1	2055
1	2055
1	2055
1	26
1	2055
1	22
1	2055
1	2055
1	2055
1	2055
1	2055
1	2055
1	2055
1	18
1	2055
1	22
1	2055
1	2055
1	2055
1	2055
1	2055
1	2055
1	2055
1	2055
1	2055
1	2055
1	2055
1	2055
1	5
1	2055
1	2055
1	2055
1	2055
1	2055
1	2055
1	2055
1	6
1	2055
1	22
1	2055
1	2056
1	2055
1	2055
1	2055
1	2055
1	2055
1	2055
1	2055
1	6
1	2055
1	2055
1	2055
1	2055
1	2055
1	2055
1	2055
1	2055
1	2055
1	2055
1	2055
1	2055
1	2055
1	9
1	2055
1	2055
1	2055
1	2055
1	2055
1	2055
1	2055
1	2055
1	4
1	2055
1	2055
1	2055
1	2055
1	12
1	2055
1	6
1	2055
1	2055
1	14
1	2055
1	2055
1	2056
1	2055
1	2055
1	2055
1	2055
1	6
1	2055
1	2055
1	2055
1	6
1	13
1	2055
1	2055
1	2055
1	2055
1	2055
1	2055
1	2055
1	2055
1	17
1	2055
1	2055
1	13
1	2055
1	2055
1	2056
1	2055
1	2055
1	2055
1	2056
1	2055
1	2055
1	11
1	2055
1	2055
1	5
1	2055
1	2055
1	2055
1	2055
1	2055
1	2055
1	2055
1	2056
1	4
1	7
1	2055
1	2055
1	2055
1	2055
1	2055
1	2055
1	4
1	2055
1	2055
1	14
1	9
1	13
1	2055
1	8
1	2055
1	2055
1	2055
1	2055
1	2055
1	2055
1	8
1	10
2	3
2	4
2	3
2	11
2	6
2	10
2	6
2	3
2	3
2	3
2	27
2	27
2	3
2	5
2	6
2	7
2	12
2	2056
2	13
2	10
2	3
2	9
2	6
2	8
2	8
2	27
2	3
2	10
2	3
2	10
2	2056
2	3
2	3
2	14
2	3
2	3
2	3
2	2056
2	4
2	5
2	3
2	3
2	12
2	12
2	8
2	3
2	4
2	3
2	7
2	3
2	9
2	6
2	4
2	8
2	3
2	23
2	7
2	6
2	7
2	10
2	8
2	3
2	14
2	23
2	3
2	3
2	4
2	3
2	3
2	12
2	10
2	4
2	5
2	3
2	7
2	7
2	5
2	10
2	3
2	10
2	10
2	7
2	7
2	3
2	6
2	9
2	6
2	7
2	6
2	15
2	23
2	3
2	2056
2	4
2	5
2	3
2	3
2	3
2	3
2	4
2	8
2	3
2	3
2	3
2	3
2	3
2	3
2	3
2	3
2	2056
2	3
2	10
2	7
2	8
2	5
2	2056
2	3
2	5
2	5
2	12
2	2056
2	3
2	7
2	10
2	8
2	4
2	4
2	4
2	7
2	10
2	4
2	14
2	3
2	4
2	6
2	3
2	3
2	4
2	3
2	3
2	5
2	3
2	4
2	7
2	8
2	5
2	3
2	4
2	8
2	3
2	5
2	10
2	20
2	3
2	8
2	3
2	6
2	7
2	3
2	6
2	4
2	4
2	3
2	3
2	10
2	3
2	15
2	12
2	6
3	5
3	4
3	4
3	4
3	6
3	4
3	4
3	5
3	5
3	5
3	5
3	4
3	4
3	4
3	4
3	5
3	4
3	4
3	5
3	8
3	5
3	5
3	5
3	5
3	5
3	5
3	5
3	4
3	7
3	4
3	9
3	6
3	4
3	5
3	8
3	4
3	6
3	4
3	4
3	4
3	4
3	5
3	5
3	4
3	4
3	4
3	5
3	5
3	4
3	5
3	4
3	4
3	4
3	4
3	4
3	4
3	4
3	4
3	5
3	6
3	4
3	5
3	5
3	4
3	5
3	6
3	4
3	4
4	5
4	5
4	5
4	5
4	5
4	5
4	6
4	5
4	5
4	5
4	5
4	5
4	6
4	6
4	5
4	5
4	5
4	5
4	6
4	5
4	6
5	6
5	6
5	6
5	6
5	6
5	6
5	6
5	6
5	6
5	6
5	6
5	6
5	6
5	6
5	6
5	6
5	6
5	8
5	6
5	6
5	6
5	6
6	7
6	7
6	7
6	9
6	7
6	7
6	7
6	7
6	7
6	7
6	7
7	9
7	8
7	8
7	8
7	8
7	8
7	8
8	9
8	9
8	9
8	9
8	9
8	9
8	10
9	10
9	10
10	11
10	11
10	11
10	11
10	11
11	12
12	13
12	13
12	13
13	14
13	14
13	14
16	17
16	17
17	18
18	19
21	22
21	22
25	26
2054	2055
