1	6124
1	1627
1	1626
1	1626
1	1626
1	1626
1	12
1	1626
1	1626
1	1626
1	1626
1	18
1	1626
1	38
1	1627
1	1626
1	1626
1	23
1	1626
1	1626
1	1626
1	1626
1	1626
1	12
1	1626
1	1626
1	1626
1	1626
1	1626
1	1626
1	1626
1	15
1	1626
1	1626
1	18
1	1626
1	1626
1	1626
1	1626
1	1626
1	1626
1	1626
1	1626
1	1626
1	1626
1	1626
1	18
1	33
1	1626
1	21
1	1626
1	1626
1	13
1	1626
1	1627
1	1626
1	1626
1	14
1	1626
1	12
1	20
1	1626
1	1626
1	1626
1	1626
1	12
1	1626
1	1626
1	24
1	1626
1	1626
1	1626
1	1626
1	19
1	1626
1	20
1	1626
1	1626
1	1626
1	11
1	1626
1	1626
1	1626
1	1626
1	1626
1	1626
1	1626
1	1626
1	1626
1	1626
1	1626
1	1626
1	1626
1	1626
1	19
1	1626
1	1626
1	16
1	1626
1	1626
1	20
1	1626
1	11
1	1626
1	1626
1	1626
1	1626
1	1626
1	1626
1	1626
1	1626
1	38
1	1626
1	1626
1	1626
1	1626
1	1626
1	1626
1	1626
1	1626
1	1626
1	5
1	37
1	12
1	1626
1	1626
1	1626
1	11
1	1626
1	1626
1	10
1	1626
1	1626
1	1626
1	1626
1	1626
1	1626
1	1626
1	1626
1	1626
1	1626
1	1626
1	16
1	1626
1	1626
1	1626
1	6
1	1626
1	1626
1	1626
1	1626
1	1626
1	15
1	16
1	1626
1	16
1	1626
1	1626
1	1626
1	1626
1	1626
1	1626
1	1626
1	1626
1	18
1	15
1	8
1	1626
1	1626
1	1626
1	1626
1	1626
1	1626
1	5
1	16
1	1626
1	11
1	1626
1	1626
1	1626
1	1626
1	11
1	31
1	1626
1	1626
1	22
1	1626
1	1626
1	1626
1	1626
1	11
1	15
1	1626
1	1626
1	1626
1	17
1	1626
1	14
1	1626
1	1626
1	37
1	1626
1	1626
1	1626
1	1626
1	1626
1	1626
1	1626
1	1626
1	1626
1	23
1	10
1	1626
1	9
1	1626
1	1626
1	1626
1	11
1	1626
1	1626
1	1630
1	22
1	1626
1	13
1	30
1	1626
1	1626
1	13
1	1626
1	1626
1	1626
1	1626
1	1626
1	15
1	1626
1	11
1	1626
1	15
1	1626
1	1626
1	1626
1	1626
1	1626
1	1626
1	1626
1	1626
1	1626
1	1626
1	1626
1	23
1	1626
1	8
1	1626
1	6
1	1626
1	1626
1	1626
1	1626
1	1626
1	1626
1	13
1	1626
1	1627
1	1626
1	1626
1	1626
1	1626
1	1626
1	1626
1	1626
1	1626
1	1626
1	1626
1	1626
1	1626
1	1626
1	10
1	1626
1	1626
1	1626
1	5
1	1628
1	29
1	1626
1	1626
1	1626
1	10
1	19
1	1626
1	1626
1	1626
1	1626
1	1626
1	1626
1	14
1	14
1	1626
1	1626
1	1626
1	1635
1	1626
1	10
1	1626
1	19
1	12
1	7
1	1626
1	14
1	11
1	1626
1	1626
1	1626
1	1626
1	1626
1	1626
1	1626
1	12
1	1627
1	1626
1	1626
1	1626
1	1626
1	1626
1	9
1	1626
1	8
1	1626
1	1626
1	1626
1	1626
1	1626
1	1626
1	1626
1	13
1	13
1	11
1	1626
1	1626
1	1626
1	1627
1	1626
1	1626
1	1626
1	1626
1	1626
1	37
1	1626
1	1626
1	10
1	1626
1	1626
1	12
1	25
1	1626
1	1626
1	1626
1	1626
1	1626
1	1626
1	1626
1	1626
1	1626
1	1626
1	1626
1	1626
1	1626
1	1626
1	1626
1	24
1	1626
1	1626
1	1626
1	1626
1	1626
1	1626
1	1626
1	1626
1	1626
1	1626
1	24
1	11
1	1626
1	1626
1	8
1	17
1	19
1	1626
1	1626
1	1626
1	1626
1	1626
1	1626
1	1627
1	13
1	1626
1	12
1	1626
1	1626
1	24
1	1626
1	1626
1	1626
1	1626
1	1626
1	37
1	1626
1	1626
1	1626
1	1626
1	37
1	1626
1	1626
1	37
1	1626
1	29
1	1626
1	1626
1	8
1	12
1	1626
1	1626
1	1626
1	1626
1	1627
1	1626
1	1626
1	1626
1	1626
1	1626
1	1626
1	12
1	1628
1	1626
1	1626
1	1626
1	1626
1	1626
1	1626
1	1626
1	13
1	1626
1	1626
1	1626
1	1626
1	1626
1	1626
1	17
1	8
1	1626
1	1626
1	8
1	1626
1	1626
1	1626
1	1626
1	1626
1	14
1	12
1	1626
1	1626
1	8
1	1626
1	1626
1	1626
1	17
1	1626
1	1626
1	1626
1	1626
1	1626
1	10
1	1626
1	1626
1	12
1	1626
1	13
1	1626
1	1626
1	1626
1	1626
1	11
1	18
1	1626
1	1626
1	1626
1	1626
1	5
1	1626
1	6
1	10
1	11
1	1626
1	11
1	1626
1	1626
1	1626
1	1626
1	1626
1	1626
1	1626
1	1626
1	1626
1	1626
1	12
1	1626
1	1626
1	1626
1	1626
1	1626
1	9
1	1626
1	1626
1	1626
1	1626
1	1626
1	1626
1	1626
1	1626
1	1626
1	16
1	1626
1	10
1	11
1	1626
1	1626
1	1626
1	1626
1	1626
1	1626
1	1626
1	1626
1	20
1	10
1	1626
1	1626
1	1626
1	1626
1	1626
1	1626
1	18
1	1626
1	1626
1	1626
1	1626
1	29
1	1626
1	1631
1	1628
1	10
1	1626
1	8
1	8
1	17
1	1626
1	1626
1	1626
1	1626
1	1626
1	1626
1	1626
1	1626
1	1626
1	9
1	1626
1	1626
1	1626
1	1626
1	1626
1	16
1	1626
1	1626
1	16
1	1626
1	1626
1	1626
1	1627
1	9
1	1626
1	1626
1	17
1	1626
1	1626
1	9
1	12
1	1626
1	24
1	1626
1	1626
1	1626
1	1626
1	1626
1	7
1	1626
1	1626
1	10
1	1626
1	1626
1	1626
1	1626
1	1626
1	8
1	1626
1	1626
1	1626
1	1626
1	8
1	1626
1	1626
1	1626
1	30
1	1626
1	1626
1	8
1	1626
1	1626
1	11
1	1626
1	1626
1	1626
1	1626
1	8
1	1626
1	1626
1	1626
1	1626
1	19
1	1626
1	9
1	1626
1	1626
1	1626
1	1626
1	1626
1	1626
1	23
1	1626
1	1626
1	16
1	1626
1	8
1	1626
1	1626
1	1626
1	1626
1	1626
1	1626
1	1626
1	1626
1	23
1	1626
1	1626
1	1626
1	1626
1	1626
1	1626
1	1626
1	1627
1	1626
1	1626
1	1626
1	1626
1	1626
1	1626
1	1626
1	1626
1	1626
1	16
1	9
1	16
1	1626
1	13
1	1626
1	11
1	1626
1	1626
1	1626
1	1626
1	6124
1	1626
1	1626
1	1626
1	1626
1	22
1	1626
1	1626
1	1626
1	1626
1	1626
1	1626
1	1626
1	12
1	1626
1	1626
1	6
1	1626
1	1626
1	1626
1	1626
1	6
1	1626
1	1626
1	1626
1	1627
1	1626
1	16
1	8
1	1626
1	18
1	1626
1	6
1	1626
1	29
1	6
1	30
1	1626
1	11
1	1626
1	1626
1	7
1	1626
1	1626
1	1626
1	1626
1	7
1	1626
1	1626
1	1626
1	11
1	1626
1	1626
1	1626
1	30
1	11
1	1626
1	30
1	1626
1	1626
1	1626
1	1626
1	1626
1	1626
1	1626
1	1626
1	1626
1	1626
1	1626
1	12
1	37
1	1626
1	18
1	1626
1	1626
1	12
1	1626
1	1626
1	5
1	1626
1	1626
1	1626
1	1626
1	1626
1	1626
1	23
1	1626
1	1626
1	1626
1	1626
1	8
1	1626
1	1626
1	1626
1	1626
1	1626
1	11
1	37
1	1626
1	1626
1	1626
1	1626
1	1626
1	1626
1	1626
1	1626
1	1626
1	1626
1	1626
1	1626
1	1626
1	11
1	1626
1	1626
1	1626
1	37
1	1626
1	13
1	1626
1	1626
1	1626
1	1626
1	1626
1	1626
1	1626
1	1626
1	1626
1	16
1	1626
1	1626
1	1626
1	30
1	1626
1	1626
1	1626
1	1626
1	1626
1	1626
1	22
1	1626
1	5
1	1626
1	1626
1	1626
1	1626
1	1626
1	1626
1	24
1	1626
1	1626
1	1626
1	1626
1	16
1	1626
1	1626
1	1626
1	1626
1	1626
1	1626
1	1626
1	10
1	1626
1	1626
1	11
1	1626
1	1626
1	10
1	1626
1	1626
1	1626
1	1626
1	1626
1	1626
1	22
1	1626
1	1626
1	15
1	1626
1	16
1	1626
1	1626
1	1626
1	8
1	1626
1	1626
1	1626
1	1626
1	1626
1	1626
1	1626
1	22
1	1626
1	1626
1	1626
1	1626
1	1626
1	18
1	11
1	1626
1	1626
1	10
1	1626
1	1626
1	18
1	1626
1	1626
1	9
1	7
1	1626
1	1626
1	1626
1	1626
1	1626
1	1626
1	1626
1	41
1	1626
1	1626
1	1626
1	1626
1	1626
1	1626
1	1626
1	1626
1	1626
1	1626
1	1626
1	1626
1	1626
1	12
1	5
1	1626
1	1626
1	1626
1	1626
1	10
1	1626
1	1626
1	1626
1	1626
1	1626
1	1626
1	1626
1	1626
1	1626
1	1626
1	1626
1	1626
1	1626
1	30
1	9
1	1626
1	8
1	22
1	1626
1	1626
1	1626
1	1626
1	1626
1	30
1	1626
1	1626
1	1626
1	1626
1	1626
1	1626
1	1626
1	1626
1	1626
1	1626
1	11
1	1626
1	7
1	1626
1	1626
1	1626
1	1627
1	1626
1	1626
1	1626
1	1626
1	1626
1	30
1	1626
1	1626
1	20
1	1627
1	1626
1	1626
1	9
1	17
1	1626
1	9
1	1626
1	23
1	1626
1	1626
1	1626
1	1626
1	1626
1	1626
1	1626
1	12
1	21
1	1626
1	1626
1	1626
1	1626
1	1626
1	1626
1	1626
1	8
1	1626
1	1626
1	4
1	1626
1	5
1	1626
1	13
1	24
1	1626
1	1626
1	1626
1	1626
1	1626
1	1626
1	30
1	1626
1	1626
1	1626
1	1626
1	1626
1	1626
1	1626
1	37
1	24
1	1626
1	29
1	1626
1	1626
1	7
1	1626
1	1626
1	1626
1	1626
1	1626
1	18
1	1626
1	1626
1	1626
1	1627
1	1626
1	6
1	1626
1	1626
1	1626
1	1626
1	1626
1	11
1	1626
1	1626
1	1626
1	1626
1	10
1	16
1	5
1	1626
1	1626
1	1626
1	1626
1	1626
1	1626
1	1626
1	4
1	1626
1	1626
1	1626
1	1626
1	1626
1	1626
1	19
1	1626
1	1626
1	1626
1	1626
1	10
1	30
1	1626
1	7
1	1626
1	15
1	1626
1	13
1	15
1	1626
1	1626
1	1626
1	1626
1	1626
1	1626
1	37
1	1626
1	11
1	11
1	12
1	1626
1	18
1	1626
1	1626
1	1626
1	12
1	1626
1	1626
1	1626
1	1626
1	1626
1	1627
1	4
1	22
1	1626
1	1626
1	1626
1	1626
1	1626
1	1626
1	1626
1	1626
1	1626
1	1626
1	1626
1	1626
1	1626
1	29
1	1626
1	1626
1	1626
1	1626
1	37
1	1626
1	1626
1	1626
1	1626
1	1626
1	1626
1	1626
1	1626
1	30
1	1626
1	1626
1	21
1	1626
1	1627
1	1626
1	1626
1	11
1	6
1	1626
1	1626
1	1626
1	1626
1	1626
1	1626
1	1626
1	12
1	1626
1	17
1	1626
1	1626
1	8
1	9
1	1626
1	1626
1	1626
1	1626
1	22
1	1626
1	1626
1	1626
1	1626
1	1626
1	1627
1	15
1	1626
1	1626
1	1626
1	1626
1	1626
1	1626
1	24
1	1626
1	1626
1	1626
1	1626
1	1626
1	1626
1	1626
1	1626
1	37
1	1626
1	1626
1	1626
1	1626
1	6124
1	12
1	10
1	10
1	1626
1	1626
1	1626
1	1626
1	1626
1	1626
1	1626
1	1626
1	1626
1	11
1	6
1	1626
1	8
1	12
1	1626
1	1626
1	1626
1	13
1	1626
1	1626
1	1626
1	1626
1	1626
1	1626
1	1626
1	1626
1	1626
1	29
1	1626
1	1626
1	1626
1	4
1	7
1	23
1	1626
1	10
1	7
1	11
1	1626
1	1626
1	1626
1	16
1	1627
1	1626
1	1626
1	1626
1	7
1	1626
1	1626
1	1626
1	1626
1	1626
1	8
1	1626
1	23
1	1626
1	1626
1	13
1	1626
1	6
1	1626
1	1626
1	1626
1	1626
1	1626
1	1626
1	1626
1	1626
1	1626
1	25
1	8
1	1626
1	1626
1	1626
1	1626
1	1626
1	23
1	7
1	1626
1	1626
1	1626
1	1626
1	1626
1	1626
1	1626
1	1626
1	5
1	1626
1	1626
1	1626
1	1626
1	1626
1	1626
1	10
1	1626
1	23
1	1626
1	1626
1	1626
1	1626
1	4
1	1626
1	1626
1	1626
1	1626
1	1626
1	1626
1	1626
1	1626
1	1626
1	1626
1	1626
1	7
1	23
1	1626
1	10
1	22
1	1626
1	1626
1	1626
1	1626
1	11
1	1626
1	1626
1	1626
1	1626
1	1626
1	1626
1	1626
1	6
1	24
1	23
1	1626
1	7
1	1626
1	1626
1	1626
1	1626
1	1626
1	1626
1	1626
1	15
1	1626
1	1626
1	1626
1	1626
1	10
1	1626
1	7
1	1626
1	1626
1	1626
1	30
1	1626
1	1626
1	1626
1	1626
1	15
1	1626
1	1626
1	10
1	1626
1	1626
1	1627
1	8
1	1626
1	1626
1	5
1	1626
1	9
1	1626
1	7
1	1626
1	9
1	1626
1	1626
1	1626
1	1626
1	1626
1	1626
1	1626
1	1626
1	1626
1	1626
1	1626
1	1627
1	1626
1	1626
1	1626
1	1626
1	1626
1	14
1	1626
1	1626
1	1626
1	1626
1	1626
1	1626
1	1626
1	1626
1	1626
1	1626
1	1626
1	9
1	1626
1	1626
1	1626
1	1626
1	6
1	1626
1	24
1	1626
1	11
1	1626
1	1626
1	12
1	1626
1	37
1	9
1	1626
1	1626
1	1626
1	1626
1	38
1	23
1	1626
1	1626
1	1626
1	1626
1	1628
1	1626
1	9
1	7
1	1626
1	1626
1	29
1	1626
1	9
1	5
1	10
1	1626
1	5
1	1626
1	1626
1	1626
1	16
1	7
1	1626
1	1626
1	1627
1	6
1	5
1	1626
1	1626
1	1626
1	15
1	1626
1	1626
1	6
1	1626
1	1626
1	29
1	7
1	1626
1	1626
1	1626
1	1626
1	6
1	1626
1	1626
1	1626
1	1626
1	1626
1	1626
1	1626
1	1626
1	11
1	1626
1	1626
1	1626
1	12
1	5
1	12
1	1626
1	1626
1	1626
1	7
1	1626
1	1626
1	1627
1	23
1	1626
1	1626
1	1626
1	30
1	10
1	1626
1	1626
1	1626
1	5
1	22
1	4
1	6
1	29
1	8
1	1626
1	7
1	13
1	1626
1	1626
1	1626
1	1626
1	1626
1	9
1	1626
1	1626
1	1626
1	4
1	1626
1	1626
1	16
1	6
1	1626
1	1626
1	1626
1	22
1	1626
1	1626
1	1626
1	1626
1	12
1	1626
1	1626
1	10
1	1626
1	1626
1	9
1	22
1	8
1	1626
1	8
1	1626
1	1626
1	8
1	1626
1	1626
1	1626
1	1626
1	30
1	1626
1	1626
1	24
1	9
1	6
1	21
1	1626
1	29
1	1626
1	1626
1	1626
1	1626
1	37
1	22
1	1626
1	1626
1	8
1	1626
1	7
1	1626
1	1626
1	1626
1	1626
1	1626
1	1626
1	1626
1	1626
1	1626
1	1626
1	1626
1	8
1	1626
1	1626
1	1626
1	1626
1	16
1	1626
1	1626
1	1626
1	1626
1	1626
1	1626
1	1626
1	1626
1	1626
1	1626
1	8
1	1626
1	1626
1	1626
1	1626
1	1626
1	1626
1	1626
1	1626
1	7
1	1626
1	5
1	1626
1	7
1	37
1	1626
1	1626
1	1626
1	1626
1	1626
1	24
1	1626
1	1626
1	12
1	1626
1	1626
1	10
1	1626
1	1626
1	1626
1	8
1	1626
1	1626
1	1626
1	1626
1	1626
1	1626
1	1626
1	1626
1	11
1	6124
1	5
1	1627
1	8
1	9
1	1626
1	1626
1	18
1	1626
1	1626
1	1626
1	1626
1	9
1	1626
1	1626
1	29
1	1626
1	22
1	1626
1	1626
1	13
1	1626
1	9
1	1626
1	1626
1	1626
1	11
1	1626
1	1626
1	9
1	1626
1	1626
1	10
1	10
1	4
1	7
1	1626
1	1626
1	1626
1	1627
1	22
1	1626
1	1626
1	1626
1	1626
1	30
1	1626
1	1626
1	1626
1	1626
1	9
1	1626
1	1626
1	1626
1	1626
1	1626
1	1626
1	1626
1	1626
1	1626
1	24
1	1626
1	1626
1	12
1	1626
1	1626
1	1626
1	37
1	1626
1	1626
1	1626
1	8
1	29
1	1626
1	1626
1	1626
1	1626
1	1626
1	1626
1	1626
1	1626
1	1626
1	11
1	2
1	1626
1	1626
1	7
1	1626
1	1626
1	1626
1	23
1	1626
1	1626
1	6
1	1626
1	1626
1	1626
1	1626
1	1626
1	8
1	8
1	1626
1	1626
1	1626
1	1626
1	1626
1	1626
1	1626
1	24
1	1626
1	1626
1	23
1	1626
1	1626
1	10
1	9
1	1627
1	1626
1	23
1	1626
1	11
1	1626
1	1626
1	1626
1	1626
1	1626
1	25
1	1626
1	1626
1	1626
1	8
1	16
1	1626
1	1626
1	10
1	1626
1	1626
1	1626
1	1626
1	1626
1	1626
1	1626
1	1626
1	1626
1	1626
1	1626
1	1626
1	1626
1	1626
1	22
1	1626
1	1626
1	1627
1	1626
1	1626
1	37
1	1626
1	1626
1	11
1	1626
1	1626
1	1626
1	1626
1	1626
1	1626
1	1626
1	1626
1	1626
1	1626
1	1626
1	1626
1	1626
1	1626
1	1626
1	18
1	1626
1	1626
1	1626
1	1626
1	1626
1	1626
1	1626
1	1626
1	1626
1	1626
1	1626
1	1626
1	8
1	1626
1	1626
1	7
1	1626
1	1626
1	1626
1	1626
1	1626
1	1626
1	10
1	1626
1	1626
1	1626
1	1626
1	1626
1	1626
1	1626
1	9
1	1626
1	11
1	1626
1	1626
1	1626
1	8
1	8
1	1626
1	1626
1	1626
1	13
1	1626
1	1626
1	2
1	9
1	1626
1	10
1	1626
1	1626
1	1626
1	1626
1	4
1	1626
1	1626
1	1626
1	6
1	1626
1	1626
1	1626
1	18
1	1626
1	9
1	1626
1	1626
1	4
1	1626
1	10
1	1626
1	1626
1	1626
1	1626
1	1626
1	1626
1	1626
1	1626
1	1626
1	1626
1	1626
1	1626
1	1626
1	1626
1	18
1	1626
1	1626
1	1626
1	13
1	1626
1	1626
1	11
1	1626
1	1626
1	1626
1	1626
1	11
1	22
1	1626
1	1626
1	1626
1	1626
1	1626
1	1626
1	1626
1	29
1	1626
1	1626
1	1626
1	1626
1	29
1	1626
1	22
1	1626
1	1627
1	1626
1	1626
1	1627
1	1626
1	1626
1	1626
1	1626
1	1626
1	1626
1	1626
1	1626
1	1626
1	1626
1	8
1	22
1	5
1	1626
1	1626
1	1626
1	1626
1	1626
1	18
1	1626
1	1626
1	1626
1	1626
1	11
1	5
1	1626
1	1626
1	9
1	1626
1	4
1	1626
1	1626
1	1626
1	1626
1	1626
1	1626
1	1626
1	1626
1	1626
1	1626
1	6
1	1626
1	1626
1	1626
1	8
1	1626
1	1626
1	1626
1	1626
1	1626
1	6
1	5
1	1626
1	1626
1	1626
1	1626
1	1626
1	1626
1	22
1	1626
1	1626
1	1626
1	1626
1	22
1	1626
1	1626
1	1626
1	1626
1	1626
1	1626
1	8
1	1626
1	1626
1	3
1	1626
1	1626
1	1626
1	1626
2	3
2	13
2	30
2	3
2	5
2	12
2	10
2	5
2	3
2	1627
2	3
2	12
2	20
2	3
2	1627
2	3
2	5
2	1627
2	24
2	3
2	3
2	7
2	9
2	5
2	17
2	8
2	3
2	3
2	3
2	3
2	7
2	5
2	3
2	17
2	8
2	8
2	5
2	3
2	3
2	9
2	38
2	3
2	3
2	8
2	7
2	11
2	11
2	24
2	3
2	9
2	6
2	3
2	4
2	3
2	6
2	6
2	7
2	1627
2	3
2	6
2	3
2	4
2	7
2	4
2	6
2	10
2	9
2	3
2	4
2	3
2	4
2	3
2	18
2	9
2	4
2	13
2	12
2	3
2	5
2	3
2	24
2	6
2	9
2	32
2	3
2	4
2	4
2	4
2	3
2	3
2	7
2	4
2	4
2	3
2	3
2	3
2	4
2	3
2	4
2	7
2	7
2	11
2	4
2	13
2	10
2	3
2	3
2	4
2	8
2	6
2	10
2	5
2	8
2	6
2	13
2	25
2	10
2	7
2	23
2	4
2	7
2	17
2	7
2	5
2	12
2	4
2	16
2	3
2	3
2	1627
2	3
2	6
2	4
2	5
2	6
2	3
2	9
2	13
2	4
2	18
2	3
2	4
2	4
2	9
2	3
2	4
2	13
2	3
2	4
2	1627
2	10
2	4
2	5
2	3
2	13
2	7
2	3
2	3
2	3
2	12
2	7
2	12
2	18
2	4
2	4
2	9
2	4
2	3
2	9
2	9
2	4
2	7
2	3
2	31
2	3
2	3
2	30
2	6
2	3
2	3
2	25
2	3
2	3
2	3
2	4
2	10
2	10
2	8
2	3
2	10
2	3
2	13
2	19
2	4
2	4
2	4
2	3
2	9
2	3
2	4
2	4
2	4
2	3
2	4
2	24
2	3
2	8
2	4
2	4
2	3
2	3
3	4
3	4
3	4
3	4
3	4
3	8
3	5
3	14
3	6
3	5
3	4
3	4
3	5
3	4
3	6
3	4
3	4
3	5
3	5
3	6
3	10
3	4
3	5
3	4
3	5
3	4
3	4
3	4
3	4
3	4
3	11
3	5
3	4
3	4
3	4
3	4
3	6
3	4
3	5
3	4
3	4
3	4
3	6
3	4
3	4
3	5
3	7
3	6
3	10
3	5
3	5
3	4
3	5
3	5
3	5
3	4
3	4
3	5
3	5
3	4
4	5
4	6
4	5
4	5
4	5
4	5
4	5
4	5
4	5
4	5
4	5
4	5
4	5
4	6
4	5
4	5
4	5
4	6
4	5
4	5
4	5
4	5
4	5
4	5
4	5
4	5
4	5
4	5
4	6
4	6
4	7
4	5
4	5
4	6
4	8
4	5
4	5
4	8
4	5
4	5
5	6
5	6
5	6
5	6
5	6
5	6
5	6
5	6
5	6
5	6
5	6
5	6
5	6
5	6
5	6
5	7
5	6
5	6
5	6
6	7
6	7
6	7
6	7
6	7
6	7
6	7
6	7
6	7
6	7
6	7
7	8
7	8
7	8
7	8
7	8
7	8
7	8
7	8
7	8
7	8
7	8
7	8
7	8
8	9
8	9
8	9
8	9
8	9
8	9
8	9
8	9
8	9
9	10
9	10
9	10
9	10
9	10
9	10
9	10
9	10
10	11
10	11
10	11
10	11
10	11
11	12
11	12
11	12
11	12
12	13
14	15
15	16
15	16
16	17
16	17
17	18
17	18
21	22
21	22
22	23
22	23
23	24
28	29
29	30
36	37
1625	1626
