1	6124
1	16
1	1381
1	1380
1	1380
1	1380
1	1380
1	1380
1	1380
1	1380
1	1380
1	26
1	1380
1	1380
1	18
1	1380
1	1380
1	1380
1	1381
1	1380
1	16
1	1380
1	1380
1	1380
1	1384
1	1380
1	19
1	1380
1	1380
1	1380
1	1380
1	1381
1	1380
1	1380
1	1380
1	1380
1	14
1	1380
1	1380
1	1380
1	1380
1	14
1	14
1	1380
1	14
1	14
1	14
1	13
1	1380
1	13
1	1380
1	14
1	23
1	1380
1	1380
1	14
1	1380
1	1380
1	1380
1	1380
1	1380
1	13
1	1380
1	10
1	1380
1	12
1	1380
1	13
1	12
1	1380
1	21
1	24
1	1380
1	1380
1	1380
1	1380
1	1380
1	1380
1	16
1	13
1	1380
1	17
1	13
1	19
1	6124
1	16
1	1380
1	15
1	13
1	1380
1	1380
1	1380
1	1380
1	1380
1	1380
1	12
1	1380
1	1380
1	1380
1	1380
1	1380
1	14
1	10
1	1380
1	1380
1	1380
1	1380
1	1380
1	16
1	1380
1	13
1	1380
1	1380
1	1380
1	1380
1	14
1	1380
1	1380
1	14
1	1380
1	1380
1	1380
1	1380
1	1380
1	1381
1	1380
1	1380
1	16
1	1380
1	10
1	11
1	1380
1	1380
1	14
1	1380
1	1380
1	1380
1	1382
1	1380
1	1380
1	1380
1	11
1	1380
1	1380
1	1380
1	16
1	1381
1	1380
1	10
1	1380
1	1380
1	13
1	1380
1	1380
1	1380
1	1380
1	1380
1	1380
1	1380
1	1380
1	1382
1	1380
1	1380
1	1380
1	12
1	1380
1	17
1	1380
1	1380
1	1380
1	1380
1	1380
1	12
1	1380
1	1380
1	1380
1	1380
1	1380
1	1380
1	8
1	1380
1	1380
1	1380
1	1380
1	1380
1	19
1	1380
1	1380
1	1380
1	7
1	1380
1	1380
1	16
1	8
1	1380
1	1380
1	1380
1	1380
1	1380
1	1380
1	1380
1	1380
1	1380
1	1380
1	16
1	1380
1	10
1	1380
1	1380
1	14
1	1380
1	1380
1	1380
1	1380
1	12
1	8
1	1380
1	1380
1	1380
1	1380
1	17
1	1380
1	1380
1	11
1	1380
1	1380
1	21
1	1383
1	21
1	19
1	1380
1	1380
1	1380
1	1380
1	1380
1	1380
1	1380
1	15
1	14
1	1380
1	1380
1	1380
1	1380
1	9
1	1380
1	19
1	1380
1	1380
1	1380
1	13
1	10
1	1380
1	1380
1	1380
1	9
1	1380
1	10
1	1380
1	11
1	1380
1	1380
1	1380
1	1380
1	1380
1	16
1	1380
1	1380
1	1380
1	17
1	1380
1	1380
1	1380
1	1380
1	23
1	1381
1	1380
1	1380
1	1380
1	33
1	1380
1	1380
1	1380
1	1380
1	1380
1	1380
1	1380
1	1380
1	1380
1	17
1	1380
1	16
1	1380
1	1380
1	1380
1	1380
1	1380
1	19
1	18
1	16
1	10
1	17
1	1380
1	7
1	1380
1	1380
1	1380
1	1380
1	1380
1	1380
1	1380
1	1380
1	1380
1	16
1	1380
1	1380
1	1380
1	19
1	17
1	1380
1	1380
1	1380
1	1380
1	1380
1	1380
1	1380
1	1380
1	12
1	1380
1	16
1	1380
1	16
1	1380
1	1380
1	1380
1	1380
1	18
1	1380
1	1380
1	10
1	1380
1	1380
1	13
1	1380
1	1380
1	1380
1	10
1	1380
1	1380
1	10
1	11
1	1380
1	7
1	14
1	1380
1	1380
1	1380
1	1380
1	1380
1	1380
1	14
1	5
1	1380
1	11
1	1380
1	1380
1	1380
1	12
1	13
1	1380
1	8
1	1380
1	10
1	17
1	1380
1	1380
1	1380
1	1381
1	1380
1	12
1	1380
1	1380
1	1380
1	11
1	21
1	1380
1	1380
1	1380
1	1380
1	1380
1	1380
1	1380
1	1380
1	1380
1	1380
1	1380
1	10
1	1380
1	1380
1	1380
1	1380
1	1380
1	8
1	10
1	11
1	1380
1	1380
1	1380
1	26
1	1380
1	1380
1	10
1	1380
1	1380
1	1380
1	1380
1	1380
1	14
1	1380
1	1380
1	1380
1	1380
1	1380
1	1380
1	1380
1	13
1	1380
1	13
1	1380
1	1380
1	1380
1	1380
1	1380
1	12
1	9
1	11
1	12
1	1380
1	1380
1	1380
1	1380
1	1380
1	1380
1	1380
1	13
1	1380
1	20
1	1380
1	1380
1	1380
1	9
1	1380
1	1380
1	1380
1	1380
1	1380
1	1380
1	12
1	1380
1	1381
1	1380
1	1380
1	1380
1	1380
1	1380
1	1380
1	1380
1	1380
1	1380
1	1380
1	1380
1	16
1	15
1	1380
1	1380
1	1380
1	1380
1	13
1	1380
1	21
1	6
1	1380
1	1380
1	1380
1	1380
1	1380
1	11
1	1380
1	1380
1	1380
1	1380
1	1380
1	1380
1	1380
1	1380
1	1380
1	1380
1	1381
1	1380
1	18
1	1380
1	21
1	14
1	1380
1	1380
1	1380
1	1380
1	1380
1	1380
1	1380
1	23
1	1380
1	1380
1	10
1	17
1	1380
1	1380
1	1380
1	12
1	1380
1	9
1	1380
1	11
1	12
1	1380
1	29
1	1380
1	1380
1	1380
1	1380
1	1380
1	19
1	7
1	1380
1	1380
1	1380
1	1382
1	5
1	6
1	1380
1	6
1	1380
1	23
1	1380
1	1380
1	11
1	10
1	19
1	1380
1	1380
1	1380
1	1380
1	1380
1	1380
1	11
1	12
1	1380
1	1380
1	1380
1	1381
1	1380
1	1380
1	1380
1	10
1	1380
1	1380
1	1380
1	1380
1	1380
1	1380
1	1380
1	1380
1	1380
1	1380
1	9
1	14
1	1380
1	1380
1	6
1	1380
1	1380
1	1380
1	20
1	1381
1	13
1	14
1	1380
1	1381
1	1380
1	1380
1	1380
1	1380
1	1380
1	1380
1	1380
1	1380
1	1380
1	1380
1	1380
1	1380
1	1380
1	1380
1	1380
1	11
1	14
1	11
1	1380
1	1380
1	1380
1	1380
1	1380
1	1380
1	13
1	11
1	1380
1	1380
1	1380
1	1380
1	1380
1	1380
1	1380
1	1381
1	1380
1	1380
1	1380
1	1380
1	1380
1	12
1	1380
1	20
1	1380
1	1380
1	1380
1	1380
1	1380
1	1380
1	1380
1	1380
1	1380
1	1380
1	7
1	10
1	1380
1	1380
1	1380
1	9
1	12
1	1380
1	1380
1	1380
1	1380
1	11
1	1380
1	1380
1	1380
1	1380
1	1380
1	1380
1	1380
1	1380
1	1380
1	8
1	1380
1	1380
1	8
1	1380
1	1380
1	14
1	8
1	13
1	9
1	1380
1	25
1	1380
1	1380
1	1380
1	1380
1	11
1	1380
1	1380
1	1380
1	1380
1	1380
1	13
1	1380
1	1380
1	1381
1	1380
1	8
1	13
1	6
1	1380
1	16
1	1380
1	1380
1	10
1	13
1	17
1	1380
1	12
1	23
1	18
1	1380
1	1380
1	1380
1	12
1	1380
1	1380
1	6
1	5
1	1380
1	1380
1	1380
1	1380
1	1380
1	13
1	1380
1	1380
1	1380
1	1380
1	1380
1	1381
1	1380
1	1380
1	1380
1	1380
1	1380
1	1380
1	1380
1	1380
1	1380
1	6
1	9
1	1380
1	1380
1	15
1	16
1	1380
1	9
1	1380
1	1380
1	1380
1	1380
1	1380
1	1380
1	13
1	14
1	1380
1	13
1	5
1	9
1	1380
1	1380
1	23
1	1380
1	1380
1	1380
1	1380
1	1380
1	11
1	13
1	1380
1	1380
1	10
1	12
1	6
1	1380
1	24
1	1380
1	1380
1	1380
1	1380
1	1380
1	1380
1	1380
1	7
1	12
1	1380
1	1380
1	1380
1	6
1	1380
1	10
1	14
1	1380
1	16
1	1380
1	1380
1	1380
1	1380
1	1380
1	20
1	7
1	11
1	1380
1	11
1	1380
1	1380
1	1380
1	1380
1	1380
1	1380
1	1380
1	17
1	1380
1	1380
1	1380
1	1380
1	1380
1	1380
1	1380
1	17
1	1380
1	1380
1	7
1	25
1	1380
1	11
1	1380
1	1380
1	1380
1	1380
1	5
1	1380
1	1380
1	1380
1	1380
1	1380
1	1380
1	12
1	12
1	1380
1	1380
1	1380
1	10
1	1380
1	1380
1	1380
1	10
1	1380
1	25
1	1380
1	10
1	1380
1	1380
1	8
1	7
1	1380
1	1380
1	1380
1	1380
1	1380
1	1380
1	1380
1	1380
1	1380
1	9
1	1380
1	25
1	1380
1	1380
1	20
1	1380
1	1380
1	8
1	1380
1	1380
1	1380
1	14
1	11
1	1381
1	5
1	1380
1	8
1	1380
1	1380
1	1380
1	17
1	1380
1	31
1	12
1	1380
1	11
1	1380
1	1380
1	1380
1	1380
1	16
1	1380
1	12
1	1380
1	1380
1	1380
1	1380
1	12
1	1380
1	1380
1	4
1	1380
1	1380
1	1380
1	1380
1	9
1	6
1	1380
1	1380
1	1380
1	1380
1	1380
1	10
1	1380
1	1380
1	1381
1	9
1	19
1	1380
1	1380
1	1380
1	1380
1	1380
1	1380
1	1380
1	1380
1	1380
1	11
1	17
1	16
1	1380
1	1380
1	16
1	1380
1	7
1	1380
1	1380
1	1380
1	16
1	1382
1	1380
1	20
1	1380
1	1380
1	8
1	11
1	1380
1	16
1	1380
1	6
1	1380
1	4
1	1380
1	1380
1	7
1	1380
1	1380
1	1380
1	13
1	25
1	14
1	1380
1	1380
1	1380
1	1381
1	1380
1	11
1	1380
1	1380
1	10
1	1380
1	1380
1	23
1	4
1	1380
1	1380
1	1380
1	1380
1	1380
1	1380
1	10
1	7
1	11
1	11
1	1380
1	17
1	1380
1	1380
1	18
1	1380
1	1380
1	18
1	1380
1	5
1	1380
1	5
1	1380
1	1380
1	1380
1	1380
1	1380
1	1380
1	11
1	1380
1	1380
1	18
1	6
1	14
1	1380
1	1380
1	16
1	12
1	1381
1	7
1	1380
1	1380
1	1380
1	1380
1	1380
1	1380
1	7
1	1380
1	16
1	1380
1	1380
1	1380
1	1380
1	1380
1	1380
1	1380
1	1380
1	1380
1	1380
1	19
1	16
1	10
1	1380
1	1380
1	1380
1	12
1	1380
1	1380
1	7
1	1380
1	1380
1	1380
1	1380
1	6124
1	1380
1	1380
1	1380
1	1381
1	6
1	1380
1	1380
1	1380
1	10
1	1380
1	16
1	1380
1	12
1	12
1	17
1	1380
1	15
1	1380
1	1380
1	1380
1	16
1	1380
1	18
1	25
1	1380
1	1380
1	1380
1	1380
1	9
1	9
1	6
1	1380
1	14
1	1381
1	1380
1	1380
1	1380
1	1380
1	1380
1	1380
1	1380
1	6
1	1380
1	1380
1	1380
1	1380
1	12
1	1380
1	14
1	1380
1	1380
1	1380
1	1380
1	1380
1	8
1	1380
1	16
1	1380
1	1380
1	1380
1	1380
1	1380
1	1382
1	1380
1	8
1	1380
1	12
1	10
1	13
1	1380
1	1380
1	1380
1	1380
1	18
1	1380
1	1380
1	18
1	1380
1	1380
1	1380
1	1380
1	1380
1	12
1	1380
1	1380
1	4
1	1380
1	1380
1	12
1	9
1	1380
1	1380
1	1380
1	1380
1	1380
1	25
1	1380
1	23
1	22
1	10
1	1380
1	1380
1	8
1	1380
1	6
1	18
1	1380
1	1380
1	1380
1	1380
1	7
1	8
1	1380
1	1380
1	17
1	1380
1	1380
1	1380
1	1380
1	1380
1	1380
1	1380
1	1380
1	1380
1	1380
1	1380
1	1380
1	6
1	19
1	6
1	11
1	6
1	1380
1	16
1	1380
1	18
1	1380
1	1380
1	1380
1	1380
1	1380
1	1380
1	1380
1	1380
1	1380
1	1380
1	12
1	11
1	10
1	1380
1	1380
1	1380
1	1380
1	10
1	14
1	1380
1	18
1	1380
1	6
1	1380
1	1380
1	1380
1	11
1	1380
1	1380
1	1380
1	1380
1	16
1	1380
1	8
1	1380
1	1380
1	1380
1	1380
1	1380
1	1380
1	1380
1	1380
1	1380
1	1380
1	5
1	1380
1	1380
1	1380
1	1380
1	1380
1	9
1	1380
1	11
1	1380
1	1380
1	10
1	1380
1	1380
1	1380
1	25
1	16
1	1380
1	1380
1	1380
1	12
1	18
1	1380
1	1380
1	13
1	1380
1	1380
1	12
1	1380
1	1380
1	1380
1	1380
1	1380
1	1380
1	1380
1	1380
1	1380
1	1380
1	1380
1	1380
1	1380
1	1380
1	1380
1	1380
1	1380
1	1380
1	1380
1	1380
1	1380
1	13
1	10
1	17
1	1380
1	1380
1	1380
1	16
1	1380
1	1380
1	1380
1	1380
1	1380
1	1380
1	1380
1	1380
1	23
1	1381
1	1380
1	1380
1	1380
1	1380
1	17
1	9
1	1380
1	1380
1	1380
1	1380
1	12
1	1380
1	1380
1	1380
1	20
1	1380
1	6
1	1380
1	1380
1	1381
1	5
1	1380
1	1380
1	1380
1	1380
1	1380
1	12
1	1380
1	1380
1	4
1	1380
1	1380
1	1380
1	1380
1	1380
1	11
1	1380
1	1380
1	1380
1	1380
1	7
1	17
1	1380
1	1380
1	11
1	1380
1	13
1	1380
1	4
1	1380
1	16
1	1380
1	1380
1	1380
1	19
1	1380
1	1381
1	1380
1	1380
1	16
1	1380
1	1380
1	23
1	1380
1	1380
1	11
1	1380
1	1380
1	7
1	1380
1	1380
1	1380
1	1380
1	1380
1	1380
1	14
1	12
1	9
1	1380
1	1380
1	23
1	1380
1	1380
1	1380
1	1380
1	1380
1	1380
1	1380
1	1380
1	12
1	1380
1	8
1	8
1	1380
1	1380
1	1380
1	1380
1	1380
1	1380
1	10
1	9
1	1380
1	19
1	25
1	1380
1	1380
1	6
1	16
1	1380
1	11
1	1380
1	1380
1	16
1	1380
1	1380
1	1380
1	1380
1	1380
1	14
1	1380
1	1381
1	1380
1	20
1	1380
1	1380
1	18
1	1380
1	1380
1	9
1	1380
1	1380
1	1380
1	1380
1	16
1	1380
1	5
1	1380
1	5
1	1381
1	1380
1	1380
1	16
1	1380
1	1380
1	1380
1	1380
1	17
1	1380
1	1380
1	1380
1	1380
1	9
1	1380
1	7
1	1380
1	18
1	1380
1	1380
1	8
1	11
1	1380
1	13
1	1380
1	1380
1	15
1	1380
1	1380
1	1380
1	3
1	1380
1	1380
1	7
1	1380
1	1380
1	1380
1	1380
1	1380
1	10
1	1380
1	1380
1	24
1	23
1	7
1	1380
1	1380
1	17
1	1380
1	1380
1	6
1	1380
1	1380
1	16
1	9
1	1381
1	1380
1	1380
1	13
1	1380
1	1380
1	1380
1	1380
1	1380
1	1380
1	1380
1	1380
1	1381
1	1380
1	1380
1	16
1	1380
1	1380
1	12
1	1380
1	1380
1	1380
1	1380
1	7
1	1380
1	14
1	1380
1	1380
1	8
1	1380
1	7
1	1380
1	10
1	7
1	1380
1	1380
1	1380
1	1381
1	1380
1	12
1	1380
1	10
1	1380
1	18
1	1380
1	10
1	1380
1	1380
1	8
1	1380
1	1380
1	1380
1	1380
1	26
1	11
1	23
1	1380
1	1380
1	1381
1	9
1	1380
1	9
1	1380
1	9
1	1380
1	23
1	11
1	9
1	1380
1	1380
1	1380
1	1381
1	1380
1	1380
1	10
1	14
1	10
1	10
1	9
1	1381
1	1380
1	1380
1	1380
1	1380
1	10
1	1380
1	1380
1	1380
1	1380
1	8
1	8
1	10
1	18
2	16
2	8
2	1381
2	4
2	8
2	10
2	4
2	1381
2	12
2	3
2	10
2	8
2	5
2	21
2	3
2	5
2	17
2	1381
2	4
2	10
2	20
2	16
2	16
2	8
2	16
2	7
2	1381
2	7
2	3
2	4
2	4
2	10
2	30
2	16
2	3
2	13
2	9
2	3
2	3
2	6
2	8
2	14
2	1381
2	7
2	3
2	3
2	3
2	14
2	6
2	10
2	3
2	3
2	8
2	3
2	8
2	3
2	3
2	3
2	3
2	18
2	3
2	3
2	3
2	4
2	11
2	8
2	21
2	1381
2	17
2	10
2	6
2	14
2	11
2	8
2	9
2	16
2	9
2	7
2	19
2	24
2	3
2	5
2	4
2	6
2	10
2	3
2	7
2	3
2	3
2	3
2	10
2	3
2	1381
2	6
2	6
2	3
2	6
2	30
2	3
2	4
2	13
2	17
2	4
2	11
2	9
2	8
2	4
2	10
2	4
2	3
2	16
2	6
2	8
2	5
2	6
2	21
2	3
2	10
2	6
2	12
2	7
2	1381
2	8
2	18
2	14
2	17
2	8
2	3
2	3
2	3
2	3
2	6
2	1381
2	17
2	13
2	3
2	4
2	3
2	11
2	9
2	8
2	4
2	5
2	30
2	3
2	4
2	17
2	9
2	17
2	5
2	4
2	3
2	6
2	3
2	20
2	1381
2	19
2	19
2	26
2	12
2	7
2	1381
2	3
2	5
2	3
2	4
2	3
2	18
2	4
2	7
2	3
2	4
2	6
2	8
2	3
2	3
2	4
2	11
2	7
2	11
2	3
2	4
2	5
2	30
2	14
2	8
2	3
2	7
2	11
2	30
2	3
2	6
2	11
2	3
2	8
2	11
2	5
2	30
2	7
2	3
2	30
2	3
2	4
2	11
2	5
2	30
2	1381
2	3
2	8
2	7
2	4
2	11
2	4
2	9
2	4
2	5
2	5
2	11
2	3
2	4
2	4
2	30
2	4
2	7
2	4
2	5
2	7
2	3
2	4
2	8
2	3
2	7
2	24
2	9
2	26
2	4
2	3
2	3
2	4
2	4
2	6
2	17
2	3
2	5
2	3
2	11
2	4
2	3
2	3
2	5
2	3
2	5
2	6
2	12
2	3
2	30
2	3
2	8
2	4
2	8
2	7
2	17
2	4
2	4
2	4
2	5
2	3
2	30
2	4
2	7
2	19
2	11
2	5
2	18
2	16
2	3
2	17
2	10
2	4
2	6
2	5
2	11
2	4
2	4
2	8
2	12
2	30
2	3
2	7
2	7
2	3
2	9
2	10
2	13
2	6
2	7
3	4
3	4
3	11
3	9
3	5
3	7
3	4
3	5
3	5
3	8
3	5
3	5
3	4
3	6
3	4
3	4
3	5
3	5
3	4
3	5
3	7
3	4
3	5
3	5
3	5
3	4
3	5
3	6
3	4
3	7
3	5
3	4
3	5
3	4
3	17
3	17
3	4
3	4
3	5
3	9
3	5
3	5
3	4
3	4
3	11
3	4
3	6
3	5
3	5
3	17
3	7
3	8
3	6
3	4
3	12
3	4
3	6
3	4
3	5
3	17
3	7
3	6
3	4
3	5
3	4
3	11
3	4
3	4
3	4
3	4
3	7
3	7
3	12
3	17
3	17
3	6
3	4
3	5
3	7
3	6
3	10
3	5
3	5
3	5
3	4
3	5
3	4
3	4
3	4
3	4
3	4
3	4
3	4
4	6
4	6
4	5
4	5
4	5
4	7
4	6
4	6
4	7
4	5
4	5
4	8
4	5
4	5
4	5
4	8
4	5
4	5
4	6
4	5
4	6
4	5
4	5
4	6
4	5
4	7
4	5
4	5
4	5
4	6
4	5
4	6
4	5
4	5
4	5
4	5
4	5
4	5
4	6
4	5
4	5
5	8
5	6
5	6
5	6
5	6
5	6
5	6
5	6
5	6
5	7
5	6
5	6
5	7
5	6
5	6
5	6
5	6
5	6
5	6
5	9
5	7
5	6
5	6
5	6
6	7
6	7
6	7
6	7
6	7
6	7
6	8
6	7
6	7
6	7
6	8
6	7
6	7
6	7
6	9
6	7
6	7
7	8
7	8
7	8
7	9
7	8
7	8
7	8
7	8
7	8
8	9
8	9
8	9
8	9
8	9
8	9
8	9
8	9
8	9
8	9
8	9
8	9
9	10
9	10
9	10
9	10
9	10
9	10
9	10
9	10
9	10
9	10
9	10
9	10
9	10
9	10
9	10
10	11
10	11
10	11
11	12
11	12
11	12
11	12
11	12
11	12
11	12
11	12
12	13
12	13
13	14
13	14
14	15
14	15
15	16
15	16
15	16
15	16
15	16
15	16
16	17
17	18
17	18
18	19
19	20
19	20
22	23
24	25
28	29
1379	1380
