1	6124
1	1207
1	1206
1	1206
1	1206
1	21
1	1206
1	1206
1	21
1	1206
1	1206
1	18
1	1206
1	19
1	17
1	13
1	1206
1	1206
1	1215
1	14
1	1206
1	1206
1	23
1	1206
1	1206
1	1206
1	1206
1	6124
1	1206
1	20
1	1206
1	20
1	12
1	15
1	1206
1	1206
1	1206
1	11
1	1206
1	15
1	1206
1	13
1	1206
1	16
1	1206
1	1206
1	1206
1	18
1	1206
1	1206
1	1206
1	1206
1	16
1	1206
1	1206
1	1206
1	12
1	1206
1	14
1	22
1	1206
1	1206
1	1206
1	1206
1	1206
1	1206
1	1206
1	1206
1	1206
1	1207
1	1206
1	1206
1	1208
1	1206
1	1207
1	12
1	1206
1	1206
1	1206
1	16
1	14
1	1206
1	24
1	1206
1	1206
1	1206
1	18
1	1206
1	1207
1	1206
1	1206
1	1206
1	1206
1	1206
1	25
1	6124
1	1206
1	1206
1	1206
1	14
1	27
1	16
1	27
1	1206
1	1206
1	23
1	24
1	1206
1	14
1	21
1	1206
1	14
1	11
1	1206
1	1206
1	1206
1	1206
1	1206
1	14
1	1206
1	1206
1	1206
1	1206
1	14
1	1206
1	1206
1	1206
1	1207
1	5
1	1206
1	16
1	1206
1	19
1	9
1	1206
1	8
1	1206
1	1206
1	1206
1	1206
1	1206
1	1206
1	12
1	26
1	8
1	1206
1	5
1	1206
1	11
1	1206
1	1206
1	1207
1	10
1	10
1	11
1	1206
1	9
1	16
1	10
1	1206
1	1206
1	13
1	1208
1	1206
1	11
1	19
1	1206
1	15
1	16
1	1206
1	1206
1	1206
1	6
1	1206
1	4
1	16
1	1206
1	1206
1	1206
1	1206
1	18
1	1206
1	16
1	1206
1	1206
1	1206
1	1206
1	16
1	1207
1	1206
1	21
1	1206
1	1206
1	14
1	9
1	13
1	13
1	9
1	16
1	1206
1	18
1	22
1	9
1	8
1	1206
1	1206
1	9
1	11
1	1206
1	1206
1	1206
1	20
1	14
1	1206
1	1206
1	1206
1	11
1	23
1	1206
1	1206
1	1206
1	13
1	26
1	16
1	1206
1	1206
1	1206
1	1206
1	1206
1	20
1	1206
1	13
1	1206
1	1206
1	24
1	1206
1	15
1	1206
1	1206
1	16
1	1206
1	1206
1	1206
1	1206
1	8
1	1206
1	1206
1	1206
1	1206
1	24
1	1206
1	24
1	1206
1	1206
1	8
1	9
1	8
1	1206
1	1206
1	1206
1	1206
1	1206
1	26
1	1206
1	1206
1	1206
1	1206
1	1206
1	10
1	1206
1	1210
1	1208
1	1206
1	18
1	1206
1	7
1	1206
1	16
1	1206
1	1206
1	1206
1	1206
1	14
1	7
1	14
1	1207
1	13
1	1206
1	1206
1	1206
1	1207
1	1206
1	1206
1	1206
1	12
1	11
1	12
1	1206
1	1206
1	1206
1	1206
1	1206
1	14
1	1206
1	1207
1	1206
1	24
1	1206
1	1206
1	17
1	1206
1	19
1	1206
1	1206
1	1206
1	1206
1	1206
1	14
1	12
1	13
1	1206
1	1206
1	1206
1	1207
1	1206
1	18
1	8
1	1206
1	18
1	12
1	6124
1	8
1	4
1	1207
1	1206
1	1206
1	19
1	9
1	1206
1	1206
1	20
1	1206
1	1206
1	19
1	14
1	1207
1	11
1	10
1	1206
1	1206
1	1206
1	1206
1	12
1	1206
1	14
1	16
1	1206
1	14
1	1206
1	1206
1	1206
1	19
1	9
1	1206
1	1207
1	1206
1	1206
1	1207
1	1206
1	22
1	1206
1	10
1	1206
1	1207
1	27
1	1206
1	9
1	1206
1	1207
1	10
1	9
1	1206
1	10
1	1207
1	1206
1	9
1	21
1	14
1	1206
1	1206
1	18
1	1206
1	1206
1	20
1	9
1	23
1	1206
1	1206
1	1206
1	14
1	1206
1	12
1	1206
1	1206
1	1206
1	1206
1	6124
1	1206
1	20
1	4
1	19
1	15
1	1206
1	1206
1	1206
1	1207
1	11
1	1206
1	1206
1	11
1	1206
1	1206
1	1206
1	14
1	1206
1	1206
1	9
1	1206
1	13
1	30
1	1206
1	1206
1	1206
1	14
1	1207
1	1209
1	16
1	12
1	12
1	11
1	2
1	1206
1	1206
1	1206
1	1206
1	1206
1	1206
1	22
1	1206
1	17
1	1206
1	1206
1	19
1	1206
1	1206
1	9
1	1206
1	1206
1	14
1	21
1	10
1	12
1	9
1	1206
1	1207
1	7
1	1206
1	10
1	1206
1	1206
1	1206
1	1206
1	14
1	1206
1	1206
1	1206
1	8
1	12
1	1206
1	12
1	1206
1	1206
1	6
1	1206
1	1206
1	1206
1	1206
1	1206
1	1206
1	1206
1	1206
1	1206
1	9
1	8
1	1206
1	16
1	1206
1	1206
1	1206
1	9
1	10
1	1206
1	1206
1	1206
1	1206
1	1206
1	7
1	23
1	1206
1	1206
1	1206
1	1207
1	10
1	12
1	1206
1	18
1	1206
1	1206
1	1206
1	1206
1	5
1	1206
1	21
1	1206
1	1206
1	1206
1	1206
1	1207
1	18
1	1206
1	1206
1	1206
1	7
1	1206
1	18
1	12
1	1206
1	2
1	1206
1	1206
1	1206
1	1206
1	1206
1	13
1	1206
1	1206
1	10
1	1206
1	19
1	1206
1	1206
1	1206
1	1206
1	1206
1	1206
1	10
1	10
1	1206
1	1206
1	1207
1	1206
1	1206
1	21
1	11
1	1206
1	1206
1	6
1	1206
1	1206
1	1206
1	17
1	13
1	1206
1	1206
1	1206
1	1206
1	20
1	1206
1	12
1	1206
1	1206
1	11
1	14
1	1206
1	1206
1	11
1	1206
1	8
1	1206
1	18
1	1206
1	19
1	24
1	16
1	7
1	12
1	1206
1	1207
1	1206
1	12
1	1206
1	1206
1	1206
1	1206
1	1206
1	14
1	1206
1	9
1	1206
1	1206
1	20
1	1206
1	1206
1	1206
1	14
1	1207
1	1206
1	15
1	1206
1	7
1	8
1	1206
1	7
1	1206
1	1207
1	8
1	1206
1	1207
1	1206
1	1206
1	7
1	18
1	20
1	1206
1	7
1	1206
1	1206
1	1206
1	1206
1	1209
1	1206
1	12
1	1206
1	1206
1	1206
1	9
1	1206
1	1206
1	1206
1	1206
1	13
1	1206
1	10
1	8
1	1206
1	1206
1	1206
1	1206
1	11
1	1206
1	1206
1	1206
1	1206
1	7
1	1206
1	15
1	1206
1	1206
1	1206
1	13
1	1206
1	1206
1	16
1	1206
1	1206
1	1206
1	20
1	1206
1	16
1	1206
1	1206
1	1207
1	1206
1	1206
1	1206
1	1206
1	16
1	1206
1	1206
1	1206
1	22
1	8
1	1206
1	14
1	1206
1	1206
1	9
1	11
1	1206
1	1206
1	1206
1	4
1	1206
1	1206
1	1206
1	1206
1	1206
1	1206
1	1206
1	1206
1	5
1	7
1	1206
1	18
1	1206
1	12
1	1206
1	1206
1	1206
1	1206
1	1206
1	1206
1	12
1	6124
1	1206
1	1206
1	1206
1	1206
1	1206
1	11
1	10
1	1206
1	1206
1	21
1	1206
1	1206
1	1206
1	19
1	5
1	1206
1	1206
1	1207
1	1206
1	1206
1	1206
1	1206
1	16
1	8
1	16
1	1206
1	1206
1	14
1	9
1	1206
1	1206
1	1206
1	1206
1	9
1	4
1	13
1	9
1	1206
1	1206
1	1206
1	1206
1	1206
1	14
1	1206
1	4
1	20
1	1206
1	14
1	1206
1	23
1	16
1	1206
1	19
1	1206
1	1206
1	1206
1	1206
1	9
1	20
1	1206
1	1206
1	1206
1	20
1	12
1	22
1	1207
1	1206
1	1206
1	9
1	18
1	23
1	1206
1	16
1	1206
1	8
1	1207
1	1206
1	1206
1	1206
1	1206
1	1208
1	15
1	21
1	1206
1	19
1	1206
1	10
1	1206
1	1206
1	1206
1	8
1	18
1	1206
1	1206
1	9
1	9
1	1206
1	1206
1	1206
1	1206
1	11
1	16
1	1206
1	1206
1	10
1	1206
1	1207
1	16
1	1206
1	1206
1	1206
1	5
1	1206
1	23
1	15
1	19
1	14
1	1206
1	1206
1	1206
1	13
1	1206
1	1206
1	1206
1	1206
1	1206
1	1206
1	1206
1	8
1	1206
1	1206
1	14
1	15
1	23
1	11
1	1206
1	16
1	10
1	1206
1	1206
1	18
1	1206
1	13
1	16
1	5
1	1206
1	1206
1	1206
1	26
1	1207
1	1206
1	11
1	1206
1	11
1	4
1	1206
1	1206
1	16
1	1206
1	11
1	5
1	1206
1	1206
1	1206
1	5
1	14
1	1206
1	1206
1	1206
1	1206
1	1206
1	1206
1	1206
1	1206
1	9
1	8
1	1206
1	1206
1	1206
1	1206
1	15
1	1206
1	1206
1	1206
1	1206
1	1206
1	14
1	1206
1	5
1	7
1	1206
1	10
1	12
1	1206
1	23
1	1206
1	23
1	1206
1	1206
1	16
1	1206
1	23
1	9
1	1206
1	1206
1	1206
1	9
1	10
1	26
1	1206
1	1206
1	15
1	1206
1	1206
1	1206
1	15
1	1206
1	10
1	24
1	1206
1	1206
1	14
1	1206
1	8
1	16
1	12
1	9
1	14
1	1206
1	9
1	1206
1	1206
1	1206
1	1206
1	1206
1	1206
1	1206
1	1206
1	14
1	1206
1	1206
1	6
1	1206
1	1206
1	1206
1	26
1	1206
1	14
1	14
1	1206
1	1206
1	1206
1	2
1	16
1	20
1	1206
1	9
1	1206
1	22
1	26
1	1207
1	1206
1	10
1	1206
1	9
1	1206
1	9
1	1206
1	1206
1	9
1	1206
1	1207
1	1206
1	1206
1	1206
1	1207
1	1206
1	14
1	1206
1	15
1	1206
1	1206
1	9
1	1206
1	1206
1	18
1	1206
1	1206
1	1206
1	12
1	1206
1	13
1	8
1	1206
1	1207
1	1206
1	26
1	8
1	1206
1	1206
1	1206
1	21
1	1206
1	13
1	1206
1	1206
1	6
1	1206
1	1206
1	7
1	1206
1	14
1	1206
1	9
1	1206
1	1206
1	11
1	8
1	1206
1	7
1	12
1	12
1	1206
1	1206
1	23
1	16
1	1206
1	1206
1	1206
1	1206
1	1206
1	1206
1	1206
1	1206
1	1206
1	11
1	14
1	1206
1	1206
1	9
1	1206
1	10
1	1206
1	9
1	1206
1	9
1	1206
1	1206
1	1206
1	7
1	24
1	1206
1	1206
1	1206
1	14
1	24
1	1206
1	1206
1	1206
1	26
1	5
1	1206
1	21
1	6
1	1206
1	1206
1	9
1	1207
1	24
1	1206
1	11
1	1206
1	1206
1	1206
1	1206
1	10
1	1207
1	1207
1	1206
1	1206
1	1206
1	12
1	13
1	16
1	1206
1	1206
1	6
1	1206
1	1206
1	1206
1	1206
1	1206
1	1206
1	1206
1	1206
1	1206
1	1206
1	1206
1	4
1	8
1	14
1	21
1	1206
1	1206
1	1207
1	19
1	1206
1	11
1	1206
1	1206
1	1206
1	1206
1	1206
1	1206
1	14
1	1206
1	1206
1	1206
1	14
1	22
1	1206
1	1206
1	1206
1	1206
1	9
1	1206
1	8
1	1206
1	1206
1	1206
1	1206
1	14
1	4
1	19
1	1206
1	1206
1	12
1	1206
1	1206
1	1206
1	1206
1	1206
1	1206
1	19
1	1206
1	1206
1	1206
1	5
1	1206
1	12
1	1206
1	1206
1	9
1	8
1	1206
1	1206
1	1206
1	22
1	14
1	1206
1	1206
1	1207
1	8
1	1206
1	1206
1	1206
1	9
1	1206
1	1206
1	1206
1	9
1	1206
1	1206
1	1206
1	16
1	1206
1	8
1	21
1	1206
1	4
1	1207
1	1206
1	1206
1	1206
1	13
1	1206
1	1206
1	1206
1	14
1	10
1	1206
1	1206
1	1206
1	1206
1	18
1	1207
1	16
1	1206
1	9
1	12
1	5
1	1206
1	24
1	5
1	1206
1	1206
1	1206
1	21
1	8
1	1206
1	1207
1	26
1	19
1	1206
1	1206
1	1206
1	1206
1	1206
1	1207
1	1207
1	1206
1	5
1	12
1	1206
1	2
1	1206
1	1206
1	1206
1	1206
1	6
1	1206
1	1206
1	1206
1	14
1	22
1	11
1	1206
1	1206
1	6
1	1206
1	11
1	1206
1	1206
1	1206
1	1206
1	1206
1	16
1	8
1	1206
1	9
1	10
1	1206
1	1206
1	1206
1	1206
1	1206
1	1206
1	1206
1	12
1	1206
1	4
1	1206
1	9
1	1206
1	1206
1	1206
1	1206
1	13
1	1206
1	1206
1	1206
1	8
1	1206
1	1206
1	1206
1	1206
1	1206
1	1206
1	6
1	1207
1	1206
1	10
1	21
1	1206
1	1206
1	20
1	1206
1	1207
1	1206
1	1206
1	13
1	1206
1	1206
1	18
1	1206
1	12
1	6
1	1206
1	1206
1	26
1	14
1	23
1	1206
1	1207
1	1206
1	7
1	1206
1	10
1	1206
1	1206
1	1206
1	11
1	1206
1	1206
1	1206
1	4
1	1206
1	1206
1	9
1	1206
1	13
1	1206
1	1206
1	1206
1	1206
1	1206
1	1206
1	5
1	1206
1	1206
1	1206
1	1206
1	1206
1	1206
1	1206
1	1206
1	1206
1	1206
1	1206
1	23
1	1206
1	8
1	1206
1	1206
1	12
1	1206
1	1206
1	1206
1	1206
1	9
1	4
1	1206
1	1206
1	1206
1	1206
1	1206
1	11
1	1206
1	1206
1	1206
1	6
1	1206
1	1206
1	13
1	1206
1	1206
1	1206
1	1206
1	1206
1	1206
1	4
1	13
1	7
1	1206
1	21
1	21
1	1206
1	1206
2	8
2	10
2	9
2	12
2	6
2	1207
2	3
2	3
2	6
2	3
2	1207
2	4
2	3
2	10
2	14
2	3
2	3
2	9
2	9
2	3
2	9
2	1207
2	3
2	22
2	10
2	6
2	13
2	6
2	3
2	3
2	9
2	3
2	9
2	7
2	10
2	6
2	24
2	4
2	3
2	8
2	7
2	3
2	13
2	6
2	8
2	7
2	4
2	3
2	21
2	1207
2	1207
2	1207
2	6
2	10
2	1207
2	5
2	5
2	11
2	17
2	23
2	9
2	15
2	10
2	4
2	5
2	4
2	5
2	8
2	10
2	7
2	3
2	3
2	7
2	4
2	15
2	4
2	25
2	12
2	4
2	10
2	3
2	8
2	3
2	14
2	1207
2	1207
2	3
2	6
2	1207
2	8
2	3
2	8
2	3
2	8
2	3
2	4
2	14
2	3
2	3
2	9
2	3
2	5
2	4
2	3
2	15
2	4
2	9
2	11
2	6
2	5
2	5
2	8
2	10
2	3
2	5
2	11
2	4
2	3
2	11
2	14
2	3
2	7
2	4
2	11
2	3
2	8
2	18
2	7
2	10
2	4
2	8
2	4
2	5
2	4
2	10
2	5
2	15
2	3
2	4
2	6
2	4
2	5
2	4
2	12
2	5
2	6
2	3
2	3
2	7
2	3
2	6
2	28
2	3
2	3
2	10
2	3
2	6
2	6
2	17
2	10
2	8
2	6
2	1207
2	3
2	3
2	5
2	3
2	4
2	19
2	3
2	3
2	7
2	4
2	10
2	3
2	3
2	7
2	10
2	6
2	4
2	3
2	14
2	4
2	20
2	3
2	3
2	15
2	4
2	14
2	4
2	3
2	6
2	11
2	13
2	6
2	3
2	15
2	1207
2	3
2	8
2	10
2	7
2	15
2	4
2	7
2	4
2	8
2	5
2	7
2	7
2	23
2	4
2	6
2	10
2	8
2	6
2	5
2	20
2	4
2	1207
2	9
2	3
2	16
2	6
2	4
2	3
2	3
2	3
2	3
2	5
2	12
2	6
2	6
2	3
2	3
2	7
2	3
2	9
2	6
2	6
2	4
2	13
2	3
2	12
2	8
2	27
2	3
2	6
2	4
2	11
2	7
2	10
2	4
2	4
2	20
2	6
2	10
2	25
2	4
2	3
2	4
2	3
2	16
2	4
2	3
2	9
2	4
2	7
2	4
2	7
2	3
2	7
2	8
2	4
2	7
2	9
2	4
2	4
2	4
2	4
2	4
2	4
2	8
2	8
2	3
2	4
2	14
2	5
2	3
2	7
2	4
2	5
2	10
2	4
2	7
2	5
2	4
2	3
2	9
2	3
2	3
2	4
2	4
2	11
2	4
2	4
2	3
2	6
2	4
2	3
2	3
2	3
2	4
2	15
2	16
2	4
2	4
2	3
2	8
2	7
2	27
2	3
2	4
2	13
2	4
2	10
2	10
3	4
3	4
3	4
3	4
3	4
3	4
3	5
3	4
3	5
3	4
3	4
3	4
3	5
3	4
3	4
3	4
3	5
3	11
3	4
3	4
3	11
3	11
3	6
3	8
3	7
3	5
3	4
3	4
3	4
3	4
3	4
3	6
3	5
3	6
3	7
3	5
3	6
3	6
3	6
3	4
3	4
3	4
3	7
3	4
3	4
3	8
3	4
3	4
3	4
3	4
3	4
3	7
3	6
3	5
3	7
3	16
3	5
3	6
3	4
3	7
3	5
3	4
3	4
3	4
3	8
3	5
3	7
3	4
3	5
3	4
3	11
3	5
3	5
3	4
3	4
3	7
3	5
3	5
3	16
3	5
3	4
3	4
3	4
3	4
3	4
3	8
3	5
3	6
3	6
3	4
3	4
3	5
3	5
3	4
3	6
3	4
3	4
3	4
3	4
3	4
3	5
3	6
3	6
3	5
3	4
3	4
4	6
4	5
4	7
4	5
4	5
4	5
4	5
4	5
4	5
4	5
4	5
4	7
4	7
4	9
4	6
4	5
4	5
4	5
4	5
4	5
4	11
4	6
4	5
4	6
4	5
4	5
4	5
4	6
4	5
4	8
4	5
4	5
4	5
4	5
4	5
4	6
4	5
4	5
4	5
4	8
4	6
4	5
4	5
4	6
4	6
4	6
4	5
4	5
4	9
4	5
4	5
4	6
4	9
4	5
4	5
4	6
4	7
4	5
4	6
4	5
4	5
4	5
4	6
4	6
4	5
4	5
4	5
4	5
4	6
4	6
4	5
5	6
5	8
5	7
5	6
5	7
5	7
5	6
5	6
5	6
5	7
5	6
5	6
5	6
5	7
5	7
5	7
5	6
5	6
5	6
5	6
5	6
5	7
5	6
5	6
5	7
5	6
5	7
5	7
5	6
5	7
5	9
5	7
6	8
6	7
6	8
6	7
6	7
6	7
6	7
6	7
6	7
6	10
6	7
6	7
6	7
6	7
6	7
6	7
7	8
7	8
7	8
7	8
7	8
7	8
7	8
7	8
7	8
7	8
7	8
7	8
7	8
7	12
7	8
7	9
7	8
8	9
8	9
8	10
8	9
8	9
8	9
8	9
8	9
8	10
8	9
8	9
8	9
8	9
8	9
8	9
9	10
9	11
9	10
9	10
9	10
9	10
10	11
10	11
10	11
10	11
11	12
11	12
11	12
11	13
11	13
12	13
12	13
12	13
13	14
13	14
13	14
13	14
13	14
13	14
13	14
13	14
14	15
15	16
15	16
15	16
17	18
17	18
18	19
18	19
19	20
20	21
21	22
22	23
23	24
25	26
1205	1206
