1	6124
1	1235
1	1235
1	1235
1	1235
1	1236
1	1235
1	43
1	1235
1	1235
1	1235
1	1235
1	1235
1	1235
1	1235
1	1235
1	1235
1	20
1	1235
1	1235
1	16
1	1235
1	1235
1	1235
1	1235
1	1235
1	1236
1	1235
1	34
1	1235
1	1235
1	1235
1	1235
1	1235
1	1235
1	23
1	1235
1	7
1	17
1	15
1	1235
1	11
1	16
1	1235
1	1235
1	1236
1	1235
1	1235
1	14
1	1235
1	17
1	11
1	1235
1	1235
1	1235
1	37
1	1235
1	1235
1	1235
1	1235
1	1235
1	1235
1	20
1	1235
1	1235
1	1235
1	1235
1	1235
1	1235
1	1235
1	1235
1	1235
1	1235
1	1235
1	1235
1	1236
1	1235
1	1235
1	1235
1	1235
1	1235
1	1235
1	15
1	1235
1	1235
1	1235
1	1235
1	17
1	16
1	1235
1	1235
1	1235
1	1235
1	15
1	1235
1	1235
1	1235
1	1235
1	1235
1	15
1	1235
1	6124
1	1235
1	1235
1	1235
1	1235
1	1235
1	1235
1	26
1	1235
1	1238
1	1235
1	1235
1	1235
1	1235
1	12
1	1235
1	12
1	1235
1	1235
1	1235
1	1235
1	1235
1	1235
1	1235
1	1236
1	1235
1	1235
1	20
1	1235
1	1236
1	1235
1	1235
1	1235
1	1235
1	1235
1	1236
1	1235
1	1235
1	18
1	1235
1	1235
1	1235
1	1235
1	1235
1	15
1	1235
1	1236
1	1235
1	1235
1	1235
1	44
1	1235
1	1235
1	11
1	1235
1	42
1	1235
1	1235
1	1235
1	1235
1	1237
1	1235
1	1235
1	1235
1	42
1	1235
1	1235
1	1235
1	1235
1	19
1	1235
1	1235
1	1235
1	1235
1	1235
1	1236
1	1235
1	1235
1	1235
1	22
1	11
1	15
1	1235
1	20
1	1235
1	1235
1	1235
1	8
1	1236
1	11
1	13
1	1235
1	1235
1	11
1	34
1	1235
1	15
1	1235
1	1235
1	14
1	1235
1	1236
1	1235
1	1235
1	1235
1	1235
1	1235
1	1235
1	1235
1	1235
1	1235
1	1235
1	1235
1	42
1	15
1	20
1	1236
1	1235
1	1235
1	1235
1	1235
1	15
1	1235
1	1235
1	1235
1	33
1	1235
1	1235
1	1235
1	1235
1	1235
1	7
1	25
1	18
1	1235
1	1235
1	1235
1	1235
1	1235
1	1235
1	1235
1	15
1	1235
1	1235
1	1237
1	1235
1	1235
1	1235
1	9
1	1235
1	1235
1	1235
1	1235
1	1235
1	1235
1	1235
1	1235
1	1235
1	1235
1	1235
1	22
1	23
1	1235
1	5
1	1235
1	1236
1	11
1	1235
1	1235
1	1235
1	9
1	1236
1	1235
1	1235
1	15
1	1235
1	1235
1	1235
1	1235
1	1235
1	1235
1	1235
1	1235
1	1235
1	15
1	1235
1	15
1	1235
1	1236
1	11
1	1235
1	1235
1	11
1	1235
1	1235
1	10
1	1235
1	19
1	15
1	6124
1	1235
1	1235
1	1235
1	1235
1	1235
1	1235
1	1235
1	1235
1	1235
1	1235
1	1235
1	1235
1	12
1	3
1	11
1	33
1	1235
1	1235
1	9
1	1235
1	1235
1	1235
1	1235
1	1235
1	18
1	1235
1	19
1	33
1	22
1	1235
1	9
1	1235
1	12
1	13
1	1235
1	1235
1	13
1	1235
1	16
1	1235
1	1235
1	1235
1	1235
1	8
1	1235
1	1235
1	1235
1	1235
1	1235
1	15
1	1235
1	26
1	16
1	1235
1	11
1	1235
1	1235
1	19
1	1235
1	9
1	12
1	1235
1	1235
1	15
1	33
1	11
1	10
1	1235
1	1235
1	1235
1	18
1	1235
1	12
1	1235
1	12
1	1235
1	1235
1	7
1	1235
1	42
1	1235
1	1235
1	1235
1	1235
1	1235
1	1235
1	13
1	1235
1	7
1	1235
1	7
1	1235
1	6
1	15
1	1235
1	1235
1	1235
1	1235
1	1235
1	1235
1	1235
1	1235
1	1235
1	1235
1	1235
1	1235
1	1235
1	1235
1	1235
1	1235
1	1235
1	1235
1	1235
1	1235
1	1235
1	15
1	17
1	1235
1	22
1	1235
1	1235
1	1235
1	1235
1	1235
1	9
1	1235
1	1235
1	19
1	7
1	1235
1	1235
1	10
1	10
1	8
1	1235
1	9
1	1235
1	5
1	1237
1	1235
1	1235
1	1235
1	9
1	33
1	1235
1	1235
1	1235
1	12
1	1235
1	1235
1	1235
1	1235
1	1235
1	1235
1	1236
1	22
1	1235
1	1235
1	1235
1	1235
1	1235
1	1235
1	1235
1	14
1	1235
1	1235
1	1235
1	1235
1	1235
1	10
1	1235
1	1235
1	1235
1	14
1	1235
1	1235
1	1235
1	9
1	1235
1	10
1	1235
1	1235
1	1235
1	1235
1	1235
1	1235
1	12
1	9
1	33
1	1235
1	1235
1	1235
1	1235
1	1235
1	1235
1	33
1	9
1	11
1	1235
1	1235
1	7
1	1235
1	1235
1	1235
1	9
1	23
1	1235
1	1235
1	1235
1	34
1	1235
1	6124
1	14
1	1235
1	1235
1	1235
1	26
1	6
1	1235
1	11
1	1235
1	25
1	1235
1	13
1	1235
1	1235
1	1235
1	1236
1	1235
1	1235
1	42
1	1235
1	1235
1	1235
1	1235
1	1235
1	1235
1	1235
1	10
1	1235
1	7
1	15
1	1235
1	1236
1	1235
1	1235
1	1235
1	1235
1	1235
1	1235
1	1235
1	1235
1	14
1	33
1	1235
1	1235
1	1235
1	1235
1	1235
1	1235
1	1235
1	1235
1	18
1	1235
1	1235
1	1235
1	1235
1	42
1	1235
1	1235
1	1235
1	1235
1	12
1	1235
1	1235
1	1235
1	1235
1	1235
1	1235
1	1235
1	10
1	1235
1	1235
1	1235
1	1235
1	14
1	1235
1	1235
1	1235
1	1235
1	1235
1	12
1	1235
1	1235
1	1235
1	1235
1	1235
1	10
1	1235
1	1235
1	1235
1	1235
1	1235
1	1235
1	6
1	1235
1	11
1	1235
1	15
1	1235
1	1235
1	22
1	1235
1	22
1	4
1	1235
1	1235
1	1235
1	1236
1	1235
1	1235
1	1235
1	1235
1	25
1	1235
1	1235
1	1236
1	1235
1	10
1	1236
1	1235
1	1235
1	13
1	1235
1	1235
1	1236
1	1235
1	15
1	1235
1	1235
1	1235
1	1235
1	1235
1	1235
1	11
1	42
1	8
1	1235
1	1235
1	1235
1	1235
1	1235
1	1235
1	14
1	1235
1	1235
1	6
1	16
1	1235
1	1235
1	22
1	1235
1	1235
1	1235
1	7
1	9
1	33
1	1235
1	14
1	1235
1	14
1	1235
1	26
1	1235
1	1235
1	1235
1	8
1	1235
1	1235
1	1235
1	1235
1	1235
1	1235
1	1235
1	1235
1	1235
1	42
1	1235
1	1236
1	7
1	11
1	1235
1	1235
1	1235
1	1235
1	18
1	1235
1	1235
1	1235
1	1235
1	1235
1	1235
1	1235
1	1235
1	9
1	1235
1	1235
1	1235
1	1235
1	4
1	1235
1	1235
1	1235
1	1235
1	14
1	10
1	1235
1	1235
1	1235
1	9
1	1235
1	1235
1	1235
1	13
1	1235
1	1235
1	1235
1	1235
1	1235
1	1235
1	1235
1	1235
1	1235
1	1235
1	1235
1	1235
1	1235
1	9
1	1235
1	1235
1	1236
1	1235
1	1235
1	1235
1	1235
1	1235
1	5
1	1235
1	1235
1	1235
1	1236
1	22
1	1235
1	1236
1	1235
1	8
1	1235
1	1235
1	1236
1	1235
1	1235
1	1235
1	1235
1	1235
1	1235
1	1235
1	1235
1	1235
1	42
1	1235
1	1236
1	10
1	19
1	1235
1	1235
1	1235
1	14
1	1235
1	1235
1	8
1	10
1	11
1	1235
1	1235
1	15
1	1235
1	6
1	11
1	1235
1	1235
1	1235
1	1235
1	1235
1	1235
1	1236
1	1235
1	1235
1	1235
1	1235
1	1235
1	1235
1	1235
1	42
1	1235
1	8
1	1235
1	1235
1	9
1	1235
1	15
1	7
1	1235
1	1235
1	8
1	1235
1	1235
1	1235
1	1235
1	25
1	6
1	1235
1	1235
1	1235
1	1235
1	1235
1	1235
1	1235
1	1235
1	1235
1	4
1	6
1	1235
1	1235
1	1235
1	1235
1	1235
1	1235
1	1235
1	1235
1	1235
1	1235
1	1235
1	1235
1	1235
1	11
1	1235
1	16
1	1235
1	1235
1	1235
1	13
1	1235
1	1235
1	1235
1	1235
1	1236
1	1235
1	1235
1	1235
1	1235
1	1235
1	1235
1	1235
1	1235
1	1235
1	1235
1	14
1	33
1	1235
1	1235
1	8
1	1235
1	1235
1	1235
1	1235
1	5
1	1235
1	1237
1	1235
1	1235
1	10
1	9
1	1235
1	1235
1	1235
1	1235
1	1235
1	1235
1	7
1	1235
1	1235
1	1235
1	1235
1	1235
1	42
1	10
1	9
1	1235
1	1235
1	1235
1	18
1	1235
1	5
1	14
1	1235
1	1235
1	1235
1	1235
1	1235
1	12
1	1235
1	10
1	5
1	1235
1	1235
1	1235
1	1235
1	7
1	10
1	1235
1	1235
1	1235
1	1235
1	1235
1	1235
1	1235
1	1235
1	1235
1	1235
1	1235
1	1235
1	1235
1	2
1	1235
1	1235
1	1235
1	1235
1	1235
1	1235
1	1235
1	1235
1	1235
1	1235
1	1235
1	1235
1	1235
1	1235
1	1235
1	1235
1	1235
1	1235
1	1235
1	1235
1	33
1	1236
1	1235
1	1235
1	1235
1	1235
1	1235
1	1235
1	1235
1	1235
1	1235
1	33
1	1235
1	1235
1	11
1	1235
1	1235
1	1235
1	1235
1	1235
1	1235
1	1235
1	1235
1	1235
1	1235
1	1235
1	1235
1	10
1	1235
1	1235
1	11
1	1235
1	1235
1	10
1	1235
1	1235
1	1235
1	7
1	1235
1	9
1	1235
1	1235
1	1235
1	1235
1	1235
1	1235
1	18
1	1235
1	1235
1	1236
1	1235
1	1235
1	1235
1	1235
1	1235
1	1235
1	1235
1	15
1	1235
1	1235
1	1235
1	1235
1	1235
1	1235
1	1235
1	1235
1	1235
1	6
1	33
1	1235
1	1235
1	1235
1	1235
1	1235
1	9
1	1235
1	1235
1	1235
1	9
1	33
1	8
1	1235
1	1235
1	1235
1	1236
1	1235
1	1235
1	33
1	1235
1	1235
1	1235
1	1235
1	1235
1	1235
1	1235
1	1235
1	1235
1	1235
1	6
1	1235
1	1235
1	1235
1	1235
1	1235
1	12
1	1235
1	1235
1	1235
1	1235
1	1235
1	2
1	1235
1	1235
1	1235
1	1235
1	1235
1	1235
1	1235
1	5
1	1235
1	1235
1	6
1	7
1	10
1	1235
1	1235
1	1235
1	1235
1	1235
1	42
1	1235
1	1235
1	1235
1	1235
1	1235
1	1235
1	1235
1	1235
1	1235
1	12
1	1235
1	1235
1	14
1	1235
1	13
1	1235
1	1235
1	1235
1	1235
1	1236
1	1235
1	1235
1	9
1	9
1	1235
1	1235
1	1235
1	1235
1	15
1	1236
1	1235
1	1235
1	1235
1	1235
1	8
1	1235
1	1235
1	6124
1	18
1	1235
1	1235
1	1235
1	1235
1	1235
1	1235
1	1235
1	1235
1	1235
1	1235
1	1235
1	25
1	1235
1	1235
1	11
1	1235
1	1235
1	1235
1	1235
1	1235
1	1235
1	1235
1	18
1	1235
1	1235
1	1235
1	1235
1	7
1	8
1	1235
1	10
1	1235
1	1235
1	1235
1	5
1	1235
1	1235
1	1235
1	1235
1	1235
1	5
1	1235
1	25
1	1235
1	1235
1	1235
1	1235
1	1235
1	6
1	1235
1	1235
1	1235
1	1235
1	1235
1	1235
1	1235
1	25
1	7
1	1235
1	1235
1	1235
1	1235
1	14
1	1235
1	1235
1	1235
1	7
1	1235
1	1235
1	1236
1	1236
1	1235
1	1235
1	1235
1	1235
1	7
1	1235
1	1235
1	1235
1	1235
1	1235
1	1235
1	25
1	1235
1	1235
1	1235
1	1235
1	1235
1	7
1	1235
1	1235
1	1235
1	16
1	1235
1	1235
1	6
1	1235
1	1235
1	1235
1	1235
1	1235
1	33
1	1235
1	1235
1	1235
1	1235
1	42
1	1235
1	1235
1	1235
1	1236
1	1235
1	1235
1	1235
1	1235
1	6
1	1235
1	1235
1	14
1	42
1	1235
1	7
1	1235
1	1235
1	4
1	1235
1	1235
1	1235
1	1235
1	1235
1	33
1	1235
1	1235
1	1236
1	7
1	1235
1	9
1	25
1	1235
1	6
1	1235
1	1235
1	1235
1	1235
1	1235
1	1235
1	1235
1	10
1	1235
1	10
1	1235
1	1235
1	42
1	1235
1	1235
1	1235
1	1235
1	1235
1	27
1	1235
1	42
1	1235
1	1235
1	1235
1	1235
1	1235
1	1235
1	11
1	10
1	19
1	1235
1	22
1	1235
1	1235
1	15
1	1235
1	1235
1	1235
1	1235
1	15
1	1236
1	1235
1	8
1	1235
1	1235
1	5
1	1235
1	12
1	1235
1	1235
1	1235
1	7
1	1236
1	1235
1	1235
1	1235
1	1235
1	1235
1	1235
1	1235
1	1235
1	7
1	15
1	1235
1	22
1	1235
1	1235
1	1235
1	1235
1	14
1	1235
1	1235
1	5
1	1235
1	7
1	1235
1	1235
1	42
1	1235
1	1235
1	1235
1	1235
1	7
1	1235
1	1235
1	1235
1	1235
1	1235
1	1235
1	1235
1	22
1	1235
1	12
1	1235
1	2
1	34
1	42
1	1235
1	1235
1	1235
1	10
1	7
1	1235
1	1235
1	1235
1	1235
1	1235
1	1235
1	1235
1	8
1	1235
1	1235
1	13
1	1235
1	1235
1	1235
1	1235
1	1235
1	5
1	1235
1	1235
1	1235
1	1235
1	1235
1	1235
1	1235
1	1235
1	7
1	1235
1	1235
1	1235
1	1235
1	1236
1	10
1	1235
1	1235
1	1235
1	1235
1	1235
1	1235
1	1235
1	1235
1	1235
1	10
1	10
1	1235
1	1235
1	5
1	1235
1	1235
1	1235
1	1235
1	1235
1	1235
1	18
1	1235
1	6
1	1235
1	1235
1	1235
1	1235
1	1235
1	1235
1	1235
1	1235
1	1235
1	1235
1	10
1	8
1	1235
1	1235
1	12
1	11
1	1235
1	1235
1	1235
1	7
1	1235
1	1235
1	1235
1	1235
1	1235
1	1235
1	1235
1	1235
1	34
1	1235
1	14
2	15
2	5
2	7
2	7
2	16
2	43
2	9
2	5
2	3
2	5
2	8
2	3
2	9
2	4
2	6
2	3
2	12
2	4
2	3
2	6
2	3
2	5
2	15
2	3
2	7
2	16
2	7
2	3
2	3
2	9
2	3
2	8
2	7
2	8
2	4
2	13
2	7
2	34
2	13
2	3
2	3
2	4
2	26
2	4
2	11
2	3
2	9
2	9
2	3
2	3
2	3
2	4
2	20
2	4
2	16
2	3
2	8
2	4
2	3
2	3
2	3
2	5
2	3
2	3
2	13
2	3
2	3
2	3
2	13
2	6
2	6
2	3
2	6
2	11
2	4
2	9
2	6
2	3
2	3
2	20
2	23
2	6
2	3
2	9
2	3
2	13
2	4
2	27
2	3
2	3
2	3
2	6
2	3
2	3
2	3
2	8
2	43
2	3
2	3
2	3
2	3
2	3
2	5
2	7
2	4
2	43
2	3
2	3
2	8
2	3
2	6
2	5
2	4
2	5
2	3
2	3
2	4
2	3
2	5
2	8
2	3
2	11
2	10
2	1236
2	3
2	3
2	19
2	16
2	13
2	5
2	4
2	7
2	3
2	8
2	34
2	3
2	3
2	9
2	11
2	3
2	7
2	1236
2	4
2	4
2	6
2	43
2	3
2	16
2	4
2	4
2	19
2	3
2	3
2	3
2	9
2	3
2	3
2	3
2	3
2	3
2	4
2	11
2	43
2	6
2	5
2	4
2	4
2	5
2	9
2	3
2	3
2	7
2	4
2	3
2	6
2	3
2	4
2	8
2	11
2	9
2	15
2	10
2	6
2	16
2	3
2	6
2	7
2	4
2	3
2	4
2	4
2	4
2	5
2	3
2	7
2	4
2	4
2	3
2	20
2	4
2	3
2	3
2	13
2	5
2	11
2	4
2	3
2	8
2	4
2	4
2	3
2	4
2	4
2	4
2	4
2	4
2	4
2	4
2	4
2	16
2	4
2	4
2	5
3	5
3	5
3	4
3	4
3	4
3	4
3	5
3	4
3	5
3	7
3	5
3	4
3	4
3	5
3	8
3	4
3	10
3	4
3	5
3	4
3	5
3	5
3	4
3	4
3	4
3	4
3	4
3	5
3	5
3	5
3	6
3	4
3	4
3	5
3	9
3	6
3	4
3	4
3	4
3	5
3	6
3	6
3	5
3	4
3	4
3	4
3	5
3	14
3	5
3	4
3	5
3	4
3	4
3	4
3	6
3	4
3	5
3	6
3	6
4	5
4	7
4	5
4	5
4	5
4	7
4	6
4	5
4	7
4	5
4	5
4	5
4	5
4	6
4	6
4	5
4	5
4	5
4	5
4	6
4	5
4	5
4	6
4	8
4	5
4	5
4	5
4	5
5	6
5	6
5	9
5	6
5	6
5	6
5	6
5	6
5	6
5	6
5	6
6	7
6	7
6	7
6	8
6	7
6	7
6	8
6	7
6	7
6	7
6	7
6	8
6	7
6	7
6	7
6	7
7	8
7	8
7	8
7	8
7	8
7	8
7	8
8	10
8	9
8	9
8	9
9	10
9	10
9	10
9	10
9	10
9	10
9	10
10	11
10	11
11	12
11	12
11	12
12	13
13	14
13	14
13	14
14	15
14	15
14	15
17	18
18	19
21	22
24	25
32	33
41	42
1234	1235
