7	6124
8	6124
9	6124
10	6124
12	6124
13	6124
14	6124
14	6124
15	6124
15	6124
15	6124
15	6124
15	6124
15	6124
15	6124
15	6124
16	6124
16	6124
16	6124
16	6124
17	6124
17	6124
17	6124
17	6124
17	6124
17	6124
17	6124
17	6124
18	6124
18	6124
18	6124
18	6124
18	6124
18	6124
18	6124
18	6124
18	6124
18	6124
18	6124
19	6124
19	6124
19	6124
20	6124
20	6124
20	6124
20	6124
20	6124
20	6124
20	6124
20	6124
20	6124
20	6124
20	6124
20	6124
21	6124
21	6124
21	6124
21	6124
21	6124
21	6124
21	6124
21	6124
21	6124
21	6124
21	6124
22	6124
22	6124
22	6124
22	6124
22	6124
22	6124
22	6124
22	6124
22	6124
23	6124
23	6124
23	6124
23	6124
23	6124
23	6124
23	6124
24	6124
24	6124
24	6124
24	6124
24	6124
24	6124
24	6124
24	6124
24	6124
24	6124
25	6124
25	6124
25	6124
25	6124
25	6124
25	6124
26	6124
26	6124
26	6124
26	6124
26	6124
26	6124
26	6124
26	6124
26	6124
27	6124
27	6124
27	6124
27	6124
27	6124
27	6124
27	6124
27	6124
27	6124
27	6124
27	6124
28	6124
28	6124
28	6124
29	6124
29	6124
29	6124
30	6124
30	6124
30	6124
31	6124
31	6124
31	6124
32	6124
32	6124
32	6124
35	6124
36	6124
36	6124
36	6124
36	6124
36	6124
37	6124
37	6124
37	6124
38	6124
39	6124
41	6124
46	6124
1037	6124
1037	6124
1037	6124
1037	6124
1037	6124
1037	6124
1037	6124
1037	6124
1037	6124
1037	6124
1037	6124
1037	6124
1037	6124
1037	6124
1037	6124
1037	6124
1037	6124
1037	6124
1037	6124
1037	6124
1037	6124
1037	6124
1037	6124
1037	6124
1037	6124
1037	6124
1037	6124
1037	6124
1037	6124
1037	6124
1037	6124
1037	6124
1037	6124
1037	6124
1037	6124
1037	6124
1037	6124
1037	6124
1037	6124
1037	6124
1037	6124
1037	6124
1037	6124
1037	6124
1037	6124
1037	6124
1037	6124
1037	6124
1037	6124
1037	6124
1037	6124
1037	6124
1037	6124
1037	6124
1037	6124
1037	6124
1037	6124
1037	6124
1037	6124
1037	6124
1037	6124
1037	6124
1037	6124
1037	6124
1037	6124
1037	6124
1037	6124
1037	6124
1037	6124
1037	6124
1037	6124
1037	6124
1037	6124
1037	6124
1037	6124
1037	6124
1037	6124
1037	6124
1037	6124
1037	6124
1037	6124
1037	6124
1037	6124
1037	6124
1037	6124
1038	6124
1038	6124
1038	6124
1038	6124
1038	6124
1038	6124
1038	6124
1038	6124
1038	6124
1038	6124
1038	6124
1038	6124
1038	6124
1038	6124
1038	6124
1038	6124
1038	6124
1038	6124
1038	6124
1038	6124
1038	6124
1038	6124
1038	6124
1038	6124
1038	6124
1038	6124
1038	6124
1038	6124
1038	6124
1038	6124
1038	6124
1038	6124
1038	6124
1038	6124
1038	6124
1038	6124
1038	6124
1038	6124
1038	6124
1038	6124
1038	6124
1038	6124
1038	6124
1038	6124
1038	6124
1038	6124
1038	6124
1038	6124
1038	6124
1038	6124
1038	6124
1038	6124
1038	6124
1038	6124
1038	6124
1038	6124
1039	6124
1039	6124
1039	6124
1039	6124
1039	6124
1039	6124
1039	6124
1039	6124
1039	6124
1039	6124
1039	6124
1039	6124
1039	6124
1039	6124
1039	6124
1039	6124
1039	6124
1039	6124
1039	6124
1039	6124
1039	6124
1039	6124
1039	6124
1039	6124
1039	6124
1039	6124
1039	6124
1039	6124
1039	6124
1039	6124
1039	6124
1039	6124
1039	6124
1039	6124
1039	6124
1039	6124
1039	6124
1039	6124
1039	6124
1040	6124
1040	6124
1040	6124
1040	6124
1040	6124
1040	6124
1040	6124
1040	6124
1040	6124
1040	6124
1040	6124
1041	6124
1041	6124
1041	6124
1041	6124
1041	6124
1041	6124
1041	6124
1041	6124
1041	6124
1041	6124
1041	6124
1042	6124
1042	6124
1042	6124
1042	6124
1042	6124
1042	6124
1042	6124
1042	6124
1042	6124
1042	6124
1042	6124
1042	6124
1043	6124
1043	6124
1043	6124
1043	6124
1043	6124
1043	6124
1043	6124
1043	6124
1044	6124
1044	6124
1044	6124
1044	6124
1044	6124
1044	6124
1044	6124
1044	6124
1044	6124
1045	6124
1045	6124
1046	6124
1046	6124
1046	6124
1047	6124
1047	6124
1048	6124
1049	6124
1049	6124
1050	6124
1050	6124
1051	6124
1051	6124
1051	6124
1053	6124
1053	6124
1054	6124
1055	6124
1055	6124
1057	6124
1059	6124
