5	6124
7	6124
9	6124
10	6124
10	6124
13	6124
14	6124
15	6124
15	6124
15	6124
15	6124
16	6124
17	6124
17	6124
17	6124
18	6124
19	6124
20	6124
20	6124
22	6124
22	6124
23	6124
24	6124
25	6124
35	6124
35	6124
35	6124
36	6124
36	6124
36	6124
36	6124
36	6124
37	6124
37	6124
37	6124
37	6124
38	6124
41	6124
44	6124
398	6124
398	6124
398	6124
398	6124
398	6124
398	6124
398	6124
398	6124
398	6124
398	6124
398	6124
398	6124
398	6124
398	6124
398	6124
398	6124
398	6124
398	6124
398	6124
398	6124
398	6124
398	6124
398	6124
398	6124
398	6124
398	6124
398	6124
398	6124
398	6124
398	6124
398	6124
398	6124
398	6124
399	6124
399	6124
399	6124
399	6124
399	6124
399	6124
399	6124
399	6124
399	6124
399	6124
399	6124
399	6124
399	6124
399	6124
399	6124
399	6124
399	6124
399	6124
400	6124
400	6124
400	6124
400	6124
400	6124
400	6124
400	6124
400	6124
400	6124
400	6124
400	6124
400	6124
400	6124
400	6124
401	6124
401	6124
401	6124
402	6124
402	6124
402	6124
402	6124
402	6124
402	6124
403	6124
403	6124
404	6124
404	6124
404	6124
405	6124
406	6124
406	6124
406	6124
407	6124
407	6124
408	6124
409	6124
416	6124
429	6124
