1	6124
1	1665
1	1665
1	1665
1	1666
1	1665
1	1665
1	1665
1	1665
1	1665
1	1665
1	1665
1	1665
1	1665
1	1665
1	1665
1	1665
1	1665
1	1665
1	1665
1	1665
1	1665
1	1665
1	1665
1	1665
1	1665
1	1665
1	1666
1	1665
1	1665
1	1665
1	1665
1	1665
1	1665
1	1665
1	11
1	1665
1	1665
1	1665
1	1665
1	1665
1	1665
1	1665
1	1665
1	19
1	1665
1	1665
1	1665
1	11
1	1665
1	1665
1	1665
1	1665
1	1665
1	1665
1	1670
1	1665
1	1665
1	1665
1	1665
1	1666
1	1665
1	1665
1	1665
1	17
1	1665
1	1665
1	1665
1	1665
1	1665
1	1665
1	1665
1	1665
1	1665
1	1665
1	1665
1	1665
1	1665
1	1665
1	1665
1	1665
1	20
1	1665
1	1667
1	1665
1	1665
1	1665
1	1665
1	1665
1	1665
1	1665
1	1665
1	1665
1	1665
1	1665
1	1665
1	1665
1	1665
1	1665
1	1665
1	1665
1	1665
1	1665
1	1665
1	1665
1	1665
1	1665
1	1665
1	1666
1	1665
1	1665
1	20
1	1665
1	1665
1	1665
1	1665
1	1665
1	1665
1	1665
1	1665
1	23
1	1665
1	1665
1	1665
1	1665
1	1665
1	1665
1	1665
1	1665
1	1665
1	1666
1	1665
1	1665
1	1665
1	1665
1	1665
1	1665
1	1665
1	1665
1	1665
1	1665
1	1665
1	1666
1	1665
1	1665
1	1665
1	1665
1	1665
1	9
1	1665
1	1665
1	1665
1	1665
1	1665
1	1669
1	15
1	1665
1	1665
1	1665
1	9
1	1665
1	1665
1	1666
1	1665
1	1665
1	1665
1	1665
1	1665
1	8
1	1665
1	1665
1	1665
1	1665
1	1665
1	1665
1	1665
1	12
1	24
1	1665
1	1665
1	1665
1	1665
1	1665
1	8
1	1665
1	1665
1	1665
1	1665
1	1665
1	1665
1	1665
1	1665
1	9
1	1665
1	1665
1	1665
1	1665
1	1665
1	1665
1	1665
1	1665
1	1665
1	1665
1	1665
1	1665
1	1665
1	1665
1	13
1	1665
1	9
1	1665
1	1665
1	1665
1	1665
1	1665
1	1665
1	1665
1	1665
1	1665
1	1665
1	1665
1	1665
1	1665
1	1665
1	10
1	1665
1	1665
1	1665
1	1665
1	1665
1	1665
1	1665
1	22
1	1665
1	6
1	1665
1	10
1	1665
1	1665
1	1665
1	1665
1	1665
1	1665
1	1665
1	1665
1	1666
1	1665
1	1665
1	1665
1	1666
1	1665
1	1665
1	1669
1	1665
1	1665
1	22
1	1666
1	1665
1	1665
1	1665
1	1665
1	1665
1	8
1	1665
1	1665
1	1665
1	1665
1	1665
1	1665
1	8
1	1665
1	1665
1	1665
1	1665
1	1665
1	1665
1	1665
1	9
1	1665
1	1665
1	7
1	1665
1	16
1	1665
1	1665
1	1665
1	1665
1	1665
1	1665
1	1665
1	1665
1	1666
1	12
1	1665
1	1665
1	7
1	1665
1	1665
1	1665
1	1665
1	12
1	12
1	1665
1	1665
1	1665
1	1665
1	1665
1	1665
1	1665
1	11
1	1665
1	1665
1	11
1	1665
1	1665
1	1665
1	1665
1	1665
1	1665
1	1665
1	1665
1	1665
1	1665
1	1665
1	1665
1	1665
1	1665
1	1665
1	14
1	1665
1	1665
1	1665
1	8
1	7
1	1665
1	1665
1	1665
1	1665
1	1665
1	1665
1	1665
1	1665
1	1668
1	1665
1	7
1	1665
1	1665
1	1665
1	1665
1	1665
1	1665
1	1665
1	1665
1	1665
1	1665
1	1665
1	1665
1	1665
1	1665
1	1665
1	1665
1	1665
1	1665
1	1665
1	1665
1	1665
1	1665
1	1665
1	1665
1	1665
1	5
1	1665
1	8
1	1665
1	1665
1	1665
1	1665
1	1665
1	1665
1	1665
1	1665
1	1665
1	1665
1	1665
1	1666
1	1665
1	1665
1	1665
1	1665
1	1665
1	1665
1	1665
1	8
1	1665
1	1665
1	1665
1	1665
1	1665
1	1665
1	1665
1	1665
1	1665
1	1665
1	1665
1	1665
1	1665
1	13
1	1665
1	1665
1	1665
1	1665
1	1665
1	1665
1	1665
1	1665
1	1665
1	1665
1	1665
1	1665
1	1665
1	1665
1	1665
1	1665
1	1665
1	1665
1	1665
1	1665
1	1665
1	1665
1	1665
1	1665
1	1665
1	1665
1	1665
1	1665
1	1665
1	1665
1	1665
1	1665
1	1665
1	1665
1	1665
1	1665
1	1665
1	1665
1	1665
1	1665
1	1665
1	1665
1	1665
1	1665
1	1665
1	1665
1	1665
1	1665
1	1665
1	1665
1	1665
1	1665
1	1665
1	1665
1	1665
1	1665
1	1665
1	1665
1	1665
1	1665
1	1665
1	1665
1	1665
1	1665
1	1665
1	1665
1	8
1	1665
1	1665
1	1665
1	1665
1	1665
1	1665
1	1665
1	1665
1	1665
1	1665
1	1665
1	1665
1	1665
1	1665
1	1665
1	1665
1	1665
1	1665
1	1665
1	1665
1	1665
1	1665
1	1665
1	1665
1	1665
1	1665
1	1665
1	1665
1	1665
1	8
1	1665
1	1665
1	1665
1	1665
1	8
1	10
1	1665
1	1665
1	1665
1	1665
1	1665
1	1665
1	1665
1	1665
1	1668
1	1665
1	1665
1	1665
1	1665
1	1665
1	1665
1	1665
1	1665
1	1665
1	7
1	1665
1	1665
1	1665
1	1665
1	1665
1	1665
1	8
1	1665
1	1665
1	11
1	1665
1	1665
1	6
1	1665
1	22
1	18
1	12
1	1665
1	1665
1	1665
1	1665
1	9
1	1665
1	1665
1	1665
1	1665
1	1665
1	1665
1	1665
1	1665
1	1665
1	7
1	1665
1	1665
1	1665
1	1665
1	1665
1	1665
1	1665
1	10
1	1665
1	7
1	1665
1	1665
1	10
1	1665
1	1665
1	1665
1	1665
1	1665
1	1665
1	1665
1	15
1	1665
1	1665
1	1665
1	1665
1	1665
1	1665
1	1665
1	1665
1	1665
1	1665
1	1665
1	1665
1	1665
1	1665
1	9
1	1665
1	1665
1	6
1	11
1	1665
1	1665
1	10
1	1665
1	1665
1	1665
1	1665
1	1665
1	1665
1	1665
1	1665
1	1665
1	1665
1	1665
1	12
1	1665
1	1665
1	1665
1	1665
1	1665
1	1665
1	1665
1	1665
1	1665
1	1665
1	1665
1	1665
1	1665
1	1666
1	7
1	1665
1	13
1	1665
1	1665
1	1665
1	1665
1	1665
1	1665
1	1665
1	1665
1	1665
1	1665
1	1665
1	1665
1	1665
1	1665
1	1665
1	1666
1	1665
1	1665
1	1665
1	1665
1	1665
1	1665
1	1665
1	1665
1	1665
1	1665
1	1665
1	1665
1	1665
1	1665
1	1665
1	1665
1	1665
1	1665
1	1665
1	1665
1	1665
1	1665
1	1665
1	1665
1	1665
1	12
1	1665
1	1665
1	1665
1	8
1	1665
1	1665
1	1665
1	1665
1	1665
1	1665
1	1665
1	1665
1	1665
1	1665
1	1665
1	1665
1	1665
1	12
1	10
1	1665
1	1665
1	1665
1	1665
1	1665
1	1665
1	1665
1	1665
1	1665
1	1665
1	1665
1	1665
1	1665
1	1665
1	1665
1	22
1	1665
1	1665
1	1665
1	1665
1	1665
1	1665
1	1665
1	13
1	1665
1	1665
1	9
1	1665
1	7
1	1665
1	1665
1	1665
1	1665
1	1665
1	1665
1	1665
1	1665
1	1665
1	1665
1	1665
1	1665
1	1665
1	1665
1	1665
1	1665
1	1665
1	11
1	1665
1	1665
1	1665
1	1665
1	1665
1	1665
1	1665
1	1667
1	1665
1	1665
1	1665
1	1665
1	1665
1	10
1	1665
1	1665
1	1665
1	1665
1	8
1	1665
1	1665
1	1665
1	1665
1	1665
1	1665
1	1665
1	1665
1	1665
1	1665
1	1665
1	6
1	1665
1	1665
1	1665
1	1665
1	1665
1	1665
1	1665
1	1665
1	1665
1	1665
1	1665
1	1665
1	1665
1	1665
1	1665
1	1665
1	1665
1	1665
1	1665
1	1665
1	1665
1	1665
1	1665
1	1665
1	1665
1	1665
1	1665
1	1665
1	1665
1	1665
1	1665
1	13
1	1665
1	1665
1	7
1	1665
1	1665
1	1665
1	13
1	5
1	1665
1	1665
1	11
1	1665
1	1665
1	1665
1	1665
1	1665
1	1665
1	1665
1	1665
1	1665
1	1666
1	1665
1	1665
1	1665
1	1665
1	6
1	1665
1	1665
1	1665
1	1665
1	1665
1	1665
1	1665
1	1665
1	1665
1	1665
1	1665
1	1665
1	1665
1	1665
1	1665
1	1665
1	1665
1	1665
1	1665
1	1665
1	9
1	1665
1	1665
1	1665
1	1665
1	1665
1	1665
1	1665
1	1665
1	1665
1	1665
1	1665
1	1666
1	1665
1	1665
1	1665
1	1665
1	8
1	1665
1	1665
1	1665
1	1665
1	1665
1	1665
1	1665
1	1665
1	1665
1	1665
1	1665
1	1665
1	1665
1	1665
1	1665
1	1665
1	1665
1	1665
1	22
1	1665
1	12
1	1665
1	1665
1	1665
1	1665
1	1665
1	1665
1	1665
1	1665
1	1665
1	1665
1	12
1	1665
1	1665
1	1665
1	1665
1	1665
1	1665
1	1665
1	22
1	1665
1	1665
1	1665
1	18
1	1665
1	1665
1	1665
1	1665
1	1665
1	10
1	1665
1	1665
1	7
1	1665
1	1665
1	1665
1	1665
1	1665
1	1665
1	1665
1	1665
1	11
1	1665
1	11
1	1665
1	1665
1	1665
1	1665
1	1665
1	1665
1	1665
1	1665
1	1665
1	1665
1	1665
1	1665
1	1665
1	1665
1	1665
1	1665
1	8
1	1665
1	1665
1	1665
1	1665
1	1665
1	7
1	1665
1	1665
1	5
1	1665
1	1665
1	9
1	1665
1	7
1	1665
1	1665
1	1665
1	1665
1	1665
1	1665
1	1665
1	1665
1	1665
1	7
1	1665
1	1665
1	1665
1	1665
1	1666
1	1665
1	1665
1	1665
1	1665
1	1665
1	1665
1	1665
1	1665
1	1665
1	1665
1	1665
1	1665
1	1665
1	1665
1	1665
1	1665
1	1665
1	1665
1	1665
1	9
1	1665
1	1665
1	1665
1	1665
1	1665
1	1665
1	1665
1	1665
1	22
1	1665
1	1665
1	1665
1	1665
1	1665
1	1665
1	1665
1	1665
1	1665
1	1665
1	1665
1	1665
1	1665
1	1665
1	10
1	1665
1	1665
1	1665
1	1665
1	1665
1	1665
1	1665
1	1665
1	1665
1	1665
1	1665
1	1665
1	1665
1	1665
1	1665
1	1665
1	1665
1	10
1	1665
1	9
1	1665
1	1666
1	6
1	1665
1	1665
1	1665
1	1665
1	1665
1	1665
1	1665
1	1665
1	22
1	1665
1	8
1	1665
1	1665
1	1665
1	1665
1	10
1	12
1	1665
1	1665
1	1665
1	1665
1	1665
1	1665
1	1665
1	1665
1	1665
1	1665
1	1665
1	1665
1	19
1	1665
1	9
1	1665
1	1665
1	1665
1	1665
1	22
1	1665
1	10
1	1665
1	1666
1	1665
1	1665
1	1665
1	1665
1	1665
1	1665
1	1665
1	1665
1	12
1	1665
1	1665
1	11
1	1665
1	1665
1	1665
1	1665
1	10
1	1665
1	1665
1	1665
1	1665
1	1665
1	1665
1	1665
1	7
1	1665
1	12
1	1665
1	4
1	1665
1	1665
1	1665
1	1665
1	1665
1	1665
1	1665
1	1665
1	1665
1	1665
1	1665
1	1665
1	7
1	1665
1	1665
1	7
1	1665
1	6
1	6
1	1665
1	1666
1	1665
1	1665
1	1665
1	1665
1	1665
1	6
1	1665
1	1665
1	1665
1	8
1	1665
1	1665
1	1665
1	1665
1	1666
1	1665
1	1665
1	9
1	1665
1	9
1	1665
1	11
1	1665
1	1665
1	1665
1	1665
1	1665
1	1665
1	1665
1	1665
1	1665
1	1665
1	1665
1	1665
1	1665
1	1665
1	1665
1	1665
1	1665
1	1665
1	1665
1	1665
1	1665
1	1665
1	1665
1	18
1	1665
1	1665
1	1665
1	11
1	1665
1	1665
1	5
1	1665
1	1665
1	1665
1	1665
1	1665
1	1665
1	1665
1	1665
1	1665
1	1665
1	1665
1	1665
1	11
1	7
1	1665
1	1665
1	1665
1	5
1	1666
1	1665
1	1666
1	5
1	1665
1	1665
1	1665
1	1665
1	1665
1	1665
1	1665
1	1665
1	1665
1	1665
1	1665
1	1665
1	1665
1	1665
1	1665
1	1665
1	1665
1	1665
1	1665
1	1665
1	1665
1	1665
1	1665
1	1665
1	1665
1	1665
1	5
1	1665
1	1665
1	1665
1	1665
1	1665
1	7
1	1665
1	1665
1	1665
1	1665
1	1665
1	1665
1	1665
1	1665
1	1665
1	1665
1	1665
1	1665
1	1665
1	1665
1	1665
1	1665
1	1665
1	8
1	1665
1	1665
1	1665
1	1665
1	1665
1	1665
1	1665
1	1665
1	1665
1	1665
1	1665
1	1665
1	1665
1	1665
1	1665
1	1665
1	1665
1	1665
1	7
1	10
1	1665
1	1665
1	1665
1	1665
1	1665
1	1665
1	1665
1	1665
1	1665
1	1665
1	1665
1	1665
1	1665
1	7
1	1665
1	1665
1	1665
1	1665
1	1665
1	1665
1	1665
1	1665
1	1665
1	1665
1	1665
1	1665
1	1665
1	1665
1	1665
1	1665
1	1665
1	1665
1	1665
1	1665
1	1665
1	1665
1	1665
1	1665
1	1665
1	1665
1	1665
1	1665
1	1665
1	1665
1	6
1	9
1	1665
1	1665
1	1665
1	1665
1	1665
1	1665
1	1665
1	1665
1	1665
1	1665
1	1665
1	1665
1	1665
1	1665
1	1665
1	1665
1	1665
1	1665
1	1665
1	1665
1	1665
1	1665
1	1665
1	1665
1	1665
1	1665
1	1665
1	1665
1	1665
1	1665
1	1665
1	1665
1	1665
1	1665
1	1665
1	1665
1	1665
1	1665
1	18
1	1665
1	1665
1	1665
1	1665
1	1666
1	7
1	1665
1	1665
1	1665
1	1665
1	1665
1	1665
1	1665
1	1665
1	1665
1	1665
1	1665
1	1665
1	1665
1	1665
1	1665
1	1665
1	1665
1	1665
1	1665
1	1665
1	1665
1	1665
1	1665
1	1665
1	1665
1	1665
1	1665
1	1665
1	1665
1	1665
1	1665
1	1665
1	1665
1	1665
1	1665
1	1665
1	6
1	1665
1	1665
1	1665
1	1665
1	1665
1	1665
1	1665
1	1665
1	1665
1	1665
1	1665
1	1665
1	1665
1	1665
1	1665
1	1665
1	1665
1	1665
1	1665
1	1665
1	1665
1	1665
1	1665
1	1665
1	1665
1	1665
1	1665
1	1665
1	1665
1	1665
1	1665
1	1665
1	1665
1	1665
1	1665
1	1665
1	1665
1	1665
1	1665
1	1665
1	1665
1	1665
1	1665
1	1665
1	1665
1	1665
1	1665
1	1665
1	1665
1	1665
1	1665
1	1665
1	5
1	1665
1	1665
1	7
1	1665
1	1665
1	1665
1	1665
1	1665
1	1665
1	1665
1	1665
1	1665
1	1665
1	1665
1	1665
1	1666
1	1665
1	1665
1	6
1	1665
1	1665
1	1665
1	1665
1	12
1	1665
1	1665
1	1665
1	1665
1	1665
1	1665
1	1665
1	1665
1	1666
1	1665
1	1665
1	1665
1	4
1	1665
1	1665
1	9
1	1665
1	1665
1	1665
1	1665
1	1665
1	1665
1	1665
1	1665
1	1665
1	1665
1	1665
1	1665
1	1665
1	1665
1	1665
1	1665
1	1665
1	1665
1	1665
1	1665
1	1665
1	1665
1	1665
1	1665
1	1665
1	1665
1	1665
1	1665
1	1666
1	1665
1	1665
1	1665
1	1665
1	10
1	1665
1	1665
1	1665
1	1665
1	1665
1	1665
1	1665
1	1665
1	1665
1	1665
1	1665
1	1665
1	1665
1	1665
1	1665
1	1665
1	1665
1	1665
1	1666
1	1665
1	1665
1	1665
1	1665
1	1665
1	1665
1	1665
1	1665
1	1665
1	1665
1	1665
1	1665
1	1665
1	1665
1	1665
1	1665
1	1665
1	1665
1	1665
1	1665
1	1665
1	1665
1	1665
1	1665
1	1665
1	1665
1	1665
1	1665
1	1665
1	1665
1	1665
1	5
1	1665
1	1665
1	1665
1	1665
1	1665
1	1665
1	1665
1	1665
1	1665
1	1665
1	1665
1	1665
1	1665
1	1665
1	1665
1	1665
1	1665
1	22
1	1665
1	1665
1	1665
1	1665
1	1665
1	19
1	1665
1	1665
1	1665
1	6
1	1665
1	1665
1	1665
1	1665
1	1665
1	1665
1	1665
1	7
1	1665
1	1665
1	1665
1	1665
1	1665
1	1665
1	1666
1	1665
1	1665
1	7
1	1665
1	1665
1	1665
1	1665
1	1665
1	11
1	1665
1	10
1	1665
1	1665
1	1665
1	1665
1	1665
1	1665
1	1665
1	1665
1	1665
1	1665
1	1665
1	1665
1	1665
1	1665
1	1665
1	1665
1	1665
1	1665
1	1665
1	1665
1	1665
1	1665
1	1665
1	1665
1	1665
1	1665
1	1665
1	1665
1	1665
1	1665
1	1665
1	1665
1	1665
1	1665
1	1665
1	1665
1	1665
1	1665
1	1665
1	1665
1	1665
1	1665
1	1665
1	1665
1	1665
1	1665
1	1665
1	1665
1	1665
1	1665
1	1665
1	4
1	1665
1	1665
1	1665
1	1665
1	1665
1	1665
1	1665
1	1665
1	1665
1	1665
1	6
1	1665
1	1665
1	8
1	1665
1	1665
1	1665
1	1665
1	1665
1	1665
1	1665
1	1665
1	1665
1	1665
1	1665
1	1665
1	1665
2	1666
2	10
2	6
2	23
2	3
2	3
2	8
2	7
2	8
2	7
2	1666
2	10
2	7
2	8
2	8
2	10
2	3
2	8
2	5
2	3
2	12
2	8
2	8
2	5
2	11
2	3
2	23
2	8
2	3
2	6
2	1666
2	8
2	3
2	3
2	7
2	12
2	3
2	3
2	7
2	6
2	3
2	3
2	8
2	3
2	10
2	6
2	12
2	6
2	3
2	3
2	5
2	4
2	19
2	5
2	4
2	3
2	7
2	3
2	8
2	9
2	6
2	3
2	3
2	5
2	3
2	6
2	1666
2	6
2	3
2	9
2	11
2	4
2	3
2	6
2	8
2	3
2	3
2	3
2	3
2	10
2	3
2	11
2	4
2	4
2	13
2	3
2	12
2	8
2	5
2	5
2	12
2	4
2	23
2	8
2	9
2	3
2	5
2	4
2	4
2	4
2	4
2	4
2	4
2	19
2	11
2	9
2	5
2	10
2	5
2	19
2	5
2	3
2	9
2	7
2	4
2	4
2	5
2	4
2	4
2	4
2	1666
2	5
2	6
2	3
2	3
2	3
2	4
2	3
2	4
2	6
2	6
2	4
2	3
2	5
3	4
3	4
3	5
3	4
3	4
3	4
3	6
3	7
3	4
3	8
3	4
3	6
3	5
3	8
3	5
3	5
3	4
3	4
3	4
3	5
3	5
3	4
3	4
3	5
3	4
3	9
3	4
3	5
3	4
3	5
3	4
3	4
3	4
3	5
3	5
3	5
3	4
3	5
3	5
3	7
3	5
3	4
4	5
4	5
4	6
4	6
4	5
4	5
4	5
4	5
4	5
4	5
4	5
4	7
4	6
4	5
4	5
4	6
4	6
4	5
4	5
4	6
4	6
5	6
5	6
5	6
5	6
5	7
5	6
5	6
5	6
5	6
6	7
6	7
6	7
6	7
6	7
6	7
6	7
6	7
6	7
6	8
6	7
6	7
6	7
6	7
6	7
7	8
7	8
7	8
7	8
8	9
8	9
8	9
8	9
9	10
9	10
9	10
10	11
10	11
10	11
11	12
17	18
21	22
1664	1665
