7	6124
9	6124
10	6124
12	6124
12	6124
14	6124
16	6124
17	6124
17	6124
19	6124
749	6124
749	6124
749	6124
749	6124
749	6124
749	6124
749	6124
749	6124
749	6124
749	6124
749	6124
749	6124
749	6124
749	6124
749	6124
749	6124
749	6124
749	6124
749	6124
749	6124
749	6124
749	6124
749	6124
749	6124
749	6124
749	6124
749	6124
749	6124
749	6124
749	6124
749	6124
749	6124
749	6124
749	6124
750	6124
750	6124
750	6124
750	6124
750	6124
750	6124
750	6124
750	6124
750	6124
750	6124
750	6124
750	6124
750	6124
750	6124
750	6124
750	6124
750	6124
750	6124
750	6124
750	6124
750	6124
750	6124
750	6124
750	6124
751	6124
751	6124
751	6124
751	6124
751	6124
751	6124
751	6124
751	6124
751	6124
751	6124
751	6124
751	6124
751	6124
752	6124
752	6124
752	6124
752	6124
752	6124
752	6124
752	6124
753	6124
753	6124
753	6124
753	6124
753	6124
754	6124
757	6124
757	6124
759	6124
760	6124
761	6124
767	6124
774	6124
