1	6124
1	451
1	451
1	452
1	17
1	20
1	451
1	20
1	451
1	451
1	15
1	16
1	21
1	451
1	451
1	24
1	16
1	452
1	15
1	451
1	451
1	11
1	451
1	451
1	451
1	451
1	451
1	451
1	451
1	451
1	12
1	451
1	451
1	9
1	451
1	451
1	19
1	16
1	451
1	452
1	451
1	451
1	451
1	451
1	11
1	23
1	452
1	451
1	20
1	451
1	451
1	451
1	451
1	19
1	12
1	22
1	452
1	14
1	451
1	12
1	451
1	451
1	451
1	451
1	452
1	451
1	451
1	15
1	12
1	451
1	451
1	451
1	12
1	451
1	30
1	451
1	451
1	451
1	451
1	15
1	451
1	453
1	14
1	451
1	451
1	451
1	30
1	18
1	451
1	17
1	451
1	451
1	29
1	451
1	451
1	451
1	451
1	451
1	17
1	11
1	22
1	15
1	10
1	453
1	451
1	451
1	451
1	451
1	451
1	451
1	13
1	9
1	451
1	10
1	22
1	451
1	451
1	19
1	451
1	454
1	17
1	451
1	451
1	451
1	451
1	451
1	451
1	7
1	451
1	451
1	11
1	454
1	451
1	9
1	451
1	18
1	451
1	10
1	12
1	451
1	29
1	7
1	8
1	451
1	451
1	14
1	5
1	451
1	451
1	451
1	451
1	451
1	14
1	14
1	452
1	451
1	451
1	25
1	452
1	451
1	11
1	451
1	451
1	451
1	29
1	451
1	451
1	451
1	11
1	22
1	451
1	451
1	9
1	8
1	9
1	451
1	452
1	13
1	451
1	451
1	451
1	11
1	451
1	451
1	451
1	451
1	29
1	29
1	29
1	11
1	451
1	451
1	452
1	6
1	451
1	451
1	451
1	451
1	10
1	451
1	451
1	29
1	10
1	451
1	8
1	451
1	451
1	451
1	451
1	451
1	451
1	451
1	451
1	5
1	451
1	10
1	8
1	17
1	451
1	23
1	12
1	8
1	451
1	451
1	6124
1	451
1	7
1	11
1	11
1	8
1	451
1	8
1	14
1	451
1	9
1	451
1	8
1	451
1	12
1	12
1	29
1	451
1	8
1	451
1	451
1	9
1	451
1	13
1	453
1	451
1	20
1	451
1	29
1	451
1	9
1	451
1	29
1	451
1	451
1	451
1	451
1	451
1	452
1	451
1	10
1	10
1	22
1	451
1	451
1	19
1	451
1	451
1	14
1	22
1	451
1	451
1	13
1	8
1	9
1	451
1	19
1	451
1	451
1	29
1	451
1	451
1	10
1	10
1	451
1	8
1	452
1	451
1	451
1	451
1	451
1	451
1	5
1	29
1	9
1	8
1	451
1	11
1	11
1	13
1	451
1	451
1	451
1	451
1	451
1	455
1	7
1	451
1	14
1	8
1	451
1	11
1	10
1	451
1	18
1	451
1	451
1	451
1	451
1	451
1	10
1	451
1	19
1	451
1	8
1	5
1	451
1	16
1	11
1	451
1	451
1	451
1	451
1	452
1	451
1	451
1	451
1	452
1	451
1	451
1	451
1	451
1	19
1	451
1	451
1	451
1	451
1	7
1	451
1	451
1	451
1	6
1	14
1	451
1	451
1	10
1	4
1	451
1	451
1	10
1	5
1	451
1	451
1	8
1	451
1	451
1	19
1	5
1	5
1	451
1	451
1	451
1	451
1	451
1	451
1	451
1	451
1	14
1	10
1	452
1	451
1	18
1	451
1	19
1	451
1	29
1	451
1	13
1	10
1	451
1	451
1	9
1	451
1	451
1	14
1	452
1	29
1	6
1	451
1	451
1	451
1	451
1	13
1	6
1	451
1	10
1	4
1	9
1	29
1	451
1	10
1	8
1	451
1	22
1	451
1	451
1	451
1	451
1	8
1	451
1	6
1	451
1	8
1	451
1	452
1	451
1	451
1	451
1	451
1	451
1	451
1	451
1	451
1	451
1	12
1	451
1	451
1	23
1	8
1	452
1	8
1	9
1	451
1	451
1	7
1	451
1	451
1	451
1	4
1	18
1	451
1	19
1	451
1	18
1	6
1	8
1	451
1	451
1	451
1	8
1	12
1	451
1	452
1	451
1	11
1	6
1	451
1	451
1	451
1	451
1	11
1	451
1	451
1	18
1	451
1	451
1	10
1	451
1	6
1	451
1	451
1	451
1	22
1	451
1	451
1	7
1	451
1	4
1	14
1	451
1	451
1	452
1	451
1	5
1	451
1	451
1	4
1	451
1	451
1	451
1	451
1	13
1	451
1	451
1	11
1	29
1	451
1	6
1	22
1	451
1	451
1	19
1	451
1	451
1	451
1	451
1	451
1	4
1	10
1	451
1	451
1	451
1	451
1	451
1	451
1	451
1	451
1	7
1	22
1	451
1	5
1	9
1	4
1	451
1	7
1	451
1	451
1	451
1	451
1	451
1	451
1	6
1	20
1	451
1	451
1	451
1	451
1	451
1	6
1	6
1	29
1	452
1	19
1	11
1	11
1	14
1	451
1	451
1	14
1	451
1	2
1	451
1	451
1	452
1	451
1	451
1	451
1	6
1	6
1	451
1	451
1	14
1	451
1	451
1	6
1	451
1	451
1	451
1	451
1	451
1	451
1	7
1	451
1	451
1	9
1	5
1	451
1	7
1	4
1	451
1	14
1	5
1	4
1	451
1	29
1	451
1	451
1	451
1	451
1	451
1	6
1	451
1	18
1	451
1	451
1	5
1	451
1	451
1	451
1	7
1	451
1	451
1	451
1	5
1	9
1	451
1	29
1	10
1	451
1	451
1	14
1	451
1	6
1	7
1	30
1	451
1	452
1	29
1	451
1	451
1	451
1	8
1	12
1	8
1	4
1	451
1	451
1	16
1	451
2	9
2	30
2	3
2	12
2	5
2	3
2	5
2	3
2	3
2	5
2	4
2	3
2	7
2	3
2	3
2	3
2	3
2	3
2	5
2	3
2	23
2	15
2	4
2	14
2	3
2	4
2	3
2	3
2	3
2	8
2	4
2	3
2	4
2	5
2	3
2	5
2	13
2	15
2	9
2	3
2	6
2	4
2	7
2	3
2	5
2	5
2	3
2	30
2	3
2	3
2	7
2	4
2	7
2	4
2	3
2	4
2	7
2	5
2	14
2	5
2	6
2	3
2	5
2	3
2	3
2	7
2	3
2	9
2	8
2	3
2	7
2	3
2	4
2	6
2	4
2	6
2	3
2	4
2	3
2	4
2	6
2	14
2	4
2	11
2	9
2	3
2	4
2	7
2	9
2	3
2	3
2	3
2	4
2	7
2	9
2	4
2	3
2	5
2	4
2	3
2	4
2	3
2	3
2	3
2	3
2	9
2	6
3	4
3	4
3	4
3	4
3	4
3	4
3	4
3	4
3	4
3	4
3	4
3	5
3	4
3	5
3	4
3	4
3	6
3	7
3	10
3	4
3	4
3	4
3	4
3	4
3	5
3	4
3	4
3	12
3	4
3	4
3	5
3	4
3	4
3	4
3	4
3	6
3	4
3	5
3	4
3	4
3	4
3	5
3	4
3	7
4	5
4	5
4	5
4	5
4	5
4	5
4	5
4	5
4	5
4	5
4	5
4	8
4	5
4	5
4	6
4	5
4	5
4	5
5	6
5	7
5	6
5	6
5	6
5	6
5	7
5	6
5	6
5	6
5	7
5	6
6	7
6	7
6	7
6	7
6	7
6	7
7	8
7	8
7	8
7	8
7	8
7	8
7	8
7	8
8	9
8	9
9	10
9	10
9	10
10	11
10	11
11	12
11	12
12	13
13	14
13	14
17	18
18	19
21	22
28	29
450	451
