1	6124
1	580
1	580
1	586
1	12
1	579
1	23
1	580
1	579
1	22
1	580
1	14
1	579
1	579
1	579
1	15
1	579
1	579
1	28
1	579
1	579
1	579
1	21
1	27
1	579
1	579
1	13
1	579
1	579
1	16
1	22
1	579
1	16
1	579
1	579
1	579
1	6124
1	579
1	579
1	579
1	579
1	579
1	579
1	19
1	579
1	8
1	14
1	579
1	579
1	579
1	579
1	579
1	14
1	11
1	579
1	579
1	579
1	579
1	12
1	10
1	579
1	579
1	579
1	31
1	579
1	12
1	579
1	10
1	579
1	579
1	583
1	581
1	579
1	579
1	19
1	579
1	11
1	579
1	579
1	10
1	579
1	5
1	579
1	579
1	579
1	579
1	579
1	579
1	579
1	579
1	579
1	579
1	579
1	12
1	579
1	579
1	579
1	579
1	579
1	579
1	579
1	579
1	579
1	12
1	579
1	579
1	14
1	579
1	579
1	579
1	579
1	579
1	579
1	21
1	579
1	579
1	579
1	579
1	579
1	579
1	12
1	580
1	27
1	579
1	579
1	15
1	579
1	579
1	579
1	579
1	579
1	579
1	579
1	10
1	13
1	10
1	579
1	579
1	10
1	8
1	579
1	11
1	579
1	579
1	579
1	579
1	579
1	579
1	579
1	579
1	579
1	579
1	579
1	579
1	8
1	579
1	10
1	19
1	579
1	11
1	579
1	579
1	579
1	579
1	579
1	579
1	579
1	579
1	579
1	4
1	579
1	579
1	579
1	579
1	579
1	579
1	579
1	19
1	10
1	579
1	579
1	580
1	579
1	8
1	14
1	579
1	15
1	579
1	579
1	579
1	579
1	579
1	579
1	581
1	579
1	579
1	579
1	11
1	579
1	579
1	9
1	16
1	10
1	12
1	579
1	579
1	579
1	579
1	579
1	579
1	579
1	21
1	8
1	579
1	11
1	579
1	15
1	579
1	579
1	579
1	579
1	27
1	27
1	580
1	579
1	13
1	579
1	579
1	580
1	579
1	579
1	579
1	18
1	9
1	579
1	579
1	579
1	579
1	6
1	579
1	579
1	19
1	579
1	11
1	579
1	579
1	579
1	579
1	6
1	2
1	579
1	579
1	579
1	580
1	27
1	12
1	14
1	579
1	579
1	579
1	579
1	579
1	15
1	579
1	10
1	15
1	13
1	579
1	580
1	579
1	12
1	9
1	579
1	6
1	579
1	579
1	579
1	10
1	579
1	21
1	580
1	579
1	579
1	579
1	579
1	579
1	579
1	579
1	579
1	579
1	579
1	579
1	10
1	4
1	579
1	579
1	579
1	579
1	579
1	580
1	581
1	9
1	579
1	579
1	579
1	579
1	9
1	579
1	12
1	11
1	579
1	579
1	579
1	579
1	14
1	579
1	579
1	9
1	9
1	579
1	10
1	579
1	579
1	5
1	580
1	6
1	579
1	579
1	579
1	27
1	579
1	579
1	579
1	580
1	13
1	579
1	580
1	579
1	28
1	579
1	579
1	579
1	580
1	582
1	579
1	9
1	579
1	579
1	579
1	579
1	13
1	579
1	579
1	579
1	579
1	7
1	579
1	579
1	579
1	5
1	579
1	12
1	6
1	7
1	579
1	579
1	579
1	27
1	579
1	579
1	579
1	579
1	579
1	579
1	579
1	15
1	579
1	579
1	579
1	579
1	8
1	579
1	579
1	9
1	581
1	579
1	579
1	579
1	579
1	11
1	579
1	20
1	579
1	15
1	8
1	14
1	579
1	579
1	13
1	579
1	579
1	579
1	579
1	579
1	10
1	579
1	9
1	579
1	15
1	9
1	580
1	579
1	579
1	6
1	579
1	579
1	579
1	6124
1	579
1	579
1	579
1	7
1	18
1	579
1	579
1	579
1	579
1	579
1	579
1	12
1	579
1	579
1	579
1	579
1	579
1	579
1	579
1	579
1	17
1	7
1	580
1	579
1	14
1	579
1	579
1	579
1	21
1	579
1	18
1	5
1	579
1	10
1	579
1	579
1	579
1	579
1	579
1	579
1	579
1	579
1	579
1	579
1	579
1	579
1	579
1	4
1	579
1	27
1	579
1	11
1	21
1	579
1	579
1	579
1	579
1	579
1	28
1	579
1	579
1	10
1	579
1	579
1	21
1	579
1	579
1	579
1	579
1	579
1	579
1	5
1	19
1	8
1	579
1	7
1	579
1	5
1	6
1	18
1	15
1	7
1	8
1	11
1	8
1	5
1	579
1	579
1	579
1	579
1	579
1	579
1	10
1	579
1	579
1	579
1	10
1	7
1	579
1	579
1	27
1	579
1	580
1	10
1	12
1	15
1	579
1	579
1	579
1	5
1	9
1	579
1	579
1	579
1	16
1	27
1	579
1	579
1	579
1	579
1	17
1	579
1	579
1	579
1	579
1	579
1	9
1	579
1	579
1	579
1	579
1	579
1	579
1	10
1	579
1	15
1	10
1	4
1	579
1	579
1	9
1	12
1	579
1	6
1	579
1	579
1	579
1	19
1	6
1	579
1	579
1	579
1	579
1	13
1	579
1	579
1	8
1	6
1	11
1	27
1	10
1	579
1	579
1	8
1	11
1	10
1	579
1	12
1	579
1	579
1	579
1	579
1	579
1	10
1	579
1	579
1	579
1	579
1	579
1	579
1	4
1	15
1	579
1	2
1	579
1	579
1	10
1	579
1	579
1	8
1	579
1	579
1	579
1	8
1	6
1	579
1	579
1	4
1	579
1	579
1	5
1	579
1	579
1	5
1	579
1	18
1	5
1	579
1	579
1	579
1	12
1	7
1	15
1	579
1	579
1	579
1	579
1	579
1	579
1	579
1	579
1	579
1	17
1	6
1	7
1	6
1	579
1	5
1	579
1	579
1	579
1	579
1	579
1	21
1	579
1	10
1	579
1	579
1	579
1	579
1	12
1	579
1	579
1	579
1	579
1	579
1	579
1	579
1	579
1	579
1	579
1	21
1	579
1	10
1	579
1	6
1	579
1	9
1	579
1	579
1	21
1	579
1	579
1	579
1	579
1	8
1	10
1	7
1	6
1	579
1	579
1	8
1	579
2	3
2	5
2	5
2	6
2	8
2	6
2	580
2	3
2	14
2	5
2	7
2	14
2	6
2	7
2	9
2	3
2	10
2	6
2	10
2	13
2	9
2	3
2	3
2	12
2	4
2	11
2	20
2	4
2	580
2	3
2	7
2	5
2	5
2	7
2	3
2	4
2	580
2	580
2	6
2	4
2	580
2	5
2	3
2	11
2	4
2	3
2	7
2	16
2	3
2	3
2	580
2	4
2	10
2	6
2	3
2	3
2	3
2	4
2	3
2	6
2	3
2	3
2	6
2	4
2	16
2	4
2	3
2	6
2	16
2	8
2	5
2	3
2	4
2	5
2	11
2	4
2	5
2	7
2	3
2	7
2	3
2	6
2	5
2	6
2	4
2	19
2	28
2	4
2	3
2	3
2	3
2	12
2	6
2	11
2	8
2	5
2	5
2	11
2	10
2	4
2	3
2	3
2	3
2	11
2	10
2	3
2	3
2	4
2	8
2	3
2	4
2	15
2	5
2	10
2	4
2	10
2	4
2	8
2	3
2	6
2	3
2	3
2	9
2	3
2	9
2	5
2	4
2	8
2	15
2	10
2	3
2	3
2	10
2	9
2	12
2	6
2	3
2	3
2	4
2	3
3	14
3	5
3	4
3	4
3	10
3	9
3	4
3	5
3	10
3	4
3	5
3	5
3	4
3	7
3	8
3	5
3	6
3	4
3	5
3	4
3	7
3	6
3	4
3	5
3	5
3	9
3	4
3	4
3	10
3	5
3	5
3	5
3	6
3	5
3	5
3	6
3	4
3	7
3	5
3	4
3	4
3	4
3	4
3	4
3	4
3	4
3	11
3	6
3	5
3	4
3	7
3	5
3	4
3	4
3	5
3	4
3	4
3	5
4	5
4	5
4	6
4	5
4	5
4	8
4	5
4	6
4	7
4	5
4	5
4	5
4	5
4	5
4	5
4	6
4	6
4	5
4	5
4	5
4	6
4	5
4	5
4	5
4	5
4	6
5	6
5	6
5	6
5	6
5	7
5	8
5	6
5	6
5	6
5	6
5	6
5	6
6	8
6	8
6	7
6	8
6	7
6	7
7	8
7	8
7	8
7	8
7	8
7	8
7	8
7	8
8	9
8	10
8	9
8	10
8	10
8	9
8	9
9	10
9	10
9	10
9	10
9	10
10	11
11	12
11	12
12	13
13	14
14	15
14	15
16	17
17	18
20	21
26	27
578	579
