7	6124
9	6124
9	6124
9	6124
10	6124
11	6124
12	6124
13	6124
13	6124
13	6124
15	6124
15	6124
15	6124
15	6124
16	6124
17	6124
17	6124
17	6124
18	6124
18	6124
18	6124
19	6124
19	6124
19	6124
19	6124
20	6124
20	6124
20	6124
20	6124
20	6124
20	6124
20	6124
20	6124
21	6124
21	6124
22	6124
22	6124
22	6124
22	6124
23	6124
24	6124
24	6124
25	6124
25	6124
26	6124
27	6124
27	6124
27	6124
27	6124
32	6124
330	6124
330	6124
330	6124
330	6124
330	6124
330	6124
330	6124
330	6124
330	6124
330	6124
330	6124
330	6124
330	6124
330	6124
330	6124
330	6124
330	6124
330	6124
331	6124
331	6124
331	6124
331	6124
331	6124
331	6124
331	6124
331	6124
331	6124
331	6124
331	6124
331	6124
331	6124
331	6124
331	6124
331	6124
331	6124
331	6124
331	6124
332	6124
332	6124
332	6124
332	6124
332	6124
332	6124
332	6124
332	6124
333	6124
333	6124
333	6124
333	6124
334	6124
334	6124
334	6124
335	6124
335	6124
336	6124
336	6124
336	6124
336	6124
336	6124
337	6124
337	6124
337	6124
338	6124
339	6124
339	6124
339	6124
339	6124
341	6124
344	6124
344	6124
344	6124
