11	6124
13	6124
14	6124
15	6124
15	6124
16	6124
16	6124
17	6124
20	6124
23	6124
24	6124
204	6124
204	6124
204	6124
204	6124
204	6124
205	6124
205	6124
205	6124
205	6124
205	6124
205	6124
205	6124
205	6124
205	6124
205	6124
205	6124
205	6124
206	6124
206	6124
206	6124
207	6124
207	6124
207	6124
207	6124
208	6124
208	6124
209	6124
209	6124
209	6124
209	6124
209	6124
209	6124
211	6124
211	6124
212	6124
213	6124
214	6124
215	6124
1278	6124
1278	6124
1278	6124
1278	6124
1278	6124
1278	6124
1278	6124
1278	6124
1278	6124
1278	6124
1278	6124
1278	6124
1278	6124
1278	6124
1278	6124
1278	6124
1278	6124
1278	6124
1278	6124
1278	6124
1278	6124
1278	6124
1278	6124
1278	6124
1278	6124
1278	6124
1278	6124
1278	6124
1278	6124
1278	6124
1278	6124
1278	6124
1278	6124
1278	6124
1278	6124
1278	6124
1278	6124
1278	6124
1278	6124
1278	6124
1278	6124
1278	6124
1278	6124
1278	6124
1278	6124
1278	6124
1278	6124
1278	6124
1278	6124
1278	6124
1278	6124
1278	6124
1278	6124
1278	6124
1278	6124
1278	6124
1278	6124
1278	6124
1278	6124
1278	6124
1278	6124
1278	6124
1278	6124
1278	6124
1278	6124
1278	6124
1278	6124
1278	6124
1278	6124
1278	6124
1278	6124
1278	6124
1278	6124
1278	6124
1278	6124
1278	6124
1279	6124
1279	6124
1279	6124
1279	6124
1279	6124
1279	6124
1279	6124
1279	6124
1279	6124
1279	6124
1279	6124
1279	6124
1279	6124
1279	6124
1279	6124
1279	6124
1279	6124
1279	6124
1279	6124
1279	6124
1279	6124
1279	6124
1279	6124
1279	6124
1279	6124
1279	6124
1279	6124
1279	6124
1279	6124
1280	6124
1280	6124
1280	6124
1280	6124
1280	6124
1280	6124
1280	6124
1280	6124
1280	6124
1280	6124
1280	6124
1280	6124
1280	6124
1280	6124
1280	6124
1281	6124
1281	6124
1281	6124
1281	6124
1281	6124
1281	6124
1281	6124
1281	6124
1281	6124
1281	6124
1281	6124
1282	6124
1282	6124
1282	6124
1282	6124
1283	6124
1283	6124
1283	6124
1283	6124
1283	6124
1283	6124
1283	6124
1283	6124
1284	6124
1285	6124
1285	6124
1285	6124
1287	6124
1287	6124
1288	6124
1289	6124
1290	6124
1478	6124
