8	6124
12	6124
12	6124
13	6124
13	6124
21	6124
22	6124
24	6124
25	6124
25	6124
25	6124
26	6124
26	6124
26	6124
27	6124
29	6124
92	6124
92	6124
92	6124
92	6124
93	6124
93	6124
93	6124
94	6124
94	6124
94	6124
94	6124
95	6124
95	6124
95	6124
96	6124
98	6124
98	6124
100	6124
101	6124
102	6124
102	6124
112	6124
1153	6124
1153	6124
1153	6124
1153	6124
1153	6124
1153	6124
1153	6124
1153	6124
1153	6124
1153	6124
1153	6124
1153	6124
1153	6124
1153	6124
1153	6124
1153	6124
1153	6124
1153	6124
1153	6124
1153	6124
1153	6124
1153	6124
1153	6124
1153	6124
1153	6124
1153	6124
1153	6124
1153	6124
1153	6124
1153	6124
1153	6124
1153	6124
1153	6124
1153	6124
1153	6124
1153	6124
1153	6124
1153	6124
1153	6124
1153	6124
1153	6124
1153	6124
1153	6124
1153	6124
1153	6124
1153	6124
1153	6124
1153	6124
1153	6124
1153	6124
1154	6124
1154	6124
1154	6124
1154	6124
1154	6124
1154	6124
1154	6124
1154	6124
1154	6124
1154	6124
1154	6124
1154	6124
1154	6124
1154	6124
1154	6124
1154	6124
1154	6124
1154	6124
1154	6124
1154	6124
1154	6124
1154	6124
1155	6124
1155	6124
1155	6124
1155	6124
1155	6124
1155	6124
1155	6124
1155	6124
1155	6124
1155	6124
1155	6124
1155	6124
1155	6124
1155	6124
1155	6124
1156	6124
1156	6124
1156	6124
1156	6124
1156	6124
1156	6124
1156	6124
1156	6124
1156	6124
1156	6124
1157	6124
1157	6124
1158	6124
1159	6124
1159	6124
1159	6124
1159	6124
1159	6124
1161	6124
1162	6124
1162	6124
1163	6124
1163	6124
1163	6124
1163	6124
1168	6124
1173	6124
1174	6124
1241	6124
