1	6124
1	512
1	511
1	511
1	13
1	511
1	511
1	511
1	511
1	511
1	511
1	511
1	511
1	511
1	511
1	511
1	15
1	511
1	511
1	511
1	511
1	511
1	511
1	511
1	513
1	511
1	511
1	511
1	511
1	13
1	511
1	511
1	511
1	511
1	511
1	511
1	511
1	511
1	12
1	511
1	513
1	511
1	511
1	511
1	511
1	10
1	13
1	511
1	511
1	12
1	14
1	17
1	511
1	513
1	511
1	511
1	512
1	511
1	511
1	511
1	512
1	511
1	512
1	511
1	513
1	511
1	5
1	511
1	511
1	22
1	513
1	511
1	511
1	511
1	511
1	511
1	511
1	511
1	7
1	511
1	7
1	511
1	511
1	511
1	511
1	511
1	20
1	511
1	512
1	511
1	16
1	511
1	512
1	511
1	511
1	511
1	511
1	511
1	11
1	17
1	511
1	11
1	511
1	512
1	511
1	511
1	511
1	511
1	511
1	511
1	514
1	512
1	511
1	511
1	511
1	511
1	511
1	511
1	511
1	13
1	511
1	511
1	5
1	511
1	511
1	511
1	511
1	7
1	511
1	512
1	511
1	511
1	13
1	511
1	511
1	511
1	511
1	511
1	511
1	16
1	10
1	512
1	511
1	511
1	512
1	511
1	511
1	511
1	511
1	511
1	511
1	511
1	12
1	16
1	10
1	511
1	511
1	511
1	7
1	511
1	511
1	511
1	511
1	511
1	511
1	512
1	11
1	511
1	16
1	5
1	511
1	511
1	511
1	511
1	511
1	511
1	511
1	10
1	511
1	6
1	511
1	511
1	511
1	511
1	511
1	512
1	511
1	511
1	16
1	511
1	16
1	11
1	511
1	7
1	511
1	511
1	9
1	511
1	511
1	511
1	511
1	511
1	511
1	511
1	511
1	511
1	511
1	511
1	13
1	8
1	5
1	511
1	511
1	511
1	511
1	512
1	511
1	512
1	511
1	15
1	511
1	511
1	511
1	511
1	8
1	8
1	11
1	511
1	511
1	6
1	511
1	511
1	511
1	511
1	512
1	9
1	513
1	511
1	511
1	511
1	511
1	511
1	511
1	6
1	511
1	512
1	4
1	511
1	511
1	12
1	511
1	511
1	511
1	6
1	511
1	511
1	16
1	511
1	511
1	511
1	12
1	511
1	511
1	511
1	511
1	511
1	11
1	18
1	511
1	511
1	5
1	511
1	513
1	511
1	511
1	511
1	13
1	511
1	11
1	511
1	511
1	511
1	511
1	12
1	511
1	17
1	12
1	11
1	4
1	511
1	16
1	511
1	511
1	8
1	511
1	11
1	511
1	511
1	511
1	511
1	5
1	511
1	511
1	511
1	10
1	511
1	511
1	511
1	11
1	511
1	511
1	511
1	511
1	513
1	511
1	14
1	6
1	13
1	511
1	512
1	511
1	16
1	511
1	6
1	511
1	511
1	7
1	511
1	512
1	7
1	511
1	511
1	511
1	511
1	511
1	15
1	511
1	511
1	511
1	15
1	511
1	511
1	511
1	511
1	12
1	511
1	511
1	4
1	8
1	511
1	511
1	511
1	513
1	511
1	511
1	511
1	5
1	512
1	511
1	15
1	512
1	511
1	511
1	511
1	511
1	7
1	11
1	511
1	511
1	511
1	6
1	511
1	511
1	511
1	13
1	10
1	11
1	511
1	511
1	511
1	511
1	15
1	8
1	511
1	511
1	511
1	4
1	16
1	511
1	511
1	12
1	511
1	8
1	511
1	511
1	511
1	511
1	8
1	4
1	511
1	511
1	511
1	511
1	511
1	511
1	511
1	511
1	6124
1	511
1	511
1	17
1	511
1	511
1	511
1	511
1	511
1	511
1	2
1	6
1	9
1	511
1	511
1	8
1	511
1	511
1	512
1	511
1	12
1	10
1	8
1	511
1	511
1	6
1	511
1	512
1	511
1	511
1	5
1	511
1	511
1	511
1	511
1	511
1	17
1	16
1	511
1	9
1	511
1	511
1	511
1	17
1	512
1	511
1	511
1	511
1	511
1	511
1	511
1	511
1	8
1	511
1	8
1	511
1	17
1	511
1	511
1	512
1	511
1	511
1	511
1	511
1	7
1	511
1	511
1	512
1	10
1	511
1	512
1	511
1	511
1	511
1	511
1	511
1	5
1	511
1	511
1	511
1	511
1	511
1	511
1	511
1	15
1	7
1	5
1	11
1	511
1	511
1	511
1	15
1	511
1	511
1	8
1	511
1	511
1	9
1	7
1	9
1	511
1	511
1	17
1	16
1	511
1	511
1	511
1	7
1	7
1	511
1	7
1	511
1	16
1	17
1	7
1	511
1	511
1	7
1	5
1	511
1	511
1	511
1	511
1	511
1	512
1	511
1	511
1	511
1	511
1	511
1	511
1	511
1	7
1	511
1	6
1	8
1	511
1	5
1	511
1	511
1	511
1	511
1	511
1	511
1	8
1	11
1	511
1	511
1	9
1	511
1	511
1	511
1	511
1	512
1	511
1	7
1	8
1	511
1	511
1	6
1	5
1	511
1	511
1	511
1	511
1	511
1	7
1	511
1	17
1	7
1	511
1	5
1	8
1	511
1	511
1	511
1	511
1	17
1	8
1	8
1	15
1	511
1	511
1	511
1	511
1	511
1	5
1	511
1	511
1	511
1	511
1	511
1	16
1	17
1	511
1	511
1	512
1	7
1	511
1	7
1	511
1	511
1	511
1	8
1	5
1	4
1	511
2	11
2	3
2	512
2	9
2	11
2	6
2	7
2	3
2	3
2	3
2	3
2	4
2	3
2	512
2	3
2	3
2	17
2	3
2	3
2	3
2	4
2	10
2	3
2	3
2	3
2	3
2	3
2	3
2	11
2	4
2	3
2	5
2	6
2	7
2	9
2	3
2	5
2	3
2	14
2	3
2	4
2	4
2	5
2	4
2	3
2	5
2	512
2	6
2	4
2	6
2	6
2	5
2	4
2	9
2	3
2	4
2	3
2	4
2	5
2	3
2	4
2	3
2	4
2	8
2	3
2	18
2	4
2	4
2	5
2	11
2	3
2	9
2	4
2	3
2	7
2	4
2	3
2	8
2	4
2	3
2	3
2	4
2	4
2	4
2	5
2	3
2	7
2	3
2	4
2	3
2	3
2	17
2	11
2	6
2	5
2	3
2	7
2	16
2	8
2	5
2	9
2	4
3	4
3	4
3	4
3	5
3	5
3	4
3	4
3	4
3	5
3	4
3	5
3	7
3	4
3	4
3	9
3	4
3	4
3	7
3	5
3	5
3	4
3	4
3	5
3	4
3	6
3	4
3	4
3	8
3	4
3	4
3	4
3	4
4	5
4	5
4	5
4	5
4	5
4	6
4	5
4	5
4	6
4	6
4	5
4	5
4	5
4	5
4	5
4	5
4	5
4	5
4	5
4	5
4	5
5	6
5	6
5	6
5	6
5	6
5	6
5	6
5	6
5	6
6	7
6	7
6	7
6	7
6	7
6	7
6	7
6	7
7	8
7	8
7	8
7	8
7	8
8	9
9	10
9	10
10	11
11	12
12	13
14	15
15	16
16	17
510	511
