1	6124
1	72
1	74
1	71
1	71
1	10
1	16
1	77
1	71
1	9
1	72
1	72
1	71
1	16
1	9
1	16
1	72
1	11
1	71
1	71
1	9
1	74
1	5
1	78
1	71
1	16
1	9
1	9
1	9
1	7
1	8
1	71
1	4
1	10
1	5
1	72
1	6124
1	10
1	15
1	8
1	71
1	19
1	71
1	8
1	8
1	13
1	71
1	71
1	71
1	7
1	11
1	9
1	9
1	71
1	71
1	71
1	9
1	71
1	71
1	71
1	7
1	71
1	72
1	7
1	9
1	11
1	7
1	71
1	71
1	71
1	71
1	8
1	10
1	5
1	71
1	71
1	11
1	5
1	6
1	71
1	71
1	8
1	9
1	71
1	9
1	71
1	71
1	12
1	5
1	71
1	7
1	7
1	5
1	5
1	71
1	71
1	14
1	71
1	5
1	5
1	5
1	71
1	71
1	9
1	71
1	4
1	71
1	71
1	9
1	9
1	9
1	7
1	71
1	5
1	7
1	72
1	8
1	71
1	71
1	73
1	9
1	11
1	8
1	5
1	9
1	72
1	7
1	9
1	72
1	7
1	9
1	5
1	5
1	4
1	8
1	6
1	8
1	4
1	7
1	8
1	5
1	71
1	8
1	6
1	3
1	12
1	71
1	71
1	8
1	6
1	4
1	10
2	8
2	7
2	3
2	3
2	3
2	5
2	3
2	7
2	6
2	7
2	3
2	7
2	3
2	3
2	6
2	4
2	3
2	4
2	4
2	5
2	4
2	6
2	5
2	3
2	6
2	3
2	3
2	3
2	4
2	5
2	3
2	6
2	3
2	3
2	3
2	9
2	3
2	3
2	4
2	8
2	3
2	3
2	5
2	3
2	5
3	4
3	4
3	4
3	5
3	4
3	4
3	5
3	4
3	7
3	4
3	4
3	4
3	5
3	6
3	4
4	5
4	5
4	6
4	5
4	5
4	5
4	5
4	5
4	6
4	5
4	5
4	5
4	5
4	5
4	5
4	5
4	5
4	5
4	5
4	6
5	6
5	6
5	6
5	6
6	7
6	8
6	7
6	7
7	8
7	8
7	8
7	8
8	9
8	9
9	10
12	13
70	71
