7	6124
10	6124
10	6124
10	6124
10	6124
10	6124
10	6124
11	6124
12	6124
12	6124
12	6124
13	6124
13	6124
13	6124
16	6124
16	6124
20	6124
72	6124
72	6124
74	6124
74	6124
74	6124
74	6124
74	6124
77	6124
82	6124
