1	6124
1	691
1	692
1	691
1	691
1	23
1	691
1	16
1	691
1	691
1	692
1	691
1	17
1	691
1	14
1	30
1	20
1	691
1	691
1	691
1	691
1	691
1	15
1	10
1	17
1	691
1	16
1	693
1	691
1	16
1	694
1	6124
1	691
1	691
1	11
1	691
1	691
1	691
1	5
1	691
1	15
1	18
1	15
1	691
1	10
1	13
1	691
1	13
1	12
1	691
1	12
1	29
1	15
1	691
1	691
1	16
1	691
1	13
1	9
1	691
1	22
1	691
1	7
1	691
1	691
1	691
1	10
1	22
1	691
1	19
1	16
1	691
1	691
1	691
1	14
1	691
1	691
1	13
1	691
1	691
1	691
1	691
1	691
1	691
1	691
1	18
1	691
1	12
1	691
1	691
1	691
1	20
1	15
1	691
1	20
1	9
1	691
1	691
1	691
1	691
1	691
1	14
1	691
1	18
1	691
1	691
1	691
1	691
1	20
1	691
1	691
1	15
1	691
1	692
1	19
1	12
1	28
1	40
1	12
1	691
1	691
1	13
1	691
1	691
1	14
1	691
1	691
1	691
1	691
1	23
1	39
1	11
1	691
1	691
1	691
1	691
1	691
1	691
1	691
1	16
1	691
1	12
1	14
1	691
1	27
1	691
1	691
1	19
1	691
1	15
1	691
1	6
1	21
1	11
1	15
1	698
1	8
1	691
1	691
1	13
1	12
1	691
1	9
1	12
1	6
1	9
1	691
1	11
1	16
1	14
1	19
1	691
1	691
1	10
1	691
1	691
1	693
1	691
1	693
1	691
1	10
1	691
1	691
1	691
1	691
1	691
1	691
1	12
1	39
1	19
1	691
1	692
1	20
1	12
1	16
1	691
1	691
1	18
1	12
1	691
1	39
1	691
1	692
1	691
1	691
1	10
1	691
1	13
1	691
1	691
1	691
1	691
1	692
1	691
1	691
1	6
1	15
1	19
1	691
1	10
1	691
1	19
1	11
1	691
1	12
1	691
1	691
1	12
1	691
1	12
1	691
1	14
1	691
1	691
1	691
1	691
1	691
1	692
1	691
1	20
1	691
1	39
1	691
1	691
1	691
1	691
1	691
1	695
1	7
1	691
1	691
1	691
1	691
1	691
1	11
1	691
1	10
1	691
1	691
1	15
1	692
1	14
1	691
1	10
1	691
1	691
1	691
1	691
1	691
1	20
1	691
1	691
1	691
1	691
1	11
1	19
1	13
1	691
1	19
1	18
1	7
1	10
1	691
1	691
1	10
1	11
1	18
1	691
1	691
1	39
1	8
1	691
1	691
1	9
1	20
1	691
1	691
1	691
1	691
1	691
1	691
1	27
1	691
1	691
1	19
1	691
1	21
1	691
1	691
1	691
1	18
1	8
1	692
1	15
1	12
1	691
1	6
1	691
1	9
1	9
1	691
1	691
1	12
1	691
1	5
1	19
1	691
1	691
1	19
1	26
1	694
1	12
1	691
1	691
1	691
1	691
1	691
1	20
1	6
1	691
1	691
1	691
1	692
1	691
1	692
1	5
1	691
1	691
1	692
1	691
1	691
1	18
1	691
1	12
1	691
1	12
1	691
1	9
1	17
1	691
1	11
1	691
1	691
1	9
1	692
1	18
1	692
1	691
1	19
1	691
1	39
1	691
1	12
1	691
1	19
1	691
1	11
1	691
1	20
1	10
1	10
1	27
1	691
1	691
1	691
1	14
1	691
1	39
1	9
1	691
1	691
1	691
1	691
1	691
1	691
1	691
1	17
1	691
1	691
1	691
1	7
1	691
1	8
1	691
1	21
1	691
1	691
1	691
1	691
1	7
1	19
1	691
1	691
1	691
1	691
1	691
1	8
1	691
1	691
1	691
1	19
1	12
1	12
1	11
1	691
1	691
1	691
1	691
1	691
1	691
1	691
1	691
1	8
1	7
1	6
1	691
1	691
1	39
1	691
1	691
1	691
1	691
1	15
1	691
1	692
1	691
1	691
1	691
1	691
1	691
1	19
1	691
1	691
1	15
1	691
1	8
1	12
1	691
1	691
1	691
1	691
1	691
1	4
1	691
1	10
1	19
1	14
1	14
1	19
1	691
1	7
1	13
1	691
1	691
1	691
1	5
1	6124
1	9
1	691
1	20
1	10
1	9
1	691
1	691
1	691
1	691
1	11
1	8
1	691
1	12
1	691
1	691
1	692
1	691
1	691
1	691
1	9
1	8
1	23
1	7
1	691
1	691
1	691
1	691
1	691
1	691
1	691
1	691
1	693
1	19
1	19
1	691
1	691
1	691
1	21
1	11
1	11
1	8
1	691
1	691
1	12
1	691
1	691
1	10
1	691
1	691
1	691
1	691
1	691
1	15
1	691
1	691
1	691
1	11
1	691
1	691
1	12
1	691
1	691
1	691
1	691
1	6124
1	5
1	18
1	27
1	691
1	9
1	21
1	7
1	691
1	691
1	691
1	5
1	6
1	5
1	12
1	691
1	691
1	5
1	39
1	39
1	7
1	691
1	691
1	21
1	9
1	692
1	691
1	7
1	11
1	7
1	691
1	691
1	691
1	11
1	691
1	11
1	691
1	5
1	691
1	691
1	691
1	691
1	691
1	6
1	27
1	12
1	691
1	9
1	14
1	691
1	9
1	691
1	8
1	691
1	691
1	691
1	11
1	691
1	11
1	691
1	6
1	19
1	691
1	5
1	691
1	691
1	691
1	691
1	691
1	6
1	8
1	691
1	691
1	691
1	691
1	691
1	17
1	14
1	691
1	9
1	4
1	7
1	691
1	5
1	19
1	8
1	11
1	9
1	691
1	9
1	691
1	19
1	691
1	691
1	10
1	691
1	6
1	19
1	17
1	691
1	691
1	19
1	691
1	39
1	692
1	691
1	12
1	12
1	27
1	8
1	6
1	7
1	691
1	691
1	691
1	691
1	4
1	5
1	691
1	691
1	691
1	6
1	691
1	19
1	691
1	11
1	691
1	691
1	691
1	12
1	691
1	691
1	691
1	18
1	691
1	13
1	691
1	9
1	40
1	19
1	691
1	691
1	691
1	39
1	691
1	692
1	6
1	19
1	691
1	7
1	691
1	39
1	691
1	19
1	5
1	691
1	11
1	20
1	6
1	6
1	691
1	7
1	691
1	691
1	691
1	691
1	691
1	7
1	8
1	691
1	691
1	7
1	10
1	691
1	18
1	691
1	691
1	6
1	7
1	691
1	691
1	691
1	691
1	5
1	15
1	19
1	691
1	27
1	10
1	691
1	8
1	19
1	691
1	7
1	39
1	19
1	8
1	2
1	691
1	691
1	10
1	21
1	691
1	691
1	691
1	691
1	691
1	691
1	691
1	691
1	11
1	691
1	5
1	7
1	14
1	691
1	11
1	691
1	691
1	19
1	691
1	27
1	10
1	11
1	20
1	691
1	691
1	9
1	15
1	691
1	691
1	7
1	691
1	691
1	15
1	691
1	691
1	2
1	16
1	691
1	9
1	19
1	6
1	691
1	9
1	691
1	19
1	15
1	691
1	691
1	691
1	691
1	691
1	10
1	18
1	7
1	691
1	691
1	691
1	19
1	27
1	691
1	691
1	15
1	11
1	692
1	6
1	691
1	691
1	691
1	7
1	691
1	10
1	11
1	39
1	21
1	691
1	691
1	8
1	691
1	21
1	11
1	691
1	691
1	6
1	13
1	691
1	691
1	8
1	691
1	6
1	9
1	691
1	691
1	20
1	691
1	691
1	19
1	27
1	8
1	12
1	691
1	15
1	27
1	4
1	7
1	17
1	2
1	691
1	12
1	39
1	10
1	6
1	691
1	9
1	6
1	691
1	691
1	10
1	691
1	691
1	19
1	12
1	691
1	8
1	691
1	691
1	691
1	691
1	691
1	7
1	13
1	691
1	13
1	40
1	691
1	27
1	5
1	692
1	11
1	19
1	11
1	692
1	8
1	19
1	4
1	691
1	691
1	691
1	5
1	7
1	691
1	11
1	9
1	4
1	8
1	5
1	19
1	8
1	8
1	691
1	691
1	691
1	691
1	14
1	9
1	10
1	6
1	691
1	691
1	5
1	691
1	691
1	8
1	691
1	5
1	691
1	9
1	691
1	691
1	10
1	691
1	7
1	691
1	39
1	691
1	691
1	691
1	6
1	691
1	27
1	691
1	691
1	691
1	691
1	9
1	691
1	691
1	691
1	19
1	7
1	691
1	6
1	691
1	691
1	691
1	691
1	6
1	691
1	11
1	691
1	19
1	15
1	691
1	20
1	691
1	691
1	6
1	10
1	691
1	692
1	691
1	691
1	691
1	13
1	6
1	691
1	11
1	8
1	8
1	9
1	691
1	691
1	691
1	13
1	691
1	691
1	692
1	691
1	691
1	12
1	691
1	691
1	691
1	28
1	691
1	691
1	19
1	19
1	11
1	9
1	11
1	691
1	691
1	691
1	691
1	18
1	15
1	691
1	692
1	691
1	691
1	691
1	691
1	11
1	691
1	19
1	691
1	10
1	5
1	691
1	11
1	15
1	691
1	5
1	691
1	692
1	8
1	4
1	7
1	691
1	10
1	5
1	691
1	691
1	691
1	691
1	691
1	11
1	692
1	691
2	4
2	7
2	3
2	10
2	4
2	3
2	3
2	3
2	3
2	12
2	6
2	11
2	6
2	5
2	6
2	5
2	6
2	20
2	7
2	3
2	5
2	5
2	3
2	692
2	11
2	11
2	7
2	10
2	15
2	9
2	3
2	11
2	8
2	3
2	3
2	10
2	6
2	4
2	3
2	6
2	10
2	3
2	3
2	5
2	7
2	9
2	3
2	6
2	3
2	3
2	3
2	4
2	28
2	3
2	3
2	8
2	19
2	9
2	3
2	3
2	3
2	6
2	7
2	10
2	3
2	7
2	5
2	22
2	14
2	6
2	9
2	4
2	3
2	3
2	6
2	6
2	6
2	6
2	3
2	6
2	4
2	22
2	6
2	3
2	3
2	4
2	692
2	3
2	5
2	4
2	3
2	4
2	3
2	3
2	7
2	3
2	9
2	3
2	4
2	3
2	3
2	7
2	3
2	4
2	9
2	9
2	8
2	3
2	6
2	3
2	8
2	5
2	8
2	6
2	9
2	9
2	7
2	3
2	6
2	22
2	3
2	4
2	5
2	3
2	6
2	3
2	3
2	4
2	4
2	4
2	10
2	7
2	4
2	5
2	4
2	3
2	4
2	7
2	7
2	5
2	9
2	16
2	4
2	4
2	3
2	3
2	20
2	3
2	3
2	4
2	8
2	8
2	4
2	12
2	4
2	3
2	5
2	3
2	4
2	4
2	3
2	3
2	3
2	40
2	4
2	14
2	9
2	4
2	19
2	3
2	4
2	7
2	6
2	11
2	3
2	3
2	3
2	11
2	20
2	8
2	4
2	4
2	5
2	4
2	12
2	8
2	6
2	5
2	3
2	6
2	3
2	12
2	6
2	6
2	4
2	5
2	3
2	3
2	4
2	3
2	4
2	20
2	4
3	5
3	4
3	4
3	4
3	4
3	4
3	4
3	4
3	5
3	5
3	4
3	5
3	4
3	4
3	6
3	4
3	6
3	8
3	4
3	4
3	6
3	4
3	4
3	4
3	4
3	4
3	5
3	5
3	4
3	5
3	4
3	8
3	5
3	6
3	9
3	8
3	4
3	4
3	4
3	4
3	5
3	4
3	4
3	6
3	4
3	4
3	16
3	4
3	4
3	4
3	5
3	4
3	4
3	4
3	5
3	4
3	4
3	5
3	6
3	4
3	4
3	6
3	6
3	11
3	4
3	4
3	5
3	4
3	4
3	4
3	4
3	4
4	7
4	5
4	5
4	5
4	5
4	5
4	6
4	5
4	5
4	6
4	9
4	6
4	5
4	5
4	5
4	5
4	5
4	5
4	5
4	5
4	5
4	5
4	5
4	6
4	5
4	5
4	5
4	6
4	6
4	5
4	5
4	6
4	5
4	5
4	5
4	6
4	8
4	5
4	5
4	5
4	5
4	5
4	6
4	5
4	5
4	5
4	7
5	7
5	7
5	6
5	6
5	6
5	6
5	6
5	6
5	6
5	7
5	6
5	6
5	6
5	6
5	6
5	6
5	7
5	6
6	8
6	7
6	7
6	7
6	8
6	7
6	7
6	7
6	7
6	7
6	8
6	7
6	7
6	7
6	7
6	7
6	9
7	8
7	8
7	8
7	8
7	8
7	8
7	9
7	8
7	8
7	8
8	9
8	9
8	9
8	9
8	9
8	12
8	9
8	9
9	10
9	10
9	10
9	10
9	10
10	11
10	12
10	11
10	11
10	11
10	11
10	11
10	11
11	12
11	12
12	13
13	14
14	15
14	15
14	15
16	17
17	18
18	19
18	19
18	19
18	19
19	20
20	21
26	27
38	39
690	691
