1	6124
1	407
1	407
1	407
1	407
1	407
1	407
1	407
1	409
1	407
1	408
1	407
1	408
1	408
1	407
1	14
1	407
1	407
1	407
1	407
1	12
1	407
1	10
1	407
1	408
1	408
1	407
1	407
1	407
1	407
1	407
1	408
1	10
1	407
1	407
1	408
1	407
1	407
1	407
1	407
1	407
1	408
1	407
1	407
1	407
1	407
1	407
1	6
1	407
1	407
1	407
1	407
1	408
1	407
1	407
1	407
1	407
1	407
1	407
1	407
1	407
1	407
1	14
1	407
1	10
1	408
1	407
1	409
1	408
1	407
1	409
1	407
1	407
1	407
1	407
1	407
1	407
1	409
1	407
1	407
1	411
1	407
1	407
1	407
1	407
1	407
1	407
1	407
1	407
1	10
1	407
1	407
1	7
1	407
1	407
1	407
1	407
1	407
1	12
1	409
1	407
1	409
1	407
1	407
1	407
1	407
1	9
1	407
1	408
1	407
1	407
1	407
1	407
1	407
1	407
1	407
1	407
1	6
1	407
1	407
1	407
1	407
1	407
1	11
1	407
1	410
1	407
1	5
1	407
1	407
1	407
1	407
1	407
1	408
1	407
1	407
1	407
1	407
1	407
1	407
1	407
1	407
1	407
1	9
1	409
1	4
1	407
1	407
1	407
1	407
1	407
1	6
1	5
1	408
1	407
1	7
1	407
1	407
1	407
1	13
1	407
1	407
1	5
1	407
1	407
1	407
1	407
1	407
1	407
1	407
1	407
1	407
1	407
1	407
1	12
1	10
1	407
1	6
1	407
1	407
1	407
1	407
1	8
1	12
1	407
1	407
1	407
1	408
1	407
1	408
1	408
1	4
1	407
1	407
1	13
1	407
1	408
1	407
1	407
1	407
1	409
1	11
1	408
1	407
1	407
1	5
1	407
1	6
1	407
1	407
1	407
1	407
1	407
1	407
1	407
1	9
1	407
1	407
1	407
1	407
1	407
1	407
1	407
1	407
1	407
1	13
1	407
1	407
1	5
1	407
1	407
1	6
1	407
1	8
1	408
1	12
1	407
1	407
1	407
1	7
1	407
1	407
1	407
1	407
1	407
1	408
1	407
1	407
1	6
1	407
1	407
1	407
1	407
1	407
1	407
1	407
1	408
1	6
1	407
1	407
1	407
1	407
1	407
1	4
1	6
1	407
1	407
1	407
1	407
1	408
1	407
1	408
1	407
1	10
1	408
1	407
1	407
1	407
1	407
1	6
1	407
1	407
1	407
1	407
1	407
1	407
1	407
1	407
1	407
1	407
1	407
1	407
1	407
1	407
1	407
1	407
1	407
1	407
1	407
1	407
1	13
1	407
1	16
1	408
1	407
1	407
1	407
1	8
1	407
1	407
1	12
1	407
1	407
1	407
1	9
1	407
1	407
1	407
1	407
1	407
1	407
1	408
1	407
1	407
1	407
1	408
1	5
1	407
1	407
1	5
1	4
1	407
1	407
1	13
1	407
1	407
1	407
1	407
1	407
1	407
1	407
1	13
1	407
1	407
1	407
1	407
1	407
1	6
1	407
1	407
1	12
1	6
1	407
1	407
1	407
1	407
1	407
1	407
1	407
1	408
1	407
1	407
1	407
1	407
1	407
1	407
1	407
1	8
1	407
1	5
1	407
1	407
1	9
1	9
1	12
1	407
1	13
1	5
1	407
1	407
1	407
1	407
1	407
1	4
1	407
1	407
1	407
1	407
1	408
1	7
1	9
1	407
1	407
1	407
1	407
1	407
1	407
1	8
1	6
1	9
1	408
1	12
1	407
1	407
1	407
1	407
1	408
1	407
1	407
1	407
1	407
1	407
1	407
1	407
1	407
1	407
1	407
1	5
2	408
2	4
2	10
2	3
2	408
2	9
2	3
2	5
2	408
2	6
2	3
2	3
2	408
2	5
2	3
2	5
2	7
2	3
2	5
2	3
2	3
2	3
2	5
2	8
2	6
2	5
2	3
2	3
2	6
2	3
2	7
2	10
2	3
2	3
2	10
2	6
2	7
2	3
2	3
2	408
2	3
2	5
2	3
2	3
2	7
2	7
2	7
2	408
2	408
2	5
2	3
2	3
2	5
2	4
2	3
2	5
2	6
2	14
2	4
2	7
2	4
2	7
2	3
2	3
2	3
2	4
2	9
2	10
2	3
2	4
2	4
2	4
2	3
2	3
2	10
2	3
2	4
2	9
2	3
2	3
2	3
2	9
2	5
2	4
2	3
2	3
2	3
2	408
2	6
2	4
2	6
2	4
3	5
3	4
3	4
3	4
3	4
3	4
3	4
3	4
3	5
3	4
3	5
3	4
3	4
3	5
3	5
3	4
3	4
3	6
3	4
3	4
3	4
3	4
3	5
3	5
3	5
3	4
3	4
4	5
4	5
4	5
4	5
4	7
4	5
4	5
4	6
4	5
4	6
4	5
4	5
4	5
4	5
4	5
5	6
5	6
5	6
5	6
5	6
5	7
5	6
6	7
6	8
7	8
8	9
8	9
11	12
12	13
406	407
