1	6124
1	899
1	899
1	899
1	899
1	899
1	899
1	899
1	899
1	899
1	900
1	899
1	899
1	899
1	899
1	899
1	899
1	10
1	899
1	899
1	899
1	899
1	899
1	901
1	899
1	900
1	899
1	899
1	899
1	899
1	899
1	899
1	899
1	900
1	899
1	899
1	899
1	899
1	899
1	899
1	899
1	899
1	899
1	899
1	899
1	899
1	899
1	899
1	899
1	899
1	899
1	899
1	899
1	899
1	899
1	899
1	899
1	899
1	899
1	13
1	9
1	899
1	899
1	899
1	900
1	899
1	899
1	899
1	899
1	899
1	899
1	899
1	899
1	899
1	902
1	899
1	899
1	899
1	899
1	899
1	899
1	899
1	899
1	899
1	899
1	899
1	899
1	899
1	899
1	899
1	899
1	899
1	899
1	899
1	899
1	899
1	899
1	899
1	899
1	14
1	899
1	899
1	901
1	899
1	899
1	899
1	899
1	899
1	899
1	899
1	899
1	899
1	899
1	899
1	899
1	899
1	900
1	899
1	899
1	899
1	899
1	899
1	899
1	899
1	899
1	899
1	899
1	899
1	899
1	899
1	899
1	899
1	899
1	899
1	899
1	899
1	899
1	899
1	899
1	899
1	899
1	899
1	899
1	9
1	899
1	899
1	899
1	899
1	899
1	899
1	11
1	899
1	902
1	899
1	899
1	899
1	899
1	899
1	899
1	899
1	899
1	899
1	899
1	899
1	899
1	9
1	899
1	899
1	899
1	9
1	899
1	899
1	899
1	12
1	899
1	899
1	899
1	899
1	9
1	899
1	899
1	899
1	899
1	899
1	899
1	899
1	899
1	899
1	899
1	899
1	899
1	899
1	899
1	899
1	899
1	899
1	899
1	899
1	899
1	901
1	899
1	899
1	899
1	6
1	899
1	899
1	899
1	899
1	899
1	899
1	899
1	899
1	9
1	899
1	899
1	899
1	899
1	901
1	899
1	899
1	899
1	899
1	899
1	899
1	899
1	14
1	899
1	10
1	899
1	899
1	899
1	899
1	899
1	903
1	899
1	899
1	899
1	899
1	899
1	899
1	899
1	899
1	899
1	899
1	899
1	899
1	899
1	899
1	899
1	899
1	899
1	899
1	899
1	9
1	899
1	899
1	899
1	899
1	899
1	899
1	899
1	899
1	899
1	10
1	899
1	899
1	899
1	899
1	899
1	899
1	899
1	899
1	6
1	10
1	899
1	899
1	902
1	899
1	899
1	899
1	899
1	899
1	9
1	899
1	899
1	899
1	899
1	899
1	899
1	899
1	899
1	899
1	899
1	899
1	899
1	899
1	8
1	8
1	899
1	899
1	899
1	6
1	899
1	899
1	899
1	899
1	899
1	899
1	899
1	899
1	6
1	899
1	899
1	7
1	899
1	899
1	899
1	899
1	899
1	899
1	899
1	899
1	899
1	899
1	899
1	899
1	899
1	899
1	899
1	899
1	899
1	899
1	899
1	899
1	899
1	9
1	899
1	899
1	899
1	899
1	899
1	899
1	6
1	899
1	899
1	899
1	899
1	899
1	899
1	8
1	899
1	899
1	899
1	899
1	899
1	900
1	899
1	899
1	9
1	899
1	899
1	899
1	899
1	899
1	899
1	899
1	899
1	899
1	899
1	899
1	899
1	899
1	899
1	899
1	899
1	7
1	899
1	899
1	899
1	899
1	899
1	899
1	899
1	899
1	899
1	899
1	899
1	7
1	899
1	899
1	8
1	899
1	899
1	4
1	899
1	899
1	899
1	899
1	899
1	899
1	899
1	899
1	899
1	899
1	899
1	899
1	899
1	899
1	899
1	899
1	899
1	899
1	899
1	899
1	899
1	899
1	899
1	899
1	899
1	899
1	899
1	899
1	899
1	899
1	899
1	899
1	899
1	899
1	899
1	899
1	899
1	899
1	9
1	899
1	899
1	899
1	899
1	899
1	899
1	899
1	899
1	899
1	899
1	899
1	899
1	899
1	899
1	12
1	899
1	899
1	899
1	899
1	899
1	899
1	899
1	899
1	899
1	899
1	899
1	899
1	8
1	10
1	899
1	899
1	899
1	899
1	899
1	899
1	899
1	899
1	899
1	4
1	900
1	899
1	899
1	899
1	899
1	899
1	899
1	899
1	899
1	899
1	899
1	900
1	899
1	899
1	899
1	899
1	899
1	899
1	899
1	899
1	8
1	899
1	899
1	9
1	899
1	899
1	899
1	899
1	901
1	899
1	899
1	899
1	899
1	899
1	6
1	899
1	899
1	899
1	899
1	899
1	899
1	899
1	899
1	899
1	899
1	6
1	899
1	899
1	899
1	899
1	899
1	899
1	899
1	899
1	899
1	899
1	899
1	899
1	899
1	900
1	899
1	899
1	899
1	899
1	899
1	899
1	899
1	899
1	899
1	899
1	899
1	899
1	899
1	899
1	899
1	899
1	899
1	899
1	899
1	899
1	899
1	899
1	899
1	899
1	899
1	899
1	899
1	899
1	899
1	899
1	899
1	899
1	899
1	9
1	899
1	899
1	899
1	899
1	899
1	899
1	899
1	899
1	899
1	899
1	9
1	899
1	12
1	899
1	899
1	899
1	899
1	899
1	899
1	899
1	899
1	899
1	899
1	899
1	899
1	899
1	899
1	899
1	899
1	899
1	899
1	899
1	899
1	7
1	899
1	899
1	899
1	899
1	899
1	899
1	899
1	899
1	899
1	899
1	900
1	899
1	899
1	899
1	899
1	899
1	899
1	899
1	899
1	899
1	899
1	899
1	899
1	899
1	899
1	899
1	899
1	899
1	11
1	899
1	899
1	899
1	899
1	899
1	899
1	9
1	899
1	899
1	899
1	899
1	899
1	899
1	899
1	899
1	899
1	899
1	899
1	899
1	899
1	899
1	899
1	899
1	5
1	899
1	5
1	899
1	899
1	899
1	899
1	899
1	899
1	6
1	8
1	899
1	899
1	899
1	899
1	899
1	899
1	899
1	899
1	899
1	899
1	899
1	899
1	899
1	899
1	899
1	899
1	899
1	899
1	899
1	10
1	899
1	899
1	7
1	899
1	5
1	899
1	899
1	899
1	899
1	899
1	899
1	899
1	5
1	899
1	899
1	5
1	9
1	899
1	899
1	899
1	899
1	899
1	899
1	899
1	10
1	899
1	9
1	899
1	899
1	900
1	899
1	899
1	899
1	899
1	899
1	899
1	899
1	899
1	899
1	899
1	899
1	899
1	899
1	899
1	899
1	899
1	899
1	899
1	899
1	899
1	899
1	899
1	899
1	899
1	899
1	899
1	899
1	899
1	899
1	4
1	899
1	899
1	899
1	899
1	899
1	899
1	9
1	899
1	899
1	6
1	899
1	899
1	899
1	899
1	899
1	7
1	899
1	899
1	899
1	899
1	899
1	6
1	899
1	899
1	899
1	899
1	899
1	899
1	5
1	899
1	899
1	899
1	899
1	899
1	899
1	899
1	7
1	899
1	8
1	899
1	899
1	899
1	899
1	5
1	899
1	899
1	899
1	899
1	899
1	899
1	899
1	10
1	899
1	900
1	899
1	899
1	900
1	899
1	899
1	899
1	900
1	899
1	899
1	899
1	899
1	899
1	899
1	899
1	899
1	899
1	899
1	6
1	899
1	899
1	899
1	899
1	6
1	900
1	900
1	899
1	899
1	900
1	899
1	899
1	899
1	899
1	899
1	899
1	899
1	899
1	899
1	11
1	899
1	899
1	899
1	899
1	899
1	899
1	899
1	899
1	899
1	899
1	899
1	899
1	899
1	900
1	899
1	899
1	899
1	899
1	899
1	899
1	899
1	899
1	8
1	899
1	899
1	7
1	899
1	899
1	899
1	899
1	899
1	899
1	899
1	899
1	899
1	899
1	899
1	899
1	899
1	899
1	900
1	899
1	899
1	899
1	4
1	899
1	899
1	899
1	899
1	899
1	899
1	899
1	899
1	899
1	899
1	899
1	5
1	899
1	899
1	899
1	899
1	899
1	899
1	899
2	900
2	900
2	8
2	900
2	900
2	5
2	11
2	7
2	3
2	900
2	4
2	3
2	7
2	900
2	900
2	900
2	3
2	8
2	3
2	900
2	10
2	8
2	7
2	9
2	3
2	9
2	900
2	3
2	3
2	8
2	3
2	4
2	10
2	4
2	8
2	4
2	4
2	900
2	4
2	900
2	3
2	12
2	3
2	3
2	3
2	3
2	6
2	900
2	3
2	8
2	4
2	3
2	7
2	6
2	10
2	3
2	3
2	6
2	3
2	3
2	5
2	900
2	4
2	7
2	6
2	3
2	4
2	3
2	8
2	4
2	4
2	4
2	4
2	7
2	4
2	4
2	4
2	9
2	8
2	5
3	4
3	4
3	4
3	8
3	4
3	5
3	4
3	4
3	4
3	5
3	5
3	4
3	4
3	4
3	5
3	4
3	7
3	4
3	4
3	4
4	6
4	5
4	5
4	5
4	5
4	5
4	5
4	5
4	5
4	5
5	6
5	6
5	7
5	6
5	6
5	6
5	6
5	6
5	6
6	8
6	8
6	7
6	7
6	7
6	7
7	8
7	8
7	9
8	9
8	9
8	9
9	10
898	899
