6	6124
8	6124
13	6124
14	6124
14	6124
15	6124
15	6124
16	6124
16	6124
16	6124
16	6124
16	6124
16	6124
17	6124
17	6124
17	6124
18	6124
20	6124
25	6124
27	6124
534	6124
534	6124
534	6124
534	6124
534	6124
534	6124
534	6124
534	6124
534	6124
534	6124
534	6124
534	6124
534	6124
534	6124
534	6124
534	6124
534	6124
534	6124
534	6124
535	6124
535	6124
535	6124
535	6124
535	6124
535	6124
535	6124
535	6124
535	6124
535	6124
535	6124
535	6124
535	6124
535	6124
535	6124
535	6124
535	6124
535	6124
536	6124
536	6124
536	6124
536	6124
537	6124
537	6124
537	6124
537	6124
537	6124
537	6124
538	6124
538	6124
538	6124
539	6124
539	6124
540	6124
540	6124
541	6124
543	6124
543	6124
546	6124
548	6124
