20	6124
723	6124
723	6124
723	6124
723	6124
723	6124
723	6124
723	6124
723	6124
723	6124
723	6124
723	6124
723	6124
723	6124
723	6124
723	6124
723	6124
723	6124
723	6124
723	6124
723	6124
723	6124
723	6124
723	6124
723	6124
723	6124
723	6124
723	6124
723	6124
723	6124
723	6124
723	6124
723	6124
723	6124
723	6124
723	6124
723	6124
723	6124
723	6124
723	6124
723	6124
723	6124
723	6124
723	6124
724	6124
724	6124
724	6124
724	6124
724	6124
724	6124
724	6124
724	6124
724	6124
724	6124
724	6124
724	6124
724	6124
724	6124
724	6124
724	6124
724	6124
724	6124
724	6124
724	6124
724	6124
724	6124
725	6124
725	6124
725	6124
725	6124
725	6124
725	6124
725	6124
725	6124
725	6124
726	6124
726	6124
726	6124
726	6124
726	6124
726	6124
726	6124
727	6124
727	6124
728	6124
728	6124
730	6124
730	6124
732	6124
740	6124
