6	6124
9	6124
11	6124
12	6124
12	6124
12	6124
12	6124
13	6124
13	6124
13	6124
13	6124
13	6124
13	6124
13	6124
13	6124
14	6124
14	6124
14	6124
14	6124
14	6124
14	6124
14	6124
14	6124
14	6124
14	6124
14	6124
14	6124
14	6124
14	6124
14	6124
14	6124
14	6124
14	6124
15	6124
15	6124
15	6124
15	6124
15	6124
15	6124
15	6124
15	6124
15	6124
15	6124
15	6124
15	6124
15	6124
15	6124
15	6124
15	6124
15	6124
15	6124
15	6124
15	6124
15	6124
15	6124
15	6124
15	6124
15	6124
15	6124
15	6124
15	6124
15	6124
16	6124
16	6124
16	6124
16	6124
16	6124
16	6124
16	6124
16	6124
16	6124
16	6124
16	6124
16	6124
16	6124
16	6124
16	6124
16	6124
16	6124
16	6124
17	6124
17	6124
17	6124
17	6124
17	6124
17	6124
17	6124
17	6124
17	6124
17	6124
17	6124
17	6124
17	6124
17	6124
17	6124
17	6124
17	6124
17	6124
17	6124
17	6124
17	6124
17	6124
17	6124
17	6124
17	6124
18	6124
18	6124
18	6124
18	6124
18	6124
18	6124
18	6124
18	6124
18	6124
18	6124
18	6124
18	6124
18	6124
18	6124
18	6124
18	6124
18	6124
19	6124
19	6124
19	6124
19	6124
19	6124
19	6124
19	6124
19	6124
19	6124
19	6124
19	6124
19	6124
19	6124
19	6124
19	6124
19	6124
19	6124
19	6124
20	6124
20	6124
20	6124
20	6124
20	6124
20	6124
20	6124
20	6124
20	6124
20	6124
20	6124
20	6124
20	6124
20	6124
20	6124
21	6124
21	6124
21	6124
21	6124
21	6124
21	6124
21	6124
21	6124
21	6124
22	6124
22	6124
22	6124
22	6124
22	6124
23	6124
23	6124
23	6124
23	6124
23	6124
23	6124
23	6124
23	6124
23	6124
23	6124
23	6124
23	6124
23	6124
23	6124
23	6124
23	6124
24	6124
24	6124
24	6124
24	6124
24	6124
24	6124
24	6124
25	6124
25	6124
25	6124
25	6124
25	6124
25	6124
25	6124
26	6124
26	6124
26	6124
26	6124
26	6124
26	6124
26	6124
26	6124
26	6124
26	6124
26	6124
26	6124
26	6124
26	6124
26	6124
27	6124
27	6124
27	6124
27	6124
27	6124
27	6124
27	6124
27	6124
27	6124
27	6124
28	6124
28	6124
28	6124
29	6124
29	6124
29	6124
29	6124
29	6124
29	6124
29	6124
29	6124
29	6124
29	6124
30	6124
30	6124
30	6124
30	6124
30	6124
34	6124
34	6124
34	6124
35	6124
36	6124
36	6124
39	6124
39	6124
39	6124
39	6124
39	6124
40	6124
40	6124
40	6124
40	6124
41	6124
41	6124
41	6124
42	6124
42	6124
42	6124
43	6124
43	6124
43	6124
44	6124
46	6124
47	6124
47	6124
48	6124
48	6124
48	6124
49	6124
54	6124
367	6124
367	6124
367	6124
367	6124
367	6124
367	6124
367	6124
367	6124
367	6124
367	6124
367	6124
367	6124
367	6124
367	6124
367	6124
367	6124
367	6124
367	6124
367	6124
367	6124
367	6124
367	6124
367	6124
367	6124
367	6124
367	6124
367	6124
367	6124
367	6124
367	6124
367	6124
367	6124
367	6124
367	6124
367	6124
367	6124
367	6124
367	6124
367	6124
367	6124
367	6124
367	6124
367	6124
367	6124
367	6124
367	6124
367	6124
367	6124
367	6124
367	6124
367	6124
367	6124
367	6124
367	6124
367	6124
368	6124
368	6124
368	6124
368	6124
368	6124
368	6124
368	6124
368	6124
368	6124
368	6124
368	6124
368	6124
368	6124
368	6124
368	6124
368	6124
368	6124
368	6124
368	6124
368	6124
368	6124
368	6124
368	6124
368	6124
368	6124
368	6124
368	6124
368	6124
369	6124
369	6124
369	6124
369	6124
369	6124
369	6124
369	6124
369	6124
369	6124
369	6124
369	6124
369	6124
369	6124
369	6124
369	6124
369	6124
369	6124
369	6124
369	6124
369	6124
369	6124
369	6124
369	6124
369	6124
370	6124
370	6124
370	6124
370	6124
370	6124
370	6124
370	6124
370	6124
370	6124
371	6124
371	6124
371	6124
371	6124
371	6124
371	6124
371	6124
371	6124
371	6124
371	6124
371	6124
372	6124
372	6124
372	6124
372	6124
372	6124
372	6124
372	6124
373	6124
373	6124
373	6124
373	6124
373	6124
373	6124
373	6124
374	6124
374	6124
374	6124
374	6124
374	6124
374	6124
375	6124
375	6124
375	6124
375	6124
375	6124
375	6124
376	6124
376	6124
376	6124
376	6124
376	6124
376	6124
376	6124
377	6124
378	6124
378	6124
378	6124
378	6124
380	6124
381	6124
382	6124
382	6124
384	6124
384	6124
388	6124
