6	6124
6	6124
6	6124
9	6124
10	6124
11	6124
12	6124
13	6124
14	6124
14	6124
14	6124
14	6124
15	6124
15	6124
15	6124
15	6124
16	6124
16	6124
16	6124
16	6124
16	6124
16	6124
16	6124
16	6124
16	6124
16	6124
16	6124
16	6124
17	6124
17	6124
17	6124
17	6124
17	6124
17	6124
17	6124
17	6124
18	6124
18	6124
18	6124
18	6124
18	6124
18	6124
18	6124
19	6124
19	6124
19	6124
19	6124
19	6124
19	6124
20	6124
20	6124
20	6124
20	6124
20	6124
20	6124
20	6124
20	6124
20	6124
20	6124
20	6124
20	6124
20	6124
20	6124
20	6124
20	6124
21	6124
21	6124
21	6124
22	6124
23	6124
24	6124
24	6124
24	6124
24	6124
25	6124
25	6124
25	6124
25	6124
25	6124
26	6124
26	6124
27	6124
27	6124
27	6124
27	6124
27	6124
28	6124
28	6124
28	6124
28	6124
29	6124
29	6124
30	6124
30	6124
31	6124
31	6124
31	6124
32	6124
32	6124
32	6124
35	6124
35	6124
35	6124
35	6124
36	6124
36	6124
36	6124
36	6124
36	6124
36	6124
37	6124
37	6124
37	6124
37	6124
38	6124
38	6124
38	6124
38	6124
38	6124
38	6124
39	6124
41	6124
42	6124
44	6124
45	6124
46	6124
49	6124
49	6124
52	6124
59	6124
1655	6124
1655	6124
1655	6124
1655	6124
1655	6124
1655	6124
1655	6124
1655	6124
1655	6124
1655	6124
1655	6124
1655	6124
1655	6124
1655	6124
1655	6124
1655	6124
1655	6124
1655	6124
1655	6124
1655	6124
1655	6124
1655	6124
1655	6124
1655	6124
1655	6124
1655	6124
1655	6124
1655	6124
1655	6124
1655	6124
1655	6124
1655	6124
1655	6124
1655	6124
1655	6124
1655	6124
1655	6124
1655	6124
1655	6124
1655	6124
1655	6124
1655	6124
1655	6124
1655	6124
1655	6124
1655	6124
1655	6124
1655	6124
1655	6124
1655	6124
1655	6124
1655	6124
1655	6124
1655	6124
1655	6124
1655	6124
1655	6124
1655	6124
1655	6124
1655	6124
1655	6124
1655	6124
1655	6124
1655	6124
1655	6124
1655	6124
1655	6124
1655	6124
1655	6124
1655	6124
1655	6124
1655	6124
1655	6124
1655	6124
1655	6124
1655	6124
1655	6124
1655	6124
1655	6124
1655	6124
1655	6124
1655	6124
1655	6124
1655	6124
1655	6124
1655	6124
1655	6124
1655	6124
1655	6124
1655	6124
1655	6124
1655	6124
1655	6124
1655	6124
1655	6124
1655	6124
1656	6124
1656	6124
1656	6124
1656	6124
1656	6124
1656	6124
1656	6124
1656	6124
1656	6124
1656	6124
1656	6124
1656	6124
1656	6124
1656	6124
1656	6124
1656	6124
1656	6124
1656	6124
1656	6124
1656	6124
1656	6124
1656	6124
1656	6124
1656	6124
1656	6124
1656	6124
1656	6124
1656	6124
1657	6124
1657	6124
1657	6124
1657	6124
1657	6124
1657	6124
1657	6124
1657	6124
1657	6124
1657	6124
1657	6124
1657	6124
1657	6124
1657	6124
1657	6124
1657	6124
1657	6124
1657	6124
1657	6124
1657	6124
1657	6124
1657	6124
1657	6124
1657	6124
1657	6124
1657	6124
1658	6124
1658	6124
1658	6124
1658	6124
1658	6124
1658	6124
1658	6124
1658	6124
1659	6124
1659	6124
1659	6124
1659	6124
1659	6124
1659	6124
1659	6124
1659	6124
1659	6124
1659	6124
1659	6124
1659	6124
1659	6124
1660	6124
1660	6124
1660	6124
1660	6124
1660	6124
1660	6124
1661	6124
1661	6124
1661	6124
1661	6124
1661	6124
1661	6124
1661	6124
1661	6124
1661	6124
1661	6124
1662	6124
1663	6124
1663	6124
1664	6124
1664	6124
1664	6124
1664	6124
1665	6124
1665	6124
1666	6124
1666	6124
1667	6124
1667	6124
1667	6124
1667	6124
1667	6124
1667	6124
1667	6124
1668	6124
1670	6124
1670	6124
1671	6124
1677	6124
1681	6124
1685	6124
1688	6124
