8	6124
11	6124
11	6124
12	6124
12	6124
12	6124
12	6124
13	6124
13	6124
13	6124
14	6124
15	6124
15	6124
15	6124
15	6124
15	6124
16	6124
17	6124
17	6124
17	6124
17	6124
17	6124
17	6124
17	6124
18	6124
18	6124
18	6124
18	6124
18	6124
18	6124
18	6124
18	6124
19	6124
19	6124
19	6124
20	6124
20	6124
20	6124
21	6124
21	6124
22	6124
22	6124
23	6124
24	6124
24	6124
24	6124
25	6124
26	6124
27	6124
29	6124
30	6124
30	6124
36	6124
39	6124
39	6124
57	6124
57	6124
58	6124
58	6124
58	6124
59	6124
59	6124
59	6124
59	6124
60	6124
60	6124
62	6124
62	6124
64	6124
64	6124
65	6124
68	6124
68	6124
70	6124
72	6124
81	6124
2332	6124
2332	6124
2332	6124
2332	6124
2332	6124
2332	6124
2332	6124
2332	6124
2332	6124
2332	6124
2332	6124
2332	6124
2332	6124
2332	6124
2332	6124
2332	6124
2332	6124
2332	6124
2332	6124
2332	6124
2332	6124
2332	6124
2332	6124
2332	6124
2332	6124
2332	6124
2332	6124
2332	6124
2332	6124
2332	6124
2332	6124
2332	6124
2332	6124
2332	6124
2332	6124
2332	6124
2332	6124
2332	6124
2332	6124
2332	6124
2332	6124
2332	6124
2332	6124
2332	6124
2332	6124
2332	6124
2332	6124
2332	6124
2332	6124
2332	6124
2332	6124
2332	6124
2332	6124
2332	6124
2332	6124
2332	6124
2332	6124
2332	6124
2332	6124
2332	6124
2332	6124
2332	6124
2332	6124
2332	6124
2332	6124
2332	6124
2332	6124
2332	6124
2332	6124
2332	6124
2332	6124
2332	6124
2333	6124
2333	6124
2333	6124
2333	6124
2333	6124
2333	6124
2333	6124
2333	6124
2333	6124
2333	6124
2333	6124
2333	6124
2333	6124
2333	6124
2333	6124
2333	6124
2333	6124
2333	6124
2333	6124
2333	6124
2333	6124
2333	6124
2333	6124
2333	6124
2333	6124
2334	6124
2334	6124
2334	6124
2334	6124
2334	6124
2334	6124
2334	6124
2334	6124
2334	6124
2334	6124
2334	6124
2334	6124
2334	6124
2334	6124
2334	6124
2334	6124
2334	6124
2334	6124
2334	6124
2334	6124
2334	6124
2334	6124
2334	6124
2335	6124
2335	6124
2335	6124
2335	6124
2335	6124
2335	6124
2335	6124
2335	6124
2335	6124
2335	6124
2335	6124
2335	6124
2335	6124
2335	6124
2335	6124
2335	6124
2335	6124
2335	6124
2335	6124
2335	6124
2335	6124
2336	6124
2336	6124
2336	6124
2336	6124
2336	6124
2336	6124
2336	6124
2336	6124
2336	6124
2337	6124
2337	6124
2337	6124
2337	6124
2337	6124
2338	6124
2338	6124
2338	6124
2338	6124
2338	6124
2339	6124
2339	6124
2339	6124
2339	6124
2339	6124
2340	6124
2340	6124
2340	6124
2340	6124
2340	6124
2341	6124
2341	6124
2342	6124
2342	6124
2342	6124
2343	6124
2343	6124
2344	6124
2344	6124
2344	6124
2346	6124
2346	6124
2348	6124
2348	6124
2348	6124
2384	6124
