84	6124
85	6124
85	6124
89	6124
157	6124
157	6124
157	6124
157	6124
157	6124
157	6124
157	6124
157	6124
157	6124
157	6124
157	6124
157	6124
157	6124
157	6124
157	6124
157	6124
157	6124
157	6124
157	6124
157	6124
157	6124
157	6124
157	6124
157	6124
157	6124
157	6124
157	6124
157	6124
157	6124
157	6124
157	6124
157	6124
157	6124
157	6124
157	6124
157	6124
157	6124
157	6124
157	6124
157	6124
157	6124
157	6124
157	6124
157	6124
157	6124
157	6124
157	6124
157	6124
157	6124
157	6124
157	6124
157	6124
157	6124
157	6124
157	6124
158	6124
158	6124
158	6124
158	6124
158	6124
158	6124
158	6124
158	6124
158	6124
158	6124
158	6124
158	6124
158	6124
158	6124
158	6124
158	6124
159	6124
159	6124
159	6124
159	6124
159	6124
159	6124
159	6124
159	6124
159	6124
160	6124
160	6124
160	6124
161	6124
161	6124
161	6124
162	6124
164	6124
235	6124
