9	6124
10	6124
17	6124
23	6124
30	6124
66	6124
66	6124
66	6124
66	6124
66	6124
66	6124
66	6124
67	6124
67	6124
67	6124
67	6124
67	6124
67	6124
69	6124
70	6124
70	6124
79	6124
146	6124
146	6124
146	6124
146	6124
146	6124
146	6124
146	6124
146	6124
146	6124
146	6124
146	6124
146	6124
146	6124
146	6124
146	6124
146	6124
146	6124
146	6124
146	6124
146	6124
146	6124
146	6124
146	6124
146	6124
146	6124
146	6124
146	6124
146	6124
146	6124
146	6124
146	6124
146	6124
146	6124
146	6124
146	6124
146	6124
147	6124
147	6124
147	6124
147	6124
147	6124
147	6124
147	6124
147	6124
147	6124
147	6124
147	6124
147	6124
147	6124
147	6124
148	6124
148	6124
148	6124
148	6124
148	6124
148	6124
148	6124
148	6124
149	6124
149	6124
149	6124
149	6124
150	6124
150	6124
150	6124
151	6124
151	6124
158	6124
160	6124
207	6124
