1	6124
1	134
1	135
1	134
1	88
1	133
1	134
1	133
1	135
1	134
1	133
1	88
1	85
1	136
1	8
1	7
1	133
1	134
1	83
1	13
1	7
1	136
1	6
1	133
1	86
1	86
1	8
1	133
1	133
1	8
1	134
1	133
1	133
1	10
1	136
1	83
1	133
1	8
1	9
1	7
1	133
1	4
1	133
1	133
1	7
1	7
1	4
1	136
1	9
1	86
1	6
1	133
1	133
1	9
1	9
1	5
1	13
1	6
1	134
1	8
1	134
1	133
1	133
1	83
1	133
1	134
1	83
1	6
1	134
1	5
1	6
1	9
1	6124
1	133
1	7
1	5
1	8
1	83
1	8
1	133
1	5
1	8
1	133
1	5
1	83
1	133
1	133
1	8
1	4
1	5
1	83
1	7
1	6124
1	5
1	5
1	83
1	5
1	6
1	8
1	133
1	133
1	133
1	83
1	5
1	83
1	133
1	83
1	133
1	6
1	6
1	133
1	133
1	9
1	7
1	8
1	10
1	7
1	4
1	8
1	4
1	133
1	85
1	2
1	6
1	6
1	7
1	83
1	5
1	133
1	6
1	7
1	8
1	134
1	5
1	85
1	85
1	83
1	133
1	4
1	11
1	11
1	133
1	7
1	83
1	5
1	83
1	11
1	133
1	11
1	7
1	6
1	7
1	7
1	5
1	4
1	83
1	7
1	83
1	134
1	13
1	83
1	83
1	83
1	134
1	5
1	6124
1	5
1	7
1	7
1	134
1	7
1	83
1	6
1	85
1	5
1	7
1	4
1	7
1	133
1	7
1	83
1	133
1	4
2	84
2	3
2	84
2	84
2	3
2	84
2	84
2	3
2	13
2	3
2	3
2	84
2	5
2	6
2	84
2	84
2	4
2	5
2	84
2	84
2	84
2	84
2	3
2	3
2	84
2	84
2	84
2	3
2	3
2	3
2	84
2	3
2	84
2	4
2	84
2	7
2	84
2	4
2	84
2	6
2	5
2	84
2	4
2	3
2	84
2	3
2	4
2	3
2	84
2	84
2	84
2	4
2	3
2	6
2	84
2	8
2	4
2	84
2	84
2	3
2	6
2	84
2	8
2	84
2	4
2	84
2	84
2	3
2	4
2	84
2	3
2	4
2	84
2	84
2	3
2	84
2	3
2	3
2	5
2	84
2	3
2	84
2	4
2	3
2	84
2	5
2	3
2	3
2	4
2	84
2	4
2	4
2	84
2	84
2	84
2	84
2	84
2	84
2	84
2	4
2	3
2	3
2	3
2	3
3	4
3	4
3	6
3	4
3	5
3	4
3	4
3	4
3	4
3	4
3	4
3	4
3	4
3	4
3	4
3	5
3	5
3	4
3	4
3	5
3	4
3	4
3	5
3	4
3	4
3	13
3	6
3	4
3	5
3	4
4	5
4	5
4	5
4	5
4	5
4	5
4	5
4	5
4	7
4	5
4	5
4	5
4	5
4	5
4	6
4	5
4	5
4	6
4	5
5	6
5	6
5	6
5	6
5	6
5	6
6	7
6	7
6	7
6	7
7	8
10	11
82	83
132	133
