1	6124
1	243
1	243
1	243
1	243
1	243
1	243
1	243
1	244
1	243
1	243
1	243
1	243
1	243
1	245
1	243
1	76
1	243
1	243
1	244
1	243
1	243
1	243
1	243
1	243
1	76
1	243
1	243
1	78
1	75
1	76
1	243
1	75
1	7
1	243
1	243
1	243
1	243
1	243
1	243
1	80
1	243
1	243
1	243
1	243
1	243
1	243
1	243
1	75
1	243
1	243
1	243
1	243
1	77
1	243
1	243
1	7
1	76
1	243
1	243
1	243
1	77
1	243
1	243
1	243
1	75
1	243
1	243
1	243
1	5
1	243
1	244
1	243
1	243
1	76
1	243
1	243
1	4
1	243
1	243
1	243
1	243
1	11
1	243
1	243
1	243
1	243
1	243
1	244
1	8
1	244
1	243
1	243
1	243
1	243
1	243
1	75
1	243
1	243
1	243
1	243
1	76
1	243
1	243
1	75
1	243
1	243
1	75
1	243
1	243
1	243
1	243
1	243
1	77
1	243
1	243
1	243
1	243
1	243
1	243
1	243
1	243
1	8
1	243
1	75
1	243
1	243
1	243
1	243
1	75
1	243
1	243
1	243
1	75
1	243
1	243
1	243
1	243
1	6
1	243
1	243
1	243
1	75
1	243
1	243
1	243
1	243
1	243
1	243
1	243
1	243
1	243
1	13
1	243
1	10
1	243
1	243
1	243
1	243
1	243
1	243
1	243
1	243
1	245
1	77
1	5
1	243
1	243
1	243
1	10
1	243
1	243
1	75
1	243
1	75
1	243
1	244
1	75
1	76
1	243
1	75
1	243
1	243
1	243
1	243
1	243
1	243
1	6
1	243
1	243
1	243
1	243
1	243
1	243
1	243
1	13
1	243
1	243
1	243
1	243
1	75
1	9
1	75
1	243
1	243
1	243
1	243
1	243
1	243
1	243
1	243
1	7
1	243
1	243
1	243
1	4
1	243
1	243
1	243
1	243
1	243
1	244
1	4
1	243
1	243
1	243
1	7
1	75
1	244
1	243
1	4
1	243
1	243
1	243
1	76
1	243
1	243
1	243
1	243
2	11
2	76
2	5
2	7
2	11
2	7
2	3
2	8
2	3
2	76
2	76
2	3
2	7
2	76
2	11
2	76
2	76
2	77
2	8
2	5
2	3
2	76
2	76
2	76
2	3
2	4
2	3
2	76
2	76
2	76
2	4
2	3
2	3
2	76
2	76
2	76
2	244
2	11
2	76
2	76
2	76
2	7
2	76
2	4
2	3
2	3
2	76
2	3
2	76
2	76
2	76
2	4
2	76
2	3
2	4
2	3
2	76
2	76
2	3
2	76
2	76
2	4
2	76
2	76
2	4
2	3
2	4
2	5
3	6
3	4
3	5
3	6
3	5
3	5
3	4
3	4
3	10
3	4
3	4
3	4
3	6
3	4
3	4
4	6
4	5
4	5
4	5
4	5
5	6
5	6
6	7
6	7
6	7
7	9
9	10
74	75
242	243
