113	6124
114	6124
114	6124
114	6124
115	6124
115	6124
120	6124
201	6124
201	6124
201	6124
201	6124
201	6124
201	6124
201	6124
201	6124
201	6124
201	6124
201	6124
201	6124
201	6124
201	6124
201	6124
201	6124
201	6124
201	6124
201	6124
201	6124
201	6124
201	6124
201	6124
201	6124
201	6124
201	6124
201	6124
201	6124
201	6124
201	6124
201	6124
201	6124
201	6124
201	6124
201	6124
201	6124
201	6124
201	6124
201	6124
201	6124
201	6124
201	6124
201	6124
201	6124
201	6124
201	6124
201	6124
201	6124
201	6124
201	6124
201	6124
201	6124
201	6124
201	6124
201	6124
201	6124
201	6124
201	6124
201	6124
201	6124
201	6124
201	6124
201	6124
201	6124
201	6124
201	6124
201	6124
201	6124
201	6124
201	6124
201	6124
201	6124
201	6124
201	6124
201	6124
201	6124
202	6124
202	6124
202	6124
202	6124
202	6124
202	6124
202	6124
202	6124
202	6124
202	6124
202	6124
202	6124
202	6124
202	6124
202	6124
202	6124
202	6124
202	6124
202	6124
202	6124
203	6124
203	6124
203	6124
203	6124
203	6124
203	6124
203	6124
203	6124
203	6124
203	6124
203	6124
204	6124
204	6124
205	6124
208	6124
