1	6124
1	212
1	211
1	211
1	121
1	211
1	211
1	211
1	211
1	211
1	212
1	211
1	119
1	117
1	117
1	211
1	211
1	211
1	211
1	13
1	6
1	211
1	211
1	117
1	10
1	211
1	211
1	211
1	211
1	211
1	211
1	14
1	211
1	8
1	211
1	119
1	211
1	211
1	211
1	211
1	117
1	211
1	117
1	118
1	211
1	211
1	117
1	120
1	211
1	211
1	117
1	211
1	211
1	211
1	211
1	211
1	211
1	211
1	11
1	211
1	211
1	211
1	211
1	211
1	211
1	117
1	119
1	7
1	211
1	211
1	211
1	211
1	11
1	211
1	211
1	117
1	211
1	211
1	119
1	211
1	211
1	117
1	117
1	211
1	211
1	117
1	211
1	211
1	211
1	117
1	211
1	8
1	117
1	211
1	117
1	211
1	211
1	211
1	117
1	211
1	211
1	117
1	211
1	211
1	211
1	211
1	117
1	211
1	117
1	211
1	211
1	211
1	119
1	211
1	211
1	117
1	211
1	118
1	13
1	211
1	119
1	211
1	211
1	211
1	211
1	5
1	211
1	211
1	211
1	211
1	211
1	211
1	211
1	118
1	211
1	211
1	211
1	8
1	117
1	211
1	211
1	211
1	211
1	211
1	211
1	211
1	211
1	118
1	211
1	117
1	117
1	211
1	119
1	11
1	5
1	6
1	117
1	10
1	8
1	8
1	211
1	211
1	211
1	211
1	118
1	211
1	211
1	211
1	117
1	117
1	211
1	117
1	117
1	211
1	211
1	211
1	211
1	211
1	211
1	211
1	5
1	211
1	11
1	211
1	9
1	7
1	211
1	211
1	211
1	211
1	211
1	211
1	117
1	211
2	118
2	118
2	118
2	3
2	118
2	118
2	118
2	118
2	118
2	118
2	118
2	118
2	118
2	118
2	118
2	118
2	118
2	118
2	118
2	118
2	118
2	118
2	3
2	3
2	4
2	118
2	118
2	118
2	118
2	118
2	118
2	118
2	118
2	118
2	118
2	3
2	118
2	118
2	3
2	118
2	3
2	4
2	118
2	118
2	118
2	118
2	118
2	118
2	118
2	212
2	3
2	4
2	118
2	118
2	118
2	118
2	3
2	118
2	118
2	118
2	118
2	118
2	118
2	118
2	118
2	3
2	118
2	118
2	118
2	118
2	118
2	118
2	118
2	118
2	118
2	118
2	118
2	118
2	118
2	118
2	118
3	4
3	4
3	6
3	4
3	4
3	4
3	5
3	4
3	4
4	5
4	5
5	6
6	7
7	8
7	8
10	11
116	117
210	211
