6	6124
7	6124
8	6124
9	6124
11	6124
16	6124
118	6124
118	6124
119	6124
121	6124
122	6124
122	6124
124	6124
126	6124
126	6124
126	6124
126	6124
126	6124
126	6124
126	6124
126	6124
126	6124
126	6124
126	6124
126	6124
126	6124
126	6124
126	6124
126	6124
126	6124
127	6124
127	6124
127	6124
127	6124
127	6124
127	6124
128	6124
128	6124
128	6124
128	6124
128	6124
128	6124
128	6124
130	6124
131	6124
131	6124
131	6124
133	6124
134	6124
