1	6124
1	109
1	109
1	109
1	109
1	109
1	110
1	109
1	110
1	109
1	109
1	109
1	109
1	109
1	109
1	68
1	109
1	109
1	109
1	109
1	109
1	68
1	109
1	8
1	109
1	109
1	109
1	109
1	109
1	67
1	8
1	109
1	67
1	109
1	109
1	109
1	109
1	109
1	6
1	6
1	109
1	109
1	5
1	109
1	109
1	109
1	109
1	109
1	109
1	109
1	109
1	109
1	109
1	109
2	68
2	68
2	68
2	68
2	68
2	68
2	68
2	68
2	68
2	68
2	68
2	68
2	3
2	68
2	68
2	68
2	8
2	68
2	68
2	68
2	68
2	68
2	7
2	6
2	68
2	68
2	68
2	68
2	68
2	69
2	68
2	68
2	3
2	68
2	68
2	68
2	68
2	68
2	68
2	68
2	68
2	68
2	68
2	68
2	68
2	4
2	68
2	68
2	8
2	68
2	68
2	68
2	68
2	68
2	4
2	68
2	68
2	68
2	68
2	68
2	68
2	68
3	69
3	4
3	8
3	4
3	8
3	5
3	6
4	5
5	6
5	8
5	8
6	8
66	67
108	109
