152	6124
152	6124
152	6124
152	6124
152	6124
152	6124
152	6124
153	6124
153	6124
153	6124
154	6124
195	6124
195	6124
195	6124
195	6124
195	6124
195	6124
195	6124
195	6124
195	6124
195	6124
195	6124
195	6124
195	6124
195	6124
195	6124
195	6124
195	6124
195	6124
195	6124
195	6124
195	6124
195	6124
195	6124
195	6124
195	6124
195	6124
195	6124
195	6124
195	6124
195	6124
195	6124
195	6124
195	6124
195	6124
195	6124
195	6124
195	6124
195	6124
195	6124
195	6124
195	6124
195	6124
195	6124
195	6124
195	6124
195	6124
195	6124
195	6124
195	6124
195	6124
195	6124
195	6124
195	6124
195	6124
195	6124
195	6124
195	6124
195	6124
195	6124
195	6124
195	6124
195	6124
195	6124
195	6124
195	6124
195	6124
195	6124
195	6124
195	6124
195	6124
195	6124
195	6124
195	6124
195	6124
195	6124
195	6124
195	6124
195	6124
195	6124
195	6124
195	6124
196	6124
196	6124
196	6124
196	6124
196	6124
196	6124
196	6124
196	6124
196	6124
196	6124
196	6124
196	6124
196	6124
196	6124
196	6124
196	6124
196	6124
196	6124
196	6124
196	6124
197	6124
197	6124
197	6124
197	6124
197	6124
197	6124
198	6124
198	6124
198	6124
198	6124
201	6124
