1	6124
1	226
1	225
1	225
1	225
1	225
1	79
1	225
1	79
1	17
1	225
1	225
1	78
1	227
1	10
1	225
1	225
1	225
1	225
1	225
1	16
1	225
1	225
1	225
1	78
1	225
1	225
1	225
1	225
1	11
1	225
1	225
1	225
1	225
1	225
1	225
1	225
1	225
1	225
1	225
1	225
1	225
1	225
1	77
1	79
1	78
1	225
1	15
1	225
1	225
1	77
1	225
1	225
1	225
1	11
1	225
1	225
1	7
1	225
1	225
1	225
1	14
1	225
1	7
1	225
1	225
1	11
1	225
1	225
1	226
1	225
1	4
1	14
1	226
1	225
1	225
1	8
1	225
1	18
1	225
1	225
1	225
1	225
1	225
1	225
1	225
1	225
1	225
1	225
1	225
1	7
1	225
1	225
1	10
1	8
1	79
1	225
1	225
1	77
1	225
1	225
1	225
1	225
1	9
1	225
1	225
1	225
1	225
1	225
1	225
1	8
1	78
1	226
1	225
1	77
1	77
1	10
1	225
1	225
1	225
1	225
1	225
1	225
1	225
1	78
1	225
1	225
1	225
1	9
1	225
1	225
1	225
1	225
1	225
1	225
1	225
1	225
1	225
1	78
1	225
1	225
1	4
1	10
1	225
1	225
1	78
1	225
1	79
1	225
1	225
1	225
1	225
1	7
1	225
1	10
1	226
1	6
1	79
1	225
1	6
1	77
1	225
1	225
1	77
1	225
1	10
1	225
1	225
1	225
1	225
1	77
1	225
1	225
1	225
1	225
1	9
1	5
1	5
1	77
1	225
1	225
1	225
1	4
1	13
1	225
1	225
1	225
1	225
1	225
1	225
1	225
1	225
1	6
1	7
1	78
1	6
1	5
1	225
1	77
1	225
1	225
1	225
1	225
1	225
1	225
1	225
1	225
1	78
1	225
1	8
1	225
1	77
1	226
1	8
1	225
1	225
1	77
1	225
1	225
1	227
1	225
1	225
1	225
1	225
1	225
1	225
1	225
1	15
1	225
1	225
1	225
1	225
1	225
1	225
1	225
1	225
1	225
1	225
1	225
1	5
1	225
1	7
1	225
1	6
1	225
1	4
1	225
1	225
1	225
1	225
1	4
1	225
1	78
2	5
2	3
2	78
2	78
2	6
2	11
2	78
2	78
2	3
2	4
2	3
2	78
2	6
2	3
2	3
2	78
2	78
2	4
2	78
2	6
2	78
2	14
2	3
2	5
2	78
2	3
2	78
2	3
2	5
2	78
2	3
2	5
2	78
2	3
2	3
2	4
2	78
2	4
2	78
2	5
2	11
2	10
2	78
2	3
2	3
2	3
2	78
2	78
2	78
2	3
2	78
2	78
2	3
2	4
2	78
2	78
2	78
2	4
2	3
2	8
2	78
2	3
2	78
2	3
2	3
2	78
2	3
2	3
2	78
2	4
2	3
2	3
2	14
3	4
3	4
3	5
3	5
3	5
3	4
3	5
3	4
3	7
3	6
3	15
3	6
3	5
3	4
3	4
3	4
3	4
3	5
3	5
3	4
3	5
3	4
3	6
3	4
3	4
4	5
4	5
4	5
4	5
4	5
4	5
4	5
5	6
6	7
6	7
8	9
8	9
9	10
12	13
76	77
224	225
