113	6124
113	6124
114	6124
115	6124
119	6124
213	6124
213	6124
213	6124
213	6124
213	6124
213	6124
213	6124
213	6124
213	6124
213	6124
213	6124
213	6124
213	6124
213	6124
213	6124
213	6124
213	6124
213	6124
213	6124
213	6124
213	6124
213	6124
213	6124
213	6124
213	6124
213	6124
213	6124
213	6124
213	6124
213	6124
213	6124
213	6124
213	6124
213	6124
213	6124
213	6124
213	6124
213	6124
213	6124
213	6124
213	6124
214	6124
214	6124
214	6124
214	6124
214	6124
214	6124
214	6124
215	6124
215	6124
215	6124
216	6124
217	6124
221	6124
