8	6124
11	6124
116	6124
116	6124
116	6124
116	6124
116	6124
116	6124
117	6124
117	6124
117	6124
117	6124
117	6124
117	6124
119	6124
119	6124
119	6124
121	6124
162	6124
162	6124
162	6124
162	6124
162	6124
162	6124
162	6124
162	6124
162	6124
162	6124
162	6124
162	6124
162	6124
162	6124
162	6124
162	6124
162	6124
162	6124
162	6124
162	6124
162	6124
162	6124
162	6124
162	6124
162	6124
162	6124
162	6124
162	6124
162	6124
162	6124
162	6124
162	6124
162	6124
162	6124
162	6124
162	6124
162	6124
162	6124
162	6124
162	6124
162	6124
162	6124
162	6124
162	6124
162	6124
162	6124
162	6124
162	6124
162	6124
163	6124
163	6124
163	6124
163	6124
163	6124
163	6124
163	6124
163	6124
163	6124
163	6124
163	6124
163	6124
163	6124
163	6124
163	6124
163	6124
163	6124
163	6124
163	6124
163	6124
163	6124
163	6124
163	6124
163	6124
164	6124
164	6124
164	6124
164	6124
165	6124
165	6124
165	6124
165	6124
165	6124
166	6124
166	6124
166	6124
166	6124
167	6124
167	6124
169	6124
177	6124
274	6124
