1	6124
1	144
1	143
1	143
1	143
1	103
1	143
1	143
1	102
1	15
1	104
1	143
1	102
1	102
1	102
1	143
1	12
1	14
1	143
1	144
1	11
1	10
1	102
1	143
1	143
1	143
1	143
1	143
1	143
1	11
1	11
1	16
1	143
1	143
1	102
1	7
1	143
1	143
1	15
1	143
1	12
1	143
1	14
1	103
1	143
1	13
1	143
1	144
1	16
1	143
1	5
1	143
1	9
1	12
1	104
1	8
1	143
1	102
1	105
1	143
1	143
1	7
1	143
1	143
1	143
1	143
1	102
1	12
1	10
1	143
1	8
1	143
1	9
1	102
1	143
1	102
1	15
1	9
1	7
1	143
1	143
1	102
1	143
1	12
1	6
1	102
1	5
1	104
1	103
1	5
1	15
1	9
1	5
1	14
1	143
1	143
1	7
1	143
1	143
1	143
1	143
1	12
1	143
1	103
1	102
1	5
1	15
1	6
1	143
1	12
1	143
1	12
1	11
1	143
1	10
1	15
1	143
1	143
1	11
1	143
1	10
1	143
1	143
1	104
1	143
1	9
1	9
1	144
1	143
1	104
1	143
1	143
1	143
1	143
1	143
1	102
1	7
1	12
1	103
1	143
1	143
1	5
1	143
1	12
1	104
1	143
1	143
1	143
1	13
1	143
1	102
1	143
1	7
1	12
1	102
1	144
2	5
2	3
2	7
2	3
2	103
2	3
2	3
2	103
2	6
2	103
2	103
2	103
2	103
2	103
2	4
2	3
2	103
2	103
2	103
2	103
2	103
2	4
2	8
2	103
2	3
2	103
2	4
2	103
2	103
2	103
2	103
2	103
2	103
2	3
2	6
2	5
2	103
2	6
2	5
2	6
2	103
2	4
2	9
2	103
2	3
2	12
2	103
2	3
2	3
2	103
2	103
2	103
2	3
2	13
2	103
2	9
2	103
2	8
2	103
2	7
2	103
2	9
2	8
2	5
2	4
2	103
2	103
2	3
2	4
2	103
2	103
2	103
2	3
3	8
3	4
3	6
3	10
3	12
3	4
3	4
3	17
3	9
3	4
3	4
3	14
3	5
3	4
3	4
3	9
3	4
3	6
3	5
3	12
3	4
3	4
3	4
3	9
3	4
4	5
4	5
4	5
4	5
4	7
4	7
4	6
4	7
4	8
4	5
4	10
4	7
4	5
5	10
5	6
5	6
5	6
5	8
5	6
5	10
5	6
6	8
6	7
6	10
6	8
6	7
6	8
6	7
6	7
7	8
7	8
8	9
8	9
8	9
9	11
11	12
11	12
11	12
14	15
101	102
142	143
