1	6124
1	100
1	100
1	102
1	196
1	195
1	101
1	100
1	66
1	195
1	102
1	69
1	66
1	17
1	66
1	195
1	195
1	195
1	195
1	6
1	100
1	195
1	195
1	195
1	195
1	66
1	7
1	195
1	101
1	65
1	16
1	100
1	100
1	102
1	100
1	66
1	195
1	100
1	195
1	102
1	195
1	195
1	100
1	100
1	100
1	67
1	195
1	195
1	64
1	5
1	101
1	195
1	195
1	102
1	195
1	195
1	100
1	195
1	195
1	195
1	100
1	195
1	12
1	195
1	196
1	195
1	100
1	195
1	12
1	195
1	195
1	7
1	195
1	195
1	195
1	100
1	195
1	195
1	64
1	195
1	195
1	195
1	195
1	4
1	101
1	195
1	103
1	100
1	64
1	195
1	195
1	64
1	195
1	64
1	100
1	4
1	100
1	195
1	195
1	195
1	195
1	100
1	195
1	100
1	195
1	195
1	195
1	195
1	195
1	100
1	195
1	12
1	100
1	195
1	195
1	100
1	195
1	100
1	195
1	12
1	64
1	100
1	195
1	195
1	12
1	195
1	195
1	100
1	195
1	100
1	195
1	195
1	195
1	195
1	12
1	195
1	100
1	195
1	195
1	195
1	195
1	195
1	5
1	195
1	100
1	195
1	100
1	195
1	195
1	195
1	5
1	195
1	195
1	195
1	195
1	195
1	195
1	195
1	100
1	195
1	195
1	195
1	195
1	195
1	195
1	100
1	195
1	100
1	65
1	195
1	195
1	8
1	195
1	12
1	7
1	195
1	195
1	195
1	195
1	195
1	195
2	4
2	5
2	65
2	65
2	65
2	65
2	101
2	16
2	65
2	101
2	101
2	101
2	101
2	13
2	65
2	13
2	101
2	65
2	65
2	67
2	101
2	65
2	101
2	65
2	101
2	101
2	65
2	4
2	101
2	65
2	65
2	101
2	65
2	65
2	3
2	101
2	101
2	101
2	101
2	3
2	3
2	101
2	4
2	101
2	13
2	4
2	65
2	3
2	65
2	101
2	5
2	101
2	65
2	16
2	5
2	101
2	65
2	16
2	65
2	101
2	65
2	65
2	101
2	65
2	101
2	101
2	65
2	101
2	101
2	101
2	65
2	101
2	16
2	9
2	65
2	4
2	13
2	6
2	4
2	5
2	4
2	65
2	101
3	66
3	5
3	5
3	4
3	5
3	6
3	17
3	4
3	66
3	4
3	5
3	17
3	4
3	7
3	66
3	4
3	66
3	4
3	66
3	14
3	4
3	4
3	4
3	4
3	66
3	17
3	19
3	66
3	4
4	7
4	5
4	5
4	9
4	15
4	5
5	8
5	7
6	7
6	7
11	12
11	12
14	15
63	64
99	100
194	195
