22	6124
25	6124
65	6124
66	6124
66	6124
66	6124
67	6124
67	6124
68	6124
68	6124
69	6124
74	6124
77	6124
101	6124
101	6124
101	6124
101	6124
101	6124
102	6124
102	6124
102	6124
102	6124
102	6124
102	6124
102	6124
102	6124
102	6124
102	6124
102	6124
102	6124
103	6124
103	6124
103	6124
103	6124
104	6124
105	6124
113	6124
162	6124
196	6124
196	6124
196	6124
196	6124
196	6124
196	6124
196	6124
196	6124
196	6124
196	6124
196	6124
196	6124
196	6124
196	6124
196	6124
196	6124
196	6124
196	6124
196	6124
196	6124
196	6124
196	6124
196	6124
196	6124
196	6124
196	6124
196	6124
196	6124
196	6124
196	6124
196	6124
196	6124
196	6124
196	6124
196	6124
196	6124
196	6124
196	6124
196	6124
196	6124
196	6124
196	6124
196	6124
196	6124
196	6124
196	6124
196	6124
196	6124
196	6124
196	6124
196	6124
196	6124
196	6124
196	6124
196	6124
196	6124
196	6124
196	6124
197	6124
197	6124
197	6124
197	6124
197	6124
197	6124
197	6124
197	6124
197	6124
197	6124
197	6124
197	6124
197	6124
197	6124
197	6124
197	6124
197	6124
197	6124
197	6124
197	6124
197	6124
198	6124
198	6124
198	6124
198	6124
199	6124
199	6124
200	6124
200	6124
205	6124
205	6124
208	6124
