1	6124
1	253
1	253
1	253
1	253
1	253
1	253
1	254
1	253
1	253
1	120
1	253
1	253
1	253
1	253
1	253
1	253
1	253
1	19
1	253
1	253
1	11
1	253
1	253
1	253
1	253
1	253
1	253
1	121
1	253
1	253
1	119
1	119
1	17
1	119
1	253
1	253
1	253
1	253
1	253
1	253
1	253
1	253
1	253
1	253
1	253
1	253
1	253
1	253
1	119
1	253
1	253
1	253
1	253
1	253
1	253
1	253
1	253
1	253
1	253
1	253
1	253
1	253
1	253
1	119
1	253
1	253
1	253
1	253
1	253
1	253
1	119
1	253
1	253
1	253
1	6
1	253
1	253
1	18
1	253
1	253
1	253
1	253
1	253
1	121
1	253
1	253
1	119
1	253
1	253
1	253
1	119
1	119
1	253
1	253
1	253
1	253
1	253
1	253
1	17
1	253
1	253
1	17
1	253
1	253
1	119
1	122
1	121
1	119
1	253
1	253
1	253
1	253
1	253
1	253
1	253
1	119
1	253
1	119
1	253
1	253
1	253
1	253
1	253
1	253
1	253
1	253
1	253
1	253
1	253
1	119
1	253
1	253
1	120
1	253
1	119
1	253
1	253
1	253
1	253
1	253
1	253
1	253
1	253
1	253
1	253
1	253
1	253
1	17
1	253
1	253
1	253
1	253
1	253
1	253
1	253
1	253
1	253
1	121
1	17
1	253
1	253
1	253
1	253
1	253
1	253
1	253
1	253
1	17
1	253
1	253
1	253
1	253
1	253
1	253
1	253
1	253
1	253
1	253
2	120
2	18
2	120
2	120
2	7
2	120
2	120
2	120
2	120
2	120
2	3
2	120
2	120
2	6
2	120
2	120
2	120
2	120
2	120
2	120
2	120
2	120
2	120
2	120
2	120
2	120
2	120
2	120
2	120
2	120
2	120
2	120
2	120
2	6
2	120
2	120
2	120
2	120
2	120
2	120
2	120
2	120
2	120
2	120
2	120
2	120
2	120
2	120
2	120
2	120
2	120
2	120
2	120
2	120
2	120
2	120
2	3
2	120
2	120
2	18
2	120
2	120
2	120
2	120
2	120
2	4
2	120
2	120
2	120
2	120
2	120
2	8
2	120
2	120
2	120
2	120
2	120
2	18
2	18
2	120
2	120
2	120
2	120
2	120
2	120
2	120
2	120
2	120
2	120
2	120
2	120
2	120
2	120
2	3
2	120
2	120
2	120
3	4
3	121
3	4
3	7
3	121
3	9
3	6
3	5
3	4
3	6
3	4
3	5
4	5
4	6
5	6
6	8
16	17
118	119
252	253
