1	230
1	60
1	40
1	59
1	59
1	59
1	59
1	59
1	59
1	59
1	38
1	59
1	59
1	40
1	59
1	59
1	59
1	59
1	59
1	38
1	38
1	59
1	59
1	38
1	38
1	59
1	39
1	38
1	59
1	59
1	8
1	59
1	59
1	59
1	39
1	59
1	59
1	59
1	59
1	59
1	59
1	59
1	59
1	59
1	59
1	38
2	39
2	39
2	39
2	39
2	39
2	39
2	39
2	39
2	3
2	39
2	39
2	39
2	39
2	3
2	39
2	39
2	39
2	39
2	5
2	39
2	39
2	39
2	39
2	39
3	8
3	4
3	4
3	4
5	7
37	38
58	59
