1	6124
1	157
1	91
1	156
1	157
1	88
1	90
1	158
1	157
1	156
1	92
1	92
1	156
1	156
1	91
1	156
1	156
1	90
1	10
1	6
1	157
1	156
1	156
1	9
1	156
1	9
1	16
1	13
1	157
1	156
1	12
1	88
1	12
1	7
1	92
1	90
1	157
1	8
1	157
1	156
1	11
1	92
1	7
1	156
1	156
1	157
1	93
1	156
1	157
1	157
1	91
1	6
1	5
1	156
1	156
1	13
1	156
1	89
1	91
1	9
1	156
1	156
1	7
1	11
1	156
1	89
1	88
1	90
1	158
1	9
1	88
1	91
1	6
1	156
1	158
1	156
1	6
1	5
1	7
1	7
1	6
1	156
1	156
1	156
1	5
1	6
1	6
1	7
1	156
1	156
1	156
1	156
1	7
1	156
1	6
1	88
1	156
1	156
1	156
1	10
1	157
1	4
1	156
1	92
1	156
1	156
1	12
1	156
1	5
1	6
1	9
1	8
1	7
1	156
1	156
1	7
1	5
1	90
1	156
1	156
1	157
1	5
1	156
1	156
1	4
1	156
1	6
1	8
1	156
1	5
1	8
1	156
1	156
1	157
1	6
1	7
1	156
1	156
1	156
1	156
1	5
1	6
1	10
1	8
1	88
1	156
2	5
2	13
2	4
2	9
2	89
2	3
2	3
2	89
2	89
2	14
2	3
2	89
2	3
2	89
2	89
2	89
2	4
2	89
2	89
2	89
2	9
2	4
2	3
2	89
2	89
2	89
2	3
2	89
2	3
2	4
2	3
2	3
2	3
2	89
2	3
2	3
2	89
2	89
2	3
2	89
2	14
2	89
2	3
2	89
2	3
2	3
2	3
2	4
2	89
2	3
2	3
2	4
2	3
2	5
2	89
2	3
2	89
2	89
2	3
2	89
2	4
2	89
2	3
2	89
2	89
2	89
2	89
2	4
2	3
2	4
2	89
2	89
2	3
2	4
2	89
2	89
2	3
2	13
2	89
2	3
2	4
2	3
2	89
2	3
2	89
2	89
2	89
2	90
2	89
2	89
2	13
2	3
2	89
2	89
2	4
2	5
2	89
2	3
2	4
2	89
2	89
2	3
2	89
2	89
2	89
2	3
2	3
2	89
2	89
2	6
2	4
2	4
2	3
2	7
2	89
2	3
2	3
2	89
2	3
2	89
2	3
2	89
2	89
2	4
2	4
2	3
3	5
3	6
3	4
3	5
3	5
3	5
3	4
3	4
3	4
3	4
3	4
3	5
3	5
3	7
3	4
3	5
3	5
3	4
3	4
3	5
4	5
4	5
4	5
4	5
4	5
4	5
4	7
4	5
4	6
5	6
5	6
5	7
5	6
5	6
5	6
5	6
6	7
6	7
6	8
7	8
9	10
11	12
87	88
155	156
