16	6124
107	6124
107	6124
108	6124
156	6124
156	6124
156	6124
156	6124
156	6124
156	6124
156	6124
156	6124
156	6124
156	6124
156	6124
156	6124
156	6124
156	6124
156	6124
156	6124
156	6124
156	6124
156	6124
156	6124
156	6124
156	6124
156	6124
156	6124
156	6124
156	6124
156	6124
156	6124
156	6124
156	6124
156	6124
156	6124
156	6124
156	6124
156	6124
156	6124
156	6124
156	6124
156	6124
156	6124
156	6124
156	6124
156	6124
156	6124
156	6124
156	6124
156	6124
156	6124
156	6124
156	6124
156	6124
156	6124
156	6124
156	6124
156	6124
156	6124
156	6124
156	6124
156	6124
156	6124
156	6124
156	6124
157	6124
157	6124
157	6124
157	6124
157	6124
157	6124
157	6124
157	6124
157	6124
157	6124
158	6124
158	6124
158	6124
158	6124
158	6124
158	6124
158	6124
158	6124
159	6124
159	6124
159	6124
159	6124
159	6124
160	6124
160	6124
160	6124
163	6124
164	6124
