1	6124
1	157
1	156
1	158
1	106
1	16
1	158
1	106
1	158
1	155
1	13
1	12
1	157
1	155
1	155
1	7
1	11
1	160
1	156
1	106
1	156
1	155
1	107
1	111
1	6
1	12
1	6
1	155
1	105
1	108
1	103
1	103
1	106
1	105
1	12
1	103
1	9
1	155
1	155
1	7
1	9
1	156
1	10
1	103
1	155
1	103
1	6
1	11
1	6
1	11
1	155
1	8
1	11
1	6
1	103
1	11
1	103
1	155
1	11
1	9
1	103
1	12
1	6
1	5
1	9
1	7
1	155
1	5
1	10
1	157
1	5
1	156
1	5
1	105
1	108
1	157
1	6
1	103
1	9
1	155
1	156
1	155
1	4
1	10
1	155
1	4
1	9
1	156
1	6
1	7
1	103
1	6
1	103
1	156
1	155
1	7
1	6
1	8
1	105
1	155
1	7
1	10
1	155
1	155
1	155
1	5
1	155
1	155
1	155
1	4
1	156
1	5
1	103
1	103
1	103
1	7
1	6
1	155
1	11
1	7
1	7
1	155
1	103
1	155
1	155
1	155
1	155
1	155
1	11
1	7
1	6
1	156
1	156
1	8
1	156
1	5
1	103
1	7
1	105
1	103
1	105
1	6
1	13
1	6
1	7
1	157
1	10
1	156
1	6
1	5
1	155
1	9
1	6
1	155
1	5
1	4
1	103
1	103
1	6
1	7
1	4
1	5
1	155
1	7
1	11
1	5
1	6
1	4
1	6
1	5
1	11
1	155
1	7
1	7
1	103
1	5
1	155
1	155
1	4
1	5
1	10
1	9
1	103
1	6
1	5
1	10
1	4
1	155
1	155
1	4
1	7
1	155
1	10
1	156
1	155
1	155
2	4
2	3
2	104
2	3
2	104
2	3
2	104
2	104
2	6
2	4
2	104
2	3
2	6
2	104
2	3
2	6
2	104
2	104
2	5
2	104
2	3
2	104
2	104
2	104
2	104
2	3
2	104
2	104
2	3
2	104
2	104
2	104
2	104
2	104
2	104
2	104
2	3
2	104
2	3
2	6
2	104
2	3
2	104
2	104
2	8
2	104
2	3
2	5
2	3
2	3
2	3
2	104
2	104
2	3
2	3
2	104
2	3
2	4
2	104
2	104
2	104
2	104
2	3
2	104
2	4
2	104
2	4
2	104
2	3
2	104
2	3
2	104
2	104
2	4
2	104
2	3
2	104
2	104
2	104
2	104
2	5
2	7
2	3
2	7
2	5
2	4
2	104
2	5
2	104
2	104
2	3
2	104
2	3
2	104
2	4
2	104
2	104
2	104
2	3
2	104
2	3
2	104
2	7
2	104
2	104
2	104
2	104
2	104
2	3
2	104
2	104
2	4
2	104
3	4
3	4
3	4
3	9
3	4
3	4
3	4
3	4
3	4
3	4
3	4
3	5
3	4
3	4
3	4
3	4
3	4
3	4
3	4
3	5
3	5
3	4
3	4
3	6
3	4
3	4
3	4
3	4
3	4
3	4
4	5
4	5
4	5
4	5
4	5
4	5
4	5
4	5
4	5
4	5
4	5
4	5
4	5
4	5
4	5
4	5
5	6
5	6
5	6
5	6
5	6
5	6
5	6
6	7
6	7
6	7
6	7
6	7
7	8
9	10
9	10
10	11
102	103
154	155
