8	6124
122	6124
122	6124
123	6124
123	6124
123	6124
125	6124
125	6124
245	6124
245	6124
245	6124
245	6124
245	6124
245	6124
245	6124
245	6124
245	6124
245	6124
245	6124
245	6124
245	6124
245	6124
245	6124
245	6124
245	6124
245	6124
245	6124
245	6124
245	6124
245	6124
245	6124
245	6124
245	6124
245	6124
245	6124
245	6124
245	6124
245	6124
245	6124
245	6124
245	6124
245	6124
245	6124
245	6124
245	6124
245	6124
245	6124
245	6124
245	6124
245	6124
245	6124
245	6124
245	6124
245	6124
245	6124
245	6124
245	6124
245	6124
245	6124
245	6124
245	6124
245	6124
245	6124
245	6124
245	6124
245	6124
245	6124
245	6124
245	6124
245	6124
245	6124
245	6124
245	6124
245	6124
245	6124
245	6124
246	6124
246	6124
246	6124
246	6124
246	6124
246	6124
247	6124
247	6124
248	6124
248	6124
363	6124
