1	6124
1	110
1	109
1	109
1	106
1	106
1	109
1	106
1	10
1	109
1	106
1	109
1	110
1	10
1	11
1	109
1	106
1	109
1	106
1	109
1	10
1	12
1	109
2	105
2	105
2	105
2	105
2	105
2	105
2	105
2	105
2	105
2	105
2	105
2	105
2	105
2	105
2	105
2	105
2	105
2	105
2	105
2	105
2	105
2	105
2	105
2	105
2	105
2	105
2	105
2	105
2	105
2	105
2	3
2	105
2	105
2	105
2	105
2	105
2	105
2	105
2	5
2	105
2	105
2	105
2	105
2	105
2	105
2	105
2	105
2	105
2	105
2	105
2	105
2	105
2	105
2	105
2	105
2	105
2	105
2	105
2	105
2	105
2	105
2	105
2	105
2	105
2	105
2	105
2	105
2	105
2	105
2	105
2	105
2	105
2	105
2	105
2	105
2	105
2	105
2	105
2	105
2	105
2	105
2	105
2	105
2	105
2	105
2	105
2	105
3	12
3	106
3	4
3	5
3	106
3	4
3	6
3	4
3	5
3	6
3	4
3	6
3	4
3	4
3	4
9	10
103	104
108	109
