63	6124
64	6124
78	6124
78	6124
78	6124
78	6124
78	6124
78	6124
78	6124
78	6124
78	6124
78	6124
78	6124
78	6124
78	6124
78	6124
78	6124
78	6124
78	6124
78	6124
78	6124
78	6124
78	6124
78	6124
78	6124
78	6124
78	6124
78	6124
78	6124
78	6124
78	6124
78	6124
78	6124
78	6124
78	6124
78	6124
78	6124
78	6124
79	6124
79	6124
79	6124
79	6124
79	6124
80	6124
80	6124
80	6124
