1	6124
1	151
1	6
1	150
1	151
1	153
1	79
1	150
1	76
1	76
1	81
1	153
1	151
1	152
1	150
1	151
1	150
1	73
1	150
1	151
1	4
1	150
1	155
1	74
1	73
1	15
1	11
1	74
1	73
1	73
1	79
1	74
1	11
1	150
1	151
1	150
1	150
1	151
1	75
1	9
1	150
1	7
1	152
1	17
1	5
1	150
1	13
1	73
1	6
1	150
1	8
1	150
1	11
1	9
1	150
1	9
1	10
1	5
1	150
1	78
1	6
1	14
1	14
1	75
1	9
1	74
1	14
1	5
1	7
1	150
1	150
1	73
1	4
1	150
1	152
1	5
1	10
1	7
1	73
1	13
1	6
1	8
1	150
1	8
1	150
1	150
1	73
1	73
1	7
1	8
1	13
1	151
1	75
1	152
1	4
1	150
1	6
1	153
1	150
1	7
1	5
1	150
1	7
1	152
1	5
1	150
1	4
1	150
1	152
1	8
1	6
1	73
1	150
1	150
1	4
1	8
1	9
1	8
1	151
1	5
1	5
1	10
1	7
1	73
1	9
1	150
1	150
1	6
1	5
1	75
1	152
1	73
1	10
1	5
1	13
1	4
1	73
1	7
1	10
1	7
1	150
1	150
1	9
1	4
1	152
1	7
1	10
1	6
1	73
1	150
1	150
1	151
1	5
1	5
1	150
1	5
1	152
1	7
1	11
1	8
1	150
1	5
1	4
1	150
1	150
1	75
1	7
1	9
1	5
1	150
1	150
1	4
1	150
1	6
1	150
1	153
1	150
1	73
1	10
1	7
1	5
1	150
1	150
1	150
1	150
1	8
1	151
1	73
1	150
1	150
1	6
1	6
1	150
1	4
1	73
1	150
1	150
1	73
1	6
1	4
1	8
1	4
1	6
1	150
1	10
1	150
1	7
1	6
1	5
1	5
1	14
1	150
1	150
1	151
1	150
1	150
1	151
1	150
1	150
1	75
2	5
2	7
2	3
2	74
2	5
2	74
2	74
2	3
2	3
2	74
2	12
2	5
2	6
2	3
2	3
2	3
2	6
2	7
2	3
2	74
2	3
2	74
2	6
2	74
2	74
2	3
2	74
2	4
2	74
2	4
2	4
2	5
2	6
2	8
2	4
2	3
2	4
2	74
2	6
2	3
2	4
2	74
2	74
2	3
2	3
2	4
2	74
2	5
2	74
2	3
2	4
2	4
2	5
2	74
2	74
2	5
2	7
2	3
2	74
2	74
2	5
2	4
2	6
2	3
2	4
2	74
2	74
2	3
2	4
2	4
2	4
2	74
2	3
2	74
2	74
2	3
2	3
2	74
2	74
2	3
2	74
2	74
2	74
2	74
2	3
2	74
2	3
2	74
2	74
2	3
2	4
2	3
2	4
2	3
2	74
2	7
3	5
3	4
3	4
3	4
3	4
3	4
3	4
3	4
3	4
3	4
3	4
3	4
3	4
3	4
3	4
3	4
3	4
3	4
3	12
3	4
3	5
3	5
3	5
3	4
3	4
3	4
3	4
3	4
3	4
3	4
3	5
3	4
3	4
3	4
3	4
3	4
4	5
4	5
4	5
4	5
4	5
4	8
4	5
4	5
4	5
4	5
4	5
4	5
4	5
4	6
4	6
4	5
5	6
5	6
5	6
5	6
6	7
6	7
6	7
7	8
7	8
7	8
8	9
9	10
9	10
12	13
72	73
149	150
