1	6124
1	161
1	154
1	149
1	160
1	150
1	149
1	151
1	151
1	16
1	160
1	150
1	152
1	160
1	160
1	149
1	149
1	149
1	160
1	149
1	160
1	160
1	152
1	160
1	151
1	160
1	160
1	5
1	9
1	149
1	149
1	160
1	150
1	160
1	160
1	160
1	149
1	161
1	160
1	149
1	149
1	14
1	162
1	160
1	151
1	9
1	150
1	160
1	149
1	5
1	160
1	149
1	160
1	149
1	160
1	151
1	160
1	9
1	149
1	161
1	152
1	160
1	160
1	7
1	160
1	6
1	160
1	160
1	162
1	149
1	5
1	151
1	160
1	149
1	160
1	149
1	160
1	160
1	14
1	149
1	160
1	149
1	5
1	160
1	160
1	6
1	149
1	160
1	150
1	162
1	5
1	160
1	149
1	160
1	160
1	160
1	160
1	160
1	14
1	160
1	160
1	164
1	160
1	149
1	150
1	5
1	160
1	149
1	7
1	160
1	160
1	151
1	160
1	151
1	160
1	7
1	149
1	149
1	150
1	161
1	5
1	149
1	149
1	5
1	7
1	149
1	160
1	149
1	5
1	160
1	6
1	150
1	160
1	162
1	149
1	4
1	149
1	160
1	149
1	161
1	160
1	151
1	5
1	160
1	5
1	150
1	149
1	160
1	149
1	9
1	160
1	163
1	149
1	160
1	149
1	150
1	149
1	151
1	149
1	150
1	160
1	150
1	5
1	149
1	151
1	5
1	149
1	4
1	149
1	162
1	160
1	160
1	149
1	160
1	6
1	14
1	149
1	4
1	160
1	149
1	7
1	160
1	149
1	149
1	7
1	160
1	7
1	151
1	5
1	160
1	160
1	6
1	5
1	8
1	151
1	160
1	7
1	149
1	149
1	5
1	160
1	14
1	160
1	4
1	5
1	160
1	14
1	160
1	149
1	5
1	160
1	149
1	7
1	149
1	5
1	160
1	4
1	160
1	150
1	14
1	160
1	149
1	160
1	160
1	160
1	7
1	8
1	149
1	149
1	160
1	160
1	4
1	150
1	160
1	160
1	6
1	14
1	150
1	5
1	149
1	160
1	7
1	149
1	7
1	160
1	160
1	149
1	149
1	4
1	4
1	160
1	151
1	160
1	160
1	160
1	149
1	160
1	7
1	149
1	160
1	4
1	160
1	150
1	160
1	4
1	160
1	149
1	149
1	149
1	160
1	5
1	7
1	5
2	150
2	150
2	3
2	5
2	150
2	150
2	150
2	3
2	150
2	151
2	150
2	150
2	4
2	150
2	3
2	5
2	3
2	150
2	3
2	3
2	6
2	3
2	4
2	3
2	150
2	150
2	3
2	3
2	5
2	4
2	150
2	150
2	150
2	3
2	150
2	3
2	3
2	3
2	3
2	150
2	150
2	6
2	150
2	5
2	5
2	5
2	15
2	3
2	150
2	150
2	150
2	150
2	150
2	150
2	150
2	3
2	150
2	150
2	150
2	150
2	150
2	3
2	3
2	3
2	3
2	3
2	3
2	150
2	5
2	3
2	3
2	4
2	4
2	4
2	3
2	4
2	3
2	150
2	150
2	150
2	150
2	150
2	6
2	3
2	3
2	3
2	150
2	150
2	4
2	4
3	4
3	4
3	151
3	4
3	4
3	4
3	4
3	5
3	4
3	6
3	5
3	4
3	5
3	5
3	4
3	4
3	5
3	5
3	4
3	4
3	4
3	4
3	4
3	5
3	4
3	4
3	5
3	4
3	4
3	4
3	4
3	4
3	4
3	4
3	9
3	4
3	4
4	5
4	5
4	5
4	5
4	5
4	5
4	5
4	5
4	5
5	6
5	6
6	7
6	7
6	7
13	14
148	149
159	160
