1	6124
1	215
1	215
1	215
1	215
1	215
1	215
1	216
1	215
1	215
1	215
1	215
1	215
1	215
1	215
1	215
1	215
1	23
1	113
1	215
1	215
1	215
1	12
1	6
1	112
1	215
1	215
1	215
1	215
1	215
1	215
1	9
1	113
1	215
1	215
1	112
1	215
1	215
1	215
1	215
1	215
1	215
1	215
1	215
1	215
1	10
1	215
1	215
1	112
1	215
1	10
1	215
1	215
1	116
1	215
1	215
1	215
1	215
1	215
1	112
1	215
1	215
1	112
1	215
1	215
1	215
1	215
1	112
1	215
1	112
1	215
1	215
1	215
1	215
1	215
1	7
1	114
1	215
1	112
1	216
1	215
1	215
1	112
1	215
1	215
1	215
1	112
1	215
1	215
1	114
1	215
1	215
1	6
1	215
1	112
1	215
1	216
1	112
1	215
1	215
1	215
1	215
1	215
1	215
1	215
1	215
1	215
1	215
1	215
1	112
1	215
1	215
1	215
1	112
1	215
1	215
1	215
1	112
1	215
1	215
1	215
1	215
1	215
1	215
1	114
1	215
1	215
1	215
1	13
1	215
1	215
1	112
1	215
1	215
1	215
1	215
1	215
1	215
1	112
1	215
1	215
1	215
1	215
1	215
1	215
2	113
2	23
2	113
2	7
2	113
2	13
2	113
2	22
2	113
2	113
2	113
2	113
2	3
2	113
2	113
2	113
2	113
2	113
2	6
2	113
2	113
2	113
2	113
2	113
2	113
2	20
2	113
2	113
2	22
2	114
2	11
2	113
2	11
2	113
2	113
2	113
2	13
2	113
2	113
2	113
2	7
2	3
2	4
2	113
2	7
2	113
2	6
2	113
2	113
2	113
2	113
2	113
2	113
2	113
2	20
2	113
2	113
2	113
2	113
2	22
2	113
2	6
2	4
2	20
2	113
2	20
2	113
2	113
2	20
2	113
2	113
2	20
2	113
2	6
2	10
2	4
2	11
2	113
2	113
2	11
2	113
2	113
2	7
3	5
3	5
3	21
3	5
3	4
3	21
3	4
3	4
3	21
3	8
3	21
3	5
3	5
3	8
3	4
3	6
3	5
3	12
3	7
3	6
3	6
3	21
3	8
3	4
3	11
4	7
4	5
4	7
4	7
4	9
4	5
4	8
4	6
4	6
5	7
5	7
5	8
5	6
5	6
5	7
5	7
5	6
8	11
9	10
18	20
111	112
214	215
