1	6124
1	81
1	15
1	128
1	19
1	17
1	42
1	15
1	127
1	81
1	80
1	41
1	127
1	41
1	22
1	10
1	127
1	127
1	127
1	18
1	41
1	6
1	14
1	80
1	127
1	127
1	127
1	127
1	14
1	127
1	127
1	18
1	9
1	18
1	18
1	127
1	12
1	41
1	12
1	127
1	80
1	127
1	127
1	42
1	41
1	127
1	127
1	41
1	85
1	18
1	127
1	18
1	127
1	7
1	13
1	127
1	13
1	127
1	80
1	127
1	12
1	127
1	8
1	9
1	127
1	18
1	12
1	41
1	86
1	41
1	127
1	127
1	81
1	41
1	127
1	127
1	127
1	6
1	9
1	81
1	20
1	128
1	127
1	127
1	127
1	80
1	127
1	127
1	9
1	127
1	12
1	127
1	13
1	127
1	7
1	127
1	127
1	82
1	4
1	80
1	41
1	41
1	127
1	80
1	7
1	7
1	8
1	127
1	127
1	128
1	41
1	7
1	127
1	127
1	82
1	127
1	127
1	127
1	41
1	80
1	80
1	80
1	7
1	41
1	9
1	127
1	5
1	4
1	18
1	19
1	80
1	9
1	41
1	82
1	13
1	127
1	5
1	6
1	80
1	127
1	7
1	127
1	41
1	127
1	6
1	13
1	127
1	8
1	127
1	8
1	80
1	127
1	41
1	41
1	41
1	127
1	127
1	80
1	80
1	127
1	41
1	6
1	41
1	6
1	127
1	127
1	81
1	80
1	127
1	8
1	80
1	7
1	80
1	5
1	8
1	127
1	127
1	7
1	127
1	127
1	127
1	82
1	41
1	8
1	127
1	127
1	41
1	41
1	18
1	42
1	80
1	127
1	80
1	41
1	8
1	127
1	127
1	41
1	4
1	128
1	127
1	127
1	18
1	127
1	18
2	81
2	9
2	6
2	3
2	3
2	5
2	7
2	81
2	3
2	4
2	4
2	5
2	6
2	6
2	3
2	81
2	6
2	3
2	5
2	81
2	5
2	81
2	81
2	81
2	81
2	81
2	81
2	81
2	5
2	3
2	81
2	7
2	3
2	13
2	81
2	3
2	6
2	7
2	7
2	4
2	3
2	5
2	81
2	4
2	81
2	81
2	81
2	81
2	81
2	81
2	4
2	7
2	81
2	81
2	81
2	6
2	3
2	5
2	4
2	4
2	81
2	81
2	81
2	3
2	81
2	8
2	81
2	81
2	6
2	8
2	6
2	81
2	9
2	81
2	81
2	42
3	4
3	4
3	4
3	4
3	4
3	4
3	4
3	5
3	4
3	4
3	4
3	4
3	5
3	5
3	5
3	4
3	4
3	20
3	7
3	4
3	5
3	9
3	5
3	4
3	5
3	4
4	5
4	5
4	6
4	5
4	7
4	6
4	5
4	6
4	6
4	6
5	6
5	6
5	6
5	6
5	8
5	6
6	7
6	7
6	7
6	7
7	8
7	8
11	12
12	13
17	18
40	41
79	80
126	127
