1	6124
1	78
1	79
1	102
1	11
1	79
1	7
1	14
1	78
1	17
1	77
1	78
1	6
1	14
1	11
1	77
1	9
1	101
1	101
1	101
1	11
1	77
1	102
1	8
1	80
1	12
1	101
1	78
1	77
1	77
1	101
1	102
1	101
1	101
1	16
1	11
1	8
1	19
1	13
1	11
1	10
1	77
1	101
1	12
1	101
1	14
1	102
1	101
1	13
1	9
1	103
1	4
1	14
1	79
1	10
1	101
1	7
1	9
1	103
1	9
1	6124
1	6
1	10
1	11
1	10
1	101
1	8
1	8
1	81
1	101
1	101
1	11
1	101
1	77
1	101
1	8
1	6
1	12
1	101
1	14
1	101
1	79
1	7
1	8
1	5
1	101
1	101
1	8
1	101
1	6
1	79
1	82
1	101
1	11
1	11
1	5
1	7
1	101
1	103
1	101
1	9
1	5
1	7
1	7
1	11
1	8
1	102
1	101
1	9
1	4
1	77
1	7
1	7
1	2
1	4
1	8
1	7
1	101
1	5
1	77
1	4
1	6
1	102
1	77
1	6
1	101
1	7
1	9
1	12
1	6
1	77
1	101
1	101
1	7
1	78
1	12
1	78
1	101
1	10
1	77
1	6
1	5
1	77
1	10
1	101
1	12
1	4
1	6
1	77
1	6
1	6
1	9
1	4
1	8
1	101
1	6
1	7
1	6
1	5
1	101
1	78
1	101
1	101
1	12
1	4
1	8
1	9
1	6
1	77
1	78
1	77
1	6
1	101
1	5
1	101
1	80
1	7
1	13
1	9
1	101
1	101
1	9
1	77
1	4
1	101
1	101
1	79
1	101
1	6
1	8
1	5
1	6
1	101
1	6
1	101
1	101
1	5
1	6
1	12
1	11
1	77
1	7
1	101
1	4
1	77
1	101
1	7
1	11
1	11
1	6
1	101
1	12
1	101
1	102
1	11
1	9
1	101
1	7
1	11
1	77
1	7
1	77
1	101
1	77
1	101
1	77
1	9
1	101
1	101
1	101
1	5
1	11
1	9
1	6
1	5
1	6
1	101
1	6
1	6
1	7
1	77
1	5
2	9
2	3
2	78
2	4
2	3
2	9
2	4
2	78
2	3
2	9
2	3
2	3
2	3
2	3
2	3
2	6
2	78
2	78
2	78
2	5
2	78
2	3
2	9
2	11
2	4
2	5
2	3
2	3
2	3
2	3
2	6
2	4
2	6
2	5
2	3
2	3
2	4
2	5
2	3
2	3
2	12
2	3
2	78
2	78
2	3
2	78
2	6
2	3
2	4
2	3
2	8
2	4
2	5
2	3
2	5
2	3
2	5
2	3
2	78
2	5
2	5
2	3
2	5
2	3
2	4
2	78
2	3
2	78
2	3
2	3
2	78
2	4
2	3
2	6
2	78
2	4
2	3
2	3
3	4
3	4
3	4
3	5
3	5
3	4
3	5
3	4
3	4
3	4
3	4
3	4
3	4
3	4
3	5
3	4
3	5
3	5
3	5
3	5
3	4
3	5
3	4
3	4
3	4
3	4
3	11
3	4
3	4
3	4
3	4
3	4
3	5
3	4
3	5
3	6
3	4
3	4
4	5
4	5
4	5
4	5
4	5
4	5
4	5
4	7
4	5
4	5
4	5
4	5
4	5
4	5
4	5
5	6
5	6
5	7
5	6
5	6
5	6
5	6
5	8
5	6
5	6
6	7
6	7
6	7
7	9
7	8
7	8
7	8
8	9
8	9
8	9
9	10
10	11
10	11
11	12
76	77
100	101
