1	6124
1	79
1	78
1	79
1	78
1	53
1	78
1	22
1	78
1	51
1	78
1	26
1	78
1	78
1	78
1	78
1	78
1	78
1	78
1	78
1	78
1	78
1	78
2	52
2	52
2	20
2	25
2	52
2	52
2	20
2	52
2	52
2	52
2	5
2	52
2	52
2	52
2	52
2	23
2	52
2	52
2	52
2	52
2	52
2	20
2	25
2	52
2	52
2	52
2	52
2	52
2	52
2	52
2	7
2	52
2	25
3	26
3	21
3	26
3	26
3	21
3	26
3	21
3	26
3	26
3	26
3	26
3	26
3	23
3	21
3	21
3	26
3	21
3	4
4	5
4	22
4	12
5	13
5	10
5	7
8	11
18	19
23	24
50	51
77	78
