118	6124
118	6124
118	6124
119	6124
119	6124
119	6124
120	6124
120	6124
120	6124
120	6124
120	6124
121	6124
122	6124
123	6124
124	6124
125	6124
126	6124
134	6124
134	6124
134	6124
134	6124
134	6124
134	6124
134	6124
134	6124
134	6124
134	6124
134	6124
134	6124
134	6124
134	6124
134	6124
134	6124
134	6124
134	6124
134	6124
134	6124
134	6124
134	6124
134	6124
134	6124
134	6124
134	6124
134	6124
134	6124
134	6124
134	6124
134	6124
134	6124
134	6124
134	6124
134	6124
134	6124
134	6124
134	6124
134	6124
134	6124
134	6124
134	6124
134	6124
135	6124
135	6124
135	6124
135	6124
135	6124
135	6124
135	6124
135	6124
135	6124
135	6124
135	6124
135	6124
135	6124
135	6124
135	6124
136	6124
136	6124
136	6124
136	6124
136	6124
136	6124
136	6124
137	6124
137	6124
137	6124
137	6124
137	6124
138	6124
138	6124
139	6124
140	6124
140	6124
141	6124
142	6124
143	6124
247	6124
