1	6124
1	267
1	267
1	268
1	267
1	267
1	267
1	105
1	267
1	105
1	267
1	267
1	267
1	267
1	267
1	267
1	267
1	267
1	267
1	267
1	267
1	267
1	267
1	267
1	267
1	267
1	267
1	267
1	267
1	267
1	267
1	267
1	267
1	267
1	267
1	267
1	105
1	105
1	267
1	267
1	107
1	268
1	267
1	267
1	109
1	105
1	267
1	8
1	267
1	105
1	267
1	110
1	267
1	105
1	267
1	267
1	106
1	267
1	267
1	267
1	267
1	267
1	267
1	267
1	108
1	8
1	268
1	267
1	267
1	267
1	267
1	267
1	267
1	105
1	267
1	6
1	106
1	267
1	267
1	267
1	267
1	267
1	267
1	267
1	268
1	267
1	267
1	267
1	267
1	107
1	267
1	267
1	267
1	267
1	267
1	267
1	267
1	267
1	267
1	267
1	267
1	105
1	109
1	267
1	267
1	267
1	267
1	267
1	267
1	267
1	267
1	267
1	267
1	267
1	267
1	7
1	267
1	267
1	267
1	267
1	105
1	267
1	8
1	267
1	10
1	267
1	7
1	267
1	267
1	267
1	267
1	267
1	268
1	267
1	267
1	267
1	267
1	267
1	105
1	267
1	267
1	107
1	267
1	269
1	267
1	267
1	267
1	267
1	105
1	267
1	267
1	4
1	267
1	267
1	4
1	267
1	267
1	9
1	8
1	267
1	267
1	6
1	267
1	267
1	267
1	267
1	5
1	267
1	267
1	267
1	267
1	267
1	7
1	6
1	105
1	105
1	109
1	107
1	267
1	107
1	267
1	267
1	267
1	267
1	6
1	267
1	267
1	267
1	267
1	267
1	267
1	267
1	267
1	267
1	267
1	267
1	105
1	267
1	5
1	267
1	105
1	267
1	267
1	267
1	5
1	267
1	267
1	267
1	267
1	267
1	267
1	267
1	267
1	267
1	7
1	267
1	267
1	267
1	267
1	105
1	105
1	5
1	7
1	267
1	267
1	267
1	267
1	267
1	267
1	7
1	267
1	267
1	105
1	267
1	267
1	6
1	105
1	267
1	267
1	267
2	106
2	3
2	106
2	106
2	3
2	106
2	106
2	106
2	106
2	106
2	106
2	3
2	106
2	106
2	106
2	106
2	4
2	106
2	106
2	106
2	106
2	106
2	106
2	3
2	106
2	106
2	106
2	106
2	106
2	106
2	4
2	106
2	106
2	106
2	3
2	106
2	106
2	3
2	106
2	106
2	106
2	106
2	106
2	106
2	6
2	106
2	6
2	4
2	106
2	106
2	106
2	106
2	106
2	106
2	106
2	106
2	106
2	106
2	3
2	106
2	3
2	106
2	106
2	106
2	106
2	106
2	106
2	106
2	106
2	107
2	106
2	106
2	106
2	106
2	106
2	106
2	106
2	106
2	106
2	3
2	106
2	4
2	3
3	5
3	4
3	4
3	6
3	7
3	4
3	5
3	4
3	8
3	6
3	6
3	4
3	5
3	6
3	4
4	5
4	5
4	5
4	5
4	5
5	6
5	6
5	6
5	6
5	6
6	7
104	105
266	267
