1	6124
1	100
1	13
1	100
1	12
1	100
1	103
1	98
1	102
1	100
1	98
1	102
1	13
1	13
1	9
1	98
1	98
1	12
1	101
1	98
1	8
1	100
1	11
1	11
1	14
1	101
1	10
1	98
1	4
1	11
1	98
1	10
1	12
1	101
1	102
1	101
1	11
1	8
1	8
1	104
1	98
1	11
1	98
1	14
1	8
1	5
1	98
1	11
1	11
1	101
1	10
1	98
1	5
1	101
1	102
1	8
1	98
1	102
1	102
1	5
1	13
1	103
1	101
1	8
1	98
1	102
1	6
1	98
1	98
1	98
1	98
1	12
1	98
1	103
1	9
1	5
1	7
1	98
1	7
1	4
1	9
1	102
1	12
1	101
1	100
1	10
1	98
1	101
1	101
1	102
1	98
1	11
1	11
1	7
1	6
1	98
1	98
1	98
1	98
1	10
1	98
1	98
1	102
1	5
1	7
1	7
1	98
1	100
1	7
1	13
1	98
1	100
1	100
1	5
1	98
1	8
1	103
1	101
1	4
1	9
1	9
1	4
1	10
1	98
1	4
1	8
1	8
1	7
1	9
1	5
1	101
1	6
1	7
1	7
1	101
1	98
1	98
1	6
1	8
1	5
1	10
1	101
1	9
1	7
1	7
1	8
1	7
1	5
1	6
1	98
1	101
1	4
1	5
1	98
1	98
1	8
1	5
1	104
1	98
1	4
1	98
1	9
1	98
1	6
1	98
1	8
1	98
1	8
1	8
1	98
1	10
1	98
1	11
1	6
1	101
1	102
1	98
1	98
1	10
1	5
1	101
1	101
1	98
1	98
1	7
1	102
1	8
2	3
2	99
2	5
2	3
2	99
2	99
2	3
2	6
2	3
2	7
2	5
2	3
2	6
2	8
2	5
2	3
2	99
2	3
2	10
2	99
2	99
2	4
2	3
2	3
2	4
2	99
2	99
2	3
2	6
2	6
2	99
2	99
2	11
2	99
2	99
2	7
2	99
2	4
2	3
2	3
2	3
2	3
2	3
2	3
2	4
2	4
2	99
2	3
2	99
2	99
2	3
2	99
2	3
2	99
2	3
2	99
2	4
2	3
2	4
2	4
2	3
2	99
2	3
2	5
2	3
2	3
2	3
2	99
2	7
2	3
2	5
2	4
2	4
2	99
2	3
2	99
2	99
2	99
2	4
2	3
2	6
2	3
2	5
2	5
2	3
2	99
2	4
2	3
2	4
2	99
2	8
2	8
3	4
3	4
3	4
3	7
3	8
3	6
3	4
3	4
3	4
3	4
3	4
3	5
3	4
3	5
3	4
3	6
3	4
3	4
3	4
3	4
3	4
3	6
3	4
3	6
3	4
3	4
3	4
3	4
3	5
3	4
3	4
3	8
3	4
3	5
3	4
3	4
3	6
3	6
3	4
3	11
3	4
3	5
4	5
4	6
4	5
4	6
4	5
4	5
4	6
4	5
4	5
4	5
4	5
4	5
5	6
5	6
5	9
5	7
5	7
5	6
6	7
6	7
6	7
6	7
6	7
6	7
6	8
6	8
7	8
7	8
7	8
8	10
8	9
9	10
10	11
97	98
100	101
