1	6124
1	113
1	113
1	112
1	7
1	146
1	145
1	113
1	145
1	145
1	111
1	118
1	145
1	16
1	145
1	145
1	145
1	111
1	16
1	113
1	145
1	18
1	112
1	145
1	112
1	111
1	112
1	111
1	111
1	116
1	111
1	9
1	111
1	145
1	9
1	145
1	145
1	9
1	145
1	145
1	9
1	9
1	113
1	18
1	113
1	16
1	15
1	9
1	145
1	7
1	7
1	111
1	145
1	111
1	14
1	116
1	111
1	145
1	5
1	145
1	145
1	145
1	145
1	145
1	145
1	145
1	145
1	6
1	145
1	7
1	145
1	145
1	111
1	145
1	111
1	145
1	145
1	145
1	145
1	145
1	145
1	145
1	17
1	111
1	145
1	145
1	6
1	111
1	111
1	145
1	111
1	145
1	145
1	145
1	13
1	145
1	145
1	15
1	145
1	111
1	145
1	145
1	145
1	10
1	4
1	16
1	115
1	16
1	145
1	113
1	145
1	145
1	145
1	111
1	145
1	6
1	15
1	112
1	15
1	16
1	7
1	145
1	145
1	145
1	145
1	145
1	16
1	6
1	113
1	14
1	145
1	111
1	16
1	5
1	111
1	4
1	111
1	111
1	111
1	11
1	19
1	15
1	145
1	6
1	145
1	145
1	7
1	16
1	145
1	7
1	7
1	145
1	145
1	145
1	145
1	145
1	15
1	13
1	145
1	9
1	111
1	145
1	111
1	4
1	145
1	111
1	145
1	4
1	6
1	111
1	111
1	6
1	145
1	145
1	16
1	5
1	145
1	13
1	111
1	111
1	111
1	111
1	6
1	13
1	145
1	9
1	112
1	145
1	145
1	145
1	145
1	111
1	145
1	16
1	8
1	145
1	145
1	12
1	7
1	111
1	11
1	4
1	145
1	9
1	5
1	7
1	145
1	7
1	9
1	145
1	16
1	111
1	9
1	18
1	145
1	4
2	112
2	3
2	4
2	112
2	112
2	4
2	3
2	112
2	112
2	4
2	4
2	112
2	112
2	112
2	112
2	6
2	3
2	3
2	112
2	112
2	112
2	4
2	3
2	3
2	112
2	113
2	112
2	4
2	3
2	3
2	6
2	112
2	112
2	3
2	4
2	4
2	7
2	3
2	112
2	112
2	112
2	112
2	3
2	5
2	3
2	3
2	3
2	7
2	112
2	3
2	3
2	4
2	112
2	112
2	14
2	112
2	112
2	112
2	112
2	3
2	112
2	4
2	112
2	112
2	112
2	112
2	112
2	3
2	6
2	17
2	112
2	112
2	112
2	4
2	4
2	4
3	4
3	4
3	5
3	4
3	4
3	4
3	18
3	4
3	4
3	4
3	5
3	8
3	4
3	4
3	4
3	18
3	4
3	8
3	4
3	5
3	4
4	5
4	5
4	5
4	5
4	6
4	6
4	5
4	6
4	5
4	8
4	5
5	6
5	6
5	6
5	6
5	6
6	7
6	7
6	7
7	8
8	9
12	13
14	15
15	16
110	111
144	145
