1	6124
1	104
1	70
1	13
1	14
1	70
1	68
1	12
1	104
1	13
1	7
1	10
1	68
1	12
1	104
1	11
1	6
1	9
1	12
1	70
1	7
1	104
1	10
1	68
1	70
1	10
1	10
1	10
1	12
1	9
1	10
1	4
1	8
1	6
1	104
1	13
1	11
1	106
1	10
1	9
1	103
1	103
1	11
1	9
1	68
1	8
1	103
1	104
1	103
1	6
1	71
1	103
1	105
1	9
1	68
1	13
1	9
1	103
1	13
1	8
1	68
1	14
1	103
1	5
1	7
1	9
1	13
1	9
1	103
1	70
1	104
1	10
1	10
1	6
1	10
1	7
1	6
1	70
1	103
1	103
1	8
1	104
1	71
1	10
1	7
1	103
1	72
1	103
1	4
1	103
1	11
1	11
1	10
1	9
1	12
1	6
1	11
1	8
1	5
1	68
1	11
1	10
1	9
1	6
1	105
1	8
1	68
1	10
1	10
1	68
1	10
1	5
1	68
1	8
1	11
1	7
1	11
1	5
1	10
1	10
1	6
1	10
1	6
1	103
1	9
1	6
1	10
1	68
1	10
1	4
1	8
1	103
1	8
1	10
1	6
1	6
1	9
1	10
1	8
1	103
1	70
1	68
1	7
1	104
1	6
1	6
1	5
1	103
1	4
1	9
1	10
1	104
1	10
1	5
1	68
1	7
1	5
1	8
1	70
1	8
1	103
1	7
1	5
1	8
1	5
1	11
1	10
1	9
1	6
1	5
1	103
1	68
1	9
1	6
1	7
1	10
1	10
1	69
1	4
1	10
1	7
1	103
1	9
1	9
1	7
1	68
1	8
1	6
2	7
2	4
2	69
2	69
2	3
2	3
2	69
2	3
2	69
2	5
2	6
2	7
2	69
2	3
2	69
2	69
2	3
2	69
2	8
2	4
2	3
2	69
2	3
2	3
2	3
2	69
2	5
2	4
2	3
2	9
2	4
2	3
2	69
2	69
2	11
2	69
2	6
2	7
2	69
2	3
2	3
2	7
2	5
2	5
2	3
2	3
2	4
2	3
2	69
2	3
2	4
2	69
2	69
2	69
2	3
2	3
2	4
2	69
2	8
2	5
2	5
2	3
2	4
2	69
2	4
2	7
2	69
2	69
2	69
2	3
2	3
2	3
2	3
2	69
2	3
2	69
2	4
2	3
2	4
2	3
2	4
2	3
2	69
2	3
2	69
2	3
2	3
2	69
3	9
3	5
3	5
3	5
3	5
3	9
3	4
3	4
3	5
3	5
3	4
3	4
3	4
3	6
3	4
3	6
3	4
3	5
3	5
3	4
3	4
3	4
3	4
3	7
3	8
3	4
3	9
3	4
3	4
3	4
3	4
4	5
4	5
4	5
4	7
4	5
4	6
4	5
4	6
4	5
4	5
4	5
4	5
4	5
4	5
4	5
4	5
4	5
4	5
5	6
5	6
5	6
5	6
5	6
5	6
5	6
5	6
5	6
5	6
6	8
6	7
6	7
6	7
6	7
6	7
7	8
7	8
7	8
7	8
7	8
8	9
8	9
9	10
9	10
9	10
9	10
9	10
67	68
102	103
