9	6124
10	6124
14	6124
15	6124
15	6124
61	6124
62	6124
63	6124
63	6124
63	6124
64	6124
64	6124
65	6124
65	6124
74	6124
74	6124
74	6124
75	6124
75	6124
76	6124
76	6124
76	6124
77	6124
77	6124
77	6124
78	6124
78	6124
79	6124
79	6124
80	6124
85	6124
130	6124
