10	6124
12	6124
12	6124
20	6124
21	6124
104	6124
104	6124
105	6124
105	6124
105	6124
105	6124
105	6124
105	6124
105	6124
105	6124
105	6124
106	6124
106	6124
106	6124
107	6124
107	6124
108	6124
108	6124
108	6124
110	6124
115	6124
115	6124
115	6124
115	6124
115	6124
115	6124
115	6124
115	6124
115	6124
115	6124
115	6124
115	6124
115	6124
115	6124
115	6124
115	6124
115	6124
115	6124
115	6124
115	6124
115	6124
115	6124
115	6124
115	6124
115	6124
115	6124
115	6124
115	6124
115	6124
115	6124
115	6124
115	6124
115	6124
115	6124
115	6124
115	6124
115	6124
115	6124
115	6124
115	6124
115	6124
115	6124
115	6124
115	6124
115	6124
115	6124
115	6124
115	6124
116	6124
116	6124
116	6124
116	6124
116	6124
116	6124
116	6124
116	6124
116	6124
116	6124
116	6124
117	6124
117	6124
117	6124
118	6124
119	6124
119	6124
119	6124
121	6124
128	6124
