1	6124
1	52
1	167
1	167
1	166
1	52
1	166
1	50
1	9
1	166
1	50
1	166
1	166
1	166
1	166
1	50
1	50
1	166
1	166
1	166
1	50
1	166
1	166
1	166
1	167
1	11
1	166
1	166
1	166
1	166
1	166
1	166
1	166
1	52
1	166
1	166
1	166
1	166
1	166
1	166
1	50
1	166
1	166
1	166
1	166
1	166
1	166
1	166
1	166
1	166
1	166
1	166
1	166
1	10
1	166
1	166
1	166
1	166
1	50
1	51
1	166
1	166
1	50
1	50
1	50
1	166
1	166
1	166
1	166
1	166
1	166
1	166
1	166
1	166
1	166
1	166
1	166
1	166
1	166
1	166
1	166
1	167
1	166
1	10
1	166
1	166
1	166
1	166
1	166
1	50
1	166
1	166
1	166
1	166
1	166
1	166
1	166
1	6
1	166
1	50
1	50
1	166
1	11
1	166
1	166
1	166
1	166
1	166
1	168
1	166
1	166
1	166
1	166
1	166
1	50
1	6
1	166
1	166
1	166
1	7
1	50
1	10
1	5
1	50
1	166
1	166
1	166
1	166
1	166
1	166
1	166
1	166
1	8
1	7
1	166
1	50
1	166
1	166
1	166
1	166
1	50
1	166
1	166
1	8
1	166
1	166
1	7
1	9
1	166
1	4
1	10
1	11
1	166
1	166
1	166
1	50
1	50
1	7
1	5
1	166
1	166
1	166
1	50
1	166
1	166
1	166
1	166
1	50
1	166
1	166
1	166
1	166
1	166
1	166
1	166
1	166
1	50
1	166
1	166
1	166
1	166
1	4
1	166
1	166
1	166
1	166
1	166
1	166
1	166
2	7
2	51
2	51
2	51
2	51
2	3
2	6
2	3
2	9
2	6
2	51
2	51
2	51
2	3
2	3
2	51
2	9
2	51
2	5
2	9
2	3
2	167
2	6
2	5
2	4
2	4
2	5
2	4
2	4
2	51
2	4
3	5
3	4
3	4
3	4
3	9
3	8
3	5
3	5
3	4
3	4
3	7
4	5
4	5
4	5
4	5
4	5
4	5
5	7
6	7
6	7
6	7
7	8
8	9
49	50
165	166
