7	6124
12	6124
14	6124
51	6124
52	6124
52	6124
53	6124
53	6124
54	6124
55	6124
55	6124
56	6124
57	6124
167	6124
167	6124
167	6124
167	6124
167	6124
167	6124
167	6124
167	6124
167	6124
167	6124
167	6124
167	6124
167	6124
168	6124
168	6124
168	6124
168	6124
169	6124
170	6124
171	6124
172	6124
173	6124
214	6124
