9	6124
12	6124
13	6124
20	6124
21	6124
113	6124
113	6124
113	6124
113	6124
113	6124
113	6124
114	6124
115	6124
115	6124
115	6124
118	6124
119	6124
119	6124
123	6124
144	6124
144	6124
144	6124
144	6124
144	6124
144	6124
144	6124
144	6124
144	6124
144	6124
144	6124
144	6124
144	6124
144	6124
144	6124
144	6124
144	6124
144	6124
144	6124
144	6124
144	6124
144	6124
144	6124
144	6124
144	6124
144	6124
144	6124
144	6124
144	6124
144	6124
144	6124
144	6124
144	6124
144	6124
144	6124
144	6124
144	6124
144	6124
144	6124
144	6124
144	6124
144	6124
144	6124
144	6124
144	6124
144	6124
144	6124
144	6124
144	6124
144	6124
145	6124
145	6124
145	6124
145	6124
145	6124
145	6124
145	6124
145	6124
145	6124
145	6124
145	6124
145	6124
146	6124
146	6124
146	6124
147	6124
148	6124
150	6124
155	6124
252	6124
