11	6124
134	6124
165	6124
165	6124
165	6124
165	6124
165	6124
165	6124
165	6124
165	6124
165	6124
165	6124
165	6124
165	6124
165	6124
165	6124
165	6124
165	6124
165	6124
165	6124
165	6124
165	6124
165	6124
165	6124
165	6124
165	6124
165	6124
165	6124
165	6124
165	6124
165	6124
165	6124
165	6124
165	6124
165	6124
165	6124
165	6124
165	6124
165	6124
165	6124
165	6124
165	6124
165	6124
165	6124
165	6124
165	6124
165	6124
165	6124
165	6124
165	6124
165	6124
165	6124
165	6124
165	6124
165	6124
165	6124
165	6124
165	6124
165	6124
165	6124
165	6124
165	6124
165	6124
165	6124
165	6124
165	6124
165	6124
165	6124
165	6124
165	6124
165	6124
165	6124
165	6124
165	6124
165	6124
165	6124
165	6124
165	6124
165	6124
165	6124
165	6124
165	6124
165	6124
165	6124
165	6124
165	6124
165	6124
165	6124
165	6124
165	6124
166	6124
166	6124
166	6124
166	6124
166	6124
166	6124
166	6124
167	6124
167	6124
167	6124
167	6124
167	6124
167	6124
167	6124
169	6124
170	6124
171	6124
