1	6124
1	110
1	109
1	86
1	109
1	12
1	111
1	108
1	11
1	108
1	86
1	87
1	14
1	108
1	86
1	13
1	7
1	93
1	4
1	9
1	112
1	85
1	88
1	87
1	13
1	89
1	112
1	111
1	108
1	108
1	7
1	110
1	6
1	8
1	84
1	8
1	8
1	13
1	13
1	112
1	110
1	8
1	108
1	84
1	9
1	5
1	108
1	88
1	7
1	84
1	84
1	7
1	5
1	86
1	84
1	109
1	9
1	109
1	14
1	110
1	7
1	6
1	84
1	6
1	84
1	8
1	13
1	5
1	87
1	11
1	9
1	84
1	7
1	108
1	10
1	108
1	108
1	6
1	84
1	84
1	8
1	85
1	7
1	8
1	84
1	108
1	8
1	109
1	109
1	6
1	9
1	10
1	84
1	108
1	109
1	84
1	10
1	14
1	84
1	12
1	108
1	7
1	84
1	7
1	8
1	108
1	86
1	84
1	6
1	108
1	6
1	7
1	7
1	12
1	108
1	109
1	7
1	84
1	6
1	10
1	13
1	110
1	6
1	108
1	11
1	6
1	5
1	109
1	109
1	7
1	85
1	4
1	84
1	8
1	108
1	86
1	86
1	84
1	84
1	108
1	10
1	108
1	8
1	11
1	108
1	7
1	5
1	108
1	5
1	4
1	6
1	108
1	9
1	6
1	13
1	84
1	84
1	4
1	84
1	7
1	84
1	8
1	84
1	108
1	6
1	6
1	11
1	11
1	84
1	6
1	109
1	6
1	4
1	7
1	108
1	6
1	108
1	4
1	84
1	4
1	108
1	84
1	5
1	84
1	84
1	5
1	6
1	5
1	5
1	108
1	5
1	8
1	6
1	108
1	108
1	85
1	8
1	108
1	8
1	86
1	5
1	108
1	6
1	5
1	7
1	4
1	5
1	10
1	7
1	5
1	108
1	109
1	6
1	6
2	4
2	85
2	3
2	3
2	3
2	3
2	3
2	85
2	3
2	5
2	5
2	4
2	4
2	3
2	3
2	7
2	3
2	3
2	6
2	3
2	3
2	3
2	9
2	6
2	3
2	85
2	85
2	6
2	85
2	3
2	7
2	85
2	3
2	3
2	3
2	3
2	4
2	5
2	85
2	85
2	5
2	85
2	85
2	4
2	3
2	4
2	5
2	3
2	3
2	3
2	85
2	3
2	85
2	3
2	85
2	3
2	4
2	8
2	3
2	3
2	11
2	4
2	4
2	3
2	85
2	85
2	3
2	85
2	3
2	3
2	4
2	85
2	85
2	3
2	85
2	6
2	5
2	3
2	85
2	3
2	4
2	3
2	85
2	3
2	3
2	4
2	5
2	3
2	3
2	4
2	3
2	3
2	7
2	85
2	85
2	3
2	85
2	85
2	85
2	3
3	4
3	12
3	5
3	5
3	5
3	4
3	4
3	4
3	4
3	4
3	4
3	6
3	4
3	4
3	5
3	7
3	4
3	4
3	4
3	4
3	4
3	4
3	4
3	5
3	4
3	4
3	4
3	6
3	4
3	5
3	4
3	4
3	5
3	4
3	4
4	6
4	6
4	5
4	5
4	5
4	5
4	5
4	5
4	5
4	5
4	5
4	8
4	5
4	5
4	5
4	5
4	7
4	5
4	6
4	5
5	6
5	6
5	6
5	7
5	6
5	6
5	6
5	6
5	6
5	6
5	6
6	7
6	7
6	7
7	8
9	10
10	11
12	13
83	84
107	108
