161	6124
161	6124
161	6124
161	6124
162	6124
162	6124
162	6124
162	6124
162	6124
162	6124
162	6124
162	6124
162	6124
163	6124
163	6124
163	6124
163	6124
163	6124
163	6124
163	6124
163	6124
163	6124
163	6124
163	6124
163	6124
163	6124
163	6124
163	6124
163	6124
163	6124
163	6124
163	6124
163	6124
163	6124
163	6124
163	6124
163	6124
163	6124
163	6124
163	6124
163	6124
163	6124
163	6124
163	6124
163	6124
163	6124
163	6124
163	6124
163	6124
163	6124
163	6124
163	6124
163	6124
163	6124
163	6124
163	6124
163	6124
163	6124
163	6124
163	6124
163	6124
163	6124
163	6124
163	6124
163	6124
163	6124
163	6124
163	6124
163	6124
163	6124
163	6124
163	6124
163	6124
163	6124
163	6124
163	6124
163	6124
163	6124
163	6124
163	6124
163	6124
163	6124
163	6124
163	6124
163	6124
163	6124
163	6124
163	6124
163	6124
163	6124
163	6124
163	6124
163	6124
164	6124
164	6124
164	6124
164	6124
164	6124
164	6124
164	6124
164	6124
164	6124
165	6124
165	6124
165	6124
167	6124
