1	6124
1	120
1	120
1	121
1	120
1	120
1	120
1	120
1	120
1	121
1	104
1	120
1	120
1	120
1	120
1	105
1	104
1	6
1	120
1	120
1	120
1	5
1	120
2	104
2	103
2	103
2	103
2	103
2	103
2	103
2	103
2	103
2	103
2	103
2	103
2	103
2	103
2	103
2	103
2	103
2	103
2	103
2	103
2	103
2	103
2	103
2	103
2	103
2	103
2	103
2	103
2	103
2	103
2	103
2	103
2	103
2	104
2	103
2	103
2	103
2	103
2	103
2	103
2	103
2	103
2	103
2	103
2	103
2	103
2	103
2	103
2	103
2	103
2	103
2	103
2	103
2	103
2	103
2	103
2	103
2	103
2	103
2	103
2	103
2	103
2	103
2	103
2	103
2	103
2	103
2	103
2	103
2	103
2	103
2	3
2	103
2	103
2	103
2	103
2	103
2	103
2	103
2	103
2	103
2	103
2	103
2	103
2	103
2	103
2	103
2	103
2	103
2	103
2	103
2	103
2	103
2	103
3	104
3	8
3	6
3	4
3	4
3	5
4	5
5	6
101	103
119	120
