1	6124
1	68
1	68
1	69
1	68
1	68
1	39
1	68
1	68
1	68
1	68
1	10
1	10
1	68
1	68
1	68
1	39
1	68
1	68
1	68
1	68
1	68
1	68
1	68
1	4
1	68
1	68
1	68
1	68
1	68
1	68
1	10
1	68
1	68
1	68
1	68
2	39
2	38
2	38
2	38
2	38
2	38
2	11
2	38
2	38
2	38
2	38
2	38
2	39
2	38
2	38
2	38
2	38
2	4
2	38
2	38
2	38
2	38
2	38
2	38
2	38
2	38
2	38
2	38
2	12
3	39
3	5
3	12
3	8
3	5
3	8
3	4
3	8
3	4
3	8
3	5
5	8
9	10
36	38
67	68
