9	6124
11	6124
12	6124
13	6124
13	6124
14	6124
14	6124
15	6124
15	6124
15	6124
17	6124
17	6124
17	6124
18	6124
18	6124
19	6124
94	6124
94	6124
95	6124
95	6124
95	6124
95	6124
95	6124
95	6124
95	6124
95	6124
95	6124
95	6124
95	6124
95	6124
96	6124
96	6124
96	6124
97	6124
98	6124
98	6124
98	6124
99	6124
101	6124
101	6124
105	6124
119	6124
119	6124
119	6124
119	6124
119	6124
119	6124
119	6124
119	6124
119	6124
119	6124
119	6124
119	6124
119	6124
119	6124
119	6124
119	6124
119	6124
119	6124
119	6124
119	6124
119	6124
119	6124
119	6124
119	6124
119	6124
119	6124
119	6124
119	6124
119	6124
119	6124
119	6124
119	6124
119	6124
120	6124
120	6124
120	6124
120	6124
120	6124
120	6124
120	6124
120	6124
120	6124
120	6124
121	6124
122	6124
122	6124
122	6124
123	6124
124	6124
