15	6124
80	6124
82	6124
88	6124
95	6124
95	6124
95	6124
95	6124
95	6124
95	6124
95	6124
95	6124
95	6124
95	6124
95	6124
95	6124
95	6124
95	6124
95	6124
95	6124
95	6124
95	6124
95	6124
95	6124
95	6124
95	6124
95	6124
95	6124
95	6124
95	6124
95	6124
95	6124
95	6124
95	6124
95	6124
95	6124
95	6124
95	6124
95	6124
95	6124
95	6124
95	6124
95	6124
95	6124
95	6124
95	6124
95	6124
95	6124
95	6124
95	6124
95	6124
95	6124
95	6124
95	6124
95	6124
95	6124
95	6124
95	6124
95	6124
95	6124
95	6124
95	6124
95	6124
95	6124
95	6124
95	6124
95	6124
95	6124
95	6124
95	6124
95	6124
95	6124
96	6124
96	6124
96	6124
96	6124
96	6124
98	6124
104	6124
