9	6124
25	6124
25	6124
27	6124
33	6124
58	6124
58	6124
59	6124
59	6124
60	6124
60	6124
61	6124
61	6124
62	6124
62	6124
62	6124
62	6124
62	6124
65	6124
69	6124
78	6124
127	6124
127	6124
127	6124
127	6124
127	6124
127	6124
127	6124
128	6124
128	6124
128	6124
128	6124
128	6124
128	6124
129	6124
129	6124
130	6124
130	6124
131	6124
131	6124
131	6124
135	6124
