1	6124
1	49
1	49
1	41
1	48
1	50
1	42
1	48
1	41
1	48
1	41
1	48
1	43
1	4
1	49
1	48
1	48
1	4
1	43
2	42
2	5
2	42
2	42
2	42
2	42
2	42
2	5
2	42
2	42
2	42
2	3
2	42
2	43
2	42
2	42
2	42
2	42
2	42
2	42
2	42
2	42
2	4
2	42
2	42
2	42
2	42
2	42
2	42
2	42
2	3
2	42
2	42
2	42
2	42
2	42
2	42
3	4
3	4
3	5
3	4
3	5
3	7
4	5
40	41
47	48
