27	6124
27	6124
28	6124
28	6124
28	6124
28	6124
28	6124
28	6124
28	6124
28	6124
28	6124
28	6124
28	6124
28	6124
28	6124
28	6124
28	6124
28	6124
29	6124
29	6124
29	6124
29	6124
30	6124
34	6124
36	6124
50	6124
