44	6124
46	6124
46	6124
46	6124
46	6124
46	6124
46	6124
46	6124
46	6124
46	6124
46	6124
46	6124
46	6124
46	6124
46	6124
46	6124
46	6124
46	6124
46	6124
46	6124
46	6124
46	6124
46	6124
46	6124
47	6124
47	6124
47	6124
47	6124
47	6124
47	6124
47	6124
48	6124
48	6124
