1	6124
1	89
1	88
1	11
1	12
1	80
1	81
1	13
1	88
1	12
1	80
1	9
1	10
1	88
1	11
1	11
1	8
1	79
1	10
1	88
1	80
1	86
1	12
1	88
1	88
1	88
1	5
1	10
1	88
1	13
1	91
1	14
1	88
1	11
1	79
1	11
1	90
1	15
1	11
1	88
1	7
1	9
1	9
1	8
1	88
1	4
1	79
1	12
1	7
1	12
1	7
1	8
1	10
1	9
1	7
1	89
1	7
1	88
1	79
1	91
1	11
1	88
1	16
1	6
1	9
1	88
1	10
1	9
1	12
1	79
1	7
1	6
1	5
1	12
1	80
1	90
1	10
1	10
1	79
1	9
1	9
1	8
1	88
1	88
1	79
1	79
1	4
1	16
1	7
1	4
1	8
1	7
1	79
1	79
1	79
1	8
1	7
1	7
1	7
1	7
1	88
1	88
1	89
1	88
1	79
1	15
1	7
1	9
1	88
1	80
1	11
1	88
1	10
1	88
1	8
1	9
1	88
1	79
1	7
1	8
1	7
1	88
1	88
1	9
1	7
1	88
1	5
1	79
1	88
1	10
1	82
1	89
1	80
1	79
1	6
1	6
1	9
1	88
1	8
1	79
1	5
1	6
1	79
1	6
1	88
1	6
1	88
1	12
1	5
1	6
1	79
1	88
1	88
1	7
1	79
1	4
1	88
1	6
1	7
1	11
1	79
1	7
1	6
1	88
1	5
1	88
1	5
1	7
1	6
1	79
1	88
1	88
1	88
1	8
1	88
1	8
1	7
1	79
1	88
1	88
1	6
1	11
1	5
1	88
1	4
1	14
1	5
1	6
1	6
1	10
1	7
1	6
1	79
1	6
1	5
1	88
1	5
1	8
1	88
1	11
1	9
1	8
1	79
1	8
1	10
2	3
2	80
2	7
2	5
2	3
2	6
2	3
2	3
2	3
2	80
2	3
2	6
2	3
2	5
2	3
2	7
2	5
2	5
2	3
2	3
2	4
2	4
2	4
2	4
2	3
2	3
2	4
2	3
2	12
2	13
2	80
2	7
2	80
2	3
2	80
2	3
2	3
2	7
2	3
2	3
2	3
2	6
2	6
2	3
2	4
2	3
2	80
2	3
2	80
2	4
2	3
2	5
2	6
2	5
2	4
2	3
2	7
2	3
2	3
2	80
2	3
2	3
2	4
2	11
2	80
2	3
2	3
2	8
2	5
2	4
2	6
2	5
2	80
2	4
2	6
2	4
2	3
2	12
2	80
2	3
2	3
3	12
3	5
3	8
3	4
3	7
3	7
3	5
3	4
3	4
3	6
3	7
3	5
3	5
3	4
3	4
3	6
3	6
3	5
3	4
3	4
3	4
3	4
3	7
3	5
3	6
3	6
3	4
3	5
3	4
4	5
4	6
4	5
4	5
4	5
4	5
4	5
4	5
4	5
4	5
4	5
4	5
4	6
4	5
4	5
4	5
4	5
4	5
5	6
5	6
5	6
5	6
5	6
5	6
5	6
5	6
5	7
5	6
5	8
5	6
5	7
5	6
5	6
5	6
6	7
6	7
6	7
6	7
6	7
6	7
6	7
6	7
7	8
7	8
8	9
8	9
9	10
10	11
10	11
78	79
87	88
