10	6124
42	6124
43	6124
43	6124
43	6124
62	6124
62	6124
62	6124
62	6124
62	6124
62	6124
62	6124
62	6124
62	6124
62	6124
62	6124
62	6124
62	6124
62	6124
62	6124
62	6124
62	6124
62	6124
62	6124
62	6124
62	6124
62	6124
62	6124
62	6124
62	6124
62	6124
62	6124
63	6124
63	6124
63	6124
63	6124
63	6124
63	6124
63	6124
63	6124
63	6124
64	6124
64	6124
64	6124
64	6124
64	6124
65	6124
66	6124
