1	6124
1	208
1	207
1	208
1	207
1	13
1	21
1	207
1	207
1	41
1	11
1	207
1	14
1	12
1	11
1	207
1	207
1	207
1	9
1	207
1	207
1	16
1	207
1	36
1	207
1	20
1	207
1	207
1	14
1	208
1	19
1	207
1	207
1	19
1	207
1	207
1	36
1	207
1	207
1	19
1	208
1	207
1	207
1	207
1	6
1	39
1	207
1	207
1	209
1	10
1	207
1	207
1	207
1	207
1	207
1	9
1	207
1	207
1	207
1	7
1	207
1	207
1	9
1	207
1	4
1	207
1	207
1	208
1	208
1	37
1	34
1	207
1	8
1	207
1	207
1	207
1	207
1	11
1	207
1	207
1	9
1	207
1	7
1	207
1	207
1	207
1	13
1	12
1	207
1	211
1	207
1	207
1	207
1	19
1	207
1	36
1	9
1	207
1	20
1	14
1	207
1	207
1	207
1	207
1	207
1	207
1	207
1	5
1	207
1	207
1	207
1	4
1	15
1	207
1	207
1	207
1	6
1	207
1	5
1	6
1	207
1	207
1	15
1	11
1	207
1	207
1	207
1	207
1	4
1	207
1	207
1	7
1	207
1	207
1	207
1	7
1	207
1	207
1	207
1	207
1	7
1	207
1	207
1	207
1	34
1	36
1	207
1	34
1	207
1	207
1	207
1	207
1	12
1	207
1	5
1	207
1	207
1	207
1	207
1	207
1	207
1	36
1	207
1	207
1	7
1	207
1	207
1	207
1	207
1	19
1	34
1	7
1	207
1	207
1	207
1	12
1	207
1	9
1	34
1	10
1	8
1	34
1	207
1	19
1	207
1	8
1	207
1	19
1	207
1	207
1	209
1	12
1	207
1	208
1	207
1	207
1	4
1	9
1	207
1	6
1	34
1	8
1	207
1	6
1	20
1	7
1	207
1	207
1	207
1	12
1	14
1	6
1	207
1	207
1	207
1	207
1	34
1	209
1	207
1	207
1	6
1	9
1	207
1	208
1	207
1	207
1	207
1	35
1	207
1	34
1	12
1	5
1	207
1	4
1	6
1	208
1	208
1	207
1	9
1	207
1	12
1	19
1	36
1	207
1	207
1	207
1	19
1	207
1	207
1	207
1	207
1	10
1	208
1	34
1	9
1	207
1	14
1	4
1	207
1	7
1	207
1	19
1	20
1	207
1	9
1	14
1	5
1	8
1	207
1	207
1	208
1	207
1	207
1	207
1	207
1	207
1	207
1	5
1	207
1	7
1	207
1	5
1	6
1	5
2	3
2	3
2	4
2	3
2	3
2	3
2	7
2	3
2	5
2	11
2	6
2	3
2	3
2	10
2	35
2	3
2	3
2	3
2	3
2	35
2	3
2	15
2	3
2	3
2	10
2	4
2	4
2	3
2	3
2	35
2	3
2	3
2	6
2	20
2	4
2	4
2	4
2	8
2	10
2	35
2	35
2	4
2	3
2	3
2	35
2	6
2	3
2	3
2	3
2	3
2	8
2	4
2	4
2	3
2	4
2	3
2	3
3	4
3	8
3	4
3	4
3	4
3	5
3	5
3	4
3	6
3	4
3	4
3	4
3	4
3	5
3	6
3	4
3	5
3	4
3	4
3	8
3	4
3	4
3	4
3	5
3	5
3	4
3	4
3	4
4	5
4	5
4	5
4	6
4	7
4	5
4	6
4	5
4	5
5	6
5	6
5	6
5	6
6	7
6	7
6	7
6	7
6	7
7	8
8	9
8	9
8	9
11	12
13	14
18	19
33	34
206	207
