1	6124
1	82
1	117
1	117
1	116
1	80
1	87
1	88
1	78
1	77
1	88
1	86
1	86
1	116
1	116
1	116
1	78
1	86
1	86
1	76
1	116
1	117
1	117
1	116
1	75
1	6124
1	117
1	119
1	7
1	75
1	11
1	78
1	6
1	116
1	116
1	9
1	121
1	86
1	75
1	81
1	117
1	87
1	86
1	78
1	6
1	86
1	119
1	86
1	86
1	78
1	119
1	117
1	8
1	116
1	116
1	86
1	116
1	116
1	86
1	10
1	116
1	116
1	7
1	8
1	116
1	75
1	118
1	86
1	75
1	117
1	117
1	8
1	78
1	80
1	76
1	77
1	119
1	9
1	9
1	117
1	75
1	116
1	5
1	116
1	86
1	86
1	9
1	86
1	77
1	7
1	116
1	76
1	77
1	8
1	116
1	116
1	7
1	116
1	9
1	5
1	7
1	117
1	9
1	118
1	7
1	116
1	117
1	7
1	5
1	4
1	75
1	78
1	6
1	86
1	75
1	86
1	3
1	7
1	118
1	5
1	86
1	7
1	86
1	6
1	6
1	116
1	77
1	75
1	116
1	116
1	116
1	9
1	75
1	78
1	77
1	5
1	87
1	7
1	86
1	86
1	75
1	116
1	8
1	75
1	8
1	86
1	5
1	4
1	116
1	116
1	75
1	77
1	116
1	9
1	78
1	4
1	116
1	87
1	86
1	77
1	7
1	116
1	117
1	86
1	86
1	6
1	5
1	4
1	4
1	5
1	86
1	116
1	4
1	86
1	86
1	86
1	7
1	7
1	7
1	116
1	87
1	116
1	77
1	6
1	77
1	116
1	116
1	5
1	5
1	86
1	116
1	116
1	116
1	116
1	86
1	6
1	116
1	6
1	7
1	87
1	87
1	5
1	116
1	116
1	7
1	7
1	116
1	8
1	116
1	7
1	87
1	87
1	77
1	7
1	6
1	86
1	8
1	116
1	77
1	116
1	86
1	117
1	6
1	86
2	3
2	3
2	76
2	76
2	76
2	76
2	4
2	3
2	76
2	4
2	76
2	7
2	76
2	3
2	76
2	5
2	76
2	3
2	3
2	8
2	3
2	4
2	3
2	76
2	7
2	3
2	9
2	76
2	3
2	76
2	3
2	87
2	3
2	76
2	5
2	4
2	3
2	76
2	76
2	9
2	3
2	3
2	8
2	3
2	4
2	7
2	3
2	3
2	4
2	76
2	3
2	87
2	3
2	76
2	4
2	76
2	5
2	3
2	3
2	76
2	76
2	4
2	87
2	3
2	3
2	3
2	5
2	3
2	3
2	4
2	76
2	3
2	3
2	3
2	4
2	4
2	76
2	76
2	76
2	3
2	4
2	3
2	3
2	3
2	3
3	4
3	4
3	4
3	77
3	4
3	4
3	4
3	5
3	4
3	77
3	5
3	77
3	4
3	5
3	4
3	5
3	4
3	6
3	4
3	4
3	5
3	4
3	77
3	77
3	4
3	4
3	4
3	9
3	4
3	4
3	4
3	77
4	5
4	5
4	5
4	5
4	5
4	5
4	5
4	5
4	5
4	5
4	5
4	5
4	5
4	5
4	10
5	6
5	6
5	6
5	6
6	7
6	7
6	8
6	7
6	7
6	7
7	8
7	8
8	9
74	75
85	86
115	116
