7	6124
78	6124
79	6124
154	6124
154	6124
154	6124
154	6124
154	6124
154	6124
154	6124
154	6124
154	6124
154	6124
154	6124
154	6124
154	6124
154	6124
154	6124
154	6124
154	6124
154	6124
154	6124
154	6124
154	6124
154	6124
154	6124
154	6124
154	6124
154	6124
154	6124
154	6124
154	6124
154	6124
154	6124
154	6124
154	6124
154	6124
154	6124
154	6124
154	6124
154	6124
154	6124
154	6124
154	6124
154	6124
154	6124
154	6124
154	6124
154	6124
154	6124
154	6124
154	6124
154	6124
154	6124
155	6124
155	6124
155	6124
155	6124
155	6124
155	6124
155	6124
155	6124
155	6124
155	6124
156	6124
156	6124
156	6124
157	6124
157	6124
158	6124
159	6124
160	6124
