1	6124
1	153
1	141
1	141
1	142
1	152
1	20
1	18
1	11
1	141
1	152
1	142
1	142
1	16
1	8
1	8
1	152
1	12
1	152
1	16
1	152
1	152
1	152
1	152
1	152
1	152
1	152
1	152
1	152
1	141
1	152
1	152
1	141
1	16
1	141
1	141
1	16
1	141
1	152
1	152
1	152
1	152
1	141
1	141
1	141
1	152
1	152
1	152
1	141
1	141
1	16
1	142
1	141
1	141
1	152
1	142
1	152
1	141
1	152
1	143
1	141
1	152
1	141
1	141
1	141
1	9
1	141
1	152
1	152
1	141
1	12
1	141
1	152
1	141
1	141
1	141
1	141
1	16
1	152
1	152
1	152
1	152
1	152
1	152
1	152
1	152
1	10
1	152
1	152
1	141
1	141
1	152
1	141
1	18
1	152
1	141
1	152
1	152
1	152
1	141
1	152
1	152
1	152
1	141
1	141
1	152
1	152
1	152
1	10
1	152
1	152
1	152
1	141
1	152
1	8
1	9
1	5
1	141
1	9
1	152
1	152
1	8
1	152
1	142
1	152
1	152
1	152
1	152
1	14
1	141
1	152
1	141
1	152
1	152
1	141
1	17
1	152
1	141
1	152
1	152
1	152
1	141
1	152
1	141
1	143
1	141
1	152
1	152
1	7
1	141
1	152
1	152
1	141
2	3
2	142
2	142
2	142
2	142
2	3
2	142
2	142
2	142
2	12
2	142
2	143
2	142
2	7
2	17
2	142
2	3
2	142
2	11
2	142
2	142
2	142
2	142
2	142
2	9
2	142
2	142
2	142
2	142
2	142
2	8
2	142
2	142
2	142
2	3
2	142
2	142
2	142
2	3
2	142
2	142
2	142
2	142
2	4
2	142
2	142
2	142
2	142
2	142
2	8
2	142
2	9
2	142
2	142
2	142
2	142
2	142
2	142
2	3
2	142
2	5
2	4
2	142
2	142
2	142
2	142
2	142
3	4
3	8
3	4
3	9
3	5
3	10
3	10
3	5
3	9
3	5
3	7
3	4
3	4
3	11
3	8
3	4
3	6
3	8
3	5
3	4
3	5
3	8
3	7
4	11
4	6
4	8
4	7
4	7
4	6
5	8
5	6
5	6
6	8
6	7
6	7
7	8
7	8
7	8
8	9
15	16
140	141
151	152
