1	6124
1	196
1	199
1	196
1	196
1	194
1	194
1	198
1	194
1	196
1	198
1	198
1	198
1	194
1	194
1	198
1	198
1	194
1	198
1	198
1	194
1	198
1	194
1	198
1	198
2	195
2	195
2	195
2	195
2	195
2	195
2	195
2	195
2	195
2	195
2	195
2	195
2	195
2	195
2	195
2	195
2	195
2	195
2	195
2	195
2	195
2	195
2	195
2	195
2	195
2	195
2	195
2	195
2	195
2	195
2	195
2	195
2	195
2	195
2	195
2	195
2	195
2	195
2	195
2	195
2	195
2	195
2	195
2	195
2	195
2	195
2	195
2	195
2	195
2	195
2	195
2	195
2	195
2	195
2	195
2	195
2	195
2	195
2	195
2	195
2	195
2	195
2	195
2	195
2	195
2	195
2	195
2	195
2	195
2	195
2	195
2	195
2	195
2	195
2	195
2	195
2	195
2	195
2	195
2	195
2	195
2	195
2	3
2	195
2	195
2	195
2	195
2	195
2	195
2	195
2	195
2	195
2	195
2	195
2	195
2	195
2	195
2	195
2	195
2	195
2	195
2	195
2	195
2	195
2	195
2	195
2	195
2	195
2	196
2	195
2	195
2	195
2	195
2	195
2	195
2	195
2	195
2	195
2	195
2	195
2	195
2	195
2	195
2	195
2	195
2	195
2	195
2	195
2	195
2	195
2	195
2	195
2	195
2	195
2	195
2	195
2	195
2	195
2	195
2	195
2	195
2	195
2	195
2	195
2	195
2	195
2	195
2	195
2	195
2	195
2	195
2	195
2	195
2	195
2	195
2	195
2	195
2	195
2	195
2	195
2	195
2	195
2	195
2	195
2	195
2	195
2	195
2	195
2	195
2	195
2	195
2	195
2	195
3	7
3	196
3	196
3	196
3	4
3	5
3	6
3	7
3	6
3	4
3	6
4	6
4	5
193	194
197	198
