1	6124
1	82
1	81
1	16
1	121
1	12
1	81
1	82
1	120
1	120
1	14
1	120
1	20
1	11
1	80
1	120
1	13
1	11
1	120
1	14
1	12
1	13
1	8
1	11
1	6
1	11
1	80
1	120
1	13
1	80
1	120
1	120
1	80
1	120
1	12
1	17
1	120
1	11
1	6
1	80
1	81
1	120
1	8
1	11
1	86
1	82
1	22
1	80
1	120
1	120
1	120
1	120
1	120
1	120
1	120
1	85
1	120
1	80
1	8
1	80
1	81
1	6
1	9
1	120
1	120
1	120
1	120
1	11
1	6
1	11
1	80
1	9
1	9
1	120
1	80
1	11
1	10
1	13
1	120
1	80
1	120
1	10
1	120
1	120
1	80
1	12
1	11
1	81
1	16
1	120
1	120
1	11
1	120
1	81
1	121
1	6
1	7
1	11
1	11
1	80
1	120
1	120
1	13
1	80
1	120
1	11
1	120
1	10
1	120
1	120
1	11
1	15
1	9
1	83
1	120
1	120
1	120
1	80
1	120
1	120
1	5
1	6
1	7
1	120
1	9
1	120
1	80
1	8
1	4
1	6
1	120
1	120
1	120
1	80
1	6
1	120
1	13
1	15
1	80
1	9
1	6
1	120
1	6
1	11
1	9
1	6
1	7
1	11
1	17
1	17
1	120
1	8
1	5
1	80
1	11
1	11
1	80
1	5
1	120
1	7
1	15
1	120
1	120
1	80
1	81
1	19
1	7
1	120
1	4
1	120
1	120
1	120
1	80
1	80
1	120
1	11
1	4
1	15
1	82
1	120
1	5
1	120
1	120
1	12
1	10
1	11
1	120
1	120
1	10
1	4
1	9
1	7
1	6
1	9
1	120
1	18
1	15
1	120
1	80
1	7
1	80
1	120
1	4
1	80
1	6
1	8
1	7
1	120
1	120
1	80
1	120
1	4
1	6
1	5
1	11
1	81
1	81
1	80
1	80
1	6
1	80
1	17
1	80
1	120
1	80
1	10
1	4
1	11
1	11
1	120
2	81
2	3
2	5
2	3
2	4
2	3
2	3
2	5
2	81
2	5
2	5
2	81
2	3
2	4
2	81
2	7
2	81
2	81
2	9
2	3
2	6
2	81
2	81
2	3
2	81
2	81
2	16
2	3
2	81
2	81
2	5
2	3
2	3
2	3
2	4
2	9
2	3
2	12
2	5
2	3
2	7
2	5
2	82
2	6
2	5
2	3
2	3
2	4
2	3
2	3
2	4
2	4
2	8
2	81
2	10
2	5
2	4
2	4
2	4
2	5
2	3
2	4
2	5
2	81
2	16
3	4
3	4
3	4
3	4
3	4
3	4
3	9
3	4
3	8
3	4
3	4
3	5
3	4
3	4
3	4
3	4
3	4
3	5
3	4
3	4
3	4
3	10
3	5
3	4
3	4
3	4
3	4
3	4
4	5
4	5
4	5
4	5
4	7
4	5
4	6
4	5
4	5
4	9
4	5
4	5
4	5
4	6
4	5
5	6
5	6
5	6
5	6
5	7
5	6
5	6
5	6
5	7
6	7
6	7
7	8
7	8
8	9
8	9
8	9
9	10
10	11
10	11
10	11
10	11
14	15
14	15
79	80
119	120
