1	6124
1	117
1	118
1	20
1	117
1	117
1	89
1	116
1	117
1	118
1	116
1	18
1	22
1	89
1	89
1	12
1	119
1	4
1	88
1	89
1	18
1	87
1	9
1	89
1	5
1	118
1	117
1	6
1	91
1	4
1	19
1	12
1	5
1	116
1	87
1	87
1	9
1	90
1	87
1	87
1	18
1	10
1	4
1	117
1	7
1	12
1	116
1	116
1	4
1	6
1	116
1	117
1	7
1	87
1	10
1	17
1	19
1	116
1	116
1	116
1	7
1	117
1	8
1	9
1	89
1	17
1	89
1	116
1	4
1	4
1	87
1	4
1	87
1	18
1	116
1	9
1	88
1	88
1	117
1	6
1	7
1	6
1	6
1	9
1	87
1	117
1	7
1	19
1	88
1	5
1	89
1	6
1	87
1	117
1	6
1	118
1	5
1	15
1	8
1	116
1	6
1	16
1	9
1	6
1	118
1	7
1	118
1	89
1	4
1	5
1	6
1	116
1	4
1	88
1	6
1	16
1	4
1	118
1	12
1	118
1	116
1	6
1	116
1	6
1	5
1	116
1	116
1	5
1	6
1	5
1	87
1	116
1	6
1	117
1	118
1	5
1	4
1	7
1	89
1	87
1	87
1	10
1	117
1	5
1	5
1	6
1	11
1	6
1	87
1	116
1	87
1	88
1	6
1	7
1	5
1	118
1	7
1	12
1	87
1	116
1	89
1	7
1	7
1	116
1	5
1	116
1	8
1	87
1	87
1	8
1	5
1	87
1	7
1	116
1	5
1	87
1	87
1	88
1	116
1	89
1	5
1	7
1	116
1	88
1	5
1	12
1	87
1	87
1	116
1	8
1	6
1	7
1	8
1	6
1	12
1	116
1	4
1	6
1	116
1	9
1	6
1	5
1	88
1	5
1	117
2	3
2	88
2	88
2	3
2	3
2	117
2	88
2	3
2	5
2	3
2	88
2	4
2	4
2	4
2	4
2	5
2	88
2	88
2	88
2	3
2	3
2	4
2	88
2	88
2	4
2	3
2	3
2	5
2	5
2	3
2	5
2	88
2	6
2	3
2	3
2	88
2	88
2	88
2	9
2	88
2	3
2	3
2	3
2	4
2	5
2	88
2	5
2	88
2	3
2	6
2	88
2	3
2	5
2	4
2	3
2	3
2	4
2	88
2	88
2	5
2	3
2	3
2	4
2	4
2	7
2	88
2	88
2	13
2	6
2	88
2	3
2	5
2	3
2	4
2	6
2	5
2	4
2	88
2	88
2	3
2	4
2	88
2	4
2	5
2	5
2	88
2	3
2	4
2	88
2	88
2	88
2	3
2	3
2	5
2	3
2	4
2	3
2	4
2	5
2	4
2	3
2	7
2	88
2	3
2	88
2	3
2	3
2	3
2	4
2	3
2	3
3	4
3	5
3	4
3	4
3	4
3	5
3	4
3	4
3	4
3	4
3	4
3	4
3	4
3	4
3	6
3	4
3	4
3	4
3	4
3	4
3	8
3	4
3	4
3	4
3	4
3	4
3	4
3	4
3	4
3	4
3	4
3	4
3	4
3	4
3	4
3	4
3	4
3	5
3	4
3	4
3	4
3	4
3	6
3	4
3	4
3	4
3	4
3	4
3	5
3	4
3	4
3	4
3	4
3	4
3	4
3	8
4	5
4	7
4	5
4	5
4	5
4	5
4	5
4	5
4	6
4	5
5	6
5	6
5	6
5	6
5	6
5	6
5	6
5	6
6	7
7	8
7	8
8	9
11	12
15	16
86	87
115	116
