9	6124
15	6124
25	6124
90	6124
90	6124
90	6124
91	6124
91	6124
91	6124
91	6124
91	6124
92	6124
92	6124
93	6124
94	6124
95	6124
97	6124
98	6124
98	6124
103	6124
125	6124
125	6124
125	6124
125	6124
125	6124
125	6124
125	6124
125	6124
125	6124
125	6124
125	6124
125	6124
125	6124
125	6124
125	6124
125	6124
125	6124
125	6124
125	6124
125	6124
125	6124
125	6124
125	6124
125	6124
125	6124
125	6124
125	6124
125	6124
125	6124
125	6124
125	6124
125	6124
125	6124
125	6124
126	6124
126	6124
126	6124
126	6124
126	6124
126	6124
126	6124
126	6124
126	6124
126	6124
127	6124
127	6124
128	6124
128	6124
129	6124
129	6124
130	6124
133	6124
138	6124
211	6124
