14	230
71	230
71	230
71	230
71	230
71	230
71	230
71	230
72	230
72	230
72	230
72	230
72	230
72	230
72	230
72	230
72	230
72	230
72	230
72	230
72	230
72	230
72	230
72	230
72	230
72	230
72	230
72	230
72	230
72	230
72	230
72	230
72	230
72	230
72	230
72	230
72	230
72	230
72	230
72	230
72	230
72	230
72	230
72	230
72	230
72	230
72	230
72	230
72	230
72	230
72	230
72	230
73	230
73	230
73	230
73	230
73	230
73	230
73	230
73	230
73	230
73	230
73	230
73	230
73	230
73	230
74	230
74	230
74	230
74	230
74	230
78	230
80	230
