1	230
1	69
1	71
1	69
1	69
1	72
1	72
1	71
1	71
1	71
1	71
1	71
1	71
1	71
1	71
1	71
1	69
1	71
1	69
1	5
1	69
1	71
1	69
2	70
2	70
2	70
2	70
2	70
2	70
2	70
2	70
2	70
2	70
2	70
2	70
2	70
2	70
2	70
2	70
2	70
2	70
2	71
2	70
2	70
2	70
2	70
2	70
2	70
2	70
2	70
2	70
2	70
2	70
2	70
2	70
2	71
2	12
2	12
2	70
2	70
2	70
2	70
2	70
2	70
2	70
2	70
2	70
3	71
3	7
3	4
3	7
3	13
3	13
3	4
3	7
3	6
3	6
3	5
3	13
3	4
3	5
3	13
4	7
4	6
4	5
4	6
4	5
10	12
68	69
70	71
