1	6124
1	70
1	70
1	70
1	70
1	70
1	71
1	70
1	70
1	70
1	74
1	70
1	70
1	72
1	70
1	6
1	71
1	70
1	71
1	70
1	38
1	70
1	6
1	39
1	40
1	70
1	70
1	70
1	70
1	70
1	70
1	38
1	36
1	5
1	4
1	70
1	6
1	70
1	70
1	70
1	70
1	6
1	6
2	37
2	37
2	37
2	38
2	71
2	37
2	4
2	37
2	3
2	37
2	37
2	37
2	37
2	37
2	3
2	37
2	37
2	37
2	37
2	37
2	37
2	71
2	37
2	4
2	37
2	38
2	37
2	37
2	37
2	37
2	4
2	37
2	4
2	37
2	37
2	37
2	37
3	4
3	4
3	5
3	4
3	5
4	5
5	6
5	6
35	36
69	70
