1	6124
1	32
1	31
1	31
1	31
1	31
1	31
1	9
1	5
1	31
1	31
1	31
1	32
1	31
1	31
1	6
1	5
1	31
1	31
1	31
1	31
1	31
1	31
1	32
1	31
1	31
1	6
1	31
1	7
2	4
2	32
2	33
2	4
2	32
2	4
2	7
2	3
2	7
2	3
2	4
2	4
2	4
2	4
2	7
3	5
4	5
5	6
5	6
30	31
