1	6124
1	34
1	34
1	39
1	34
1	33
1	9
1	8
1	34
1	33
1	8
1	9
1	33
1	5
1	34
1	33
1	13
1	7
1	7
1	34
1	33
1	33
1	33
1	7
1	9
1	33
1	33
1	33
1	33
1	5
1	33
1	33
1	5
1	8
1	33
1	8
1	33
1	34
1	6
1	33
1	10
1	8
1	34
2	4
2	6
2	5
2	3
2	3
2	3
2	3
2	10
2	4
2	10
2	3
2	3
2	3
2	4
2	3
2	3
2	3
3	5
3	7
3	4
4	5
4	5
4	5
5	6
7	8
8	9
32	33
