1	6124
1	43
1	10
1	11
1	42
1	41
1	7
1	40
1	43
1	11
1	5
1	40
1	10
1	5
1	40
1	40
1	40
1	40
1	40
1	8
1	40
1	40
1	6
1	40
1	42
1	9
1	40
1	40
1	40
1	41
1	40
1	9
1	40
1	6
1	40
1	40
1	4
1	40
1	41
1	11
1	5
1	9
1	40
1	5
2	3
2	3
2	7
2	3
2	41
2	4
2	3
2	8
2	4
2	3
2	4
3	4
3	6
3	4
3	6
3	4
3	4
3	5
3	4
4	5
4	5
4	6
4	5
4	7
4	5
6	7
7	8
8	9
39	40
