1	6124
1	6124
1	38
1	13
1	7
1	37
1	9
1	9
1	8
1	37
1	38
1	38
1	7
1	40
1	37
1	12
1	6
1	13
1	37
1	7
1	6
1	37
1	13
1	7
1	37
1	37
1	37
1	7
1	37
1	39
1	37
1	37
1	12
1	37
1	9
1	7
1	2
1	37
1	12
1	38
1	4
1	37
1	8
1	37
1	37
1	37
1	37
1	5
1	37
1	38
1	5
2	7
2	3
2	3
2	4
2	3
2	6
2	3
2	3
2	3
2	7
2	3
2	3
2	6
2	4
3	4
3	4
3	4
3	6
3	7
3	6
3	5
4	5
4	5
4	6
4	5
4	5
4	5
4	5
5	6
6	7
11	12
36	37
