1	6124
1	28
1	29
1	28
1	27
1	6124
1	5
1	27
1	6124
1	27
1	28
1	9
1	27
1	27
1	11
1	10
1	6124
1	27
1	2
1	8
1	3
1	6124
1	2
1	9
1	8
1	9
1	7
1	9
1	29
1	8
1	7
1	27
1	28
1	5
1	7
1	28
1	2
1	27
1	5
1	8
2	3
2	4
2	4
2	4
2	3
2	3
2	3
2	6
2	3
2	5
2	3
2	7
2	7
2	7
2	4
2	4
2	3
2	3
2	6
2	3
2	3
2	4
2	7
2	4
3	4
3	5
3	4
3	5
3	4
3	4
3	4
4	6
4	6
4	5
5	6
7	8
7	8
26	27
