1	230
1	45
1	44
1	43
1	43
1	43
1	44
1	43
1	43
1	43
1	43
1	43
1	43
1	43
1	43
1	43
1	43
1	43
2	44
2	44
2	44
2	44
2	44
2	44
2	44
2	44
2	44
2	44
2	44
2	4
2	44
2	44
2	44
2	44
2	44
2	44
2	44
2	44
2	6
2	44
2	44
2	44
2	44
2	44
2	44
2	44
2	44
3	4
3	45
3	6
3	45
3	5
3	6
4	5
42	43
42	43
