1	6124
1	33
1	32
1	6
1	31
1	6124
1	31
1	32
1	31
1	6124
1	31
1	32
1	7
1	31
1	32
1	32
1	31
1	7
1	3
1	4
1	32
1	6
1	6
1	5
1	31
1	32
1	31
1	31
1	32
1	5
1	31
1	31
1	33
1	31
1	31
1	5
1	4
1	8
1	32
1	32
1	2
1	31
1	5
2	6
2	3
2	3
2	3
2	5
2	6
2	3
2	6
2	3
2	4
2	6
2	4
2	3
2	6
2	4
2	3
2	3
2	3
3	4
3	5
3	6
3	4
3	5
3	4
3	4
3	4
4	5
4	5
4	5
5	6
30	31
