1	6124
1	29
1	29
1	30
1	29
1	29
1	29
1	30
1	29
1	29
1	30
1	30
1	29
1	30
1	31
1	29
1	29
1	31
1	29
1	5
1	30
1	29
1	29
1	30
1	29
1	29
1	6
1	30
1	4
1	29
1	4
2	5
2	3
2	3
2	3
2	5
2	3
2	3
2	3
2	3
2	3
3	5
3	4
3	4
3	4
3	4
28	29
