1	6124
1	46
1	46
1	47
1	14
1	11
1	46
1	47
1	46
1	46
1	46
1	14
1	46
1	46
1	46
1	12
1	17
1	46
1	11
1	5
1	46
1	46
1	9
1	7
1	46
1	13
1	8
1	11
1	7
1	7
1	46
1	10
1	46
1	46
1	5
1	46
1	12
1	46
1	10
1	46
1	46
1	9
1	46
1	7
1	46
1	12
1	7
1	6
1	12
1	46
1	46
1	46
1	7
1	46
1	6
1	46
1	12
1	11
1	46
1	12
1	4
1	7
1	5
1	46
1	12
1	46
1	46
1	8
1	6
1	10
1	46
1	8
1	10
1	6
1	46
2	3
2	9
2	3
2	6
2	13
2	6
2	9
2	4
2	4
2	3
2	8
2	7
2	3
2	4
2	3
2	5
2	7
2	6
3	4
3	5
3	4
3	4
3	6
3	5
3	6
3	6
3	5
3	5
4	5
4	5
4	5
4	5
5	6
5	7
5	6
6	7
7	8
9	10
10	11
11	12
45	46
