1	6124
1	26
1	11
1	27
1	25
1	30
1	25
1	25
1	11
1	9
1	8
1	9
1	7
1	8
1	6124
1	26
1	8
1	7
1	6
1	3
1	7
1	8
1	25
1	5
1	7
1	7
1	8
1	25
1	25
1	7
1	7
1	5
1	25
1	4
1	25
1	26
1	26
1	25
1	6
1	9
1	25
1	25
1	25
2	9
2	9
2	4
2	3
2	3
2	3
2	6
2	3
2	8
2	3
2	3
2	3
2	4
3	4
3	4
4	5
4	5
4	5
4	5
4	5
4	6
5	6
6	7
7	9
7	8
24	25
