1	230
1	16
1	47
1	46
1	46
1	50
1	46
1	46
1	46
1	48
1	46
1	46
1	7
1	230
1	46
1	46
1	6
1	46
1	47
1	6
1	46
1	11
1	46
1	7
1	46
1	46
1	46
1	11
1	46
1	46
1	6
1	8
1	46
1	46
1	46
1	6
1	12
1	46
1	47
1	3
1	10
1	5
1	8
1	47
1	46
1	47
1	10
1	11
1	46
1	10
1	46
1	7
1	46
1	46
1	47
1	46
1	12
1	47
1	47
1	5
1	46
2	3
2	5
2	3
2	3
2	9
2	3
2	4
2	4
2	3
2	4
2	4
2	4
2	3
2	3
2	5
2	3
2	4
2	4
2	3
2	3
2	4
2	3
2	3
2	3
2	4
2	4
2	3
2	3
3	4
3	4
3	4
3	4
3	5
4	6
4	5
4	5
5	6
7	8
9	10
45	46
