1	6124
1	86
1	85
1	85
1	85
1	85
1	86
1	23
1	85
1	85
1	14
1	85
1	85
1	85
1	85
1	85
1	22
1	85
1	23
1	15
1	22
1	22
1	86
1	85
1	85
1	85
1	22
1	14
1	85
1	13
1	22
1	85
1	85
1	15
1	85
1	22
1	10
1	85
1	9
1	85
1	85
1	13
1	22
1	85
1	85
1	85
1	85
1	85
1	85
1	85
1	8
1	85
1	9
1	85
1	85
1	85
1	13
1	8
1	22
1	22
1	86
1	6124
1	13
1	85
1	85
1	22
1	9
1	85
1	85
1	85
1	7
1	85
1	85
1	85
1	5
1	86
1	85
1	85
1	7
1	85
1	86
1	85
1	22
1	85
1	7
1	5
1	85
1	85
1	85
1	85
1	5
1	85
1	2
1	85
1	85
1	85
1	11
1	9
1	86
1	85
1	6
1	22
1	85
1	8
1	85
1	85
1	85
1	22
1	5
1	5
2	3
2	10
2	3
2	3
2	5
2	86
2	6
2	14
2	10
2	3
2	4
2	4
2	3
2	3
2	86
2	5
2	3
2	5
2	4
2	4
2	3
2	3
2	4
2	4
2	4
2	5
2	4
2	3
2	4
2	10
2	23
2	3
2	8
3	5
3	4
3	7
3	4
3	7
3	4
3	5
3	8
3	7
3	4
3	5
3	4
4	5
4	5
4	5
4	6
4	5
5	6
5	6
5	6
6	7
8	9
12	13
21	22
84	85
