1	6124
1	20
1	13
1	14
1	6124
1	11
1	57
1	6124
1	5
1	56
1	8
1	57
1	56
1	10
1	56
1	56
1	56
1	10
1	9
1	9
1	13
1	6
1	56
1	56
1	8
1	10
1	57
1	10
1	56
1	56
1	57
1	56
1	8
1	56
1	10
1	2
1	56
1	56
1	56
1	56
1	6
1	7
1	7
1	5
1	56
1	56
1	2
1	4
1	9
1	6
1	56
1	13
1	56
1	56
1	8
1	56
1	7
1	7
1	56
1	56
1	13
1	5
1	13
1	56
1	7
1	57
1	56
1	9
1	56
1	56
1	5
1	10
1	56
1	56
1	5
1	56
1	56
1	9
1	9
1	4
1	5
2	57
2	7
2	3
2	6
2	8
2	3
2	6
2	3
2	6
2	8
2	3
2	4
2	6
2	4
2	7
2	3
2	3
2	4
2	3
2	5
3	4
3	7
3	4
3	4
3	4
3	4
3	4
3	4
4	5
4	5
4	6
4	5
4	5
4	10
4	5
4	5
4	5
5	7
5	6
5	6
6	7
6	7
6	7
6	7
7	8
8	9
12	13
55	56
