1	6124
1	28
1	29
1	28
1	6124
1	27
1	27
1	5
1	27
1	27
1	27
1	28
1	29
1	27
1	27
1	27
1	4
1	28
1	27
1	28
1	27
1	5
1	27
1	27
1	27
1	27
1	3
1	27
2	3
2	3
2	6
2	3
2	28
2	3
2	4
2	4
2	4
2	3
2	3
3	4
3	4
4	5
26	27
