1	6124
1	25
1	11
1	64
1	9
1	63
1	24
1	20
1	63
1	11
1	63
1	26
1	7
1	9
1	24
1	25
1	24
1	24
1	10
1	9
1	63
1	20
1	63
1	64
1	6
1	8
1	12
1	63
1	64
1	63
1	63
1	12
1	7
1	24
1	64
1	63
1	25
1	17
1	24
1	63
1	8
1	10
1	25
1	64
1	10
1	63
1	63
1	24
1	63
1	19
1	63
1	64
1	6
1	25
1	19
1	14
1	8
1	9
1	4
1	63
1	8
1	25
1	25
1	24
1	63
1	63
1	64
1	9
1	24
1	12
1	7
1	24
1	6
1	8
1	7
1	7
1	8
1	12
1	63
1	25
1	12
1	19
1	25
1	27
1	24
1	63
1	63
1	10
1	66
1	25
1	5
1	24
1	64
1	7
1	25
1	63
1	63
1	63
1	19
1	9
1	10
1	63
1	25
1	9
1	25
1	25
1	5
1	5
1	5
1	8
1	5
1	10
1	63
1	63
1	7
1	63
1	25
1	63
1	6
1	24
1	64
1	63
1	12
1	7
1	25
1	20
1	24
1	7
1	6
2	20
2	3
2	3
2	9
2	3
2	3
2	6
2	6
2	4
2	20
2	3
2	7
2	3
2	20
2	3
2	3
2	11
2	3
2	7
2	7
2	8
2	3
2	4
2	4
2	4
2	6
2	5
2	7
2	3
2	4
2	3
2	25
2	3
2	4
2	3
2	27
2	4
2	6
2	5
2	4
2	4
2	3
2	4
2	3
2	9
2	6
2	6
3	7
3	6
3	9
3	5
3	5
3	5
3	7
3	9
3	5
3	5
3	4
3	7
3	4
3	6
3	5
3	5
3	4
3	6
3	6
3	4
3	6
4	5
4	5
4	6
4	6
4	5
4	5
4	6
4	5
5	6
5	6
5	6
5	6
5	6
5	6
6	8
6	7
6	7
6	7
7	8
7	8
7	8
7	8
8	9
11	12
18	19
23	24
24	25
62	63
