1	6124
1	13
1	11
1	65
1	64
1	16
1	64
1	15
1	15
1	11
1	11
1	64
1	10
1	64
1	8
1	15
1	64
1	11
1	64
1	64
1	64
1	9
1	64
1	9
1	9
1	64
1	8
1	64
1	65
1	64
1	15
1	64
1	6
1	10
1	12
1	16
1	64
1	10
1	64
1	64
1	14
1	14
1	10
1	12
1	64
1	15
1	15
1	11
1	11
1	64
1	64
1	8
1	14
1	64
1	64
1	12
1	10
1	64
1	13
1	7
1	8
1	12
1	64
1	12
1	64
1	64
1	64
1	7
1	15
1	5
1	9
1	15
1	11
1	12
1	6
1	64
1	9
1	7
1	15
1	64
1	15
1	64
1	8
1	64
1	10
1	15
1	6
1	65
1	15
1	64
1	64
1	7
2	6
2	6
2	3
2	9
2	3
2	4
2	16
2	6
2	6
2	6
2	7
2	3
2	5
2	3
2	16
2	65
2	4
2	16
2	7
2	9
2	8
2	3
2	10
2	4
2	4
2	4
2	4
2	4
2	5
2	3
2	4
2	7
2	9
2	3
3	6
3	4
3	5
3	6
3	5
3	5
3	4
3	10
3	4
3	5
3	5
3	4
3	5
3	8
4	5
4	5
4	5
4	7
4	5
5	6
5	6
5	7
5	8
5	6
5	6
5	6
6	7
6	7
6	7
6	8
7	8
7	8
7	8
9	10
11	12
11	12
14	15
14	15
63	64
