1	6124
1	6124
1	71
1	9
1	6124
1	13
1	70
1	70
1	70
1	11
1	11
1	70
1	13
1	70
1	9
1	70
1	70
1	13
1	11
1	70
1	13
1	70
1	71
1	70
1	70
1	70
1	70
1	13
1	70
1	8
1	7
1	70
1	70
1	70
1	12
1	70
1	2
1	70
1	6
1	70
1	7
1	70
1	70
1	70
1	70
1	12
1	70
1	11
1	70
1	71
1	70
1	70
1	12
1	6
1	70
1	70
1	70
1	10
1	71
1	2
1	5
1	9
1	70
1	12
1	70
1	13
1	70
1	9
1	70
1	70
1	7
1	70
1	70
1	70
1	12
1	71
1	70
1	70
1	71
1	70
1	70
1	70
2	3
2	71
2	3
2	9
2	9
2	3
2	3
2	71
2	3
2	6
2	3
2	5
2	4
2	12
2	4
2	3
2	3
2	4
2	8
2	4
2	3
2	6
3	4
3	4
3	4
3	5
3	8
3	6
3	4
3	5
4	8
4	5
4	5
4	5
4	5
5	6
6	9
6	7
7	8
10	11
11	12
69	70
