1	6124
1	41
1	41
1	40
1	41
1	40
1	40
1	40
1	40
1	40
1	40
1	40
1	40
1	40
1	40
1	40
1	40
1	40
1	40
1	40
1	40
1	40
1	40
1	40
1	40
1	40
1	40
1	41
1	40
1	40
1	40
1	40
1	40
1	40
1	40
1	40
1	40
2	3
2	6
2	3
2	3
3	5
3	4
39	40
