1	6124
1	10
1	6124
1	25
1	7
1	24
1	26
1	14
1	8
1	24
1	6124
1	24
1	9
1	7
1	25
1	6
1	8
1	10
1	4
1	24
1	2
1	24
1	7
1	6
1	24
1	8
1	9
1	2
1	9
1	24
1	8
1	6
1	7
1	5
1	8
1	5
1	12
1	24
1	7
1	8
1	6
2	5
2	3
2	7
2	3
2	3
2	7
2	3
2	26
2	4
2	5
2	10
3	4
3	4
3	4
3	4
3	5
3	5
3	4
3	4
3	4
4	5
4	5
4	7
4	5
4	5
5	6
5	6
5	7
6	7
8	9
23	24
