1	230
1	230
1	33
1	31
1	31
1	31
1	9
1	31
1	31
1	33
1	6
1	32
1	8
1	31
1	32
1	9
1	31
1	7
1	31
1	3
1	31
1	4
1	32
1	31
1	31
1	31
1	31
1	9
1	6
1	7
1	31
1	31
1	5
1	32
1	31
1	32
1	31
1	31
2	3
2	5
2	5
2	3
2	3
2	3
2	3
2	7
2	3
2	4
3	4
3	5
3	4
3	4
3	4
5	6
6	7
6	7
30	31
