1	6124
1	12
1	23
1	13
1	11
1	15
1	13
1	17
1	6124
1	64
1	22
1	20
1	12
1	8
1	13
1	14
1	63
1	9
1	63
1	10
1	12
1	63
1	13
1	20
1	20
1	14
1	11
1	11
1	12
1	11
1	63
1	8
1	63
1	64
1	18
1	19
1	10
1	11
1	63
1	63
1	64
1	63
1	19
1	11
1	63
1	23
1	11
1	5
1	6124
1	64
1	6124
1	7
1	2
1	14
1	63
1	63
1	14
1	63
1	12
1	63
1	19
1	10
1	8
1	8
1	6
1	63
1	22
1	7
1	16
1	6
1	16
1	13
1	11
1	6
1	24
1	22
1	11
1	63
1	16
1	9
1	63
1	6
1	6
1	63
1	10
1	63
1	2
1	6
1	2
1	14
1	63
1	63
1	8
1	6
1	63
1	10
1	63
1	6
1	63
1	7
1	7
1	22
1	63
1	4
1	8
1	19
1	8
1	10
1	63
1	7
1	6
1	63
1	63
1	63
1	6
2	5
2	9
2	3
2	64
2	3
2	5
2	4
2	9
2	5
2	23
2	4
2	4
2	3
2	11
2	3
2	5
2	5
2	9
2	6
2	4
2	9
2	10
2	17
2	4
2	4
2	6
2	7
2	5
2	3
2	7
2	9
2	6
2	3
2	7
2	4
2	11
2	3
2	4
2	3
2	5
2	7
2	4
2	5
2	4
2	3
2	6
2	11
2	6
2	11
3	5
3	9
3	4
3	4
3	4
3	11
3	4
3	6
3	4
3	4
3	5
3	5
3	5
3	4
3	4
3	6
3	6
3	5
3	9
3	4
3	6
3	10
3	4
3	4
3	9
3	6
4	5
4	8
4	5
4	5
4	7
4	7
4	5
4	5
4	5
4	6
5	6
5	6
5	6
5	6
5	6
5	6
6	7
6	7
6	7
6	10
7	8
7	9
7	8
7	8
8	9
9	10
9	11
9	10
9	10
12	14
13	14
15	16
18	19
21	22
62	63
