1	6124
1	56
1	57
1	15
1	14
1	14
1	56
1	57
1	14
1	12
1	56
1	56
1	12
1	11
1	14
1	56
1	56
1	11
1	56
1	11
1	56
1	56
1	56
1	7
1	56
1	10
1	13
1	9
1	56
1	11
1	56
1	56
1	10
1	56
1	6
1	10
1	56
1	56
1	12
1	8
1	12
1	7
1	10
1	8
1	11
1	56
1	7
1	6124
1	10
1	56
1	56
1	7
1	10
1	7
1	12
1	10
1	6
1	7
1	14
1	14
1	56
1	12
1	8
1	56
1	56
1	7
1	56
1	56
1	56
1	12
1	7
1	11
1	2
1	56
1	13
1	56
1	56
1	56
1	56
1	6
1	14
1	56
1	8
1	10
1	14
1	14
1	9
1	56
1	6
1	4
1	12
1	56
1	56
1	56
2	3
2	6
2	5
2	3
2	7
2	6
2	8
2	5
2	10
2	9
2	5
2	7
2	3
2	7
2	7
2	3
2	5
2	5
2	4
2	3
2	4
2	10
2	7
3	4
3	8
3	8
3	5
3	4
3	5
3	5
3	4
3	6
3	5
3	5
3	5
3	4
3	4
3	4
3	4
3	4
3	6
3	4
4	6
4	5
4	5
4	6
4	6
5	6
5	6
5	6
5	7
5	6
5	6
6	7
7	8
7	8
8	9
8	9
10	11
11	12
13	14
55	56
