1	6124
1	29
1	29
1	29
1	30
1	32
1	6124
1	29
1	10
1	29
1	9
1	7
1	29
1	29
1	29
1	29
1	6
1	29
1	29
1	8
1	29
1	6
1	5
1	29
1	4
1	8
1	29
1	6
1	6
1	2
1	29
1	29
1	30
1	5
1	6
1	29
1	5
1	5
2	6
2	3
2	6
2	7
2	3
2	5
2	30
2	4
2	3
2	5
2	5
2	4
2	3
2	6
2	3
3	4
3	5
3	5
3	4
3	5
3	5
4	5
4	5
4	5
4	5
4	5
4	5
6	8
28	29
