1	6124
1	34
1	33
1	33
1	34
1	7
1	5
1	34
1	33
1	7
1	33
1	33
1	34
1	6
1	33
1	6
1	35
1	33
1	7
1	7
1	33
1	33
1	9
1	34
1	5
1	33
1	34
1	33
2	7
2	5
2	6
2	6
2	6
2	6
2	3
2	4
2	3
2	3
2	7
2	4
2	6
2	7
2	3
2	3
2	3
2	4
2	4
2	4
3	6
3	5
3	5
3	4
3	6
3	5
3	5
4	5
4	5
4	5
4	5
4	5
4	5
5	6
32	33
