1	6124
1	19
1	21
1	20
1	10
1	17
1	18
1	19
1	11
1	16
1	10
1	12
1	8
1	16
1	8
1	10
1	16
1	19
1	19
1	11
1	11
1	8
1	12
1	10
1	6
1	8
1	19
1	11
1	5
1	7
1	5
1	19
1	7
1	19
1	19
1	6
1	4
1	19
1	19
1	6
2	7
2	3
2	5
2	7
2	5
2	4
2	6
2	7
2	8
2	7
2	5
2	6
2	4
2	3
2	3
2	6
2	7
2	5
2	6
2	6
2	5
2	4
2	3
2	4
2	4
3	4
3	4
3	6
3	4
3	5
3	4
3	5
3	4
3	5
3	4
4	5
4	5
4	5
4	5
4	5
4	5
5	7
5	6
5	7
5	7
6	7
9	10
9	10
14	15
18	19
