1	6124
1	39
1	14
1	40
1	38
1	38
1	7
1	39
1	39
1	38
1	38
1	38
1	38
1	38
1	38
1	4
1	38
1	38
1	38
1	39
1	8
1	6
1	12
1	38
1	38
1	38
1	12
1	39
1	7
1	8
1	8
1	7
1	6
1	38
1	7
1	5
1	10
1	38
1	38
1	8
1	6
1	7
1	6
1	38
1	8
2	11
2	39
2	3
2	3
2	3
2	5
2	4
2	11
2	5
2	5
2	3
2	4
2	4
2	3
2	5
2	6
2	11
2	3
2	5
2	3
3	4
3	4
3	6
3	5
3	5
3	5
3	5
3	4
3	5
3	4
3	5
3	4
4	5
4	5
4	7
4	5
5	6
5	6
5	6
9	10
37	38
