1	6124
1	37
1	36
1	37
1	37
1	36
1	39
1	36
1	36
1	6124
1	36
1	14
1	10
1	14
1	12
1	9
1	6124
1	36
1	36
1	14
1	8
1	9
1	36
1	6
1	12
1	11
1	7
1	6124
1	9
1	11
1	39
1	36
1	6
1	5
1	7
1	36
1	36
1	36
1	9
1	4
1	8
1	36
1	12
1	7
1	5
1	2
1	11
1	4
1	5
1	6
1	36
1	37
1	36
1	36
1	6
1	5
1	6
1	7
1	36
1	10
1	5
1	6
1	9
1	4
2	3
2	3
2	3
2	3
2	6
2	11
2	3
2	3
2	38
2	3
2	8
2	5
2	4
2	3
2	4
2	8
2	5
2	3
2	4
2	3
2	4
2	3
2	3
3	7
3	4
3	5
3	4
3	6
3	4
3	6
3	4
3	4
3	6
3	4
3	6
4	5
4	5
4	6
4	5
4	6
4	5
4	5
4	5
4	6
6	7
6	7
7	8
8	9
10	11
35	36
