1	6124
1	55
1	56
1	9
1	55
1	13
1	14
1	12
1	55
1	55
1	55
1	55
1	55
1	55
1	8
1	10
1	11
1	55
1	10
1	55
1	8
1	55
1	9
1	12
1	6124
1	13
1	55
1	55
1	57
1	8
1	55
1	13
1	55
1	55
1	8
1	55
1	55
1	9
1	6
1	55
1	55
1	2
1	55
1	55
1	55
1	55
1	12
1	8
1	7
1	55
1	55
1	6124
1	8
1	6
1	55
1	55
1	55
1	55
1	2
1	9
1	8
1	55
1	6
1	55
1	55
1	4
1	55
1	4
1	7
2	5
2	9
2	8
2	7
2	13
2	15
2	7
2	6
2	7
2	3
2	4
2	3
2	7
2	3
3	8
3	4
3	5
3	4
3	4
3	4
3	6
4	6
4	6
5	6
5	7
5	6
5	7
5	7
6	7
7	8
7	8
11	12
54	55
