1	6124
1	35
1	34
1	33
1	7
1	6
1	34
1	33
1	33
1	9
1	33
1	33
1	33
1	33
1	6
1	35
1	33
1	7
1	7
1	33
1	33
1	33
1	7
1	6
1	7
1	34
1	33
1	6
1	33
1	7
1	33
1	33
1	4
1	33
2	3
2	5
2	4
2	5
2	7
2	7
2	3
2	6
2	4
2	3
2	4
2	5
2	4
2	4
2	6
2	4
3	5
3	4
3	4
3	4
3	5
3	5
3	4
3	6
3	4
3	6
3	4
4	6
4	5
4	6
5	6
6	7
32	33
