1	6124
1	31
1	30
1	30
1	15
1	29
1	18
1	6124
1	6124
1	29
1	5
1	14
1	10
1	5
1	29
1	7
1	10
1	6124
1	29
1	10
1	14
1	29
1	30
1	29
1	7
1	29
1	11
1	30
1	2
1	8
1	14
1	29
1	8
1	6
1	14
1	2
1	7
1	5
1	16
1	29
1	7
1	6
1	6
1	29
2	6
2	7
2	6
2	3
2	4
2	3
2	4
2	10
2	6
2	3
2	9
2	3
2	3
2	8
2	6
2	3
2	3
2	3
2	3
2	4
2	15
3	4
3	4
3	6
3	5
3	9
3	5
3	5
3	5
4	7
4	5
4	5
4	5
4	5
4	5
5	6
6	8
6	7
6	7
8	9
13	14
28	29
