1	6124
1	6124
1	39
1	38
1	4
1	37
1	37
1	38
1	8
1	40
1	39
1	37
1	37
1	6
1	37
1	37
1	7
1	4
1	6
1	37
1	38
1	37
1	4
1	37
1	38
1	37
1	7
1	37
1	37
1	37
1	37
1	9
1	37
1	37
1	5
1	37
1	39
1	4
1	37
1	37
1	6
1	37
1	4
1	37
1	38
1	37
1	6
1	38
2	3
2	3
2	5
2	3
2	3
2	38
2	3
2	4
2	3
2	4
2	5
3	4
3	4
3	4
3	4
3	4
3	4
4	5
5	6
5	6
36	37
