1	6124
1	34
1	35
1	34
1	34
1	9
1	34
1	36
1	4
1	34
1	36
1	34
1	34
1	8
1	34
1	34
1	34
1	5
1	34
1	35
1	34
1	34
1	34
1	37
1	34
1	34
1	7
1	34
1	34
1	34
1	6
1	5
1	7
1	34
1	5
1	34
2	5
2	8
2	8
2	3
2	6
2	9
2	4
2	3
2	3
2	6
2	4
2	3
2	4
3	5
3	5
3	4
3	4
3	5
4	5
4	5
4	6
6	7
6	7
33	34
