1	6124
1	12
1	20
1	12
1	19
1	12
1	13
1	7
1	8
1	19
1	8
1	6
1	7
1	21
1	15
1	19
1	5
1	19
1	5
1	19
1	12
1	6
1	6124
1	6
1	12
1	4
1	2
1	7
1	19
1	4
1	19
1	6
1	20
1	5
2	6
2	4
2	5
2	7
2	3
2	6
2	3
2	5
2	3
3	7
3	4
3	4
3	7
3	5
3	6
3	5
3	6
4	5
4	5
4	5
4	5
4	5
4	5
5	6
11	12
18	19
