1	230
1	41
1	38
1	38
1	38
1	38
1	38
1	38
1	38
1	41
1	38
1	38
1	5
1	38
1	230
1	39
1	38
1	39
1	5
1	9
1	38
1	5
1	38
1	5
1	8
1	2
1	38
1	38
1	38
1	7
1	38
1	38
1	38
1	38
1	7
1	38
1	7
1	38
1	38
1	38
1	38
1	39
2	3
2	6
2	8
2	8
2	4
2	3
2	8
2	8
2	4
2	7
3	5
4	5
4	5
4	5
6	7
6	7
37	38
