13	230
14	230
14	230
15	230
15	230
15	230
16	230
16	230
17	230
17	230
18	230
18	230
19	230
19	230
21	230
33	230
33	230
33	230
33	230
34	230
34	230
34	230
34	230
34	230
34	230
35	230
36	230
37	230
39	230
39	230
40	230
