1	230
1	51
1	51
1	230
1	50
1	51
1	50
1	50
1	50
1	12
1	50
1	50
1	11
1	6
1	16
1	50
1	51
1	50
1	50
1	50
1	4
1	7
1	9
1	12
1	50
1	50
1	50
1	50
1	6
1	8
1	51
1	50
1	50
1	5
1	8
1	9
1	10
1	51
1	50
1	50
1	50
1	10
1	50
1	50
1	50
1	50
1	9
1	50
1	6
1	50
1	50
1	50
1	6
1	9
1	51
1	50
1	6
1	50
1	5
1	9
1	50
1	51
1	51
1	50
2	3
2	3
2	3
2	4
2	3
2	7
2	6
2	3
2	4
2	4
2	4
2	3
2	10
2	6
2	3
2	3
2	4
2	4
2	3
2	4
2	3
2	3
2	4
2	4
2	7
2	4
2	3
2	3
2	6
2	3
3	4
3	4
4	5
4	6
4	5
4	5
4	5
4	5
5	6
8	9
8	9
49	50
