1	230
1	32
1	32
1	32
1	31
1	230
1	32
1	31
1	4
1	230
1	2
1	31
1	31
1	10
1	31
1	31
1	31
1	31
1	31
1	31
1	31
1	8
1	10
1	31
1	31
1	31
1	230
1	34
1	8
1	31
1	31
1	31
1	6
1	2
1	2
1	5
1	31
1	31
1	5
2	5
2	3
2	6
2	9
2	4
2	4
2	3
2	4
3	4
3	4
3	4
3	5
3	4
3	6
4	5
7	8
30	31
