1	230
1	43
1	43
1	44
1	44
1	43
1	43
1	230
1	43
1	43
1	43
1	43
1	43
1	43
1	43
1	43
1	43
1	43
1	3
1	43
1	43
1	43
1	43
1	43
1	43
1	43
1	6
1	43
1	43
1	43
1	43
1	7
1	43
1	43
1	43
1	4
1	43
1	9
1	43
1	6
1	43
1	43
1	6
1	43
1	43
2	6
2	3
2	44
2	3
2	6
2	4
3	4
3	6
4	5
4	5
5	6
42	43
