1	230
1	33
1	9
1	11
1	33
1	33
1	13
1	32
1	14
1	14
1	13
1	33
1	34
1	32
1	9
1	9
1	11
1	5
1	11
1	32
1	32
1	14
1	32
1	4
1	5
1	7
1	13
1	32
1	4
1	32
1	32
1	5
1	34
1	11
1	6
1	6
1	9
1	11
1	11
1	10
1	8
1	10
1	32
1	13
1	13
1	9
1	7
1	9
1	32
1	32
1	4
1	5
1	10
1	32
1	32
1	32
1	11
2	5
2	8
2	5
2	4
2	7
2	3
2	4
2	4
2	7
2	4
2	3
2	3
2	3
2	6
2	5
2	6
2	5
2	10
3	8
3	4
3	4
3	6
3	4
3	5
3	5
3	5
3	4
3	4
4	6
4	5
4	9
4	5
5	6
5	6
5	6
5	6
6	7
7	10
8	9
9	10
10	11
12	13
31	32
