1	230
1	31
1	30
1	31
1	10
1	30
1	30
1	30
1	10
1	30
1	9
1	8
1	9
1	30
1	30
1	30
1	30
1	31
1	9
1	8
1	30
1	30
1	30
1	31
1	7
1	30
1	30
1	30
1	30
1	7
1	31
2	5
2	3
2	5
2	3
2	5
2	3
2	8
2	3
2	7
2	4
2	7
3	5
3	4
3	4
3	5
3	4
4	5
4	6
4	7
5	6
6	7
8	9
29	30
