1	230
1	29
1	24
1	10
1	24
1	25
1	9
1	24
1	25
1	4
1	24
1	24
1	24
1	24
1	5
1	7
1	24
1	24
1	24
1	7
1	8
1	8
1	24
1	24
1	24
1	8
1	6
1	6
1	24
1	8
1	24
2	9
2	25
2	3
2	5
2	5
2	3
2	4
2	4
3	5
3	4
3	4
4	5
6	7
7	8
23	24
