1	230
1	46
1	49
1	4
1	46
1	7
1	46
1	48
1	50
1	46
1	46
1	46
1	49
1	46
1	46
1	46
1	46
1	6
1	46
1	46
1	46
1	46
1	46
1	46
1	47
1	7
1	46
1	46
1	47
1	46
1	46
1	46
1	6
1	5
1	6
1	46
1	46
1	47
1	5
1	46
1	46
1	5
1	46
1	46
1	47
1	46
2	3
2	47
2	6
2	4
2	5
2	3
2	4
2	4
2	3
2	5
2	47
2	4
2	4
2	3
2	3
2	3
3	4
3	4
3	5
3	5
3	4
3	5
4	5
4	5
5	6
45	46
