1	230
1	63
1	64
1	63
1	230
1	12
1	230
1	63
1	5
1	63
1	63
1	63
1	63
1	9
1	63
1	8
1	8
1	63
1	63
1	7
1	63
1	63
1	8
1	63
1	63
1	63
1	63
1	63
1	63
1	63
1	63
1	63
1	8
1	63
1	63
1	8
1	63
1	63
1	2
1	63
1	64
1	2
1	63
1	63
1	7
1	63
1	63
1	63
1	63
1	63
1	64
1	63
1	63
1	11
1	63
1	63
1	63
1	63
1	63
1	63
1	63
1	6
1	63
1	63
1	63
1	6
1	63
1	63
1	64
2	8
2	7
2	3
2	7
2	3
2	4
2	10
2	3
2	4
2	3
2	5
2	4
2	10
2	6
2	10
2	3
3	4
3	7
3	5
4	5
4	6
4	5
4	6
4	5
5	6
5	6
6	7
8	9
62	63
