1	230
1	30
1	29
1	29
1	29
1	30
1	29
1	29
1	29
1	30
1	9
1	30
1	29
1	8
1	29
1	11
1	30
1	230
1	29
1	8
1	6
1	7
1	29
1	29
1	29
1	7
1	29
1	29
1	2
1	29
1	30
1	29
1	29
1	5
2	3
2	3
2	9
2	3
2	6
2	4
2	7
2	3
2	4
2	4
2	4
2	7
2	4
2	4
2	3
2	4
4	5
5	6
6	7
7	8
28	29
