11	230
11	230
11	230
11	230
12	230
12	230
12	230
12	230
13	230
13	230
13	230
13	230
13	230
14	230
14	230
14	230
15	230
15	230
15	230
16	230
17	230
17	230
18	230
18	230
19	230
20	230
21	230
55	230
55	230
55	230
55	230
55	230
55	230
55	230
55	230
56	230
56	230
56	230
56	230
56	230
56	230
57	230
57	230
59	230
59	230
60	230
60	230
61	230
