1	230
1	31
1	31
1	32
1	13
1	31
1	12
1	11
1	12
1	31
1	31
1	31
1	31
1	12
1	31
1	4
1	31
1	31
1	6
1	11
1	31
1	31
1	5
1	12
1	31
1	31
1	32
1	11
2	11
2	3
2	3
2	32
2	6
2	9
2	7
2	11
2	9
2	11
2	4
2	4
2	11
2	4
2	4
2	4
2	4
3	5
3	4
3	4
3	4
4	7
4	5
4	5
5	6
7	9
9	10
9	10
30	31
