1	230
1	13
1	85
1	84
1	84
1	84
1	12
1	18
1	84
1	84
1	84
1	84
1	84
1	84
1	84
1	10
1	13
1	84
1	84
1	84
1	84
1	84
1	84
1	84
1	84
1	84
1	12
1	12
1	84
1	84
1	84
1	84
1	8
1	84
1	84
1	84
1	84
1	10
1	230
1	5
1	85
1	84
1	84
1	14
1	85
1	84
1	84
1	7
1	84
1	12
1	84
1	5
1	12
1	11
1	6
1	84
1	6
1	84
1	6
1	84
1	84
1	84
1	13
1	84
1	84
1	10
1	11
1	6
1	84
1	6
1	84
1	84
1	5
1	84
1	84
1	84
1	84
1	12
1	84
1	84
1	84
1	84
1	84
1	84
1	84
1	84
1	84
1	84
1	84
1	3
1	12
1	12
1	84
1	84
1	11
1	84
1	84
1	84
1	84
1	6
1	84
1	84
1	84
2	4
2	3
2	3
2	3
2	5
2	3
2	4
2	3
2	7
2	5
2	5
2	3
2	3
2	6
2	5
3	4
3	4
3	4
3	4
3	5
3	4
3	4
3	4
3	4
3	5
3	4
3	4
4	5
4	6
5	6
5	6
9	10
9	10
10	11
83	84
