1	230
1	38
1	7
1	38
1	36
1	36
1	36
1	37
1	37
1	7
1	36
1	36
1	36
1	6
1	7
1	4
1	36
1	7
1	36
1	36
1	36
1	36
1	37
1	36
1	36
1	36
1	6
1	7
1	36
1	36
1	36
1	36
2	5
2	3
2	6
2	6
2	5
2	8
2	3
2	7
2	4
2	3
3	5
3	4
3	4
3	5
3	4
3	6
3	6
3	4
4	5
4	5
4	5
4	6
5	6
35	36
