1	230
1	86
1	81
1	80
1	81
1	80
1	9
1	80
1	14
1	80
1	80
1	80
1	9
1	80
1	80
1	13
1	80
1	14
1	8
1	80
1	80
1	80
1	81
1	83
1	80
1	80
1	80
1	80
1	8
1	7
1	80
1	12
1	80
1	80
1	80
1	8
1	80
1	80
1	80
1	8
1	80
1	80
1	9
1	80
1	80
1	80
1	9
1	8
1	80
1	12
1	6
1	80
1	80
1	80
1	80
1	80
1	80
1	80
1	80
1	7
1	80
1	80
1	80
1	80
1	9
1	80
1	80
1	80
1	80
1	80
1	80
1	80
1	7
1	80
1	80
1	13
1	80
1	12
1	8
1	80
1	80
1	80
1	80
1	80
1	80
1	7
1	5
1	80
1	80
1	7
1	80
1	80
1	80
1	80
1	4
1	80
1	8
1	7
1	80
1	12
1	80
2	9
2	3
2	5
2	3
2	81
2	3
2	3
2	5
2	8
2	5
2	3
2	3
2	5
2	5
2	3
2	4
2	7
2	4
2	3
2	3
2	6
3	5
3	5
3	4
3	4
3	4
3	4
4	6
4	5
5	7
6	7
6	7
7	8
7	8
11	12
79	80
