1	230
1	16
1	20
1	17
1	18
1	16
1	16
1	18
1	230
1	16
1	18
1	16
1	16
1	16
1	17
1	16
1	18
1	16
1	16
1	16
1	16
1	17
1	16
1	16
1	4
1	6
1	16
1	4
1	4
1	16
1	2
1	16
1	16
2	5
2	3
2	7
2	3
2	4
2	4
3	4
3	4
3	4
3	4
5	6
15	16
15	16
