1	230
1	230
1	34
1	34
1	33
1	33
1	10
1	9
1	33
1	33
1	33
1	33
1	33
1	33
1	2
1	33
1	33
1	8
1	33
1	33
1	33
1	6
1	33
1	33
1	33
1	33
1	33
1	6
1	34
1	33
1	6
1	33
2	8
2	8
2	3
2	5
2	8
2	7
2	4
2	7
2	8
2	4
2	7
2	4
3	5
3	4
3	4
5	6
5	6
5	7
6	7
32	33
