1	230
1	21
1	22
1	23
1	22
1	22
1	22
1	21
1	21
1	22
1	22
1	24
1	25
1	230
1	7
1	21
1	21
1	4
1	22
1	21
1	21
1	7
1	5
1	3
1	21
1	6
1	21
2	4
2	3
2	5
2	6
2	3
2	3
2	3
2	3
2	4
2	4
2	3
2	3
2	3
2	3
2	3
3	4
3	4
4	5
5	6
20	21
