1	230
1	21
1	20
1	11
1	9
1	11
1	6
1	20
1	10
1	10
1	8
1	230
1	230
1	8
1	8
1	8
1	19
1	7
1	20
1	19
1	6
1	19
1	10
1	19
1	10
1	6
1	11
1	8
1	3
1	8
1	7
1	20
1	2
1	10
1	19
1	6
1	4
1	8
1	6
2	3
2	6
2	5
2	4
2	8
2	4
2	11
2	4
2	3
2	3
2	3
2	7
2	4
2	4
2	3
2	7
2	4
2	3
2	7
2	3
3	4
3	4
3	4
3	4
3	5
3	4
4	5
4	5
5	6
5	6
5	6
5	7
6	7
6	7
9	10
18	19
