1	230
1	44
1	44
1	11
1	44
1	11
1	11
1	43
1	11
1	10
1	9
1	11
1	43
1	6
1	230
1	8
1	10
1	45
1	6
1	44
1	43
1	8
1	8
1	43
1	43
1	7
1	4
1	5
1	43
1	43
1	43
1	12
1	10
1	6
1	43
1	43
1	10
1	9
1	10
1	6
1	6
1	6
1	4
1	43
1	5
1	9
1	43
1	43
1	44
1	43
1	7
1	4
1	44
1	7
1	6
1	8
1	9
1	6
1	5
1	43
2	5
2	3
2	3
2	3
2	9
2	3
2	3
2	4
2	5
2	3
2	3
2	4
2	7
2	3
2	3
2	6
2	7
2	3
2	3
2	5
2	9
2	6
2	3
2	10
2	4
2	4
3	4
3	8
3	4
3	5
3	6
3	4
3	5
3	4
3	4
3	4
3	4
4	5
4	5
4	5
4	5
4	7
5	6
5	7
5	6
5	6
5	6
5	6
6	7
7	8
7	8
7	8
8	9
42	43
