1	230
1	34
1	32
1	32
1	17
1	11
1	31
1	11
1	11
1	33
1	33
1	31
1	11
1	7
1	31
1	8
1	13
1	31
1	4
1	6
1	32
1	31
1	8
1	31
1	31
1	8
1	6
1	31
1	31
1	4
1	31
1	8
1	8
1	6
1	31
1	32
1	5
1	11
1	31
1	5
1	31
1	11
1	7
1	31
1	31
1	11
1	230
1	31
1	31
1	8
1	31
1	5
1	3
1	31
2	3
2	3
2	3
2	5
2	3
2	3
2	3
2	4
2	5
3	4
3	4
3	4
3	4
3	4
3	4
4	5
4	5
4	5
5	6
7	8
10	11
30	31
