# persistence landscape
# X Y
"layer 0:"
-inf 0
0.135891 0
0.142019 0.00612815
0.148148 0
0.157493 0
0.172839 0.0153462
0.187026 0.00115865
0.208881 0.0230134
0.208916 0.0229781
0.318271 0.132332
0.32261 0.127993
0.343773 0.149156
0.492929 0
inf 0


"layer 1:"
-inf 0
0.144196 0
0.144631 0.000435146
0.145066 0
0.161603 0
0.164413 0.00281002
0.166893 0.000330465
0.172701 0.00613903
0.17884 0
0.185868 0
0.187026 0.00115865
0.187062 0.00112329
0.208916 0.0229781
0.213256 0.0186386
0.32261 0.127993
0.450603 0
inf 0


"layer 2:"
-inf 0
0.166562 0
0.166893 0.000330465
0.167223 0
0.185938 0
0.187062 0.00112329
0.188185 0
0.190169 0
0.191058 0.0008892
0.191948 0
0.194617 0
0.213256 0.0186386
0.215852 0.0160426
0.219597 0.019788
0.223756 0.0156291
0.307249 0.0991216
0.40637 0
0.432017 0
0.434312 0.00229586
0.436608 0
inf 0


"layer 3:"
-inf 0
0.197707 0
0.204125 0.00641782
0.205176 0.00536666
0.215852 0.0160426
0.218552 0.0133423
0.221252 0.0160422
0.222711 0.0145836
0.223756 0.0156291
0.226224 0.0131611
0.265529 0.0524654
0.266835 0.0511588
0.299252 0.0835761
0.306773 0.0760552
0.312304 0.0815857
0.393889 0
inf 0


"layer 4:"
-inf 0
0.199809 0
0.205176 0.00536666
0.206128 0.00441453
0.214486 0.0127723
0.216234 0.011024
0.218552 0.0133423
0.220011 0.0118837
0.222711 0.0145836
0.225179 0.0121156
0.226224 0.0131611
0.227531 0.0118544
0.266835 0.0511588
0.268315 0.0496792
0.273854 0.055218
0.275342 0.05373
0.276307 0.0546956
0.28086 0.0501423
0.306773 0.0760552
0.361548 0.0212801
0.365286 0.0250181
0.390305 0
inf 0


"layer 5:"
-inf 0
0.19992 0
0.203103 0.00318292
0.204 0.00228635
0.206128 0.00441453
0.207876 0.00266629
0.216234 0.011024
0.217692 0.00956547
0.220011 0.0118837
0.222479 0.00941567
0.225179 0.0121156
0.226485 0.010809
0.227531 0.0118544
0.227837 0.0115479
0.25341 0.0371206
0.254583 0.0359475
0.268315 0.0496792
0.269803 0.0481912
0.275342 0.05373
0.279895 0.0491767
0.28086 0.0501423
0.300809 0.0301935
0.325389 0.0547733
0.360215 0.019947
0.361548 0.0212801
0.382829 0
inf 0


"layer 6:"
-inf 0
0.201713 0
0.204 0.00228635
0.205748 0.000538112
0.207876 0.00266629
0.209335 0.00120775
0.217692 0.00956547
0.220161 0.00709743
0.222479 0.00941567
0.223785 0.00810905
0.226485 0.010809
0.226792 0.0105024
0.227837 0.0115479
0.227856 0.0115291
0.243789 0.0274622
0.244943 0.0263078
0.254583 0.0359475
0.256071 0.0344596
0.269803 0.0481912
0.274356 0.0436379
0.279895 0.0491767
0.299844 0.0292279
0.300809 0.0301935
0.30456 0.0264424
0.307191 0.029073
0.315663 0.0206006
0.322921 0.0278578
0.328035 0.022743
0.335739 0.0304471
0.353227 0.0129591
0.360215 0.019947
0.380162 0
inf 0


"layer 7:"
-inf 0
0.20521 0
0.205748 0.000538112
0.206286 0
0.208127 0
0.209335 0.00120775
0.210543 0
0.213063 0
0.220161 0.00709743
0.221467 0.0057908
0.223785 0.00810905
0.224092 0.0078025
0.226792 0.0105024
0.226811 0.0104837
0.227856 0.0115291
0.22901 0.0103748
0.244943 0.0263078
0.246431 0.0248199
0.256071 0.0344596
0.256752 0.0337786
0.260155 0.0371819
0.264028 0.0333096
0.274356 0.0436379
0.278665 0.0393292
0.283769 0.0444335
0.295218 0.0329847
0.295549 0.0333158
0.29974 0.0291245
0.299844 0.0292279
0.303595 0.0254768
0.30456 0.0264424
0.313033 0.01797
0.315663 0.0206006
0.320778 0.0154858
0.328035 0.022743
0.345523 0.00525501
0.353227 0.0129591
0.366187 0
0.366361 0
0.37301 0.0066485
0.379658 0
inf 0


"layer 8:"
-inf 0
0.215676 0
0.221467 0.0057908
0.221774 0.00548426
0.224092 0.0078025
0.224111 0.00778376
0.226811 0.0104837
0.227965 0.00932932
0.22901 0.0103748
0.22973 0.00965494
0.230048 0.00997272
0.230816 0.00920463
0.246431 0.0248199
0.247112 0.0241389
0.256752 0.0337786
0.260624 0.0299063
0.264028 0.0333096
0.268049 0.0292878
0.273078 0.0343165
0.273365 0.0340296
0.278665 0.0393292
0.290114 0.0278804
0.295218 0.0329847
0.299409 0.0287934
0.29974 0.0291245
0.303491 0.0253734
0.303595 0.0254768
0.312067 0.0170044
0.313033 0.01797
0.318148 0.0128552
0.320778 0.0154858
0.336264 0
0.340268 0
0.345523 0.00525501
0.347794 0.00298416
0.349697 0.00488668
0.354583 0
inf 0


"layer 9:"
-inf 0
0.216289 0
0.221774 0.00548426
0.221792 0.00546551
0.224111 0.00778376
0.225265 0.00662941
0.227965 0.00932932
0.228685 0.00860946
0.22973 0.00965494
0.230498 0.00888685
0.230816 0.00920463
0.231497 0.00852366
0.247112 0.0241389
0.247123 0.0241279
0.254375 0.0313795
0.258236 0.0275182
0.260624 0.0299063
0.264646 0.0258845
0.268049 0.0292878
0.268336 0.0290009
0.273365 0.0340296
0.279642 0.0277529
0.280516 0.0286269
0.285688 0.0234549
0.290114 0.0278804
0.294305 0.0236891
0.299409 0.0287934
0.30316 0.0250424
0.303491 0.0253734
0.311964 0.016901
0.312067 0.0170044
0.317182 0.0118896
0.318148 0.0128552
0.331003 0
0.340877 0
0.342547 0.00166937
0.344216 0
0.34481 0
0.347794 0.00298416
0.350778 0
inf 0


"layer 10:"
-inf 0
0.216327 0
0.221792 0.00546551
0.222947 0.00431117
0.225265 0.00662941
0.225985 0.00590955
0.228685 0.00860946
0.229453 0.00784137
0.230498 0.00888685
0.231179 0.00820588
0.231497 0.00852366
0.231508 0.0085126
0.247123 0.0241279
0.250985 0.0202666
0.258236 0.0275182
0.262258 0.0234964
0.264646 0.0258845
0.264933 0.0255976
0.268336 0.0290009
0.274613 0.0227241
0.279642 0.0277529
0.281087 0.0263076
0.28139 0.0266101
0.285116 0.0228833
0.285688 0.0234549
0.289879 0.0192636
0.294305 0.0236891
0.298056 0.019938
0.30316 0.0250424
0.311633 0.0165699
0.311964 0.016901
0.317079 0.0117862
0.317182 0.0118896
0.329072 0
inf 0


"layer 11:"
-inf 0
0.218636 0
0.222947 0.00431117
0.223667 0.00359131
0.225985 0.00590955
0.226753 0.00514146
0.229453 0.00784137
0.230134 0.0071604
0.231179 0.00820588
0.23119 0.00819482
0.231508 0.0085126
0.234295 0.00572549
0.236859 0.00828933
0.237933 0.00721516
0.250985 0.0202666
0.255006 0.0162448
0.262258 0.0234964
0.262545 0.0232095
0.264933 0.0255976
0.27121 0.0193208
0.274613 0.0227241
0.274727 0.0226106
0.279532 0.0274161
0.280864 0.0260845
0.281087 0.0263076
0.284814 0.0225808
0.285116 0.0228833
0.289308 0.018692
0.289879 0.0192636
0.29363 0.0155125
0.298056 0.019938
0.299258 0.0187354
0.301765 0.0212424
0.309035 0.0139725
0.311633 0.0165699
0.316747 0.0114551
0.317079 0.0117862
0.328865 0
inf 0


"layer 12:"
-inf 0
0.220075 0
0.223667 0.00359131
0.224435 0.00282322
0.226753 0.00514146
0.227434 0.0044605
0.230134 0.0071604
0.230145 0.00714934
0.23119 0.00819482
0.233978 0.00540771
0.234295 0.00572549
0.235369 0.00465133
0.237933 0.00721516
0.239073 0.00607544
0.239191 0.00619375
0.242073 0.0033117
0.255006 0.0162448
0.255293 0.0159579
0.262545 0.0232095
0.268822 0.0169328
0.27121 0.0193208
0.271323 0.0192073
0.274727 0.0226106
0.276058 0.0212789
0.280864 0.0260845
0.284591 0.0223576
0.284814 0.0225808
0.289005 0.0183895
0.289308 0.018692
0.293059 0.0149409
0.29363 0.0155125
0.294833 0.0143099
0.299258 0.0187354
0.306528 0.0114656
0.309035 0.0139725
0.31415 0.00885775
0.316747 0.0114551
0.328203 0
inf 0


"layer 13:"
-inf 0
0.221612 0
0.224435 0.00282322
0.225116 0.00214225
0.227434 0.0044605
0.227445 0.00444944
0.230145 0.00714934
0.232932 0.00436223
0.233978 0.00540771
0.235052 0.00433354
0.235369 0.00465133
0.236509 0.0035116
0.239073 0.00607544
0.241955 0.0031934
0.242073 0.0033117
0.24236 0.00302479
0.255293 0.0159579
0.260057 0.0111942
0.262675 0.0138118
0.264188 0.0122987
0.268822 0.0169328
0.268935 0.0168192
0.271323 0.0192073
0.272655 0.0178756
0.276058 0.0212789
0.279785 0.0175521
0.284591 0.0223576
0.288782 0.0181663
0.289005 0.0183895
0.292756 0.0146384
0.293059 0.0149409
0.294261 0.0137384
0.294833 0.0143099
0.302103 0.00704004
0.306528 0.0114656
0.311643 0.00635078
0.31415 0.00885775
0.323008 0
inf 0


"layer 14:"
-inf 0
0.222973 0
0.225116 0.00214225
0.225127 0.00213119
0.227445 0.00444944
0.230232 0.00166232
0.232932 0.00436223
0.234006 0.00328806
0.235052 0.00433354
0.236191 0.00319382
0.236509 0.0035116
0.239391 0.00062956
0.241955 0.0031934
0.242242 0.00290648
0.24236 0.00302479
0.245385 0
0.248251 0
0.257509 0.00925817
0.257815 0.00895229
0.260057 0.0111942
0.26157 0.00968112
0.264188 0.0122987
0.264301 0.0121851
0.268935 0.0168192
0.270267 0.0154875
0.272655 0.0178756
0.276382 0.0141487
0.279785 0.0175521
0.283977 0.0133608
0.288782 0.0181663
0.292533 0.0144153
0.292756 0.0146384
0.293959 0.0134359
0.294261 0.0137384
0.301531 0.00646848
0.302103 0.00704004
0.307218 0.00192525
0.311643 0.00635078
0.317994 0
inf 0


"layer 15:"
-inf 0
0.222996 0
0.225127 0.00213119
0.227258 0
0.22857 0
0.230232 0.00166232
0.231306 0.00058816
0.234006 0.00328806
0.235146 0.00214834
0.236191 0.00319382
0.239073 0.000311779
0.239391 0.00062956
0.239678 0.000342644
0.242242 0.00290648
0.245148 0
0.248863 0
0.257815 0.00895229
0.259328 0.00743919
0.26157 0.00968112
0.261684 0.00956757
0.264301 0.0121851
0.265633 0.0108535
0.270267 0.0154875
0.273994 0.0117607
0.276382 0.0141487
0.276501 0.0140292
0.278826 0.0163538
0.282898 0.012282
0.283977 0.0133608
0.287728 0.00960972
0.292533 0.0144153
0.293736 0.0132127
0.293959 0.0134359
0.301229 0.00616598
0.301531 0.00646848
0.306646 0.00135368
0.307218 0.00192525
0.309143 0
inf 0


"layer 16:"
-inf 0
0.230718 0
0.231306 0.00058816
0.231894 0
0.232998 0
0.235146 0.00214834
0.237294 0
0.238762 0
0.239073 0.000311779
0.23936 2.48628e-05
0.239678 0.000342644
0.240021 0
0.251889 0
0.259328 0.00743919
0.259442 0.00732564
0.261684 0.00956757
0.263015 0.00823592
0.265633 0.0108535
0.26587 0.0106162
0.268003 0.0127491
0.26857 0.0121826
0.269697 0.0133102
0.27262 0.0103871
0.273994 0.0117607
0.274113 0.0116412
0.276501 0.0140292
0.280573 0.00995748
0.282898 0.012282
0.286649 0.00853095
0.287728 0.00960972
0.28893 0.00840714
0.293736 0.0132127
0.301006 0.0059428
0.301229 0.00616598
0.306344 0.00105118
0.306646 0.00135368
0.308 0
inf 0


"layer 17:"
-inf 0
0.239335 0
0.23936 2.48628e-05
0.239385 0
0.252116 0
0.259442 0.00732564
0.260306 0.00646117
0.261955 0.00811011
0.262422 0.00764292
0.263015 0.00823592
0.263253 0.00799865
0.26587 0.0106162
0.266437 0.0100497
0.26857 0.0121826
0.271493 0.00925955
0.27262 0.0103871
0.27274 0.0102676
0.274113 0.0116412
0.278185 0.00756942
0.280573 0.00995748
0.284324 0.00620639
0.286649 0.00853095
0.287851 0.00732837
0.28893 0.00840714
0.2962 0.00113726
0.301006 0.0059428
0.30612 0.000828002
0.306344 0.00105118
0.307094 0.000300352
0.307098 0.000304004
0.307402 0
inf 0


"layer 18:"
-inf 0
0.253116 0
0.257729 0.00461253
0.258093 0.00424816
0.260306 0.00646117
0.260773 0.00599398
0.262422 0.00764292
0.26266 0.00740565
0.263253 0.00799865
0.263819 0.00743211
0.266437 0.0100497
0.26936 0.0071266
0.271493 0.00925955
0.271612 0.00914004
0.27274 0.0102676
0.276812 0.00619588
0.278185 0.00756942
0.281936 0.00381834
0.284324 0.00620639
0.285527 0.00500381
0.287851 0.00732837
0.295121 5.84951e-05
0.2962 0.00113726
0.297337 0
0.305292 0
0.30612 0.000828002
0.306871 7.71725e-05
0.307094 0.000300352
0.307395 0
inf 0


"layer 19:"
-inf 0
0.253845 0
0.258093 0.00424816
0.25856 0.00378098
0.260773 0.00599398
0.261011 0.00575671
0.26266 0.00740565
0.263226 0.00683911
0.263819 0.00743211
0.266742 0.00450906
0.26936 0.0071266
0.269479 0.0070071
0.271612 0.00914004
0.275684 0.00506828
0.276812 0.00619588
0.280563 0.00244479
0.281936 0.00381834
0.283139 0.00261575
0.285527 0.00500381
0.290531 0
0.295063 0
0.295121 5.84951e-05
0.29518 0
0.306794 0
0.306871 7.71725e-05
0.306948 0
inf 0


"layer 20:"
-inf 0
0.254779 0
0.25856 0.00378098
0.258798 0.00354371
0.261011 0.00575671
0.261577 0.00519017
0.263226 0.00683911
0.266149 0.00391606
0.266742 0.00450906
0.266862 0.00438955
0.269479 0.0070071
0.273551 0.00293533
0.275684 0.00506828
0.279435 0.00131719
0.280563 0.00244479
0.281765 0.00124221
0.283139 0.00261575
0.284087 0.00166724
0.285494 0.0030735
0.288567 0
inf 0


"layer 21:"
-inf 0
0.255254 0
0.258798 0.00354371
0.259364 0.00297717
0.261577 0.00519017
0.2645 0.00226712
0.266149 0.00391606
0.266269 0.00379656
0.266862 0.00438955
0.270933 0.000317788
0.273551 0.00293533
0.276486 0
0.278118 0
0.279435 0.00131719
0.280638 0.000114612
0.281765 0.00124221
0.282714 0.000293693
0.284087 0.00166724
0.285755 0
inf 0


"layer 22:"
-inf 0
0.256387 0
0.259364 0.00297717
0.262287 5.41178e-05
0.2645 0.00226712
0.26462 0.00214761
0.266269 0.00379656
0.270065 0
0.270616 0
0.270933 0.000317788
0.271251 0
0.280523 0
0.280638 0.000114612
0.280752 0
0.28242 0
0.282714 0.000293693
0.283007 0
inf 0


"layer 23:"
-inf 0
0.262233 0
0.262287 5.41178e-05
0.262341 0
0.262472 0
0.26462 0.00214761
0.266767 0
0.267131 0
0.267885 0.000754129
0.268639 0
inf 0


