# persistence landscape
# X Y
"layer 0:"
-inf 0
0.0583447 0
0.0625921 0.00424741
0.0668395 0
0.154069 0
0.155671 0.0016018
0.156293 0.000979416
0.169578 0.0142647
0.173283 0.0105597
0.173779 0.0110555
0.184835 0
0.189463 0
0.213268 0.0238045
0.225193 0.0118794
0.330648 0.117334
0.338679 0.109303
0.350089 0.120713
0.470802 0
inf 0


"layer 1:"
-inf 0
0.155314 0
0.156293 0.000979416
0.157224 4.88023e-05
0.166142 0.00896686
0.168916 0.00619245
0.173283 0.0105597
0.183843 0
0.195859 0
0.205801 0.00994178
0.20614 0.00960291
0.212063 0.0155261
0.220451 0.00713778
0.225193 0.0118794
0.228473 0.00859959
0.231415 0.0115412
0.233812 0.00914424
0.257209 0.0325421
0.259564 0.0301879
0.338679 0.109303
0.352844 0.0951384
0.357584 0.099878
0.457462 0
inf 0


"layer 2:"
-inf 0
0.157175 0
0.157224 4.88023e-05
0.157272 0
0.162724 0
0.168916 0.00619245
0.175108 0
0.196537 0
0.20614 0.00960291
0.213314 0.00242838
0.213366 0.00247987
0.21458 0.00126609
0.220451 0.00713778
0.222588 0.00500135
0.223501 0.00591469
0.224645 0.0047713
0.228473 0.00859959
0.23087 0.00620258
0.233812 0.00914424
0.234778 0.008178
0.242689 0.0160897
0.244077 0.0147017
0.259564 0.0301879
0.261696 0.0280557
0.280995 0.047355
0.284647 0.0437032
0.289419 0.0484749
0.291686 0.0462075
0.332825 0.0873466
0.338939 0.0812328
0.352844 0.0951384
0.447983 0
inf 0


"layer 3:"
-inf 0
0.163362 0
0.168347 0.00498418
0.173331 0
0.210886 0
0.213314 0.00242838
0.214528 0.0012146
0.21458 0.00126609
0.215846 0
0.217587 0
0.222588 0.00500135
0.223731 0.00385796
0.224645 0.0047713
0.226955 0.00246135
0.227603 0.0031096
0.22769 0.00302254
0.23087 0.00620258
0.231672 0.00540036
0.233677 0.00740493
0.233841 0.00724092
0.234778 0.008178
0.236166 0.00679001
0.244077 0.0147017
0.24621 0.0125695
0.261696 0.0280557
0.265348 0.0244039
0.284647 0.0437032
0.286914 0.0414359
0.291686 0.0462075
0.2978 0.0400938
0.338939 0.0812328
0.351991 0.0681804
0.354215 0.0704039
0.424619 0
inf 0


"layer 4:"
-inf 0
0.213314 0
0.214528 0.0012146
0.215743 0
0.219873 0
0.223731 0.00385796
0.226041 0.00154802
0.226955 0.00246135
0.227042 0.0023743
0.22769 0.00302254
0.228492 0.00222032
0.231672 0.00540036
0.231836 0.00523634
0.233841 0.00724092
0.235229 0.00585292
0.236166 0.00679001
0.238298 0.00465783
0.24621 0.0125695
0.249861 0.00891778
0.265348 0.0244039
0.267615 0.0221366
0.286914 0.0414359
0.293028 0.0353222
0.2978 0.0400938
0.3012 0.0366939
0.306321 0.0418151
0.308689 0.0394473
0.328811 0.0595693
0.336095 0.0522846
0.351991 0.0681804
0.420171 0
inf 0


"layer 5:"
-inf 0
0.224493 0
0.226041 0.00154802
0.226128 0.00146096
0.227042 0.0023743
0.227844 0.00157208
0.228492 0.00222032
0.228656 0.0020563
0.231836 0.00523634
0.233224 0.00384835
0.235229 0.00585292
0.237361 0.00372074
0.238298 0.00465783
0.24195 0.00100606
0.249861 0.00891778
0.252129 0.00665046
0.267615 0.0221366
0.270156 0.0195959
0.271313 0.0207535
0.274886 0.0171805
0.293028 0.0353222
0.296428 0.0319222
0.3012 0.0366939
0.303567 0.0343261
0.308689 0.0394473
0.30937 0.0387656
0.319726 0.0491216
0.326329 0.0425187
0.336095 0.0522846
0.38838 0
inf 0


"layer 6:"
-inf 0
0.224667 0
0.226128 0.00146096
0.22693 0.000658736
0.227844 0.00157208
0.228008 0.00140806
0.228656 0.0020563
0.230044 0.000668307
0.233224 0.00384835
0.235356 0.00171617
0.237361 0.00372074
0.241013 6.89811e-05
0.24195 0.00100606
0.242956 0
0.245478 0
0.252129 0.00665046
0.252221 0.00655793
0.267251 0.0215879
0.269699 0.0191397
0.270156 0.0195959
0.273729 0.0160228
0.274886 0.0171805
0.278286 0.0137806
0.296428 0.0319222
0.298796 0.0295544
0.303567 0.0343261
0.304249 0.0336443
0.30937 0.0387656
0.315973 0.0321626
0.326329 0.0425187
0.344166 0.0246823
0.347275 0.0277914
0.375066 0
inf 0


"layer 7:"
-inf 0
0.226272 0
0.22693 0.000658736
0.227095 0.000494716
0.228008 0.00140806
0.229396 2.0065e-05
0.230044 0.000668307
0.230712 0
0.23364 0
0.235356 0.00171617
0.237072 0
0.240944 0
0.241013 6.89811e-05
0.241082 0
0.245663 0
0.252221 0.00655793
0.252703 0.00607614
0.257585 0.0109579
0.259551 0.00899149
0.269699 0.0191397
0.273272 0.0155667
0.273729 0.0160228
0.277129 0.0126229
0.278286 0.0137806
0.280654 0.0114128
0.298796 0.0295544
0.299477 0.0288727
0.304249 0.0336443
0.310852 0.0270414
0.315973 0.0321626
0.33381 0.0143263
0.344166 0.0246823
0.368848 0
inf 0


"layer 8:"
-inf 0
0.2266 0
0.227095 0.000494716
0.227589 0
0.229376 0
0.229396 2.0065e-05
0.229416 0
0.246627 0
0.252703 0.00607614
0.254669 0.00410972
0.259551 0.00899149
0.260692 0.00785038
0.261908 0.00906635
0.26434 0.00663446
0.273272 0.0155667
0.276672 0.0121667
0.277129 0.0126229
0.279496 0.0102551
0.280654 0.0114128
0.281336 0.010731
0.299477 0.0288727
0.30608 0.0222697
0.310852 0.0270414
0.325128 0.0127655
0.328146 0.0157834
0.331706 0.0122229
0.33381 0.0143263
0.33471 0.013426
0.339229 0.017945
0.357174 0
inf 0


"layer 9:"
-inf 0
0.248874 0
0.252233 0.00335856
0.253076 0.00251584
0.254669 0.00410972
0.255811 0.00296861
0.260692 0.00785038
0.263124 0.00541848
0.26434 0.00663446
0.267538 0.00343716
0.267615 0.00351438
0.267817 0.00331174
0.276672 0.0121667
0.27904 0.00979894
0.279496 0.0102551
0.280178 0.00957333
0.281336 0.010731
0.284405 0.00766208
0.288495 0.0117519
0.28861 0.011636
0.302369 0.025395
0.305788 0.0219769
0.30608 0.0222697
0.320356 0.00799389
0.325128 0.0127655
0.328688 0.009205
0.331706 0.0122229
0.332606 0.0113226
0.33471 0.013426
0.348136 0
inf 0


"layer 10:"
-inf 0
0.25056 0
0.253076 0.00251584
0.254217 0.00137472
0.255811 0.00296861
0.258243 0.000536708
0.263124 0.00541848
0.266322 0.00222118
0.267538 0.00343716
0.26774 0.00323452
0.267817 0.00331174
0.270185 0.000943945
0.27904 0.00979894
0.279722 0.00911717
0.280178 0.00957333
0.283247 0.00650443
0.284405 0.00766208
0.284521 0.0075462
0.28861 0.011636
0.289009 0.0112377
0.302104 0.0243334
0.305124 0.0213136
0.305788 0.0219769
0.320063 0.00770105
0.320356 0.00799389
0.321524 0.00682621
0.322611 0.00791373
0.325004 0.00552091
0.328688 0.009205
0.329315 0.00857802
0.331306 0.0105687
0.331579 0.0102954
0.332606 0.0113226
0.343929 0
inf 0


"layer 11:"
-inf 0
0.252842 0
0.254217 0.00137472
0.255591 0
0.257706 0
0.258243 0.000536708
0.258779 0
0.2641 0
0.266322 0.00222118
0.266524 0.00201854
0.26774 0.00323452
0.270108 0.000866718
0.270185 0.000943945
0.270867 0.000262166
0.279722 0.00911717
0.282791 0.00604826
0.283247 0.00650443
0.283363 0.00638856
0.284521 0.0075462
0.284919 0.00714789
0.289009 0.0112377
0.292029 0.00821788
0.305124 0.0213136
0.3194 0.00703776
0.320063 0.00770105
0.321231 0.00653337
0.321524 0.00682621
0.323917 0.00443338
0.325004 0.00552091
0.325631 0.00489393
0.329315 0.00857802
0.329589 0.00830476
0.331579 0.0102954
0.341875 0
inf 0


"layer 12:"
-inf 0
0.264506 0
0.266524 0.00201854
0.268543 0
0.269241 0
0.270108 0.000866718
0.27079 0.000184939
0.270867 0.000262166
0.271129 0
0.276743 0
0.282791 0.00604826
0.282907 0.00593239
0.283363 0.00638856
0.283761 0.00599024
0.284919 0.00714789
0.287939 0.00412805
0.292029 0.00821788
0.297234 0.00301242
0.306846 0.0126243
0.313605 0.00586497
0.313925 0.00618448
0.316236 0.0038734
0.3194 0.00703776
0.320568 0.00587007
0.321231 0.00653337
0.323624 0.00414054
0.323917 0.00443338
0.324544 0.0038064
0.325631 0.00489393
0.325905 0.00462066
0.329589 0.00830476
0.330306 0.00758743
0.331995 0.00927625
0.341271 0
inf 0


"layer 13:"
-inf 0
0.270605 0
0.27079 0.000184939
0.270975 0
0.276974 0
0.282907 0.00593239
0.283305 0.00553407
0.283761 0.00599024
0.286781 0.0029704
0.287939 0.00412805
0.292067 0
0.294222 0
0.297234 0.00301242
0.300246 0
0.30774 0
0.313605 0.00586497
0.315916 0.00355389
0.316236 0.0038734
0.317403 0.00270572
0.320568 0.00587007
0.322961 0.00347724
0.323624 0.00414054
0.324251 0.00351356
0.324544 0.0038064
0.324817 0.00353314
0.325905 0.00462066
0.326622 0.00390334
0.330306 0.00758743
0.337893 0
inf 0


"layer 14:"
-inf 0
0.277771 0
0.283305 0.00553407
0.286325 0.00251424
0.286781 0.0029704
0.289751 0
0.312362 0
0.315916 0.00355389
0.317084 0.0023862
0.317403 0.00270572
0.319796 0.000312887
0.322961 0.00347724
0.323588 0.00285027
0.324251 0.00351356
0.324524 0.00324029
0.324817 0.00353314
0.325534 0.00281581
0.326622 0.00390334
0.330525 0
inf 0


"layer 15:"
-inf 0
0.283811 0
0.286325 0.00251424
0.288839 0
0.314698 0
0.317084 0.0023862
0.31947 0
0.319483 0
0.319796 0.000312887
0.320109 0
0.320737 0
0.323588 0.00285027
0.323861 0.002577
0.324524 0.00324029
0.325241 0.00252297
0.325534 0.00281581
0.32835 0
inf 0


"layer 16:"
-inf 0
0.321284 0
0.323861 0.002577
0.324578 0.00185968
0.325241 0.00252297
0.327764 0
inf 0


"layer 17:"
-inf 0
0.322719 0
0.324578 0.00185968
0.326438 0
inf 0


