# persistence landscape
# X Y
"layer 0:"
-inf 0
0.141839 0
0.157995 0.016156
0.174151 0
0.174868 0
0.20202 0.0271524
0.21524 0.0139318
0.262996 0.061687
0.269086 0.0555966
0.283072 0.0695822
0.296841 0.0558127
0.306806 0.0657771
0.313908 0.0586744
0.348405 0.0931712
0.349414 0.0921626
0.370022 0.112771
0.482792 0
inf 0


"layer 1:"
-inf 0
0.191559 0
0.192219 0.000660301
0.19288 0
0.201309 0
0.21524 0.0139318
0.218843 0.0103297
0.259339 0.0508264
0.261828 0.048338
0.269086 0.0555966
0.282856 0.0418271
0.296841 0.0558127
0.303944 0.04871
0.313908 0.0586744
0.314917 0.0576658
0.349414 0.0921626
0.351125 0.0904516
0.356991 0.0963176
0.396184 0.0571245
0.402228 0.0631691
0.465398 0
inf 0


"layer 2:"
-inf 0
0.208513 0
0.218843 0.0103297
0.221331 0.00784135
0.261828 0.048338
0.275597 0.0345685
0.282856 0.0418271
0.289958 0.0347244
0.303944 0.04871
0.304952 0.0477014
0.314917 0.0576658
0.316467 0.0561157
0.340638 0.0802865
0.340799 0.0801256
0.351125 0.0904516
0.390318 0.0512585
0.396184 0.0571245
0.453308 0
inf 0


"layer 3:"
-inf 0
0.21349 0
0.221331 0.00784135
0.225922 0.00325031
0.245302 0.0226306
0.249168 0.0187646
0.257909 0.0275057
0.263222 0.0221932
0.275597 0.0345685
0.2827 0.0274659
0.289958 0.0347244
0.290967 0.0337158
0.304952 0.0477014
0.306503 0.0461513
0.316467 0.0561157
0.316628 0.0559548
0.340799 0.0801256
0.379992 0.0409325
0.390318 0.0512585
0.420338 0.0212383
0.420721 0.0216208
0.442341 0
inf 0


"layer 4:"
-inf 0
0.219838 0
0.22114 0.00130171
0.222442 0
0.222672 0
0.225922 0.00325031
0.227259 0.00191336
0.229555 0.00420914
0.232084 0.00168013
0.249168 0.0187646
0.254481 0.0134521
0.263222 0.0221932
0.267954 0.0174614
0.278382 0.0278896
0.280753 0.0255187
0.2827 0.0274659
0.283708 0.0264573
0.290967 0.0337158
0.292517 0.0321657
0.306503 0.0461513
0.306664 0.0459904
0.316628 0.0559548
0.31807 0.0545127
0.331834 0.0682768
0.369585 0.0305258
0.379992 0.0409325
0.410012 0.0109123
0.420338 0.0212383
0.441576 0
inf 0


"layer 5:"
-inf 0
0.225346 0
0.227259 0.00191336
0.229172 0
0.230404 0
0.232084 0.00168013
0.233764 0
0.234721 0
0.24779 0.0130689
0.250944 0.0099154
0.254481 0.0134521
0.255958 0.0119747
0.260785 0.0168011
0.264039 0.0135468
0.267954 0.0174614
0.270324 0.0150906
0.280753 0.0255187
0.281761 0.0245101
0.283708 0.0264573
0.285258 0.0249071
0.292517 0.0321657
0.292678 0.0320048
0.306664 0.0459904
0.308106 0.0445483
0.31807 0.0545127
0.323392 0.0491904
0.333743 0.0595409
0.366171 0.0271121
0.369585 0.0305258
0.399605 0.000505651
0.410012 0.0109123
0.414628 0.00629661
0.41483 0.00649869
0.421328 0
inf 0


"layer 6:"
-inf 0
0.241029 0
0.250944 0.0099154
0.252421 0.00843792
0.255958 0.0119747
0.259213 0.00872032
0.264039 0.0135468
0.26641 0.0111759
0.270324 0.0150906
0.271333 0.0140819
0.281761 0.0245101
0.283311 0.02296
0.285258 0.0249071
0.285419 0.0247462
0.292678 0.0320048
0.29412 0.0305627
0.308106 0.0445483
0.313428 0.039226
0.323392 0.0491904
0.325589 0.0469933
0.33269 0.054094
0.362922 0.0238624
0.366171 0.0271121
0.393284 0
0.3991 0
0.399605 0.000505651
0.400111 0
0.408331 0
0.414628 0.00629661
0.420924 0
inf 0


"layer 7:"
-inf 0
0.243824 0
0.248125 0.00430129
0.248205 0.00422146
0.252421 0.00843792
0.255676 0.00518358
0.259213 0.00872032
0.261583 0.00634949
0.26641 0.0111759
0.267418 0.0101673
0.271333 0.0140819
0.272883 0.0125318
0.283311 0.02296
0.283472 0.0227991
0.285419 0.0247462
0.286862 0.0233041
0.29412 0.0305627
0.299442 0.0252404
0.313428 0.039226
0.315625 0.0370289
0.325589 0.0469933
0.355821 0.0167617
0.362922 0.0238624
0.386784 0
inf 0


"layer 8:"
-inf 0
0.243984 0
0.248205 0.00422146
0.251459 0.000967114
0.255676 0.00518358
0.25748 0.00337928
0.259399 0.00529782
0.259965 0.00473128
0.261583 0.00634949
0.262435 0.00549778
0.265204 0.00826717
0.265361 0.00811027
0.267418 0.0101673
0.268969 0.00861719
0.272883 0.0125318
0.273044 0.0123709
0.283472 0.0227991
0.284914 0.021357
0.286862 0.0233041
0.292184 0.0179819
0.299442 0.0252404
0.301639 0.0230433
0.315625 0.0370289
0.322478 0.030176
0.328043 0.0357413
0.32814 0.0356443
0.330362 0.0378665
0.353644 0.0145847
0.355821 0.0167617
0.372583 0
inf 0


"layer 9:"
-inf 0
0.250492 0
0.251459 0.000967114
0.252426 0
0.254101 0
0.25748 0.00337928
0.258047 0.00281274
0.259965 0.00473128
0.260817 0.00387958
0.262435 0.00549778
0.262592 0.00534088
0.265361 0.00811027
0.266911 0.00656014
0.268969 0.00861719
0.269129 0.0084563
0.273044 0.0123709
0.274486 0.0109288
0.284914 0.021357
0.290237 0.0160348
0.292184 0.0179819
0.294381 0.0157847
0.301639 0.0230433
0.308492 0.0161904
0.322478 0.030176
0.322575 0.030079
0.32814 0.0356443
0.351422 0.0123626
0.353644 0.0145847
0.368229 0
inf 0


"layer 10:"
-inf 0
0.255234 0
0.258047 0.00281274
0.258898 0.00196104
0.260817 0.00387958
0.260974 0.00372268
0.262592 0.00534088
0.264142 0.00379076
0.266911 0.00656014
0.267072 0.00639925
0.269129 0.0084563
0.270572 0.00701418
0.274486 0.0109288
0.276461 0.00895436
0.283195 0.0156887
0.286543 0.0123409
0.290237 0.0160348
0.292434 0.0138376
0.294381 0.0157847
0.301234 0.00893183
0.308492 0.0161904
0.308589 0.0160934
0.322575 0.030079
0.336696 0.0159583
0.340535 0.0197979
0.349696 0.0106369
0.351422 0.0123626
0.363785 0
inf 0


"layer 11:"
-inf 0
0.256937 0
0.258898 0.00196104
0.259055 0.00180414
0.260974 0.00372268
0.262524 0.00217255
0.264142 0.00379076
0.264303 0.00362986
0.267072 0.00639925
0.268515 0.00495713
0.270572 0.00701418
0.272546 0.00503973
0.276461 0.00895436
0.279808 0.00560659
0.286543 0.0123409
0.28874 0.0101438
0.292434 0.0138376
0.299287 0.0069847
0.301234 0.00893183
0.301331 0.00883489
0.308589 0.0160934
0.308745 0.0159379
0.320104 0.0272974
0.334069 0.0133321
0.336696 0.0159583
0.345857 0.00679725
0.349696 0.0106369
0.360333 0
inf 0


"layer 12:"
-inf 0
0.257251 0
0.259055 0.00180414
0.260605 0.000254015
0.262524 0.00217255
0.262685 0.00201166
0.264303 0.00362986
0.265745 0.00218775
0.268515 0.00495713
0.270489 0.00298268
0.272546 0.00503973
0.275894 0.00169196
0.279808 0.00560659
0.282006 0.0034094
0.28874 0.0101438
0.295593 0.00329086
0.299287 0.0069847
0.299384 0.00688776
0.301331 0.00883489
0.301486 0.00867939
0.308745 0.0159379
0.317094 0.00758904
0.318898 0.00939374
0.324515 0.00377739
0.334069 0.0133321
0.343231 0.00417112
0.345857 0.00679725
0.352654 0
inf 0


"layer 13:"
-inf 0
0.260351 0
0.260605 0.000254015
0.260766 9.31192e-05
0.262685 0.00201166
0.264127 0.00056954
0.265745 0.00218775
0.26772 0.000213299
0.270489 0.00298268
0.273472 0
0.274202 0
0.275894 0.00169196
0.277586 0
0.278596 0
0.282006 0.0034094
0.285415 0
0.292302 0
0.295593 0.00329086
0.29569 0.00319392
0.299384 0.00688776
0.299539 0.00673226
0.301486 0.00867939
0.30958 0.000585404
0.313034 0.00403936
0.313289 0.00378445
0.317094 0.00758904
0.32271 0.00197268
0.324515 0.00377739
0.328292 0
0.339059 0
0.343231 0.00417112
0.347402 0
inf 0


"layer 14:"
-inf 0
0.260673 0
0.260766 9.31192e-05
0.260859 0
0.263557 0
0.264127 0.00056954
0.264696 0
0.267506 0
0.26772 0.000213299
0.267933 0
0.292496 0
0.29569 0.00319392
0.295845 0.00303843
0.299539 0.00673226
0.306271 0
0.308995 0
0.30958 0.000585404
0.309835 0.000330495
0.313289 0.00378445
0.317074 0
0.320737 0
0.32271 0.00197268
0.324683 0
inf 0


"layer 15:"
-inf 0
0.292807 0
0.295845 0.00303843
0.298884 0
0.309505 0
0.309835 0.000330495
0.310166 0
inf 0


