-0.0413458	-0.330238	0.185875
-0.586932	-0.262118	0.205201
0.71592	-0.199484	-0.0579431
0.331812	-0.190657	0.220766
-0.325808	0.470016	-0.239439
-0.731257	-0.157507	-0.0313441
0.128584	-0.737059	0.0300197
0.488658	-0.495402	0.155377
-0.117938	0.404459	-0.237291
-0.194443	-0.722517	0.0297466
-0.276394	-0.151719	0.168478
0.0954413	0.476636	0.249613
-0.212362	0.133072	0.0174588
0.664619	-0.0782246	-0.184036
-0.194897	0.381067	0.239412
-0.278956	0.403671	0.249826
0.57492	0.0859927	0.236406
0.00610705	0.716554	-0.124871
0.32757	-0.00236707	-0.181027
-0.607205	0.046288	-0.225003
-0.218347	0.616498	-0.196919
0.435011	0.568788	-0.125754
-0.624447	-0.0570246	0.215313
-0.260726	0.626722	-0.174738
-0.485238	-0.262691	-0.244579
-0.596404	-0.199516	-0.214213
0.304673	0.605071	0.176102
-0.190838	-0.161915	0.0116384
-0.274906	0.35027	0.243935
-0.633088	0.349446	-0.112757
-0.29105	0.441936	0.248293
-0.291371	-0.597473	0.18805
0.675246	0.281777	-0.0939384
-0.315033	-0.538172	-0.217309
0.625128	0.247751	-0.181017
-0.308802	0.408951	-0.24969
0.455861	0.188421	0.249909
-0.594398	0.407637	-0.117348
0.187008	0.70668	0.095586
0.0346916	-0.248482	-0.0210972
0.19271	0.724123	-0.0183285
-0.305543	-0.314433	0.242301
-0.284783	0.517071	0.233119
-0.700641	0.120762	-0.134129
0.338605	-0.483177	0.233234
0.41687	0.556342	-0.156201
0.43735	0.0754604	0.243604
0.240504	-0.133479	-0.1091
0.657902	-0.299061	-0.11363
