0.0183786	-0.258426	0.0667604
0.200141	-0.168223	-0.0747874
0.184429	0.50123	-0.247666
0.359846	-0.0534902	-0.209642
0.301812	-0.0943386	0.169476
-0.0416985	-0.486772	-0.249738
-0.411509	0.286555	0.249996
0.284841	0.0427083	0.132539
-0.413996	-0.143538	0.242234
0.268113	0.68048	0.0946399
0.0456219	-0.693692	0.156208
-0.151424	-0.711337	0.104144
-0.4357	-0.60984	-0.0159176
-0.321263	-0.427573	-0.247564
-0.226444	-0.112584	-0.0378859
0.0529994	0.427372	-0.240187
-0.368746	0.650687	0.0322684
0.707159	-0.165475	0.106328
0.566921	0.00886116	-0.240857
-0.322184	0.436861	0.246306
-0.537738	0.420827	-0.170508
-0.312891	-0.129741	0.191023
-0.320204	0.220658	-0.223943
0.590173	0.181812	0.220643
0.0307106	0.492432	-0.249913
-0.0950885	0.688128	0.156859
0.325708	0.128955	-0.20023
0.238342	-0.123833	0.0946049
0.310656	0.417627	0.249158
0.0839837	0.72438	-0.0997615
0.513013	-0.463508	0.160839
0.174688	-0.657473	0.173198
0.188077	0.666641	-0.159313
0.249087	-0.382365	-0.246158
0.00915677	-0.737837	-0.0768526
-0.48046	-0.0280846	-0.249298
-0.0684453	-0.732422	0.0835847
-0.474687	-0.484507	-0.175252
-0.682673	-0.0281976	-0.170052
-0.176335	-0.570946	0.23018
0.492258	-0.511246	-0.136092
0.354558	-0.313851	-0.248593
-0.0326238	-0.721997	0.113532
0.692209	-0.152844	0.137361
-0.296194	0.195099	0.203422
