0.560547	-0.493324	-0.0404029
0.734627	-0.150892	0.00426661
0.233509	0.162326	-0.126535
-0.245036	0.0809182	0.062933
-0.327546	0.0215692	-0.18167
-0.02881	-0.320595	0.17543
0.70513	-0.244563	0.042636
0.323431	0.0290256	0.178272
0.19763	-0.573093	-0.226316
-0.384419	-0.0967847	0.227531
-0.45801	0.432697	-0.213493
0.47489	0.298031	-0.242528
0.611981	0.116844	-0.217629
-0.272143	0.543524	0.225541
0.0936766	-0.241759	0.0674577
0.728687	-0.170806	-0.0279052
0.4991	-0.213369	0.24631
0.562542	-0.165992	-0.234551
-0.618284	0.226889	-0.193252
0.524148	0.0411201	-0.248669
0.624551	0.177916	-0.20045
-0.4163	0.301177	0.249618
-0.179343	-0.235835	0.144908
-0.247079	-0.179533	0.156964
-0.371032	0.182288	-0.234519
-0.684656	-0.190529	0.134599
-0.472934	0.577724	-0.0410136
0.457893	0.500124	-0.175466
-0.160507	-0.365728	-0.228865
0.325282	-0.402113	-0.249407
0.0385884	0.395914	0.228151
0.326648	-0.249829	-0.23371
0.269176	-0.64931	-0.146063
0.633006	-0.364152	-0.0973291
0.307602	0.0695288	0.16855
-0.419561	0.43925	0.22574
