0.4969	0.555637	0.0476659
-0.239357	-0.279047	0.212087
0.742474	-0.0626027	-0.0492099
-0.25666	-0.19203	0.174059
0.348558	-0.512184	0.21957
-0.252073	0.626483	0.178247
0.127015	-0.731122	-0.0624554
-0.595756	-0.425556	-0.0928059
-0.203086	-0.21003	0.138931
0.389199	0.277714	-0.249041
0.204145	0.721543	-0.00818194
0.318342	0.320438	-0.245288
-0.14341	-0.66911	-0.168912
0.0981408	0.683987	-0.161313
0.487508	0.292681	-0.240399
0.233453	0.366098	0.241185
-0.0729843	0.697488	-0.148256
0.579591	0.165809	-0.227867
0.430551	0.588283	-0.100279
-0.40168	-0.538663	-0.181483
-0.136122	0.719436	0.0926452
-0.723693	-0.0710431	0.104369
0.619445	-0.13324	-0.2113
-0.021217	-0.55908	0.242821
0.090611	-0.300668	0.167073
-0.253681	0.4725	0.247352
0.110317	-0.608842	0.219993
0.367666	-0.195588	-0.235627
-0.39276	-0.0347974	0.226555
0.242299	0.709292	0.0152309
-0.727753	-0.0916444	-0.0893156
-0.516473	0.0681509	0.249121
-0.017608	0.685878	-0.166929
0.125457	0.739395	0.00431166
0.163954	0.399091	0.24042
-0.565439	-0.340259	0.192158
-0.1685	-0.306844	-0.200049
0.678498	0.316807	0.0242988
-0.309168	-0.368727	-0.249291
-0.342908	-0.490848	-0.229665
0.24903	0.0243487	0.0104187
0.244908	-0.649441	0.157579
-0.240023	-0.470194	0.248437
-0.309382	-0.274279	0.234542
0.229999	-0.156192	-0.115
-0.655798	0.205127	0.165777
0.218769	-0.121241	0.00769492
0.609874	-0.28249	-0.181313
0.568429	-0.276171	-0.212332
-0.304251	0.141596	0.18833
0.403848	0.631966	0.00289692
0.600276	-0.119179	0.223512
-0.067519	0.492435	-0.249982
