0.633106	0.382055	0.0718515
0.543303	-0.163073	0.240786
0.0581327	0.248667	-0.0515442
0.575033	-0.327602	0.190576
0.510002	-0.0964922	0.249273
0.176203	-0.179089	0.0248432
-0.405921	-0.10596	0.236693
-0.666739	0.0711294	-0.182817
-0.00668241	-0.361249	0.208003
0.0576062	-0.430685	0.241273
-0.0822206	-0.443441	0.245151
-0.463889	0.204765	-0.2499
0.239188	0.599932	-0.203043
-0.690054	0.190006	0.126326
0.457712	-0.587474	-0.0510509
0.258774	0.373496	-0.245803
0.665553	0.303664	-0.0942455
0.100701	-0.275214	-0.140269
0.271111	-0.00609086	0.100702
0.252089	-0.492864	-0.244188
-0.254583	0.0581692	0.0738078
0.304637	-0.684766	-0.0162368
-0.422433	-0.102195	-0.241299
-0.0970874	-0.69234	-0.151174
-0.563027	0.495304	-0.00762918
0.50289	0.2086	0.246019
-0.205526	-0.184553	-0.111469
-0.469084	0.102468	-0.24921
-0.239932	0.416323	-0.249239
0.569799	-0.357554	-0.180768
-0.442712	0.599295	0.049338
0.421243	-0.510533	-0.190509
-0.423768	-0.323877	-0.247764
0.533759	0.292584	-0.225136
0.179815	0.57858	-0.226473
-0.272977	-0.669658	0.112695
0.724151	-0.0876646	-0.0992884
-0.397989	0.558238	-0.167508
-0.69774	0.274837	-0.00641504
0.673714	0.248868	-0.122001
-0.0518057	0.341706	0.196631
-0.0620214	-0.640035	-0.20504
-0.11329	-0.323897	-0.194665
0.548949	-0.475492	0.106354
0.00998288	-0.528099	-0.248405
-0.399512	0.126949	0.236581
-0.666849	-0.318018	0.0739941
0.512086	0.282874	0.235099
-0.409555	0.439912	0.228669
-0.234389	-0.546488	0.231397
-0.21649	-0.125929	0.015023
0.52568	-0.411385	0.185576
-0.691085	-0.0222723	-0.160777
-0.661684	-0.0705684	0.187432
-0.169594	-0.377888	0.234815
