-0.557799	-0.108664	-0.240494
-0.698728	-0.266564	-0.0327278
0.057969	0.680078	-0.170814
0.459142	-0.447583	-0.206305
-0.00108482	0.662843	0.189689
0.025741	-0.7213	-0.115424
-0.348609	-0.610275	-0.146156
-0.225458	-0.545008	-0.233315
0.270858	-0.0668909	0.116863
0.365091	0.307878	0.248992
0.253861	0.616036	0.186673
-0.424819	-0.601137	0.0822123
-0.528401	0.071935	0.247776
0.366401	0.272078	-0.246164
0.678824	0.239106	0.11929
0.3535	-0.0808545	-0.208876
0.191352	-0.578085	-0.22502
0.354493	0.266386	0.243515
-0.335235	0.344885	0.249274
-0.703087	0.167692	0.113387
0.251244	0.0865492	-0.0872876
0.448777	0.595049	0.0482058
-0.67028	0.32286	0.054509
-0.15113	-0.255796	0.146061
0.368045	0.316584	-0.249577
-0.24112	0.579031	0.215204
-0.64997	0.33255	0.0977363
-0.648794	-0.290705	0.134172
0.655652	-0.210137	-0.164214
-0.295281	0.109175	-0.167951
0.304716	0.593962	0.185531
-0.336882	-0.139869	0.210264
0.271275	0.164016	0.170331
0.250119	-0.706958	-0.00707556
-0.698422	0.273277	-0.00301142
-0.205007	-0.262527	0.186121
-0.294042	0.392418	0.249814
-0.321826	0.676513	-0.020463
0.1254	-0.225236	0.0619279
0.249437	-0.597575	-0.201818
0.0702863	-0.287337	0.144242
-0.123913	0.606765	-0.219705
-0.410354	-0.355823	0.24625
-0.549604	-0.418165	-0.161778
-0.0356391	-0.332006	-0.186856
-0.277558	0.256046	-0.217999
-0.365372	0.639944	0.0798564
0.5676	-0.392997	0.162042
-0.174562	-0.217123	0.1161
0.392548	0.43291	0.235328
0.657539	-0.28443	0.12515
0.406362	-0.583614	-0.133849
-0.660141	0.149893	0.176608
0.685473	-0.226734	-0.114965
0.335033	-0.00204647	-0.187851
-0.288639	-0.640217	0.146917
