0.519609	-0.20195	-0.243304
0.573311	0.0966702	0.236376
0.252568	-0.0158404	0.0390192
-0.563452	0.416133	0.149385
0.104421	0.63952	0.201493
-0.316549	-0.150665	-0.20043
0.0163571	0.574129	0.238684
-0.00149215	0.376599	0.217423
0.350016	0.662292	0.0212664
0.434218	0.241204	-0.249978
-0.122017	-0.404733	0.237758
-0.194947	0.620566	-0.199649
0.607689	-0.387363	-0.117532
-0.383052	0.310418	-0.249903
0.710668	0.169832	-0.0963708
-0.536658	0.0142064	0.24727
0.460203	0.217803	-0.249833
-0.513919	-0.393305	0.202107
0.102065	-0.537497	0.245523
-0.414261	-0.488057	-0.207011
0.579868	0.387624	0.153283
-0.274994	-0.168989	-0.17632
-0.642174	0.316777	0.125777
0.460109	-0.0774505	0.247756
-0.175281	-0.284656	-0.187194
-0.317353	0.0520169	0.175126
0.223817	-0.116897	-0.0353054
0.450719	-0.372504	-0.235205
0.314968	0.162729	-0.203312
0.263169	0.177057	0.170526
-0.532926	0.526047	-0.0242363
0.297322	0.513105	0.232049
-0.614688	-0.349679	0.139902
-0.187267	-0.435524	0.248652
-0.362342	0.577249	0.171873
-0.249095	0.0280277	0.0182523
0.505212	-0.546146	-0.0545062
0.0941196	-0.732817	0.0738735
0.685167	-0.304417	-0.0112121
0.611345	0.396185	-0.101439
-0.23896	0.433321	0.249947
0.413219	0.622614	-0.0369091
-0.0236351	-0.711135	0.133252
0.661121	0.331335	0.0716832
-0.146391	-0.721769	-0.0811429
-0.554198	0.0570288	-0.243386
0.0244392	-0.562192	-0.242004
0.132345	-0.523014	-0.24686
-0.571533	0.0339437	-0.239244
-0.514619	0.0116943	-0.249564
0.55346	0.218273	0.231269
0.616228	-0.301843	-0.166841
