# Persistence diagram </home/jens/Uni/data_topology/Project/Graph_Data/Synthetic_Random_Degree_Sequence_Graphs/rds_94.gml>
#
# Dimension   : 0
# Entries     : 30
# Betti number: 8
1	inf
1	inf
1	2
1	inf
1	inf
1	inf
1	inf
1	inf
1	12
1	12
1	4
1	12
1	inf
1	12
1	5
1	2
1	5
1	12
1	5
1	4
1	5
1	5
1	4
1	4
1	4
2	5
2	5
3	4
3	4
3	4


