# Persistence diagram </home/jens/Uni/data_topology/Project/Graph_Data/Synthetic_Random_Degree_Sequence_Graphs/rds_53.gml>
#
# Dimension   : 0
# Entries     : 30
# Betti number: 7
1	inf
1	inf
1	12
1	inf
1	inf
1	12
1	inf
1	inf
1	12
1	4
1	inf
1	5
1	12
1	4
1	3
1	5
1	5
1	4
1	12
1	12
1	12
1	3
1	12
2	3
2	3
2	5
2	3
2	4
2	5
2	4


