# Persistence diagram </home/jens/Uni/data_topology/Project/Graph_Data/Synthetic_Random_Degree_Sequence_Graphs/rds_22.gml>
#
# Dimension   : 0
# Entries     : 29
# Betti number: 9
1	inf
1	inf
1	12
1	inf
1	12
1	12
1	5
1	12
1	12
1	inf
1	5
1	inf
1	3
1	inf
1	12
1	5
1	4
1	3
1	inf
1	2
1	inf
1	inf
2	5
2	5
2	4
2	4
2	4
2	4
3	4


