0.0317124	0.0317246
0.0463394	0.046344
0.0480683	0.0536384
0.0486758	0.0518217
0.0541407	0.0684992
0.0591246	0.0625984
0.0596989	0.0606151
0.0603738	0.0661306
0.0618112	0.0621786
0.061854	0.0631628
0.0633036	0.0672673
0.0642082	0.0773331
0.0650326	0.0732295
0.065055	0.069487
0.065857	0.0671846
0.0668174	0.0817385
0.0673912	0.068305
0.0678436	0.0774136
0.0680195	0.0682262
0.068422	0.0688736
0.0695787	0.076479
0.0697019	0.0824763
0.0715531	0.0746455
0.0721945	0.0857765
0.0733261	0.0955301
0.0742311	0.0986968
0.0743537	0.0805958
0.0754443	0.080414
0.075728	0.0781697
0.0759772	0.103003
0.0761209	0.0847358
0.0767112	0.161806
0.0771395	0.107547
0.0776968	0.0856752
0.0782329	0.146052
0.0782809	0.129196
0.0795735	0.0901194
0.0797634	0.0798981
0.0804963	0.0895203
0.0805363	0.096145
0.0808967	0.0813253
0.0819606	0.0858082
0.0827275	0.114523
0.0829505	0.107554
0.0833256	0.121192
0.0835353	0.0987109
0.0841572	0.100875
0.0848518	0.0898209
0.0849152	0.123508
0.0853772	0.0859726
0.0857932	0.0977303
0.0860035	0.126701
0.0867268	0.0935737
0.0871798	0.104561
0.0875508	0.099466
0.0876302	0.0956843
0.0888091	0.162781
0.089742	0.123302
0.089853	0.092039
0.0898695	0.105214
0.0900131	0.141963
0.090287	0.111688
0.0906152	0.150111
0.0908224	0.159714
0.0915737	0.0985835
0.0924031	0.0951881
0.0928179	0.122008
0.0931956	0.218662
0.0932515	0.130171
0.0935761	0.143365
0.0936477	0.143662
0.0942569	0.0979465
0.0943193	0.0948536
0.0946967	0.126097
0.0947415	0.120156
0.0948172	0.131955
0.0951048	0.217819
0.0966851	0.204274
0.0967267	0.173911
0.0968682	0.115868
0.0968757	0.139898
0.0968916	0.189054
0.0972279	0.107101
0.0976293	0.129962
0.0984564	0.122557
0.0985253	0.118911
0.0988465	0.148696
0.0994004	0.111609
0.0996769	0.117468
0.0997037	0.114966
0.100591	0.10078
0.100759	0.13971
0.100859	0.121706
0.100965	0.230763
0.100994	0.235116
0.101079	0.117081
0.101173	0.138049
0.101208	0.215422
0.101591	0.159707
0.101619	0.130828
0.101927	0.127148
0.102175	0.170765
0.102539	0.177885
0.102566	0.106469
0.102617	0.124451
0.102751	0.157617
0.103568	0.126486
0.103953	0.116946
0.10401	0.112303
0.104248	0.177857
0.104946	0.146406
0.105003	0.112281
0.105764	0.111026
0.106422	0.224684
0.106491	0.178131
0.106591	0.187032
0.10665	0.116325
0.106704	0.116422
0.106724	0.185275
0.106745	0.15347
0.106843	0.178075
0.106872	0.143599
0.10688	0.229163
0.107211	0.118914
0.107403	0.127001
0.107408	0.138037
0.107653	0.145574
0.107669	0.167683
0.108001	0.120285
0.108637	0.118772
0.108646	0.110288
0.108899	0.136601
0.108934	0.149054
0.109105	0.122351
0.109247	0.197233
0.109253	0.1482
0.1093	0.166089
0.110226	0.120519
0.11028	0.122441
0.110582	0.139018
0.11064	0.122313
0.110979	0.125969
0.111252	0.15138
0.111342	0.152199
0.111823	0.130967
0.111865	0.122134
0.112143	0.120696
0.113116	0.154029
0.113136	0.211265
0.113284	0.166342
0.113427	0.138147
0.113934	0.123856
0.114525	0.13443
0.114656	0.134945
0.114944	0.140236
0.11543	0.159893
0.115433	0.202497
0.115627	0.157814
0.115967	0.193416
0.116145	0.122884
0.116942	0.168483
0.11749	0.143209
0.117916	0.153518
0.118245	0.14825
0.118371	0.124842
0.118907	0.189325
0.119341	0.220431
0.119386	0.147606
0.120032	0.132081
0.120534	0.151457
0.121525	0.121657
0.123148	0.127034
0.123691	0.139315
0.124026	0.125258
0.124314	0.143502
0.12469	0.207927
0.125085	0.158688
0.125194	0.158567
0.12528	0.186082
0.125459	0.125641
0.126041	0.151358
0.126131	0.133312
0.126551	0.141138
0.126741	0.152559
0.127245	0.132191
0.127586	0.132213
0.128442	0.180984
0.128694	0.141286
0.12895	0.131359
0.13117	0.146387
0.13126	0.135441
0.131933	0.137673
0.135907	0.147483
0.136281	0.161295
0.136625	0.137951
0.13688	0.142207
0.136986	0.143033
0.137214	0.145711
0.138105	0.144281
0.13886	0.145821
0.140264	0.177932
0.140632	0.168091
0.141505	0.198503
0.145335	0.163595
0.145575	0.17678
0.148574	0.155047
0.151903	0.168506
0.15316	0.158975
0.154651	0.182869
0.154779	0.161362
0.154981	0.156427
0.16083	0.160853
0.161359	0.227514
0.170614	0.184239
0.177108	0.178336
0.191134	0.192984
0.191647	0.192968
0.197299	0.203522
