0.0493549	0.055326
0.0507603	0.0760383
0.0510079	0.0643096
0.0527094	0.060074
0.053339	0.0534513
0.057439	0.101375
0.0580085	0.0810578
0.0584985	0.0606168
0.0586588	0.0601058
0.0603026	0.0612166
0.0606343	0.0632655
0.061047	0.0716809
0.0633139	0.0653269
0.063986	0.101649
0.0658621	0.0684128
0.0684259	0.0778907
0.0690431	0.0808458
0.0692632	0.0989423
0.0715284	0.0848559
0.0722317	0.103696
0.072278	0.0842592
0.0726111	0.0801016
0.0736517	0.0939347
0.0742062	0.0941954
0.0742971	0.0824408
0.0751619	0.0755686
0.0755007	0.0820637
0.0756649	0.0830399
0.0761403	0.0806707
0.0765554	0.079396
0.0769735	0.101797
0.0788318	0.091875
0.0790278	0.11892
0.079056	0.103037
0.0791111	0.099536
0.080089	0.0864267
0.0805519	0.105309
0.0806061	0.0888309
0.0814287	0.129349
0.0818816	0.140352
0.0824219	0.15262
0.0825388	0.0882235
0.0832724	0.0896751
0.0835643	0.0874941
0.0840225	0.0895754
0.0841782	0.107961
0.0843723	0.149037
0.0845819	0.0919469
0.085013	0.0857462
0.0858138	0.142083
0.0859741	0.0984485
0.0860362	0.101602
0.0862371	0.12991
0.0863533	0.0936795
0.0866299	0.17232
0.0869565	0.103345
0.0874256	0.139944
0.0874282	0.0978976
0.0876772	0.147533
0.0893336	0.0966226
0.0893895	0.0898618
0.0896217	0.0957384
0.0896292	0.112688
0.0899613	0.0903955
0.0899858	0.0915362
0.0902489	0.112446
0.0904944	0.0983611
0.0912065	0.148318
0.091229	0.0953827
0.0923382	0.11127
0.092857	0.102017
0.0929369	0.0984965
0.0932186	0.138199
0.0936049	0.0983394
0.0938402	0.171348
0.0941699	0.120466
0.0944233	0.0973872
0.0958605	0.120806
0.0961688	0.113921
0.0964189	0.0983293
0.0967036	0.105523
0.0967827	0.104962
0.0969329	0.109093
0.0969703	0.187566
0.0973277	0.108643
0.0974062	0.236961
0.0978285	0.107921
0.0982947	0.206708
0.0983451	0.21741
0.098717	0.183413
0.0989595	0.167649
0.0992163	0.101583
0.0995327	0.101204
0.0996787	0.273316
0.09976	0.210835
0.0998137	0.212094
0.100229	0.166125
0.100431	0.160611
0.100828	0.101477
0.101352	0.101427
0.101646	0.152747
0.101821	0.124278
0.102134	0.119434
0.102245	0.156937
0.102588	0.114465
0.102664	0.11026
0.102793	0.112021
0.10329	0.105232
0.103312	0.106674
0.103528	0.15183
0.103595	0.161174
0.103679	0.110437
0.103975	0.105978
0.10399	0.154844
0.104064	0.104846
0.104528	0.121796
0.104557	0.106994
0.105117	0.107618
0.105201	0.111174
0.106303	0.14754
0.106801	0.146355
0.106892	0.168523
0.107262	0.110917
0.107369	0.120622
0.107544	0.13023
0.107756	0.110459
0.108481	0.13983
0.108496	0.158484
0.108704	0.196636
0.109094	0.112855
0.109344	0.120975
0.109672	0.111224
0.109984	0.147344
0.110334	0.131237
0.110637	0.158149
0.110767	0.136753
0.110781	0.127106
0.111329	0.123877
0.11171	0.122559
0.111714	0.111763
0.111735	0.116711
0.111822	0.147027
0.112161	0.251653
0.112529	0.122193
0.112743	0.179674
0.112781	0.132647
0.113168	0.169004
0.113464	0.11965
0.113605	0.161934
0.113775	0.1231
0.113907	0.195756
0.114052	0.118636
0.11452	0.136016
0.115996	0.246727
0.116358	0.125821
0.117097	0.149195
0.117416	0.13328
0.117571	0.12257
0.1177	0.133578
0.118027	0.15747
0.118179	0.135233
0.118307	0.160883
0.118884	0.138899
0.119284	0.136825
0.119296	0.128874
0.119471	0.142435
0.119733	0.148115
0.120384	0.136648
0.1204	0.167819
0.120448	0.167847
0.120546	0.154552
0.12068	0.122184
0.120899	0.132553
0.121389	0.142206
0.121403	0.123068
0.121783	0.206879
0.122484	0.150159
0.122683	0.160226
0.122998	0.143577
0.123153	0.162925
0.12368	0.132103
0.125098	0.135242
0.125581	0.129857
0.125648	0.156616
0.125791	0.154053
0.125868	0.231223
0.125904	0.18521
0.12671	0.144646
0.12682	0.129459
0.127161	0.148674
0.127215	0.133746
0.128325	0.163911
0.129605	0.15262
0.131072	0.162716
0.131646	0.146435
0.133875	0.156705
0.134087	0.134832
0.134291	0.148955
0.136149	0.137151
0.137984	0.169434
0.138311	0.156438
0.138656	0.256582
0.138911	0.139598
0.141028	0.164631
0.142559	0.147525
0.143905	0.145128
0.144045	0.163797
0.146188	0.159065
0.147064	0.158136
0.147483	0.193676
0.149397	0.156633
0.14995	0.155139
0.149965	0.231251
0.151239	0.166244
0.15206	0.166464
0.15487	0.195583
0.15683	0.16842
0.157505	0.191373
0.157852	0.159448
0.158798	0.1755
0.165267	0.179542
0.165787	0.168694
0.165831	0.179032
0.169924	0.175803
0.191893	0.20001
