0.0362561	0.0370476
0.0428302	0.0534871
0.0574931	0.0583596
0.0594707	0.0712996
0.0610008	0.0675527
0.0612127	0.0667381
0.0638162	0.0744312
0.0644019	0.0686891
0.0647974	0.0851662
0.0673477	0.0842217
0.0683154	0.0805911
0.0704019	0.076527
0.070761	0.0921195
0.071838	0.0766896
0.0723772	0.0878855
0.0725335	0.0764561
0.073023	0.0773352
0.0744346	0.0767748
0.0764485	0.0874727
0.0777452	0.0991159
0.0792712	0.0878662
0.0796572	0.0994606
0.0803852	0.114749
0.0808644	0.084602
0.0815374	0.0860201
0.0816247	0.0955117
0.0819609	0.103276
0.0826946	0.083177
0.0833902	0.0878868
0.0838688	0.0955089
0.0842571	0.0870236
0.0842747	0.107034
0.0843686	0.186397
0.0843727	0.126783
0.0850178	0.122994
0.0852281	0.149485
0.0860162	0.0963658
0.0863762	0.0940851
0.0864162	0.0881742
0.0865173	0.0928729
0.0865364	0.0889632
0.0867003	0.118866
0.0867737	0.114075
0.0869851	0.100718
0.0872284	0.095157
0.0879713	0.0907528
0.0881128	0.166535
0.0887111	0.0934017
0.0891307	0.125079
0.0896835	0.120537
0.0899975	0.156479
0.0907191	0.126171
0.0910202	0.103207
0.0912332	0.138662
0.0913398	0.168827
0.0919098	0.120104
0.0920493	0.151751
0.0925902	0.101779
0.0931823	0.101304
0.0933194	0.170396
0.0935583	0.107475
0.0935915	0.15072
0.0938365	0.117688
0.0939515	0.134986
0.0943219	0.11563
0.0943485	0.116869
0.0944269	0.104222
0.0944598	0.211669
0.0948736	0.11919
0.0948966	0.219929
0.0950605	0.104983
0.0955558	0.117128
0.0955592	0.123994
0.09558	0.183667
0.0955959	0.117035
0.0959681	0.162993
0.0964786	0.0995725
0.0966679	0.112661
0.0973116	0.0979808
0.0975103	0.134264
0.0976854	0.147651
0.0976884	0.159548
0.0977248	0.214551
0.097844	0.147116
0.0981403	0.157119
0.0981942	0.210927
0.098654	0.119878
0.0992759	0.187193
0.099414	0.138071
0.0995328	0.163833
0.0995646	0.109051
0.0996055	0.110457
0.0997578	0.126066
0.0997644	0.106016
0.100018	0.112829
0.100069	0.115813
0.100093	0.134976
0.100209	0.140387
0.100218	0.218693
0.100261	0.211843
0.100285	0.216551
0.100579	0.120118
0.100627	0.130042
0.101005	0.207612
0.101305	0.195541
0.101307	0.115849
0.101341	0.167609
0.101446	0.114065
0.101576	0.104702
0.101883	0.12949
0.101985	0.107581
0.102168	0.1401
0.102246	0.106927
0.102714	0.118724
0.10315	0.130112
0.103322	0.213615
0.103491	0.121341
0.103676	0.117139
0.103788	0.132308
0.104015	0.203307
0.104609	0.110109
0.104857	0.19211
0.105028	0.120368
0.105635	0.126495
0.105671	0.127731
0.105686	0.127221
0.105693	0.121126
0.105699	0.158621
0.106147	0.117435
0.106197	0.114307
0.106216	0.175733
0.106404	0.193829
0.106412	0.108936
0.106421	0.144822
0.106671	0.108325
0.107178	0.190071
0.107286	0.153751
0.107747	0.142668
0.107775	0.127503
0.108339	0.165725
0.108852	0.118014
0.109334	0.140423
0.109658	0.152479
0.109949	0.110864
0.109955	0.146065
0.110075	0.143853
0.110915	0.206955
0.110998	0.155672
0.111464	0.176456
0.111617	0.140905
0.112193	0.154737
0.112219	0.144251
0.112963	0.1207
0.114306	0.11578
0.11451	0.174571
0.11459	0.194543
0.115875	0.1176
0.116078	0.121488
0.116645	0.135975
0.116849	0.144618
0.116888	0.142921
0.117391	0.118474
0.11801	0.163638
0.118149	0.151715
0.118594	0.186072
0.119265	0.206433
0.119528	0.131937
0.119648	0.131884
0.120142	0.134397
0.120169	0.125358
0.120631	0.137671
0.12124	0.126313
0.122193	0.136748
0.123094	0.127568
0.123453	0.124889
0.123961	0.151527
0.12427	0.131384
0.125034	0.174434
0.126448	0.138072
0.127248	0.156147
0.127441	0.146913
0.127534	0.13735
0.127727	0.147057
0.128085	0.164842
0.128152	0.13299
0.12857	0.171164
0.12925	0.141262
0.129415	0.131203
0.129813	0.147938
0.129871	0.130589
0.130214	0.180125
0.130307	0.139495
0.131039	0.131516
0.132157	0.150108
0.132719	0.180076
0.132987	0.135592
0.133029	0.139394
0.13401	0.144254
0.13521	0.135328
0.136616	0.153657
0.137345	0.137873
0.138547	0.160089
0.139102	0.158511
0.139647	0.169578
0.140098	0.183921
0.140825	0.156039
0.140894	0.178411
0.141007	0.155568
0.141123	0.158168
0.142054	0.152169
0.142561	0.171106
0.142629	0.158048
0.143785	0.150852
0.145384	0.149466
0.147694	0.147936
0.148916	0.156724
0.151935	0.170895
0.155165	0.155399
0.172021	0.199908
