0.0519615	0.0524317
0.052295	0.0594589
0.0528077	0.063492
0.056399	0.0802525
0.0575735	0.058946
0.0577024	0.0808411
0.057742	0.0665096
0.0581855	0.0596508
0.0586704	0.062141
0.0611798	0.0615691
0.0612664	0.0614011
0.0629758	0.0653117
0.0632842	0.09553
0.0656948	0.0761948
0.0678384	0.0790762
0.0686977	0.0863521
0.0687661	0.0729955
0.0695031	0.0855159
0.0707151	0.0925581
0.0708267	0.0759705
0.0728424	0.0807997
0.0734167	0.0766726
0.0737633	0.0757855
0.0746022	0.0819498
0.0754193	0.0768395
0.0760285	0.0805197
0.07612	0.0778982
0.076399	0.132082
0.0780979	0.0788647
0.0784046	0.0805945
0.0787346	0.0878374
0.0792987	0.107275
0.080706	0.116762
0.0811538	0.0890797
0.0814163	0.0917401
0.0815374	0.0841211
0.0820272	0.125973
0.0820565	0.086864
0.0824368	0.0924914
0.0834475	0.0890122
0.08379	0.0846436
0.0843146	0.109948
0.0845	0.110211
0.0849058	0.0972735
0.0857518	0.09157
0.0861485	0.110987
0.0861977	0.0894739
0.0863829	0.117689
0.0864667	0.103085
0.0880067	0.0975105
0.0880946	0.0999933
0.0884686	0.100906
0.0887035	0.120262
0.088816	0.112377
0.0890415	0.0912159
0.0891573	0.226013
0.0891984	0.132864
0.0895577	0.117845
0.0896262	0.100516
0.0897971	0.103808
0.0898496	0.0912911
0.0901256	0.165856
0.0902738	0.0923343
0.0904636	0.101124
0.0904755	0.143617
0.0905386	0.0905864
0.0906348	0.101175
0.0907617	0.191007
0.0908883	0.0933386
0.0909264	0.143018
0.0912583	0.185815
0.0916079	0.176457
0.0917198	0.156853
0.0922153	0.129826
0.0924162	0.0970463
0.0924754	0.14249
0.0926729	0.0957934
0.0927138	0.121427
0.0928439	0.100081
0.0931492	0.102878
0.0933613	0.111993
0.0937855	0.136179
0.0939033	0.124055
0.0939663	0.13648
0.0942217	0.100016
0.0945913	0.188311
0.0946388	0.105656
0.0948045	0.111465
0.0948797	0.105755
0.0949643	0.107342
0.0951147	0.125914
0.0951345	0.138273
0.0951755	0.169341
0.0955627	0.141174
0.0957693	0.24314
0.0958402	0.220812
0.0960458	0.0992494
0.0966462	0.110659
0.0970268	0.174549
0.0976101	0.0981555
0.0977061	0.125577
0.0977337	0.153058
0.0978371	0.260712
0.0983573	0.245559
0.0986407	0.103045
0.0988191	0.135459
0.0988589	0.131363
0.099004	0.179639
0.0990089	0.122784
0.0990266	0.118296
0.0993171	0.102145
0.0995002	0.100199
0.0998129	0.101526
0.100452	0.164357
0.100776	0.152888
0.102067	0.10382
0.10211	0.1331
0.102181	0.104442
0.102189	0.183917
0.102252	0.13826
0.102337	0.120579
0.102972	0.10729
0.103567	0.138664
0.103783	0.194772
0.10383	0.128509
0.104766	0.108416
0.10477	0.117776
0.104904	0.128367
0.105109	0.147489
0.105363	0.125232
0.105369	0.107463
0.10571	0.155894
0.105971	0.152997
0.105984	0.114009
0.106184	0.111302
0.106255	0.10641
0.106979	0.114299
0.107082	0.110777
0.107257	0.20446
0.107326	0.114587
0.107461	0.190922
0.107662	0.147385
0.10789	0.115184
0.107921	0.162659
0.107946	0.109712
0.107965	0.131186
0.108402	0.124198
0.109118	0.115592
0.110769	0.128025
0.110782	0.191862
0.111368	0.168969
0.111443	0.216003
0.111515	0.149951
0.111731	0.147645
0.111779	0.123384
0.112073	0.180909
0.112461	0.248916
0.112513	0.14611
0.112636	0.144818
0.114082	0.200505
0.115198	0.130672
0.115545	0.133025
0.115879	0.226847
0.116039	0.118602
0.116085	0.186948
0.116202	0.148201
0.116773	0.122674
0.118017	0.163277
0.118078	0.140594
0.119665	0.132222
0.12	0.151785
0.120068	0.15382
0.120227	0.135537
0.121243	0.12948
0.121444	0.133997
0.121647	0.128688
0.122191	0.131936
0.122428	0.146402
0.122737	0.175828
0.123026	0.149444
0.123166	0.125536
0.123297	0.133434
0.123372	0.127344
0.123491	0.125938
0.123705	0.124966
0.12386	0.19868
0.126838	0.130054
0.12787	0.185551
0.128106	0.153197
0.129035	0.144986
0.129812	0.134575
0.130058	0.159929
0.13009	0.131674
0.130634	0.253773
0.131157	0.209068
0.131356	0.139875
0.132611	0.149268
0.134094	0.147238
0.135317	0.13975
0.136416	0.209226
0.136655	0.151429
0.137568	0.140854
0.137865	0.175855
0.137907	0.157731
0.140027	0.208408
0.142117	0.149489
0.142144	0.150955
0.143026	0.147958
0.143354	0.157263
0.143451	0.144298
0.146043	0.160519
0.146254	0.187784
0.146891	0.1735
0.148754	0.158604
0.150343	0.201685
0.15556	0.181369
0.156117	0.160891
0.156353	0.167891
0.158632	0.163526
0.159027	0.160942
0.161855	0.16848
0.161898	0.163035
0.163975	0.166945
0.16462	0.166608
0.167498	0.181614
0.17234	0.176374
0.173372	0.189241
0.216838	0.21998
0.223543	0.224353
