0.0349981	0.0378969
0.0516651	0.0535929
0.0550996	0.058096
0.0562504	0.079665
0.0581638	0.0626296
0.0625403	0.0626332
0.0642834	0.0675232
0.0647115	0.0890158
0.0647251	0.0655381
0.0686911	0.100624
0.0701611	0.0834439
0.071336	0.105133
0.0740135	0.0766681
0.0747741	0.107714
0.0748576	0.0868705
0.0750176	0.132727
0.0751825	0.105792
0.0756175	0.0788024
0.0758716	0.0821925
0.0777977	0.0946246
0.0788927	0.0865178
0.0793317	0.0815844
0.080915	0.0957932
0.0811265	0.0887837
0.0820718	0.0823633
0.0824525	0.0898272
0.0827625	0.168065
0.0830656	0.122699
0.0832598	0.101587
0.0834654	0.120946
0.0834771	0.0873958
0.0835062	0.165557
0.0836276	0.116153
0.0839886	0.170165
0.0842184	0.106746
0.0845746	0.105391
0.0857868	0.103267
0.0863273	0.114114
0.0866216	0.124421
0.0869953	0.113578
0.0874429	0.109854
0.0875818	0.0980963
0.0881673	0.0964337
0.0885399	0.11413
0.0887503	0.0974967
0.0893548	0.0920267
0.0894041	0.0917852
0.0894207	0.163475
0.0898035	0.121079
0.0899563	0.0941913
0.0899757	0.113598
0.0900884	0.128027
0.0901542	0.152829
0.0902075	0.107513
0.0902175	0.149387
0.090245	0.0937718
0.0906232	0.199315
0.0908926	0.156196
0.0909696	0.104897
0.0912937	0.139361
0.0916433	0.152773
0.0919551	0.113577
0.0926255	0.0933631
0.0928008	0.12393
0.0934534	0.116641
0.0936226	0.128727
0.093704	0.10525
0.094271	0.20381
0.0948128	0.173003
0.0948257	0.154893
0.0950133	0.101417
0.0952337	0.104335
0.0953099	0.168769
0.0959109	0.138795
0.0959808	0.131555
0.096587	0.120687
0.0967038	0.154061
0.0979414	0.243794
0.0981815	0.100133
0.0982865	0.213275
0.0985441	0.108179
0.0987416	0.116117
0.0989517	0.146222
0.0995026	0.122073
0.0996088	0.105477
0.0996462	0.164949
0.0999619	0.171176
0.100392	0.112572
0.100596	0.207994
0.100769	0.15137
0.100993	0.104178
0.100998	0.108303
0.101056	0.118269
0.101308	0.139522
0.10173	0.129981
0.10205	0.105073
0.102375	0.121154
0.102506	0.107955
0.10317	0.10666
0.103579	0.118015
0.103604	0.15669
0.103939	0.149441
0.104004	0.215725
0.104465	0.156136
0.105269	0.113619
0.105364	0.106075
0.105516	0.229019
0.105625	0.11862
0.105863	0.133125
0.106062	0.169724
0.10622	0.110598
0.106754	0.164033
0.106881	0.145528
0.107238	0.19176
0.107315	0.14162
0.107377	0.128888
0.107462	0.125213
0.107595	0.130345
0.107967	0.127416
0.108076	0.187051
0.10823	0.155906
0.108725	0.132014
0.109071	0.14687
0.109346	0.187843
0.109672	0.124622
0.109673	0.152032
0.109724	0.141764
0.109802	0.115403
0.110263	0.112539
0.110427	0.158076
0.110859	0.121383
0.111344	0.183829
0.111378	0.12006
0.112114	0.145832
0.112507	0.17998
0.112515	0.211524
0.112927	0.1134
0.113073	0.123758
0.113329	0.136633
0.113621	0.114336
0.113885	0.132138
0.114759	0.122912
0.11517	0.144262
0.11527	0.13297
0.115431	0.166462
0.115765	0.214875
0.115948	0.226405
0.116055	0.157863
0.11651	0.171319
0.116968	0.123079
0.117848	0.1281
0.119211	0.135986
0.120031	0.178762
0.120096	0.157379
0.120456	0.147696
0.12103	0.143762
0.121072	0.187905
0.121596	0.148871
0.121674	0.214856
0.121933	0.12264
0.122003	0.137947
0.122585	0.129377
0.12296	0.123684
0.12347	0.142931
0.123647	0.153484
0.124021	0.133729
0.124231	0.168532
0.124385	0.133827
0.124548	0.156802
0.125339	0.141211
0.126397	0.132023
0.126436	0.132299
0.126572	0.163037
0.127434	0.130834
0.128258	0.187475
0.128452	0.216813
0.129293	0.169557
0.129332	0.163156
0.129418	0.131718
0.129833	0.136668
0.130288	0.131453
0.131347	0.174397
0.132189	0.175463
0.132699	0.1688
0.13315	0.161431
0.133505	0.156085
0.133957	0.139969
0.134716	0.147558
0.134979	0.153585
0.136213	0.180751
0.137195	0.172853
0.138326	0.168743
0.138441	0.165532
0.140974	0.18718
0.1416	0.153683
0.143596	0.14916
0.143726	0.168626
0.144464	0.175312
0.145121	0.177818
0.146575	0.162137
0.146954	0.164725
0.147253	0.158962
0.148777	0.169043
0.151203	0.195527
0.152508	0.15945
0.154573	0.188669
0.156519	0.159385
0.157114	0.171892
0.158744	0.168487
0.158882	0.162251
0.159865	0.176136
0.160293	0.171052
0.160793	0.18165
0.165148	0.173354
0.172435	0.173054
0.172477	0.187308
