0.0485975	0.0519891
0.0516037	0.0604189
0.0590522	0.0624304
0.0592805	0.0675775
0.0594741	0.0625214
0.0629372	0.0694625
0.0630312	0.0748937
0.0661524	0.0791761
0.0685835	0.0718339
0.0693071	0.0794268
0.0707334	0.0725961
0.070801	0.111419
0.0709213	0.0732577
0.0727449	0.0730348
0.0738505	0.0798048
0.0741232	0.0932719
0.0753225	0.0983082
0.075335	0.106106
0.0756946	0.0871312
0.0763516	0.0771061
0.0766412	0.0990269
0.0772087	0.108879
0.0772186	0.103275
0.0779568	0.114699
0.0781667	0.084263
0.0781715	0.0976892
0.0787445	0.121737
0.0788497	0.122152
0.0789652	0.117948
0.0794831	0.0965882
0.0795	0.0833741
0.0796505	0.167118
0.0801611	0.0814536
0.0809766	0.137137
0.0823917	0.153094
0.0824186	0.0949397
0.0827145	0.0984449
0.0827882	0.0913626
0.0833026	0.0873518
0.0834025	0.100569
0.0834567	0.0894167
0.0834719	0.0943221
0.0835539	0.0882835
0.084901	0.100641
0.0850868	0.0987159
0.085371	0.0870158
0.0856475	0.087117
0.085649	0.0940011
0.085716	0.0889464
0.0866928	0.0882696
0.0881268	0.0929294
0.08847	0.0976521
0.0887293	0.130136
0.0893305	0.0947408
0.0897008	0.142816
0.0901426	0.0915238
0.0902204	0.137433
0.0906094	0.0910446
0.0910781	0.103755
0.0911544	0.101861
0.0913739	0.107306
0.092509	0.152442
0.0925981	0.136996
0.0933324	0.102958
0.0934162	0.150724
0.0937003	0.213624
0.094158	0.177696
0.0944868	0.157478
0.0945124	0.15589
0.0947707	0.108118
0.0950246	0.133759
0.0952878	0.0960859
0.0953955	0.221511
0.0958079	0.103289
0.0959167	0.134054
0.0961787	0.210584
0.0962249	0.156496
0.0963014	0.12042
0.0971479	0.0982556
0.0971605	0.12446
0.0972979	0.238782
0.0974983	0.151687
0.0982268	0.100178
0.0992712	0.219974
0.0995484	0.156733
0.0999242	0.207224
0.0999842	0.188184
0.10018	0.129531
0.100276	0.169874
0.100611	0.171591
0.101324	0.110384
0.101516	0.147488
0.101517	0.106838
0.10205	0.10329
0.102784	0.123132
0.102811	0.185891
0.103101	0.114007
0.103153	0.162499
0.103162	0.105067
0.103619	0.127153
0.103689	0.109982
0.103779	0.11819
0.103885	0.110203
0.104274	0.147527
0.104361	0.176344
0.104576	0.151666
0.104721	0.107875
0.105017	0.114112
0.105053	0.193481
0.105111	0.192008
0.105133	0.107492
0.105175	0.126883
0.105485	0.137272
0.106175	0.200805
0.106324	0.14534
0.106416	0.144249
0.106903	0.146688
0.106968	0.159816
0.10708	0.119316
0.10711	0.144742
0.107209	0.1739
0.107706	0.118716
0.108382	0.120869
0.109577	0.111325
0.109604	0.124591
0.109861	0.170976
0.110941	0.149016
0.111485	0.113917
0.11152	0.131735
0.111852	0.138021
0.112005	0.120269
0.113109	0.132114
0.113212	0.170745
0.115371	0.209906
0.115396	0.117843
0.115919	0.129965
0.116595	0.134213
0.116878	0.17582
0.117102	0.128134
0.11745	0.121508
0.117964	0.147751
0.118343	0.12499
0.118541	0.208793
0.118627	0.158236
0.118995	0.121539
0.119212	0.174654
0.119229	0.158068
0.119296	0.135097
0.119689	0.119822
0.120118	0.129288
0.120153	0.137738
0.120245	0.125915
0.120375	0.126436
0.120756	0.207662
0.121436	0.171644
0.121605	0.136521
0.121606	0.199077
0.121805	0.165124
0.122424	0.151611
0.122632	0.142973
0.123066	0.150751
0.12311	0.133076
0.123265	0.140761
0.12379	0.1583
0.124449	0.127804
0.124745	0.163009
0.124853	0.134737
0.124875	0.139176
0.125617	0.125842
0.126226	0.168954
0.126614	0.140208
0.126923	0.128934
0.127293	0.128786
0.12785	0.140659
0.129252	0.168835
0.1295	0.166603
0.130422	0.13142
0.131098	0.154152
0.131212	0.16975
0.131385	0.142854
0.131539	0.167705
0.13288	0.136403
0.133465	0.15234
0.134188	0.143639
0.134399	0.144577
0.134482	0.13765
0.134542	0.168404
0.135758	0.143707
0.136255	0.137596
0.1367	0.137736
0.136771	0.140117
0.13842	0.213933
0.138534	0.161079
0.138615	0.140712
0.140188	0.202338
0.140194	0.165055
0.140969	0.15036
0.142668	0.157428
0.143428	0.160243
0.146127	0.146177
0.146218	0.153381
0.146316	0.152181
0.147138	0.150945
0.149629	0.152984
0.151117	0.168096
0.151618	0.16371
0.152536	0.160713
0.15561	0.210628
0.156216	0.168859
0.159692	0.164325
0.160078	0.171708
0.166256	0.182091
0.168819	0.18845
0.171392	0.222788
0.174927	0.201877
0.181299	0.184165
0.195603	0.206338
0.198072	0.203732
