0.0314694	0.0353403
0.031836	0.0335356
0.0458826	0.0466532
0.050667	0.0569759
0.05134	0.0524898
0.051722	0.055788
0.0533283	0.0535657
0.0539026	0.0578716
0.0543847	0.0606472
0.0572516	0.0668744
0.057756	0.0674246
0.0623162	0.0623548
0.0650892	0.0917969
0.0663695	0.0735948
0.0669736	0.0842871
0.0670252	0.0856458
0.068252	0.0816606
0.0682555	0.0746091
0.0686716	0.0733498
0.0689128	0.0862292
0.0705962	0.0803677
0.0706805	0.0791061
0.0707972	0.0773224
0.0720279	0.0775371
0.0724171	0.0764506
0.0730272	0.0768623
0.0733475	0.0799885
0.0733961	0.092895
0.0743467	0.110671
0.0751538	0.0912763
0.0755744	0.107571
0.077365	0.0900228
0.0781275	0.101594
0.078205	0.0837355
0.0782599	0.111509
0.0796463	0.102114
0.0800695	0.0862093
0.080677	0.13554
0.0811073	0.0919891
0.0824799	0.0966121
0.0827197	0.0856474
0.0827745	0.0862661
0.0830149	0.147631
0.0830717	0.0979298
0.0834396	0.0975962
0.0841175	0.0960532
0.0853033	0.120102
0.0853986	0.0888746
0.0860752	0.0865603
0.0861767	0.130308
0.0864089	0.122139
0.0865337	0.0891416
0.0867322	0.122462
0.0870817	0.163355
0.0875737	0.107242
0.0877533	0.157133
0.0878416	0.115212
0.0882834	0.123087
0.0885026	0.0898328
0.0888192	0.169838
0.0889108	0.088992
0.0906525	0.0982629
0.0912007	0.10498
0.0918521	0.0991456
0.0918863	0.140283
0.0926686	0.132362
0.0927563	0.102056
0.092817	0.132312
0.0930236	0.101538
0.0931501	0.118726
0.0935134	0.125435
0.0939468	0.173138
0.0939619	0.106039
0.0941277	0.114196
0.0941487	0.183926
0.0943359	0.190939
0.0952301	0.135498
0.0952329	0.114742
0.0954978	0.173407
0.0956626	0.162269
0.0958631	0.190557
0.0959071	0.104237
0.0959809	0.129461
0.0961144	0.111012
0.0962481	0.0993199
0.0964466	0.131018
0.0965226	0.107405
0.0968004	0.100774
0.0968604	0.205038
0.0970108	0.172487
0.0972695	0.114019
0.0974305	0.164688
0.0974777	0.145147
0.097779	0.110038
0.0980918	0.11493
0.0980926	0.105171
0.0982204	0.233964
0.098338	0.113941
0.0983456	0.166777
0.0985593	0.219611
0.0986941	0.100951
0.0990335	0.222096
0.0990683	0.132346
0.0991475	0.142723
0.0992511	0.108302
0.099591	0.135987
0.099847	0.139118
0.100004	0.101558
0.100277	0.135612
0.100566	0.126285
0.10064	0.130812
0.100675	0.131351
0.101217	0.192136
0.101284	0.172647
0.101834	0.136505
0.101868	0.115124
0.102424	0.114371
0.102481	0.105935
0.103056	0.114597
0.10313	0.155705
0.103145	0.107497
0.103477	0.153009
0.103604	0.139832
0.104454	0.127958
0.104591	0.107004
0.104737	0.148856
0.105046	0.181916
0.105156	0.234391
0.105728	0.233716
0.105812	0.17031
0.105882	0.116811
0.106521	0.1074
0.106653	0.115404
0.106795	0.115923
0.107725	0.19501
0.107741	0.112271
0.107912	0.193596
0.107953	0.205652
0.107971	0.118255
0.108056	0.165521
0.108434	0.112092
0.108836	0.109175
0.108942	0.1432
0.109295	0.140715
0.109397	0.132386
0.10943	0.220634
0.110546	0.129825
0.110569	0.11115
0.110777	0.121941
0.112263	0.169538
0.11274	0.123816
0.112965	0.140665
0.11319	0.203717
0.113212	0.134375
0.113989	0.172509
0.114074	0.119005
0.114164	0.116221
0.114565	0.115214
0.114901	0.117206
0.11524	0.140561
0.115762	0.157468
0.115789	0.117194
0.115856	0.162436
0.11596	0.126961
0.116987	0.148291
0.117304	0.122657
0.117792	0.128609
0.118108	0.179996
0.119713	0.128098
0.119779	0.144348
0.119842	0.129646
0.119866	0.194307
0.120096	0.125833
0.120818	0.160316
0.120844	0.132285
0.121059	0.223737
0.121342	0.127262
0.121665	0.153632
0.122018	0.139865
0.122423	0.1748
0.122964	0.145539
0.123051	0.13825
0.123104	0.13485
0.123706	0.133641
0.12382	0.162602
0.124192	0.156782
0.125016	0.134431
0.126334	0.207453
0.126856	0.16652
0.127323	0.196614
0.127872	0.14655
0.12862	0.132266
0.128761	0.149479
0.128959	0.135533
0.129565	0.13523
0.129599	0.143541
0.129862	0.130001
0.132069	0.148544
0.132668	0.141349
0.133366	0.183566
0.133563	0.198223
0.134707	0.1483
0.134779	0.146374
0.13613	0.14313
0.136519	0.141604
0.138493	0.153394
0.138587	0.149096
0.140035	0.189516
0.141455	0.154692
0.141553	0.148164
0.144627	0.164168
0.145828	0.146252
0.15035	0.166806
0.151479	0.173565
0.152728	0.163483
0.153468	0.171832
0.155874	0.156904
0.157462	0.178733
0.161315	0.170113
0.163697	0.194626
0.163709	0.167713
0.171463	0.233764
0.213736	0.220221
