0.0533021	0.0542181
0.0540004	0.0540653
0.0548195	0.0573532
0.0567406	0.0595553
0.0585338	0.0630344
0.0603687	0.0724339
0.066325	0.0680847
0.0683337	0.0730506
0.0691165	0.0693246
0.0723678	0.0731444
0.072396	0.081751
0.0730328	0.0748901
0.0737882	0.0878563
0.0748679	0.0828364
0.0750778	0.0815265
0.0752897	0.0833644
0.0756282	0.0870333
0.0758879	0.104005
0.075917	0.0851278
0.075956	0.12461
0.0761998	0.088937
0.0766593	0.0822451
0.0767822	0.0851129
0.077589	0.0799903
0.0780747	0.116484
0.0791544	0.0900105
0.079529	0.174513
0.0804794	0.143331
0.0816163	0.0874217
0.0817223	0.13014
0.0828914	0.109138
0.0831244	0.132344
0.0832011	0.0845161
0.0834168	0.0890422
0.0838643	0.0895109
0.0839297	0.11264
0.0842918	0.0872226
0.0847182	0.0906604
0.0854414	0.179375
0.0872015	0.189003
0.0883386	0.130835
0.088513	0.102661
0.0886566	0.109232
0.0887047	0.107185
0.0898209	0.108557
0.0903462	0.104692
0.0906571	0.114444
0.0906804	0.107257
0.0911134	0.169022
0.0911495	0.19617
0.0917139	0.0981188
0.0920805	0.100677
0.0921818	0.10687
0.0928191	0.102056
0.0928398	0.103704
0.0930082	0.114937
0.0931351	0.10174
0.0932519	0.102121
0.0933907	0.102209
0.0935339	0.103656
0.0939241	0.114779
0.093999	0.114648
0.0943004	0.208724
0.0944302	0.111337
0.0947615	0.0968691
0.0951012	0.11507
0.0952672	0.110805
0.0961645	0.132741
0.0962583	0.110955
0.0963165	0.146837
0.0963847	0.231812
0.096654	0.107225
0.0967895	0.10227
0.0969481	0.101587
0.0969638	0.102864
0.097098	0.116523
0.0971546	0.129785
0.097578	0.106812
0.0976788	0.109003
0.0977272	0.144211
0.098599	0.136074
0.0992823	0.135165
0.0993919	0.121461
0.0994635	0.240627
0.100114	0.105549
0.100555	0.118382
0.100568	0.12755
0.100903	0.138492
0.100932	0.101168
0.100948	0.162777
0.101197	0.111368
0.101438	0.120089
0.101976	0.121089
0.102005	0.180064
0.102334	0.13966
0.102527	0.239085
0.102712	0.118892
0.102785	0.145271
0.102917	0.119712
0.103193	0.137787
0.103337	0.192316
0.104062	0.120463
0.104332	0.149586
0.104353	0.108611
0.104446	0.184194
0.104892	0.1072
0.104957	0.160339
0.105244	0.115083
0.105273	0.108706
0.10554	0.112132
0.105714	0.119935
0.105727	0.142901
0.105882	0.11602
0.106348	0.143339
0.106484	0.163262
0.106531	0.139904
0.106619	0.120757
0.10704	0.178587
0.107095	0.140929
0.10745	0.144975
0.107487	0.110799
0.10771	0.165659
0.107764	0.117662
0.107774	0.141963
0.107979	0.148345
0.108104	0.116506
0.108248	0.12465
0.109072	0.142387
0.109168	0.125133
0.109198	0.169042
0.109234	0.187815
0.109512	0.143416
0.109876	0.117734
0.110269	0.150028
0.110318	0.22418
0.110613	0.140339
0.110908	0.180567
0.11154	0.156381
0.111625	0.17581
0.111828	0.160735
0.112185	0.112391
0.112624	0.126769
0.112988	0.144973
0.113021	0.115766
0.113193	0.167961
0.113475	0.130034
0.114396	0.226575
0.114881	0.149706
0.114943	0.119789
0.114989	0.149606
0.11551	0.132665
0.115749	0.124003
0.116522	0.123839
0.116553	0.131402
0.116744	0.184134
0.117029	0.17722
0.117072	0.136063
0.117403	0.149161
0.117603	0.160082
0.117861	0.128236
0.117923	0.140344
0.118067	0.119334
0.118629	0.12562
0.118687	0.162906
0.118755	0.129854
0.119015	0.142557
0.119083	0.157241
0.119217	0.119882
0.119744	0.134241
0.119923	0.135175
0.119982	0.163477
0.120033	0.12497
0.120318	0.128491
0.120321	0.124272
0.120912	0.128537
0.121352	0.13024
0.121945	0.127844
0.122005	0.14322
0.122096	0.146049
0.122148	0.159968
0.122562	0.178646
0.122863	0.168057
0.123732	0.175355
0.124005	0.167426
0.124573	0.174375
0.125115	0.143898
0.125802	0.169608
0.12623	0.152765
0.127393	0.165353
0.127737	0.131753
0.128001	0.162131
0.128826	0.162801
0.129044	0.188853
0.129243	0.171423
0.129593	0.132499
0.13005	0.18917
0.132322	0.206794
0.132401	0.159075
0.133237	0.137173
0.133453	0.151971
0.133496	0.157932
0.13534	0.21349
0.136736	0.1938
0.138876	0.197217
0.14172	0.150286
0.144808	0.176875
0.149115	0.188299
0.149306	0.159375
0.150553	0.154165
0.151998	0.161636
0.153441	0.220909
0.15744	0.177221
0.165617	0.218458
0.168245	0.181685
0.175441	0.18178
0.178696	0.179949
0.18292	0.184212
0.183686	0.190153
0.185297	0.186512
0.193816	0.199011
0.22153	0.231227
