0.0409572	0.0416529
0.0512325	0.0540823
0.0566402	0.0646183
0.0576256	0.0672327
0.0583989	0.0651115
0.0588605	0.063948
0.0592856	0.0606138
0.0602158	0.0667579
0.062412	0.069121
0.0624835	0.086071
0.0626511	0.0677117
0.0671859	0.0709904
0.0679897	0.0811095
0.0680528	0.0722419
0.0683592	0.0687172
0.0685025	0.0836223
0.068504	0.0862187
0.0685311	0.0803191
0.0696203	0.0753754
0.0699116	0.0785817
0.0702849	0.0708325
0.0721538	0.0855095
0.0738787	0.135982
0.0744655	0.0915232
0.0760649	0.0795958
0.0777365	0.101792
0.078193	0.0879439
0.0782891	0.094479
0.0803258	0.0928858
0.0803336	0.105241
0.0807805	0.0825391
0.0810006	0.0908354
0.0817994	0.105347
0.0828106	0.101312
0.0833455	0.095214
0.0838685	0.0871399
0.0839712	0.117073
0.0842447	0.100308
0.0845479	0.088299
0.0860573	0.102169
0.0860812	0.0976725
0.0862199	0.0906629
0.0867223	0.127441
0.0868203	0.112009
0.0874666	0.12394
0.0875976	0.0911957
0.0879412	0.0956618
0.0883366	0.0953048
0.0886274	0.0957111
0.0890854	0.135765
0.0897704	0.0910937
0.0899165	0.105957
0.0903422	0.117218
0.0903659	0.125533
0.0904282	0.092684
0.0913655	0.095956
0.0920195	0.0952775
0.092106	0.138703
0.0923046	0.186122
0.0923184	0.18162
0.0928305	0.151008
0.0928342	0.111289
0.09374	0.18298
0.093784	0.0944177
0.0938296	0.0951268
0.0939771	0.096742
0.0940593	0.137202
0.0942071	0.143538
0.0945669	0.103666
0.0947344	0.101558
0.094752	0.113561
0.0952195	0.105265
0.0952513	0.238971
0.0952785	0.0960979
0.0957744	0.208015
0.0961812	0.109786
0.0962298	0.218084
0.0964342	0.176706
0.0965097	0.22162
0.0974016	0.116811
0.0974392	0.123274
0.0976673	0.118101
0.0979037	0.160792
0.0979476	0.167964
0.0987008	0.10785
0.0990446	0.110141
0.0991751	0.101831
0.0991831	0.136449
0.0991931	0.149658
0.0992037	0.112198
0.0993964	0.125971
0.0996818	0.163079
0.0997964	0.181244
0.0998524	0.114898
0.0998798	0.113447
0.100406	0.12416
0.100447	0.103477
0.100461	0.101968
0.100649	0.108617
0.100922	0.114373
0.101072	0.14089
0.101152	0.227885
0.101186	0.103289
0.101535	0.147095
0.101734	0.126522
0.101976	0.217049
0.102121	0.142553
0.102266	0.187053
0.102387	0.165473
0.102486	0.127627
0.102506	0.130243
0.102543	0.169085
0.102558	0.111814
0.102819	0.159773
0.102864	0.111884
0.103389	0.120513
0.103394	0.129613
0.103449	0.112758
0.103484	0.114924
0.103548	0.175724
0.104085	0.11987
0.104212	0.157827
0.104674	0.126376
0.105084	0.1256
0.10532	0.147344
0.105671	0.10602
0.105767	0.123525
0.105919	0.115999
0.106049	0.131496
0.106362	0.191845
0.106487	0.11527
0.10659	0.117114
0.106666	0.156047
0.106678	0.154431
0.106952	0.162762
0.107179	0.112458
0.107291	0.116651
0.107399	0.167705
0.107409	0.134987
0.107566	0.1255
0.107615	0.126218
0.108061	0.173111
0.108234	0.138353
0.108285	0.114367
0.108314	0.116796
0.10841	0.157751
0.108868	0.171946
0.109415	0.180253
0.109464	0.111506
0.10954	0.146686
0.11071	0.126017
0.111283	0.12396
0.111486	0.134065
0.111498	0.134118
0.111762	0.118673
0.112528	0.152857
0.112686	0.165031
0.113217	0.1623
0.113453	0.132755
0.113565	0.212212
0.113679	0.177982
0.113856	0.190635
0.114113	0.11929
0.114301	0.132157
0.114777	0.124273
0.11507	0.122411
0.115174	0.122154
0.115456	0.142202
0.115475	0.191395
0.115491	0.170419
0.116872	0.172654
0.117188	0.141675
0.117474	0.135996
0.117506	0.129852
0.117759	0.177405
0.118145	0.177507
0.118596	0.123046
0.118734	0.201623
0.118737	0.174911
0.118775	0.154636
0.119203	0.162662
0.119473	0.17354
0.119492	0.144294
0.119563	0.123377
0.119794	0.12841
0.120045	0.125188
0.120363	0.159858
0.120801	0.13782
0.120926	0.123971
0.120967	0.132515
0.121112	0.142336
0.122897	0.183402
0.122918	0.131926
0.123032	0.132407
0.123129	0.173818
0.123489	0.128413
0.123627	0.137692
0.12389	0.126175
0.123947	0.135745
0.12489	0.145347
0.125075	0.125486
0.126088	0.130773
0.128354	0.129334
0.128854	0.131366
0.129409	0.140126
0.129881	0.165231
0.129978	0.144402
0.13033	0.135644
0.131373	0.16911
0.13139	0.139083
0.131756	0.14103
0.134099	0.134592
0.134394	0.160219
0.135247	0.16063
0.135637	0.136498
0.135777	0.151507
0.136012	0.164139
0.136125	0.146416
0.136169	0.161876
0.137817	0.174285
0.141601	0.161242
0.143386	0.145722
0.143641	0.171308
0.144934	0.146271
0.145094	0.164357
0.146883	0.164012
0.149532	0.171076
0.150838	0.15608
0.151595	0.187261
0.160846	0.17119
0.164134	0.16493
0.174237	0.182375
