0.0480138	0.0618796
0.0485696	0.0642157
0.0496293	0.0503144
0.0557771	0.0796165
0.0559989	0.067819
0.0575174	0.0763073
0.0614366	0.0755255
0.0628553	0.0693146
0.0660002	0.0697181
0.06639	0.0750989
0.0676203	0.0696203
0.0694903	0.0998687
0.069594	0.0752061
0.0701025	0.0729606
0.0710422	0.0774954
0.072923	0.0770782
0.0729512	0.119218
0.0733052	0.0824762
0.0736167	0.107281
0.0739967	0.0743546
0.0740934	0.0830533
0.074629	0.0847725
0.0749001	0.0927341
0.0752133	0.0961895
0.0752619	0.0884118
0.0764871	0.083958
0.0767613	0.0792345
0.077051	0.0848183
0.0772453	0.0949339
0.0775844	0.116175
0.0784394	0.131915
0.0792174	0.0915306
0.0800095	0.103617
0.0800261	0.0889514
0.0803856	0.123574
0.080679	0.0944646
0.0807839	0.086914
0.0808554	0.0870723
0.0812241	0.0900431
0.0816306	0.162304
0.082041	0.0895637
0.0823137	0.0865888
0.0824699	0.103483
0.0824919	0.113497
0.0828933	0.112704
0.0829216	0.165168
0.0829256	0.110333
0.0830508	0.0979936
0.0832073	0.0943055
0.0835187	0.0997084
0.0839772	0.0937561
0.084319	0.0992339
0.0849438	0.104301
0.0853351	0.0964072
0.0855153	0.0915431
0.0857036	0.0938857
0.0866881	0.0888936
0.0869368	0.0989652
0.0869466	0.0987005
0.0873649	0.0878843
0.0874082	0.094782
0.0900453	0.151545
0.0913031	0.0951042
0.0919658	0.14469
0.0927856	0.123691
0.0930858	0.175731
0.0935774	0.0959855
0.0938215	0.101085
0.0944632	0.212401
0.0946966	0.138515
0.0948206	0.0961472
0.0950617	0.0955841
0.095853	0.103462
0.096952	0.162257
0.0971151	0.177571
0.0971422	0.130802
0.0972272	0.106794
0.0975328	0.135534
0.0975474	0.119815
0.0978665	0.120582
0.0979551	0.22872
0.0984409	0.202775
0.0985346	0.203173
0.09895	0.213965
0.0992087	0.103676
0.099506	0.176997
0.099515	0.110023
0.100043	0.176469
0.100349	0.105843
0.100369	0.161255
0.100464	0.111344
0.100517	0.167238
0.100867	0.163789
0.100942	0.126344
0.10179	0.11171
0.101905	0.179627
0.101941	0.159273
0.102021	0.11607
0.102102	0.103324
0.102884	0.131888
0.10322	0.149146
0.103228	0.17906
0.103256	0.120119
0.103428	0.118302
0.104159	0.152657
0.104255	0.115003
0.105172	0.111057
0.105299	0.109671
0.10566	0.133853
0.10576	0.11209
0.105939	0.187079
0.106004	0.147429
0.106289	0.166714
0.106948	0.123779
0.107498	0.155303
0.107556	0.123486
0.107613	0.218521
0.107716	0.171833
0.107774	0.219297
0.107978	0.10861
0.108071	0.112555
0.108148	0.143898
0.10918	0.195062
0.109426	0.116692
0.109575	0.12075
0.109672	0.111427
0.10972	0.194433
0.109982	0.207972
0.110008	0.179087
0.110331	0.127162
0.110378	0.138054
0.110566	0.154039
0.110592	0.170312
0.110942	0.137494
0.111026	0.162842
0.111844	0.119335
0.112383	0.169327
0.11286	0.125756
0.113091	0.201048
0.113292	0.122831
0.113514	0.161018
0.113648	0.150019
0.113978	0.175048
0.114097	0.114491
0.114408	0.119909
0.114747	0.124303
0.114803	0.150277
0.114895	0.118727
0.115458	0.164661
0.11626	0.190312
0.11651	0.125389
0.116808	0.165115
0.117019	0.15356
0.117439	0.138236
0.117922	0.174466
0.118589	0.136288
0.118809	0.167277
0.119076	0.125997
0.119209	0.132407
0.119455	0.11969
0.119735	0.122151
0.119969	0.151783
0.120283	0.123133
0.120377	0.131312
0.121187	0.126209
0.121342	0.137224
0.121478	0.124227
0.121937	0.133685
0.122113	0.139154
0.123278	0.203547
0.123342	0.132056
0.123814	0.158855
0.124152	0.125123
0.124411	0.133231
0.124425	0.135675
0.124646	0.133964
0.125242	0.142263
0.125388	0.129811
0.125908	0.129233
0.126109	0.186148
0.126623	0.134955
0.126812	0.164214
0.127147	0.12805
0.128074	0.136397
0.129204	0.177375
0.129386	0.167099
0.129416	0.142037
0.130207	0.131703
0.130475	0.137297
0.131179	0.131272
0.131335	0.170701
0.131406	0.137664
0.13167	0.165054
0.131691	0.139012
0.132124	0.137322
0.132372	0.160488
0.132701	0.157442
0.132964	0.15381
0.13386	0.140407
0.13386	0.143778
0.133906	0.145294
0.133958	0.136917
0.13426	0.145501
0.134974	0.139693
0.135235	0.14023
0.135935	0.139658
0.135958	0.137985
0.136859	0.152304
0.137042	0.149457
0.138491	0.17819
0.140893	0.155471
0.141326	0.177475
0.141982	0.172769
0.142818	0.157874
0.144616	0.156483
0.146856	0.168806
0.149713	0.175091
0.153632	0.157521
0.157485	0.157821
0.159423	0.184789
0.160911	0.173227
0.162114	0.16901
0.16644	0.214549
0.16662	0.17846
0.167556	0.186902
0.169391	0.234426
0.17054	0.173993
0.182125	0.203698
0.182777	0.197289
0.20766	0.218606
