0.0380447	0.0388194
0.0411444	0.0415454
0.0487214	0.0655913
0.0508991	0.0552741
0.0527934	0.0586262
0.0551108	0.0603514
0.0585064	0.0593152
0.061252	0.0624592
0.0616838	0.062819
0.0624884	0.0628845
0.0647037	0.0784835
0.065909	0.0825423
0.0659456	0.0821779
0.0670324	0.102531
0.0673451	0.0728329
0.0678388	0.0844473
0.0704016	0.101085
0.0708452	0.0723307
0.0711673	0.0768374
0.0711902	0.0866966
0.0712249	0.0786276
0.0738593	0.0958527
0.0743145	0.0783569
0.0747846	0.0758049
0.0764724	0.0799176
0.076947	0.078774
0.0772284	0.0789383
0.0777572	0.0947682
0.0778846	0.105472
0.0788186	0.100286
0.079332	0.109352
0.0796704	0.0904692
0.0801215	0.0834964
0.0803483	0.0878753
0.0807572	0.120791
0.0807705	0.0886474
0.0810644	0.0850743
0.0818557	0.119266
0.0820969	0.0920643
0.0822972	0.0829928
0.083035	0.0886408
0.0831572	0.0837486
0.083318	0.107882
0.08365	0.161213
0.0841076	0.0874916
0.0843143	0.111653
0.0844119	0.0847898
0.0845498	0.102316
0.0856621	0.144454
0.0868272	0.105576
0.087247	0.104108
0.0874392	0.130091
0.0877464	0.093356
0.0878686	0.0935502
0.0883658	0.225161
0.0888643	0.194766
0.0889767	0.132078
0.090155	0.199029
0.0905024	0.0961062
0.0909162	0.217496
0.0913847	0.135036
0.0919932	0.114127
0.0919939	0.117183
0.0921704	0.0979414
0.0926378	0.0940075
0.0930896	0.110315
0.0936292	0.0940141
0.0937751	0.109839
0.0938576	0.108194
0.0939169	0.166485
0.0940431	0.186463
0.0948211	0.179305
0.0952196	0.107005
0.0952343	0.125978
0.0956022	0.16265
0.0957857	0.102024
0.0965851	0.136616
0.0966288	0.160543
0.0971062	0.102577
0.0972975	0.107809
0.0975561	0.109768
0.097851	0.107111
0.0983601	0.123327
0.0987559	0.147302
0.0990919	0.103049
0.0991559	0.131312
0.0994068	0.121821
0.0995698	0.10399
0.099576	0.13304
0.100311	0.104145
0.100471	0.114029
0.10166	0.12431
0.101804	0.140644
0.102033	0.132222
0.102254	0.134871
0.102933	0.158583
0.103413	0.238352
0.103734	0.109727
0.103872	0.141597
0.103967	0.128284
0.10397	0.107108
0.10397	0.120615
0.10465	0.128864
0.104777	0.188936
0.104837	0.106992
0.10493	0.15209
0.104952	0.137874
0.105579	0.110171
0.105819	0.164189
0.105852	0.108234
0.106511	0.117631
0.10664	0.107436
0.106814	0.141349
0.107308	0.152381
0.107429	0.120251
0.107579	0.147922
0.10758	0.217391
0.108906	0.197957
0.109131	0.179902
0.109153	0.116694
0.109304	0.215808
0.109431	0.14567
0.109545	0.186614
0.110253	0.115774
0.110562	0.165176
0.110582	0.174684
0.110995	0.115567
0.111059	0.113246
0.111555	0.176866
0.111703	0.144651
0.111882	0.150704
0.11217	0.11562
0.11234	0.115997
0.112418	0.118416
0.11265	0.133657
0.11282	0.119973
0.112863	0.195104
0.113007	0.117673
0.113075	0.13677
0.113146	0.123989
0.113213	0.115776
0.113384	0.20845
0.113893	0.201142
0.11405	0.12308
0.114109	0.122166
0.114423	0.181835
0.115371	0.119422
0.115989	0.11838
0.116092	0.181092
0.11691	0.124107
0.117451	0.122128
0.117507	0.122572
0.117794	0.15268
0.117805	0.147405
0.117951	0.152754
0.11842	0.13234
0.118608	0.121222
0.118733	0.134739
0.119177	0.155552
0.119308	0.170038
0.119396	0.207535
0.119398	0.19151
0.119474	0.121144
0.119765	0.131258
0.120013	0.129125
0.120301	0.183767
0.12067	0.135826
0.121256	0.159131
0.121951	0.140034
0.122226	0.158147
0.122864	0.126012
0.123347	0.143154
0.123745	0.134095
0.124537	0.18027
0.125002	0.203518
0.12583	0.129655
0.126263	0.148239
0.127888	0.148638
0.128007	0.128443
0.12818	0.170177
0.128236	0.13094
0.128478	0.188453
0.129434	0.141243
0.129707	0.157492
0.129874	0.157346
0.131541	0.141623
0.133502	0.201219
0.133887	0.173889
0.134122	0.134794
0.1345	0.138949
0.134709	0.142844
0.134857	0.177434
0.135512	0.136304
0.135923	0.144755
0.137926	0.171781
0.138385	0.165885
0.13901	0.139345
0.139703	0.195129
0.139852	0.147543
0.14017	0.19477
0.140441	0.144923
0.140887	0.174681
0.142184	0.160031
0.142855	0.229817
0.143417	0.17324
0.144202	0.147775
0.145136	0.149386
0.146656	0.19597
0.150849	0.203041
0.15132	0.166499
0.152546	0.152641
0.15605	0.208064
0.15821	0.158381
0.159385	0.175039
0.163039	0.173416
0.164803	0.172434
0.166336	0.179433
0.166904	0.182298
0.167511	0.176098
0.172244	0.192443
0.179296	0.179474
0.181167	0.182901
0.185944	0.188892
0.187248	0.20213
