0.538841	0.412073	0.175193
-0.156264	0.706091	-0.112661
0.451879	-0.127878	0.248148
-0.301664	-0.454876	-0.245766
-0.52007	0.484134	-0.134816
-0.463461	-0.273335	0.247086
0.0685093	0.680797	-0.168989
-0.104497	0.282087	0.151087
0.305911	0.429626	-0.248493
0.138389	0.210812	0.0329189
-0.320037	0.637648	0.130142
-0.079279	0.394458	0.230138
-0.671071	-0.321368	0.0542085
-0.0623438	0.671125	-0.179497
-0.244925	0.0876922	0.0705146
0.259184	-0.508244	-0.239849
0.550971	-0.238468	0.22897
0.304756	-0.622979	-0.158264
-0.105484	0.251531	0.104208
0.620269	0.373922	0.110489
-0.486901	0.48327	-0.167024
-0.0793057	-0.554836	0.242575
0.40027	0.42902	-0.234467
0.490501	0.372693	0.221444
-0.213077	0.19639	0.135301
0.480314	0.552166	-0.0935447
0.613856	0.218418	-0.198823
0.107031	0.226413	-0.0147635
0.0437357	0.368212	-0.214027
-0.221025	-0.310118	-0.219765
0.352067	0.439867	0.241824
-0.224325	0.18203	-0.13391
-0.650506	-0.372821	0.0107369
0.426219	-0.615476	-0.0259693
0.273328	-0.485262	-0.243428
-0.0520433	-0.287036	-0.138267
-0.146585	-0.202601	0.00585805
-0.0950218	-0.546694	0.2439
-0.453618	-0.230733	0.249841
0.193862	0.717744	-0.05679
-0.0633208	0.272798	0.118837
0.144696	0.595005	-0.223334
-0.181066	-0.538667	0.240494
-0.160741	0.469012	-0.249965
-0.295161	0.360626	0.24768
-0.443477	-0.180836	-0.24911
-0.128846	0.218978	-0.0449387
-0.279067	-0.0906061	-0.140782
-0.318461	-0.670364	-0.0621071
-0.73336	-0.0797906	-0.0774874
-0.239838	0.106851	-0.0782544
-0.178972	0.523761	0.244209
-0.194416	0.612133	0.205574
0.467546	0.171808	0.249993
-0.605393	0.174085	-0.213587
0.198293	0.583965	-0.221083
0.0568214	0.62742	-0.213549
-0.0170981	-0.596984	0.230318
-0.0631103	0.251196	0.0664861
0.224633	-0.431206	0.249619
0.255331	-0.551645	-0.22553
-0.340881	0.195451	-0.225916
0.0377753	-0.248531	-0.0262845
0.175882	-0.72906	-0.00349731
0.557071	-0.192401	-0.233484
0.263781	-0.388869	0.248181
-0.160749	0.382447	0.235055
0.281463	0.322185	-0.239351
0.399422	0.434113	-0.233274
-0.0731348	0.277706	-0.131169
0.689645	0.287172	-0.0383163
0.491541	-0.00192588	0.249857
0.212969	0.3701	-0.239105
0.0656085	-0.24516	0.0433514
0.653282	-0.355016	-0.0565738
0.182428	-0.282948	-0.189261
-0.60023	-0.0694687	-0.227233
-0.100279	-0.564792	-0.238913
0.221017	-0.715417	-0.0246745
-0.0149063	0.311133	-0.164207
-0.641258	-0.27106	-0.154946
-0.251572	-0.630196	-0.174982
0.235197	-0.504272	0.243549
-0.446952	0.504346	0.179615
0.25585	-0.652679	-0.148612
0.540551	0.378621	-0.192126
-0.341244	0.617296	0.142605
-0.274001	0.0712817	0.124353
-0.179456	0.397304	0.241657
0.742944	0.00208339	0.0589631
0.372136	0.494602	0.219881
0.0329246	0.327423	-0.18244
-0.310098	0.529077	0.222874
0.0229972	0.436073	-0.241848
-0.161098	0.266932	0.164536
0.0937634	0.551559	-0.242823
-0.377325	0.482075	0.223416
-0.570482	0.479226	-0.0494761
-0.187411	-0.72154	0.0473175
-0.304802	-0.525833	-0.22557
-0.254585	-0.399309	0.248598
0.532842	0.463203	0.141605
0.463972	-0.295194	-0.244966
-0.634913	0.399212	0.00226177
0.374244	0.454695	0.233659
-0.202993	-0.721981	0.00356215
0.411831	0.59872	0.105423
-0.675738	-0.322095	0.0266374
-0.401389	0.141227	-0.238644
0.176567	0.382209	0.237197
0.481533	-0.206001	-0.24887
0.361863	-0.655394	-0.0258832
0.488621	-0.237168	0.24625
0.18198	0.286921	-0.191898
-0.195409	-0.161299	0.0409778
-0.258512	0.0267091	0.0696151
-0.19669	-0.1824	-0.0937599
0.465752	0.549001	0.118837
0.158945	-0.22741	0.113893
0.0636826	0.453959	-0.246515
-0.17191	0.328812	0.214171
0.197721	0.697354	0.109298
0.479082	0.487951	0.169436
-0.519708	-0.0496321	0.249024
0.272837	-0.206729	0.193995
-0.446422	-0.543654	-0.145276
0.425634	0.487149	0.202288
0.134295	-0.677137	-0.162099
0.567913	0.489733	0.00675369
-0.0017766	0.61225	0.223382
-0.155841	0.731633	-0.0311941
-0.176588	-0.352038	-0.226343
-0.348062	-0.0330779	-0.199723
-0.156129	-0.561078	0.236032
0.490534	0.0687509	0.249956
-0.496853	-0.561816	-0.000255428
-0.304027	-0.474597	-0.241768
0.250364	-0.669147	-0.128495
0.556782	-0.185786	-0.234388
0.173235	-0.386435	-0.238004
-0.258313	0.135543	-0.138265
-0.0761631	-0.245871	-0.0603645
-0.549625	0.452166	-0.132951
-0.345922	0.632181	0.117559
-0.186204	0.726004	0.015764
0.211982	0.514655	-0.243508
-0.132937	-0.272885	-0.154611
-0.188812	0.434485	0.248617
-0.607055	-0.344604	0.152571
-0.356813	-0.493067	-0.225165
-0.432977	0.322529	0.246795
0.3282	0.668535	-0.0509588
0.46356	0.174568	-0.249957
-0.377486	0.0740267	-0.221811
-0.628658	-0.0822104	0.211048
0.622164	-0.378052	0.102505
0.282954	0.183513	0.189772
0.590932	-0.319317	0.181724
-0.515422	0.493549	-0.129874
-0.494286	-0.398291	0.210553
0.0424184	0.392264	-0.226673
-0.640425	-0.289825	-0.14598
0.369528	-0.0664013	0.216763
0.0942443	-0.292409	0.159175
0.420288	0.391003	0.238784
0.623113	-0.393039	0.0804108
-0.153143	-0.310412	0.197041
-0.477501	-0.456178	0.191774
-0.407619	0.0811747	-0.235331
-0.0949817	-0.743754	0.0101491
0.185748	-0.33316	0.2201
-0.0187674	-0.278078	-0.116323
0.199429	-0.308519	-0.211914
-0.0088006	0.747257	-0.0365836
0.0927569	-0.647654	-0.196731
-0.236311	0.498869	-0.24453
0.227536	-0.124158	0.0672195
-0.437042	0.582815	0.10148
0.239303	0.703691	-0.0576247
0.629403	-0.328653	0.13558
-0.514695	-0.173332	-0.246257
-0.463196	-0.306802	-0.243742
0.638417	-0.317849	0.130617
0.133653	0.737909	-0.00651192
0.342022	0.568801	0.18894
0.0961216	0.383331	-0.226973
-0.621549	0.359287	0.122518
0.189301	-0.261486	0.176368
-0.329033	0.175661	-0.215332
0.303277	0.652077	-0.120299
0.320532	0.529342	-0.219956
0.731654	-0.0812032	0.082065
0.22998	-0.172235	0.131413
-0.424125	-0.554012	0.152994
-0.175693	-0.177992	0.00700245
0.568544	0.484162	-0.0401031
-0.240895	-0.263234	-0.20494
0.255164	0.0351102	0.061047
0.747002	-0.0636702	-0.0120222
0.438857	-0.480176	-0.199616
-0.517586	-0.0595232	-0.249117
-0.157382	0.359556	0.225703
-0.229817	-0.245567	0.188978
-0.317573	0.103294	-0.186888
-0.255444	0.705141	-0.00288913
0.143202	0.732634	0.041698
-0.135121	-0.211825	0.0249881
0.179332	-0.705443	-0.102814
-0.62713	-0.29831	-0.15711
0.0858468	-0.467087	0.248738
0.452759	0.597729	0.00874577
0.376037	0.121283	-0.226933
0.0268668	0.257081	0.0645648
0.709624	0.0744394	0.130039
-0.598607	-0.1911	-0.214525
0.395582	-0.151065	0.23799
-0.405946	-0.361907	-0.246125
0.325136	-0.079135	-0.187489
-0.096291	-0.509792	-0.249292
-0.654169	0.29214	0.125119
-0.368488	-0.421419	-0.242742
-0.408849	0.0785777	-0.235584
0.28016	0.0341785	-0.122798
0.174604	-0.587814	-0.222904
0.444985	-0.287199	0.248239
-0.545512	-0.182468	0.238415
-0.50939	0.390453	0.205882
0.668877	-0.0708973	-0.180835
0.343782	0.366872	0.249985
-0.229553	-0.254744	-0.194483
0.330775	0.469322	0.238743
0.600494	0.440278	-0.0516535
-0.171004	-0.710899	-0.0951684
-0.0718095	0.604911	-0.22491
-0.0786984	0.745334	-0.0161524
-0.305092	0.601567	-0.179015
-0.45087	0.196748	-0.24987
-0.246216	-0.413609	-0.249303
-0.658563	-0.34084	0.0644961
0.61189	0.394689	0.102234
0.0684578	-0.381601	0.223354
-0.663045	0.19486	0.161203
0.309205	-0.507559	-0.231522
-0.404286	0.47132	-0.21879
-0.55061	-0.390349	-0.178594
0.265914	-0.179681	-0.174453
0.638606	0.114679	0.200879
-0.334812	-0.513247	-0.223107
-0.349863	-0.659458	0.0415786
-0.107362	0.440476	0.245613
-0.207612	0.64297	0.177889
-0.315693	0.661349	0.0910424
-0.244123	0.480802	-0.246903
0.56525	-0.479088	-0.066594
0.224783	0.40738	-0.247577
-0.0125721	0.437737	-0.242169
0.180431	-0.21746	0.123381
-0.160108	-0.550816	0.238916
0.445921	0.300964	-0.247098
0.127165	0.366362	-0.22341
-0.489656	-0.477586	0.169249
-0.425233	-0.334724	-0.246587
-0.505169	-0.297998	-0.234554
0.582452	-0.369059	0.163025
0.306028	0.346957	-0.247192
-0.376185	0.409345	-0.243659
-0.642968	-0.36082	0.0786933
-0.547451	-0.379036	0.187057
0.624095	0.0780874	-0.214171
0.121774	0.283343	-0.160594
-0.412368	0.529022	0.1826
-0.309332	0.633684	-0.14287
0.452226	0.403092	0.22651
-0.184848	0.699097	-0.112768
-0.64114	0.031328	0.205823
-0.648286	0.00899122	-0.201228
-0.343931	0.603529	-0.156883
0.727489	0.0259164	0.102657
-0.00998419	0.573044	0.239065
0.663889	0.0227654	-0.188447
-0.00283172	-0.710402	0.135013
-0.175687	-0.284306	-0.187118
0.26429	-0.461406	-0.247977
0.186291	0.170223	-0.034193
-0.57358	0.467794	0.0694768
0.677561	0.310589	0.0479668
0.528501	-0.486924	0.121274
0.317552	0.447567	0.245195
0.248627	-0.423548	0.249843
0.430489	-0.319953	0.247341
0.684306	-0.0570391	-0.166286
-0.306133	-0.195522	-0.209279
0.250531	-0.434316	0.249996
0.6307	0.316451	0.142174
0.47202	0.0655487	0.248898
0.485114	-0.444006	0.194044
-0.721997	0.0232286	0.114242
-0.261671	0.507781	-0.239635
0.240634	0.337092	0.234804
-0.41677	0.565175	-0.146986
-0.11952	0.671703	-0.171124
-0.00978503	0.24983	-0.00326659
-0.742177	-0.0879645	-0.0361533
-0.0906055	-0.523242	-0.248067
0.29769	0.179968	0.198379
0.473959	0.0197462	0.248683
0.299341	-0.560178	0.210325
0.202345	0.703795	-0.0923815
-0.388312	-0.58146	0.151059
0.634029	0.383688	0.0661619
-0.645668	-0.373534	0.0449144
-0.00776842	-0.469428	-0.248132
0.331463	0.628641	0.134598
0.0204032	-0.623476	0.217189
0.280323	-0.0607023	0.130592
0.616452	-0.129901	0.213547
0.228598	-0.492063	0.246349
0.262949	0.0475892	-0.0911809
-0.127297	-0.343805	-0.211443
0.144018	0.213199	-0.059906
-0.333242	0.584763	-0.180425
0.575477	-0.174298	0.22856
0.494162	0.185519	-0.248445
0.24132	0.0714222	0.0288272
-0.547755	0.490766	0.0840418
-0.651257	-0.150619	-0.184731
-0.453922	-0.471464	-0.196572
0.355047	-0.215831	-0.235287
0.554754	-0.420517	0.155036
-0.629912	0.00224787	0.213593
0.569791	0.393994	0.159217
0.376811	-0.493588	-0.218779
-0.720259	-0.177908	-0.0630991
-0.197825	0.197368	0.117707
-0.414249	-0.316274	-0.249101
0.454667	0.0776404	0.246978
-0.380201	-0.606973	-0.125497
-0.263373	0.423494	-0.249997
0.605556	0.145577	0.217757
0.401697	-0.589246	0.130654
-0.730134	0.0264066	0.0965317
0.019502	0.6005	-0.228771
0.0291203	-0.733527	-0.0877197
0.637696	-0.325678	0.125794
-0.257018	0.358989	-0.243062
-0.535354	-0.392261	-0.188967
0.315102	0.345482	-0.247891
-0.452806	0.596829	0.0204941
-0.00490933	0.624005	0.217067
-0.365686	-0.391264	0.247459
0.643657	0.108277	-0.197945
-0.596674	0.0538705	-0.229519
-0.450228	0.235738	-0.249865
0.0693609	0.462384	0.247886
-0.453626	-0.487229	-0.187191
-0.650557	-0.0556944	-0.197763
0.649593	0.0312342	0.199742
0.50107	-0.459823	-0.173411
-0.666275	0.207427	-0.152868
0.23113	-0.0957368	0.00931152
-0.199937	0.711564	-0.0729485
0.189581	-0.725081	0.0164989
-0.454696	0.337522	-0.241055
0.235993	-0.0849574	-0.0202311
0.0953969	-0.443582	-0.24568
-0.2857	-0.202485	-0.200133
-0.523511	0.205426	0.242094
-0.27354	0.38197	0.248171
-0.288057	0.305716	-0.23687
-0.62057	-0.18963	0.200823
-0.334759	0.475009	0.236474
-0.0595227	-0.695318	-0.152811
0.0734059	0.327955	0.188751
0.436971	0.609525	-0.00346159
-0.0240509	-0.445877	0.244214
0.0560272	0.275745	0.121263
0.266984	-0.653255	-0.142072
-0.501491	0.292892	0.236597
-0.380023	0.64485	-0.0273607
0.259689	-0.683097	-0.0960942
-0.0402228	0.652407	0.197213
-0.202151	0.203114	0.130177
0.0992999	-0.627413	-0.210274
-0.573492	0.386804	-0.160418
-0.440199	-0.602486	0.0436116
-0.554987	0.114257	-0.240958
0.183248	0.676875	-0.148331
-0.475789	0.00226106	0.248825
0.0121626	0.704694	0.143378
0.309865	0.392389	-0.25
0.0642956	-0.27212	0.118023
-0.341832	0.0568562	0.197348
-0.241276	-0.190072	0.159088
0.560177	0.465221	-0.102172
-0.649532	-0.207342	-0.171583
