-0.574959	0.116279	0.234522
-0.688238	-0.293772	-0.0289872
-0.224683	-0.662696	-0.150334
-0.440495	0.208522	0.24968
0.160954	0.468851	0.249963
0.420339	0.102287	-0.240745
-0.728946	0.152542	-0.0510326
-0.670847	0.106865	0.174211
0.248909	0.161365	-0.14541
-0.285504	0.317297	0.239055
0.286847	-0.555988	0.216145
0.267389	-0.304414	0.231317
-0.0891642	0.531886	0.246891
0.713858	-0.197548	-0.0675987
-0.407748	0.540538	-0.176471
0.616222	0.0734587	0.218996
-0.487149	0.280285	0.242183
0.553727	-0.389227	-0.176714
-0.111098	0.719475	0.102542
0.739489	0.022796	-0.0705465
0.279241	-0.153196	-0.171927
0.103337	0.450315	0.247098
-0.298792	-0.486173	-0.23981
0.052161	-0.518881	0.249074
0.604303	0.443758	-0.0114976
0.510964	0.519179	-0.101554
0.615848	-0.410954	0.0687109
-0.483543	0.378528	-0.222453
-0.0257517	0.334794	0.188501
0.391956	0.0520929	-0.227067
0.168393	-0.494319	-0.249011
0.156617	-0.41618	0.243801
-0.375222	-0.594504	0.145897
0.153563	-0.221181	0.0962325
0.159139	0.550241	-0.239168
0.380527	-0.0176405	-0.219826
0.371494	-0.17401	-0.233326
-0.408867	0.626502	-0.0306396
-0.440377	-0.322626	0.245748
-0.234343	0.30291	0.220919
-0.327295	0.673946	0.0197809
-0.506338	-0.284029	0.236664
0.142925	-0.71966	-0.0887527
0.603533	-0.372996	-0.13643
-0.455335	-0.397719	-0.227078
0.669021	0.176347	0.160265
0.682731	0.284518	-0.0712136
0.0695812	-0.287378	-0.144063
-0.328949	-0.367615	0.24991
-0.0260195	-0.262425	-0.0816578
0.201364	-0.153887	0.0412938
0.381272	-0.165885	0.235393
0.523332	-0.229196	0.239611
0.0229078	0.676952	-0.176212
-0.140696	0.300472	-0.184939
-0.21412	-0.398161	0.245365
0.294561	0.523553	-0.22881
-0.297827	0.543963	0.21923
-0.185416	-0.19454	0.0949847
0.376649	0.330932	0.249996
-0.20533	-0.154597	0.0588364
-0.536945	-0.260568	0.230487
-0.0779485	0.553447	-0.24296
0.31667	-0.118429	-0.190487
0.631368	0.384104	0.0732529
0.621053	-0.342998	0.136456
-0.201206	-0.516655	-0.243998
-0.680419	0.314011	0.0175766
0.326157	0.5579	0.202763
0.472171	-0.557735	-0.0961695
0.324596	0.402247	0.249429
0.509451	-0.47034	-0.158457
0.247252	0.708072	0.000120586
-0.24418	-0.627233	-0.180391
-0.657247	-0.35893	-0.0237589
-0.247838	-0.0599458	0.0496714
-0.349446	-0.522087	-0.214603
-0.314236	0.212784	-0.219044
-0.278195	0.590394	0.197982
0.366807	0.564212	0.180507
0.627595	0.234338	-0.183379
0.289728	-0.205951	-0.203987
-0.500155	-0.233529	-0.244535
-0.492457	0.0191922	-0.249897
-0.613937	0.323186	0.15792
0.225532	0.335429	0.230916
0.636779	-0.33417	-0.120331
-0.209254	0.714872	-0.0503899
0.0192352	-0.576903	-0.237774
0.657378	-0.233491	-0.153131
0.690906	0.0739045	-0.156635
0.279378	0.0487938	0.125197
-0.133867	0.37493	0.228296
-0.0241201	-0.530169	0.248106
-0.377773	0.143603	0.230894
0.314529	-0.656514	-0.102616
0.602691	0.401044	-0.111157
-0.0788323	0.742469	0.0408381
-0.18918	0.512766	0.245628
-0.388415	-0.445335	-0.23288
-0.581485	0.175618	0.225742
0.177806	0.445681	-0.249186
-0.432273	0.545661	0.155018
0.630825	-0.0770654	-0.210085
-0.723334	-0.111489	0.0934535
-0.44946	0.0718915	0.245948
0.106954	0.656127	0.188003
0.33735	-0.374705	0.249965
0.0465142	0.408264	0.233585
0.563039	-0.437873	0.130455
0.373577	0.12566	-0.226483
-0.484325	-0.0500161	0.249657
0.297404	-0.276358	-0.231648
0.28258	-0.634666	0.156779
0.0685637	-0.364696	-0.214199
-0.0582529	0.67264	0.178381
0.516245	0.382146	-0.205552
0.0908381	-0.649847	-0.195224
0.685707	0.0984521	-0.159222
-0.672325	0.31994	0.051827
0.0129107	0.33115	0.184593
-0.27334	-0.43425	0.249656
-0.122238	-0.699687	0.135205
0.387535	-0.543227	0.185777
-0.682403	0.201038	-0.133453
-0.0636851	-0.731794	0.0864953
0.662742	0.250371	0.138004
-0.00846005	-0.338822	0.191196
-0.547186	-0.399564	-0.176007
0.242464	0.474512	-0.24783
0.12902	0.735041	-0.0429791
-0.411747	-0.0582363	-0.23541
-0.736043	0.0852154	-0.0666213
-0.51935	0.373373	-0.20737
-0.206483	-0.637333	-0.183353
0.581437	-0.467585	-0.0438367
-0.699532	0.165479	0.120872
0.698841	0.123007	-0.136289
-0.0651795	-0.708962	-0.132577
-0.513615	-0.52875	0.0791457
0.488705	0.28369	-0.241381
-0.308874	-0.126162	0.186619
-0.0152222	-0.74949	0.0133287
0.142266	-0.20623	0.0164276
-0.377479	-0.554144	-0.182841
0.161353	0.36907	-0.23033
-0.232094	-0.0942411	-0.0157678
0.539739	0.0238612	-0.246736
0.399155	-0.243259	-0.247871
0.398991	0.584621	-0.138999
-0.299562	-0.382756	0.24961
0.132452	-0.621151	0.210342
-0.363104	0.654803	0.0250656
0.34837	0.0971952	-0.208245
0.257022	0.291463	-0.223808
-0.454092	0.0986916	-0.247494
0.69394	0.266836	-0.0567478
-0.124819	0.308633	-0.185967
-0.230336	-0.157877	0.11734
0.179851	0.722076	0.0538238
0.712097	-0.15592	-0.100368
0.689124	-0.117542	0.151224
0.686252	0.275218	0.0720835
0.512191	-0.0183177	-0.249686
-0.363774	-0.54071	-0.198722
0.26092	0.0573145	0.0909759
0.738719	-0.129565	0.00151737
0.287191	0.134221	0.170334
-0.596945	-0.281401	0.192138
0.370094	-0.648612	-0.0400524
-0.0286105	0.620294	-0.218792
0.37073	0.23543	0.242486
0.247746	0.564126	0.221391
-0.630558	0.203429	0.189932
-0.00313612	0.565677	-0.241216
-0.541466	0.442586	0.150884
0.381873	-0.504016	-0.212096
-0.502485	0.222691	0.245026
0.699045	0.265124	-0.034325
-0.608249	0.221139	0.202069
0.0663784	0.724753	0.103021
-0.171378	0.721009	-0.0661225
0.119237	0.532734	0.245747
0.255114	0.0648577	-0.0802485
0.416202	-0.138202	-0.242329
0.707177	0.168186	0.104956
-0.254857	0.241099	0.200619
-0.608843	-0.381385	-0.121605
0.429676	0.270298	0.249884
0.550856	-0.0340904	-0.244551
-0.132435	0.693359	-0.141801
-0.604089	0.0327531	-0.226892
-0.329014	0.635423	0.126641
0.308619	-0.682307	-0.0238701
-0.704072	0.0120495	0.144265
0.64313	0.166326	-0.188438
0.0180273	-0.748243	-0.0277046
0.135137	-0.663037	-0.176885
-0.274151	0.681871	-0.0855153
-0.203174	-0.662391	0.159087
0.206568	0.166245	0.0857228
-0.499805	0.532154	0.0978293
-0.705722	0.244647	0.0390972
-0.482328	-0.574179	-0.00770694
0.729307	-0.0910211	-0.0853912
-0.678235	-0.0680347	0.171777
-0.101797	0.35348	-0.212215
0.541064	0.504049	0.0717906
-0.266566	-0.318454	0.235213
-0.278397	-0.639211	-0.153656
-0.685183	-0.0101612	0.167867
0.169913	-0.580276	0.227047
0.153104	-0.729965	0.0453731
0.22907	0.670753	0.137503
-0.247699	0.122365	-0.111566
0.0744353	0.510133	0.249517
-0.375232	-0.614103	0.119357
0.170773	-0.532466	-0.242894
-0.0971553	0.739258	-0.0466179
0.117266	0.23257	0.071561
0.381501	0.403593	-0.243792
0.455416	0.0257497	-0.246123
0.258786	-0.441197	-0.249736
-0.224262	0.385124	0.244023
-0.408172	0.111394	0.237879
0.172116	-0.547556	0.238806
-0.0533018	0.303709	-0.160532
-0.321897	0.0863642	0.186293
-0.162503	-0.592362	-0.222368
-0.600727	0.00281924	-0.228807
0.228724	0.643336	0.170556
-0.460302	-0.180753	-0.24994
-0.71491	-0.0215679	-0.127177
-0.359465	0.389398	-0.2482
0.620095	-0.111867	0.213478
0.207077	0.140453	0.0103875
0.620514	-0.134438	-0.210474
-0.236241	0.392446	-0.246458
0.461591	-0.148308	-0.249539
0.694464	-0.106992	0.146389
0.364866	0.171378	0.230461
-0.47484	0.555015	-0.0969854
-0.121109	0.344517	0.210534
-0.284978	0.20154	-0.199278
-0.337638	0.224568	-0.231452
-0.291736	0.690403	0.015632
-0.671263	-0.32293	0.0502311
0.637051	0.106146	-0.203058
0.0695183	0.486733	0.249861
0.688114	-0.230869	-0.107281
0.457118	-0.319437	-0.243257
-0.0383646	-0.366806	-0.212811
0.240107	-0.497914	0.244364
-0.222449	-0.638825	-0.177106
0.489355	0.271163	0.242826
-0.259351	-0.577573	-0.211604
0.219857	0.143768	0.078641
-0.21087	0.68589	-0.123134
-0.238552	-0.558285	0.22589
0.360182	-0.657807	0.00443281
0.663434	-0.283454	0.116015
0.579432	0.437108	-0.107278
-0.573623	-0.350068	0.181423
-0.635075	0.265954	0.164202
-0.178759	0.318327	0.210471
0.00398672	0.379113	0.218841
0.261513	0.70293	0.000445207
-0.327953	-0.50516	0.228121
-0.647803	0.366857	-0.0523021
0.0838725	0.603582	0.224801
-0.401047	-0.574635	0.149001
-0.132192	0.307244	-0.187354
0.621062	0.270862	-0.175992
-0.386241	0.456582	-0.229975
0.449258	-0.590556	-0.0626705
0.449089	-0.532147	0.154785
-0.340431	-0.306884	0.246504
0.555111	-0.443374	0.134959
0.657845	0.323781	-0.090076
0.573056	0.483694	0.00700017
-0.0797903	0.353026	-0.208415
0.696446	-0.11635	-0.141505
0.609573	0.424192	-0.060205
-0.611211	0.403387	-0.0923316
-0.187469	0.200956	0.108606
0.154974	0.356227	0.223747
-0.230388	0.138764	-0.0954767
0.456895	-0.591069	-0.0381519
-0.0237022	0.727805	0.102122
-0.392365	-0.0805748	-0.229369
-0.0409201	0.484382	0.249614
0.285896	0.611706	-0.17832
-0.479886	-0.262882	-0.245509
0.473256	-0.501897	0.162674
-0.663096	-0.328355	-0.0702019
-0.269589	0.473125	-0.246
0.0597863	-0.269989	-0.112075
-0.608053	-0.194195	-0.208255
0.230118	0.16725	0.126687
-0.414965	0.0358752	-0.235648
0.0187258	-0.647082	0.201958
-0.114209	-0.265815	0.134575
0.709258	-0.164349	-0.102434
-0.528759	-0.52858	0.0341851
-0.221069	0.135507	-0.0675337
-0.563785	-0.268025	0.216936
-0.292351	0.243107	-0.21944
0.342445	-0.0958714	-0.204088
0.112743	-0.315254	-0.187647
-0.445119	-0.450799	0.211357
0.238953	-0.474924	0.247988
-0.433302	0.396758	-0.234184
0.602033	-0.426572	0.0770215
0.259976	-0.688348	-0.0830384
0.2928	-0.557059	-0.213953
-0.581917	0.0695915	0.234719
0.233845	0.458582	0.249564
0.0271208	0.314564	-0.168952
-0.296119	0.171613	0.193949
-0.741439	-0.11184	-0.00931608
-0.523768	0.493437	-0.119496
-0.457969	0.53348	0.145788
-0.0125004	-0.647246	0.201948
0.0347325	-0.396428	0.228222
0.208696	0.386377	0.242478
0.631958	0.163227	0.197948
-0.379354	-0.628865	0.0868603
0.458313	0.482046	0.187688
0.137306	-0.563089	0.236993
0.505983	-0.44347	0.180649
-0.348198	0.663161	-0.0221697
-0.637138	0.314067	-0.135119
-0.316117	0.42876	0.247853
0.476526	0.236909	-0.247922
-0.120815	-0.717286	-0.103895
-0.300434	-0.680469	-0.055151
-0.497427	-0.0230789	-0.249992
0.591703	-0.46066	-0.00774824
0.00559609	0.429973	0.240003
0.268824	0.689607	0.0694805
-0.474359	-0.17252	0.249955
0.543864	0.140538	0.242259
0.436054	0.325726	-0.246047
-0.0819095	0.553507	-0.242808
-0.36675	-0.506801	-0.216169
-0.244193	0.586955	-0.209949
0.178558	0.391223	-0.240013
-0.326849	0.200835	-0.22126
-0.390857	0.0753947	-0.228273
-0.503658	0.00197804	0.249973
-0.37015	-0.179436	0.233754
-0.326556	0.674971	-0.00957452
0.406205	0.379429	-0.243682
-0.422363	0.61571	0.0407762
0.272405	0.569234	0.212895
0.0907235	0.719155	-0.109271
0.39581	-0.294032	0.249904
0.0949895	0.237991	0.0555398
-0.220897	-0.511143	-0.243454
-0.29735	-0.683155	0.0494426
0.179632	-0.381408	0.237386
0.658632	0.079466	-0.189203
0.260854	0.22981	0.198212
-0.310192	0.597318	0.180418
0.2273	-0.664657	0.146678
-0.109776	-0.736342	0.0522466
0.605815	-0.340992	0.15621
-0.709476	-0.145915	-0.110354
-0.581089	0.423402	-0.120612
-0.748994	0.0388248	0.000506119
-0.599711	0.0406599	-0.228651
-0.487558	-0.475808	0.172183
-0.60246	0.303012	0.179151
-0.703094	0.201675	0.0945125
-0.295909	-0.0721913	0.15593
-0.637373	0.379897	-0.0627338
0.172747	0.477487	0.249879
0.266512	-0.64644	0.15103
0.448728	-0.385284	0.232678
0.182197	0.348897	0.22623
0.676422	-0.159726	0.156414
-0.393584	-0.413428	0.239761
0.66364	-0.0407106	0.187915
0.0397154	0.52188	0.248904
0.289703	-0.6198	0.169067
0.67349	0.324908	0.0333446
0.251074	0.0847249	0.0852488
-0.284869	-0.372653	-0.248078
0.608214	-0.334173	0.157718
-0.634945	-0.190485	0.189638
0.606323	0.44112	0.00974053
-0.597658	0.0748638	0.228098
-0.40473	-0.411925	-0.237689
-0.493572	0.181408	-0.24866
-0.194926	0.612106	0.205485
0.687789	-0.0620638	-0.161796
-0.558309	0.497501	0.0330341
-0.403664	0.606011	0.102226
-0.2446	-0.542008	0.231392
-0.192763	0.391432	-0.241754
-0.151803	-0.677934	-0.156791
-0.285015	-0.0235664	0.129223
0.666529	-0.126871	-0.17504
-0.296909	-0.00654253	-0.145889
0.363699	0.485587	0.226092
-0.615172	-0.425463	-0.0318158
