0.327747	-0.0182112	-0.181667
-0.664354	0.0047759	0.188367
0.344811	-0.657678	-0.0604292
0.246777	0.349596	0.239384
0.0991859	-0.669997	0.176253
-0.437639	0.608901	0.00840108
-0.545544	0.498584	0.0731583
-0.701971	-0.127131	-0.130248
-0.673173	0.327332	0.027001
0.181817	-0.70435	0.103788
-0.565497	-0.008398	0.241251
-0.5593	-0.382687	0.175858
-0.412191	0.284831	-0.249998
-0.407818	0.602096	0.104285
0.515749	-0.145165	0.247425
-0.0157226	-0.749831	-0.00141211
0.734974	-0.132128	0.0401452
-0.370525	0.254236	-0.244818
0.338332	0.359265	-0.249915
-0.281074	0.0851598	0.141198
0.585111	-0.440198	0.0926231
-0.638226	-0.391009	-0.0275361
0.126246	-0.573512	-0.234283
-0.586434	0.0017598	0.234582
-0.231443	0.304068	-0.220469
-0.00322595	0.616375	-0.221258
0.0895958	-0.69425	-0.14999
-0.6658	0.271541	0.120498
0.573465	-0.453624	0.0951415
-0.236715	0.220841	0.177287
0.0809497	0.744782	-0.0203712
-0.400561	-0.0199575	-0.229588
-0.515477	0.311092	0.228212
0.599088	0.0918227	-0.226376
-0.223922	-0.47919	-0.248321
0.210278	0.451348	0.249991
0.391716	0.0191346	0.225556
0.624936	-0.366693	0.109846
0.0142522	-0.249733	-0.00833385
-0.0986438	0.34866	0.20869
-0.60906	0.238685	0.196812
-0.286188	-0.486713	0.241505
-0.240109	-0.072229	-0.0191913
-0.256644	-0.415196	-0.249717
0.540115	-0.161081	-0.241769
-0.585246	0.140779	-0.228272
0.216421	-0.364479	0.238133
-0.350458	-0.659548	-0.0393984
0.208759	0.184056	-0.115559
-0.442094	0.492515	0.190555
-0.206358	0.608235	-0.205559
0.559256	0.0571296	0.242147
-0.0223381	0.734157	0.0866689
-0.448836	0.0403949	-0.245081
-0.0570069	0.263276	-0.0965044
0.186097	0.166938	-0.000412056
-0.216101	0.208356	0.150248
-0.252441	-0.0271212	0.0439526
0.512037	0.468614	0.157554
0.454372	0.587438	0.0601504
-0.427685	-0.0730476	-0.241097
-0.596168	0.0197732	-0.230627
0.194865	-0.556438	-0.233403
0.727191	0.106343	-0.0854975
0.144387	0.209247	-0.0457823
-0.276414	0.654203	-0.135334
0.289495	-0.344456	-0.244939
0.424074	-0.482092	-0.20571
-0.519008	0.0919659	0.248528
0.152056	-0.513317	0.247486
0.336457	-0.135362	0.2089
0.723635	-0.013151	0.111507
0.187829	-0.383692	0.239165
-0.623234	0.416595	0.0132652
0.588914	0.1945	-0.219207
0.74608	0.0763143	0.0037046
-0.659785	0.347421	0.0463526
0.319564	-0.667285	0.0704841
-0.189941	0.504768	-0.246888
-0.542711	0.388079	-0.185871
0.691048	-0.136817	-0.143859
-0.0850214	0.496676	0.24997
0.210908	0.717075	-0.0356285
0.32106	0.677437	-0.0128972
-0.730192	0.0867457	-0.0843893
-0.107715	-0.477989	-0.249799
0.114889	-0.452443	0.247786
-0.449053	-0.114485	-0.247309
-0.122477	0.239563	0.0957321
-0.339203	-0.465541	0.238165
-0.162612	0.371043	0.231293
0.332434	-0.0443846	0.188153
-0.565746	0.423553	0.140583
0.199633	0.443104	-0.249608
-0.429397	-0.35827	-0.242882
-0.356342	0.627467	-0.115746
-0.57722	0.474165	0.0385846
-0.357553	-0.0495168	0.207773
-0.0173125	0.469162	0.24813
-0.66731	-0.267514	-0.120696
-0.162574	-0.586023	0.225394
-0.541763	-0.134815	0.243111
0.239933	-0.305289	0.223654
0.259895	0.46124	0.248263
-0.403992	-0.435144	-0.231749
-0.0984035	-0.561281	-0.240046
0.312677	0.498077	0.233967
-0.0777636	-0.607356	0.223351
0.448873	0.5943	-0.0508789
-0.591786	-0.450671	0.0551028
0.451764	-0.223941	-0.249964
-0.0909264	0.313079	-0.179525
-0.634235	0.096242	0.206104
0.0245862	-0.301169	0.152852
0.341554	0.663949	-0.0407879
-0.272193	0.0517649	0.11315
-0.462941	0.589895	0.00834773
-0.714289	-0.0440693	0.126476
0.1356	0.703963	0.124308
-0.0760876	0.735351	-0.0724318
-0.58885	-0.434515	0.0936143
0.095037	-0.248433	0.0879755
0.516491	-0.504205	0.11536
0.181568	-0.420882	0.24651
0.368722	-0.616684	-0.121465
0.10559	0.456248	-0.247983
0.212214	0.257898	-0.18692
0.261173	0.700231	0.0362948
-0.0366653	-0.749006	-0.00697283
-0.589736	-0.463076	0.00952729
-0.735835	-0.134677	0.0310949
-0.503586	0.267156	0.239982
-0.389372	-0.179725	0.239661
-0.131985	0.263206	0.142292
0.128268	0.21505	0.0141085
0.327895	-0.24176	-0.232212
-0.0755913	-0.2402	0.0300604
0.236032	0.641422	-0.169818
-0.282776	-0.602342	-0.187451
0.689324	-0.208037	-0.118684
0.094721	0.566721	-0.238616
0.124724	-0.614635	0.215243
-0.367633	0.620086	0.117107
-0.20964	0.562609	-0.228955
-0.358551	0.640366	0.0882329
0.748827	0.0401912	-0.00688372
-0.229902	-0.265574	-0.20094
0.52055	-0.527509	0.0660893
0.603668	-0.315929	0.172091
0.562831	0.0185352	-0.241896
0.70813	0.207687	-0.0766558
-0.105544	-0.40502	0.236358
-0.110374	-0.224644	-0.0121372
-0.710161	0.0749438	-0.129071
0.185015	-0.658449	0.169302
-0.172168	0.267116	0.171174
-0.152712	-0.230968	-0.112788
-0.0959233	0.267368	-0.125966
-0.614153	-0.290054	-0.174318
-0.221727	-0.710505	-0.053086
0.232903	0.09668	-0.0328815
0.408348	-0.127226	-0.23932
-0.420632	0.613293	0.0558592
-0.697167	0.0666073	-0.149543
0.622222	-0.270916	-0.174891
-0.131503	0.667109	0.173549
0.422864	0.011725	0.237855
-0.267546	-0.0338036	-0.0972089
-0.595925	-0.44744	0.0487324
0.447716	0.514124	-0.171667
-0.516014	-0.330437	-0.223132
0.485027	-0.287796	0.241674
-0.476665	-0.439222	0.201359
0.737913	0.132705	-0.011166
0.6421	-0.38399	-0.0302911
-0.674138	0.190808	-0.149169
-0.406768	0.0692221	-0.234231
0.521562	-0.512964	-0.0942695
0.552477	0.507181	-0.00347131
0.318513	0.0741448	0.180502
0.557907	0.236707	0.226395
0.0920232	-0.58312	0.233108
0.232508	0.428513	-0.249689
-0.598344	0.329779	-0.170105
0.672057	-0.0878454	0.175774
-0.225234	0.560754	-0.227205
0.244248	0.384673	0.246037
0.0165427	-0.410524	-0.233567
0.150638	0.720177	0.0831616
0.193784	0.684547	0.13338
-0.471981	-0.472749	0.185115
-0.389906	0.547958	0.180932
-0.51156	0.0407399	-0.249652
-0.572507	0.398648	-0.153112
-0.431003	-0.613641	0.00777181
0.270017	-0.613947	0.18265
-0.35004	0.162538	0.222462
0.398118	0.243622	-0.247778
-0.457882	-0.526445	0.153005
-0.649424	-0.267573	0.146764
0.0470869	0.745483	-0.0388114
0.500959	0.146025	-0.249047
-0.497887	0.420326	0.1988
-0.151471	0.672485	-0.163257
0.276913	-0.535694	0.227781
0.141199	-0.450786	0.24847
0.117146	0.722542	-0.0932035
0.462233	-0.562976	0.1016
0.545397	0.383372	0.186347
-0.321716	0.677421	0.00576874
-0.360086	0.41184	-0.245531
0.480626	-0.574318	-0.0234879
0.717687	-0.204113	0.0437175
-0.186077	0.34806	-0.226732
0.335652	-0.471938	0.237148
0.0440199	-0.445631	-0.24449
0.11491	0.451939	0.247721
-0.277935	-0.3161	0.23716
-0.317753	0.302541	0.24238
0.0254194	0.747124	0.0348721
0.403521	-0.156711	-0.240822
-0.439287	-0.221111	-0.249865
-0.522724	-0.49407	-0.120091
-0.0462749	-0.7246	-0.106722
0.202097	0.39361	-0.243289
0.227139	-0.659737	0.152963
-0.404927	0.557479	-0.163619
-0.550765	0.447613	0.136083
0.39466	-0.503555	-0.207269
-0.518695	0.390479	0.200564
0.403934	0.216387	0.246488
0.388009	0.631742	0.06507
0.562858	0.324626	-0.200178
0.324386	0.151486	-0.205767
0.23724	-0.671432	-0.13232
0.458053	0.575596	0.0835921
-0.0956423	-0.570694	0.237305
-0.600488	-0.418078	0.0939041
0.131412	0.276692	-0.158068
0.178738	0.726329	-0.0315752
-0.24979	-0.0109437	-0.00385099
0.460756	0.505697	0.16911
-0.169508	0.7222	-0.0634058
-0.215909	-0.357021	-0.235901
-0.186593	0.585752	-0.222107
-0.332774	-0.516288	-0.222371
-0.284962	-0.153426	0.177193
-0.651039	0.135949	0.187744
0.241938	0.173086	0.146576
0.364403	-0.211046	0.237225
0.608717	-0.380814	0.122337
0.742337	0.104337	0.0135275
-0.11208	-0.284258	-0.157135
-0.520064	-0.237848	-0.239446
-0.270969	-0.131905	0.151808
-0.219412	-0.707337	0.0679584
0.593695	0.410981	-0.114834
0.265815	-0.658091	-0.136037
0.314835	0.632096	0.141409
0.0792554	0.283812	-0.142618
0.470055	0.233416	0.248765
0.213717	-0.129995	-0.0085859
0.141346	-0.697887	0.132408
-0.281239	-0.644341	0.145854
0.509403	0.342545	0.222565
-0.562427	0.431765	-0.137113
-0.29307	0.517034	-0.231525
0.112984	-0.242186	-0.0912401
-0.224035	-0.713788	-0.0305922
-0.733138	-0.145363	0.0358929
-0.613178	0.240283	-0.193271
0.448172	0.458225	0.206472
0.688618	-0.244159	0.0965064
-0.585912	0.048381	0.234035
-0.37503	0.642145	-0.0560394
0.0828017	-0.736722	-0.0651528
0.322107	0.0913179	0.187642
0.669563	-0.168524	-0.161958
0.547717	-0.431101	-0.153889
0.54952	0.387872	0.180838
-0.660087	0.0344622	-0.191268
-0.0866403	-0.539809	-0.245596
-0.532642	0.322588	-0.217811
-0.586716	0.463247	-0.0349056
-0.592156	-0.410083	0.118205
-0.250349	0.00793096	0.0153905
0.165282	0.360973	-0.227802
0.422614	0.540392	-0.16702
0.282655	-0.607614	0.183172
-0.499857	0.158616	-0.248805
-0.724042	0.194738	-0.010652
-0.729224	-0.121394	0.0724916
0.188629	0.670904	0.154025
0.0697813	-0.393271	-0.228872
-0.0455709	-0.45539	-0.246389
-0.208517	0.664243	0.154935
0.617312	-0.0580088	-0.2193
0.335715	-0.648048	0.0983481
0.104468	0.738506	0.0453173
0.483065	-0.566906	0.0507029
0.0660208	0.262109	0.0986713
-0.54411	-0.161215	-0.240717
-0.305467	0.348731	0.247336
0.371666	-0.0856125	-0.220077
0.404416	-0.595023	0.119761
0.260784	-0.698202	0.0481751
-0.0568273	0.333443	0.190623
-0.0391951	-0.589429	0.232955
-0.624842	-0.389739	-0.081257
-0.2258	-0.314197	0.222963
0.00972722	-0.612749	-0.223092
-0.214417	-0.189037	-0.128994
0.370183	0.330695	-0.249974
0.660602	-0.105821	-0.184204
-0.569142	-0.072663	0.238871
-0.267956	0.33841	-0.240475
-0.0187225	-0.746631	-0.0394628
0.179507	0.72754	-0.017906
0.0870161	0.624988	-0.21292
-0.734883	0.0776124	-0.07344
-0.0236048	0.248976	-0.00680168
-0.264088	0.142289	-0.149975
0.338834	0.270334	-0.240983
-0.172995	0.380994	0.236318
0.0377659	-0.479298	-0.24926
0.596982	0.391672	-0.129246
-0.659119	0.307193	0.104331
-0.712532	0.0428784	0.129539
0.637362	0.247757	0.169438
-0.408619	-0.572945	0.144894
0.51653	-0.447046	-0.170196
0.190222	-0.674422	0.149015
-0.376219	-0.0367355	0.218215
-0.490502	-0.450249	-0.187093
-0.481844	-0.514269	-0.143475
-0.694382	0.283361	0.00363761
-0.219504	0.564995	-0.226352
-0.493084	-0.462868	-0.177255
-0.727809	0.0319409	0.101407
0.384818	-0.540736	0.188961
-0.172508	0.597283	-0.218381
-0.589677	0.0718191	-0.231641
-0.275231	0.568667	-0.212453
0.33002	0.475653	-0.237213
0.304495	-0.685321	-0.00627779
0.648263	-0.00794317	0.201255
0.40495	0.513409	-0.197021
-0.190433	0.630377	0.193322
-0.516317	-0.240059	-0.240175
0.409818	0.199373	-0.246051
-0.0273584	-0.644766	-0.203407
0.49045	-0.411717	0.206884
-0.265604	0.135957	0.147813
0.358122	0.579988	0.171772
-0.500774	0.227635	-0.244932
0.404418	-0.611612	-0.0900267
-0.328445	0.167896	0.212849
-0.547978	0.50833	-0.0356253
-0.400131	0.633035	-0.0235223
-0.720154	0.034988	-0.116865
0.439267	-0.0877445	0.24452
-0.257054	0.700028	-0.0460002
-0.569743	0.267132	-0.213991
-0.31886	0.64392	-0.121404
-0.733493	-0.0599715	0.0826548
-0.734405	0.150709	0.0120559
0.38127	0.641227	0.0444556
-0.648449	-0.0950088	-0.195856
0.509657	-0.0924099	-0.249354
-0.519582	0.188688	-0.244364
0.160639	0.615052	0.209976
0.662704	-0.284952	-0.11617
-0.134742	-0.732874	-0.0489691
0.253486	0.0642954	0.0749939
-0.272746	0.4088	0.249853
-0.514087	-0.281652	0.234674
0.0500107	0.48918	-0.249863
0.0847513	0.650585	-0.19529
0.266948	0.26341	0.216523
-0.274477	0.678847	0.0925534
-0.302948	0.421839	-0.24925
0.128227	0.627074	-0.207089
0.638978	0.0749589	0.204812
0.0567012	-0.502165	0.249943
-0.698116	0.260792	0.0485645
0.262007	-0.205579	-0.186069
0.593957	-0.0386391	0.231159
0.136992	0.578109	0.231607
0.228745	-0.359797	0.238907
0.214703	-0.33842	0.229468
0.0302976	-0.368231	0.213221
0.647904	0.26504	-0.149976
0.680566	0.182536	-0.143634
0.0484371	-0.251804	0.0562918
0.512922	-0.516059	0.103428
-0.483367	-0.546848	-0.0983234
0.544716	0.515195	-0.0109276
-0.156792	-0.624583	0.204389
0.565506	0.322758	-0.199148
