0.427309	-0.611224	0.0457395
-0.164949	-0.193375	-0.0454671
0.134677	-0.547894	0.241615
-0.27518	-0.257725	0.217662
0.733192	-0.0911714	0.0738663
-0.327886	-0.189271	-0.218542
-0.286811	-0.212683	0.205108
-0.0502039	0.637939	0.207183
0.549808	-0.369391	0.190091
-0.71671	0.139899	0.0974228
0.0850371	0.437205	-0.243964
-0.369119	-0.650162	0.0342972
0.139189	0.208483	0.0183878
0.198256	-0.15474	-0.0273041
0.0420546	-0.259416	-0.0789772
-0.458714	0.455837	-0.202441
0.0162341	-0.704327	0.143785
-0.229366	-0.34854	-0.235904
-0.366351	0.0689738	-0.215214
0.145738	0.312926	-0.196308
-0.644602	0.379124	0.0328849
-0.534554	-0.251957	-0.232867
-0.42848	0.460758	-0.214026
-0.0468505	0.746816	-0.0292372
0.294884	-0.637796	0.146377
-0.607272	-0.41754	0.0796682
0.114085	0.682187	-0.160518
0.2591	-0.654553	-0.144557
-0.204954	-0.597836	-0.212316
0.477963	-0.54276	-0.112588
-0.533918	0.0589354	-0.247223
-0.306197	-0.17724	-0.20279
-0.327702	-0.424567	-0.247347
0.236273	0.438578	-0.249993
-0.446338	-0.40677	-0.227393
-0.50209	-0.447471	-0.180904
-0.325253	-0.370229	0.249897
-0.0894847	-0.283359	0.146127
-0.143467	0.229939	0.100353
-0.391967	-0.32333	0.249868
-0.328472	-0.622438	0.144807
-0.0456651	0.623141	-0.216615
0.172416	-0.409494	0.243719
-0.701086	0.258979	-0.0360297
0.229979	0.53735	0.235288
0.548858	0.340382	-0.203056
0.249832	0.0102543	0.00461592
-0.562482	-0.471548	-0.0880223
-0.725416	0.189223	0.012463
0.748111	0.000915545	-0.0306706
-0.417848	-0.621599	-0.0224777
-0.159652	-0.539177	-0.242109
-0.698436	-0.272428	-0.0125094
0.218606	-0.357742	0.236599
-0.549017	-0.493388	0.0760863
-0.4109	0.152253	0.242241
-0.312913	-0.453985	-0.244664
-0.387123	-0.0112161	-0.223149
-0.206894	0.544019	-0.236158
0.29371	-0.148475	0.182469
0.745854	-0.0609029	-0.0287917
0.16963	-0.243343	-0.1454
-0.0501207	0.660567	0.190013
-0.237775	-0.704796	0.0552249
-0.727952	0.12428	-0.0750013
-0.488854	0.340425	-0.230955
-0.274385	0.695786	-0.0320755
0.255033	0.0237681	-0.0550565
-0.0181953	-0.493432	-0.249922
-0.301275	-0.68018	0.0548176
-0.00469942	0.342922	0.194516
-0.42369	-0.607994	0.0662586
0.491468	0.159708	0.249437
0.462427	-0.227242	0.249535
0.289732	-0.237454	-0.216278
-0.54399	-0.30049	0.218509
-0.224394	-0.120054	-0.0471746
0.747821	0.0323466	0.0271583
0.297833	0.564737	-0.208155
0.0616368	-0.282457	0.134248
-0.0122224	-0.749464	-0.0147636
0.229812	0.676769	0.128038
0.517382	0.137985	0.247472
-0.290786	0.50317	0.236463
-0.131931	-0.246056	0.117238
0.682394	-0.0687434	-0.167214
-0.28364	0.673679	0.0957075
-0.159877	0.732396	0.0133602
-0.35096	-0.392885	-0.248558
0.517089	-0.0854855	-0.248835
-0.504656	-0.305271	0.233314
-0.496578	0.10117	0.249908
-0.44188	0.569453	0.117272
-0.652861	-0.355519	0.0571289
0.578506	-0.0980194	-0.234466
-0.168173	-0.726777	0.044649
-0.183001	0.665693	-0.162025
-0.698698	0.226738	-0.0864772
0.685835	-0.285537	0.0591548
0.335688	-0.343948	0.249247
0.565334	-0.422593	-0.141904
0.166672	0.427809	-0.246637
0.618513	-0.301502	-0.164693
0.294266	0.0325194	0.144595
0.0689783	-0.264015	0.104476
-0.715717	-0.22325	0.0116743
-0.442737	-0.328996	0.244618
-0.0844998	0.407312	-0.23546
-0.436498	-0.301145	0.248157
-0.0029185	0.749863	-0.00810552
-0.189985	-0.637169	-0.187913
0.484145	0.0469183	-0.249631
0.413476	-0.0991483	-0.238547
-0.0499059	0.748257	-0.00634747
0.404105	-0.00491388	0.230889
-0.598305	0.426382	-0.0861399
0.120224	0.324826	0.197218
0.246932	-0.708183	-0.000553396
0.0231654	-0.326867	0.18113
0.690678	0.189483	0.125533
0.465799	0.50482	0.166053
0.713738	-0.0604349	0.125371
-0.282441	0.677712	-0.0874367
-0.195801	-0.259876	-0.178909
0.119519	0.378499	-0.22776
-0.252798	-0.572192	0.216189
-0.215169	-0.166749	-0.103031
-0.516272	0.477532	0.145552
-0.106791	0.226118	-0.00578582
0.396962	-0.0235355	0.228093
-0.455517	-0.09479	0.247577
0.487036	0.0421362	-0.249751
0.389058	0.531567	0.193142
0.621958	-0.189688	0.199819
-0.442064	0.184516	0.249119
-0.0961686	0.231382	0.0168917
0.218635	-0.276244	0.201701
0.515467	-0.276134	0.235189
0.434094	-0.0163434	0.24124
-0.678951	-0.300223	-0.0613054
-0.271663	0.525641	-0.232578
-0.405845	-0.550571	0.16926
-0.396402	0.579595	0.147041
0.343464	-0.461274	-0.238453
0.126258	-0.558824	0.239132
0.563059	-0.1979	-0.230489
-0.10371	-0.383985	0.228131
-0.287551	0.646561	-0.139262
-0.418801	0.158988	-0.244525
0.0433833	-0.533261	-0.247535
0.166368	0.283845	0.182378
-0.711809	-0.146879	-0.105165
0.329964	-0.369502	-0.249957
-0.352402	0.526361	-0.21141
-0.2467	-0.0673646	-0.0532274
-0.0188407	-0.639474	0.207291
-0.562974	-0.1235	0.238053
0.177563	-0.574583	0.228515
-0.253107	0.676934	0.113589
-0.403	-0.516585	-0.196003
-0.193366	0.214245	0.133457
-0.116005	-0.446981	0.247063
0.359016	0.0562243	0.209376
-0.459968	0.375962	0.231627
-0.441021	0.56147	0.1293
-0.501708	-0.495643	-0.142736
-0.145475	-0.376692	-0.230753
-0.4091	-0.626438	-0.0300339
-0.161426	-0.722795	-0.0679032
-0.433165	0.0779752	0.242725
-0.660222	-0.198866	-0.163038
-0.706002	-0.0799093	0.134854
0.671648	0.323329	0.0476263
0.473498	-0.485059	0.175695
0.555852	-0.483747	-0.0799429
0.061428	-0.556837	0.24264
-0.641226	0.378426	-0.0518436
-0.463666	0.107395	0.24884
-0.234364	0.152111	-0.117624
-0.107482	0.262264	-0.124896
-0.301648	0.517594	0.229529
-0.167294	-0.284516	-0.183354
0.534477	0.308559	-0.220853
-0.428279	-0.110382	0.243244
-0.739837	-0.120304	-0.014924
-0.55286	-0.345948	0.198349
0.123461	0.406857	0.23854
0.677279	-0.30828	-0.053814
-0.55603	-0.502436	0.0171991
0.295497	0.242435	-0.220518
0.505432	0.454326	-0.173895
0.566472	0.386233	-0.167474
0.578548	-0.199429	-0.22353
0.353406	0.0102491	0.202617
-0.537719	-0.0888873	-0.245914
-0.28217	0.0217298	-0.124151
-0.458538	0.316706	-0.24335
0.520522	0.0283973	0.249091
0.511155	-0.114976	0.248852
0.581061	0.000199942	0.236493
0.654843	0.231796	0.156871
-0.220509	0.169752	0.115501
0.194383	0.514003	-0.245044
-0.319137	0.545055	-0.212552
-0.452012	-0.578124	-0.0883881
0.0466339	-0.581983	-0.235519
0.480184	0.459695	0.188034
-0.494311	-0.326189	-0.232363
0.650608	-0.372122	-0.0156433
-0.00900678	-0.628111	-0.214641
0.222828	-0.531738	-0.237995
0.363267	0.0520405	-0.21167
0.416818	-0.0367894	0.236321
0.424203	-0.107706	-0.242103
-0.641515	0.388136	-0.0101437
0.416483	-0.272822	0.249991
0.738589	0.0410901	0.0709154
0.618415	0.0636897	0.218386
-0.683501	0.201116	0.131734
0.30834	-0.309747	-0.241946
-0.324901	-0.146019	0.204507
0.515402	-0.534001	-0.0621301
-0.217665	0.204411	-0.148115
0.517521	-0.0219028	0.249352
-0.0360392	-0.259442	-0.0763153
-0.14285	-0.381377	0.232159
-0.118881	0.475491	0.249805
0.0669085	0.552293	0.243571
-0.421499	0.0236743	-0.237574
0.322699	-0.615009	0.15703
0.350824	0.544072	0.201943
0.202177	0.216942	-0.14528
-0.351188	0.657283	0.0486503
0.636653	0.012244	0.209269
0.357075	0.571601	-0.179543
0.672582	-0.331436	0.00973102
0.345469	0.0716128	-0.202079
0.155771	-0.298549	0.189334
0.105913	-0.23557	0.0638262
-0.73401	-0.0378018	-0.0853414
0.0401228	0.748771	0.00878339
0.275173	0.213471	0.198689
-0.29244	-0.634305	0.152015
-0.577826	-0.264112	0.210207
0.187894	0.434685	0.248597
0.113955	0.237286	-0.0802524
-0.133288	-0.253058	-0.129267
0.0979094	-0.413508	-0.238466
-0.0716043	-0.610118	-0.222338
0.602662	0.135967	0.220502
0.0479243	0.245477	0.00745358
0.0663631	-0.528895	0.247807
-0.317291	0.132916	-0.195361
0.181639	0.259766	0.170296
0.0744275	-0.39214	-0.228752
0.525723	-0.0475276	0.248442
0.158848	-0.216346	0.0941343
0.302005	0.407137	0.249904
0.270403	0.20651	-0.192294
0.405452	0.126696	-0.238417
0.315177	0.641025	0.128716
-0.402154	0.183411	-0.24318
0.0463845	-0.724719	0.106456
-0.157291	0.421188	-0.244867
-0.221249	0.219909	-0.164731
-0.624237	-0.335436	0.13771
-0.680538	-0.0922342	0.166194
0.73095	-0.0825844	-0.0836196
-0.302535	-0.4304	0.248635
-0.357201	-0.0297791	-0.20606
-0.17216	0.395391	0.24036
-0.444373	-0.600282	0.0394746
0.0163468	-0.535298	0.24746
-0.50511	0.379878	0.212302
0.142287	-0.208256	0.0332611
0.258411	-0.163894	0.157687
-0.179816	-0.642297	-0.186047
-0.223153	0.397401	0.246056
-0.713107	-0.0787921	-0.123357
-0.711391	0.236872	0.0102352
0.58414	0.467485	-0.0301764
0.200878	-0.408835	-0.246011
0.275104	0.254226	0.216266
0.0159868	0.50853	-0.249846
-0.690009	0.138982	0.144701
0.4701	0.322597	0.239958
-0.672056	0.0318036	-0.180658
0.299725	-0.111209	-0.173173
-0.327075	0.147806	-0.20639
-0.211441	-0.237283	-0.171204
0.707114	0.175761	0.101136
-0.6306	0.236323	0.180063
0.435834	0.35479	-0.242194
0.294097	0.678248	0.0724715
-0.286465	0.104196	0.156228
0.666788	0.337458	0.0365194
0.113192	0.690753	0.150046
0.432692	-0.565064	-0.132974
-0.606474	0.305151	0.174611
-0.689136	0.164998	0.13777
-0.338357	0.254746	0.238019
0.244042	0.65691	0.14896
0.243975	-0.22834	0.187075
0.442017	0.323139	-0.245439
-0.280981	-0.693852	-0.0265527
-0.39257	-0.29553	0.249851
0.369427	-0.183488	0.234182
0.537511	-0.484532	0.111688
-0.567224	-0.367968	0.177427
0.469168	-0.569136	-0.0777972
-0.251473	-0.689461	0.0882908
0.211249	-0.615525	0.199423
-0.101864	-0.617338	0.216109
-0.675785	-0.281447	0.0930191
-0.723496	-0.146643	-0.0758753
0.466118	0.0443504	0.247972
-0.494682	-0.00472014	-0.249944
-0.499762	-0.101207	0.249804
0.402209	-0.101747	-0.235062
-0.133885	0.265836	0.146811
0.0117425	-0.515404	-0.249517
0.482813	0.573865	-0.00486121
0.50028	-0.554886	-0.0378794
0.193688	-0.215233	-0.13495
0.104205	0.485569	0.249977
-0.277104	0.115267	0.150162
0.742176	-0.104957	0.0148194
0.17404	0.710039	0.0954583
0.290377	0.537542	-0.224027
0.340028	-0.516286	-0.220293
0.122745	0.318819	-0.193441
0.38539	0.424593	-0.238977
-0.5179	0.0930753	-0.248624
-0.733733	-0.00466977	-0.0886674
-0.557995	0.472325	0.0954527
-0.142694	-0.730818	-0.0515937
-0.346191	-0.662734	0.0337895
0.243205	0.708892	-0.016566
-0.169032	0.307632	0.200755
-0.599667	-0.393146	-0.124049
-0.489919	-0.562323	-0.0455977
0.228003	-0.119833	-0.0610793
-0.402385	0.600237	-0.113731
-0.424346	-0.20484	0.248336
-0.017963	0.634087	-0.210838
-0.393025	0.623253	0.0800827
0.171336	0.183104	0.0195383
0.288762	-0.536662	0.224784
0.532373	-0.207377	-0.239606
0.668261	0.00233503	-0.184897
0.0448183	-0.246041	-0.00668688
0.503126	0.5454	-0.0626513
0.429792	0.416899	0.229662
0.114452	0.253432	0.11511
0.512592	0.119881	0.2486
-0.0648814	-0.666201	-0.183901
0.445424	-0.556131	-0.131665
0.487187	0.0341052	-0.24973
0.185686	0.169389	-0.0258514
-0.280865	0.05661	-0.13009
-0.126153	-0.223172	-0.0560295
0.239186	0.108779	-0.0788504
0.183559	0.212133	-0.119712
-0.028263	0.384668	-0.222343
-0.01666	0.285727	-0.129595
0.494297	-0.277583	0.240881
0.0926905	-0.232226	0.00454012
-0.321007	-0.423733	-0.247995
0.433081	0.24019	-0.249954
-0.267031	0.536958	-0.229263
0.709218	0.016092	-0.136571
0.394156	-0.501032	0.208798
0.144688	-0.415383	-0.242659
-0.414387	-0.244103	-0.249272
0.578762	-0.152766	0.229742
-0.17726	-0.691007	-0.130264
-0.707246	0.177545	0.0998579
-0.348745	0.567152	0.187114
-0.42772	0.612597	-0.0377025
0.565562	0.119811	0.237483
-0.0409014	0.379694	0.220341
-0.730489	0.0332376	0.0950034
0.535569	-0.385431	-0.192226
-0.125415	0.236588	-0.0925798
-0.645177	-0.0950926	-0.198371
0.61801	0.417388	-0.0458798
0.438061	0.603663	-0.0453129
-0.220296	0.713184	-0.0420835
-0.196011	0.280124	-0.193654
0.064596	-0.744174	0.0387915
0.269747	-0.0491576	-0.107282
0.0579458	-0.70139	-0.144824
-0.00393195	-0.540164	-0.24675
0.137062	-0.61058	0.216057
-0.264629	-0.0733534	-0.108158
-0.683568	0.00503411	0.169694
0.419844	-0.617302	0.0414123
0.0783212	-0.29998	-0.162522
0.137708	-0.670524	0.16868
0.204963	-0.360643	0.23504
0.320366	0.0214688	-0.174612
0.0217425	0.749619	0.00573069
-0.629283	0.365549	0.103098
0.0781619	-0.238377	0.0207722
