0.202236	-0.66315	0.158538
-0.520279	-0.535978	0.0388113
-0.0934104	-0.523601	-0.247961
0.459018	-0.298033	0.245488
-0.317465	-0.522396	0.22386
-0.527807	0.331586	-0.217467
-0.248816	-0.348722	0.239524
0.467289	-0.5287	-0.142216
-0.194934	-0.186185	0.0969473
0.241928	-0.633594	0.17533
-0.475313	-0.572987	-0.0522882
0.671207	0.2478	0.126746
0.277585	-0.160153	0.173982
-0.570703	-0.12246	0.235575
0.0864492	-0.443512	-0.245321
-0.675958	0.185247	-0.148817
-0.136258	-0.411219	0.240912
0.0230542	0.710814	-0.13379
-0.324991	-0.592978	0.177355
0.177623	0.235721	0.143307
0.290638	0.690944	-0.0144439
-0.333372	0.346377	0.249257
0.217906	-0.214756	0.157617
0.736375	0.0889633	0.0637718
0.381799	-0.225348	0.243495
-0.55276	0.489132	0.0762086
-0.361412	-0.0552218	0.210804
-0.430138	0.202714	-0.248798
-0.509789	-0.194589	0.245794
0.207484	-0.417011	-0.247646
-0.000830118	0.29664	0.145414
-0.500102	0.556135	0.0321612
-0.273749	-0.129639	-0.153783
-0.260302	0.422245	0.249969
-0.634532	0.188237	0.190526
-0.196516	-0.655171	-0.169237
0.430051	0.113577	0.243829
-0.300552	0.0691371	-0.160593
-0.314733	-0.263931	-0.233527
0.362197	0.407874	0.245828
0.536246	0.293028	-0.223964
0.282662	-0.442825	0.248712
-0.412806	0.47254	0.215069
0.378613	0.128485	-0.22905
-0.552086	-0.455691	-0.126117
0.233053	-0.134405	-0.0956772
0.424129	-0.538108	0.167974
0.515464	-0.186252	0.245333
0.421151	-0.538565	0.169591
-0.446093	0.320202	-0.245128
-0.338588	0.661936	0.0566123
0.567024	0.419079	0.14297
0.33561	0.358539	-0.249842
0.421116	0.402496	-0.235985
0.427436	0.607285	0.0602622
0.72701	0.0583967	-0.099489
0.0237569	-0.748846	-0.019702
-0.104333	0.430749	0.243463
-0.277166	-0.211567	0.199008
0.564605	0.368276	-0.179417
0.198121	0.153088	0.0136945
0.247764	0.0977072	0.0888825
-0.743326	0.0973147	0.0128626
0.246467	-0.481341	0.246653
0.274228	0.147943	-0.164321
0.559637	-0.468007	-0.0990593
-0.728229	-0.0355101	-0.10008
-0.598094	-0.446156	-0.043586
-0.0707877	-0.645274	0.200638
-0.04849	-0.247702	0.0345841
-0.489304	-0.500611	0.149971
-0.628442	0.244019	0.17936
0.130689	0.417393	-0.242029
0.0841662	-0.730171	0.0852772
0.65124	-0.090483	-0.194152
-0.379651	-0.0532095	0.221123
-0.442617	0.314177	-0.246311
-0.249901	-0.0138691	0.0119501
-0.111848	0.286123	-0.159157
0.154924	0.715985	0.0917529
-0.276502	0.696946	0.0102103
-0.0461256	-0.743471	0.0502367
-0.267409	-0.401413	-0.249375
0.175745	0.455596	-0.249727
0.602038	-0.113008	-0.223231
0.0475208	0.281707	-0.128724
-0.223239	-0.386704	0.244212
-0.420575	0.618415	0.0325103
0.448947	0.567385	-0.111979
-0.252291	-0.0731496	-0.0786117
0.593037	-0.39832	-0.128598
-0.567343	0.130869	0.236085
0.427744	-0.414807	0.230898
-0.342768	-0.584587	-0.175882
0.00148467	0.742375	0.0612656
-0.545904	-0.0962131	-0.244028
0.273684	-0.662483	0.12451
-0.505116	0.0538396	0.249873
-0.294918	-0.22823	-0.215289
0.65049	-0.0275491	-0.199191
0.322212	0.529295	0.219505
0.0825693	0.332136	-0.193942
0.741736	-0.0604269	0.0535671
0.64523	0.0880651	0.199085
-0.438478	0.546475	-0.149142
-0.407326	0.407216	-0.238178
-0.418746	0.197509	-0.247245
0.436036	0.503628	-0.186792
0.0955946	0.422021	-0.240774
0.109882	0.741057	-0.0204861
0.255835	0.137691	-0.13647
0.363239	-0.569942	0.177696
0.399101	0.51995	0.195785
0.282802	0.385783	-0.24906
-0.667165	0.17657	0.162322
-0.170901	0.184639	-0.0281705
0.20026	0.162168	0.0615172
-0.501403	-0.472439	-0.163741
-0.297536	-0.543857	-0.219357
-0.271914	-0.268475	0.220464
0.292865	-0.37852	-0.249081
-0.647425	0.377773	-0.0144691
-0.593395	0.114436	0.22719
-0.318994	-0.316732	0.244852
-0.129744	-0.259862	-0.136342
0.702611	-0.205352	-0.0931323
-0.200206	0.363635	-0.235145
0.145712	0.34236	-0.214793
0.541915	-0.374607	-0.193096
-0.327043	-0.400882	0.249396
-0.147726	-0.450548	0.24866
0.0545668	-0.457771	-0.246941
0.240787	0.212855	0.174915
0.169215	0.637155	-0.192722
0.161551	-0.670254	0.163123
0.676081	0.279778	0.0939285
0.176434	-0.435251	-0.248151
-0.308569	-0.683185	-0.0134596
-0.078884	0.663621	-0.184872
-0.675216	-0.155755	-0.158969
-0.383223	-0.00182275	-0.221052
0.594152	-0.384944	-0.138763
0.429142	-0.377647	0.239513
0.450508	-0.127252	-0.247961
0.259373	-0.664588	0.130219
0.0505893	-0.631424	0.211405
-0.185628	0.357296	0.230262
-0.70632	0.236628	0.0502221
0.696255	0.0281505	0.154143
-0.127748	-0.223149	-0.0592738
-0.390672	0.274826	0.248999
0.259077	0.0374559	0.0758059
-0.134817	-0.729323	0.0639624
0.0634127	0.738675	0.0650369
-0.266419	0.663156	0.128127
-0.0660805	-0.530976	-0.247528
0.69462	-0.0611649	0.153524
0.436054	-0.609809	0.0127841
0.000342909	0.346231	0.197117
-0.583488	0.462651	0.0514386
0.580679	0.265556	0.208116
-0.479289	0.36246	0.228729
0.73426	-0.0312126	-0.0855063
-0.254852	-0.0448407	0.0656245
-0.595197	0.456143	0.00762587
-0.525335	0.0634222	0.248295
0.249281	0.0521044	-0.0480878
0.0441436	-0.621537	0.217591
0.172545	0.656144	0.175086
0.264844	-0.504831	0.239975
-0.0517902	0.275595	-0.119517
-0.284667	0.662587	0.116588
-0.645875	-0.23831	-0.16429
0.423819	-0.477256	0.208278
0.295776	0.615306	-0.170643
0.289909	-0.657033	-0.122109
0.461147	-0.322609	0.241986
-0.147418	0.329496	0.207776
0.165506	0.729472	-0.0314683
-0.126105	-0.627457	-0.207121
-0.17605	0.194086	0.0766355
0.287351	-0.0903977	0.151633
-0.610434	-0.415578	-0.0750544
-0.542336	-0.0955858	0.244806
-0.558053	-0.434248	-0.14003
0.707609	0.210401	-0.0758155
-0.468409	0.286139	-0.245173
-0.597995	0.448392	-0.0357449
0.309378	-0.63994	-0.134398
-0.178206	-0.222166	-0.127248
0.363608	-0.652063	-0.0411498
-0.291382	0.688582	0.0338655
0.339381	0.18051	0.221668
0.382287	0.191849	0.239325
-0.186281	0.171265	-0.0389076
-0.262491	0.0638383	0.0983121
0.566489	0.31786	-0.200319
-0.291394	-0.573052	0.205144
0.219962	0.379768	-0.242411
-0.0171417	-0.362521	-0.209071
0.299693	0.597071	-0.185079
-0.320521	0.173136	-0.209961
-0.16816	-0.60435	-0.215157
0.256477	-0.117412	-0.122509
0.0949889	0.32915	0.194215
-0.737923	-0.073639	-0.0643041
-0.317844	0.413317	-0.249083
-0.250192	0.00392078	0.0105455
-0.0745066	-0.536086	0.246575
-0.58055	0.434383	0.108826
0.344768	-0.52996	-0.212164
-0.608367	0.231886	0.199199
0.0618329	-0.362302	0.212025
-0.50386	-0.0501717	-0.249919
-0.53865	0.519622	-0.0279521
-0.0385953	-0.747785	0.0246642
-0.736909	-0.110372	-0.0491135
0.537532	-0.345573	0.207774
0.192394	0.5039	0.246879
0.103998	-0.702084	-0.136042
-0.573148	-0.449803	-0.101259
-0.0593848	-0.747193	-0.0150086
-0.414219	-0.0217042	0.235029
0.666122	-0.162195	0.167507
0.426962	-0.0844571	-0.241465
0.609394	-0.436697	0.0120283
0.364291	-0.655462	-0.0073396
-0.133899	0.692199	0.143046
0.284934	0.253095	-0.21992
-0.291182	0.029487	-0.139695
-0.370839	-0.641394	0.0668994
0.247937	0.248746	0.200901
-0.745529	-0.00315323	0.0470343
0.540356	0.314114	-0.216494
0.152217	0.42831	0.245835
-0.727705	-0.144917	-0.0627594
0.41084	-0.559955	-0.157059
-0.68662	-0.130245	0.151503
-0.670376	-0.252636	-0.125183
0.0707812	0.312442	-0.173865
-0.273144	-0.045057	-0.112683
0.659555	0.221211	-0.155615
0.506226	-0.114191	-0.249281
-0.463529	0.309616	-0.243316
0.236914	0.284243	-0.21356
-0.142266	-0.217916	0.0708313
0.740882	0.00282055	0.0668828
-0.56996	-0.290684	-0.207254
-0.579737	-0.357123	0.172549
0.728537	0.0396563	-0.0988763
-0.243445	-0.128543	-0.109585
0.596391	0.434998	-0.0759714
-0.66225	-0.0948659	0.184216
0.549538	0.50465	0.0439956
0.375526	-0.275122	-0.247611
-0.222745	-0.144369	0.0864929
-0.303908	-0.592681	0.186884
0.150176	-0.344392	-0.216915
0.202267	-0.265753	-0.186907
0.265597	0.688746	0.0759559
-0.106906	-0.582565	0.23234
-0.062154	-0.287623	-0.142028
-0.0663816	-0.658322	0.190699
-0.576152	0.394123	-0.152556
0.209675	-0.20933	-0.144909
-0.0951073	0.583156	-0.232904
0.429745	0.396477	0.235214
0.339403	0.613474	0.148519
0.286209	0.631244	0.158787
-0.733124	-0.0551417	0.0847548
-0.743067	-0.101364	0.00506264
0.499023	0.383214	-0.214034
-0.722584	-0.183784	0.0467522
0.299199	0.561197	-0.209789
0.349975	-0.321975	-0.248802
0.696366	-0.223576	-0.0946837
-0.150444	-0.732818	0.0307554
-0.670333	0.243128	-0.130785
-0.601504	0.0839458	0.225787
0.434227	0.291628	0.248933
-0.0914211	-0.744376	-0.00393981
-0.181723	-0.176538	0.0408224
0.0125901	0.580118	-0.236768
0.391462	0.569714	-0.161016
0.238245	0.0856488	0.0397011
-0.297762	0.0494234	-0.152417
-0.111148	0.247788	-0.101595
-0.677365	0.312154	0.0454681
0.214327	0.204429	-0.144778
0.207176	0.259699	0.185331
0.636772	-0.386275	0.0508536
0.697626	0.00467227	-0.153094
0.147325	0.233076	-0.110474
0.145208	0.20379	0.0107376
-0.444089	0.553431	0.136298
0.585706	0.224128	0.215266
0.571448	-0.0944211	0.237124
0.101696	0.418955	0.240324
0.0277494	-0.663364	0.188739
-0.532434	-0.516171	-0.0643942
0.170656	-0.590377	0.222213
0.157346	-0.57573	-0.23048
-0.500861	0.3872	-0.211638
0.383045	-0.266247	-0.247744
-0.499574	-0.0450583	0.249995
0.30872	-0.0710551	-0.170102
-0.0564813	0.262139	-0.0935297
-0.73314	0.106102	-0.0672754
0.370459	0.148398	0.228723
0.171101	-0.293856	0.192127
0.0150613	0.252918	0.0408869
-0.486041	0.0126218	-0.249619
0.417583	-0.387299	-0.240134
0.343251	-0.323745	0.248409
0.173298	-0.615024	0.207814
-0.345673	-0.657312	0.0601199
0.251465	-0.706525	0.00541419
-0.0228958	0.257156	0.0634026
-0.437113	-0.219332	0.24976
-0.443372	-0.425752	-0.22214
0.0789984	-0.522794	0.248344
0.133922	-0.629707	0.20451
0.252157	-0.704741	0.0274041
0.330114	0.585316	-0.181438
-0.454226	-0.585293	0.0669436
0.357458	-0.540007	0.201779
-0.720496	0.0060848	-0.117772
-0.732478	-0.0243231	0.0909169
0.201844	-0.702306	0.0962334
-0.019521	0.734689	0.0854359
0.566837	-0.0767831	0.239403
0.100048	0.231723	-0.0345476
0.0549186	-0.313646	0.171837
0.293179	-0.56054	-0.211949
0.25318	0.575714	0.214192
0.022936	0.302584	-0.154495
0.0109064	0.335334	-0.188264
-0.286101	-0.0732856	0.143573
-0.214302	-0.197549	0.137886
-0.646274	-0.276383	-0.146063
-0.571689	0.0626578	0.238449
-0.658408	0.352558	0.0395056
-0.579517	-0.470098	-0.0433558
0.141107	-0.278318	0.164842
0.608111	0.216866	0.203209
-0.470568	-0.181293	-0.249963
0.33148	0.345873	0.249122
0.563084	0.122925	0.238058
-0.334191	-0.478002	-0.235735
-0.27425	0.404218	0.249734
-0.514817	-0.131119	-0.248039
-0.264086	-0.701292	-0.0177692
0.231589	0.124177	-0.0789092
0.648492	-0.237973	0.161568
-0.339193	0.0802359	-0.198907
-0.15379	0.347193	-0.219169
0.171887	-0.453118	0.249527
-0.566071	-0.311482	0.20286
0.657078	0.361405	-0.00669593
-0.49996	-0.012256	-0.25
0.70042	-0.236163	-0.0728091
0.443249	-0.216908	-0.249915
-0.242586	-0.570895	0.219154
-0.522931	-0.324437	-0.221773
0.14086	0.247742	0.127552
0.0409112	0.639465	0.206599
0.472809	0.313245	-0.24081
0.721669	0.152458	-0.0777656
0.427877	-0.180695	0.247462
0.371178	0.547274	0.191026
-0.515949	-0.523723	0.0847964
-0.435593	-0.107691	0.244682
-0.393292	-0.63563	-0.0355111
0.524488	0.0457343	-0.248594
-0.130647	0.431863	-0.245189
0.747245	0.0548727	-0.0192641
0.508358	-0.551425	0.000969489
0.423132	0.148827	-0.244647
-0.253914	-0.0482497	-0.0644777
0.228229	-0.103728	-0.0186278
-0.309868	0.528877	0.223021
0.272257	0.698243	0.0166507
-0.289765	-0.438294	0.248704
-0.183604	0.170519	0.0169202
-0.634735	-0.311759	-0.139939
0.648349	-0.320052	-0.112926
-0.547542	-0.0850461	0.244074
0.340334	0.0293904	-0.193416
-0.67687	0.285796	-0.0860254
0.475356	-0.562755	-0.0805955
0.207968	-0.662355	-0.157391
0.0337735	0.492632	0.249923
0.512579	0.48728	0.139837
-0.7406	-0.0289929	0.0658643
0.144317	-0.631759	0.20146
-0.387196	-0.572918	0.160724
-0.162646	-0.200015	-0.0619516
-0.248874	-0.0621073	-0.0566668
-0.484701	0.30688	-0.238895
-0.213994	-0.674991	0.138544
-0.543707	0.165555	-0.240474
-0.198344	-0.621853	0.197932
0.382746	-0.582057	0.154399
0.699783	-0.171509	0.117823
-0.102481	-0.2377	0.0659306
-0.413045	-5.30219e-05	-0.23439
0.405763	-0.552241	-0.167839
-0.716094	-0.0913808	0.115151
-0.669402	-0.334472	-0.0290041
0.419856	-0.516157	-0.187504
0.513506	0.366386	0.213043
0.115175	0.434219	0.244791
0.709136	0.0165846	0.136679
-0.462162	0.0558872	0.247612
-0.702046	-0.0731683	0.141867
-0.396595	0.0363237	-0.228359
0.546504	0.0395454	0.245362
0.2202	0.38562	-0.243662
0.492378	0.556905	-0.0572508
0.146038	-0.283006	0.171885
0.344577	0.594226	-0.166033
-0.477841	0.395455	-0.219177
0.355736	0.0304689	-0.205091
-0.481361	-0.357105	-0.229407
-0.0718493	-0.531809	0.2473
0.613924	0.378286	-0.11666
