-0.250627	-0.701354	0.0507748
-0.316695	-0.0972134	0.184482
0.593591	0.197051	-0.21625
-0.434047	-0.587719	-0.096504
-0.0802583	-0.623681	-0.214253
-0.0566807	0.332766	-0.190034
0.271545	0.0249921	-0.104073
0.309945	0.343572	0.247204
-0.50677	-0.52894	0.0918252
0.369025	-0.647488	0.0484252
0.62047	0.188716	-0.201091
0.254942	-0.108878	0.113439
0.0740824	0.238793	-0.00322743
0.0927962	0.25586	-0.102921
0.228147	0.229776	-0.177354
-0.419222	0.459705	0.218125
-0.722009	-0.165892	-0.0671179
-0.246603	-0.0504068	-0.0291184
0.236042	-0.111784	-0.0739058
0.28405	-0.606294	-0.183733
-0.193739	-0.561247	-0.231758
-0.586746	-0.232074	0.212945
-0.112046	-0.456822	-0.248237
0.625654	-0.288177	0.163837
0.216046	0.251425	0.18468
0.630815	-0.322825	-0.137758
-0.444385	0.155474	-0.248289
-0.194347	-0.236066	0.157405
-0.11735	-0.313106	-0.187265
-0.508762	-0.111731	-0.249126
-0.20415	-0.720996	0.0181347
0.270989	-0.366005	0.245991
0.12424	0.709762	0.117712
0.0589686	-0.424842	0.239681
-0.115081	0.738023	0.0389884
0.477311	-0.35174	0.232093
0.097634	-0.478489	-0.249728
-0.0547348	0.655228	0.194141
0.53092	0.520726	0.0559397
-0.668344	-0.257977	0.125176
0.443898	-0.183366	0.249221
0.622842	-0.0236434	-0.217484
-0.104855	-0.673471	0.171835
0.0419395	0.747933	-0.0210976
-0.656522	-0.256535	0.143288
0.183413	-0.170318	-0.0121829
0.342161	-0.405424	0.248131
-0.353172	-0.573315	0.180124
0.330292	-0.312715	-0.245888
0.289839	0.689368	0.032939
-0.74877	0.0323912	0.0162624
0.706195	-0.0148252	0.141137
0.24503	-0.14502	0.127116
0.242232	-0.69283	-0.0881195
0.0999248	0.62654	0.210763
0.735585	0.021467	-0.0827758
0.325775	-0.59351	0.176513
0.270687	0.581251	-0.206314
0.324566	-0.67603	0.00683872
-0.412217	0.507806	-0.196893
0.0703769	0.634346	0.208303
-0.745302	-0.0384333	0.042899
0.588902	-0.386354	-0.144052
-0.159093	-0.714091	-0.0941377
-0.304284	0.611769	-0.170042
-0.0569534	-0.264293	-0.0988204
-0.436032	-0.183114	-0.248529
-0.411527	0.594554	0.112844
0.0135614	-0.250385	0.0193714
0.679659	-0.254379	-0.107508
-0.559012	0.44779	0.125448
-0.459516	0.0448599	0.247049
-0.104273	0.230597	0.0390984
0.682007	0.308981	0.0251271
0.374398	0.479443	0.22532
0.740803	-0.100619	-0.0345213
-0.120916	0.73563	0.047212
-0.624965	-0.412244	0.0256262
0.119996	0.410688	0.239365
-0.451146	0.280524	0.248039
-0.192329	-0.614232	0.204616
-0.27785	-0.272127	0.223964
0.576823	0.410009	-0.13915
0.694032	-0.228308	0.0965116
-0.193495	0.293807	0.201337
0.674287	-0.197581	-0.146416
-0.16966	-0.730444	-0.00746069
0.546009	0.225744	-0.232914
-0.414268	0.260825	0.249781
0.0899859	0.281388	0.1437
0.246554	0.0549455	0.0359748
0.0362401	0.253376	-0.0542403
-0.113533	0.509912	-0.248995
0.163779	-0.226777	0.118251
0.528352	-0.471647	-0.13833
-0.51775	-0.512823	-0.100901
-0.313283	0.679888	-0.0264697
-0.497276	-0.378846	-0.216422
0.185838	0.385552	0.239408
0.180644	-0.2874	0.19164
0.26301	0.698752	-0.041019
0.298919	0.0393898	-0.151984
-0.0864842	0.391233	-0.229424
-0.331531	0.224668	-0.22934
0.39091	-0.105094	-0.231161
0.393767	0.267115	-0.248828
-0.523235	-0.0408975	-0.248764
-0.73066	-0.168049	0.0114772
-0.444596	0.162028	-0.248559
0.19434	0.185821	0.0953123
0.30641	0.280551	0.235267
0.2774	-0.66823	0.111975
0.377313	0.359176	-0.249122
0.698009	0.180859	-0.11676
-0.359336	-0.36029	-0.249843
0.0151216	-0.685883	-0.166989
-0.748226	0.0465014	0.0128399
-0.157743	0.222287	0.103806
-0.293943	0.523951	-0.22879
-0.707096	-0.113325	-0.125667
0.484229	0.527762	-0.125447
-0.113916	0.674823	0.168842
0.325748	-0.661725	0.0778871
0.257418	0.089934	0.104037
0.349574	0.162114	0.222153
0.194487	0.429041	-0.24832
0.523772	-0.285312	0.23065
-0.160915	0.652839	0.181068
-0.309213	-0.216709	0.217982
-0.598648	0.169613	-0.218092
0.275705	-0.613698	-0.180681
0.574389	-0.139907	0.232779
-0.552004	0.0933336	0.242733
-0.559073	-0.362789	-0.186518
-0.449412	-0.303334	-0.246412
0.320703	-0.129858	-0.196934
-0.612138	-0.394623	-0.101847
0.101243	0.378646	0.225443
0.281795	0.282015	-0.228545
-0.680225	0.0934348	-0.166361
-0.285908	-0.662354	-0.116062
0.549748	0.381352	-0.184163
0.149358	-0.682383	-0.15193
-0.424602	0.511974	-0.187698
-0.334654	-0.203021	-0.22519
-0.61196	0.0402252	-0.222862
0.593843	0.207673	0.214082
-0.185301	0.173787	-0.044784
0.25439	-0.214599	0.185875
0.00844204	0.532376	0.247886
0.695053	-0.280468	-0.0156886
-0.118125	0.711231	-0.116922
0.141387	0.432743	-0.245963
0.0804438	-0.6866	0.160953
-0.152059	0.369937	-0.229115
0.534537	-0.34926	-0.208113
0.513757	0.546218	0.00817469
0.304898	-0.0208167	-0.1572
-0.628481	-0.396746	-0.0577708
0.737708	-0.0256168	0.0760476
0.233177	0.651379	-0.160284
-0.0993416	-0.582454	0.232903
0.239271	0.683522	-0.110627
-0.158155	0.685732	-0.144887
0.407834	-0.178222	-0.243892
0.449779	0.371812	0.235621
0.127454	-0.325986	-0.200012
0.550844	0.31633	0.21028
0.476172	0.500288	-0.161691
-0.470941	-0.11074	0.249474
0.630867	-0.398132	0.0445961
0.541025	-0.194413	0.238518
0.600455	0.449034	0.0103639
0.684653	-0.291324	-0.0541921
0.728643	-0.0965251	0.0852702
-0.215724	0.189228	0.130816
0.0970873	0.743233	0.0150314
0.354064	0.00277187	-0.202992
0.0779082	0.604343	0.224819
-0.139203	-0.215524	0.0569362
0.612799	0.193133	-0.205402
0.244442	0.593214	-0.206031
0.0423201	-0.458177	-0.2468
0.234717	0.180762	-0.144872
0.360328	0.587441	0.163473
0.706326	-0.0259108	-0.140475
0.243761	-0.163838	-0.141217
0.713924	-0.0493251	0.126512
0.328084	0.0156996	0.181862
-0.60342	0.414464	-0.0930221
0.104451	0.723538	0.0955042
0.0474826	-0.30606	0.162154
0.263728	0.479701	0.245462
-0.716667	0.214774	-0.0302936
-0.473803	0.424428	0.209704
-0.361051	0.0248427	-0.208398
0.585961	0.274752	0.202086
0.397446	0.634482	-0.0255998
-0.155132	0.227694	-0.110037
0.425479	-0.302167	0.249042
-0.656168	-0.362761	-0.010758
0.588485	0.100955	-0.23038
0.664216	-0.34716	-0.0162995
-0.199618	-0.201361	0.125077
-0.0663877	-0.44491	-0.244915
-0.0939987	-0.564588	0.239299
0.551726	0.366607	0.19005
0.449375	-0.573484	0.101259
0.379758	0.274743	0.248036
-0.114097	0.350768	-0.212843
0.396205	0.0793332	0.230862
-0.204597	0.689767	0.119719
-0.492656	0.332545	-0.231498
-0.478787	0.283585	-0.243539
-0.256313	-0.0697092	-0.0869907
0.307536	0.0921483	0.174571
-0.396488	-0.328543	-0.249554
0.199041	-0.579217	-0.223276
-0.119718	0.291917	0.168714
0.254689	-0.0680347	-0.0813888
-0.684942	-0.301412	0.0288627
0.652947	0.353054	0.0616276
0.695026	-0.215539	0.103255
-0.444353	0.0960411	0.245846
0.0744655	-0.741738	-0.0473928
0.346431	0.070242	0.202563
0.315658	-0.325797	-0.245663
0.460418	-0.430565	0.213314
-0.259542	0.694019	0.0666148
0.161815	0.228999	0.119483
-0.49585	0.0354249	-0.249983
0.464301	0.57933	0.0610637
0.509107	0.509342	0.118462
-0.279657	0.581085	0.203741
0.447952	0.112187	0.247062
-0.161321	-0.261999	-0.15973
0.313475	0.321983	-0.244821
0.448351	0.349182	-0.240494
0.325691	0.480035	0.236823
0.597128	-0.442216	0.0585567
0.316303	-0.490764	-0.235514
0.101937	0.643389	0.198931
0.211896	-0.219631	-0.156674
-0.165373	0.691198	-0.134547
0.56874	0.334191	0.192378
-0.308921	-0.487657	-0.237759
0.456143	-0.494918	-0.180416
0.156656	0.490229	-0.24957
0.547771	-0.208079	0.234757
-0.408311	-0.628837	-0.010748
0.467209	0.557134	-0.104513
0.534373	-0.35301	0.206821
-0.467717	0.0425043	-0.24815
-0.137733	0.271778	0.156053
0.327278	-0.665585	0.0638943
0.607893	0.433902	0.0394806
0.727012	-0.112922	0.0832562
-0.477685	0.11074	0.249814
0.586565	-0.432503	-0.100801
-0.703283	-0.239365	-0.059153
-0.556252	0.443695	-0.13324
-0.506096	0.190674	-0.246644
0.41251	-0.287748	0.249983
0.0207693	0.469054	-0.248134
-0.155443	-0.733715	0.000271513
0.178275	0.595402	-0.218479
0.0977693	0.50801	0.249398
0.307136	-0.00838308	-0.15921
0.232106	0.153797	-0.1158
0.00513472	0.40133	0.229719
-0.668947	-0.0614976	-0.181648
0.54114	-0.252596	-0.230334
0.331418	0.411772	-0.248361
0.215896	-0.266716	0.194671
-0.230016	-0.194948	-0.152001
0.126324	-0.24658	-0.113117
-0.113203	-0.740791	-0.0174425
0.611792	0.238287	0.194908
-0.0151034	0.581517	0.236269
-0.233782	0.120405	-0.0794682
0.430454	0.139112	0.245422
-0.62293	-0.313413	-0.153495
-0.662537	0.299213	0.10481
-0.0257465	0.708792	0.136787
0.331355	0.656048	0.0853507
-0.346749	0.24923	0.239112
0.563461	0.486916	-0.0512102
-0.492947	-0.122726	0.249872
-0.255951	-0.308024	0.229341
-0.0189153	0.257305	0.0627358
-0.563954	0.409215	0.154201
-0.174203	0.542169	-0.240155
0.4435	-0.221391	0.249963
-0.0982012	-0.339176	0.202292
-0.739025	-0.113842	-0.0335277
-0.271972	-0.0885499	0.129285
0.350802	0.191978	0.229084
0.122647	0.639908	0.198824
-0.234293	0.549819	0.230137
-0.0751244	0.466878	0.248525
0.609591	-0.0429381	-0.223956
-0.581679	-0.175208	-0.22571
-0.332579	-0.241414	0.233607
-0.0671013	-0.66378	0.185894
-0.0783148	0.512877	0.24929
-0.261376	-0.702848	-0.00791507
-0.110191	0.467426	-0.249218
0.709035	-0.178819	0.0950244
0.637675	-0.377639	-0.0660843
-0.277102	-0.568551	0.21201
-0.599684	0.238214	-0.203465
-0.672659	0.00858321	-0.180748
0.639143	0.318087	-0.129375
-0.0578239	0.747619	0.0085957
0.64857	0.171961	-0.18239
-0.674315	-0.307522	0.0660088
0.34535	-0.062247	0.200683
0.596258	0.36477	-0.151343
-0.187936	-0.250958	-0.166518
-0.0812737	0.744621	0.0218499
0.547975	-0.307526	-0.214525
-0.293578	-0.626757	0.159984
-0.697103	-0.271862	0.0296215
0.188362	0.659653	0.167023
0.127604	0.738133	0.02141
0.0266761	-0.648486	0.200721
-0.276361	-0.0279093	-0.114509
0.288107	-0.469996	0.244686
0.255231	0.705158	0.00601753
0.0293348	-0.698286	0.151453
0.0223277	0.330112	-0.184102
-0.00366542	-0.2603	0.0711061
0.11186	0.661694	-0.182294
0.0573808	0.244375	-0.0225716
0.484994	0.473538	0.175714
0.558346	0.0203361	-0.243007
0.681753	0.0362128	0.170633
-0.38932	0.590742	-0.139452
0.196354	-0.184676	0.0969293
-0.156111	0.319776	0.204254
-0.485629	0.205092	0.24852
-0.427872	0.286585	0.249551
-0.487568	-0.301071	0.239095
0.521306	0.458527	-0.157355
-0.458378	-0.371327	-0.233273
-0.698222	-0.0447809	-0.150457
-0.575373	-0.0543754	-0.237541
-0.0441735	-0.698142	0.150614
-0.48306	0.301172	-0.240216
0.106504	-0.466646	0.249086
0.574962	0.0559134	-0.237627
0.486688	-0.435713	0.197535
-0.277698	-0.16953	-0.178884
-0.258562	0.258097	0.21063
-0.706476	0.213244	0.0766552
-0.70923	-0.143959	-0.11163
-0.629909	-0.372883	-0.0931392
-0.349157	-0.636156	-0.107566
0.338745	-0.3878	-0.249555
0.188927	-0.478462	-0.249584
0.336931	-0.64515	0.102918
-0.0722276	0.73518	-0.0742512
-0.539987	0.420294	-0.168945
0.634402	-0.376837	0.0768856
-0.343488	-0.666575	-0.00802296
-0.162107	0.407793	0.242402
-0.50193	-0.24298	0.243262
-0.665184	0.283801	0.112621
-0.237646	0.0922998	0.0494569
0.168563	-0.673448	0.157409
0.229129	0.101112	0.0149407
0.0687972	0.675303	0.174732
-0.675782	-0.160342	-0.157012
0.00394118	0.308981	0.161312
-0.281293	-0.494793	-0.240243
0.258711	0.56497	-0.218552
0.517427	0.299243	0.230108
-0.67573	0.137351	0.163008
0.636088	-0.396113	-0.0181262
0.0976756	0.237349	0.057328
-0.271306	-0.244982	0.210765
0.349716	0.170204	-0.223974
0.47142	0.556749	0.0990879
0.557462	0.501707	-0.00298516
0.0860543	0.743671	0.0261092
0.700217	-0.0592309	0.146306
0.0805185	-0.745205	-0.0151145
-0.658674	0.21093	-0.160563
-0.73329	0.0769851	-0.0786064
0.113141	-0.730062	0.0740641
-0.707862	0.246819	-0.0130521
0.577893	0.435879	0.111328
-0.106109	-0.335957	-0.201716
-0.484547	-0.147331	-0.249917
0.235185	0.71193	0.0107002
0.401314	0.477527	0.217214
-0.558288	0.403289	-0.163972
-0.0202894	0.5219	0.249004
-0.709499	-0.127115	-0.117256
0.245322	0.0488466	-0.00830079
0.314868	-0.0367232	-0.170329
0.322488	-0.436849	-0.246276
0.520034	0.334647	-0.220182
-0.304322	0.603486	0.177674
