0.150767	0.215382	-0.0792914
0.0650794	0.655967	0.192768
0.239035	-0.391509	-0.246567
0.154944	-0.196553	0.0118516
-0.196423	-0.723308	-0.0157367
-0.160251	0.731622	-0.0227071
-0.467731	-0.386622	-0.226022
-0.171175	0.319733	0.208903
0.700053	-0.17333	-0.116509
0.470227	0.20525	0.249658
-0.249759	0.62791	0.177788
-0.449152	0.47882	0.194947
-0.472731	0.57497	0.0528237
0.186313	0.324887	-0.216228
-0.228421	0.175643	-0.132728
-0.55102	0.508738	-0.00456817
0.543482	-0.220227	0.234593
0.224094	-0.422295	0.249036
0.67076	-0.0286835	0.18202
0.571712	-0.103425	0.236517
0.15578	0.287961	-0.180855
0.358644	-0.145107	0.222947
-0.181727	0.269913	-0.178916
-0.626677	0.357208	-0.116239
0.272651	0.539494	0.227122
0.144942	-0.214982	0.0674765
-0.576101	0.478838	0.0209746
-0.215724	-0.142961	0.0657271
-0.528592	-0.362149	-0.206614
0.183102	0.598831	0.21581
-0.483701	0.563288	-0.0608982
-0.381562	-0.624277	0.0940136
-0.00478902	-0.690921	-0.161378
-0.269183	-0.00364842	-0.0960996
0.503131	0.510856	-0.124111
-0.749245	-0.0330877	-0.003509
-0.129311	-0.653706	-0.186602
0.465446	0.485715	0.180737
-0.395663	0.636914	0.00986104
0.123603	-0.542114	-0.243641
0.0742354	-0.743314	-0.0385376
0.497351	0.466607	-0.171429
0.120137	0.346447	-0.211488
0.347105	0.625065	0.127616
0.0152234	0.401449	0.229879
-0.249087	-0.115558	-0.108115
-0.345196	0.245561	-0.238049
-0.493599	0.544461	0.0855684
-0.479403	0.267397	0.245164
-0.110584	0.590713	0.228701
-0.452296	0.345467	-0.240249
0.155522	0.483161	-0.249885
0.0662107	0.724542	0.103519
-0.706149	-0.119385	-0.125581
-0.726601	-0.184989	-0.0104892
-0.580712	0.449654	0.0867968
-0.331882	-0.59505	-0.172087
-0.74293	0.0459209	-0.0528609
-0.264651	0.0479916	-0.0955197
-0.559411	-0.467244	0.100582
-0.12496	-0.546608	0.242517
-0.546732	-0.5134	-0.0011757
0.591616	0.460777	0.0076392
0.461211	0.492232	-0.178983
0.744676	-0.0672497	0.0337861
0.65704	-0.0914668	-0.189231
0.503758	-0.0319287	0.249955
0.425062	-0.617111	0.0182116
-0.00846136	0.250178	0.0126645
-0.0522839	0.387427	-0.224957
0.318473	0.145987	0.200254
0.394292	-0.231605	-0.246323
-0.143957	-0.598858	0.221502
-0.227495	-0.537469	0.235596
0.234319	0.66728	0.139849
-0.345611	-0.665553	0.00553309
0.016723	0.631592	0.212427
0.188302	-0.398574	-0.242894
-0.74321	0.0585002	-0.0471719
0.695945	-0.257945	0.0619237
-0.536479	0.112226	0.245331
-0.299945	0.0770428	-0.162107
-0.613971	0.00110221	-0.222509
0.201167	-0.652687	0.170343
-0.340451	-0.47966	0.233924
-0.250397	0.00633893	-0.0154345
-0.408442	-0.0977709	-0.236848
0.219832	-0.62037	-0.193605
0.219706	0.148102	-0.0851889
-0.461379	-0.416036	0.218626
0.600621	-0.129285	-0.222301
0.132162	-0.531664	-0.245379
0.381077	-0.445637	-0.234612
-0.289638	0.604143	-0.183318
-0.742734	0.0641078	-0.0472436
-0.54484	-0.295531	-0.21941
-0.256454	-0.643716	-0.159002
-0.511424	-0.482979	0.145305
0.57483	-0.472394	-0.054293
0.369275	-0.0612612	-0.216114
-0.225426	-0.591657	0.211594
-0.521455	0.383577	0.201969
-0.615037	-0.238073	-0.192503
0.0544197	0.360478	0.210135
0.511835	0.548027	0.00797524
-0.601434	-0.0989507	-0.224734
0.44117	0.119105	-0.246268
0.524749	-0.534109	0.0249252
-0.398976	0.459172	0.225328
0.217288	-0.531143	0.238837
-0.233498	-0.107249	0.0585422
0.0425794	0.717621	0.12079
-0.590519	-0.25794	-0.204083
-0.583768	0.427794	0.111546
-0.167594	0.625551	0.201769
0.699203	-0.196642	0.106186
-0.291241	-0.0357974	-0.140819
-0.61452	-0.213615	-0.199557
0.168242	-0.217258	-0.108526
-0.371662	-0.191309	-0.236172
-0.016206	0.498356	-0.249996
0.712306	0.155398	0.100158
0.0964993	-0.546084	-0.243977
0.62362	0.405475	-0.0551121
-0.182442	-0.18743	0.0751505
-0.428813	0.0932489	0.242402
-0.476737	0.0974207	-0.24964
-0.250923	0.0614666	-0.0640415
-0.214978	-0.207983	0.148818
-0.259743	0.131858	0.137631
-0.371847	0.646656	-0.0448446
-0.327214	0.318301	0.246185
0.435792	-0.00385034	-0.241619
0.145451	-0.460391	0.249409
0.0502628	0.715837	-0.123088
-0.643527	0.0939885	0.199734
-0.414823	-0.496815	-0.20205
0.118429	-0.340604	0.207532
-0.546872	-0.0824009	-0.244308
-0.182012	-0.342008	0.223219
0.720947	0.148072	0.0824972
0.714592	-0.0769941	0.12107
0.381532	0.551637	-0.182629
-0.0835505	-0.255856	0.0959646
-0.0645263	-0.494689	0.249997
0.36569	0.32746	0.249833
0.475211	0.493038	0.168402
-0.242426	0.555558	-0.226347
0.418308	-0.0395885	0.236914
0.145166	-0.292674	-0.180184
-0.543901	-0.278769	0.223918
0.557306	0.48796	-0.0674125
-0.0246896	0.743215	0.0560972
-0.347543	0.286459	0.245027
0.238492	-0.0857195	-0.0412625
-0.421127	-0.563634	-0.145097
-0.536914	0.394809	-0.186536
-0.382465	-0.644085	0.0214012
0.302044	-0.50605	0.233493
-0.63186	-0.350756	-0.113625
-0.531646	-0.066096	-0.247432
0.0343618	0.263048	0.08607
-0.555692	-0.501681	0.0259425
0.552505	0.0315677	0.244229
0.402234	0.496104	0.20801
-0.617882	0.221873	0.194947
-0.32646	-0.445913	-0.244395
0.328799	0.411127	-0.248598
-0.545153	0.448404	0.141831
-0.377101	0.223382	0.242266
0.0902742	-0.309141	-0.175597
-0.252473	0.680059	-0.108118
0.436933	-0.330385	0.245391
0.184885	0.168661	0.0113521
0.290995	-0.166075	-0.187861
-0.350224	0.189291	0.228293
-0.157476	-0.493398	0.249357
-0.716524	0.200219	0.054569
-0.156268	-0.718256	0.0851316
-0.376134	-0.34986	-0.249625
-0.24143	-0.636936	-0.172284
0.694527	-0.277858	-0.0311949
0.321691	0.0539532	-0.179689
0.459527	-0.589062	0.0379638
0.0702956	-0.577843	0.236134
-0.447791	-0.542366	-0.145449
0.267323	-0.320129	-0.235843
0.249048	-0.0455978	0.0397974
-0.483748	0.189414	0.249238
0.244877	0.695028	-0.0798514
0.432743	0.409425	-0.230945
0.00416945	-0.311878	0.164683
-0.0577769	0.519643	-0.248954
-0.342777	0.278021	-0.243024
0.568219	0.437445	-0.123969
0.0287661	-0.433847	-0.241348
0.100709	-0.334343	0.199384
0.178348	-0.577786	-0.227026
-0.382216	-0.398949	-0.244427
-0.320826	0.495152	-0.233237
-0.180116	0.186591	-0.0677027
-0.318908	0.127869	0.195027
-0.0359536	-0.515464	0.249441
-0.462801	0.547894	0.123795
0.213676	0.628971	-0.188451
-0.37589	-0.323503	-0.249967
-0.296029	0.0468383	0.149614
0.246153	0.0476729	-0.0190487
0.640603	-0.191834	0.184492
-0.183051	0.239438	0.15184
0.548313	-0.169733	0.238802
-0.24865	0.326197	0.2333
-0.2475	0.131312	0.119071
0.0875926	-0.547813	0.243926
-0.0732467	0.259514	0.0971599
0.68966	-0.152513	-0.141178
0.428635	-0.602556	-0.0718243
0.185718	-0.234687	0.149037
-0.161451	0.586606	-0.225268
0.197885	-0.153937	-0.0188192
0.359044	0.0639728	0.210223
0.574259	0.276713	-0.208824
0.66548	0.333125	-0.0535299
-0.601178	-0.440086	-0.0495311
-0.479503	-0.576609	0.00574218
0.296406	0.0230648	-0.146333
-0.210832	-0.561175	0.229358
0.555996	0.449865	-0.127237
-0.200333	0.331109	0.223003
-0.53112	0.517641	-0.0640836
0.234111	0.46809	0.248905
0.533727	-0.430148	0.167615
0.539401	-0.340615	0.208499
-0.400856	0.601821	0.11281
0.403664	-0.0369317	0.23139
-0.733802	-0.0266256	-0.087238
0.230736	-0.0981962	0.0195103
-0.0623851	-0.74239	-0.0497181
0.353103	-0.648189	0.0761319
-0.701682	-0.0860496	-0.140273
0.139919	0.207238	0.00497586
0.41382	0.579108	-0.132871
-0.640689	-0.273233	0.154533
-0.18667	0.345272	0.225708
-0.279198	0.314298	0.236989
-0.305947	-0.344409	0.246888
0.191927	0.721171	-0.0430072
0.442712	0.596184	0.0604439
-0.54327	0.000512995	-0.246227
-0.197108	0.588543	-0.218948
0.256863	0.489955	0.244273
0.311145	-0.0709486	-0.172588
0.0923015	-0.522644	0.248104
-0.74821	0.0110807	-0.0291688
-0.511398	0.513993	0.108841
0.68397	-0.304359	0.0261252
-0.492988	0.100141	0.249981
0.398124	-0.280846	-0.249673
0.0693877	-0.746405	0.013711
0.691631	-0.251976	0.0821943
-0.0636529	0.742745	-0.0473909
0.238559	-0.280193	0.212307
-0.0901707	0.579426	-0.234595
0.0616825	-0.383454	-0.2237
0.572214	0.421983	-0.134111
-0.0893382	-0.270595	-0.127508
0.325969	0.302041	0.243737
-0.10905	-0.738341	-0.0425593
-0.219087	-0.612565	-0.199575
-0.441346	0.455454	-0.21092
-0.20577	0.188714	0.117255
0.565527	0.111983	0.238005
-0.219121	0.122852	-0.0245692
0.31765	0.664793	0.0802066
-0.512733	-0.366723	0.213309
0.373197	-0.535331	-0.198042
-0.383856	-0.390423	0.245442
-0.605033	0.272629	-0.18902
-0.0617261	-0.523241	-0.248552
-0.0487945	0.660927	-0.18979
-0.0677866	0.711374	0.128252
-0.507553	0.00253932	0.249886
-0.179511	-0.671864	0.155905
-0.271224	0.105302	0.137104
-0.339777	-0.0110954	-0.192059
0.493193	0.109934	0.249944
0.304566	0.630754	-0.149416
-0.342284	0.276829	0.242747
-0.258563	-0.209048	0.18559
0.409473	-0.321087	0.24917
0.334113	0.0909403	-0.197146
-0.551006	0.460548	-0.122143
0.648657	0.124635	0.191658
0.333691	0.592404	0.173576
0.229113	0.282763	-0.209728
0.339076	0.354631	-0.249825
0.631137	0.311929	0.144495
-0.00134217	0.676812	-0.17674
-0.354574	0.0726808	0.208426
-0.0389414	0.284076	0.130449
-0.225346	0.127198	0.0656223
-0.210854	-0.318807	0.220521
0.0239065	-0.628087	-0.214423
0.027541	-0.2947	0.144491
-0.0197583	-0.710017	-0.135194
-0.222274	0.681596	0.124275
0.429032	-0.486361	0.201081
0.349004	0.249687	-0.239743
-0.290758	0.276681	0.229719
0.182971	-0.727261	-0.00612531
-0.384061	0.161559	0.235699
0.65097	0.363794	-0.0460267
-0.245079	-0.477639	0.24727
-0.0501423	-0.518343	0.249136
0.319439	-0.0967338	0.186724
-0.10534	0.657309	-0.187202
-0.0140455	-0.675886	-0.177518
-0.300426	0.662664	-0.103466
0.0870123	0.744914	0.0032494
-0.682042	-0.238016	-0.114223
-0.341425	-0.254651	-0.238776
-0.711715	-0.203612	0.0690748
-0.296903	0.684569	-0.0435337
0.463459	0.466253	0.194223
-0.313107	0.680858	0.0172834
-0.53796	0.438897	-0.157332
0.282771	-0.134611	-0.166123
0.591225	0.249829	-0.205866
0.6117	0.260391	0.187978
0.685504	-0.0317792	-0.166777
-0.445145	-0.436881	0.217244
-0.0765812	0.705571	-0.136087
0.41072	-0.525915	-0.185778
0.00336666	-0.250596	0.0175817
0.280694	0.695237	-0.0109101
0.739428	0.0365132	0.0688623
-0.0778321	-0.605291	0.224365
0.498013	-0.51519	-0.124931
0.132072	0.737723	0.0165495
0.459787	-0.220853	-0.249797
0.0333597	0.679777	0.172874
0.418109	-0.339284	-0.247025
0.165944	-0.535035	-0.242649
0.193384	-0.214465	0.133736
-0.505189	-0.513756	-0.117759
-0.0167217	-0.271223	-0.101963
-0.0304533	-0.676819	-0.176047
0.0343018	0.746949	-0.0335657
0.350336	-0.570904	-0.183464
0.0146566	-0.727333	-0.103695
0.17757	0.398066	0.241636
0.438096	-0.0602614	0.243232
-0.17412	0.663306	-0.167291
-0.62423	-0.0870651	-0.213375
-0.084184	-0.36109	0.214011
-0.18696	0.637681	0.188234
0.393943	-0.529683	-0.191996
0.669473	0.300136	0.0888655
-0.0973341	0.474901	0.249536
-0.452527	0.477231	0.19401
-0.119097	0.262728	0.133234
0.0908797	-0.634868	-0.206211
0.577654	0.0147477	0.237572
-0.698423	0.00668378	-0.152038
-0.100475	0.465355	0.248853
0.520906	0.503292	0.110357
-0.381755	0.452765	0.232367
-0.540706	-0.0415198	0.246396
-0.25627	0.0199704	0.058939
0.33412	0.400432	-0.249072
-0.697501	-0.187126	0.114639
-0.242532	0.709413	-0.0117077
-0.0857753	-0.235765	0.0209973
0.348464	-0.648243	0.0825817
-0.677291	0.0902433	-0.170029
0.143105	-0.401058	-0.238742
-0.197825	-0.15457	0.0228943
-0.601151	-0.288789	-0.186113
0.317704	-0.610862	-0.164172
-0.314727	-0.0107054	-0.168051
-0.727651	0.16319	0.0460314
0.523384	-0.382994	0.201081
-0.242769	0.503363	-0.242975
0.379352	0.615938	-0.112243
-0.707549	0.23748	0.0426235
0.13218	-0.721709	0.0887595
0.580431	0.336984	0.182218
0.347782	-0.124665	0.213206
0.0279427	0.263123	-0.0841906
-0.25696	-0.518573	-0.237274
0.355144	0.483199	0.229271
0.262401	0.110026	0.126786
0.665248	-0.0965963	0.181214
-0.17141	-0.608993	-0.211902
0.214322	0.491092	-0.24742
-0.540726	-0.519548	0.00787258
-0.577892	0.464201	0.0655863
-0.218691	-0.183767	-0.128663
0.272032	0.0686392	-0.119772
