-0.396961	-0.50676	-0.204555
0.367771	-0.653598	0.00422568
0.709076	-0.0746272	-0.130898
0.250578	-0.0525503	0.0545747
-0.0685493	0.260029	0.0953875
-0.370438	0.128623	-0.225532
-0.0477029	-0.746655	-0.0301356
0.288267	0.0586498	0.141898
-0.66302	0.309846	0.0935256
-0.643677	0.361231	-0.0761779
-0.524874	0.129617	-0.246674
-0.458667	0.180194	0.249896
0.507782	0.485989	-0.146094
0.263551	0.69388	0.0617804
-0.565032	0.219359	0.22636
-0.554935	0.126073	0.240268
-0.484368	0.217627	0.248069
-0.19998	0.716013	-0.0569981
0.594683	-0.246245	-0.204609
0.0847832	-0.421135	-0.239878
-0.662263	0.0944744	-0.184255
-0.544787	-0.191851	0.237658
0.341551	-0.137162	0.21235
0.387374	0.137921	0.233695
-0.064776	0.685048	-0.164673
0.253786	-0.147968	-0.141315
0.346666	-0.624621	-0.128625
0.741761	-0.0893105	0.0378503
-0.170349	-0.514937	-0.246381
-0.117461	0.715417	0.108981
-0.388313	-0.245802	0.246709
0.433133	0.525897	-0.172132
-0.541299	-0.362574	0.198859
-0.310737	-0.321937	-0.244412
-0.288174	-0.18857	-0.195665
-0.297429	-0.115201	-0.172407
0.43957	0.328114	0.245245
0.199096	-0.164398	0.0634951
0.154732	0.378449	-0.232794
-0.606746	0.394342	0.11175
0.259803	0.559496	-0.220999
0.262627	0.701201	-0.0247752
-0.507455	-0.0175747	-0.24988
-0.134862	0.223313	0.0729389
0.133917	-0.261308	0.141101
-0.585902	-0.418619	0.118585
0.686482	0.301895	-0.00582704
0.406734	-0.592621	0.120992
-0.306767	-0.19379	-0.209022
0.306397	0.616823	-0.163953
-0.53576	-0.00764267	-0.247421
-0.324803	-0.29064	-0.24163
-0.428519	0.593232	-0.0936059
-0.231609	0.480202	0.247794
-0.565799	-0.0100371	0.241161
0.577147	0.470864	-0.050449
-0.198339	-0.562699	-0.23057
-0.314233	0.680412	-0.0162919
-0.143133	0.736063	0.00865488
0.216449	0.133473	-0.0461353
0.568308	-0.444744	0.115643
-0.282623	0.682484	0.0743504
0.477593	-0.477288	0.178337
-0.141407	0.62636	-0.205672
-0.563896	-0.494475	0.0022821
-0.700704	0.192536	-0.105446
-0.0902533	0.556995	-0.2416
-0.604092	0.285486	0.184998
0.0504836	-0.253714	0.065334
0.147444	0.322885	0.203624
-0.243605	-0.0664603	0.0353219
0.374674	0.0621737	-0.219206
0.553516	0.273143	-0.220804
-0.540564	0.393706	0.184463
0.00194485	0.39195	-0.225447
0.353434	-0.636276	-0.102885
0.164996	0.35484	0.225144
0.357337	-0.0202001	0.205693
0.258037	-0.119272	0.126333
-0.538772	0.248434	0.231941
-0.626427	-0.357642	0.116244
0.65322	0.315207	0.108363
0.362553	0.626379	0.111543
0.555026	-0.218935	-0.230564
0.558666	-0.219015	0.229102
0.409778	-0.328734	0.248712
-0.312624	0.681175	0.015989
-0.0816419	0.507146	-0.249626
0.24351	-0.684152	-0.106466
-0.584635	0.233118	-0.213907
-0.74175	-0.108044	0.0145288
-0.40043	0.30225	0.249994
-0.317336	0.330728	-0.246506
0.187795	-0.620862	-0.201012
0.578253	0.218583	-0.220299
-0.277735	-0.69614	0.0158228
-0.399949	0.166564	0.240923
-0.336728	-0.332223	0.248541
0.23963	0.240863	0.191895
-0.438941	-0.586114	-0.0925041
0.453768	-0.467112	-0.199072
0.280528	-0.315414	0.237559
-0.0433133	0.448188	-0.245005
-0.477905	0.445131	0.19764
0.648569	0.0635111	-0.198736
0.117066	-0.351489	-0.213828
0.478729	-0.0722127	-0.249497
-0.740686	-0.116	-0.0119477
-0.486913	0.107488	-0.249996
0.615327	0.0701867	0.21969
-0.475311	0.241422	0.247798
-0.0267702	0.278477	0.118298
0.30967	0.583245	0.191796
-0.521151	-0.0883083	-0.248361
-0.440631	0.152225	-0.247702
-0.695762	0.115913	0.142586
-0.52213	-0.449238	0.163883
0.0975612	-0.262288	-0.118456
0.169691	0.214934	0.106558
-0.234417	-0.249047	0.193756
0.0232004	-0.392292	-0.225934
-0.235303	-0.244787	-0.19171
0.309826	0.0353096	0.164598
-0.520299	0.252583	0.237399
-0.43448	0.450153	0.216143
-0.3076	0.54593	-0.215561
-0.559333	0.00814514	0.242843
-0.5129	0.365582	0.21363
-0.44859	0.0423886	0.245068
-0.460007	-0.319709	-0.242645
0.311928	-0.380275	-0.249867
-0.195247	0.63373	0.189447
0.624054	-0.411141	-0.0365372
0.010958	-0.632317	0.212054
0.260232	0.677642	-0.107112
-0.739673	-0.122313	-0.0118789
0.378285	-0.533168	-0.197145
0.450663	-0.438303	-0.214355
-0.0697939	0.703606	0.140095
0.478983	0.341273	-0.233953
-0.385932	0.20587	-0.242038
0.438472	0.180516	0.248663
-0.440324	0.599238	0.0561154
-0.211111	-0.309174	0.216144
0.524608	-0.490846	0.121605
0.0766658	0.301309	0.163538
-0.49923	0.142177	-0.249271
-0.0880492	-0.707365	0.131172
-0.0452368	0.695362	-0.154134
0.0050102	-0.31823	-0.17168
-0.397589	0.0456541	-0.229217
0.391603	0.140548	-0.235487
0.372153	-0.560771	-0.180451
0.690463	0.162291	0.136756
0.158895	0.725743	-0.0590165
-0.36154	0.0865977	-0.214607
0.164591	0.292141	0.188093
0.487766	0.0996571	-0.249991
0.113441	0.67346	-0.170382
-0.588731	-0.243387	-0.209082
-0.360688	0.537195	0.202179
0.343387	0.579093	0.180236
-0.670812	0.113649	0.173108
0.106054	0.730773	0.0751797
0.643604	0.184361	-0.183776
-0.233442	0.131627	-0.0931303
-0.490044	0.189507	0.248705
0.180491	0.17389	0.0177224
0.138909	0.482723	0.249989
0.1223	0.739815	0.0084854
0.649457	-0.346976	-0.0815276
0.310562	-0.31352	0.24301
0.0528928	-0.514008	0.24944
-0.742686	-0.0258293	-0.0581829
-0.321323	-0.0232491	-0.17571
-0.0119585	0.698738	0.151533
-0.0240749	-0.261866	-0.0794788
0.596354	-0.0461064	-0.229934
-0.699161	0.144881	0.12922
0.541836	0.517091	0.0225731
-0.186038	-0.6953	-0.119189
0.553558	-0.504949	0.0191464
0.403652	-0.367613	-0.245739
-0.112139	-0.304443	0.177984
-0.325141	0.675796	-0.00527325
-0.534977	-0.136828	-0.24449
0.0550173	0.568426	-0.239682
-0.521133	0.539342	0.00317226
-0.339246	0.128303	0.208921
-0.581232	0.0802948	-0.234465
-0.684102	0.307409	-0.00115808
0.235307	-0.711734	0.0137204
-0.548156	0.476527	-0.106186
-0.448441	-0.0156973	0.244683
0.635426	-0.303391	0.144316
-0.457151	-0.538801	-0.140761
-0.631728	-0.265645	-0.167812
-0.366079	-0.563537	-0.181425
0.335979	-0.617132	-0.146384
-0.0576666	-0.294496	0.150118
-0.189324	-0.72429	0.0261801
-0.745323	0.0608557	-0.0330717
0.662211	-0.266926	0.129272
-0.31003	0.133047	0.189875
-0.661113	-0.195483	0.163171
0.311246	-0.603413	-0.17457
0.0983643	-0.510429	-0.249213
-0.255644	-0.413665	0.249623
-0.057568	0.374685	-0.218812
-0.138685	0.252839	0.1331
-0.702623	-0.013354	-0.146262
0.262694	0.435799	0.249843
0.154277	-0.725528	-0.0636967
-0.715517	0.0158842	-0.126397
-0.109432	-0.6981	0.140733
-0.516723	-0.505355	-0.113475
0.114856	0.633139	0.204733
-0.0202369	-0.498894	0.249999
0.595059	0.131088	0.224828
0.229784	0.131515	0.0846234
0.248688	0.687469	-0.0954354
0.0780043	-0.733889	0.0764549
-0.491985	-0.56587	0.00897217
-0.269006	-0.310246	0.23348
-0.336745	-0.641744	0.109529
0.266281	0.585748	-0.204761
-0.301567	0.172191	0.197919
0.209198	0.347212	-0.231396
-0.300442	-0.562582	-0.208606
0.748746	-0.0339656	-0.0155559
0.4531	-0.520624	-0.162269
0.640948	-0.318122	-0.126637
0.136109	-0.367267	0.225313
0.65307	0.036981	-0.196846
0.213707	-0.710448	0.0631442
-0.220124	0.121093	0.024795
0.42563	-0.194356	-0.247931
-0.229878	0.101795	-0.0264936
0.285622	-0.309303	0.237193
-0.487413	0.256376	0.244799
-0.418353	-0.231986	0.249062
-0.555322	-0.393901	-0.17262
-0.285831	-0.220474	0.207784
0.310599	-0.475162	-0.240667
-0.54611	-0.510002	0.0371799
-0.165311	0.192598	-0.043505
0.344324	-0.245235	-0.237759
-0.452024	-0.216641	0.249997
0.45683	0.541724	-0.137742
-0.452369	0.564742	0.111853
-0.452965	0.0903097	0.247077
-0.480151	0.515896	-0.143427
0.0975865	0.739399	-0.0455717
0.736136	0.0674215	0.0726305
-0.234634	-0.0876792	-0.0154986
0.219656	-0.698657	0.0922115
-0.23361	-0.35946	-0.239618
0.662769	-0.253103	-0.136489
0.695655	-0.145556	-0.134527
0.736867	-0.13965	-0.00292181
-0.728325	-0.0530039	0.0973875
0.694198	-0.282917	-0.0135026
-0.109938	0.271618	-0.140216
0.298532	0.650101	-0.126949
0.522644	-0.477486	-0.138815
0.325001	-0.105778	0.193564
-0.384805	0.620228	-0.0982069
0.518692	0.346009	-0.21736
0.113657	-0.439118	-0.245654
0.110549	0.450429	-0.247365
0.147335	-0.571897	-0.233017
-0.547828	0.435884	0.149895
-0.63051	0.405965	0.00704838
0.255707	-0.239557	0.200292
-0.615482	0.220288	-0.197158
-0.251964	-0.0849078	0.087696
0.359912	-0.0269914	0.207744
-0.546228	0.513321	-0.0145625
-0.453749	-0.591866	0.0457194
0.123018	0.535667	-0.245028
-0.314025	0.551171	-0.210831
-0.608268	-0.198407	0.207252
0.556799	-0.217957	0.230018
0.0571357	0.369964	-0.216129
0.162869	-0.34344	0.219373
0.376813	-0.325676	0.249992
0.554506	-0.137599	-0.23961
0.402993	0.0520086	-0.23179
-0.199388	-0.214297	-0.139752
0.15872	0.347137	-0.220239
0.610728	0.379386	0.120627
0.482267	-0.490936	0.164579
-0.354028	0.65017	0.0689344
0.604634	0.153474	0.21719
0.605144	-0.207497	0.207305
-0.106272	-0.723134	0.0958367
0.225764	0.112744	-0.034202
0.692898	0.270082	0.0558817
-0.505423	-0.0760644	0.249753
-0.0856281	0.627112	0.211729
-0.340754	-0.65914	0.0627007
0.247156	-0.237711	-0.194487
-0.0275311	0.327471	-0.18202
-0.152145	-0.266299	-0.158537
-0.00320546	-0.354213	0.203102
0.621489	0.342924	0.135924
0.324692	-0.563473	-0.199754
-0.0375203	0.741839	-0.0596177
-0.244426	0.0779646	0.0568886
-0.391626	0.22051	-0.244834
0.0672017	0.6366	0.20703
-0.749642	-0.0230338	0.0014318
0.11084	0.741518	-0.0110452
-0.670477	-0.277392	0.107739
0.270375	-0.0308155	0.102825
0.277939	0.630222	0.163887
0.555147	0.038653	-0.243534
0.301133	-0.0539233	0.157588
-0.458117	-0.593618	0.00907707
-0.179578	0.524972	0.243912
0.407065	0.616551	0.0739653
-0.399346	-0.0220993	0.22911
-0.24676	0.398642	-0.24805
-0.200236	-0.375896	0.238767
0.327962	-0.287249	-0.241661
-0.345929	-0.664175	-0.0238218
-0.267545	0.700195	-0.0146729
-0.0246026	0.38117	-0.22038
0.675864	0.319427	0.0349398
0.187518	-0.317072	-0.212542
-0.420125	-0.175283	-0.245958
0.646538	-0.261421	0.153419
0.188648	0.608109	-0.209317
0.256303	0.284096	-0.220733
0.0981813	0.229932	-0.00286628
0.249408	0.0760859	-0.0725391
0.23821	-0.11068	0.078568
0.0663667	-0.478805	-0.249447
-0.455724	0.0874566	0.2474
0.413421	-0.128268	-0.240816
0.376539	-0.420962	-0.241458
-0.451064	0.55584	0.12616
0.606647	0.418094	0.0802629
0.0448628	0.345458	0.198759
-0.38754	0.641915	0.00926985
-0.264883	-0.537749	-0.229369
0.00170514	-0.660128	0.191985
0.352519	-0.125166	0.215973
-0.673392	-0.135243	-0.166107
0.246705	-0.362652	0.242346
0.150824	0.208463	-0.0599831
-0.665045	-0.23934	0.140475
0.564709	-0.460702	-0.100761
0.359304	-0.639171	0.0899997
-0.0246444	0.259051	0.0707523
-0.0205131	0.27667	-0.113852
0.249485	-0.63363	0.172473
0.266895	-0.681821	0.0926519
0.152387	-0.35932	0.224645
0.0707569	0.27258	-0.121687
-0.66725	0.340566	0.0207408
0.243986	0.590627	-0.20777
0.467999	-0.147327	0.249825
0.191907	0.202475	0.116815
-0.108518	-0.263395	-0.127361
0.647387	0.151707	0.187883
-0.746355	-0.069335	-0.014679
-0.735213	-0.0286537	0.0831387
-0.0547631	-0.455911	0.246646
0.166925	-0.6325	0.196814
0.666024	-0.320805	0.0724925
0.640636	-0.211359	0.178926
-0.038093	-0.728745	-0.0985879
0.282884	0.632255	0.159325
-0.0753612	0.730771	-0.0862602
0.298882	-0.235293	0.219528
-0.459882	-0.578261	0.0738779
-0.462124	0.535124	0.140112
0.211025	0.201103	0.137946
0.118141	0.605318	-0.22107
0.286557	0.130597	0.168057
-0.169479	-0.304919	0.199135
0.171689	0.226443	0.126167
0.639041	-0.18273	-0.188121
-0.510311	-0.380356	0.209469
0.670608	-0.213538	0.144816
0.295107	0.00861046	-0.143424
0.0485332	0.726031	-0.103319
