0.404658	-0.140173	-0.239482
-0.284226	0.50289	-0.237634
0.183561	0.724052	-0.0388839
-0.679325	0.314183	0.0276983
-0.101795	0.390318	-0.230572
-0.402687	0.189697	-0.243904
0.690579	0.194126	-0.123536
0.121576	0.434109	-0.245113
0.290516	-0.224767	0.211883
-0.45937	-0.524305	0.153821
0.56107	-0.367443	-0.182669
-0.502627	0.538633	0.0803909
-0.50974	0.112508	-0.249029
-0.0922212	-0.587831	0.231238
0.31238	0.284115	-0.237605
-0.476409	-0.487325	0.171917
-0.400265	-0.115833	-0.23571
0.0863783	-0.298601	-0.163462
-0.133915	0.335824	-0.208155
-0.71501	0.217399	0.0364438
-0.571963	0.400911	0.152008
-0.692808	-0.28247	-0.0301157
-0.317062	0.66706	0.0747043
0.149839	0.734654	0.0105054
-0.247265	0.638694	0.168276
0.686485	-0.281701	0.0625991
0.410464	0.0591936	-0.235001
0.0837298	0.681984	-0.165806
-0.437697	0.58854	0.0894312
0.240884	0.0861062	0.0535907
-0.621185	-0.0147355	-0.218568
0.670895	0.117117	0.172407
-0.0960678	0.69987	-0.141016
-0.404996	-0.620414	-0.0668301
0.184039	-0.202378	-0.105917
0.252782	-0.00565153	0.0376099
-0.391635	0.308805	0.249997
0.519166	-0.0212358	-0.249231
0.0577272	0.265069	0.100937
-0.586981	-0.449361	-0.072564
-0.0165539	-0.280529	-0.120609
0.702097	0.215703	0.0867007
-0.475573	-0.501263	-0.161344
-0.149524	0.61381	0.212461
-0.327946	-0.556321	-0.203091
0.195563	0.267652	0.184669
-0.0265184	-0.248796	-0.0101382
-0.365683	0.404412	0.245875
0.554361	0.402639	0.167983
-0.337278	0.282803	-0.242731
0.541829	0.274444	-0.225769
0.324608	0.586357	0.183106
-0.267262	-0.537225	0.229114
0.426966	0.432729	0.225511
-0.525152	-0.425942	0.177377
0.129865	-0.738647	-0.00348528
0.0968209	-0.289339	0.15658
0.545968	-0.00372394	-0.245735
0.589996	-0.392535	-0.137721
-0.270174	-0.0518094	-0.109173
-0.389686	-0.048157	0.225779
0.727823	0.155824	-0.0530017
-0.719823	0.151816	-0.0834567
-0.496313	-0.0787507	0.249987
-0.602943	-0.148778	-0.218752
-0.287487	-0.648398	0.136764
-0.0121355	0.336459	0.189277
-0.37446	-0.0986042	0.223118
-0.190927	-0.445324	0.249521
0.0896582	-0.250232	-0.0874923
-0.313974	0.184645	-0.209929
0.534119	0.0504661	-0.247321
-0.737411	-0.0281485	0.0766845
0.140246	-0.236325	0.108572
0.707712	0.18304	0.0956002
0.291988	0.615709	0.171992
-0.744756	-0.0867029	-0.0103461
0.0308612	-0.260253	0.0767625
-0.0269872	0.624953	-0.216197
-0.402141	-0.630849	0.0305776
0.476262	-0.0912473	0.249545
0.552664	0.464255	0.11538
-0.200719	0.515208	-0.244333
0.393467	-0.439901	0.233163
-0.661038	-0.177535	0.168741
0.706652	-0.160377	-0.109749
-0.342042	0.630838	0.123087
-0.700055	-0.156978	-0.12337
0.398214	0.140807	0.237643
0.723416	0.0902771	-0.100233
0.165106	0.730903	-0.018439
-0.13492	-0.55928	0.238383
-0.292645	0.117097	0.168375
-0.321578	0.376131	-0.249947
0.616855	-0.192774	-0.20274
-0.412704	-0.605257	-0.091709
0.589462	-0.438877	-0.0855669
-0.353771	-0.0542079	-0.205688
-0.0651493	-0.296774	0.154989
-0.330924	-0.267004	0.23855
0.479855	0.318182	-0.238244
-0.162295	0.374545	0.232534
0.252967	0.0747105	0.0818223
-0.500784	-0.37124	-0.217433
0.480102	-0.290818	0.242365
-0.443655	-0.0108603	-0.243598
-0.265539	0.323451	0.236338
0.170272	-0.642772	0.187867
-0.499565	0.516572	0.121268
0.538917	0.508115	0.0676123
0.0863326	-0.32737	-0.190887
0.632352	0.352509	-0.111075
0.236547	0.57907	-0.216204
0.0619038	-0.427991	-0.240699
0.468891	-0.577536	-0.0548307
0.431466	-0.608629	-0.0442607
-0.264172	0.194338	0.181384
0.336464	-0.0345648	-0.19061
0.72251	0.182122	-0.0492056
0.595999	-0.450042	-0.0396945
0.485722	0.297717	-0.240087
-0.669487	-0.333473	0.0320131
-0.326844	-0.361937	-0.249696
0.158904	-0.46528	0.249861
0.660202	-0.353857	0.0217324
-0.73056	-0.0721217	0.0877045
-0.229208	-0.468274	-0.249086
-0.709892	-0.00332071	0.135802
-0.636329	0.183765	-0.190126
-0.506147	-0.211637	-0.245228
0.483803	0.490488	0.163708
-0.24597	-0.66086	-0.142876
0.683653	-0.214586	0.124944
0.59262	-0.268635	-0.1995
-0.471398	-0.538178	0.126832
-0.606979	0.155781	0.215545
-0.341493	-0.245339	-0.237018
-0.455335	-0.382897	-0.231276
0.287532	-0.661117	-0.116991
0.193141	0.399613	0.243611
-0.497584	-0.539106	0.0889563
-0.184603	-0.207434	0.114344
0.14123	-0.543566	0.242289
0.291138	0.658461	0.11883
-0.641901	-0.0219885	0.205565
0.232584	0.119417	-0.0747891
-0.0641346	0.329435	-0.188359
-0.248581	0.323117	0.232327
0.332908	-0.572801	-0.189969
0.0151501	-0.623263	-0.217396
-0.564325	-0.118323	-0.237977
-0.489517	-0.530049	0.115899
0.00246364	0.743672	0.0558746
0.596041	-0.356129	0.157277
-0.0666598	-0.386669	0.225647
0.419815	-0.511762	0.190474
0.146211	-0.515605	0.247404
-0.706213	0.250135	-0.0199497
0.495725	0.0946316	-0.249956
-0.420508	0.36874	0.24287
-0.175333	-0.559903	0.23448
0.605692	0.417514	0.0834819
0.129174	0.294119	-0.174765
0.543472	-0.0400007	-0.245927
0.379549	-0.492847	0.218179
-0.337071	-0.36731	0.249996
0.0126766	-0.659026	0.192801
0.175584	0.219791	0.121147
-0.533417	-0.506147	-0.0843626
0.589309	-0.0715579	0.231802
-0.715703	-0.0688857	-0.12056
0.562494	-0.486341	0.0562468
-0.0918436	0.738626	0.0530144
-0.0214815	-0.382883	0.221189
-0.462937	0.215913	-0.249766
-0.137609	0.303086	-0.185916
0.0388956	0.619702	0.21881
0.591893	-0.280139	0.196277
-0.190072	0.411765	0.245641
0.336223	-0.284803	0.242849
-0.333829	-0.535071	-0.213133
-0.215932	-0.286853	0.206473
0.211917	0.23837	-0.172398
0.16454	-0.722705	0.0657484
-0.596781	0.270477	0.195981
-0.697447	-0.0530005	0.15072
0.740054	-0.110364	-0.0296325
0.638019	0.314991	-0.133234
0.116331	-0.616887	0.21489
-0.0612269	-0.729519	-0.092935
0.0900024	-0.710439	-0.125672
0.567522	0.455261	-0.103519
0.474318	0.160141	0.249999
0.68815	0.179158	0.133946
0.526212	-0.241411	-0.237208
0.27597	-0.16574	0.175459
0.453698	0.279272	-0.247844
-0.254488	0.150343	-0.143917
-0.199476	-0.1732	0.0829877
0.651919	0.329243	-0.0971737
0.425116	-0.3221	0.247764
-0.169119	-0.243316	-0.14496
0.31581	-0.613848	0.162103
-0.643244	0.277936	0.149033
0.334359	0.554139	-0.202071
0.644633	-0.0814878	-0.200177
0.00438742	0.265203	0.0859497
-0.249081	-0.35757	0.241609
-0.484766	-0.164525	-0.249715
0.692125	0.0208237	-0.159586
-0.744706	-0.0148132	-0.0504687
0.546181	-0.444242	-0.144464
0.119653	0.252692	0.11798
-0.416713	-0.118801	-0.240943
0.35654	0.403256	-0.247053
0.316383	0.0407982	-0.172452
0.735673	0.0661627	0.0744985
0.358112	0.202878	-0.233844
0.105906	0.246278	0.0933542
-0.0188686	0.744749	-0.0498076
-0.0710722	-0.239945	0.0111731
0.655044	-0.358418	0.0405429
-0.45711	0.589443	0.0449949
0.127604	0.711724	0.112866
0.0204861	0.494157	-0.249941
0.058059	-0.744212	-0.0418464
-0.290996	0.0405939	-0.141377
-0.00325824	0.468244	0.247976
0.600718	0.300422	0.181758
0.627233	-0.0672152	0.213037
0.739585	0.104608	-0.0389549
0.535933	0.046293	0.247106
-0.0147538	-0.320289	-0.174143
-0.282707	-0.678998	0.0838997
-0.394199	0.263967	-0.248688
-0.537664	0.387221	0.189908
0.384892	-0.0438254	0.223196
0.206404	0.296863	0.208173
-0.571127	0.240953	0.219386
-0.0566148	0.397926	0.229963
-0.375048	0.222571	-0.2417
-0.223858	0.568711	-0.223916
0.423685	-0.0615723	0.239448
0.447007	0.589266	-0.0712629
-0.20045	0.335061	0.224716
0.505983	-0.0838154	0.249668
0.262235	0.345054	-0.240964
0.64835	0.171695	0.182652
-0.376477	0.572485	0.167952
-0.0361077	-0.74548	-0.0425393
-0.689304	-0.250947	0.0891548
-0.51109	0.356558	-0.21755
0.358786	0.360513	-0.249851
-0.696561	-0.238439	-0.081794
-0.177142	0.716279	0.0769648
0.119239	0.274526	0.149067
0.206479	-0.7199	-0.0231516
-0.638561	0.368011	-0.0795215
0.372063	0.386486	-0.247325
-0.0861683	0.264682	-0.115645
-0.414858	-0.394618	-0.239237
-0.649291	0.327199	-0.10458
0.404607	-0.330462	-0.248994
0.734498	0.151661	-0.00194111
-0.10563	-0.72547	0.0903057
0.580554	0.113796	-0.232614
0.402929	0.498703	0.20635
-0.085733	0.402051	-0.233656
0.135495	0.210881	-0.018136
0.175414	-0.710946	-0.0924789
-0.650284	-0.272707	-0.142874
0.324351	0.00468684	-0.177931
-0.226588	-0.111636	-0.0359296
0.273254	0.0798543	-0.127038
0.296392	-0.671487	-0.0880229
-0.0188886	0.54848	0.24519
0.11708	-0.388954	-0.231733
-0.1234	-0.732604	-0.0590583
-0.0777245	-0.244675	0.0575887
-0.611305	-0.335142	0.15373
-0.52603	-0.199834	-0.242007
0.486216	0.443103	-0.193877
0.320811	-0.613166	0.160088
0.472933	0.568312	-0.0721779
-0.620854	-0.294982	0.16551
-0.37789	0.185421	0.237166
0.402329	0.370723	0.245526
0.287473	-0.0752012	-0.146118
-0.108196	-0.558896	0.240211
0.232064	0.272112	-0.205501
0.399878	-0.111783	0.235182
-0.180339	-0.190052	0.076511
0.21232	-0.656347	0.162675
-0.427539	0.507705	-0.188914
-0.326544	0.658595	0.085007
0.0627799	-0.715879	-0.121253
0.563987	0.415552	0.149269
0.523942	-0.269698	0.233514
-0.142767	0.32804	-0.205592
0.393159	-0.58987	-0.137355
-0.0381508	0.344866	0.197691
0.666341	0.259552	-0.127394
0.297067	-0.0802342	-0.159766
0.400274	-0.387462	0.243395
0.392347	-0.572285	0.157852
-0.256142	-0.254938	0.208055
0.732	0.158429	-0.0229053
0.0087587	-0.311628	-0.164506
0.52063	-0.244382	0.238443
0.259775	-0.550537	-0.225109
-0.620523	-0.393494	0.0859254
0.0230239	0.730366	0.0962498
0.417515	-0.0344381	-0.236491
0.194427	-0.685704	0.131315
0.594881	0.405192	0.119176
-0.2376	0.078082	-0.00710393
0.338065	0.0316716	-0.191714
-0.597026	-0.26473	-0.197647
0.0622898	-0.381191	-0.222621
0.212798	-0.523054	0.241487
-0.122808	0.733049	0.057638
0.371448	-0.385661	-0.247474
-0.0625156	-0.618538	0.218384
-0.373852	-0.307911	0.249508
0.732699	0.143005	0.0415454
-0.727782	-0.177207	-0.0218225
-0.360485	-0.454822	0.236734
0.33732	0.402397	0.248739
-0.557574	0.363824	-0.187132
0.0270282	-0.251425	-0.0377935
0.60194	-0.425678	-0.0788265
0.466519	-0.0508939	-0.248106
0.257649	0.698312	-0.0529575
0.419374	-0.154164	0.244277
0.296315	-0.308678	-0.239373
0.328386	-0.665756	0.0614109
0.625691	-0.365317	-0.109935
-0.617431	-0.281797	0.174835
-0.651483	-0.0948915	-0.19345
0.0571828	-0.651237	0.197137
0.111866	0.50007	0.249691
-0.330541	-0.24094	-0.232863
-0.232171	-0.34341	-0.234935
-0.673385	0.102467	0.172307
0.19619	-0.467057	0.249913
0.497814	-0.389136	0.212399
0.257971	-0.113827	-0.122318
0.472452	0.118237	-0.249663
-0.0249445	0.670717	-0.182201
0.189476	-0.165658	-0.0289481
0.684745	0.284244	0.0650174
0.195903	-0.71309	0.0716575
-0.578768	-0.447875	0.0935841
0.235515	0.464114	-0.249162
-0.245698	0.082686	0.0673321
0.266085	-0.226721	0.199681
0.326383	0.522222	-0.22155
0.352215	0.128358	0.216434
0.566899	-0.449005	0.112666
0.0417614	-0.715091	-0.125341
0.359678	0.381726	-0.248798
-0.0942066	0.234012	-0.0335633
0.236606	-0.271844	0.207387
0.249446	-0.0934797	-0.0890208
-0.329133	0.672607	-0.0242807
0.395498	-0.079691	0.230603
-0.426718	-0.0493645	-0.239872
0.337606	-0.388909	-0.249549
-0.424223	-0.616647	-0.0275521
-0.0507839	-0.653359	0.19589
0.527701	0.00449338	-0.248458
-0.645039	0.00549783	0.203609
-0.654099	0.366804	-0.00603861
0.120037	0.234279	0.0802795
0.285769	-0.339612	0.243612
0.304375	0.677433	-0.0600917
-0.463255	0.51473	-0.159515
0.591103	0.43786	0.0835904
0.200954	0.566126	-0.228807
0.462441	-0.349404	-0.236989
-0.515144	-0.539277	0.0457202
-0.574045	0.00589685	-0.238774
0.285142	0.104931	-0.154983
0.360617	-0.289017	-0.247117
0.275629	-0.263852	0.220165
0.321407	-0.280608	0.239002
0.180519	-0.356069	-0.228784
-0.730327	-0.0481547	0.0933609
0.497584	-0.504452	-0.137846
0.318995	-0.672511	-0.0529368
0.282428	-0.0176821	0.124109
-0.679953	-0.0598749	-0.170772
0.694133	0.0270096	-0.15687
0.605295	-0.24594	0.197442
0.181181	0.635548	-0.191367
0.646284	-0.379991	0.0118892
0.293937	-0.561437	0.211227
0.0437238	-0.341503	0.195588
-0.0452204	0.421313	0.238082
0.116401	0.412694	0.239645
-0.319834	-0.58242	0.18829
-0.240852	0.321355	-0.229818
