0.288309	0.126839	-0.168126
-0.295565	0.070891	0.155125
-0.29933	-0.614312	0.169942
0.452417	-0.568079	0.106417
-0.655198	-0.267871	-0.138932
0.536635	0.0820822	-0.246296
-0.117841	0.699992	-0.135891
0.0508879	0.685952	0.164976
0.364981	-0.0622784	0.213698
0.222267	-0.703511	0.0771817
-0.390614	0.239157	-0.246449
0.231933	-0.140985	0.101252
-0.74303	0.0992454	0.0136214
-0.412757	-0.186131	-0.245501
-0.243006	0.688587	-0.0974895
0.60896	-0.102566	0.220647
-0.436815	-0.150158	-0.24708
-0.233882	0.704656	0.0609499
-0.246975	-0.0548721	0.0385971
0.0819748	0.744418	-0.0232333
-0.669352	-0.336169	-0.022037
0.392738	-0.514806	0.201844
0.466117	0.359872	0.233669
0.136739	0.735942	0.0270026
-0.117228	-0.248458	-0.108402
-0.103601	-0.228151	0.0168901
-0.124612	0.474483	0.249822
0.249542	-0.563642	0.221243
-0.603446	0.360227	-0.146209
0.355808	0.654939	-0.0480029
0.247802	-0.701186	-0.0558352
0.269908	-0.186112	-0.181289
0.138084	0.215069	-0.0525313
-0.0736151	-0.4226	-0.239695
-0.586951	0.459877	-0.0464182
-0.509286	0.206942	0.245005
-0.00262243	-0.66828	-0.184879
0.433393	0.0399218	0.241463
0.692469	-0.114402	-0.147494
0.256241	-0.0794665	-0.093841
-0.308093	-0.636131	-0.140458
-0.534166	0.00273239	-0.247653
-0.42547	-0.285837	-0.249684
-0.700985	-0.254228	0.0463678
-0.730484	0.151958	0.0438651
0.307998	0.637576	-0.138586
0.195391	0.453837	0.249931
0.401484	0.239163	-0.247855
0.509789	0.549846	-0.00974053
-0.589985	0.131863	0.227093
0.219988	-0.67729	0.132306
0.624531	-0.408011	-0.044558
-0.36363	0.11508	0.220081
-0.51	-0.0113713	0.249795
0.722258	-0.00408673	-0.114438
-0.00340073	0.39189	0.225423
-0.317088	0.29582	-0.241035
-0.478077	-0.330884	-0.236372
0.305554	0.618432	0.162717
-0.705499	0.00898409	-0.14229
0.564693	-0.37272	0.176945
-0.331831	-0.495303	0.230756
0.478825	0.14728	0.249998
-0.55343	-0.303385	-0.212848
0.348401	-0.507714	0.221586
0.104958	0.394896	0.232695
-0.426357	-0.408633	0.233021
0.28745	0.278938	0.229364
0.30075	-0.274824	0.23222
-0.396142	-0.630923	-0.0498584
-0.679949	0.302231	0.054025
-0.729051	0.175522	0.00768314
-0.201155	-0.600746	0.211352
0.582786	0.112901	0.231808
0.163646	-0.726499	-0.051197
-0.0131649	-0.690494	-0.161753
-0.45563	-0.350054	-0.238618
0.505283	-0.553742	-0.0136444
0.588851	0.113098	-0.229297
-0.296633	-0.165923	-0.191998
-0.00357447	-0.587014	-0.234364
0.0234091	-0.722679	-0.112894
-0.504455	-0.0441711	-0.249918
-0.112346	0.513844	0.248646
-0.449286	-0.536847	0.149941
-0.0904624	0.522584	0.24815
0.570055	-0.268311	-0.213516
0.426598	0.158591	0.245939
0.113201	0.252921	-0.113203
0.0535708	-0.337263	-0.193326
0.175198	-0.718402	-0.0718379
0.74934	-0.028082	0.00817207
0.0259872	0.732224	-0.0914197
-0.115214	-0.477777	-0.249855
-0.251407	0.165377	-0.151223
0.345441	0.188092	-0.2261
-0.348134	0.222335	-0.234401
0.222686	0.276986	0.20394
-0.691524	-0.165992	0.133822
0.287803	-0.418902	-0.249864
0.566318	0.419701	-0.143253
0.256501	0.217386	-0.188889
0.0318686	-0.747068	-0.0334817
-0.108269	-0.479954	0.249872
-0.377039	-0.571645	0.168384
-0.552478	-0.498973	0.0523833
0.264687	0.649381	-0.148315
0.116518	0.2219	-0.0177563
0.256455	0.13856	0.13793
-0.104786	0.740846	0.0297807
0.662108	0.352073	0.00725122
0.166532	-0.240796	0.139845
0.590202	0.383554	0.144677
0.742397	0.104256	0.0126208
-0.380176	0.537973	0.19313
-0.336631	0.509865	0.224022
-0.511535	-0.388752	0.205416
0.22393	0.113038	-0.0205096
0.0612288	-0.314817	0.174233
0.186219	-0.685806	0.134653
-0.242644	-0.123442	0.103076
0.117911	0.292568	0.168629
0.0381508	-0.500346	-0.249994
0.421187	-0.528876	-0.177453
-0.384818	0.630787	0.0736575
-0.430618	0.424881	-0.226907
0.605383	0.331239	-0.162389
-0.521103	-0.411586	-0.188654
0.245111	0.449717	-0.249703
-0.446059	-0.59368	-0.0604551
-0.359697	0.390779	0.248055
0.42203	-0.619992	-0.000492312
-0.0191349	0.749147	-0.0174295
-0.513425	-0.43258	0.182028
-0.435019	-0.136217	-0.24607
0.207139	0.625522	0.192983
-0.0562849	0.271844	-0.114204
0.0413317	-0.676841	0.175441
0.357786	-0.198231	0.232862
0.576192	0.428265	0.122519
-0.449294	-0.16473	0.249077
0.0202811	0.421001	-0.237352
-0.109875	0.236986	0.0740468
-0.531021	-0.22412	-0.238047
-0.621071	-0.418334	-0.0242501
0.223044	0.227323	-0.171893
0.43248	-0.0306381	0.241011
0.711969	-0.209362	0.0622996
-0.511447	-0.505489	-0.120406
-0.217018	-0.666045	-0.149319
0.0285587	0.416646	-0.236038
-0.0658481	0.675388	0.174944
-0.252066	-0.117731	-0.115354
-0.736568	0.00466634	0.0807985
-0.394991	0.00663768	-0.226903
-0.384535	-0.606256	0.122513
-0.250796	0.0932319	-0.0920538
-0.339411	0.32356	-0.248061
-0.522204	0.284112	0.231456
0.642486	-0.345807	-0.0988257
0.467095	-0.226879	-0.249255
0.574756	-0.125304	0.233903
-0.335574	-0.666842	-0.0415841
-0.206678	-0.150274	0.0523158
0.668711	0.24664	0.131299
-0.398626	0.0814125	0.232
-0.258458	0.218231	-0.190638
-0.717442	-0.139682	-0.0958084
0.349073	0.0617708	-0.203295
0.252506	-0.0220994	-0.0415182
0.680959	0.27551	0.0864352
0.703052	-0.106465	-0.13398
-0.583343	0.393687	0.144851
0.209034	0.328868	0.224342
-0.153472	0.715218	0.0943829
0.243749	0.0556161	-0.00256807
0.199444	-0.616483	0.201527
-0.404998	-0.622403	0.0605
-0.714615	0.143466	0.100582
-0.478322	-0.38923	0.221102
-0.0692504	-0.738111	-0.0651833
0.0346947	-0.394936	-0.22755
0.642863	0.297019	0.138452
0.328169	-0.250678	-0.234358
0.401603	0.516734	-0.196587
0.276507	0.122165	0.153009
0.716983	-0.181401	-0.0714406
0.629299	-0.239775	-0.18006
-0.365283	-0.102794	-0.219027
0.281763	0.5984	0.190904
0.726133	0.068419	0.0994924
0.00649814	-0.682017	-0.171343
0.465808	0.359182	-0.233921
-0.0545062	0.250045	-0.0540696
0.236668	0.701303	-0.0694474
0.287173	-0.628466	-0.16134
0.549028	-0.402065	-0.172967
0.0803164	0.742501	0.039674
0.154227	-0.601414	-0.218836
-0.358247	0.29678	-0.247567
0.596966	0.15977	0.220413
-0.356513	-0.342422	-0.249936
-0.704183	0.131127	-0.125379
0.712475	0.0304201	0.130683
0.485179	0.376253	-0.222508
0.249691	-0.699951	-0.0581057
-0.632238	-0.345708	0.117659
-0.292398	-0.381517	0.249252
0.637243	0.370894	-0.0786059
-0.40998	0.399812	-0.23921
-0.621731	-0.32082	-0.150499
0.104104	0.269083	-0.133327
-0.152842	-0.616402	-0.210372
0.562213	-0.430409	0.138618
-0.499867	0.144413	0.249174
-0.292679	-0.0686551	0.150828
0.603682	-0.444744	0.00949749
-0.106666	0.272691	0.139902
0.223149	-0.115362	-0.0245178
-0.344191	0.0188744	-0.195919
0.372079	-0.535261	0.198576
-0.640728	0.193917	0.18383
-0.00221387	-0.501464	0.249996
-0.209341	-0.431227	0.249146
0.660533	0.0307002	0.191049
-0.0495337	0.651921	-0.197093
-0.221932	-0.601967	-0.20605
-0.34551	0.641751	0.100638
-0.524311	0.365837	-0.207576
0.275335	0.250218	-0.214774
-0.0689024	0.740112	0.0574382
0.120346	-0.255871	0.12372
0.366433	-0.624301	0.111225
0.114459	0.71521	0.110383
0.71366	-0.183154	0.0801981
0.418889	-0.585351	0.119123
0.0454797	0.474444	0.248904
-0.346475	-0.293908	-0.245795
0.143103	-0.231671	0.103223
-0.14826	0.681055	-0.153911
0.438386	0.586073	-0.0934179
0.11902	-0.592232	0.227308
-0.209991	0.13566	-0.000219746
0.148235	0.689716	0.142421
0.749304	0.0289482	0.00827622
-0.269368	0.699903	-0.00506411
-0.206179	-0.701254	-0.0957533
0.647944	0.219739	-0.169038
0.182651	0.221081	-0.130513
-0.324262	-0.67503	0.0237131
0.444031	0.603044	0.0236067
0.157353	0.254154	-0.148552
0.0646896	0.610396	-0.22259
0.50427	0.218932	0.245001
-0.182898	0.428964	0.247722
-0.142429	0.656632	0.181521
0.314582	0.482207	-0.238248
0.399409	-0.125444	-0.236393
-0.293578	-0.611849	0.174897
0.190716	0.18494	-0.0870929
0.469416	-0.530437	-0.138215
0.0848911	-0.266569	-0.118298
-0.460475	-0.388479	-0.228041
0.288664	-0.681798	0.0686532
-0.389174	0.638291	0.0347196
0.561216	0.492439	-0.040894
0.181933	-0.267372	-0.176953
0.282534	0.0647198	-0.135417
0.259859	0.0488498	0.0836508
-0.13786	0.455988	0.248881
-0.293141	0.518263	-0.231073
0.710431	0.0062781	0.134933
-0.526051	-0.161691	-0.244879
-0.218913	-0.252574	0.187146
-0.665503	0.055157	0.185333
-0.337126	-0.522847	-0.218148
-0.289006	-0.0838876	0.151238
0.19075	-0.590027	-0.219265
0.363601	-0.635651	0.0924043
-0.609902	-0.0407213	-0.223878
-0.0294302	-0.747896	-0.027569
-0.578905	-0.417216	-0.129933
0.695547	0.0461442	0.153822
0.319165	0.363427	-0.249467
0.580901	0.407489	-0.136306
0.0864598	-0.715332	0.11774
-0.329689	0.318823	0.246554
-0.460665	-0.338406	-0.239526
-0.309997	0.233996	-0.223707
0.188203	0.194107	-0.0988338
0.254719	-0.283575	0.219957
-0.548008	0.495969	0.072949
0.486983	-0.124808	0.249985
-0.0989407	0.22959	-0.000855062
-0.70251	0.137507	0.126146
0.624036	0.410164	-0.040099
0.269624	0.0403264	0.103922
-0.671546	0.14222	-0.166553
-0.520637	-0.369584	0.208143
0.243447	0.0659077	0.0331771
-0.536246	-0.299347	0.222423
0.0293241	0.728888	0.0991969
-0.657328	-0.327575	0.0868519
0.341141	-0.547655	0.203501
0.11795	0.678205	-0.16435
0.202567	0.690446	0.119577
-0.0492851	-0.635677	-0.208736
0.136862	-0.589012	0.227018
0.108998	-0.232685	-0.0585344
0.337319	0.482973	-0.233581
-0.678916	-0.273539	0.0932703
0.0636876	-0.416967	0.237456
0.126064	-0.562022	0.238172
0.175133	0.340032	-0.220658
0.736229	0.0940883	0.0618938
0.748089	-0.00246058	0.030816
-0.644926	-0.13396	0.193176
-0.74029	-0.0645085	-0.0583502
-0.299821	-0.675236	0.0739667
0.688867	-0.295492	-0.0146717
0.0244496	0.261381	-0.0781309
-0.696234	-0.261869	-0.0550971
0.282692	-0.659187	-0.12371
0.629728	0.221027	-0.185689
-0.253447	-0.66112	-0.13864
0.398383	-0.139525	-0.237556
-0.019792	0.74659	0.0395463
-0.665704	-0.164718	0.167289
0.0619707	0.305507	0.164481
0.332354	-0.429152	0.246309
-0.147471	-0.677521	-0.158437
-0.153801	-0.25389	-0.145694
0.426731	-0.144883	0.245082
0.0759945	-0.239194	-0.0220678
-0.190669	-0.517294	0.244677
-0.745244	0.00777307	-0.0483274
-0.531888	-0.484138	0.120156
-0.151307	-0.313239	-0.198383
-0.688034	-0.297664	-0.012974
-0.448087	0.173561	-0.24924
-0.362276	0.655548	0.0224412
0.423502	0.0253766	0.238251
-0.551019	0.471922	0.107959
-0.59252	0.262702	0.201378
0.430191	-0.0380732	0.240538
0.170454	0.27737	0.179082
-0.504377	0.271002	-0.239235
0.491779	-0.0939381	0.249999
0.280964	-0.449447	-0.248189
-0.647339	-0.210636	-0.172716
-0.37825	0.647128	0.0147448
0.317414	-0.165015	-0.205581
0.451131	-0.150169	-0.248793
-0.0318625	-0.27129	0.105077
-0.423068	0.44177	0.223671
-0.0417979	0.658324	0.192385
-0.513145	0.172877	-0.246534
0.22979	0.195388	-0.152148
-0.616815	-0.426317	-0.0098773
0.42282	0.0145319	-0.237869
-0.318485	-0.425396	-0.248019
-0.590353	-0.0475334	0.232352
0.0520673	0.287909	0.139558
0.0685317	-0.447208	0.245432
-0.50945	-0.487866	0.142554
0.0975941	-0.653738	0.191271
-0.268972	0.671122	0.112979
0.30271	0.109561	0.17547
-0.252477	0.051005	-0.0610839
0.174507	-0.184877	0.045787
-0.0301288	-0.543433	-0.246049
0.312484	-0.470751	0.241396
-0.272327	-0.421049	-0.249996
-0.220296	-0.403234	0.246695
0.14115	-0.358089	0.22193
-0.185606	0.176595	0.0553048
0.353174	0.371221	-0.249693
0.330299	0.0997029	-0.196165
0.242029	-0.551446	-0.228146
0.440278	0.574282	0.111751
0.549811	0.441241	0.143131
-0.701785	0.165701	-0.116717
-0.365538	0.253949	0.243896
0.531484	-0.338743	-0.213386
-0.379866	-0.31634	0.249936
0.0832676	0.272888	-0.128093
-0.408155	-0.33167	0.248652
0.627036	-0.0101185	-0.21527
0.721356	-0.0125303	0.115989
-0.23605	-0.615549	-0.19271
0.0846785	-0.565569	0.239446
-0.662034	-0.35226	0.00641851
0.394939	-0.439816	0.232805
0.644039	-0.07285	-0.201377
-0.27207	-0.0105814	-0.103157
-0.480819	-0.389483	-0.219982
-0.466533	-0.0719093	0.248432
0.588702	0.358265	-0.163473
-0.0823866	0.309482	0.173763
0.246307	0.656359	-0.148587
-0.289737	-0.19741	0.200446
0.433582	-0.0478756	-0.241727
-0.201502	0.525039	0.242093
0.462997	0.389675	0.226809
0.423362	-0.462315	0.215414
-0.0667268	0.607542	0.22391
0.737089	0.102534	-0.053602
-0.0712021	0.671869	0.177915
