# persistence landscape
# X Y
"layer 0:"
-inf 0
8 0
3066 3058
6124 0
inf 0


"layer 1:"
-inf 0
9 0
3066.5 3057.5
6124 0
inf 0


"layer 2:"
-inf 0
10 0
3067 3057
6124 0
inf 0


"layer 3:"
-inf 0
10 0
3067 3057
6124 0
inf 0


"layer 4:"
-inf 0
12 0
3068 3056
6124 0
inf 0


"layer 5:"
-inf 0
12 0
3068 3056
6124 0
inf 0


"layer 6:"
-inf 0
12 0
3068 3056
6124 0
inf 0


"layer 7:"
-inf 0
14 0
3069 3055
6124 0
inf 0


"layer 8:"
-inf 0
14 0
3069 3055
6124 0
inf 0


"layer 9:"
-inf 0
15 0
3069.5 3054.5
6124 0
inf 0


"layer 10:"
-inf 0
15 0
3069.5 3054.5
6124 0
inf 0


"layer 11:"
-inf 0
15 0
3069.5 3054.5
6124 0
inf 0


"layer 12:"
-inf 0
16 0
3070 3054
6124 0
inf 0


"layer 13:"
-inf 0
16 0
3070 3054
6124 0
inf 0


"layer 14:"
-inf 0
16 0
3070 3054
6124 0
inf 0


"layer 15:"
-inf 0
17 0
3070.5 3053.5
6124 0
inf 0


"layer 16:"
-inf 0
17 0
3070.5 3053.5
6124 0
inf 0


"layer 17:"
-inf 0
18 0
3071 3053
6124 0
inf 0


"layer 18:"
-inf 0
20 0
3072 3052
6124 0
inf 0


"layer 19:"
-inf 0
20 0
3072 3052
6124 0
inf 0


"layer 20:"
-inf 0
21 0
3072.5 3051.5
6124 0
inf 0


"layer 21:"
-inf 0
22 0
3073 3051
6124 0
inf 0


"layer 22:"
-inf 0
22 0
3073 3051
6124 0
inf 0


"layer 23:"
-inf 0
25 0
3074.5 3049.5
6124 0
inf 0


"layer 24:"
-inf 0
26 0
3075 3049
6124 0
inf 0


"layer 25:"
-inf 0
27 0
3075.5 3048.5
6124 0
inf 0


"layer 26:"
-inf 0
117 0
3120.5 3003.5
6124 0
inf 0


"layer 27:"
-inf 0
117 0
3120.5 3003.5
6124 0
inf 0


"layer 28:"
-inf 0
117 0
3120.5 3003.5
6124 0
inf 0


"layer 29:"
-inf 0
117 0
3120.5 3003.5
6124 0
inf 0


"layer 30:"
-inf 0
117 0
3120.5 3003.5
6124 0
inf 0


"layer 31:"
-inf 0
117 0
3120.5 3003.5
6124 0
inf 0


"layer 32:"
-inf 0
117 0
3120.5 3003.5
6124 0
inf 0


"layer 33:"
-inf 0
118 0
3121 3003
6124 0
inf 0


"layer 34:"
-inf 0
118 0
3121 3003
6124 0
inf 0


"layer 35:"
-inf 0
118 0
3121 3003
6124 0
inf 0


"layer 36:"
-inf 0
118 0
3121 3003
6124 0
inf 0


"layer 37:"
-inf 0
118 0
3121 3003
6124 0
inf 0


"layer 38:"
-inf 0
118 0
3121 3003
6124 0
inf 0


"layer 39:"
-inf 0
118 0
3121 3003
6124 0
inf 0


"layer 40:"
-inf 0
118 0
3121 3003
6124 0
inf 0


"layer 41:"
-inf 0
118 0
3121 3003
6124 0
inf 0


"layer 42:"
-inf 0
118 0
3121 3003
6124 0
inf 0


"layer 43:"
-inf 0
119 0
3121.5 3002.5
6124 0
inf 0


"layer 44:"
-inf 0
119 0
3121.5 3002.5
6124 0
inf 0


"layer 45:"
-inf 0
119 0
3121.5 3002.5
6124 0
inf 0


"layer 46:"
-inf 0
120 0
3122 3002
6124 0
inf 0


"layer 47:"
-inf 0
120 0
3122 3002
6124 0
inf 0


"layer 48:"
-inf 0
120 0
3122 3002
6124 0
inf 0


"layer 49:"
-inf 0
122 0
3123 3001
6124 0
inf 0


"layer 50:"
-inf 0
122 0
3123 3001
6124 0
inf 0


"layer 51:"
-inf 0
122 0
3123 3001
6124 0
inf 0


"layer 52:"
-inf 0
124 0
3124 3000
6124 0
inf 0


"layer 53:"
-inf 0
125 0
3124.5 2999.5
6124 0
inf 0


"layer 54:"
-inf 0
129 0
3126.5 2997.5
6124 0
inf 0


"layer 55:"
-inf 0
132 0
3128 2996
6124 0
inf 0


