# persistence landscape
# X Y
"layer 0:"
-inf 0
12 0
3068 3056
6124 0
inf 0


"layer 1:"
-inf 0
12 0
3068 3056
6124 0
inf 0


"layer 2:"
-inf 0
16 0
3070 3054
6124 0
inf 0


"layer 3:"
-inf 0
17 0
3070.5 3053.5
6124 0
inf 0


"layer 4:"
-inf 0
18 0
3071 3053
6124 0
inf 0


"layer 5:"
-inf 0
18 0
3071 3053
6124 0
inf 0


"layer 6:"
-inf 0
18 0
3071 3053
6124 0
inf 0


"layer 7:"
-inf 0
21 0
3072.5 3051.5
6124 0
inf 0


"layer 8:"
-inf 0
21 0
3072.5 3051.5
6124 0
inf 0


"layer 9:"
-inf 0
23 0
3073.5 3050.5
6124 0
inf 0


"layer 10:"
-inf 0
24 0
3074 3050
6124 0
inf 0


"layer 11:"
-inf 0
25 0
3074.5 3049.5
6124 0
inf 0


"layer 12:"
-inf 0
25 0
3074.5 3049.5
6124 0
inf 0


"layer 13:"
-inf 0
29 0
3076.5 3047.5
6124 0
inf 0


"layer 14:"
-inf 0
29 0
3076.5 3047.5
6124 0
inf 0


"layer 15:"
-inf 0
29 0
3076.5 3047.5
6124 0
inf 0


"layer 16:"
-inf 0
30 0
3077 3047
6124 0
inf 0


"layer 17:"
-inf 0
34 0
3079 3045
6124 0
inf 0


"layer 18:"
-inf 0
39 0
3081.5 3042.5
6124 0
inf 0


"layer 19:"
-inf 0
46 0
3085 3039
6124 0
inf 0


"layer 20:"
-inf 0
69 0
3096.5 3027.5
6124 0
inf 0


"layer 21:"
-inf 0
69 0
3096.5 3027.5
6124 0
inf 0


"layer 22:"
-inf 0
69 0
3096.5 3027.5
6124 0
inf 0


"layer 23:"
-inf 0
69 0
3096.5 3027.5
6124 0
inf 0


"layer 24:"
-inf 0
69 0
3096.5 3027.5
6124 0
inf 0


"layer 25:"
-inf 0
69 0
3096.5 3027.5
6124 0
inf 0


"layer 26:"
-inf 0
69 0
3096.5 3027.5
6124 0
inf 0


"layer 27:"
-inf 0
70 0
3097 3027
6124 0
inf 0


"layer 28:"
-inf 0
71 0
3097.5 3026.5
6124 0
inf 0


"layer 29:"
-inf 0
71 0
3097.5 3026.5
6124 0
inf 0


"layer 30:"
-inf 0
71 0
3097.5 3026.5
6124 0
inf 0


"layer 31:"
-inf 0
72 0
3098 3026
6124 0
inf 0


"layer 32:"
-inf 0
72 0
3098 3026
6124 0
inf 0


"layer 33:"
-inf 0
72 0
3098 3026
6124 0
inf 0


"layer 34:"
-inf 0
72 0
3098 3026
6124 0
inf 0


"layer 35:"
-inf 0
77 0
3100.5 3023.5
6124 0
inf 0


"layer 36:"
-inf 0
77 0
3100.5 3023.5
6124 0
inf 0


"layer 37:"
-inf 0
86 0
3105 3019
6124 0
inf 0


