# persistence landscape
# X Y
"layer 0:"
-inf 0
9 0
3066.5 3057.5
6124 0
inf 0


"layer 1:"
-inf 0
10 0
3067 3057
6124 0
inf 0


"layer 2:"
-inf 0
10 0
3067 3057
6124 0
inf 0


"layer 3:"
-inf 0
12 0
3068 3056
6124 0
inf 0


"layer 4:"
-inf 0
14 0
3069 3055
6124 0
inf 0


"layer 5:"
-inf 0
97 0
3110.5 3013.5
6124 0
inf 0


"layer 6:"
-inf 0
97 0
3110.5 3013.5
6124 0
inf 0


"layer 7:"
-inf 0
97 0
3110.5 3013.5
6124 0
inf 0


"layer 8:"
-inf 0
97 0
3110.5 3013.5
6124 0
inf 0


"layer 9:"
-inf 0
97 0
3110.5 3013.5
6124 0
inf 0


"layer 10:"
-inf 0
97 0
3110.5 3013.5
6124 0
inf 0


"layer 11:"
-inf 0
97 0
3110.5 3013.5
6124 0
inf 0


"layer 12:"
-inf 0
97 0
3110.5 3013.5
6124 0
inf 0


"layer 13:"
-inf 0
97 0
3110.5 3013.5
6124 0
inf 0


"layer 14:"
-inf 0
97 0
3110.5 3013.5
6124 0
inf 0


"layer 15:"
-inf 0
97 0
3110.5 3013.5
6124 0
inf 0


"layer 16:"
-inf 0
97 0
3110.5 3013.5
6124 0
inf 0


"layer 17:"
-inf 0
97 0
3110.5 3013.5
6124 0
inf 0


"layer 18:"
-inf 0
98 0
3111 3013
6124 0
inf 0


"layer 19:"
-inf 0
98 0
3111 3013
6124 0
inf 0


"layer 20:"
-inf 0
98 0
3111 3013
6124 0
inf 0


"layer 21:"
-inf 0
98 0
3111 3013
6124 0
inf 0


"layer 22:"
-inf 0
98 0
3111 3013
6124 0
inf 0


"layer 23:"
-inf 0
98 0
3111 3013
6124 0
inf 0


"layer 24:"
-inf 0
98 0
3111 3013
6124 0
inf 0


"layer 25:"
-inf 0
98 0
3111 3013
6124 0
inf 0


"layer 26:"
-inf 0
98 0
3111 3013
6124 0
inf 0


"layer 27:"
-inf 0
99 0
3111.5 3012.5
6124 0
inf 0


"layer 28:"
-inf 0
99 0
3111.5 3012.5
6124 0
inf 0


"layer 29:"
-inf 0
102 0
3113 3011
6124 0
inf 0


"layer 30:"
-inf 0
103 0
3113.5 3010.5
6124 0
inf 0


"layer 31:"
-inf 0
104 0
3114 3010
6124 0
inf 0


