# persistence landscape
# X Y
"layer 0:"
-inf 0
6 0
3065 3059
6124 0
inf 0


"layer 1:"
-inf 0
6 0
3065 3059
6124 0
inf 0


"layer 2:"
-inf 0
8 0
3066 3058
6124 0
inf 0


"layer 3:"
-inf 0
9 0
3066.5 3057.5
6124 0
inf 0


"layer 4:"
-inf 0
10 0
3067 3057
6124 0
inf 0


"layer 5:"
-inf 0
11 0
3067.5 3056.5
6124 0
inf 0


"layer 6:"
-inf 0
12 0
3068 3056
6124 0
inf 0


"layer 7:"
-inf 0
12 0
3068 3056
6124 0
inf 0


"layer 8:"
-inf 0
13 0
3068.5 3055.5
6124 0
inf 0


"layer 9:"
-inf 0
13 0
3068.5 3055.5
6124 0
inf 0


"layer 10:"
-inf 0
16 0
3070 3054
6124 0
inf 0


"layer 11:"
-inf 0
16 0
3070 3054
6124 0
inf 0


"layer 12:"
-inf 0
17 0
3070.5 3053.5
6124 0
inf 0


"layer 13:"
-inf 0
17 0
3070.5 3053.5
6124 0
inf 0


"layer 14:"
-inf 0
17 0
3070.5 3053.5
6124 0
inf 0


"layer 15:"
-inf 0
18 0
3071 3053
6124 0
inf 0


"layer 16:"
-inf 0
20 0
3072 3052
6124 0
inf 0


"layer 17:"
-inf 0
20 0
3072 3052
6124 0
inf 0


"layer 18:"
-inf 0
20 0
3072 3052
6124 0
inf 0


"layer 19:"
-inf 0
21 0
3072.5 3051.5
6124 0
inf 0


"layer 20:"
-inf 0
21 0
3072.5 3051.5
6124 0
inf 0


"layer 21:"
-inf 0
21 0
3072.5 3051.5
6124 0
inf 0


"layer 22:"
-inf 0
24 0
3074 3050
6124 0
inf 0


"layer 23:"
-inf 0
24 0
3074 3050
6124 0
inf 0


"layer 24:"
-inf 0
24 0
3074 3050
6124 0
inf 0


"layer 25:"
-inf 0
262 0
3193 2931
6124 0
inf 0


"layer 26:"
-inf 0
262 0
3193 2931
6124 0
inf 0


"layer 27:"
-inf 0
262 0
3193 2931
6124 0
inf 0


"layer 28:"
-inf 0
262 0
3193 2931
6124 0
inf 0


"layer 29:"
-inf 0
262 0
3193 2931
6124 0
inf 0


"layer 30:"
-inf 0
262 0
3193 2931
6124 0
inf 0


"layer 31:"
-inf 0
262 0
3193 2931
6124 0
inf 0


"layer 32:"
-inf 0
262 0
3193 2931
6124 0
inf 0


"layer 33:"
-inf 0
262 0
3193 2931
6124 0
inf 0


"layer 34:"
-inf 0
262 0
3193 2931
6124 0
inf 0


"layer 35:"
-inf 0
262 0
3193 2931
6124 0
inf 0


"layer 36:"
-inf 0
262 0
3193 2931
6124 0
inf 0


"layer 37:"
-inf 0
262 0
3193 2931
6124 0
inf 0


"layer 38:"
-inf 0
262 0
3193 2931
6124 0
inf 0


"layer 39:"
-inf 0
262 0
3193 2931
6124 0
inf 0


"layer 40:"
-inf 0
262 0
3193 2931
6124 0
inf 0


"layer 41:"
-inf 0
262 0
3193 2931
6124 0
inf 0


"layer 42:"
-inf 0
262 0
3193 2931
6124 0
inf 0


"layer 43:"
-inf 0
262 0
3193 2931
6124 0
inf 0


"layer 44:"
-inf 0
262 0
3193 2931
6124 0
inf 0


"layer 45:"
-inf 0
262 0
3193 2931
6124 0
inf 0


"layer 46:"
-inf 0
262 0
3193 2931
6124 0
inf 0


"layer 47:"
-inf 0
263 0
3193.5 2930.5
6124 0
inf 0


"layer 48:"
-inf 0
263 0
3193.5 2930.5
6124 0
inf 0


"layer 49:"
-inf 0
263 0
3193.5 2930.5
6124 0
inf 0


"layer 50:"
-inf 0
263 0
3193.5 2930.5
6124 0
inf 0


"layer 51:"
-inf 0
263 0
3193.5 2930.5
6124 0
inf 0


"layer 52:"
-inf 0
263 0
3193.5 2930.5
6124 0
inf 0


"layer 53:"
-inf 0
263 0
3193.5 2930.5
6124 0
inf 0


"layer 54:"
-inf 0
263 0
3193.5 2930.5
6124 0
inf 0


"layer 55:"
-inf 0
263 0
3193.5 2930.5
6124 0
inf 0


"layer 56:"
-inf 0
263 0
3193.5 2930.5
6124 0
inf 0


"layer 57:"
-inf 0
264 0
3194 2930
6124 0
inf 0


"layer 58:"
-inf 0
264 0
3194 2930
6124 0
inf 0


"layer 59:"
-inf 0
264 0
3194 2930
6124 0
inf 0


"layer 60:"
-inf 0
264 0
3194 2930
6124 0
inf 0


"layer 61:"
-inf 0
264 0
3194 2930
6124 0
inf 0


"layer 62:"
-inf 0
265 0
3194.5 2929.5
6124 0
inf 0


"layer 63:"
-inf 0
265 0
3194.5 2929.5
6124 0
inf 0


"layer 64:"
-inf 0
265 0
3194.5 2929.5
6124 0
inf 0


"layer 65:"
-inf 0
266 0
3195 2929
6124 0
inf 0


"layer 66:"
-inf 0
266 0
3195 2929
6124 0
inf 0


"layer 67:"
-inf 0
269 0
3196.5 2927.5
6124 0
inf 0


"layer 68:"
-inf 0
269 0
3196.5 2927.5
6124 0
inf 0


"layer 69:"
-inf 0
272 0
3198 2926
6124 0
inf 0


"layer 70:"
-inf 0
272 0
3198 2926
6124 0
inf 0


"layer 71:"
-inf 0
275 0
3199.5 2924.5
6124 0
inf 0


"layer 72:"
-inf 0
276 0
3200 2924
6124 0
inf 0


