# persistence landscape
# X Y
"layer 0:"
-inf 0
9 0
3066.5 3057.5
6124 0
inf 0


"layer 1:"
-inf 0
15 0
3069.5 3054.5
6124 0
inf 0


"layer 2:"
-inf 0
18 0
3071 3053
6124 0
inf 0


"layer 3:"
-inf 0
18 0
3071 3053
6124 0
inf 0


"layer 4:"
-inf 0
19 0
3071.5 3052.5
6124 0
inf 0


"layer 5:"
-inf 0
40 0
3082 3042
6124 0
inf 0


"layer 6:"
-inf 0
41 0
3082.5 3041.5
6124 0
inf 0


"layer 7:"
-inf 0
42 0
3083 3041
6124 0
inf 0


"layer 8:"
-inf 0
42 0
3083 3041
6124 0
inf 0


"layer 9:"
-inf 0
43 0
3083.5 3040.5
6124 0
inf 0


"layer 10:"
-inf 0
43 0
3083.5 3040.5
6124 0
inf 0


"layer 11:"
-inf 0
49 0
3086.5 3037.5
6124 0
inf 0


