# persistence landscape
# X Y
"layer 0:"
-inf 0
1 0
3062.5 3061.5
6124 0
inf 0


"layer 1:"
-inf 0
1 0
3062.5 3061.5
6124 0
inf 0


"layer 2:"
-inf 0
1 0
3062.5 3061.5
6124 0
inf 0


"layer 3:"
-inf 0
1 0
217 216
433 0
inf 0


"layer 4:"
-inf 0
1 0
217 216
433 0
inf 0


"layer 5:"
-inf 0
1 0
216.5 215.5
432 0
inf 0


"layer 6:"
-inf 0
1 0
216.5 215.5
432 0
inf 0


"layer 7:"
-inf 0
1 0
216.5 215.5
432 0
inf 0


"layer 8:"
-inf 0
1 0
216 215
431 0
inf 0


"layer 9:"
-inf 0
1 0
216 215
431 0
inf 0


"layer 10:"
-inf 0
1 0
216 215
431 0
inf 0


"layer 11:"
-inf 0
1 0
216 215
431 0
inf 0


"layer 12:"
-inf 0
1 0
216 215
431 0
inf 0


"layer 13:"
-inf 0
1 0
216 215
431 0
inf 0


"layer 14:"
-inf 0
1 0
216 215
431 0
inf 0


"layer 15:"
-inf 0
1 0
216 215
431 0
inf 0


"layer 16:"
-inf 0
1 0
216 215
431 0
inf 0


"layer 17:"
-inf 0
1 0
216 215
431 0
inf 0


"layer 18:"
-inf 0
1 0
216 215
431 0
inf 0


"layer 19:"
-inf 0
1 0
216 215
431 0
inf 0


"layer 20:"
-inf 0
1 0
216 215
431 0
inf 0


"layer 21:"
-inf 0
1 0
216 215
431 0
inf 0


"layer 22:"
-inf 0
1 0
216 215
431 0
inf 0


"layer 23:"
-inf 0
1 0
216 215
431 0
inf 0


"layer 24:"
-inf 0
1 0
216 215
431 0
inf 0


"layer 25:"
-inf 0
1 0
216 215
431 0
inf 0


"layer 26:"
-inf 0
1 0
215.5 214.5
216 214
216.5 214.5
431 0
inf 0


"layer 27:"
-inf 0
1 0
215.5 214.5
216 214
216.5 214.5
431 0
inf 0


"layer 28:"
-inf 0
1 0
215.5 214.5
430 0
inf 0


"layer 29:"
-inf 0
1 0
215.5 214.5
430 0
inf 0


"layer 30:"
-inf 0
1 0
215.5 214.5
430 0
inf 0


"layer 31:"
-inf 0
1 0
215.5 214.5
430 0
inf 0


"layer 32:"
-inf 0
1 0
215.5 214.5
430 0
inf 0


"layer 33:"
-inf 0
1 0
215.5 214.5
430 0
inf 0


"layer 34:"
-inf 0
1 0
215.5 214.5
430 0
inf 0


"layer 35:"
-inf 0
1 0
215.5 214.5
430 0
inf 0


"layer 36:"
-inf 0
1 0
215.5 214.5
430 0
inf 0


"layer 37:"
-inf 0
1 0
215.5 214.5
430 0
inf 0


"layer 38:"
-inf 0
1 0
215.5 214.5
430 0
inf 0


"layer 39:"
-inf 0
1 0
215.5 214.5
430 0
inf 0


"layer 40:"
-inf 0
1 0
215.5 214.5
430 0
inf 0


"layer 41:"
-inf 0
1 0
215.5 214.5
430 0
inf 0


"layer 42:"
-inf 0
1 0
215.5 214.5
430 0
inf 0


"layer 43:"
-inf 0
1 0
215.5 214.5
430 0
inf 0


"layer 44:"
-inf 0
1 0
215.5 214.5
430 0
inf 0


"layer 45:"
-inf 0
1 0
215.5 214.5
430 0
inf 0


"layer 46:"
-inf 0
1 0
215.5 214.5
430 0
inf 0


"layer 47:"
-inf 0
1 0
215.5 214.5
430 0
inf 0


"layer 48:"
-inf 0
1 0
215.5 214.5
430 0
inf 0


"layer 49:"
-inf 0
1 0
215.5 214.5
430 0
inf 0


"layer 50:"
-inf 0
1 0
215.5 214.5
430 0
inf 0


"layer 51:"
-inf 0
1 0
215.5 214.5
430 0
inf 0


"layer 52:"
-inf 0
1 0
215.5 214.5
430 0
inf 0


"layer 53:"
-inf 0
1 0
215.5 214.5
430 0
inf 0


"layer 54:"
-inf 0
1 0
215.5 214.5
430 0
inf 0


"layer 55:"
-inf 0
1 0
215.5 214.5
430 0
inf 0


"layer 56:"
-inf 0
1 0
215.5 214.5
430 0
inf 0


"layer 57:"
-inf 0
1 0
215.5 214.5
430 0
inf 0


"layer 58:"
-inf 0
1 0
215.5 214.5
430 0
inf 0


"layer 59:"
-inf 0
1 0
215.5 214.5
430 0
inf 0


"layer 60:"
-inf 0
1 0
215.5 214.5
430 0
inf 0


"layer 61:"
-inf 0
1 0
215.5 214.5
430 0
inf 0


"layer 62:"
-inf 0
1 0
215.5 214.5
430 0
inf 0


"layer 63:"
-inf 0
1 0
215.5 214.5
430 0
inf 0


"layer 64:"
-inf 0
1 0
215.5 214.5
430 0
inf 0


"layer 65:"
-inf 0
1 0
215.5 214.5
430 0
inf 0


"layer 66:"
-inf 0
1 0
215.5 214.5
430 0
inf 0


"layer 67:"
-inf 0
1 0
215.5 214.5
430 0
inf 0


"layer 68:"
-inf 0
1 0
215.5 214.5
430 0
inf 0


"layer 69:"
-inf 0
1 0
215.5 214.5
430 0
inf 0


"layer 70:"
-inf 0
1 0
215.5 214.5
430 0
inf 0


"layer 71:"
-inf 0
1 0
215.5 214.5
430 0
inf 0


"layer 72:"
-inf 0
1 0
215.5 214.5
430 0
inf 0


"layer 73:"
-inf 0
1 0
215.5 214.5
430 0
inf 0


"layer 74:"
-inf 0
1 0
215.5 214.5
430 0
inf 0


"layer 75:"
-inf 0
1 0
215.5 214.5
430 0
inf 0


"layer 76:"
-inf 0
1 0
215.5 214.5
430 0
inf 0


"layer 77:"
-inf 0
1 0
215.5 214.5
430 0
inf 0


"layer 78:"
-inf 0
1 0
215.5 214.5
430 0
inf 0


"layer 79:"
-inf 0
1 0
215.5 214.5
430 0
inf 0


"layer 80:"
-inf 0
1 0
215.5 214.5
430 0
inf 0


"layer 81:"
-inf 0
1 0
215.5 214.5
430 0
inf 0


"layer 82:"
-inf 0
1 0
215.5 214.5
430 0
inf 0


"layer 83:"
-inf 0
1 0
215.5 214.5
430 0
inf 0


"layer 84:"
-inf 0
1 0
215.5 214.5
430 0
inf 0


"layer 85:"
-inf 0
1 0
215.5 214.5
430 0
inf 0


"layer 86:"
-inf 0
1 0
215.5 214.5
430 0
inf 0


"layer 87:"
-inf 0
1 0
215.5 214.5
430 0
inf 0


"layer 88:"
-inf 0
1 0
215.5 214.5
430 0
inf 0


"layer 89:"
-inf 0
1 0
215.5 214.5
430 0
inf 0


"layer 90:"
-inf 0
1 0
215.5 214.5
430 0
inf 0


"layer 91:"
-inf 0
1 0
215.5 214.5
430 0
inf 0


"layer 92:"
-inf 0
1 0
215.5 214.5
430 0
inf 0


"layer 93:"
-inf 0
1 0
215.5 214.5
430 0
inf 0


"layer 94:"
-inf 0
1 0
215.5 214.5
430 0
inf 0


"layer 95:"
-inf 0
1 0
215.5 214.5
430 0
inf 0


"layer 96:"
-inf 0
1 0
215.5 214.5
430 0
inf 0


"layer 97:"
-inf 0
1 0
215.5 214.5
430 0
inf 0


"layer 98:"
-inf 0
1 0
215.5 214.5
430 0
inf 0


"layer 99:"
-inf 0
1 0
215.5 214.5
430 0
inf 0


"layer 100:"
-inf 0
1 0
215.5 214.5
430 0
inf 0


"layer 101:"
-inf 0
1 0
215.5 214.5
430 0
inf 0


"layer 102:"
-inf 0
1 0
215.5 214.5
430 0
inf 0


"layer 103:"
-inf 0
1 0
215.5 214.5
430 0
inf 0


"layer 104:"
-inf 0
1 0
215.5 214.5
430 0
inf 0


"layer 105:"
-inf 0
1 0
215.5 214.5
430 0
inf 0


"layer 106:"
-inf 0
1 0
215.5 214.5
430 0
inf 0


"layer 107:"
-inf 0
1 0
215.5 214.5
430 0
inf 0


"layer 108:"
-inf 0
1 0
215.5 214.5
430 0
inf 0


"layer 109:"
-inf 0
1 0
215.5 214.5
430 0
inf 0


"layer 110:"
-inf 0
1 0
215.5 214.5
430 0
inf 0


"layer 111:"
-inf 0
1 0
215.5 214.5
430 0
inf 0


"layer 112:"
-inf 0
1 0
215.5 214.5
430 0
inf 0


"layer 113:"
-inf 0
1 0
215.5 214.5
430 0
inf 0


"layer 114:"
-inf 0
1 0
215.5 214.5
430 0
inf 0


"layer 115:"
-inf 0
1 0
215.5 214.5
430 0
inf 0


"layer 116:"
-inf 0
1 0
215.5 214.5
430 0
inf 0


"layer 117:"
-inf 0
1 0
215.5 214.5
430 0
inf 0


"layer 118:"
-inf 0
1 0
215.5 214.5
430 0
inf 0


"layer 119:"
-inf 0
1 0
215.5 214.5
430 0
inf 0


"layer 120:"
-inf 0
1 0
215.5 214.5
430 0
inf 0


"layer 121:"
-inf 0
1 0
215.5 214.5
430 0
inf 0


"layer 122:"
-inf 0
1 0
215.5 214.5
430 0
inf 0


"layer 123:"
-inf 0
1 0
215.5 214.5
430 0
inf 0


"layer 124:"
-inf 0
1 0
215.5 214.5
430 0
inf 0


"layer 125:"
-inf 0
1 0
215.5 214.5
430 0
inf 0


"layer 126:"
-inf 0
1 0
215.5 214.5
430 0
inf 0


"layer 127:"
-inf 0
1 0
215.5 214.5
430 0
inf 0


"layer 128:"
-inf 0
1 0
215.5 214.5
430 0
inf 0


"layer 129:"
-inf 0
1 0
215.5 214.5
430 0
inf 0


"layer 130:"
-inf 0
1 0
215.5 214.5
430 0
inf 0


"layer 131:"
-inf 0
1 0
215.5 214.5
430 0
inf 0


"layer 132:"
-inf 0
1 0
215.5 214.5
430 0
inf 0


"layer 133:"
-inf 0
1 0
215.5 214.5
430 0
inf 0


"layer 134:"
-inf 0
1 0
215.5 214.5
430 0
inf 0


"layer 135:"
-inf 0
1 0
215.5 214.5
430 0
inf 0


"layer 136:"
-inf 0
1 0
215.5 214.5
430 0
inf 0


"layer 137:"
-inf 0
1 0
215.5 214.5
430 0
inf 0


"layer 138:"
-inf 0
1 0
215.5 214.5
430 0
inf 0


"layer 139:"
-inf 0
1 0
215.5 214.5
430 0
inf 0


"layer 140:"
-inf 0
1 0
215.5 214.5
430 0
inf 0


"layer 141:"
-inf 0
1 0
215.5 214.5
430 0
inf 0


"layer 142:"
-inf 0
1 0
215.5 214.5
430 0
inf 0


"layer 143:"
-inf 0
1 0
215.5 214.5
430 0
inf 0


"layer 144:"
-inf 0
1 0
215.5 214.5
430 0
inf 0


"layer 145:"
-inf 0
1 0
215.5 214.5
430 0
inf 0


"layer 146:"
-inf 0
1 0
215.5 214.5
430 0
inf 0


"layer 147:"
-inf 0
1 0
215.5 214.5
430 0
inf 0


"layer 148:"
-inf 0
1 0
215.5 214.5
430 0
inf 0


"layer 149:"
-inf 0
1 0
215.5 214.5
430 0
inf 0


"layer 150:"
-inf 0
1 0
215.5 214.5
430 0
inf 0


"layer 151:"
-inf 0
1 0
215.5 214.5
430 0
inf 0


"layer 152:"
-inf 0
1 0
215.5 214.5
430 0
inf 0


"layer 153:"
-inf 0
1 0
215.5 214.5
430 0
inf 0


"layer 154:"
-inf 0
1 0
215.5 214.5
430 0
inf 0


"layer 155:"
-inf 0
1 0
215.5 214.5
430 0
inf 0


"layer 156:"
-inf 0
1 0
215.5 214.5
430 0
inf 0


"layer 157:"
-inf 0
1 0
215.5 214.5
430 0
inf 0


"layer 158:"
-inf 0
1 0
215.5 214.5
430 0
inf 0


"layer 159:"
-inf 0
1 0
215.5 214.5
430 0
inf 0


"layer 160:"
-inf 0
1 0
215.5 214.5
430 0
inf 0


"layer 161:"
-inf 0
1 0
215.5 214.5
430 0
inf 0


"layer 162:"
-inf 0
1 0
215.5 214.5
430 0
inf 0


"layer 163:"
-inf 0
1 0
215.5 214.5
430 0
inf 0


"layer 164:"
-inf 0
1 0
215.5 214.5
430 0
inf 0


"layer 165:"
-inf 0
1 0
215.5 214.5
430 0
inf 0


"layer 166:"
-inf 0
1 0
215.5 214.5
430 0
inf 0


"layer 167:"
-inf 0
1 0
215.5 214.5
430 0
inf 0


"layer 168:"
-inf 0
1 0
215.5 214.5
430 0
inf 0


"layer 169:"
-inf 0
1 0
215.5 214.5
430 0
inf 0


"layer 170:"
-inf 0
1 0
215.5 214.5
430 0
inf 0


"layer 171:"
-inf 0
1 0
215.5 214.5
430 0
inf 0


"layer 172:"
-inf 0
1 0
215.5 214.5
430 0
inf 0


"layer 173:"
-inf 0
1 0
215.5 214.5
430 0
inf 0


"layer 174:"
-inf 0
1 0
215.5 214.5
430 0
inf 0


"layer 175:"
-inf 0
1 0
215.5 214.5
430 0
inf 0


"layer 176:"
-inf 0
1 0
215.5 214.5
430 0
inf 0


"layer 177:"
-inf 0
1 0
215.5 214.5
430 0
inf 0


"layer 178:"
-inf 0
1 0
215.5 214.5
430 0
inf 0


"layer 179:"
-inf 0
1 0
215.5 214.5
430 0
inf 0


"layer 180:"
-inf 0
1 0
215.5 214.5
430 0
inf 0


"layer 181:"
-inf 0
1 0
215.5 214.5
430 0
inf 0


"layer 182:"
-inf 0
1 0
215.5 214.5
430 0
inf 0


"layer 183:"
-inf 0
1 0
215.5 214.5
430 0
inf 0


"layer 184:"
-inf 0
1 0
215.5 214.5
430 0
inf 0


"layer 185:"
-inf 0
1 0
215.5 214.5
430 0
inf 0


"layer 186:"
-inf 0
1 0
215.5 214.5
430 0
inf 0


"layer 187:"
-inf 0
1 0
215.5 214.5
430 0
inf 0


"layer 188:"
-inf 0
1 0
215.5 214.5
430 0
inf 0


"layer 189:"
-inf 0
1 0
215.5 214.5
430 0
inf 0


"layer 190:"
-inf 0
1 0
215.5 214.5
430 0
inf 0


"layer 191:"
-inf 0
1 0
215.5 214.5
430 0
inf 0


"layer 192:"
-inf 0
1 0
215.5 214.5
430 0
inf 0


"layer 193:"
-inf 0
1 0
215.5 214.5
430 0
inf 0


"layer 194:"
-inf 0
1 0
215.5 214.5
430 0
inf 0


"layer 195:"
-inf 0
1 0
215.5 214.5
430 0
inf 0


"layer 196:"
-inf 0
1 0
215.5 214.5
430 0
inf 0


"layer 197:"
-inf 0
1 0
215.5 214.5
430 0
inf 0


"layer 198:"
-inf 0
1 0
215.5 214.5
430 0
inf 0


"layer 199:"
-inf 0
1 0
215.5 214.5
430 0
inf 0


"layer 200:"
-inf 0
1 0
215.5 214.5
430 0
inf 0


"layer 201:"
-inf 0
1 0
215.5 214.5
430 0
inf 0


"layer 202:"
-inf 0
1 0
215.5 214.5
430 0
inf 0


"layer 203:"
-inf 0
1 0
215.5 214.5
430 0
inf 0


"layer 204:"
-inf 0
1 0
215.5 214.5
430 0
inf 0


"layer 205:"
-inf 0
1 0
215.5 214.5
430 0
inf 0


"layer 206:"
-inf 0
1 0
215.5 214.5
430 0
inf 0


"layer 207:"
-inf 0
1 0
215.5 214.5
430 0
inf 0


"layer 208:"
-inf 0
1 0
215.5 214.5
430 0
inf 0


"layer 209:"
-inf 0
1 0
215.5 214.5
430 0
inf 0


"layer 210:"
-inf 0
1 0
215.5 214.5
430 0
inf 0


"layer 211:"
-inf 0
1 0
215.5 214.5
430 0
inf 0


"layer 212:"
-inf 0
1 0
215.5 214.5
430 0
inf 0


"layer 213:"
-inf 0
1 0
215.5 214.5
430 0
inf 0


"layer 214:"
-inf 0
1 0
215.5 214.5
430 0
inf 0


"layer 215:"
-inf 0
1 0
215.5 214.5
430 0
inf 0


"layer 216:"
-inf 0
1 0
215.5 214.5
430 0
inf 0


"layer 217:"
-inf 0
1 0
215.5 214.5
430 0
inf 0


"layer 218:"
-inf 0
1 0
215.5 214.5
430 0
inf 0


"layer 219:"
-inf 0
1 0
215.5 214.5
430 0
inf 0


"layer 220:"
-inf 0
1 0
215.5 214.5
430 0
inf 0


"layer 221:"
-inf 0
1 0
215.5 214.5
430 0
inf 0


"layer 222:"
-inf 0
1 0
215.5 214.5
430 0
inf 0


"layer 223:"
-inf 0
1 0
215.5 214.5
430 0
inf 0


"layer 224:"
-inf 0
1 0
215.5 214.5
430 0
inf 0


"layer 225:"
-inf 0
1 0
215.5 214.5
430 0
inf 0


"layer 226:"
-inf 0
1 0
215.5 214.5
430 0
inf 0


"layer 227:"
-inf 0
1 0
215.5 214.5
430 0
inf 0


"layer 228:"
-inf 0
1 0
215.5 214.5
430 0
inf 0


"layer 229:"
-inf 0
1 0
215.5 214.5
430 0
inf 0


"layer 230:"
-inf 0
1 0
215.5 214.5
430 0
inf 0


"layer 231:"
-inf 0
1 0
215.5 214.5
430 0
inf 0


"layer 232:"
-inf 0
1 0
215.5 214.5
430 0
inf 0


"layer 233:"
-inf 0
1 0
215.5 214.5
430 0
inf 0


"layer 234:"
-inf 0
1 0
215.5 214.5
430 0
inf 0


"layer 235:"
-inf 0
1 0
215.5 214.5
430 0
inf 0


"layer 236:"
-inf 0
1 0
215.5 214.5
430 0
inf 0


"layer 237:"
-inf 0
1 0
215.5 214.5
430 0
inf 0


"layer 238:"
-inf 0
1 0
215.5 214.5
430 0
inf 0


"layer 239:"
-inf 0
1 0
215.5 214.5
430 0
inf 0


"layer 240:"
-inf 0
1 0
215.5 214.5
430 0
inf 0


"layer 241:"
-inf 0
1 0
215.5 214.5
430 0
inf 0


"layer 242:"
-inf 0
1 0
215.5 214.5
430 0
inf 0


"layer 243:"
-inf 0
1 0
215.5 214.5
430 0
inf 0


"layer 244:"
-inf 0
1 0
215.5 214.5
430 0
inf 0


"layer 245:"
-inf 0
1 0
215.5 214.5
430 0
inf 0


"layer 246:"
-inf 0
1 0
215.5 214.5
430 0
inf 0


"layer 247:"
-inf 0
1 0
215.5 214.5
430 0
inf 0


"layer 248:"
-inf 0
1 0
215.5 214.5
430 0
inf 0


"layer 249:"
-inf 0
1 0
215.5 214.5
430 0
inf 0


"layer 250:"
-inf 0
1 0
215.5 214.5
430 0
inf 0


"layer 251:"
-inf 0
1 0
215.5 214.5
430 0
inf 0


"layer 252:"
-inf 0
1 0
215.5 214.5
430 0
inf 0


"layer 253:"
-inf 0
1 0
215.5 214.5
430 0
inf 0


"layer 254:"
-inf 0
1 0
215.5 214.5
430 0
inf 0


"layer 255:"
-inf 0
1 0
215.5 214.5
430 0
inf 0


"layer 256:"
-inf 0
1 0
215.5 214.5
430 0
inf 0


"layer 257:"
-inf 0
1 0
215.5 214.5
430 0
inf 0


"layer 258:"
-inf 0
1 0
215.5 214.5
430 0
inf 0


"layer 259:"
-inf 0
1 0
215.5 214.5
430 0
inf 0


"layer 260:"
-inf 0
1 0
215.5 214.5
430 0
inf 0


"layer 261:"
-inf 0
1 0
215.5 214.5
430 0
inf 0


"layer 262:"
-inf 0
1 0
215.5 214.5
430 0
inf 0


"layer 263:"
-inf 0
1 0
215.5 214.5
430 0
inf 0


"layer 264:"
-inf 0
1 0
215.5 214.5
430 0
inf 0


"layer 265:"
-inf 0
1 0
215.5 214.5
430 0
inf 0


"layer 266:"
-inf 0
1 0
215.5 214.5
430 0
inf 0


"layer 267:"
-inf 0
1 0
215.5 214.5
430 0
inf 0


"layer 268:"
-inf 0
1 0
215.5 214.5
430 0
inf 0


"layer 269:"
-inf 0
1 0
215.5 214.5
430 0
inf 0


"layer 270:"
-inf 0
1 0
215.5 214.5
430 0
inf 0


"layer 271:"
-inf 0
1 0
215.5 214.5
430 0
inf 0


"layer 272:"
-inf 0
1 0
215.5 214.5
430 0
inf 0


"layer 273:"
-inf 0
1 0
215.5 214.5
430 0
inf 0


"layer 274:"
-inf 0
1 0
215.5 214.5
430 0
inf 0


"layer 275:"
-inf 0
1 0
215.5 214.5
430 0
inf 0


"layer 276:"
-inf 0
1 0
215.5 214.5
430 0
inf 0


"layer 277:"
-inf 0
1 0
215.5 214.5
430 0
inf 0


"layer 278:"
-inf 0
1 0
215.5 214.5
430 0
inf 0


"layer 279:"
-inf 0
1 0
215.5 214.5
430 0
inf 0


"layer 280:"
-inf 0
1 0
215.5 214.5
430 0
inf 0


"layer 281:"
-inf 0
1 0
215.5 214.5
430 0
inf 0


"layer 282:"
-inf 0
1 0
215.5 214.5
430 0
inf 0


"layer 283:"
-inf 0
1 0
215.5 214.5
430 0
inf 0


"layer 284:"
-inf 0
1 0
215.5 214.5
430 0
inf 0


"layer 285:"
-inf 0
1 0
215.5 214.5
430 0
inf 0


"layer 286:"
-inf 0
1 0
215.5 214.5
430 0
inf 0


"layer 287:"
-inf 0
1 0
215.5 214.5
430 0
inf 0


"layer 288:"
-inf 0
1 0
215.5 214.5
430 0
inf 0


"layer 289:"
-inf 0
1 0
215.5 214.5
430 0
inf 0


"layer 290:"
-inf 0
1 0
215.5 214.5
430 0
inf 0


"layer 291:"
-inf 0
1 0
215.5 214.5
430 0
inf 0


"layer 292:"
-inf 0
1 0
215.5 214.5
430 0
inf 0


"layer 293:"
-inf 0
1 0
215.5 214.5
430 0
inf 0


"layer 294:"
-inf 0
1 0
215.5 214.5
430 0
inf 0


"layer 295:"
-inf 0
1 0
215.5 214.5
430 0
inf 0


"layer 296:"
-inf 0
1 0
215.5 214.5
430 0
inf 0


"layer 297:"
-inf 0
1 0
215.5 214.5
430 0
inf 0


"layer 298:"
-inf 0
1 0
215.5 214.5
430 0
inf 0


"layer 299:"
-inf 0
1 0
215.5 214.5
430 0
inf 0


"layer 300:"
-inf 0
1 0
215.5 214.5
430 0
inf 0


"layer 301:"
-inf 0
1 0
215.5 214.5
430 0
inf 0


"layer 302:"
-inf 0
1 0
215.5 214.5
430 0
inf 0


"layer 303:"
-inf 0
1 0
215.5 214.5
430 0
inf 0


"layer 304:"
-inf 0
1 0
215.5 214.5
430 0
inf 0


"layer 305:"
-inf 0
1 0
215.5 214.5
430 0
inf 0


"layer 306:"
-inf 0
1 0
215.5 214.5
430 0
inf 0


"layer 307:"
-inf 0
1 0
215.5 214.5
430 0
inf 0


"layer 308:"
-inf 0
1 0
215.5 214.5
430 0
inf 0


"layer 309:"
-inf 0
1 0
215.5 214.5
430 0
inf 0


"layer 310:"
-inf 0
1 0
215.5 214.5
430 0
inf 0


"layer 311:"
-inf 0
1 0
215.5 214.5
430 0
inf 0


"layer 312:"
-inf 0
1 0
215.5 214.5
430 0
inf 0


"layer 313:"
-inf 0
1 0
215.5 214.5
430 0
inf 0


"layer 314:"
-inf 0
1 0
215.5 214.5
430 0
inf 0


"layer 315:"
-inf 0
1 0
215.5 214.5
430 0
inf 0


"layer 316:"
-inf 0
1 0
215.5 214.5
430 0
inf 0


"layer 317:"
-inf 0
1 0
215.5 214.5
430 0
inf 0


"layer 318:"
-inf 0
1 0
215.5 214.5
430 0
inf 0


"layer 319:"
-inf 0
1 0
215.5 214.5
430 0
inf 0


"layer 320:"
-inf 0
1 0
215.5 214.5
430 0
inf 0


"layer 321:"
-inf 0
1 0
215.5 214.5
430 0
inf 0


"layer 322:"
-inf 0
1 0
215.5 214.5
430 0
inf 0


"layer 323:"
-inf 0
1 0
215.5 214.5
430 0
inf 0


"layer 324:"
-inf 0
1 0
215.5 214.5
430 0
inf 0


"layer 325:"
-inf 0
1 0
215.5 214.5
430 0
inf 0


"layer 326:"
-inf 0
1 0
215.5 214.5
430 0
inf 0


"layer 327:"
-inf 0
1 0
215.5 214.5
430 0
inf 0


"layer 328:"
-inf 0
1 0
215.5 214.5
430 0
inf 0


"layer 329:"
-inf 0
1 0
215.5 214.5
430 0
inf 0


"layer 330:"
-inf 0
1 0
215.5 214.5
430 0
inf 0


"layer 331:"
-inf 0
1 0
215.5 214.5
430 0
inf 0


"layer 332:"
-inf 0
1 0
215.5 214.5
430 0
inf 0


"layer 333:"
-inf 0
1 0
215.5 214.5
430 0
inf 0


"layer 334:"
-inf 0
1 0
215.5 214.5
430 0
inf 0


"layer 335:"
-inf 0
1 0
215.5 214.5
430 0
inf 0


"layer 336:"
-inf 0
1 0
215.5 214.5
430 0
inf 0


"layer 337:"
-inf 0
1 0
215.5 214.5
430 0
inf 0


"layer 338:"
-inf 0
1 0
215.5 214.5
430 0
inf 0


"layer 339:"
-inf 0
1 0
215.5 214.5
430 0
inf 0


"layer 340:"
-inf 0
1 0
215.5 214.5
430 0
inf 0


"layer 341:"
-inf 0
1 0
215.5 214.5
430 0
inf 0


"layer 342:"
-inf 0
1 0
215.5 214.5
430 0
inf 0


"layer 343:"
-inf 0
1 0
215.5 214.5
430 0
inf 0


"layer 344:"
-inf 0
1 0
215.5 214.5
430 0
inf 0


"layer 345:"
-inf 0
1 0
215.5 214.5
430 0
inf 0


"layer 346:"
-inf 0
1 0
215.5 214.5
430 0
inf 0


"layer 347:"
-inf 0
1 0
215.5 214.5
430 0
inf 0


"layer 348:"
-inf 0
1 0
215.5 214.5
430 0
inf 0


"layer 349:"
-inf 0
1 0
215.5 214.5
430 0
inf 0


"layer 350:"
-inf 0
1 0
215.5 214.5
430 0
inf 0


"layer 351:"
-inf 0
1 0
215.5 214.5
430 0
inf 0


"layer 352:"
-inf 0
1 0
215.5 214.5
430 0
inf 0


"layer 353:"
-inf 0
1 0
215.5 214.5
430 0
inf 0


"layer 354:"
-inf 0
1 0
215.5 214.5
430 0
inf 0


"layer 355:"
-inf 0
1 0
215.5 214.5
430 0
inf 0


"layer 356:"
-inf 0
1 0
215.5 214.5
430 0
inf 0


"layer 357:"
-inf 0
1 0
17 16
17.5 15.5
216 214
430 0
inf 0


"layer 358:"
-inf 0
1 0
17 16
17.5 15.5
216 214
430 0
inf 0


"layer 359:"
-inf 0
1 0
17 16
33 0
429 0
429.5 0.5
430 0
inf 0


"layer 360:"
-inf 0
1 0
17 16
33 0
inf 0


"layer 361:"
-inf 0
1 0
16.5 15.5
17 15
17.5 15.5
33 0
inf 0


"layer 362:"
-inf 0
1 0
16.5 15.5
17 15
17.5 15.5
33 0
inf 0


"layer 363:"
-inf 0
1 0
16.5 15.5
32 0
inf 0


"layer 364:"
-inf 0
1 0
16.5 15.5
32 0
inf 0


"layer 365:"
-inf 0
1 0
16.5 15.5
32 0
inf 0


"layer 366:"
-inf 0
1 0
16.5 15.5
32 0
inf 0


"layer 367:"
-inf 0
1 0
16.5 15.5
32 0
inf 0


"layer 368:"
-inf 0
1 0
16.5 15.5
32 0
inf 0


"layer 369:"
-inf 0
1 0
16.5 15.5
32 0
inf 0


"layer 370:"
-inf 0
1 0
16.5 15.5
32 0
inf 0


"layer 371:"
-inf 0
1 0
16.5 15.5
32 0
inf 0


"layer 372:"
-inf 0
1 0
16.5 15.5
32 0
inf 0


"layer 373:"
-inf 0
1 0
16.5 15.5
32 0
inf 0


"layer 374:"
-inf 0
1 0
16.5 15.5
32 0
inf 0


"layer 375:"
-inf 0
1 0
16.5 15.5
32 0
inf 0


"layer 376:"
-inf 0
1 0
16 15
16.5 14.5
17 15
32 0
inf 0


"layer 377:"
-inf 0
1 0
16 15
16.5 14.5
17 15
32 0
inf 0


"layer 378:"
-inf 0
1 0
15.5 14.5
16 14
16.5 14.5
31 0
31.5 0.5
32 0
inf 0


"layer 379:"
-inf 0
1 0
15 14
15.5 13.5
16.5 14.5
31 0
inf 0


"layer 380:"
-inf 0
1 0
15 14
15.5 13.5
16 14
30 0
inf 0


"layer 381:"
-inf 0
1 0
15 14
29 0
inf 0


"layer 382:"
-inf 0
1 0
15 14
29 0
inf 0


"layer 383:"
-inf 0
1 0
15 14
29 0
inf 0


"layer 384:"
-inf 0
1 0
15 14
29 0
inf 0


"layer 385:"
-inf 0
1 0
15 14
29 0
inf 0


"layer 386:"
-inf 0
1 0
15 14
29 0
inf 0


"layer 387:"
-inf 0
1 0
15 14
29 0
inf 0


"layer 388:"
-inf 0
1 0
13.5 12.5
14 12
15.5 13.5
29 0
inf 0


"layer 389:"
-inf 0
1 0
13 12
13.5 11.5
15.5 13.5
29 0
inf 0


"layer 390:"
-inf 0
1 0
13 12
13.5 11.5
14 12
26 0
28 0
28.5 0.5
29 0
inf 0


"layer 391:"
-inf 0
1 0
13 12
25 0
inf 0


"layer 392:"
-inf 0
1 0
13 12
25 0
inf 0


"layer 393:"
-inf 0
1 0
13 12
25 0
inf 0


"layer 394:"
-inf 0
1 0
13 12
25 0
inf 0


"layer 395:"
-inf 0
1 0
13 12
25 0
inf 0


"layer 396:"
-inf 0
1 0
13 12
25 0
inf 0


"layer 397:"
-inf 0
1 0
13 12
25 0
inf 0


"layer 398:"
-inf 0
1 0
13 12
25 0
inf 0


"layer 399:"
-inf 0
1 0
13 12
25 0
inf 0


"layer 400:"
-inf 0
1 0
13 12
25 0
inf 0


"layer 401:"
-inf 0
1 0
13 12
25 0
inf 0


"layer 402:"
-inf 0
1 0
13 12
25 0
inf 0


"layer 403:"
-inf 0
1 0
13 12
25 0
inf 0


"layer 404:"
-inf 0
1 0
13 12
25 0
inf 0


"layer 405:"
-inf 0
1 0
13 12
25 0
inf 0


"layer 406:"
-inf 0
1 0
13 12
25 0
inf 0


"layer 407:"
-inf 0
1 0
13 12
25 0
inf 0


"layer 408:"
-inf 0
1 0
13 12
25 0
inf 0


"layer 409:"
-inf 0
1 0
13 12
25 0
inf 0


"layer 410:"
-inf 0
1 0
13 12
25 0
inf 0


"layer 411:"
-inf 0
1 0
12.5 11.5
13 11
13.5 11.5
25 0
inf 0


"layer 412:"
-inf 0
1 0
12 11
12.5 10.5
13.5 11.5
25 0
inf 0


"layer 413:"
-inf 0
1 0
12 11
12.5 10.5
13 11
24 0
24.5 0.5
25 0
inf 0


"layer 414:"
-inf 0
1 0
12 11
23 0
inf 0


"layer 415:"
-inf 0
1 0
12 11
23 0
inf 0


"layer 416:"
-inf 0
1 0
12 11
23 0
inf 0


"layer 417:"
-inf 0
1 0
12 11
23 0
inf 0


"layer 418:"
-inf 0
1 0
12 11
23 0
inf 0


"layer 419:"
-inf 0
1 0
12 11
23 0
inf 0


"layer 420:"
-inf 0
1 0
12 11
23 0
inf 0


"layer 421:"
-inf 0
1 0
11.5 10.5
12 10
12.5 10.5
23 0
inf 0


"layer 422:"
-inf 0
1 0
11.5 10.5
12 10
12.5 10.5
23 0
inf 0


"layer 423:"
-inf 0
1 0
11 10
11.5 9.5
12 10
22 0
22.5 0.5
23 0
inf 0


"layer 424:"
-inf 0
1 0
11 10
11.5 9.5
12 10
22 0
inf 0


"layer 425:"
-inf 0
1 0
10.5 9.5
11 9
11.5 9.5
21 0
inf 0


"layer 426:"
-inf 0
1 0
10.5 9.5
11 9
11.5 9.5
21 0
inf 0


"layer 427:"
-inf 0
1 0
10.5 9.5
20 0
inf 0


"layer 428:"
-inf 0
1 0
10.5 9.5
20 0
inf 0


"layer 429:"
-inf 0
1 0
10.5 9.5
20 0
inf 0


"layer 430:"
-inf 0
1 0
10.5 9.5
20 0
inf 0


"layer 431:"
-inf 0
1 0
10.5 9.5
20 0
inf 0


"layer 432:"
-inf 0
1 0
10.5 9.5
20 0
inf 0


"layer 433:"
-inf 0
1 0
10 9
10.5 8.5
11 9
20 0
inf 0


"layer 434:"
-inf 0
1 0
10 9
10.5 8.5
11 9
20 0
inf 0


"layer 435:"
-inf 0
1 0
10 9
10.5 8.5
11 9
20 0
inf 0


"layer 436:"
-inf 0
1 0
10 9
19 0
19.5 0.5
20 0
inf 0


"layer 437:"
-inf 0
1 0
10 9
19 0
inf 0


"layer 438:"
-inf 0
1 0
10 9
19 0
inf 0


"layer 439:"
-inf 0
1 0
10 9
19 0
inf 0


"layer 440:"
-inf 0
1 0
10 9
19 0
inf 0


"layer 441:"
-inf 0
1 0
10 9
19 0
inf 0


"layer 442:"
-inf 0
1 0
10 9
19 0
inf 0


"layer 443:"
-inf 0
1 0
10 9
19 0
inf 0


"layer 444:"
-inf 0
1 0
10 9
19 0
inf 0


"layer 445:"
-inf 0
1 0
10 9
19 0
inf 0


"layer 446:"
-inf 0
1 0
10 9
19 0
inf 0


"layer 447:"
-inf 0
1 0
10 9
19 0
inf 0


"layer 448:"
-inf 0
1 0
10 9
19 0
inf 0


"layer 449:"
-inf 0
1 0
10 9
19 0
inf 0


"layer 450:"
-inf 0
1 0
10 9
19 0
inf 0


"layer 451:"
-inf 0
1 0
10 9
19 0
inf 0


"layer 452:"
-inf 0
1 0
10 9
19 0
inf 0


"layer 453:"
-inf 0
1 0
10 9
19 0
inf 0


"layer 454:"
-inf 0
1 0
10 9
19 0
inf 0


"layer 455:"
-inf 0
1 0
10 9
19 0
inf 0


"layer 456:"
-inf 0
1 0
9.5 8.5
10 8
10.5 8.5
19 0
inf 0


"layer 457:"
-inf 0
1 0
9.5 8.5
10 8
10.5 8.5
19 0
inf 0


"layer 458:"
-inf 0
1 0
9 8
9.5 7.5
10.5 8.5
19 0
inf 0


"layer 459:"
-inf 0
1 0
9 8
9.5 7.5
10 8
18 0
18.5 0.5
19 0
inf 0


"layer 460:"
-inf 0
1 0
9 8
9.5 7.5
10 8
18 0
18.5 0.5
19 0
inf 0


"layer 461:"
-inf 0
1 0
9 8
17 0
inf 0


"layer 462:"
-inf 0
1 0
9 8
17 0
inf 0


"layer 463:"
-inf 0
1 0
9 8
17 0
inf 0


"layer 464:"
-inf 0
1 0
9 8
17 0
inf 0


"layer 465:"
-inf 0
1 0
9 8
17 0
inf 0


"layer 466:"
-inf 0
1 0
9 8
17 0
inf 0


"layer 467:"
-inf 0
1 0
9 8
17 0
inf 0


"layer 468:"
-inf 0
1 0
9 8
17 0
inf 0


"layer 469:"
-inf 0
1 0
8.5 7.5
9 7
9.5 7.5
17 0
inf 0


"layer 470:"
-inf 0
1 0
8.5 7.5
9 7
9.5 7.5
17 0
inf 0


"layer 471:"
-inf 0
1 0
8.5 7.5
9 7
9.5 7.5
17 0
inf 0


"layer 472:"
-inf 0
1 0
8.5 7.5
9 7
9.5 7.5
17 0
inf 0


"layer 473:"
-inf 0
1 0
8.5 7.5
16 0
16.5 0.5
17 0
inf 0


"layer 474:"
-inf 0
1 0
8.5 7.5
16 0
inf 0


"layer 475:"
-inf 0
1 0
8.5 7.5
16 0
inf 0


"layer 476:"
-inf 0
1 0
8.5 7.5
16 0
inf 0


"layer 477:"
-inf 0
1 0
8.5 7.5
16 0
inf 0


"layer 478:"
-inf 0
1 0
8.5 7.5
16 0
inf 0


"layer 479:"
-inf 0
1 0
8.5 7.5
16 0
inf 0


"layer 480:"
-inf 0
1 0
8.5 7.5
16 0
inf 0


"layer 481:"
-inf 0
1 0
8.5 7.5
16 0
inf 0


"layer 482:"
-inf 0
1 0
8.5 7.5
16 0
inf 0


"layer 483:"
-inf 0
1 0
8 7
8.5 6.5
9 7
16 0
inf 0


"layer 484:"
-inf 0
1 0
8 7
8.5 6.5
9 7
16 0
inf 0


"layer 485:"
-inf 0
1 0
8 7
8.5 6.5
9 7
16 0
inf 0


"layer 486:"
-inf 0
1 0
8 7
8.5 6.5
9 7
16 0
inf 0


"layer 487:"
-inf 0
1 0
8 7
8.5 6.5
9 7
16 0
inf 0


"layer 488:"
-inf 0
1 0
8 7
15 0
15.5 0.5
16 0
inf 0


"layer 489:"
-inf 0
1 0
8 7
15 0
inf 0


"layer 490:"
-inf 0
1 0
8 7
15 0
inf 0


"layer 491:"
-inf 0
1 0
8 7
15 0
inf 0


"layer 492:"
-inf 0
1 0
8 7
15 0
inf 0


"layer 493:"
-inf 0
1 0
8 7
15 0
inf 0


"layer 494:"
-inf 0
1 0
8 7
15 0
inf 0


"layer 495:"
-inf 0
1 0
8 7
15 0
inf 0


"layer 496:"
-inf 0
1 0
8 7
15 0
inf 0


"layer 497:"
-inf 0
1 0
8 7
15 0
inf 0


"layer 498:"
-inf 0
1 0
8 7
15 0
inf 0


"layer 499:"
-inf 0
1 0
8 7
15 0
inf 0


"layer 500:"
-inf 0
1 0
8 7
15 0
inf 0


"layer 501:"
-inf 0
1 0
8 7
15 0
inf 0


"layer 502:"
-inf 0
1 0
8 7
15 0
inf 0


"layer 503:"
-inf 0
1 0
8 7
15 0
inf 0


"layer 504:"
-inf 0
1 0
8 7
15 0
inf 0


"layer 505:"
-inf 0
1 0
8 7
15 0
inf 0


"layer 506:"
-inf 0
1 0
7.5 6.5
8 6
8.5 6.5
15 0
inf 0


"layer 507:"
-inf 0
1 0
7.5 6.5
8 6
8.5 6.5
15 0
inf 0


"layer 508:"
-inf 0
1 0
7.5 6.5
8 6
8.5 6.5
15 0
inf 0


"layer 509:"
-inf 0
1 0
7.5 6.5
8 6
8.5 6.5
15 0
inf 0


"layer 510:"
-inf 0
1 0
7.5 6.5
8 6
8.5 6.5
15 0
inf 0


"layer 511:"
-inf 0
1 0
7.5 6.5
8 6
8.5 6.5
15 0
inf 0


"layer 512:"
-inf 0
1 0
7.5 6.5
8 6
8.5 6.5
15 0
inf 0


"layer 513:"
-inf 0
1 0
7.5 6.5
8 6
8.5 6.5
15 0
inf 0


"layer 514:"
-inf 0
1 0
7.5 6.5
14 0
14.5 0.5
15 0
inf 0


"layer 515:"
-inf 0
1 0
7.5 6.5
14 0
14.5 0.5
15 0
inf 0


"layer 516:"
-inf 0
1 0
7.5 6.5
14 0
14.5 0.5
15 0
inf 0


"layer 517:"
-inf 0
1 0
7.5 6.5
14 0
inf 0


"layer 518:"
-inf 0
1 0
7 6
7.5 5.5
8 6
14 0
inf 0


"layer 519:"
-inf 0
1 0
7 6
7.5 5.5
8 6
14 0
inf 0


"layer 520:"
-inf 0
1 0
7 6
7.5 5.5
8 6
14 0
inf 0


"layer 521:"
-inf 0
1 0
7 6
7.5 5.5
8 6
14 0
inf 0


"layer 522:"
-inf 0
1 0
7 6
7.5 5.5
8 6
14 0
inf 0


"layer 523:"
-inf 0
1 0
7 6
7.5 5.5
8 6
14 0
inf 0


"layer 524:"
-inf 0
1 0
7 6
7.5 5.5
8 6
14 0
inf 0


"layer 525:"
-inf 0
1 0
7 6
7.5 5.5
8 6
14 0
inf 0


"layer 526:"
-inf 0
1 0
7 6
7.5 5.5
8 6
14 0
inf 0


"layer 527:"
-inf 0
1 0
7 6
13 0
13.5 0.5
14 0
inf 0


"layer 528:"
-inf 0
1 0
7 6
13 0
13.5 0.5
14 0
inf 0


"layer 529:"
-inf 0
1 0
7 6
13 0
13.5 0.5
14 0
inf 0


"layer 530:"
-inf 0
1 0
7 6
13 0
inf 0


"layer 531:"
-inf 0
1 0
7 6
13 0
inf 0


"layer 532:"
-inf 0
1 0
7 6
13 0
inf 0


"layer 533:"
-inf 0
1 0
7 6
13 0
inf 0


"layer 534:"
-inf 0
1 0
7 6
13 0
inf 0


"layer 535:"
-inf 0
1 0
7 6
13 0
inf 0


"layer 536:"
-inf 0
1 0
7 6
13 0
inf 0


"layer 537:"
-inf 0
1 0
7 6
13 0
inf 0


"layer 538:"
-inf 0
1 0
7 6
13 0
inf 0


"layer 539:"
-inf 0
1 0
7 6
13 0
inf 0


"layer 540:"
-inf 0
1 0
7 6
13 0
inf 0


"layer 541:"
-inf 0
1 0
7 6
13 0
inf 0


"layer 542:"
-inf 0
1 0
7 6
13 0
inf 0


"layer 543:"
-inf 0
1 0
7 6
13 0
inf 0


"layer 544:"
-inf 0
1 0
7 6
13 0
inf 0


"layer 545:"
-inf 0
1 0
7 6
13 0
inf 0


"layer 546:"
-inf 0
1 0
7 6
13 0
inf 0


"layer 547:"
-inf 0
1 0
7 6
13 0
inf 0


"layer 548:"
-inf 0
1 0
7 6
13 0
inf 0


"layer 549:"
-inf 0
1 0
7 6
13 0
inf 0


"layer 550:"
-inf 0
1 0
7 6
13 0
inf 0


"layer 551:"
-inf 0
1 0
7 6
13 0
inf 0


"layer 552:"
-inf 0
1 0
6.5 5.5
7 5
7.5 5.5
13 0
inf 0


"layer 553:"
-inf 0
1 0
6.5 5.5
7 5
7.5 5.5
13 0
inf 0


"layer 554:"
-inf 0
1 0
6.5 5.5
7 5
7.5 5.5
13 0
inf 0


"layer 555:"
-inf 0
1 0
6.5 5.5
7 5
7.5 5.5
13 0
inf 0


"layer 556:"
-inf 0
1 0
6.5 5.5
7 5
7.5 5.5
13 0
inf 0


"layer 557:"
-inf 0
1 0
6.5 5.5
7 5
7.5 5.5
13 0
inf 0


"layer 558:"
-inf 0
1 0
6.5 5.5
7 5
7.5 5.5
13 0
inf 0


"layer 559:"
-inf 0
1 0
6.5 5.5
7 5
7.5 5.5
13 0
inf 0


"layer 560:"
-inf 0
1 0
6.5 5.5
7 5
7.5 5.5
13 0
inf 0


"layer 561:"
-inf 0
1 0
6.5 5.5
7 5
7.5 5.5
13 0
inf 0


"layer 562:"
-inf 0
1 0
6.5 5.5
7 5
7.5 5.5
13 0
inf 0


"layer 563:"
-inf 0
1 0
6.5 5.5
12 0
12.5 0.5
13 0
inf 0


"layer 564:"
-inf 0
1 0
6.5 5.5
12 0
12.5 0.5
13 0
inf 0


"layer 565:"
-inf 0
1 0
6.5 5.5
12 0
inf 0


"layer 566:"
-inf 0
1 0
6.5 5.5
12 0
inf 0


"layer 567:"
-inf 0
1 0
6.5 5.5
12 0
inf 0


"layer 568:"
-inf 0
1 0
6.5 5.5
12 0
inf 0


"layer 569:"
-inf 0
1 0
6.5 5.5
12 0
inf 0


"layer 570:"
-inf 0
1 0
6.5 5.5
12 0
inf 0


"layer 571:"
-inf 0
1 0
6.5 5.5
12 0
inf 0


"layer 572:"
-inf 0
1 0
6.5 5.5
12 0
inf 0


"layer 573:"
-inf 0
1 0
6.5 5.5
12 0
inf 0


"layer 574:"
-inf 0
1 0
6.5 5.5
12 0
inf 0


"layer 575:"
-inf 0
1 0
6.5 5.5
12 0
inf 0


"layer 576:"
-inf 0
1 0
6.5 5.5
12 0
inf 0


"layer 577:"
-inf 0
1 0
6.5 5.5
12 0
inf 0


"layer 578:"
-inf 0
1 0
6.5 5.5
12 0
inf 0


"layer 579:"
-inf 0
1 0
6.5 5.5
12 0
inf 0


"layer 580:"
-inf 0
1 0
6.5 5.5
12 0
inf 0


"layer 581:"
-inf 0
1 0
6.5 5.5
12 0
inf 0


"layer 582:"
-inf 0
1 0
6.5 5.5
12 0
inf 0


"layer 583:"
-inf 0
1 0
6.5 5.5
12 0
inf 0


"layer 584:"
-inf 0
1 0
6.5 5.5
12 0
inf 0


"layer 585:"
-inf 0
1 0
6.5 5.5
12 0
inf 0


"layer 586:"
-inf 0
1 0
6.5 5.5
12 0
inf 0


"layer 587:"
-inf 0
1 0
6.5 5.5
12 0
inf 0


"layer 588:"
-inf 0
1 0
6.5 5.5
12 0
inf 0


"layer 589:"
-inf 0
1 0
6.5 5.5
12 0
inf 0


"layer 590:"
-inf 0
1 0
6.5 5.5
12 0
inf 0


"layer 591:"
-inf 0
1 0
6.5 5.5
12 0
inf 0


"layer 592:"
-inf 0
1 0
6.5 5.5
12 0
inf 0


"layer 593:"
-inf 0
1 0
6 5
6.5 4.5
7 5
12 0
inf 0


"layer 594:"
-inf 0
1 0
6 5
6.5 4.5
7 5
12 0
inf 0


"layer 595:"
-inf 0
1 0
6 5
6.5 4.5
7 5
12 0
inf 0


"layer 596:"
-inf 0
1 0
6 5
6.5 4.5
7 5
12 0
inf 0


"layer 597:"
-inf 0
1 0
6 5
6.5 4.5
7 5
12 0
inf 0


"layer 598:"
-inf 0
1 0
6 5
6.5 4.5
7 5
12 0
inf 0


"layer 599:"
-inf 0
1 0
6 5
6.5 4.5
7 5
12 0
inf 0


"layer 600:"
-inf 0
1 0
6 5
6.5 4.5
7 5
12 0
inf 0


"layer 601:"
-inf 0
1 0
6 5
6.5 4.5
7 5
12 0
inf 0


"layer 602:"
-inf 0
1 0
6 5
6.5 4.5
7 5
12 0
inf 0


"layer 603:"
-inf 0
1 0
6 5
6.5 4.5
7 5
12 0
inf 0


"layer 604:"
-inf 0
1 0
6 5
6.5 4.5
7 5
12 0
inf 0


"layer 605:"
-inf 0
1 0
6 5
6.5 4.5
7 5
12 0
inf 0


"layer 606:"
-inf 0
1 0
6 5
6.5 4.5
7 5
12 0
inf 0


"layer 607:"
-inf 0
1 0
6 5
6.5 4.5
7 5
12 0
inf 0


"layer 608:"
-inf 0
1 0
6 5
11 0
11.5 0.5
12 0
inf 0


"layer 609:"
-inf 0
1 0
6 5
11 0
11.5 0.5
12 0
inf 0


"layer 610:"
-inf 0
1 0
6 5
11 0
11.5 0.5
12 0
inf 0


"layer 611:"
-inf 0
1 0
6 5
11 0
11.5 0.5
12 0
inf 0


"layer 612:"
-inf 0
1 0
6 5
11 0
11.5 0.5
12 0
inf 0


"layer 613:"
-inf 0
1 0
6 5
11 0
11.5 0.5
12 0
inf 0


"layer 614:"
-inf 0
1 0
6 5
11 0
inf 0


"layer 615:"
-inf 0
1 0
6 5
11 0
inf 0


"layer 616:"
-inf 0
1 0
6 5
11 0
inf 0


"layer 617:"
-inf 0
1 0
6 5
11 0
inf 0


"layer 618:"
-inf 0
1 0
6 5
11 0
inf 0


"layer 619:"
-inf 0
1 0
6 5
11 0
inf 0


"layer 620:"
-inf 0
1 0
6 5
11 0
inf 0


"layer 621:"
-inf 0
1 0
6 5
11 0
inf 0


"layer 622:"
-inf 0
1 0
6 5
11 0
inf 0


"layer 623:"
-inf 0
1 0
6 5
11 0
inf 0


"layer 624:"
-inf 0
1 0
6 5
11 0
inf 0


"layer 625:"
-inf 0
1 0
6 5
11 0
inf 0


"layer 626:"
-inf 0
1 0
6 5
11 0
inf 0


"layer 627:"
-inf 0
1 0
6 5
11 0
inf 0


"layer 628:"
-inf 0
1 0
6 5
11 0
inf 0


"layer 629:"
-inf 0
1 0
6 5
11 0
inf 0


"layer 630:"
-inf 0
1 0
6 5
11 0
inf 0


"layer 631:"
-inf 0
1 0
6 5
11 0
inf 0


"layer 632:"
-inf 0
1 0
6 5
11 0
inf 0


"layer 633:"
-inf 0
1 0
6 5
11 0
inf 0


"layer 634:"
-inf 0
1 0
6 5
11 0
inf 0


"layer 635:"
-inf 0
1 0
6 5
11 0
inf 0


"layer 636:"
-inf 0
1 0
6 5
11 0
inf 0


"layer 637:"
-inf 0
1 0
6 5
11 0
inf 0


"layer 638:"
-inf 0
1 0
5.5 4.5
6 4
6.5 4.5
11 0
inf 0


"layer 639:"
-inf 0
1 0
5.5 4.5
6 4
6.5 4.5
11 0
inf 0


"layer 640:"
-inf 0
1 0
5.5 4.5
6 4
6.5 4.5
11 0
inf 0


"layer 641:"
-inf 0
1 0
5.5 4.5
6 4
6.5 4.5
11 0
inf 0


"layer 642:"
-inf 0
1 0
5.5 4.5
6 4
6.5 4.5
11 0
inf 0


"layer 643:"
-inf 0
1 0
5.5 4.5
6 4
6.5 4.5
11 0
inf 0


"layer 644:"
-inf 0
1 0
5.5 4.5
6 4
6.5 4.5
11 0
inf 0


"layer 645:"
-inf 0
1 0
5.5 4.5
6 4
6.5 4.5
11 0
inf 0


"layer 646:"
-inf 0
1 0
5.5 4.5
6 4
6.5 4.5
11 0
inf 0


"layer 647:"
-inf 0
1 0
5.5 4.5
6 4
6.5 4.5
11 0
inf 0


"layer 648:"
-inf 0
1 0
5.5 4.5
6 4
6.5 4.5
11 0
inf 0


"layer 649:"
-inf 0
1 0
5.5 4.5
6 4
6.5 4.5
11 0
inf 0


"layer 650:"
-inf 0
1 0
5.5 4.5
6 4
6.5 4.5
11 0
inf 0


"layer 651:"
-inf 0
1 0
5.5 4.5
6 4
6.5 4.5
11 0
inf 0


"layer 652:"
-inf 0
1 0
5.5 4.5
6 4
6.5 4.5
11 0
inf 0


"layer 653:"
-inf 0
1 0
5.5 4.5
6 4
6.5 4.5
11 0
inf 0


"layer 654:"
-inf 0
1 0
5.5 4.5
6 4
6.5 4.5
11 0
inf 0


"layer 655:"
-inf 0
1 0
5.5 4.5
6 4
6.5 4.5
11 0
inf 0


"layer 656:"
-inf 0
1 0
5.5 4.5
6 4
6.5 4.5
11 0
inf 0


"layer 657:"
-inf 0
1 0
5.5 4.5
6 4
6.5 4.5
11 0
inf 0


"layer 658:"
-inf 0
1 0
5.5 4.5
6 4
6.5 4.5
11 0
inf 0


"layer 659:"
-inf 0
1 0
5.5 4.5
10 0
10.5 0.5
11 0
inf 0


"layer 660:"
-inf 0
1 0
5.5 4.5
10 0
10.5 0.5
11 0
inf 0


"layer 661:"
-inf 0
1 0
5.5 4.5
10 0
10.5 0.5
11 0
inf 0


"layer 662:"
-inf 0
1 0
5.5 4.5
10 0
10.5 0.5
11 0
inf 0


"layer 663:"
-inf 0
1 0
5.5 4.5
10 0
10.5 0.5
11 0
inf 0


"layer 664:"
-inf 0
1 0
5.5 4.5
10 0
10.5 0.5
11 0
inf 0


"layer 665:"
-inf 0
1 0
5.5 4.5
10 0
10.5 0.5
11 0
inf 0


"layer 666:"
-inf 0
1 0
5.5 4.5
10 0
10.5 0.5
11 0
inf 0


"layer 667:"
-inf 0
1 0
5.5 4.5
10 0
10.5 0.5
11 0
inf 0


"layer 668:"
-inf 0
1 0
5.5 4.5
10 0
inf 0


"layer 669:"
-inf 0
1 0
5.5 4.5
10 0
inf 0


"layer 670:"
-inf 0
1 0
5.5 4.5
10 0
inf 0


"layer 671:"
-inf 0
1 0
5.5 4.5
10 0
inf 0


"layer 672:"
-inf 0
1 0
5.5 4.5
10 0
inf 0


"layer 673:"
-inf 0
1 0
5.5 4.5
10 0
inf 0


"layer 674:"
-inf 0
1 0
5.5 4.5
10 0
inf 0


"layer 675:"
-inf 0
1 0
5 4
5.5 3.5
6 4
10 0
inf 0


"layer 676:"
-inf 0
1 0
5 4
5.5 3.5
6 4
10 0
inf 0


"layer 677:"
-inf 0
1 0
5 4
5.5 3.5
6 4
10 0
inf 0


"layer 678:"
-inf 0
1 0
5 4
5.5 3.5
6 4
10 0
inf 0


"layer 679:"
-inf 0
1 0
5 4
5.5 3.5
6 4
10 0
inf 0


"layer 680:"
-inf 0
1 0
5 4
5.5 3.5
6 4
10 0
inf 0


"layer 681:"
-inf 0
1 0
5 4
5.5 3.5
6 4
10 0
inf 0


"layer 682:"
-inf 0
1 0
5 4
5.5 3.5
6 4
10 0
inf 0


"layer 683:"
-inf 0
1 0
5 4
5.5 3.5
6 4
10 0
inf 0


"layer 684:"
-inf 0
1 0
5 4
5.5 3.5
6 4
10 0
inf 0


"layer 685:"
-inf 0
1 0
5 4
5.5 3.5
6 4
10 0
inf 0


"layer 686:"
-inf 0
1 0
5 4
5.5 3.5
6 4
10 0
inf 0


"layer 687:"
-inf 0
1 0
5 4
5.5 3.5
6 4
10 0
inf 0


"layer 688:"
-inf 0
1 0
5 4
5.5 3.5
6 4
10 0
inf 0


"layer 689:"
-inf 0
1 0
5 4
5.5 3.5
6 4
10 0
inf 0


"layer 690:"
-inf 0
1 0
5 4
5.5 3.5
6 4
10 0
inf 0


"layer 691:"
-inf 0
1 0
5 4
5.5 3.5
6 4
10 0
inf 0


"layer 692:"
-inf 0
1 0
5 4
5.5 3.5
6 4
10 0
inf 0


"layer 693:"
-inf 0
1 0
5 4
5.5 3.5
6 4
10 0
inf 0


"layer 694:"
-inf 0
1 0
5 4
5.5 3.5
6 4
10 0
inf 0


"layer 695:"
-inf 0
1 0
5 4
5.5 3.5
6 4
10 0
inf 0


"layer 696:"
-inf 0
1 0
5 4
5.5 3.5
6 4
10 0
inf 0


"layer 697:"
-inf 0
1 0
5 4
5.5 3.5
6 4
10 0
inf 0


"layer 698:"
-inf 0
1 0
5 4
5.5 3.5
6 4
10 0
inf 0


"layer 699:"
-inf 0
1 0
5 4
5.5 3.5
6 4
10 0
inf 0


"layer 700:"
-inf 0
1 0
5 4
5.5 3.5
6 4
10 0
inf 0


"layer 701:"
-inf 0
1 0
5 4
5.5 3.5
6 4
10 0
inf 0


"layer 702:"
-inf 0
1 0
5 4
5.5 3.5
6 4
10 0
inf 0


"layer 703:"
-inf 0
1 0
5 4
6.5 2.5
7 3
10 0
inf 0


"layer 704:"
-inf 0
1 0
5 4
7 2
7.5 2.5
10 0
inf 0


"layer 705:"
-inf 0
1 0
5 4
7.5 1.5
8 2
10 0
inf 0


"layer 706:"
-inf 0
1 0
4.5 3.5
5 3
5.5 3.5
7.5 1.5
8 2
10 0
inf 0


"layer 707:"
-inf 0
1 0
4.5 3.5
5 3
5.5 3.5
8.5 0.5
9 1
10 0
inf 0


"layer 708:"
-inf 0
1 0
4.5 3.5
5 3
5.5 3.5
9 0
9.5 0.5
10 0
inf 0


"layer 709:"
-inf 0
1 0
4.5 3.5
5 3
5.5 3.5
9 0
9.5 0.5
10 0
inf 0


"layer 710:"
-inf 0
1 0
4.5 3.5
5 3
5.5 3.5
9 0
9.5 0.5
10 0
inf 0


"layer 711:"
-inf 0
1 0
4.5 3.5
5 3
5.5 3.5
9 0
9.5 0.5
10 0
inf 0


"layer 712:"
-inf 0
1 0
4.5 3.5
5 3
5.5 3.5
9 0
9.5 0.5
10 0
inf 0


"layer 713:"
-inf 0
1 0
4.5 3.5
5 3
5.5 3.5
9 0
9.5 0.5
10 0
inf 0


"layer 714:"
-inf 0
1 0
4.5 3.5
5 3
5.5 3.5
9 0
inf 0


"layer 715:"
-inf 0
1 0
4.5 3.5
5 3
5.5 3.5
9 0
inf 0


"layer 716:"
-inf 0
1 0
4.5 3.5
5 3
5.5 3.5
9 0
inf 0


"layer 717:"
-inf 0
1 0
4.5 3.5
5 3
5.5 3.5
9 0
inf 0


"layer 718:"
-inf 0
1 0
4.5 3.5
5 3
5.5 3.5
9 0
inf 0


"layer 719:"
-inf 0
1 0
4.5 3.5
5 3
5.5 3.5
9 0
inf 0


"layer 720:"
-inf 0
1 0
4.5 3.5
5 3
5.5 3.5
9 0
inf 0


"layer 721:"
-inf 0
1 0
4.5 3.5
5 3
5.5 3.5
9 0
inf 0


"layer 722:"
-inf 0
1 0
4.5 3.5
5 3
5.5 3.5
9 0
inf 0


"layer 723:"
-inf 0
1 0
4.5 3.5
5 3
5.5 3.5
9 0
inf 0


"layer 724:"
-inf 0
1 0
4.5 3.5
5 3
5.5 3.5
9 0
inf 0


"layer 725:"
-inf 0
1 0
4.5 3.5
5 3
5.5 3.5
9 0
inf 0


"layer 726:"
-inf 0
1 0
4.5 3.5
5 3
5.5 3.5
9 0
inf 0


"layer 727:"
-inf 0
1 0
4.5 3.5
5 3
5.5 3.5
9 0
inf 0


"layer 728:"
-inf 0
1 0
4.5 3.5
5 3
5.5 3.5
9 0
inf 0


"layer 729:"
-inf 0
1 0
4.5 3.5
5 3
5.5 3.5
9 0
inf 0


"layer 730:"
-inf 0
1 0
4.5 3.5
5 3
5.5 3.5
9 0
inf 0


"layer 731:"
-inf 0
1 0
4.5 3.5
5 3
5.5 3.5
9 0
inf 0


"layer 732:"
-inf 0
1 0
4.5 3.5
5 3
5.5 3.5
9 0
inf 0


"layer 733:"
-inf 0
1 0
4.5 3.5
5 3
5.5 3.5
9 0
inf 0


"layer 734:"
-inf 0
1 0
4.5 3.5
5 3
5.5 3.5
9 0
inf 0


"layer 735:"
-inf 0
1 0
4.5 3.5
5 3
5.5 3.5
9 0
inf 0


"layer 736:"
-inf 0
1 0
4.5 3.5
5 3
5.5 3.5
9 0
inf 0


"layer 737:"
-inf 0
1 0
4.5 3.5
5 3
5.5 3.5
9 0
inf 0


"layer 738:"
-inf 0
1 0
4.5 3.5
5.5 2.5
6 3
9 0
inf 0


"layer 739:"
-inf 0
1 0
4.5 3.5
5.5 2.5
6 3
9 0
inf 0


"layer 740:"
-inf 0
1 0
4.5 3.5
5.5 2.5
6 3
9 0
inf 0


"layer 741:"
-inf 0
1 0
4.5 3.5
6 2
6.5 2.5
9 0
inf 0


"layer 742:"
-inf 0
1 0
4 3
4.5 2.5
5 3
6.5 1.5
7 2
9 0
inf 0


"layer 743:"
-inf 0
1 0
4 3
4.5 2.5
5 3
7 1
7.5 1.5
9 0
inf 0


"layer 744:"
-inf 0
1 0
4 3
4.5 2.5
5 3
7 1
7.5 1.5
9 0
inf 0


"layer 745:"
-inf 0
1 0
4 3
4.5 2.5
5 3
8 0
8.5 0.5
9 0
inf 0


"layer 746:"
-inf 0
1 0
4 3
4.5 2.5
5 3
8 0
8.5 0.5
9 0
inf 0


"layer 747:"
-inf 0
1 0
4 3
4.5 2.5
5 3
8 0
8.5 0.5
9 0
inf 0


"layer 748:"
-inf 0
1 0
4 3
4.5 2.5
5 3
8 0
8.5 0.5
9 0
inf 0


"layer 749:"
-inf 0
1 0
4 3
4.5 2.5
5 3
8 0
8.5 0.5
9 0
inf 0


"layer 750:"
-inf 0
1 0
4 3
4.5 2.5
5 3
8 0
8.5 0.5
9 0
inf 0


"layer 751:"
-inf 0
1 0
4 3
4.5 2.5
5 3
8 0
8.5 0.5
9 0
inf 0


"layer 752:"
-inf 0
1 0
4 3
4.5 2.5
5 3
8 0
inf 0


"layer 753:"
-inf 0
1 0
4 3
4.5 2.5
5 3
8 0
inf 0


"layer 754:"
-inf 0
1 0
4 3
4.5 2.5
5 3
8 0
inf 0


"layer 755:"
-inf 0
1 0
4 3
4.5 2.5
5 3
8 0
inf 0


"layer 756:"
-inf 0
1 0
4 3
4.5 2.5
5 3
8 0
inf 0


"layer 757:"
-inf 0
1 0
4 3
4.5 2.5
5 3
8 0
inf 0


"layer 758:"
-inf 0
1 0
4 3
4.5 2.5
5 3
8 0
inf 0


"layer 759:"
-inf 0
1 0
4 3
4.5 2.5
5 3
8 0
inf 0


"layer 760:"
-inf 0
1 0
4 3
4.5 2.5
5 3
8 0
inf 0


"layer 761:"
-inf 0
1 0
4 3
4.5 2.5
5 3
8 0
inf 0


"layer 762:"
-inf 0
1 0
4 3
4.5 2.5
5 3
8 0
inf 0


"layer 763:"
-inf 0
1 0
4 3
4.5 2.5
5 3
8 0
inf 0


"layer 764:"
-inf 0
1 0
4 3
4.5 2.5
5 3
8 0
inf 0


"layer 765:"
-inf 0
1 0
4 3
4.5 2.5
5 3
8 0
inf 0


"layer 766:"
-inf 0
1 0
4 3
4.5 2.5
5 3
8 0
inf 0


"layer 767:"
-inf 0
1 0
4 3
4.5 2.5
5 3
8 0
inf 0


"layer 768:"
-inf 0
1 0
4 3
4.5 2.5
5 3
8 0
inf 0


"layer 769:"
-inf 0
1 0
4 3
4.5 2.5
5 3
8 0
inf 0


"layer 770:"
-inf 0
1 0
4 3
4.5 2.5
5 3
8 0
inf 0


"layer 771:"
-inf 0
1 0
4 3
4.5 2.5
5 3
8 0
inf 0


"layer 772:"
-inf 0
1 0
4 3
4.5 2.5
5 3
8 0
inf 0


"layer 773:"
-inf 0
1 0
4 3
4.5 2.5
5 3
8 0
inf 0


"layer 774:"
-inf 0
1 0
4 3
4.5 2.5
5 3
8 0
inf 0


"layer 775:"
-inf 0
1 0
4 3
4.5 2.5
5 3
8 0
inf 0


"layer 776:"
-inf 0
1 0
4 3
4.5 2.5
5 3
8 0
inf 0


"layer 777:"
-inf 0
1 0
4 3
4.5 2.5
5 3
8 0
inf 0


"layer 778:"
-inf 0
1 0
4 3
4.5 2.5
5 3
8 0
inf 0


"layer 779:"
-inf 0
1 0
4 3
4.5 2.5
5 3
8 0
inf 0


"layer 780:"
-inf 0
1 0
4 3
4.5 2.5
5 3
8 0
inf 0


"layer 781:"
-inf 0
1 0
4 3
4.5 2.5
5 3
8 0
inf 0


"layer 782:"
-inf 0
1 0
4 3
4.5 2.5
5 3
8 0
inf 0


"layer 783:"
-inf 0
1 0
4 3
4.5 2.5
5 3
8 0
inf 0


"layer 784:"
-inf 0
1 0
4 3
4.5 2.5
5 3
8 0
inf 0


"layer 785:"
-inf 0
1 0
4 3
4.5 2.5
5 3
8 0
inf 0


"layer 786:"
-inf 0
1 0
4 3
4.5 2.5
5 3
8 0
inf 0


"layer 787:"
-inf 0
1 0
4 3
4.5 2.5
5 3
8 0
inf 0


"layer 788:"
-inf 0
1 0
4 3
4.5 2.5
5 3
8 0
inf 0


"layer 789:"
-inf 0
1 0
4 3
4.5 2.5
5 3
8 0
inf 0


"layer 790:"
-inf 0
1 0
4 3
5 2
5.5 2.5
8 0
inf 0


"layer 791:"
-inf 0
1 0
4 3
5 2
5.5 2.5
8 0
inf 0


"layer 792:"
-inf 0
1 0
4 3
5 2
5.5 2.5
8 0
inf 0


"layer 793:"
-inf 0
1 0
3.5 2.5
4 2
4.5 2.5
5 2
5.5 2.5
8 0
inf 0


"layer 794:"
-inf 0
1 0
3.5 2.5
4 2
4.5 2.5
5 2
5.5 2.5
8 0
inf 0


"layer 795:"
-inf 0
1 0
3.5 2.5
4 2
4.5 2.5
5 2
5.5 2.5
8 0
inf 0


"layer 796:"
-inf 0
1 0
3.5 2.5
4 2
4.5 2.5
5.5 1.5
6 2
8 0
inf 0


"layer 797:"
-inf 0
1 0
3.5 2.5
4 2
4.5 2.5
5.5 1.5
6 2
8 0
inf 0


"layer 798:"
-inf 0
1 0
3.5 2.5
4 2
4.5 2.5
5.5 1.5
6 2
8 0
inf 0


"layer 799:"
-inf 0
1 0
3.5 2.5
4 2
4.5 2.5
6 1
6.5 1.5
8 0
inf 0


"layer 800:"
-inf 0
1 0
3.5 2.5
4 2
4.5 2.5
6 1
6.5 1.5
8 0
inf 0


"layer 801:"
-inf 0
1 0
3.5 2.5
4 2
4.5 2.5
6 1
6.5 1.5
8 0
inf 0


"layer 802:"
-inf 0
1 0
3.5 2.5
4 2
4.5 2.5
6.5 0.5
7 1
8 0
inf 0


"layer 803:"
-inf 0
1 0
3.5 2.5
4 2
4.5 2.5
6.5 0.5
7 1
8 0
inf 0


"layer 804:"
-inf 0
1 0
3.5 2.5
4 2
4.5 2.5
6.5 0.5
7 1
8 0
inf 0


"layer 805:"
-inf 0
1 0
3.5 2.5
4 2
4.5 2.5
6.5 0.5
7 1
8 0
inf 0


"layer 806:"
-inf 0
1 0
3.5 2.5
4 2
4.5 2.5
7 0
7.5 0.5
8 0
inf 0


"layer 807:"
-inf 0
1 0
3.5 2.5
4 2
4.5 2.5
7 0
7.5 0.5
8 0
inf 0


"layer 808:"
-inf 0
1 0
3.5 2.5
4 2
4.5 2.5
7 0
7.5 0.5
8 0
inf 0


"layer 809:"
-inf 0
1 0
3.5 2.5
4 2
4.5 2.5
7 0
7.5 0.5
8 0
inf 0


"layer 810:"
-inf 0
1 0
3.5 2.5
4 2
4.5 2.5
7 0
7.5 0.5
8 0
inf 0


"layer 811:"
-inf 0
1 0
3.5 2.5
4 2
4.5 2.5
7 0
7.5 0.5
8 0
inf 0


"layer 812:"
-inf 0
1 0
3.5 2.5
4 2
4.5 2.5
7 0
7.5 0.5
8 0
inf 0


"layer 813:"
-inf 0
1 0
3.5 2.5
4 2
4.5 2.5
7 0
inf 0


"layer 814:"
-inf 0
1 0
3.5 2.5
4 2
4.5 2.5
7 0
inf 0


"layer 815:"
-inf 0
1 0
3.5 2.5
4 2
4.5 2.5
7 0
inf 0


"layer 816:"
-inf 0
1 0
3.5 2.5
4 2
4.5 2.5
7 0
inf 0


"layer 817:"
-inf 0
1 0
3.5 2.5
4 2
4.5 2.5
7 0
inf 0


"layer 818:"
-inf 0
1 0
3.5 2.5
4 2
4.5 2.5
7 0
inf 0


"layer 819:"
-inf 0
1 0
3.5 2.5
4 2
4.5 2.5
7 0
inf 0


"layer 820:"
-inf 0
1 0
3.5 2.5
4 2
4.5 2.5
7 0
inf 0


"layer 821:"
-inf 0
1 0
3.5 2.5
4 2
4.5 2.5
7 0
inf 0


"layer 822:"
-inf 0
1 0
3.5 2.5
4 2
4.5 2.5
7 0
inf 0


"layer 823:"
-inf 0
1 0
3.5 2.5
4 2
4.5 2.5
7 0
inf 0


"layer 824:"
-inf 0
1 0
3 2
3.5 1.5
4.5 2.5
7 0
inf 0


"layer 825:"
-inf 0
1 0
3 2
3.5 1.5
4.5 2.5
7 0
inf 0


"layer 826:"
-inf 0
1 0
3 2
3.5 1.5
4.5 2.5
7 0
inf 0


"layer 827:"
-inf 0
1 0
3 2
3.5 1.5
4.5 2.5
7 0
inf 0


"layer 828:"
-inf 0
1 0
3 2
3.5 1.5
4.5 2.5
7 0
inf 0


"layer 829:"
-inf 0
1 0
3 2
3.5 1.5
4.5 2.5
7 0
inf 0


"layer 830:"
-inf 0
1 0
3 2
3.5 1.5
4.5 2.5
7 0
inf 0


"layer 831:"
-inf 0
1 0
3 2
3.5 1.5
4.5 2.5
7 0
inf 0


"layer 832:"
-inf 0
1 0
3 2
3.5 1.5
4.5 2.5
7 0
inf 0


"layer 833:"
-inf 0
1 0
3 2
3.5 1.5
4.5 2.5
7 0
inf 0


"layer 834:"
-inf 0
1 0
3 2
3.5 1.5
4.5 2.5
7 0
inf 0


"layer 835:"
-inf 0
1 0
3 2
3.5 1.5
4.5 2.5
7 0
inf 0


"layer 836:"
-inf 0
1 0
3 2
3.5 1.5
4.5 2.5
7 0
inf 0


"layer 837:"
-inf 0
1 0
3 2
3.5 1.5
4.5 2.5
7 0
inf 0


"layer 838:"
-inf 0
1 0
3 2
3.5 1.5
4.5 2.5
7 0
inf 0


"layer 839:"
-inf 0
1 0
3 2
3.5 1.5
4.5 2.5
7 0
inf 0


"layer 840:"
-inf 0
1 0
3 2
3.5 1.5
4.5 2.5
7 0
inf 0


"layer 841:"
-inf 0
1 0
3 2
3.5 1.5
4.5 2.5
7 0
inf 0


"layer 842:"
-inf 0
1 0
3 2
3.5 1.5
4.5 2.5
7 0
inf 0


"layer 843:"
-inf 0
1 0
3 2
3.5 1.5
4.5 2.5
7 0
inf 0


"layer 844:"
-inf 0
1 0
3 2
3.5 1.5
4.5 2.5
7 0
inf 0


"layer 845:"
-inf 0
1 0
3 2
3.5 1.5
4.5 2.5
7 0
inf 0


"layer 846:"
-inf 0
1 0
2.5 1.5
3 1
4.5 2.5
7 0
inf 0


"layer 847:"
-inf 0
1 0
2.5 1.5
3 1
4.5 2.5
7 0
inf 0


"layer 848:"
-inf 0
1 0
2.5 1.5
3 1
4.5 2.5
7 0
inf 0


"layer 849:"
-inf 0
1 0
2.5 1.5
3 1
4.5 2.5
7 0
inf 0


"layer 850:"
-inf 0
1 0
2.5 1.5
3 1
4.5 2.5
7 0
inf 0


"layer 851:"
-inf 0
1 0
2.5 1.5
3 1
4.5 2.5
7 0
inf 0


"layer 852:"
-inf 0
1 0
2.5 1.5
3 1
4.5 2.5
7 0
inf 0


"layer 853:"
-inf 0
1 0
2.5 1.5
3 1
4 2
4.5 1.5
5 2
7 0
inf 0


"layer 854:"
-inf 0
1 0
2.5 1.5
3 1
4 2
4.5 1.5
5 2
7 0
inf 0


"layer 855:"
-inf 0
1 0
2.5 1.5
3 1
4 2
4.5 1.5
5 2
7 0
inf 0


"layer 856:"
-inf 0
1 0
2.5 1.5
3 1
4 2
4.5 1.5
5 2
7 0
inf 0


"layer 857:"
-inf 0
1 0
2.5 1.5
3 1
4 2
4.5 1.5
5 2
7 0
inf 0


"layer 858:"
-inf 0
1 0
1.5 0.5
2 0
4 2
4.5 1.5
5 2
7 0
inf 0


"layer 859:"
-inf 0
2 0
4 2
4.5 1.5
5 2
7 0
inf 0


"layer 860:"
-inf 0
2 0
4 2
4.5 1.5
5 2
7 0
inf 0


"layer 861:"
-inf 0
2 0
4 2
4.5 1.5
5 2
7 0
inf 0


"layer 862:"
-inf 0
2 0
4 2
5 1
5.5 1.5
7 0
inf 0


"layer 863:"
-inf 0
2 0
4 2
5 1
5.5 1.5
7 0
inf 0


"layer 864:"
-inf 0
2 0
4 2
5 1
5.5 1.5
7 0
inf 0


"layer 865:"
-inf 0
2 0
4 2
5 1
5.5 1.5
7 0
inf 0


"layer 866:"
-inf 0
2 0
4 2
5 1
5.5 1.5
7 0
inf 0


"layer 867:"
-inf 0
2 0
4 2
5 1
5.5 1.5
7 0
inf 0


"layer 868:"
-inf 0
2 0
4 2
5 1
5.5 1.5
7 0
inf 0


"layer 869:"
-inf 0
2 0
4 2
5.5 0.5
6 1
7 0
inf 0


"layer 870:"
-inf 0
2 0
4 2
5.5 0.5
6 1
7 0
inf 0


"layer 871:"
-inf 0
2 0
4 2
5.5 0.5
6 1
7 0
inf 0


"layer 872:"
-inf 0
2 0
4 2
5.5 0.5
6 1
7 0
inf 0


"layer 873:"
-inf 0
2 0
4 2
5.5 0.5
6 1
7 0
inf 0


"layer 874:"
-inf 0
2 0
4 2
5.5 0.5
6 1
7 0
inf 0


"layer 875:"
-inf 0
2 0
4 2
5.5 0.5
6 1
7 0
inf 0


"layer 876:"
-inf 0
2 0
4 2
6 0
6.5 0.5
7 0
inf 0


"layer 877:"
-inf 0
2 0
4 2
6 0
6.5 0.5
7 0
inf 0


"layer 878:"
-inf 0
2 0
4 2
6 0
6.5 0.5
7 0
inf 0


"layer 879:"
-inf 0
2 0
4 2
6 0
6.5 0.5
7 0
inf 0


"layer 880:"
-inf 0
2 0
4 2
6 0
6.5 0.5
7 0
inf 0


"layer 881:"
-inf 0
2 0
4 2
6 0
6.5 0.5
7 0
inf 0


"layer 882:"
-inf 0
2 0
4 2
6 0
6.5 0.5
7 0
inf 0


"layer 883:"
-inf 0
2 0
4 2
6 0
6.5 0.5
7 0
inf 0


"layer 884:"
-inf 0
2 0
4 2
6 0
6.5 0.5
7 0
inf 0


"layer 885:"
-inf 0
2 0
4 2
6 0
6.5 0.5
7 0
inf 0


"layer 886:"
-inf 0
2 0
4 2
6 0
6.5 0.5
7 0
inf 0


"layer 887:"
-inf 0
2 0
4 2
6 0
6.5 0.5
7 0
inf 0


"layer 888:"
-inf 0
2 0
4 2
6 0
6.5 0.5
7 0
inf 0


"layer 889:"
-inf 0
2 0
4 2
6 0
6.5 0.5
7 0
inf 0


"layer 890:"
-inf 0
2 0
4 2
6 0
6.5 0.5
7 0
inf 0


"layer 891:"
-inf 0
2 0
4 2
6 0
6.5 0.5
7 0
inf 0


"layer 892:"
-inf 0
2 0
4 2
6 0
6.5 0.5
7 0
inf 0


"layer 893:"
-inf 0
2 0
4 2
6 0
6.5 0.5
7 0
inf 0


"layer 894:"
-inf 0
2 0
4 2
6 0
6.5 0.5
7 0
inf 0


"layer 895:"
-inf 0
2 0
4 2
6 0
6.5 0.5
7 0
inf 0


"layer 896:"
-inf 0
2 0
4 2
6 0
6.5 0.5
7 0
inf 0


"layer 897:"
-inf 0
2 0
4 2
6 0
6.5 0.5
7 0
inf 0


"layer 898:"
-inf 0
2 0
4 2
6 0
6.5 0.5
7 0
inf 0


"layer 899:"
-inf 0
2 0
4 2
6 0
6.5 0.5
7 0
inf 0


"layer 900:"
-inf 0
2 0
4 2
6 0
6.5 0.5
7 0
inf 0


"layer 901:"
-inf 0
2 0
4 2
6 0
6.5 0.5
7 0
inf 0


"layer 902:"
-inf 0
2 0
3.5 1.5
4 1
4.5 1.5
6 0
6.5 0.5
7 0
inf 0


"layer 903:"
-inf 0
2 0
3.5 1.5
4 1
4.5 1.5
6 0
6.5 0.5
7 0
inf 0


"layer 904:"
-inf 0
2 0
3.5 1.5
4 1
4.5 1.5
6 0
inf 0


"layer 905:"
-inf 0
2 0
3.5 1.5
4 1
4.5 1.5
6 0
inf 0


"layer 906:"
-inf 0
2 0
3.5 1.5
4 1
4.5 1.5
6 0
inf 0


"layer 907:"
-inf 0
2 0
3.5 1.5
4 1
4.5 1.5
6 0
inf 0


"layer 908:"
-inf 0
2 0
3.5 1.5
4 1
4.5 1.5
6 0
inf 0


"layer 909:"
-inf 0
2 0
3.5 1.5
4 1
4.5 1.5
6 0
inf 0


"layer 910:"
-inf 0
2 0
3.5 1.5
4 1
4.5 1.5
6 0
inf 0


"layer 911:"
-inf 0
2 0
3.5 1.5
4 1
4.5 1.5
6 0
inf 0


"layer 912:"
-inf 0
2 0
3.5 1.5
4 1
4.5 1.5
6 0
inf 0


"layer 913:"
-inf 0
2 0
3.5 1.5
4 1
4.5 1.5
6 0
inf 0


"layer 914:"
-inf 0
2 0
3.5 1.5
4 1
4.5 1.5
6 0
inf 0


"layer 915:"
-inf 0
2 0
3.5 1.5
4 1
4.5 1.5
6 0
inf 0


"layer 916:"
-inf 0
2 0
3.5 1.5
4.5 0.5
5 1
6 0
inf 0


"layer 917:"
-inf 0
2 0
3.5 1.5
4.5 0.5
5 1
6 0
inf 0


"layer 918:"
-inf 0
2 0
3.5 1.5
4.5 0.5
5 1
6 0
inf 0


"layer 919:"
-inf 0
2 0
3.5 1.5
4.5 0.5
5 1
6 0
inf 0


"layer 920:"
-inf 0
2 0
3.5 1.5
4.5 0.5
5 1
6 0
inf 0


"layer 921:"
-inf 0
2 0
3.5 1.5
4.5 0.5
5 1
6 0
inf 0


"layer 922:"
-inf 0
2 0
3.5 1.5
4.5 0.5
5 1
6 0
inf 0


"layer 923:"
-inf 0
2 0
3.5 1.5
4.5 0.5
5 1
6 0
inf 0


"layer 924:"
-inf 0
2 0
3.5 1.5
4.5 0.5
5 1
6 0
inf 0


"layer 925:"
-inf 0
2 0
3.5 1.5
4.5 0.5
5 1
6 0
inf 0


"layer 926:"
-inf 0
2 0
3.5 1.5
4.5 0.5
5 1
6 0
inf 0


"layer 927:"
-inf 0
2 0
3.5 1.5
4.5 0.5
5 1
6 0
inf 0


"layer 928:"
-inf 0
2 0
3.5 1.5
4.5 0.5
5 1
6 0
inf 0


"layer 929:"
-inf 0
2 0
3.5 1.5
4.5 0.5
5 1
6 0
inf 0


"layer 930:"
-inf 0
2 0
3.5 1.5
4.5 0.5
5 1
6 0
inf 0


"layer 931:"
-inf 0
2 0
3.5 1.5
5 0
5.5 0.5
6 0
inf 0


"layer 932:"
-inf 0
2 0
3.5 1.5
5 0
5.5 0.5
6 0
inf 0


"layer 933:"
-inf 0
2 0
3.5 1.5
5 0
5.5 0.5
6 0
inf 0


"layer 934:"
-inf 0
2 0
3 1
3.5 0.5
4 1
5 0
5.5 0.5
6 0
inf 0


"layer 935:"
-inf 0
2 0
3 1
3.5 0.5
4 1
5 0
5.5 0.5
6 0
inf 0


"layer 936:"
-inf 0
2 0
3 1
3.5 0.5
4 1
5 0
5.5 0.5
6 0
inf 0


"layer 937:"
-inf 0
2 0
3 1
3.5 0.5
4 1
5 0
5.5 0.5
6 0
inf 0


"layer 938:"
-inf 0
2 0
3 1
3.5 0.5
4 1
5 0
5.5 0.5
6 0
inf 0


"layer 939:"
-inf 0
2 0
3 1
3.5 0.5
4 1
5 0
5.5 0.5
6 0
inf 0


"layer 940:"
-inf 0
2 0
3 1
3.5 0.5
4 1
5 0
5.5 0.5
6 0
inf 0


"layer 941:"
-inf 0
2 0
3 1
3.5 0.5
4 1
5 0
5.5 0.5
6 0
inf 0


"layer 942:"
-inf 0
2 0
3 1
3.5 0.5
4 1
5 0
5.5 0.5
6 0
inf 0


"layer 943:"
-inf 0
2 0
3 1
3.5 0.5
4 1
5 0
5.5 0.5
6 0
inf 0


"layer 944:"
-inf 0
2 0
3 1
3.5 0.5
4 1
5 0
5.5 0.5
6 0
inf 0


"layer 945:"
-inf 0
2 0
3 1
3.5 0.5
4 1
5 0
5.5 0.5
6 0
inf 0


"layer 946:"
-inf 0
2 0
3 1
3.5 0.5
4 1
5 0
5.5 0.5
6 0
inf 0


"layer 947:"
-inf 0
2 0
3 1
3.5 0.5
4 1
5 0
5.5 0.5
6 0
inf 0


"layer 948:"
-inf 0
2 0
3 1
3.5 0.5
4 1
5 0
5.5 0.5
6 0
inf 0


"layer 949:"
-inf 0
2 0
3 1
3.5 0.5
4 1
5 0
5.5 0.5
6 0
inf 0


"layer 950:"
-inf 0
2 0
3 1
3.5 0.5
4 1
5 0
5.5 0.5
6 0
inf 0


"layer 951:"
-inf 0
2 0
3 1
3.5 0.5
4 1
5 0
5.5 0.5
6 0
inf 0


"layer 952:"
-inf 0
2 0
3 1
3.5 0.5
4 1
5 0
5.5 0.5
6 0
inf 0


"layer 953:"
-inf 0
2 0
3 1
3.5 0.5
4 1
5 0
5.5 0.5
6 0
inf 0


"layer 954:"
-inf 0
2 0
3 1
3.5 0.5
4 1
5 0
5.5 0.5
6 0
inf 0


"layer 955:"
-inf 0
2 0
3 1
3.5 0.5
4 1
5 0
5.5 0.5
6 0
inf 0


"layer 956:"
-inf 0
2 0
3 1
3.5 0.5
4 1
5 0
5.5 0.5
6 0
inf 0


"layer 957:"
-inf 0
2 0
3 1
3.5 0.5
4 1
5 0
5.5 0.5
6 0
inf 0


"layer 958:"
-inf 0
2 0
3 1
3.5 0.5
4 1
5 0
5.5 0.5
6 0
inf 0


"layer 959:"
-inf 0
2 0
3 1
3.5 0.5
4 1
5 0
inf 0


"layer 960:"
-inf 0
2 0
3 1
3.5 0.5
4 1
5 0
inf 0


"layer 961:"
-inf 0
2 0
3 1
3.5 0.5
4 1
5 0
inf 0


"layer 962:"
-inf 0
2 0
3 1
3.5 0.5
4 1
5 0
inf 0


"layer 963:"
-inf 0
2 0
3 1
3.5 0.5
4 1
5 0
inf 0


"layer 964:"
-inf 0
2 0
3 1
3.5 0.5
4 1
5 0
inf 0


"layer 965:"
-inf 0
2 0
3 1
3.5 0.5
4 1
5 0
inf 0


"layer 966:"
-inf 0
2 0
3 1
3.5 0.5
4 1
5 0
inf 0


"layer 967:"
-inf 0
2 0
3 1
3.5 0.5
4 1
5 0
inf 0


"layer 968:"
-inf 0
2 0
3 1
4 0
4.5 0.5
5 0
inf 0


"layer 969:"
-inf 0
2 0
3 1
4 0
4.5 0.5
5 0
inf 0


"layer 970:"
-inf 0
2 0
3 1
4 0
4.5 0.5
5 0
inf 0


"layer 971:"
-inf 0
2 0
3 1
4 0
4.5 0.5
5 0
inf 0


"layer 972:"
-inf 0
2 0
2.5 0.5
3 0
3.5 0.5
4 0
4.5 0.5
5 0
inf 0


"layer 973:"
-inf 0
2 0
2.5 0.5
3 0
3.5 0.5
4 0
4.5 0.5
5 0
inf 0


"layer 974:"
-inf 0
2 0
2.5 0.5
3 0
3.5 0.5
4 0
4.5 0.5
5 0
inf 0


"layer 975:"
-inf 0
2 0
2.5 0.5
3 0
3.5 0.5
4 0
4.5 0.5
5 0
inf 0


"layer 976:"
-inf 0
2 0
2.5 0.5
3 0
3.5 0.5
4 0
4.5 0.5
5 0
inf 0


"layer 977:"
-inf 0
2 0
2.5 0.5
3 0
3.5 0.5
4 0
4.5 0.5
5 0
inf 0


"layer 978:"
-inf 0
2 0
2.5 0.5
3 0
3.5 0.5
4 0
4.5 0.5
5 0
inf 0


"layer 979:"
-inf 0
2 0
2.5 0.5
3 0
3.5 0.5
4 0
4.5 0.5
5 0
inf 0


"layer 980:"
-inf 0
2 0
2.5 0.5
3 0
3.5 0.5
4 0
4.5 0.5
5 0
inf 0


"layer 981:"
-inf 0
2 0
2.5 0.5
3 0
3.5 0.5
4 0
4.5 0.5
5 0
inf 0


"layer 982:"
-inf 0
2 0
2.5 0.5
3 0
3.5 0.5
4 0
4.5 0.5
5 0
inf 0


"layer 983:"
-inf 0
2 0
2.5 0.5
3 0
3.5 0.5
4 0
4.5 0.5
5 0
inf 0


"layer 984:"
-inf 0
2 0
2.5 0.5
3 0
3.5 0.5
4 0
4.5 0.5
5 0
inf 0


"layer 985:"
-inf 0
2 0
2.5 0.5
3 0
3.5 0.5
4 0
4.5 0.5
5 0
inf 0


"layer 986:"
-inf 0
2 0
2.5 0.5
3 0
3.5 0.5
4 0
4.5 0.5
5 0
inf 0


"layer 987:"
-inf 0
2 0
2.5 0.5
3 0
3.5 0.5
4 0
4.5 0.5
5 0
inf 0


"layer 988:"
-inf 0
2 0
2.5 0.5
3 0
3.5 0.5
4 0
4.5 0.5
5 0
inf 0


"layer 989:"
-inf 0
2 0
2.5 0.5
3 0
3.5 0.5
4 0
4.5 0.5
5 0
inf 0


"layer 990:"
-inf 0
2 0
2.5 0.5
3 0
3.5 0.5
4 0
4.5 0.5
5 0
inf 0


"layer 991:"
-inf 0
2 0
2.5 0.5
3 0
3.5 0.5
4 0
4.5 0.5
5 0
inf 0


"layer 992:"
-inf 0
2 0
2.5 0.5
3 0
3.5 0.5
4 0
4.5 0.5
5 0
inf 0


"layer 993:"
-inf 0
2 0
2.5 0.5
3 0
3.5 0.5
4 0
4.5 0.5
5 0
inf 0


"layer 994:"
-inf 0
2 0
2.5 0.5
3 0
3.5 0.5
4 0
4.5 0.5
5 0
inf 0


"layer 995:"
-inf 0
2 0
2.5 0.5
3 0
3.5 0.5
4 0
4.5 0.5
5 0
inf 0


"layer 996:"
-inf 0
2 0
2.5 0.5
3 0
3.5 0.5
4 0
4.5 0.5
5 0
inf 0


"layer 997:"
-inf 0
2 0
2.5 0.5
3 0
3.5 0.5
4 0
4.5 0.5
5 0
inf 0


"layer 998:"
-inf 0
2 0
2.5 0.5
3 0
3.5 0.5
4 0
4.5 0.5
5 0
inf 0


"layer 999:"
-inf 0
2 0
2.5 0.5
3 0
3.5 0.5
4 0
4.5 0.5
5 0
inf 0


"layer 1000:"
-inf 0
2 0
2.5 0.5
3 0
3.5 0.5
4 0
4.5 0.5
5 0
inf 0


"layer 1001:"
-inf 0
2 0
2.5 0.5
3 0
3.5 0.5
4 0
4.5 0.5
5 0
inf 0


"layer 1002:"
-inf 0
2 0
2.5 0.5
3 0
3.5 0.5
4 0
4.5 0.5
5 0
inf 0


"layer 1003:"
-inf 0
2 0
2.5 0.5
3 0
3.5 0.5
4 0
4.5 0.5
5 0
inf 0


"layer 1004:"
-inf 0
2 0
2.5 0.5
3 0
3.5 0.5
4 0
4.5 0.5
5 0
inf 0


"layer 1005:"
-inf 0
2 0
2.5 0.5
3 0
3.5 0.5
4 0
4.5 0.5
5 0
inf 0


"layer 1006:"
-inf 0
2 0
2.5 0.5
3 0
3.5 0.5
4 0
4.5 0.5
5 0
inf 0


"layer 1007:"
-inf 0
2 0
2.5 0.5
3 0
3.5 0.5
4 0
4.5 0.5
5 0
inf 0


"layer 1008:"
-inf 0
2 0
2.5 0.5
3 0
3.5 0.5
4 0
4.5 0.5
5 0
inf 0


"layer 1009:"
-inf 0
2 0
2.5 0.5
3 0
3.5 0.5
4 0
4.5 0.5
5 0
inf 0


"layer 1010:"
-inf 0
2 0
2.5 0.5
3 0
3.5 0.5
4 0
4.5 0.5
5 0
inf 0


"layer 1011:"
-inf 0
2 0
2.5 0.5
3 0
3.5 0.5
4 0
4.5 0.5
5 0
inf 0


"layer 1012:"
-inf 0
2 0
2.5 0.5
3 0
3.5 0.5
4 0
4.5 0.5
5 0
inf 0


"layer 1013:"
-inf 0
2 0
2.5 0.5
3 0
3.5 0.5
4 0
4.5 0.5
5 0
inf 0


"layer 1014:"
-inf 0
2 0
2.5 0.5
3 0
3.5 0.5
4 0
4.5 0.5
5 0
inf 0


"layer 1015:"
-inf 0
2 0
2.5 0.5
3 0
3.5 0.5
4 0
4.5 0.5
5 0
inf 0


"layer 1016:"
-inf 0
2 0
2.5 0.5
3 0
3.5 0.5
4 0
4.5 0.5
5 0
inf 0


"layer 1017:"
-inf 0
2 0
2.5 0.5
3 0
3.5 0.5
4 0
4.5 0.5
5 0
inf 0


"layer 1018:"
-inf 0
2 0
2.5 0.5
3 0
3.5 0.5
4 0
4.5 0.5
5 0
inf 0


"layer 1019:"
-inf 0
2 0
2.5 0.5
3 0
3.5 0.5
4 0
4.5 0.5
5 0
inf 0


"layer 1020:"
-inf 0
2 0
2.5 0.5
3 0
3.5 0.5
4 0
4.5 0.5
5 0
inf 0


"layer 1021:"
-inf 0
2 0
2.5 0.5
3 0
3.5 0.5
4 0
4.5 0.5
5 0
inf 0


"layer 1022:"
-inf 0
2 0
2.5 0.5
3 0
3.5 0.5
4 0
4.5 0.5
5 0
inf 0


"layer 1023:"
-inf 0
2 0
2.5 0.5
3 0
3.5 0.5
4 0
4.5 0.5
5 0
inf 0


"layer 1024:"
-inf 0
2 0
2.5 0.5
3 0
3.5 0.5
4 0
inf 0


"layer 1025:"
-inf 0
2 0
2.5 0.5
3 0
3.5 0.5
4 0
inf 0


"layer 1026:"
-inf 0
2 0
2.5 0.5
3 0
3.5 0.5
4 0
inf 0


"layer 1027:"
-inf 0
2 0
2.5 0.5
3 0
3.5 0.5
4 0
inf 0


"layer 1028:"
-inf 0
2 0
2.5 0.5
3 0
3.5 0.5
4 0
inf 0


"layer 1029:"
-inf 0
3 0
3.5 0.5
4 0
inf 0


"layer 1030:"
-inf 0
3 0
3.5 0.5
4 0
inf 0


"layer 1031:"
-inf 0
3 0
3.5 0.5
4 0
inf 0


"layer 1032:"
-inf 0
3 0
3.5 0.5
4 0
inf 0


"layer 1033:"
-inf 0
3 0
3.5 0.5
4 0
inf 0


"layer 1034:"
-inf 0
3 0
3.5 0.5
4 0
inf 0


"layer 1035:"
-inf 0
3 0
3.5 0.5
4 0
inf 0


"layer 1036:"
-inf 0
3 0
3.5 0.5
4 0
inf 0


"layer 1037:"
-inf 0
3 0
3.5 0.5
4 0
inf 0


"layer 1038:"
-inf 0
3 0
3.5 0.5
4 0
inf 0


