# persistence landscape
# X Y
"layer 0:"
-inf 0
1 0
3062.5 3061.5
6124 0
inf 0


"layer 1:"
-inf 0
1 0
42.5 41.5
84 0
inf 0


"layer 2:"
-inf 0
1 0
42.5 41.5
84 0
inf 0


"layer 3:"
-inf 0
1 0
42.5 41.5
84 0
inf 0


"layer 4:"
-inf 0
1 0
42.5 41.5
84 0
inf 0


"layer 5:"
-inf 0
1 0
42.5 41.5
84 0
inf 0


"layer 6:"
-inf 0
1 0
42 41
42.5 40.5
43 41
84 0
inf 0


"layer 7:"
-inf 0
1 0
42 41
42.5 40.5
43 41
84 0
inf 0


"layer 8:"
-inf 0
1 0
42 41
83 0
inf 0


"layer 9:"
-inf 0
1 0
42 41
83 0
inf 0


"layer 10:"
-inf 0
1 0
42 41
83 0
inf 0


"layer 11:"
-inf 0
1 0
42 41
83 0
inf 0


"layer 12:"
-inf 0
1 0
42 41
83 0
inf 0


"layer 13:"
-inf 0
1 0
42 41
83 0
inf 0


"layer 14:"
-inf 0
1 0
42 41
83 0
inf 0


"layer 15:"
-inf 0
1 0
42 41
83 0
inf 0


"layer 16:"
-inf 0
1 0
42 41
83 0
inf 0


"layer 17:"
-inf 0
1 0
42 41
83 0
inf 0


"layer 18:"
-inf 0
1 0
42 41
83 0
inf 0


"layer 19:"
-inf 0
1 0
42 41
83 0
inf 0


"layer 20:"
-inf 0
1 0
42 41
83 0
inf 0


"layer 21:"
-inf 0
1 0
42 41
83 0
inf 0


"layer 22:"
-inf 0
1 0
42 41
83 0
inf 0


"layer 23:"
-inf 0
1 0
42 41
83 0
inf 0


"layer 24:"
-inf 0
1 0
42 41
83 0
inf 0


"layer 25:"
-inf 0
1 0
42 41
83 0
inf 0


"layer 26:"
-inf 0
1 0
42 41
83 0
inf 0


"layer 27:"
-inf 0
1 0
42 41
83 0
inf 0


"layer 28:"
-inf 0
1 0
42 41
83 0
inf 0


"layer 29:"
-inf 0
1 0
42 41
83 0
inf 0


"layer 30:"
-inf 0
1 0
42 41
83 0
inf 0


"layer 31:"
-inf 0
1 0
42 41
83 0
inf 0


"layer 32:"
-inf 0
1 0
42 41
83 0
inf 0


"layer 33:"
-inf 0
1 0
42 41
83 0
inf 0


"layer 34:"
-inf 0
1 0
42 41
83 0
inf 0


"layer 35:"
-inf 0
1 0
42 41
83 0
inf 0


"layer 36:"
-inf 0
1 0
42 41
83 0
inf 0


"layer 37:"
-inf 0
1 0
42 41
83 0
inf 0


"layer 38:"
-inf 0
1 0
42 41
83 0
inf 0


"layer 39:"
-inf 0
1 0
42 41
83 0
inf 0


"layer 40:"
-inf 0
1 0
42 41
83 0
inf 0


"layer 41:"
-inf 0
1 0
42 41
83 0
inf 0


"layer 42:"
-inf 0
1 0
42 41
83 0
inf 0


"layer 43:"
-inf 0
1 0
42 41
83 0
inf 0


"layer 44:"
-inf 0
1 0
42 41
83 0
inf 0


"layer 45:"
-inf 0
1 0
42 41
83 0
inf 0


"layer 46:"
-inf 0
1 0
42 41
83 0
inf 0


"layer 47:"
-inf 0
1 0
42 41
83 0
inf 0


"layer 48:"
-inf 0
1 0
42 41
83 0
inf 0


"layer 49:"
-inf 0
1 0
42 41
83 0
inf 0


"layer 50:"
-inf 0
1 0
42 41
83 0
inf 0


"layer 51:"
-inf 0
1 0
42 41
83 0
inf 0


"layer 52:"
-inf 0
1 0
42 41
83 0
inf 0


"layer 53:"
-inf 0
1 0
42 41
83 0
inf 0


"layer 54:"
-inf 0
1 0
42 41
83 0
inf 0


"layer 55:"
-inf 0
1 0
42 41
83 0
inf 0


"layer 56:"
-inf 0
1 0
42 41
83 0
inf 0


"layer 57:"
-inf 0
1 0
42 41
83 0
inf 0


"layer 58:"
-inf 0
1 0
42 41
83 0
inf 0


"layer 59:"
-inf 0
1 0
42 41
83 0
inf 0


"layer 60:"
-inf 0
1 0
42 41
83 0
inf 0


"layer 61:"
-inf 0
1 0
42 41
83 0
inf 0


"layer 62:"
-inf 0
1 0
42 41
83 0
inf 0


"layer 63:"
-inf 0
1 0
42 41
83 0
inf 0


"layer 64:"
-inf 0
1 0
6 5
6.5 4.5
42.5 40.5
83 0
inf 0


"layer 65:"
-inf 0
1 0
6 5
6.5 4.5
42.5 40.5
83 0
inf 0


"layer 66:"
-inf 0
1 0
5.5 4.5
6 4
6.5 4.5
11 0
82 0
82.5 0.5
83 0
inf 0


"layer 67:"
-inf 0
1 0
5.5 4.5
6 4
6.5 4.5
11 0
inf 0


"layer 68:"
-inf 0
1 0
5 4
5.5 3.5
6 4
10 0
inf 0


"layer 69:"
-inf 0
1 0
5 4
5.5 3.5
6 4
10 0
inf 0


"layer 70:"
-inf 0
1 0
5 4
5.5 3.5
6 4
10 0
inf 0


"layer 71:"
-inf 0
1 0
5 4
9 0
inf 0


"layer 72:"
-inf 0
1 0
3.5 2.5
4 2
5.5 3.5
9 0
inf 0


"layer 73:"
-inf 0
1 0
3 2
3.5 1.5
5.5 3.5
9 0
inf 0


"layer 74:"
-inf 0
1 0
3 2
3.5 1.5
5.5 3.5
9 0
inf 0


"layer 75:"
-inf 0
1 0
3 2
3.5 1.5
5 3
6 2
6.5 2.5
9 0
inf 0


"layer 76:"
-inf 0
1 0
2.5 1.5
3 1
5 3
8 0
8.5 0.5
9 0
inf 0


"layer 77:"
-inf 0
2 0
5 3
8 0
inf 0


"layer 78:"
-inf 0
2 0
4.5 2.5
5.5 1.5
6 2
8 0
inf 0


"layer 79:"
-inf 0
2 0
4.5 2.5
6.5 0.5
7 1
8 0
inf 0


"layer 80:"
-inf 0
2 0
4 2
5 1
5.5 1.5
7 0
inf 0


"layer 81:"
-inf 0
2 0
3.5 1.5
4.5 0.5
5 1
5.5 0.5
6 1
7 0
inf 0


"layer 82:"
-inf 0
2 0
3.5 1.5
5 0
5.5 0.5
6 0
6.5 0.5
7 0
inf 0


"layer 83:"
-inf 0
2 0
3.5 1.5
5 0
5.5 0.5
6 0
6.5 0.5
7 0
inf 0


"layer 84:"
-inf 0
2 0
3.5 1.5
5 0
inf 0


"layer 85:"
-inf 0
2 0
3.5 1.5
5 0
inf 0


"layer 86:"
-inf 0
2 0
3.5 1.5
5 0
inf 0


"layer 87:"
-inf 0
2 0
3.5 1.5
5 0
inf 0


"layer 88:"
-inf 0
2 0
3 1
3.5 0.5
4 1
5 0
inf 0


"layer 89:"
-inf 0
2 0
3 1
3.5 0.5
4 1
5 0
inf 0


"layer 90:"
-inf 0
2 0
3 1
3.5 0.5
4 1
5 0
inf 0


"layer 91:"
-inf 0
2 0
3 1
4 0
4.5 0.5
5 0
inf 0


"layer 92:"
-inf 0
2 0
3 1
4 0
4.5 0.5
5 0
inf 0


"layer 93:"
-inf 0
2 0
3 1
4 0
4.5 0.5
5 0
inf 0


"layer 94:"
-inf 0
2 0
3 1
4 0
inf 0


"layer 95:"
-inf 0
2 0
2.5 0.5
3 0
3.5 0.5
4 0
inf 0


"layer 96:"
-inf 0
2 0
2.5 0.5
3 0
3.5 0.5
4 0
inf 0


"layer 97:"
-inf 0
3 0
3.5 0.5
4 0
inf 0


"layer 98:"
-inf 0
3 0
3.5 0.5
4 0
inf 0


"layer 99:"
-inf 0
3 0
3.5 0.5
4 0
inf 0


"layer 100:"
-inf 0
3 0
3.5 0.5
4 0
inf 0


"layer 101:"
-inf 0
3 0
3.5 0.5
4 0
inf 0


"layer 102:"
-inf 0
3 0
3.5 0.5
4 0
inf 0


"layer 103:"
-inf 0
3 0
3.5 0.5
4 0
inf 0


