# persistence landscape
# X Y
"layer 0:"
-inf 0
7 0
3065.5 3058.5
6124 0
inf 0


"layer 1:"
-inf 0
12 0
3068 3056
6124 0
inf 0


"layer 2:"
-inf 0
17 0
3070.5 3053.5
6124 0
inf 0


"layer 3:"
-inf 0
84 0
3104 3020
6124 0
inf 0


"layer 4:"
-inf 0
84 0
3104 3020
6124 0
inf 0


"layer 5:"
-inf 0
85 0
3104.5 3019.5
6124 0
inf 0


"layer 6:"
-inf 0
85 0
3104.5 3019.5
6124 0
inf 0


"layer 7:"
-inf 0
85 0
3104.5 3019.5
6124 0
inf 0


"layer 8:"
-inf 0
86 0
3105 3019
6124 0
inf 0


"layer 9:"
-inf 0
86 0
3105 3019
6124 0
inf 0


"layer 10:"
-inf 0
86 0
3105 3019
6124 0
inf 0


"layer 11:"
-inf 0
86 0
3105 3019
6124 0
inf 0


"layer 12:"
-inf 0
86 0
3105 3019
6124 0
inf 0


"layer 13:"
-inf 0
87 0
3105.5 3018.5
6124 0
inf 0


"layer 14:"
-inf 0
87 0
3105.5 3018.5
6124 0
inf 0


"layer 15:"
-inf 0
88 0
3106 3018
6124 0
inf 0


"layer 16:"
-inf 0
88 0
3106 3018
6124 0
inf 0


"layer 17:"
-inf 0
88 0
3106 3018
6124 0
inf 0


"layer 18:"
-inf 0
88 0
3106 3018
6124 0
inf 0


"layer 19:"
-inf 0
89 0
3106.5 3017.5
6124 0
inf 0


"layer 20:"
-inf 0
89 0
3106.5 3017.5
6124 0
inf 0


"layer 21:"
-inf 0
90 0
3107 3017
6124 0
inf 0


"layer 22:"
-inf 0
90 0
3107 3017
6124 0
inf 0


"layer 23:"
-inf 0
90 0
3107 3017
6124 0
inf 0


"layer 24:"
-inf 0
91 0
3107.5 3016.5
6124 0
inf 0


"layer 25:"
-inf 0
91 0
3107.5 3016.5
6124 0
inf 0


"layer 26:"
-inf 0
94 0
3109 3015
6124 0
inf 0


