# persistence landscape
# X Y
"layer 0:"
-inf 0
8 0
3066 3058
6124 0
inf 0


"layer 1:"
-inf 0
9 0
3066.5 3057.5
6124 0
inf 0


"layer 2:"
-inf 0
10 0
3067 3057
6124 0
inf 0


"layer 3:"
-inf 0
10 0
3067 3057
6124 0
inf 0


"layer 4:"
-inf 0
11 0
3067.5 3056.5
6124 0
inf 0


"layer 5:"
-inf 0
217 0
3170.5 2953.5
6124 0
inf 0


"layer 6:"
-inf 0
217 0
3170.5 2953.5
6124 0
inf 0


"layer 7:"
-inf 0
218 0
3171 2953
6124 0
inf 0


"layer 8:"
-inf 0
218 0
3171 2953
6124 0
inf 0


"layer 9:"
-inf 0
218 0
3171 2953
6124 0
inf 0


"layer 10:"
-inf 0
218 0
3171 2953
6124 0
inf 0


"layer 11:"
-inf 0
218 0
3171 2953
6124 0
inf 0


"layer 12:"
-inf 0
219 0
3171.5 2952.5
6124 0
inf 0


"layer 13:"
-inf 0
219 0
3171.5 2952.5
6124 0
inf 0


"layer 14:"
-inf 0
219 0
3171.5 2952.5
6124 0
inf 0


"layer 15:"
-inf 0
219 0
3171.5 2952.5
6124 0
inf 0


"layer 16:"
-inf 0
220 0
3172 2952
6124 0
inf 0


"layer 17:"
-inf 0
220 0
3172 2952
6124 0
inf 0


"layer 18:"
-inf 0
220 0
3172 2952
6124 0
inf 0


"layer 19:"
-inf 0
220 0
3172 2952
6124 0
inf 0


"layer 20:"
-inf 0
220 0
3172 2952
6124 0
inf 0


"layer 21:"
-inf 0
221 0
3172.5 2951.5
6124 0
inf 0


"layer 22:"
-inf 0
221 0
3172.5 2951.5
6124 0
inf 0


"layer 23:"
-inf 0
221 0
3172.5 2951.5
6124 0
inf 0


"layer 24:"
-inf 0
221 0
3172.5 2951.5
6124 0
inf 0


"layer 25:"
-inf 0
221 0
3172.5 2951.5
6124 0
inf 0


"layer 26:"
-inf 0
222 0
3173 2951
6124 0
inf 0


"layer 27:"
-inf 0
223 0
3173.5 2950.5
6124 0
inf 0


"layer 28:"
-inf 0
229 0
3176.5 2947.5
6124 0
inf 0


