# persistence landscape
# X Y
"layer 0:"
-inf 0
6 0
3065 3059
6124 0
inf 0


"layer 1:"
-inf 0
11 0
3067.5 3056.5
6124 0
inf 0


"layer 2:"
-inf 0
15 0
3069.5 3054.5
6124 0
inf 0


"layer 3:"
-inf 0
17 0
3070.5 3053.5
6124 0
inf 0


"layer 4:"
-inf 0
112 0
3118 3006
6124 0
inf 0


"layer 5:"
-inf 0
112 0
3118 3006
6124 0
inf 0


"layer 6:"
-inf 0
112 0
3118 3006
6124 0
inf 0


"layer 7:"
-inf 0
113 0
3118.5 3005.5
6124 0
inf 0


"layer 8:"
-inf 0
113 0
3118.5 3005.5
6124 0
inf 0


"layer 9:"
-inf 0
113 0
3118.5 3005.5
6124 0
inf 0


"layer 10:"
-inf 0
114 0
3119 3005
6124 0
inf 0


"layer 11:"
-inf 0
114 0
3119 3005
6124 0
inf 0


"layer 12:"
-inf 0
114 0
3119 3005
6124 0
inf 0


"layer 13:"
-inf 0
114 0
3119 3005
6124 0
inf 0


"layer 14:"
-inf 0
114 0
3119 3005
6124 0
inf 0


"layer 15:"
-inf 0
114 0
3119 3005
6124 0
inf 0


"layer 16:"
-inf 0
115 0
3119.5 3004.5
6124 0
inf 0


"layer 17:"
-inf 0
115 0
3119.5 3004.5
6124 0
inf 0


"layer 18:"
-inf 0
115 0
3119.5 3004.5
6124 0
inf 0


"layer 19:"
-inf 0
115 0
3119.5 3004.5
6124 0
inf 0


"layer 20:"
-inf 0
115 0
3119.5 3004.5
6124 0
inf 0


"layer 21:"
-inf 0
116 0
3120 3004
6124 0
inf 0


"layer 22:"
-inf 0
116 0
3120 3004
6124 0
inf 0


"layer 23:"
-inf 0
116 0
3120 3004
6124 0
inf 0


"layer 24:"
-inf 0
117 0
3120.5 3003.5
6124 0
inf 0


