# persistence landscape
# X Y
"layer 0:"
-inf 0
8 0
3066 3058
6124 0
inf 0


"layer 1:"
-inf 0
10 0
3067 3057
6124 0
inf 0


"layer 2:"
-inf 0
13 0
3068.5 3055.5
6124 0
inf 0


"layer 3:"
-inf 0
152 0
3138 2986
6124 0
inf 0


"layer 4:"
-inf 0
152 0
3138 2986
6124 0
inf 0


"layer 5:"
-inf 0
152 0
3138 2986
6124 0
inf 0


"layer 6:"
-inf 0
152 0
3138 2986
6124 0
inf 0


"layer 7:"
-inf 0
152 0
3138 2986
6124 0
inf 0


"layer 8:"
-inf 0
152 0
3138 2986
6124 0
inf 0


"layer 9:"
-inf 0
152 0
3138 2986
6124 0
inf 0


"layer 10:"
-inf 0
152 0
3138 2986
6124 0
inf 0


"layer 11:"
-inf 0
152 0
3138 2986
6124 0
inf 0


"layer 12:"
-inf 0
152 0
3138 2986
6124 0
inf 0


"layer 13:"
-inf 0
153 0
3138.5 2985.5
6124 0
inf 0


"layer 14:"
-inf 0
153 0
3138.5 2985.5
6124 0
inf 0


"layer 15:"
-inf 0
153 0
3138.5 2985.5
6124 0
inf 0


"layer 16:"
-inf 0
153 0
3138.5 2985.5
6124 0
inf 0


"layer 17:"
-inf 0
153 0
3138.5 2985.5
6124 0
inf 0


"layer 18:"
-inf 0
154 0
3139 2985
6124 0
inf 0


"layer 19:"
-inf 0
154 0
3139 2985
6124 0
inf 0


"layer 20:"
-inf 0
155 0
3139.5 2984.5
6124 0
inf 0


"layer 21:"
-inf 0
156 0
3140 2984
6124 0
inf 0


"layer 22:"
-inf 0
156 0
3140 2984
6124 0
inf 0


"layer 23:"
-inf 0
157 0
3140.5 2983.5
6124 0
inf 0


