# persistence landscape
# X Y
"layer 0:"
-inf 0
8 0
3066 3058
6124 0
inf 0


"layer 1:"
-inf 0
9 0
3066.5 3057.5
6124 0
inf 0


"layer 2:"
-inf 0
9 0
3066.5 3057.5
6124 0
inf 0


"layer 3:"
-inf 0
11 0
3067.5 3056.5
6124 0
inf 0


"layer 4:"
-inf 0
13 0
3068.5 3055.5
6124 0
inf 0


"layer 5:"
-inf 0
14 0
3069 3055
6124 0
inf 0


"layer 6:"
-inf 0
16 0
3070 3054
6124 0
inf 0


"layer 7:"
-inf 0
16 0
3070 3054
6124 0
inf 0


"layer 8:"
-inf 0
16 0
3070 3054
6124 0
inf 0


"layer 9:"
-inf 0
17 0
3070.5 3053.5
6124 0
inf 0


"layer 10:"
-inf 0
18 0
3071 3053
6124 0
inf 0


"layer 11:"
-inf 0
19 0
3071.5 3052.5
6124 0
inf 0


"layer 12:"
-inf 0
19 0
3071.5 3052.5
6124 0
inf 0


"layer 13:"
-inf 0
20 0
3072 3052
6124 0
inf 0


"layer 14:"
-inf 0
20 0
3072 3052
6124 0
inf 0


"layer 15:"
-inf 0
21 0
3072.5 3051.5
6124 0
inf 0


"layer 16:"
-inf 0
21 0
3072.5 3051.5
6124 0
inf 0


"layer 17:"
-inf 0
22 0
3073 3051
6124 0
inf 0


"layer 18:"
-inf 0
22 0
3073 3051
6124 0
inf 0


"layer 19:"
-inf 0
24 0
3074 3050
6124 0
inf 0


"layer 20:"
-inf 0
25 0
3074.5 3049.5
6124 0
inf 0


"layer 21:"
-inf 0
28 0
3076 3048
6124 0
inf 0


"layer 22:"
-inf 0
28 0
3076 3048
6124 0
inf 0


"layer 23:"
-inf 0
30 0
3077 3047
6124 0
inf 0


"layer 24:"
-inf 0
1118 0
3621 2503
6124 0
inf 0


"layer 25:"
-inf 0
1118 0
3621 2503
6124 0
inf 0


"layer 26:"
-inf 0
1118 0
3621 2503
6124 0
inf 0


"layer 27:"
-inf 0
1118 0
3621 2503
6124 0
inf 0


"layer 28:"
-inf 0
1118 0
3621 2503
6124 0
inf 0


"layer 29:"
-inf 0
1118 0
3621 2503
6124 0
inf 0


"layer 30:"
-inf 0
1118 0
3621 2503
6124 0
inf 0


"layer 31:"
-inf 0
1118 0
3621 2503
6124 0
inf 0


"layer 32:"
-inf 0
1118 0
3621 2503
6124 0
inf 0


"layer 33:"
-inf 0
1118 0
3621 2503
6124 0
inf 0


"layer 34:"
-inf 0
1118 0
3621 2503
6124 0
inf 0


"layer 35:"
-inf 0
1118 0
3621 2503
6124 0
inf 0


"layer 36:"
-inf 0
1118 0
3621 2503
6124 0
inf 0


"layer 37:"
-inf 0
1118 0
3621 2503
6124 0
inf 0


"layer 38:"
-inf 0
1118 0
3621 2503
6124 0
inf 0


"layer 39:"
-inf 0
1118 0
3621 2503
6124 0
inf 0


"layer 40:"
-inf 0
1118 0
3621 2503
6124 0
inf 0


"layer 41:"
-inf 0
1118 0
3621 2503
6124 0
inf 0


"layer 42:"
-inf 0
1118 0
3621 2503
6124 0
inf 0


"layer 43:"
-inf 0
1118 0
3621 2503
6124 0
inf 0


"layer 44:"
-inf 0
1118 0
3621 2503
6124 0
inf 0


"layer 45:"
-inf 0
1118 0
3621 2503
6124 0
inf 0


"layer 46:"
-inf 0
1118 0
3621 2503
6124 0
inf 0


"layer 47:"
-inf 0
1118 0
3621 2503
6124 0
inf 0


"layer 48:"
-inf 0
1118 0
3621 2503
6124 0
inf 0


"layer 49:"
-inf 0
1118 0
3621 2503
6124 0
inf 0


"layer 50:"
-inf 0
1118 0
3621 2503
6124 0
inf 0


"layer 51:"
-inf 0
1118 0
3621 2503
6124 0
inf 0


"layer 52:"
-inf 0
1118 0
3621 2503
6124 0
inf 0


"layer 53:"
-inf 0
1118 0
3621 2503
6124 0
inf 0


"layer 54:"
-inf 0
1119 0
3621.5 2502.5
6124 0
inf 0


"layer 55:"
-inf 0
1119 0
3621.5 2502.5
6124 0
inf 0


"layer 56:"
-inf 0
1119 0
3621.5 2502.5
6124 0
inf 0


"layer 57:"
-inf 0
1119 0
3621.5 2502.5
6124 0
inf 0


"layer 58:"
-inf 0
1119 0
3621.5 2502.5
6124 0
inf 0


"layer 59:"
-inf 0
1119 0
3621.5 2502.5
6124 0
inf 0


"layer 60:"
-inf 0
1119 0
3621.5 2502.5
6124 0
inf 0


"layer 61:"
-inf 0
1119 0
3621.5 2502.5
6124 0
inf 0


"layer 62:"
-inf 0
1119 0
3621.5 2502.5
6124 0
inf 0


"layer 63:"
-inf 0
1119 0
3621.5 2502.5
6124 0
inf 0


"layer 64:"
-inf 0
1119 0
3621.5 2502.5
6124 0
inf 0


"layer 65:"
-inf 0
1119 0
3621.5 2502.5
6124 0
inf 0


"layer 66:"
-inf 0
1119 0
3621.5 2502.5
6124 0
inf 0


"layer 67:"
-inf 0
1119 0
3621.5 2502.5
6124 0
inf 0


"layer 68:"
-inf 0
1119 0
3621.5 2502.5
6124 0
inf 0


"layer 69:"
-inf 0
1119 0
3621.5 2502.5
6124 0
inf 0


"layer 70:"
-inf 0
1120 0
3622 2502
6124 0
inf 0


"layer 71:"
-inf 0
1120 0
3622 2502
6124 0
inf 0


"layer 72:"
-inf 0
1120 0
3622 2502
6124 0
inf 0


"layer 73:"
-inf 0
1120 0
3622 2502
6124 0
inf 0


"layer 74:"
-inf 0
1120 0
3622 2502
6124 0
inf 0


"layer 75:"
-inf 0
1120 0
3622 2502
6124 0
inf 0


"layer 76:"
-inf 0
1120 0
3622 2502
6124 0
inf 0


"layer 77:"
-inf 0
1120 0
3622 2502
6124 0
inf 0


"layer 78:"
-inf 0
1120 0
3622 2502
6124 0
inf 0


"layer 79:"
-inf 0
1120 0
3622 2502
6124 0
inf 0


"layer 80:"
-inf 0
1120 0
3622 2502
6124 0
inf 0


"layer 81:"
-inf 0
1120 0
3622 2502
6124 0
inf 0


"layer 82:"
-inf 0
1120 0
3622 2502
6124 0
inf 0


"layer 83:"
-inf 0
1121 0
3622.5 2501.5
6124 0
inf 0


"layer 84:"
-inf 0
1121 0
3622.5 2501.5
6124 0
inf 0


"layer 85:"
-inf 0
1121 0
3622.5 2501.5
6124 0
inf 0


"layer 86:"
-inf 0
1121 0
3622.5 2501.5
6124 0
inf 0


"layer 87:"
-inf 0
1121 0
3622.5 2501.5
6124 0
inf 0


"layer 88:"
-inf 0
1121 0
3622.5 2501.5
6124 0
inf 0


"layer 89:"
-inf 0
1121 0
3622.5 2501.5
6124 0
inf 0


"layer 90:"
-inf 0
1122 0
3623 2501
6124 0
inf 0


"layer 91:"
-inf 0
1122 0
3623 2501
6124 0
inf 0


"layer 92:"
-inf 0
1122 0
3623 2501
6124 0
inf 0


"layer 93:"
-inf 0
1122 0
3623 2501
6124 0
inf 0


"layer 94:"
-inf 0
1122 0
3623 2501
6124 0
inf 0


"layer 95:"
-inf 0
1123 0
3623.5 2500.5
6124 0
inf 0


"layer 96:"
-inf 0
1123 0
3623.5 2500.5
6124 0
inf 0


"layer 97:"
-inf 0
1123 0
3623.5 2500.5
6124 0
inf 0


"layer 98:"
-inf 0
1123 0
3623.5 2500.5
6124 0
inf 0


"layer 99:"
-inf 0
1123 0
3623.5 2500.5
6124 0
inf 0


"layer 100:"
-inf 0
1124 0
3624 2500
6124 0
inf 0


"layer 101:"
-inf 0
1124 0
3624 2500
6124 0
inf 0


"layer 102:"
-inf 0
1125 0
3624.5 2499.5
6124 0
inf 0


"layer 103:"
-inf 0
1125 0
3624.5 2499.5
6124 0
inf 0


"layer 104:"
-inf 0
1125 0
3624.5 2499.5
6124 0
inf 0


"layer 105:"
-inf 0
1126 0
3625 2499
6124 0
inf 0


"layer 106:"
-inf 0
1126 0
3625 2499
6124 0
inf 0


"layer 107:"
-inf 0
1126 0
3625 2499
6124 0
inf 0


"layer 108:"
-inf 0
1127 0
3625.5 2498.5
6124 0
inf 0


"layer 109:"
-inf 0
1128 0
3626 2498
6124 0
inf 0


"layer 110:"
-inf 0
1128 0
3626 2498
6124 0
inf 0


"layer 111:"
-inf 0
1128 0
3626 2498
6124 0
inf 0


"layer 112:"
-inf 0
1129 0
3626.5 2497.5
6124 0
inf 0


"layer 113:"
-inf 0
1129 0
3626.5 2497.5
6124 0
inf 0


"layer 114:"
-inf 0
1130 0
3627 2497
6124 0
inf 0


"layer 115:"
-inf 0
1131 0
3627.5 2496.5
6124 0
inf 0


"layer 116:"
-inf 0
1132 0
3628 2496
6124 0
inf 0


"layer 117:"
-inf 0
1137 0
3630.5 2493.5
6124 0
inf 0


