# persistence landscape
# X Y
"layer 0:"
-inf 0
64 0
3094 3030
6124 0
inf 0


"layer 1:"
-inf 0
64 0
3094 3030
6124 0
inf 0


"layer 2:"
-inf 0
64 0
3094 3030
6124 0
inf 0


"layer 3:"
-inf 0
64 0
3094 3030
6124 0
inf 0


"layer 4:"
-inf 0
64 0
3094 3030
6124 0
inf 0


"layer 5:"
-inf 0
65 0
3094.5 3029.5
6124 0
inf 0


"layer 6:"
-inf 0
65 0
3094.5 3029.5
6124 0
inf 0


"layer 7:"
-inf 0
65 0
3094.5 3029.5
6124 0
inf 0


"layer 8:"
-inf 0
72 0
3098 3026
6124 0
inf 0


"layer 9:"
-inf 0
128 0
3126 2998
6124 0
inf 0


"layer 10:"
-inf 0
128 0
3126 2998
6124 0
inf 0


"layer 11:"
-inf 0
128 0
3126 2998
6124 0
inf 0


"layer 12:"
-inf 0
128 0
3126 2998
6124 0
inf 0


"layer 13:"
-inf 0
128 0
3126 2998
6124 0
inf 0


"layer 14:"
-inf 0
128 0
3126 2998
6124 0
inf 0


"layer 15:"
-inf 0
128 0
3126 2998
6124 0
inf 0


"layer 16:"
-inf 0
128 0
3126 2998
6124 0
inf 0


"layer 17:"
-inf 0
128 0
3126 2998
6124 0
inf 0


"layer 18:"
-inf 0
128 0
3126 2998
6124 0
inf 0


"layer 19:"
-inf 0
128 0
3126 2998
6124 0
inf 0


"layer 20:"
-inf 0
128 0
3126 2998
6124 0
inf 0


"layer 21:"
-inf 0
128 0
3126 2998
6124 0
inf 0


"layer 22:"
-inf 0
128 0
3126 2998
6124 0
inf 0


"layer 23:"
-inf 0
128 0
3126 2998
6124 0
inf 0


"layer 24:"
-inf 0
128 0
3126 2998
6124 0
inf 0


"layer 25:"
-inf 0
128 0
3126 2998
6124 0
inf 0


"layer 26:"
-inf 0
128 0
3126 2998
6124 0
inf 0


"layer 27:"
-inf 0
128 0
3126 2998
6124 0
inf 0


"layer 28:"
-inf 0
128 0
3126 2998
6124 0
inf 0


"layer 29:"
-inf 0
128 0
3126 2998
6124 0
inf 0


"layer 30:"
-inf 0
128 0
3126 2998
6124 0
inf 0


"layer 31:"
-inf 0
128 0
3126 2998
6124 0
inf 0


"layer 32:"
-inf 0
128 0
3126 2998
6124 0
inf 0


"layer 33:"
-inf 0
128 0
3126 2998
6124 0
inf 0


"layer 34:"
-inf 0
128 0
3126 2998
6124 0
inf 0


"layer 35:"
-inf 0
128 0
3126 2998
6124 0
inf 0


"layer 36:"
-inf 0
128 0
3126 2998
6124 0
inf 0


"layer 37:"
-inf 0
129 0
3126.5 2997.5
6124 0
inf 0


"layer 38:"
-inf 0
129 0
3126.5 2997.5
6124 0
inf 0


"layer 39:"
-inf 0
129 0
3126.5 2997.5
6124 0
inf 0


"layer 40:"
-inf 0
129 0
3126.5 2997.5
6124 0
inf 0


"layer 41:"
-inf 0
129 0
3126.5 2997.5
6124 0
inf 0


"layer 42:"
-inf 0
129 0
3126.5 2997.5
6124 0
inf 0


"layer 43:"
-inf 0
130 0
3127 2997
6124 0
inf 0


"layer 44:"
-inf 0
130 0
3127 2997
6124 0
inf 0


"layer 45:"
-inf 0
130 0
3127 2997
6124 0
inf 0


"layer 46:"
-inf 0
131 0
3127.5 2996.5
6124 0
inf 0


"layer 47:"
-inf 0
131 0
3127.5 2996.5
6124 0
inf 0


"layer 48:"
-inf 0
138 0
3131 2993
6124 0
inf 0


