# persistence landscape
# X Y
"layer 0:"
-inf 0
1 0
3062.5 3061.5
6124 0
inf 0


"layer 1:"
-inf 0
1 0
10 9
19 0
inf 0


"layer 2:"
-inf 0
1 0
10 9
19 0
inf 0


"layer 3:"
-inf 0
1 0
10 9
19 0
inf 0


"layer 4:"
-inf 0
1 0
10 9
19 0
inf 0


"layer 5:"
-inf 0
1 0
10 9
19 0
inf 0


"layer 6:"
-inf 0
1 0
10 9
19 0
inf 0


"layer 7:"
-inf 0
1 0
9.5 8.5
10 8
10.5 8.5
19 0
inf 0


"layer 8:"
-inf 0
1 0
9.5 8.5
18 0
inf 0


"layer 9:"
-inf 0
1 0
9.5 8.5
18 0
inf 0


"layer 10:"
-inf 0
1 0
9.5 8.5
18 0
inf 0


"layer 11:"
-inf 0
1 0
9.5 8.5
18 0
inf 0


"layer 12:"
-inf 0
1 0
9.5 8.5
18 0
inf 0


"layer 13:"
-inf 0
1 0
4.5 3.5
5 3
10 8
18 0
inf 0


"layer 14:"
-inf 0
1 0
4 3
4.5 2.5
5.5 3.5
9 0
17 0
17.5 0.5
18 0
inf 0


"layer 15:"
-inf 0
2 0
5 3
8 0
inf 0


"layer 16:"
-inf 0
2 0
4.5 2.5
7 0
inf 0


"layer 17:"
-inf 0
2 0
3.5 1.5
5 0
6 0
6.5 0.5
7 0
inf 0


"layer 18:"
-inf 0
2 0
3.5 1.5
5 0
inf 0


"layer 19:"
-inf 0
2 0
3 1
3.5 0.5
4 1
5 0
inf 0


"layer 20:"
-inf 0
2 0
3 1
3.5 0.5
4 1
5 0
inf 0


"layer 21:"
-inf 0
2 0
2.5 0.5
3 0
3.5 0.5
4 0
inf 0


"layer 22:"
-inf 0
2 0
2.5 0.5
3 0
3.5 0.5
4 0
inf 0


"layer 23:"
-inf 0
2 0
2.5 0.5
3 0
inf 0


"layer 24:"
-inf 0
2 0
2.5 0.5
3 0
inf 0


"layer 25:"
-inf 0
2 0
2.5 0.5
3 0
inf 0


"layer 26:"
-inf 0
2 0
2.5 0.5
3 0
inf 0


