# persistence landscape
# X Y
"layer 0:"
-inf 0
1 0
3062.5 3061.5
6124 0
inf 0


"layer 1:"
-inf 0
1 0
5 4
9 0
inf 0


"layer 2:"
-inf 0
1 0
4.5 3.5
8 0
inf 0


"layer 3:"
-inf 0
1 0
4.5 3.5
8 0
inf 0


"layer 4:"
-inf 0
1 0
4.5 3.5
8 0
inf 0


"layer 5:"
-inf 0
1 0
4.5 3.5
8 0
inf 0


"layer 6:"
-inf 0
1 0
4.5 3.5
8 0
inf 0


"layer 7:"
-inf 0
2 0
2.5 0.5
3 0
7 0
7.5 0.5
8 0
inf 0


