# persistence landscape
# X Y
"layer 0:"
-inf 0
1 0
3062.5 3061.5
6124 0
inf 0


"layer 1:"
-inf 0
1 0
15 14
29 0
inf 0


"layer 2:"
-inf 0
1 0
14 13
27 0
inf 0


"layer 3:"
-inf 0
1 0
13.5 12.5
26 0
inf 0


"layer 4:"
-inf 0
1 0
13 12
25 0
inf 0


"layer 5:"
-inf 0
1 0
12.5 11.5
24 0
inf 0


"layer 6:"
-inf 0
1 0
12.5 11.5
24 0
inf 0


"layer 7:"
-inf 0
1 0
12 11
23 0
inf 0


"layer 8:"
-inf 0
1 0
12 11
23 0
inf 0


"layer 9:"
-inf 0
1 0
12 11
23 0
inf 0


"layer 10:"
-inf 0
1 0
12 11
23 0
inf 0


"layer 11:"
-inf 0
1 0
12 11
23 0
inf 0


"layer 12:"
-inf 0
1 0
12 11
23 0
inf 0


"layer 13:"
-inf 0
1 0
12 11
23 0
inf 0


"layer 14:"
-inf 0
1 0
12 11
23 0
inf 0


"layer 15:"
-inf 0
1 0
12 11
23 0
inf 0


"layer 16:"
-inf 0
1 0
12 11
23 0
inf 0


"layer 17:"
-inf 0
1 0
12 11
23 0
inf 0


"layer 18:"
-inf 0
1 0
12 11
23 0
inf 0


"layer 19:"
-inf 0
1 0
12 11
23 0
inf 0


"layer 20:"
-inf 0
1 0
12 11
23 0
inf 0


"layer 21:"
-inf 0
1 0
5.5 4.5
10 0
22 0
22.5 0.5
23 0
inf 0


"layer 22:"
-inf 0
1 0
5 4
9 0
inf 0


"layer 23:"
-inf 0
1 0
4.5 3.5
8 0
inf 0


"layer 24:"
-inf 0
1 0
4.5 3.5
8 0
inf 0


"layer 25:"
-inf 0
1 0
4.5 3.5
8 0
inf 0


"layer 26:"
-inf 0
1 0
4.5 3.5
8 0
inf 0


"layer 27:"
-inf 0
1 0
4.5 3.5
8 0
inf 0


"layer 28:"
-inf 0
1 0
4.5 3.5
8 0
inf 0


"layer 29:"
-inf 0
1 0
4 3
7 0
7.5 0.5
8 0
inf 0


"layer 30:"
-inf 0
1 0
4 3
7 0
inf 0


"layer 31:"
-inf 0
1 0
3.5 2.5
6 0
6.5 0.5
7 0
inf 0


"layer 32:"
-inf 0
1 0
3.5 2.5
6 0
inf 0


"layer 33:"
-inf 0
1 0
2.5 1.5
3 1
3.5 1.5
5 0
5.5 0.5
6 0
inf 0


"layer 34:"
-inf 0
1 0
2.5 1.5
4 0
4.5 0.5
5 0
inf 0


"layer 35:"
-inf 0
2 0
3 1
4 0
inf 0


"layer 36:"
-inf 0
2 0
2.5 0.5
3 0
3.5 0.5
4 0
inf 0


"layer 37:"
-inf 0
2 0
2.5 0.5
3 0
3.5 0.5
4 0
inf 0


"layer 38:"
-inf 0
2 0
2.5 0.5
3 0
3.5 0.5
4 0
inf 0


"layer 39:"
-inf 0
2 0
2.5 0.5
3 0
inf 0


