# persistence landscape
# X Y
"layer 0:"
-inf 0
6 0
3065 3059
6124 0
inf 0


"layer 1:"
-inf 0
10 0
3067 3057
6124 0
inf 0


"layer 2:"
-inf 0
11 0
3067.5 3056.5
6124 0
inf 0


"layer 3:"
-inf 0
13 0
3068.5 3055.5
6124 0
inf 0


"layer 4:"
-inf 0
13 0
3068.5 3055.5
6124 0
inf 0


"layer 5:"
-inf 0
14 0
3069 3055
6124 0
inf 0


"layer 6:"
-inf 0
14 0
3069 3055
6124 0
inf 0


"layer 7:"
-inf 0
14 0
3069 3055
6124 0
inf 0


"layer 8:"
-inf 0
15 0
3069.5 3054.5
6124 0
inf 0


"layer 9:"
-inf 0
15 0
3069.5 3054.5
6124 0
inf 0


"layer 10:"
-inf 0
16 0
3070 3054
6124 0
inf 0


"layer 11:"
-inf 0
17 0
3070.5 3053.5
6124 0
inf 0


"layer 12:"
-inf 0
17 0
3070.5 3053.5
6124 0
inf 0


"layer 13:"
-inf 0
17 0
3070.5 3053.5
6124 0
inf 0


"layer 14:"
-inf 0
49 0
3086.5 3037.5
6124 0
inf 0


"layer 15:"
-inf 0
49 0
3086.5 3037.5
6124 0
inf 0


"layer 16:"
-inf 0
49 0
3086.5 3037.5
6124 0
inf 0


"layer 17:"
-inf 0
50 0
3087 3037
6124 0
inf 0


"layer 18:"
-inf 0
51 0
3087.5 3036.5
6124 0
inf 0


"layer 19:"
-inf 0
51 0
3087.5 3036.5
6124 0
inf 0


"layer 20:"
-inf 0
51 0
3087.5 3036.5
6124 0
inf 0


"layer 21:"
-inf 0
51 0
3087.5 3036.5
6124 0
inf 0


"layer 22:"
-inf 0
51 0
3087.5 3036.5
6124 0
inf 0


"layer 23:"
-inf 0
52 0
3088 3036
6124 0
inf 0


"layer 24:"
-inf 0
54 0
3089 3035
6124 0
inf 0


"layer 25:"
-inf 0
54 0
3089 3035
6124 0
inf 0


"layer 26:"
-inf 0
55 0
3089.5 3034.5
6124 0
inf 0


