# persistence landscape
# X Y
"layer 0:"
-inf 0
11 0
3067.5 3056.5
6124 0
inf 0


"layer 1:"
-inf 0
11 0
3067.5 3056.5
6124 0
inf 0


"layer 2:"
-inf 0
56 0
3090 3034
6124 0
inf 0


"layer 3:"
-inf 0
56 0
3090 3034
6124 0
inf 0


"layer 4:"
-inf 0
56 0
3090 3034
6124 0
inf 0


"layer 5:"
-inf 0
56 0
3090 3034
6124 0
inf 0


"layer 6:"
-inf 0
56 0
3090 3034
6124 0
inf 0


"layer 7:"
-inf 0
57 0
3090.5 3033.5
6124 0
inf 0


"layer 8:"
-inf 0
57 0
3090.5 3033.5
6124 0
inf 0


"layer 9:"
-inf 0
57 0
3090.5 3033.5
6124 0
inf 0


"layer 10:"
-inf 0
57 0
3090.5 3033.5
6124 0
inf 0


"layer 11:"
-inf 0
57 0
3090.5 3033.5
6124 0
inf 0


"layer 12:"
-inf 0
59 0
3091.5 3032.5
6124 0
inf 0


"layer 13:"
-inf 0
59 0
3091.5 3032.5
6124 0
inf 0


"layer 14:"
-inf 0
59 0
3091.5 3032.5
6124 0
inf 0


"layer 15:"
-inf 0
59 0
3091.5 3032.5
6124 0
inf 0


"layer 16:"
-inf 0
61 0
3092.5 3031.5
6124 0
inf 0


"layer 17:"
-inf 0
61 0
3092.5 3031.5
6124 0
inf 0


"layer 18:"
-inf 0
65 0
3094.5 3029.5
6124 0
inf 0


