# persistence landscape
# X Y
"layer 0:"
-inf 0
8 0
3066 3058
6124 0
inf 0


"layer 1:"
-inf 0
12 0
3068 3056
6124 0
inf 0


"layer 2:"
-inf 0
12 0
3068 3056
6124 0
inf 0


"layer 3:"
-inf 0
13 0
3068.5 3055.5
6124 0
inf 0


"layer 4:"
-inf 0
15 0
3069.5 3054.5
6124 0
inf 0


"layer 5:"
-inf 0
27 0
3075.5 3048.5
6124 0
inf 0


"layer 6:"
-inf 0
27 0
3075.5 3048.5
6124 0
inf 0


"layer 7:"
-inf 0
27 0
3075.5 3048.5
6124 0
inf 0


"layer 8:"
-inf 0
28 0
3076 3048
6124 0
inf 0


"layer 9:"
-inf 0
28 0
3076 3048
6124 0
inf 0


"layer 10:"
-inf 0
28 0
3076 3048
6124 0
inf 0


"layer 11:"
-inf 0
28 0
3076 3048
6124 0
inf 0


"layer 12:"
-inf 0
31 0
3077.5 3046.5
6124 0
inf 0


"layer 13:"
-inf 0
31 0
3077.5 3046.5
6124 0
inf 0


"layer 14:"
-inf 0
32 0
3078 3046
6124 0
inf 0


"layer 15:"
-inf 0
34 0
3079 3045
6124 0
inf 0


"layer 16:"
-inf 0
34 0
3079 3045
6124 0
inf 0


