0.109109	0.113602
0.120121	0.151791
0.122008	0.134341
0.123867	0.132983
0.124813	0.126149
0.12537	0.13438
0.12727	0.16062
0.12987	0.132576
0.130916	0.144859
0.136737	0.143047
0.142656	0.156354
0.145622	0.439863
0.151537	0.162666
0.153258	0.155949
0.15597	0.226429
0.156261	0.206303
0.156722	0.159605
0.157817	0.19364
0.160718	0.201458
0.16398	0.266129
0.164205	0.213684
0.16548	0.188977
0.166401	0.198746
0.167367	0.19635
0.16866	0.285509
0.170587	0.189163
0.17254	0.336945
0.172558	0.209148
0.175146	0.458008
0.176092	0.367183
0.17702	0.36937
0.177805	0.285212
0.17792	0.293386
0.178962	0.241429
0.179435	0.202513
0.179661	0.192337
0.184705	0.204054
0.184727	0.239491
0.190044	0.358798
0.191968	0.265645
0.192028	0.272743
0.192562	0.217396
0.193077	0.267681
0.193269	0.2327
0.193387	0.218445
0.197828	0.243722
0.198476	0.285409
0.205543	0.405656
0.206023	0.264914
0.208531	0.230855
0.208725	0.234475
0.213133	0.337219
0.215078	0.218771
0.215751	0.306665
0.222269	0.248699
0.222415	0.281343
0.230167	0.250702
0.230584	0.237543
0.230883	0.270907
0.2314	0.232067
0.231615	0.311853
0.239156	0.246883
0.244168	0.295485
0.255663	0.287395
0.297643	0.307122
0.311333	0.333931
