0.0794991	0.0818751
0.0810192	0.0897574
0.102544	0.102651
0.113759	0.113796
0.115394	0.116164
0.117411	0.126215
0.133646	0.136253
0.13374	0.145827
0.136204	0.196995
0.140731	0.177808
0.140788	0.156501
0.141599	0.146836
0.143814	0.227617
0.144081	0.204784
0.144742	0.243035
0.148299	0.198728
0.148743	0.261733
0.151464	0.172049
0.151774	0.188161
0.152078	0.154914
0.152689	0.178356
0.154038	0.172844
0.155739	0.190636
0.156032	0.209451
0.157933	0.178375
0.160029	0.194684
0.162672	0.439338
0.167764	0.190079
0.169718	0.175056
0.170024	0.174244
0.17075	0.243429
0.17155	0.190917
0.172801	0.336953
0.173347	0.350228
0.173672	0.463119
0.176247	0.346461
0.176481	0.220303
0.177733	0.314771
0.17845	0.204081
0.178968	0.308717
0.180566	0.248679
0.182665	0.191948
0.183267	0.185182
0.184297	0.233565
0.184451	0.296971
0.187827	0.297143
0.188884	0.299581
0.188995	0.285918
0.19062	0.20447
0.191209	0.197196
0.195156	0.208782
0.199284	0.209164
0.201004	0.236769
0.202101	0.280767
0.202764	0.259273
0.205455	0.326553
0.208635	0.210593
0.212927	0.275625
0.213806	0.280593
0.214435	0.263096
0.216902	0.253564
0.218545	0.307011
0.219963	0.221001
0.223637	0.223891
0.231905	0.302588
0.232336	0.249555
0.233155	0.29547
0.234486	0.244435
0.235033	0.238733
0.235222	0.237926
0.236329	0.240029
0.236827	0.241387
0.271922	0.295762
0.274005	0.285229
0.291418	0.359218
