0.11572	0.216
0.12098	0.133058
0.127641	0.133295
0.130641	0.153553
0.131384	0.134272
0.137912	0.154321
0.145776	0.207003
0.145959	0.437763
0.146677	0.250227
0.14987	0.164946
0.151365	0.284737
0.153393	0.260433
0.153593	0.181059
0.155276	0.362509
0.157439	0.174111
0.15888	0.169308
0.160351	0.239774
0.165198	0.212187
0.166555	0.181098
0.16789	0.26271
0.168505	0.181147
0.168884	0.342296
0.172283	0.269567
0.174048	0.27488
0.174713	0.221883
0.175312	0.185842
0.17631	0.229255
0.176567	0.203653
0.178146	0.213371
0.178664	0.274972
0.179113	0.454982
0.179212	0.269601
0.182107	0.267008
0.182761	0.304385
0.183616	0.199075
0.183943	0.275792
0.184507	0.22851
0.186834	0.334068
0.187039	0.229154
0.188469	0.193463
0.191257	0.213269
0.194294	0.252907
0.194767	0.270743
0.19648	0.252202
0.202558	0.262379
0.203196	0.234305
0.205941	0.219093
0.206975	0.332515
0.208766	0.221067
0.210405	0.228473
0.211083	0.32066
0.211492	0.225429
0.212677	0.234271
0.21636	0.281792
0.217365	0.258001
0.220414	0.259249
0.221264	0.223063
0.224483	0.258256
0.247153	0.298772
0.248623	0.24884
0.251894	0.305972
0.257274	0.261269
0.258481	0.34515
0.267519	0.283261
0.285296	0.300616
0.298022	0.31368
0.319532	0.329574
