0.0999306	0.13281
0.104096	0.119421
0.113536	0.14259
0.115943	0.12051
0.125535	0.171957
0.125537	0.161634
0.129157	0.134725
0.130158	0.130375
0.130451	0.168391
0.13331	0.146675
0.134298	0.180254
0.1345	0.158845
0.134719	0.144718
0.137362	0.158575
0.14056	0.176927
0.143004	0.155909
0.14419	0.172468
0.146847	0.244738
0.151067	0.156855
0.152897	0.193612
0.155586	0.439505
0.157948	0.170702
0.159121	0.224139
0.163692	0.17859
0.167579	0.191811
0.172151	0.306523
0.173644	0.235228
0.17506	0.474089
0.177279	0.299445
0.179247	0.179526
0.179277	0.379241
0.179312	0.362591
0.180189	0.190019
0.181155	0.203405
0.181581	0.254011
0.182966	0.258821
0.183925	0.330635
0.18489	0.335564
0.184942	0.241043
0.186207	0.187903
0.188883	0.271328
0.189268	0.280364
0.189931	0.304376
0.19246	0.207755
0.192704	0.192978
0.192706	0.240538
0.193525	0.21142
0.193818	0.207886
0.194419	0.229095
0.196192	0.237552
0.196547	0.244524
0.198463	0.200426
0.198643	0.252201
0.203922	0.205363
0.207409	0.246043
0.209168	0.218888
0.210029	0.314284
0.211773	0.250403
0.217256	0.286561
0.230255	0.358166
0.235235	0.326127
0.235628	0.250708
0.236048	0.252927
0.241087	0.243738
0.246383	0.313087
0.24674	0.266642
0.255068	0.272727
0.263346	0.280905
0.26666	0.289678
0.276608	0.297939
0.30167	0.345294
0.305021	0.344578
0.305608	0.308624
0.323028	0.337982
