0.0937454	0.0998793
0.094385	0.0960344
0.101118	0.122482
0.105926	0.125534
0.108734	0.123604
0.113341	0.122972
0.116341	0.116377
0.12203	0.141353
0.126187	0.141478
0.148429	0.150478
0.14999	0.178766
0.153768	0.213796
0.155996	0.198144
0.159882	0.205038
0.160144	0.179042
0.161699	0.192738
0.16424	0.182438
0.164827	0.294413
0.167121	0.181561
0.174638	0.192534
0.17568	0.282251
0.177241	0.231669
0.177488	0.270427
0.177633	0.29877
0.179218	0.237778
0.179523	0.237274
0.17987	0.439582
0.180578	0.311703
0.18271	0.192807
0.182949	0.227518
0.183434	0.41056
0.184994	0.192837
0.186131	0.455372
0.189249	0.230043
0.192683	0.222583
0.195552	0.209786
0.195957	0.197816
0.198807	0.23456
0.199252	0.223613
0.201025	0.337699
0.201475	0.332526
0.202409	0.298023
0.205647	0.211409
0.205724	0.248252
0.206479	0.228092
0.214403	0.306361
0.223113	0.277564
0.224668	0.280107
0.22798	0.252895
0.227993	0.327568
0.230225	0.320611
0.232569	0.263997
0.233336	0.252793
0.234603	0.335807
0.238345	0.267561
0.243028	0.296876
0.247678	0.255949
0.257372	0.273741
0.265241	0.319073
0.267182	0.324719
0.27314	0.28833
0.27508	0.282363
0.311655	0.314918
