0.0992623	0.168714
0.10966	0.129745
0.113304	0.153073
0.123599	0.130682
0.130429	0.143898
0.131138	0.132962
0.13577	0.203856
0.137357	0.176692
0.13795	0.164832
0.138	0.150721
0.138151	0.145314
0.138653	0.170238
0.139789	0.141666
0.145008	0.166055
0.145371	0.182127
0.150991	0.435187
0.151494	0.271366
0.151765	0.226121
0.153551	0.22592
0.153769	0.20641
0.153846	0.163429
0.157123	0.159697
0.16001	0.259873
0.161918	0.174175
0.165889	0.175164
0.166791	0.223682
0.168102	0.201619
0.16874	0.315264
0.170353	0.21954
0.170434	0.187963
0.171486	0.181356
0.172642	0.184328
0.174029	0.205681
0.176293	0.266252
0.178441	0.450565
0.178451	0.205135
0.180134	0.186004
0.18043	0.183552
0.182257	0.328399
0.182503	0.265569
0.182524	0.192128
0.183525	0.324601
0.186069	0.309042
0.186328	0.305133
0.188259	0.264018
0.189177	0.233663
0.190008	0.202182
0.191335	0.197192
0.191573	0.218341
0.194223	0.300079
0.194555	0.198046
0.196912	0.301434
0.197916	0.273157
0.198112	0.222186
0.198822	0.229551
0.198839	0.228091
0.198892	0.283381
0.200338	0.269401
0.201191	0.217839
0.207872	0.296487
0.208969	0.239194
0.214289	0.318128
0.215821	0.245067
0.217124	0.22504
0.221434	0.261718
0.223205	0.2622
0.231736	0.233852
0.231762	0.260232
0.236718	0.274003
0.238586	0.240549
0.239739	0.272087
0.240878	0.244759
0.242399	0.259871
0.24322	0.321271
0.246676	0.257135
0.252142	0.25219
0.254693	0.271059
0.262212	0.277327
0.273439	0.285961
0.274146	0.275481
