0.0754397	0.0756006
0.115186	0.116009
0.125916	0.158655
0.127658	0.158072
0.131137	0.178542
0.131206	0.168798
0.132111	0.133467
0.139489	0.171296
0.142034	0.160444
0.14235	0.157197
0.14694	0.147362
0.146949	0.180027
0.153028	0.437668
0.156709	0.294251
0.156741	0.160574
0.157432	0.279533
0.157609	0.180336
0.159672	0.202271
0.163369	0.200899
0.163701	0.215933
0.164888	0.231501
0.16624	0.271855
0.166276	0.258871
0.169067	0.177591
0.170036	0.354562
0.173317	0.200578
0.173751	0.29225
0.174648	0.191293
0.175525	0.21335
0.175603	0.241668
0.176454	0.185035
0.177048	0.269544
0.177601	0.256439
0.177886	0.219253
0.178095	0.182644
0.179031	0.248293
0.181249	0.248264
0.181858	0.461005
0.183402	0.218136
0.185879	0.235298
0.186753	0.216543
0.187305	0.196543
0.187657	0.196603
0.189407	0.204006
0.196191	0.261367
0.203271	0.210132
0.203986	0.213146
0.205908	0.293106
0.210029	0.236048
0.210653	0.235206
0.214383	0.243698
0.222743	0.261544
0.223016	0.276172
0.227253	0.264655
0.231766	0.37225
0.233838	0.26659
0.236764	0.291655
0.23968	0.26617
0.244148	0.379445
0.250778	0.260078
0.259176	0.317997
0.264033	0.265025
0.291186	0.314544
0.29289	0.29776
0.354874	0.368107
