0.0934127	0.114667
0.0973663	0.100743
0.099722	0.111484
0.105467	0.105753
0.110597	0.119992
0.12289	0.15383
0.123462	0.234336
0.124175	0.13848
0.131548	0.134014
0.134159	0.165628
0.134296	0.191514
0.138043	0.14826
0.138641	0.149532
0.141808	0.212025
0.144124	0.207823
0.14459	0.174304
0.144738	0.20823
0.145522	0.151908
0.14771	0.156828
0.14824	0.161875
0.149226	0.153269
0.152592	0.179864
0.153493	0.161531
0.154341	0.16029
0.161243	0.269784
0.161998	0.22223
0.162012	0.17801
0.165174	0.173242
0.166323	0.170313
0.166972	0.184301
0.170023	0.271386
0.170259	0.435297
0.172349	0.241644
0.178724	0.379622
0.181704	0.306858
0.182064	0.266452
0.182638	0.202298
0.182706	0.190012
0.183131	0.192849
0.183146	0.192561
0.183675	0.194223
0.188127	0.197585
0.189274	0.325782
0.189823	0.190326
0.190435	0.296064
0.193433	0.48608
0.195496	0.259871
0.19737	0.322469
0.197428	0.23202
0.19902	0.213836
0.199943	0.204384
0.200502	0.282824
0.200803	0.205137
0.201124	0.226594
0.202239	0.30527
0.202406	0.229384
0.206866	0.291235
0.207685	0.332252
0.208514	0.245123
0.213814	0.219632
0.216647	0.22299
0.219369	0.298857
0.224432	0.287421
0.236204	0.255382
0.237834	0.282645
0.239085	0.287082
0.240736	0.270147
0.243453	0.350086
0.253884	0.268298
0.256795	0.27809
0.269804	0.322922
0.270121	0.304395
0.272889	0.29582
0.28634	0.286521
0.321966	0.331498
0.34112	0.348771
