0.285241	0.112205	0.158316
0.251985	-0.117281	0.114848
-0.212658	0.516818	-0.242972
-0.355952	0.294164	-0.24706
0.0846549	-0.524143	-0.248079
0.46641	-0.132246	-0.249537
0.207632	-0.185059	0.115216
-0.253445	-0.184932	-0.166757
0.123853	0.37806	0.228169
-0.120916	-0.642472	0.19713
-0.539516	0.165864	-0.241553
0.329966	-0.586563	0.180471
-0.259566	0.419937	0.24992
0.439087	0.403415	-0.23072
0.252594	-0.0132886	-0.03825
0.0761461	-0.511991	0.249378
-0.235217	-0.248509	-0.193885
-0.122781	0.655783	-0.18588
0.000832477	0.617698	-0.220561
-0.657625	0.360496	-0.00488836
0.371517	0.432982	0.239846
-0.689384	0.0517371	-0.160921
-0.609965	-0.429147	0.0456087
-0.672632	0.294125	-0.0876605
0.380391	0.125199	0.229331
0.0684001	-0.746363	-0.0159511
0.735313	-0.124462	-0.0457849
0.0166955	-0.386814	0.223093
-0.452066	-0.15006	-0.248876
0.419842	0.112167	0.241285
0.694861	0.123239	0.142076
-0.103929	0.439801	0.245332
-0.503162	-0.484012	-0.152412
0.649596	-0.367897	-0.041442
0.341097	-0.343965	-0.249514
-0.475817	-0.164255	-0.249977
0.16758	0.325508	0.211126
0.35037	-0.345125	-0.249866
-0.450237	0.543587	0.14189
-0.397348	-0.380866	-0.244866
-0.287487	0.685278	-0.0581689
-0.19881	-0.478476	0.249341
-0.0800276	0.623932	-0.214121
-0.690983	-0.282571	0.0415232
0.252036	-0.0316112	0.0446031
0.181124	-0.708905	0.0939444
0.685559	0.294847	-0.0429975
-0.332937	-0.617489	0.147942
-0.540346	-0.2548	-0.230243
0.478047	-0.564772	0.0702412
0.258954	0.439471	0.249796
0.0298592	-0.33872	-0.192122
0.474626	-0.221869	0.248853
