0.618268	-0.140439	0.211043
-0.0663747	-0.524635	0.248334
-0.107372	-0.740958	-0.0254889
0.281803	-0.424652	0.249814
0.70768	0.248357	0.00159299
0.374834	-0.646521	0.0364929
-0.630609	0.3466	-0.119513
0.1357	-0.223367	-0.0744956
0.60691	-0.121633	0.219873
-0.359947	-0.180267	-0.230231
-0.0752738	0.599463	-0.227263
-0.423078	0.616146	-0.035847
-0.14309	-0.334103	-0.209417
0.746304	-0.0224805	0.0408369
-0.584481	0.329395	-0.182456
0.714565	0.11001	0.113041
0.27849	-0.14027	0.164587
-0.0301278	-0.463173	-0.247417
-0.282748	-0.591598	0.1956
0.153471	0.652592	-0.182936
0.120259	-0.485745	-0.25
0.140387	0.243056	0.120006
0.51305	-0.0802515	0.249255
-0.25945	-0.472836	0.246885
0.246522	-0.33271	0.234775
-0.181552	-0.203551	-0.104206
0.0604403	-0.524409	-0.248441
0.2835	0.107471	-0.154158
-0.0435382	-0.563239	-0.241424
-0.742501	0.0854365	0.0359632
-0.616753	0.0323802	0.220612
0.332881	-0.148808	-0.210177
0.342702	0.19866	-0.227396
-0.688669	-0.0264955	0.163436
-0.348874	0.562123	-0.190762
0.584486	0.10295	-0.231864
-0.748917	0.00120308	-0.0232311
0.548058	0.0398997	-0.245049
0.237925	0.673109	-0.129373
0.424577	-0.136727	0.244109
0.247012	0.291547	-0.220463
-0.253936	-0.0965938	-0.101849
-0.404516	0.378517	0.2441
-0.134646	0.522473	-0.246853
0.193978	0.666592	-0.157385
-0.695682	0.265469	-0.0516207
-0.696332	-0.0161235	0.154533
-0.388381	0.194647	0.241247
0.247733	0.160121	0.143056
-0.335656	0.649506	-0.0953297
0.588842	0.0158243	-0.233601
