0.613002	0.0315551	-0.22259
0.238524	0.482143	-0.247108
0.480519	0.270236	0.244681
0.0607507	-0.727386	-0.098171
-0.0129509	-0.729531	0.0988074
0.114938	-0.715892	0.108847
-0.150007	-0.282734	-0.17356
0.466265	-0.537408	-0.13332
0.035264	-0.333756	0.188354
0.638679	0.0341922	-0.207397
-0.431758	-0.258624	0.249978
-0.0788218	-0.267158	0.116004
-0.305432	0.334798	-0.245578
-0.162939	0.541039	-0.241391
-0.189125	-0.514925	-0.245239
0.534478	-0.410372	-0.179657
-0.55235	-0.499329	0.0517106
0.649416	-0.0423909	0.199399
-0.16818	0.645637	0.185877
0.547161	-0.426134	-0.158267
0.262628	0.255434	0.211283
-0.659168	0.345638	0.0531256
-0.595844	0.416487	0.104799
-0.65753	0.321328	-0.0935308
-0.019722	0.265411	0.0883783
0.651309	-0.269149	-0.143476
0.313513	0.131403	-0.192041
-0.486582	0.229358	0.247106
-0.357722	0.627671	0.114086
-0.529285	-0.0761679	0.247575
-0.492418	-0.195398	-0.248221
-0.030589	-0.651301	-0.19847
-0.399073	0.630916	-0.0414803
-0.14486	-0.348073	0.217656
0.72168	0.0459251	0.112733
-0.505658	0.329838	-0.227467
-0.443944	-0.590637	0.073743
0.633257	0.401495	-0.00978873
-0.488061	-0.514703	0.136707
0.40841	0.598606	0.109677
-0.620086	-0.0270516	-0.218946
-0.292302	0.561517	-0.21166
-0.580777	0.435049	-0.107618
0.0987586	-0.395318	-0.232245
-0.478794	-0.359834	-0.22959
-0.199366	-0.466309	-0.249898
-0.683025	-0.30295	0.0373357
-0.259431	0.458804	0.24853
0.207642	-0.148611	-0.0514124
0.18606	0.477816	0.249674
0.0231058	-0.394693	-0.227051
0.305529	-0.166361	0.198396
0.551183	0.453892	-0.129215
0.576708	-0.475393	0.0360337
-0.109147	-0.734448	-0.0607204
0.429507	-0.356184	-0.243183
0.730419	0.0897213	-0.0827457
0.0829113	0.368407	0.217999
0.0136913	-0.653139	0.197495
-0.604792	0.440507	-0.0298507
-0.38612	-0.0984186	0.228453
0.614128	-0.32412	-0.157176
-0.662234	-0.110177	-0.182054
