-0.00329568	0.74533	-0.0480585
0.24725	-0.698109	0.0679103
0.049009	-0.672261	0.179467
-0.0517162	0.456818	-0.246736
-0.261948	-0.118451	0.131671
0.675866	0.180922	-0.150449
0.547019	-0.0176544	0.245484
-0.260264	-0.607547	-0.191301
-0.541003	-0.355424	0.201989
-0.526762	-0.154582	-0.245156
-0.315268	0.0287075	0.169866
-0.356666	0.203189	-0.233424
0.336115	-0.262229	0.238892
0.429423	0.566876	0.133829
-0.720045	0.120475	0.097853
-0.0956656	0.616121	-0.217363
-0.407157	0.0649624	0.234115
-0.433603	-0.290733	0.249026
0.422864	-0.559085	-0.148668
-0.280174	-0.376327	0.248092
-0.318549	0.243102	-0.22944
0.216049	-0.126076	0.00850151
0.0274057	0.253704	0.0506278
0.396708	-0.617075	-0.0890757
-0.56645	0.281102	0.212085
-0.242304	0.0799903	-0.0505587
-0.581185	0.418062	0.125998
0.30836	-0.226102	-0.220598
-0.44473	-0.602843	0.0207697
-0.313382	-0.214025	-0.219039
0.526406	0.15819	-0.245018
-0.11058	0.280119	0.151528
0.295626	0.662474	-0.108054
0.689826	-0.291357	0.0241421
0.628015	0.190525	-0.195133
-0.0454825	0.667152	-0.1845
0.16606	-0.204754	0.0814163
0.21834	0.565057	-0.226521
-0.148452	-0.201595	0.0133502
-0.480389	-0.57372	-0.0292465
-0.159496	-0.33208	0.212557
-0.479572	0.564697	0.0669854
0.729187	0.162586	-0.0380144
0.0023811	0.325514	0.179046
-0.390258	-0.17308	-0.239079
0.555679	0.092317	-0.241855
