-0.692864	0.265743	0.0624341
0.164989	-0.658884	0.174292
-0.276762	0.686636	-0.0689116
0.475145	-0.155988	-0.25
-0.477338	-0.222303	0.248585
0.680746	-0.0725173	-0.168593
0.501705	-0.538432	-0.0826412
0.329179	0.0539675	-0.186553
0.533865	0.468482	0.135223
-0.615931	-0.403336	0.0817949
0.107173	-0.732427	-0.0692188
-0.357504	-0.281237	-0.245892
-0.47777	0.578119	0.00220775
0.671305	-0.277449	0.106076
-0.737603	-0.0947347	0.0559365
0.177027	0.46079	-0.249919
0.20286	-0.146841	0.014628
-0.258205	-0.698243	0.0523632
-0.119508	0.389318	-0.232157
0.248649	0.530776	-0.234694
0.714742	-0.0132213	0.127802
-0.376897	-0.161568	0.233264
0.689286	-0.282093	-0.0508403
-0.302786	-0.666133	0.0938427
-0.42105	0.239869	0.249524
0.618257	-0.421924	0.0272887
-0.213613	0.131719	-0.0218799
-0.456288	-0.303587	0.245338
0.23768	0.394037	-0.246807
0.235159	-0.705498	0.0559525
-0.432124	-0.345804	-0.244218
0.695735	-0.196948	-0.112863
-0.262063	0.630074	0.170969
0.439067	0.569626	0.120208
0.289343	-0.600208	-0.186657
0.316671	-0.262702	-0.233793
0.0915803	-0.287297	-0.152033
-0.128748	-0.625176	0.208265
-0.545429	0.186661	0.238013
0.146038	-0.585693	0.227512
0.36669	-0.575158	0.171282
-0.679349	-0.179152	0.146505
0.334725	0.595476	0.170213
0.0197171	0.313422	0.167091
0.140181	0.253777	0.135523
0.000612018	0.74859	0.0265082
-0.211042	0.186204	-0.121381
-0.300926	0.618718	0.164771
-0.0422632	0.248333	-0.0307969
-0.158027	-0.242975	-0.135405
-0.535704	0.0346768	0.247273
0.23337	-0.1563	0.120353
0.128512	-0.410292	0.239985
-0.0998515	0.706457	0.130104
-0.670584	0.0148591	0.182606
