-0.233794	0.162891	-0.127479
-0.724262	0.185953	-0.0334478
-0.401102	-0.632515	0.0226568
0.398191	-0.349901	0.248184
0.636312	0.0509832	-0.208228
0.600015	0.377425	0.137411
0.110427	0.374368	-0.224653
0.520976	-0.0845185	0.248451
0.104326	0.741982	-0.0189548
0.702745	0.0696177	0.141378
-0.250529	-0.103401	0.100359
0.232124	0.584953	-0.21395
0.23821	-0.422366	-0.249544
0.0494254	0.344699	0.198656
0.112008	-0.485643	0.249995
-0.421055	0.219146	-0.248714
0.655137	-0.336525	0.0810006
0.490492	-0.567354	-0.00300348
-0.583406	0.455228	0.0700112
-0.462873	0.357796	0.235093
-0.253384	-0.700514	-0.0500827
0.118165	0.311469	-0.186157
0.320559	-0.189424	0.214951
0.340034	-0.0264869	-0.192975
0.31319	-0.469842	0.241494
-0.0681362	0.614323	-0.220352
0.52741	0.0567818	0.248138
0.394425	0.49454	-0.211958
0.516279	-0.287667	-0.232845
0.218355	0.124399	-0.0255091
-0.19298	0.264208	0.180647
0.0181126	0.353228	0.202716
0.460494	0.585817	-0.0490442
-0.371696	-0.61487	0.121506
-0.63465	-0.382777	0.0659409
0.368279	-0.348258	-0.249906
0.337875	0.581002	0.18133
-0.702992	0.123415	-0.129669
-0.327869	0.656403	-0.0887091
-0.0534866	0.377343	0.219923
0.0864194	0.730143	-0.0846321
-0.0638909	0.594485	0.23003
-0.423913	0.609925	-0.0596782
-0.737073	-0.136052	0.0154147
0.042185	0.645583	-0.202245
-0.115334	-0.465892	0.249195
0.637167	0.388039	-0.0443926
-0.588052	-0.141608	0.226945
0.418497	0.0244439	-0.236586
0.255773	-0.692448	-0.075973
-0.330253	0.635016	0.126284
0.748599	0.027789	-0.0210275
0.389846	-0.0580359	0.226482
0.522949	0.380331	0.202485
0.405459	-0.313858	-0.249675
0.264905	-0.0608819	0.102126
-0.224267	-0.620919	-0.191945
0.21165	0.176623	0.110336
-0.416801	0.470848	-0.214253
-0.602959	0.36112	0.146154
-0.645814	0.375854	-0.0371631
-0.0948223	-0.442638	0.245481
