0.196788	0.208551	-0.130459
-0.319615	0.483708	-0.236934
-0.256124	-0.386261	-0.247316
-0.0020668	0.637094	0.209056
0.0488612	0.315035	-0.172242
0.156634	0.722728	-0.0716707
0.172541	0.224941	0.125001
0.55251	-0.084411	0.242957
0.45078	0.0709984	-0.246158
0.439854	-0.527941	0.16574
0.240867	0.271874	-0.209267
0.229149	0.209876	0.163338
0.21105	-0.405984	0.246372
0.510706	-0.254072	-0.239879
-0.577022	-0.476482	0.0288935
-0.384883	-0.319299	0.25
-0.409039	-0.271888	-0.249844
0.639331	0.160802	-0.192722
0.289617	-0.107736	-0.161312
0.0117387	0.413509	-0.234623
-0.220093	0.705727	0.0725203
-0.374654	-0.485117	-0.223031
0.329902	0.670818	0.0349063
0.604409	-0.443962	-0.00542012
-0.118933	-0.240954	-0.0948881
-0.717636	-0.151	0.0897086
0.278711	-0.610582	-0.182196
-0.527303	0.44269	-0.164226
-0.374523	-0.388916	0.246791
-0.263594	-0.0913741	0.116839
-0.687149	0.276923	0.0670132
-0.238452	-0.524756	-0.238042
-0.278106	-0.0404168	-0.120628
-0.59143	-0.450093	0.0578356
-0.629622	-0.395526	0.0564288
-0.606834	0.440741	-0.000358449
-0.696163	0.174958	-0.122712
0.352218	-0.0725696	0.206863
-0.148116	-0.206333	-0.0444924
-0.239199	-0.681151	-0.115096
0.0210178	-0.377163	0.21807
0.0311802	-0.358289	0.206881
0.638421	0.1616	0.193288
0.0536455	0.673739	-0.177678
-0.0866106	0.742029	-0.0381876
-0.0709263	-0.636971	-0.206507
0.161167	-0.727005	0.051419
