-0.404586	-0.589108	-0.128145
-0.206544	-0.693394	0.112011
-0.533829	0.383595	0.194265
-0.650574	-0.247367	-0.155171
-0.0554533	-0.55523	-0.243181
0.280602	0.0378261	0.124386
-0.297254	-0.0344635	-0.148988
-0.640925	0.342073	0.105825
0.439172	0.463363	-0.208184
0.370923	0.0373916	-0.215223
-0.366872	-0.449572	-0.236764
-0.279884	0.431841	0.249573
-0.222326	-0.119251	-0.0337545
-0.0670156	0.262112	0.0992457
0.398953	-0.627117	-0.0576491
-0.32598	-0.231556	-0.229064
-0.453891	-0.552267	-0.127821
-0.291439	-0.309109	-0.238433
-0.732994	0.14999	0.0300886
-0.0967046	0.248625	-0.0900208
0.37432	0.432988	-0.2393
-0.147509	-0.206798	-0.0446288
-0.464326	-0.162974	0.249875
0.0655863	0.392155	0.228067
-0.27628	-0.509296	0.237054
-0.524489	-0.429831	0.175426
0.721528	0.0282273	-0.114806
0.494123	-0.000336813	-0.249931
-0.334007	-0.659315	0.0730419
-0.638584	0.391838	0.0197626
0.502062	0.137527	0.249153
-0.510034	-0.448817	-0.174124
0.669438	-0.216031	-0.145311
0.181741	-0.460622	0.249954
-0.357511	0.151205	0.223594
0.459056	0.219648	-0.249842
0.329814	-0.637627	0.122597
-0.280256	0.0393815	0.124158
0.256547	-0.0739346	-0.0905841
0.070371	-0.462313	0.247897
0.416091	0.475182	0.212554
0.506262	-0.333342	-0.226345
-0.463615	0.439568	-0.207881
0.00585247	-0.276471	-0.112083
0.279025	0.694835	-0.0248052
