-0.25955	-0.395859	-0.248577
0.0151384	-0.629978	-0.213444
-0.182183	0.250128	-0.161826
-0.144181	0.344668	0.215698
0.711983	0.231482	0.0257732
-0.486526	0.0120982	-0.249645
0.125138	-0.370813	-0.22516
0.285992	-0.603356	-0.185406
0.0503833	0.624322	0.21572
-0.277689	-0.186543	-0.187401
-0.390718	-0.0891141	0.229455
-0.527139	-0.405926	0.187534
-0.734618	0.145314	0.0239265
-0.639826	0.389582	0.0211897
-0.0444961	-0.572745	0.238651
0.512855	0.0796801	0.249276
-0.53696	0.463671	-0.136497
0.428109	-0.332822	0.246402
0.508738	0.140424	0.248454
0.321938	-0.667459	-0.0663159
0.59478	-0.454235	-0.0282999
0.174047	-0.646032	0.184165
0.697115	-0.21604	-0.098392
-0.606525	0.32701	0.16357
0.39524	0.144109	-0.237087
-0.12309	-0.291859	-0.170061
-0.268688	-0.0277368	-0.0982502
-0.287039	0.0316525	-0.133738
0.709789	-0.0265171	0.135206
0.675233	0.288116	0.0876467
0.741202	-0.0125036	0.065352
0.727048	-0.179501	-0.0236474
0.52014	0.0848315	0.248536
-0.225338	0.703176	0.0752708
-0.094871	0.387156	0.228517
0.534737	0.396755	-0.187065
-0.112016	0.459099	-0.24849
-0.438186	-0.593331	0.0777699
-0.0621386	0.743366	0.044769
0.0925354	0.680608	0.166071
-0.557689	-0.0029387	-0.243251
-0.66507	-0.141193	-0.173606
-0.19059	-0.698003	-0.111906
-0.298076	0.338819	0.245205
-0.469417	0.561993	-0.0925225
0.386672	0.567385	0.166357
0.251173	-0.00341705	-0.0244247
-0.0706898	0.322427	0.183382
