0.18787	-0.262705	0.176522
-0.440679	0.000939711	0.24286
-0.536861	0.222078	0.236521
-0.0646885	-0.56856	-0.239339
-0.622225	0.169729	0.203684
0.702678	0.242672	-0.0570579
0.335881	-0.539634	0.210013
-0.391962	0.635451	-0.0410069
0.0724671	0.242199	0.0373632
0.31936	-0.482736	0.237252
-0.292076	-0.65559	0.122892
-0.277102	-0.0783892	0.132462
-0.341507	0.636106	0.114996
0.00390494	-0.289596	-0.135059
-0.316969	0.669242	-0.0682314
-0.654573	-0.224404	-0.160147
-0.17749	0.201625	-0.0946681
0.492635	-0.529131	-0.113091
-0.325866	-0.219544	-0.225908
0.683097	0.0370331	0.169136
0.202373	-0.179898	-0.0997755
-0.573483	-0.17751	-0.228986
-0.545482	-0.502103	0.0650475
0.381481	-0.134031	0.230975
0.170934	-0.534724	-0.242348
0.512985	-0.205595	-0.244393
0.17657	0.457358	-0.24981
0.0766489	0.709926	0.129159
-0.0567736	-0.419444	-0.237933
0.434436	-0.593123	-0.0847205
0.488515	-0.536279	0.108089
0.189293	0.163316	0.00201073
-0.50654	0.518931	-0.108621
0.595367	-0.428467	-0.0892772
-0.0226622	-0.724909	0.108428
0.0803905	0.714802	-0.120016
