-0.206791	-0.273157	-0.194232
-0.716642	-0.207245	-0.044505
-0.250529	0.017539	-0.0238653
-0.679343	0.311059	0.0375015
-0.730084	0.171254	-0.00704553
0.170412	-0.348242	-0.223358
-0.473571	0.41221	-0.21484
0.486906	-0.0637601	-0.24984
-0.4578	-0.586307	-0.055038
0.703364	0.233438	-0.0661484
-0.233009	0.113715	-0.0674709
0.370781	0.307478	-0.249328
-0.162791	-0.257654	0.156161
-0.529184	0.423493	0.175771
0.561103	0.230292	0.22617
0.634803	0.399397	0.00157533
-0.311151	-0.0682187	-0.171968
0.499733	-0.197812	0.247178
-0.276048	-0.147938	0.166139
-0.484327	0.137921	0.249974
0.572571	-0.353405	0.180614
-0.252652	-0.335929	-0.236967
0.619896	-0.225532	0.192386
-0.46179	0.0754574	-0.247933
0.632258	-0.391591	0.0557591
0.438268	-0.567298	-0.124363
0.143694	0.6796	0.156911
-0.304212	-0.518496	0.228623
0.338306	0.6306	-0.126528
-0.402669	-0.575986	0.146217
0.356799	0.0985041	-0.213631
-0.110803	-0.371507	0.223347
0.208312	0.713221	0.0586641
-0.592113	0.233588	-0.209431
-0.251873	0.417784	-0.249704
0.112089	-0.316765	-0.1887
-0.336596	0.630515	-0.128019
0.513936	-0.11803	0.248503
0.39715	-0.148578	0.238178
0.237209	0.410065	-0.248616
-0.325966	-0.186937	-0.216946
-0.244368	0.207769	0.174273
0.234931	0.712088	-0.00890699
-0.234796	-0.169602	0.135095
0.74689	0.0627697	-0.0154381
-0.181054	-0.181102	0.0548121
0.109922	0.730664	-0.0737134
0.359769	-0.148621	-0.224134
0.117801	0.425466	-0.243053
-0.267846	0.697112	-0.0398861
