-0.363685	-0.638342	0.0861831
0.0841559	0.243682	-0.0619795
0.112027	0.613576	0.217241
0.722593	0.0829691	0.104002
-0.560531	0.392509	-0.168925
0.0921931	0.232562	0.00919899
0.5322	-0.210726	0.239287
0.352154	0.655434	0.0542316
0.411514	-0.336254	0.248017
0.356795	-0.0677971	0.209237
0.00315229	0.474287	-0.248675
-0.28483	0.11461	-0.158934
0.652448	0.186408	0.174981
-0.208458	-0.423272	-0.248407
0.560712	0.289166	0.213001
0.499985	-0.430855	-0.19208
0.666355	-0.0893746	-0.181122
-0.411837	0.406858	0.237218
-0.465434	-0.324117	0.240808
0.573799	0.00836187	0.23884
-0.197887	0.619971	0.199408
-0.103972	0.535732	0.245782
-0.279717	-0.0414815	0.123749
0.286443	0.512068	0.23447
-0.229365	0.712801	-0.0245185
0.221061	-0.116777	-0.00222408
-0.547691	0.000162497	-0.245409
-0.603168	0.284979	0.185949
0.404618	0.0107485	0.231148
0.699489	-0.270295	0.00719119
-0.389436	0.625208	0.0808172
0.743577	0.0865831	0.0264085
0.165699	-0.208656	-0.0891761
-0.053137	-0.727627	0.0989943
-0.12215	0.53503	0.245192
-0.144423	-0.327223	0.205534
0.726812	-0.0972995	0.0898496
0.664905	0.326957	-0.0666737
-0.349408	-0.203632	0.231006
0.0789757	-0.693237	-0.152992
-0.08728	0.417442	-0.238942
-0.138775	0.208773	-0.0185464
0.396546	0.297476	0.249963
-0.366236	-0.208985	-0.237411
-0.343604	0.611876	0.147635
-0.0350696	-0.401209	-0.230305
-0.194997	-0.162882	0.0449583
-0.503509	-0.00725018	-0.249975
-0.39741	0.559189	0.16702
0.447828	-0.595889	-0.047693
