0.331041	0.408135
0.366384	0.391791
0.388046	0.481299
0.404839	0.656932
0.415923	0.49141
0.421355	0.519603
0.430845	0.465652
0.453708	0.463252
0.458985	0.497717
0.459897	0.489446
0.47628	0.554171
0.53799	0.555792
0.615956	0.617568
