0.0927971	0.0985344
0.251066	0.312205
0.28253	0.290616
0.285298	0.288566
0.333006	0.396962
0.348412	0.505945
0.356376	0.574296
0.362731	0.472687
0.37529	0.483073
0.379908	0.468946
0.402329	0.489313
0.402511	0.551364
0.442904	0.493167
0.446252	0.451626
0.459174	0.460214
0.466819	0.467134
0.495846	0.550037
