0.255882	0.301614
0.259149	0.323829
0.291089	0.302539
0.367065	0.460662
0.375064	0.481298
0.37799	0.503012
0.383577	0.494987
0.39503	0.556305
0.395153	0.484785
0.403731	0.479043
0.407251	0.42037
0.409011	0.430775
0.412945	0.426376
0.42016	0.4604
0.425729	0.465959
0.503385	0.503859
0.530142	0.549976
