0.250453	0.29092
0.292257	0.47315
0.297272	0.538049
0.303659	0.303693
0.316961	0.461076
0.340339	0.395002
0.359708	0.369738
0.365126	0.449167
0.370336	0.454306
0.388093	0.440637
0.406412	0.41825
0.423604	0.496201
0.445349	0.507944
0.491639	0.494558
