0.260423	0.299952
0.32139	0.405051
0.32786	0.399299
0.344202	0.424791
0.355763	0.484235
0.364631	0.404336
0.375379	0.421731
0.402066	0.536816
0.406485	0.485464
0.413776	0.549972
0.420594	0.42548
0.438086	0.438908
0.458645	0.493643
0.464801	0.477036
0.473335	0.533317
0.547018	0.561832
