0.283843	0.40036
0.302686	0.477181
0.308444	0.334654
0.335003	0.36716
0.388346	0.476424
0.39214	0.414044
0.407073	0.469499
0.423026	0.608032
0.437506	0.469499
0.439616	0.58135
0.439848	0.489961
0.47079	0.486132
0.478028	0.530285
