0.273703	0.317632
0.33088	0.486694
0.350212	0.358891
0.376913	0.461429
0.377178	0.441831
0.380606	0.51367
0.385902	0.499932
0.386505	0.497206
0.387067	0.467718
0.41562	0.498054
0.417166	0.436084
0.4206	0.48157
0.429116	0.463881
0.508838	0.532474
