0.269328	0.272508
0.312876	0.457677
0.324662	0.392272
0.330887	0.389866
0.333803	0.369017
0.339953	0.400646
0.348558	0.435789
0.384993	0.571014
0.385383	0.513221
0.402005	0.5593
0.442194	0.504771
0.44869	0.468097
0.451445	0.482832
