0.266072	0.273624
0.308745	0.356148
0.325828	0.390804
0.356789	0.461031
0.362809	0.495725
0.375132	0.573783
0.386578	0.477745
0.445277	0.53823
0.449452	0.471581
0.45902	0.464734
0.462169	0.477745
0.465679	0.476391
0.483448	0.499005
0.511868	0.531583
