0.0624964	0.0671646
0.0705453	0.0760092
0.107675	0.115495
0.122768	0.150573
0.129349	0.159189
0.129373	0.139681
0.1313	0.13264
0.132584	0.245108
0.133719	0.134646
0.138321	0.149027
0.139971	0.159894
0.139979	0.158336
0.142415	0.158023
0.143543	0.168983
0.146449	0.157287
0.15382	0.168685
0.156258	0.194806
0.16015	0.212919
0.168052	0.240033
0.1796	0.196221
0.182406	0.210268
0.182974	0.211651
0.187625	0.194503
0.187629	0.193939
0.201671	0.254147
0.205193	0.269466
0.213985	0.264601
0.217288	0.246956
0.22076	0.267884
0.22312	0.286256
0.249063	0.323903
0.253122	0.593244
0.25691	0.456213
0.260868	0.465252
0.261897	0.314071
0.264725	0.31907
0.298295	0.308862
0.306068	0.386309
0.311312	0.53323
0.320719	0.361953
0.334231	0.380369
0.404419	0.408511
0.456938	0.46747

