0.0597194	0.548923	-0.244498
-0.521094	0.161846	-0.245797
0.743169	-0.0176787	0.0571532
0.703802	-0.206112	-0.0896795
0.721409	-0.159275	-0.0740483
0.552187	-0.462544	-0.118154
-0.187378	-0.418371	-0.246517
0.522832	-0.460644	0.15416
-0.343636	0.00635828	-0.195112
-0.445636	0.000553988	0.244018
-0.725564	-0.0760475	-0.0990562
0.381779	-0.0516749	-0.222114
-0.48991	-0.186364	-0.24883
0.294495	-0.656605	0.119439
0.373974	0.496506	-0.218439
0.107626	-0.474493	0.249638
-0.440182	-0.137452	0.246962
0.0108791	-0.252626	0.0377111
0.343625	0.45507	0.239932
-0.326826	0.305222	0.244358
0.0837556	-0.32786	-0.190741
0.236108	-0.0821787	-0.000504297
-0.246229	-0.40524	-0.248663
-0.423485	-0.386693	0.23896
0.379252	0.0849867	-0.223837
0.382822	0.265422	-0.247654
0.0476297	-0.415394	0.23621
-0.375544	0.64277	0.0524448
-0.419182	-0.515186	0.188536
0.203037	0.62873	-0.191508
0.299633	0.624123	-0.159726
-0.742329	0.10662	0.0051737
0.404931	0.55801	-0.163119
0.310791	-0.578696	0.194657
0.640102	0.155785	0.193098
0.0310091	-0.363664	-0.210406
0.154215	-0.207291	0.0641241
-0.728879	0.175959	-0.00955933
0.40898	-0.472852	-0.2164
0.273717	-0.0930465	0.134243
0.204019	-0.46833	-0.249765
0.494903	-0.546346	-0.0790542
0.59875	-0.0335789	0.229264
-0.0996678	-0.242192	-0.0762074
-0.459829	0.274845	-0.247437
0.367412	0.611413	-0.130372
-0.055766	-0.244605	0.0209777
-0.289599	-0.0987259	-0.15764
