-0.198439	-0.152122	-0.00436796
0.34063	-0.0574893	-0.196503
0.258413	0.325416	-0.235301
-0.0293136	0.255493	0.0594408
-0.678753	-0.0480156	0.173026
0.502944	0.500727	-0.136103
0.56288	0.357235	-0.186335
0.391432	-0.4952	-0.212792
0.634849	0.395567	0.031546
0.35807	-0.609325	0.140555
0.202727	-0.161074	-0.0662111
-0.420776	-0.433661	-0.227228
0.589485	-0.448956	0.0665412
-0.454477	0.143553	-0.248903
-0.06404	-0.268245	-0.110576
0.64631	0.356876	0.0756059
-0.624041	-0.0063014	0.217039
0.653214	-0.0222231	0.197255
-0.0928124	-0.448901	-0.246514
-0.606339	-0.428154	0.0616903
0.636464	-0.396679	-0.0044623
0.331806	0.210318	-0.225872
0.586187	-0.162257	-0.225358
0.0016521	0.251933	-0.0310726
-0.0848497	0.566813	0.239065
0.682949	-0.0904602	-0.163742
-0.146059	-0.447736	-0.248307
-0.639538	0.185814	-0.186947
0.149213	0.621968	0.207382
0.153532	-0.729913	-0.0451709
-0.368562	0.211133	0.238407
0.284682	-0.426387	-0.249678
0.0276664	0.289916	0.137536
-0.520907	-0.489586	-0.127793
0.215492	-0.670044	-0.144733
0.385006	0.294272	-0.249525
-0.178076	-0.381187	-0.2371
-0.36464	-0.388498	-0.247837
0.738959	-0.121955	-0.0228306
0.730474	0.0244683	0.0958789
0.4003	-0.615931	-0.0864361
-0.390778	0.506508	0.207304
-0.593863	0.317488	0.180087
0.536257	0.505596	-0.0795084
-0.638282	-0.208032	-0.182062
0.357835	0.648038	0.0690677
