-0.282914	0.195104	-0.195088
0.314694	-0.292093	-0.239813
0.741935	0.0593018	-0.0530729
0.59633	0.408903	-0.112896
-0.680351	-0.276127	-0.0873306
0.101809	-0.349614	0.209859
-0.0313399	-0.26235	-0.0830984
0.0727346	-0.744333	0.032498
0.131576	0.312574	0.191373
0.455932	-0.2283	0.249804
0.39859	-0.625261	-0.064628
0.169784	0.609064	-0.212133
0.156616	-0.500549	-0.248799
-0.218648	-0.712948	-0.0460488
0.305996	0.172875	-0.201081
0.509508	0.448213	-0.174938
-0.441814	-0.300636	-0.247622
0.31217	0.297314	0.240318
-0.00614256	0.259919	0.0699718
-0.542764	-0.11038	-0.244126
0.293921	-0.442297	-0.248064
-0.0648812	-0.482529	-0.249655
0.50139	-0.116039	-0.249571
-0.688476	-0.203743	-0.122393
-0.138574	-0.681217	0.156235
0.0667386	-0.279528	-0.13151
0.285458	-0.0653672	0.139955
-0.666053	0.0587001	-0.18456
-0.45126	0.332638	-0.242542
-0.702547	-0.0580339	-0.143177
-0.739949	0.0384972	-0.0666558
-0.11277	-0.387678	0.230728
0.329746	-0.672948	0.0173978
-0.261493	0.236991	-0.202148
0.69474	0.228874	-0.0944562
0.676329	0.299827	0.0706515
-0.145553	0.339825	-0.21335
-0.67974	-0.313702	0.0260861
-0.00880167	-0.746396	0.0419918
-0.119973	0.295269	0.172148
-0.3981	0.127795	0.236207
0.158187	0.727845	-0.0505458
-0.372399	0.649187	0.0281062
-0.240804	0.428276	-0.24985
0.544106	-0.219048	0.234543
0.201546	-0.59321	0.215626
