-0.112823	0.461539	-0.24876
0.381767	-0.636365	0.0623651
0.476343	-0.171388	-0.249922
0.638239	-0.320106	-0.129219
-0.336721	0.241528	-0.234884
-0.243646	-0.644904	-0.163186
0.0622516	0.395636	-0.229348
-0.14755	-0.723486	-0.0753354
-0.115014	-0.229879	-0.0589355
-0.085823	0.396639	0.231581
-0.116872	-0.671631	0.171687
0.38925	-0.470946	0.224013
0.279146	-0.283869	0.228301
0.255237	-0.067412	0.0824554
0.574847	0.387804	0.158386
0.438097	-0.219816	-0.249806
0.314102	-0.0689597	-0.175121
0.173386	-0.649775	0.180942
0.00369137	0.648161	0.201359
0.246302	-0.0770223	-0.0629848
0.606477	0.276376	0.186504
-0.136593	-0.650841	-0.187799
-0.463197	-0.588564	0.0226496
-0.355086	0.230217	-0.237907
-0.299871	0.551409	0.21494
-0.469867	-0.0869355	0.249016
-0.613802	0.340661	-0.147296
0.212996	-0.394907	0.244677
0.272534	0.0361226	0.108801
-0.664427	0.32389	0.0727941
-0.223738	-0.459096	0.24977
0.486539	-0.114426	0.25
0.0820568	0.261391	-0.106816
-0.282384	0.122961	0.160105
-0.464898	0.57994	-0.0575878
-0.424895	-0.574245	-0.128667
-0.154319	0.202642	-0.0483071
0.36176	0.656969	0.00270294
0.554706	-0.492919	0.0624666
-0.20386	0.543377	0.236733
-0.0777277	0.348922	-0.205393
0.311385	0.003343	-0.164107
0.119355	-0.249708	0.112546
-0.088535	-0.319464	-0.184687
-0.136757	0.717756	-0.0963962
-0.607737	-0.373894	0.130001
-0.49939	0.550059	-0.059004
0.538805	0.134312	0.243809
-0.626009	0.314974	0.148951
-0.283526	0.196531	-0.196135
-0.280946	0.251016	-0.217506
0.697206	-0.276412	-0.000312809
