-0.149225	0.256651	0.145748
-0.0435023	0.638045	-0.207442
0.399888	-0.0955794	-0.233679
-0.121031	0.463205	-0.249096
-0.554246	-0.461156	0.116854
-0.485938	0.236153	0.246733
-0.495906	-0.322621	-0.232609
0.657799	-0.140411	-0.18084
0.568963	0.260879	-0.215972
-0.42752	0.612397	0.0394819
0.744989	0.00954484	-0.0495036
-0.606587	0.415294	-0.084934
0.663599	-0.133289	-0.176701
0.244998	-0.40299	0.248384
0.669434	-0.112947	-0.174633
0.305039	-0.132933	-0.185812
-0.253815	0.360739	-0.242959
0.585539	-0.0248265	0.234719
0.425752	0.614442	-0.0350425
0.713029	0.198535	0.069474
-0.654732	-0.340086	0.0771795
-0.535999	-0.477375	-0.1228
-0.743922	-0.0370079	0.050522
-0.0464476	0.513376	-0.249521
0.0519729	-0.745899	0.0337804
0.272444	0.618141	-0.178027
-0.468495	0.196911	0.249866
0.265632	-0.114858	0.134714
-0.310068	-0.0196056	-0.163281
-0.232606	0.10333	0.0473473
0.288699	0.0424774	0.138404
0.164518	0.403036	0.241488
-0.509295	0.534806	0.0749144
-0.393358	0.505749	0.20664
0.195371	-0.607631	0.208284
-0.126651	0.357953	-0.219152
0.541824	-0.0460989	0.246137
-0.0857963	-0.297535	-0.16208
-0.00876618	-0.515367	0.249523
0.630127	0.40611	-0.0130933
-0.444575	-0.598242	0.0480155
0.145383	0.72327	0.0773378
-0.718104	0.0320475	-0.120906
-0.747688	-0.0282226	-0.0297766
0.434238	-0.607282	0.0413236
-0.24568	0.703086	0.0508487
-0.0294884	-0.436744	0.242123
-0.270064	-0.302812	-0.231551
