-0.0142408	0.583553	0.235563
-0.486852	0.123048	-0.249991
0.484572	0.400141	-0.21449
0.120386	-0.396774	-0.234974
-0.107791	0.376908	-0.225477
0.681351	-0.0600924	0.169249
-0.409313	0.143134	-0.241026
-0.393834	0.0368574	-0.227137
-0.429754	0.389632	0.236825
-0.673694	-0.23386	-0.130674
0.218601	-0.716407	-0.0221505
-0.384067	-0.0349602	0.222318
-0.312852	-0.678821	-0.0356492
0.464273	0.25316	-0.248334
0.260725	0.0156139	0.0739647
0.721334	-0.183298	0.0532681
-0.141367	-0.709224	0.112661
0.239804	-0.0711039	-0.00785448
-0.56238	0.0892857	-0.240167
-0.170958	0.652165	-0.179317
-0.321524	-0.575555	0.192697
-0.140795	-0.310128	-0.192585
0.283578	-0.323465	0.240049
-0.604419	-0.354183	0.149265
-0.165831	-0.482741	-0.249782
-0.0720906	-0.569555	-0.238766
-0.20538	0.712832	0.063393
0.259818	0.123128	0.131723
0.565763	-0.458411	-0.102173
0.325212	0.436441	-0.246047
0.0306811	0.647868	-0.201046
0.271536	-0.162617	-0.169794
0.625517	-0.156238	-0.203844
-0.0898878	-0.741839	-0.0368809
0.336965	-0.404123	0.248626
-0.0745653	0.444688	-0.24513
-0.445578	-0.40969	0.226743
-0.225944	0.628276	0.185438
0.645649	0.0314016	-0.202641
0.364144	0.320276	-0.249547
-0.699036	0.108446	0.139593
0.0439101	-0.346998	-0.199824
0.527518	0.3894	-0.195616
-0.255738	0.321507	-0.233551
-0.319412	0.319937	-0.245366
0.316878	0.596108	-0.17844
-0.63041	-0.406299	-0.00122638
-0.41313	-0.324825	0.248692
0.184451	0.175777	-0.0487193
0.545798	0.247	0.229525
