-0.286771	0.637175	0.151673
0.474332	0.497145	-0.165782
-0.142216	-0.628332	-0.204203
-0.637493	-0.271084	-0.159225
0.749971	0.00210881	0.00362092
0.0159501	-0.303	-0.154455
-0.528048	0.481853	-0.127818
0.062447	-0.747386	-0.00219506
-0.383549	-0.632284	-0.0716183
0.537134	0.121911	0.244785
0.242697	0.683229	-0.10886
0.470693	0.582463	-0.0236832
-0.592059	0.413573	0.114569
0.215579	0.188391	0.129733
-0.163274	0.671892	-0.160775
0.478676	0.405715	-0.215054
-0.17403	-0.275294	-0.179208
0.17855	-0.376584	0.235738
-0.416909	0.477548	0.2111
0.0612202	-0.270299	0.113295
-0.35276	-0.649696	-0.072402
-0.629062	-0.0506678	-0.212869
-0.247192	-0.215919	0.181631
0.218107	0.199851	-0.144263
-0.544692	-0.0551695	0.24545
0.526075	-0.498526	0.109458
0.389042	-0.613877	-0.105234
-0.0271224	-0.348778	-0.199873
0.484396	0.125096	0.25
-0.503254	-0.139138	0.249018
0.168471	-0.315754	-0.205679
-0.171576	-0.193039	0.0637609
0.287243	-0.076964	-0.146435
0.492718	-0.0736047	-0.249993
-0.556741	0.485529	-0.0742645
0.0882749	0.283487	-0.145793
-0.396672	-0.332616	-0.249375
0.132376	-0.662431	-0.178016
0.683023	0.307358	-0.0224279
0.283606	0.655076	0.129521
0.331284	-0.390838	0.249695
0.53002	0.238746	0.236408
0.63036	-0.129649	0.204676
0.0913557	-0.580859	0.234
-0.111721	0.311473	0.184137
-0.0507757	0.411358	0.234918
-0.457955	0.443859	-0.208622
0.238932	0.656893	-0.151328
-0.682477	0.240535	-0.111768
-0.400886	-0.542215	-0.1792
-0.581349	-0.45529	0.0752236
-0.448269	0.595306	0.0487159
0.291547	-0.0518594	0.144687
-0.363722	0.139141	-0.224218
0.383787	-0.522638	-0.201178
0.582775	0.410397	0.131246
-0.0228002	-0.633456	-0.211139
