# persistence landscape
# X Y
"layer 0:"
-inf 0
0.0777399 0
0.0837718 0.00603188
0.0898037 0
0.0957996 0
0.0994079 0.0036083
0.101858 0.00115849
0.113028 0.0123284
0.122333 0.00302301
0.131293 0.011983
0.133404 0.00987162
0.152664 0.0291309
0.153243 0.0285519
0.153443 0.0287528
0.154466 0.0277298
0.157936 0.0311997
0.165147 0.0239886
0.173577 0.032418
0.174303 0.0316916
0.185454 0.0428425
0.186923 0.0413734
0.233284 0.0877347
0.233444 0.0875753
0.239148 0.09328
0.24226 0.0901683
0.271371 0.119279
0.39065 0
inf 0


"layer 1:"
-inf 0
0.0794853 0
0.0807305 0.00124518
0.0819757 0
0.100699 0
0.101858 0.00115849
0.103016 0
0.11931 0
0.122333 0.00302301
0.12361 0.00174555
0.127888 0.00602317
0.128722 0.00518929
0.133404 0.00987162
0.133983 0.00929267
0.153243 0.0285519
0.154266 0.0275289
0.154466 0.0277298
0.161678 0.0205187
0.165147 0.0239886
0.165874 0.0232623
0.174303 0.0316916
0.175772 0.0302226
0.186923 0.0413734
0.187082 0.0412141
0.233444 0.0875753
0.236555 0.0844636
0.24226 0.0901683
0.246076 0.0863523
0.264522 0.104799
0.369321 0
inf 0


"layer 2:"
-inf 0
0.121865 0
0.12361 0.00174555
0.124444 0.000911671
0.128722 0.00518929
0.129301 0.00461034
0.133983 0.00929267
0.134736 0.00854
0.140288 0.0140919
0.140558 0.0138215
0.154266 0.0275289
0.161477 0.0203178
0.161678 0.0205187
0.162404 0.0197923
0.165874 0.0232623
0.167343 0.0217932
0.175772 0.0302226
0.175932 0.0300632
0.187082 0.0412141
0.190194 0.0381024
0.236555 0.0844636
0.240371 0.0806477
0.246076 0.0863523
0.250091 0.0823378
0.263762 0.0960098
0.359772 0
inf 0


"layer 3:"
-inf 0
0.123533 0
0.124444 0.000911671
0.125023 0.000332716
0.129301 0.00461034
0.130026 0.00388487
0.132959 0.00681734
0.132986 0.00679013
0.134736 0.00854
0.135006 0.00826965
0.140558 0.0138215
0.144837 0.00954272
0.151477 0.0161827
0.154354 0.0133058
0.159921 0.0188727
0.159976 0.0188173
0.161477 0.0203178
0.162203 0.0195915
0.162404 0.0197923
0.163873 0.0183233
0.167343 0.0217932
0.167502 0.0216339
0.175932 0.0300632
0.179043 0.0269515
0.190194 0.0381024
0.191763 0.0365339
0.204273 0.0490444
0.206521 0.0467969
0.240371 0.0806477
0.244386 0.0766332
0.250091 0.0823378
0.312065 0.0203629
0.320866 0.0291638
0.35003 0
inf 0


"layer 4:"
-inf 0
0.124691 0
0.125023 0.000332716
0.125356 0
0.126142 0
0.130026 0.00388487
0.130054 0.00385767
0.132986 0.00679013
0.133256 0.00651979
0.135006 0.00826965
0.139285 0.00399086
0.144837 0.00954272
0.147714 0.00666581
0.154354 0.0133058
0.154409 0.0132504
0.159976 0.0188173
0.160703 0.018091
0.162203 0.0195915
0.163672 0.0181224
0.163873 0.0183233
0.164032 0.0181639
0.167502 0.0216339
0.170418 0.0187184
0.17551 0.0238105
0.175706 0.0236142
0.179043 0.0269515
0.180612 0.0253831
0.191763 0.0365339
0.193684 0.0346122
0.202715 0.0436426
0.203041 0.0433168
0.206521 0.0467969
0.210535 0.0427824
0.244386 0.0766332
0.306361 0.0146582
0.312065 0.0203629
0.332428 0
inf 0


"layer 5:"
-inf 0
0.126196 0
0.130054 0.00385767
0.130324 0.00358732
0.133256 0.00651979
0.137535 0.00224099
0.139285 0.00399086
0.141866 0.0014102
0.144008 0.00355229
0.144304 0.00325604
0.147714 0.00666581
0.147769 0.00661039
0.154409 0.0132504
0.155136 0.0125241
0.160703 0.018091
0.162172 0.0166219
0.163672 0.0181224
0.163831 0.017963
0.164032 0.0181639
0.166948 0.0152484
0.170418 0.0187184
0.170614 0.0185222
0.175706 0.0236142
0.176263 0.0230574
0.177238 0.024033
0.17825 0.0230214
0.180612 0.0253831
0.182534 0.0234613
0.193684 0.0346122
0.19401 0.0342864
0.203041 0.0433168
0.207055 0.0393023
0.210535 0.0427824
0.210915 0.0424024
0.240442 0.0719298
0.270381 0.0419911
0.273029 0.0446393
0.304686 0.012983
0.306361 0.0146582
0.321019 0
inf 0


"layer 6:"
-inf 0
0.126737 0
0.130324 0.00358732
0.133911 0
0.135294 0
0.137535 0.00224099
0.138561 0.0012157
0.138715 0.00137061
0.139458 0.000627818
0.140902 0.00207172
0.141715 0.00125914
0.141866 0.0014102
0.142162 0.00111395
0.144304 0.00325604
0.144359 0.00320061
0.147769 0.00661039
0.148496 0.00588405
0.155136 0.0125241
0.156605 0.011055
0.162172 0.0166219
0.162331 0.0164626
0.163831 0.017963
0.166747 0.0150476
0.166948 0.0152484
0.167144 0.0150522
0.170614 0.0185222
0.171171 0.0179653
0.176263 0.0230574
0.177275 0.0220458
0.17825 0.0230214
0.180172 0.0210996
0.182534 0.0234613
0.182644 0.0233511
0.188976 0.0296834
0.189192 0.0294679
0.19401 0.0342864
0.194587 0.0337096
0.196304 0.0354265
0.199742 0.0319888
0.207055 0.0393023
0.207435 0.0389223
0.210915 0.0424024
0.211593 0.0417249
0.234957 0.0650894
0.237993 0.0620538
0.241573 0.065634
0.267799 0.0394085
0.270381 0.0419911
0.302037 0.0103348
0.304686 0.012983
0.317669 0
inf 0


"layer 7:"
-inf 0
0.126961 0
0.127741 0.000779666
0.128521 0
0.133398 0
0.133639 0.000241124
0.13388 0
0.137345 0
0.138561 0.0012157
0.139303 0.000472916
0.139458 0.000627818
0.140086 0
0.140456 0
0.141715 0.00125914
0.142011 0.000962892
0.142162 0.00111395
0.142217 0.00105853
0.144359 0.00320061
0.145086 0.00247428
0.148496 0.00588405
0.149965 0.00441497
0.156605 0.011055
0.156764 0.0108956
0.162331 0.0164626
0.165246 0.0135471
0.166747 0.0150476
0.166943 0.0148513
0.167144 0.0150522
0.167701 0.0144954
0.171171 0.0179653
0.172182 0.0169537
0.177275 0.0220458
0.179196 0.0201241
0.180172 0.0210996
0.180282 0.0209894
0.182644 0.0233511
0.182859 0.0231356
0.189192 0.0294679
0.189768 0.0288911
0.194587 0.0337096
0.198025 0.0302719
0.199742 0.0319888
0.200122 0.0316088
0.207435 0.0389223
0.208113 0.0382447
0.211593 0.0417249
0.214628 0.0386892
0.237993 0.0620538
0.264218 0.0358283
0.267799 0.0394085
0.299455 0.00775227
0.302037 0.0103348
0.312372 0
inf 0


"layer 8:"
-inf 0
0.13883 0
0.139303 0.000472916
0.139776 0
0.141048 0
0.142011 0.000962892
0.142066 0.000907468
0.142217 0.00105853
0.142944 0.000332191
0.145086 0.00247428
0.146555 0.0010052
0.149965 0.00441497
0.150124 0.00425563
0.156764 0.0108956
0.156896 0.0107637
0.158179 0.0120463
0.158756 0.0114694
0.159991 0.0127047
0.161526 0.0111692
0.162212 0.0118545
0.162883 0.0111835
0.165246 0.0135471
0.165443 0.0133509
0.166943 0.0148513
0.1675 0.0142945
0.167701 0.0144954
0.168712 0.0134837
0.172182 0.0169537
0.174104 0.015032
0.179196 0.0201241
0.179307 0.0200138
0.180282 0.0209894
0.180498 0.0207739
0.182859 0.0231356
0.183436 0.0225587
0.189768 0.0288911
0.193206 0.0254535
0.198025 0.0302719
0.198405 0.0298919
0.200122 0.0316088
0.200799 0.0309313
0.208113 0.0382447
0.211148 0.0352091
0.214628 0.0386892
0.21649 0.0368278
0.232339 0.0526775
0.236636 0.048381
0.242743 0.0544884
0.262811 0.0344208
0.264218 0.0358283
0.293728 0.00631859
0.297298 0.00988807
0.299444 0.0077415
0.299455 0.00775227
0.307207 0
inf 0


"layer 9:"
-inf 0
0.141159 0
0.142066 0.000907468
0.142793 0.000181129
0.142944 0.000332191
0.143276 0
0.14555 0
0.146555 0.0010052
0.146714 0.000845855
0.150124 0.00425563
0.150256 0.00412366
0.156896 0.0107637
0.157473 0.0101867
0.158756 0.0114694
0.160291 0.00993385
0.161526 0.0111692
0.162197 0.0104981
0.162883 0.0111835
0.163079 0.0109873
0.165443 0.0133509
0.165999 0.012794
0.1675 0.0142945
0.168512 0.0132829
0.168712 0.0134837
0.170634 0.011562
0.174104 0.015032
0.174214 0.0149217
0.179307 0.0200138
0.179522 0.0197983
0.180498 0.0207739
0.181074 0.0201971
0.183436 0.0225587
0.186874 0.0191211
0.193206 0.0254535
0.193586 0.0250734
0.198405 0.0298919
0.199082 0.0292144
0.200799 0.0309313
0.202553 0.0291769
0.203046 0.0296694
0.204327 0.0283881
0.211148 0.0352091
0.21301 0.0333477
0.21649 0.0368278
0.220786 0.0325314
0.236636 0.048381
0.239699 0.0453178
0.240491 0.0461101
0.257496 0.0291058
0.262811 0.0344208
0.292321 0.00491107
0.293728 0.00631859
0.295875 0.00417202
0.299444 0.0077415
0.307186 0
inf 0


"layer 10:"
-inf 0
0.142612 0
0.142793 0.000181129
0.142974 0
0.145868 0
0.146714 0.000845855
0.146846 0.000713889
0.150256 0.00412366
0.150833 0.00354672
0.157473 0.0101867
0.159008 0.00865119
0.160291 0.00993385
0.160962 0.00926283
0.162197 0.0104981
0.162394 0.0103019
0.163079 0.0109873
0.163636 0.0104305
0.165999 0.012794
0.167011 0.0117824
0.168512 0.0132829
0.170433 0.0113611
0.170634 0.011562
0.170744 0.0114518
0.174214 0.0149217
0.17443 0.0147062
0.179522 0.0197983
0.180099 0.0192215
0.181074 0.0201971
0.184512 0.0167594
0.186874 0.0191211
0.187254 0.0187411
0.193586 0.0250734
0.194264 0.0243959
0.199082 0.0292144
0.200837 0.02746
0.202553 0.0291769
0.203835 0.0278956
0.204327 0.0283881
0.206189 0.0265267
0.21301 0.0333477
0.217306 0.0290512
0.220786 0.0325314
0.223849 0.0294681
0.239699 0.0453178
0.256703 0.0283134
0.257496 0.0291058
0.286602 0
0.287409 0
0.292321 0.00491107
0.294467 0.00276451
0.295875 0.00417202
0.300047 0
inf 0


"layer 11:"
-inf 0
0.146132 0
0.146846 0.000713889
0.147423 0.000136946
0.150833 0.00354672
0.151733 0.00264622
0.155904 0.00681706
0.156539 0.00618202
0.159008 0.00865119
0.15968 0.00798017
0.160962 0.00926283
0.161158 0.0090666
0.162394 0.0103019
0.162951 0.0097451
0.163636 0.0104305
0.164648 0.00941881
0.167011 0.0117824
0.168933 0.00986066
0.170433 0.0113611
0.170544 0.0112509
0.170744 0.0114518
0.17096 0.0112363
0.17443 0.0147062
0.175007 0.0141294
0.180099 0.0192215
0.183536 0.0157838
0.184512 0.0167594
0.184892 0.0163794
0.187254 0.0187411
0.187931 0.0180635
0.194264 0.0243959
0.19487 0.0237894
0.198604 0.0275237
0.199752 0.0263758
0.200837 0.02746
0.202118 0.0261787
0.203835 0.0278956
0.205696 0.0260342
0.206189 0.0265267
0.210485 0.0222302
0.217306 0.0290512
0.220369 0.025988
0.223849 0.0294681
0.229349 0.0239682
0.243818 0.0384363
0.255322 0.0269319
0.256703 0.0283134
0.285017 0
0.291703 0
0.294467 0.00276451
0.297232 0
inf 0


"layer 12:"
-inf 0
0.147286 0
0.147423 0.000136946
0.14756 0
0.149087 0
0.151733 0.00264622
0.152368 0.00201118
0.156539 0.00618202
0.15721 0.00551099
0.15968 0.00798017
0.159876 0.00778394
0.161158 0.0090666
0.161715 0.0085098
0.162951 0.0097451
0.163962 0.00873343
0.164648 0.00941881
0.165534 0.00853249
0.166987 0.00998547
0.168022 0.00895007
0.168933 0.00986066
0.169043 0.00975039
0.170544 0.0112509
0.170759 0.0110354
0.17096 0.0112363
0.171537 0.0106594
0.175007 0.0141294
0.176488 0.0126478
0.178959 0.0151187
0.180915 0.0131626
0.183536 0.0157838
0.183916 0.0154038
0.184892 0.0163794
0.18557 0.0157018
0.187931 0.0180635
0.188181 0.0178139
0.191681 0.0213143
0.192038 0.0209575
0.19487 0.0237894
0.196018 0.0226415
0.199752 0.0263758
0.201034 0.0250946
0.202118 0.0261787
0.203979 0.0243173
0.205696 0.0260342
0.209993 0.0217378
0.210485 0.0222302
0.213429 0.0192866
0.215171 0.0210292
0.215291 0.0209096
0.220369 0.025988
0.220721 0.025636
0.224014 0.0289287
0.229162 0.0237808
0.229349 0.0239682
0.230713 0.0226047
0.243789 0.0356808
0.251416 0.0280537
0.252274 0.0289117
0.254788 0.0263979
0.255322 0.0269319
0.282254 0
inf 0


"layer 13:"
-inf 0
0.150357 0
0.152368 0.00201118
0.15304 0.00134015
0.15721 0.00551099
0.157407 0.00531476
0.159876 0.00778394
0.160433 0.00722714
0.161715 0.0085098
0.162727 0.00749813
0.163962 0.00873343
0.164848 0.00784711
0.165534 0.00853249
0.166569 0.00749708
0.168022 0.00895007
0.168133 0.00883979
0.169043 0.00975039
0.169259 0.00953491
0.170759 0.0110354
0.171336 0.0104586
0.171537 0.0106594
0.173018 0.00917789
0.176488 0.0126478
0.178444 0.0106917
0.180915 0.0131626
0.181295 0.0127826
0.183916 0.0154038
0.184149 0.0151714
0.184707 0.0157299
0.185152 0.0152847
0.18557 0.0157018
0.185819 0.0154522
0.188181 0.0178139
0.188538 0.017457
0.192038 0.0209575
0.193186 0.0198096
0.196018 0.0226415
0.197299 0.0213603
0.201034 0.0250946
0.202895 0.0232331
0.203979 0.0243173
0.208276 0.0200208
0.209993 0.0217378
0.212936 0.0187941
0.213429 0.0192866
0.213548 0.019167
0.215291 0.0209096
0.215643 0.0205576
0.220721 0.025636
0.225869 0.0204881
0.229162 0.0237808
0.230525 0.0224173
0.230713 0.0226047
0.235788 0.0175297
0.246448 0.0281901
0.249 0.025638
0.251416 0.0280537
0.25393 0.0255398
0.254788 0.0263979
0.281186 0
inf 0


"layer 14:"
-inf 0
0.151699 0
0.15304 0.00134015
0.153236 0.00114393
0.157407 0.00531476
0.15754 0.0051811
0.158856 0.00649692
0.159279 0.00607379
0.160433 0.00722714
0.161444 0.00621547
0.162727 0.00749813
0.163613 0.00661181
0.164848 0.00784711
0.165884 0.00681171
0.166569 0.00749708
0.16668 0.00738681
0.168133 0.00883979
0.168348 0.00862432
0.169259 0.00953491
0.169835 0.00895808
0.171336 0.0104586
0.172817 0.008977
0.173018 0.00917789
0.173502 0.00869469
0.176825 0.0120177
0.178298 0.0105448
0.178444 0.0106917
0.178824 0.0103117
0.181295 0.0127826
0.181528 0.0125502
0.184149 0.0151714
0.184594 0.0147262
0.185152 0.0152847
0.185402 0.015035
0.185819 0.0154522
0.186176 0.0150953
0.188538 0.017457
0.189686 0.0163092
0.193186 0.0198096
0.194467 0.0185284
0.197299 0.0213603
0.199161 0.0194988
0.202895 0.0232331
0.207192 0.0189367
0.208276 0.0200208
0.211219 0.0170772
0.212936 0.0187941
0.213056 0.0186745
0.213548 0.019167
0.2139 0.018815
0.215643 0.0205576
0.220791 0.0154097
0.225869 0.0204881
0.227233 0.0191246
0.230525 0.0224173
0.2356 0.0173423
0.235788 0.0175297
0.23834 0.0149776
0.249 0.025638
0.251514 0.0231241
0.25393 0.0255398
0.27947 0
inf 0


"layer 15:"
-inf 0
0.152092 0
0.153236 0.00114393
0.153369 0.00101026
0.15754 0.0051811
0.157963 0.00475796
0.159279 0.00607379
0.160291 0.00506212
0.161444 0.00621547
0.162331 0.00532915
0.163613 0.00661181
0.164649 0.00557641
0.165884 0.00681171
0.165994 0.00670143
0.16668 0.00738681
0.166895 0.00717133
0.168348 0.00862432
0.168925 0.00804749
0.169835 0.00895808
0.171317 0.00747653
0.172817 0.008977
0.173301 0.0084938
0.173502 0.00869469
0.174974 0.00722178
0.178298 0.0105448
0.178678 0.0101648
0.178824 0.0103117
0.179057 0.0100793
0.181528 0.0125502
0.181973 0.012105
0.184594 0.0147262
0.184844 0.0144766
0.185402 0.015035
0.185759 0.0146782
0.186176 0.0150953
0.187324 0.0139475
0.189686 0.0163092
0.190967 0.0150279
0.194467 0.0185284
0.196329 0.0166669
0.199161 0.0194988
0.203457 0.0152024
0.207192 0.0189367
0.210135 0.015993
0.211219 0.0170772
0.211339 0.0169576
0.213056 0.0186745
0.213408 0.0183225
0.2139 0.018815
0.219048 0.0136671
0.220791 0.0154097
0.222154 0.0140462
0.227233 0.0191246
0.232308 0.0140496
0.2356 0.0173423
0.238153 0.0147902
0.23834 0.0149776
0.240854 0.0124638
0.251514 0.0231241
0.25556 0.0190785
0.256369 0.0198882
0.276258 0
inf 0


"layer 16:"
-inf 0
0.152359 0
0.153369 0.00101026
0.153756 0.000623494
0.155292 0.00215908
0.155328 0.0021227
0.157963 0.00475796
0.158975 0.0037463
0.160291 0.00506212
0.161177 0.0041758
0.162331 0.00532915
0.163366 0.00429375
0.164649 0.00557641
0.164759 0.00546613
0.165994 0.00670143
0.16621 0.00648596
0.166895 0.00717133
0.167472 0.0065945
0.168925 0.00804749
0.170406 0.00656594
0.171317 0.00747653
0.1718 0.00699332
0.173301 0.0084938
0.174774 0.00702089
0.174974 0.00722178
0.175354 0.00684178
0.178678 0.0101648
0.17891 0.00993247
0.179057 0.0100793
0.179307 0.00982903
0.181422 0.0119444
0.181617 0.0117495
0.181973 0.012105
0.182223 0.0118554
0.184844 0.0144766
0.185201 0.0141198
0.185759 0.0146782
0.186907 0.0135303
0.187324 0.0139475
0.188605 0.0126662
0.190967 0.0150279
0.192801 0.0131941
0.193887 0.0142805
0.193915 0.0142528
0.196329 0.0166669
0.200625 0.0123705
0.203457 0.0152024
0.206401 0.0122587
0.210135 0.015993
0.210255 0.0158734
0.211339 0.0169576
0.211691 0.0166056
0.213408 0.0183225
0.218556 0.0131746
0.219048 0.0136671
0.220412 0.0123036
0.222154 0.0140462
0.227229 0.00897122
0.232308 0.0140496
0.23486 0.0114975
0.238153 0.0147902
0.240666 0.0122764
0.240854 0.0124638
0.244899 0.00841822
0.25556 0.0190785
0.274638 0
inf 0


"layer 17:"
-inf 0
0.153133 0
0.153756 0.000623494
0.153793 0.000587123
0.155328 0.0021227
0.1562 0.00125033
0.158133 0.00318296
0.158272 0.00304367
0.158975 0.0037463
0.159861 0.00285998
0.161177 0.0041758
0.162213 0.0031404
0.163366 0.00429375
0.163476 0.00418347
0.164759 0.00546613
0.164974 0.00525066
0.16621 0.00648596
0.166786 0.00590913
0.167472 0.0065945
0.168953 0.00511295
0.170406 0.00656594
0.17089 0.00608273
0.1718 0.00699332
0.173273 0.00552041
0.174774 0.00702089
0.175154 0.00664089
0.175354 0.00684178
0.175587 0.00660941
0.17891 0.00993247
0.17916 0.00968215
0.179307 0.00982903
0.179502 0.00963414
0.181617 0.0117495
0.181867 0.0114998
0.182223 0.0118554
0.182579 0.0114985
0.185201 0.0141198
0.186348 0.0129719
0.186907 0.0135303
0.188188 0.012249
0.188605 0.0126662
0.190439 0.0108324
0.192801 0.0131941
0.192828 0.0131665
0.193915 0.0142528
0.197114 0.0110537
0.198469 0.0124092
0.199567 0.0113119
0.200625 0.0123705
0.203569 0.00942685
0.206401 0.0122587
0.20652 0.0121391
0.210255 0.0158734
0.210607 0.0155214
0.211691 0.0166056
0.216839 0.0114577
0.218556 0.0131746
0.219919 0.0118111
0.220412 0.0123036
0.225487 0.00722861
0.227229 0.00897122
0.227445 0.00875519
0.229826 0.0111359
0.232162 0.00879986
0.23486 0.0114975
0.237374 0.00898365
0.240666 0.0122764
0.244712 0.0082308
0.244899 0.00841822
0.253318 0
0.253932 0
0.262855 0.00892293
0.271778 0
inf 0


"layer 18:"
-inf 0
0.153205 0
0.153793 0.000587123
0.15438 0
0.15495 0
0.1562 0.00125033
0.15634 0.00111104
0.158272 0.00304367
0.159159 0.00215735
0.159861 0.00285998
0.160897 0.00182457
0.162213 0.0031404
0.162323 0.00303012
0.163476 0.00418347
0.163692 0.003968
0.164974 0.00525066
0.165551 0.00467383
0.166786 0.00590913
0.168268 0.00442757
0.168953 0.00511295
0.169437 0.00462974
0.17089 0.00608273
0.172363 0.00460982
0.173273 0.00552041
0.173653 0.00514041
0.175154 0.00664089
0.175386 0.00640853
0.175587 0.00660941
0.175837 0.00635909
0.17916 0.00968215
0.179355 0.00948726
0.179502 0.00963414
0.179752 0.00938448
0.181867 0.0114998
0.182224 0.011143
0.182579 0.0114985
0.183727 0.0103507
0.186348 0.0129719
0.18763 0.0116906
0.188188 0.012249
0.190022 0.0104153
0.190439 0.0108324
0.190467 0.0108048
0.192828 0.0131665
0.196028 0.00996735
0.197114 0.0110537
0.198211 0.00995635
0.199567 0.0113119
0.20251 0.00836825
0.203569 0.00942685
0.203689 0.00930724
0.20652 0.0121391
0.206872 0.0117871
0.210607 0.0155214
0.215755 0.0103735
0.216839 0.0114577
0.218202 0.0100942
0.219919 0.0118111
0.223171 0.00855907
0.223583 0.00897103
0.225406 0.0071481
0.225487 0.00722861
0.225703 0.00701258
0.227445 0.00875519
0.228996 0.00720446
0.229098 0.0073066
0.229884 0.00652125
0.232162 0.00879986
0.234676 0.006286
0.237374 0.00898365
0.241419 0.00493809
0.244712 0.0082308
0.252943 0
0.25827 0
0.261789 0.00351917
0.265308 0
inf 0


"layer 19:"
-inf 0
0.155229 0
0.15634 0.00111104
0.157226 0.000224721
0.159159 0.00215735
0.160194 0.00112195
0.160897 0.00182457
0.161007 0.0017143
0.162323 0.00303012
0.162538 0.00281465
0.163692 0.003968
0.164269 0.00339117
0.165551 0.00467383
0.167033 0.00319227
0.168268 0.00442757
0.168751 0.00394437
0.169437 0.00462974
0.17091 0.00315684
0.172363 0.00460982
0.172743 0.00422982
0.173653 0.00514041
0.173885 0.00490805
0.175386 0.00640853
0.175636 0.00615821
0.175837 0.00635909
0.176032 0.0061642
0.179355 0.00948726
0.179605 0.0092376
0.179752 0.00938448
0.180108 0.00902767
0.182224 0.011143
0.183372 0.00999513
0.183727 0.0103507
0.185008 0.00906939
0.18763 0.0116906
0.189463 0.00985685
0.190022 0.0104153
0.19005 0.0103876
0.190467 0.0108048
0.193666 0.00760565
0.196028 0.00996735
0.197125 0.00887
0.198211 0.00995635
0.201155 0.00701272
0.20251 0.00836825
0.20263 0.00824864
0.203689 0.00930724
0.204041 0.00895521
0.206872 0.0117871
0.211265 0.00739491
0.211938 0.00806848
0.212694 0.00731276
0.215755 0.0103735
0.217118 0.00901001
0.218202 0.0100942
0.221454 0.00684216
0.223171 0.00855907
0.224994 0.00673614
0.225406 0.0071481
0.225622 0.00693206
0.225703 0.00701258
0.227253 0.00546185
0.228996 0.00720446
0.229781 0.00641911
0.229884 0.00652125
0.232397 0.00400739
0.234676 0.006286
0.238722 0.00224045
0.241419 0.00493809
0.243521 0.00283662
0.245786 0.00510184
0.250888 0
inf 0


"layer 20:"
-inf 0
0.157001 0
0.157226 0.000224721
0.157451 0
0.159072 0
0.160194 0.00112195
0.160304 0.00101167
0.161007 0.0017143
0.161223 0.00149882
0.162538 0.00281465
0.163115 0.00223782
0.164269 0.00339117
0.16575 0.00190961
0.167033 0.00319227
0.167516 0.00270907
0.168751 0.00394437
0.170224 0.00247146
0.17091 0.00315684
0.17129 0.00277683
0.172743 0.00422982
0.172975 0.00399746
0.173885 0.00490805
0.174136 0.00465773
0.175636 0.00615821
0.175831 0.00596332
0.176032 0.0061642
0.176282 0.00591454
0.179605 0.0092376
0.179962 0.00888078
0.180108 0.00902767
0.181256 0.00787979
0.183372 0.00999513
0.184653 0.00871386
0.185008 0.00906939
0.186842 0.00723563
0.189463 0.00985685
0.189491 0.00982918
0.19005 0.0103876
0.193249 0.0071885
0.193666 0.00760565
0.194763 0.00650831
0.197125 0.00887
0.200068 0.00592636
0.201155 0.00701272
0.201274 0.00689311
0.20263 0.00824864
0.202982 0.00789661
0.204041 0.00895521
0.208433 0.00456303
0.211265 0.00739491
0.21202 0.0066392
0.212694 0.00731276
0.214057 0.00594928
0.217118 0.00901001
0.22037 0.00575798
0.221454 0.00684216
0.222676 0.0056208
0.224107 0.00705213
0.224709 0.00645057
0.224994 0.00673614
0.22521 0.0065201
0.225622 0.00693206
0.227173 0.00538133
0.227253 0.00546185
0.228039 0.0046765
0.229781 0.00641911
0.232295 0.00390525
0.232397 0.00400739
0.236405 0
0.236481 0
0.238722 0.00224045
0.240823 0.00013897
0.243521 0.00283662
0.246357 0
inf 0


"layer 21:"
-inf 0
0.159293 0
0.160304 0.00101167
0.16052 0.000796194
0.161223 0.00149882
0.161799 0.000921991
0.163115 0.00223782
0.164521 0.000832066
0.16525 0.00156103
0.165326 0.00148523
0.16575 0.00190961
0.166233 0.00142641
0.167516 0.00270907
0.168989 0.00123616
0.170224 0.00247146
0.170604 0.00209146
0.17129 0.00277683
0.171522 0.00254447
0.172975 0.00399746
0.173225 0.00374714
0.174136 0.00465773
0.174331 0.00446284
0.175831 0.00596332
0.176081 0.00571366
0.176282 0.00591454
0.176639 0.00555773
0.179962 0.00888078
0.181109 0.0077329
0.181256 0.00787979
0.18204 0.00709605
0.182193 0.00724929
0.182691 0.00675176
0.184653 0.00871386
0.186487 0.0068801
0.186842 0.00723563
0.18687 0.00720796
0.189491 0.00982918
0.19269 0.00663007
0.193249 0.0071885
0.194346 0.00609115
0.194763 0.00650831
0.197707 0.00356467
0.200068 0.00592636
0.200188 0.00580676
0.201274 0.00689311
0.201626 0.00654108
0.202982 0.00789661
0.207374 0.00350443
0.208433 0.00456303
0.209189 0.00380731
0.21202 0.0066392
0.213384 0.00527571
0.214057 0.00594928
0.217309 0.00269724
0.22037 0.00575798
0.221592 0.00453661
0.222676 0.0056208
0.223277 0.00501923
0.224709 0.00645057
0.224925 0.00623453
0.22521 0.0065201
0.226761 0.00496937
0.227173 0.00538133
0.227958 0.00459599
0.228039 0.0046765
0.230553 0.00216264
0.232295 0.00390525
0.236201 0
0.240684 0
0.240823 0.00013897
0.240962 0
inf 0


"layer 22:"
-inf 0
0.159724 0
0.16052 0.000796194
0.161097 0.000219365
0.161799 0.000921991
0.162721 0
0.163689 0
0.164521 0.000832066
0.164597 0.000756264
0.165326 0.00148523
0.165809 0.00100202
0.166233 0.00142641
0.16766 0
0.167753 0
0.168989 0.00123616
0.169369 0.00085616
0.170604 0.00209146
0.170837 0.00185909
0.171522 0.00254447
0.171772 0.00229415
0.173225 0.00374714
0.17342 0.00355225
0.174331 0.00446284
0.17458 0.00421318
0.176081 0.00571366
0.176438 0.00535684
0.176639 0.00555773
0.177786 0.00440985
0.181109 0.0077329
0.181893 0.00694917
0.18204 0.00709605
0.182538 0.00659851
0.182691 0.00675176
0.184515 0.00492797
0.184881 0.00529419
0.184891 0.00528421
0.186487 0.0068801
0.186514 0.00685244
0.18687 0.00720796
0.190069 0.00400885
0.19269 0.00663007
0.193788 0.00553272
0.194346 0.00609115
0.19729 0.00314752
0.197707 0.00356467
0.197826 0.00344506
0.200188 0.00580676
0.20054 0.00545472
0.201626 0.00654108
0.206019 0.0021489
0.207374 0.00350443
0.20813 0.00274872
0.209189 0.00380731
0.210552 0.00244383
0.213384 0.00527571
0.216636 0.00202368
0.217309 0.00269724
0.218531 0.00147588
0.221592 0.00453661
0.222193 0.00393504
0.223277 0.00501923
0.223493 0.00480319
0.224925 0.00623453
0.226475 0.0046838
0.226761 0.00496937
0.227546 0.00418403
0.227958 0.00459599
0.230472 0.00208213
0.230553 0.00216264
0.232715 0
inf 0


"layer 23:"
-inf 0
0.160877 0
0.161097 0.000219365
0.161316 0
0.16384 0
0.164597 0.000756264
0.16508 0.00027306
0.165809 0.00100202
0.166811 0
0.168513 0
0.169369 0.00085616
0.169601 0.000623795
0.170837 0.00185909
0.171087 0.00160877
0.171772 0.00229415
0.171967 0.00209926
0.17342 0.00355225
0.17367 0.00330259
0.17458 0.00421318
0.174937 0.00385637
0.176438 0.00535684
0.177586 0.00420896
0.177786 0.00440985
0.17857 0.00362612
0.181893 0.00694917
0.182391 0.00645163
0.182538 0.00659851
0.184361 0.00477473
0.184515 0.00492797
0.184525 0.004918
0.184891 0.00528421
0.184918 0.00525655
0.186514 0.00685244
0.189713 0.00365332
0.190069 0.00400885
0.191166 0.0029115
0.193788 0.00553272
0.196731 0.00258909
0.19729 0.00314752
0.197409 0.00302791
0.197826 0.00344506
0.198178 0.00309303
0.20054 0.00545472
0.204932 0.00106255
0.206019 0.0021489
0.206774 0.00139318
0.20813 0.00274872
0.209493 0.00138523
0.210552 0.00244383
0.212996 0
0.214612 0
0.216636 0.00202368
0.216654 0.00200557
0.21717 0.00252172
0.218373 0.00131846
0.218531 0.00147588
0.219132 0.000874309
0.222193 0.00393504
0.222409 0.00371901
0.223493 0.00480319
0.225044 0.00325247
0.226475 0.0046838
0.227261 0.00389846
0.227546 0.00418403
0.23006 0.00167017
0.230472 0.00208213
0.232554 0
inf 0


"layer 24:"
-inf 0
0.164807 0
0.16508 0.00027306
0.165353 0
0.168977 0
0.169601 0.000623795
0.169852 0.000373475
0.171087 0.00160877
0.171282 0.00141389
0.171967 0.00209926
0.172217 0.0018496
0.17367 0.00330259
0.174027 0.00294578
0.174937 0.00385637
0.176085 0.00270849
0.177586 0.00420896
0.178369 0.00342523
0.17857 0.00362612
0.179068 0.00312858
0.182391 0.00645163
0.184215 0.00462785
0.184361 0.00477473
0.184371 0.00476475
0.184525 0.004918
0.184552 0.00489033
0.184918 0.00525655
0.188118 0.00205744
0.189713 0.00365332
0.190811 0.00255598
0.191166 0.0029115
0.194078 0
0.194142 0
0.196731 0.00258909
0.196851 0.00246948
0.197409 0.00302791
0.197761 0.00267588
0.198178 0.00309303
0.201271 0
0.20387 0
0.204932 0.00106255
0.205688 0.000306829
0.206774 0.00139318
0.208138 2.97002e-05
0.209493 0.00138523
0.210879 0
0.214648 0
0.216654 0.00200557
0.217857 0.000802311
0.218373 0.00131846
0.218975 0.000716894
0.219132 0.000874309
0.219348 0.000658274
0.222409 0.00371901
0.22396 0.00216828
0.225044 0.00325247
0.225829 0.00246712
0.227261 0.00389846
0.229775 0.0013846
0.23006 0.00167017
0.23173 0
inf 0


"layer 25:"
-inf 0
0.169478 0
0.169852 0.000373475
0.170046 0.000178587
0.171282 0.00141389
0.171531 0.00116423
0.172217 0.0018496
0.172574 0.00149279
0.174027 0.00294578
0.175174 0.0017979
0.176085 0.00270849
0.176869 0.00192475
0.178369 0.00342523
0.178867 0.00292769
0.179068 0.00312858
0.180891 0.00130479
0.184215 0.00462785
0.184224 0.00461787
0.184371 0.00476475
0.184399 0.00473709
0.184552 0.00489033
0.187751 0.00169122
0.188118 0.00205744
0.189215 0.000960087
0.190811 0.00255598
0.193367 0
0.194381 0
0.196851 0.00246948
0.197203 0.00211744
0.197761 0.00267588
0.200437 0
0.205381 0
0.205688 0.000306829
0.205995 0
0.208108 0
0.208138 2.97002e-05
0.208168 0
0.217055 0
0.217857 0.000802311
0.218459 0.000200745
0.218975 0.000716894
0.219191 0.000500859
0.219348 0.000658274
0.220007 0
0.221792 0
0.22396 0.00216828
0.224745 0.00138294
0.225829 0.00246712
0.228297 0
0.22839 0
0.229775 0.0013846
0.231159 0
inf 0


"layer 26:"
-inf 0
0.169868 0
0.170046 0.000178587
0.170225 0
0.170367 0
0.171531 0.00116423
0.171888 0.000807413
0.172574 0.00149279
0.173721 0.000344908
0.175174 0.0017979
0.175958 0.00101416
0.176869 0.00192475
0.177366 0.00142721
0.178867 0.00292769
0.180691 0.0011039
0.180891 0.00130479
0.180901 0.00129482
0.184224 0.00461787
0.184252 0.00459021
0.184399 0.00473709
0.187598 0.00153798
0.187751 0.00169122
0.188849 0.00059387
0.189215 0.000960087
0.190091 8.43773e-05
0.190251 0.000244511
0.190495 0
0.195085 0
0.197203 0.00211744
0.19932 0
0.218258 0
0.218459 0.000200745
0.21866 0
0.21869 0
0.219191 0.000500859
0.219692 0
0.223362 0
0.224745 0.00138294
0.226128 0
inf 0


"layer 27:"
-inf 0
0.171081 0
0.171888 0.000807413
0.172696 0
0.173377 0
0.173721 0.000344908
0.174066 0
0.174944 0
0.175958 0.00101416
0.176456 0.000516624
0.177366 0.00142721
0.178794 0
0.179587 0
0.180691 0.0011039
0.180701 0.00109393
0.180901 0.00129482
0.180929 0.00126715
0.184252 0.00459021
0.187451 0.00139109
0.187598 0.00153798
0.188695 0.000440628
0.188849 0.00059387
0.189443 0
0.190006 0
0.190091 8.43773e-05
0.190175 0
inf 0


"layer 28:"
-inf 0
0.175939 0
0.176456 0.000516624
0.176972 0
0.179607 0
0.180701 0.00109393
0.180728 0.00106627
0.180929 0.00126715
0.182196 0
0.18606 0
0.187451 0.00139109
0.188549 0.000293747
0.188695 0.000440628
0.189136 0
inf 0


"layer 29:"
-inf 0
0.179662 0
0.180728 0.00106627
0.181794 0
0.188255 0
0.188549 0.000293747
0.188842 0
inf 0


