0.105776	0.166987
0.121521	0.125281
0.140672	0.148919
0.146306	0.152829
0.150449	0.173292
0.165322	0.176041
0.166929	0.173717
0.169106	0.209108
0.173789	0.206899
0.186074	0.199785
0.18677	0.264227
0.191073	0.387249
0.204967	0.311742
0.205364	0.217956
0.206896	0.226606
0.211451	0.330919
0.211949	0.269451
0.215712	0.38308
0.215814	0.244935
0.219621	0.234247
0.220778	0.286891
0.226547	0.270698
0.226938	0.268305
0.22805	0.268634
0.239192	0.246708
0.240536	0.368642
0.240701	0.282665
0.241245	0.470476
0.242563	0.383747
0.242965	0.321754
0.244593	0.315672
0.246325	0.367761
0.24838	0.348763
0.249842	0.256997
0.257602	0.319008
0.259066	0.375496
0.262204	0.283137
0.26431	0.271178
0.265128	0.43959
0.271275	0.320123
0.276922	0.413851
0.278707	0.375796
0.282589	0.342131
0.286312	0.419124
0.302147	0.330796
0.310585	0.428775
0.341546	0.373459
0.345589	0.357691
0.345946	0.390355
0.370902	0.406006

