0.0956991	0.0960168
0.129152	0.18086
0.175379	0.242964
0.178538	0.183819
0.181947	0.267364
0.19187	0.197305
0.191978	0.274784
0.200316	0.286969
0.204035	0.259856
0.204829	0.212843
0.211148	0.479895
0.21342	0.238886
0.214812	0.382616
0.214891	0.298734
0.21745	0.433735
0.219831	0.230192
0.221136	0.422972
0.225285	0.37266
0.225709	0.252336
0.226125	0.228947
0.227861	0.419864
0.230246	0.280081
0.231049	0.258435
0.236059	0.338547
0.246698	0.251579
0.248343	0.273142
0.249445	0.283544
0.252891	0.281226
0.259609	0.291004
0.261479	0.400135
0.264982	0.295373
0.266789	0.290938
0.267006	0.414292
0.268451	0.286272
0.273417	0.323854
0.273675	0.481403
0.278768	0.309129
0.279757	0.285995
0.282568	0.286051
0.283481	0.330277
0.296004	0.369729
0.305846	0.386862
0.32381	0.335813
0.328131	0.339906
0.341778	0.374902
0.350595	0.350672
0.364405	0.395048
0.420529	0.454563
0.425443	0.43378

