0.0787727	0.0793057
0.0875108	0.0931907
0.132357	0.168026
0.13372	0.147889
0.145474	0.195288
0.169732	0.189546
0.173789	0.186929
0.175981	0.340207
0.185858	0.195149
0.19185	0.286882
0.195087	0.236801
0.203105	0.245679
0.212802	0.236867
0.213522	0.295713
0.215448	0.278616
0.217897	0.30609
0.21913	0.244402
0.22352	0.398263
0.224639	0.231958
0.227132	0.338131
0.234915	inf
0.245857	0.327253
0.247707	0.256853
0.251684	0.311046
0.255621	0.323206
0.257193	0.268864
0.257745	0.367922
0.258709	0.275567
0.265088	0.271097
0.272975	0.336201
0.278852	0.399252
0.282305	0.497926
0.28464	0.289996
0.289557	0.479386
0.293603	0.302123
0.297334	0.314564
0.298205	0.36771
0.301056	0.305003
0.30217	0.39422
0.308153	0.480285
0.324097	0.440274
0.327801	0.394772
0.327895	0.359625
0.330707	0.332816
0.36214	0.41287
0.397201	0.397923
0.415278	0.454298

