0.130489	0.158531
0.134894	0.167022
0.170922	0.224774
0.171191	0.198928
0.196208	0.200659
0.196502	0.207237
0.202184	0.206295
0.209084	0.239707
0.21454	0.369388
0.2163	0.285907
0.217576	0.224567
0.221234	0.232873
0.221831	0.329474
0.226845	0.393664
0.232948	0.252158
0.234009	0.244478
0.23461	0.253192
0.235742	0.354933
0.236877	0.275773
0.237727	0.239058
0.237998	0.454321
0.243995	0.283974
0.245047	0.275891
0.247788	0.258768
0.253006	0.312678
0.257263	0.41103
0.267881	0.47006
0.268685	0.370353
0.271265	0.34208
0.27343	0.303403
0.275294	0.490321
0.281844	0.361376
0.28761	0.298702
0.297727	0.347478
0.306106	0.386202
0.312203	0.342601
0.312335	0.36573
0.313667	0.31911
0.317331	0.411475
0.337229	0.396819
0.33797	0.354846
0.344353	0.410724
0.35826	0.485056
0.366396	0.443068
0.399134	0.415564
0.399176	0.403169

