0.0967225	0.0999996
0.103262	0.123393
0.146835	0.156526
0.15313	0.193752
0.157941	0.192261
0.163599	0.214479
0.170832	0.210377
0.172953	0.213466
0.175122	0.176676
0.177134	0.204236
0.179114	0.223483
0.179682	0.181074
0.181309	0.20602
0.182528	0.210399
0.187788	0.245214
0.189226	0.220143
0.190678	0.30197
0.195158	0.301916
0.202307	0.322675
0.202457	0.281412
0.20438	0.269959
0.205594	0.267489
0.208373	0.239448
0.211731	0.228979
0.213831	0.334416
0.22091	0.277225
0.227567	0.246596
0.231967	0.269072
0.232003	0.409479
0.236149	0.364547
0.242401	0.315881
0.242993	0.436951
0.243724	0.261473
0.252561	0.25369
0.253129	0.310398
0.264582	0.273403
0.265232	0.319426
0.267506	0.340354
0.269285	0.325109
0.276432	0.419037
0.285772	0.346396
0.293596	0.377084
0.295209	0.362895
0.300619	0.303
0.307036	0.358438
0.309214	0.317971
0.31469	0.324983
0.317602	0.378099
0.323671	0.324499
0.324925	0.417737
0.326307	0.331651
0.330772	0.389029
0.340926	0.391981
0.361821	0.435049
0.37493	0.375536

