0.147264	0.151745
0.157662	0.159929
0.163068	0.170143
0.169747	0.183392
0.180572	0.1806
0.183756	0.20801
0.192768	0.2759
0.198604	0.258491
0.200326	0.299633
0.200845	0.303945
0.202516	0.308699
0.207332	inf
0.207979	0.219245
0.208265	0.364362
0.212858	0.224401
0.214496	0.364961
0.216241	0.327568
0.221455	0.290606
0.222228	0.261089
0.223096	0.260957
0.223497	0.241791
0.22471	0.241207
0.225758	0.271031
0.235246	0.372763
0.242057	0.250569
0.242832	0.304711
0.243795	0.356595
0.248843	0.356035
0.257892	0.34442
0.262429	0.331814
0.269698	0.325436
0.271568	0.281613
0.273535	0.274203
0.281686	0.284125
0.284681	0.478272
0.296438	0.365837
0.296861	0.332322
0.302398	0.458098
0.321761	0.321973
0.325853	0.449862
0.33211	0.386314
0.333196	0.456803
0.358322	0.429322
0.393281	0.39932

