3	6124
6	6124
6	6124
6	6124
6	6124
8	6124
10	6124
10	6124
10	6124
10	6124
13	6124
13	6124
13	6124
13	6124
13	6124
13	6124
13	6124
13	6124
14	6124
14	6124
14	6124
18	6124
18	6124
18	6124
18	6124
18	6124
23	6124
23	6124
23	6124
23	6124
23	6124
36	6124
36	6124
36	6124
36	6124
36	6124
36	6124
36	6124
36	6124
36	6124
36	6124
197	6124
197	6124
197	6124
197	6124
197	6124
197	6124
197	6124
197	6124
197	6124
197	6124
197	6124
197	6124
197	6124
197	6124
197	6124
197	6124
197	6124
197	6124
197	6124
197	6124
197	6124
197	6124
197	6124
197	6124
197	6124
