5	6124
8	6124
8	6124
9	6124
9	6124
9	6124
11	6124
11	6124
11	6124
11	6124
11	6124
11	6124
11	6124
11	6124
11	6124
11	6124
11	6124
11	6124
11	6124
11	6124
11	6124
11	6124
11	6124
11	6124
11	6124
11	6124
12	6124
12	6124
12	6124
12	6124
12	6124
15	6124
15	6124
15	6124
15	6124
15	6124
15	6124
15	6124
270	6124
270	6124
270	6124
270	6124
270	6124
270	6124
270	6124
270	6124
270	6124
270	6124
270	6124
270	6124
270	6124
270	6124
270	6124
270	6124
270	6124
270	6124
270	6124
270	6124
270	6124
270	6124
270	6124
270	6124
270	6124
270	6124
270	6124
270	6124
270	6124
270	6124
270	6124
270	6124
270	6124
270	6124
270	6124
270	6124
