5	6124
5	6124
7	6124
7	6124
8	6124
8	6124
8	6124
8	6124
9	6124
9	6124
10	6124
10	6124
10	6124
10	6124
10	6124
14	6124
14	6124
14	6124
14	6124
17	6124
17	6124
17	6124
17	6124
17	6124
17	6124
17	6124
115	6124
115	6124
115	6124
115	6124
115	6124
115	6124
115	6124
115	6124
115	6124
115	6124
115	6124
115	6124
115	6124
115	6124
115	6124
115	6124
115	6124
115	6124
115	6124
115	6124
115	6124
115	6124
115	6124
115	6124
115	6124
115	6124
115	6124
115	6124
115	6124
115	6124
