7	6124
7	6124
9	6124
9	6124
9	6124
9	6124
10	6124
10	6124
10	6124
10	6124
10	6124
10	6124
10	6124
10	6124
10	6124
10	6124
10	6124
10	6124
11	6124
11	6124
11	6124
11	6124
11	6124
11	6124
11	6124
11	6124
11	6124
22	6124
22	6124
22	6124
22	6124
22	6124
22	6124
29	6124
29	6124
29	6124
29	6124
29	6124
29	6124
29	6124
29	6124
29	6124
248	6124
248	6124
248	6124
248	6124
248	6124
248	6124
248	6124
248	6124
248	6124
248	6124
248	6124
248	6124
248	6124
248	6124
248	6124
248	6124
248	6124
248	6124
248	6124
248	6124
248	6124
248	6124
248	6124
248	6124
248	6124
248	6124
248	6124
248	6124
248	6124
248	6124
248	6124
248	6124
248	6124
248	6124
248	6124
248	6124
248	6124
248	6124
248	6124
248	6124
248	6124
248	6124
248	6124
248	6124
248	6124
248	6124
248	6124
248	6124
