5	6124
10	6124
10	6124
10	6124
10	6124
12	6124
12	6124
33	6124
33	6124
33	6124
33	6124
33	6124
33	6124
181	6124
181	6124
181	6124
181	6124
181	6124
181	6124
181	6124
181	6124
181	6124
181	6124
181	6124
181	6124
181	6124
181	6124
181	6124
181	6124
181	6124
181	6124
181	6124
181	6124
181	6124
181	6124
181	6124
181	6124
181	6124
181	6124
181	6124
181	6124
181	6124
181	6124
181	6124
