4	6124
5	6124
5	6124
8	6124
12	6124
12	6124
12	6124
12	6124
13	6124
13	6124
19	6124
19	6124
19	6124
24	6124
24	6124
24	6124
24	6124
24	6124
24	6124
24	6124
24	6124
24	6124
107	6124
107	6124
107	6124
107	6124
107	6124
107	6124
107	6124
107	6124
107	6124
107	6124
107	6124
107	6124
107	6124
107	6124
107	6124
107	6124
107	6124
107	6124
107	6124
107	6124
107	6124
107	6124
107	6124
107	6124
107	6124
107	6124
107	6124
107	6124
107	6124
107	6124
107	6124
107	6124
107	6124
107	6124
107	6124
107	6124
107	6124
107	6124
107	6124
