3	6124
5	6124
6	6124
6	6124
6	6124
7	6124
7	6124
8	6124
8	6124
8	6124
8	6124
8	6124
10	6124
10	6124
20	6124
20	6124
20	6124
20	6124
20	6124
20	6124
20	6124
20	6124
20	6124
47	6124
47	6124
47	6124
47	6124
47	6124
47	6124
47	6124
47	6124
47	6124
47	6124
47	6124
47	6124
47	6124
47	6124
47	6124
