6	6124
6	6124
6	6124
7	6124
7	6124
7	6124
7	6124
7	6124
7	6124
7	6124
7	6124
7	6124
7	6124
8	6124
8	6124
8	6124
8	6124
8	6124
8	6124
8	6124
8	6124
8	6124
9	6124
9	6124
9	6124
9	6124
9	6124
9	6124
9	6124
11	6124
11	6124
11	6124
11	6124
11	6124
11	6124
11	6124
13	6124
13	6124
13	6124
13	6124
13	6124
13	6124
13	6124
13	6124
13	6124
14	6124
14	6124
14	6124
14	6124
15	6124
15	6124
15	6124
15	6124
15	6124
15	6124
15	6124
15	6124
15	6124
16	6124
16	6124
16	6124
16	6124
16	6124
16	6124
16	6124
16	6124
16	6124
16	6124
16	6124
16	6124
16	6124
16	6124
16	6124
16	6124
22	6124
22	6124
22	6124
22	6124
22	6124
22	6124
98	6124
98	6124
98	6124
98	6124
98	6124
98	6124
98	6124
98	6124
98	6124
98	6124
98	6124
98	6124
98	6124
98	6124
98	6124
98	6124
98	6124
98	6124
98	6124
98	6124
98	6124
98	6124
98	6124
98	6124
98	6124
98	6124
98	6124
98	6124
98	6124
98	6124
98	6124
98	6124
98	6124
98	6124
98	6124
98	6124
98	6124
98	6124
98	6124
98	6124
