9	6124
9	6124
9	6124
9	6124
9	6124
10	6124
10	6124
10	6124
10	6124
10	6124
10	6124
16	6124
16	6124
16	6124
16	6124
16	6124
16	6124
16	6124
16	6124
26	6124
26	6124
26	6124
26	6124
26	6124
26	6124
26	6124
26	6124
26	6124
87	6124
87	6124
87	6124
87	6124
87	6124
87	6124
87	6124
87	6124
87	6124
87	6124
87	6124
87	6124
87	6124
87	6124
87	6124
87	6124
87	6124
87	6124
87	6124
87	6124
87	6124
87	6124
