9	6124
10	6124
10	6124
13	6124
13	6124
13	6124
13	6124
32	6124
32	6124
32	6124
32	6124
32	6124
32	6124
32	6124
32	6124
32	6124
90	6124
90	6124
90	6124
90	6124
90	6124
90	6124
90	6124
90	6124
90	6124
90	6124
90	6124
90	6124
90	6124
90	6124
90	6124
90	6124
