4	6124
5	6124
7	6124
7	6124
9	6124
9	6124
9	6124
9	6124
12	6124
12	6124
12	6124
12	6124
15	6124
15	6124
15	6124
16	6124
16	6124
16	6124
16	6124
16	6124
16	6124
16	6124
17	6124
17	6124
17	6124
17	6124
18	6124
18	6124
18	6124
18	6124
18	6124
18	6124
18	6124
228	6124
228	6124
228	6124
228	6124
228	6124
228	6124
228	6124
228	6124
228	6124
228	6124
228	6124
228	6124
228	6124
228	6124
228	6124
228	6124
228	6124
228	6124
228	6124
228	6124
228	6124
228	6124
228	6124
228	6124
228	6124
228	6124
228	6124
228	6124
228	6124
228	6124
228	6124
