7	6124
7	6124
7	6124
8	6124
8	6124
8	6124
8	6124
8	6124
9	6124
19	6124
39	6124
39	6124
39	6124
39	6124
39	6124
39	6124
39	6124
39	6124
39	6124
39	6124
39	6124
39	6124
39	6124
39	6124
39	6124
39	6124
39	6124
39	6124
39	6124
112	6124
112	6124
112	6124
112	6124
112	6124
112	6124
112	6124
112	6124
112	6124
112	6124
112	6124
112	6124
112	6124
112	6124
112	6124
112	6124
112	6124
112	6124
112	6124
112	6124
112	6124
112	6124
