5	6124
6	6124
6	6124
6	6124
8	6124
8	6124
8	6124
9	6124
10	6124
10	6124
10	6124
12	6124
12	6124
13	6124
13	6124
13	6124
13	6124
13	6124
14	6124
14	6124
14	6124
14	6124
158	6124
158	6124
158	6124
158	6124
158	6124
158	6124
158	6124
158	6124
158	6124
158	6124
158	6124
158	6124
158	6124
158	6124
158	6124
158	6124
158	6124
158	6124
158	6124
158	6124
158	6124
158	6124
158	6124
158	6124
158	6124
158	6124
158	6124
158	6124
158	6124
158	6124
158	6124
158	6124
158	6124
158	6124
158	6124
158	6124
158	6124
158	6124
158	6124
158	6124
158	6124
158	6124
158	6124
158	6124
