7	6124
8	6124
8	6124
8	6124
9	6124
9	6124
9	6124
9	6124
9	6124
11	6124
11	6124
11	6124
11	6124
12	6124
12	6124
12	6124
12	6124
14	6124
14	6124
14	6124
20	6124
20	6124
20	6124
20	6124
20	6124
20	6124
20	6124
20	6124
20	6124
20	6124
20	6124
26	6124
26	6124
26	6124
26	6124
26	6124
26	6124
26	6124
26	6124
26	6124
26	6124
26	6124
26	6124
26	6124
26	6124
26	6124
26	6124
26	6124
26	6124
294	6124
294	6124
294	6124
294	6124
294	6124
294	6124
294	6124
294	6124
294	6124
294	6124
294	6124
294	6124
294	6124
294	6124
294	6124
294	6124
294	6124
294	6124
294	6124
294	6124
294	6124
294	6124
294	6124
294	6124
294	6124
294	6124
294	6124
294	6124
294	6124
294	6124
294	6124
294	6124
294	6124
294	6124
294	6124
294	6124
294	6124
294	6124
294	6124
294	6124
294	6124
294	6124
294	6124
294	6124
294	6124
