4	6124
4	6124
5	6124
5	6124
8	6124
8	6124
9	6124
9	6124
10	6124
10	6124
10	6124
10	6124
10	6124
10	6124
12	6124
12	6124
12	6124
12	6124
12	6124
19	6124
19	6124
19	6124
19	6124
19	6124
19	6124
19	6124
19	6124
19	6124
28	6124
28	6124
28	6124
28	6124
28	6124
28	6124
99	6124
99	6124
99	6124
99	6124
99	6124
99	6124
99	6124
99	6124
99	6124
99	6124
99	6124
99	6124
99	6124
99	6124
99	6124
99	6124
99	6124
99	6124
99	6124
99	6124
99	6124
99	6124
99	6124
99	6124
99	6124
99	6124
99	6124
99	6124
99	6124
99	6124
99	6124
99	6124
99	6124
99	6124
99	6124
