4	6124
6	6124
7	6124
7	6124
8	6124
8	6124
8	6124
8	6124
9	6124
9	6124
9	6124
9	6124
9	6124
12	6124
12	6124
12	6124
12	6124
12	6124
16	6124
16	6124
16	6124
16	6124
20	6124
20	6124
20	6124
20	6124
20	6124
28	6124
28	6124
28	6124
28	6124
28	6124
28	6124
28	6124
28	6124
28	6124
28	6124
28	6124
28	6124
33	6124
33	6124
33	6124
33	6124
33	6124
33	6124
33	6124
33	6124
33	6124
33	6124
33	6124
33	6124
33	6124
33	6124
133	6124
133	6124
133	6124
133	6124
133	6124
133	6124
133	6124
133	6124
133	6124
133	6124
133	6124
133	6124
133	6124
133	6124
133	6124
133	6124
133	6124
133	6124
133	6124
133	6124
133	6124
133	6124
133	6124
133	6124
133	6124
133	6124
133	6124
133	6124
133	6124
133	6124
133	6124
133	6124
133	6124
133	6124
133	6124
133	6124
133	6124
133	6124
133	6124
