5	6124
6	6124
7	6124
7	6124
7	6124
7	6124
8	6124
8	6124
8	6124
14	6124
14	6124
14	6124
20	6124
20	6124
20	6124
20	6124
20	6124
20	6124
174	6124
174	6124
174	6124
174	6124
174	6124
174	6124
174	6124
174	6124
174	6124
174	6124
174	6124
174	6124
174	6124
174	6124
174	6124
174	6124
174	6124
174	6124
174	6124
174	6124
174	6124
174	6124
174	6124
174	6124
174	6124
174	6124
