5	6124
5	6124
5	6124
6	6124
6	6124
6	6124
6	6124
6	6124
6	6124
6	6124
7	6124
7	6124
7	6124
7	6124
7	6124
7	6124
7	6124
7	6124
7	6124
17	6124
17	6124
17	6124
17	6124
17	6124
17	6124
17	6124
17	6124
17	6124
17	6124
17	6124
55	6124
55	6124
55	6124
55	6124
55	6124
55	6124
55	6124
55	6124
55	6124
55	6124
55	6124
55	6124
