5	6124
6	6124
6	6124
6	6124
6	6124
6	6124
6	6124
8	6124
8	6124
8	6124
8	6124
9	6124
9	6124
9	6124
9	6124
9	6124
12	6124
12	6124
31	6124
31	6124
31	6124
31	6124
31	6124
32	6124
32	6124
32	6124
32	6124
32	6124
32	6124
32	6124
32	6124
32	6124
287	6124
287	6124
287	6124
287	6124
287	6124
287	6124
287	6124
287	6124
287	6124
287	6124
287	6124
287	6124
287	6124
287	6124
287	6124
287	6124
287	6124
287	6124
287	6124
287	6124
287	6124
287	6124
287	6124
287	6124
287	6124
287	6124
287	6124
287	6124
287	6124
287	6124
287	6124
287	6124
287	6124
287	6124
287	6124
287	6124
287	6124
287	6124
287	6124
287	6124
