4	6124
6	6124
7	6124
7	6124
7	6124
7	6124
8	6124
8	6124
8	6124
8	6124
8	6124
8	6124
8	6124
8	6124
8	6124
9	6124
9	6124
9	6124
9	6124
9	6124
9	6124
10	6124
10	6124
10	6124
10	6124
10	6124
10	6124
10	6124
10	6124
10	6124
10	6124
10	6124
10	6124
10	6124
10	6124
10	6124
10	6124
10	6124
10	6124
10	6124
12	6124
12	6124
12	6124
12	6124
12	6124
12	6124
12	6124
12	6124
21	6124
21	6124
21	6124
21	6124
21	6124
21	6124
21	6124
21	6124
21	6124
21	6124
21	6124
21	6124
21	6124
23	6124
23	6124
23	6124
23	6124
23	6124
23	6124
23	6124
23	6124
23	6124
102	6124
102	6124
102	6124
102	6124
102	6124
102	6124
102	6124
102	6124
102	6124
102	6124
102	6124
102	6124
102	6124
102	6124
102	6124
102	6124
102	6124
102	6124
102	6124
102	6124
102	6124
102	6124
102	6124
102	6124
102	6124
102	6124
102	6124
102	6124
102	6124
102	6124
102	6124
102	6124
102	6124
102	6124
102	6124
102	6124
102	6124
102	6124
102	6124
102	6124
102	6124
102	6124
102	6124
102	6124
102	6124
102	6124
102	6124
102	6124
102	6124
