3	6124
4	6124
5	6124
6	6124
7	6124
7	6124
7	6124
8	6124
9	6124
9	6124
9	6124
9	6124
9	6124
11	6124
11	6124
11	6124
11	6124
11	6124
11	6124
11	6124
11	6124
11	6124
11	6124
11	6124
12	6124
12	6124
12	6124
12	6124
12	6124
12	6124
13	6124
13	6124
13	6124
13	6124
13	6124
16	6124
16	6124
16	6124
16	6124
16	6124
20	6124
20	6124
20	6124
20	6124
21	6124
21	6124
21	6124
21	6124
21	6124
21	6124
21	6124
21	6124
21	6124
21	6124
21	6124
21	6124
21	6124
21	6124
21	6124
23	6124
23	6124
23	6124
23	6124
23	6124
23	6124
23	6124
23	6124
23	6124
23	6124
23	6124
23	6124
23	6124
23	6124
23	6124
23	6124
23	6124
23	6124
23	6124
23	6124
23	6124
24	6124
24	6124
24	6124
24	6124
24	6124
24	6124
24	6124
24	6124
24	6124
24	6124
263	6124
263	6124
263	6124
263	6124
263	6124
263	6124
263	6124
263	6124
263	6124
263	6124
263	6124
263	6124
263	6124
263	6124
263	6124
263	6124
263	6124
263	6124
263	6124
263	6124
263	6124
263	6124
263	6124
263	6124
263	6124
263	6124
263	6124
263	6124
263	6124
263	6124
263	6124
263	6124
263	6124
263	6124
263	6124
263	6124
263	6124
263	6124
263	6124
263	6124
263	6124
263	6124
263	6124
263	6124
263	6124
263	6124
263	6124
263	6124
263	6124
263	6124
263	6124
263	6124
263	6124
263	6124
263	6124
263	6124
263	6124
263	6124
263	6124
263	6124
263	6124
263	6124
263	6124
263	6124
263	6124
263	6124
263	6124
263	6124
263	6124
263	6124
263	6124
263	6124
263	6124
263	6124
263	6124
263	6124
263	6124
263	6124
263	6124
263	6124
263	6124
263	6124
263	6124
263	6124
263	6124
263	6124
263	6124
263	6124
263	6124
263	6124
263	6124
263	6124
