8	6124
10	6124
11	6124
11	6124
11	6124
11	6124
11	6124
11	6124
34	6124
34	6124
34	6124
34	6124
34	6124
34	6124
34	6124
34	6124
34	6124
65	6124
65	6124
65	6124
65	6124
65	6124
65	6124
65	6124
65	6124
65	6124
65	6124
65	6124
65	6124
65	6124
