4	6124
4	6124
4	6124
4	6124
5	6124
5	6124
5	6124
5	6124
5	6124
6	6124
7	6124
7	6124
9	6124
9	6124
9	6124
17	6124
17	6124
17	6124
17	6124
92	6124
92	6124
92	6124
92	6124
92	6124
92	6124
92	6124
92	6124
92	6124
92	6124
