13	6124
13	6124
19	6124
19	6124
21	6124
21	6124
21	6124
21	6124
21	6124
21	6124
40	6124
40	6124
40	6124
40	6124
40	6124
40	6124
40	6124
40	6124
40	6124
40	6124
40	6124
40	6124
40	6124
40	6124
40	6124
52	6124
52	6124
52	6124
52	6124
52	6124
52	6124
52	6124
52	6124
52	6124
52	6124
