5	6124
5	6124
6	6124
8	6124
8	6124
9	6124
9	6124
10	6124
10	6124
29	6124
29	6124
29	6124
29	6124
29	6124
29	6124
29	6124
29	6124
49	6124
49	6124
49	6124
49	6124
49	6124
49	6124
49	6124
49	6124
49	6124
49	6124
49	6124
49	6124
