6	6124
6	6124
7	6124
7	6124
7	6124
8	6124
8	6124
8	6124
8	6124
8	6124
8	6124
8	6124
8	6124
8	6124
8	6124
8	6124
8	6124
8	6124
8	6124
9	6124
9	6124
9	6124
9	6124
9	6124
9	6124
9	6124
9	6124
10	6124
10	6124
10	6124
10	6124
10	6124
10	6124
10	6124
10	6124
10	6124
10	6124
10	6124
10	6124
10	6124
10	6124
10	6124
10	6124
10	6124
10	6124
10	6124
10	6124
10	6124
10	6124
10	6124
11	6124
11	6124
11	6124
11	6124
11	6124
11	6124
11	6124
11	6124
11	6124
11	6124
11	6124
11	6124
11	6124
11	6124
11	6124
11	6124
11	6124
11	6124
11	6124
11	6124
12	6124
12	6124
12	6124
12	6124
12	6124
12	6124
12	6124
12	6124
12	6124
12	6124
12	6124
12	6124
12	6124
12	6124
12	6124
12	6124
12	6124
12	6124
12	6124
12	6124
12	6124
12	6124
12	6124
12	6124
13	6124
13	6124
13	6124
13	6124
13	6124
13	6124
13	6124
13	6124
13	6124
13	6124
13	6124
13	6124
13	6124
13	6124
13	6124
14	6124
17	6124
17	6124
17	6124
17	6124
17	6124
17	6124
17	6124
17	6124
17	6124
17	6124
17	6124
17	6124
17	6124
17	6124
17	6124
17	6124
17	6124
17	6124
17	6124
17	6124
17	6124
17	6124
17	6124
17	6124
17	6124
17	6124
17	6124
17	6124
17	6124
17	6124
17	6124
17	6124
17	6124
17	6124
17	6124
17	6124
17	6124
17	6124
17	6124
17	6124
17	6124
17	6124
19	6124
19	6124
19	6124
19	6124
19	6124
19	6124
19	6124
19	6124
19	6124
19	6124
19	6124
19	6124
19	6124
19	6124
19	6124
19	6124
19	6124
19	6124
22	6124
22	6124
22	6124
22	6124
22	6124
22	6124
22	6124
22	6124
22	6124
22	6124
22	6124
22	6124
22	6124
22	6124
22	6124
22	6124
22	6124
22	6124
22	6124
22	6124
22	6124
22	6124
22	6124
22	6124
22	6124
22	6124
22	6124
22	6124
22	6124
22	6124
22	6124
22	6124
22	6124
36	6124
36	6124
36	6124
36	6124
36	6124
36	6124
36	6124
36	6124
36	6124
36	6124
36	6124
36	6124
36	6124
36	6124
36	6124
36	6124
36	6124
36	6124
36	6124
36	6124
36	6124
37	6124
37	6124
37	6124
37	6124
37	6124
37	6124
37	6124
37	6124
37	6124
37	6124
37	6124
37	6124
37	6124
37	6124
37	6124
37	6124
37	6124
37	6124
37	6124
37	6124
37	6124
37	6124
47	6124
47	6124
47	6124
47	6124
47	6124
47	6124
47	6124
47	6124
47	6124
47	6124
47	6124
47	6124
47	6124
47	6124
47	6124
47	6124
47	6124
47	6124
47	6124
47	6124
47	6124
47	6124
47	6124
47	6124
47	6124
47	6124
47	6124
47	6124
47	6124
47	6124
47	6124
47	6124
47	6124
352	6124
352	6124
352	6124
352	6124
352	6124
352	6124
352	6124
352	6124
352	6124
352	6124
352	6124
352	6124
352	6124
352	6124
352	6124
352	6124
352	6124
352	6124
352	6124
352	6124
352	6124
352	6124
352	6124
352	6124
352	6124
352	6124
352	6124
352	6124
352	6124
352	6124
352	6124
352	6124
352	6124
352	6124
352	6124
352	6124
352	6124
352	6124
352	6124
352	6124
352	6124
352	6124
352	6124
352	6124
352	6124
352	6124
352	6124
352	6124
352	6124
352	6124
352	6124
352	6124
352	6124
352	6124
352	6124
352	6124
352	6124
352	6124
352	6124
352	6124
352	6124
352	6124
352	6124
352	6124
352	6124
352	6124
352	6124
352	6124
352	6124
352	6124
352	6124
352	6124
352	6124
352	6124
352	6124
352	6124
352	6124
352	6124
352	6124
352	6124
352	6124
352	6124
352	6124
352	6124
352	6124
352	6124
352	6124
352	6124
352	6124
352	6124
352	6124
352	6124
352	6124
352	6124
352	6124
352	6124
352	6124
352	6124
352	6124
352	6124
352	6124
352	6124
352	6124
352	6124
352	6124
352	6124
352	6124
352	6124
352	6124
352	6124
352	6124
352	6124
352	6124
352	6124
352	6124
352	6124
352	6124
352	6124
352	6124
352	6124
352	6124
352	6124
352	6124
352	6124
352	6124
352	6124
352	6124
352	6124
352	6124
352	6124
352	6124
352	6124
352	6124
352	6124
352	6124
352	6124
352	6124
352	6124
352	6124
352	6124
352	6124
352	6124
352	6124
352	6124
352	6124
352	6124
352	6124
