5	6124
6	6124
7	6124
7	6124
7	6124
8	6124
8	6124
9	6124
9	6124
9	6124
9	6124
9	6124
9	6124
9	6124
9	6124
9	6124
9	6124
9	6124
9	6124
9	6124
10	6124
10	6124
10	6124
11	6124
11	6124
11	6124
11	6124
11	6124
11	6124
12	6124
12	6124
12	6124
12	6124
12	6124
61	6124
61	6124
61	6124
61	6124
61	6124
61	6124
61	6124
61	6124
61	6124
61	6124
61	6124
61	6124
61	6124
61	6124
61	6124
61	6124
61	6124
