3	6124
3	6124
5	6124
7	6124
7	6124
7	6124
8	6124
8	6124
8	6124
8	6124
8	6124
8	6124
8	6124
9	6124
9	6124
9	6124
9	6124
9	6124
9	6124
9	6124
9	6124
9	6124
9	6124
9	6124
9	6124
10	6124
10	6124
10	6124
10	6124
10	6124
10	6124
10	6124
10	6124
10	6124
10	6124
10	6124
10	6124
10	6124
10	6124
10	6124
11	6124
11	6124
11	6124
11	6124
11	6124
11	6124
11	6124
11	6124
11	6124
11	6124
11	6124
11	6124
11	6124
11	6124
11	6124
11	6124
11	6124
11	6124
11	6124
11	6124
11	6124
11	6124
11	6124
11	6124
11	6124
11	6124
11	6124
13	6124
13	6124
13	6124
13	6124
13	6124
13	6124
13	6124
14	6124
14	6124
14	6124
14	6124
14	6124
14	6124
14	6124
14	6124
14	6124
14	6124
14	6124
14	6124
14	6124
14	6124
14	6124
15	6124
15	6124
15	6124
15	6124
15	6124
16	6124
16	6124
16	6124
16	6124
16	6124
16	6124
16	6124
16	6124
16	6124
16	6124
16	6124
16	6124
16	6124
16	6124
16	6124
16	6124
17	6124
17	6124
17	6124
17	6124
17	6124
17	6124
17	6124
17	6124
17	6124
17	6124
17	6124
17	6124
17	6124
17	6124
17	6124
17	6124
17	6124
17	6124
17	6124
17	6124
17	6124
17	6124
17	6124
17	6124
17	6124
17	6124
17	6124
20	6124
20	6124
20	6124
20	6124
20	6124
20	6124
20	6124
20	6124
20	6124
20	6124
20	6124
20	6124
20	6124
20	6124
20	6124
20	6124
20	6124
20	6124
20	6124
20	6124
20	6124
20	6124
20	6124
20	6124
20	6124
22	6124
22	6124
22	6124
22	6124
22	6124
22	6124
22	6124
22	6124
22	6124
22	6124
22	6124
22	6124
22	6124
23	6124
23	6124
23	6124
23	6124
23	6124
23	6124
23	6124
23	6124
23	6124
23	6124
23	6124
23	6124
23	6124
23	6124
23	6124
24	6124
24	6124
24	6124
24	6124
24	6124
24	6124
24	6124
24	6124
24	6124
24	6124
24	6124
24	6124
24	6124
24	6124
24	6124
25	6124
25	6124
25	6124
25	6124
25	6124
25	6124
25	6124
25	6124
25	6124
25	6124
27	6124
27	6124
27	6124
27	6124
27	6124
27	6124
27	6124
27	6124
27	6124
27	6124
27	6124
28	6124
28	6124
28	6124
28	6124
28	6124
28	6124
28	6124
28	6124
28	6124
28	6124
28	6124
28	6124
28	6124
28	6124
28	6124
32	6124
32	6124
32	6124
32	6124
32	6124
32	6124
32	6124
32	6124
32	6124
32	6124
32	6124
32	6124
32	6124
32	6124
32	6124
32	6124
32	6124
279	6124
279	6124
279	6124
279	6124
279	6124
279	6124
279	6124
279	6124
279	6124
279	6124
279	6124
279	6124
279	6124
279	6124
279	6124
279	6124
279	6124
279	6124
279	6124
279	6124
279	6124
279	6124
279	6124
279	6124
279	6124
279	6124
279	6124
279	6124
279	6124
279	6124
279	6124
279	6124
279	6124
279	6124
279	6124
279	6124
279	6124
279	6124
279	6124
279	6124
279	6124
279	6124
279	6124
279	6124
279	6124
279	6124
279	6124
279	6124
279	6124
279	6124
279	6124
279	6124
279	6124
279	6124
279	6124
279	6124
279	6124
279	6124
279	6124
279	6124
279	6124
279	6124
279	6124
279	6124
279	6124
279	6124
279	6124
279	6124
279	6124
279	6124
279	6124
279	6124
279	6124
279	6124
279	6124
279	6124
279	6124
279	6124
279	6124
279	6124
279	6124
279	6124
279	6124
279	6124
279	6124
279	6124
279	6124
279	6124
279	6124
279	6124
279	6124
279	6124
279	6124
279	6124
279	6124
279	6124
279	6124
279	6124
