4	6124
5	6124
6	6124
6	6124
7	6124
7	6124
7	6124
7	6124
8	6124
8	6124
8	6124
8	6124
8	6124
8	6124
8	6124
8	6124
8	6124
8	6124
8	6124
9	6124
9	6124
9	6124
9	6124
13	6124
13	6124
13	6124
13	6124
13	6124
13	6124
13	6124
13	6124
13	6124
14	6124
14	6124
14	6124
16	6124
16	6124
16	6124
16	6124
16	6124
16	6124
22	6124
22	6124
22	6124
22	6124
22	6124
22	6124
22	6124
22	6124
22	6124
22	6124
22	6124
22	6124
26	6124
26	6124
26	6124
26	6124
26	6124
26	6124
26	6124
26	6124
26	6124
26	6124
26	6124
26	6124
26	6124
96	6124
96	6124
96	6124
96	6124
96	6124
96	6124
96	6124
96	6124
96	6124
96	6124
96	6124
96	6124
96	6124
96	6124
96	6124
96	6124
96	6124
96	6124
96	6124
96	6124
96	6124
96	6124
96	6124
96	6124
