6	6124
9	6124
10	6124
10	6124
10	6124
10	6124
10	6124
11	6124
11	6124
11	6124
11	6124
11	6124
11	6124
11	6124
11	6124
11	6124
11	6124
11	6124
11	6124
11	6124
11	6124
74	6124
74	6124
74	6124
74	6124
74	6124
74	6124
74	6124
74	6124
74	6124
74	6124
74	6124
74	6124
74	6124
74	6124
74	6124
74	6124
74	6124
74	6124
74	6124
