4	6124
5	6124
5	6124
5	6124
5	6124
6	6124
6	6124
6	6124
7	6124
7	6124
7	6124
7	6124
7	6124
7	6124
7	6124
7	6124
7	6124
7	6124
8	6124
8	6124
8	6124
9	6124
9	6124
9	6124
9	6124
9	6124
10	6124
10	6124
10	6124
10	6124
10	6124
10	6124
10	6124
10	6124
10	6124
10	6124
10	6124
10	6124
10	6124
10	6124
10	6124
10	6124
10	6124
10	6124
10	6124
10	6124
10	6124
10	6124
10	6124
10	6124
10	6124
11	6124
11	6124
11	6124
11	6124
11	6124
11	6124
11	6124
11	6124
11	6124
11	6124
11	6124
11	6124
11	6124
11	6124
11	6124
11	6124
11	6124
11	6124
11	6124
11	6124
11	6124
11	6124
11	6124
11	6124
11	6124
11	6124
11	6124
11	6124
11	6124
11	6124
11	6124
11	6124
11	6124
11	6124
11	6124
11	6124
12	6124
12	6124
12	6124
12	6124
13	6124
13	6124
13	6124
13	6124
13	6124
13	6124
15	6124
15	6124
15	6124
15	6124
15	6124
17	6124
17	6124
17	6124
17	6124
17	6124
17	6124
17	6124
17	6124
17	6124
17	6124
17	6124
17	6124
18	6124
18	6124
18	6124
18	6124
18	6124
18	6124
18	6124
18	6124
18	6124
18	6124
18	6124
18	6124
18	6124
18	6124
18	6124
18	6124
18	6124
18	6124
18	6124
19	6124
19	6124
19	6124
19	6124
19	6124
19	6124
19	6124
19	6124
19	6124
19	6124
19	6124
19	6124
19	6124
19	6124
19	6124
19	6124
19	6124
30	6124
30	6124
30	6124
30	6124
30	6124
30	6124
30	6124
30	6124
30	6124
30	6124
30	6124
30	6124
30	6124
30	6124
30	6124
30	6124
30	6124
30	6124
30	6124
30	6124
340	6124
340	6124
340	6124
340	6124
340	6124
340	6124
340	6124
340	6124
340	6124
340	6124
340	6124
340	6124
340	6124
340	6124
340	6124
340	6124
340	6124
340	6124
340	6124
340	6124
340	6124
340	6124
340	6124
340	6124
340	6124
340	6124
340	6124
340	6124
340	6124
340	6124
340	6124
340	6124
340	6124
340	6124
340	6124
340	6124
340	6124
340	6124
340	6124
340	6124
340	6124
340	6124
340	6124
340	6124
340	6124
340	6124
340	6124
340	6124
340	6124
340	6124
340	6124
340	6124
340	6124
340	6124
340	6124
340	6124
340	6124
340	6124
340	6124
340	6124
340	6124
340	6124
340	6124
340	6124
340	6124
340	6124
340	6124
340	6124
340	6124
340	6124
340	6124
340	6124
340	6124
340	6124
340	6124
340	6124
340	6124
340	6124
340	6124
340	6124
340	6124
340	6124
340	6124
340	6124
340	6124
340	6124
340	6124
340	6124
340	6124
340	6124
340	6124
340	6124
340	6124
340	6124
340	6124
340	6124
340	6124
340	6124
340	6124
340	6124
340	6124
340	6124
340	6124
340	6124
340	6124
340	6124
340	6124
340	6124
340	6124
