3	6124
5	6124
5	6124
5	6124
5	6124
6	6124
6	6124
8	6124
8	6124
8	6124
8	6124
9	6124
12	6124
12	6124
12	6124
64	6124
64	6124
64	6124
64	6124
64	6124
64	6124
64	6124
64	6124
64	6124
64	6124
64	6124
64	6124
64	6124
64	6124
64	6124
64	6124
64	6124
