4	6124
6	6124
7	6124
7	6124
9	6124
12	6124
12	6124
13	6124
13	6124
13	6124
13	6124
13	6124
13	6124
13	6124
27	6124
157	6124
157	6124
157	6124
157	6124
157	6124
157	6124
157	6124
157	6124
157	6124
157	6124
157	6124
157	6124
157	6124
157	6124
157	6124
157	6124
157	6124
157	6124
157	6124
157	6124
157	6124
157	6124
157	6124
157	6124
157	6124
157	6124
157	6124
157	6124
157	6124
157	6124
157	6124
157	6124
157	6124
157	6124
157	6124
157	6124
157	6124
157	6124
