5	6124
5	6124
5	6124
7	6124
8	6124
8	6124
8	6124
9	6124
11	6124
11	6124
11	6124
11	6124
11	6124
11	6124
11	6124
11	6124
13	6124
15	6124
15	6124
15	6124
15	6124
31	6124
31	6124
31	6124
31	6124
31	6124
31	6124
219	6124
219	6124
219	6124
219	6124
219	6124
219	6124
219	6124
219	6124
219	6124
219	6124
219	6124
219	6124
219	6124
219	6124
219	6124
219	6124
219	6124
219	6124
219	6124
219	6124
219	6124
219	6124
219	6124
219	6124
219	6124
219	6124
219	6124
219	6124
219	6124
219	6124
219	6124
219	6124
219	6124
219	6124
219	6124
219	6124
219	6124
219	6124
219	6124
219	6124
219	6124
219	6124
