5	6124
5	6124
8	6124
8	6124
8	6124
8	6124
8	6124
9	6124
10	6124
10	6124
10	6124
10	6124
11	6124
11	6124
11	6124
11	6124
11	6124
11	6124
11	6124
11	6124
11	6124
11	6124
12	6124
12	6124
13	6124
13	6124
13	6124
13	6124
13	6124
13	6124
13	6124
13	6124
13	6124
14	6124
14	6124
14	6124
14	6124
14	6124
14	6124
14	6124
14	6124
14	6124
14	6124
14	6124
14	6124
14	6124
14	6124
14	6124
14	6124
14	6124
16	6124
16	6124
16	6124
16	6124
16	6124
16	6124
17	6124
17	6124
17	6124
17	6124
17	6124
17	6124
17	6124
17	6124
17	6124
17	6124
17	6124
18	6124
18	6124
18	6124
19	6124
19	6124
19	6124
19	6124
19	6124
19	6124
19	6124
19	6124
19	6124
19	6124
22	6124
22	6124
22	6124
22	6124
22	6124
24	6124
24	6124
24	6124
24	6124
24	6124
24	6124
24	6124
24	6124
24	6124
24	6124
26	6124
26	6124
26	6124
26	6124
634	6124
634	6124
634	6124
634	6124
634	6124
634	6124
634	6124
634	6124
634	6124
634	6124
634	6124
634	6124
634	6124
634	6124
634	6124
634	6124
634	6124
634	6124
634	6124
634	6124
634	6124
634	6124
634	6124
634	6124
634	6124
634	6124
634	6124
634	6124
634	6124
634	6124
634	6124
634	6124
634	6124
634	6124
634	6124
634	6124
634	6124
634	6124
634	6124
634	6124
634	6124
634	6124
634	6124
634	6124
634	6124
634	6124
634	6124
634	6124
634	6124
634	6124
634	6124
634	6124
634	6124
634	6124
634	6124
634	6124
634	6124
634	6124
634	6124
634	6124
634	6124
634	6124
634	6124
634	6124
634	6124
634	6124
634	6124
634	6124
634	6124
634	6124
634	6124
634	6124
634	6124
634	6124
