8	6124
14	6124
15	6124
15	6124
15	6124
16	6124
16	6124
19	6124
19	6124
21	6124
22	6124
22	6124
22	6124
22	6124
22	6124
23	6124
23	6124
23	6124
23	6124
23	6124
23	6124
25	6124
25	6124
25	6124
25	6124
25	6124
25	6124
25	6124
138	6124
138	6124
138	6124
138	6124
138	6124
138	6124
138	6124
138	6124
138	6124
138	6124
138	6124
138	6124
138	6124
138	6124
138	6124
138	6124
138	6124
138	6124
138	6124
138	6124
138	6124
138	6124
138	6124
138	6124
138	6124
138	6124
138	6124
