6	6124
7	6124
8	6124
8	6124
9	6124
9	6124
9	6124
9	6124
9	6124
9	6124
9	6124
9	6124
9	6124
9	6124
9	6124
9	6124
10	6124
10	6124
10	6124
10	6124
11	6124
11	6124
11	6124
11	6124
11	6124
11	6124
11	6124
13	6124
13	6124
13	6124
13	6124
13	6124
13	6124
13	6124
13	6124
13	6124
13	6124
13	6124
14	6124
14	6124
14	6124
14	6124
14	6124
14	6124
14	6124
14	6124
14	6124
14	6124
14	6124
14	6124
14	6124
14	6124
14	6124
14	6124
14	6124
14	6124
14	6124
14	6124
14	6124
14	6124
14	6124
14	6124
14	6124
14	6124
14	6124
15	6124
15	6124
15	6124
15	6124
15	6124
15	6124
15	6124
15	6124
15	6124
15	6124
16	6124
16	6124
16	6124
16	6124
16	6124
16	6124
16	6124
16	6124
16	6124
16	6124
16	6124
16	6124
16	6124
17	6124
17	6124
17	6124
17	6124
17	6124
18	6124
18	6124
18	6124
18	6124
18	6124
18	6124
18	6124
18	6124
18	6124
18	6124
18	6124
18	6124
18	6124
18	6124
18	6124
18	6124
18	6124
18	6124
18	6124
18	6124
19	6124
19	6124
19	6124
20	6124
20	6124
20	6124
20	6124
20	6124
20	6124
20	6124
20	6124
20	6124
21	6124
21	6124
21	6124
21	6124
21	6124
21	6124
21	6124
21	6124
21	6124
21	6124
21	6124
21	6124
21	6124
21	6124
21	6124
21	6124
21	6124
21	6124
23	6124
25	6124
25	6124
25	6124
25	6124
25	6124
25	6124
25	6124
25	6124
25	6124
25	6124
26	6124
26	6124
26	6124
29	6124
29	6124
29	6124
29	6124
29	6124
29	6124
29	6124
29	6124
29	6124
29	6124
37	6124
37	6124
37	6124
37	6124
37	6124
37	6124
37	6124
37	6124
37	6124
37	6124
37	6124
37	6124
37	6124
37	6124
37	6124
37	6124
37	6124
58	6124
58	6124
58	6124
58	6124
58	6124
58	6124
58	6124
58	6124
58	6124
58	6124
58	6124
58	6124
58	6124
58	6124
58	6124
58	6124
58	6124
58	6124
58	6124
58	6124
58	6124
58	6124
58	6124
1123	6124
1123	6124
1123	6124
1123	6124
1123	6124
1123	6124
1123	6124
1123	6124
1123	6124
1123	6124
1123	6124
1123	6124
1123	6124
1123	6124
1123	6124
1123	6124
1123	6124
1123	6124
1123	6124
1123	6124
1123	6124
1123	6124
1123	6124
1123	6124
1123	6124
1123	6124
1123	6124
1123	6124
1123	6124
1123	6124
1123	6124
1123	6124
1123	6124
1123	6124
1123	6124
1123	6124
1123	6124
1123	6124
1123	6124
1123	6124
1123	6124
1123	6124
1123	6124
1123	6124
1123	6124
1123	6124
1123	6124
1123	6124
1123	6124
1123	6124
1123	6124
1123	6124
1123	6124
1123	6124
1123	6124
1123	6124
1123	6124
1123	6124
1123	6124
1123	6124
1123	6124
1123	6124
1123	6124
1123	6124
1123	6124
1123	6124
1123	6124
1123	6124
1123	6124
1123	6124
1123	6124
1123	6124
1123	6124
1123	6124
1123	6124
1123	6124
1123	6124
1123	6124
1123	6124
1123	6124
1123	6124
1123	6124
1123	6124
1123	6124
1123	6124
1123	6124
1123	6124
1123	6124
1123	6124
1123	6124
1123	6124
1123	6124
1123	6124
1123	6124
1123	6124
1123	6124
1123	6124
1123	6124
1123	6124
1123	6124
1123	6124
1123	6124
1123	6124
1123	6124
