5	6124
7	6124
7	6124
8	6124
13	6124
13	6124
14	6124
14	6124
20	6124
20	6124
20	6124
20	6124
28	6124
28	6124
28	6124
28	6124
28	6124
28	6124
28	6124
28	6124
28	6124
28	6124
28	6124
28	6124
28	6124
28	6124
33	6124
33	6124
33	6124
33	6124
33	6124
33	6124
33	6124
33	6124
33	6124
38	6124
38	6124
38	6124
38	6124
38	6124
38	6124
38	6124
38	6124
38	6124
38	6124
38	6124
38	6124
38	6124
38	6124
38	6124
38	6124
46	6124
46	6124
46	6124
46	6124
46	6124
46	6124
46	6124
46	6124
46	6124
46	6124
46	6124
46	6124
46	6124
46	6124
46	6124
46	6124
46	6124
46	6124
303	6124
303	6124
303	6124
303	6124
303	6124
303	6124
303	6124
303	6124
303	6124
303	6124
303	6124
303	6124
303	6124
303	6124
303	6124
303	6124
303	6124
303	6124
303	6124
303	6124
303	6124
303	6124
303	6124
303	6124
303	6124
303	6124
303	6124
303	6124
303	6124
303	6124
303	6124
303	6124
303	6124
303	6124
303	6124
303	6124
303	6124
303	6124
303	6124
303	6124
303	6124
303	6124
303	6124
303	6124
303	6124
303	6124
303	6124
303	6124
303	6124
303	6124
303	6124
303	6124
303	6124
303	6124
303	6124
303	6124
303	6124
303	6124
303	6124
303	6124
303	6124
303	6124
303	6124
303	6124
303	6124
303	6124
303	6124
303	6124
303	6124
303	6124
303	6124
303	6124
303	6124
303	6124
303	6124
303	6124
303	6124
303	6124
303	6124
303	6124
303	6124
303	6124
303	6124
303	6124
303	6124
303	6124
303	6124
303	6124
303	6124
303	6124
303	6124
