3	6124
3	6124
6	6124
7	6124
7	6124
7	6124
8	6124
8	6124
8	6124
8	6124
8	6124
9	6124
9	6124
9	6124
9	6124
9	6124
9	6124
10	6124
10	6124
10	6124
10	6124
10	6124
11	6124
11	6124
11	6124
11	6124
11	6124
11	6124
11	6124
11	6124
11	6124
11	6124
11	6124
11	6124
11	6124
11	6124
11	6124
11	6124
11	6124
12	6124
12	6124
12	6124
12	6124
12	6124
12	6124
12	6124
12	6124
12	6124
12	6124
12	6124
13	6124
13	6124
13	6124
13	6124
13	6124
13	6124
13	6124
13	6124
13	6124
13	6124
13	6124
13	6124
13	6124
13	6124
13	6124
13	6124
13	6124
14	6124
14	6124
14	6124
14	6124
14	6124
14	6124
14	6124
14	6124
15	6124
15	6124
15	6124
15	6124
15	6124
15	6124
16	6124
16	6124
16	6124
16	6124
16	6124
16	6124
16	6124
16	6124
16	6124
16	6124
17	6124
17	6124
17	6124
17	6124
17	6124
17	6124
17	6124
17	6124
17	6124
17	6124
17	6124
17	6124
17	6124
17	6124
17	6124
17	6124
17	6124
17	6124
17	6124
17	6124
17	6124
17	6124
17	6124
17	6124
18	6124
18	6124
18	6124
21	6124
21	6124
21	6124
21	6124
21	6124
21	6124
21	6124
23	6124
23	6124
23	6124
23	6124
23	6124
23	6124
23	6124
23	6124
23	6124
23	6124
23	6124
23	6124
24	6124
24	6124
24	6124
24	6124
24	6124
24	6124
24	6124
24	6124
24	6124
24	6124
24	6124
24	6124
24	6124
24	6124
24	6124
24	6124
24	6124
24	6124
24	6124
25	6124
25	6124
25	6124
25	6124
25	6124
25	6124
25	6124
30	6124
30	6124
30	6124
30	6124
30	6124
30	6124
30	6124
30	6124
30	6124
30	6124
30	6124
30	6124
59	6124
59	6124
59	6124
59	6124
59	6124
59	6124
59	6124
59	6124
59	6124
59	6124
59	6124
59	6124
59	6124
59	6124
59	6124
59	6124
59	6124
59	6124
59	6124
59	6124
59	6124
59	6124
59	6124
59	6124
59	6124
648	6124
648	6124
648	6124
648	6124
648	6124
648	6124
648	6124
648	6124
648	6124
648	6124
648	6124
648	6124
648	6124
648	6124
648	6124
648	6124
648	6124
648	6124
648	6124
648	6124
648	6124
648	6124
648	6124
648	6124
648	6124
648	6124
648	6124
648	6124
648	6124
648	6124
648	6124
648	6124
648	6124
648	6124
648	6124
648	6124
648	6124
648	6124
648	6124
648	6124
648	6124
648	6124
648	6124
648	6124
648	6124
648	6124
648	6124
648	6124
648	6124
648	6124
648	6124
648	6124
648	6124
648	6124
648	6124
648	6124
648	6124
648	6124
648	6124
648	6124
648	6124
648	6124
648	6124
648	6124
648	6124
648	6124
648	6124
648	6124
648	6124
648	6124
648	6124
648	6124
648	6124
648	6124
648	6124
648	6124
648	6124
648	6124
648	6124
648	6124
648	6124
648	6124
648	6124
648	6124
648	6124
648	6124
648	6124
648	6124
648	6124
648	6124
648	6124
648	6124
648	6124
648	6124
648	6124
648	6124
648	6124
648	6124
648	6124
648	6124
