5	6124
6	6124
7	6124
7	6124
7	6124
7	6124
7	6124
9	6124
9	6124
9	6124
9	6124
9	6124
9	6124
9	6124
9	6124
9	6124
9	6124
10	6124
10	6124
10	6124
10	6124
10	6124
10	6124
10	6124
10	6124
10	6124
10	6124
10	6124
10	6124
10	6124
10	6124
10	6124
10	6124
11	6124
11	6124
11	6124
11	6124
11	6124
11	6124
11	6124
11	6124
11	6124
11	6124
11	6124
11	6124
11	6124
11	6124
11	6124
11	6124
11	6124
11	6124
11	6124
11	6124
11	6124
11	6124
12	6124
12	6124
12	6124
12	6124
12	6124
12	6124
12	6124
12	6124
12	6124
12	6124
12	6124
12	6124
12	6124
12	6124
12	6124
13	6124
13	6124
13	6124
13	6124
13	6124
13	6124
13	6124
13	6124
13	6124
13	6124
13	6124
13	6124
13	6124
13	6124
13	6124
13	6124
13	6124
14	6124
14	6124
14	6124
14	6124
14	6124
14	6124
14	6124
14	6124
14	6124
14	6124
14	6124
14	6124
14	6124
14	6124
14	6124
14	6124
14	6124
14	6124
14	6124
14	6124
14	6124
14	6124
14	6124
14	6124
14	6124
14	6124
14	6124
14	6124
14	6124
14	6124
14	6124
14	6124
14	6124
14	6124
14	6124
14	6124
14	6124
14	6124
14	6124
14	6124
14	6124
14	6124
14	6124
14	6124
14	6124
14	6124
14	6124
14	6124
14	6124
15	6124
15	6124
15	6124
15	6124
15	6124
15	6124
15	6124
15	6124
15	6124
15	6124
15	6124
15	6124
15	6124
15	6124
15	6124
15	6124
15	6124
15	6124
15	6124
15	6124
15	6124
15	6124
15	6124
15	6124
15	6124
15	6124
15	6124
15	6124
15	6124
15	6124
15	6124
17	6124
17	6124
17	6124
17	6124
17	6124
18	6124
18	6124
18	6124
18	6124
18	6124
18	6124
18	6124
18	6124
18	6124
18	6124
18	6124
18	6124
18	6124
18	6124
18	6124
18	6124
18	6124
18	6124
18	6124
18	6124
18	6124
18	6124
18	6124
18	6124
18	6124
19	6124
19	6124
19	6124
19	6124
19	6124
19	6124
19	6124
19	6124
19	6124
19	6124
19	6124
19	6124
19	6124
20	6124
20	6124
20	6124
20	6124
20	6124
20	6124
20	6124
20	6124
20	6124
20	6124
20	6124
20	6124
20	6124
20	6124
20	6124
20	6124
21	6124
21	6124
21	6124
21	6124
21	6124
21	6124
21	6124
21	6124
21	6124
21	6124
21	6124
21	6124
21	6124
21	6124
21	6124
21	6124
21	6124
21	6124
21	6124
21	6124
21	6124
21	6124
21	6124
23	6124
23	6124
23	6124
23	6124
23	6124
23	6124
23	6124
24	6124
24	6124
24	6124
24	6124
24	6124
24	6124
24	6124
24	6124
24	6124
24	6124
24	6124
24	6124
24	6124
24	6124
24	6124
24	6124
24	6124
24	6124
24	6124
32	6124
32	6124
32	6124
32	6124
32	6124
32	6124
32	6124
32	6124
32	6124
33	6124
33	6124
33	6124
33	6124
33	6124
33	6124
33	6124
33	6124
33	6124
33	6124
33	6124
33	6124
33	6124
33	6124
33	6124
33	6124
33	6124
33	6124
37	6124
37	6124
37	6124
37	6124
37	6124
37	6124
37	6124
37	6124
37	6124
1262	6124
1262	6124
1262	6124
1262	6124
1262	6124
1262	6124
1262	6124
1262	6124
1262	6124
1262	6124
1262	6124
1262	6124
1262	6124
1262	6124
1262	6124
1262	6124
1262	6124
1262	6124
1262	6124
1262	6124
1262	6124
1262	6124
1262	6124
1262	6124
1262	6124
1262	6124
1262	6124
1262	6124
1262	6124
1262	6124
1262	6124
1262	6124
1262	6124
1262	6124
1262	6124
1262	6124
1262	6124
1262	6124
1262	6124
1262	6124
1262	6124
1262	6124
1262	6124
1262	6124
1262	6124
1262	6124
1262	6124
1262	6124
1262	6124
1262	6124
1262	6124
1262	6124
1262	6124
1262	6124
1262	6124
1262	6124
1262	6124
1262	6124
1262	6124
1262	6124
1262	6124
1262	6124
1262	6124
1262	6124
1262	6124
1262	6124
1262	6124
1262	6124
1262	6124
1262	6124
1262	6124
1262	6124
1262	6124
1262	6124
1262	6124
1262	6124
1262	6124
1262	6124
1262	6124
1262	6124
1262	6124
1262	6124
1262	6124
1262	6124
1262	6124
1262	6124
1262	6124
1262	6124
1262	6124
1262	6124
1262	6124
1262	6124
1262	6124
1262	6124
1262	6124
1262	6124
1262	6124
1262	6124
1262	6124
1262	6124
1262	6124
1262	6124
1262	6124
1262	6124
1262	6124
1262	6124
1262	6124
1262	6124
1262	6124
1262	6124
1262	6124
1262	6124
1262	6124
1262	6124
1262	6124
1262	6124
1262	6124
1262	6124
1262	6124
1262	6124
1262	6124
1262	6124
1262	6124
1262	6124
1262	6124
1262	6124
1262	6124
1262	6124
1262	6124
1262	6124
1262	6124
1262	6124
1262	6124
1262	6124
1262	6124
1262	6124
1262	6124
1262	6124
1262	6124
1262	6124
1262	6124
1262	6124
1262	6124
1262	6124
1262	6124
1262	6124
1262	6124
1262	6124
1262	6124
1262	6124
1262	6124
1262	6124
1262	6124
1262	6124
1262	6124
1262	6124
1262	6124
1262	6124
1262	6124
1262	6124
1262	6124
1262	6124
1262	6124
1262	6124
1262	6124
1262	6124
1262	6124
1262	6124
1262	6124
1262	6124
1262	6124
1262	6124
1262	6124
1262	6124
1262	6124
1262	6124
1262	6124
1262	6124
1262	6124
1262	6124
1262	6124
1262	6124
1262	6124
1262	6124
1262	6124
1262	6124
1262	6124
1262	6124
1262	6124
1262	6124
1262	6124
1262	6124
1262	6124
1262	6124
1262	6124
1262	6124
1262	6124
1262	6124
1262	6124
1262	6124
1262	6124
1262	6124
1262	6124
1262	6124
1262	6124
1262	6124
1262	6124
1262	6124
1262	6124
1262	6124
1262	6124
1262	6124
1262	6124
1262	6124
1262	6124
1262	6124
1262	6124
1262	6124
1262	6124
1262	6124
1262	6124
