5	6124
5	6124
6	6124
6	6124
6	6124
7	6124
8	6124
8	6124
8	6124
8	6124
8	6124
8	6124
8	6124
8	6124
8	6124
8	6124
9	6124
9	6124
9	6124
9	6124
9	6124
9	6124
9	6124
9	6124
9	6124
9	6124
9	6124
9	6124
9	6124
9	6124
10	6124
10	6124
10	6124
10	6124
10	6124
10	6124
10	6124
10	6124
10	6124
10	6124
10	6124
10	6124
10	6124
11	6124
11	6124
11	6124
11	6124
11	6124
11	6124
11	6124
11	6124
11	6124
11	6124
11	6124
11	6124
11	6124
11	6124
11	6124
11	6124
12	6124
12	6124
12	6124
12	6124
12	6124
12	6124
12	6124
12	6124
12	6124
12	6124
12	6124
13	6124
13	6124
13	6124
13	6124
13	6124
13	6124
13	6124
13	6124
13	6124
13	6124
13	6124
13	6124
13	6124
13	6124
13	6124
13	6124
13	6124
13	6124
13	6124
13	6124
13	6124
13	6124
14	6124
14	6124
14	6124
14	6124
14	6124
14	6124
14	6124
14	6124
14	6124
14	6124
14	6124
14	6124
14	6124
14	6124
14	6124
14	6124
17	6124
17	6124
17	6124
17	6124
17	6124
17	6124
17	6124
17	6124
17	6124
17	6124
17	6124
17	6124
17	6124
17	6124
17	6124
17	6124
17	6124
17	6124
17	6124
17	6124
18	6124
18	6124
18	6124
18	6124
18	6124
18	6124
18	6124
18	6124
18	6124
18	6124
18	6124
18	6124
18	6124
18	6124
18	6124
18	6124
18	6124
18	6124
18	6124
18	6124
18	6124
18	6124
18	6124
18	6124
18	6124
18	6124
18	6124
18	6124
22	6124
22	6124
22	6124
22	6124
22	6124
22	6124
22	6124
672	6124
672	6124
672	6124
672	6124
672	6124
672	6124
672	6124
672	6124
672	6124
672	6124
672	6124
672	6124
672	6124
672	6124
672	6124
672	6124
672	6124
672	6124
672	6124
672	6124
672	6124
672	6124
672	6124
672	6124
672	6124
672	6124
672	6124
672	6124
672	6124
672	6124
672	6124
672	6124
672	6124
672	6124
672	6124
672	6124
672	6124
672	6124
672	6124
672	6124
672	6124
672	6124
672	6124
672	6124
672	6124
672	6124
672	6124
672	6124
672	6124
672	6124
672	6124
672	6124
672	6124
672	6124
672	6124
672	6124
672	6124
672	6124
672	6124
672	6124
672	6124
672	6124
672	6124
672	6124
672	6124
672	6124
672	6124
672	6124
672	6124
672	6124
672	6124
672	6124
672	6124
672	6124
672	6124
672	6124
672	6124
672	6124
672	6124
672	6124
672	6124
672	6124
672	6124
672	6124
672	6124
672	6124
672	6124
672	6124
672	6124
672	6124
672	6124
672	6124
672	6124
672	6124
672	6124
672	6124
672	6124
672	6124
672	6124
672	6124
672	6124
672	6124
672	6124
672	6124
672	6124
672	6124
672	6124
672	6124
672	6124
672	6124
672	6124
672	6124
672	6124
672	6124
672	6124
672	6124
672	6124
672	6124
672	6124
672	6124
672	6124
672	6124
672	6124
672	6124
672	6124
672	6124
672	6124
672	6124
672	6124
672	6124
672	6124
672	6124
672	6124
672	6124
672	6124
672	6124
672	6124
672	6124
672	6124
672	6124
672	6124
672	6124
672	6124
672	6124
672	6124
672	6124
672	6124
672	6124
672	6124
672	6124
672	6124
672	6124
672	6124
