4	6124
6	6124
7	6124
7	6124
8	6124
9	6124
12	6124
12	6124
12	6124
12	6124
12	6124
14	6124
17	6124
17	6124
18	6124
18	6124
18	6124
18	6124
18	6124
18	6124
18	6124
18	6124
19	6124
19	6124
19	6124
19	6124
19	6124
20	6124
20	6124
20	6124
20	6124
20	6124
20	6124
20	6124
20	6124
20	6124
20	6124
20	6124
38	6124
38	6124
38	6124
38	6124
38	6124
38	6124
38	6124
38	6124
38	6124
432	6124
432	6124
432	6124
432	6124
432	6124
432	6124
432	6124
432	6124
432	6124
432	6124
432	6124
432	6124
432	6124
432	6124
432	6124
432	6124
432	6124
432	6124
432	6124
432	6124
432	6124
432	6124
432	6124
432	6124
432	6124
432	6124
432	6124
432	6124
432	6124
432	6124
432	6124
432	6124
432	6124
432	6124
432	6124
432	6124
432	6124
432	6124
432	6124
432	6124
432	6124
432	6124
432	6124
432	6124
432	6124
432	6124
432	6124
432	6124
432	6124
432	6124
432	6124
432	6124
432	6124
432	6124
432	6124
432	6124
432	6124
432	6124
432	6124
432	6124
432	6124
