8	6124
132	6124
132	6124
132	6124
132	6124
132	6124
132	6124
132	6124
132	6124
132	6124
132	6124
132	6124
132	6124
132	6124
132	6124
132	6124
132	6124
132	6124
132	6124
132	6124
132	6124
132	6124
132	6124
132	6124
132	6124
132	6124
132	6124
132	6124
132	6124
132	6124
132	6124
132	6124
132	6124
132	6124
