5	6124
6	6124
11	6124
11	6124
11	6124
11	6124
11	6124
12	6124
12	6124
24	6124
24	6124
24	6124
24	6124
24	6124
24	6124
24	6124
24	6124
24	6124
24	6124
100	6124
100	6124
100	6124
100	6124
100	6124
100	6124
100	6124
100	6124
100	6124
100	6124
100	6124
100	6124
100	6124
100	6124
100	6124
100	6124
100	6124
100	6124
100	6124
100	6124
100	6124
100	6124
100	6124
100	6124
100	6124
100	6124
100	6124
100	6124
100	6124
100	6124
100	6124
100	6124
100	6124
100	6124
100	6124
100	6124
100	6124
100	6124
100	6124
