3	6124
7	6124
9	6124
11	6124
11	6124
11	6124
13	6124
13	6124
13	6124
14	6124
14	6124
14	6124
14	6124
104	6124
104	6124
104	6124
104	6124
104	6124
104	6124
104	6124
104	6124
104	6124
104	6124
104	6124
104	6124
104	6124
104	6124
104	6124
104	6124
104	6124
104	6124
104	6124
104	6124
104	6124
104	6124
104	6124
104	6124
104	6124
104	6124
104	6124
104	6124
104	6124
104	6124
104	6124
104	6124
104	6124
104	6124
104	6124
104	6124
104	6124
104	6124
104	6124
104	6124
