9	6124
9	6124
9	6124
111	6124
111	6124
111	6124
111	6124
111	6124
111	6124
111	6124
111	6124
111	6124
111	6124
111	6124
111	6124
111	6124
111	6124
111	6124
111	6124
111	6124
111	6124
111	6124
111	6124
111	6124
111	6124
111	6124
111	6124
111	6124
111	6124
111	6124
111	6124
111	6124
111	6124
111	6124
111	6124
111	6124
111	6124
111	6124
