8	6124
9	6124
9	6124
9	6124
11	6124
11	6124
11	6124
271	6124
271	6124
271	6124
271	6124
271	6124
271	6124
271	6124
271	6124
271	6124
271	6124
271	6124
271	6124
271	6124
271	6124
271	6124
271	6124
271	6124
271	6124
271	6124
271	6124
271	6124
271	6124
271	6124
271	6124
271	6124
271	6124
271	6124
271	6124
271	6124
271	6124
271	6124
271	6124
271	6124
271	6124
271	6124
271	6124
