6	6124
6	6124
7	6124
10	6124
205	6124
205	6124
205	6124
205	6124
205	6124
205	6124
205	6124
205	6124
205	6124
205	6124
205	6124
205	6124
205	6124
205	6124
205	6124
205	6124
205	6124
205	6124
205	6124
205	6124
205	6124
205	6124
205	6124
205	6124
205	6124
205	6124
205	6124
205	6124
205	6124
205	6124
205	6124
205	6124
205	6124
205	6124
205	6124
205	6124
205	6124
205	6124
205	6124
205	6124
205	6124
