3	6124
9	6124
10	6124
14	6124
14	6124
14	6124
15	6124
15	6124
17	6124
17	6124
26	6124
26	6124
26	6124
26	6124
26	6124
26	6124
26	6124
26	6124
122	6124
122	6124
122	6124
122	6124
122	6124
122	6124
122	6124
122	6124
122	6124
122	6124
122	6124
122	6124
122	6124
122	6124
122	6124
122	6124
122	6124
122	6124
122	6124
122	6124
122	6124
122	6124
122	6124
122	6124
122	6124
122	6124
122	6124
122	6124
