6	6124
7	6124
7	6124
7	6124
8	6124
8	6124
8	6124
8	6124
10	6124
10	6124
10	6124
10	6124
11	6124
11	6124
11	6124
12	6124
17	6124
17	6124
17	6124
17	6124
17	6124
17	6124
17	6124
20	6124
20	6124
20	6124
20	6124
20	6124
20	6124
20	6124
20	6124
26	6124
26	6124
26	6124
26	6124
26	6124
26	6124
26	6124
26	6124
26	6124
26	6124
26	6124
26	6124
26	6124
26	6124
26	6124
111	6124
111	6124
111	6124
111	6124
111	6124
111	6124
111	6124
111	6124
111	6124
111	6124
111	6124
111	6124
111	6124
111	6124
111	6124
111	6124
111	6124
111	6124
111	6124
111	6124
111	6124
111	6124
111	6124
111	6124
111	6124
111	6124
111	6124
111	6124
111	6124
111	6124
111	6124
111	6124
111	6124
111	6124
111	6124
