5	6124
8	6124
8	6124
9	6124
9	6124
9	6124
9	6124
189	6124
189	6124
189	6124
189	6124
189	6124
189	6124
189	6124
189	6124
189	6124
189	6124
189	6124
189	6124
189	6124
189	6124
189	6124
189	6124
189	6124
189	6124
189	6124
189	6124
189	6124
189	6124
189	6124
189	6124
189	6124
189	6124
189	6124
189	6124
189	6124
189	6124
