6	6124
11	6124
11	6124
11	6124
11	6124
11	6124
118	6124
118	6124
118	6124
118	6124
118	6124
118	6124
118	6124
118	6124
118	6124
118	6124
118	6124
118	6124
118	6124
118	6124
118	6124
118	6124
118	6124
118	6124
118	6124
118	6124
118	6124
118	6124
118	6124
118	6124
118	6124
118	6124
118	6124
118	6124
118	6124
118	6124
118	6124
118	6124
118	6124
118	6124
118	6124
118	6124
118	6124
118	6124
118	6124
118	6124
118	6124
118	6124
