7	6124
7	6124
7	6124
8	6124
8	6124
10	6124
114	6124
114	6124
114	6124
114	6124
114	6124
114	6124
114	6124
114	6124
114	6124
114	6124
114	6124
114	6124
114	6124
114	6124
114	6124
114	6124
114	6124
114	6124
114	6124
114	6124
114	6124
114	6124
114	6124
114	6124
114	6124
114	6124
114	6124
114	6124
114	6124
114	6124
114	6124
114	6124
114	6124
114	6124
114	6124
