4	6124
7	6124
8	6124
8	6124
8	6124
8	6124
9	6124
9	6124
9	6124
9	6124
9	6124
9	6124
9	6124
9	6124
9	6124
9	6124
10	6124
12	6124
12	6124
12	6124
12	6124
12	6124
126	6124
126	6124
126	6124
126	6124
126	6124
126	6124
126	6124
126	6124
126	6124
126	6124
126	6124
126	6124
126	6124
126	6124
126	6124
126	6124
126	6124
126	6124
126	6124
126	6124
126	6124
126	6124
126	6124
126	6124
126	6124
126	6124
126	6124
126	6124
126	6124
126	6124
126	6124
126	6124
126	6124
126	6124
126	6124
126	6124
126	6124
126	6124
126	6124
126	6124
126	6124
126	6124
126	6124
126	6124
126	6124
126	6124
126	6124
126	6124
126	6124
126	6124
126	6124
