4	6124
5	6124
6	6124
7	6124
7	6124
7	6124
7	6124
8	6124
8	6124
8	6124
8	6124
8	6124
9	6124
9	6124
9	6124
9	6124
9	6124
9	6124
9	6124
9	6124
9	6124
9	6124
9	6124
10	6124
10	6124
10	6124
10	6124
10	6124
10	6124
10	6124
11	6124
11	6124
11	6124
11	6124
11	6124
11	6124
11	6124
11	6124
11	6124
14	6124
14	6124
14	6124
14	6124
14	6124
14	6124
14	6124
14	6124
14	6124
19	6124
19	6124
19	6124
19	6124
19	6124
19	6124
19	6124
19	6124
19	6124
22	6124
22	6124
22	6124
22	6124
22	6124
22	6124
22	6124
22	6124
22	6124
22	6124
22	6124
74	6124
74	6124
74	6124
74	6124
74	6124
74	6124
74	6124
74	6124
74	6124
74	6124
74	6124
74	6124
74	6124
74	6124
74	6124
74	6124
74	6124
74	6124
74	6124
74	6124
74	6124
74	6124
74	6124
74	6124
74	6124
74	6124
74	6124
74	6124
74	6124
74	6124
74	6124
74	6124
74	6124
74	6124
74	6124
74	6124
74	6124
