6	6124
6	6124
7	6124
13	6124
13	6124
13	6124
14	6124
87	6124
87	6124
87	6124
87	6124
87	6124
87	6124
87	6124
87	6124
87	6124
87	6124
87	6124
87	6124
87	6124
87	6124
87	6124
87	6124
87	6124
87	6124
87	6124
87	6124
87	6124
87	6124
87	6124
87	6124
87	6124
87	6124
87	6124
87	6124
87	6124
87	6124
