5	6124
5	6124
8	6124
8	6124
8	6124
9	6124
10	6124
12	6124
12	6124
13	6124
20	6124
20	6124
20	6124
20	6124
20	6124
20	6124
23	6124
23	6124
23	6124
23	6124
23	6124
23	6124
23	6124
23	6124
114	6124
114	6124
114	6124
114	6124
114	6124
114	6124
114	6124
114	6124
114	6124
114	6124
114	6124
114	6124
114	6124
114	6124
114	6124
114	6124
114	6124
114	6124
114	6124
114	6124
114	6124
114	6124
114	6124
114	6124
114	6124
114	6124
114	6124
114	6124
114	6124
114	6124
114	6124
114	6124
114	6124
