4	6124
5	6124
28	6124
28	6124
28	6124
28	6124
28	6124
28	6124
130	6124
130	6124
130	6124
130	6124
130	6124
130	6124
130	6124
130	6124
130	6124
130	6124
130	6124
130	6124
130	6124
130	6124
130	6124
130	6124
130	6124
130	6124
130	6124
130	6124
130	6124
130	6124
130	6124
130	6124
130	6124
130	6124
130	6124
130	6124
130	6124
130	6124
130	6124
130	6124
130	6124
