3	6124
4	6124
9	6124
9	6124
9	6124
9	6124
9	6124
10	6124
10	6124
10	6124
10	6124
11	6124
11	6124
11	6124
11	6124
12	6124
12	6124
15	6124
15	6124
15	6124
15	6124
15	6124
77	6124
77	6124
77	6124
77	6124
77	6124
77	6124
77	6124
77	6124
77	6124
77	6124
77	6124
77	6124
77	6124
77	6124
77	6124
77	6124
77	6124
77	6124
77	6124
77	6124
77	6124
77	6124
77	6124
77	6124
77	6124
77	6124
77	6124
77	6124
