5	6124
6	6124
6	6124
7	6124
9	6124
9	6124
9	6124
9	6124
9	6124
9	6124
16	6124
16	6124
229	6124
229	6124
229	6124
229	6124
229	6124
229	6124
229	6124
229	6124
229	6124
229	6124
229	6124
229	6124
229	6124
229	6124
229	6124
229	6124
229	6124
229	6124
229	6124
229	6124
229	6124
229	6124
229	6124
229	6124
229	6124
229	6124
229	6124
229	6124
229	6124
229	6124
229	6124
229	6124
229	6124
229	6124
229	6124
229	6124
