3	6124
7	6124
11	6124
12	6124
12	6124
14	6124
14	6124
14	6124
15	6124
15	6124
15	6124
15	6124
15	6124
18	6124
18	6124
18	6124
101	6124
101	6124
101	6124
101	6124
101	6124
101	6124
101	6124
101	6124
101	6124
101	6124
101	6124
101	6124
101	6124
101	6124
101	6124
101	6124
101	6124
101	6124
101	6124
101	6124
101	6124
101	6124
101	6124
101	6124
101	6124
101	6124
101	6124
