5	6124
7	6124
7	6124
7	6124
7	6124
8	6124
8	6124
8	6124
8	6124
8	6124
9	6124
9	6124
9	6124
252	6124
252	6124
252	6124
252	6124
252	6124
252	6124
252	6124
252	6124
252	6124
252	6124
252	6124
252	6124
252	6124
252	6124
252	6124
252	6124
252	6124
252	6124
252	6124
252	6124
252	6124
252	6124
252	6124
252	6124
252	6124
252	6124
252	6124
252	6124
252	6124
252	6124
252	6124
252	6124
