10	6124
10	6124
10	6124
147	6124
147	6124
147	6124
147	6124
147	6124
147	6124
147	6124
147	6124
147	6124
147	6124
147	6124
147	6124
147	6124
147	6124
147	6124
147	6124
147	6124
147	6124
147	6124
147	6124
147	6124
147	6124
147	6124
147	6124
147	6124
147	6124
147	6124
147	6124
147	6124
147	6124
