5	6124
6	6124
7	6124
8	6124
8	6124
9	6124
9	6124
9	6124
19	6124
19	6124
20	6124
20	6124
226	6124
226	6124
226	6124
226	6124
226	6124
226	6124
226	6124
226	6124
226	6124
226	6124
226	6124
226	6124
226	6124
226	6124
226	6124
226	6124
226	6124
226	6124
226	6124
226	6124
226	6124
226	6124
226	6124
226	6124
226	6124
226	6124
226	6124
226	6124
226	6124
226	6124
226	6124
226	6124
226	6124
226	6124
226	6124
226	6124
226	6124
226	6124
226	6124
