5	6124
5	6124
8	6124
8	6124
8	6124
8	6124
8	6124
8	6124
9	6124
9	6124
10	6124
10	6124
10	6124
10	6124
11	6124
12	6124
12	6124
14	6124
14	6124
14	6124
14	6124
14	6124
14	6124
14	6124
16	6124
16	6124
16	6124
16	6124
16	6124
16	6124
16	6124
16	6124
16	6124
17	6124
17	6124
17	6124
17	6124
17	6124
18	6124
18	6124
18	6124
18	6124
18	6124
18	6124
20	6124
20	6124
20	6124
20	6124
20	6124
24	6124
24	6124
24	6124
24	6124
24	6124
24	6124
24	6124
24	6124
24	6124
24	6124
24	6124
24	6124
24	6124
24	6124
27	6124
27	6124
27	6124
27	6124
27	6124
27	6124
1161	6124
1161	6124
1161	6124
1161	6124
1161	6124
1161	6124
1161	6124
1161	6124
1161	6124
1161	6124
1161	6124
1161	6124
1161	6124
1161	6124
1161	6124
1161	6124
1161	6124
1161	6124
1161	6124
1161	6124
1161	6124
1161	6124
1161	6124
1161	6124
1161	6124
1161	6124
1161	6124
1161	6124
1161	6124
1161	6124
1161	6124
1161	6124
1161	6124
1161	6124
1161	6124
1161	6124
1161	6124
1161	6124
1161	6124
1161	6124
1161	6124
1161	6124
1161	6124
1161	6124
1161	6124
1161	6124
1161	6124
1161	6124
1161	6124
1161	6124
1161	6124
1161	6124
1161	6124
1161	6124
1161	6124
1161	6124
1161	6124
1161	6124
1161	6124
1161	6124
1161	6124
1161	6124
1161	6124
1161	6124
1161	6124
1161	6124
1161	6124
1161	6124
1161	6124
1161	6124
1161	6124
1161	6124
1161	6124
1161	6124
1161	6124
1161	6124
1161	6124
1161	6124
1161	6124
1161	6124
1161	6124
1161	6124
1161	6124
1161	6124
1161	6124
1161	6124
1161	6124
1161	6124
1161	6124
1161	6124
1161	6124
1161	6124
1161	6124
1161	6124
1161	6124
1161	6124
1161	6124
