4	6124
5	6124
10	6124
326	6124
326	6124
326	6124
326	6124
326	6124
326	6124
326	6124
326	6124
326	6124
326	6124
326	6124
326	6124
326	6124
326	6124
326	6124
326	6124
326	6124
326	6124
326	6124
326	6124
326	6124
326	6124
326	6124
326	6124
326	6124
326	6124
326	6124
326	6124
326	6124
326	6124
326	6124
326	6124
