4	6124
6	6124
7	6124
8	6124
8	6124
8	6124
9	6124
10	6124
10	6124
10	6124
10	6124
10	6124
12	6124
12	6124
12	6124
12	6124
12	6124
13	6124
13	6124
14	6124
14	6124
14	6124
14	6124
14	6124
27	6124
27	6124
27	6124
27	6124
27	6124
27	6124
893	6124
893	6124
893	6124
893	6124
893	6124
893	6124
893	6124
893	6124
893	6124
893	6124
893	6124
893	6124
893	6124
893	6124
893	6124
893	6124
893	6124
893	6124
893	6124
893	6124
893	6124
893	6124
893	6124
893	6124
893	6124
893	6124
893	6124
893	6124
893	6124
893	6124
893	6124
893	6124
893	6124
893	6124
893	6124
893	6124
893	6124
893	6124
893	6124
893	6124
893	6124
893	6124
893	6124
893	6124
893	6124
893	6124
893	6124
893	6124
893	6124
893	6124
893	6124
893	6124
893	6124
893	6124
893	6124
893	6124
893	6124
893	6124
893	6124
893	6124
893	6124
893	6124
893	6124
893	6124
893	6124
893	6124
893	6124
893	6124
893	6124
893	6124
893	6124
893	6124
893	6124
893	6124
893	6124
893	6124
893	6124
893	6124
893	6124
893	6124
893	6124
893	6124
893	6124
893	6124
893	6124
