4	6124
4	6124
4	6124
5	6124
5	6124
8	6124
9	6124
11	6124
11	6124
12	6124
12	6124
12	6124
12	6124
12	6124
13	6124
13	6124
13	6124
13	6124
13	6124
13	6124
13	6124
13	6124
13	6124
15	6124
15	6124
15	6124
15	6124
15	6124
16	6124
16	6124
16	6124
16	6124
16	6124
17	6124
17	6124
17	6124
17	6124
18	6124
18	6124
19	6124
19	6124
19	6124
19	6124
19	6124
19	6124
20	6124
20	6124
22	6124
22	6124
22	6124
22	6124
22	6124
22	6124
22	6124
23	6124
23	6124
23	6124
23	6124
23	6124
23	6124
24	6124
24	6124
24	6124
24	6124
24	6124
24	6124
25	6124
25	6124
25	6124
25	6124
25	6124
25	6124
25	6124
25	6124
27	6124
27	6124
27	6124
27	6124
27	6124
27	6124
27	6124
27	6124
27	6124
28	6124
28	6124
28	6124
28	6124
28	6124
28	6124
28	6124
28	6124
28	6124
28	6124
28	6124
28	6124
29	6124
29	6124
29	6124
29	6124
34	6124
34	6124
34	6124
34	6124
34	6124
34	6124
34	6124
34	6124
34	6124
34	6124
40	6124
40	6124
40	6124
40	6124
40	6124
40	6124
40	6124
40	6124
40	6124
40	6124
40	6124
40	6124
40	6124
40	6124
40	6124
40	6124
54	6124
54	6124
54	6124
54	6124
54	6124
54	6124
54	6124
54	6124
54	6124
54	6124
54	6124
54	6124
54	6124
1242	6124
1242	6124
1242	6124
1242	6124
1242	6124
1242	6124
1242	6124
1242	6124
1242	6124
1242	6124
1242	6124
1242	6124
1242	6124
1242	6124
1242	6124
1242	6124
1242	6124
1242	6124
1242	6124
1242	6124
1242	6124
1242	6124
1242	6124
1242	6124
1242	6124
1242	6124
1242	6124
1242	6124
1242	6124
1242	6124
1242	6124
1242	6124
1242	6124
1242	6124
1242	6124
1242	6124
1242	6124
1242	6124
1242	6124
1242	6124
1242	6124
1242	6124
1242	6124
1242	6124
1242	6124
1242	6124
1242	6124
1242	6124
1242	6124
1242	6124
1242	6124
1242	6124
1242	6124
1242	6124
1242	6124
1242	6124
1242	6124
1242	6124
1242	6124
1242	6124
1242	6124
1242	6124
1242	6124
1242	6124
1242	6124
1242	6124
1242	6124
1242	6124
1242	6124
1242	6124
1242	6124
1242	6124
1242	6124
1242	6124
1242	6124
1242	6124
1242	6124
1242	6124
1242	6124
1242	6124
1242	6124
1242	6124
1242	6124
1242	6124
1242	6124
1242	6124
1242	6124
1242	6124
1242	6124
1242	6124
1242	6124
1242	6124
1242	6124
1242	6124
1242	6124
1242	6124
1242	6124
1242	6124
1242	6124
1242	6124
1242	6124
1242	6124
1242	6124
1242	6124
1242	6124
1242	6124
1242	6124
1242	6124
1242	6124
1242	6124
1242	6124
1242	6124
1242	6124
1242	6124
1242	6124
1242	6124
1242	6124
1242	6124
1242	6124
1242	6124
1242	6124
1242	6124
1242	6124
1242	6124
1242	6124
1242	6124
1242	6124
1242	6124
1242	6124
1242	6124
1242	6124
1242	6124
1242	6124
1242	6124
1242	6124
1242	6124
1242	6124
1242	6124
1242	6124
1242	6124
