4	6124
4	6124
4	6124
5	6124
6	6124
8	6124
8	6124
8	6124
8	6124
8	6124
8	6124
8	6124
8	6124
8	6124
9	6124
9	6124
9	6124
11	6124
11	6124
11	6124
11	6124
12	6124
12	6124
12	6124
12	6124
13	6124
13	6124
13	6124
15	6124
15	6124
15	6124
15	6124
15	6124
15	6124
18	6124
18	6124
18	6124
18	6124
18	6124
18	6124
18	6124
18	6124
18	6124
19	6124
19	6124
19	6124
19	6124
19	6124
19	6124
19	6124
21	6124
21	6124
21	6124
21	6124
34	6124
34	6124
34	6124
34	6124
34	6124
34	6124
34	6124
34	6124
34	6124
34	6124
36	6124
36	6124
36	6124
36	6124
36	6124
36	6124
36	6124
36	6124
36	6124
36	6124
36	6124
36	6124
36	6124
36	6124
36	6124
36	6124
36	6124
36	6124
36	6124
421	6124
421	6124
421	6124
421	6124
421	6124
421	6124
421	6124
421	6124
421	6124
421	6124
421	6124
421	6124
421	6124
421	6124
421	6124
421	6124
421	6124
421	6124
421	6124
421	6124
421	6124
421	6124
421	6124
421	6124
421	6124
421	6124
421	6124
421	6124
421	6124
421	6124
421	6124
421	6124
421	6124
421	6124
421	6124
421	6124
421	6124
421	6124
421	6124
421	6124
421	6124
421	6124
421	6124
421	6124
421	6124
421	6124
421	6124
421	6124
421	6124
421	6124
421	6124
421	6124
421	6124
421	6124
421	6124
421	6124
421	6124
421	6124
421	6124
421	6124
421	6124
421	6124
421	6124
421	6124
421	6124
421	6124
421	6124
421	6124
421	6124
421	6124
421	6124
421	6124
421	6124
421	6124
421	6124
421	6124
