3	6124
4	6124
5	6124
6	6124
7	6124
7	6124
11	6124
11	6124
11	6124
11	6124
11	6124
11	6124
11	6124
11	6124
11	6124
12	6124
12	6124
12	6124
13	6124
13	6124
13	6124
20	6124
20	6124
20	6124
33	6124
33	6124
33	6124
33	6124
33	6124
33	6124
33	6124
33	6124
33	6124
33	6124
33	6124
33	6124
33	6124
33	6124
33	6124
396	6124
396	6124
396	6124
396	6124
396	6124
396	6124
396	6124
396	6124
396	6124
396	6124
396	6124
396	6124
396	6124
396	6124
396	6124
396	6124
396	6124
396	6124
396	6124
396	6124
396	6124
396	6124
396	6124
396	6124
396	6124
396	6124
396	6124
396	6124
396	6124
396	6124
396	6124
396	6124
396	6124
396	6124
396	6124
396	6124
396	6124
396	6124
396	6124
396	6124
396	6124
396	6124
396	6124
396	6124
396	6124
396	6124
396	6124
396	6124
396	6124
396	6124
396	6124
396	6124
396	6124
396	6124
396	6124
396	6124
396	6124
396	6124
396	6124
396	6124
396	6124
396	6124
396	6124
396	6124
396	6124
396	6124
396	6124
396	6124
396	6124
396	6124
396	6124
396	6124
396	6124
396	6124
396	6124
396	6124
396	6124
396	6124
396	6124
396	6124
396	6124
396	6124
396	6124
396	6124
396	6124
396	6124
396	6124
396	6124
396	6124
