3	6124
4	6124
4	6124
6	6124
6	6124
7	6124
8	6124
9	6124
9	6124
10	6124
14	6124
14	6124
14	6124
14	6124
15	6124
15	6124
15	6124
17	6124
17	6124
17	6124
17	6124
17	6124
17	6124
17	6124
19	6124
19	6124
19	6124
19	6124
25	6124
25	6124
25	6124
25	6124
25	6124
25	6124
32	6124
32	6124
32	6124
32	6124
32	6124
32	6124
32	6124
1391	6124
1391	6124
1391	6124
1391	6124
1391	6124
1391	6124
1391	6124
1391	6124
1391	6124
1391	6124
1391	6124
1391	6124
1391	6124
1391	6124
1391	6124
1391	6124
1391	6124
1391	6124
1391	6124
1391	6124
1391	6124
1391	6124
1391	6124
1391	6124
1391	6124
1391	6124
1391	6124
1391	6124
1391	6124
1391	6124
1391	6124
1391	6124
1391	6124
1391	6124
1391	6124
1391	6124
1391	6124
1391	6124
1391	6124
1391	6124
1391	6124
1391	6124
1391	6124
1391	6124
1391	6124
1391	6124
1391	6124
1391	6124
1391	6124
1391	6124
1391	6124
1391	6124
1391	6124
1391	6124
1391	6124
1391	6124
1391	6124
1391	6124
1391	6124
1391	6124
1391	6124
1391	6124
1391	6124
1391	6124
1391	6124
1391	6124
1391	6124
1391	6124
1391	6124
1391	6124
1391	6124
1391	6124
1391	6124
1391	6124
1391	6124
1391	6124
1391	6124
1391	6124
1391	6124
1391	6124
1391	6124
1391	6124
1391	6124
1391	6124
1391	6124
1391	6124
1391	6124
1391	6124
1391	6124
1391	6124
1391	6124
1391	6124
1391	6124
1391	6124
1391	6124
1391	6124
1391	6124
1391	6124
1391	6124
1391	6124
1391	6124
1391	6124
1391	6124
1391	6124
1391	6124
1391	6124
1391	6124
1391	6124
1391	6124
1391	6124
1391	6124
1391	6124
1391	6124
1391	6124
1391	6124
1391	6124
1391	6124
1391	6124
1391	6124
1391	6124
1391	6124
1391	6124
1391	6124
1391	6124
1391	6124
1391	6124
1391	6124
1391	6124
1391	6124
1391	6124
1391	6124
1391	6124
1391	6124
1391	6124
1391	6124
1391	6124
1391	6124
1391	6124
1391	6124
