5	6124
5	6124
7	6124
10	6124
12	6124
12	6124
12	6124
12	6124
12	6124
12	6124
12	6124
12	6124
13	6124
14	6124
14	6124
14	6124
14	6124
15	6124
15	6124
15	6124
16	6124
16	6124
16	6124
16	6124
17	6124
17	6124
17	6124
17	6124
17	6124
17	6124
17	6124
17	6124
18	6124
20	6124
20	6124
20	6124
20	6124
20	6124
40	6124
40	6124
40	6124
40	6124
40	6124
40	6124
952	6124
952	6124
952	6124
952	6124
952	6124
952	6124
952	6124
952	6124
952	6124
952	6124
952	6124
952	6124
952	6124
952	6124
952	6124
952	6124
952	6124
952	6124
952	6124
952	6124
952	6124
952	6124
952	6124
952	6124
952	6124
952	6124
952	6124
952	6124
952	6124
952	6124
952	6124
952	6124
952	6124
952	6124
952	6124
952	6124
952	6124
952	6124
952	6124
952	6124
952	6124
952	6124
952	6124
952	6124
952	6124
952	6124
952	6124
952	6124
952	6124
952	6124
952	6124
952	6124
952	6124
952	6124
952	6124
952	6124
952	6124
952	6124
952	6124
952	6124
952	6124
952	6124
952	6124
952	6124
952	6124
952	6124
952	6124
952	6124
952	6124
952	6124
952	6124
952	6124
952	6124
952	6124
952	6124
952	6124
952	6124
952	6124
952	6124
952	6124
952	6124
952	6124
952	6124
952	6124
952	6124
952	6124
952	6124
952	6124
952	6124
952	6124
952	6124
952	6124
952	6124
952	6124
952	6124
952	6124
952	6124
952	6124
952	6124
952	6124
