4	6124
4	6124
4	6124
6	6124
7	6124
7	6124
7	6124
8	6124
11	6124
17	6124
17	6124
17	6124
789	6124
789	6124
789	6124
789	6124
789	6124
789	6124
789	6124
789	6124
789	6124
789	6124
789	6124
789	6124
789	6124
789	6124
789	6124
789	6124
789	6124
789	6124
789	6124
789	6124
789	6124
789	6124
789	6124
789	6124
789	6124
789	6124
789	6124
789	6124
789	6124
789	6124
789	6124
789	6124
789	6124
789	6124
789	6124
789	6124
789	6124
789	6124
789	6124
789	6124
