3	6124
5	6124
5	6124
6	6124
7	6124
254	6124
254	6124
254	6124
254	6124
254	6124
254	6124
254	6124
254	6124
254	6124
254	6124
254	6124
254	6124
254	6124
254	6124
254	6124
254	6124
254	6124
254	6124
254	6124
254	6124
254	6124
254	6124
254	6124
254	6124
254	6124
254	6124
254	6124
254	6124
254	6124
254	6124
254	6124
