4	6124
6	6124
7	6124
19	6124
362	6124
362	6124
362	6124
362	6124
362	6124
362	6124
362	6124
362	6124
362	6124
362	6124
362	6124
362	6124
362	6124
362	6124
362	6124
362	6124
362	6124
362	6124
362	6124
362	6124
362	6124
362	6124
362	6124
362	6124
362	6124
362	6124
362	6124
362	6124
362	6124
