9	6124
9	6124
9	6124
9	6124
12	6124
12	6124
13	6124
13	6124
13	6124
15	6124
15	6124
17	6124
17	6124
574	6124
574	6124
574	6124
574	6124
574	6124
574	6124
574	6124
574	6124
574	6124
574	6124
574	6124
574	6124
574	6124
574	6124
574	6124
574	6124
574	6124
574	6124
574	6124
574	6124
574	6124
574	6124
574	6124
574	6124
574	6124
574	6124
574	6124
574	6124
574	6124
574	6124
574	6124
574	6124
574	6124
574	6124
574	6124
574	6124
574	6124
574	6124
574	6124
574	6124
574	6124
574	6124
574	6124
574	6124
574	6124
574	6124
574	6124
574	6124
574	6124
574	6124
