15	6124
183	6124
183	6124
183	6124
183	6124
183	6124
183	6124
183	6124
183	6124
183	6124
183	6124
183	6124
183	6124
183	6124
183	6124
183	6124
183	6124
183	6124
183	6124
183	6124
183	6124
183	6124
183	6124
183	6124
183	6124
183	6124
183	6124
183	6124
183	6124
183	6124
183	6124
183	6124
183	6124
428	6124
428	6124
428	6124
428	6124
428	6124
428	6124
428	6124
428	6124
428	6124
428	6124
428	6124
428	6124
428	6124
428	6124
428	6124
428	6124
428	6124
428	6124
428	6124
428	6124
428	6124
428	6124
428	6124
428	6124
428	6124
428	6124
428	6124
428	6124
428	6124
428	6124
428	6124
428	6124
428	6124
428	6124
428	6124
428	6124
428	6124
428	6124
428	6124
428	6124
428	6124
428	6124
428	6124
428	6124
428	6124
428	6124
428	6124
428	6124
428	6124
428	6124
428	6124
428	6124
428	6124
428	6124
428	6124
428	6124
428	6124
428	6124
428	6124
428	6124
428	6124
428	6124
428	6124
428	6124
428	6124
428	6124
428	6124
428	6124
428	6124
428	6124
428	6124
428	6124
428	6124
428	6124
428	6124
428	6124
428	6124
428	6124
428	6124
428	6124
428	6124
428	6124
428	6124
428	6124
428	6124
428	6124
428	6124
