4	6124
290	6124
290	6124
290	6124
290	6124
290	6124
290	6124
290	6124
290	6124
290	6124
290	6124
290	6124
290	6124
290	6124
290	6124
290	6124
290	6124
290	6124
290	6124
290	6124
290	6124
290	6124
290	6124
290	6124
290	6124
290	6124
290	6124
290	6124
290	6124
290	6124
290	6124
290	6124
