5	6124
7	6124
7	6124
7	6124
8	6124
8	6124
8	6124
8	6124
8	6124
9	6124
9	6124
10	6124
10	6124
10	6124
10	6124
10	6124
10	6124
11	6124
11	6124
11	6124
11	6124
12	6124
12	6124
12	6124
12	6124
12	6124
13	6124
13	6124
13	6124
13	6124
13	6124
14	6124
14	6124
14	6124
14	6124
14	6124
14	6124
14	6124
14	6124
16	6124
16	6124
16	6124
16	6124
18	6124
18	6124
18	6124
18	6124
18	6124
18	6124
18	6124
18	6124
27	6124
27	6124
27	6124
27	6124
54	6124
54	6124
54	6124
54	6124
54	6124
54	6124
54	6124
54	6124
54	6124
54	6124
54	6124
54	6124
54	6124
54	6124
54	6124
54	6124
54	6124
54	6124
54	6124
54	6124
54	6124
2330	6124
2330	6124
2330	6124
2330	6124
2330	6124
2330	6124
2330	6124
2330	6124
2330	6124
2330	6124
2330	6124
2330	6124
2330	6124
2330	6124
2330	6124
2330	6124
2330	6124
2330	6124
2330	6124
2330	6124
2330	6124
2330	6124
2330	6124
2330	6124
2330	6124
2330	6124
2330	6124
2330	6124
2330	6124
2330	6124
2330	6124
2330	6124
2330	6124
2330	6124
2330	6124
2330	6124
2330	6124
2330	6124
2330	6124
2330	6124
2330	6124
2330	6124
2330	6124
2330	6124
2330	6124
2330	6124
2330	6124
2330	6124
2330	6124
2330	6124
2330	6124
2330	6124
2330	6124
2330	6124
2330	6124
2330	6124
2330	6124
2330	6124
2330	6124
2330	6124
2330	6124
2330	6124
2330	6124
2330	6124
2330	6124
2330	6124
2330	6124
2330	6124
2330	6124
2330	6124
2330	6124
2330	6124
2330	6124
2330	6124
2330	6124
2330	6124
2330	6124
2330	6124
2330	6124
2330	6124
2330	6124
2330	6124
2330	6124
2330	6124
2330	6124
2330	6124
2330	6124
2330	6124
2330	6124
2330	6124
2330	6124
2330	6124
2330	6124
2330	6124
2330	6124
2330	6124
2330	6124
2330	6124
2330	6124
2330	6124
2330	6124
2330	6124
2330	6124
2330	6124
2330	6124
2330	6124
2330	6124
2330	6124
2330	6124
2330	6124
2330	6124
2330	6124
2330	6124
2330	6124
2330	6124
2330	6124
2330	6124
2330	6124
2330	6124
2330	6124
2330	6124
2330	6124
2330	6124
2330	6124
2330	6124
2330	6124
2330	6124
2330	6124
2330	6124
2330	6124
2330	6124
2330	6124
2330	6124
2330	6124
2330	6124
2330	6124
2330	6124
2330	6124
2330	6124
2330	6124
2330	6124
2330	6124
2330	6124
2330	6124
2330	6124
2330	6124
2330	6124
2330	6124
2330	6124
2330	6124
2330	6124
2330	6124
2330	6124
2330	6124
2330	6124
2330	6124
2330	6124
2330	6124
2330	6124
2330	6124
2330	6124
2330	6124
2330	6124
2330	6124
2330	6124
2330	6124
2330	6124
2330	6124
2330	6124
2330	6124
2330	6124
2330	6124
2330	6124
2330	6124
2330	6124
2330	6124
2330	6124
2330	6124
2330	6124
2330	6124
2330	6124
2330	6124
2330	6124
2330	6124
2330	6124
2330	6124
