9	6124
82	6124
156	6124
156	6124
156	6124
156	6124
156	6124
156	6124
156	6124
156	6124
156	6124
156	6124
156	6124
156	6124
156	6124
156	6124
156	6124
156	6124
156	6124
156	6124
156	6124
156	6124
156	6124
156	6124
156	6124
156	6124
156	6124
156	6124
156	6124
156	6124
156	6124
156	6124
156	6124
156	6124
156	6124
156	6124
156	6124
156	6124
156	6124
156	6124
156	6124
156	6124
156	6124
156	6124
156	6124
156	6124
156	6124
156	6124
156	6124
156	6124
156	6124
156	6124
156	6124
156	6124
156	6124
156	6124
156	6124
156	6124
156	6124
156	6124
156	6124
156	6124
156	6124
156	6124
156	6124
156	6124
156	6124
156	6124
156	6124
156	6124
156	6124
156	6124
156	6124
156	6124
156	6124
156	6124
156	6124
156	6124
156	6124
156	6124
156	6124
156	6124
156	6124
156	6124
156	6124
