114	6124
114	6124
114	6124
114	6124
130	6124
130	6124
130	6124
130	6124
130	6124
130	6124
130	6124
130	6124
130	6124
130	6124
130	6124
130	6124
130	6124
130	6124
130	6124
130	6124
130	6124
130	6124
130	6124
130	6124
130	6124
130	6124
130	6124
130	6124
130	6124
130	6124
130	6124
130	6124
130	6124
130	6124
130	6124
130	6124
130	6124
130	6124
130	6124
130	6124
130	6124
130	6124
130	6124
130	6124
130	6124
130	6124
130	6124
130	6124
130	6124
130	6124
130	6124
130	6124
130	6124
130	6124
130	6124
130	6124
130	6124
130	6124
130	6124
130	6124
130	6124
130	6124
130	6124
