5	6124
129	6124
129	6124
129	6124
129	6124
129	6124
147	6124
147	6124
147	6124
147	6124
147	6124
147	6124
147	6124
147	6124
147	6124
147	6124
147	6124
147	6124
147	6124
147	6124
147	6124
147	6124
147	6124
147	6124
147	6124
147	6124
147	6124
147	6124
147	6124
147	6124
147	6124
147	6124
147	6124
147	6124
147	6124
147	6124
147	6124
147	6124
147	6124
147	6124
147	6124
147	6124
147	6124
147	6124
147	6124
147	6124
147	6124
147	6124
147	6124
147	6124
147	6124
147	6124
147	6124
147	6124
147	6124
147	6124
147	6124
147	6124
147	6124
147	6124
147	6124
147	6124
147	6124
147	6124
147	6124
147	6124
147	6124
147	6124
147	6124
147	6124
147	6124
147	6124
147	6124
147	6124
147	6124
147	6124
147	6124
147	6124
147	6124
147	6124
147	6124
147	6124
147	6124
147	6124
147	6124
