3	6124
9	6124
87	6124
87	6124
87	6124
87	6124
87	6124
155	6124
155	6124
155	6124
155	6124
155	6124
155	6124
155	6124
155	6124
155	6124
155	6124
155	6124
155	6124
155	6124
155	6124
155	6124
155	6124
155	6124
155	6124
155	6124
155	6124
155	6124
155	6124
155	6124
155	6124
155	6124
155	6124
155	6124
155	6124
155	6124
155	6124
155	6124
155	6124
155	6124
155	6124
155	6124
155	6124
155	6124
155	6124
155	6124
155	6124
155	6124
155	6124
155	6124
155	6124
155	6124
155	6124
155	6124
155	6124
155	6124
155	6124
155	6124
155	6124
155	6124
155	6124
155	6124
155	6124
155	6124
155	6124
155	6124
155	6124
155	6124
155	6124
155	6124
155	6124
155	6124
155	6124
155	6124
155	6124
155	6124
155	6124
155	6124
155	6124
155	6124
155	6124
155	6124
155	6124
155	6124
155	6124
155	6124
155	6124
155	6124
155	6124
155	6124
155	6124
155	6124
155	6124
