10	6124
102	6124
102	6124
102	6124
154	6124
154	6124
154	6124
154	6124
154	6124
154	6124
154	6124
154	6124
154	6124
154	6124
154	6124
154	6124
154	6124
154	6124
154	6124
154	6124
154	6124
154	6124
154	6124
154	6124
154	6124
154	6124
154	6124
154	6124
154	6124
154	6124
154	6124
154	6124
154	6124
154	6124
154	6124
154	6124
154	6124
154	6124
154	6124
154	6124
154	6124
154	6124
154	6124
154	6124
154	6124
154	6124
154	6124
154	6124
154	6124
154	6124
154	6124
154	6124
154	6124
154	6124
154	6124
154	6124
154	6124
154	6124
154	6124
154	6124
154	6124
154	6124
154	6124
154	6124
154	6124
154	6124
154	6124
154	6124
154	6124
154	6124
154	6124
154	6124
154	6124
154	6124
154	6124
154	6124
154	6124
154	6124
154	6124
154	6124
154	6124
154	6124
154	6124
154	6124
154	6124
154	6124
154	6124
154	6124
154	6124
154	6124
154	6124
154	6124
154	6124
154	6124
