5	6124
90	6124
90	6124
90	6124
90	6124
90	6124
160	6124
160	6124
160	6124
160	6124
160	6124
160	6124
160	6124
160	6124
160	6124
160	6124
160	6124
160	6124
160	6124
160	6124
160	6124
160	6124
160	6124
160	6124
160	6124
160	6124
160	6124
160	6124
160	6124
160	6124
160	6124
160	6124
160	6124
160	6124
160	6124
160	6124
160	6124
160	6124
160	6124
160	6124
160	6124
160	6124
160	6124
160	6124
160	6124
160	6124
160	6124
160	6124
160	6124
160	6124
160	6124
160	6124
160	6124
160	6124
160	6124
160	6124
160	6124
160	6124
160	6124
160	6124
160	6124
160	6124
160	6124
160	6124
160	6124
160	6124
160	6124
160	6124
160	6124
160	6124
160	6124
160	6124
160	6124
160	6124
160	6124
160	6124
160	6124
160	6124
160	6124
160	6124
160	6124
160	6124
160	6124
160	6124
160	6124
160	6124
160	6124
160	6124
160	6124
160	6124
160	6124
160	6124
160	6124
160	6124
160	6124
160	6124
160	6124
160	6124
160	6124
160	6124
160	6124
160	6124
160	6124
160	6124
160	6124
160	6124
160	6124
160	6124
160	6124
160	6124
160	6124
160	6124
160	6124
160	6124
160	6124
160	6124
160	6124
160	6124
160	6124
160	6124
160	6124
