37	6124
37	6124
37	6124
58	6124
58	6124
58	6124
58	6124
58	6124
58	6124
58	6124
58	6124
58	6124
58	6124
58	6124
58	6124
58	6124
58	6124
58	6124
58	6124
58	6124
58	6124
58	6124
58	6124
58	6124
58	6124
58	6124
58	6124
