7	6124
7	6124
9	6124
11	6124
11	6124
11	6124
76	6124
76	6124
76	6124
76	6124
76	6124
76	6124
76	6124
76	6124
76	6124
76	6124
76	6124
76	6124
76	6124
76	6124
76	6124
76	6124
76	6124
76	6124
100	6124
100	6124
100	6124
100	6124
100	6124
100	6124
100	6124
100	6124
100	6124
100	6124
100	6124
100	6124
100	6124
100	6124
100	6124
100	6124
100	6124
100	6124
100	6124
100	6124
100	6124
100	6124
100	6124
100	6124
100	6124
100	6124
100	6124
100	6124
100	6124
100	6124
100	6124
100	6124
100	6124
