3	6124
104	6124
104	6124
104	6124
104	6124
266	6124
266	6124
266	6124
266	6124
266	6124
266	6124
266	6124
266	6124
266	6124
266	6124
266	6124
266	6124
266	6124
266	6124
266	6124
266	6124
266	6124
266	6124
266	6124
266	6124
266	6124
266	6124
266	6124
266	6124
266	6124
266	6124
266	6124
266	6124
266	6124
266	6124
266	6124
266	6124
266	6124
266	6124
266	6124
266	6124
266	6124
266	6124
266	6124
266	6124
266	6124
266	6124
266	6124
266	6124
266	6124
266	6124
266	6124
266	6124
266	6124
266	6124
266	6124
266	6124
266	6124
266	6124
266	6124
266	6124
266	6124
266	6124
266	6124
266	6124
266	6124
266	6124
266	6124
266	6124
266	6124
266	6124
266	6124
266	6124
266	6124
266	6124
266	6124
266	6124
266	6124
266	6124
266	6124
266	6124
266	6124
266	6124
266	6124
266	6124
266	6124
