5	6124
7	6124
7	6124
8	6124
13	6124
58	6124
58	6124
58	6124
58	6124
58	6124
58	6124
58	6124
58	6124
58	6124
72	6124
72	6124
72	6124
72	6124
72	6124
72	6124
72	6124
72	6124
72	6124
72	6124
72	6124
72	6124
72	6124
72	6124
72	6124
72	6124
72	6124
72	6124
