8	6124
122	6124
122	6124
122	6124
122	6124
122	6124
122	6124
122	6124
122	6124
122	6124
122	6124
122	6124
122	6124
178	6124
178	6124
178	6124
178	6124
178	6124
178	6124
178	6124
178	6124
178	6124
178	6124
178	6124
178	6124
178	6124
178	6124
178	6124
178	6124
178	6124
178	6124
178	6124
178	6124
178	6124
178	6124
178	6124
178	6124
178	6124
178	6124
178	6124
178	6124
178	6124
178	6124
178	6124
178	6124
178	6124
178	6124
178	6124
178	6124
178	6124
178	6124
178	6124
178	6124
178	6124
178	6124
178	6124
178	6124
178	6124
178	6124
178	6124
178	6124
178	6124
178	6124
178	6124
178	6124
178	6124
178	6124
178	6124
178	6124
178	6124
178	6124
178	6124
178	6124
