4	6124
5	6124
7	6124
12	6124
83	6124
83	6124
83	6124
83	6124
83	6124
83	6124
83	6124
107	6124
107	6124
107	6124
107	6124
107	6124
107	6124
107	6124
107	6124
107	6124
107	6124
107	6124
107	6124
107	6124
107	6124
107	6124
107	6124
107	6124
107	6124
107	6124
107	6124
107	6124
107	6124
107	6124
107	6124
107	6124
107	6124
107	6124
107	6124
107	6124
107	6124
107	6124
107	6124
107	6124
107	6124
107	6124
107	6124
107	6124
107	6124
107	6124
107	6124
107	6124
107	6124
107	6124
107	6124
107	6124
107	6124
107	6124
107	6124
107	6124
107	6124
107	6124
