131	6124
131	6124
180	6124
180	6124
180	6124
180	6124
180	6124
180	6124
180	6124
180	6124
180	6124
180	6124
180	6124
180	6124
180	6124
180	6124
180	6124
180	6124
180	6124
180	6124
180	6124
180	6124
180	6124
180	6124
180	6124
180	6124
180	6124
180	6124
180	6124
180	6124
180	6124
180	6124
180	6124
180	6124
180	6124
180	6124
180	6124
180	6124
180	6124
180	6124
180	6124
180	6124
180	6124
180	6124
180	6124
180	6124
180	6124
180	6124
180	6124
180	6124
180	6124
180	6124
180	6124
180	6124
180	6124
180	6124
180	6124
180	6124
180	6124
180	6124
180	6124
180	6124
180	6124
180	6124
180	6124
180	6124
180	6124
180	6124
180	6124
180	6124
180	6124
180	6124
180	6124
180	6124
180	6124
180	6124
180	6124
180	6124
180	6124
180	6124
180	6124
180	6124
180	6124
180	6124
180	6124
180	6124
180	6124
180	6124
180	6124
180	6124
180	6124
180	6124
180	6124
180	6124
180	6124
180	6124
180	6124
180	6124
180	6124
180	6124
180	6124
180	6124
180	6124
180	6124
180	6124
180	6124
180	6124
180	6124
180	6124
180	6124
180	6124
180	6124
180	6124
180	6124
180	6124
180	6124
180	6124
180	6124
180	6124
180	6124
180	6124
180	6124
180	6124
180	6124
