36	6124
36	6124
36	6124
36	6124
36	6124
36	6124
67	6124
67	6124
67	6124
67	6124
67	6124
67	6124
67	6124
67	6124
67	6124
67	6124
67	6124
67	6124
67	6124
67	6124
67	6124
67	6124
67	6124
67	6124
67	6124
67	6124
67	6124
67	6124
67	6124
67	6124
67	6124
67	6124
67	6124
67	6124
67	6124
67	6124
67	6124
67	6124
67	6124
67	6124
67	6124
67	6124
67	6124
