30	6124
30	6124
30	6124
30	6124
30	6124
30	6124
56	6124
56	6124
56	6124
56	6124
56	6124
56	6124
56	6124
56	6124
56	6124
56	6124
56	6124
56	6124
56	6124
56	6124
56	6124
56	6124
56	6124
56	6124
56	6124
56	6124
56	6124
56	6124
56	6124
56	6124
56	6124
56	6124
56	6124
56	6124
56	6124
56	6124
56	6124
56	6124
