4	6124
88	6124
88	6124
88	6124
88	6124
88	6124
88	6124
115	6124
115	6124
115	6124
115	6124
115	6124
115	6124
115	6124
115	6124
115	6124
115	6124
115	6124
115	6124
115	6124
115	6124
115	6124
115	6124
115	6124
115	6124
115	6124
115	6124
115	6124
115	6124
115	6124
115	6124
115	6124
115	6124
115	6124
115	6124
115	6124
115	6124
115	6124
115	6124
115	6124
115	6124
124	6124
124	6124
124	6124
124	6124
124	6124
124	6124
124	6124
124	6124
124	6124
124	6124
124	6124
124	6124
124	6124
124	6124
124	6124
124	6124
124	6124
124	6124
124	6124
124	6124
124	6124
124	6124
124	6124
124	6124
124	6124
124	6124
124	6124
124	6124
124	6124
124	6124
124	6124
124	6124
124	6124
124	6124
124	6124
124	6124
124	6124
124	6124
124	6124
124	6124
124	6124
124	6124
124	6124
124	6124
124	6124
124	6124
124	6124
124	6124
124	6124
124	6124
124	6124
124	6124
124	6124
124	6124
124	6124
124	6124
124	6124
124	6124
124	6124
124	6124
124	6124
124	6124
124	6124
124	6124
124	6124
124	6124
124	6124
124	6124
124	6124
124	6124
124	6124
124	6124
124	6124
124	6124
124	6124
124	6124
124	6124
124	6124
124	6124
124	6124
124	6124
124	6124
124	6124
124	6124
124	6124
124	6124
124	6124
124	6124
124	6124
124	6124
124	6124
124	6124
124	6124
124	6124
124	6124
124	6124
124	6124
124	6124
124	6124
124	6124
124	6124
124	6124
124	6124
124	6124
124	6124
124	6124
124	6124
124	6124
124	6124
124	6124
124	6124
