24	6124
24	6124
24	6124
24	6124
26	6124
26	6124
26	6124
26	6124
26	6124
26	6124
26	6124
26	6124
26	6124
26	6124
26	6124
26	6124
26	6124
26	6124
26	6124
26	6124
26	6124
26	6124
26	6124
26	6124
26	6124
26	6124
