4	6124
4	6124
5	6124
6	6124
6	6124
6	6124
6	6124
10	6124
10	6124
10	6124
10	6124
13	6124
13	6124
13	6124
13	6124
13	6124
13	6124
13	6124
64	6124
64	6124
64	6124
64	6124
64	6124
64	6124
64	6124
64	6124
64	6124
64	6124
64	6124
64	6124
64	6124
64	6124
64	6124
64	6124
64	6124
64	6124
64	6124
64	6124
64	6124
