72	6124
72	6124
72	6124
72	6124
72	6124
72	6124
72	6124
72	6124
72	6124
91	6124
91	6124
91	6124
91	6124
91	6124
91	6124
91	6124
91	6124
91	6124
91	6124
91	6124
91	6124
91	6124
91	6124
91	6124
91	6124
91	6124
91	6124
91	6124
91	6124
91	6124
91	6124
91	6124
91	6124
91	6124
91	6124
91	6124
91	6124
91	6124
91	6124
91	6124
91	6124
91	6124
91	6124
91	6124
91	6124
91	6124
91	6124
91	6124
91	6124
91	6124
91	6124
91	6124
91	6124
91	6124
91	6124
91	6124
91	6124
91	6124
91	6124
91	6124
91	6124
91	6124
91	6124
91	6124
91	6124
91	6124
91	6124
91	6124
91	6124
91	6124
91	6124
91	6124
91	6124
91	6124
