5	6124
7	6124
7	6124
7	6124
7	6124
7	6124
8	6124
8	6124
8	6124
8	6124
8	6124
8	6124
8	6124
9	6124
9	6124
9	6124
9	6124
9	6124
10	6124
10	6124
10	6124
10	6124
10	6124
10	6124
10	6124
10	6124
10	6124
10	6124
10	6124
10	6124
12	6124
12	6124
12	6124
12	6124
12	6124
12	6124
12	6124
12	6124
12	6124
13	6124
13	6124
13	6124
13	6124
13	6124
13	6124
14	6124
14	6124
14	6124
14	6124
14	6124
14	6124
14	6124
21	6124
21	6124
21	6124
21	6124
21	6124
21	6124
21	6124
21	6124
21	6124
21	6124
83	6124
83	6124
83	6124
83	6124
83	6124
83	6124
83	6124
83	6124
83	6124
83	6124
83	6124
83	6124
83	6124
83	6124
83	6124
83	6124
83	6124
83	6124
83	6124
83	6124
83	6124
83	6124
83	6124
83	6124
83	6124
83	6124
83	6124
83	6124
