4	6124
6	6124
6	6124
7	6124
11	6124
11	6124
11	6124
11	6124
80	6124
80	6124
80	6124
80	6124
80	6124
80	6124
80	6124
80	6124
80	6124
80	6124
80	6124
80	6124
80	6124
80	6124
80	6124
80	6124
80	6124
80	6124
80	6124
80	6124
80	6124
80	6124
80	6124
80	6124
80	6124
80	6124
80	6124
122	6124
122	6124
122	6124
122	6124
122	6124
122	6124
122	6124
122	6124
122	6124
122	6124
122	6124
122	6124
122	6124
122	6124
122	6124
122	6124
122	6124
122	6124
122	6124
122	6124
122	6124
122	6124
122	6124
122	6124
122	6124
122	6124
122	6124
122	6124
122	6124
122	6124
122	6124
122	6124
122	6124
122	6124
122	6124
122	6124
122	6124
122	6124
122	6124
122	6124
122	6124
122	6124
122	6124
122	6124
122	6124
122	6124
122	6124
122	6124
122	6124
