32	6124
32	6124
32	6124
32	6124
32	6124
32	6124
32	6124
32	6124
32	6124
32	6124
32	6124
32	6124
32	6124
32	6124
32	6124
32	6124
32	6124
32	6124
32	6124
32	6124
32	6124
32	6124
32	6124
32	6124
32	6124
