4	6124
6	6124
6	6124
7	6124
7	6124
7	6124
7	6124
7	6124
8	6124
8	6124
10	6124
10	6124
10	6124
10	6124
10	6124
11	6124
11	6124
11	6124
11	6124
11	6124
11	6124
38	6124
38	6124
38	6124
38	6124
38	6124
38	6124
38	6124
38	6124
38	6124
38	6124
38	6124
38	6124
38	6124
38	6124
38	6124
38	6124
38	6124
38	6124
38	6124
38	6124
49	6124
49	6124
49	6124
49	6124
49	6124
49	6124
49	6124
49	6124
49	6124
49	6124
49	6124
49	6124
49	6124
49	6124
49	6124
49	6124
49	6124
49	6124
49	6124
49	6124
