5	6124
6	6124
8	6124
9	6124
12	6124
12	6124
12	6124
12	6124
12	6124
12	6124
17	6124
17	6124
17	6124
17	6124
17	6124
17	6124
17	6124
17	6124
17	6124
50	6124
50	6124
50	6124
50	6124
50	6124
50	6124
50	6124
50	6124
50	6124
50	6124
50	6124
50	6124
50	6124
50	6124
50	6124
50	6124
50	6124
50	6124
50	6124
50	6124
50	6124
50	6124
