6	6124
6	6124
7	6124
7	6124
7	6124
7	6124
16	6124
16	6124
16	6124
16	6124
16	6124
35	6124
35	6124
35	6124
35	6124
35	6124
35	6124
35	6124
35	6124
35	6124
35	6124
35	6124
35	6124
35	6124
35	6124
35	6124
35	6124
