0.0488819	0.0494984
0.0560197	0.0775704
0.0733011	0.0816097
0.103247	0.111957
0.116505	0.123421
0.122393	0.122814
0.128331	0.206287
0.139926	0.152333
0.140126	0.142377
0.145215	0.200827
0.145225	0.167736
0.145903	0.160822
0.14743	0.165652
0.152811	0.242054
0.156508	0.184784
0.156979	0.269268
0.162136	0.165032
0.164378	0.167974
0.166462	0.198477
0.167138	0.229986
0.172922	0.184563
0.184993	0.19895
0.188932	0.207017
0.193258	0.218099
0.19549	0.202611
0.201678	0.218181
0.204107	0.258517
0.205187	0.549672
0.205915	0.309873
0.20898	0.24799
0.209472	0.258251
0.213831	0.219311
0.213856	0.251187
0.215804	0.290776
0.219467	0.293978
0.221433	0.225039
0.224485	0.413826
0.228542	0.319845
0.240232	0.31726
0.246452	0.254586
0.249661	0.267683
0.252714	0.289436
0.255612	0.273702
0.259856	0.269669
0.263012	0.324906
0.275818	0.350169
0.281138	0.318176
0.284409	0.289521
0.332554	0.338066
0.359584	0.53765
0.501766	0.534101

