0.065374	0.0773113
0.0763135	0.0843489
0.0810678	0.106431
0.106938	0.120488
0.107254	0.138889
0.107733	0.158479
0.112629	0.14809
0.122079	0.145533
0.123655	0.127484
0.12468	0.14128
0.133547	0.137528
0.135549	0.17363
0.153929	0.260668
0.153976	0.155677
0.158478	0.213121
0.16122	0.20397
0.166066	0.195474
0.170913	0.1762
0.172054	0.225887
0.198306	0.206695
0.20542	0.216527
0.206333	0.532215
0.209049	0.231698
0.215036	0.229235
0.216877	0.284177
0.220609	0.248306
0.225074	0.339326
0.229666	0.235387
0.232628	0.326246
0.237412	0.321908
0.237442	0.371575
0.238771	0.33525
0.242031	0.242852
0.242624	0.34962
0.245906	0.283041
0.24737	0.289799
0.250865	0.369082
0.252236	0.255107
0.270108	0.302664
0.285513	0.303444
0.288504	0.403842
0.295554	0.353027
0.32133	0.48672
0.321539	0.345904
0.35438	0.372144
0.397219	0.428157

