0.0521583	0.0602635
0.0528901	0.053535
0.0541555	0.0555371
0.067412	0.07053
0.0923906	0.122915
0.101864	0.124476
0.10224	0.114213
0.115842	0.118334
0.127638	0.169974
0.129585	0.136043
0.139536	0.162969
0.14367	0.144381
0.16277	0.354564
0.169491	0.202449
0.172495	0.175626
0.181647	0.187709
0.182797	0.212865
0.187187	0.193699
0.188927	0.309503
0.193134	0.199682
0.204241	0.237338
0.20614	0.225569
0.222356	0.227255
0.222741	0.334133
0.22722	0.234767
0.231467	0.242819
0.231479	0.337528
0.233357	inf
0.238321	0.242159
0.238775	0.26973
0.242631	0.265292
0.245831	0.329391
0.247395	0.419485
0.270496	0.32527
0.274384	0.309564
0.287525	0.305105
0.293563	0.300367
0.316902	0.418183
0.446523	0.465307

