0.0647956	0.0661024
0.0764105	0.0874553
0.0829947	0.0897225
0.0948745	0.0998064
0.0952714	0.0973963
0.0997687	0.100824
0.100385	0.114964
0.123617	0.129915
0.12773	0.136196
0.128193	0.171013
0.142546	0.200342
0.153861	0.158113
0.154931	0.238824
0.156419	0.176489
0.158856	0.264486
0.160654	0.17415
0.166165	0.25439
0.166574	0.213784
0.168333	0.183598
0.168493	0.191535
0.169778	0.183669
0.171767	0.28633
0.174567	0.217941
0.185703	0.210264
0.185782	0.246725
0.198995	0.566688
0.206197	0.23742
0.206354	0.247782
0.217864	0.334485
0.219109	0.240809
0.227393	0.282791
0.228177	0.251299
0.232062	0.276684
0.238534	0.339697
0.248924	0.257248
0.258094	0.348983
0.287545	0.453814
0.293924	0.353634
0.294887	0.376228
0.297382	0.330938
0.33601	0.370732
0.357976	0.393416
0.37354	0.440621
0.379075	0.44806
0.382375	0.444315

