0.0771927	0.0869713
0.0908871	0.0927226
0.10278	0.103578
0.104996	0.155864
0.126059	0.146331
0.126283	0.129204
0.131981	0.146623
0.139176	0.17539
0.141048	0.163107
0.154988	0.181201
0.169059	0.175591
0.172276	0.27136
0.175447	0.202963
0.175522	0.20742
0.175884	0.178264
0.17712	0.627527
0.183695	0.272462
0.184273	0.21121
0.185171	0.35422
0.194035	0.2782
0.195412	0.232564
0.204355	0.208916
0.205102	0.26578
0.209889	0.261088
0.21301	0.223645
0.214025	0.228618
0.216593	0.238737
0.239443	0.338928
0.243319	0.249919
0.244712	0.247403
0.245754	0.338549
0.257997	0.310494
0.270135	0.293781
0.280667	0.308703
0.284583	0.523543
0.322673	0.397264
0.371386	0.400049
0.496701	0.573093

