0.0479579	0.0488431
0.0885526	0.0978164
0.109644	0.145644
0.111123	0.12876
0.117537	0.13576
0.123488	0.131566
0.126878	0.183123
0.132553	0.144016
0.137572	0.156594
0.144077	0.167409
0.15578	0.157042
0.156068	0.179133
0.164372	0.201323
0.166561	0.175113
0.167913	0.1722
0.169293	0.180163
0.170364	0.173979
0.170596	0.27674
0.171555	0.195511
0.172832	0.219079
0.178491	0.223969
0.184028	0.229455
0.186963	0.250787
0.19266	0.509162
0.201791	0.212322
0.203475	0.388886
0.21288	0.273198
0.21299	0.218224
0.225147	0.241648
0.225685	0.231532
0.230568	0.318438
0.232692	0.268812
0.238143	0.258377
0.250393	0.371668
0.251176	0.261967
0.255351	0.325448
0.264894	0.335167
0.266333	0.329515
0.285163	0.296323
0.296041	0.323785
0.332014	0.501623
0.334709	0.339981
0.336789	0.337611
0.356202	0.410947
0.377766	0.4458
0.429066	0.493032

