0.0333452
0.0448434
0.0308681
0.0302708
0.031723
0.0580705
0.0339643
0.0279747
0.0250773
0.0236857
0.0248722
0.0422232
0.0331859
0.0293122
0.0264262
0.020776
0.0296265
0.124929
0.0363049
0.160996
0.0299561
0.0332047
0.040426
0.0346356
0.0460174
0.0334704
0.0238217
0.0314906
0.028738
0.0271685
0.0377883
0.038205
0.0402857
0.0286707
0.0461724
0.0389079
0.0171312
0.0409123
0.0254341
0.0301148
0.0236171
0.0375206
0.0392903
0.0358055
0.0288965
0.0351054
0.0387629
0.0255886
0.0185355
0.0325649
0.046928
0.0282105
0.0322111
0.0358094
0.0473884
0.0246188
0.0316973
0.0317565
0.0341194
0.017793
0.0468237
0.0783375
0.0315306
0.0369805
0.0169982
0.0305066
0.0397261
0.0408657
0.0444945
0.0272697
0.0379489
0.0339026
0.0335022
0.053144
0.0462894
0.0386077
0.0272185
0.0355385
0.0316047
0.0291448
0.0210644
0.0372596
0.0342516
0.0361456
0.030226
0.0493071
0.0482947
0.0385415
0.0418192
0.0494782
0.0281841
0.0433502
0.0160027
0.0315743
0.032499
0.0405196
0.0391101
0.029235
0.0290497
0.0344915
