1	6124
1	708
1	708
1	709
1	23
1	22
1	22
1	18
1	16
1	22
1	708
1	13
1	708
1	12
1	13
1	709
1	708
1	708
1	708
1	708
1	12
1	708
1	708
1	708
1	18
1	10
1	708
1	11
1	17
1	708
1	709
1	20
1	10
1	708
1	13
1	11
1	12
1	708
1	708
1	708
1	708
1	708
1	17
1	708
1	21
1	708
1	708
1	20
1	708
1	17
1	708
1	708
1	708
1	11
1	708
1	11
1	708
1	708
1	708
1	708
1	14
1	21
1	708
1	6124
1	14
1	708
1	14
1	708
1	13
1	708
1	708
1	708
1	10
1	708
1	708
1	20
1	708
1	13
1	708
1	19
1	11
1	15
1	708
1	708
1	708
1	708
1	17
1	708
1	708
1	14
1	708
1	708
1	708
1	708
1	708
1	30
1	708
1	11
1	13
1	9
1	708
1	708
1	708
1	23
1	22
1	17
1	708
1	708
1	18
1	708
1	17
1	21
1	708
1	21
1	10
1	708
1	708
1	15
1	14
1	708
1	708
1	708
1	15
1	708
1	18
1	14
1	13
1	708
1	708
1	29
1	18
1	13
1	708
1	708
1	20
1	708
1	15
1	708
1	708
1	21
1	708
1	709
1	708
1	18
1	708
1	708
1	708
1	10
1	19
1	708
1	708
1	708
1	21
1	8
1	708
1	18
1	20
1	11
1	708
1	708
1	708
1	708
1	7
1	708
1	11
1	709
1	708
1	708
1	21
1	13
1	708
1	8
1	708
1	708
1	708
1	708
1	10
1	14
1	708
1	9
1	708
1	24
1	6
1	708
1	708
1	29
1	708
1	708
1	17
1	11
1	22
1	708
1	708
1	708
1	708
1	708
1	9
1	708
1	9
1	708
1	10
1	708
1	708
1	708
1	21
1	8
1	708
1	11
1	708
1	5
1	708
1	708
1	708
1	708
1	8
1	708
1	708
1	6
1	710
1	20
1	708
1	708
1	14
1	708
1	8
1	12
1	708
1	711
1	8
1	708
1	708
1	708
1	708
1	709
1	708
1	10
1	708
1	11
1	708
1	15
1	9
1	708
1	21
1	708
1	708
1	8
1	11
1	708
1	708
1	8
1	11
1	708
1	708
1	708
1	708
1	708
1	708
1	708
1	7
1	708
1	708
1	708
1	708
1	708
1	9
1	708
1	15
1	708
1	708
1	8
1	708
1	18
1	11
1	708
1	709
1	708
1	708
1	708
1	708
1	8
1	15
1	17
1	9
1	21
1	13
1	17
1	8
1	12
1	709
1	11
1	708
1	708
1	708
1	29
1	708
1	15
1	8
1	708
1	708
1	708
1	708
1	708
1	708
1	708
1	708
1	708
1	11
1	708
1	708
1	12
1	14
1	708
1	708
1	708
1	12
1	708
1	708
1	708
1	708
1	708
1	708
1	708
1	12
1	708
1	708
1	21
1	708
1	14
1	708
1	708
1	708
1	708
1	708
1	9
1	17
1	708
1	7
1	708
1	708
1	10
1	8
1	13
1	709
1	708
1	22
1	6124
1	708
1	708
1	708
1	708
1	7
1	708
1	708
1	14
1	708
1	8
1	708
1	9
1	708
1	708
1	10
1	708
1	18
1	708
1	709
1	21
1	21
1	708
1	11
1	708
1	11
1	708
1	10
1	15
1	708
1	13
1	15
1	708
1	708
1	7
1	708
1	8
1	29
1	20
1	14
1	7
1	708
1	24
1	15
1	708
1	708
1	12
1	708
1	10
1	12
1	20
1	11
1	708
1	708
1	708
1	6
1	708
1	29
1	12
1	708
1	13
1	14
1	708
1	708
1	708
1	9
1	710
1	708
1	7
1	8
1	709
1	708
1	8
1	708
1	14
1	21
1	23
1	7
1	10
1	7
1	708
1	14
1	708
1	708
1	708
1	708
1	12
1	16
1	708
1	708
1	708
1	709
1	708
1	708
1	9
1	29
1	11
1	708
1	23
1	11
1	708
1	7
1	708
1	708
1	708
1	708
1	4
1	12
1	708
1	709
1	708
1	12
1	29
1	708
1	10
1	21
1	22
1	5
1	708
1	708
1	708
1	708
1	708
1	7
1	17
1	708
1	708
1	708
1	11
1	708
1	708
1	708
1	11
1	710
1	14
1	10
1	18
1	708
1	708
1	4
1	7
1	9
1	10
1	17
1	708
1	708
1	708
1	708
1	8
1	708
1	11
1	708
1	708
1	708
1	8
1	708
1	709
1	708
1	14
1	23
1	20
1	708
1	20
1	708
1	4
1	7
1	11
1	11
1	708
1	708
1	10
1	13
1	9
1	18
1	708
1	708
1	6
1	708
1	4
1	709
1	7
1	708
1	708
1	708
1	10
1	708
1	708
1	8
1	708
1	7
1	5
1	708
1	708
1	7
1	708
1	708
1	708
1	21
1	708
1	708
1	12
1	708
1	5
1	708
1	23
1	11
1	14
1	709
1	21
1	11
1	708
1	8
1	18
1	708
1	11
1	7
1	708
1	708
1	708
1	11
1	708
1	2
1	708
1	10
1	708
1	708
1	29
1	708
1	7
1	10
1	708
1	21
1	23
1	708
1	12
1	708
1	14
1	708
1	9
1	708
1	708
1	11
1	708
1	708
1	7
1	17
1	708
1	708
1	11
1	708
1	21
1	6
1	13
1	6
1	8
1	12
1	10
1	708
1	708
1	7
1	6
1	17
1	23
1	708
1	6
1	708
1	708
1	708
1	708
1	11
1	708
1	708
1	708
1	7
1	708
1	17
1	708
1	708
1	708
1	708
1	708
1	23
1	708
1	708
1	17
1	708
1	21
1	708
1	708
1	23
1	708
1	708
1	708
1	4
1	12
1	708
1	7
1	708
1	708
1	708
1	21
1	7
1	708
1	23
1	708
1	708
1	4
1	30
1	22
1	708
1	708
1	708
1	12
1	708
1	708
1	708
1	708
1	708
1	708
1	708
1	708
1	708
1	708
1	708
1	23
1	18
1	708
1	708
1	708
1	709
1	6
1	710
1	708
1	708
1	708
1	7
1	708
1	18
1	8
1	708
1	10
1	8
1	708
1	708
1	8
1	708
1	708
1	6
1	14
1	709
1	20
1	29
1	21
1	29
1	708
1	708
1	708
1	20
1	708
1	12
1	708
1	21
1	708
1	708
1	708
1	708
1	20
1	708
1	708
1	23
1	20
1	708
1	13
1	708
1	708
1	708
1	8
1	708
1	708
1	708
1	13
1	17
1	709
1	708
1	708
1	21
1	708
1	5
1	14
1	8
1	708
1	708
1	708
1	708
1	708
1	708
1	708
1	14
1	708
1	9
1	5
1	6
1	708
1	708
1	4
1	708
1	708
1	708
1	7
1	20
1	709
1	708
1	14
1	7
1	708
1	6
1	708
1	12
1	708
1	708
1	708
1	12
1	8
1	708
1	708
1	23
1	708
1	8
1	11
1	7
1	708
1	9
1	708
1	17
1	23
1	23
1	708
1	708
1	708
1	4
1	11
1	15
1	708
1	12
1	708
1	708
1	708
1	708
1	5
1	708
1	9
1	10
1	708
1	708
1	708
1	708
1	10
1	5
1	708
1	708
1	12
1	708
1	21
1	708
1	7
1	709
1	708
1	708
1	709
1	708
1	29
1	708
1	708
1	708
1	6124
1	708
1	708
1	7
1	708
1	8
1	708
1	708
1	708
1	8
1	6
1	708
1	10
1	22
1	8
1	708
1	709
1	708
1	708
1	6
1	708
1	708
1	708
1	708
1	4
1	10
1	708
1	709
1	14
1	17
1	23
1	708
1	12
1	708
1	708
1	5
1	12
1	708
1	708
1	23
1	708
1	708
1	708
1	23
1	708
1	17
1	8
1	708
1	708
1	708
1	708
1	8
1	708
1	23
1	21
1	9
1	708
1	17
1	4
1	14
1	9
1	708
1	708
1	709
1	708
1	8
1	708
1	23
1	708
1	7
1	8
1	21
1	708
1	5
1	11
1	708
1	7
1	709
1	708
1	708
1	10
1	8
1	8
1	708
1	708
1	708
1	8
1	2
1	708
1	708
1	708
1	708
1	708
1	12
1	8
1	23
1	708
1	6
1	12
1	708
1	708
1	708
1	23
1	708
1	708
1	21
1	708
1	11
1	5
1	708
1	10
1	708
1	708
1	7
1	708
1	18
1	21
1	13
1	20
1	708
1	708
1	5
1	709
1	6
1	708
1	708
1	708
1	708
1	11
1	7
1	708
1	13
1	11
1	708
1	708
1	708
1	29
1	21
1	708
1	708
1	5
1	29
1	13
1	708
1	13
1	708
1	708
1	708
1	709
1	708
1	8
1	11
1	9
1	708
1	14
1	708
1	708
1	708
1	709
1	7
1	708
1	708
1	8
1	11
1	708
1	13
1	709
1	708
1	708
1	7
1	708
1	708
1	9
1	708
1	20
1	709
1	708
1	708
1	10
1	8
1	708
1	708
1	11
1	708
1	12
1	708
1	708
1	11
1	708
1	708
2	11
2	6
2	3
2	3
2	12
2	709
2	9
2	3
2	4
2	3
2	3
2	3
2	709
2	14
2	8
2	22
2	13
2	709
2	13
2	18
2	9
2	8
2	6
2	3
2	12
2	709
2	3
2	3
2	3
2	9
2	4
2	3
2	3
2	10
2	14
2	19
2	8
2	7
2	7
2	11
2	3
2	14
2	709
2	8
2	3
2	18
2	3
2	709
2	24
2	7
2	3
2	6
2	6
2	709
2	3
2	15
2	5
2	8
2	7
2	3
2	4
2	4
2	4
2	3
2	7
2	10
2	3
2	30
2	9
2	3
2	15
2	3
2	3
2	6
2	7
2	5
2	4
2	15
2	7
2	13
2	3
2	22
2	3
2	12
2	3
2	3
2	3
2	9
2	7
2	4
2	4
2	5
2	3
2	3
2	3
2	6
2	3
2	10
2	6
2	22
2	6
2	7
2	3
2	13
2	5
2	15
2	4
2	13
2	8
2	709
2	6
2	4
2	3
2	18
2	6
2	14
2	3
2	3
2	709
2	3
2	5
2	10
2	3
2	3
2	12
2	6
2	13
2	8
2	13
2	3
2	18
2	8
2	6
2	12
2	7
2	4
2	3
2	5
2	5
2	6
2	3
2	4
2	7
2	7
2	8
2	6
2	4
2	6
2	4
2	8
2	12
2	5
2	7
2	3
2	21
2	709
2	4
2	3
2	3
2	12
2	5
2	4
2	709
2	7
2	24
2	4
2	8
2	6
2	4
2	709
2	3
2	3
2	9
2	7
2	4
2	12
2	6
2	4
2	3
2	7
2	3
2	3
2	4
2	13
2	15
2	4
2	4
2	3
2	4
2	7
2	3
2	4
2	3
2	4
2	3
2	7
2	3
2	3
2	3
2	7
2	18
2	4
2	3
2	4
2	10
2	3
2	12
2	4
2	7
2	6
2	5
2	23
2	4
2	3
2	6
2	5
2	12
2	24
2	6
2	4
2	6
2	4
2	8
2	12
2	9
2	8
3	7
3	4
3	4
3	4
3	4
3	5
3	5
3	11
3	4
3	6
3	5
3	4
3	4
3	5
3	5
3	5
3	7
3	4
3	6
3	4
3	5
3	4
3	9
3	8
3	4
3	9
3	6
3	5
3	5
3	6
3	4
3	5
3	8
3	6
3	4
3	4
3	5
3	6
3	10
3	4
3	5
3	4
3	4
3	6
3	4
3	7
3	13
3	5
3	5
3	4
3	8
3	4
3	4
3	5
3	4
3	4
3	4
3	4
3	4
3	4
3	4
3	4
3	5
3	4
3	6
3	5
3	5
3	6
3	6
3	4
3	5
3	4
3	6
3	6
3	5
4	5
4	5
4	5
4	6
4	5
4	5
4	6
4	5
4	5
4	6
4	5
4	6
4	5
4	5
4	7
4	5
4	6
4	5
4	5
4	5
4	7
4	5
4	7
4	5
4	5
4	5
4	5
4	5
4	6
4	6
4	7
4	5
4	6
4	5
4	5
4	5
4	6
4	5
4	5
5	6
5	9
5	6
5	6
5	6
5	6
5	6
5	7
5	6
5	8
5	6
5	6
5	6
5	6
5	8
5	6
5	7
5	6
5	6
5	6
5	8
5	6
5	6
6	7
6	7
6	7
6	8
6	7
6	7
6	7
6	7
6	7
6	7
6	7
6	7
6	7
6	7
6	7
6	7
6	7
6	7
6	7
6	8
7	8
7	8
7	8
7	8
7	8
7	8
7	8
7	8
7	8
7	8
7	8
7	8
7	8
7	8
8	9
8	9
8	10
8	9
8	9
8	9
9	10
9	10
9	10
9	11
9	10
10	12
10	11
10	11
10	11
10	11
10	12
10	11
11	12
11	13
11	12
11	12
11	12
11	12
12	13
12	13
13	14
13	14
13	14
13	14
13	14
16	17
16	17
16	17
17	18
19	20
19	20
20	21
20	21
21	22
22	23
22	23
28	29
707	708
