1	6124
1	6124
1	53
1	52
1	52
1	52
1	52
1	53
1	6124
1	52
1	52
1	52
1	14
1	52
1	12
1	53
1	11
1	10
1	7
1	12
1	10
1	52
1	6124
1	9
1	6124
1	9
1	52
1	52
1	52
1	6124
1	52
1	52
1	7
1	2
1	11
1	52
1	52
1	6
1	7
1	52
1	53
1	12
1	11
1	8
1	6
1	9
1	52
1	5
1	11
1	52
1	52
1	52
1	53
1	12
1	7
1	2
1	52
1	2
1	52
1	52
1	52
1	52
1	5
1	6
1	8
1	2
1	11
1	52
1	7
1	7
1	7
1	52
1	52
1	52
1	53
1	7
1	52
1	6
1	4
1	2
1	11
2	53
2	3
2	6
2	53
2	3
2	4
2	5
2	4
2	4
2	6
2	4
2	5
2	3
2	8
2	7
2	6
2	6
2	7
2	4
2	3
2	5
2	3
2	4
2	3
2	3
2	4
2	3
2	4
2	3
2	6
2	5
2	4
2	3
2	4
2	4
2	3
2	4
2	3
2	4
2	4
2	3
2	3
3	4
3	7
3	5
3	4
3	4
3	5
4	6
4	5
4	5
4	6
4	5
5	6
5	7
5	6
6	7
6	7
7	8
10	11
51	52
