1	6124
1	224
1	223
1	224
1	224
1	6124
1	24
1	223
1	223
1	29
1	223
1	223
1	223
1	223
1	223
1	223
1	223
1	224
1	223
1	6124
1	223
1	223
1	7
1	226
1	16
1	223
1	223
1	12
1	223
1	16
1	5
1	223
1	20
1	8
1	224
1	223
1	16
1	223
1	224
1	223
1	223
1	28
1	27
1	223
1	19
1	223
1	27
1	223
1	11
1	27
1	223
1	224
1	6124
1	7
1	224
1	223
1	29
1	27
1	223
1	27
1	12
1	223
1	8
1	223
1	223
1	224
1	223
1	223
1	6
1	223
1	12
1	27
1	223
1	18
1	223
1	4
1	223
1	223
1	17
1	223
1	223
1	15
1	223
1	7
1	223
1	5
1	6124
1	223
1	9
1	223
1	27
1	223
1	223
1	14
1	223
1	223
1	223
1	223
1	12
1	223
1	13
1	10
1	8
1	225
1	12
1	11
1	225
1	223
1	8
1	223
1	223
1	4
1	223
1	11
1	223
1	223
1	223
1	8
1	223
1	223
1	7
1	223
1	223
1	223
1	224
1	223
1	223
1	10
1	223
1	9
1	2
1	223
1	27
1	13
1	223
1	223
1	224
1	223
1	223
1	223
1	9
1	11
1	223
1	12
1	223
1	223
1	223
1	29
1	13
1	223
1	223
1	13
1	223
1	223
1	223
1	27
1	223
1	223
1	223
1	223
1	27
1	27
1	11
1	28
1	223
1	13
1	223
1	10
1	9
1	8
1	15
1	4
1	223
1	6124
1	7
1	223
1	5
1	6
1	223
1	7
1	4
1	12
1	223
1	223
1	12
1	223
1	223
1	7
1	223
1	223
1	8
1	223
1	223
1	223
1	13
1	223
1	223
1	223
1	2
1	15
1	224
1	27
1	224
1	223
1	223
1	223
1	223
1	223
1	223
1	12
1	14
1	224
1	223
1	11
1	223
1	223
1	10
1	223
1	13
1	12
1	223
1	223
1	12
1	7
1	27
1	2
1	223
1	12
1	223
1	7
1	223
1	223
1	15
1	4
1	5
1	223
1	224
1	15
1	223
1	223
1	27
1	4
1	223
1	223
1	223
1	12
1	223
1	223
1	223
1	223
1	4
1	223
1	7
1	8
1	223
1	223
1	223
1	8
1	5
1	2
1	223
1	223
1	223
1	6
1	223
1	223
1	223
1	7
1	223
1	6
1	223
1	11
1	6
1	223
1	15
1	223
1	6
1	223
1	223
1	223
1	223
1	223
1	8
1	223
1	27
1	224
1	223
1	223
1	224
1	223
1	223
1	223
1	223
1	5
1	223
1	223
1	6
1	27
1	4
1	223
1	223
1	223
2	11
2	5
2	5
2	6
2	12
2	3
2	3
2	3
2	7
2	11
2	3
2	3
2	17
2	9
2	13
2	9
2	224
2	3
2	3
2	4
2	6
2	4
2	4
2	4
2	4
2	3
2	224
2	7
2	3
2	3
2	5
2	3
2	3
2	3
2	3
2	7
2	3
2	3
2	7
2	5
2	3
2	3
2	6
2	5
2	3
2	4
2	3
2	5
2	3
2	3
2	3
2	4
2	3
2	11
2	3
2	3
2	9
2	3
2	4
2	4
2	4
2	8
2	3
2	9
2	4
2	9
2	14
2	4
2	6
2	3
2	3
2	6
3	5
3	5
3	4
3	4
3	4
3	4
3	4
3	4
3	4
3	5
3	5
3	4
3	4
3	4
3	6
3	5
3	5
3	4
3	4
3	4
3	4
3	5
3	4
3	4
3	6
3	4
3	5
3	4
3	4
4	6
4	5
4	6
4	5
4	5
4	5
4	7
5	6
5	6
5	6
5	6
5	6
5	7
5	6
6	8
6	7
6	7
7	8
7	8
7	9
9	10
10	11
10	11
11	12
11	12
14	15
26	27
222	223
