1	6124
1	320
1	17
1	324
1	319
1	319
1	319
1	319
1	319
1	10
1	319
1	24
1	17
1	319
1	18
1	319
1	319
1	319
1	15
1	15
1	319
1	15
1	319
1	319
1	319
1	319
1	319
1	319
1	319
1	319
1	319
1	19
1	319
1	8
1	21
1	319
1	319
1	319
1	320
1	20
1	319
1	6124
1	319
1	319
1	319
1	321
1	319
1	319
1	319
1	20
1	17
1	19
1	8
1	319
1	319
1	8
1	319
1	319
1	19
1	319
1	319
1	8
1	16
1	319
1	319
1	15
1	319
1	319
1	6124
1	319
1	319
1	322
1	319
1	319
1	319
1	319
1	319
1	319
1	319
1	319
1	322
1	319
1	319
1	319
1	319
1	319
1	15
1	319
1	319
1	319
1	15
1	4
1	319
1	319
1	319
1	8
1	319
1	319
1	15
1	319
1	319
1	17
1	319
1	319
1	319
1	19
1	15
1	11
1	10
1	9
1	319
1	319
1	319
1	319
1	8
1	319
1	319
1	321
1	319
1	319
1	319
1	6124
1	319
1	319
1	319
1	319
1	7
1	319
1	319
1	319
1	319
1	320
1	319
1	19
1	319
1	319
1	6124
1	8
1	11
1	6124
1	319
1	8
1	20
1	319
1	319
1	319
1	319
1	319
1	5
1	319
1	319
1	11
1	319
1	7
1	319
1	319
1	319
1	319
1	319
1	319
1	319
1	319
1	319
1	319
1	319
1	319
1	319
1	319
1	319
1	8
1	319
1	319
1	9
1	319
1	15
1	319
1	319
1	319
1	319
1	19
1	19
1	319
1	4
1	319
1	319
1	20
1	7
1	319
1	319
1	8
1	319
1	319
1	19
1	319
1	319
1	319
1	319
1	12
1	319
1	10
1	319
1	4
1	319
1	6124
1	11
1	15
1	319
1	7
1	319
1	319
1	6
1	319
1	6
1	319
1	15
1	7
1	319
1	319
1	319
1	8
1	319
1	7
1	9
1	319
1	16
1	319
1	319
1	319
1	15
1	319
1	319
1	15
1	7
1	6
1	11
1	319
1	320
1	319
1	6124
1	5
1	319
1	319
1	319
1	319
1	319
1	319
1	319
1	6124
1	319
1	319
1	11
1	319
1	8
1	3
1	319
1	11
1	319
1	319
1	15
1	319
1	319
1	7
1	319
1	319
1	7
1	319
1	319
1	15
1	319
1	5
1	2
1	4
1	319
1	6
1	6124
1	11
1	319
1	319
1	319
1	8
1	319
1	319
1	319
1	319
1	6
1	319
1	5
1	319
1	19
1	319
1	319
1	2
1	320
1	319
1	5
1	319
1	319
1	6
1	319
1	19
1	319
1	319
1	319
1	319
1	9
1	320
1	7
1	319
1	7
1	319
1	319
1	321
1	319
1	7
1	7
1	319
1	9
1	2
1	319
1	319
1	6
1	319
1	7
1	319
1	319
1	319
1	10
1	319
1	16
1	319
1	5
1	12
1	4
1	319
1	319
1	7
1	319
1	319
1	319
1	6124
1	319
1	5
1	6
1	319
1	319
1	319
1	319
1	319
1	319
1	319
1	2
1	319
1	320
1	319
1	319
1	2
1	319
1	319
1	319
1	319
1	319
1	319
1	7
1	7
1	319
1	319
1	6
1	3
1	319
1	319
1	319
1	7
1	2
1	319
1	319
1	319
1	319
1	319
1	6
1	319
1	319
1	319
1	319
1	319
1	319
1	319
1	6
1	319
1	8
1	15
1	20
1	319
1	319
1	319
1	8
1	319
1	319
1	319
1	319
1	319
1	319
1	319
1	319
1	319
1	319
1	319
1	319
1	319
1	319
1	319
1	319
1	319
1	319
1	6
1	319
1	319
1	319
1	9
1	319
1	319
1	319
1	319
1	319
1	6
1	2
1	19
2	5
2	320
2	5
2	8
2	9
2	4
2	6
2	320
2	6
2	6
2	3
2	3
2	3
2	8
2	3
2	3
2	5
2	3
2	5
2	4
2	9
2	3
2	3
2	5
2	3
2	6
2	3
2	3
2	5
2	3
2	4
2	3
2	3
2	3
2	3
2	320
2	4
2	8
2	4
2	6
2	5
2	3
2	6
2	9
2	3
2	3
2	3
2	4
2	4
2	4
2	3
2	6
2	3
2	3
2	5
2	3
2	3
2	9
2	3
2	3
2	3
3	5
3	5
3	4
3	4
3	4
3	4
3	4
3	5
3	4
3	5
3	4
3	4
3	5
3	4
3	4
3	5
3	7
3	5
3	4
3	4
3	4
3	4
3	7
3	4
3	6
4	5
4	5
4	5
4	6
4	5
4	5
4	5
4	6
4	5
4	5
4	5
5	6
5	6
5	6
5	6
5	6
5	6
6	7
6	7
6	7
6	7
6	7
6	7
7	8
7	8
7	8
10	11
14	15
14	15
18	19
318	319
