1	6124
1	18
1	13
1	281
1	281
1	24
1	280
1	16
1	17
1	13
1	23
1	11
1	280
1	280
1	6124
1	12
1	17
1	281
1	280
1	11
1	16
1	280
1	12
1	9
1	280
1	280
1	12
1	280
1	280
1	16
1	8
1	11
1	280
1	281
1	280
1	280
1	16
1	11
1	11
1	280
1	280
1	10
1	13
1	14
1	8
1	8
1	12
1	13
1	6
1	12
1	280
1	280
1	281
1	281
1	280
1	13
1	15
1	280
1	11
1	13
1	287
1	13
1	280
1	12
1	36
1	11
1	280
1	11
1	11
1	14
1	11
1	280
1	22
1	15
1	10
1	11
1	8
1	280
1	13
1	9
1	9
1	23
1	16
1	11
1	16
1	9
1	6124
1	10
1	10
1	11
1	16
1	6124
1	280
1	14
1	280
1	11
1	10
1	22
1	280
1	280
1	7
1	280
1	280
1	11
1	6124
1	22
1	9
1	280
1	281
1	281
1	9
1	15
1	15
1	280
1	10
1	14
1	6
1	11
1	6
1	280
1	11
1	280
1	9
1	10
1	280
1	6
1	6
1	280
1	6
1	10
1	8
1	12
1	14
1	280
1	16
1	10
1	14
1	9
1	38
1	280
1	15
1	280
1	16
1	22
1	13
1	10
1	9
1	280
1	280
1	8
1	280
1	14
1	280
1	22
1	8
1	10
1	280
1	280
1	8
1	12
1	9
1	13
1	10
1	280
1	24
1	12
1	280
1	10
1	280
1	280
1	11
1	14
1	5
1	14
1	10
1	280
1	280
1	280
1	10
1	10
1	9
1	10
1	6124
1	280
1	280
1	9
1	14
1	280
1	280
1	8
1	280
1	20
1	7
1	9
1	280
1	280
1	11
1	280
1	12
1	280
1	21
1	280
1	8
1	8
1	280
1	280
1	7
1	10
1	10
1	280
1	15
1	280
1	280
1	280
1	12
1	280
1	280
1	35
1	9
1	22
1	14
1	8
1	12
1	7
1	9
1	281
1	280
1	10
1	280
1	280
1	11
1	14
1	5
1	280
1	16
1	16
1	8
1	15
1	280
1	6124
1	9
1	9
1	10
1	12
1	281
1	11
1	10
1	14
1	281
1	7
1	9
1	280
1	2
1	280
1	280
1	280
1	13
1	280
1	2
1	281
1	17
1	7
1	14
1	16
1	280
1	280
1	5
1	11
1	10
1	13
1	8
1	16
1	10
1	9
1	280
1	280
1	280
1	280
1	9
1	280
1	14
1	280
1	280
1	8
1	11
1	280
1	280
1	9
1	8
1	35
1	280
1	280
1	21
1	5
1	21
1	9
1	13
1	280
1	9
1	10
1	7
1	280
1	280
1	15
1	280
1	13
1	280
1	21
1	280
1	280
1	11
1	7
1	9
1	280
1	6
1	14
1	8
1	10
1	280
1	6
1	280
1	9
1	8
1	12
1	8
1	280
1	11
1	280
1	280
1	13
1	280
1	22
1	14
1	8
1	280
1	6
1	9
1	10
1	22
1	10
1	280
1	8
1	280
1	8
1	280
1	280
1	280
1	23
1	16
1	280
1	13
1	280
1	10
1	280
1	12
1	10
1	6
1	280
1	6
1	280
1	11
1	14
1	8
1	11
1	7
1	280
1	9
1	21
1	13
1	4
1	8
1	10
1	13
1	9
1	280
1	280
1	281
1	280
1	280
1	10
1	6
1	280
1	281
1	280
1	15
1	10
1	280
1	21
1	280
1	280
1	15
1	9
1	280
1	280
1	8
1	280
1	8
1	280
1	5
1	12
1	9
1	15
1	280
1	8
1	280
1	8
1	280
1	281
1	22
1	7
1	21
1	12
1	4
1	281
1	280
1	2
1	4
1	280
1	6
1	9
1	280
1	280
1	15
1	280
1	8
1	280
1	280
1	280
1	282
1	16
1	6
1	14
1	11
1	7
1	280
1	14
1	280
1	6
1	21
1	11
1	7
1	8
1	280
1	7
1	8
1	7
1	280
1	280
1	280
1	10
1	9
1	9
1	5
1	8
1	6
1	9
1	7
1	14
1	9
1	280
1	6
1	8
1	10
1	11
1	280
1	7
1	9
1	10
1	9
1	280
1	280
1	6
1	280
1	2
1	280
1	280
1	14
1	11
1	15
1	4
1	280
1	7
1	8
1	280
1	9
1	7
2	11
2	8
2	36
2	36
2	3
2	8
2	8
2	9
2	10
2	5
2	8
2	5
2	36
2	10
2	3
2	3
2	9
2	9
2	3
2	6
2	6
2	3
2	4
2	3
2	8
2	3
2	36
2	8
2	3
2	3
2	7
2	10
2	9
2	3
2	7
2	7
2	3
2	11
2	8
2	6
2	36
2	3
2	36
2	8
2	5
2	4
2	3
2	3
2	8
2	6
2	3
2	9
2	3
2	8
2	6
2	3
2	3
2	3
2	8
2	7
2	12
2	6
2	36
2	3
2	6
2	3
2	36
2	9
2	4
2	36
2	281
2	8
2	36
2	10
2	3
2	3
2	5
2	4
2	4
2	7
2	22
2	22
2	3
2	10
2	3
2	3
2	6
2	3
2	4
2	6
2	17
2	5
2	8
2	3
2	4
2	7
2	7
2	11
2	5
2	3
2	4
2	6
2	3
2	6
2	8
2	9
2	4
2	5
2	6
2	3
2	3
2	3
2	4
2	3
2	22
2	4
2	3
2	6
2	7
2	3
2	7
2	8
2	5
2	7
2	6
2	3
2	4
2	3
2	6
2	8
2	8
2	6
2	4
2	4
2	36
2	8
2	3
2	8
2	9
2	3
2	7
2	3
2	5
2	3
2	8
2	8
2	6
2	3
2	8
2	3
2	8
2	3
2	3
2	3
2	4
2	3
2	3
2	7
2	3
2	4
2	4
2	5
2	3
2	9
2	36
2	3
2	36
2	11
3	10
3	4
3	5
3	9
3	5
3	4
3	4
3	4
3	4
3	5
3	4
3	6
3	9
3	4
3	5
3	8
3	4
3	15
3	5
3	5
3	12
3	4
3	4
3	6
3	7
3	8
3	8
3	5
3	7
3	4
3	6
3	6
3	9
3	4
3	6
3	4
3	5
3	10
3	4
3	4
3	4
3	4
3	4
3	10
3	4
3	4
3	5
3	5
3	4
3	4
3	5
3	9
3	4
3	8
3	4
3	6
3	6
3	7
3	9
3	9
3	4
3	4
3	5
3	5
3	5
3	6
3	4
3	6
3	4
4	5
4	6
4	5
4	6
4	6
4	6
4	5
4	5
4	6
4	5
4	6
4	5
4	5
4	5
4	6
4	6
4	5
4	5
4	6
4	6
4	5
4	7
4	5
4	5
4	7
4	6
4	6
4	6
4	6
4	5
5	7
5	6
5	6
5	6
5	6
5	6
5	6
5	7
5	6
5	6
5	7
5	8
5	6
5	6
5	6
5	6
5	7
5	6
5	6
5	6
5	6
5	7
5	6
6	8
6	8
6	7
6	7
6	8
6	7
6	7
6	7
6	7
6	7
6	7
6	7
6	7
6	8
6	7
6	7
6	7
6	7
6	7
6	7
6	7
6	7
6	7
6	8
7	8
7	8
7	8
7	11
7	8
7	8
7	8
7	8
7	8
7	8
7	8
7	8
7	8
7	8
7	9
7	8
7	8
8	9
8	9
8	9
8	11
8	13
8	10
8	9
8	9
8	9
8	9
8	11
9	10
9	10
9	10
9	10
9	10
9	10
9	10
9	10
9	10
10	11
11	12
12	13
12	13
12	13
13	14
13	14
14	15
14	15
14	15
14	16
15	16
20	21
20	21
20	21
21	22
34	35
279	280
