1	6124
1	187
1	29
1	186
1	188
1	26
1	186
1	23
1	186
1	22
1	186
1	186
1	25
1	186
1	17
1	186
1	10
1	5
1	17
1	15
1	186
1	24
1	188
1	186
1	6124
1	186
1	186
1	24
1	186
1	16
1	186
1	186
1	186
1	30
1	186
1	186
1	186
1	25
1	186
1	29
1	186
1	186
1	14
1	24
1	29
1	24
1	186
1	188
1	186
1	186
1	24
1	186
1	6124
1	15
1	186
1	186
1	28
1	4
1	186
1	186
1	24
1	28
1	186
1	187
1	186
1	186
1	20
1	186
1	186
1	186
1	186
1	186
1	186
1	23
1	186
1	5
1	186
1	28
1	186
1	187
1	186
1	186
1	186
1	3
1	186
1	186
1	16
1	186
1	187
1	186
1	8
1	186
1	23
1	187
1	18
1	186
1	9
1	186
1	186
1	186
1	186
1	187
1	13
1	186
1	186
1	186
1	28
1	2
1	186
1	28
1	15
1	186
1	186
1	186
1	10
1	11
1	186
1	186
1	24
1	186
1	186
1	186
1	186
1	186
1	7
1	24
1	186
1	186
1	186
1	186
1	186
1	15
1	17
1	12
1	186
1	22
1	22
1	186
1	186
1	186
1	186
1	186
1	8
1	186
1	186
1	186
1	186
1	186
1	186
1	15
1	11
1	186
1	22
1	186
1	186
1	23
1	186
1	186
1	10
1	186
1	186
1	186
1	24
1	4
1	24
1	17
1	186
1	186
1	186
1	186
1	186
1	186
1	28
1	186
1	186
1	17
1	17
1	7
1	186
1	22
1	186
1	29
1	186
1	8
1	186
1	186
1	186
1	186
1	186
1	4
1	186
1	186
1	186
1	12
1	4
1	16
1	186
1	186
1	28
1	7
1	28
1	9
1	24
1	186
1	24
1	186
1	16
1	9
1	7
1	186
1	186
1	28
1	28
1	186
1	24
1	186
1	8
1	10
1	187
1	9
1	186
1	186
1	186
1	186
1	17
1	7
1	12
1	9
1	186
1	9
1	22
1	186
1	186
1	186
1	10
1	22
1	186
1	10
1	186
1	186
1	22
1	186
1	186
1	9
1	186
1	186
1	186
1	186
1	12
1	11
1	186
1	186
1	186
1	186
1	186
1	186
1	18
1	11
1	186
1	186
1	186
1	5
1	18
1	186
1	186
1	5
1	17
1	186
1	186
2	3
2	5
2	7
2	6
2	3
2	187
2	6
2	5
2	11
2	11
2	9
2	8
2	5
2	3
2	5
2	10
2	5
2	3
2	4
2	3
2	9
2	8
2	8
2	8
2	3
2	3
2	11
2	8
2	5
2	19
2	4
2	3
2	8
2	4
2	3
2	3
2	5
2	5
2	3
2	4
2	5
2	6
2	23
2	25
2	3
2	6
2	4
2	4
2	4
2	6
2	3
2	8
2	8
2	8
2	3
2	4
3	6
3	4
3	5
3	4
3	4
3	7
3	4
3	4
3	6
3	4
3	6
3	5
3	4
3	5
3	4
3	7
3	5
3	4
3	5
3	4
3	4
3	4
3	4
3	5
3	4
3	6
3	5
3	6
3	4
4	5
4	6
4	5
4	6
4	7
4	5
4	5
4	5
4	7
4	5
4	6
4	5
5	6
6	8
6	7
6	7
7	8
7	8
8	9
8	9
9	10
9	10
11	12
14	15
16	17
21	22
23	24
27	28
185	186
