1	6124
1	117
1	117
1	118
1	21
1	17
1	117
1	6
1	14
1	119
1	13
1	10
1	6124
1	117
1	117
1	10
1	117
1	13
1	119
1	117
1	117
1	118
1	117
1	19
1	11
1	13
1	11
1	20
1	117
1	8
1	9
1	11
1	19
1	6
1	117
1	15
1	12
1	117
1	117
1	11
1	117
1	19
1	5
1	11
1	117
1	117
1	117
1	117
1	9
1	18
1	117
1	117
1	117
1	117
1	14
1	117
1	118
1	10
1	119
1	117
1	117
1	14
1	19
1	18
1	117
1	117
1	117
1	8
1	19
1	4
1	6
1	117
1	7
1	10
1	14
1	13
1	10
1	8
1	117
1	117
1	10
1	117
1	12
1	10
1	9
1	117
1	12
1	2
1	14
1	9
1	4
1	14
1	117
1	9
1	19
1	6124
1	117
1	9
1	6
1	5
1	6124
1	117
1	13
1	15
1	117
1	8
1	12
1	117
1	10
1	117
1	117
1	4
1	17
1	16
1	117
1	9
1	117
1	14
1	117
1	8
1	16
1	118
1	10
1	18
1	6
1	117
1	117
1	10
1	20
1	117
1	4
1	18
1	117
1	117
1	19
1	9
1	117
1	117
1	8
1	19
1	117
1	117
1	117
1	10
1	2
1	117
1	19
1	9
1	16
1	8
1	117
1	11
1	5
1	117
1	16
1	117
1	8
1	7
1	18
1	18
1	9
1	117
1	8
1	117
1	117
1	117
1	9
1	2
1	16
1	12
1	117
1	117
1	6
1	117
1	6
1	117
1	117
1	12
1	117
1	117
2	118
2	20
2	9
2	118
2	3
2	3
2	6
2	3
2	4
2	4
2	11
2	6
2	7
2	3
2	3
2	13
2	12
2	3
2	6
2	11
2	3
2	7
2	8
2	7
2	7
2	4
2	3
2	13
2	10
2	9
2	3
2	4
2	3
2	6
2	13
2	3
2	4
2	5
2	9
2	19
2	5
2	6
2	10
2	3
2	9
2	9
2	4
2	4
2	12
2	8
2	3
2	9
2	6
2	6
2	4
2	4
3	6
3	4
3	7
3	4
3	9
3	5
3	10
3	10
3	5
3	4
3	5
3	4
3	10
3	4
3	7
3	6
3	5
3	4
3	4
3	5
3	5
3	4
3	4
3	4
3	5
3	9
3	4
3	4
3	12
3	4
3	8
3	9
4	5
4	8
4	6
4	5
4	7
4	6
4	7
4	5
4	5
4	6
4	7
4	8
4	5
4	9
4	7
4	5
4	6
4	5
4	6
4	5
4	5
5	6
5	7
5	6
5	7
5	9
5	6
5	7
5	6
5	7
5	6
5	6
5	6
6	7
6	9
7	9
7	8
7	8
7	9
7	8
7	9
7	9
8	9
8	9
9	10
10	11
10	11
11	12
11	13
11	12
13	14
15	16
17	18
18	19
116	117
