1	6124
1	156
1	14
1	15
1	6124
1	156
1	14
1	155
1	12
1	155
1	13
1	6124
1	155
1	155
1	155
1	16
1	155
1	17
1	155
1	11
1	155
1	13
1	10
1	10
1	12
1	12
1	155
1	156
1	7
1	9
1	22
1	9
1	22
1	155
1	7
1	11
1	155
1	9
1	155
1	155
1	155
1	16
1	14
1	156
1	10
1	155
1	9
1	15
1	10
1	155
1	8
1	6124
1	155
1	155
1	13
1	11
1	8
1	15
1	10
1	155
1	155
1	155
1	155
1	155
1	5
1	8
1	9
1	155
1	13
1	155
1	3
1	155
1	155
1	10
1	156
1	155
1	8
1	155
1	155
1	155
1	6
1	17
1	155
1	7
1	12
1	15
1	3
1	13
1	13
1	155
1	15
1	11
1	15
1	155
1	8
1	155
1	155
1	6
1	9
1	155
1	155
1	155
1	5
1	155
1	6124
1	7
1	155
1	155
1	155
1	7
1	6
1	155
1	155
1	7
1	7
1	9
1	7
1	155
1	156
1	155
1	14
1	155
1	155
1	155
1	155
1	7
1	155
1	155
1	155
1	155
1	9
1	4
1	155
1	12
1	155
1	155
1	8
1	155
1	10
1	6
1	8
1	8
1	14
1	9
1	156
1	8
1	155
1	14
1	7
1	13
1	155
1	155
1	4
1	11
1	155
1	155
1	8
1	155
1	15
1	155
1	155
1	10
1	6
1	155
1	12
1	5
1	155
1	6
1	155
1	21
1	156
1	9
1	5
1	155
1	155
1	155
1	155
1	4
1	5
1	6
1	7
1	155
1	155
1	9
1	155
1	10
1	10
1	155
1	7
1	155
1	8
1	155
1	6
1	4
1	6
1	155
1	2
1	7
1	7
1	11
1	155
1	6
1	155
1	155
2	6
2	3
2	3
2	8
2	156
2	21
2	5
2	20
2	20
2	7
2	3
2	6
2	3
2	7
2	20
2	5
2	9
2	3
2	3
2	9
2	20
2	10
2	3
2	12
2	8
2	6
2	3
2	14
2	3
2	9
2	3
2	21
2	3
2	7
2	20
2	20
2	3
2	8
2	8
2	4
2	6
2	3
2	4
2	20
2	5
2	4
2	4
2	4
2	20
2	3
2	8
2	3
2	5
2	7
2	20
2	6
2	4
2	3
2	3
2	5
2	8
2	3
2	13
2	11
2	9
2	7
2	4
2	4
2	3
2	4
2	5
2	20
2	4
2	6
2	4
2	4
2	3
2	4
2	5
2	6
2	3
2	6
2	3
2	21
2	7
3	7
3	6
3	5
3	5
3	5
3	4
3	4
3	4
3	5
3	4
3	4
3	5
3	4
3	4
3	4
3	4
3	7
3	6
3	4
3	4
3	4
3	7
3	4
3	5
3	4
3	5
3	6
3	4
3	4
3	4
3	9
3	5
3	4
3	5
4	7
4	5
4	5
4	5
4	5
4	5
4	7
4	5
4	5
4	5
4	5
4	5
4	5
4	5
4	5
5	6
5	6
5	7
5	7
5	7
5	6
5	6
5	6
5	6
5	6
6	7
6	7
6	7
6	7
7	8
7	8
7	8
7	8
7	8
8	9
9	11
9	10
10	11
11	12
12	13
14	15
18	20
154	155
