1	6124
1	230
1	229
1	20
1	11
1	229
1	20
1	229
1	10
1	12
1	18
1	229
1	19
1	229
1	229
1	229
1	11
1	230
1	229
1	229
1	229
1	229
1	229
1	8
1	229
1	9
1	229
1	19
1	229
1	229
1	229
1	11
1	15
1	229
1	229
1	229
1	229
1	13
1	229
1	19
1	16
1	10
1	6
1	7
1	229
1	229
1	11
1	229
1	229
1	11
1	229
1	16
1	10
1	16
1	229
1	16
1	8
1	9
1	229
1	229
1	6
1	229
1	229
1	11
1	17
1	229
1	229
1	229
1	229
1	229
1	229
1	5
1	6
1	229
1	229
1	229
1	10
1	229
1	229
1	230
1	229
1	8
1	229
1	229
1	229
1	9
1	229
1	10
1	229
1	229
1	229
1	16
1	229
1	229
1	229
1	229
1	229
1	229
1	229
1	229
1	229
1	229
1	7
1	11
1	229
1	6
1	10
1	229
1	7
1	229
1	229
1	8
1	229
1	229
1	17
1	13
1	16
1	19
1	229
1	18
1	7
1	229
1	229
1	229
1	230
1	229
1	18
1	229
1	13
1	229
1	229
1	229
1	229
1	229
1	7
1	229
1	9
1	229
1	229
1	6
1	229
1	229
1	229
1	229
1	19
1	229
1	17
1	229
1	8
1	229
1	229
1	229
1	7
1	229
1	229
1	229
1	229
1	229
1	229
1	229
1	229
1	229
1	16
1	19
1	19
1	229
1	229
1	229
1	8
1	229
1	9
1	229
1	229
1	229
1	229
1	229
1	229
1	10
1	229
1	229
1	229
1	229
1	8
1	18
1	229
1	229
1	229
1	230
1	229
1	9
1	18
1	7
1	229
1	229
1	229
1	229
1	229
1	229
1	229
1	229
1	229
1	19
1	229
1	229
1	229
1	9
1	229
1	7
1	10
1	229
1	229
1	9
1	229
1	229
1	229
1	9
1	16
1	229
1	229
1	229
1	229
1	229
1	229
1	11
1	229
1	229
1	19
1	229
1	5
1	229
1	5
1	229
1	229
1	230
1	10
1	230
1	229
1	10
1	229
1	10
1	229
1	10
1	229
1	8
1	229
1	11
1	229
1	229
1	229
1	229
1	229
1	229
1	229
1	229
1	229
1	229
1	229
1	229
1	229
1	9
1	229
1	229
1	229
1	229
1	229
1	229
1	229
1	229
1	13
1	229
1	229
1	17
1	229
1	18
1	10
1	8
1	9
1	7
1	8
1	18
1	10
1	229
1	229
1	229
1	229
1	17
1	229
1	229
1	229
1	19
1	229
1	229
1	229
1	229
1	229
1	229
2	7
2	19
2	10
2	3
2	8
2	4
2	3
2	5
2	3
2	3
2	4
2	3
2	6
2	9
2	3
2	4
2	3
2	6
2	12
2	3
2	3
2	7
2	3
2	3
2	6
2	3
2	15
2	4
2	11
2	6
2	4
2	19
2	3
2	5
2	3
2	5
2	6
2	4
2	6
2	3
2	18
2	3
2	19
2	3
2	9
2	6
2	6
2	7
2	3
2	19
2	7
2	19
2	3
2	19
2	9
2	4
2	6
2	5
2	3
2	8
2	9
2	10
2	7
3	7
3	4
3	4
3	5
3	5
3	5
3	5
3	4
3	4
3	5
3	4
3	5
3	5
3	4
3	5
3	4
3	6
3	5
3	4
3	4
4	5
4	5
4	5
4	7
4	6
4	5
4	6
4	6
4	6
4	5
4	5
4	5
4	5
4	6
4	5
4	5
4	5
5	6
5	6
5	6
5	6
5	7
6	7
6	7
6	7
7	8
7	8
7	8
8	9
8	9
8	9
9	10
9	10
12	13
15	16
16	17
17	18
18	19
228	229
