1	6124
1	217
1	217
1	14
1	216
1	14
1	216
1	216
1	216
1	6
1	19
1	13
1	13
1	15
1	24
1	14
1	15
1	216
1	6
1	10
1	14
1	14
1	216
1	216
1	216
1	14
1	13
1	25
1	216
1	13
1	216
1	216
1	6124
1	15
1	14
1	25
1	216
1	216
1	216
1	216
1	9
1	216
1	18
1	8
1	23
1	219
1	216
1	13
1	216
1	216
1	216
1	216
1	14
1	216
1	216
1	216
1	22
1	11
1	216
1	218
1	220
1	12
1	10
1	216
1	216
1	13
1	10
1	13
1	217
1	216
1	216
1	216
1	216
1	216
1	10
1	216
1	216
1	216
1	216
1	10
1	216
1	216
1	24
1	2
1	13
1	216
1	7
1	216
1	23
1	216
1	216
1	13
1	10
1	15
1	14
1	5
1	7
1	216
1	6
1	16
1	216
1	14
1	15
1	216
1	14
1	10
1	216
1	216
1	18
1	13
1	25
1	14
1	217
1	9
1	23
1	216
1	14
1	216
1	10
1	7
1	9
1	216
1	216
1	13
1	24
1	11
1	218
1	216
1	12
1	14
1	13
1	216
1	216
1	216
1	216
1	12
1	216
1	11
1	6
1	6
1	8
1	216
1	216
1	216
1	217
1	10
1	8
1	216
1	216
1	8
1	11
1	9
1	4
1	24
1	216
1	10
1	216
1	16
1	216
1	8
1	12
1	9
1	6
1	4
1	23
1	5
1	9
1	10
1	11
1	10
1	10
1	6
1	216
1	12
1	9
1	216
1	216
1	21
1	216
1	216
1	11
1	216
1	216
1	10
1	10
1	24
1	216
1	13
1	216
1	23
1	10
1	216
1	216
1	9
1	216
1	216
1	14
1	216
1	6
1	216
1	12
1	18
1	216
1	24
1	9
1	217
1	216
1	216
1	216
1	16
1	8
1	21
1	216
1	216
1	217
1	9
1	216
1	12
1	12
1	217
1	12
1	6
1	216
1	10
1	216
1	216
1	9
1	13
1	9
1	15
1	216
1	216
1	10
1	6
1	7
1	216
1	216
1	9
1	216
1	216
1	9
1	6
1	216
1	216
1	216
1	216
1	6
1	216
1	216
1	7
1	216
1	13
1	12
1	216
1	216
1	12
1	6
1	216
1	216
1	216
1	216
1	9
1	10
1	216
1	216
1	216
1	216
1	11
1	6
1	6
1	216
1	216
1	4
1	216
1	12
1	12
1	216
1	216
1	14
1	10
1	216
1	7
1	216
1	216
1	6
1	8
1	216
1	216
1	216
1	9
1	7
1	216
1	216
1	216
1	10
1	5
1	25
1	6
1	216
1	216
1	12
1	14
1	13
1	216
1	13
1	216
1	216
1	13
1	216
1	8
1	216
1	216
1	24
1	216
1	216
1	24
1	216
1	216
1	10
1	216
1	24
1	7
1	8
2	6
2	13
2	9
2	7
2	4
2	12
2	10
2	6
2	22
2	6
2	4
2	3
2	13
2	14
2	3
2	3
2	4
2	3
2	6
2	217
2	7
2	7
2	3
2	4
2	8
2	7
2	5
2	13
2	4
2	3
2	13
2	9
2	3
2	3
2	6
2	22
2	10
2	10
2	7
2	11
2	8
2	7
2	3
2	3
2	4
2	6
2	11
2	3
2	7
2	5
2	3
2	5
2	3
2	3
2	3
2	7
2	4
2	5
2	9
2	10
2	6
2	3
2	3
2	8
2	7
2	4
2	3
2	9
2	3
2	4
2	4
2	6
2	3
2	3
2	6
2	4
2	4
2	19
2	11
2	3
2	6
2	24
2	3
2	3
3	4
3	7
3	6
3	11
3	6
3	7
3	5
3	4
3	4
3	4
3	4
3	20
3	5
3	4
3	5
3	4
3	23
3	10
3	8
3	7
3	4
3	6
3	7
3	6
3	4
3	6
3	4
3	4
3	4
3	4
3	6
3	11
3	12
3	4
3	5
3	4
3	5
3	4
3	5
4	5
4	5
4	6
4	9
4	5
4	5
4	5
4	5
4	9
4	6
4	5
4	6
4	8
4	5
4	5
4	7
4	5
4	7
4	5
4	6
4	5
4	6
4	6
5	6
5	6
5	6
5	6
5	7
5	6
5	6
5	6
5	6
5	6
5	6
5	7
5	6
5	6
5	6
5	6
5	6
5	6
5	6
5	8
5	8
6	7
6	7
6	7
6	7
7	8
7	9
7	12
7	8
7	9
7	8
7	8
7	8
8	10
8	10
8	9
8	9
8	9
9	10
9	10
9	10
9	10
10	11
10	11
11	12
11	12
11	12
11	12
12	13
12	13
12	13
12	13
14	15
17	18
20	21
22	23
23	24
215	216
