1	6124
1	448
1	447
1	25
1	26
1	447
1	447
1	447
1	447
1	447
1	447
1	14
1	12
1	448
1	449
1	447
1	13
1	11
1	14
1	447
1	447
1	11
1	11
1	447
1	10
1	448
1	447
1	447
1	11
1	447
1	16
1	447
1	447
1	13
1	447
1	449
1	11
1	11
1	13
1	447
1	447
1	12
1	14
1	11
1	7
1	17
1	447
1	447
1	447
1	447
1	11
1	25
1	447
1	447
1	15
1	6
1	447
1	447
1	11
1	447
1	447
1	11
1	12
1	447
1	13
1	447
1	14
1	447
1	25
1	447
1	11
1	11
1	447
1	447
1	447
1	447
1	447
1	447
1	447
1	447
1	447
1	447
1	25
1	447
1	447
1	10
1	447
1	10
1	447
1	447
1	447
1	447
1	11
1	13
1	447
1	10
1	12
1	12
1	447
1	17
1	447
1	447
1	447
1	447
1	447
1	448
1	448
1	16
1	10
1	14
1	9
1	25
1	447
1	14
1	13
1	9
1	447
1	447
1	14
1	447
1	447
1	10
1	447
1	447
1	21
1	447
1	13
1	447
1	14
1	25
1	10
1	447
1	9
1	447
1	447
1	447
1	447
1	447
1	12
1	447
1	10
1	449
1	447
1	447
1	447
1	447
1	13
1	447
1	10
1	447
1	448
1	447
1	9
1	9
1	447
1	447
1	7
1	11
1	447
1	8
1	447
1	447
1	447
1	447
1	11
1	447
1	447
1	447
1	25
1	447
1	447
1	15
1	16
1	448
1	447
1	447
1	9
1	447
1	447
1	447
1	12
1	447
1	447
1	14
1	9
1	447
1	447
1	25
1	447
1	447
1	19
1	14
1	447
1	9
1	11
1	447
1	447
1	447
1	447
1	7
1	448
1	447
1	447
1	447
1	15
1	16
1	447
1	7
1	10
1	447
1	447
1	447
1	447
1	447
1	447
1	447
1	447
1	10
1	14
1	447
1	447
1	447
1	10
1	447
1	9
1	447
1	447
1	17
1	447
1	447
1	11
1	7
1	12
1	447
1	9
1	447
1	447
1	447
1	9
1	447
1	12
1	447
1	447
1	447
1	447
1	9
1	447
1	12
1	447
1	11
1	447
1	10
1	14
1	447
1	10
1	11
1	447
1	13
1	447
1	4
1	25
1	447
1	5
1	447
1	447
1	11
1	7
1	6
1	447
1	11
1	447
1	6
1	12
1	447
1	447
1	5
1	4
1	10
1	10
1	447
1	447
1	447
1	8
1	9
1	12
1	7
1	25
1	447
1	5
1	447
1	447
1	447
1	447
1	447
1	447
1	447
1	447
1	14
1	447
1	447
1	447
1	447
1	447
1	14
1	447
1	447
1	8
1	447
1	447
1	447
1	447
1	447
1	447
1	15
1	447
1	448
1	447
1	447
1	447
1	447
1	447
1	11
1	10
1	12
1	447
1	447
1	447
1	447
1	447
1	447
1	447
1	15
1	447
1	447
1	447
1	447
1	448
1	6
1	6
1	8
1	4
1	447
1	4
1	9
1	447
1	447
1	447
1	10
1	447
1	447
1	11
1	447
1	447
1	447
1	9
1	447
1	11
1	447
1	447
1	10
1	447
1	6
1	447
1	7
1	15
1	13
1	25
1	447
1	447
1	447
1	447
1	447
1	448
1	447
1	9
1	10
1	447
1	447
1	447
1	9
1	7
1	447
1	447
1	4
1	447
1	11
1	447
1	447
1	447
1	447
1	447
1	447
1	447
1	10
1	5
1	447
1	447
1	448
1	447
1	12
1	447
1	447
1	15
1	447
1	447
1	14
1	447
1	9
1	447
1	447
1	14
1	447
1	447
1	7
1	447
1	448
1	447
1	447
1	447
1	447
1	15
1	447
1	11
1	10
1	11
1	447
1	447
1	447
1	447
1	13
1	447
1	447
1	15
1	447
1	447
1	448
1	10
1	447
1	447
1	447
1	447
1	7
1	14
1	447
1	447
1	447
1	447
1	9
1	6
1	15
1	447
1	447
1	447
1	448
1	447
1	447
1	447
1	447
1	5
1	447
1	447
1	8
1	447
1	5
1	447
1	447
1	7
1	447
1	10
1	447
1	447
1	447
1	25
1	447
1	10
1	447
1	448
1	447
1	447
1	11
1	447
1	447
1	447
1	11
1	15
1	447
1	447
1	448
1	448
1	447
1	6
1	11
1	447
1	447
1	447
1	10
1	447
1	447
1	11
1	447
1	447
1	8
1	447
1	447
1	25
1	447
1	447
1	447
1	10
1	447
1	447
1	447
1	447
1	447
1	447
1	447
1	447
1	6
1	11
1	447
1	447
1	447
1	447
1	447
1	6
1	447
1	447
1	14
1	447
1	447
1	7
1	447
1	447
1	14
1	447
1	447
1	10
1	6
1	447
1	447
1	12
1	447
1	447
1	447
1	447
1	447
1	447
1	12
1	9
1	13
1	447
1	14
1	447
1	447
1	8
1	447
1	447
1	447
1	447
1	25
1	447
1	7
1	13
1	5
1	10
1	447
1	7
1	447
1	447
1	447
1	10
1	447
1	447
1	9
1	7
1	25
1	447
1	447
1	447
1	447
1	13
1	11
1	447
1	447
1	447
1	14
1	447
1	8
1	6
1	447
1	11
1	13
1	4
1	447
1	447
1	447
1	6
2	14
2	6
2	3
2	6
2	26
2	5
2	448
2	448
2	7
2	8
2	5
2	3
2	5
2	9
2	7
2	7
2	8
2	5
2	6
2	4
2	14
2	7
2	6
2	448
2	5
2	4
2	448
2	3
2	7
2	4
2	5
2	3
2	3
2	4
2	9
2	10
2	3
2	3
2	3
2	7
2	4
2	3
2	6
2	6
2	8
2	3
2	15
2	13
2	448
2	3
2	8
2	6
2	3
2	3
2	4
2	4
2	7
2	3
2	10
2	3
2	3
2	3
2	4
2	5
2	3
2	4
2	6
2	8
2	4
2	8
2	8
2	10
2	4
2	10
2	6124
2	9
2	3
2	10
2	4
2	448
2	14
2	5
2	4
2	10
2	3
2	3
2	3
2	5
2	4
2	8
2	6
2	5
2	7
2	5
2	4
2	4
2	6
2	8
2	7
2	5
2	3
2	7
2	7
2	3
2	8
2	3
2	12
2	15
2	5
2	7
2	6
2	10
2	5
3	4
3	4
3	5
3	4
3	5
3	4
3	5
3	4
3	4
3	5
3	4
3	5
3	4
3	4
3	16
3	5
3	4
3	4
3	4
3	4
3	5
3	4
3	6
3	4
3	4
3	11
3	4
3	4
3	5
3	4
3	5
3	8
3	4
3	4
3	4
3	4
3	4
3	4
3	5
3	4
3	5
3	9
3	5
3	5
3	4
3	5
3	4
3	4
3	9
3	4
3	4
3	4
3	5
3	6
3	5
3	5
3	5
3	4
4	5
4	5
4	5
4	6
4	5
4	5
4	7
4	5
4	7
4	5
4	7
4	6
4	5
4	12
4	6
4	6
4	5
4	6
4	6
5	7
5	6
5	6
5	7
5	6
5	6
5	6
5	6
5	7
5	7
5	6
5	6
5	6
5	6
5	6
6	7
6	7
6	7
6	7
6	7
6	7
6	7
6	7
6	8
6	8
8	9
8	9
8	9
8	9
8	9
8	9
8	9
8	9
9	10
9	10
9	10
9	10
9	10
9	10
10	11
10	11
10	11
10	11
11	12
12	13
12	13
13	14
13	14
13	14
14	15
14	15
24	25
446	447
