1	6124
1	184
1	183
1	9
1	12
1	11
1	183
1	18
1	186
1	19
1	11
1	17
1	15
1	18
1	183
1	9
1	14
1	12
1	183
1	13
1	183
1	24
1	14
1	183
1	19
1	15
1	13
1	18
1	183
1	11
1	10
1	17
1	183
1	12
1	183
1	183
1	8
1	9
1	6
1	17
1	21
1	185
1	16
1	10
1	183
1	8
1	13
1	6
1	15
1	8
1	183
1	14
1	183
1	183
1	20
1	183
1	183
1	16
1	23
1	18
1	184
1	18
1	8
1	183
1	183
1	10
1	17
1	12
1	13
1	12
1	183
1	11
1	183
1	18
1	17
1	11
1	8
1	183
1	183
1	10
1	183
1	17
1	12
1	9
1	8
1	10
1	7
1	183
1	20
1	12
1	183
1	20
1	15
1	183
1	10
1	183
1	183
1	183
1	183
1	183
1	23
1	183
1	11
1	15
1	8
1	183
1	6
1	183
1	17
1	183
1	183
1	16
1	9
1	16
1	20
1	8
1	18
1	8
1	11
1	183
1	183
1	183
1	11
1	184
1	13
1	7
1	183
1	8
1	6124
1	17
1	5
1	8
1	183
1	23
1	183
1	183
1	183
1	13
1	10
1	183
1	9
1	183
1	14
1	183
1	12
1	6
1	12
1	183
1	183
1	184
1	23
1	9
1	9
1	7
1	16
1	183
1	12
1	183
1	183
1	5
1	16
1	9
1	6124
1	183
1	184
1	6124
1	5
1	19
1	7
1	10
1	183
1	183
1	6
1	183
1	183
1	8
1	183
1	183
1	184
1	7
1	2
1	183
1	4
1	16
1	20
1	13
1	7
1	6
1	17
1	10
1	11
1	17
1	18
1	5
1	17
1	183
1	18
1	12
1	183
1	4
1	11
1	184
1	183
1	8
1	183
1	23
1	183
1	183
1	183
1	2
1	183
1	12
1	183
1	12
1	184
1	183
1	184
1	8
1	7
1	7
1	183
1	10
1	10
1	10
1	18
1	6
1	183
1	11
1	7
1	7
1	183
1	10
1	6124
1	17
1	13
1	17
1	12
1	8
1	183
1	16
1	183
1	7
1	183
1	7
1	8
1	183
1	13
1	184
1	6
1	7
1	183
1	7
1	183
1	9
1	4
1	183
1	17
1	8
1	183
1	183
1	12
1	23
1	13
1	18
1	6
1	8
1	23
1	183
1	8
1	186
1	184
1	183
1	8
1	183
1	16
1	183
1	183
1	183
1	8
1	7
1	9
1	7
1	5
1	17
1	183
1	184
1	183
1	12
1	183
1	6
1	12
1	183
1	183
1	9
1	8
1	6
1	183
1	7
1	15
1	7
1	9
1	183
1	20
1	10
1	11
1	183
1	183
1	7
1	7
1	17
1	184
1	23
1	183
1	16
1	15
1	12
1	7
1	10
1	8
1	11
1	17
1	7
1	10
1	10
1	183
1	183
1	6
1	183
1	16
1	8
1	11
1	6
1	2
1	2
1	18
1	183
1	7
1	183
1	183
1	183
1	9
1	183
1	6
1	183
1	183
1	183
1	183
1	183
1	23
1	9
1	9
1	183
1	8
1	184
1	9
1	6
1	16
1	20
1	6
1	13
1	21
1	20
1	5
1	20
1	10
1	183
1	9
1	183
1	23
1	183
1	183
1	9
1	8
1	22
1	16
1	184
1	183
1	12
1	6
1	9
1	9
1	183
1	8
1	9
1	5
1	7
1	183
1	183
1	23
1	12
2	14
2	6
2	18
2	5
2	3
2	3
2	3
2	13
2	6
2	5
2	6
2	3
2	11
2	6
2	4
2	6
2	3
2	3
2	7
2	3
2	6
2	3
2	3
2	3
2	6
2	5
2	7
2	7
2	3
2	3
2	6
2	3
2	7
2	3
2	11
2	3
2	3
2	3
2	17
2	3
2	3
2	9
2	3
2	5
2	3
2	12
2	5
2	8
2	7
2	3
2	3
2	3
2	21
2	3
2	6
2	184
2	4
2	3
2	7
2	3
2	6
2	184
2	9
2	3
2	7
2	9
2	10
2	3
2	8
2	6
2	6
2	3
2	3
2	4
2	4
2	8
2	3
2	5
2	3
2	6
2	4
2	6
2	3
2	4
2	6
2	9
2	8
2	3
2	5
2	7
2	18
2	3
2	4
2	4
2	17
2	6
2	10
2	3
2	6
2	3
2	11
2	4
2	3
2	3
2	3
2	4
2	13
2	4
2	3
2	3
2	4
2	5
3	5
3	4
3	5
3	5
3	4
3	5
3	4
3	8
3	5
3	4
3	5
3	6
3	4
3	5
3	4
3	4
3	5
3	7
3	5
3	4
3	5
3	5
3	4
3	5
3	4
3	5
3	5
3	14
3	4
3	5
3	6
3	7
3	4
3	6
3	8
3	4
3	4
3	6
3	9
3	4
3	6
3	4
3	4
3	6
3	4
3	6
4	5
4	5
4	5
4	5
4	10
4	5
4	5
4	5
4	6
4	5
4	5
4	5
4	5
4	5
4	5
4	5
4	5
4	5
4	5
4	5
5	6
5	6
5	6
5	6
5	9
5	6
5	7
5	10
5	7
5	6
5	6
5	6
5	6
5	6
5	6
6	7
6	7
6	7
6	7
6	7
6	7
6	8
6	8
6	7
6	8
6	7
6	7
6	7
7	8
7	8
7	8
7	8
7	8
8	9
8	9
8	9
8	9
8	9
8	9
9	10
9	10
9	10
9	10
10	11
11	12
11	12
11	12
12	13
14	15
15	16
15	16
15	16
16	17
16	17
17	18
19	20
22	23
182	183
