1	6124
1	110
1	110
1	109
1	109
1	14
1	109
1	22
1	10
1	9
1	109
1	6
1	20
1	109
1	12
1	11
1	15
1	109
1	109
1	109
1	109
1	11
1	109
1	109
1	9
1	109
1	14
1	15
1	110
1	14
1	10
1	110
1	109
1	109
1	109
1	110
1	109
1	6
1	109
1	109
1	9
1	10
1	109
1	109
1	109
1	9
1	109
1	109
1	109
1	109
1	109
1	11
1	109
1	109
1	109
1	109
1	20
1	109
1	12
1	109
1	5
1	109
1	109
1	109
1	9
1	13
1	109
1	109
1	109
1	22
1	13
1	20
1	109
1	109
1	20
1	110
1	6124
1	109
1	109
1	109
1	109
1	109
1	109
1	109
1	110
1	22
1	9
1	22
1	110
1	109
1	109
1	110
1	109
1	109
1	4
1	109
1	109
1	8
1	109
1	109
1	109
1	109
1	109
1	109
1	109
1	109
1	109
1	10
1	11
1	109
1	20
1	109
1	109
1	10
1	109
1	110
1	4
1	20
1	9
1	109
1	3
1	10
1	109
1	4
1	10
1	109
1	109
1	20
1	109
1	109
1	109
1	13
1	4
1	7
1	109
1	109
1	109
1	6
1	110
1	11
1	109
1	109
1	109
1	109
1	109
1	20
1	109
1	109
1	9
1	109
1	10
1	20
1	109
1	110
1	6
1	9
1	7
2	6
2	8
2	3
2	3
2	4
2	4
2	3
2	6
2	3
2	10
2	8
2	3
2	4
2	3
2	7
2	4
2	4
2	5
2	3
2	5
2	3
2	3
2	4
2	3
2	4
2	4
2	3
2	3
2	3
2	3
2	4
2	3
2	7
2	3
2	5
2	5
2	3
2	10
2	3
2	6
2	4
2	3
2	7
2	10
2	5
3	4
3	4
3	4
3	4
3	4
3	5
3	4
3	4
3	4
3	4
3	9
3	4
3	8
3	4
3	5
3	4
4	5
4	5
4	5
4	5
5	8
5	6
5	6
6	7
6	8
6	7
8	9
8	9
8	9
8	9
9	10
12	13
19	20
108	109
