1	6124
1	177
1	176
1	176
1	176
1	176
1	177
1	14
1	14
1	176
1	12
1	176
1	180
1	176
1	176
1	11
1	176
1	11
1	176
1	10
1	176
1	10
1	176
1	176
1	11
1	8
1	4
1	11
1	13
1	19
1	176
1	176
1	12
1	176
1	10
1	176
1	176
1	176
1	8
1	176
1	176
1	14
1	177
1	176
1	176
1	176
1	176
1	6124
1	176
1	6124
1	177
1	176
1	13
1	10
1	176
1	9
1	4
1	176
1	176
1	176
1	18
1	14
1	176
1	9
1	176
1	176
1	8
1	9
1	176
1	176
1	4
1	5
1	13
1	10
1	18
1	9
1	176
1	176
1	7
1	8
1	176
1	176
1	176
1	15
1	6124
1	177
1	176
1	176
1	6
1	176
1	7
1	176
1	176
1	176
1	176
1	176
1	176
1	9
1	176
1	176
1	176
1	176
1	176
1	177
1	18
1	7
1	11
1	176
1	176
1	178
1	176
1	176
1	7
1	7
1	176
1	177
1	10
1	9
1	179
1	176
1	176
1	176
1	176
1	176
1	176
1	176
1	176
1	176
1	12
1	176
1	5
1	176
1	176
1	7
1	9
1	176
1	176
1	177
1	5
1	9
1	176
1	176
1	176
1	176
1	176
1	176
1	176
1	176
1	18
1	176
1	176
1	9
1	176
1	3
1	176
1	176
1	176
1	176
1	7
1	2
1	176
1	5
1	18
1	19
1	177
1	8
1	6
1	176
1	176
1	176
1	176
1	18
1	176
1	10
1	176
1	9
1	176
1	6
1	176
1	176
1	176
1	8
1	176
1	176
1	4
1	10
1	176
1	7
1	176
1	176
1	4
1	19
1	176
1	9
1	5
1	176
1	8
1	176
1	176
1	6
1	177
1	7
1	176
1	176
1	8
1	176
1	176
1	176
1	4
1	176
1	176
1	8
1	176
1	176
1	12
1	176
1	176
1	176
1	6
1	12
1	176
1	176
1	176
1	9
1	176
1	8
1	18
1	176
2	7
2	3
2	3
2	3
2	9
2	4
2	3
2	3
2	5
2	8
2	5
2	3
2	8
2	9
2	3
2	177
2	3
2	8
2	8
2	3
2	6
2	8
2	7
2	3
2	6
2	8
2	3
2	5
2	4
2	4
2	3
2	3
2	5
2	3
2	6
2	5
2	4
2	7
2	4
2	3
2	3
2	7
2	5
2	7
2	6
2	9
2	3
2	5
2	4
2	4
2	3
2	4
2	9
2	13
2	3
2	6
2	4
2	4
2	4
2	4
2	3
2	4
2	4
2	4
2	9
3	4
3	8
3	5
3	4
3	4
3	5
3	4
3	6
3	5
3	4
3	5
3	4
3	4
3	4
3	4
3	4
3	4
3	6
3	6
3	6
3	10
3	5
3	4
3	6
3	4
3	5
3	4
3	4
3	4
4	6
4	5
4	7
4	5
4	5
4	6
4	5
4	6
4	6
4	5
4	8
4	8
4	6
4	7
4	8
4	6
4	7
4	6
4	8
5	6
5	6
5	6
5	6
5	6
6	7
6	7
6	7
6	8
7	8
7	8
7	8
7	8
7	9
7	8
7	8
8	9
9	10
11	12
11	12
17	18
175	176
