1	6124
1	209
1	209
1	210
1	209
1	209
1	209
1	18
1	13
1	13
1	209
1	209
1	11
1	26
1	209
1	209
1	211
1	209
1	209
1	209
1	209
1	11
1	10
1	209
1	209
1	209
1	209
1	210
1	209
1	13
1	209
1	209
1	209
1	210
1	24
1	209
1	210
1	9
1	209
1	22
1	9
1	8
1	28
1	209
1	22
1	209
1	24
1	209
1	16
1	6
1	209
1	209
1	13
1	209
1	22
1	209
1	209
1	13
1	12
1	16
1	209
1	209
1	25
1	209
1	12
1	8
1	18
1	209
1	11
1	4
1	209
1	209
1	209
1	209
1	7
1	11
1	9
1	209
1	209
1	14
1	8
1	209
1	16
1	9
1	24
1	10
1	209
1	209
1	209
1	209
1	209
1	209
1	209
1	209
1	10
1	16
1	10
1	209
1	209
1	209
1	209
1	209
1	22
1	18
1	11
1	16
1	6
1	209
1	209
1	209
1	209
1	8
1	209
1	210
1	210
1	7
1	24
1	209
1	10
1	209
1	209
1	209
1	209
1	209
1	209
1	12
1	14
1	4
1	22
1	209
1	209
1	4
1	209
1	22
1	6
1	209
1	24
1	12
1	209
1	22
1	209
1	13
1	11
1	209
1	209
1	209
1	6
1	11
1	22
1	24
1	209
1	209
1	24
1	209
1	22
1	9
1	9
1	15
1	9
1	209
1	210
1	209
1	6
1	15
1	209
1	12
1	209
1	209
1	15
1	209
1	16
1	11
1	209
1	24
1	209
1	210
1	9
1	11
1	11
1	209
1	209
1	209
1	209
1	209
1	209
1	24
1	209
1	15
1	24
1	6
1	209
1	11
1	13
1	22
1	9
1	209
1	209
1	12
1	16
1	209
1	209
1	7
1	209
1	8
1	209
1	209
1	209
1	210
1	209
1	24
1	22
1	15
1	209
1	209
1	10
1	8
1	8
1	6
1	209
1	209
1	9
1	24
1	210
1	22
1	209
1	209
1	209
1	209
1	12
1	209
1	7
1	209
1	4
1	209
1	209
1	209
1	13
1	209
1	209
1	209
1	209
1	209
1	24
1	209
1	209
1	24
1	16
1	6
1	209
1	10
1	210
1	209
1	15
1	209
1	209
1	10
1	9
1	4
1	12
1	209
1	4
1	4
1	209
1	209
1	209
1	4
1	209
1	209
1	8
1	210
1	209
1	209
1	11
1	209
1	209
1	12
1	7
1	209
1	4
1	13
1	9
1	9
1	209
1	16
1	209
1	209
1	209
1	210
1	22
2	3
2	3
2	6
2	10
2	210
2	210
2	3
2	6
2	3
2	6
2	3
2	4
2	8
2	6
2	10
2	210
2	4
2	7
2	7
2	3
2	9
2	3
2	4
2	3
2	3
2	10
2	6
2	17
2	10
2	5
2	7
2	210
2	3
2	3
2	9
2	10
2	3
2	8
2	5
2	7
2	4
2	5
2	6
2	9
2	8
2	4
2	7
2	3
2	4
2	4
2	3
2	6
2	4
2	6
2	9
2	3
2	5
2	6
2	8
2	9
2	4
2	8
2	4
2	5
2	6
2	3
2	4
2	4
2	8
2	3
2	3
2	5
2	5
2	5
2	8
2	5
2	3
2	6
2	6
2	25
2	6
2	4
3	7
3	4
3	4
3	5
3	5
3	7
3	5
3	4
3	4
3	4
3	4
3	4
3	5
3	4
3	5
3	5
3	4
3	4
3	5
3	4
3	4
3	4
3	4
3	4
3	5
3	5
3	4
3	4
3	4
3	4
3	4
3	4
3	4
4	5
4	10
4	5
4	5
4	8
4	7
4	5
4	8
4	7
4	5
4	6
4	5
4	6
4	5
4	5
4	6
4	5
4	5
4	6
5	6
5	7
5	7
5	6
5	6
5	6
6	7
6	8
6	10
6	7
6	8
6	7
6	7
7	8
7	8
8	9
8	9
8	10
8	9
10	11
10	11
11	12
12	13
14	15
15	16
21	22
23	24
208	209
