1	6124
1	202
1	202
1	27
1	11
1	26
1	203
1	201
1	201
1	17
1	12
1	201
1	201
1	12
1	34
1	35
1	33
1	13
1	10
1	201
1	13
1	201
1	15
1	201
1	11
1	201
1	12
1	11
1	6124
1	11
1	12
1	201
1	201
1	201
1	201
1	10
1	33
1	11
1	15
1	201
1	11
1	201
1	26
1	201
1	16
1	201
1	10
1	9
1	201
1	201
1	203
1	12
1	13
1	201
1	201
1	33
1	6
1	13
1	201
1	26
1	201
1	5
1	201
1	201
1	201
1	201
1	35
1	13
1	201
1	201
1	201
1	201
1	11
1	11
1	34
1	26
1	12
1	11
1	201
1	201
1	33
1	201
1	201
1	8
1	10
1	10
1	201
1	201
1	33
1	9
1	201
1	202
1	26
1	26
1	6124
1	201
1	201
1	201
1	201
1	20
1	21
1	201
1	12
1	8
1	8
1	10
1	11
1	10
1	15
1	19
1	201
1	4
1	6
1	4
1	9
1	11
1	33
1	9
1	13
1	201
1	201
1	201
1	11
1	26
1	7
1	201
1	26
1	10
1	201
1	10
1	201
1	202
1	26
1	201
1	14
1	17
1	201
1	201
1	201
1	202
1	26
1	12
1	6
1	7
1	8
1	33
1	15
1	201
1	201
1	15
1	6
1	201
1	19
1	202
1	201
1	11
1	5
1	202
1	33
1	11
1	8
1	12
1	201
1	12
1	201
1	8
1	201
1	201
1	201
1	19
1	9
1	13
1	7
1	202
1	201
1	201
1	11
1	8
1	201
1	201
1	201
1	201
1	201
1	201
1	10
1	6
1	201
1	201
1	202
1	15
1	201
1	34
1	10
1	4
1	9
1	33
1	201
1	201
1	201
1	201
1	201
1	201
1	13
1	201
1	33
1	201
1	8
1	6124
1	8
1	201
1	14
1	201
1	201
1	201
1	202
1	8
1	6
1	201
1	11
1	201
1	201
1	201
1	10
1	12
1	201
1	33
1	9
1	202
1	19
1	201
1	10
1	201
1	10
1	7
1	201
1	5
1	12
1	201
1	34
1	2
1	33
1	9
1	201
1	201
1	201
1	201
1	201
1	201
1	26
1	201
1	202
1	7
1	20
1	201
1	11
1	201
1	7
1	11
1	33
1	201
1	201
1	33
1	201
1	7
1	201
1	201
1	10
1	202
1	8
1	7
1	202
1	12
1	19
1	201
1	201
1	10
1	201
1	9
1	4
1	11
1	201
1	11
1	5
1	11
1	5
1	7
1	201
1	201
1	8
1	16
1	201
1	12
1	12
1	201
1	4
1	8
1	16
1	10
1	201
1	201
1	201
1	33
1	33
1	7
1	11
1	6
1	9
1	201
1	201
1	201
1	6
1	20
1	201
1	26
1	6
1	33
1	3
1	4
1	201
1	26
1	201
1	10
1	201
1	6
1	11
1	10
1	8
1	201
1	201
1	12
1	11
1	19
1	26
1	201
1	3
1	11
2	9
2	3
2	3
2	6
2	9
2	7
2	12
2	5
2	3
2	27
2	3
2	3
2	16
2	14
2	202
2	10
2	3
2	4
2	10
2	8
2	6
2	16
2	3
2	3
2	3
2	8
2	3
2	203
2	7
2	4
2	3
2	8
2	7
2	10
2	12
2	3
2	4
2	7
2	8
2	3
2	4
2	6
2	8
2	3
2	4
2	11
2	4
2	6
2	6
2	3
2	4
2	4
2	12
2	3
2	15
2	5
2	3
2	4
2	6
2	7
2	7
2	6
2	4
2	3
2	10
2	5
2	3
2	7
2	34
2	35
2	3
2	4
2	3
2	5
2	3
2	4
2	9
2	15
2	5
2	3
2	7
2	3
2	3
2	3
2	4
2	35
2	6
2	9
2	15
2	3
2	9
2	7
2	8
2	4
2	7
2	15
2	3
2	3
2	3
2	7
2	35
2	6
2	4
2	15
2	10
2	7
2	9
3	4
3	4
3	4
3	5
3	4
3	8
3	7
3	4
3	4
3	6
3	6
3	6
3	4
3	12
3	6
3	4
3	5
3	5
3	5
3	12
3	4
3	5
3	5
3	9
3	6
3	6
3	4
3	8
3	8
3	9
3	4
3	4
3	9
3	4
3	4
3	4
3	6
3	4
3	4
3	5
3	4
3	7
3	5
3	4
3	4
3	4
3	5
3	5
3	5
3	4
3	16
3	4
4	5
4	5
4	5
4	8
4	5
4	5
4	6
4	5
4	6
4	8
4	5
4	5
4	5
4	9
4	8
4	6
4	5
4	5
4	8
4	7
4	6
4	5
4	5
5	6
5	7
5	6
5	6
5	6
5	6
5	6
5	6
5	6
5	8
5	6
5	6
5	6
5	6
5	6
5	7
5	6
5	6
5	6
6	7
6	7
6	7
6	9
6	8
6	8
6	7
6	7
6	8
6	7
6	7
7	8
7	8
7	8
7	8
7	8
8	9
8	9
8	9
9	10
9	10
9	10
9	10
10	11
10	12
10	11
10	11
10	11
10	11
10	11
10	12
11	12
12	13
13	15
14	15
18	19
25	26
32	33
33	34
200	201
