1	6124
1	103
1	104
1	103
1	103
1	13
1	12
1	103
1	103
1	11
1	11
1	103
1	6124
1	12
1	103
1	103
1	103
1	14
1	103
1	15
1	103
1	13
1	103
1	5
1	103
1	103
1	103
1	12
1	10
1	10
1	11
1	10
1	103
1	13
1	9
1	103
1	11
1	103
1	103
1	23
1	12
1	11
1	103
1	15
1	103
1	12
1	104
1	12
1	12
1	103
1	6
1	103
1	7
1	103
1	10
1	11
1	13
1	5
1	12
1	25
1	22
1	22
1	7
1	103
1	6
1	10
1	105
1	10
1	7
1	2
1	103
1	12
1	5
1	8
1	104
1	9
1	11
1	11
1	5
1	11
1	103
1	103
1	103
1	104
1	12
1	11
1	6
1	103
1	23
1	8
1	8
1	12
1	103
1	22
1	103
1	12
1	103
1	11
1	6
1	103
1	103
1	103
1	8
1	103
1	103
1	7
1	103
1	9
1	8
1	11
1	103
1	103
1	4
1	11
1	6
1	7
1	103
1	103
1	5
1	10
1	8
1	9
1	103
1	5
1	10
1	27
1	103
1	103
1	4
1	4
1	11
1	7
1	10
1	14
1	10
1	103
1	7
1	11
1	4
1	8
1	5
1	12
1	8
1	8
1	8
1	8
1	7
1	7
1	11
1	12
1	4
2	4
2	7
2	13
2	4
2	8
2	9
2	8
2	25
2	4
2	3
2	3
2	8
2	6
2	26
2	7
2	11
2	4
2	25
2	7
2	3
2	3
2	8
2	25
2	10
2	6
2	3
2	3
2	8
2	10
2	3
2	8
2	3
2	4
2	8
2	3
2	25
2	10
2	3
2	7
2	25
2	8
2	7
2	7
2	5
2	25
2	5
2	9
2	25
2	25
2	7
2	7
2	11
2	3
2	3
2	7
2	7
2	3
2	3
2	7
2	7
2	3
2	25
2	8
2	25
2	4
2	5
2	12
2	4
2	23
2	6
2	3
2	7
3	5
3	4
3	4
3	4
3	4
3	9
3	5
3	4
3	4
3	4
3	7
3	7
3	5
3	6
3	4
3	5
3	6
3	6
3	4
3	8
3	6
3	5
3	8
3	5
3	4
3	7
3	4
3	5
3	5
3	4
3	8
3	7
3	4
3	4
3	4
3	4
3	4
3	7
3	9
3	6
4	6
4	5
4	7
4	6
4	7
4	6
4	5
4	7
4	5
4	5
4	5
4	5
4	6
4	5
4	6
4	7
4	5
4	5
4	5
4	6
4	6
5	7
5	6
5	6
5	7
5	6
5	8
5	6
5	6
5	7
5	6
6	8
6	7
6	7
6	8
6	8
6	7
7	9
7	8
7	8
7	9
8	11
8	9
8	9
9	10
9	10
9	10
10	11
10	11
10	11
10	11
10	11
12	14
21	22
23	24
102	103
