1	6124
1	94
1	93
1	93
1	94
1	93
1	93
1	93
1	93
1	93
1	93
1	93
1	11
1	93
1	93
1	6124
1	93
1	11
1	93
1	94
1	93
1	10
1	93
1	19
1	12
1	18
1	93
1	93
1	19
1	93
1	93
1	93
1	11
1	8
1	7
1	93
1	93
1	6
1	6
1	93
1	93
1	93
1	93
1	8
1	18
1	93
1	93
1	93
1	8
1	94
1	93
1	93
1	10
1	8
1	18
1	93
1	93
1	93
1	93
1	93
1	93
1	93
1	93
1	10
1	18
1	93
1	93
1	93
1	93
1	93
1	93
1	93
1	18
1	94
1	93
1	93
1	93
1	93
1	18
1	93
1	93
1	93
1	93
1	93
1	93
1	93
1	94
1	93
1	93
1	93
1	18
1	4
1	2
1	93
1	4
1	93
1	93
1	93
1	18
1	93
1	9
1	93
1	93
1	94
1	5
1	93
1	93
1	7
1	19
1	7
1	93
1	93
1	93
1	93
1	93
2	8
2	11
2	5
2	7
2	11
2	3
2	3
2	3
2	7
2	3
2	3
2	3
2	6
2	7
2	9
2	9
2	3
2	5
2	7
2	5
2	3
2	7
2	6
2	4
3	5
3	4
3	4
3	6
3	4
3	4
3	5
3	7
3	4
3	6
3	7
3	5
3	5
3	6
3	5
4	5
4	7
4	5
4	6
4	6
4	5
4	5
4	7
5	7
5	6
5	7
5	6
6	7
7	8
7	8
9	10
17	18
92	93
