1	6124
1	72
1	72
1	72
1	10
1	11
1	71
1	72
1	72
1	20
1	19
1	19
1	71
1	72
1	20
1	71
1	8
1	19
1	19
1	71
1	7
1	8
1	71
1	12
1	72
1	72
1	4
1	19
1	8
1	8
1	71
1	6
1	71
1	13
1	71
1	11
1	11
1	9
1	8
1	9
1	71
1	71
1	71
1	71
1	4
1	11
1	11
1	8
1	10
1	9
1	7
1	6
1	72
1	9
1	71
1	71
1	7
1	20
1	8
1	71
1	9
1	4
1	5
1	72
1	71
1	71
1	71
1	7
1	72
1	11
1	6
1	7
1	5
1	7
1	6
1	8
1	8
1	19
1	19
1	5
1	71
1	71
1	71
1	19
1	7
1	71
1	71
1	71
1	7
1	71
1	71
1	71
1	71
1	8
1	71
1	71
1	5
1	9
1	4
1	6
1	6
1	11
1	9
1	71
1	6
1	71
1	71
1	4
1	6
1	19
1	11
1	71
1	9
1	5
1	71
1	7
1	6
1	72
1	8
1	71
1	5
1	7
1	9
1	6
1	6
1	4
1	71
1	6
1	71
1	71
1	5
1	9
2	3
2	7
2	3
2	3
2	3
2	5
2	12
2	3
2	12
2	3
2	3
2	5
2	6
2	5
2	5
2	6
2	5
2	5
2	8
2	3
2	3
2	5
2	8
2	8
2	7
2	9
2	4
2	7
2	7
2	3
2	3
2	3
2	4
2	3
2	3
2	7
2	7
2	4
2	8
2	5
2	4
2	3
2	7
2	72
2	3
2	7
2	4
2	3
2	4
2	4
2	8
2	6
2	4
2	3
2	5
2	7
2	5
2	3
2	4
2	4
2	4
3	4
3	4
3	4
3	4
3	5
3	4
3	5
3	4
3	4
3	5
3	5
3	4
3	4
3	6
3	4
3	4
3	4
3	4
3	4
3	5
3	5
3	5
3	4
3	5
3	4
3	5
4	5
4	5
4	5
4	5
4	6
4	6
4	5
4	5
5	6
5	6
5	8
5	6
5	6
5	7
5	6
5	6
5	6
5	7
6	7
6	7
6	7
6	7
6	8
8	9
10	11
18	19
70	71
