1	6124
1	14
1	16
1	136
1	12
1	136
1	136
1	21
1	15
1	135
1	136
1	11
1	7
1	14
1	135
1	6
1	21
1	135
1	135
1	23
1	9
1	135
1	21
1	4
1	11
1	135
1	9
1	14
1	10
1	9
1	7
1	135
1	135
1	6
1	135
1	10
1	135
1	9
1	10
1	137
1	12
1	135
1	21
1	135
1	12
1	12
1	135
1	8
1	15
1	9
1	135
1	20
1	135
1	135
1	11
1	9
1	6
1	136
1	135
1	135
1	8
1	7
1	135
1	15
1	135
1	20
1	11
1	13
1	135
1	12
1	27
1	135
1	135
1	135
1	12
1	135
1	135
1	7
1	12
1	15
1	135
1	20
1	24
1	11
1	135
1	8
1	4
1	8
1	135
1	135
1	135
1	20
1	135
1	135
1	7
1	14
1	21
1	135
1	6
1	135
1	8
1	8
1	135
1	9
1	13
1	135
1	6
1	135
1	13
1	7
1	135
1	7
1	135
1	7
1	8
1	8
1	135
1	26
1	6
1	23
1	135
1	13
1	135
1	136
1	5
1	6
1	135
1	26
1	27
1	135
1	10
1	135
1	135
1	5
1	135
1	135
1	135
1	135
1	26
1	12
1	10
1	135
1	135
1	5
1	13
1	135
1	136
1	7
1	9
1	10
1	7
1	11
1	6
1	14
1	135
1	135
1	8
1	6124
1	8
1	135
1	6
1	13
1	8
1	10
1	135
1	135
1	8
1	8
1	135
1	135
1	135
1	9
1	135
1	135
1	13
1	26
1	135
1	135
1	135
1	21
1	13
1	135
1	135
1	135
1	6
1	7
1	10
1	7
1	5
1	9
1	6
1	13
1	21
1	22
1	9
1	9
1	10
1	135
1	135
1	136
1	13
1	135
1	12
1	27
1	136
1	26
1	135
1	22
1	7
1	135
1	2
1	20
1	7
1	5
1	135
1	26
1	136
1	10
1	20
1	12
1	135
1	135
1	26
1	135
1	135
2	3
2	6
2	3
2	136
2	7
2	3
2	21
2	3
2	6
2	136
2	9
2	8
2	6
2	22
2	3
2	3
2	6
2	5
2	4
2	5
2	3
2	3
2	5
2	3
2	4
2	5
2	11
2	9
2	3
2	7
2	4
2	11
2	3
2	136
2	3
2	5
2	5
2	3
2	3
2	3
2	3
2	3
2	7
2	136
2	5
2	4
2	3
2	10
2	22
2	6
2	3
2	4
2	8
2	4
2	3
2	9
2	23
2	3
2	7
2	7
2	6
2	4
2	4
2	4
2	3
2	4
2	3
2	7
2	5
2	4
2	9
2	4
2	5
2	4
2	3
2	14
2	5
2	3
2	4
2	3
2	3
2	3
2	4
2	27
2	14
2	4
3	4
3	8
3	4
3	5
3	4
3	4
3	5
3	4
3	5
3	4
3	5
3	4
3	4
3	4
3	4
3	5
3	5
3	4
3	9
3	5
3	5
3	5
3	5
3	4
3	6
3	4
3	5
3	6
3	4
3	4
3	4
3	6
3	4
3	4
3	4
3	6
3	10
3	4
3	6
3	5
3	7
3	5
4	6
4	7
4	6
4	5
4	7
4	5
4	6
4	6
4	5
4	5
4	6
4	6
4	6
4	5
4	6
4	8
5	6
5	6
5	6
5	6
5	6
5	6
5	6
5	6
5	6
5	6
6	7
6	7
6	7
6	7
6	7
6	8
6	8
7	9
7	8
7	8
7	8
8	9
9	10
9	10
11	12
12	13
12	13
12	13
19	20
20	21
25	26
134	135
