1	6124
1	115
1	10
1	14
1	114
1	114
1	114
1	12
1	114
1	14
1	114
1	13
1	114
1	114
1	114
1	20
1	114
1	115
1	6124
1	24
1	114
1	4
1	19
1	114
1	6124
1	114
1	114
1	114
1	114
1	9
1	114
1	17
1	12
1	114
1	13
1	10
1	114
1	23
1	114
1	115
1	114
1	114
1	7
1	2
1	12
1	116
1	114
1	10
1	114
1	6
1	114
1	114
1	10
1	114
1	114
1	23
1	115
1	10
1	114
1	114
1	21
1	10
1	114
1	9
1	23
1	23
1	114
1	4
1	9
1	114
1	117
1	114
1	114
1	114
1	3
1	10
1	9
1	8
1	8
1	10
1	10
1	115
1	114
1	114
1	5
1	114
1	13
1	6
1	114
1	114
1	5
1	23
1	8
1	7
1	114
1	4
1	5
1	114
1	23
1	24
1	115
1	11
1	114
1	114
1	115
1	114
1	115
1	115
1	9
1	23
1	4
1	10
1	8
1	115
1	17
1	115
1	114
1	5
1	11
1	8
1	114
1	114
1	7
1	7
1	114
1	18
1	17
1	114
1	6
1	114
1	13
1	8
1	114
1	114
1	8
1	5
1	17
1	114
1	114
1	6
1	24
1	115
1	8
1	114
1	115
1	114
1	13
1	7
1	17
1	7
1	17
1	114
1	5
1	17
1	5
1	115
1	17
1	6
1	114
1	115
1	5
1	114
1	114
1	6
1	114
1	114
1	6
1	10
2	10
2	3
2	6
2	6
2	115
2	3
2	3
2	3
2	6
2	3
2	3
2	5
2	11
2	8
2	3
2	3
2	4
2	3
2	4
2	3
2	4
2	10
2	5
2	3
2	3
2	4
2	3
2	8
2	5
2	4
2	6
2	3
2	3
2	3
2	7
2	7
2	4
2	7
2	3
2	3
2	6
2	6
2	8
2	4
2	7
2	3
2	5
2	9
3	5
3	4
3	6
3	7
3	5
3	5
3	4
3	5
3	4
3	4
3	4
3	4
3	5
3	4
3	4
3	4
3	5
3	4
3	4
3	5
3	5
3	6
4	6
4	5
4	5
4	7
4	5
4	6
4	5
4	5
4	5
4	5
4	5
4	5
4	5
4	5
4	5
4	6
5	6
5	6
5	6
5	6
5	6
6	8
6	7
6	7
6	8
6	7
7	8
8	9
9	10
10	11
16	17
22	23
113	114
