1	6124
1	9
1	23
1	22
1	22
1	22
1	7
1	7
1	22
1	22
1	22
1	8
1	6
1	22
1	22
1	6
1	6
1	5
1	22
1	23
1	22
1	22
1	22
1	6
1	22
2	5
2	5
2	4
2	5
2	5
2	6
2	6
2	6
2	3
2	4
2	4
3	4
3	4
3	4
3	4
3	4
4	5
4	5
4	5
5	6
21	22
