1	6124
1	13
1	13
1	10
1	8
1	12
1	51
1	14
1	7
1	50
1	8
1	51
1	51
1	8
1	31
1	12
1	50
1	11
1	50
1	30
1	50
1	30
1	50
1	7
1	51
1	50
1	30
1	50
1	50
1	11
1	52
1	32
1	51
1	30
1	50
1	10
1	13
1	50
1	12
1	5
1	30
1	30
1	7
1	4
1	50
1	9
1	10
1	50
1	50
1	6
1	6
1	50
1	8
1	8
1	5
1	10
1	5
1	50
1	50
1	52
1	30
1	30
1	4
1	50
1	7
1	7
1	50
1	6
1	30
1	7
1	30
1	5
1	50
1	50
1	10
1	30
1	50
1	4
1	30
1	30
1	50
1	7
1	30
1	50
1	50
1	7
1	30
1	8
1	7
1	50
1	50
1	50
1	31
1	7
1	50
1	4
1	50
1	5
1	30
2	3
2	3
2	7
2	3
2	6
2	5
2	5
2	6
2	12
2	3
2	9
2	5
2	3
2	6
2	7
2	3
2	7
2	6
2	6
2	4
2	3
2	6
2	6
2	3
2	5
2	12
2	12
2	6
2	4
2	5
2	7
3	5
3	5
3	7
3	4
3	5
3	4
3	4
3	5
3	6
3	5
3	4
3	4
3	4
3	6
3	4
4	6
4	6
4	5
4	5
4	6
4	5
4	6
4	5
4	5
4	5
4	5
4	5
5	6
5	6
5	6
6	7
6	7
6	7
8	9
9	10
10	11
29	30
49	50
