1	6124
1	104
1	104
1	10
1	104
1	104
1	103
1	103
1	11
1	103
1	10
1	105
1	103
1	103
1	103
1	104
1	103
1	103
1	103
1	103
1	103
1	103
1	10
1	14
1	9
1	11
1	103
1	103
1	103
1	103
1	9
1	103
1	103
1	9
1	10
1	103
1	104
1	103
1	103
1	10
1	103
1	104
1	103
1	14
1	104
1	8
1	103
1	10
1	103
1	103
1	9
1	6
1	13
1	9
1	12
1	4
1	103
1	104
1	103
1	103
1	103
1	8
1	103
1	6
1	103
1	10
1	103
1	103
1	103
1	103
1	103
1	6
1	103
1	103
1	103
1	104
1	12
1	103
1	10
1	103
1	103
1	9
1	8
1	103
1	5
1	10
1	5
1	104
1	103
1	6
1	103
1	9
1	6
1	10
1	103
1	8
1	103
1	103
1	103
1	103
1	8
1	103
1	103
1	103
1	103
1	103
1	103
1	103
1	6
1	103
1	8
1	103
1	103
1	13
1	103
2	3
2	7
2	5
2	3
2	7
2	7
2	3
2	3
2	4
2	5
2	3
2	9
2	3
2	3
2	3
2	9
2	9
2	4
2	5
2	3
2	3
2	3
2	5
2	9
2	4
2	4
2	3
2	3
2	10
2	5
2	5
2	7
2	4
2	4
2	6
2	4
2	9
3	5
3	4
3	6
3	4
3	4
3	6
3	5
3	10
3	4
3	4
3	7
3	4
3	4
3	5
3	4
3	4
3	5
3	8
3	6
3	7
3	7
3	6
3	4
3	4
4	5
4	7
4	9
4	5
4	5
4	5
4	5
4	6
4	5
5	6
5	7
5	6
5	8
5	6
6	8
6	9
7	8
7	8
7	8
7	8
7	8
9	10
10	11
12	13
102	103
