1	6124
1	229
1	230
1	229
1	229
1	229
1	230
1	15
1	229
1	229
1	229
1	229
1	14
1	16
1	14
1	14
1	14
1	229
1	229
1	11
1	229
1	229
1	229
1	229
1	15
1	229
1	11
1	229
1	229
1	229
1	11
1	11
1	13
1	229
1	229
1	230
1	6
1	229
1	231
1	14
1	12
1	229
1	16
1	14
1	9
1	21
1	229
1	10
1	230
1	8
1	22
1	11
1	19
1	12
1	11
1	10
1	229
1	230
1	14
1	8
1	229
1	39
1	11
1	229
1	15
1	6124
1	229
1	10
1	229
1	229
1	229
1	229
1	229
1	10
1	229
1	229
1	14
1	19
1	229
1	229
1	229
1	12
1	6
1	229
1	229
1	13
1	20
1	229
1	20
1	8
1	14
1	18
1	229
1	20
1	229
1	9
1	229
1	229
1	229
1	229
1	230
1	8
1	229
1	10
1	13
1	229
1	229
1	7
1	11
1	13
1	20
1	229
1	14
1	229
1	229
1	4
1	229
1	229
1	229
1	229
1	229
1	9
1	20
1	13
1	229
1	229
1	229
1	229
1	229
1	230
1	229
1	229
1	11
1	229
1	6
1	229
1	14
1	9
1	229
1	229
1	21
1	9
1	229
1	10
1	229
1	229
1	18
1	11
1	229
1	15
1	9
1	6124
1	229
1	229
1	8
1	229
1	18
1	229
1	230
1	229
1	229
1	229
1	229
1	11
1	11
1	14
1	229
1	229
1	229
1	229
1	13
1	229
1	229
1	229
1	8
1	13
1	7
1	13
1	6
1	229
1	5
1	230
1	16
1	229
1	229
1	8
1	229
1	19
1	7
1	22
1	229
1	229
1	9
1	7
1	12
1	13
1	11
1	13
1	9
1	5
1	6
1	229
1	7
1	229
1	229
1	229
1	229
1	229
1	5
1	9
1	19
1	9
1	229
1	229
1	8
1	18
1	229
1	229
1	230
1	14
1	229
1	229
1	229
1	229
1	2
1	12
1	229
1	9
1	13
1	9
1	229
1	229
1	229
1	9
1	2
1	5
1	229
1	230
1	4
1	229
1	229
1	13
1	229
1	12
1	6124
1	8
1	229
1	7
1	8
1	8
1	229
1	229
1	229
1	229
1	230
1	229
1	18
1	229
1	7
1	230
1	229
1	229
1	2
1	229
1	9
1	229
1	229
1	9
1	4
1	229
1	9
1	229
1	11
1	5
1	229
1	229
1	229
1	229
1	20
1	12
1	6
1	14
1	7
1	7
1	229
1	229
1	6
1	229
1	229
1	229
1	8
1	229
1	229
1	13
1	229
1	5
1	8
1	229
2	38
2	37
2	37
2	3
2	12
2	37
2	3
2	6
2	11
2	3
2	37
2	3
2	37
2	37
2	7
2	9
2	37
2	12
2	37
2	4
2	230
2	3
2	37
2	37
2	19
2	20
2	5
2	4
2	7
2	37
2	21
2	3
2	9
2	3
2	4
2	3
2	4
2	4
2	9
2	37
2	10
2	37
2	37
2	5
2	5
2	6
2	37
2	4
2	3
2	3
2	6
2	3
2	3
2	3
2	7
2	4
2	37
2	4
2	3
2	7
2	5
2	3
2	37
2	9
2	3
2	4
2	5
2	4
2	15
2	21
2	3
2	37
2	37
2	3
2	3
2	9
2	8
2	12
2	3
2	10
2	4
2	37
2	3
2	4
2	7
2	4
2	4
2	3
2	37
2	3
2	3
2	12
2	5
2	4
2	4
2	37
2	4
2	3
2	10
2	4
2	3
2	37
2	4
2	37
2	38
2	37
2	9
2	3
2	4
2	37
2	3
2	4
2	3
2	10
2	37
2	6
2	7
2	37
3	4
3	4
3	4
3	5
3	5
3	4
3	5
3	4
3	4
3	6
3	11
3	4
3	4
3	5
3	7
3	4
3	6
3	7
3	7
3	6
3	5
3	4
3	4
3	4
3	5
3	4
3	6
4	5
4	5
4	6
4	5
4	7
4	5
4	6
4	5
4	6
4	6
4	5
4	7
4	5
4	6
4	5
4	9
4	5
5	6
5	6
5	7
5	6
5	7
5	6
5	6
6	7
6	7
6	7
6	7
6	7
6	7
7	8
7	8
7	8
7	8
7	10
7	10
8	9
8	9
8	9
8	9
8	9
10	11
10	11
10	11
12	13
12	13
12	13
13	14
17	18
18	19
19	20
35	37
228	229
