1	6124
1	73
1	73
1	72
1	76
1	9
1	12
1	9
1	72
1	72
1	10
1	13
1	72
1	9
1	72
1	72
1	72
1	72
1	12
1	14
1	10
1	12
1	9
1	11
1	11
1	11
1	15
1	10
1	72
1	9
1	11
1	8
1	7
1	9
1	12
1	10
1	9
1	13
1	9
1	72
1	72
1	10
1	12
1	12
1	9
1	73
1	7
1	13
1	7
1	8
1	8
1	72
1	8
1	73
1	7
1	8
1	72
1	73
1	9
1	7
1	5
1	5
1	7
1	72
1	7
1	5
1	73
1	5
1	8
1	7
1	73
1	9
1	6
1	72
1	72
1	5
1	7
1	7
1	72
1	14
1	72
1	72
1	8
1	7
1	8
1	72
1	12
1	72
1	5
1	72
1	7
1	7
1	72
1	6
1	7
1	16
1	72
1	7
1	9
1	6
1	72
1	5
1	72
1	72
1	72
1	72
1	7
1	12
1	9
1	72
1	73
1	6
1	72
1	8
1	6
1	72
1	6
1	72
1	6
1	6
2	3
2	10
2	6
2	3
2	3
2	3
2	8
2	3
2	5
2	3
2	4
2	6
2	5
2	4
2	3
2	4
2	3
2	5
2	7
2	3
2	5
2	6
2	3
2	4
2	3
2	3
2	3
2	11
2	10
2	7
2	5
2	4
2	5
2	9
2	9
2	11
2	5
2	3
2	3
2	4
2	3
2	4
2	3
2	4
2	10
2	4
2	4
2	4
2	3
2	4
2	7
2	5
2	4
2	4
2	3
2	3
2	3
2	7
2	8
2	3
2	4
2	3
2	11
3	4
3	7
3	6
3	7
3	5
3	5
3	4
3	4
3	6
3	5
3	5
3	5
3	8
3	6
3	4
3	4
3	6
3	4
3	4
3	4
3	5
3	5
3	4
3	6
3	5
3	6
3	5
3	4
3	4
3	4
4	5
4	5
4	5
4	6
4	7
4	6
4	5
4	5
4	5
4	5
4	5
4	5
4	5
4	5
4	5
4	5
5	6
5	6
5	6
5	6
5	7
5	6
5	6
5	7
6	8
6	7
6	7
6	8
7	8
7	8
8	9
8	10
8	9
9	11
11	12
13	14
71	72
