1	6124
1	281
1	16
1	27
1	22
1	15
1	11
1	280
1	14
1	280
1	13
1	280
1	20
1	280
1	12
1	20
1	12
1	280
1	11
1	10
1	280
1	29
1	16
1	16
1	28
1	285
1	15
1	14
1	281
1	280
1	20
1	12
1	18
1	21
1	280
1	17
1	10
1	12
1	280
1	16
1	22
1	280
1	280
1	281
1	280
1	22
1	8
1	280
1	280
1	280
1	28
1	12
1	282
1	280
1	280
1	280
1	280
1	17
1	6
1	26
1	280
1	13
1	13
1	280
1	280
1	22
1	34
1	281
1	7
1	280
1	10
1	280
1	28
1	280
1	16
1	14
1	280
1	280
1	20
1	13
1	9
1	280
1	15
1	18
1	25
1	17
1	12
1	281
1	280
1	9
1	26
1	280
1	280
1	14
1	7
1	7
1	280
1	26
1	280
1	14
1	6
1	280
1	280
1	30
1	14
1	10
1	10
1	280
1	18
1	11
1	280
1	280
1	12
1	18
1	11
1	280
1	18
1	26
1	280
1	22
1	21
1	10
1	9
1	15
1	280
1	22
1	12
1	9
1	20
1	29
1	280
1	14
1	12
1	281
1	10
1	29
1	280
1	280
1	7
1	280
1	280
1	281
1	280
1	26
1	17
1	9
1	6
1	12
1	17
1	280
1	23
1	281
1	9
1	14
1	280
1	9
1	14
1	8
1	15
1	9
1	27
1	13
1	280
1	14
1	280
1	280
1	280
1	6
1	280
1	16
1	280
1	280
1	15
1	11
1	21
1	29
1	280
1	19
1	25
1	19
1	14
1	15
1	33
1	14
1	6
1	9
1	16
1	16
1	4
1	16
1	280
1	280
1	280
1	14
1	11
1	5
1	28
1	280
1	18
1	14
1	4
1	280
1	26
1	280
1	12
1	5
1	280
1	9
1	21
1	28
1	280
1	14
1	11
1	12
1	29
1	280
1	11
1	12
1	280
1	21
1	26
1	282
1	29
1	280
1	280
1	12
1	18
1	11
1	33
1	11
1	15
1	280
1	280
1	6
1	12
1	17
1	12
1	17
1	280
1	11
1	280
1	22
1	12
1	280
1	280
1	29
1	8
1	280
1	6
1	26
1	11
1	280
1	280
1	14
1	33
1	7
1	280
1	11
1	280
1	33
1	280
1	8
1	25
1	7
1	14
1	12
1	280
1	15
1	11
1	21
1	26
1	280
1	12
1	280
1	29
1	26
1	18
1	9
1	17
1	280
1	28
1	10
1	9
1	280
1	280
1	281
1	9
1	280
1	28
1	9
1	15
1	29
1	10
1	5
1	280
1	29
1	29
1	280
1	14
1	280
1	10
1	26
1	4
1	15
1	28
1	11
1	280
1	16
1	33
1	26
1	7
1	7
1	280
1	281
1	284
1	9
1	18
1	28
1	280
1	280
1	12
1	12
1	6
1	8
1	7
1	280
1	280
1	14
1	6
1	9
1	12
1	280
1	280
1	4
1	14
1	281
1	25
1	280
1	280
1	21
1	5
1	281
1	280
1	21
1	280
1	28
1	7
1	280
1	6
1	280
1	280
1	280
1	5
1	21
1	280
1	21
1	280
1	9
1	15
1	14
1	21
1	280
1	8
1	26
1	280
1	7
1	280
1	10
1	13
1	6
1	280
1	280
1	9
1	12
1	21
1	280
1	6
1	11
1	26
1	280
1	11
1	280
1	6
1	280
1	280
1	280
1	33
1	18
1	11
1	280
1	7
1	8
1	7
1	7
1	280
1	33
1	10
1	280
1	7
1	29
1	21
1	5
1	280
1	13
1	280
1	29
1	280
1	280
1	21
1	5
1	280
1	21
1	8
1	16
1	6
1	280
1	280
1	280
1	6
1	5
1	15
1	33
1	17
1	280
1	17
1	11
1	280
1	11
1	12
1	33
1	6
1	10
1	280
1	30
1	25
1	8
1	25
1	14
1	7
1	33
1	10
1	21
1	280
1	9
1	7
1	5
1	280
1	8
1	7
1	7
1	18
1	280
1	280
1	8
1	21
1	280
1	6
1	280
1	280
1	26
1	11
1	21
1	280
1	14
1	280
1	6
1	280
1	9
1	280
1	7
1	280
1	11
1	18
1	281
1	280
1	280
1	7
1	280
1	280
1	33
1	280
1	280
1	15
1	14
1	10
1	5
1	5
1	9
1	21
1	10
1	280
1	280
1	14
1	280
1	280
1	280
1	4
1	15
1	280
1	6
1	25
1	280
1	4
1	29
1	280
1	10
2	10
2	9
2	16
2	10
2	8
2	12
2	14
2	16
2	6
2	6
2	10
2	8
2	19
2	11
2	4
2	3
2	3
2	7
2	281
2	25
2	8
2	6
2	3
2	24
2	5
2	6
2	3
2	14
2	4
2	3
2	4
2	3
2	8
2	4
2	6
2	8
2	4
2	3
2	8
2	22
2	7
2	9
2	4
2	8
2	3
2	12
2	12
2	3
2	4
2	281
2	4
2	25
2	3
2	3
2	8
2	3
2	24
2	9
2	3
2	15
2	5
2	13
2	3
2	281
2	7
2	19
2	13
2	3
2	13
2	10
2	9
2	7
2	4
2	12
2	4
2	4
2	8
2	10
2	3
2	4
2	10
2	4
2	12
2	4
2	8
2	4
2	4
2	3
2	8
2	3
2	3
2	8
2	12
2	7
2	5
2	3
2	10
2	3
2	6
2	3
2	5
2	10
2	11
2	34
2	17
2	5
2	5
2	13
2	3
2	18
2	5
2	5
2	4
2	14
2	6
2	3
2	11
2	4
2	4
2	4
2	5
2	6
2	11
2	3
2	8
2	4
2	15
2	3
2	3
2	4
2	8
2	10
2	4
2	3
2	5
2	8
2	15
2	3
2	4
2	22
2	3
2	8
2	8
2	3
2	4
2	4
2	4
2	8
2	12
2	9
2	8
2	4
2	3
2	25
2	5
2	4
2	8
2	3
2	8
2	3
2	24
2	5
2	5
2	8
2	5
2	17
2	3
2	5
2	4
2	4
2	4
2	4
3	4
3	4
3	5
3	4
3	6
3	6
3	5
3	9
3	5
3	5
3	6
3	6
3	6
3	11
3	4
3	5
3	6
3	10
3	10
3	4
3	12
3	5
3	4
3	9
3	5
3	9
3	5
3	4
3	4
3	7
3	4
3	13
3	5
3	6
3	5
3	11
3	4
3	4
3	6
3	6
3	4
3	5
3	8
3	12
3	4
3	4
3	4
3	4
3	4
3	4
3	4
3	4
3	4
3	4
3	6
3	4
3	4
3	4
3	11
3	5
3	5
3	5
3	5
3	6
3	4
3	6
3	5
3	6
3	5
3	5
3	7
3	5
3	6
3	4
3	25
3	4
3	5
3	5
3	6
3	7
3	4
3	25
3	4
3	6
3	5
3	4
4	5
4	5
4	6
4	14
4	5
4	9
4	6
4	5
4	5
4	5
4	6
4	13
4	7
4	14
4	6
4	7
4	6
4	7
4	5
4	7
4	8
4	8
4	5
4	5
4	7
4	6
4	12
4	5
4	13
4	5
4	5
4	5
4	7
4	5
4	5
4	5
4	6
4	6
4	6
4	6
4	6
5	6
5	6
5	6
5	6
5	6
5	6
5	6
5	9
5	6
5	10
5	7
5	6
5	6
5	6
5	6
5	6
5	6
5	6
5	13
5	6
6	7
6	7
6	7
6	7
6	7
6	7
6	10
6	7
6	8
6	7
6	7
6	8
6	7
6	7
6	7
6	7
6	8
6	7
6	7
7	15
7	9
7	8
7	9
7	10
7	8
7	8
8	9
8	9
8	9
8	9
8	9
8	9
8	12
8	9
8	10
8	9
8	9
8	9
9	11
9	10
9	10
9	10
9	11
9	10
10	11
10	11
10	11
10	11
10	12
10	11
10	11
11	12
11	13
11	12
11	12
11	12
11	12
13	14
13	14
13	14
14	15
14	15
14	15
15	16
16	17
16	17
17	18
17	18
17	18
20	21
20	21
20	21
22	24
23	24
24	25
25	26
27	28
28	29
32	33
279	280
