1	6124
1	99
1	99
1	100
1	39
1	13
1	99
1	11
1	6
1	99
1	38
1	6
1	13
1	99
1	99
1	99
1	12
1	19
1	18
1	99
1	99
1	99
1	99
1	100
1	10
1	38
1	99
1	99
1	17
1	40
1	38
1	42
1	99
1	17
1	10
1	6
1	99
1	9
1	10
1	17
1	99
1	99
1	99
1	38
1	99
1	38
1	38
1	100
1	7
1	99
1	11
1	17
1	10
1	99
1	38
1	38
1	39
1	6
1	99
1	99
1	99
1	99
1	99
1	13
1	38
1	99
1	10
1	10
1	99
1	38
1	99
1	18
1	9
1	99
1	9
1	99
1	10
1	38
1	17
1	99
1	9
1	6
1	7
1	99
1	7
1	99
1	12
1	7
1	11
1	99
1	99
1	99
1	38
1	99
1	99
1	100
1	9
1	99
1	99
1	6
1	9
1	7
1	7
1	8
1	38
1	6124
1	6
1	6
1	7
1	99
1	5
1	12
1	99
1	99
1	38
1	99
1	11
1	100
1	4
1	99
1	100
1	7
1	38
1	8
1	99
1	38
1	99
1	99
1	8
1	38
1	12
1	99
1	10
1	7
1	5
1	2
1	6
1	99
1	8
1	7
1	18
1	11
1	8
1	10
1	99
1	99
1	99
1	99
1	7
1	7
1	38
2	5
2	9
2	3
2	8
2	6
2	10
2	17
2	3
2	8
2	5
2	8
2	9
2	5
2	7
2	4
2	7
2	8
2	7
2	6
2	19
2	5
2	4
2	6
2	19
2	4
2	3
2	9
2	5
2	7
2	6
2	4
2	8
2	3
2	11
2	4
2	8
2	3
2	7
2	7
2	3
2	4
2	8
2	4
2	3
2	5
2	3
2	4
2	3
2	3
2	17
2	5
2	7
2	10
2	7
2	9
2	7
2	9
2	3
2	7
2	4
2	4
2	6
2	9
2	8
3	7
3	5
3	5
3	5
3	5
3	4
3	4
3	4
3	6
3	6
3	4
3	5
3	4
3	9
3	4
3	5
3	5
3	5
3	4
3	4
3	5
3	4
3	4
4	6
4	5
4	5
4	5
4	5
4	5
4	6
4	6
4	5
5	6
5	6
5	6
5	6
5	6
5	7
5	6
5	6
5	7
5	6
5	7
5	6
5	6
5	7
6	8
6	7
6	7
6	7
6	7
6	7
7	8
7	9
7	8
9	10
11	12
15	16
17	18
37	38
98	99
