1	6124
1	76
1	6124
1	75
1	75
1	76
1	76
1	75
1	10
1	13
1	75
1	76
1	75
1	5
1	6
1	9
1	2
1	11
1	13
1	76
1	11
1	10
1	14
1	9
1	75
1	75
1	75
1	75
1	76
1	10
1	12
1	75
1	12
1	75
1	9
1	8
1	9
1	75
1	11
1	13
1	75
1	75
1	10
1	12
1	10
1	10
1	75
1	76
1	11
1	75
1	75
1	77
1	6124
1	10
1	75
1	13
1	75
1	75
1	75
1	75
1	8
1	13
1	5
1	10
1	75
1	75
1	75
1	75
1	12
1	4
1	9
1	75
1	75
1	13
1	75
1	75
1	75
1	8
1	75
1	75
1	75
1	5
1	4
1	75
1	9
1	75
1	75
1	75
1	13
1	5
1	8
1	2
1	75
1	5
1	75
1	12
1	75
1	75
1	75
1	75
1	12
1	75
2	3
2	8
2	3
2	6
2	13
2	3
2	9
2	4
2	3
2	3
2	10
2	9
2	8
2	7
2	8
2	8
2	4
2	3
2	4
2	3
2	76
2	5
2	3
2	3
2	7
2	4
2	3
2	4
2	3
2	13
2	6
2	6
2	8
2	6
2	3
2	6
2	13
2	5
2	5
2	3
2	4
2	8
2	4
2	5
2	11
2	3
2	3
2	5
2	3
3	4
3	8
3	5
3	4
3	4
3	4
3	5
3	5
3	4
3	4
3	4
3	4
3	7
3	5
3	4
3	4
3	5
3	5
3	4
3	4
4	5
4	7
4	6
4	5
4	5
4	6
4	5
5	7
6	8
6	7
6	7
6	8
6	8
7	8
9	10
10	11
11	12
11	12
11	12
74	75
