1	6124
1	108
1	107
1	107
1	12
1	26
1	25
1	13
1	12
1	107
1	25
1	16
1	15
1	12
1	11
1	9
1	107
1	9
1	11
1	108
1	14
1	107
1	107
1	107
1	107
1	11
1	107
1	17
1	12
1	107
1	9
1	11
1	11
1	107
1	107
1	10
1	25
1	107
1	11
1	107
1	9
1	107
1	11
1	107
1	10
1	8
1	107
1	8
1	11
1	8
1	107
1	107
1	11
1	107
1	107
1	107
1	11
1	107
1	4
1	5
1	16
1	6
1	6
1	14
1	10
1	107
1	11
1	13
1	11
1	10
1	108
1	11
1	15
1	14
1	107
1	9
1	107
1	9
1	11
1	107
1	11
1	108
1	10
1	107
1	7
1	107
1	14
1	107
1	107
1	16
1	8
1	11
1	13
1	9
1	13
1	107
1	10
1	107
1	13
1	8
1	107
1	107
1	107
1	108
1	9
1	8
1	6
1	10
1	107
1	107
1	6
1	107
1	25
1	7
1	107
1	107
1	107
1	107
1	107
1	107
1	16
1	107
1	107
1	107
1	11
1	107
1	13
1	9
1	6
1	11
1	107
1	10
1	9
1	5
1	6
1	17
1	14
1	11
1	7
1	107
1	107
1	7
1	15
1	25
1	7
1	107
1	7
1	7
1	7
1	5
1	107
1	7
1	4
1	25
1	25
1	10
1	10
1	10
1	9
1	107
1	9
1	6
1	108
1	9
1	107
1	6
1	14
1	107
1	11
1	9
1	107
1	7
1	9
1	107
2	11
2	9
2	8
2	10
2	11
2	9
2	3
2	11
2	7
2	6
2	8
2	7
2	6
2	5
2	11
2	5
2	6
2	3
2	6
2	7
2	4
2	3
2	10
2	6
2	3
2	4
2	4
2	6
2	5
2	9
2	6
2	5
2	7
2	3
2	8
2	3
2	5
2	4
2	4
2	8
2	3
2	9
2	3
2	7
2	10
2	12
2	7
2	8
2	7
2	12
2	5
2	6
2	9
2	4
2	4
2	5
2	3
2	3
2	9
2	4
2	4
2	8
2	3
2	3
3	4
3	5
3	5
3	4
3	4
3	5
3	5
3	4
3	4
3	5
3	4
3	4
3	4
3	4
3	5
3	4
3	4
3	5
3	5
3	5
3	5
3	4
3	4
3	5
3	4
3	4
3	4
3	5
3	5
3	8
3	4
4	5
4	7
4	5
4	5
4	8
4	5
4	5
4	6
4	5
4	5
4	6
4	5
4	5
4	6
4	5
4	5
4	6
4	5
5	6
5	6
5	7
5	7
5	6
6	7
6	7
6	7
6	8
6	7
6	7
6	7
7	8
7	9
7	10
7	8
7	8
8	9
8	9
8	9
8	9
8	9
9	10
9	10
9	10
10	11
10	11
12	13
13	14
15	16
24	25
106	107
