1	6124
1	82
1	80
1	79
1	80
1	11
1	11
1	11
1	10
1	10
1	11
1	80
1	9
1	79
1	79
1	9
1	11
1	79
1	79
1	79
1	79
1	9
1	79
1	79
1	79
1	6124
1	14
1	79
1	79
1	79
1	10
1	8
1	10
1	79
1	79
1	9
1	79
1	79
1	10
1	79
1	6
1	80
1	79
1	11
1	9
1	79
1	6
1	79
1	9
1	10
1	79
1	79
1	2
1	79
1	79
1	80
1	79
1	80
1	79
1	79
1	79
1	79
1	79
1	79
1	10
1	7
1	79
1	79
1	79
1	9
1	4
1	79
1	9
1	11
1	79
1	9
1	79
1	5
1	79
1	79
1	7
1	8
1	79
1	79
1	80
1	12
1	80
1	79
1	79
1	79
1	79
1	79
1	79
1	10
1	9
1	79
1	9
2	6
2	3
2	9
2	7
2	3
2	8
2	80
2	3
2	4
2	7
2	4
2	4
2	4
2	5
2	3
2	5
2	4
2	4
2	12
2	4
2	5
2	4
2	12
2	4
2	5
2	3
2	9
2	5
2	4
2	4
2	3
2	3
2	5
2	9
2	3
2	7
2	3
3	6
3	4
3	5
3	8
3	5
3	4
3	4
3	5
3	4
3	6
3	4
3	5
3	8
4	5
4	5
4	5
4	7
5	7
5	7
5	6
5	6
5	7
5	6
6	7
6	7
7	8
7	8
7	8
8	9
9	10
10	11
78	79
