1	6124
1	11
1	13
1	58
1	14
1	57
1	9
1	57
1	57
1	8
1	12
1	57
1	12
1	13
1	57
1	13
1	57
1	11
1	57
1	57
1	57
1	58
1	57
1	10
1	58
1	6
1	59
1	11
1	57
1	6
1	11
1	7
1	12
1	7
1	57
1	12
1	12
1	13
1	57
1	5
1	9
1	12
1	9
1	13
1	9
1	6
1	57
1	57
1	57
1	6
1	9
1	12
1	10
1	10
1	57
1	58
1	57
1	57
1	7
1	11
1	5
1	7
1	10
1	8
1	5
1	57
1	5
1	57
1	5
1	12
1	57
1	8
1	57
1	57
1	57
1	57
1	7
1	4
1	57
1	57
1	57
1	12
1	10
1	8
1	12
1	5
1	6
1	57
1	7
1	57
1	6
1	8
1	57
1	5
1	57
1	12
1	57
1	8
1	57
1	8
1	8
1	57
1	57
1	4
2	8
2	8
2	4
2	3
2	3
2	6
2	3
2	6
2	8
2	3
2	5
2	3
2	3
2	9
2	3
2	3
2	4
2	3
2	5
2	12
2	3
2	3
2	4
2	3
2	11
2	4
2	6
2	3
2	8
2	6
2	12
2	4
2	4
2	3
2	4
2	3
2	4
2	4
2	4
2	4
2	4
3	4
3	4
3	4
3	4
3	5
3	4
3	4
3	5
3	5
3	9
3	4
3	9
3	4
4	5
4	5
4	5
4	5
4	5
4	5
5	6
6	7
6	7
6	7
6	7
6	7
6	7
7	8
7	8
9	10
10	11
11	12
56	57
