1	6124
1	13
1	9
1	12
1	21
1	19
1	6
1	8
1	13
1	50
1	11
1	11
1	13
1	8
1	50
1	49
1	50
1	48
1	7
1	6
1	12
1	48
1	9
1	11
1	11
1	12
1	11
1	16
1	9
1	11
1	48
1	8
1	48
1	7
1	48
1	10
1	4
1	17
1	14
1	16
1	13
1	48
1	15
1	8
1	9
1	7
1	48
1	16
1	12
1	48
1	10
1	11
1	17
1	7
1	10
1	6
1	12
1	8
1	48
1	9
1	7
1	48
1	6
1	48
1	4
1	8
1	19
1	10
1	16
1	48
1	48
1	12
1	8
1	8
1	4
1	7
1	17
1	16
1	7
1	6
1	48
1	19
1	48
1	10
1	19
1	5
1	19
1	15
1	48
1	48
1	7
1	5
1	13
1	48
1	48
1	13
1	48
1	4
1	17
1	48
1	48
1	49
1	48
1	9
1	4
1	48
1	13
2	8
2	8
2	10
2	7
2	8
2	4
2	8
2	8
2	3
2	11
2	8
2	4
2	4
2	8
2	3
2	7
2	5
2	16
2	5
2	4
2	11
2	7
2	16
2	17
2	4
2	3
2	7
2	4
2	5
2	7
2	4
2	7
2	3
2	4
2	3
2	7
2	16
2	5
2	9
2	4
2	13
2	4
2	3
3	4
3	4
3	4
3	5
3	4
3	4
3	4
3	4
3	6
3	4
3	5
3	4
3	5
3	4
3	5
3	4
3	5
3	5
3	4
3	4
3	4
3	4
3	4
3	5
3	7
4	5
4	6
4	5
4	5
4	7
4	5
4	6
4	6
5	6
5	6
5	6
5	6
5	6
5	7
5	7
5	6
5	9
5	6
6	7
6	7
6	7
6	7
6	7
6	7
7	8
8	10
8	9
9	10
9	10
10	11
10	12
14	15
14	15
15	16
15	16
18	19
47	48
