1	6124
1	626
1	626
1	27
1	23
1	626
1	625
1	625
1	18
1	14
1	625
1	625
1	625
1	40
1	625
1	56
1	15
1	14
1	625
1	14
1	626
1	25
1	13
1	625
1	16
1	13
1	19
1	11
1	13
1	15
1	625
1	625
1	32
1	20
1	15
1	625
1	15
1	625
1	22
1	14
1	626
1	625
1	625
1	625
1	11
1	14
1	39
1	55
1	625
1	14
1	625
1	11
1	12
1	625
1	24
1	19
1	8
1	625
1	625
1	625
1	6124
1	625
1	11
1	625
1	12
1	16
1	625
1	625
1	625
1	625
1	625
1	625
1	625
1	13
1	625
1	19
1	625
1	625
1	625
1	20
1	39
1	625
1	7
1	6124
1	625
1	12
1	625
1	625
1	15
1	625
1	16
1	16
1	12
1	625
1	10
1	56
1	625
1	625
1	55
1	625
1	55
1	6124
1	625
1	625
1	625
1	625
1	14
1	13
1	25
1	626
1	13
1	625
1	10
1	625
1	20
1	12
1	12
1	625
1	9
1	13
1	12
1	625
1	625
1	625
1	625
1	15
1	625
1	625
1	57
1	626
1	28
1	14
1	625
1	18
1	5
1	14
1	625
1	14
1	10
1	625
1	625
1	15
1	10
1	13
1	41
1	625
1	10
1	55
1	625
1	6124
1	625
1	11
1	28
1	39
1	625
1	13
1	25
1	12
1	625
1	12
1	36
1	625
1	13
1	7
1	625
1	18
1	625
1	9
1	625
1	625
1	9
1	16
1	625
1	625
1	625
1	625
1	625
1	12
1	625
1	10
1	14
1	625
1	39
1	625
1	625
1	625
1	625
1	18
1	25
1	625
1	625
1	625
1	625
1	625
1	625
1	27
1	13
1	26
1	12
1	625
1	25
1	625
1	625
1	24
1	625
1	625
1	625
1	12
1	9
1	625
1	625
1	11
1	625
1	39
1	625
1	28
1	8
1	625
1	625
1	625
1	21
1	11
1	625
1	625
1	625
1	626
1	17
1	10
1	625
1	625
1	17
1	7
1	13
1	24
1	625
1	625
1	10
1	625
1	625
1	625
1	625
1	625
1	11
1	55
1	9
1	625
1	7
1	625
1	11
1	625
1	7
1	625
1	14
1	625
1	625
1	22
1	625
1	11
1	13
1	20
1	8
1	625
1	10
1	626
1	625
1	625
1	625
1	11
1	625
1	625
1	18
1	14
1	13
1	625
1	11
1	14
1	6
1	8
1	39
1	625
1	625
1	625
1	625
1	625
1	625
1	625
1	10
1	625
1	28
1	625
1	625
1	39
1	625
1	625
1	20
1	6124
1	625
1	625
1	625
1	11
1	625
1	625
1	55
1	11
1	9
1	39
1	13
1	11
1	10
1	39
1	18
1	625
1	19
1	18
1	13
1	12
1	625
1	11
1	14
1	625
1	9
1	4
1	6
1	12
1	625
1	12
1	8
1	11
1	625
1	19
1	12
1	625
1	625
1	625
1	28
1	625
1	20
1	11
1	625
1	625
1	19
1	625
1	625
1	625
1	625
1	11
1	625
1	625
1	28
1	625
1	625
1	18
1	625
1	28
1	15
1	10
1	626
1	625
1	9
1	625
1	625
1	6
1	13
1	10
1	625
1	9
1	625
1	7
1	625
1	11
1	625
1	5
1	15
1	11
1	2
1	12
1	11
1	2
1	625
1	7
1	625
1	9
1	625
1	625
1	7
1	18
1	11
1	625
1	8
1	20
1	625
1	625
1	625
1	5
1	7
1	9
1	18
1	625
1	625
1	625
1	14
1	625
1	625
1	625
1	625
1	4
1	28
1	14
1	11
1	6
1	625
1	625
1	625
1	9
1	625
1	7
1	19
1	625
1	14
1	625
1	18
1	39
1	14
1	12
1	625
1	625
1	25
1	18
1	14
1	12
1	35
1	625
1	12
1	21
1	17
1	5
1	25
1	19
1	625
1	6
1	15
1	9
1	12
1	625
1	5
1	625
1	35
1	28
1	625
1	625
1	7
1	625
1	13
1	625
1	625
1	19
1	9
1	625
1	7
1	625
1	19
1	625
1	625
1	5
1	7
1	625
1	19
1	625
1	625
1	625
1	625
1	10
1	18
1	625
1	7
1	625
1	14
1	8
1	625
1	625
1	6124
1	14
1	8
1	625
1	625
1	625
1	16
1	625
1	625
1	625
1	13
1	625
1	625
1	625
1	625
1	10
1	625
1	625
1	11
1	5
1	18
1	13
1	6
1	625
1	55
1	40
1	625
1	18
1	18
1	625
1	627
1	625
1	6
1	625
1	625
1	625
1	625
1	625
1	14
1	625
1	7
1	18
1	625
1	625
1	18
1	55
1	625
1	625
1	625
1	24
1	24
1	625
1	12
1	11
1	25
1	625
1	625
1	625
1	625
1	10
1	11
1	11
1	11
1	625
1	625
1	21
1	17
1	19
1	18
1	8
1	625
1	625
1	625
1	18
1	625
1	13
1	625
1	625
1	625
1	625
1	625
1	7
1	625
1	625
1	5
1	625
1	13
1	625
1	625
1	625
1	11
1	8
1	625
1	625
1	28
1	4
1	2
1	6
1	14
1	625
1	7
1	625
1	625
1	7
1	625
1	2
1	11
1	10
1	625
1	625
1	625
1	625
1	19
1	6
1	18
1	10
1	12
1	25
1	625
1	625
1	22
1	8
1	625
1	625
1	12
1	11
1	625
1	625
1	626
1	19
1	8
1	625
1	6
1	625
1	625
1	10
1	11
1	9
1	55
1	7
1	21
1	625
1	625
1	625
1	625
1	12
1	35
1	36
1	10
1	625
1	24
1	15
1	625
1	625
1	625
1	625
1	9
1	625
1	625
1	14
1	28
1	18
1	7
1	625
1	625
1	24
1	625
1	625
1	625
1	625
1	6
1	19
1	10
1	625
1	11
1	18
1	625
1	625
1	625
1	625
1	625
1	7
1	625
1	625
1	19
1	625
1	12
1	8
1	626
1	625
1	625
1	625
1	625
1	11
1	625
1	626
1	11
1	13
1	625
1	625
1	6
1	11
1	20
1	625
1	55
1	6
1	39
1	625
1	12
1	625
1	13
1	10
1	8
1	625
1	28
1	9
1	625
1	626
1	625
1	625
1	10
1	625
1	38
1	625
1	625
1	18
1	11
1	24
1	625
1	625
1	55
1	10
1	625
1	625
1	8
1	625
1	625
1	18
1	20
1	9
1	12
1	6
1	625
1	35
1	626
1	625
1	9
1	7
1	625
1	625
1	8
1	625
1	10
1	625
1	625
1	7
1	10
1	625
1	8
1	625
1	625
1	625
1	9
1	18
1	625
1	15
1	625
1	625
1	625
1	14
1	625
1	11
1	625
1	6
1	625
1	4
1	7
1	7
1	9
1	625
1	625
1	625
1	625
1	625
1	10
1	625
1	11
1	625
1	625
1	625
1	55
1	625
1	625
1	11
1	8
1	7
1	625
1	55
1	7
1	625
1	2
1	4
1	8
1	6
1	11
1	19
1	10
1	625
1	625
1	39
1	625
1	625
1	9
1	625
1	625
1	626
1	625
1	625
1	625
1	625
1	10
1	6
1	19
1	22
1	7
1	625
1	625
1	6
1	625
1	25
1	625
1	56
1	6
1	6
1	10
1	625
1	625
1	18
1	10
1	625
1	625
1	8
1	11
1	14
1	11
1	625
1	10
1	11
1	625
1	625
1	625
1	625
1	625
1	5
1	625
1	6
1	4
1	625
1	6
1	625
1	5
1	625
1	625
1	625
1	625
1	13
1	7
1	18
1	7
1	625
1	24
1	8
1	625
1	25
1	13
1	17
1	16
1	626
1	625
1	625
1	10
1	625
1	625
1	9
1	625
1	625
1	11
1	4
1	625
1	11
1	12
1	9
1	625
1	11
1	9
1	625
1	11
1	41
1	625
1	20
1	8
1	10
1	625
1	7
1	625
1	5
1	22
1	625
1	625
1	625
1	625
1	625
1	625
1	625
1	28
1	625
1	626
1	39
1	625
1	25
1	4
1	28
1	625
1	9
1	625
1	8
1	20
1	14
1	11
1	7
1	625
1	9
1	625
1	625
1	16
1	55
1	625
1	7
1	10
1	625
1	11
1	625
1	625
1	625
1	8
1	625
1	625
1	8
1	625
1	11
1	625
1	626
1	35
1	24
1	625
1	6
1	625
1	18
1	10
1	625
1	625
1	55
1	625
1	625
1	2
1	40
1	11
1	19
1	625
1	17
1	9
1	625
1	11
1	5
1	625
1	6
1	625
1	15
1	625
1	7
1	625
1	625
1	625
1	10
1	16
1	11
1	55
1	7
1	625
1	625
1	6
1	625
1	18
1	10
1	19
1	6
1	625
1	625
1	11
1	625
1	625
1	22
1	25
1	625
1	625
1	625
1	625
1	6
1	625
1	18
1	39
1	7
1	625
1	15
1	55
1	20
1	28
1	625
1	10
1	13
1	12
1	12
1	625
1	10
1	7
1	5
1	625
1	9
1	625
1	625
1	9
1	18
1	28
1	17
1	625
1	625
1	10
1	55
1	625
1	625
1	18
1	9
1	4
1	39
1	9
1	10
1	626
1	55
1	625
1	55
1	22
1	625
1	625
1	625
1	10
1	9
1	13
1	11
1	625
1	18
1	625
1	625
1	625
1	625
1	28
1	625
1	6
1	625
1	625
1	25
1	55
1	625
1	625
1	12
1	625
1	625
1	56
1	11
1	6
1	7
1	625
1	55
1	625
1	625
1	19
1	18
1	18
1	625
1	13
1	13
1	625
1	625
1	625
1	625
1	28
1	40
1	24
1	20
1	625
1	20
1	625
1	9
1	7
1	10
1	24
1	625
1	625
1	7
1	6
1	625
1	5
1	625
1	19
1	55
1	9
1	625
1	11
2	9
2	6
2	8
2	7
2	3
2	8
2	8
2	3
2	14
2	7
2	6
2	7
2	3
2	4
2	3
2	7
2	5
2	3
2	3
2	6
2	29
2	10
2	5
2	8
2	36
2	16
2	14
2	3
2	6
2	8
2	18
2	10
2	3
2	3
2	3
2	9
2	3
2	23
2	3
2	7
2	3
2	3
2	12
2	13
2	3
2	3
2	5
2	4
2	3
2	3
2	11
2	4
2	4
2	3
2	16
2	4
2	626
2	3
2	10
2	12
2	3
2	7
2	16
2	19
2	6
2	626
2	8
2	6
2	5
2	20
2	3
2	56
2	3
2	3
2	5
2	4
2	8
2	7
2	5
2	7
2	6
2	4
2	6
2	6
2	6
2	6
2	3
2	3
2	6
2	20
2	3
2	17
2	3
2	12
2	10
2	3
2	9
2	9
2	626
2	10
2	3
2	3
2	4
2	11
2	13
2	4
2	4
2	6
2	8
2	10
2	4
2	5
2	3
2	3
2	11
2	7
2	3
2	626
2	4
2	13
2	4
2	4
2	11
2	3
2	11
2	3
2	3
2	4
2	3
2	23
2	29
2	5
2	17
2	14
2	17
2	5
2	4
2	4
2	12
2	3
2	13
2	4
2	4
2	4
2	10
2	17
2	7
2	13
2	3
2	10
2	6
2	11
2	3
2	6
2	3
2	5
2	6
2	5
2	6
2	3
2	3
2	3
2	4
2	9
2	21
2	7
2	3
2	3
2	4
2	9
2	3
2	8
2	8
2	3
2	4
2	5
2	4
2	8
2	5
2	13
2	4
2	10
2	14
2	7
2	4
2	4
2	9
2	3
2	6
2	13
2	3
2	9
2	3
2	14
2	6
2	3
2	6
2	3
2	15
2	4
2	4
2	10
2	5
2	4
2	9
2	3
2	4
2	3
2	4
2	3
2	13
2	3
2	13
2	5
2	8
2	36
2	6
2	5
2	3
2	14
2	3
2	3
2	6
2	4
2	56
2	3
2	4
2	4
2	3
2	4
2	14
2	4
2	4
2	3
3	4
3	4
3	4
3	4
3	5
3	5
3	4
3	4
3	7
3	4
3	4
3	4
3	4
3	4
3	4
3	4
3	8
3	5
3	5
3	7
3	4
3	5
3	5
3	8
3	5
3	4
3	4
3	5
3	4
3	4
3	4
3	4
3	9
3	4
3	4
3	4
3	4
3	7
3	5
3	4
3	5
3	4
3	5
3	5
3	5
3	5
3	11
3	10
3	4
3	4
3	5
3	4
3	6
3	5
3	4
3	4
3	5
3	4
3	4
3	6
3	6
3	11
3	4
3	4
3	4
3	4
3	4
3	5
3	11
3	4
3	4
3	4
3	4
3	4
3	5
3	4
3	5
3	4
3	4
3	5
3	5
3	7
3	5
3	13
4	6
4	8
4	5
4	5
4	5
4	5
4	5
4	6
4	6
4	6
4	5
4	5
4	6
4	5
4	5
4	5
4	6
4	5
4	6
4	5
4	5
4	5
4	6
4	5
4	5
4	5
4	5
4	5
4	5
4	10
4	6
4	5
4	5
4	6
4	5
4	5
4	5
4	6
4	5
4	8
4	5
4	5
4	6
4	5
4	11
4	5
4	5
4	5
4	6
4	5
5	6
5	6
5	6
5	6
5	6
5	6
5	6
5	7
5	12
5	6
5	6
5	6
5	6
5	6
5	6
5	6
5	6
5	6
5	7
5	6
5	6
5	6
5	8
5	6
5	6
5	6
5	6
6	7
6	7
6	7
6	7
6	7
6	7
6	7
6	7
6	7
6	9
6	7
6	7
6	7
6	7
6	10
6	7
6	7
6	7
6	7
6	7
6	8
6	7
6	7
7	8
7	8
7	8
7	10
7	8
7	8
7	8
7	9
7	10
7	9
7	8
7	8
8	9
8	9
8	9
8	9
8	9
8	9
8	9
8	9
8	9
8	9
8	9
8	9
9	10
9	10
9	10
9	10
9	10
9	10
9	10
9	10
9	10
10	11
10	11
10	11
10	13
10	11
10	11
10	11
10	11
10	11
10	11
11	13
11	12
11	12
11	12
12	13
12	13
12	13
12	13
13	14
13	14
14	16
14	15
15	16
16	17
17	18
17	18
17	18
17	18
18	19
18	19
18	19
19	20
21	22
23	24
24	25
27	28
34	35
38	39
54	55
624	625
