1	6124
1	538
1	27
1	537
1	24
1	537
1	537
1	17
1	537
1	15
1	6124
1	19
1	6124
1	18
1	537
1	13
1	537
1	537
1	537
1	537
1	537
1	13
1	16
1	13
1	537
1	537
1	537
1	537
1	537
1	537
1	537
1	537
1	6124
1	537
1	537
1	19
1	12
1	3
1	16
1	14
1	43
1	537
1	23
1	537
1	16
1	12
1	13
1	538
1	537
1	15
1	15
1	537
1	537
1	14
1	10
1	27
1	537
1	537
1	21
1	15
1	537
1	537
1	26
1	12
1	23
1	537
1	12
1	537
1	6124
1	537
1	23
1	537
1	537
1	537
1	13
1	537
1	537
1	42
1	11
1	537
1	537
1	537
1	537
1	538
1	15
1	16
1	10
1	14
1	537
1	24
1	14
1	12
1	20
1	15
1	537
1	17
1	537
1	6124
1	16
1	537
1	537
1	537
1	15
1	13
1	537
1	9
1	537
1	18
1	12
1	13
1	537
1	537
1	10
1	537
1	537
1	537
1	12
1	18
1	14
1	537
1	537
1	537
1	17
1	22
1	537
1	14
1	537
1	20
1	19
1	10
1	5
1	23
1	23
1	15
1	537
1	537
1	537
1	11
1	538
1	537
1	537
1	15
1	20
1	15
1	13
1	29
1	537
1	26
1	18
1	537
1	12
1	537
1	537
1	537
1	537
1	537
1	42
1	537
1	8
1	537
1	12
1	14
1	7
1	537
1	10
1	15
1	537
1	12
1	11
1	537
1	537
1	15
1	15
1	537
1	42
1	17
1	14
1	11
1	10
1	15
1	28
1	29
1	15
1	12
1	12
1	9
1	537
1	537
1	537
1	6
1	42
1	537
1	537
1	537
1	18
1	11
1	13
1	7
1	538
1	537
1	10
1	537
1	537
1	10
1	537
1	26
1	537
1	11
1	22
1	537
1	537
1	16
1	15
1	537
1	537
1	4
1	11
1	15
1	14
1	13
1	537
1	537
1	10
1	537
1	537
1	537
1	13
1	537
1	537
1	23
1	23
1	28
1	537
1	537
1	538
1	11
1	15
1	537
1	537
1	26
1	12
1	23
1	537
1	537
1	12
1	11
1	537
1	537
1	537
1	537
1	15
1	11
1	6
1	537
1	537
1	10
1	13
1	537
1	11
1	537
1	14
1	4
1	12
1	537
1	537
1	537
1	10
1	537
1	537
1	9
1	9
1	537
1	10
1	537
1	11
1	538
1	15
1	537
1	19
1	537
1	537
1	12
1	537
1	12
1	10
1	9
1	537
1	12
1	537
1	12
1	14
1	15
1	9
1	537
1	537
1	537
1	22
1	537
1	22
1	538
1	537
1	537
1	6124
1	537
1	537
1	537
1	537
1	537
1	537
1	12
1	13
1	16
1	6
1	537
1	14
1	537
1	537
1	42
1	12
1	15
1	537
1	7
1	537
1	6124
1	537
1	537
1	7
1	537
1	537
1	9
1	13
1	537
1	537
1	10
1	26
1	537
1	537
1	28
1	537
1	6124
1	537
1	537
1	537
1	537
1	16
1	11
1	537
1	537
1	14
1	537
1	537
1	537
1	537
1	9
1	13
1	537
1	537
1	537
1	537
1	537
1	19
1	537
1	537
1	9
1	9
1	537
1	537
1	20
1	537
1	9
1	537
1	6
1	11
1	12
1	14
1	11
1	11
1	537
1	5
1	537
1	15
1	537
1	537
1	537
1	537
1	11
1	15
1	10
1	10
1	9
1	10
1	538
1	537
1	11
1	537
1	13
1	9
1	7
1	9
1	8
1	14
1	537
1	537
1	537
1	3
1	26
1	11
1	537
1	12
1	14
1	537
1	11
1	5
1	11
1	7
1	537
1	23
1	22
1	537
1	537
1	8
1	14
1	22
1	537
1	537
1	537
1	537
1	6
1	537
1	10
1	537
1	6
1	8
1	6
1	9
1	537
1	9
1	537
1	537
1	537
1	11
1	537
1	12
1	22
1	18
1	20
1	537
1	537
1	23
1	537
1	10
1	5
1	537
1	23
1	537
1	537
1	537
1	537
1	28
1	18
1	537
1	42
1	537
1	11
1	16
1	537
1	537
1	26
1	538
1	537
1	537
1	42
1	9
1	537
1	20
1	537
1	537
1	537
1	8
1	13
1	537
1	537
1	5
1	537
1	537
1	537
1	537
1	27
1	23
1	6124
1	537
1	537
1	18
1	537
1	538
1	19
1	538
1	42
1	9
1	42
1	537
1	6
1	8
1	537
1	11
1	14
1	537
1	3
1	537
1	12
1	23
1	537
1	14
1	19
1	23
1	537
1	26
1	9
1	537
1	537
1	5
1	42
1	537
1	22
1	11
1	14
1	537
1	537
1	42
1	538
1	538
1	537
1	8
1	6124
1	18
1	537
1	537
1	537
1	26
1	537
1	8
1	9
1	13
1	537
1	537
1	9
1	537
1	14
1	26
1	7
1	5
1	537
1	537
1	537
1	6
1	12
1	537
1	537
1	9
1	24
1	537
1	30
1	537
1	11
1	537
1	20
1	537
1	8
1	12
1	11
1	12
1	537
1	537
1	537
1	537
1	11
1	20
1	8
1	13
1	26
1	15
1	537
1	537
1	28
1	537
1	8
1	15
1	8
1	7
1	537
1	538
1	537
1	537
1	13
1	537
1	23
1	18
1	2
1	537
1	23
1	11
1	14
1	10
1	537
1	7
1	6
1	8
1	537
1	537
1	537
1	23
1	15
1	537
1	15
1	537
1	15
1	6
1	537
1	18
1	15
1	537
1	23
1	537
1	23
1	8
1	26
1	24
1	12
1	537
1	11
1	10
1	8
1	5
1	538
1	538
1	537
1	19
1	42
1	10
1	9
1	6
1	537
1	540
1	537
1	537
1	537
1	12
1	537
1	537
1	23
1	537
1	2
1	537
1	7
1	537
1	537
1	537
1	537
1	9
1	537
1	8
1	537
1	537
1	11
1	7
1	11
1	28
1	537
1	10
1	26
1	537
1	537
1	44
1	4
1	28
1	537
1	16
1	10
1	537
1	42
1	11
1	4
1	6
1	537
1	537
1	537
1	6
1	537
1	23
1	537
1	26
1	13
1	537
1	537
1	16
1	20
1	537
1	44
1	537
1	6
1	537
1	537
1	14
1	5
1	6124
1	19
1	2
1	537
1	16
1	537
1	537
1	537
1	2
1	11
1	537
1	537
1	8
1	537
1	537
1	537
1	537
1	5
1	22
1	20
1	537
1	537
1	14
1	10
1	537
1	537
1	8
1	12
1	7
1	6124
1	538
1	537
1	6
1	7
1	537
1	537
1	8
1	537
1	23
1	537
1	14
1	10
1	537
1	6
1	537
1	9
1	537
1	11
1	10
1	16
1	8
1	9
1	10
1	15
1	20
1	23
1	20
1	9
1	537
1	537
1	16
1	14
1	8
1	7
1	10
1	7
1	5
1	537
1	10
1	11
1	537
1	537
1	9
1	11
1	537
1	15
1	11
1	11
1	537
1	15
1	4
1	5
1	537
1	537
1	12
1	6
1	9
1	537
1	537
1	537
1	20
1	7
1	11
1	12
1	11
1	4
1	537
1	537
1	6
1	537
1	10
1	15
1	537
1	11
1	537
1	537
1	10
1	2
1	5
1	537
1	537
1	6
1	9
1	42
1	28
1	537
1	537
1	23
1	14
1	537
1	14
1	6124
1	537
1	15
1	10
1	42
1	4
1	15
1	537
1	537
1	537
1	7
1	537
1	6
1	537
1	13
1	14
1	14
1	16
1	537
1	537
1	5
1	8
1	537
1	43
1	11
1	537
1	537
1	29
1	537
1	537
1	537
1	14
1	8
1	537
1	537
1	538
1	537
1	44
1	537
1	11
1	2
1	537
1	16
1	8
1	537
1	537
1	537
1	42
1	9
1	15
1	15
1	537
1	26
1	10
1	537
1	7
1	28
1	10
1	23
1	537
1	9
1	538
1	537
1	537
1	4
1	537
1	9
1	537
1	42
1	9
1	537
1	16
1	6
1	537
1	537
1	539
1	15
1	4
1	16
1	537
1	26
1	23
1	2
1	14
1	7
1	11
1	11
1	10
1	4
1	4
1	537
1	6
1	42
1	538
1	537
1	537
1	537
1	537
1	5
1	10
1	537
1	537
1	4
1	10
1	15
1	5
1	7
1	5
1	537
1	9
1	538
1	9
1	11
1	537
1	14
1	5
1	7
1	42
1	537
1	7
1	537
1	16
1	8
1	7
1	8
1	537
1	537
1	42
1	537
1	7
1	2
1	22
1	6
1	537
1	537
1	537
1	4
1	537
1	7
1	538
1	537
1	10
1	9
1	5
1	537
1	4
1	537
1	4
1	14
1	537
1	537
1	22
1	537
1	13
1	537
1	6
1	11
1	537
1	537
1	537
1	11
1	10
1	15
1	19
1	537
1	537
1	14
1	6
1	15
1	5
1	12
1	42
1	537
1	537
1	537
1	22
1	23
2	3
2	3
2	3
2	3
2	5
2	9
2	13
2	538
2	3
2	27
2	5
2	7
2	3
2	9
2	3
2	21
2	5
2	5
2	10
2	16
2	10
2	5
2	43
2	17
2	3
2	3
2	10
2	10
2	3
2	6
2	6
2	8
2	3
2	19
2	12
2	3
2	3
2	10
2	6
2	11
2	10
2	4
2	12
2	5
2	10
2	5
2	5
2	5
2	9
2	538
2	6
2	8
2	11
2	12
2	12
2	4
2	5
2	538
2	3
2	29
2	3
2	4
2	6
2	4
2	19
2	11
2	4
2	4
2	6
2	3
2	3
2	3
2	10
2	3
2	3
2	3
2	3
2	8
2	3
2	538
2	3
2	538
2	9
2	10
2	12
2	3
2	3
2	4
2	11
2	3
2	11
2	10
2	4
2	3
2	4
2	5
2	4
2	19
2	7
2	11
2	9
2	4
2	10
2	6
2	3
2	12
2	9
2	4
2	10
2	3
2	6
2	3
2	7
2	9
2	3
2	8
2	7
2	3
2	3
2	9
2	4
2	3
2	6
2	3
2	9
2	5
2	3
2	7
2	3
2	4
2	7
2	3
2	6
2	4
2	5
2	3
2	3
2	538
2	6
2	4
2	538
2	3
2	3
2	5
2	4
2	8
2	17
2	4
2	5
2	4
2	3
2	9
2	3
2	3
2	8
2	3
2	10
2	10
2	8
2	5
2	14
2	4
2	6
2	4
2	9
2	12
2	7
2	4
2	5
2	4
2	5
2	8
2	7
2	3
2	4
2	6
2	3
2	14
2	7
2	3
2	11
2	6
2	3
2	4
2	4
2	3
2	3
2	7
2	4
2	6
2	4
2	3
2	3
2	5
2	4
2	4
2	3
3	5
3	4
3	4
3	8
3	5
3	4
3	4
3	5
3	5
3	4
3	4
3	4
3	4
3	4
3	5
3	6
3	5
3	4
3	4
3	5
3	10
3	4
3	5
3	4
3	4
3	5
3	6
3	5
3	4
3	4
3	5
3	4
3	5
3	4
3	5
3	4
3	5
3	4
3	4
3	12
3	4
3	4
3	4
3	4
3	7
3	7
3	4
3	11
3	8
3	4
3	4
3	4
3	5
3	4
3	4
3	4
3	4
3	4
3	9
3	4
3	4
3	4
3	5
3	4
3	4
3	4
3	10
3	4
3	4
3	4
3	4
4	7
4	5
4	6
4	5
4	5
4	5
4	8
4	5
4	6
4	5
4	5
4	6
4	7
4	5
4	5
4	5
4	5
4	7
4	5
4	5
4	6
4	6
4	5
4	5
4	5
4	5
4	5
4	5
4	5
4	5
4	8
4	5
4	5
4	5
4	5
4	5
4	5
4	5
4	6
4	5
4	5
4	6
4	6
5	7
5	6
5	6
5	9
5	6
5	7
5	6
5	6
5	7
5	6
5	6
5	6
5	6
5	6
5	8
5	6
5	6
5	6
5	6
5	6
5	6
5	6
6	7
6	7
6	7
6	8
6	7
6	7
6	10
6	7
6	7
6	8
6	7
6	7
7	9
7	8
7	9
7	8
7	8
7	8
7	8
7	8
8	9
8	9
8	9
8	9
8	9
8	9
8	9
8	9
8	9
9	10
9	10
9	10
9	10
9	10
9	10
9	10
9	10
9	10
10	11
10	11
10	11
10	11
10	12
10	11
10	11
10	11
10	11
10	11
11	12
11	12
12	13
12	13
13	14
13	14
13	14
13	14
13	14
14	15
14	15
14	15
15	16
15	16
17	18
17	18
18	19
19	20
21	22
22	23
22	23
25	26
27	28
41	42
536	537
