1	6124
1	1531
1	1530
1	25
1	1530
1	1530
1	1530
1	1530
1	12
1	1530
1	1530
1	47
1	13
1	1530
1	1530
1	1530
1	25
1	14
1	1530
1	1530
1	46
1	1530
1	31
1	1530
1	1530
1	1530
1	1530
1	1530
1	1530
1	1530
1	24
1	1530
1	1530
1	1530
1	24
1	14
1	1530
1	1530
1	1530
1	1530
1	16
1	1530
1	1530
1	21
1	1530
1	9
1	1530
1	1530
1	1530
1	1530
1	17
1	1530
1	1530
1	24
1	1530
1	1530
1	1530
1	1530
1	25
1	10
1	1530
1	1530
1	1530
1	16
1	9
1	1530
1	1530
1	1530
1	1530
1	1530
1	1530
1	1530
1	14
1	1530
1	1530
1	1530
1	1530
1	1530
1	1530
1	1530
1	1530
1	1530
1	1530
1	36
1	1530
1	17
1	13
1	1530
1	1530
1	1530
1	1530
1	14
1	1530
1	1530
1	13
1	13
1	46
1	1530
1	1530
1	1530
1	1530
1	1530
1	1530
1	22
1	1530
1	1530
1	1530
1	24
1	1530
1	1530
1	1530
1	1530
1	1530
1	21
1	1530
1	1530
1	1530
1	1530
1	30
1	12
1	1530
1	10
1	1530
1	11
1	16
1	1530
1	1530
1	1530
1	9
1	1531
1	1530
1	1531
1	1530
1	1530
1	19
1	1530
1	1530
1	1530
1	1530
1	8
1	1530
1	22
1	1530
1	1530
1	1530
1	1530
1	1530
1	1530
1	1530
1	1530
1	16
1	1530
1	1530
1	16
1	12
1	10
1	1530
1	1530
1	1530
1	1530
1	1530
1	1530
1	1530
1	1530
1	1530
1	31
1	28
1	1530
1	1530
1	30
1	1530
1	1530
1	1530
1	1530
1	1530
1	1530
1	9
1	1530
1	1530
1	1530
1	1530
1	1530
1	13
1	1530
1	1530
1	1530
1	1530
1	1530
1	1530
1	1530
1	1530
1	1530
1	1530
1	1530
1	1530
1	1530
1	6124
1	1530
1	1530
1	1530
1	1530
1	27
1	1530
1	11
1	1530
1	11
1	1530
1	14
1	1530
1	1530
1	1530
1	13
1	1530
1	11
1	15
1	19
1	1530
1	17
1	1530
1	9
1	1530
1	1530
1	11
1	1530
1	11
1	1530
1	7
1	1530
1	1530
1	1530
1	12
1	1530
1	1530
1	1530
1	1530
1	1530
1	6
1	1530
1	1530
1	1530
1	1530
1	18
1	1530
1	1530
1	1530
1	1530
1	1530
1	24
1	10
1	1530
1	10
1	1530
1	1530
1	1530
1	1530
1	1530
1	1530
1	1530
1	12
1	1530
1	1530
1	1530
1	1530
1	1530
1	1530
1	14
1	1530
1	1530
1	1530
1	1530
1	1530
1	12
1	15
1	1530
1	1530
1	1530
1	1530
1	1530
1	1531
1	1530
1	1530
1	1530
1	1530
1	1530
1	1530
1	15
1	1530
1	1530
1	46
1	9
1	7
1	1530
1	11
1	1530
1	1530
1	1530
1	1530
1	1530
1	1530
1	27
1	1530
1	1530
1	1530
1	1530
1	27
1	1530
1	1530
1	1530
1	1530
1	1530
1	30
1	9
1	15
1	1530
1	10
1	1530
1	1530
1	1530
1	1530
1	15
1	1530
1	24
1	1530
1	13
1	1530
1	18
1	14
1	1530
1	1530
1	1530
1	1530
1	1530
1	1530
1	14
1	18
1	1530
1	1530
1	11
1	1530
1	20
1	17
1	1530
1	10
1	7
1	1530
1	16
1	1530
1	6
1	1530
1	1531
1	1530
1	46
1	1530
1	1530
1	9
1	1530
1	9
1	1530
1	46
1	15
1	1530
1	1530
1	1530
1	1530
1	27
1	1530
1	1530
1	1530
1	1530
1	1531
1	13
1	10
1	30
1	8
1	1530
1	13
1	1530
1	1530
1	13
1	30
1	1530
1	1531
1	1530
1	1530
1	1530
1	1530
1	1530
1	14
1	1530
1	8
1	1530
1	1530
1	11
1	1530
1	11
1	1530
1	1530
1	30
1	1530
1	24
1	1530
1	1530
1	21
1	11
1	1530
1	1530
1	1530
1	1530
1	1530
1	1530
1	1530
1	1530
1	1530
1	1530
1	1530
1	1530
1	15
1	1530
1	1530
1	13
1	30
1	15
1	9
1	1530
1	10
1	1530
1	1530
1	1530
1	1530
1	9
1	1530
1	1530
1	46
1	1530
1	1530
1	1530
1	9
1	1530
1	1530
1	1530
1	1530
1	18
1	1530
1	1530
1	1530
1	30
1	1530
1	1530
1	1530
1	1530
1	9
1	1530
1	14
1	1530
1	21
1	1530
1	7
1	1530
1	9
1	1530
1	14
1	1530
1	1530
1	1530
1	1530
1	1530
1	1530
1	18
1	1530
1	12
1	1530
1	1530
1	1530
1	1530
1	1530
1	30
1	14
1	1530
1	1530
1	1530
1	1530
1	18
1	1530
1	1530
1	1530
1	1530
1	1530
1	1530
1	1530
1	1530
1	1530
1	1530
1	1530
1	1530
1	1530
1	1530
1	1530
1	1530
1	1530
1	1530
1	1530
1	11
1	1530
1	1530
1	12
1	1530
1	1530
1	1530
1	1530
1	1530
1	1530
1	1530
1	12
1	11
1	31
1	1530
1	30
1	1537
1	1530
1	14
1	1530
1	1530
1	1530
1	1530
1	9
1	1530
1	1530
1	1530
1	1530
1	1530
1	30
1	1530
1	1530
1	13
1	1530
1	12
1	1530
1	1530
1	1530
1	1530
1	1530
1	10
1	1530
1	1530
1	1530
1	1530
1	11
1	1530
1	1530
1	1530
1	1530
1	1530
1	46
1	1530
1	6
1	1530
1	1530
1	1530
1	1530
1	1530
1	1530
1	10
1	1530
1	46
1	14
1	27
1	1530
1	1530
1	1530
1	1530
1	1530
1	1530
1	6
1	1530
1	1530
1	1530
1	19
1	9
1	1530
1	1530
1	9
1	1530
1	1530
1	15
1	1530
1	1530
1	21
1	1530
1	1530
1	10
1	1530
1	1530
1	12
1	1530
1	8
1	1530
1	1531
1	1530
1	1530
1	1530
1	15
1	1530
1	1530
1	1530
1	1530
1	1531
1	1530
1	1530
1	10
1	1530
1	46
1	1530
1	1530
1	46
1	1530
1	30
1	1530
1	15
1	1530
1	1530
1	30
1	9
1	1530
1	1530
1	1530
1	1530
1	1530
1	1530
1	1530
1	1530
1	1530
1	10
1	1530
1	16
1	1530
1	27
1	1530
1	1530
1	1530
1	1530
1	1530
1	1530
1	1530
1	1530
1	17
1	1530
1	24
1	1530
1	1530
1	23
1	1530
1	1530
1	1530
1	1533
1	8
1	1530
1	1530
1	8
1	1530
1	1530
1	1531
1	1530
1	20
1	1530
1	1530
1	33
1	1530
1	1530
1	1530
1	1530
1	1530
1	14
1	1530
1	1531
1	1530
1	1530
1	1530
1	1530
1	1530
1	20
1	1530
1	1530
1	1530
1	27
1	9
1	1530
1	5
1	1530
1	1530
1	9
1	9
1	1530
1	1530
1	1530
1	1530
1	1530
1	1530
1	1530
1	1530
1	1530
1	1530
1	1530
1	1530
1	1530
1	1530
1	1530
1	1530
1	1530
1	1530
1	1530
1	1530
1	1530
1	1530
1	1530
1	1530
1	1530
1	1530
1	8
1	4
1	9
1	1530
1	1530
1	1530
1	15
1	1530
1	1530
1	13
1	1530
1	1530
1	1530
1	1530
1	1530
1	1530
1	10
1	1530
1	46
1	1530
1	1530
1	17
1	1530
1	1530
1	1530
1	1530
1	1530
1	1530
1	10
1	1530
1	1530
1	1530
1	46
1	1530
1	1530
1	1530
1	1530
1	1530
1	1530
1	1530
1	1530
1	1530
1	1530
1	13
1	17
1	1530
1	1530
1	1530
1	12
1	16
1	1530
1	1530
1	1530
1	1530
1	1530
1	1530
1	1530
1	1530
1	1530
1	1530
1	1530
1	9
1	1530
1	8
1	5
1	10
1	1530
1	12
1	1530
1	1530
1	17
1	1530
1	1530
1	1530
1	1530
1	1530
1	30
1	1530
1	1530
1	1530
1	1530
1	1530
1	1530
1	1530
1	1530
1	18
1	46
1	1530
1	15
1	1530
1	1530
1	1530
1	1530
1	1530
1	5
1	10
1	1530
1	1530
1	5
1	47
1	21
1	1530
1	1530
1	1530
1	1530
1	1530
1	1530
1	1530
1	1530
1	9
1	1530
1	12
1	1530
1	1530
1	1530
1	1530
1	1530
1	10
1	1530
1	1530
1	16
1	1530
1	12
1	1530
1	1530
1	1530
1	1530
1	9
1	1530
1	1530
1	1530
1	1530
1	9
1	1530
1	1530
1	1530
1	6
1	1530
1	1530
1	1530
1	1530
1	1530
1	1530
1	1530
1	1530
1	1530
1	1530
1	1530
1	1530
1	1530
1	1530
1	24
1	1530
1	7
1	1530
1	1530
1	1530
1	30
1	8
1	1530
1	1531
1	15
1	1530
1	8
1	1530
1	9
1	1530
1	1530
1	7
1	1530
1	1530
1	1530
1	5
1	1530
1	6124
1	46
1	1530
1	1530
1	1530
1	1530
1	1530
1	1530
1	46
1	1530
1	1530
1	1530
1	1530
1	8
1	46
1	1530
1	1530
1	1530
1	1530
1	1530
1	1530
1	1530
1	1530
1	1530
1	1530
1	1530
1	2
1	28
1	1530
1	1530
1	1530
1	1530
1	1530
1	10
1	1530
1	1530
1	10
1	9
1	1530
1	1530
1	1530
1	1530
1	1530
1	1530
1	18
1	1530
1	1530
1	7
1	13
1	1530
1	30
1	1530
1	1530
1	1530
1	1530
1	1530
1	5
1	1530
1	1530
1	1530
1	1530
1	1530
1	1530
1	1530
1	1530
1	15
1	1530
1	1530
1	1530
1	1530
1	1530
1	1530
1	46
1	1530
1	1530
1	1531
1	1530
1	1530
1	1530
1	1530
1	1530
1	1530
1	1530
1	1530
1	1530
1	8
1	1530
1	1530
1	7
1	1530
1	1530
1	1530
1	1530
1	1530
1	1530
1	1530
1	11
1	1530
1	1530
1	1530
1	1530
1	1530
1	1530
1	1530
1	1530
1	1530
1	1530
1	1530
1	1530
1	1530
1	17
1	1530
1	24
1	1530
1	1530
1	1530
1	30
1	1531
1	1530
1	1530
1	1530
1	1530
1	1530
1	1530
1	1530
1	1530
1	1531
1	1530
1	1530
1	9
1	1530
1	1530
1	1530
1	1530
1	1530
1	1530
1	1530
1	1530
1	1530
1	30
1	1530
1	1530
1	9
1	1530
1	1530
1	1530
1	1530
1	13
1	46
1	1530
1	1530
1	7
1	1530
1	1530
1	9
1	1530
1	1530
1	1530
1	1530
1	1530
1	1530
1	1530
1	1530
1	9
1	1530
1	1530
1	1530
1	1530
1	1530
1	9
1	9
1	1530
1	1530
1	1530
1	15
1	9
1	1530
1	1530
1	10
1	1530
1	1530
1	1530
1	15
1	1530
1	11
1	1530
1	12
1	1530
1	15
1	46
1	1530
1	8
1	1530
1	1530
1	1530
1	10
1	8
1	1530
1	1530
1	1530
1	11
1	1530
1	1530
1	1530
1	1530
1	1530
1	1530
1	1530
1	1530
1	21
1	8
1	1530
1	6
1	20
1	1530
1	1531
1	1530
1	1530
1	1530
1	1530
1	1530
1	13
1	1530
1	9
1	1530
1	1530
1	1530
1	1530
1	24
1	1530
1	1530
1	1530
1	1530
1	1530
1	1530
1	1530
1	1530
1	1530
1	1530
1	16
1	9
1	12
1	15
1	1530
1	1530
1	21
1	6
1	1530
1	8
1	1530
1	1530
1	1530
1	1530
1	1530
1	1530
1	1530
1	1530
1	46
1	1530
1	1530
1	1530
1	1530
1	1530
1	15
1	1530
1	27
1	1530
1	1530
1	16
1	1530
1	1530
1	17
1	1530
1	1530
1	1530
1	1530
1	1530
1	1530
1	1530
1	1530
1	1530
1	10
1	1530
1	1530
1	1530
1	1530
1	1530
1	8
1	1530
1	1530
1	30
1	1530
1	1530
1	1530
1	1530
1	1530
1	1530
1	1530
1	1530
1	1530
1	9
1	1530
1	1530
1	1530
1	1530
1	13
1	1530
1	1530
1	1530
1	1530
1	6
1	1530
1	1530
1	1530
1	1530
1	30
1	1530
1	1530
1	1530
1	1530
1	7
1	1530
1	1530
1	1530
1	1530
1	1530
1	1530
1	15
1	5
1	11
1	1530
1	6
1	1530
1	1530
1	1530
1	5
1	1530
1	1530
1	1530
1	30
1	1530
1	1530
1	1530
1	1530
1	13
1	1530
1	1530
1	1530
1	1530
1	1530
1	24
1	1530
1	1530
1	1530
1	12
1	21
1	1530
1	1530
1	12
1	1530
1	1530
1	47
1	16
1	20
1	1530
1	1530
1	1530
1	1530
1	30
1	4
1	1530
1	1530
1	1530
1	24
1	1530
1	20
1	1530
1	1530
1	9
1	1530
1	1530
1	1530
1	1530
1	1530
1	1530
1	1530
1	9
1	1530
1	4
1	13
1	10
1	1530
1	1530
1	8
1	17
1	1530
1	21
1	9
1	8
1	1530
1	9
1	1530
1	1530
1	11
1	1530
1	1530
1	11
1	1530
1	1530
1	14
1	1530
1	1530
1	1530
1	1530
1	8
1	11
1	6
1	1530
1	1530
1	1530
1	1530
1	1530
1	1530
1	1530
1	1530
1	1530
1	1530
1	1530
1	5
1	1530
1	1530
1	1530
1	1530
1	1530
1	1530
1	1530
1	1530
1	1530
1	9
1	24
1	1530
1	11
1	1530
1	1530
1	1530
1	1530
1	1530
1	1530
1	1530
1	1530
1	1530
1	1530
1	1530
1	1530
1	18
1	1531
1	1530
1	1530
1	1530
1	9
1	9
1	15
1	1530
1	9
1	1530
1	1530
1	8
1	1530
1	1530
1	1530
1	1530
1	1530
1	1530
1	1530
1	1530
1	1530
1	1530
1	1530
1	2
1	7
1	1530
1	1530
1	1530
1	27
1	31
1	30
1	1530
1	18
1	1530
1	1530
1	1530
1	1530
1	8
1	9
1	1530
1	18
1	1530
1	1530
1	1530
1	1530
1	1530
1	1530
1	1530
1	27
1	1530
1	1530
1	9
1	1530
1	1530
1	1530
1	1530
1	1530
1	1530
1	1531
1	7
1	1530
1	8
1	1530
1	1530
1	1530
1	1530
1	8
1	1530
1	1530
1	1530
1	1530
1	1530
1	1530
1	1530
1	1530
1	1530
1	1530
1	46
1	1530
1	11
1	1530
1	46
1	1530
1	6
1	1530
1	1530
1	1530
1	1530
1	21
1	10
1	9
1	6
1	7
1	1530
1	1530
1	8
1	15
1	1530
1	21
1	1530
1	5
1	8
1	1530
1	1530
1	1530
1	1530
1	12
1	1530
1	1530
1	1530
1	1530
1	1530
1	5
1	1530
1	15
1	1530
1	1530
1	1530
1	1530
1	1530
1	1530
1	1530
1	9
1	1530
1	1530
1	1530
1	1530
1	7
1	9
1	1530
1	10
1	1530
1	1530
1	1530
1	1530
1	30
1	1530
1	1530
1	24
1	18
1	1530
1	1530
1	9
1	27
1	1530
1	1530
1	9
1	10
1	1530
1	1530
1	1530
1	1530
1	1530
1	1530
1	1530
1	1530
1	1530
1	1530
1	1530
1	1530
1	1530
1	16
1	6
1	9
1	1530
1	10
1	1530
1	1530
1	1530
1	8
1	1530
1	8
1	1530
1	1530
1	14
1	11
1	1530
1	1530
1	1530
1	13
1	1530
1	13
1	5
1	1530
1	1530
1	17
1	1530
1	1530
1	1530
1	1530
1	1530
1	6
1	1530
1	1530
1	12
1	9
1	1530
1	15
1	1530
1	30
1	1530
1	1530
1	4
1	1530
1	1530
1	8
1	1530
1	1530
1	1530
1	20
1	1530
1	18
1	1530
1	1530
1	5
1	1530
1	1530
1	1530
1	1530
1	1530
1	1530
1	1530
1	30
1	1530
1	1530
1	1530
1	27
1	1531
1	1530
1	1530
1	1530
1	46
1	1530
1	7
1	1530
1	1530
1	1530
1	6
1	1530
1	1530
1	1530
1	1530
1	19
1	5
1	10
1	1530
1	1530
1	1531
1	1530
1	1530
1	1530
1	1530
1	1530
1	24
1	1530
1	1530
1	15
1	1530
1	1530
1	1530
1	1530
1	1530
1	9
1	1530
1	6
1	1530
1	1530
1	1530
1	1530
1	1530
1	1530
1	6
1	12
1	1530
1	1530
1	1530
1	8
1	1530
1	9
1	1530
1	1530
1	1530
1	1530
1	1530
1	1530
1	1530
1	1530
1	1530
1	1530
1	9
1	1530
1	1531
1	1530
1	1530
1	1530
1	24
1	11
1	1530
1	30
1	1530
1	1530
1	1530
1	1530
1	12
1	24
1	1530
1	1530
1	1530
1	20
1	1530
1	1530
1	24
1	18
1	1530
1	1530
1	6
1	1530
1	1530
1	1530
1	6
1	1530
1	1530
1	8
1	9
1	1530
1	9
1	1530
1	1530
1	15
1	1531
1	1530
1	6
1	1530
1	1530
1	1530
1	21
1	1530
1	1530
1	1530
1	1530
1	1530
1	8
1	1530
1	1530
1	1530
1	5
1	1530
1	1530
1	9
1	1530
1	1530
1	1530
1	1530
1	1530
1	1530
1	9
1	1530
1	15
1	30
1	1530
1	1530
1	1530
1	1530
1	1530
1	27
1	1530
1	8
1	1530
1	1530
1	9
1	1530
1	1530
1	1530
1	1530
1	1530
1	1530
1	1530
1	1530
1	1530
1	1530
1	1530
1	24
1	1530
1	24
1	1530
1	1530
1	1530
1	1530
1	1530
1	1530
1	1530
1	1530
1	46
1	1530
1	1530
1	1530
1	1530
1	1530
1	27
1	13
1	1530
1	1530
1	1530
1	46
1	1530
1	1530
1	1530
1	1530
1	18
1	1530
1	1530
1	1530
1	1530
1	8
1	1530
1	1530
1	8
1	10
1	16
1	1530
1	9
1	8
1	15
1	1530
1	1530
1	1530
1	1530
1	1530
1	5
1	15
1	4
1	1530
1	1530
1	1530
1	1530
1	15
1	1530
1	1531
1	1530
1	11
1	1530
1	1530
1	1530
1	1530
1	1530
1	8
1	1530
1	1530
1	1530
1	1530
1	1530
1	1530
1	1530
1	1530
1	1530
1	1530
1	1530
1	1530
1	1530
1	1530
1	1530
1	1530
1	1530
1	1530
1	1530
1	1530
1	6124
1	6
1	1530
1	46
1	1530
1	7
1	1530
1	1530
1	7
1	1530
1	6
1	1530
1	1530
1	1530
1	1530
1	1530
1	1530
1	1530
1	1530
1	1530
1	1531
1	1530
1	1530
1	1530
1	7
1	1530
1	18
1	1530
1	1530
1	30
1	1530
1	8
1	18
1	1530
1	1530
1	1530
1	1530
1	1530
1	1530
1	24
1	1530
1	9
1	2
1	1530
1	1530
1	1530
1	24
1	1530
1	1530
1	1530
1	1530
1	1530
1	1530
1	1530
1	18
1	1530
1	1530
1	1530
1	1530
1	1530
1	1530
1	1530
1	7
1	1530
1	1530
1	1530
1	1530
1	1530
1	1530
1	1530
1	1530
1	6
1	1530
1	1530
1	1530
1	1530
1	1530
1	15
1	1530
1	1530
1	1530
1	1530
1	1530
1	1530
1	1530
1	1530
1	1530
1	24
1	1530
1	1530
1	1530
1	5
1	16
1	1530
1	21
1	1530
1	1530
1	30
1	15
1	1530
1	1530
1	1530
1	11
1	1530
1	20
1	1530
1	1530
1	1530
1	1530
1	1530
1	1530
1	5
1	24
1	1530
1	1530
1	9
1	1530
1	1530
1	1530
1	1530
1	46
1	1530
1	5
1	1530
1	7
1	1530
1	1530
1	1530
1	1530
1	1530
1	1530
1	1530
1	1530
1	6
1	1530
1	1530
1	5
2	10
2	9
2	3
2	9
2	3
2	3
2	4
2	8
2	8
2	18
2	10
2	1531
2	3
2	3
2	7
2	18
2	11
2	1531
2	5
2	1531
2	1531
2	5
2	7
2	4
2	12
2	10
2	14
2	4
2	7
2	3
2	3
2	19
2	3
2	7
2	10
2	3
2	3
2	7
2	3
2	10
2	7
2	3
2	6
2	6
2	3
2	3
2	25
2	8
2	13
2	3
2	13
2	4
2	3
2	5
2	6
2	3
2	5
2	3
2	8
2	3
2	31
2	14
2	29
2	3
2	8
2	9
2	6
2	4
2	19
2	5
2	16
2	3
2	3
2	4
2	10
2	4
2	3
2	6
2	16
2	6
2	5
2	7
2	15
2	6
2	3
2	25
2	3
2	7
2	3
2	3
2	16
2	1531
2	4
2	12
2	5
2	3
2	4
2	3
2	3
2	10
2	6
2	3
2	3
2	3
2	3
2	19
2	3
2	28
2	6
2	14
2	5
2	4
2	13
2	25
2	3
2	13
2	10
2	3
2	6
2	5
2	3
2	13
2	3
2	4
2	3
2	10
2	4
2	3
2	21
2	5
2	3
2	3
2	3
2	9
2	3
2	10
2	3
2	15
2	5
2	6
2	6
2	4
2	19
2	3
2	7
2	3
2	3
2	28
2	5
2	5
2	12
2	6
2	4
2	31
2	3
2	16
2	3
2	6
2	8
2	8
2	4
2	4
2	7
2	3
2	3
2	5
2	4
2	8
2	16
2	4
2	7
2	25
2	6
2	4
2	6
2	3
3	10
3	4
3	9
3	4
3	4
3	4
3	4
3	4
3	4
3	4
3	8
3	8
3	4
3	5
3	5
3	4
3	4
3	4
3	4
3	4
3	4
3	7
3	4
3	5
3	7
3	5
3	19
3	5
3	9
3	5
3	6
3	5
3	7
3	5
3	5
3	4
3	5
3	5
3	4
3	4
3	4
3	4
3	4
3	5
3	5
3	4
3	4
3	5
3	4
3	4
3	10
3	5
3	5
3	5
3	15
3	5
3	7
3	5
3	5
3	6
3	4
3	4
3	9
3	6
3	8
3	4
3	5
3	7
3	4
3	4
3	5
3	4
3	6
4	5
4	5
4	5
4	5
4	5
4	5
4	5
4	5
4	8
4	5
4	6
4	5
4	5
4	6
4	5
4	7
4	5
4	5
4	5
4	5
4	7
4	5
4	7
4	5
4	6
4	8
4	5
4	5
4	5
4	7
4	5
4	5
4	5
4	7
4	6
4	5
4	5
4	8
4	5
4	5
4	5
4	5
5	6
5	6
5	6
5	6
5	6
5	6
5	6
5	6
5	6
5	7
5	6
5	6
5	6
5	6
5	6
5	6
5	7
5	6
5	10
5	6
5	6
6	7
6	7
6	7
6	8
6	7
6	7
6	7
6	7
6	7
6	7
6	7
6	8
6	7
7	8
7	8
7	10
7	8
7	8
7	8
7	8
7	9
7	8
7	8
7	8
7	8
7	8
7	8
8	9
8	9
8	9
8	9
8	9
8	9
8	9
8	9
8	9
8	9
8	9
9	10
9	10
10	11
10	12
10	11
10	11
10	11
11	12
11	12
11	12
12	13
12	13
12	13
12	13
13	14
14	15
14	15
14	15
14	15
15	16
16	17
17	18
17	18
17	18
19	20
20	21
23	24
23	24
26	27
29	30
29	30
45	46
1529	1530
