1	6124
1	824
1	825
1	824
1	824
1	824
1	824
1	24
1	20
1	24
1	24
1	824
1	825
1	22
1	824
1	19
1	824
1	824
1	36
1	824
1	824
1	15
1	824
1	824
1	824
1	824
1	824
1	824
1	824
1	19
1	824
1	22
1	13
1	824
1	824
1	824
1	23
1	56
1	824
1	28
1	20
1	824
1	824
1	824
1	24
1	828
1	824
1	34
1	6124
1	22
1	824
1	824
1	824
1	824
1	824
1	28
1	824
1	824
1	21
1	824
1	14
1	55
1	824
1	12
1	824
1	59
1	824
1	824
1	17
1	35
1	22
1	824
1	824
1	11
1	824
1	824
1	824
1	824
1	23
1	824
1	824
1	824
1	16
1	824
1	12
1	18
1	824
1	824
1	824
1	824
1	824
1	12
1	824
1	11
1	11
1	824
1	824
1	824
1	20
1	824
1	824
1	18
1	824
1	8
1	824
1	824
1	824
1	11
1	824
1	829
1	6124
1	14
1	824
1	824
1	824
1	825
1	21
1	25
1	20
1	824
1	16
1	19
1	824
1	824
1	21
1	14
1	824
1	824
1	12
1	10
1	18
1	824
1	9
1	33
1	23
1	824
1	28
1	824
1	824
1	824
1	824
1	19
1	824
1	16
1	10
1	11
1	26
1	19
1	824
1	824
1	33
1	33
1	824
1	824
1	824
1	27
1	824
1	824
1	824
1	824
1	12
1	824
1	13
1	824
1	27
1	19
1	9
1	55
1	19
1	12
1	824
1	824
1	824
1	14
1	10
1	23
1	16
1	824
1	18
1	824
1	13
1	55
1	27
1	9
1	23
1	824
1	8
1	6
1	824
1	20
1	33
1	19
1	824
1	27
1	7
1	824
1	824
1	824
1	7
1	824
1	824
1	824
1	824
1	824
1	55
1	824
1	10
1	824
1	10
1	11
1	18
1	9
1	824
1	27
1	15
1	11
1	19
1	824
1	20
1	11
1	824
1	824
1	13
1	824
1	824
1	824
1	824
1	824
1	9
1	15
1	824
1	13
1	36
1	55
1	824
1	8
1	11
1	824
1	824
1	824
1	55
1	824
1	824
1	824
1	824
1	824
1	824
1	13
1	824
1	8
1	7
1	17
1	824
1	15
1	28
1	824
1	824
1	14
1	17
1	824
1	824
1	18
1	22
1	13
1	824
1	824
1	824
1	824
1	824
1	824
1	19
1	18
1	824
1	22
1	13
1	824
1	824
1	826
1	824
1	824
1	18
1	23
1	824
1	27
1	22
1	824
1	824
1	55
1	13
1	17
1	825
1	824
1	24
1	11
1	825
1	55
1	824
1	824
1	824
1	824
1	824
1	19
1	22
1	824
1	10
1	824
1	824
1	17
1	824
1	55
1	824
1	12
1	824
1	18
1	55
1	19
1	824
1	12
1	824
1	824
1	17
1	824
1	23
1	825
1	9
1	824
1	13
1	824
1	21
1	824
1	826
1	824
1	824
1	824
1	8
1	824
1	824
1	12
1	20
1	824
1	825
1	23
1	23
1	19
1	824
1	824
1	824
1	824
1	35
1	824
1	14
1	824
1	18
1	825
1	824
1	825
1	22
1	824
1	824
1	826
1	824
1	23
1	824
1	824
1	824
1	824
1	824
1	12
1	824
1	824
1	824
1	5
1	18
1	7
1	824
1	824
1	824
1	824
1	824
1	11
1	824
1	5
1	11
1	8
1	22
1	824
1	825
1	824
1	11
1	7
1	824
1	9
1	824
1	13
1	824
1	824
1	824
1	12
1	33
1	824
1	824
1	824
1	824
1	11
1	8
1	10
1	824
1	16
1	824
1	824
1	12
1	8
1	55
1	23
1	824
1	824
1	824
1	824
1	824
1	55
1	824
1	15
1	12
1	19
1	19
1	11
1	35
1	824
1	824
1	27
1	824
1	10
1	824
1	7
1	7
1	827
1	10
1	824
1	35
1	11
1	824
1	824
1	24
1	824
1	23
1	824
1	7
1	824
1	824
1	824
1	824
1	824
1	17
1	55
1	824
1	824
1	14
1	824
1	6124
1	824
1	824
1	824
1	15
1	19
1	824
1	824
1	824
1	18
1	824
1	825
1	55
1	19
1	22
1	14
1	20
1	23
1	824
1	16
1	7
1	19
1	55
1	35
1	10
1	10
1	55
1	824
1	824
1	27
1	824
1	824
1	824
1	824
1	824
1	824
1	6
1	21
1	824
1	18
1	824
1	824
1	824
1	22
1	824
1	3
1	824
1	27
1	6124
1	824
1	33
1	55
1	824
1	35
1	824
1	824
1	824
1	824
1	11
1	824
1	5
1	824
1	824
1	824
1	824
1	824
1	824
1	824
1	824
1	824
1	824
1	824
1	10
1	824
1	22
1	17
1	8
1	33
1	11
1	18
1	19
1	18
1	824
1	824
1	9
1	33
1	17
1	824
1	824
1	824
1	824
1	824
1	824
1	824
1	55
1	824
1	824
1	824
1	10
1	9
1	55
1	824
1	824
1	824
1	824
1	14
1	824
1	824
1	19
1	824
1	824
1	825
1	824
1	825
1	824
1	824
1	19
1	824
1	33
1	824
1	824
1	824
1	17
1	19
1	22
1	824
1	824
1	55
1	824
1	9
1	824
1	15
1	824
1	4
1	10
1	824
1	824
1	824
1	824
1	824
1	824
1	9
1	824
1	18
1	824
1	824
1	824
1	55
1	13
1	824
1	9
1	824
1	14
1	824
1	2
1	824
1	6
1	13
1	824
1	824
1	824
1	9
1	824
1	824
1	824
1	824
1	824
1	824
1	8
1	824
1	824
1	824
1	9
1	824
1	7
1	824
1	824
1	55
1	824
1	13
1	824
1	824
1	6
1	825
1	13
1	824
1	824
1	824
1	824
1	824
1	824
1	824
1	7
1	824
1	8
1	8
1	824
1	825
1	824
1	824
1	824
1	824
1	35
1	824
1	824
1	824
1	824
1	824
1	824
1	19
1	824
1	824
1	824
1	10
1	11
1	824
1	824
1	7
1	824
1	9
1	17
1	824
1	824
1	824
1	21
1	824
1	824
1	35
1	824
1	826
1	824
1	10
1	824
1	5
1	824
1	27
1	824
1	824
1	16
1	10
1	824
1	824
1	824
1	20
1	21
1	10
1	824
1	33
1	824
1	56
1	824
1	27
1	825
1	824
1	824
1	9
1	824
1	27
1	16
1	825
1	5
1	33
1	55
1	15
1	824
1	824
1	824
1	8
1	23
1	824
1	19
1	14
1	824
1	824
1	8
1	824
1	824
1	824
1	55
1	824
1	13
1	824
1	11
1	824
1	824
1	824
1	9
1	824
1	824
1	35
1	824
1	28
1	20
1	824
1	824
1	824
1	5
1	18
1	11
1	19
1	824
1	824
1	55
1	824
1	824
1	824
1	10
1	7
1	824
1	824
1	13
1	824
1	824
1	824
1	6
1	12
1	824
1	15
1	824
1	22
1	824
1	824
1	19
1	824
1	824
1	17
1	11
1	33
1	10
1	5
1	12
1	824
1	824
1	23
1	824
1	824
1	824
1	824
1	824
1	824
1	824
1	13
1	35
1	19
1	824
1	824
1	7
1	824
1	11
1	824
1	27
1	824
1	824
1	824
1	824
1	16
1	13
1	824
1	824
1	824
1	824
1	824
1	824
1	824
1	824
1	27
1	824
1	8
1	825
1	17
1	824
1	824
1	824
1	824
1	4
1	16
1	824
1	16
1	7
1	23
1	825
1	824
1	27
1	824
1	824
1	824
1	824
1	19
1	27
1	824
1	55
1	824
1	27
1	19
1	10
1	824
1	824
1	824
1	824
1	13
1	824
1	19
1	824
1	824
1	14
1	824
1	19
1	10
1	824
1	6
1	824
1	824
1	824
1	825
1	824
1	10
1	6
1	23
1	824
1	825
1	4
1	8
1	10
1	824
1	56
1	824
1	824
1	13
1	11
1	825
1	824
1	824
1	824
1	824
1	824
1	4
1	824
1	55
1	12
1	13
1	824
1	18
1	824
1	20
1	825
1	20
1	8
1	20
1	824
1	824
1	824
1	824
1	13
1	19
1	8
1	824
1	824
1	824
1	8
1	14
1	18
1	824
1	824
1	824
1	824
1	12
1	824
1	5
1	824
1	824
1	824
1	35
1	824
1	824
1	33
1	27
1	27
1	35
1	16
1	824
1	824
1	824
1	20
1	824
1	824
1	23
1	5
1	19
1	825
1	824
1	4
1	824
1	824
1	824
1	20
1	824
1	824
1	12
1	23
1	824
1	13
1	824
1	9
1	9
1	824
1	824
1	11
1	824
1	824
1	9
1	824
1	55
1	12
1	824
1	19
1	824
1	824
1	824
1	20
1	824
1	824
1	824
1	824
1	824
1	824
1	55
1	824
1	19
1	824
1	824
1	824
1	824
1	55
1	825
1	9
1	824
1	8
1	7
1	2
1	14
1	824
1	27
1	824
1	27
1	27
1	824
1	824
1	824
1	15
1	55
1	824
1	824
1	8
1	13
1	7
1	824
1	824
1	10
1	824
1	824
1	824
1	824
1	824
1	824
1	824
1	824
1	824
1	18
1	36
1	10
1	824
1	23
1	9
1	824
1	8
1	8
1	824
1	824
1	19
1	34
1	824
1	19
1	824
1	17
1	17
1	824
1	13
1	824
1	35
1	13
1	17
1	824
1	10
1	824
1	824
1	824
1	824
1	5
1	824
1	9
1	824
1	17
1	824
1	824
1	8
1	824
1	824
1	21
1	55
1	19
1	27
1	824
1	824
1	824
1	18
1	824
1	824
1	824
1	824
1	11
1	9
1	824
1	20
1	8
1	824
1	824
1	824
1	55
1	4
1	824
1	8
1	824
1	824
1	33
1	824
1	7
1	824
1	824
1	5
1	824
1	7
1	7
1	19
1	20
1	7
1	56
1	825
1	11
1	824
1	824
1	10
1	13
1	22
1	824
1	824
1	5
1	824
1	824
1	824
1	4
1	824
1	824
1	7
1	12
1	18
1	824
1	23
1	18
1	18
1	824
1	55
1	6
1	13
1	19
1	19
1	824
1	824
1	824
1	16
1	824
1	17
1	824
1	6
1	824
1	824
1	824
1	824
1	824
1	824
1	27
1	824
1	28
1	824
1	824
1	824
1	824
1	5
1	9
1	824
1	7
1	825
1	824
1	5
1	16
1	17
1	824
1	6
1	21
1	4
1	824
1	824
1	7
1	824
1	23
1	824
1	10
1	7
1	824
1	824
1	824
1	824
1	824
1	824
1	13
1	824
1	824
1	9
1	824
1	6
1	824
1	824
1	55
1	4
1	824
1	824
1	33
1	824
1	824
1	4
1	824
1	824
1	824
1	824
1	824
1	6124
1	8
1	13
1	824
1	18
1	15
1	824
1	824
1	825
1	824
1	824
1	824
1	824
1	5
1	7
1	824
1	27
1	824
1	824
1	19
1	824
1	15
1	824
1	824
1	9
1	18
1	6
1	11
1	20
1	824
1	9
1	824
1	18
1	824
1	824
1	8
1	825
1	824
1	33
1	824
1	824
1	824
1	824
1	824
1	824
1	824
1	27
1	21
1	6
1	33
1	55
1	824
1	13
1	825
1	824
1	18
1	824
1	10
1	7
1	22
1	824
1	27
1	10
1	11
1	824
1	824
1	824
1	21
1	824
1	824
1	19
1	19
1	824
1	824
1	824
1	824
1	824
1	11
1	824
1	824
1	824
1	3
1	824
1	8
1	824
1	35
2	19
2	4
2	10
2	6
2	16
2	17
2	825
2	3
2	7
2	9
2	3
2	3
2	8
2	5
2	10
2	7
2	6
2	13
2	4
2	3
2	18
2	3
2	3
2	825
2	3
2	7
2	3
2	9
2	14
2	3
2	7
2	8
2	3
2	6
2	8
2	8
2	3
2	3
2	8
2	4
2	5
2	3
2	3
2	8
2	3
2	19
2	3
2	11
2	3
2	3
2	3
2	10
2	8
2	3
2	3
2	11
2	3
2	3
2	9
2	3
2	3
2	3
2	3
2	3
2	10
2	8
2	3
2	9
2	20
2	8
2	3
2	3
2	3
2	3
2	3
2	4
2	3
2	5
2	3
2	3
2	5
2	18
2	3
2	18
2	23
2	4
2	20
2	9
2	825
2	16
2	36
2	3
2	4
2	7
2	14
2	3
2	3
2	3
2	7
2	6
2	10
2	3
2	4
2	23
2	3
2	7
2	17
2	5
2	4
2	5
2	8
2	8
2	11
2	3
2	36
2	8
2	3
2	3
2	6
2	9
2	10
2	17
2	3
2	3
2	7
2	20
2	3
2	7
2	11
2	18
2	4
2	7
2	3
2	9
2	3
2	34
2	4
2	5
2	3
2	5
2	5
2	19
2	4
2	3
2	3
2	8
2	3
2	4
2	4
2	4
2	4
2	4
2	7
2	8
2	4
2	4
2	7
2	6
2	4
2	4
2	21
2	3
2	3
2	8
2	6
2	7
2	22
2	5
2	5
2	3
2	8
2	8
2	6
2	8
2	7
2	4
2	24
2	3
2	6
2	4
2	3
2	24
2	5
2	7
2	8
2	4
2	11
2	7
2	3
2	3
2	3
2	17
2	19
2	28
2	4
2	4
2	4
2	4
2	5
2	23
2	5
2	25
2	5
2	3
2	5
2	7
2	4
2	3
2	3
2	13
2	15
2	11
2	7
2	4
2	56
2	17
2	9
2	5
2	11
2	5
2	4
2	3
2	3
2	3
2	3
2	8
2	3
2	6
2	7
2	9
2	3
2	10
2	6
3	5
3	4
3	4
3	12
3	6
3	4
3	5
3	11
3	15
3	6
3	5
3	5
3	4
3	4
3	5
3	4
3	4
3	5
3	4
3	4
3	8
3	6
3	5
3	5
3	4
3	8
3	5
3	5
3	7
3	4
3	4
3	8
3	12
3	5
3	4
3	4
3	9
3	4
3	5
3	6
3	9
3	5
3	4
3	4
3	4
3	5
3	6
3	5
3	4
3	9
3	4
3	5
3	11
3	4
3	4
3	4
3	11
3	7
3	7
3	6
3	6
3	4
3	5
4	5
4	5
4	6
4	5
4	6
4	5
4	5
4	6
4	5
4	11
4	5
4	5
4	6
4	6
4	5
4	5
4	5
4	8
4	5
4	5
4	5
4	5
4	5
4	6
4	5
4	5
4	6
4	5
4	5
4	6
4	5
4	7
4	9
4	5
4	7
5	6
5	6
5	6
5	6
5	7
5	7
5	6
5	6
5	7
5	6
5	7
5	7
5	6
5	6
5	6
5	6
5	6
5	7
5	6
6	7
6	7
6	7
6	7
6	7
6	7
6	7
6	7
6	7
6	7
6	7
6	8
6	7
6	7
6	7
6	7
6	7
6	7
7	8
7	8
7	8
7	8
7	8
7	8
7	8
8	9
8	9
8	9
8	9
8	10
8	9
8	9
9	10
9	10
9	10
9	10
9	10
9	10
9	10
10	11
10	11
10	11
11	12
12	13
12	13
12	13
12	13
12	13
13	14
14	15
14	15
15	16
15	16
16	17
16	17
17	18
17	18
17	18
18	19
18	19
18	19
18	19
19	20
20	21
21	22
22	23
22	23
26	27
26	27
32	33
34	35
54	55
823	824
