1	6124
1	19
1	32
1	15
1	14
1	14
1	650
1	649
1	649
1	649
1	649
1	13
1	649
1	61
1	649
1	60
1	15
1	19
1	60
1	649
1	649
1	60
1	14
1	649
1	11
1	649
1	649
1	13
1	649
1	649
1	17
1	31
1	18
1	649
1	649
1	649
1	649
1	649
1	649
1	649
1	649
1	649
1	649
1	17
1	13
1	649
1	6124
1	25
1	17
1	15
1	649
1	60
1	649
1	649
1	18
1	13
1	12
1	16
1	25
1	649
1	16
1	649
1	649
1	20
1	649
1	6124
1	649
1	34
1	649
1	649
1	649
1	649
1	15
1	14
1	11
1	14
1	649
1	60
1	649
1	649
1	649
1	15
1	60
1	16
1	649
1	14
1	649
1	15
1	649
1	11
1	60
1	24
1	649
1	5
1	9
1	649
1	11
1	649
1	2
1	15
1	12
1	26
1	649
1	649
1	27
1	16
1	10
1	7
1	17
1	14
1	6
1	12
1	649
1	26
1	19
1	15
1	649
1	649
1	10
1	649
1	649
1	649
1	15
1	11
1	12
1	15
1	649
1	650
1	649
1	649
1	11
1	5
1	649
1	15
1	649
1	11
1	650
1	649
1	649
1	12
1	651
1	60
1	649
1	9
1	15
1	649
1	14
1	60
1	13
1	649
1	649
1	649
1	17
1	24
1	649
1	649
1	649
1	10
1	11
1	649
1	20
1	24
1	15
1	15
1	649
1	19
1	649
1	9
1	649
1	14
1	14
1	5
1	8
1	12
1	13
1	25
1	9
1	649
1	12
1	6124
1	651
1	8
1	25
1	649
1	649
1	649
1	649
1	649
1	60
1	12
1	16
1	649
1	649
1	14
1	6
1	649
1	14
1	15
1	650
1	649
1	60
1	649
1	649
1	13
1	649
1	19
1	13
1	649
1	649
1	7
1	649
1	649
1	649
1	14
1	649
1	15
1	10
1	650
1	649
1	25
1	18
1	60
1	14
1	16
1	649
1	14
1	649
1	24
1	12
1	11
1	11
1	649
1	649
1	9
1	649
1	25
1	26
1	649
1	649
1	649
1	14
1	13
1	16
1	24
1	649
1	20
1	649
1	13
1	14
1	649
1	649
1	12
1	6
1	649
1	11
1	25
1	10
1	649
1	20
1	9
1	19
1	17
1	649
1	649
1	12
1	13
1	26
1	649
1	652
1	649
1	14
1	14
1	14
1	650
1	24
1	649
1	650
1	27
1	16
1	24
1	5
1	649
1	13
1	649
1	649
1	649
1	649
1	8
1	649
1	649
1	649
1	649
1	15
1	21
1	6
1	649
1	13
1	649
1	10
1	649
1	26
1	14
1	19
1	19
1	18
1	26
1	17
1	649
1	19
1	61
1	10
1	11
1	649
1	7
1	649
1	649
1	8
1	12
1	60
1	9
1	649
1	9
1	11
1	649
1	649
1	649
1	3
1	10
1	649
1	649
1	649
1	9
1	649
1	649
1	649
1	649
1	649
1	649
1	649
1	26
1	13
1	14
1	649
1	15
1	22
1	649
1	649
1	10
1	15
1	29
1	8
1	18
1	649
1	18
1	649
1	13
1	649
1	18
1	649
1	5
1	649
1	13
1	15
1	23
1	14
1	8
1	19
1	12
1	13
1	649
1	649
1	60
1	649
1	15
1	649
1	26
1	650
1	8
1	15
1	649
1	17
1	25
1	649
1	15
1	8
1	649
1	16
1	6
1	22
1	14
1	649
1	9
1	19
1	19
1	10
1	4
1	10
1	19
1	649
1	649
1	649
1	14
1	649
1	649
1	14
1	649
1	649
1	13
1	12
1	649
1	17
1	15
1	650
1	7
1	26
1	649
1	18
1	12
1	11
1	9
1	10
1	16
1	649
1	649
1	649
1	649
1	17
1	649
1	12
1	649
1	649
1	19
1	13
1	12
1	19
1	649
1	5
1	13
1	649
1	649
1	12
1	649
1	649
1	649
1	649
1	649
1	15
1	649
1	649
1	5
1	7
1	649
1	13
1	25
1	11
1	15
1	649
1	649
1	649
1	649
1	10
1	649
1	649
1	649
1	649
1	649
1	60
1	9
1	5
1	15
1	649
1	12
1	649
1	649
1	8
1	651
1	15
1	649
1	16
1	649
1	649
1	649
1	649
1	649
1	9
1	11
1	649
1	649
1	25
1	12
1	10
1	14
1	5
1	649
1	8
1	649
1	649
1	31
1	649
1	11
1	8
1	649
1	650
1	649
1	649
1	650
1	26
1	10
1	649
1	649
1	9
1	16
1	649
1	12
1	22
1	10
1	5
1	649
1	19
1	649
1	9
1	27
1	650
1	649
1	649
1	649
1	14
1	649
1	649
1	649
1	649
1	649
1	7
1	649
1	17
1	12
1	649
1	21
1	10
1	649
1	14
1	649
1	60
1	649
1	649
1	649
1	649
1	649
1	26
1	649
1	11
1	24
1	10
1	650
1	7
1	649
1	4
1	649
1	649
1	10
1	649
1	649
1	9
1	4
1	9
1	25
1	6
1	649
1	13
1	7
1	11
1	649
1	651
1	6
1	6
1	649
1	9
1	5
1	14
1	649
1	649
1	649
1	649
1	649
1	649
1	18
1	649
1	15
1	8
1	5
1	15
1	649
1	13
1	649
1	18
1	649
1	649
1	649
1	649
1	649
1	25
1	649
1	31
1	23
1	649
1	24
1	12
1	12
1	7
1	649
1	24
1	649
1	17
1	649
1	649
1	649
1	25
1	17
1	649
1	26
1	26
1	649
1	649
1	649
1	649
1	2
1	9
1	649
1	60
1	8
1	24
1	9
1	649
1	649
1	649
1	12
1	649
1	12
1	649
1	649
1	649
1	8
1	10
1	649
1	7
1	8
1	649
1	9
1	649
1	649
1	12
1	649
1	649
1	649
1	20
1	649
1	15
1	13
1	14
1	60
1	5
1	649
1	16
1	649
1	24
1	649
1	649
1	649
1	649
1	5
1	6
1	649
1	12
1	649
1	26
1	650
1	649
1	7
1	10
1	15
1	649
1	60
1	649
1	649
1	7
1	9
1	649
1	10
1	10
1	13
1	24
1	10
1	649
1	12
1	22
1	649
1	5
1	649
1	650
1	10
1	12
1	9
1	649
1	650
1	9
1	649
1	9
1	649
1	24
1	649
1	7
1	7
1	22
1	7
1	649
1	10
1	10
1	649
1	649
1	24
1	649
1	649
1	6
1	15
1	8
1	649
1	18
1	650
1	649
1	649
1	649
1	649
1	649
1	9
1	31
1	9
1	8
1	649
1	649
1	14
1	649
1	649
1	649
1	649
1	20
1	649
1	649
1	16
1	12
1	24
1	25
1	649
1	25
1	6
1	19
1	9
1	650
1	649
1	13
1	649
1	649
1	12
1	24
1	649
1	31
1	649
1	7
1	649
1	649
1	26
1	20
1	6
1	649
1	649
1	24
1	7
1	649
1	649
1	649
1	649
1	649
1	9
1	649
1	649
1	25
1	649
1	6
1	31
1	7
1	5
1	649
1	9
1	26
1	60
1	13
1	649
1	60
1	12
1	649
1	12
1	18
1	31
1	13
1	649
1	9
1	9
1	12
1	12
1	649
1	10
1	649
1	9
1	649
1	4
1	649
1	26
1	649
1	649
1	8
1	649
1	8
1	9
1	649
1	9
1	649
1	4
1	12
1	649
1	5
1	649
1	10
1	22
1	5
1	649
1	649
1	17
1	649
1	60
1	649
1	649
1	649
1	649
1	19
1	11
1	11
1	12
1	12
1	5
1	19
1	10
1	649
1	649
1	5
1	17
1	649
1	7
1	649
1	649
1	11
1	10
1	9
1	649
1	649
1	9
1	12
1	9
1	649
1	649
1	12
1	22
1	7
1	13
1	649
1	649
1	7
1	14
1	649
1	649
1	649
1	649
1	649
1	10
1	8
1	649
1	15
1	649
1	649
1	649
1	13
1	16
1	9
1	649
1	649
1	649
1	649
1	4
1	6
1	12
1	649
1	649
1	60
1	649
1	24
1	13
1	6
1	649
1	19
1	6
1	9
1	649
1	9
1	16
1	12
1	649
1	7
1	649
1	649
1	649
1	649
1	13
1	6
1	649
1	13
1	60
1	6
1	10
1	60
1	8
1	649
1	19
1	649
1	18
1	22
1	16
1	649
1	12
1	649
1	8
1	8
1	649
1	16
1	16
1	649
1	15
1	649
1	6
1	649
1	10
1	4
1	24
1	7
1	649
1	649
1	17
1	60
1	7
1	649
1	649
1	60
1	11
1	8
1	649
1	649
1	16
1	5
1	7
1	649
1	649
1	5
1	649
1	14
1	649
1	25
1	649
1	649
1	649
1	649
1	26
1	9
1	31
1	649
1	12
1	15
1	15
1	8
1	10
1	7
1	649
1	649
1	5
1	6
1	9
1	649
1	649
1	649
1	649
1	5
1	15
1	10
1	650
1	649
1	649
1	13
1	31
1	649
1	18
1	649
1	649
1	9
1	5
1	24
1	649
1	14
1	31
1	649
1	649
1	10
1	649
1	10
1	649
1	8
1	649
1	10
1	649
1	650
1	649
1	649
1	16
1	649
1	649
1	649
1	9
1	9
1	649
1	10
1	8
1	10
1	649
1	25
1	9
1	24
1	649
1	9
1	649
1	649
1	649
1	649
1	649
1	649
1	10
1	649
1	17
1	649
1	12
1	60
1	25
1	10
1	6
1	25
1	649
1	649
1	649
1	649
1	649
1	19
1	649
1	649
1	649
1	649
1	649
1	649
1	649
1	25
1	649
1	15
1	5
1	26
1	60
1	12
1	9
1	649
1	5
1	5
1	8
1	649
1	25
1	649
1	8
1	12
1	60
1	649
1	650
1	13
1	11
1	649
1	649
1	12
1	12
1	14
1	19
1	649
1	12
1	31
1	649
1	649
1	8
1	649
1	649
1	649
1	22
1	20
1	649
1	10
1	649
1	649
1	649
1	10
1	19
1	11
1	25
1	649
1	649
1	7
1	649
1	16
1	9
1	649
1	649
1	31
1	15
1	31
1	649
1	6
1	649
1	649
1	649
1	649
1	14
1	649
1	649
1	650
1	649
1	11
1	649
1	649
1	22
1	649
1	649
1	649
1	649
1	649
1	649
1	17
1	31
1	649
1	6
1	649
1	649
1	22
1	649
1	649
1	649
1	649
1	6
2	650
2	3
2	650
2	3
2	3
2	5
2	19
2	3
2	6
2	16
2	7
2	3
2	3
2	3
2	15
2	7
2	6
2	3
2	12
2	12
2	8
2	12
2	3
2	3
2	6
2	3
2	10
2	3
2	7
2	11
2	9
2	10
2	5
2	16
2	3
2	3
2	3
2	4
2	11
2	3
2	10
2	4
2	11
2	7
2	9
2	3
2	3
2	3
2	3
2	4
2	3
2	3
2	6
2	3
2	9
2	5
2	8
2	15
2	3
2	9
2	3
2	650
2	3
2	11
2	8
2	650
2	651
2	6
2	5
2	10
2	3
2	4
2	23
2	19
2	4
2	3
2	7
2	3
2	5
2	6
2	10
2	4
2	3
2	8
2	14
2	3
2	10
2	11
2	5
2	12
2	7
2	4
2	6
2	10
2	4
2	3
2	9
2	15
2	27
2	3
2	4
2	5
2	14
2	18
2	9
2	16
2	651
2	20
2	4
2	5
2	3
2	5
2	3
2	3
2	13
2	3
2	4
2	9
2	8
2	25
2	3
2	9
2	3
2	3
2	7
2	10
2	11
2	5
2	5
2	3
2	3
2	19
2	9
2	4
2	3
2	19
2	3
2	4
2	5
2	4
2	9
2	9
2	8
2	3
2	5
2	5
2	3
2	4
2	15
2	6
2	7
2	20
2	10
2	3
2	4
2	6
2	4
2	650
2	4
2	13
2	3
2	3
2	3
2	12
2	8
2	3
2	3
2	5
2	10
2	5
2	3
2	4
2	8
2	9
2	3
2	3
2	5
2	4
2	7
2	3
2	4
2	4
2	7
2	3
2	3
2	4
2	13
2	4
2	4
2	3
2	4
2	3
2	3
2	4
2	3
2	7
2	19
2	3
2	3
2	5
2	3
2	3
2	5
2	3
2	6
2	4
2	4
2	3
2	11
2	4
2	7
2	11
2	10
2	3
2	14
2	3
2	3
2	4
2	4
2	7
2	7
2	3
2	3
2	10
2	11
2	16
2	5
2	4
2	4
2	4
2	3
2	3
2	3
2	9
2	4
2	4
2	7
2	20
2	4
3	7
3	11
3	5
3	5
3	4
3	4
3	4
3	16
3	4
3	5
3	5
3	14
3	4
3	4
3	4
3	7
3	5
3	5
3	4
3	4
3	4
3	7
3	7
3	5
3	6
3	6
3	4
3	6
3	4
3	5
3	5
3	6
3	4
3	5
3	4
3	12
3	6
3	6
3	4
3	7
3	4
3	4
3	4
3	8
3	5
3	9
3	4
3	5
3	5
3	4
3	5
3	4
3	7
3	9
3	4
3	5
3	4
3	5
3	9
3	5
3	4
3	4
3	5
3	5
3	4
3	8
3	4
3	4
3	10
3	9
3	4
3	5
3	4
3	8
3	4
3	5
3	4
3	4
3	4
3	9
3	5
4	5
4	5
4	5
4	5
4	5
4	5
4	5
4	5
4	5
4	5
4	5
4	5
4	5
4	5
4	5
4	5
4	5
4	5
4	5
4	5
4	5
4	5
4	5
4	5
4	5
4	6
4	6
4	5
4	6
4	13
4	5
4	6
4	5
4	5
4	5
4	5
4	6
4	6
4	5
4	5
4	6
4	5
5	6
5	6
5	6
5	6
5	7
5	6
5	6
5	6
5	6
5	7
5	6
5	6
5	6
5	6
5	7
5	6
5	8
5	8
5	6
5	7
5	6
5	6
5	6
5	6
5	6
5	6
5	6
6	7
6	7
6	7
6	8
6	8
6	7
6	7
6	7
6	7
6	7
6	7
6	7
6	7
6	7
6	7
6	7
6	7
6	8
7	8
7	8
7	8
7	8
7	8
7	8
7	8
7	8
7	8
7	8
7	8
8	9
8	9
8	9
8	9
8	9
8	9
8	9
8	9
8	9
8	9
8	9
8	9
8	9
8	9
8	9
8	9
9	10
9	10
9	10
9	10
9	10
9	10
9	10
9	10
9	10
10	11
10	11
10	11
11	12
11	13
11	12
11	12
11	12
11	12
11	12
11	12
11	12
11	12
12	13
12	13
12	13
12	13
13	14
13	14
13	14
13	14
14	15
14	15
14	15
15	16
15	16
16	17
16	17
17	18
17	18
17	19
18	19
18	19
21	22
23	24
23	24
24	25
24	25
25	26
30	31
59	60
648	649
