1	6124
1	931
1	931
1	17
1	16
1	930
1	930
1	14
1	15
1	13
1	17
1	17
1	14
1	930
1	930
1	18
1	13
1	930
1	23
1	930
1	930
1	59
1	40
1	930
1	930
1	17
1	17
1	22
1	25
1	52
1	13
1	930
1	930
1	930
1	17
1	21
1	930
1	68
1	930
1	930
1	9
1	13
1	16
1	930
1	21
1	21
1	930
1	67
1	14
1	930
1	12
1	16
1	930
1	28
1	21
1	930
1	930
1	26
1	11
1	930
1	28
1	930
1	20
1	930
1	930
1	930
1	930
1	930
1	15
1	930
1	930
1	27
1	930
1	930
1	930
1	930
1	930
1	12
1	930
1	13
1	930
1	13
1	930
1	930
1	930
1	930
1	930
1	16
1	15
1	16
1	930
1	15
1	51
1	930
1	16
1	930
1	58
1	14
1	14
1	930
1	930
1	930
1	25
1	66
1	932
1	53
1	930
1	16
1	15
1	58
1	11
1	22
1	9
1	930
1	68
1	27
1	930
1	16
1	930
1	930
1	24
1	930
1	930
1	12
1	931
1	59
1	13
1	17
1	930
1	930
1	9
1	31
1	56
1	11
1	930
1	30
1	26
1	58
1	930
1	930
1	25
1	931
1	15
1	930
1	930
1	930
1	9
1	14
1	930
1	21
1	930
1	39
1	12
1	931
1	930
1	930
1	930
1	930
1	15
1	930
1	14
1	29
1	930
1	12
1	12
1	25
1	17
1	930
1	930
1	15
1	930
1	13
1	930
1	930
1	66
1	14
1	13
1	11
1	15
1	16
1	51
1	24
1	930
1	930
1	11
1	930
1	22
1	24
1	930
1	930
1	10
1	930
1	51
1	930
1	930
1	930
1	25
1	930
1	16
1	20
1	13
1	59
1	930
1	10
1	24
1	58
1	4
1	7
1	40
1	930
1	10
1	21
1	930
1	930
1	930
1	930
1	39
1	930
1	4
1	930
1	51
1	930
1	13
1	930
1	930
1	16
1	930
1	6
1	13
1	7
1	930
1	930
1	7
1	66
1	11
1	24
1	930
1	930
1	930
1	11
1	13
1	930
1	14
1	930
1	66
1	930
1	10
1	13
1	58
1	10
1	19
1	14
1	9
1	931
1	67
1	17
1	14
1	930
1	930
1	930
1	930
1	20
1	13
1	930
1	930
1	930
1	930
1	930
1	930
1	930
1	930
1	930
1	8
1	930
1	930
1	930
1	9
1	11
1	930
1	930
1	930
1	39
1	66
1	930
1	12
1	58
1	930
1	930
1	930
1	10
1	21
1	930
1	51
1	8
1	12
1	930
1	24
1	13
1	15
1	21
1	12
1	930
1	930
1	930
1	930
1	930
1	930
1	11
1	930
1	15
1	24
1	930
1	54
1	930
1	25
1	20
1	930
1	24
1	930
1	930
1	19
1	21
1	930
1	930
1	930
1	16
1	8
1	930
1	11
1	9
1	13
1	11
1	930
1	20
1	930
1	930
1	19
1	11
1	39
1	12
1	16
1	11
1	19
1	930
1	19
1	930
1	930
1	930
1	66
1	66
1	9
1	24
1	21
1	11
1	930
1	8
1	12
1	53
1	10
1	51
1	24
1	24
1	930
1	8
1	10
1	930
1	9
1	930
1	30
1	16
1	930
1	930
1	13
1	930
1	930
1	930
1	9
1	930
1	20
1	10
1	15
1	51
1	930
1	11
1	930
1	30
1	930
1	51
1	30
1	930
1	11
1	20
1	11
1	13
1	931
1	21
1	930
1	930
1	930
1	930
1	930
1	51
1	930
1	11
1	930
1	930
1	930
1	19
1	7
1	15
1	14
1	930
1	930
1	8
1	66
1	930
1	9
1	930
1	930
1	930
1	25
1	20
1	930
1	21
1	9
1	931
1	930
1	39
1	930
1	23
1	930
1	930
1	930
1	20
1	16
1	930
1	7
1	930
1	6
1	11
1	25
1	24
1	8
1	20
1	20
1	930
1	39
1	20
1	930
1	930
1	930
1	51
1	930
1	12
1	930
1	930
1	8
1	930
1	930
1	13
1	930
1	14
1	21
1	9
1	930
1	15
1	930
1	26
1	931
1	12
1	24
1	930
1	14
1	930
1	930
1	10
1	7
1	930
1	931
1	13
1	930
1	9
1	39
1	24
1	930
1	15
1	11
1	930
1	15
1	14
1	930
1	930
1	19
1	930
1	13
1	930
1	930
1	930
1	10
1	930
1	30
1	930
1	930
1	53
1	14
1	58
1	930
1	930
1	39
1	930
1	930
1	930
1	21
1	21
1	930
1	930
1	19
1	930
1	12
1	16
1	930
1	930
1	930
1	930
1	17
1	20
1	930
1	9
1	930
1	930
1	24
1	16
1	14
1	930
1	24
1	10
1	12
1	930
1	24
1	930
1	930
1	930
1	21
1	10
1	5
1	14
1	25
1	930
1	930
1	19
1	5
1	13
1	39
1	7
1	930
1	930
1	4
1	930
1	930
1	58
1	11
1	11
1	930
1	930
1	930
1	14
1	930
1	931
1	930
1	14
1	930
1	12
1	930
1	930
1	8
1	21
1	930
1	13
1	27
1	13
1	9
1	930
1	4
1	930
1	58
1	930
1	13
1	932
1	58
1	930
1	13
1	930
1	930
1	8
1	930
1	930
1	51
1	7
1	12
1	9
1	20
1	8
1	13
1	930
1	930
1	930
1	930
1	5
1	930
1	930
1	930
1	930
1	930
1	51
1	930
1	21
1	930
1	930
1	930
1	930
1	15
1	12
1	5
1	930
1	11
1	930
1	930
1	24
1	930
1	15
1	931
1	930
1	930
1	930
1	19
1	11
1	930
1	11
1	8
1	7
1	21
1	930
1	14
1	7
1	930
1	24
1	7
1	11
1	22
1	12
1	27
1	930
1	9
1	930
1	9
1	9
1	8
1	9
1	930
1	930
1	21
1	13
1	6
1	930
1	930
1	930
1	26
1	19
1	24
1	10
1	14
1	930
1	930
1	930
1	58
1	930
1	13
1	12
1	9
1	930
1	59
1	19
1	51
1	930
1	930
1	24
1	930
1	21
1	930
1	11
1	6
1	930
1	66
1	14
1	21
1	930
1	5
1	930
1	5
1	11
1	930
1	9
1	930
1	9
1	21
1	930
1	11
1	930
1	58
1	930
1	14
1	12
1	930
1	931
1	9
1	39
1	24
1	930
1	930
1	6
1	27
1	21
1	930
1	930
1	66
1	930
1	930
1	930
1	930
1	930
1	9
1	930
1	930
1	10
1	7
1	930
1	17
1	930
1	930
1	930
1	930
1	930
1	10
1	930
1	930
1	23
1	5
1	930
1	930
1	58
1	4
1	930
1	930
1	30
1	930
1	930
1	930
1	14
1	930
1	58
1	12
1	930
1	930
1	10
1	13
1	930
1	20
1	930
1	15
1	21
1	930
1	12
1	931
1	930
1	15
1	930
1	21
1	931
1	13
1	930
1	12
1	930
1	11
1	24
1	930
1	930
1	11
1	58
1	930
1	10
1	930
1	930
1	24
1	23
1	930
1	60
1	66
1	58
1	930
1	20
1	12
1	930
1	930
1	9
1	12
1	930
1	8
1	15
1	6
1	930
1	930
1	13
1	930
1	12
1	930
1	58
1	930
1	7
1	21
1	930
1	930
1	930
1	9
1	14
1	930
1	24
1	930
1	13
1	9
1	930
1	25
1	930
1	930
1	21
1	930
1	51
1	12
1	8
1	930
1	930
1	930
1	930
1	12
1	930
1	930
1	930
1	12
1	15
1	66
1	30
1	6
1	8
1	9
1	930
1	15
1	12
1	21
1	17
1	6124
1	15
1	21
1	6
1	31
1	20
1	11
1	24
1	30
1	930
1	930
1	930
1	930
1	930
1	24
1	930
1	930
1	12
1	930
1	930
1	58
1	18
1	930
1	930
1	930
1	930
1	11
1	13
1	930
1	20
1	10
1	930
1	930
1	930
1	4
1	930
1	930
1	17
1	51
1	58
1	930
1	13
1	930
1	930
1	930
1	26
1	930
1	930
1	6
1	930
1	24
1	930
1	930
1	26
1	66
1	931
1	930
1	930
1	10
1	930
1	58
1	930
1	930
1	24
1	14
1	4
1	930
1	30
1	14
1	24
1	930
1	930
1	930
1	930
1	930
1	930
1	930
1	930
1	930
1	12
1	18
1	23
1	16
1	930
1	13
1	930
1	13
1	11
1	19
1	930
1	10
1	930
1	9
1	930
1	7
1	13
1	58
1	21
1	52
1	930
1	930
1	15
1	12
1	7
1	14
1	16
1	15
1	24
1	930
1	930
1	930
1	930
1	930
1	67
1	20
1	930
1	930
1	14
1	9
1	930
1	11
1	930
1	14
1	930
1	20
1	930
1	21
1	8
1	930
1	930
1	930
1	930
1	20
1	8
1	930
1	6
1	19
1	930
1	930
1	930
1	930
1	7
1	20
1	10
1	7
1	8
1	930
1	930
1	930
1	66
1	930
1	51
1	21
1	12
1	6
1	22
1	10
1	21
1	30
1	930
1	25
1	930
1	18
1	930
1	930
1	8
1	14
1	930
1	24
1	7
1	930
1	66
1	930
1	930
1	6
1	930
1	930
1	930
1	930
1	930
1	25
1	930
1	11
1	930
1	7
1	930
1	930
1	10
1	930
1	14
1	11
1	5
1	930
1	58
1	11
1	15
1	17
1	12
1	5
1	11
1	930
1	930
1	11
1	930
1	17
1	13
1	13
1	930
1	930
1	5
1	13
1	930
1	51
1	930
1	12
1	931
1	10
1	4
1	930
1	5
1	8
1	930
1	16
1	5
1	930
1	27
1	12
1	8
1	930
1	12
1	930
1	6
1	930
1	39
1	19
1	13
1	930
1	930
1	930
1	930
1	11
1	59
1	930
1	930
1	23
1	13
1	930
1	930
1	25
1	39
1	51
1	20
1	930
1	7
1	930
1	15
1	930
1	930
1	930
1	930
1	930
1	11
1	11
1	21
1	66
1	930
1	15
1	13
1	930
1	9
1	930
1	930
1	13
1	24
1	930
1	14
1	7
1	930
1	930
1	16
1	930
1	930
1	930
1	10
1	13
1	930
1	930
1	930
1	5
1	930
1	930
1	17
1	10
1	13
1	930
1	18
1	24
1	9
1	7
1	39
1	13
1	930
1	930
1	9
1	930
1	21
1	930
1	930
1	20
1	930
1	25
1	930
1	930
1	930
1	11
1	930
1	7
1	930
1	21
1	21
1	930
1	66
1	930
1	21
1	930
1	15
1	930
1	15
1	17
1	930
1	930
1	930
1	20
1	930
1	9
1	39
1	10
1	15
1	930
1	930
1	27
1	24
1	930
1	930
1	39
1	16
1	54
1	13
1	51
1	930
1	930
1	930
1	930
1	930
1	20
1	930
1	14
1	930
1	7
1	10
1	9
1	9
1	930
1	930
1	14
1	10
1	39
1	9
1	25
1	930
1	20
1	6
1	13
1	14
1	10
1	27
1	18
1	8
1	13
1	20
1	8
1	930
1	66
1	12
1	930
1	930
1	24
1	10
1	930
1	930
1	930
1	930
1	39
1	930
1	930
1	930
1	58
1	20
1	930
1	7
1	930
1	930
1	13
1	13
1	58
1	10
1	58
1	6
1	930
1	12
1	9
1	16
1	930
1	66
1	930
1	930
1	11
1	930
1	930
1	930
1	29
1	59
1	930
1	930
1	930
1	930
1	11
1	21
1	930
1	39
1	930
1	930
1	25
1	930
1	14
1	930
1	13
1	9
1	19
1	21
1	930
1	930
1	931
1	930
1	21
1	13
1	930
1	930
1	6
1	20
1	930
1	930
1	930
1	930
1	15
1	12
1	930
1	930
1	8
1	930
1	930
1	8
1	930
1	930
1	930
1	930
1	58
1	20
1	930
1	930
1	39
1	13
1	59
1	930
1	5
1	16
1	7
1	24
1	930
1	930
1	13
1	930
1	930
1	11
1	930
1	930
1	930
1	16
1	21
1	930
1	930
1	16
1	10
1	7
1	15
1	930
1	11
1	930
1	930
1	8
1	10
1	930
1	7
1	10
1	8
1	930
1	9
1	930
1	24
1	20
1	10
1	930
1	930
1	30
1	930
1	24
1	930
1	10
1	930
1	10
1	9
1	24
1	930
1	930
1	930
1	930
1	930
1	930
1	39
1	930
1	5
1	66
1	9
1	930
1	930
1	930
1	9
1	27
1	930
1	10
1	8
1	930
1	10
1	930
1	930
1	5
1	12
1	930
1	10
1	930
1	930
1	15
1	51
1	931
1	930
1	12
1	7
1	930
1	9
1	9
1	8
1	13
1	930
1	5
1	6
1	8
1	930
1	11
1	17
1	20
1	930
1	21
1	930
1	930
1	930
1	6
1	6
1	930
1	24
1	930
1	930
1	930
1	931
1	66
1	930
1	8
1	13
1	25
1	930
1	51
1	930
1	15
1	5
1	9
1	930
1	16
1	930
1	4
1	930
1	9
1	5
1	27
1	9
1	930
1	930
1	16
1	930
1	930
1	930
1	930
1	51
1	930
1	13
1	930
1	930
1	14
1	10
1	930
1	13
1	6
1	9
1	5
1	12
1	930
1	930
1	930
1	930
1	930
1	21
1	930
1	39
1	930
1	931
1	930
1	15
1	51
1	8
1	930
1	20
1	20
1	66
1	931
1	13
1	930
1	10
1	930
1	930
1	930
1	21
1	10
1	24
1	930
1	930
1	930
1	13
1	930
1	930
1	15
1	6
1	930
1	930
1	930
1	5
1	2
1	13
1	22
1	930
1	66
1	12
1	51
1	23
1	5
1	18
1	10
1	930
1	930
1	8
1	930
1	11
1	8
1	930
1	25
1	21
1	930
1	13
1	930
1	930
1	14
1	9
1	31
1	21
1	930
1	930
1	21
1	12
1	12
1	930
1	930
1	930
1	21
1	930
1	15
1	4
1	930
1	930
1	21
1	9
1	930
1	930
1	930
1	930
1	4
1	39
1	8
1	930
1	17
1	13
1	930
1	930
1	930
1	20
1	15
1	930
1	12
1	8
1	12
1	930
1	930
1	930
1	930
1	27
1	12
1	8
1	6
1	11
1	9
1	930
1	51
1	7
1	930
1	21
1	21
1	930
1	7
1	5
1	930
1	21
1	930
1	930
1	930
1	930
1	16
1	930
1	5
1	39
1	5
1	930
1	930
1	10
1	930
1	930
1	12
1	930
1	21
1	15
1	23
1	21
1	20
1	930
1	8
1	930
1	930
1	4
1	930
1	930
1	930
1	930
1	930
1	930
1	930
1	10
1	930
1	21
1	930
1	930
1	12
1	930
1	21
1	930
1	930
1	9
1	930
1	10
1	11
1	930
1	39
1	11
1	931
1	931
1	27
1	930
1	16
1	9
1	4
1	8
1	930
1	930
2	7
2	3
2	3
2	3
2	3
2	11
2	3
2	6
2	9
2	931
2	11
2	10
2	9
2	14
2	9
2	13
2	5
2	6
2	3
2	4
2	931
2	19
2	6
2	9
2	14
2	3
2	3
2	10
2	9
2	6
2	4
2	3
2	9
2	4
2	12
2	8
2	11
2	7
2	12
2	3
2	13
2	3
2	3
2	5
2	6
2	17
2	931
2	3
2	67
2	3
2	3
2	3
2	931
2	9
2	7
2	6
2	3
2	931
2	4
2	5
2	6
2	5
2	6
2	3
2	3
2	6
2	10
2	3
2	8
2	4
2	8
2	28
2	15
2	3
2	6
2	3
2	3
2	10
2	3
2	4
2	12
2	3
2	3
2	6
2	59
2	8
2	3
2	7
2	4
2	3
2	4
2	3
2	13
2	3
2	4
2	20
2	3
2	14
2	31
2	16
2	7
2	3
2	4
2	3
2	4
2	9
2	8
2	8
2	9
2	26
2	3
2	4
2	4
2	4
2	6
2	6
2	4
2	12
2	931
2	6
2	4
2	12
2	3
2	931
2	3
2	3
2	6
2	5
2	4
2	931
2	6
2	6
2	4
2	6
2	31
2	4
2	20
2	3
2	4
2	10
2	8
2	6
2	6
2	8
2	3
2	3
2	13
2	31
2	10
2	20
2	5
2	3
2	4
2	4
2	3
2	10
2	7
2	14
2	11
2	67
2	4
2	3
2	24
2	4
2	12
2	4
2	7
2	4
2	931
2	3
2	3
2	7
2	6
2	3
2	3
2	4
2	4
2	4
2	6
2	10
2	5
2	8
2	8
2	25
2	10
2	3
2	4
2	6
2	3
2	4
2	3
2	13
2	3
2	15
2	10
2	4
2	4
2	7
2	3
2	4
2	3
2	4
2	7
2	26
2	6
2	3
2	3
2	8
2	3
2	3
2	7
2	10
2	4
2	3
2	6
2	20
2	4
2	13
2	9
2	21
2	3
2	4
2	4
2	931
2	4
2	3
2	3
2	4
2	20
2	4
2	3
2	3
2	9
2	3
2	3
2	3
2	3
2	3
2	3
2	6
2	7
2	6
2	28
2	3
2	3
2	3
2	4
2	3
2	4
2	19
2	13
2	8
2	3
2	10
2	4
2	6
2	16
2	3
2	10
2	3
2	4
2	9
2	4
2	6
2	22
2	3
2	4
2	4
2	11
2	3
2	3
2	3
2	14
2	4
2	6
2	3
2	11
2	4
2	6
2	3
2	3
2	8
2	4
2	4
2	4
2	4
2	3
2	16
2	4
2	26
2	5
2	4
2	11
2	8
2	12
2	4
2	4
3	5
3	4
3	5
3	4
3	4
3	8
3	6
3	6
3	4
3	5
3	4
3	4
3	5
3	5
3	15
3	8
3	4
3	7
3	7
3	4
3	5
3	13
3	5
3	7
3	5
3	11
3	7
3	5
3	4
3	5
3	5
3	4
3	12
3	5
3	4
3	4
3	5
3	7
3	13
3	4
3	4
3	5
3	4
3	4
3	4
3	5
3	5
3	4
3	4
3	4
3	4
3	6
3	4
3	4
3	5
3	4
3	7
3	4
3	4
3	4
3	5
3	5
3	4
3	4
3	5
3	5
3	6
3	17
3	4
3	4
3	4
3	4
3	8
3	4
3	4
3	4
3	4
3	4
3	5
3	4
3	4
3	4
3	4
3	4
3	4
3	14
3	7
3	4
3	4
3	4
3	5
3	4
3	8
3	4
3	6
4	5
4	6
4	5
4	5
4	5
4	5
4	7
4	6
4	6
4	5
4	5
4	6
4	6
4	6
4	5
4	6
4	5
4	5
4	5
4	8
4	5
4	5
4	5
4	6
4	5
4	12
4	5
4	5
4	6
4	5
4	5
4	5
4	5
4	5
4	5
4	5
4	8
4	7
4	5
4	6
4	5
4	6
4	7
4	5
4	5
4	5
4	5
4	5
4	5
4	5
4	5
4	6
4	12
4	8
4	5
4	5
4	6
4	6
4	5
4	5
4	8
4	5
4	5
4	5
5	6
5	6
5	6
5	6
5	7
5	7
5	6
5	7
5	6
5	6
5	6
5	6
5	6
5	6
5	6
5	6
5	8
5	6
5	8
5	9
5	6
5	6
5	6
6	7
6	8
6	7
6	7
6	8
6	7
6	7
6	7
6	8
6	8
6	9
6	7
6	7
6	7
6	7
6	7
6	7
6	7
6	14
6	7
7	8
7	8
7	8
7	8
7	8
7	8
7	8
7	8
7	8
7	8
7	8
7	8
7	8
7	8
7	8
8	9
8	9
8	9
8	9
8	9
8	9
8	9
8	9
8	9
8	9
8	9
8	9
8	9
8	9
8	9
9	10
9	10
9	10
9	10
9	10
9	10
9	10
9	10
9	10
9	10
10	11
10	11
10	11
10	11
10	11
10	11
11	12
11	12
11	13
11	12
11	12
11	12
11	12
11	12
12	13
12	13
12	13
12	13
12	13
12	13
12	13
12	13
13	14
13	14
13	14
14	15
14	15
14	15
14	15
14	15
15	16
15	16
16	17
17	18
18	19
18	19
19	20
19	20
19	20
20	21
20	21
20	21
20	21
22	23
23	24
23	24
23	24
24	25
26	27
29	30
38	39
50	51
57	58
65	66
929	930
