1	6124
1	674
1	673
1	673
1	673
1	18
1	673
1	673
1	673
1	673
1	673
1	673
1	673
1	17
1	673
1	673
1	14
1	673
1	19
1	673
1	673
1	673
1	673
1	12
1	673
1	674
1	673
1	673
1	673
1	18
1	673
1	673
1	673
1	20
1	13
1	15
1	673
1	674
1	16
1	673
1	15
1	673
1	673
1	14
1	6124
1	673
1	673
1	673
1	673
1	673
1	673
1	673
1	10
1	13
1	673
1	19
1	674
1	673
1	11
1	24
1	673
1	675
1	673
1	673
1	11
1	20
1	673
1	10
1	673
1	673
1	673
1	673
1	12
1	673
1	20
1	673
1	673
1	10
1	9
1	673
1	673
1	21
1	14
1	673
1	673
1	18
1	8
1	673
1	14
1	675
1	673
1	673
1	24
1	673
1	4
1	673
1	15
1	673
1	673
1	673
1	24
1	674
1	673
1	673
1	20
1	673
1	673
1	673
1	673
1	673
1	11
1	19
1	15
1	673
1	14
1	673
1	673
1	673
1	673
1	10
1	673
1	673
1	673
1	673
1	673
1	15
1	19
1	673
1	673
1	674
1	673
1	674
1	673
1	673
1	673
1	14
1	673
1	673
1	12
1	6124
1	673
1	6124
1	6124
1	9
1	673
1	673
1	673
1	673
1	673
1	673
1	673
1	673
1	15
1	19
1	673
1	15
1	19
1	10
1	15
1	673
1	6
1	8
1	673
1	11
1	13
1	6124
1	10
1	673
1	21
1	12
1	673
1	15
1	15
1	16
1	673
1	7
1	673
1	673
1	673
1	673
1	15
1	673
1	11
1	673
1	673
1	673
1	673
1	673
1	11
1	673
1	673
1	11
1	673
1	23
1	9
1	673
1	14
1	673
1	673
1	673
1	673
1	9
1	7
1	10
1	673
1	12
1	673
1	673
1	673
1	23
1	673
1	674
1	674
1	673
1	677
1	673
1	11
1	673
1	9
1	13
1	681
1	6
1	11
1	673
1	14
1	673
1	9
1	673
1	673
1	673
1	673
1	673
1	6
1	673
1	673
1	18
1	673
1	673
1	13
1	673
1	13
1	673
1	14
1	8
1	4
1	673
1	673
1	673
1	8
1	673
1	673
1	673
1	673
1	673
1	673
1	673
1	15
1	15
1	15
1	19
1	673
1	673
1	16
1	673
1	673
1	11
1	673
1	14
1	20
1	673
1	10
1	2
1	12
1	13
1	673
1	10
1	673
1	673
1	3
1	673
1	20
1	10
1	673
1	673
1	673
1	673
1	10
1	673
1	6124
1	11
1	673
1	15
1	673
1	8
1	673
1	11
1	673
1	674
1	673
1	13
1	673
1	673
1	673
1	673
1	19
1	13
1	673
1	673
1	673
1	673
1	9
1	673
1	673
1	9
1	14
1	14
1	674
1	673
1	673
1	673
1	13
1	673
1	673
1	18
1	673
1	673
1	673
1	673
1	18
1	673
1	673
1	673
1	673
1	673
1	673
1	673
1	673
1	673
1	18
1	673
1	673
1	11
1	673
1	673
1	6124
1	12
1	8
1	673
1	673
1	12
1	14
1	673
1	673
1	673
1	18
1	5
1	673
1	673
1	673
1	673
1	676
1	673
1	14
1	10
1	6
1	13
1	7
1	11
1	2
1	673
1	673
1	674
1	23
1	8
1	673
1	674
1	23
1	673
1	673
1	673
1	673
1	673
1	7
1	673
1	673
1	673
1	19
1	673
1	673
1	673
1	673
1	7
1	673
1	6124
1	673
1	19
1	673
1	19
1	673
1	673
1	6124
1	10
1	673
1	673
1	673
1	673
1	9
1	673
1	673
1	673
1	673
1	673
1	673
1	673
1	673
1	673
1	23
1	673
1	12
1	673
1	673
1	673
1	673
1	673
1	673
1	673
1	673
1	674
1	673
1	673
1	673
1	5
1	673
1	673
1	673
1	673
1	673
1	23
1	11
1	673
1	673
1	2
1	10
1	12
1	11
1	6
1	673
1	673
1	673
1	12
1	673
1	10
1	673
1	12
1	674
1	11
1	23
1	24
1	673
1	12
1	673
1	673
1	673
1	673
1	673
1	673
1	673
1	673
1	19
1	19
1	673
1	18
1	23
1	673
1	2
1	673
1	673
1	673
1	673
1	673
1	673
1	673
1	673
1	673
1	673
1	11
1	14
1	9
1	673
1	4
1	8
1	673
1	674
1	18
1	14
1	7
1	9
1	13
1	18
1	673
1	673
1	23
1	673
1	673
1	5
1	673
1	5
1	673
1	673
1	673
1	17
1	673
1	673
1	10
1	673
1	10
1	673
1	673
1	673
1	8
1	673
1	13
1	673
1	6124
1	673
1	8
1	10
1	673
1	673
1	673
1	673
1	673
1	673
1	673
1	673
1	673
1	11
1	673
1	14
1	6
1	673
1	673
1	673
1	673
1	673
1	673
1	673
1	673
1	8
1	8
1	673
1	18
1	673
1	13
1	673
1	673
1	673
1	9
1	5
1	673
1	673
1	673
1	6
1	10
1	4
1	673
1	673
1	673
1	673
1	673
1	13
1	8
1	673
1	19
1	673
1	673
1	673
1	8
1	18
1	673
1	18
1	18
1	673
1	673
1	673
1	6
1	7
1	673
1	673
1	673
1	18
1	23
1	673
1	673
1	14
1	11
1	673
1	673
1	673
1	8
1	673
1	673
1	4
1	3
1	673
1	673
1	673
1	673
1	673
1	673
1	673
1	673
1	10
1	674
1	2
1	673
1	673
1	673
1	673
1	673
1	673
1	12
1	18
1	18
1	673
1	10
1	673
1	673
1	673
1	13
1	673
1	12
1	14
1	673
1	673
1	673
1	673
1	10
1	4
1	673
1	673
1	673
1	2
1	673
1	673
1	5
1	8
1	8
1	19
1	8
1	6
1	14
1	19
1	15
1	8
1	673
1	673
1	673
1	18
1	673
1	673
1	673
1	673
1	673
1	673
1	673
1	673
1	673
1	14
1	673
1	673
1	15
1	14
1	673
1	6
1	5
1	673
1	673
1	673
1	673
1	18
1	673
1	673
1	15
1	673
1	15
1	673
1	8
1	673
1	673
1	673
1	673
1	673
1	12
1	673
1	14
1	14
1	673
1	10
1	674
1	19
1	673
1	7
1	673
1	673
1	13
1	673
1	673
1	14
1	674
1	673
1	8
1	11
1	673
1	673
1	673
1	7
1	5
1	12
1	673
1	673
1	673
1	11
1	673
1	6
1	673
1	10
1	7
1	10
1	673
1	8
1	673
1	673
1	673
1	673
1	673
1	673
1	18
1	673
1	18
1	19
1	18
1	673
1	673
1	9
1	673
1	673
1	673
1	673
1	673
1	9
1	673
1	673
1	674
1	673
1	7
1	6
1	673
1	673
1	673
1	673
1	673
1	673
1	673
1	673
1	673
1	673
1	673
1	7
1	4
1	673
1	673
1	673
1	673
1	673
1	673
1	673
1	673
1	673
1	7
1	673
1	673
1	674
1	673
1	7
1	673
1	2
1	673
1	673
1	10
1	673
1	8
1	673
1	673
1	18
1	673
1	673
1	673
1	21
1	673
1	673
1	11
1	11
1	673
1	19
1	673
1	673
1	12
1	673
1	673
2	674
2	3
2	15
2	3
2	3
2	11
2	3
2	674
2	7
2	7
2	8
2	15
2	12
2	5
2	674
2	6
2	3
2	6
2	15
2	7
2	8
2	12
2	7
2	3
2	12
2	3
2	13
2	4
2	674
2	5
2	13
2	5
2	10
2	7
2	3
2	5
2	7
2	3
2	5
2	7
2	15
2	13
2	10
2	6
2	8
2	4
2	4
2	4
2	19
2	12
2	19
2	4
2	3
2	3
2	6
2	9
2	7
2	11
2	12
2	5
2	11
2	12
2	3
2	16
2	9
2	4
2	3
2	7
2	3
2	11
2	6
2	3
2	3
2	3
2	3
2	3
2	7
2	12
2	3
2	6
2	8
2	6
2	674
2	7
2	6
2	6
2	3
2	8
2	3
2	4
2	3
2	3
2	3
2	4
2	4
2	3
2	6
2	17
2	5
2	3
2	4
2	8
2	5
2	674
2	16
2	4
2	7
2	5
2	4
2	12
2	6
2	10
2	4
2	6
2	6
2	9
2	20
2	4
2	7
2	14
2	9
2	3
2	6
2	13
2	3
2	4
2	16
2	9
2	8
2	10
2	5
2	3
2	4
2	7
2	9
2	3
2	3
2	19
2	3
2	5
2	12
2	3
2	6
2	13
2	13
2	11
2	8
2	6
2	16
2	5
2	4
2	6
2	4
2	4
2	3
2	3
2	7
2	6
2	4
2	6
2	3
2	3
2	9
2	10
2	3
2	12
2	8
2	6
2	4
2	7
2	7
2	3
2	3
2	5
2	6
2	3
2	4
2	4
2	4
2	9
2	19
2	4
2	7
2	3
2	4
2	3
2	7
2	12
2	4
2	5
2	4
2	3
2	4
2	4
2	3
2	7
2	3
2	3
3	4
3	5
3	6
3	12
3	4
3	5
3	11
3	8
3	7
3	4
3	12
3	8
3	5
3	4
3	5
3	6
3	5
3	5
3	8
3	5
3	6
3	4
3	8
3	5
3	4
3	4
3	5
3	7
3	4
3	6
3	4
3	6
3	4
3	7
3	5
3	4
3	5
3	6
3	4
3	6
3	5
3	4
3	5
3	5
3	7
3	6
3	4
3	6
3	4
3	9
3	4
3	4
3	9
3	5
3	5
3	6
3	9
3	5
3	5
3	4
3	16
3	6
3	5
3	4
3	4
3	4
3	4
3	4
3	6
3	6
3	5
3	4
3	4
3	4
3	5
3	5
3	4
3	4
3	8
3	5
3	4
3	5
3	7
3	4
3	6
3	4
4	6
4	6
4	6
4	5
4	5
4	6
4	6
4	6
4	9
4	7
4	5
4	6
4	6
4	6
4	6
4	5
4	6
4	5
4	9
4	9
4	6
4	5
4	8
4	6
4	6
4	5
4	7
4	6
4	9
4	7
4	5
4	5
4	6
4	6
4	5
4	6
4	6
4	6
4	5
5	7
5	6
5	8
5	6
5	6
5	7
5	6
5	6
5	6
5	6
5	9
5	6
5	6
5	9
5	6
5	6
5	7
5	7
5	7
5	7
5	6
5	6
5	7
5	6
6	7
6	8
6	7
6	7
6	7
6	9
6	7
6	7
6	7
6	11
6	7
6	7
6	7
6	9
6	7
7	8
7	8
7	8
7	8
7	9
7	8
7	8
7	8
8	10
8	9
8	9
8	9
8	9
9	10
9	10
9	10
9	11
9	10
9	10
9	10
9	10
10	12
10	11
10	11
10	11
10	11
10	12
10	13
10	11
11	12
11	13
11	12
11	12
12	13
12	13
13	14
13	14
13	14
13	14
14	15
14	15
14	16
17	18
17	18
17	18
17	18
18	19
18	19
18	20
22	23
672	673
