1	6124
1	147
1	147
1	147
1	147
1	147
1	147
1	147
1	147
1	147
1	147
1	148
1	147
1	148
1	34
1	147
1	7
1	147
1	147
1	147
1	147
1	147
1	148
1	147
1	14
1	11
1	147
1	147
1	147
1	13
1	33
1	147
1	147
1	147
1	147
1	147
1	147
1	147
1	147
1	31
1	147
1	147
1	10
1	8
1	147
1	147
1	147
1	147
1	147
1	147
1	147
1	34
1	4
1	147
1	147
1	7
1	147
1	147
1	147
1	147
1	14
1	147
1	147
1	147
1	10
1	149
1	147
1	147
1	147
1	147
1	147
1	147
1	147
1	31
1	33
1	147
1	147
1	147
1	147
1	30
1	147
1	10
1	147
1	5
1	14
1	18
1	147
1	147
1	31
1	147
1	147
1	147
1	7
1	147
1	8
1	147
1	7
1	30
1	7
1	147
1	5
1	147
1	147
1	147
1	147
1	148
1	147
1	147
1	6
1	147
1	147
1	147
1	147
1	8
1	147
1	147
1	147
1	147
1	147
1	147
1	147
1	147
1	147
1	7
1	147
1	147
1	7
1	147
1	147
1	30
1	13
1	147
1	147
1	147
1	147
1	147
1	9
1	147
1	147
1	10
1	8
1	147
1	147
1	147
1	147
1	147
1	147
1	147
1	7
2	3
2	31
2	3
2	31
2	3
2	7
2	6
2	14
2	6
2	5
2	3
2	8
2	6
2	9
2	3
2	3
2	8
2	9
2	5
2	31
2	31
2	6
2	3
2	148
2	31
2	3
2	4
2	7
2	10
2	4
2	6
2	6
2	4
2	3
2	8
2	31
2	3
2	5
2	32
3	4
3	6
3	4
3	15
3	5
3	5
3	5
3	5
3	5
3	4
3	7
3	5
3	5
3	4
3	4
3	4
4	5
4	6
4	5
4	5
4	5
5	6
5	6
5	6
5	6
6	7
6	7
6	7
7	8
7	8
12	13
29	30
146	147
