1	6124
1	102
1	103
1	14
1	102
1	101
1	101
1	101
1	101
1	101
1	103
1	12
1	16
1	8
1	10
1	7
1	14
1	9
1	8
1	15
1	7
1	101
1	8
1	4
1	12
1	101
1	101
1	10
1	101
1	101
1	101
1	101
1	12
1	9
1	102
1	102
1	101
1	102
1	10
1	10
1	101
1	14
1	101
1	105
1	11
1	7
1	9
1	104
1	101
1	13
1	103
1	11
1	102
1	13
1	101
1	6
1	9
1	10
1	8
1	13
1	10
1	8
1	26
1	11
1	7
1	8
1	10
1	6
1	6
1	7
1	8
1	9
1	7
1	12
1	101
1	7
1	6
1	9
1	101
1	13
1	13
1	4
1	8
1	11
1	7
1	8
1	10
1	101
1	5
1	7
1	12
1	5
1	8
1	7
1	13
1	4
1	7
1	6
1	101
1	12
1	101
1	7
1	10
1	101
1	10
1	5
1	101
1	102
1	11
1	8
1	13
1	6
1	15
1	6
1	6
1	101
1	4
1	7
1	101
1	12
1	8
1	7
1	8
1	6
1	6
1	9
1	25
1	7
1	101
1	8
1	7
1	10
1	11
1	9
1	8
1	7
1	5
1	6
1	101
1	101
1	25
1	9
1	101
1	6
1	102
1	6
1	101
1	5
1	6
1	9
1	6
1	7
1	101
1	5
1	26
1	10
1	101
1	101
1	6
1	5
1	5
1	25
1	12
1	7
1	12
1	101
1	6
1	9
1	5
1	11
1	101
1	5
1	27
1	7
1	7
1	10
1	5
1	6
1	25
1	9
1	101
1	7
1	5
1	6
1	6
1	5
1	102
1	5
1	7
1	101
1	25
1	4
1	101
1	14
1	101
1	9
1	10
1	5
1	4
1	4
1	6
1	101
1	5
1	8
1	6
1	6
1	101
1	6
1	101
1	9
1	9
1	9
1	7
1	5
1	8
1	6
1	101
1	101
1	101
1	7
2	7
2	3
2	3
2	3
2	3
2	6
2	26
2	3
2	4
2	4
2	5
2	4
2	3
2	6
2	3
2	3
2	6
2	3
2	3
2	4
2	5
2	6
2	7
2	3
2	3
2	7
2	26
2	3
2	3
2	3
2	6
2	3
2	4
2	3
2	4
2	3
2	3
2	4
2	6
2	26
2	4
2	3
2	3
2	3
2	3
2	3
2	5
2	4
2	7
2	4
2	3
2	3
2	4
2	3
2	13
2	3
2	4
2	26
2	6
2	3
2	5
2	6
2	3
2	26
2	4
2	3
2	6
2	3
2	3
2	4
2	3
2	6
2	3
2	3
2	3
2	13
2	4
2	3
2	3
2	5
2	5
2	5
2	3
2	5
2	3
2	4
2	4
2	3
2	3
3	4
3	4
3	5
3	4
3	4
3	4
3	6
3	4
3	4
3	4
3	7
3	4
3	4
3	4
3	4
3	5
3	6
3	4
3	4
3	6
3	4
3	4
3	6
3	4
3	4
3	5
3	4
3	4
3	5
3	4
3	4
3	7
3	4
3	4
3	4
3	4
4	5
4	6
4	5
4	5
4	5
4	5
4	6
4	5
4	5
4	6
4	5
4	5
4	5
4	5
4	5
4	7
4	5
4	6
4	5
4	5
4	5
4	5
4	6
4	8
4	5
4	5
4	5
4	5
4	5
5	6
5	6
5	6
5	6
5	6
5	6
5	6
5	6
5	6
5	6
5	6
5	6
5	6
5	6
6	7
6	7
6	7
6	7
6	7
6	7
6	7
6	7
8	9
8	9
8	9
11	12
11	12
12	13
24	25
100	101
