1	6124
1	15
1	98
1	11
1	98
1	13
1	101
1	13
1	15
1	99
1	8
1	97
1	97
1	11
1	99
1	99
1	7
1	5
1	18
1	11
1	97
1	12
1	10
1	10
1	9
1	97
1	98
1	17
1	14
1	7
1	99
1	10
1	8
1	6
1	10
1	10
1	12
1	13
1	9
1	9
1	9
1	99
1	23
1	4
1	21
1	7
1	99
1	9
1	8
1	10
1	97
1	97
1	97
1	20
1	20
1	8
1	97
1	97
1	21
1	12
1	4
1	7
1	17
1	97
1	6
1	99
1	9
1	12
1	4
1	6
1	6
1	97
1	8
1	7
1	7
1	97
1	97
1	97
1	7
1	4
1	7
1	98
1	7
1	5
1	7
1	7
1	9
1	5
1	6
1	97
1	99
1	9
1	98
1	7
1	8
1	9
1	10
1	6
1	97
1	97
1	7
1	98
1	7
1	97
1	7
1	98
1	10
1	18
1	10
1	5
1	6
1	8
1	19
1	7
1	8
1	8
1	8
1	14
1	98
1	7
1	7
1	97
1	19
1	5
1	97
1	97
1	7
1	97
1	97
1	21
1	97
1	97
1	10
1	19
1	20
1	5
1	7
1	5
1	7
1	7
1	7
1	8
1	4
1	4
1	7
1	98
1	8
1	8
1	6
1	97
1	6
1	4
1	7
1	7
1	7
1	5
1	10
1	9
1	7
1	6
1	97
1	9
1	8
1	5
1	7
1	7
1	8
1	5
1	7
1	98
1	6
1	6
1	98
1	11
1	98
1	4
1	97
1	8
1	19
1	97
1	10
1	17
1	98
1	17
1	6
1	97
1	7
1	15
1	97
1	14
1	21
1	5
1	97
1	6
1	10
1	7
1	18
1	7
1	97
1	17
1	6
1	5
1	6
1	97
1	97
1	9
1	5
1	98
1	5
2	3
2	3
2	4
2	3
2	3
2	3
2	3
2	3
2	3
2	3
2	3
2	9
2	3
2	6
2	3
2	3
2	3
2	3
2	7
2	6
2	9
2	5
2	3
2	4
2	3
2	8
2	4
2	4
2	4
2	8
2	9
2	3
2	4
2	3
2	4
2	4
2	5
2	6
2	4
2	7
2	3
2	7
2	3
2	3
2	3
2	3
2	3
2	3
2	7
2	3
2	4
2	5
2	5
2	6
2	6
2	3
2	7
2	3
2	3
2	3
2	3
2	4
2	4
2	4
2	5
2	3
2	3
2	3
2	4
2	3
2	4
2	6
2	3
2	3
2	4
2	5
2	3
2	5
2	9
2	4
2	3
2	4
2	3
2	6
2	4
2	3
2	4
2	5
2	3
2	3
2	3
2	3
2	3
2	3
2	4
2	3
2	4
2	3
2	3
2	4
2	3
2	7
2	4
2	3
2	4
2	4
2	3
2	3
3	4
3	5
3	5
3	4
3	4
3	5
3	4
3	4
3	4
3	4
3	7
3	5
3	4
3	5
3	4
3	4
3	4
3	5
3	4
3	5
3	5
3	4
3	4
3	6
3	4
3	4
3	4
3	5
3	5
3	5
3	5
3	5
3	4
3	4
3	4
3	4
3	6
3	5
3	4
3	4
3	4
3	5
3	4
3	4
3	4
4	5
4	5
4	5
4	5
4	6
4	5
4	5
4	5
4	7
4	6
4	7
4	5
4	5
4	5
4	5
4	5
4	5
4	6
4	5
4	5
4	7
4	6
4	5
4	5
5	6
5	6
5	6
5	6
5	6
5	6
5	6
5	6
5	8
6	8
6	8
6	7
6	10
6	7
6	7
6	7
6	7
6	7
6	8
7	8
7	8
7	8
8	9
9	10
13	14
16	17
18	19
96	97
