1	6124
1	70
1	69
1	67
1	74
1	21
1	20
1	69
1	67
1	13
1	16
1	20
1	12
1	74
1	67
1	71
1	10
1	67
1	14
1	70
1	11
1	68
1	12
1	8
1	6
1	9
1	68
1	73
1	72
1	9
1	67
1	67
1	11
1	14
1	11
1	19
1	14
1	11
1	68
1	17
1	9
1	7
1	7
1	11
1	7
1	71
1	67
1	68
1	10
1	12
1	67
1	67
1	67
1	69
1	69
1	12
1	10
1	10
1	7
1	17
1	12
1	69
1	10
1	16
1	67
1	67
1	67
1	12
1	7
1	6
1	5
1	8
1	10
1	5
1	11
1	4
1	5
1	6
1	11
1	13
1	12
1	9
1	6
1	9
1	10
1	8
1	9
1	67
1	14
1	72
1	9
1	9
1	4
1	8
1	5
1	14
1	7
1	67
1	8
1	5
1	7
1	4
1	7
1	14
1	7
1	67
1	10
1	9
1	6
1	68
1	18
1	67
1	6
1	7
1	68
1	9
1	7
1	8
1	7
1	6
1	5
1	69
1	7
1	10
1	11
1	10
1	8
1	6
1	7
1	5
1	7
1	8
1	7
1	9
1	8
1	5
1	6
1	9
1	67
1	5
1	8
1	7
1	6
1	18
1	9
1	68
1	67
1	4
1	6
1	6
1	6
1	67
1	8
1	5
1	9
1	6
1	7
1	4
1	4
1	8
1	8
1	67
1	7
1	9
1	67
1	7
1	6
1	7
1	6
1	18
1	6
1	7
1	6
1	6
1	67
1	12
1	6
1	69
1	68
1	12
1	6
1	6
1	7
1	5
1	8
1	5
1	5
1	5
1	6
1	10
1	4
1	8
1	8
1	5
1	7
1	4
1	8
1	19
1	6
1	5
1	7
1	7
1	6
1	10
1	6
1	5
1	10
1	7
1	17
1	6
1	8
1	67
1	17
1	8
1	5
1	9
1	6
1	6
1	67
1	67
1	67
1	9
1	5
1	10
1	5
1	9
1	9
1	6
1	5
1	13
1	8
1	8
1	14
1	5
1	5
1	5
1	9
1	17
1	10
1	5
1	7
1	7
1	6
1	8
1	8
1	14
1	6
1	17
1	5
1	5
1	9
1	9
1	6
1	4
1	13
2	6
2	3
2	3
2	6
2	5
2	7
2	3
2	3
2	6
2	3
2	6
2	3
2	3
2	12
2	3
2	4
2	3
2	3
2	3
2	3
2	6
2	3
2	3
2	3
2	3
2	3
2	5
2	4
2	3
2	4
2	3
2	3
2	5
2	3
2	3
2	3
2	4
2	4
2	3
2	3
2	3
2	3
2	7
2	3
2	3
2	3
2	3
2	3
2	12
2	3
2	4
2	6
2	3
2	7
2	5
2	4
2	3
2	3
2	4
2	4
2	4
2	4
2	3
2	3
2	4
2	3
2	3
2	3
2	4
2	3
2	3
2	3
2	4
2	3
2	3
2	3
2	4
2	3
2	3
2	4
2	3
2	5
2	3
2	4
2	3
2	3
2	4
2	3
2	4
2	3
2	3
2	4
2	4
2	5
3	4
3	4
3	5
3	4
3	4
3	4
3	5
3	5
3	4
3	4
3	4
3	5
3	4
3	4
3	4
3	4
3	4
3	4
3	4
3	4
3	4
3	4
3	4
3	7
3	4
3	4
3	4
3	4
3	4
3	5
3	4
4	5
4	5
4	5
4	5
4	5
4	5
4	5
4	5
4	5
4	5
4	5
4	5
4	5
4	5
4	5
4	5
4	7
4	5
4	5
4	5
4	5
4	5
5	6
5	6
5	6
5	6
5	6
5	6
5	6
5	6
5	6
5	6
5	6
5	6
5	6
5	6
6	7
6	7
6	7
6	7
6	7
6	7
6	7
7	8
7	8
7	8
7	8
8	9
8	9
8	9
9	10
9	10
10	11
12	13
16	17
66	67
