1	6124
1	160
1	159
1	159
1	16
1	20
1	165
1	12
1	161
1	159
1	11
1	12
1	159
1	33
1	33
1	33
1	14
1	16
1	18
1	12
1	10
1	16
1	16
1	159
1	159
1	10
1	162
1	159
1	35
1	159
1	17
1	161
1	13
1	12
1	11
1	162
1	34
1	11
1	11
1	35
1	9
1	8
1	10
1	159
1	159
1	32
1	159
1	159
1	159
1	8
1	12
1	9
1	11
1	9
1	11
1	11
1	160
1	5
1	159
1	8
1	159
1	6
1	159
1	7
1	8
1	9
1	159
1	32
1	9
1	5
1	159
1	160
1	159
1	159
1	159
1	5
1	159
1	159
1	8
1	159
1	160
1	161
1	7
1	5
1	8
1	159
1	4
1	7
1	162
1	5
1	11
1	32
1	159
1	159
1	4
1	18
1	159
1	159
1	7
1	8
1	159
1	159
1	7
1	32
1	159
1	159
1	159
1	159
1	7
1	9
1	159
1	159
1	9
1	7
1	159
1	160
1	32
1	159
1	34
1	16
1	159
1	5
1	159
1	7
1	13
1	159
1	159
1	159
1	16
1	32
1	159
1	4
1	159
1	159
1	5
1	12
1	6
1	6
1	160
1	10
1	8
1	159
1	5
1	159
1	7
1	159
1	9
1	159
1	159
1	159
1	8
1	9
1	6
1	8
1	9
1	159
1	10
1	159
1	11
1	7
1	9
1	16
1	10
1	159
1	32
1	9
1	159
1	159
1	6
1	11
1	159
1	16
1	159
1	5
1	9
1	4
1	159
1	159
1	7
1	159
1	159
1	5
1	6
1	159
1	9
1	159
1	4
1	159
1	159
1	159
1	159
1	160
1	6
1	11
1	6
1	159
1	159
1	7
1	7
1	5
1	6
1	11
1	8
1	8
1	10
1	16
1	159
1	16
1	8
1	159
1	7
1	159
1	159
1	5
1	5
1	159
1	160
1	34
1	8
1	159
1	10
1	159
1	159
1	9
1	159
1	159
1	159
1	159
1	6
1	159
1	8
1	9
1	4
1	9
1	160
1	5
2	6
2	6
2	3
2	8
2	3
2	7
2	7
2	3
2	4
2	3
2	3
2	10
2	33
2	33
2	33
2	3
2	4
2	10
2	7
2	9
2	3
2	4
2	3
2	5
2	4
2	4
2	8
2	4
2	4
2	3
2	6
2	3
2	3
2	3
2	6
2	8
2	3
2	5
2	3
2	5
2	3
2	7
2	33
2	3
2	4
2	3
2	3
2	9
2	5
2	3
2	9
2	9
2	3
2	4
2	3
2	3
2	4
2	3
2	4
2	4
2	6
2	3
2	3
2	3
2	3
2	4
2	3
2	3
2	3
2	3
2	3
2	4
3	4
3	6
3	5
3	4
3	4
3	8
3	4
3	4
3	4
3	11
3	4
3	4
3	5
3	4
3	4
3	4
3	4
3	5
3	4
3	4
3	4
3	5
3	4
3	4
3	5
3	4
3	4
3	4
3	4
3	4
3	4
3	5
3	4
3	5
3	4
4	6
4	5
4	5
4	6
4	5
4	5
4	11
4	5
4	5
4	5
4	5
4	5
4	5
4	5
4	5
4	5
4	5
4	5
4	5
4	5
4	5
5	6
5	6
5	7
5	6
5	7
5	7
5	6
5	7
5	6
6	7
6	7
6	7
6	7
7	8
7	8
7	8
7	8
7	8
8	9
8	10
8	9
8	9
9	10
15	16
31	32
158	159
