1	6124
1	61
1	60
1	60
1	61
1	60
1	60
1	61
1	60
1	60
1	60
1	60
1	60
1	5
1	60
1	61
1	62
1	60
1	61
1	7
1	7
1	60
1	60
1	60
1	60
1	61
1	60
1	60
1	60
1	60
1	60
1	60
1	6
1	60
1	5
1	60
1	61
1	61
1	60
1	60
1	7
1	60
1	60
1	60
1	60
1	60
1	61
1	60
1	60
1	60
1	60
1	60
1	61
1	60
1	60
1	60
1	6
1	60
2	6
2	3
2	3
2	3
2	3
2	4
2	5
2	61
2	4
2	3
2	3
2	7
2	7
2	5
2	6
2	3
2	5
2	5
2	3
3	4
3	4
3	4
3	4
3	4
3	4
4	5
4	5
5	6
59	60
