1	6124
1	28
1	28
1	28
1	27
1	27
1	27
1	29
1	7
1	27
1	28
1	27
1	27
1	28
1	29
1	28
1	27
1	27
1	7
1	7
1	5
1	27
1	4
1	28
1	27
1	27
1	4
2	3
2	7
2	5
2	3
2	4
2	3
2	7
2	3
2	7
2	6
2	3
2	7
2	3
3	4
3	5
3	4
4	5
4	5
5	6
5	6
26	27
