1	6124
1	52
1	53
1	52
1	10
1	52
1	9
1	52
1	52
1	7
1	9
1	10
1	8
1	10
1	9
1	52
1	53
1	52
1	11
1	52
1	52
1	52
1	52
1	9
1	8
1	8
1	5
1	53
1	8
1	6
1	52
1	10
1	6
1	53
1	6
1	10
1	7
1	52
1	52
1	52
1	52
1	8
1	52
1	52
1	52
1	9
1	52
2	3
2	7
2	10
2	53
2	6
2	5
2	8
2	6
2	9
2	4
2	3
2	3
2	3
2	8
2	11
2	4
2	9
2	4
2	4
2	9
2	9
3	7
3	6
3	4
3	4
3	5
3	5
3	4
3	5
3	6
3	8
3	4
3	5
3	4
3	5
3	4
3	4
3	5
4	6
4	5
4	6
4	6
5	6
5	6
5	6
5	7
6	8
6	7
7	8
7	8
9	10
51	52
