1	6124
1	93
1	8
1	98
1	91
1	91
1	89
1	90
1	90
1	91
1	88
1	88
1	102
1	11
1	89
1	9
1	89
1	90
1	16
1	93
1	9
1	89
1	89
1	7
1	91
1	91
1	6
1	6124
1	91
1	89
1	88
1	10
1	88
1	6124
1	10
1	88
1	6
1	8
1	88
1	91
1	6
1	88
1	95
1	7
1	17
1	89
1	9
1	16
1	16
1	5
1	88
1	17
1	92
1	8
1	92
1	88
1	9
1	6
1	12
1	13
1	22
1	7
1	89
1	7
1	20
1	9
1	88
1	8
1	92
1	5
1	8
1	6
1	6124
1	6
1	88
1	90
1	7
1	5
1	7
1	88
1	18
1	7
1	18
1	91
1	7
1	5
1	8
1	5
1	16
1	7
1	5
1	88
1	8
1	8
1	12
1	8
1	89
1	88
1	6
1	9
1	9
1	88
1	8
1	12
1	9
1	5
1	5
1	18
1	2
1	88
1	89
1	10
1	89
1	6
1	88
1	5
1	90
1	5
1	88
1	12
1	90
1	4
1	9
1	17
1	7
1	89
1	7
1	16
1	12
1	18
1	7
1	88
1	88
1	10
1	17
1	10
1	88
1	89
1	5
1	7
1	88
1	10
1	5
1	90
1	88
1	12
1	89
1	7
1	6
1	18
1	7
1	9
1	9
1	89
1	8
1	16
1	7
1	88
1	88
1	13
1	7
1	16
1	4
1	10
1	5
1	12
1	19
1	88
1	88
1	5
1	19
1	6
1	10
1	4
1	7
1	11
1	10
1	88
1	4
1	5
1	5
1	8
1	6
1	13
1	7
1	5
1	7
1	4
1	4
1	90
1	8
1	6
1	7
1	10
1	18
1	4
1	4
1	7
1	4
1	8
1	88
1	18
1	5
1	6
1	8
1	7
1	5
1	5
1	6
1	4
1	18
1	4
1	4
1	89
1	6
1	8
1	5
1	16
1	6
1	88
1	5
1	18
1	13
1	8
1	8
1	3
1	88
1	7
1	5
1	6
1	7
1	10
1	5
1	5
2	4
2	3
2	4
2	3
2	5
2	4
2	4
2	3
2	19
2	3
2	5
2	4
2	5
2	3
2	5
2	3
2	3
2	8
2	4
2	6
2	89
2	4
2	3
2	3
2	3
2	3
2	3
2	5
2	3
2	3
2	3
2	5
2	3
2	4
2	6
2	3
2	3
2	3
2	5
2	4
2	3
2	3
2	4
2	6
2	3
2	4
2	5
2	5
2	4
2	3
2	4
2	4
2	3
2	3
2	3
2	5
2	3
2	4
2	3
2	3
2	3
2	3
2	3
2	4
2	4
2	6
2	3
2	3
2	3
2	4
2	4
2	3
2	6
2	3
2	4
2	4
2	5
2	4
2	3
2	4
2	3
2	4
2	4
2	4
2	4
2	3
2	3
2	3
2	5
2	3
2	3
2	4
2	3
2	5
2	5
2	4
2	3
2	3
2	3
2	4
2	4
2	3
2	4
2	3
2	3
2	4
2	3
2	4
2	3
2	3
2	3
2	3
2	4
2	4
2	5
2	6
2	3
2	3
2	4
2	3
3	4
3	4
3	4
3	4
3	4
3	4
3	4
3	4
3	4
3	4
3	4
3	5
3	4
3	5
3	5
3	4
3	4
3	4
3	4
3	5
3	4
3	4
3	7
3	4
3	4
3	4
3	4
3	4
3	4
3	4
3	4
3	4
3	4
3	5
3	5
3	4
3	4
3	4
3	5
4	5
4	5
4	5
4	5
4	5
4	5
4	5
4	6
4	5
4	6
4	5
4	5
4	5
4	5
4	5
4	5
4	6
5	6
5	6
5	6
5	6
5	6
5	6
5	6
5	6
6	7
6	7
6	7
6	7
7	8
8	9
9	10
9	10
11	12
15	16
17	18
87	88
