1	6124
1	211
1	210
1	211
1	16
1	210
1	11
1	210
1	210
1	13
1	210
1	25
1	14
1	6
1	210
1	210
1	210
1	210
1	210
1	214
1	210
1	210
1	210
1	11
1	13
1	11
1	210
1	210
1	210
1	210
1	210
1	210
1	7
1	19
1	211
1	210
1	12
1	210
1	11
1	210
1	210
1	210
1	210
1	210
1	12
1	9
1	210
1	210
1	6
1	210
1	7
1	20
1	210
1	13
1	19
1	15
1	210
1	210
1	212
1	9
1	210
1	211
1	10
1	211
1	210
1	8
1	20
1	15
1	210
1	9
1	210
1	10
1	210
1	8
1	210
1	210
1	210
1	210
1	210
1	15
1	14
1	9
1	211
1	210
1	210
1	210
1	14
1	8
1	210
1	5
1	13
1	9
1	211
1	210
1	210
1	8
1	210
1	210
1	210
1	210
1	210
1	210
1	8
1	7
1	10
1	210
1	10
1	210
1	212
1	210
1	210
1	210
1	210
1	7
1	210
1	210
1	210
1	9
1	210
1	210
1	210
1	14
1	212
1	4
1	14
1	211
1	210
1	210
1	210
1	210
1	9
1	10
1	12
1	7
1	19
1	9
1	210
1	210
1	210
1	210
1	210
1	210
1	210
1	14
1	210
1	210
1	12
1	5
1	210
1	14
1	210
1	19
1	210
1	210
1	210
1	210
1	14
1	7
1	210
1	17
1	210
1	12
1	4
1	210
1	8
1	210
1	210
1	10
1	14
1	210
1	10
1	210
1	210
1	210
1	210
1	210
1	210
1	211
1	14
1	210
1	11
1	211
1	5
1	8
1	210
1	210
1	7
1	210
1	210
1	210
1	8
1	15
1	19
1	15
1	210
1	14
1	210
1	14
1	210
1	8
1	10
1	210
1	4
1	11
1	210
1	210
1	12
1	210
1	210
1	210
1	6
1	9
1	6
1	14
1	11
1	210
1	210
1	11
1	5
1	11
1	8
1	210
1	14
1	19
1	210
1	7
1	8
1	19
1	210
1	19
1	210
1	14
1	11
1	210
1	11
1	8
1	210
1	210
1	210
1	14
1	12
1	210
1	6
1	8
1	210
1	211
1	210
1	11
1	6
1	6
1	210
1	210
1	9
1	210
1	210
1	19
2	3
2	8
2	3
2	3
2	9
2	7
2	3
2	211
2	10
2	5
2	6
2	3
2	3
2	3
2	3
2	6
2	6
2	4
2	211
2	3
2	5
2	5
2	7
2	4
2	3
2	9
2	8
2	3
2	6
2	20
2	5
2	3
2	6
2	8
2	8
2	3
2	15
2	3
2	3
2	9
2	4
2	8
2	7
2	4
2	15
2	5
2	6
2	10
2	8
2	4
2	7
2	4
2	4
2	4
2	4
2	10
2	6
2	15
2	5
2	4
3	4
3	8
3	4
3	4
3	4
3	8
3	4
3	5
3	4
3	5
3	6
3	5
3	4
3	4
3	5
3	6
3	5
3	7
3	6
3	7
3	5
3	5
3	4
3	6
3	4
3	4
3	6
3	6
3	7
3	5
3	4
4	6
4	5
4	6
4	6
4	7
4	5
4	5
4	5
4	5
4	5
4	5
4	6
4	5
4	5
5	7
5	6
5	6
5	7
5	6
5	6
5	6
5	6
6	7
6	7
6	7
7	8
7	8
7	8
7	8
8	9
8	9
8	10
9	10
10	11
10	11
13	14
13	14
13	14
18	19
209	210
