1	6124
1	284
1	284
1	285
1	284
1	284
1	285
1	284
1	284
1	284
1	284
1	284
1	284
1	284
1	284
1	284
1	285
1	284
1	284
1	284
1	16
1	284
1	287
1	284
1	285
1	284
1	284
1	284
1	284
1	284
1	18
1	284
1	284
1	17
1	284
1	284
1	284
1	284
1	15
1	284
1	10
1	284
1	284
1	285
1	284
1	17
1	284
1	284
1	284
1	5
1	14
1	284
1	285
1	284
1	284
1	284
1	284
1	284
1	285
1	284
1	284
1	284
1	11
1	284
1	9
1	284
1	15
1	284
1	6
1	284
1	284
1	7
1	284
1	285
1	284
1	285
1	284
1	284
1	9
1	9
1	284
1	9
1	17
1	284
1	284
1	284
1	284
1	6
1	284
1	284
1	286
1	284
1	284
1	284
1	284
1	284
1	285
1	284
1	15
1	284
1	13
1	284
1	284
1	284
1	284
1	284
1	285
1	284
1	284
1	284
1	5
1	284
1	284
1	284
1	284
1	284
1	284
1	284
1	284
1	284
1	284
1	284
1	7
1	284
1	284
1	284
1	15
1	284
1	284
1	284
1	284
1	284
1	284
1	284
1	284
1	284
1	284
1	286
1	284
1	284
1	285
1	284
1	284
1	284
1	285
1	284
1	10
1	285
1	7
1	284
1	284
1	284
1	284
1	284
1	285
1	284
1	286
1	284
1	286
1	286
1	284
1	285
1	284
1	284
1	284
1	15
1	284
1	285
1	284
1	284
1	284
1	284
1	285
1	7
1	7
1	284
1	284
1	16
1	6
1	285
1	284
1	284
1	284
1	284
1	284
1	284
1	284
1	284
1	284
1	284
1	284
1	284
1	284
1	4
1	284
1	6
1	284
1	284
1	285
1	284
1	284
1	284
1	284
1	7
1	284
1	284
1	284
1	285
1	284
1	284
1	284
1	284
1	284
1	284
1	284
1	4
1	6
1	284
1	284
1	284
1	284
1	284
1	284
1	284
1	284
1	6
1	284
1	4
1	6
1	5
1	284
1	289
1	284
1	7
1	15
1	285
1	5
1	8
1	284
1	284
1	284
1	15
1	7
1	284
1	284
1	284
1	284
1	284
1	284
1	13
1	284
1	284
1	284
1	8
1	284
1	284
1	284
1	13
1	285
1	284
1	284
1	284
1	284
1	5
1	4
1	284
1	284
1	284
1	284
1	284
1	284
1	284
1	284
1	284
1	7
1	6
1	284
1	7
1	284
1	284
1	284
1	8
1	284
1	5
1	4
1	284
1	284
1	284
2	6
2	6
2	7
2	3
2	5
2	3
2	3
2	7
2	3
2	285
2	5
2	5
2	16
2	3
2	285
2	4
2	3
2	285
2	6
2	4
2	4
2	3
2	6
2	3
2	3
2	7
2	7
2	6
2	3
2	5
2	3
2	3
2	16
2	4
2	6
2	6
2	3
2	7
2	3
2	7
2	6
2	285
2	8
2	3
2	3
2	5
2	6
2	6
2	3
2	7
2	7
2	4
2	5
2	7
2	6
2	3
2	4
2	4
2	4
2	5
2	3
3	4
3	4
3	5
3	9
3	4
3	4
3	4
3	5
3	5
3	5
3	4
3	4
3	4
3	4
3	4
3	5
3	5
3	4
3	7
3	5
3	4
3	5
3	5
3	4
4	5
4	5
4	5
4	5
4	5
4	5
4	5
4	5
4	5
4	5
4	5
4	5
4	5
4	6
4	5
5	6
5	6
5	6
5	6
5	6
6	7
6	7
6	7
6	7
12	13
14	15
283	284
