1	6124
1	6124
1	74
1	17
1	19
1	17
1	65
1	16
1	11
1	65
1	6124
1	62
1	6124
1	6124
1	15
1	9
1	18
1	9
1	5
1	67
1	24
1	11
1	64
1	9
1	61
1	8
1	8
1	64
1	12
1	16
1	61
1	7
1	11
1	8
1	9
1	61
1	61
1	5
1	12
1	8
1	5
1	6
1	24
1	12
1	8
1	11
1	6124
1	61
1	61
1	63
1	65
1	61
1	5
1	11
1	7
1	61
1	6124
1	6
1	9
1	61
1	6
1	10
1	2
1	7
1	6
1	8
1	7
1	63
1	61
1	6
1	18
1	6
1	9
1	6
1	8
1	6
1	6
1	9
1	5
1	16
1	7
1	17
1	6
1	9
1	62
1	11
1	7
1	61
1	7
1	64
1	10
1	9
1	7
1	17
1	9
1	7
1	6
1	6124
1	6
1	8
1	61
1	8
1	16
1	11
1	15
1	23
1	6
1	23
1	4
1	7
1	62
1	23
1	23
1	7
1	9
1	61
1	61
1	61
1	61
1	7
1	7
1	6
1	8
1	6
1	11
1	2
1	61
1	62
1	17
1	4
1	63
1	64
1	16
1	7
1	5
1	4
1	6
1	6
1	23
1	6
1	24
1	6
1	5
1	4
1	61
1	62
1	5
1	9
1	4
1	12
1	6124
1	5
1	11
1	61
1	3
1	7
1	6
1	4
1	4
1	9
1	9
1	9
1	6124
1	61
1	4
1	23
1	61
1	4
1	4
1	23
1	16
1	6
1	6
1	6124
1	23
1	23
1	8
1	6
1	61
1	7
1	4
1	16
1	61
1	6
1	5
1	4
1	2
1	11
1	11
1	62
1	23
1	4
1	7
1	7
1	5
1	61
1	7
1	5
1	9
1	61
1	7
1	6
1	2
1	11
1	6
1	4
1	61
1	61
1	2
1	5
1	9
1	11
1	6
1	16
1	9
1	61
1	5
1	23
1	61
1	5
1	6
1	61
1	6
1	6
1	7
1	23
1	7
1	16
1	6
1	5
1	11
1	6
1	15
1	4
1	62
2	5
2	3
2	3
2	5
2	3
2	3
2	3
2	3
2	3
2	24
2	4
2	7
2	8
2	3
2	4
2	3
2	6
2	3
2	3
2	3
2	3
2	7
2	4
2	5
2	3
2	6
2	3
2	3
2	3
2	4
2	5
2	7
2	4
2	7
2	3
2	3
2	3
2	4
2	5
2	3
2	3
2	3
2	3
2	3
2	3
2	5
2	5
2	3
2	3
2	3
2	3
2	3
2	4
2	3
2	4
2	3
2	3
2	3
2	3
2	3
2	3
2	3
2	3
2	5
2	5
2	4
2	4
2	3
2	4
2	3
2	3
2	3
2	4
2	10
2	4
2	4
2	4
2	7
2	4
2	4
2	3
2	5
2	3
2	3
2	3
2	3
2	6
3	5
3	4
3	4
3	4
3	4
3	4
3	4
3	4
3	4
3	4
3	4
3	6
3	4
3	4
3	6
3	4
3	4
3	4
3	4
3	5
3	4
3	5
3	4
3	4
3	4
3	4
3	4
3	4
3	4
3	4
3	4
3	5
3	4
3	4
3	4
3	4
3	4
3	5
3	4
4	5
4	5
4	5
4	5
4	5
4	7
4	5
4	5
4	6
4	5
4	6
4	6
4	5
4	5
4	5
4	6
4	5
4	5
5	6
5	6
5	6
5	6
5	7
5	6
5	6
5	6
5	6
5	6
5	6
6	7
6	7
6	7
7	8
7	8
7	8
8	9
8	9
10	11
10	11
14	15
14	15
22	23
60	61
