1	6124
1	131
1	131
1	133
1	16
1	15
1	130
1	6
1	12
1	131
1	22
1	130
1	130
1	130
1	5
1	14
1	130
1	13
1	9
1	130
1	20
1	130
1	13
1	5
1	131
1	130
1	130
1	17
1	133
1	11
1	134
1	17
1	6
1	19
1	6
1	7
1	130
1	7
1	130
1	10
1	131
1	7
1	130
1	9
1	130
1	131
1	130
1	16
1	130
1	18
1	7
1	130
1	130
1	131
1	131
1	6
1	7
1	7
1	6
1	14
1	130
1	8
1	130
1	132
1	130
1	130
1	9
1	7
1	131
1	130
1	12
1	132
1	7
1	10
1	6
1	130
1	133
1	130
1	5
1	8
1	130
1	9
1	8
1	130
1	130
1	5
1	13
1	7
1	130
1	16
1	5
1	134
1	13
1	130
1	4
1	130
1	6
1	12
1	6
1	16
1	133
1	9
1	132
1	14
1	12
1	12
1	130
1	130
1	13
1	5
1	6
1	8
1	130
1	130
1	14
1	7
1	130
1	5
1	130
1	18
1	6
1	130
1	12
1	17
1	8
1	130
1	8
1	16
1	5
1	6
1	130
1	131
1	17
1	7
1	6
1	132
1	9
1	9
1	131
1	6124
1	8
1	130
1	130
1	5
1	6
1	12
1	130
1	6
1	6
1	132
1	131
1	7
1	131
1	130
1	130
1	7
1	130
1	4
1	13
1	7
1	16
1	130
1	5
1	9
1	5
1	130
1	5
1	6
1	130
1	16
1	8
1	7
1	5
1	130
1	5
1	7
1	13
1	7
1	131
1	8
1	12
1	7
1	8
1	6
1	130
1	6
1	6
1	132
1	130
1	8
1	130
1	12
1	4
1	6124
1	6
1	7
1	4
1	5
1	6
1	130
1	4
1	131
1	130
1	131
1	130
1	130
1	7
1	8
1	130
1	130
1	6
1	5
1	7
1	4
1	2
1	130
1	132
1	7
1	132
1	2
1	12
1	4
1	5
1	131
1	131
1	130
1	130
1	130
1	12
1	130
1	13
1	7
1	5
1	131
1	6
1	7
1	131
1	10
1	130
1	8
1	130
1	5
1	16
1	131
2	3
2	4
2	3
2	3
2	3
2	4
2	5
2	5
2	4
2	3
2	5
2	5
2	6
2	3
2	5
2	3
2	4
2	5
2	3
2	3
2	3
2	4
2	5
2	5
2	3
2	3
2	5
2	8
2	3
2	4
2	3
2	5
2	4
2	3
2	3
2	3
2	3
2	3
2	3
2	3
2	3
2	7
2	3
2	3
2	3
2	3
2	5
2	3
2	3
2	3
2	3
2	3
2	4
2	3
2	4
2	3
2	3
2	3
2	3
2	3
2	3
2	4
2	3
2	3
2	4
2	3
2	7
2	6
2	4
2	6
2	3
2	3
2	3
2	3
2	4
2	3
2	4
2	3
2	3
2	5
2	5
2	4
2	3
2	6
2	3
2	4
2	3
2	5
2	3
2	4
2	4
2	4
2	3
2	3
2	3
2	4
2	3
2	3
2	3
2	3
2	5
2	3
2	4
2	3
2	3
2	13
2	4
2	4
2	4
2	3
2	3
2	3
2	4
2	4
2	4
2	3
2	3
2	4
2	3
3	4
3	5
3	6
3	4
3	4
3	4
3	5
3	5
3	5
3	4
3	5
3	4
3	5
3	4
3	4
3	4
3	4
3	4
3	4
3	4
3	5
3	4
3	5
3	4
3	4
3	4
3	6
3	4
3	5
3	4
3	7
3	4
3	4
3	4
3	6
4	6
4	5
4	5
4	5
4	5
4	5
4	6
4	5
4	5
4	5
4	5
4	5
4	5
4	5
4	6
4	5
4	6
4	5
5	6
5	6
5	6
5	6
5	6
5	6
5	6
5	6
5	6
5	6
5	6
5	6
6	7
6	7
6	7
6	7
6	8
7	8
11	12
11	12
12	13
15	16
129	130
