1	6124
1	95
1	93
1	92
1	92
1	92
1	12
1	7
1	93
1	11
1	9
1	12
1	13
1	94
1	93
1	92
1	7
1	18
1	91
1	12
1	14
1	92
1	8
1	15
1	10
1	11
1	21
1	4
1	21
1	11
1	20
1	6
1	9
1	10
1	10
1	7
1	16
1	92
1	7
1	21
1	91
1	6
1	11
1	9
1	12
1	8
1	8
1	95
1	19
1	6
1	7
1	8
1	21
1	11
1	6
1	16
1	6
1	13
1	91
1	7
1	11
1	9
1	92
1	13
1	10
1	21
1	4
1	4
1	91
1	94
1	8
1	91
1	91
1	91
1	5
1	10
1	6
1	12
1	20
1	11
1	91
1	91
1	91
1	9
1	10
1	92
1	19
1	14
1	91
1	6
1	6124
1	7
1	5
1	11
1	12
1	2
1	7
1	10
1	6124
1	6
1	6
1	94
1	91
1	91
1	20
1	6
1	9
1	10
1	12
1	6124
1	5
1	6
1	9
1	20
1	91
1	7
1	19
1	10
1	91
1	5
1	10
1	8
1	12
1	7
1	7
1	13
1	12
1	7
1	5
1	10
1	4
1	6
1	7
1	6
1	7
1	6
1	9
1	7
1	91
1	2
1	9
1	92
1	14
1	5
1	91
1	8
1	9
1	6
1	7
1	5
1	13
1	11
1	92
1	91
1	91
1	91
1	11
1	10
1	8
1	6
1	10
1	9
1	91
1	91
1	7
1	9
1	10
1	6
1	5
1	91
1	7
1	8
1	91
1	9
1	20
1	8
1	4
1	7
1	91
1	6
1	6
1	7
1	6124
1	19
1	12
1	2
1	19
1	15
1	7
1	9
1	4
1	91
1	6
1	8
1	5
1	6
1	5
1	7
1	2
1	7
1	91
1	6
1	4
1	91
1	10
1	6
1	10
2	3
2	5
2	6
2	5
2	6
2	3
2	3
2	5
2	8
2	3
2	6
2	5
2	4
2	3
2	5
2	5
2	3
2	6
2	9
2	3
2	3
2	11
2	3
2	3
2	6
2	4
2	7
2	4
2	3
2	4
2	6
2	5
2	4
2	3
2	5
2	4
2	4
2	3
2	6
2	4
2	3
2	5
2	3
2	3
2	3
2	3
2	7
2	3
2	5
2	9
2	3
2	4
2	3
2	3
2	3
2	3
2	4
2	3
2	3
2	6
2	3
2	5
2	3
2	4
2	3
2	3
2	4
2	13
2	8
2	3
2	4
2	4
2	4
2	3
2	5
2	3
2	3
2	4
2	4
2	9
3	4
3	4
3	4
3	5
3	4
3	4
3	4
3	4
3	4
3	10
3	7
3	5
3	4
3	5
3	5
3	4
3	4
3	5
3	4
3	5
3	5
3	5
3	4
3	6
3	6
3	4
3	5
3	4
3	5
3	6
3	7
3	5
3	4
3	4
3	4
3	4
3	4
3	4
3	5
4	6
4	5
4	5
4	5
4	5
4	5
4	5
4	5
4	6
4	5
4	5
4	5
4	5
4	5
4	5
4	5
4	6
4	6
4	5
4	9
4	5
4	6
4	5
5	6
5	6
5	6
5	6
5	6
5	6
5	6
5	6
5	6
5	8
5	7
5	7
5	6
6	7
6	7
6	7
6	7
6	7
6	8
6	7
6	7
7	8
7	8
7	8
8	9
8	9
8	9
9	10
9	10
10	11
11	12
12	13
18	19
19	20
90	91
