1	6124
1	91
1	21
1	88
1	5
1	11
1	5
1	90
1	88
1	10
1	10
1	16
1	94
1	20
1	15
1	8
1	87
1	88
1	87
1	11
1	92
1	89
1	7
1	89
1	87
1	10
1	11
1	87
1	9
1	15
1	87
1	91
1	8
1	10
1	88
1	89
1	9
1	18
1	19
1	8
1	88
1	8
1	6
1	9
1	14
1	88
1	87
1	10
1	6
1	13
1	4
1	87
1	12
1	18
1	11
1	87
1	18
1	13
1	11
1	10
1	20
1	7
1	11
1	6
1	9
1	12
1	10
1	20
1	6
1	8
1	8
1	88
1	9
1	8
1	8
1	87
1	18
1	6
1	6
1	10
1	89
1	92
1	9
1	9
1	12
1	4
1	10
1	7
1	9
1	6
1	89
1	5
1	89
1	6
1	9
1	9
1	5
1	5
1	14
1	9
1	5
1	7
1	9
1	18
1	6
1	6
1	12
1	8
1	9
1	4
1	88
1	19
1	7
1	10
1	8
1	87
1	12
1	11
1	6
1	11
1	8
1	7
1	18
1	4
1	5
1	9
1	13
1	9
1	5
1	6
1	18
1	9
1	7
1	8
1	7
1	88
1	9
1	4
1	7
1	89
1	7
1	6
1	6
1	8
1	8
1	11
1	4
1	5
1	87
1	5
1	7
1	6
1	6
1	5
1	7
1	18
1	8
1	11
1	6
1	6
1	5
1	10
1	11
1	5
1	7
1	87
1	7
1	88
1	18
1	89
1	87
1	87
1	88
1	8
1	7
1	88
1	7
1	4
1	4
1	5
1	4
1	87
1	9
1	7
1	87
1	10
1	9
1	8
1	7
1	7
1	9
1	19
1	7
1	7
1	87
1	6
1	8
1	9
1	6
1	5
1	10
1	8
1	6
1	7
1	9
1	87
1	87
1	7
1	4
1	87
1	6
1	7
1	4
1	6
1	5
1	4
1	5
1	14
1	6
1	87
1	5
1	8
1	7
1	7
1	9
1	87
1	18
1	11
1	8
1	8
1	4
1	87
1	87
1	9
1	13
1	6
1	87
1	87
1	9
1	5
1	7
1	7
1	6
2	8
2	3
2	7
2	5
2	6
2	4
2	3
2	3
2	3
2	3
2	5
2	3
2	3
2	3
2	6
2	3
2	3
2	5
2	4
2	5
2	8
2	3
2	6
2	4
2	6
2	3
2	7
2	4
2	4
2	3
2	3
2	5
2	3
2	6
2	5
2	3
2	6
2	3
2	3
2	4
2	3
2	3
2	4
2	4
2	3
2	4
2	3
2	3
2	4
2	4
2	6
2	7
2	3
2	4
2	4
2	4
2	3
2	5
2	3
2	6
2	3
2	6
2	3
2	3
2	5
2	3
2	3
2	3
2	3
2	3
2	3
2	3
2	4
2	4
2	3
2	5
2	3
2	3
2	4
2	4
2	4
2	7
2	3
2	3
2	3
2	3
2	3
2	4
2	4
3	4
3	4
3	4
3	4
3	5
3	4
3	5
3	5
3	4
3	4
3	4
3	4
3	4
3	4
3	5
3	4
3	5
3	4
3	5
3	4
3	5
3	5
3	4
3	7
3	6
3	4
3	5
3	6
3	5
3	4
3	4
3	4
3	4
3	4
3	4
3	4
3	4
3	4
3	4
4	5
4	5
4	5
4	5
4	5
4	5
4	5
4	6
4	5
4	6
4	6
4	5
4	5
4	5
4	5
4	6
4	5
4	6
4	6
4	5
4	5
4	5
4	6
4	5
5	6
5	6
5	6
5	7
5	6
5	6
5	6
5	6
5	6
5	6
5	6
5	6
5	6
6	7
6	7
6	7
6	8
6	7
6	7
6	7
6	7
7	8
7	8
7	8
8	9
8	9
8	9
8	9
9	10
10	11
12	13
17	18
86	87
