1	6124
1	146
1	146
1	144
1	144
1	144
1	144
1	146
1	145
1	145
1	12
1	12
1	147
1	144
1	148
1	148
1	148
1	144
1	18
1	17
1	15
1	9
1	13
1	144
1	15
1	144
1	6
1	144
1	144
1	9
1	144
1	146
1	144
1	6124
1	5
1	144
1	144
1	147
1	145
1	6
1	11
1	146
1	145
1	4
1	8
1	11
1	5
1	146
1	9
1	11
1	145
1	8
1	144
1	148
1	7
1	144
1	144
1	4
1	144
1	144
1	144
1	8
1	9
1	7
1	18
1	145
1	14
1	144
1	145
1	147
1	144
1	8
1	146
1	145
1	144
1	144
1	6
1	145
1	10
1	6
1	6
1	144
1	9
1	144
1	13
1	148
1	145
1	10
1	8
1	8
1	145
1	144
1	6
1	146
1	151
1	145
1	8
1	148
1	9
1	8
1	144
1	144
1	5
1	10
1	9
1	11
1	145
1	147
1	8
1	11
1	7
1	5
1	8
1	8
1	14
1	5
1	4
1	146
1	144
1	6
1	7
1	6
1	6
1	13
1	145
1	146
1	6
1	146
1	12
1	6124
1	8
1	8
1	144
1	5
1	144
1	144
1	5
1	144
1	144
1	144
1	7
1	6
1	7
1	145
1	8
1	144
1	11
1	144
1	6
1	144
1	7
1	144
1	6
1	144
1	146
1	8
1	9
1	4
1	146
1	5
1	9
1	7
1	5
1	6
1	145
1	6
1	144
1	7
1	144
1	3
1	144
1	146
1	144
1	6
1	5
1	4
1	5
1	144
1	4
1	146
1	4
1	7
1	6
1	6
1	5
1	8
1	5
1	144
1	10
1	11
1	6
1	5
1	6
1	5
1	8
1	6
1	144
1	6
1	144
1	4
1	144
1	7
1	11
1	144
1	144
1	144
1	144
1	7
1	144
1	9
1	144
1	145
1	7
1	8
1	9
1	144
1	146
1	145
1	8
1	4
1	7
1	5
1	144
1	144
1	9
1	145
1	6
1	144
1	5
1	2
1	6
1	8
1	9
1	10
1	7
1	144
1	145
1	7
1	5
1	6
1	144
1	6
1	144
1	5
1	144
1	10
1	144
1	5
1	11
1	144
1	145
1	144
1	144
1	6
1	144
1	6
1	12
1	9
1	144
1	9
1	4
1	7
1	4
1	10
1	7
1	4
1	6
1	6
1	144
1	6
1	145
1	6
1	4
1	5
1	6
1	6
1	5
1	144
1	145
1	4
2	3
2	4
2	3
2	5
2	3
2	3
2	4
2	3
2	3
2	3
2	4
2	3
2	3
2	3
2	5
2	4
2	3
2	12
2	3
2	3
2	4
2	3
2	3
2	3
2	3
2	5
2	4
2	3
2	3
2	7
2	3
2	3
2	3
2	3
2	3
2	10
2	3
2	3
2	6
2	3
2	5
2	4
2	3
2	3
2	3
2	3
2	3
2	3
2	3
2	3
2	4
2	4
2	3
2	3
2	7
2	3
2	3
2	3
2	10
2	3
2	6
2	3
2	3
2	3
2	3
2	4
2	3
2	4
2	3
2	3
2	3
2	4
2	4
2	3
2	3
2	3
2	4
2	4
2	4
2	3
2	5
2	4
2	5
2	5
2	3
2	3
3	4
3	4
3	8
3	4
3	4
3	4
3	4
3	4
3	4
3	4
3	4
3	6
3	4
3	4
3	6
3	4
3	6
3	4
3	4
3	4
3	4
3	4
3	4
3	4
3	4
3	4
3	4
3	4
3	5
3	4
3	4
3	4
3	4
3	4
3	5
3	4
3	4
3	4
3	4
3	4
3	5
3	4
3	5
3	4
4	5
4	5
4	5
4	5
4	5
4	5
4	5
4	5
4	5
4	5
4	5
4	5
5	6
5	6
5	6
5	6
5	6
5	6
5	6
5	6
5	6
5	6
5	6
5	6
5	6
5	6
5	6
6	7
6	7
6	7
6	7
7	8
7	8
7	8
8	9
8	9
9	10
10	11
10	11
143	144
