1	6124
1	201
1	200
1	200
1	22
1	25
1	200
1	200
1	201
1	200
1	200
1	200
1	200
1	200
1	202
1	19
1	14
1	200
1	200
1	200
1	12
1	200
1	21
1	200
1	200
1	200
1	200
1	200
1	13
1	200
1	15
1	14
1	200
1	17
1	200
1	11
1	8
1	200
1	200
1	201
1	9
1	10
1	15
1	21
1	200
1	200
1	200
1	10
1	200
1	200
1	200
1	200
1	201
1	13
1	10
1	12
1	200
1	21
1	16
1	200
1	11
1	200
1	200
1	200
1	200
1	200
1	7
1	200
1	200
1	14
1	21
1	10
1	200
1	200
1	200
1	14
1	200
1	8
1	15
1	200
1	200
1	200
1	200
1	202
1	6
1	200
1	13
1	200
1	9
1	200
1	201
1	200
1	200
1	200
1	9
1	200
1	21
1	9
1	200
1	200
1	6
1	200
1	200
1	21
1	200
1	200
1	200
1	200
1	14
1	200
1	200
1	200
1	200
1	200
1	200
1	9
1	200
1	12
1	200
1	200
1	8
1	5
1	200
1	6
1	8
1	13
1	15
1	200
1	200
1	200
1	200
1	13
1	200
1	200
1	21
1	200
1	200
1	10
1	5
1	200
1	200
1	200
1	15
1	200
1	15
1	200
1	11
1	4
1	15
1	200
1	200
1	10
1	200
1	200
1	200
1	200
1	200
1	200
1	200
1	200
1	200
1	200
1	8
1	8
1	200
1	200
1	200
1	5
1	11
1	11
1	200
1	7
1	200
1	9
1	201
1	201
1	4
1	200
1	9
1	200
1	5
1	200
1	200
1	200
1	6
1	200
1	200
1	200
1	9
1	200
1	5
1	200
1	200
1	200
1	200
1	200
1	13
1	13
1	200
1	200
1	13
1	7
1	201
1	12
1	200
1	15
1	200
1	200
1	200
1	200
1	9
1	8
1	8
1	10
1	7
1	4
1	7
1	9
1	6
1	6
1	9
1	200
1	200
1	200
1	8
1	200
1	200
1	7
1	200
1	6
1	200
1	200
1	21
1	200
2	9
2	9
2	12
2	22
2	4
2	8
2	5
2	7
2	7
2	7
2	16
2	14
2	7
2	9
2	7
2	3
2	9
2	6
2	3
2	6
2	4
2	4
2	7
2	4
2	3
2	6
2	3
2	3
2	4
2	7
2	4
2	3
2	7
2	4
2	3
2	7
2	5
2	16
2	8
2	8
2	5
2	9
2	3
2	4
2	4
2	4
2	3
2	10
2	7
2	8
2	4
2	4
2	3
2	5
2	7
2	7
2	5
2	7
2	3
2	3
2	7
3	5
3	4
3	4
3	4
3	9
3	7
3	6
3	7
3	6
3	4
3	5
3	5
3	7
3	6
3	4
3	7
3	6
3	4
3	5
3	10
3	4
3	6
3	6
3	4
3	4
3	6
3	4
3	5
3	5
3	5
3	4
3	5
4	7
4	6
4	5
4	5
4	5
4	5
4	5
4	5
4	5
4	5
5	6
5	6
5	6
5	7
5	7
5	6
5	6
5	6
6	7
6	7
6	8
6	7
7	8
7	8
7	8
7	8
7	8
8	9
10	11
11	12
11	12
12	13
14	15
20	21
199	200
