1	6124
1	79
1	76
1	76
1	78
1	77
1	6124
1	76
1	77
1	8
1	9
1	80
1	12
1	12
1	74
1	17
1	11
1	10
1	75
1	9
1	79
1	9
1	14
1	3
1	75
1	9
1	7
1	9
1	5
1	6
1	6
1	76
1	74
1	8
1	76
1	11
1	75
1	8
1	77
1	5
1	12
1	75
1	7
1	7
1	7
1	8
1	80
1	6
1	11
1	10
1	6
1	76
1	81
1	11
1	7
1	5
1	9
1	10
1	6
1	78
1	12
1	12
1	9
1	76
1	6
1	8
1	8
1	8
1	76
1	6
1	13
1	6124
1	5
1	75
1	6
1	8
1	74
1	6
1	5
1	74
1	11
1	5
1	10
1	10
1	9
1	6
1	5
1	12
1	9
1	7
1	77
1	4
1	9
1	9
1	5
1	8
1	77
1	75
1	7
1	8
1	10
1	9
1	6
1	6
1	9
1	8
1	6
1	5
1	76
1	6
1	9
1	11
1	4
1	4
1	4
1	6
1	6124
1	8
1	7
1	5
1	8
1	4
1	9
1	9
1	2
1	74
1	6
1	77
1	6
1	74
1	76
1	4
1	7
1	6
1	9
1	6
1	9
1	75
1	7
1	6
1	5
1	5
1	6
1	7
1	9
1	7
1	7
1	6
1	11
1	6124
1	7
1	5
1	5
1	9
1	74
1	6
1	9
1	4
1	7
1	6
1	5
1	6
1	9
1	6
1	7
1	7
1	74
1	4
1	75
1	76
1	74
1	74
1	6
1	9
1	74
1	6
1	5
1	9
1	5
1	5
1	6
1	5
1	74
1	6
1	5
1	7
1	5
1	6
1	75
1	10
1	7
1	75
1	6
1	9
1	5
1	9
1	6
1	7
1	75
1	8
1	7
1	4
1	75
1	76
1	6
1	5
1	6
1	6
1	6
1	5
1	4
1	75
1	6
1	8
1	7
1	7
1	8
1	4
1	75
1	6
1	5
1	6
1	8
1	7
1	5
1	5
1	5
1	74
1	4
1	3
1	6
1	5
2	3
2	3
2	4
2	3
2	6
2	3
2	3
2	4
2	5
2	3
2	3
2	4
2	3
2	4
2	5
2	4
2	5
2	4
2	3
2	8
2	3
2	4
2	4
2	4
2	3
2	5
2	3
2	3
2	5
2	3
2	6
2	3
2	6
2	4
2	3
2	4
2	3
2	3
2	3
2	6
2	4
2	4
2	3
2	3
2	3
2	3
2	3
2	4
2	3
2	3
2	3
2	4
2	4
2	3
2	3
2	5
2	3
2	4
2	3
2	3
2	3
2	3
2	4
2	3
2	3
2	3
2	4
2	3
2	5
2	4
2	3
2	4
2	4
2	5
2	3
2	4
2	4
2	4
2	3
2	3
2	4
2	4
2	3
2	4
2	3
2	4
2	5
2	7
2	3
2	6
2	4
2	5
2	4
2	3
2	3
2	3
2	3
2	6
2	3
2	4
2	6
2	3
2	3
2	3
2	4
2	3
2	4
2	3
2	4
2	4
2	3
2	5
2	3
2	3
2	3
2	4
2	3
2	3
2	3
2	4
2	4
2	4
2	3
2	3
2	3
2	3
2	4
2	3
2	4
3	5
3	4
3	4
3	5
3	4
3	4
3	4
3	4
3	4
3	4
3	6
3	4
3	4
3	4
3	4
3	4
3	4
3	4
3	5
3	4
3	4
3	4
3	4
3	5
3	5
3	5
3	4
3	4
3	5
3	4
3	4
3	4
3	4
3	4
3	5
3	4
3	5
3	4
3	5
3	4
3	4
3	4
3	4
3	5
4	5
4	5
4	5
4	6
4	5
4	5
4	5
4	5
4	5
4	5
4	5
4	6
4	5
4	5
4	5
4	5
4	5
4	7
4	5
4	5
4	6
4	5
4	6
4	6
4	5
4	5
4	6
4	5
5	7
5	6
5	6
5	6
5	6
5	6
5	6
5	6
5	6
5	6
6	7
6	7
6	7
6	7
6	7
6	7
6	7
7	8
7	8
7	8
8	9
8	9
8	9
10	11
73	74
