1	6124
1	328
1	328
1	328
1	328
1	328
1	332
1	328
1	328
1	328
1	330
1	328
1	328
1	330
1	328
1	328
1	329
1	328
1	328
1	12
1	328
1	328
1	328
1	330
1	328
1	328
1	328
1	328
1	328
1	328
1	328
1	328
1	328
1	328
1	330
1	328
1	328
1	328
1	328
1	328
1	328
1	328
1	328
1	330
1	328
1	328
1	328
1	329
1	328
1	328
1	329
1	328
1	12
1	331
1	328
1	328
1	328
1	7
1	329
1	328
1	13
1	328
1	328
1	328
1	328
1	328
1	328
1	6
1	328
1	10
1	328
1	328
1	328
1	329
1	9
1	330
1	328
1	328
1	328
1	328
1	328
1	328
1	328
1	328
1	328
1	328
1	332
1	328
1	328
1	11
1	10
1	328
1	12
1	328
1	329
1	328
1	328
1	328
1	328
1	7
1	328
1	328
1	328
1	328
1	328
1	9
1	328
1	328
1	7
1	6
1	328
1	6
1	328
1	6
1	328
1	328
1	328
1	6
1	328
1	328
1	329
1	14
1	328
1	328
1	328
1	328
1	7
1	328
1	328
1	329
1	328
1	328
1	328
1	328
1	328
1	328
1	328
1	7
1	6
1	12
1	328
1	328
1	328
1	328
1	328
1	331
1	10
1	6
1	6
1	328
1	9
1	328
1	328
1	328
1	6
1	8
1	328
1	328
1	328
1	328
1	328
1	328
1	328
1	328
1	328
1	328
1	328
1	328
1	328
1	328
1	328
1	328
1	328
1	328
1	4
1	328
1	328
1	328
1	328
1	328
1	328
1	328
1	328
1	330
1	328
1	9
1	328
1	328
1	328
1	5
1	328
1	328
1	328
1	4
1	328
1	328
1	328
1	328
1	328
1	328
1	330
1	328
1	14
1	328
1	328
1	6
1	9
1	328
1	328
1	328
1	5
1	328
1	328
1	7
1	328
1	8
1	328
1	328
1	5
1	328
1	328
1	328
1	328
1	328
1	328
1	5
1	328
1	328
1	328
1	328
1	328
1	328
1	328
1	328
1	328
1	328
1	328
1	328
1	328
1	328
1	328
1	12
1	328
1	328
1	328
1	328
1	328
1	328
1	328
1	328
1	328
1	328
1	328
1	328
1	8
1	329
1	328
1	328
1	328
1	9
1	8
1	328
1	5
1	8
1	328
1	328
1	329
1	328
1	329
1	328
1	328
1	328
1	328
1	328
1	328
1	328
1	328
1	328
1	9
1	5
1	328
1	328
1	328
1	328
1	328
1	328
1	328
1	5
1	328
1	328
1	328
1	328
1	328
1	328
1	328
1	328
1	328
1	328
1	328
1	328
1	328
1	4
1	329
1	6
1	328
1	328
1	328
1	328
1	328
1	328
1	328
1	328
1	328
1	328
1	328
1	328
1	328
1	328
1	12
1	328
1	328
1	5
1	6
1	328
1	328
1	328
1	328
1	328
1	9
1	328
1	328
1	328
1	6
1	328
1	328
1	6
1	328
1	329
1	328
1	328
1	328
1	328
1	328
1	328
1	328
1	328
1	328
1	9
1	328
1	328
1	328
1	328
1	328
1	328
1	329
1	328
1	328
1	12
1	9
1	328
1	328
1	6
1	328
1	328
1	328
1	328
1	328
1	328
2	3
2	3
2	3
2	3
2	5
2	3
2	3
2	329
2	3
2	3
2	6
2	13
2	3
2	3
2	6
2	3
2	10
2	6
2	3
2	4
2	3
2	3
2	6
2	3
2	6
2	5
2	3
2	4
2	3
2	3
2	3
2	329
2	3
2	3
2	3
2	5
2	4
2	5
2	3
2	4
2	3
2	3
2	4
2	3
3	4
3	5
3	4
3	5
3	4
3	4
3	4
3	5
3	4
3	4
3	4
3	4
3	4
3	4
3	4
3	4
3	4
3	4
3	5
3	4
4	5
4	5
4	5
4	5
4	5
4	5
4	5
4	5
4	5
5	6
5	6
5	6
5	6
5	6
5	6
7	8
7	8
8	9
11	12
327	328
