1	6124
1	76
1	75
1	75
1	75
1	9
1	11
1	76
1	75
1	16
1	75
1	75
1	76
1	9
1	75
1	75
1	75
1	9
1	11
1	8
1	75
1	8
1	8
1	6
1	75
1	75
1	12
1	76
1	75
1	8
1	75
1	8
1	6
1	75
1	75
1	75
1	75
1	76
1	75
1	75
1	75
1	10
1	75
1	7
1	75
1	76
1	75
1	75
1	75
1	75
1	75
1	75
1	6
1	75
1	75
1	75
1	75
1	10
1	5
1	7
1	10
2	11
2	6
2	3
2	8
2	8
2	8
2	4
2	9
2	3
2	6
2	4
2	15
2	5
2	3
2	10
2	8
2	4
2	3
2	7
2	3
2	76
2	5
2	4
2	4
2	8
2	7
2	7
2	12
3	5
3	9
3	9
3	5
3	7
3	5
3	8
3	6
3	11
3	4
3	4
3	4
3	5
3	4
3	4
3	4
3	5
3	6
4	7
4	5
4	7
4	5
4	5
5	6
5	6
5	7
5	7
6	7
6	7
6	7
6	7
6	7
7	8
8	9
9	11
13	15
74	75
