1	6124
1	96
1	95
1	95
1	97
1	9
1	10
1	14
1	11
1	10
1	10
1	17
1	9
1	10
1	97
1	9
1	8
1	14
1	10
1	97
1	94
1	15
1	14
1	13
1	94
1	8
1	94
1	14
1	10
1	94
1	96
1	9
1	94
1	94
1	14
1	8
1	97
1	8
1	8
1	9
1	94
1	8
1	99
1	12
1	6
1	8
1	13
1	95
1	8
1	17
1	7
1	12
1	8
1	6
1	96
1	8
1	11
1	9
1	9
1	94
1	4
1	94
1	94
1	94
1	6
1	94
1	9
1	15
1	10
1	94
1	6
1	97
1	8
1	14
1	100
1	9
1	9
1	8
1	96
1	7
1	95
1	94
1	96
1	14
1	7
1	8
1	6
1	6
1	14
1	6
1	5
1	4
1	5
1	6
1	10
1	6
1	12
1	14
1	6
1	95
1	11
1	5
1	98
1	16
1	5
1	94
1	13
1	94
1	12
1	6
1	96
1	8
1	9
1	10
1	6
1	94
1	8
1	6
1	5
1	8
1	5
1	8
1	7
1	12
1	8
1	11
1	6
1	6
1	7
1	9
1	4
1	94
1	8
1	5
1	12
1	7
1	9
1	6
1	94
1	7
1	8
1	6
1	6
1	6
1	8
1	4
1	12
1	5
1	9
1	6
1	9
1	9
1	5
1	5
1	8
1	94
1	14
1	6
1	12
1	8
1	5
1	8
1	95
1	96
1	8
1	5
1	8
1	8
1	8
1	95
1	94
1	6
1	4
1	6
1	10
1	5
1	94
1	7
1	94
1	7
1	94
1	9
1	8
1	9
1	7
1	15
1	10
1	9
1	5
1	94
1	9
1	10
1	94
1	5
1	4
1	7
1	6
1	7
1	8
1	95
1	15
1	94
1	7
1	95
1	9
1	6
1	6
1	95
1	7
1	9
1	94
1	6
1	6
1	94
1	14
1	6
1	10
1	6
1	4
1	6
1	4
1	8
1	5
1	94
1	9
1	9
1	5
1	6
1	95
1	6
1	5
1	4
1	95
1	94
1	8
1	7
1	7
1	6
1	4
1	9
1	9
1	6
1	95
1	6
1	6
1	4
1	6
1	9
2	6
2	3
2	4
2	5
2	4
2	3
2	3
2	3
2	3
2	3
2	3
2	3
2	3
2	3
2	5
2	3
2	3
2	3
2	3
2	4
2	5
2	4
2	10
2	10
2	7
2	3
2	5
2	3
2	3
2	4
2	9
2	3
2	3
2	3
2	5
2	4
2	3
2	6
2	3
2	5
2	3
2	3
2	7
2	3
2	3
2	4
2	3
2	3
2	3
2	5
2	3
2	3
2	5
2	4
2	3
2	3
2	3
2	3
2	3
2	3
2	3
2	3
2	4
2	4
2	4
2	3
2	3
2	5
2	3
2	4
2	3
2	3
2	3
2	8
2	3
2	3
2	4
2	4
2	6
2	3
2	4
2	3
2	3
2	3
2	3
2	5
3	4
3	4
3	4
3	4
3	4
3	4
3	4
3	4
3	4
3	4
3	4
3	4
3	4
3	5
3	4
3	4
3	4
3	4
3	4
3	4
3	4
3	4
3	5
3	6
3	4
3	4
3	4
3	4
3	4
3	5
3	5
3	4
3	4
3	4
3	6
3	6
3	4
3	4
3	4
3	4
3	4
3	4
3	4
3	4
3	4
4	5
4	5
4	5
4	5
4	5
4	5
4	5
4	5
4	5
4	6
4	5
4	5
4	5
4	5
4	5
4	5
4	5
4	5
4	7
4	6
4	5
5	6
5	6
5	6
5	6
5	6
5	6
5	6
5	6
5	6
5	6
5	6
5	6
5	6
5	6
5	6
6	7
6	7
6	7
6	7
6	7
6	11
6	7
6	7
6	7
7	8
7	8
7	8
7	8
7	8
7	8
8	10
8	9
8	9
9	10
11	12
13	14
93	94
