1	6124
1	84
1	85
1	85
1	86
1	14
1	82
1	14
1	8
1	85
1	15
1	14
1	84
1	11
1	16
1	82
1	11
1	82
1	18
1	86
1	82
1	84
1	86
1	82
1	13
1	8
1	6
1	85
1	10
1	84
1	83
1	8
1	6
1	9
1	7
1	84
1	7
1	83
1	84
1	10
1	86
1	18
1	82
1	16
1	15
1	14
1	9
1	86
1	85
1	12
1	7
1	6
1	84
1	9
1	11
1	8
1	15
1	83
1	10
1	84
1	9
1	7
1	82
1	83
1	82
1	7
1	8
1	6
1	9
1	7
1	13
1	4
1	7
1	83
1	82
1	83
1	17
1	5
1	9
1	8
1	12
1	7
1	87
1	9
1	8
1	5
1	9
1	12
1	7
1	6
1	8
1	4
1	5
1	6
1	11
1	7
1	82
1	10
1	11
1	8
1	7
1	7
1	82
1	82
1	82
1	7
1	82
1	7
1	7
1	82
1	7
1	16
1	6
1	6
1	14
1	8
1	5
1	82
1	13
1	6
1	7
1	12
1	82
1	6
1	5
1	83
1	5
1	82
1	82
1	14
1	17
1	82
1	82
1	4
1	7
1	82
1	8
1	7
1	86
1	7
1	6
1	9
1	6
1	17
1	83
1	11
1	5
1	6
1	14
1	15
1	6
1	7
1	6
1	82
1	7
1	4
1	8
1	82
1	82
1	82
1	4
1	5
1	6
1	9
1	9
1	5
1	12
1	10
1	6
1	5
1	4
1	13
1	6
1	5
1	82
1	4
1	5
1	14
1	5
1	4
1	6
1	11
1	7
1	10
1	82
1	5
1	7
1	6
1	12
1	12
1	6
1	7
1	6
1	17
1	12
1	13
1	5
1	5
1	10
1	8
1	82
1	17
1	6
1	12
1	82
1	11
1	9
1	5
1	7
1	14
1	17
1	14
1	12
1	6
1	82
1	4
1	9
1	6
1	82
1	13
1	82
1	6
1	6
1	82
1	5
1	14
1	5
1	6
1	82
1	11
1	17
1	11
1	82
1	17
1	8
1	8
1	6
1	4
1	8
1	7
1	82
1	5
1	6
1	82
1	7
1	4
1	4
1	6
1	5
1	5
1	10
2	3
2	3
2	5
2	3
2	5
2	5
2	5
2	3
2	6
2	3
2	3
2	6
2	3
2	5
2	3
2	4
2	3
2	3
2	3
2	5
2	4
2	3
2	9
2	3
2	7
2	4
2	3
2	3
2	5
2	3
2	4
2	3
2	3
2	3
2	4
2	3
2	3
2	4
2	7
2	5
2	3
2	3
2	5
2	3
2	3
2	5
2	3
2	4
2	3
2	4
2	6
2	7
2	3
2	3
2	6
2	5
2	3
2	3
2	3
2	3
2	3
2	4
2	5
2	3
2	3
2	3
2	4
2	5
2	3
2	6
2	8
2	3
2	3
2	6
2	3
2	4
2	3
2	3
2	3
2	3
2	3
2	8
2	3
2	3
2	3
2	4
2	4
2	3
2	4
2	6
2	5
2	3
2	3
2	5
3	4
3	4
3	4
3	4
3	4
3	4
3	4
3	4
3	6
3	4
3	5
3	4
3	4
3	4
3	4
3	4
3	4
3	4
3	5
3	4
3	4
3	5
3	5
3	4
3	4
3	4
3	4
3	4
3	5
3	5
3	4
3	4
3	5
3	5
3	5
3	4
3	4
3	5
3	4
4	6
4	6
4	5
4	5
4	5
4	5
4	5
4	5
4	5
4	5
4	5
4	5
4	5
4	5
4	5
4	7
4	5
4	5
5	6
5	6
5	6
5	6
5	6
5	6
5	6
5	6
5	6
5	6
5	6
5	6
5	6
5	6
5	6
6	7
6	7
6	7
6	7
6	7
6	7
7	8
7	8
9	10
9	10
10	11
11	12
12	13
13	14
16	17
81	82
