1	6124
1	126
1	126
1	11
1	10
1	125
1	10
1	125
1	125
1	125
1	125
1	13
1	11
1	11
1	12
1	12
1	125
1	10
1	13
1	126
1	9
1	125
1	128
1	12
1	9
1	9
1	9
1	6
1	18
1	125
1	11
1	125
1	10
1	125
1	6
1	12
1	12
1	5
1	11
1	11
1	128
1	127
1	10
1	11
1	9
1	6
1	9
1	11
1	125
1	125
1	125
1	125
1	7
1	13
1	9
1	127
1	130
1	13
1	125
1	9
1	125
1	10
1	8
1	7
1	125
1	8
1	8
1	8
1	18
1	13
1	12
1	125
1	17
1	7
1	16
1	11
1	125
1	4
1	11
1	10
1	9
1	125
1	125
1	11
1	9
1	6
1	125
1	125
1	10
1	125
1	8
1	10
1	17
1	6
1	11
1	125
1	125
1	125
1	5
1	7
1	125
1	8
1	10
1	125
1	6
1	6
1	17
1	125
1	4
1	11
1	6
1	5
1	9
1	125
1	5
1	125
1	125
1	9
1	6
1	126
1	10
1	125
1	9
1	5
1	125
1	4
1	125
1	17
1	125
1	8
1	10
1	7
1	5
1	5
1	4
1	6
1	10
1	6
1	125
1	125
1	125
1	125
1	125
1	8
1	9
1	6
1	17
1	125
1	125
1	5
1	125
1	9
1	125
1	126
1	6124
1	125
1	125
1	6
1	10
1	12
1	125
1	126
1	7
1	10
1	7
1	125
1	125
1	5
1	15
1	9
1	8
1	6
1	125
1	125
1	125
1	6
1	125
1	6
1	12
1	125
1	127
1	5
1	8
1	5
1	4
1	7
1	12
1	125
1	12
1	11
1	7
1	9
1	125
1	10
1	12
1	9
1	125
1	8
1	5
1	125
1	10
1	8
1	11
1	11
1	10
1	18
1	5
1	17
1	7
1	5
1	8
1	125
1	125
1	125
1	5
1	6
1	125
1	6
1	125
1	2
1	125
1	7
1	9
1	10
1	125
1	125
1	10
1	125
1	12
1	13
1	6
1	8
1	11
1	5
1	6
1	9
1	125
1	125
1	6
1	10
1	19
1	8
1	6
1	8
1	9
1	125
1	125
1	8
1	6
1	7
1	6
1	8
1	6
1	9
1	11
1	6
1	11
1	125
1	5
1	9
1	125
1	8
1	10
1	17
2	7
2	6
2	5
2	5
2	7
2	3
2	3
2	4
2	4
2	7
2	5
2	5
2	3
2	9
2	3
2	6
2	5
2	9
2	3
2	3
2	6
2	3
2	3
2	6
2	3
2	7
2	3
2	3
2	3
2	11
2	7
2	7
2	4
2	4
2	3
2	11
2	6
2	5
2	3
2	3
2	3
2	3
2	3
2	3
2	3
2	3
2	4
2	4
2	3
2	3
2	8
2	3
2	4
2	6
2	3
2	3
2	4
2	6
2	7
3	4
3	4
3	4
3	4
3	4
3	5
3	7
3	4
3	4
3	5
3	4
3	6
3	4
3	5
3	4
3	4
3	5
3	4
3	4
3	4
3	4
3	5
3	4
3	4
3	4
3	4
3	6
3	4
4	6
4	5
4	5
4	5
4	5
4	5
4	5
4	5
4	5
4	6
4	5
4	5
4	6
4	7
4	5
4	5
4	5
4	5
4	5
4	5
4	5
4	5
4	5
4	7
5	6
5	6
5	6
5	6
5	6
5	6
5	6
5	6
5	6
5	6
5	6
5	6
6	7
6	7
6	7
6	7
6	7
6	7
6	7
7	8
7	8
7	8
7	8
7	8
7	8
7	8
9	10
9	10
9	10
9	10
9	11
9	10
10	11
10	11
11	12
16	17
124	125
