1	6124
1	25
1	89
1	15
1	14
1	13
1	95
1	88
1	13
1	89
1	11
1	87
1	88
1	91
1	6
1	88
1	93
1	87
1	89
1	87
1	87
1	87
1	87
1	90
1	91
1	14
1	13
1	87
1	88
1	12
1	8
1	8
1	87
1	7
1	88
1	12
1	7
1	88
1	89
1	11
1	7
1	12
1	7
1	6
1	6124
1	11
1	88
1	10
1	14
1	87
1	87
1	10
1	13
1	11
1	14
1	11
1	90
1	13
1	12
1	87
1	13
1	89
1	15
1	92
1	87
1	8
1	16
1	15
1	10
1	13
1	5
1	89
1	7
1	87
1	87
1	11
1	88
1	4
1	6124
1	13
1	5
1	6
1	11
1	10
1	10
1	87
1	5
1	8
1	87
1	12
1	11
1	87
1	91
1	2
1	8
1	12
1	9
1	6
1	11
1	13
1	9
1	89
1	92
1	89
1	9
1	10
1	6
1	13
1	8
1	88
1	4
1	7
1	7
1	9
1	6
1	9
1	5
1	6
1	9
1	5
1	11
1	8
1	87
1	14
1	8
1	5
1	10
1	5
1	5
1	9
1	8
1	5
1	87
1	6
1	9
1	8
1	11
1	87
1	4
1	13
1	5
1	8
1	7
1	13
1	88
1	87
1	14
1	7
1	10
1	87
1	5
1	7
1	8
1	7
1	5
1	8
1	87
1	9
1	7
1	12
1	87
1	7
1	6
1	8
1	12
1	10
1	13
1	5
1	87
1	12
1	8
1	13
1	87
1	11
1	10
1	5
1	5
1	4
1	87
1	88
1	87
1	14
1	11
1	88
1	12
1	7
1	6
1	7
1	7
1	87
1	4
1	6
1	6
1	87
1	7
1	89
1	6
1	11
1	4
1	4
1	5
1	88
1	87
1	4
1	5
1	9
1	5
1	87
1	6
1	12
1	10
1	9
1	6
1	87
1	7
1	8
1	5
1	5
1	6
1	9
1	4
1	7
1	6
1	6
2	5
2	5
2	3
2	3
2	3
2	5
2	5
2	6
2	3
2	3
2	5
2	3
2	5
2	3
2	13
2	5
2	3
2	3
2	3
2	3
2	6
2	3
2	4
2	4
2	3
2	4
2	4
2	5
2	4
2	5
2	10
2	5
2	3
2	3
2	5
2	3
2	4
2	3
2	4
2	4
2	3
2	3
2	3
2	3
2	3
2	4
2	3
2	5
2	3
2	5
2	3
2	4
2	4
2	4
2	3
2	5
2	5
2	4
2	5
2	4
2	4
2	4
2	3
2	3
2	4
2	5
2	3
2	4
2	3
2	3
2	6
2	3
2	3
2	4
2	4
2	3
2	3
2	4
2	4
2	3
2	3
2	3
2	3
2	4
2	8
2	9
2	5
2	3
2	3
2	3
2	4
2	3
2	7
2	3
2	4
2	4
2	7
2	4
2	3
2	3
2	5
2	4
2	5
2	4
2	4
2	4
2	3
3	4
3	4
3	4
3	4
3	4
3	5
3	4
3	4
3	4
3	4
3	5
3	4
3	4
3	4
3	6
3	5
3	4
3	4
3	4
3	4
3	4
3	7
3	4
3	8
3	4
3	4
3	4
3	4
3	4
3	4
3	4
3	4
3	5
3	4
3	4
3	4
3	4
3	4
4	5
4	5
4	5
4	6
4	5
4	5
4	5
4	5
4	6
4	5
4	5
4	5
4	6
5	6
5	6
5	6
5	6
5	6
6	7
6	7
6	7
6	7
6	7
7	8
7	8
7	8
7	8
7	8
8	9
8	9
8	9
9	10
10	11
11	12
11	12
12	13
13	14
86	87
