1	6124
1	140
1	13
1	139
1	11
1	139
1	139
1	11
1	142
1	139
1	139
1	10
1	14
1	10
1	14
1	139
1	140
1	14
1	17
1	10
1	139
1	139
1	139
1	9
1	12
1	9
1	139
1	10
1	139
1	139
1	12
1	139
1	139
1	139
1	4
1	17
1	139
1	9
1	14
1	139
1	139
1	9
1	139
1	13
1	7
1	8
1	139
1	7
1	8
1	13
1	139
1	13
1	139
1	139
1	139
1	141
1	139
1	139
1	12
1	139
1	14
1	10
1	139
1	139
1	139
1	7
1	4
1	12
1	12
1	13
1	139
1	7
1	140
1	139
1	10
1	11
1	9
1	10
1	139
1	139
1	139
1	139
1	7
1	13
1	10
1	139
1	9
1	11
1	8
1	7
1	139
1	11
1	139
1	7
1	140
1	139
1	9
1	8
1	7
1	9
1	7
1	139
1	139
1	7
1	11
1	139
1	8
1	139
1	139
1	12
1	9
1	139
1	6
1	8
1	13
1	8
1	10
1	7
1	139
1	9
1	12
1	15
1	7
1	139
1	139
1	4
1	139
1	7
1	17
1	9
1	4
1	139
1	8
1	140
1	15
1	139
1	139
1	7
1	8
1	139
1	10
1	6
1	6
1	139
1	6
1	139
1	11
1	139
1	7
1	7
1	7
1	8
1	9
1	6
1	5
1	139
1	11
1	10
1	9
1	5
1	139
1	140
1	7
1	10
1	8
1	11
1	8
1	5
1	139
1	7
1	139
1	11
1	7
1	6
1	139
1	139
1	5
1	139
1	9
1	139
1	139
1	139
1	139
1	139
1	6
1	10
1	139
1	4
1	139
1	140
1	139
1	10
1	4
1	139
1	7
1	7
1	139
1	8
1	139
1	139
1	139
1	7
1	8
1	139
1	12
1	6
1	8
1	7
1	6
1	139
1	139
1	140
1	10
1	139
1	4
1	7
1	139
1	8
1	10
1	8
1	139
1	6
1	139
2	3
2	4
2	5
2	7
2	3
2	3
2	3
2	5
2	9
2	3
2	6
2	3
2	3
2	3
2	3
2	6
2	6
2	7
2	6
2	12
2	6
2	9
2	4
2	7
2	5
2	7
2	7
2	3
2	4
2	6
2	8
2	12
2	3
2	3
2	16
2	3
2	3
2	8
2	3
2	3
2	4
2	4
2	8
2	4
2	4
2	3
2	9
2	8
2	3
2	5
2	3
2	6
2	11
2	3
2	11
2	4
2	6
2	4
2	6
2	4
2	3
2	4
2	3
2	3
2	3
2	3
2	3
2	4
2	16
2	4
2	4
2	11
2	7
2	4
3	5
3	4
3	5
3	4
3	4
3	5
3	4
3	4
3	7
3	4
3	4
3	8
3	9
3	4
3	5
3	5
3	6
3	4
3	4
3	8
3	5
3	5
3	6
3	5
3	4
3	4
3	6
3	4
3	4
3	4
3	7
3	6
3	5
3	4
3	5
3	4
3	4
3	4
4	5
4	5
4	5
4	5
4	5
4	6
4	5
4	7
4	5
4	5
4	5
4	5
5	6
5	6
5	6
5	6
5	6
5	6
5	6
5	6
5	6
5	6
5	6
5	6
5	6
5	7
5	6
6	7
6	7
6	7
6	7
6	7
6	7
6	7
6	7
6	7
7	8
7	8
7	8
7	8
8	9
9	10
9	10
9	10
9	10
10	11
10	12
12	13
14	15
138	139
