1	6124
1	146
1	146
1	147
1	146
1	146
1	22
1	146
1	11
1	146
1	146
1	11
1	18
1	146
1	146
1	18
1	146
1	9
1	11
1	10
1	12
1	8
1	146
1	10
1	146
1	146
1	19
1	146
1	9
1	10
1	146
1	146
1	10
1	9
1	7
1	9
1	9
1	10
1	10
1	146
1	10
1	8
1	9
1	148
1	146
1	9
1	13
1	146
1	10
1	13
1	5
1	6
1	146
1	146
1	10
1	11
1	10
1	146
1	10
1	8
1	146
1	6124
1	146
1	146
1	146
1	10
1	146
1	7
1	146
1	8
1	18
1	13
1	5
1	7
1	12
1	7
1	146
1	10
1	146
1	9
1	9
1	146
1	5
1	10
1	2
1	146
1	146
1	5
1	146
1	9
1	15
1	8
1	146
1	146
1	6
1	147
1	8
1	8
1	8
1	11
1	12
1	18
1	6
1	146
1	146
1	146
1	146
1	7
1	11
1	18
1	18
1	19
1	5
1	10
1	146
1	146
1	6
1	10
1	146
1	146
1	18
1	5
1	12
1	146
1	146
1	146
1	9
1	8
1	146
1	19
1	146
1	7
1	8
1	146
1	146
1	18
1	146
1	6
1	10
1	11
1	7
1	147
1	146
1	9
1	146
1	7
1	146
1	9
1	4
1	146
1	146
1	5
1	7
1	146
1	146
1	146
1	146
1	146
1	146
1	7
1	146
1	147
1	6
1	146
1	147
1	5
1	7
1	146
1	146
1	147
1	147
1	146
1	146
1	6
1	146
1	146
1	9
1	8
1	10
1	146
1	8
1	7
1	7
1	11
1	146
1	146
1	146
1	146
1	146
1	4
1	146
1	146
1	146
1	146
1	146
1	6
1	5
1	146
1	146
1	146
1	6
1	146
1	9
1	146
1	10
1	146
1	7
1	8
1	12
1	13
1	146
1	146
1	6
1	147
1	4
1	9
1	18
1	146
1	146
1	6
1	7
2	9
2	3
2	7
2	7
2	6
2	7
2	9
2	6
2	6
2	3
2	3
2	5
2	4
2	3
2	6
2	7
2	5
2	3
2	7
2	5
2	6
2	3
2	4
2	7
2	3
2	5
2	3
2	6
2	4
2	3
2	8
2	3
2	3
2	10
2	7
2	9
2	5
2	3
2	4
2	3
2	4
2	8
2	5
2	6
2	5
2	4
2	4
2	5
2	3
2	3
2	3
2	4
2	6
2	5
2	5
2	4
2	6
2	4
2	8
2	7
2	3
2	3
2	5
2	6
2	4
2	8
2	3
2	4
2	3
3	7
3	4
3	4
3	5
3	5
3	4
3	5
3	4
3	4
3	4
3	5
3	5
3	6
3	5
3	7
3	5
3	5
3	5
3	4
3	4
3	4
3	6
3	4
3	4
3	4
3	4
3	4
3	5
4	5
4	5
4	5
4	7
4	6
4	5
4	6
4	6
4	5
4	5
4	5
4	6
4	5
4	5
4	5
4	5
4	6
4	6
4	5
4	5
5	6
5	6
5	7
5	6
5	6
5	6
5	6
5	6
5	6
5	6
5	6
6	7
6	8
6	7
6	7
6	9
6	7
7	8
7	8
7	8
7	8
7	8
8	9
8	9
9	10
9	10
10	11
11	12
17	18
145	146
