1	6124
1	93
1	13
1	12
1	12
1	13
1	89
1	10
1	88
1	11
1	17
1	16
1	12
1	11
1	6124
1	14
1	7
1	89
1	8
1	10
1	5
1	16
1	91
1	14
1	11
1	88
1	96
1	11
1	6
1	16
1	91
1	11
1	7
1	7
1	14
1	15
1	6
1	11
1	15
1	4
1	9
1	7
1	7
1	12
1	88
1	12
1	9
1	7
1	7
1	9
1	8
1	90
1	88
1	10
1	10
1	6
1	7
1	7
1	10
1	16
1	15
1	7
1	14
1	88
1	6
1	8
1	8
1	7
1	11
1	8
1	7
1	12
1	6
1	7
1	8
1	7
1	8
1	89
1	90
1	88
1	88
1	12
1	11
1	15
1	11
1	11
1	88
1	8
1	6
1	11
1	7
1	88
1	5
1	12
1	88
1	5
1	10
1	88
1	11
1	88
1	13
1	10
1	15
1	11
1	10
1	9
1	10
1	10
1	11
1	8
1	10
1	8
1	9
1	8
1	7
1	8
1	7
1	5
1	5
1	10
1	14
1	88
1	88
1	5
1	6
1	88
1	6
1	7
1	10
1	8
1	13
1	9
1	88
1	88
1	88
1	12
1	12
1	9
1	89
1	10
1	5
1	89
1	88
1	5
1	8
1	9
1	10
1	10
1	4
1	7
1	8
1	10
1	10
1	5
1	8
1	7
1	7
1	5
1	4
1	2
1	6
1	16
1	88
1	7
1	88
1	9
1	10
1	88
1	9
1	11
1	6
1	6
1	4
1	6
1	4
1	6
1	88
1	11
1	10
1	4
1	7
1	9
1	9
1	10
1	10
1	6
1	9
1	5
1	9
1	7
1	88
1	5
1	4
1	10
1	6
1	5
1	10
1	88
1	5
1	89
1	10
1	11
1	5
1	12
1	15
1	88
1	89
1	10
1	12
1	9
1	15
2	3
2	4
2	6
2	6
2	5
2	3
2	9
2	10
2	9
2	7
2	3
2	3
2	6
2	10
2	6
2	7
2	8
2	3
2	3
2	5
2	3
2	3
2	11
2	3
2	3
2	3
2	3
2	16
2	7
2	3
2	3
2	3
2	3
2	5
2	7
2	5
2	4
2	7
2	6
2	3
2	7
2	4
2	3
2	8
2	9
2	3
2	4
2	7
2	3
2	6
2	3
2	3
2	3
2	3
2	3
2	3
2	6
2	5
2	3
2	3
2	3
2	5
2	3
2	3
2	4
2	3
2	4
2	4
2	3
2	4
2	3
2	3
2	4
2	4
2	3
2	10
2	5
2	4
2	5
2	9
2	4
2	7
2	11
2	3
2	3
2	3
2	4
2	3
2	9
2	4
2	3
2	3
2	3
2	13
2	4
2	4
2	3
2	6
2	4
2	3
2	5
3	4
3	4
3	4
3	4
3	4
3	4
3	5
3	4
3	5
3	5
3	8
3	4
3	5
3	5
3	4
3	4
3	5
3	5
3	4
3	4
3	4
3	4
3	5
3	4
3	4
3	4
3	5
3	5
3	4
3	5
3	5
3	6
3	4
4	5
4	5
4	5
4	5
4	5
4	5
4	5
4	5
4	5
4	5
4	5
4	5
4	6
4	5
4	6
4	6
4	5
4	5
4	5
5	7
5	6
5	6
5	6
5	6
5	6
5	6
5	6
5	6
5	6
5	6
5	6
5	6
5	6
6	7
6	7
6	7
6	7
6	7
7	8
7	9
7	8
7	8
7	8
7	8
8	9
8	9
8	9
8	9
9	10
9	10
9	10
9	10
9	10
11	12
13	14
14	15
87	88
