1	6124
1	208
1	206
1	206
1	206
1	4
1	206
1	206
1	206
1	214
1	206
1	206
1	14
1	206
1	209
1	207
1	206
1	14
1	206
1	21
1	208
1	8
1	206
1	13
1	9
1	19
1	16
1	210
1	206
1	16
1	212
1	206
1	206
1	17
1	14
1	15
1	14
1	12
1	206
1	14
1	206
1	8
1	206
1	12
1	6
1	206
1	206
1	9
1	13
1	206
1	11
1	206
1	206
1	206
1	206
1	206
1	206
1	206
1	6124
1	8
1	206
1	206
1	7
1	206
1	206
1	206
1	206
1	16
1	10
1	10
1	12
1	6
1	206
1	11
1	206
1	206
1	206
1	14
1	206
1	7
1	12
1	206
1	206
1	10
1	8
1	206
1	206
1	206
1	10
1	208
1	6
1	206
1	206
1	206
1	10
1	8
1	206
1	206
1	6
1	4
1	206
1	206
1	8
1	6
1	6
1	206
1	206
1	206
1	206
1	206
1	206
1	10
1	8
1	5
1	206
1	207
1	15
1	206
1	208
1	208
1	206
1	10
1	206
1	6
1	7
1	6
1	8
1	10
1	206
1	207
1	8
1	10
1	207
1	7
1	206
1	207
1	206
1	206
1	8
1	206
1	206
1	206
1	8
1	206
1	206
1	13
1	206
1	6
1	12
1	9
1	208
1	206
1	14
1	9
1	7
1	7
1	206
1	206
1	206
1	8
1	206
1	206
1	8
1	9
1	206
1	206
1	206
1	206
1	14
1	206
1	207
1	206
1	206
1	206
1	206
1	206
1	206
1	208
1	5
1	8
1	6
1	206
1	11
1	5
1	11
1	12
1	9
1	206
1	206
1	6
1	206
1	8
1	207
1	11
1	6
1	9
1	7
1	206
1	12
1	6
1	206
1	4
1	6
1	206
1	206
1	5
1	206
1	6
1	206
1	14
1	206
1	5
1	6
1	6
1	206
1	14
1	206
1	206
1	206
1	5
1	7
1	206
1	206
1	206
1	5
1	4
1	206
1	206
1	206
1	206
1	14
1	206
1	206
1	8
1	206
1	206
1	206
1	6
1	206
1	206
1	8
1	10
1	7
1	206
1	7
1	206
1	206
1	207
1	206
1	207
1	12
1	5
1	206
1	206
1	206
1	206
1	206
1	206
1	8
1	206
1	206
1	9
1	206
1	4
1	12
1	10
1	206
1	206
1	206
1	206
1	206
1	206
1	206
1	12
1	206
1	6
1	13
1	12
1	14
1	9
1	206
1	8
1	11
1	9
1	5
1	206
1	206
1	206
1	206
1	206
1	206
1	206
1	4
1	206
1	206
1	13
1	206
1	10
1	7
1	206
1	206
1	12
1	206
1	12
1	206
1	206
1	207
1	11
1	8
1	12
1	10
1	206
1	12
1	5
1	206
1	6
1	4
1	11
2	3
2	3
2	8
2	3
2	10
2	6
2	3
2	12
2	3
2	207
2	3
2	4
2	5
2	3
2	6
2	4
2	3
2	3
2	3
2	12
2	3
2	3
2	3
2	4
2	3
2	3
2	6
2	6
2	4
2	3
2	3
2	3
2	3
2	3
2	3
2	4
2	3
2	5
2	6
2	3
2	3
2	3
2	3
2	5
2	3
2	3
2	9
2	12
2	4
2	3
2	3
2	3
2	5
2	3
3	4
3	4
3	4
3	5
3	5
3	4
3	4
3	4
3	5
3	4
3	5
3	4
3	4
3	4
3	4
3	4
3	4
3	4
3	5
3	4
3	4
3	4
3	4
3	9
3	9
3	4
3	5
3	4
3	6
3	5
4	5
4	5
4	5
4	5
4	5
4	6
4	5
4	5
4	5
5	6
5	6
5	6
5	6
5	6
6	7
6	7
6	7
6	8
7	8
7	9
7	8
7	8
7	8
7	8
8	9
8	9
9	10
10	11
10	11
11	12
11	12
13	14
205	206
