1	6124
1	12
1	158
1	157
1	157
1	157
1	14
1	157
1	157
1	11
1	158
1	157
1	157
1	157
1	157
1	12
1	157
1	157
1	11
1	157
1	157
1	157
1	157
1	157
1	159
1	157
1	157
1	13
1	157
1	157
1	11
1	14
1	157
1	157
1	157
1	10
1	157
1	158
1	8
1	11
1	157
1	157
1	157
1	7
1	157
1	157
1	157
1	157
1	157
1	157
1	157
1	157
1	157
1	158
1	6
1	157
1	11
1	157
1	157
1	157
1	9
1	157
1	9
1	157
1	157
1	9
1	7
1	157
1	157
1	157
1	6
1	158
1	9
1	157
1	157
1	157
1	158
1	157
1	9
1	157
1	157
1	157
1	157
1	157
1	157
1	157
1	6
1	157
1	9
1	157
1	158
1	157
1	9
1	10
1	157
1	157
1	157
1	157
1	157
1	157
1	157
1	157
1	157
1	157
1	8
1	157
1	157
1	6
1	9
1	157
1	7
1	6
1	12
1	157
1	9
1	5
1	9
1	157
1	157
1	157
1	157
1	7
1	157
1	157
1	157
1	157
1	157
1	6
1	157
1	157
1	8
1	10
1	157
1	157
2	8
2	7
2	158
2	4
2	3
2	6
2	3
2	8
2	11
2	3
2	13
2	8
2	8
2	3
2	7
2	4
2	7
2	3
2	158
2	13
2	7
2	10
2	158
2	5
2	4
2	158
2	7
2	3
2	4
2	8
2	5
2	4
2	8
2	8
2	3
2	7
2	4
2	8
2	3
2	8
2	4
2	6
2	8
2	4
2	4
2	9
2	9
2	6
2	4
2	4
2	4
3	4
3	8
3	4
3	6
3	7
3	5
3	7
3	8
3	5
3	11
3	5
3	5
3	5
3	4
3	4
3	4
3	6
3	6
3	4
3	7
3	4
3	4
3	4
4	5
4	5
4	5
4	7
4	5
4	6
4	6
4	7
4	7
4	8
5	6
5	8
5	6
5	7
5	6
5	6
5	6
5	6
6	7
6	7
6	7
7	9
7	8
8	9
8	10
10	11
11	12
156	157
