1	6124
1	207
1	207
1	207
1	207
1	208
1	207
1	17
1	207
1	15
1	207
1	12
1	207
1	207
1	207
1	207
1	19
1	11
1	14
1	207
1	208
1	207
1	207
1	207
1	207
1	10
1	6124
1	7
1	14
1	207
1	208
1	207
1	14
1	207
1	207
1	12
1	12
1	207
1	207
1	207
1	11
1	207
1	207
1	8
1	207
1	8
1	8
1	209
1	207
1	207
1	9
1	207
1	207
1	207
1	11
1	207
1	7
1	207
1	207
1	8
1	207
1	207
1	11
1	18
1	8
1	12
1	11
1	207
1	207
1	207
1	207
1	207
1	210
1	207
1	207
1	13
1	207
1	207
1	207
1	207
1	207
1	207
1	14
1	207
1	17
1	207
1	207
1	207
1	207
1	207
1	207
1	18
1	12
1	207
1	5
1	207
1	12
1	207
1	207
1	14
1	207
1	207
1	207
1	207
1	207
1	8
1	207
1	5
1	9
1	18
1	207
1	10
1	207
1	10
1	207
1	10
1	207
1	207
1	10
1	207
1	10
1	207
1	207
1	207
1	207
1	207
1	207
1	207
1	207
1	207
1	6
1	207
1	10
1	11
1	207
1	208
1	207
1	207
1	9
1	18
1	207
1	8
1	11
1	14
1	207
1	207
1	207
1	207
1	207
1	207
1	207
1	207
1	207
1	207
1	207
1	207
1	207
1	9
1	207
1	207
1	5
1	7
1	10
1	8
1	207
1	207
1	207
1	207
1	207
1	207
1	207
1	7
1	207
1	207
1	207
1	8
1	207
1	6
1	207
1	208
1	9
1	15
1	207
1	207
1	207
1	14
1	208
1	207
1	9
1	207
1	7
1	6
1	207
1	207
1	207
1	207
1	207
1	207
1	8
1	11
1	14
1	207
1	7
1	207
1	207
1	9
1	208
1	18
1	207
1	207
1	207
1	18
1	18
1	11
1	207
1	8
1	207
1	207
1	18
1	8
1	7
1	207
1	207
1	207
1	207
1	9
1	9
1	207
1	207
1	10
1	207
1	2
1	207
1	207
1	207
1	207
1	207
1	7
1	207
1	207
1	207
1	18
1	7
1	207
1	208
1	6
1	207
1	5
1	11
1	9
1	207
1	207
1	207
1	11
1	207
1	5
1	7
1	207
1	5
1	8
1	207
1	5
1	4
1	207
1	207
1	7
1	207
1	7
1	207
2	4
2	3
2	15
2	9
2	3
2	8
2	9
2	3
2	3
2	4
2	6
2	10
2	12
2	8
2	4
2	4
2	6
2	3
2	3
2	3
2	3
2	4
2	4
2	6
2	8
2	7
2	3
2	6
2	15
2	6
2	11
2	4
2	3
2	4
2	19
2	6
2	3
2	4
2	9
2	3
2	6
2	4
2	4
2	7
2	6
2	7
2	3
2	3
2	8
2	4
2	4
3	4
3	4
3	4
3	4
3	4
3	6
3	5
3	4
3	4
3	4
3	6
3	5
3	4
3	4
3	6
3	4
3	4
3	4
3	4
4	5
4	5
4	6
4	5
4	6
4	6
4	5
4	6
4	6
4	5
4	5
4	8
4	6
4	5
4	5
4	5
5	6
5	6
5	6
5	7
5	6
6	7
6	7
6	7
6	7
6	8
6	7
7	8
7	8
7	8
7	9
7	8
8	9
8	9
8	9
10	11
10	11
13	14
17	18
206	207
