1	6124
1	81
1	87
1	17
1	14
1	80
1	80
1	22
1	83
1	79
1	12
1	14
1	79
1	80
1	79
1	79
1	79
1	14
1	8
1	14
1	11
1	13
1	11
1	21
1	12
1	21
1	10
1	14
1	80
1	12
1	12
1	7
1	6124
1	79
1	79
1	13
1	80
1	9
1	11
1	10
1	7
1	6124
1	80
1	6
1	14
1	12
1	21
1	11
1	10
1	11
1	10
1	15
1	7
1	10
1	11
1	12
1	2
1	9
1	79
1	11
1	79
1	79
1	8
1	6
1	15
1	79
1	9
1	7
1	5
1	10
1	21
1	81
1	79
1	12
1	79
1	4
1	9
1	8
1	5
1	11
1	10
1	13
1	6
1	6
1	8
1	6
1	7
1	6
1	7
1	5
1	11
1	81
1	79
1	8
1	10
1	7
1	79
1	12
1	12
1	80
1	8
1	10
1	9
1	79
1	5
1	7
1	79
1	14
1	6124
1	13
1	13
1	11
1	5
1	8
1	79
1	79
1	6124
1	7
1	79
1	6
1	8
1	4
1	8
1	8
1	4
1	82
1	14
1	7
1	21
1	6
1	4
1	3
1	79
1	5
1	8
1	21
1	10
1	79
1	79
1	4
1	7
1	6
1	11
1	8
1	79
1	79
1	7
1	21
1	4
1	11
1	6
1	6
1	6
1	79
1	79
1	79
1	13
1	7
1	6
1	15
1	5
1	9
1	10
1	79
1	5
1	81
1	79
1	80
1	9
1	79
1	7
1	3
1	7
1	15
1	79
1	79
1	79
1	7
1	9
1	9
1	8
1	14
1	8
1	5
1	4
1	14
1	4
1	10
1	79
1	5
1	5
1	4
1	10
1	11
1	8
1	79
1	6
1	79
1	13
1	5
1	7
1	5
1	6
1	5
1	10
1	6
1	7
1	4
1	7
1	79
1	79
1	7
1	21
1	80
1	10
1	5
1	7
1	79
1	9
1	4
1	21
1	6
1	13
1	5
1	8
1	7
1	79
1	6
1	21
1	5
1	13
1	6
1	8
1	5
1	79
1	7
2	8
2	3
2	9
2	3
2	3
2	6
2	4
2	4
2	3
2	11
2	7
2	3
2	3
2	5
2	4
2	3
2	15
2	3
2	3
2	4
2	6
2	3
2	7
2	3
2	4
2	4
2	5
2	3
2	8
2	3
2	3
2	3
2	6
2	3
2	4
2	8
2	7
2	7
2	3
2	3
2	6
2	7
2	3
2	6
2	3
2	11
2	4
2	3
2	3
2	3
2	3
2	4
2	3
2	5
2	4
2	3
2	5
2	3
2	4
2	3
2	3
2	3
2	4
2	4
2	3
2	4
2	3
2	4
2	8
2	8
2	4
2	3
2	3
2	3
2	5
2	11
2	5
2	3
2	12
2	3
2	7
2	5
2	3
2	5
3	6
3	4
3	4
3	4
3	4
3	8
3	4
3	4
3	4
3	4
3	7
3	4
3	4
3	4
3	4
3	5
3	4
3	6
3	4
3	5
3	4
3	4
3	4
3	4
3	4
3	4
3	4
3	4
3	4
3	4
3	5
3	4
3	4
3	5
3	5
4	5
4	5
4	5
4	5
4	5
4	5
4	7
4	7
4	5
4	5
4	5
4	5
4	5
4	5
4	5
4	5
4	5
4	5
4	8
4	5
5	6
5	6
5	6
5	6
5	6
5	6
5	6
5	6
5	6
5	6
5	8
5	6
5	6
5	6
6	7
6	7
6	7
6	7
6	7
6	7
7	8
7	8
8	9
8	9
9	10
9	10
9	10
9	10
10	11
12	13
13	14
20	21
78	79
