1	6124
1	60
1	60
1	29
1	16
1	57
1	16
1	17
1	30
1	7
1	14
1	16
1	56
1	13
1	11
1	58
1	8
1	8
1	7
1	14
1	56
1	10
1	15
1	17
1	9
1	12
1	10
1	13
1	56
1	56
1	9
1	28
1	60
1	58
1	57
1	14
1	9
1	56
1	56
1	9
1	15
1	7
1	14
1	11
1	27
1	10
1	4
1	8
1	57
1	10
1	6
1	28
1	9
1	10
1	27
1	58
1	57
1	56
1	6
1	6
1	11
1	10
1	8
1	9
1	56
1	7
1	14
1	11
1	17
1	10
1	6
1	8
1	5
1	6
1	7
1	15
1	56
1	4
1	9
1	6
1	7
1	14
1	8
1	58
1	16
1	17
1	13
1	11
1	6
1	9
1	9
1	5
1	8
1	57
1	27
1	7
1	4
1	19
1	56
1	6
1	56
1	7
1	10
1	7
1	30
1	6
1	5
1	27
1	7
1	8
1	8
1	56
1	56
1	5
1	14
1	8
1	28
1	56
1	56
1	56
1	6
1	13
1	56
1	4
1	14
1	8
1	56
1	8
1	11
1	10
1	5
1	7
1	10
1	27
1	5
1	7
1	6
1	4
1	5
1	56
1	14
1	15
1	56
1	8
1	8
1	6
1	6
1	4
1	5
1	10
1	6
1	5
1	5
1	27
1	14
1	6
1	17
1	13
1	27
1	7
1	13
1	13
1	56
1	8
1	7
1	56
1	6
1	6
1	56
1	7
1	14
1	9
1	4
1	56
1	5
1	6
1	4
1	5
1	5
1	8
1	8
1	5
1	56
1	6
1	5
1	13
1	7
1	27
1	56
1	5
1	8
1	56
1	5
1	5
1	6
1	5
1	56
1	6
1	4
1	11
1	56
1	6
1	14
1	7
1	10
1	6
1	5
1	7
1	5
1	4
1	9
1	6
1	8
1	8
1	6
1	5
2	3
2	3
2	5
2	4
2	5
2	3
2	3
2	7
2	3
2	5
2	4
2	3
2	5
2	3
2	5
2	3
2	10
2	5
2	3
2	3
2	5
2	5
2	3
2	3
2	3
2	3
2	3
2	6
2	4
2	6
2	4
2	3
2	4
2	6
2	3
2	3
2	4
2	5
2	4
2	4
2	3
2	3
2	3
2	3
2	6
2	6
2	8
2	5
2	5
2	3
2	5
2	9
2	4
2	5
2	3
2	4
2	3
2	3
2	3
2	3
2	4
2	8
2	4
2	4
2	9
2	5
2	3
2	3
2	5
2	3
2	5
2	4
2	3
2	4
2	4
2	3
2	6
2	3
2	3
2	3
2	7
2	4
2	7
2	3
2	3
2	3
2	4
2	5
2	3
2	4
3	4
3	4
3	4
3	4
3	4
3	5
3	4
3	5
3	4
3	4
3	4
3	4
3	4
3	5
3	4
3	4
3	6
3	4
3	4
3	4
3	4
3	4
3	5
3	4
3	4
3	4
3	5
3	6
3	5
3	4
3	4
3	4
3	5
3	6
3	4
3	7
3	4
3	4
3	4
3	4
3	4
3	4
3	4
3	4
3	5
3	4
3	5
3	15
4	5
4	5
4	5
4	5
4	5
4	5
4	5
4	5
4	5
4	5
4	5
4	6
4	6
4	5
4	5
4	5
4	5
4	6
4	5
4	5
4	5
4	6
4	6
5	7
5	6
5	8
5	6
5	6
5	6
5	6
5	6
5	6
5	6
5	6
5	6
6	7
6	7
6	7
6	8
7	8
7	8
7	8
7	8
8	9
8	9
9	10
12	13
12	13
13	14
15	16
26	27
55	56
