1	6124
1	98
1	18
1	13
1	97
1	13
1	97
1	97
1	98
1	8
1	97
1	97
1	97
1	20
1	98
1	97
1	97
1	97
1	13
1	97
1	97
1	10
1	97
1	17
1	98
1	97
1	5
1	97
1	97
1	97
1	97
1	97
1	97
1	97
1	7
1	97
1	97
1	97
1	97
1	11
1	97
1	98
1	97
1	17
1	97
1	97
1	97
1	8
1	10
1	97
1	97
1	97
1	97
1	97
1	97
1	19
1	12
1	17
1	17
1	97
1	97
1	97
1	97
1	10
1	97
1	97
1	97
1	97
1	97
1	97
1	97
1	97
1	98
1	8
1	97
1	97
1	9
1	97
1	98
1	97
1	97
1	17
1	8
1	97
1	97
1	98
1	97
1	97
1	18
1	7
1	97
1	97
2	11
2	6
2	10
2	3
2	18
2	9
2	3
2	9
2	3
2	10
2	8
2	18
2	3
2	5
2	10
2	4
2	8
2	3
2	98
2	9
2	3
2	10
2	10
2	5
2	6
2	4
2	5
2	3
2	8
2	6
2	3
3	5
3	4
3	5
3	5
3	6
3	4
3	5
3	5
3	4
4	5
4	5
4	5
4	5
5	6
6	7
6	7
7	8
8	10
9	10
16	17
96	97
