1	6124
1	13
1	14
1	98
1	98
1	13
1	97
1	97
1	9
1	13
1	14
1	13
1	10
1	97
1	8
1	13
1	98
1	99
1	12
1	8
1	14
1	97
1	15
1	8
1	15
1	99
1	13
1	12
1	12
1	11
1	11
1	13
1	6
1	9
1	8
1	9
1	10
1	98
1	14
1	5
1	4
1	5
1	4
1	8
1	98
1	12
1	97
1	12
1	97
1	11
1	7
1	13
1	30
1	98
1	97
1	12
1	15
1	97
1	16
1	14
1	29
1	97
1	9
1	99
1	97
1	98
1	6
1	97
1	8
1	6
1	8
1	7
1	7
1	8
1	6
1	12
1	11
1	99
1	97
1	4
1	5
1	5
1	11
1	7
1	11
1	97
1	29
1	7
1	97
1	7
1	6
1	97
1	29
1	97
1	8
1	11
1	11
1	98
1	97
1	97
1	10
1	6
1	9
1	6
1	7
1	6
1	10
1	9
1	4
1	7
1	98
1	8
1	8
1	97
1	8
1	12
1	6
1	97
1	31
1	9
1	29
1	4
1	7
1	9
1	6
1	11
1	98
1	8
1	12
1	29
1	11
1	12
1	97
1	97
1	10
1	9
1	8
1	6
1	6
1	8
1	6
1	5
1	9
1	97
1	97
1	97
1	97
1	8
1	9
1	12
1	6
1	11
1	8
1	97
1	15
1	10
1	29
1	9
1	11
1	97
1	7
1	11
1	97
1	9
1	98
1	97
1	6
1	7
1	10
1	12
1	98
1	97
1	7
1	9
1	97
1	8
1	13
1	97
1	97
1	97
1	97
1	11
1	97
1	4
1	11
1	98
1	97
1	97
1	12
1	4
1	97
1	29
1	97
1	6
1	97
1	8
1	97
1	6
1	29
1	6
1	8
1	97
1	12
1	8
1	9
1	97
1	7
2	3
2	3
2	7
2	3
2	6
2	8
2	4
2	3
2	9
2	6
2	4
2	4
2	3
2	3
2	6
2	4
2	4
2	5
2	3
2	3
2	3
2	3
2	4
2	5
2	3
2	3
2	7
2	7
2	7
2	3
2	3
2	3
2	7
2	3
2	4
2	10
2	4
2	4
2	4
2	30
2	4
2	4
2	6
2	7
2	6
2	6
2	3
2	13
2	6
2	12
2	3
2	7
2	3
2	3
2	5
2	5
2	11
2	6
2	4
2	3
2	7
2	3
2	3
2	3
2	8
2	3
2	4
2	8
2	11
2	3
2	5
2	3
2	3
2	3
2	5
2	9
2	4
2	3
2	5
2	4
2	3
2	3
2	3
2	7
2	9
2	4
2	3
3	4
3	5
3	4
3	4
3	5
3	5
3	4
3	4
3	4
3	4
3	4
3	10
3	4
3	4
3	5
3	4
3	4
3	6
3	4
3	4
3	4
3	5
3	5
3	4
3	4
3	7
3	5
3	4
3	5
3	4
3	4
3	9
3	6
3	5
3	5
4	5
4	6
4	5
4	5
4	5
4	5
4	5
4	5
4	5
4	5
4	5
4	6
4	5
4	5
4	5
4	5
4	5
5	6
5	6
5	6
5	6
5	12
5	7
5	6
5	6
5	6
5	6
5	6
6	7
6	7
6	7
6	7
7	8
7	8
7	8
7	9
7	8
7	9
8	9
8	9
8	9
8	9
9	10
9	10
10	11
10	11
11	12
11	12
13	14
28	29
96	97
