1	6124
1	174
1	22
1	173
1	21
1	173
1	21
1	24
1	173
1	173
1	173
1	173
1	10
1	173
1	173
1	173
1	174
1	173
1	173
1	173
1	8
1	12
1	17
1	12
1	173
1	173
1	173
1	13
1	11
1	175
1	173
1	9
1	12
1	173
1	10
1	173
1	8
1	173
1	173
1	173
1	17
1	175
1	8
1	173
1	8
1	11
1	10
1	173
1	9
1	173
1	23
1	12
1	21
1	174
1	173
1	173
1	173
1	9
1	12
1	173
1	8
1	173
1	8
1	11
1	7
1	22
1	4
1	173
1	173
1	8
1	15
1	173
1	12
1	173
1	17
1	174
1	173
1	173
1	173
1	8
1	11
1	6
1	173
1	173
1	174
1	11
1	173
1	21
1	173
1	6
1	8
1	9
1	173
1	8
1	10
1	173
1	173
1	173
1	6
1	173
1	173
1	9
1	173
1	173
1	10
1	11
1	8
1	173
1	173
1	173
1	174
1	173
1	173
1	173
1	173
1	173
1	173
1	9
1	13
1	10
1	173
1	173
1	21
1	8
1	8
1	7
1	9
1	173
1	8
1	175
1	173
1	173
1	173
1	8
1	8
1	11
1	11
1	173
1	7
1	173
1	173
1	173
1	175
1	6
1	7
1	173
1	173
1	6
1	8
1	173
1	8
1	7
1	10
1	173
1	6
1	173
1	11
1	173
1	173
1	173
1	173
1	11
1	173
1	15
1	8
1	173
1	173
1	21
1	173
1	173
1	6
1	8
1	173
1	173
1	9
1	6
1	173
1	21
1	6
1	4
1	7
1	173
1	21
1	173
1	9
1	11
1	173
1	173
1	173
1	7
1	8
1	173
1	15
1	6
1	6
1	173
1	173
1	6
1	173
1	173
1	11
1	8
1	173
1	11
1	173
1	173
1	9
1	9
1	173
1	173
1	173
1	173
1	173
1	5
1	173
1	173
1	11
1	10
1	5
1	173
1	4
1	173
1	173
1	173
1	173
1	173
1	7
1	4
1	173
1	173
1	174
1	173
1	173
1	173
1	173
1	174
1	173
1	173
1	173
1	7
1	15
1	21
1	173
1	11
1	7
1	6
1	173
1	173
1	173
1	7
1	15
1	173
1	173
1	173
1	8
1	6
1	4
1	173
1	5
1	10
1	173
1	174
1	7
2	5
2	3
2	3
2	6
2	3
2	3
2	3
2	3
2	10
2	5
2	3
2	6
2	3
2	5
2	5
2	13
2	11
2	6
2	3
2	3
2	6
2	3
2	9
2	4
2	4
2	13
2	3
2	3
2	4
2	3
2	4
2	12
2	3
2	3
2	3
2	3
2	3
2	4
2	3
2	3
2	3
2	3
2	3
2	3
2	3
2	12
2	6
2	16
2	3
2	9
2	3
2	16
2	4
2	7
2	4
2	3
2	3
2	5
3	4
3	6
3	5
3	4
3	4
3	4
3	4
3	4
3	4
3	4
3	4
3	4
3	4
3	4
3	4
3	4
3	5
3	4
3	10
3	5
3	6
3	6
3	4
3	4
3	4
3	4
3	5
3	4
3	4
3	4
4	5
4	5
4	5
4	6
4	5
4	5
4	5
4	5
4	6
4	5
4	5
5	6
5	6
5	8
5	6
5	6
5	6
5	6
5	6
5	7
5	8
5	6
5	6
6	7
7	8
7	8
7	8
7	8
7	8
7	8
8	9
8	9
9	10
10	11
10	11
14	15
20	21
172	173
