1	6124
1	253
1	253
1	253
1	253
1	253
1	254
1	253
1	253
1	254
1	253
1	253
1	253
1	253
1	10
1	9
1	253
1	253
1	10
1	9
1	253
1	253
1	253
1	253
1	253
1	253
1	13
1	253
1	253
1	253
1	253
1	254
1	253
1	255
1	9
1	253
1	253
1	253
1	253
1	253
1	253
1	253
1	253
1	8
1	9
1	253
1	253
1	253
1	253
1	253
1	253
1	253
1	253
1	11
1	11
1	14
1	253
1	253
1	253
1	254
1	253
1	253
1	253
1	253
1	253
1	10
1	253
1	253
1	253
1	253
1	253
1	253
1	253
1	8
1	253
1	253
1	253
1	9
1	253
1	253
1	7
1	253
1	253
1	7
1	253
1	253
1	253
1	253
1	8
1	253
1	254
1	253
1	253
1	253
1	253
1	253
1	253
1	253
1	253
1	10
1	5
1	253
1	253
1	10
1	253
1	11
1	14
1	253
1	10
1	254
1	253
1	11
1	253
1	253
1	253
1	253
1	253
1	253
1	253
1	253
1	253
1	253
1	8
1	253
1	253
1	253
1	253
1	253
1	253
1	253
1	8
1	253
1	8
1	253
1	253
1	253
1	253
1	253
1	253
1	253
1	253
1	11
1	254
1	6
1	255
1	253
1	253
1	253
1	253
1	253
1	255
1	253
1	12
1	254
1	253
1	253
1	253
1	253
1	253
1	253
1	11
1	253
1	253
1	8
1	253
1	253
1	6
1	254
1	253
1	7
1	253
1	253
1	9
1	253
1	9
1	253
1	253
1	253
1	253
1	253
1	253
1	253
1	253
1	253
1	7
1	253
1	253
1	254
1	253
1	253
1	253
1	253
1	253
1	253
1	253
1	253
1	253
1	253
1	253
1	7
1	253
1	7
1	253
1	253
1	5
1	253
1	253
1	253
1	9
1	253
1	253
1	5
1	253
1	253
1	6
1	9
1	253
1	253
1	253
1	253
1	253
1	253
1	253
1	253
1	253
1	253
1	4
1	4
1	253
1	7
1	253
1	9
1	253
1	253
1	253
1	253
1	253
1	8
1	253
1	253
1	7
1	253
1	253
1	7
1	253
1	253
1	253
1	11
1	253
1	8
1	253
1	253
1	253
1	9
1	253
1	253
1	253
1	253
1	253
1	253
1	253
1	253
1	253
1	253
1	7
1	253
1	253
1	10
1	253
1	253
1	9
1	254
1	253
1	253
1	253
1	253
1	6
2	5
2	11
2	8
2	7
2	7
2	6
2	11
2	3
2	6
2	3
2	3
2	3
2	4
2	3
2	3
2	3
2	6
2	254
2	3
2	3
2	10
2	5
2	4
2	3
2	9
2	5
2	10
2	3
2	3
2	3
2	3
2	3
2	10
2	4
2	6
2	3
2	6
2	10
2	4
2	3
2	4
2	5
2	4
2	4
2	9
2	7
2	6
2	6
2	7
2	5
2	9
2	3
3	4
3	4
3	4
3	7
3	5
3	8
3	5
3	4
3	6
3	5
3	5
3	4
3	4
3	4
3	4
3	6
3	6
3	4
4	5
4	6
4	5
4	5
4	5
4	6
4	5
5	6
5	6
5	6
5	6
5	6
5	6
5	6
6	7
6	11
6	7
7	8
7	8
7	9
7	9
7	8
8	9
8	9
8	9
9	10
252	253
