1	6124
1	106
1	107
1	12
1	15
1	11
1	105
1	10
1	12
1	105
1	10
1	7
1	107
1	12
1	8
1	105
1	11
1	4
1	10
1	11
1	105
1	11
1	13
1	105
1	105
1	7
1	6
1	105
1	4
1	9
1	6
1	111
1	6
1	9
1	7
1	105
1	11
1	11
1	14
1	12
1	5
1	105
1	10
1	105
1	9
1	7
1	109
1	8
1	14
1	10
1	106
1	11
1	105
1	10
1	8
1	8
1	10
1	8
1	10
1	7
1	9
1	9
1	9
1	12
1	10
1	9
1	105
1	5
1	9
1	7
1	7
1	105
1	12
1	8
1	7
1	10
1	105
1	105
1	106
1	10
1	9
1	6
1	5
1	4
1	4
1	9
1	105
1	9
1	10
1	6
1	105
1	105
1	11
1	8
1	105
1	6
1	107
1	105
1	6
1	106
1	9
1	8
1	9
1	5
1	4
1	10
1	8
1	7
1	10
1	105
1	6
1	5
1	107
1	105
1	105
1	5
1	105
1	105
1	6
1	105
1	105
1	9
1	7
1	5
1	106
1	13
1	10
1	10
1	9
1	10
1	7
1	105
1	8
1	105
1	9
1	105
1	7
1	7
1	9
1	10
1	6
1	8
1	105
1	105
1	7
1	7
1	105
1	9
1	107
1	9
1	9
1	5
1	5
1	7
1	107
1	5
1	7
1	9
1	10
1	10
1	7
1	105
1	5
1	4
1	105
1	106
1	106
1	8
1	5
1	14
1	105
1	105
1	7
1	105
1	105
1	5
1	7
1	8
1	13
1	4
1	105
1	106
1	4
1	105
1	5
1	8
1	7
1	105
1	5
1	6
1	105
1	105
1	6
1	105
1	9
1	7
1	9
1	105
1	6
1	105
1	6
1	4
1	6
1	7
1	11
1	12
1	4
1	7
1	8
1	105
1	8
1	105
1	8
1	105
1	9
1	8
1	9
1	105
1	105
1	7
1	11
1	8
1	4
1	10
1	4
1	105
1	9
1	105
1	5
1	9
1	7
1	106
1	6
1	7
1	10
1	105
1	7
1	105
2	5
2	7
2	8
2	3
2	4
2	3
2	3
2	3
2	10
2	6
2	6
2	8
2	8
2	3
2	8
2	3
2	6
2	4
2	5
2	6
2	10
2	6
2	8
2	3
2	9
2	4
2	3
2	4
2	9
2	3
2	3
2	3
2	3
2	5
2	4
2	3
2	3
2	5
2	3
2	4
2	4
2	9
2	7
2	3
2	6
2	3
2	3
2	3
2	5
2	7
2	5
2	3
2	3
2	4
2	3
2	7
2	7
2	4
2	3
2	3
2	6
2	3
2	7
2	8
2	3
2	4
2	3
2	8
2	4
2	3
2	3
2	3
2	3
2	3
2	4
2	4
2	3
3	5
3	4
3	4
3	6
3	9
3	6
3	4
3	6
3	4
3	4
3	4
3	4
3	4
3	4
3	5
3	4
3	4
3	4
3	5
3	4
3	4
3	4
3	4
3	5
3	4
3	6
3	4
3	6
3	4
3	4
3	4
3	4
3	6
3	5
3	5
3	5
3	4
3	4
3	4
3	4
4	6
4	5
4	5
4	5
4	5
4	5
4	5
4	5
4	5
4	5
4	6
4	6
4	5
4	5
4	5
5	6
5	6
5	7
5	6
5	6
5	6
5	6
5	6
5	6
5	6
5	6
5	6
5	6
6	7
6	7
6	7
6	8
6	7
6	7
6	7
6	7
6	7
6	8
7	8
7	8
7	8
7	8
8	9
8	9
8	9
8	9
8	9
9	10
10	11
12	13
104	105
