1	6124
1	110
1	110
1	109
1	13
1	109
1	15
1	15
1	109
1	17
1	16
1	10
1	109
1	113
1	12
1	15
1	15
1	12
1	110
1	109
1	109
1	8
1	10
1	8
1	6
1	14
1	11
1	109
1	112
1	109
1	109
1	14
1	6
1	9
1	6
1	109
1	12
1	8
1	8
1	109
1	32
1	32
1	109
1	109
1	112
1	110
1	31
1	9
1	11
1	10
1	109
1	6
1	33
1	11
1	11
1	31
1	109
1	32
1	109
1	31
1	32
1	13
1	7
1	32
1	6
1	109
1	109
1	7
1	9
1	109
1	109
1	109
1	36
1	109
1	5
1	109
1	16
1	7
1	7
1	109
1	7
1	110
1	109
1	109
1	11
1	14
1	110
1	31
1	109
1	10
1	110
1	109
1	109
1	9
1	7
1	7
1	6
1	33
1	15
1	109
1	8
1	110
1	6
1	7
1	6
1	5
1	109
1	6
1	109
1	6
1	6
1	109
1	4
1	7
1	6
1	8
1	5
1	109
1	109
1	6
1	31
1	109
1	7
1	7
1	109
1	111
1	31
1	4
1	15
1	5
1	14
1	4
1	109
1	8
1	15
1	109
1	11
1	15
1	15
1	9
1	9
1	4
1	8
1	10
1	109
1	7
1	6
1	110
1	109
1	109
1	15
1	9
1	8
1	9
1	109
1	110
1	34
1	6
1	109
1	5
1	109
1	109
1	8
1	109
1	4
1	8
1	5
1	109
1	4
1	15
1	8
1	4
1	31
1	9
1	109
1	15
1	5
1	109
1	109
1	8
1	109
1	109
1	8
1	31
1	5
1	6
1	5
1	109
1	6
1	32
1	5
1	109
1	14
1	7
1	7
1	4
1	7
1	110
1	109
1	7
1	109
1	9
1	10
1	109
1	11
1	109
1	109
1	11
1	5
1	4
1	8
1	109
1	31
1	11
1	31
1	109
1	109
1	7
1	6
1	4
1	7
1	4
1	7
1	6
1	13
1	5
1	6
1	5
1	6
1	8
1	7
1	109
1	4
1	4
1	4
1	14
1	109
1	5
1	4
1	6
1	109
1	11
2	5
2	3
2	3
2	5
2	3
2	5
2	7
2	3
2	3
2	3
2	3
2	3
2	3
2	3
2	5
2	5
2	7
2	3
2	3
2	3
2	6
2	3
2	3
2	7
2	7
2	4
2	3
2	12
2	5
2	3
2	6
2	7
2	3
2	3
2	4
2	3
2	3
2	8
2	5
2	7
2	5
2	3
2	3
2	9
2	4
2	4
2	3
2	6
2	32
2	4
2	5
2	12
2	4
2	3
2	3
2	8
2	3
2	4
2	4
2	9
2	4
2	4
2	3
2	3
2	4
2	6
2	4
2	3
2	4
2	4
2	5
2	4
2	3
2	3
3	5
3	4
3	4
3	6
3	5
3	4
3	4
3	4
3	5
3	4
3	4
3	4
3	5
3	5
3	4
3	4
3	4
3	5
3	4
3	5
3	4
3	4
3	4
3	4
3	4
3	4
3	4
3	5
3	4
3	4
3	4
3	4
3	4
3	4
3	5
3	4
3	4
3	4
3	4
3	4
3	5
3	4
3	4
3	4
3	10
3	6
3	4
3	4
3	4
4	5
4	5
4	5
4	5
4	5
4	5
4	5
4	5
4	5
4	5
4	5
4	5
4	5
4	5
4	5
4	5
5	6
5	6
5	7
5	6
5	6
5	6
5	6
5	6
5	6
5	6
6	7
6	7
6	7
6	7
7	8
7	8
7	8
8	9
10	11
10	11
12	13
14	15
30	31
108	109
