1	6124
1	82
1	84
1	83
1	83
1	12
1	82
1	83
1	11
1	85
1	12
1	83
1	6
1	82
1	10
1	13
1	5
1	84
1	5
1	82
1	9
1	83
1	12
1	7
1	9
1	9
1	12
1	9
1	13
1	6
1	82
1	8
1	82
1	9
1	9
1	4
1	7
1	83
1	88
1	82
1	84
1	10
1	8
1	8
1	83
1	82
1	10
1	82
1	10
1	11
1	10
1	6
1	14
1	9
1	6
1	9
1	6
1	85
1	10
1	8
1	8
1	84
1	82
1	82
1	85
1	8
1	13
1	11
1	6
1	6
1	82
1	12
1	8
1	6
1	8
1	4
1	8
1	12
1	5
1	7
1	13
1	9
1	10
1	83
1	86
1	6
1	7
1	10
1	82
1	9
1	82
1	6
1	9
1	4
1	10
1	6
1	9
1	82
1	5
1	9
1	7
1	6
1	84
1	8
1	82
1	7
1	8
1	8
1	10
1	82
1	8
1	7
1	11
1	12
1	7
1	6
1	7
1	8
1	6
1	8
1	9
1	7
1	6
1	82
1	13
1	7
1	82
1	10
1	6
1	8
1	4
1	9
1	82
1	9
1	9
1	8
1	7
1	9
1	5
1	82
1	10
1	7
1	8
1	13
1	6
1	6
1	4
1	9
1	4
1	7
1	5
1	82
1	4
1	9
1	7
1	8
1	5
1	4
1	5
1	9
1	7
1	82
1	82
1	8
1	7
1	84
1	7
1	4
1	7
1	6
1	7
1	6
1	7
1	4
1	9
1	7
1	82
1	7
1	82
1	5
1	5
1	6
1	82
1	5
1	82
1	4
1	5
1	4
1	9
1	83
1	82
1	5
1	13
1	82
1	9
1	82
1	6
1	6
1	7
1	6
1	7
1	83
1	7
1	9
1	6
1	5
1	82
1	7
1	6
1	10
1	82
1	82
1	6
1	7
1	13
1	8
1	5
1	6
1	82
1	82
1	6
1	7
1	6
1	10
1	4
1	82
1	8
1	8
1	6
1	6
1	7
1	9
1	7
1	7
1	5
1	9
1	5
1	82
1	82
1	7
1	9
1	4
1	82
1	7
1	6
1	7
1	6
1	10
1	83
1	10
1	82
1	6
2	3
2	3
2	8
2	3
2	4
2	6
2	3
2	3
2	3
2	14
2	5
2	3
2	5
2	4
2	5
2	3
2	3
2	4
2	5
2	5
2	7
2	4
2	3
2	3
2	4
2	4
2	4
2	8
2	4
2	3
2	3
2	8
2	3
2	3
2	4
2	3
2	4
2	5
2	3
2	3
2	3
2	6
2	5
2	4
2	3
2	3
2	4
2	3
2	7
2	4
2	3
2	7
2	4
2	4
2	4
2	10
2	4
2	4
2	3
2	5
2	4
2	4
2	3
2	3
2	4
2	5
2	3
2	4
2	4
2	3
2	4
2	3
2	5
2	4
2	4
2	5
2	4
2	3
2	3
2	3
2	3
2	3
2	3
2	5
2	6
2	3
2	3
2	4
2	3
2	3
2	3
2	3
2	4
2	4
2	3
2	3
2	4
2	3
2	3
2	6
2	3
2	4
2	4
2	7
2	4
3	4
3	4
3	4
3	4
3	4
3	4
3	4
3	5
3	4
3	5
3	4
3	4
3	4
3	4
3	5
3	6
3	4
3	4
3	4
3	4
3	5
3	4
3	7
3	4
3	4
3	4
3	4
3	6
3	4
3	4
3	4
3	4
3	4
3	4
3	4
3	7
3	4
3	4
3	4
3	4
3	4
3	4
3	4
3	4
3	4
3	4
3	4
4	6
4	5
4	5
4	5
4	5
4	5
4	5
4	6
4	5
4	5
4	5
4	5
4	5
4	5
4	5
4	5
4	5
4	5
4	5
4	5
4	5
4	5
4	5
4	5
5	6
5	6
5	6
5	6
5	6
5	6
5	6
5	6
5	6
5	6
6	7
6	7
6	7
6	7
6	7
6	7
6	7
6	7
7	8
7	8
7	8
8	9
8	9
8	9
8	9
9	10
12	13
81	82
