1	6124
1	1856
1	1856
1	1856
1	1856
1	1856
1	1856
1	1856
1	1857
1	1856
1	1856
1	1857
1	26
1	1856
1	1856
1	30
1	1856
1	19
1	19
1	1856
1	1856
1	1856
1	19
1	1856
1	1856
1	1856
1	1856
1	20
1	8
1	14
1	1856
1	1856
1	1856
1	1856
1	1856
1	1857
1	1856
1	1856
1	1857
1	1856
1	18
1	11
1	1856
1	1857
1	14
1	1856
1	1856
1	1856
1	1856
1	1856
1	17
1	1858
1	1856
1	15
1	1856
1	1856
1	1856
1	1856
1	1856
1	1856
1	1856
1	1856
1	1856
1	13
1	18
1	1856
1	1856
1	1856
1	1856
1	1856
1	1856
1	1856
1	1856
1	1856
1	1856
1	1856
1	1856
1	15
1	1856
1	1856
1	1856
1	11
1	1856
1	1856
1	1856
1	18
1	1856
1	1856
1	13
1	1856
1	1856
1	1856
1	1856
1	1856
1	1856
1	1858
1	1856
1	1856
1	1856
1	1856
1	1856
1	11
1	1856
1	1856
1	1856
1	32
1	1856
1	1856
1	1856
1	1856
1	11
1	16
1	1856
1	1856
1	1856
1	1856
1	1856
1	1856
1	1856
1	1857
1	1856
1	1856
1	12
1	1856
1	1856
1	15
1	11
1	16
1	11
1	37
1	1856
1	1856
1	1856
1	1856
1	1856
1	28
1	11
1	1856
1	1856
1	1856
1	1856
1	1856
1	14
1	1856
1	1856
1	1856
1	14
1	1856
1	1856
1	1856
1	1856
1	1856
1	1856
1	1856
1	1856
1	1856
1	1856
1	11
1	1856
1	1856
1	1856
1	1856
1	31
1	28
1	1856
1	1856
1	1857
1	1856
1	1856
1	15
1	1856
1	1856
1	1858
1	1856
1	1856
1	1856
1	1856
1	1856
1	1856
1	15
1	1856
1	1856
1	1856
1	1856
1	11
1	1856
1	6124
1	1856
1	1856
1	1856
1	1856
1	4
1	1856
1	17
1	1856
1	17
1	1856
1	12
1	1856
1	1859
1	1856
1	1856
1	15
1	1856
1	1856
1	1860
1	1856
1	1856
1	1856
1	1856
1	1856
1	1856
1	1856
1	1857
1	12
1	31
1	1856
1	1856
1	1856
1	1856
1	1856
1	1856
1	13
1	1859
1	1856
1	1856
1	1857
1	1856
1	16
1	1856
1	1856
1	6124
1	1856
1	1856
1	1856
1	13
1	1856
1	1856
1	11
1	1856
1	1856
1	1856
1	1856
1	1856
1	1856
1	1856
1	14
1	1856
1	1856
1	1856
1	1856
1	1856
1	10
1	1856
1	1856
1	1856
1	1856
1	1856
1	1856
1	15
1	1858
1	1856
1	1856
1	1856
1	1856
1	1857
1	6
1	1856
1	1856
1	1856
1	1856
1	1856
1	1856
1	1856
1	11
1	13
1	1856
1	1856
1	1856
1	1856
1	1856
1	1856
1	1856
1	1857
1	1856
1	24
1	1856
1	11
1	1856
1	1856
1	1856
1	1857
1	1856
1	1856
1	1856
1	1856
1	1856
1	7
1	9
1	1856
1	1856
1	1856
1	1856
1	1856
1	26
1	1856
1	1856
1	11
1	1856
1	17
1	5
1	1858
1	9
1	1856
1	1856
1	1856
1	1856
1	1856
1	1856
1	1856
1	1856
1	1856
1	24
1	1856
1	1856
1	1856
1	1856
1	20
1	1856
1	1856
1	1856
1	9
1	1856
1	1856
1	1856
1	1856
1	13
1	26
1	1857
1	1856
1	6
1	1856
1	1856
1	1856
1	1856
1	14
1	1857
1	1856
1	1856
1	1856
1	1856
1	1856
1	1856
1	1856
1	10
1	1856
1	1856
1	1856
1	1856
1	1856
1	1856
1	15
1	15
1	1856
1	1856
1	1857
1	1856
1	6
1	1856
1	1856
1	1856
1	1856
1	1856
1	1856
1	1856
1	1856
1	1856
1	1856
1	1856
1	1856
1	1856
1	1856
1	1856
1	1856
1	1856
1	1856
1	30
1	1856
1	18
1	1856
1	1856
1	1856
1	1856
1	1856
1	15
1	1856
1	28
1	1856
1	1856
1	8
1	1856
1	1856
1	1856
1	1856
1	1856
1	8
1	1856
1	1857
1	1856
1	1856
1	11
1	1856
1	1856
1	1856
1	1856
1	1856
1	1856
1	24
1	1856
1	1856
1	1856
1	1856
1	17
1	1856
1	1856
1	1856
1	10
1	1856
1	1856
1	1856
1	1856
1	1856
1	1856
1	1856
1	1856
1	1856
1	1856
1	1856
1	1856
1	22
1	1856
1	1856
1	9
1	1856
1	1856
1	1856
1	1856
1	1856
1	1856
1	1856
1	22
1	1857
1	1856
1	1856
1	1856
1	10
1	1856
1	1856
1	1856
1	1856
1	1856
1	1856
1	1856
1	1856
1	1856
1	1856
1	1856
1	1856
1	1856
1	1856
1	1856
1	1856
1	1856
1	1856
1	1856
1	1856
1	1856
1	1856
1	9
1	1856
1	1856
1	1857
1	34
1	1856
1	14
1	1856
1	1856
1	13
1	17
1	1856
1	9
1	1856
1	1856
1	9
1	1856
1	1856
1	2
1	1856
1	1856
1	1856
1	7
1	1856
1	8
1	1856
1	1856
1	1856
1	1856
1	1856
1	1856
1	1856
1	1856
1	1856
1	1856
1	12
1	1856
1	1856
1	1856
1	1856
1	4
1	1856
1	22
1	1856
1	1856
1	1856
1	13
1	1856
1	1856
1	1856
1	1856
1	1856
1	1856
1	1856
1	1856
1	1856
1	1856
1	1856
1	1856
1	1856
1	1856
1	1856
1	9
1	1856
1	1856
1	1856
1	1856
1	1856
1	1856
1	1856
1	1856
1	1856
1	1856
1	1856
1	1856
1	1856
1	1856
1	22
1	1856
1	1856
1	1856
1	1856
1	1856
1	1856
1	17
1	1856
1	1856
1	1856
1	1856
1	12
1	1856
1	1856
1	1856
1	1856
1	1856
1	1856
1	1856
1	1856
1	1856
1	1856
1	1856
1	19
1	13
1	1856
1	1856
1	5
1	1856
1	1856
1	1856
1	1856
1	1856
1	10
1	1856
1	1856
1	1856
1	1856
1	1856
1	1856
1	11
1	1856
1	1856
1	1856
1	1856
1	1856
1	1856
1	1856
1	1856
1	1856
1	1856
1	7
1	1856
1	1856
1	1856
1	1856
1	1856
1	1856
1	1856
1	1856
1	1856
1	1856
1	1856
1	1856
1	28
1	1856
1	1856
1	1856
1	1856
1	1856
1	1856
1	1856
1	1856
1	1856
1	1856
1	1856
1	28
1	1856
1	1856
1	1856
1	1856
1	1856
1	1856
1	1856
1	1856
1	1856
1	1856
1	1856
1	1857
1	1856
1	1856
1	13
1	1856
1	1856
1	1856
1	1856
1	1856
1	1856
1	1856
1	1856
1	1856
1	1856
1	1856
1	1856
1	1856
1	1856
1	1856
1	1856
1	7
1	1856
1	1856
1	1856
1	1856
1	1856
1	18
1	1856
1	1856
1	1856
1	6
1	1856
1	1856
1	1856
1	1856
1	1856
1	1856
1	1856
1	1856
1	22
1	1856
1	21
1	1856
1	1856
1	1856
1	1856
1	1856
1	1856
1	1856
1	1856
1	1857
1	1856
1	30
1	1856
1	1856
1	1856
1	1856
1	1856
1	18
1	1856
1	1856
1	1856
1	15
1	1856
1	1856
1	1856
1	1856
1	1856
1	1856
1	16
1	1856
1	1856
1	1856
1	1856
1	1856
1	1856
1	1856
1	1856
1	1856
1	1856
1	1856
1	16
1	1856
1	1856
1	1856
1	1856
1	1856
1	1856
1	22
1	1856
1	13
1	1856
1	1856
1	1856
1	7
1	1856
1	1856
1	13
1	1856
1	1856
1	1856
1	10
1	1856
1	1856
1	1856
1	1856
1	1856
1	1856
1	1856
1	14
1	1856
1	1856
1	1856
1	1856
1	1856
1	1856
1	1857
1	1856
1	1856
1	1857
1	1856
1	1856
1	1856
1	1856
1	1856
1	1856
1	1856
1	1856
1	1856
1	1856
1	1856
1	1856
1	1856
1	1856
1	1856
1	1856
1	1856
1	1856
1	1856
1	1856
1	1856
1	1856
1	1856
1	1856
1	1856
1	1857
1	1856
1	1856
1	1856
1	1856
1	1856
1	1856
1	5
1	1856
1	1856
1	1856
1	1856
1	1856
1	1856
1	1857
1	1856
1	1856
1	1856
1	6124
1	1856
1	1856
1	1856
1	1856
1	1856
1	1856
1	1857
1	1856
1	1856
1	6
1	11
1	1856
1	1856
1	1856
1	1856
1	1856
1	1856
1	1856
1	1856
1	1856
1	4
1	1856
1	1856
1	1856
1	1856
1	1856
1	1856
1	1856
1	1856
1	1856
1	1856
1	1856
1	1858
1	1856
1	1856
1	1856
1	1856
1	1856
1	1856
1	1856
1	1856
1	1856
1	1856
1	1856
1	1856
1	1856
1	1856
1	1856
1	30
1	1856
1	7
1	1856
1	1856
1	1856
1	1856
1	1856
1	1856
1	16
1	1856
1	1856
1	1856
1	1856
1	1856
1	1857
1	1856
1	1856
1	1856
1	1856
1	1857
1	1856
1	1856
1	1856
1	1856
1	1856
1	1856
1	1856
1	1856
1	1856
1	7
1	1856
1	1856
1	1856
1	1856
1	1856
1	1856
1	1856
1	1856
1	1856
1	1856
1	1856
1	1856
1	1856
1	1856
1	1856
1	1856
1	15
1	15
1	1856
1	1856
1	1856
1	1856
1	1856
1	28
1	1856
1	1856
1	1856
1	1857
1	1856
1	1856
1	1856
1	1856
1	1856
1	1856
1	1856
1	1856
1	1856
1	1856
1	1856
1	1856
1	1856
1	30
1	1856
1	1856
1	1856
1	1856
1	1856
1	1856
1	1856
1	1857
1	1856
1	5
1	1856
1	1856
1	1856
1	1856
1	1856
1	5
1	1856
1	1856
1	1856
1	1856
1	23
1	1856
1	4
1	1856
1	1856
1	1856
1	1856
1	1856
1	1856
1	1856
1	10
1	1856
1	1857
1	1856
1	18
1	1856
1	1856
1	1856
1	1856
1	1856
1	15
1	1856
1	10
1	1856
1	1856
1	1857
1	1856
1	18
1	1856
1	9
1	1856
1	1856
1	1856
1	1856
1	11
1	1856
1	1856
1	1856
1	1856
1	1856
1	1856
1	8
1	1856
1	15
1	1856
1	1856
1	1856
1	1856
1	28
1	1856
1	31
1	1856
1	1856
1	1856
1	7
1	1856
1	1856
1	1856
1	1856
1	30
1	1856
1	22
1	1856
1	1856
1	30
1	1856
1	1856
1	1856
1	1856
1	1856
1	1856
1	8
1	1856
1	6
1	1856
1	1856
1	1856
1	1856
1	1856
1	8
1	1856
1	1856
1	1856
1	1856
1	1856
1	1856
1	1856
1	1856
1	2
1	1856
1	6124
1	1856
1	5
1	30
1	28
1	1856
1	18
1	1856
1	8
1	1856
1	1856
1	11
1	1856
1	1856
1	1856
1	1858
1	1856
1	1856
1	1856
1	1856
1	1856
1	1856
1	9
1	1856
1	1856
1	1856
1	1856
1	1856
1	1856
1	1856
1	1856
1	1856
1	1856
1	7
1	1856
1	1856
1	1856
1	15
1	1856
1	1856
1	1856
1	1856
1	1856
1	1856
1	1856
1	1856
1	1856
1	1856
1	28
1	1856
1	1856
1	1856
1	1856
1	1857
1	1856
1	1856
1	1856
1	1856
1	1856
1	8
1	1856
1	1856
1	1856
1	1856
1	1856
1	1856
1	1856
1	1856
1	1856
1	1856
1	1856
1	1856
1	1856
1	1856
1	1856
1	1856
1	1856
1	1856
1	1856
1	1856
1	1856
1	1856
1	1856
1	1857
1	1856
1	1856
1	1856
1	1856
1	1856
1	1856
1	1856
1	1857
1	1856
1	1856
1	1856
1	1856
1	17
1	1856
1	1857
1	8
1	1856
1	1856
1	1856
1	1856
1	1856
1	1856
1	1857
1	1856
1	6
1	1856
1	1856
1	1856
1	1856
1	1856
1	1856
1	1856
1	1856
1	1856
1	1856
1	1856
1	13
1	1856
1	1856
1	1856
1	1856
1	1856
1	7
1	1856
1	1856
1	1856
1	1856
1	1856
1	1856
1	1856
1	1856
1	15
1	6
1	1856
1	1856
1	1856
1	1857
1	1856
1	1856
1	1856
1	1856
1	1856
1	1856
1	1856
1	1856
1	1856
1	1858
1	1856
1	1856
1	1856
1	1856
1	1856
1	1856
1	8
1	1856
1	1856
1	1856
1	1856
1	1856
1	1856
1	1856
1	15
1	1856
1	1856
1	1856
1	1856
1	1856
1	1856
1	8
1	1856
1	1856
1	12
1	1856
1	8
1	1856
1	1856
1	10
1	1856
1	1856
1	1857
1	1856
1	1856
1	1856
1	1856
1	1856
1	6
1	1856
1	17
1	1856
1	1856
1	1856
1	1856
1	1856
1	1856
1	11
1	1856
1	1856
1	1856
1	1857
1	1856
1	1856
1	1856
1	7
1	1856
1	1856
1	14
1	1856
1	1856
1	1856
1	6
1	1856
1	1856
1	1856
1	1856
1	1856
1	1856
1	1856
1	1856
1	1856
1	1856
1	1856
1	1856
1	8
1	1856
1	1856
1	1856
1	1856
1	1856
1	1856
1	1856
1	1856
1	1856
1	1856
1	1856
1	1856
1	1856
1	1856
1	1856
1	1856
1	1856
1	1856
1	14
1	1856
1	1856
1	1856
1	1856
1	1856
1	9
1	1856
1	8
1	1856
1	1856
1	1856
1	1856
1	1856
1	24
1	9
1	1856
1	1856
1	1856
1	1856
1	1856
1	1857
1	1856
1	11
1	1856
1	1856
1	1856
1	1856
1	1856
1	18
1	1856
1	1856
1	1856
1	1856
1	4
1	1856
1	1856
1	1856
1	1856
1	8
1	1856
1	1856
1	1856
1	1856
1	1856
1	1856
1	1856
1	1856
1	1856
1	1856
1	1856
1	1856
1	7
1	10
1	1856
1	1856
1	1856
1	1856
1	1856
1	1856
1	1856
1	1856
1	1856
1	1856
1	1856
1	1856
1	1856
1	1856
1	1856
1	1856
1	1856
1	1856
1	1856
1	1856
1	1856
1	1856
1	1856
1	1856
1	1856
1	9
1	1856
1	1856
1	1856
1	1856
1	1856
1	1856
1	1856
1	1856
1	1856
1	1856
1	1856
1	1856
1	1856
1	1856
1	1856
1	4
1	1856
1	1856
1	1856
1	1856
1	4
1	17
1	1856
1	6
1	1856
1	8
1	1856
1	1856
1	24
1	1856
1	1856
1	1856
1	1856
1	19
1	1856
1	1856
1	1856
1	1856
1	1856
1	6124
1	1856
1	1856
1	1856
1	1856
1	1856
1	1856
1	1856
1	1856
1	1856
1	1856
1	1856
1	1856
1	1856
1	1856
1	1856
1	1856
1	1856
1	1856
1	1856
1	1856
1	1856
1	1856
1	31
1	1856
1	1856
1	1856
1	16
1	1856
1	1856
1	1856
1	1856
1	6
1	1856
1	1856
1	2
1	1856
1	1856
1	13
1	1856
1	1856
1	9
1	1856
1	1856
1	1856
1	1856
1	1856
1	1856
1	1856
1	1856
1	1856
1	1856
1	1856
1	1856
1	1856
1	1856
1	1856
1	1856
1	1856
1	1856
1	1856
1	15
1	1856
1	1856
1	1856
1	10
1	1856
1	8
1	7
1	1856
1	1856
1	1856
1	1856
1	24
1	1856
1	1856
1	1856
1	8
1	1856
1	1856
1	1856
1	1856
1	1856
1	10
1	6
1	1856
1	1856
1	1856
1	1856
1	1856
1	1856
1	1856
1	1856
1	1856
1	1856
1	1856
1	1856
1	11
1	1856
1	1856
1	1856
1	1856
1	1856
1	4
1	1856
1	1856
1	1856
1	1856
1	1856
1	1856
1	1856
1	1857
1	1856
1	1856
1	1856
1	1856
1	1856
1	1856
1	1856
1	1856
1	1856
1	15
1	1856
1	1856
1	1856
1	1856
1	1856
1	1856
1	1856
1	1856
1	1856
1	1856
1	1856
1	9
1	22
1	1856
1	1856
1	1856
1	1856
1	1856
1	1856
1	30
1	1856
1	1856
1	1856
1	1857
1	1856
1	1856
1	1856
1	1856
1	1856
1	1856
1	5
1	1857
1	1856
1	1856
1	1856
1	1856
1	11
1	1856
1	1856
1	9
1	1856
1	1856
1	1856
1	1856
1	1856
1	1856
1	2
1	1856
1	9
1	1856
1	1856
1	1856
1	1856
1	1856
1	24
1	15
1	1856
1	1856
1	1856
1	1856
1	1856
1	6
1	1856
1	8
1	1856
1	1856
1	1856
1	1856
1	1856
1	1856
1	1856
1	1856
1	1856
1	1856
1	1856
1	1856
1	1856
1	1856
1	22
1	1856
1	16
1	1856
1	1856
1	1856
1	1856
1	1856
1	1856
1	1856
1	1856
1	1856
1	1857
1	1856
1	8
1	1856
1	1856
1	1856
1	1856
1	1856
1	1856
1	1856
1	1856
1	1856
1	1856
1	1856
1	1856
1	1856
1	1856
1	1856
1	1856
1	1856
1	1856
1	1856
1	1856
1	1856
1	24
1	1856
1	1856
1	1856
1	24
1	1856
1	6
1	1856
1	1856
1	1856
1	1856
1	1856
1	1856
1	1856
1	1856
1	28
1	1856
1	1856
1	1856
1	1856
1	1856
1	16
1	1856
1	9
1	1856
1	1856
1	1856
1	1856
1	1856
1	7
1	7
1	7
1	1856
1	28
1	1856
1	1856
1	1856
1	1856
1	1856
1	1856
1	1856
1	1856
1	1856
1	1856
1	1856
1	15
1	5
1	15
1	1856
1	1856
1	1856
1	1856
1	1856
1	1856
1	1856
1	1856
1	1856
1	1856
1	1856
1	1856
1	1856
1	8
1	1856
1	1856
1	30
1	1856
1	1856
1	1856
1	1856
1	1856
1	13
1	1856
1	1856
1	1856
1	1856
1	1857
1	1856
1	30
1	1856
1	1856
1	28
1	1856
1	1856
1	1856
1	1856
1	9
1	1856
1	1856
1	5
1	1856
1	1856
1	1856
1	1856
1	1856
1	15
1	1856
1	1856
1	1856
1	8
1	1856
1	30
1	1856
1	6
1	1856
1	1856
1	1856
1	1856
1	1856
1	1856
1	28
1	1856
1	15
1	1856
1	1856
1	1856
1	1856
1	1856
1	1856
1	4
1	1856
1	1856
1	1856
1	1856
1	1856
1	1856
1	8
1	1856
1	1856
1	1856
1	1856
1	1856
1	1856
1	1856
1	1856
1	1856
1	7
1	1856
1	18
1	6
1	1856
1	1856
1	8
1	1856
1	1856
1	1856
1	1856
1	7
1	1856
1	1856
1	1856
1	1856
1	1856
1	1856
1	1856
1	1856
1	1856
1	1856
1	1856
1	1856
1	1856
1	8
1	1856
1	1856
1	1856
1	1856
1	15
1	1856
1	1856
1	1856
1	1856
1	1856
1	7
1	1856
1	1856
1	1856
1	1856
1	1856
1	1856
1	1856
1	1856
1	1856
1	1856
1	1856
1	1856
1	1856
1	1857
1	1856
1	1856
1	1856
1	1856
1	1856
1	1856
1	1856
1	1856
1	1856
1	1856
1	8
1	5
1	1856
1	1857
1	1856
1	1856
1	11
1	1856
1	7
1	1856
1	1856
1	11
1	1856
1	1856
1	9
1	1856
1	5
1	1856
1	1856
1	1856
1	1856
1	7
1	1856
1	1856
1	1856
1	7
1	1856
1	1856
1	1856
1	6
1	1856
1	1856
1	1856
1	1856
1	1856
1	1856
1	1856
1	8
1	1856
1	1856
1	1858
1	8
1	1856
1	1856
1	1856
1	15
1	1856
1	1856
1	1856
1	1856
1	1856
1	1856
1	1856
1	1856
1	1856
1	1856
1	1856
1	1856
1	1856
1	9
1	13
1	1856
1	1856
1	9
1	1856
1	1856
1	1856
1	1856
1	1856
1	6
1	1856
1	1856
1	1856
1	1857
1	1856
1	1856
1	6
1	1856
1	1856
1	1856
1	1856
1	15
1	1856
1	1856
1	13
1	1856
1	1856
1	1856
1	1856
1	1856
1	1856
1	1856
1	15
1	1856
1	1856
1	1856
1	2
1	28
1	1856
1	1856
1	1856
1	1856
1	1856
1	1856
1	9
1	1856
1	1856
1	22
1	1856
1	13
1	30
1	16
1	1856
1	1856
1	1856
1	1856
1	1856
1	1856
1	1856
1	1856
1	1856
1	1856
1	1856
1	1856
1	1856
1	1856
1	15
1	1856
1	1856
1	1856
1	17
1	1856
1	4
1	1856
1	1856
1	8
1	1856
1	1856
1	11
1	1856
1	8
1	1856
1	1856
1	1856
1	1856
1	8
1	1856
1	1856
1	1856
1	1856
1	15
1	1856
1	1856
1	1856
1	1856
1	1856
1	1856
1	1856
1	1856
1	8
1	1856
1	1856
1	1856
1	1856
1	1856
1	1856
1	1856
1	1856
1	1856
1	1856
1	4
1	1856
1	1856
1	1856
1	1856
1	1856
1	1856
1	1856
1	1856
1	6
1	1856
1	1856
1	8
1	1856
1	1856
1	1856
2	3
2	6
2	3
2	3
2	16
2	16
2	7
2	7
2	5
2	3
2	7
2	3
2	1857
2	10
2	6
2	18
2	3
2	23
2	1857
2	17
2	3
2	3
2	14
2	25
2	3
2	3
2	4
2	5
2	7
2	1857
2	6
2	6
2	3
2	3
2	8
2	4
2	3
2	3
2	5
2	4
2	7
2	1857
2	3
2	1857
2	3
2	1857
2	3
2	6
2	5
2	5
2	11
2	12
2	3
2	4
2	4
2	8
2	4
2	7
2	25
2	3
2	3
2	1857
2	5
2	6
2	3
2	14
2	3
2	3
2	3
2	6
2	4
2	25
2	8
2	3
2	5
2	4
2	7
2	3
2	11
2	3
2	8
2	4
2	4
2	7
2	16
2	4
2	12
2	3
2	3
2	1857
2	3
2	4
2	5
2	3
2	3
2	9
2	7
2	9
2	4
2	3
2	31
2	6
2	6
2	8
2	4
2	4
2	4
2	3
2	9
2	7
2	3
2	16
2	3
2	4
2	5
2	5
2	14
2	3
2	12
2	3
2	12
2	6
2	9
2	3
2	3
2	10
2	9
2	3
2	26
2	23
2	3
2	3
2	3
2	4
2	9
2	3
2	8
2	3
2	4
2	6
2	3
2	4
2	3
2	4
2	8
2	4
2	5
2	6
2	4
2	4
2	3
2	3
2	8
2	4
2	10
2	14
2	3
2	6
2	23
2	7
2	3
2	23
2	4
2	3
2	25
2	3
2	4
2	3
2	5
2	4
2	5
2	4
2	3
2	6
2	3
2	4
2	3
2	5
2	3
2	31
2	3
2	5
2	6
2	3
2	6
2	4
2	5
2	4
2	3
2	5
2	19
2	5
2	3
2	4
2	6
2	9
2	17
2	4
3	5
3	4
3	4
3	5
3	8
3	5
3	5
3	5
3	4
3	4
3	5
3	4
3	5
3	6
3	5
3	4
3	7
3	6
3	5
3	4
3	4
3	4
3	5
3	4
3	4
3	4
3	5
3	4
3	4
3	4
3	4
3	4
3	4
3	10
3	4
3	8
3	4
3	5
3	4
3	7
3	5
3	5
3	5
3	5
3	4
3	24
3	6
3	4
3	5
3	9
3	4
3	4
3	4
3	5
3	4
3	5
3	5
3	4
3	5
3	4
3	8
3	7
3	4
3	5
3	7
3	4
3	4
3	5
3	4
3	4
3	4
3	4
3	4
3	5
3	7
3	4
3	4
3	5
3	9
3	4
3	4
4	5
4	5
4	5
4	5
4	5
4	5
4	6
4	5
4	6
4	6
4	5
4	5
4	5
4	5
4	5
4	6
4	7
4	5
4	6
4	5
4	5
4	6
4	5
4	7
4	5
4	5
4	5
4	8
4	7
4	7
4	5
4	5
4	5
5	7
5	6
5	6
5	6
5	7
5	6
5	6
5	6
5	6
5	6
5	6
5	6
5	6
5	6
5	6
5	6
5	6
6	7
6	7
6	7
6	7
6	7
6	7
6	7
6	7
6	7
6	7
6	7
7	8
7	8
7	8
7	8
7	8
7	8
7	8
7	8
7	9
7	8
8	9
8	9
8	9
8	9
8	9
8	9
9	10
9	10
10	11
10	11
12	13
12	13
12	13
14	15
14	15
14	15
14	15
15	16
16	17
17	18
21	22
23	24
27	28
29	30
1855	1856
