1	6124
1	1128
1	1127
1	1127
1	1127
1	1127
1	1127
1	1127
1	1127
1	1127
1	1127
1	1127
1	1127
1	1127
1	29
1	1127
1	1127
1	1127
1	1127
1	1127
1	1127
1	1127
1	1127
1	1127
1	1127
1	19
1	1127
1	1127
1	1127
1	1127
1	1127
1	1127
1	1127
1	1127
1	18
1	1127
1	1127
1	1127
1	1127
1	1127
1	1127
1	1128
1	1127
1	1127
1	1127
1	1127
1	1127
1	1127
1	1127
1	1127
1	1127
1	1127
1	1127
1	17
1	1127
1	1127
1	1127
1	1127
1	8
1	1128
1	1127
1	1127
1	1127
1	1127
1	1127
1	1127
1	1127
1	1128
1	13
1	1127
1	1127
1	1127
1	1127
1	1127
1	17
1	1127
1	1127
1	18
1	1127
1	1127
1	19
1	1127
1	1127
1	1127
1	1127
1	1127
1	1127
1	1127
1	1127
1	1127
1	1127
1	1127
1	1127
1	1127
1	1127
1	1127
1	1127
1	18
1	1127
1	1127
1	1128
1	1127
1	17
1	1127
1	1129
1	17
1	1127
1	1127
1	17
1	1127
1	1127
1	1127
1	1127
1	1127
1	14
1	1127
1	1127
1	1127
1	1127
1	1127
1	1127
1	1127
1	28
1	13
1	1127
1	1127
1	1127
1	1127
1	1127
1	1127
1	1127
1	1127
1	1127
1	1127
1	1127
1	1127
1	1127
1	1127
1	1127
1	1127
1	1127
1	1127
1	1127
1	1127
1	1127
1	1127
1	1127
1	1127
1	1127
1	1127
1	1127
1	1127
1	1127
1	1127
1	1127
1	10
1	1127
1	1127
1	1127
1	1127
1	1127
1	1127
1	1127
1	1127
1	1127
1	1127
1	1127
1	1127
1	1127
1	1127
1	1127
1	1127
1	1127
1	1127
1	1127
1	1127
1	1127
1	1127
1	1127
1	15
1	1127
1	29
1	1127
1	1127
1	1127
1	1127
1	1127
1	1127
1	1127
1	1127
1	1127
1	1127
1	1127
1	1127
1	11
1	1127
1	1128
1	14
1	1127
1	1127
1	1127
1	29
1	1127
1	1127
1	1127
1	1127
1	1127
1	1127
1	1128
1	1127
1	1127
1	1127
1	1127
1	1127
1	1127
1	1127
1	1127
1	1127
1	29
1	1127
1	1127
1	1127
1	1127
1	1127
1	1127
1	1127
1	1127
1	1127
1	1127
1	1127
1	1127
1	1128
1	1127
1	1127
1	1127
1	1128
1	1127
1	1127
1	1127
1	1127
1	1127
1	1127
1	1127
1	1127
1	1127
1	8
1	1127
1	1127
1	1127
1	1127
1	1127
1	1127
1	9
1	1127
1	1127
1	1127
1	1127
1	1127
1	1127
1	1127
1	1127
1	1127
1	1127
1	1127
1	1127
1	9
1	1127
1	1127
1	1127
1	1127
1	10
1	1127
1	1127
1	1127
1	1127
1	1127
1	1127
1	1127
1	1127
1	1127
1	1127
1	10
1	1127
1	1127
1	1128
1	1127
1	1127
1	10
1	1127
1	1127
1	1127
1	1127
1	1127
1	1127
1	1127
1	1127
1	1127
1	1127
1	1127
1	1127
1	1127
1	1127
1	1127
1	1127
1	1127
1	1127
1	1127
1	1127
1	1127
1	1127
1	1127
1	10
1	1127
1	17
1	1127
1	1127
1	1127
1	1127
1	1127
1	1127
1	1127
1	1127
1	1127
1	1127
1	1127
1	1127
1	1129
1	1127
1	1127
1	1127
1	1127
1	1127
1	1127
1	1127
1	1127
1	1127
1	1128
1	1127
1	1127
1	29
1	1127
1	1127
1	1127
1	1127
1	1127
1	1128
1	1127
1	1127
1	9
1	8
1	1127
1	1127
1	1127
1	1127
1	1127
1	1127
1	1127
1	1127
1	1127
1	1127
1	1127
1	1127
1	1127
1	1127
1	1127
1	1127
1	1127
1	1127
1	1127
1	1127
1	1128
1	1127
1	7
1	28
1	1127
1	1127
1	1127
1	1127
1	1127
1	1127
1	1127
1	17
1	1127
1	8
1	28
1	1127
1	1127
1	1127
1	1127
1	1127
1	1127
1	1127
1	1127
1	1127
1	1127
1	1127
1	17
1	1127
1	1127
1	1127
1	1127
1	1127
1	1127
1	1127
1	1127
1	1127
1	1127
1	1127
1	1127
1	1127
1	1127
1	17
1	1127
1	1127
1	10
1	1127
1	1127
1	1127
1	1127
1	1127
1	9
1	1127
1	1127
1	1127
1	1127
1	1127
1	1127
1	1127
1	1127
1	1128
1	1127
1	1130
1	1127
1	1127
1	1127
1	1127
1	1127
1	1127
1	1127
1	1127
1	1127
1	1127
1	1127
1	1127
1	7
1	1127
1	1127
1	1127
1	1127
1	1127
1	1127
1	1127
1	1127
1	1127
1	1127
1	1127
1	1127
1	1127
1	1127
1	28
1	7
1	1127
1	1127
1	1129
1	1127
1	1127
1	4
1	1127
1	1127
1	9
1	1127
1	1127
1	1127
1	1127
1	1127
1	1127
1	5
1	9
1	1128
1	1127
1	1127
1	6124
1	1127
1	31
1	1127
1	1127
1	1127
1	1127
1	1128
1	1127
1	1127
1	1127
1	1127
1	15
1	1127
1	1127
1	1128
1	1127
1	1127
1	1127
1	1127
1	1130
1	1127
1	1127
1	28
1	1127
1	1127
1	1127
1	1127
1	1127
1	1127
1	1127
1	11
1	1127
1	1127
1	1127
1	1127
1	1127
1	1127
1	1127
1	1127
1	12
1	1127
1	1127
1	1127
1	1127
1	1127
1	1127
1	1128
1	1127
1	4
1	1127
1	1127
1	1127
1	1127
1	1127
1	1127
1	1127
1	1127
1	1127
1	1127
1	1127
1	1127
1	1127
1	28
1	1127
1	1129
1	1127
1	1127
1	1127
1	7
1	1127
1	7
1	1127
1	1127
1	1127
1	1127
1	1127
1	1127
1	1127
1	1127
1	1127
1	1127
1	1127
1	1127
1	1127
1	1129
1	1127
1	1127
1	1127
1	1127
1	1127
1	1127
1	14
1	1127
1	1127
1	1127
1	1127
1	1127
1	1127
1	1127
1	1127
1	7
1	1127
1	1127
1	1127
1	1127
1	1127
1	1127
1	9
1	1127
1	1127
1	1127
1	1127
1	1127
1	1127
1	1127
1	1127
1	8
1	1127
1	1127
1	1127
1	1127
1	1127
1	1127
1	1127
1	1127
1	1127
1	1127
1	1127
1	1127
1	6
1	1127
1	5
1	4
1	1127
1	1127
1	1127
1	1127
1	1127
1	1127
1	1127
1	1127
1	1127
1	1127
1	1127
1	1127
1	1127
1	1127
1	1127
1	1127
1	1127
1	1127
1	5
1	1127
1	1127
1	1127
1	1127
1	1127
1	1127
1	1127
1	1127
1	1127
1	1127
1	1127
1	28
1	1127
1	1127
1	1127
1	1127
1	1127
1	1127
1	1127
1	1127
1	1127
1	1127
1	1127
1	1128
1	1127
1	12
1	1127
1	1127
1	1127
1	1127
1	12
1	1127
1	12
1	1127
1	1127
1	1127
1	1127
1	1127
1	1127
1	1127
1	1127
1	1127
1	1127
1	1127
1	1127
1	1127
1	1127
1	1127
1	5
1	1127
1	1127
1	1127
1	1127
1	1127
1	11
1	1127
1	1127
1	1127
1	15
1	9
1	1127
1	1127
1	1127
1	1127
1	1127
1	1127
1	1127
1	1127
1	1127
1	1127
1	1127
1	1128
1	1127
1	1127
1	1127
1	7
1	1127
1	1127
1	1127
1	28
1	1127
1	1127
1	1127
1	1127
1	1127
1	1127
1	8
1	1129
1	1127
1	1127
1	1127
1	1127
1	1127
1	1127
1	1127
1	1127
1	1127
1	1127
1	1127
1	1127
1	1127
1	1127
1	4
1	1127
1	1127
1	1127
1	1127
1	1127
1	1127
1	1127
1	1127
1	1127
1	6
1	5
1	1127
1	1127
1	1127
1	1127
1	1127
1	1127
1	1127
1	1127
1	1127
1	1127
1	1127
1	1127
1	1127
1	1127
1	1127
1	1127
1	1127
1	1127
1	1127
1	1127
1	1128
1	7
1	1127
1	1127
1	1127
1	1127
1	1127
1	7
1	1127
1	1127
1	1127
1	1127
1	1127
1	1127
1	1127
1	1127
1	1127
1	1127
1	1127
1	1127
1	1127
1	1127
1	4
1	1127
1	1127
1	1127
1	1127
1	1127
1	1127
1	1127
1	1127
1	1127
1	1127
1	1127
1	1127
1	1127
1	1127
1	1127
1	1127
1	1127
1	1127
1	1127
1	1127
1	1127
1	1128
1	1127
1	1127
1	7
1	1127
1	1128
1	1127
1	9
1	1127
1	1127
1	1127
1	1127
1	1127
1	1127
1	1127
1	1127
1	1127
1	1127
1	1127
1	1127
1	1127
1	1127
1	1127
1	1127
1	1127
1	1127
1	1127
1	1127
1	1127
1	1127
1	1127
1	1127
1	1127
1	1127
1	1127
1	1127
1	1127
1	1127
1	1127
1	1127
1	1127
1	9
1	1127
1	1127
1	1127
1	1127
1	1127
1	1127
1	1127
1	1127
1	1127
1	4
1	1127
1	12
1	1127
1	1127
1	1127
1	7
1	1127
1	5
1	1127
1	1127
1	1127
1	1127
1	1127
1	1127
1	1127
1	1127
1	1127
1	1127
1	1127
1	1127
1	1127
1	1127
1	1127
1	1127
1	1127
1	1127
1	1127
1	1127
1	1127
1	1127
1	1127
1	1127
1	1127
1	1127
1	1127
1	1127
1	1127
1	1127
1	1127
1	1127
1	1127
1	5
1	6
1	1127
1	1127
1	1127
1	1127
1	1127
1	1128
1	1127
1	1127
1	1127
1	1127
1	1127
1	1128
1	1127
1	1127
1	1127
1	1127
1	1127
1	1127
1	1127
1	1127
1	1127
1	1127
1	1127
1	1127
1	1127
1	1127
1	1127
1	1127
1	5
1	4
1	17
1	1127
1	1127
1	1127
1	1127
1	1127
1	12
1	1127
1	1127
1	1127
1	1127
1	1127
1	1127
1	1127
1	1129
1	1127
1	1127
1	1127
1	1128
1	1127
1	9
1	1127
1	9
1	1127
1	1127
1	1127
1	5
1	1127
1	1127
1	1127
1	1127
1	1127
1	1127
1	28
1	1127
1	1128
1	1127
1	1127
1	1127
1	1127
1	1127
1	1127
1	12
1	1127
1	1127
1	1127
1	1127
1	10
1	1127
1	1127
1	1127
1	1127
1	1127
1	1127
1	1127
1	1127
1	12
1	1127
1	1127
1	1127
1	1127
1	1127
1	10
1	1127
1	1127
1	1127
1	1127
1	1127
1	1127
1	1127
1	1127
1	1127
1	1127
1	1127
1	4
1	1127
1	5
1	1127
1	1127
1	1127
1	1127
1	1127
1	28
1	1127
1	1127
1	1127
1	1127
1	1127
1	1127
1	1127
1	1127
1	1127
1	1127
1	1127
1	1127
1	9
1	5
1	1127
1	1127
1	1127
1	1127
1	1127
1	1127
1	1127
1	1127
1	1128
1	1127
1	1127
1	15
1	1127
1	1127
1	28
1	8
1	1127
1	1127
1	1127
1	1127
1	1127
1	1127
1	1127
1	1127
1	1127
1	1127
1	1127
1	1127
1	1127
1	1127
1	1127
1	1127
1	1127
1	1127
1	1127
1	1127
1	5
1	1127
1	1127
1	17
1	1127
1	1127
1	1127
1	1127
1	1127
1	1127
1	1127
1	11
1	1127
1	1127
1	1127
1	1128
1	9
1	1127
1	1127
1	1127
1	1127
1	1127
1	1127
1	1128
1	1127
1	1127
1	1127
1	1127
1	1127
1	1127
1	1127
1	9
1	1127
1	1127
1	1127
1	1127
1	1127
1	1127
1	1127
1	1127
1	1127
1	1127
1	1127
1	1127
1	1127
1	15
1	1127
1	1127
1	1127
1	1127
1	1127
1	1127
1	1127
1	2
1	1127
1	1127
1	5
1	1127
1	1127
1	1127
1	1127
1	17
1	1127
1	1127
1	1127
1	1127
1	29
1	1127
1	1127
1	1127
1	1127
1	1127
1	1127
1	1127
1	5
1	1127
1	1127
1	5
1	1127
1	1127
1	1127
1	1127
1	1128
1	1127
1	7
1	1127
1	1127
1	1127
1	1127
1	1127
1	1127
1	5
1	1127
1	1127
1	1127
1	8
1	1127
1	1127
1	1127
1	1127
1	1127
1	1127
1	1127
1	7
1	1127
1	1127
1	1127
1	1127
1	1127
1	5
1	1127
1	4
1	1127
1	1127
1	1127
1	1127
1	1127
1	1127
1	1127
1	1127
1	1127
1	1127
1	1127
1	1127
1	1127
1	1127
1	1127
1	1127
1	1127
1	1127
1	1127
1	1127
1	1127
2	3
2	3
2	10
2	9
2	1128
2	8
2	3
2	6
2	8
2	3
2	8
2	3
2	3
2	3
2	3
2	3
2	3
2	3
2	29
2	8
2	3
2	7
2	3
2	6
2	3
2	8
2	4
2	6
2	10
2	1128
2	7
2	3
2	5
2	3
2	1128
2	3
2	3
2	4
2	6
2	7
2	16
2	6
2	7
2	29
2	3
2	4
2	3
2	3
2	3
2	6
2	4
2	3
2	3
2	3
2	3
2	4
2	4
2	3
2	3
2	4
2	3
2	3
2	3
2	3
2	10
2	3
2	3
2	4
2	3
2	3
2	1128
2	17
2	4
2	3
2	7
2	4
2	3
2	7
2	10
2	8
2	7
2	7
2	4
2	3
2	3
2	4
2	13
2	3
2	3
2	3
2	18
2	3
2	4
2	5
2	29
3	4
3	4
3	5
3	5
3	6
3	4
3	4
3	5
3	7
3	4
3	4
3	4
3	4
3	6
3	7
3	4
3	4
3	4
3	4
3	7
3	4
3	4
3	6
3	6
3	4
3	5
3	4
3	5
3	4
3	4
4	5
4	11
4	5
4	5
4	5
4	5
4	5
4	5
4	5
4	5
4	5
4	6
4	5
4	5
4	5
4	6
4	5
4	5
5	7
5	7
5	7
5	6
5	6
5	6
6	7
6	7
6	7
6	7
6	7
7	8
8	9
8	9
8	9
8	9
8	9
11	12
14	15
16	17
27	28
1126	1127
