1	6124
1	3063
1	3063
1	3063
1	3064
1	3063
1	3063
1	3063
1	3063
1	3064
1	3063
1	3063
1	3063
1	3063
1	3063
1	3063
1	17
1	3063
1	12
1	3063
1	3063
1	18
1	3063
1	3063
1	3063
1	18
1	3063
1	3063
1	17
1	3063
1	3063
1	3063
1	3063
1	3068
1	3063
1	3063
1	3063
1	3063
1	3063
1	3063
1	3063
1	3063
1	3063
1	3063
1	3063
1	3063
1	3063
1	3063
1	3063
1	3063
1	3063
1	14
1	3063
1	21
1	3063
1	3063
1	3063
1	3063
1	3064
1	3064
1	3063
1	3063
1	3063
1	3063
1	3063
1	3063
1	14
1	3063
1	3064
1	3063
1	3063
1	3063
1	14
1	3063
1	18
1	3063
1	3063
1	3063
1	3063
1	3063
1	15
1	3063
1	3063
1	3064
1	3063
1	3063
1	3063
1	3063
1	3063
1	3063
1	3063
1	3063
1	3063
1	3063
1	3063
1	3063
1	17
1	3063
1	3063
1	3067
1	3063
1	18
1	3063
1	3063
1	3063
1	3063
1	3063
1	3063
1	3063
1	3063
1	19
1	3063
1	3063
1	3063
1	3063
1	19
1	3063
1	3063
1	3063
1	3063
1	3063
1	17
1	3063
1	3063
1	3063
1	3063
1	3063
1	3063
1	3063
1	3063
1	3063
1	3063
1	3063
1	3063
1	3063
1	3063
1	3063
1	3063
1	3063
1	16
1	3063
1	3063
1	3063
1	3063
1	3063
1	3063
1	3063
1	18
1	3063
1	3063
1	3063
1	3063
1	3063
1	3063
1	3063
1	3063
1	3063
1	3063
1	3063
1	3063
1	12
1	18
1	3063
1	10
1	3063
1	3063
1	3063
1	3063
1	3063
1	3063
1	14
1	3063
1	3063
1	3063
1	3063
1	3063
1	3063
1	3063
1	3063
1	3063
1	3063
1	3063
1	3063
1	3063
1	3063
1	3064
1	3063
1	3063
1	14
1	3063
1	3063
1	3063
1	3063
1	3063
1	3063
1	3063
1	3063
1	3063
1	3063
1	3063
1	3063
1	3063
1	3063
1	3063
1	3063
1	11
1	3063
1	3063
1	3063
1	3063
1	3063
1	3063
1	3063
1	3063
1	3063
1	3063
1	3063
1	3063
1	3063
1	3063
1	3063
1	13
1	3063
1	3063
1	20
1	3063
1	15
1	3063
1	3063
1	3063
1	11
1	3063
1	3063
1	3063
1	3063
1	3063
1	3063
1	3063
1	3064
1	3063
1	3063
1	3063
1	3063
1	3063
1	3063
1	3063
1	3063
1	3063
1	3063
1	3063
1	3063
1	3063
1	3063
1	3063
1	3063
1	3063
1	3063
1	3063
1	3063
1	3063
1	3063
1	3063
1	3063
1	3063
1	3063
1	3063
1	3063
1	3063
1	3063
1	3063
1	3063
1	3063
1	3063
1	3063
1	3063
1	3063
1	3063
1	3063
1	3063
1	3063
1	3063
1	3063
1	3063
1	3063
1	3063
1	3063
1	3063
1	3063
1	3063
1	3063
1	15
1	3063
1	3063
1	3063
1	3063
1	3063
1	3065
1	3063
1	3063
1	3063
1	3063
1	3063
1	3063
1	3063
1	3063
1	3063
1	3063
1	3063
1	3063
1	3063
1	3063
1	3063
1	13
1	3063
1	3063
1	3063
1	3063
1	3063
1	3063
1	3063
1	3063
1	3063
1	3063
1	3063
1	3063
1	3063
1	3063
1	3063
1	3063
1	3063
1	3063
1	3065
1	3063
1	10
1	3063
1	8
1	3063
1	3063
1	3063
1	3063
1	3063
1	3063
1	3063
1	3063
1	13
1	3063
1	3063
1	3063
1	3063
1	3063
1	3063
1	13
1	3063
1	3063
1	14
1	3063
1	3063
1	3063
1	3063
1	3063
1	3063
1	3063
1	16
1	3063
1	3063
1	3063
1	3063
1	3063
1	3063
1	3063
1	14
1	6124
1	3063
1	3063
1	3064
1	3063
1	3063
1	3063
1	3063
1	3063
1	3063
1	3063
1	3064
1	3063
1	3063
1	3063
1	3063
1	17
1	3063
1	3063
1	3063
1	3063
1	3063
1	3063
1	3063
1	3063
1	6
1	11
1	3063
1	3063
1	18
1	3063
1	6
1	3063
1	3063
1	3063
1	13
1	3063
1	3063
1	3065
1	3063
1	3063
1	3063
1	3063
1	3063
1	3064
1	3063
1	3063
1	3063
1	3063
1	8
1	3063
1	11
1	3063
1	3063
1	3063
1	3063
1	3063
1	3063
1	3063
1	3063
1	3063
1	3064
1	3063
1	3063
1	3063
1	3063
1	3063
1	3063
1	3063
1	3063
1	3063
1	3063
1	3063
1	3063
1	3063
1	3063
1	3065
1	3063
1	3063
1	3063
1	3063
1	3063
1	3063
1	3063
1	3063
1	3063
1	3063
1	3063
1	3063
1	3063
1	10
1	3063
1	3063
1	3063
1	3063
1	3063
1	11
1	3063
1	3063
1	3063
1	3063
1	10
1	3063
1	3063
1	3064
1	3063
1	3063
1	3063
1	3063
1	3063
1	3063
1	10
1	3063
1	3063
1	12
1	3063
1	14
1	3063
1	3063
1	3063
1	7
1	3063
1	3063
1	3063
1	3063
1	3063
1	3063
1	3063
1	3063
1	3063
1	3063
1	3063
1	3063
1	12
1	3064
1	12
1	3063
1	3063
1	3063
1	3063
1	3063
1	15
1	13
1	3063
1	13
1	3063
1	3063
1	10
1	3063
1	3063
1	3063
1	3063
1	3063
1	3063
1	3063
1	3063
1	3063
1	3063
1	15
1	3063
1	3063
1	3064
1	3063
1	3063
1	3063
1	3063
1	3063
1	3063
1	3063
1	3063
1	3063
1	3063
1	3063
1	3063
1	3063
1	3063
1	3063
1	3063
1	3063
1	3063
1	3063
1	3063
1	3063
1	3063
1	3063
1	3063
1	12
1	3063
1	8
1	3063
1	3063
1	3063
1	3063
1	3063
1	3063
1	7
1	3063
1	8
1	3063
1	3063
1	3063
1	6
1	3063
1	3063
1	3064
1	3063
1	3063
1	3063
1	3063
1	3063
1	3063
1	3063
1	3063
1	3063
1	3063
1	3063
1	3063
1	3063
1	3063
1	3063
1	3063
1	16
1	16
1	3063
1	3063
1	3063
1	3063
1	3063
1	3063
1	3063
1	3063
1	3063
1	3063
1	3063
1	3063
1	3063
1	3063
1	3063
1	12
1	3063
1	3063
1	3063
1	3063
1	3063
1	3063
1	3063
1	3064
1	3063
1	10
1	3063
1	3063
1	3063
1	3063
1	3063
1	3063
1	3063
1	13
1	3063
1	3063
1	14
1	3063
1	3064
1	4
1	3063
1	3063
1	3063
1	13
1	3063
1	3063
1	11
1	3063
1	3063
1	3063
1	3063
1	3063
1	3063
1	3063
1	3063
1	3063
1	3063
1	3063
1	3063
1	3063
1	3063
1	3063
1	3063
1	3063
1	3063
1	3063
1	3063
1	11
1	3063
1	3063
1	3063
1	3063
1	13
1	3063
1	3064
1	3063
1	3063
1	3063
1	3063
1	8
1	3063
1	3063
1	3063
1	3063
1	12
1	10
1	3063
1	3063
1	19
1	3063
1	3063
1	3063
1	3063
1	3063
1	3063
1	3063
1	3063
1	3063
1	3063
1	3063
1	3063
1	3063
1	3063
1	3063
1	3063
1	3063
1	3063
1	17
1	3063
1	3063
1	3063
1	3063
1	3063
1	3063
1	3066
1	3063
1	3063
1	3063
1	3063
1	3063
1	3063
1	3063
1	3063
1	3063
1	3063
1	3063
1	3063
1	3063
1	3063
1	3063
1	3063
1	3064
1	3063
1	3063
1	3063
1	3063
1	3063
1	3063
1	3063
1	3063
1	3063
1	7
1	3063
1	3063
1	3063
1	3063
1	3063
1	3063
1	3063
1	13
1	3063
1	3063
1	3063
1	11
1	3063
1	3064
1	3063
1	9
1	3063
1	3063
1	3063
1	3063
1	3063
1	3063
1	3063
1	3063
1	3063
1	3063
1	3063
1	21
1	3063
1	3063
1	8
1	3063
1	3063
1	3063
1	3063
1	3064
1	3063
1	3063
1	3063
1	3063
1	3063
1	3063
1	3063
1	3063
1	3063
1	3064
1	3063
1	3063
1	16
1	3069
1	3063
1	3063
1	3063
1	3063
1	3063
1	3063
1	3063
1	3063
1	3063
1	3063
1	3063
1	3063
1	13
1	3063
1	3063
1	9
1	10
1	3063
1	3063
1	3063
1	3063
1	3063
1	3063
1	3063
1	16
1	3063
1	3063
1	3063
1	3063
1	3063
1	3063
1	3063
1	3063
1	3063
1	3063
1	3063
1	3063
1	3063
1	3063
1	3063
1	3063
1	3063
1	3063
1	3063
1	3063
1	7
1	3063
1	3063
1	3063
1	3063
1	3063
1	3063
1	3063
1	3063
1	11
1	9
1	3063
1	3063
1	3063
1	3063
1	3063
1	3063
1	3063
1	3063
1	7
1	3063
1	3063
1	3063
1	3063
1	3063
1	3063
1	3063
1	3063
1	3063
1	3063
1	3063
1	3063
1	3063
1	3063
1	3063
1	3063
1	9
1	3063
1	3063
1	3063
1	3063
1	3063
1	3063
1	3063
1	7
1	3063
1	3063
1	6124
1	3063
1	3063
1	3063
1	3063
1	3063
1	3063
1	3063
1	3063
1	3063
1	3063
1	3063
1	3063
1	3063
1	3063
1	3063
1	3063
1	3063
1	3063
1	3063
1	3063
1	3063
1	3063
1	3063
1	3063
1	3063
1	3063
1	3063
1	3063
1	3063
1	3063
1	3063
1	3063
1	3063
1	3063
1	3063
1	3063
1	3063
1	3063
1	3063
1	3063
1	3063
1	3063
1	3063
1	3063
1	3063
1	6
1	3063
1	3063
1	3063
1	3063
1	12
1	3063
1	3063
1	3063
1	3063
1	3063
1	3063
1	3063
1	3063
1	3063
1	3063
1	3063
1	3063
1	3063
1	16
1	3063
1	3063
1	3063
1	3063
1	17
1	6
1	2
1	3063
1	3063
1	3063
1	3063
1	3063
1	3063
1	3063
1	3063
1	3063
1	3063
1	3063
1	3063
1	3065
1	3064
1	3063
1	3063
1	3063
1	3063
1	3063
1	3063
1	3063
1	3063
1	3063
1	3063
1	3063
1	3063
1	3063
1	3063
1	3063
1	3063
1	3063
1	3063
1	3063
1	3063
1	3063
1	3063
1	3063
1	16
1	3063
1	3063
1	3063
1	3063
1	3063
1	3063
1	3063
1	8
1	3063
1	3063
1	3063
1	3063
1	3063
1	3063
1	3065
1	3063
1	3063
1	3063
1	3063
1	3063
1	3063
1	3063
1	3063
1	11
1	3063
1	3063
1	3063
1	3063
1	3063
1	10
1	3063
1	3063
1	11
1	3063
1	3063
1	3063
1	3063
1	3063
1	3063
1	11
1	3063
1	3063
1	3063
1	3063
1	3063
1	3063
1	3063
1	7
1	3063
1	3063
1	3063
1	3063
1	3063
1	3063
1	3063
1	3063
1	3063
1	3063
1	3063
1	3063
1	3063
1	3063
1	3063
1	3063
1	5
1	3063
1	3063
1	3063
1	8
1	10
1	9
1	3063
1	3063
1	3063
1	3063
1	3063
1	3063
1	3063
1	3063
1	3063
1	3063
1	8
1	3063
1	3063
1	3063
1	3063
1	3063
1	3063
1	3063
1	3063
1	3063
1	3063
1	3063
1	16
1	3063
1	3063
1	3063
1	3063
1	3063
1	3063
1	3063
1	3063
1	3063
1	3063
1	3063
1	3064
1	3063
1	3063
1	3063
1	3063
1	3063
1	3063
1	3063
1	3063
1	3063
1	3063
1	3063
1	3063
1	3063
1	3063
1	3063
1	3063
1	3063
1	3063
1	3063
1	3063
1	3063
1	3063
1	3063
1	3063
1	3063
1	3063
1	3063
1	3063
1	3063
1	3063
1	3063
1	3063
1	3064
1	3063
1	3063
1	3063
1	3063
1	3063
1	3063
1	3063
1	3063
1	17
1	3063
1	3063
1	3063
1	3063
1	3063
1	3063
1	3063
1	3063
1	3063
1	3063
1	3063
1	3063
1	3063
1	3063
1	3063
1	3063
1	3063
1	3063
1	3063
1	3063
1	3063
1	3063
1	3063
1	3063
1	3063
1	3063
1	3063
1	3063
1	3063
1	3063
1	3063
1	3063
1	3063
1	3063
1	3063
1	3063
1	3063
1	3063
1	3063
1	3063
1	8
1	3063
1	3063
1	3063
1	3063
1	3063
1	11
1	4
1	10
1	3063
1	3063
1	4
1	3063
1	3063
1	3063
1	3063
1	3063
1	3063
1	3063
1	3063
1	3063
1	3063
1	3064
1	3063
1	3063
1	3063
1	3063
1	3063
1	3063
1	9
1	3063
1	3063
1	3063
1	9
1	3063
1	3063
1	3063
1	3063
1	3063
1	3063
1	3063
1	3063
1	3063
1	3063
1	3063
1	3063
1	3063
1	3063
1	3063
1	3063
1	3063
1	3063
1	17
1	3063
1	3063
1	3063
1	3063
1	3063
1	3063
1	3063
1	3063
1	3063
1	3063
1	3063
1	10
1	3063
1	10
1	3063
1	3063
1	3063
1	3063
1	3063
1	3063
1	3063
1	3063
1	3063
1	9
1	7
1	3063
1	3063
1	3063
1	3063
1	3063
1	3063
1	3063
1	3063
1	3063
1	3063
1	3063
1	3063
1	3063
1	3063
1	3063
1	3063
1	3063
1	3063
1	3063
1	10
1	3063
1	14
1	3063
1	3063
1	3063
1	3063
1	3063
1	3063
1	3063
1	3063
1	7
1	3063
1	3063
1	13
1	6
1	3063
1	3063
1	3063
1	3063
1	3063
1	3063
1	3063
1	8
1	3063
1	3063
1	3063
1	3063
1	6
1	3063
1	3063
1	3063
1	3063
1	10
1	3064
1	3063
1	3063
1	3064
1	3063
1	3063
1	3063
1	8
1	3063
1	3063
1	3063
1	3063
1	3063
1	3063
1	3063
1	3063
1	3063
1	3063
1	19
1	3063
1	3063
1	3063
1	7
1	3063
1	3063
1	3063
1	3063
1	3063
1	3063
1	3063
1	7
1	8
1	3063
1	3063
1	3063
1	3063
1	3063
1	3063
1	3063
1	3063
1	3063
1	3063
1	3063
1	3063
1	3063
1	3063
1	3063
1	3063
1	3063
1	3063
1	3064
1	3063
1	3063
1	3063
1	3063
1	3063
1	3063
1	3063
1	3063
1	3063
1	3063
1	3063
1	3063
1	3063
1	3063
1	3063
1	3063
1	10
1	3063
1	13
1	11
1	3063
1	3063
1	3063
1	10
1	3063
1	3063
1	3064
1	7
1	3064
1	3063
1	3064
1	3063
1	3063
1	3063
1	3063
1	19
1	3063
1	3063
1	3063
1	11
1	3063
1	3063
1	3063
1	3063
1	3063
1	3063
1	3063
1	3063
1	3063
1	3063
1	3063
1	3063
1	3063
1	3063
1	3063
1	3063
1	3063
1	3063
1	3063
1	3063
1	3063
1	3063
1	3063
1	3063
1	10
1	3063
1	3063
1	3063
1	3063
1	3063
1	7
1	3063
1	3063
1	3063
1	3063
1	3063
1	3063
1	3063
1	3063
1	3063
1	3063
1	3064
1	3063
1	3063
1	3063
1	3063
1	3063
1	3063
1	3063
1	3063
1	3063
1	3063
1	3063
1	3063
1	3063
1	3063
1	3063
1	3063
1	3063
1	3063
1	3063
1	10
1	3063
1	3063
1	3063
1	3063
1	3063
1	3063
1	3063
1	3063
1	3063
1	3063
1	3063
1	3063
1	3064
1	3063
1	3063
1	3063
1	3063
1	3063
1	3063
1	3063
1	10
1	3063
1	3063
1	3063
1	3063
1	3063
1	13
1	3063
1	3063
1	3063
1	3063
1	3063
1	3063
1	3063
1	3063
1	3063
1	3063
1	3063
1	3063
1	3063
1	3063
1	3063
1	3063
1	3063
1	3063
1	3063
1	19
1	19
1	3063
1	3063
1	3063
1	3063
1	3063
1	3063
1	3063
1	3063
1	3063
1	3063
1	3063
1	3065
1	3063
1	3063
1	3063
1	3063
1	3063
1	3063
1	3063
1	3063
1	3063
1	3063
1	3063
1	3063
1	3063
1	3063
1	3063
1	3063
1	3063
1	3063
1	3063
1	3063
1	3063
1	14
1	3063
1	3063
1	3063
1	13
1	3063
1	3063
1	16
1	3063
1	3063
1	6
1	3063
1	3063
1	3063
1	3063
1	3063
1	3063
1	3063
1	3063
1	3063
1	3063
1	3063
1	3063
1	3063
1	3063
1	16
1	3063
1	3063
1	3063
1	3063
1	3063
1	3063
1	3063
1	3063
1	3063
1	3063
1	3063
1	3063
1	3063
1	3063
1	13
1	3063
1	3063
1	3063
1	3063
1	3063
1	3063
1	3063
1	3063
1	3063
1	3063
1	3063
1	9
1	3063
1	3063
1	3063
1	3063
1	3063
1	3063
1	3063
1	3063
1	3063
1	11
1	9
1	3063
1	3063
1	10
1	3063
1	3063
1	3063
1	3063
1	3063
1	3063
1	3063
1	11
1	3063
1	3063
1	3064
1	3063
1	3063
1	3063
1	3063
1	3063
1	3063
1	3063
1	3063
1	3063
1	3063
1	3063
1	3063
1	3063
1	3063
1	3063
1	3063
1	3063
1	3063
1	9
1	3063
1	3063
1	3063
1	3063
1	3063
1	3063
1	3063
1	3063
1	6
1	3063
1	3063
1	3063
1	3063
1	3063
1	3063
1	3063
1	3063
1	9
1	3063
1	10
1	3063
1	3064
1	8
1	3063
1	3063
1	3063
1	3063
1	3063
1	3063
1	3063
1	3063
1	3063
1	3063
1	3063
1	3063
1	3063
1	3063
1	3063
1	3063
1	3063
1	3063
1	3063
1	3063
1	3063
1	3063
1	3063
1	3063
1	3063
1	3063
1	3063
1	3063
1	3063
1	3063
1	3063
1	3063
1	3063
1	3063
1	3063
1	3063
1	3063
1	8
1	7
1	3063
1	3063
1	3063
1	3063
1	3063
1	3063
1	3063
1	8
1	3063
1	3063
1	3063
1	3063
1	3063
1	3063
1	3063
1	3063
1	10
1	3063
1	10
1	3063
1	3063
1	8
1	3063
1	3063
1	3063
1	3063
1	4
1	3063
1	3063
1	3064
1	3063
1	3063
1	9
1	3063
1	3063
1	3063
1	3063
1	3063
1	9
1	3063
1	3063
1	3063
1	3063
1	3063
1	3063
1	3063
1	3063
1	3063
1	3063
1	8
1	3063
1	3063
1	3063
1	3063
1	3063
1	3063
1	3063
1	3063
1	9
1	3063
1	3063
1	3063
1	5
1	7
1	3063
1	3063
1	3063
1	3063
1	3063
1	3063
1	7
1	3063
1	3063
1	3063
1	3063
1	3063
1	3063
1	3063
1	3063
1	3063
1	3063
1	3065
1	3063
1	3063
1	3063
1	3063
1	3063
1	3063
1	3063
1	3063
1	3063
1	3063
1	9
1	3064
1	3063
1	3063
1	3064
1	10
1	19
1	3063
1	3063
1	3063
1	3063
1	3063
1	12
1	3063
1	3063
1	3063
1	3063
1	3063
1	3063
1	3063
1	3063
1	3063
1	3063
1	3063
1	3063
1	3063
1	3063
1	3063
1	3063
1	3063
1	3063
1	3063
1	3063
1	3063
1	3063
1	3063
1	7
1	3063
1	3063
1	3063
1	3063
1	3063
1	3063
1	3063
1	3063
1	3063
1	3063
1	3063
1	16
1	3063
1	3063
1	3063
1	15
1	3063
1	3063
1	3063
1	3063
1	8
1	3063
1	3063
1	7
1	3063
1	3063
1	3063
1	3063
1	3063
1	3063
1	3063
1	3063
1	9
1	3063
1	3063
1	3063
1	3063
1	3063
1	16
1	3063
1	3063
1	3063
1	3063
1	3063
1	3063
1	3063
1	3063
1	3063
1	3063
1	3063
1	3063
1	3063
1	3063
1	3063
1	3063
1	3063
1	3063
1	3063
1	3063
1	3063
1	3063
1	3063
1	3063
1	3063
1	3063
1	3063
1	3063
1	19
1	3063
1	3063
1	3063
1	11
1	3063
1	3063
1	3064
1	6
1	3063
1	3063
1	3063
1	3063
1	15
1	3063
1	3063
1	3063
1	3063
1	3063
1	3063
1	3063
1	3063
1	3063
1	3063
1	3063
1	3063
1	3063
1	3063
1	3063
1	3063
1	3063
1	3063
1	3063
1	3063
1	7
1	3063
1	3063
1	3063
1	3063
1	3063
1	3063
1	3063
1	3064
1	3063
1	3063
1	3063
1	3063
1	3063
1	3063
1	3063
1	3063
1	3063
1	3063
1	3063
1	3063
1	3063
1	3063
1	3063
1	3063
1	3063
1	3063
1	7
1	3063
1	3063
1	3063
1	6
1	3063
1	3063
1	3063
1	3063
1	3063
1	3063
1	3063
1	3063
1	9
1	4
1	3063
1	3063
1	3063
1	3063
1	3063
1	3063
1	3063
1	3063
1	3063
1	10
1	3063
1	3063
1	8
1	3063
1	3063
1	3063
1	3063
1	19
1	3063
1	3063
1	3063
1	3063
1	3063
1	3063
1	3063
1	3063
1	3063
1	3063
1	3063
1	3063
1	3063
1	3063
1	3063
1	3063
1	3063
1	3063
1	3063
1	3063
1	5
1	3063
1	3063
1	3063
1	3063
1	3063
1	3063
1	3063
1	3063
1	3063
1	3063
1	3063
1	16
1	3063
1	3063
1	3063
1	3063
1	3063
1	3063
1	3063
1	3063
1	8
1	3063
1	3063
1	3063
1	3063
1	9
1	3063
1	3063
1	3063
1	3063
1	3063
1	3064
1	3063
1	3063
1	3063
1	3063
1	3063
1	3063
1	3063
1	3063
1	3063
1	3063
1	3063
1	5
1	3063
1	3063
1	3063
1	3063
1	10
1	3063
1	3063
1	3063
1	3063
1	3063
1	9
1	3063
1	3063
1	3063
1	3063
1	3063
1	3063
1	3063
1	3063
1	3063
1	3063
1	3063
1	10
1	5
1	3063
1	3063
1	3063
1	3063
1	3063
1	3063
1	3063
1	3063
1	3063
1	3063
1	13
1	3063
1	3063
1	3063
1	3063
1	3063
1	3063
1	3063
1	3063
1	3063
1	15
1	3063
1	3063
1	3063
1	3063
1	3063
1	3063
1	3063
1	8
1	3063
1	5
1	3063
1	3063
1	3063
1	3063
1	3063
1	3063
1	5
1	3063
1	3063
1	3063
1	3063
1	3063
1	3063
1	5
1	3063
1	3063
1	3063
1	3063
1	7
1	3063
1	3063
1	3063
1	5
1	3063
1	3063
1	3063
1	15
1	3063
1	3063
1	3063
1	3063
1	3063
1	3063
1	3064
1	3063
1	3063
1	3063
1	3063
1	3063
1	7
1	3063
1	3063
1	3063
1	3063
1	3063
1	3063
1	3063
1	3063
1	3063
1	3063
1	3063
1	7
1	3063
1	3065
1	3063
1	3063
1	3063
1	3063
1	3063
1	3063
1	3063
1	3063
1	3063
1	3063
1	3063
1	3063
1	3063
1	3063
1	3063
1	3063
1	4
1	3063
1	3063
1	3063
1	3063
1	3063
1	3063
1	3063
1	3063
1	3063
1	3063
1	3063
1	3063
1	3063
1	3063
1	6
1	3063
1	3063
1	3063
1	3063
1	3063
1	3063
1	3063
1	3063
1	3063
1	3063
1	3063
1	3063
1	3063
1	3063
1	3063
1	3063
1	3063
1	3063
1	3063
1	10
1	3063
1	3063
1	3063
1	3063
1	8
1	3063
1	3063
1	3063
1	3063
1	3063
1	3063
1	3063
1	3063
1	3063
1	3063
1	3063
1	3063
1	3063
1	8
1	3063
1	3063
1	3063
1	3064
1	3063
1	3063
1	3063
1	3063
1	3063
1	8
1	3063
1	3063
1	3063
1	3063
1	3063
1	3063
1	3063
1	11
1	3063
1	3063
1	9
1	3063
1	3063
1	3063
1	3063
1	3063
1	3063
1	3063
1	11
1	10
1	3063
1	8
1	3063
1	3063
1	3063
1	3063
1	3063
1	3063
1	3063
1	3063
1	3063
1	3063
1	3063
1	3063
1	3063
1	3063
1	3063
1	3063
1	3063
1	3063
1	3063
1	9
1	4
1	3063
1	3063
1	3063
1	3063
1	3063
1	3063
1	3063
1	3063
1	3063
1	3063
1	3063
1	3063
1	3063
1	3063
1	3063
1	3063
1	3063
1	3063
1	3063
1	3063
1	3063
1	3063
1	3063
1	3063
1	3063
1	3063
1	3063
1	8
1	3063
1	3063
1	3063
1	8
1	3063
1	3063
1	3063
1	3063
1	3063
1	3063
1	3063
1	3063
1	5
1	3063
1	3063
1	3063
1	3063
1	3063
1	3063
1	15
1	3063
1	5
1	3063
1	3063
1	3063
1	3063
1	3063
1	19
1	3063
1	3063
1	3063
1	3063
1	3063
1	3063
1	3063
1	3063
1	3063
1	3063
1	3063
1	3063
1	3063
1	3063
1	3063
1	3063
1	3063
1	3063
1	3063
1	3063
1	3063
1	3063
1	3063
1	3063
1	3063
1	3063
1	3063
1	3063
1	3063
1	3063
1	22
1	3063
1	3063
1	3063
1	3063
1	4
1	3063
1	3063
1	3063
1	3063
1	3063
1	5
1	8
1	3063
1	3063
1	3063
1	3063
1	3063
1	3063
1	3063
1	3063
1	3063
1	3063
1	3063
1	3063
1	10
1	3063
1	3063
1	3063
1	3063
1	3063
1	3063
1	3063
1	5
1	3063
1	3063
1	13
1	3063
1	3063
1	3063
1	3063
1	3063
1	3063
1	3063
1	3063
1	3063
1	3063
1	16
1	3063
1	3063
1	3063
1	3063
1	3063
1	3063
1	3063
1	3063
1	3063
1	3063
1	3063
1	3063
1	3063
1	3063
1	3063
1	3063
1	3063
1	3063
1	13
1	3063
1	3063
1	3063
1	3063
1	3063
1	16
1	3063
1	3063
1	3063
1	3063
1	3063
1	3063
1	3063
1	3063
1	7
1	3063
1	3063
1	3063
1	3063
1	3063
1	3063
1	3063
1	12
1	3063
1	3063
1	3063
1	3063
1	3063
1	3063
1	3063
1	3063
1	3063
1	3063
1	3063
1	3063
1	10
1	3063
1	10
1	3063
1	3063
1	3063
1	3063
1	3063
1	3063
1	3063
1	3063
1	9
1	3063
1	16
1	3063
1	7
1	3063
1	3063
1	3063
1	3063
1	3063
1	3063
1	3063
1	3063
1	3063
1	3063
1	3063
1	3063
1	3063
1	3063
1	3063
1	3063
1	3063
1	3063
1	3063
1	3063
1	3063
1	3063
1	3063
1	3063
1	3063
1	3063
1	3063
1	3063
1	3063
1	3063
1	3063
1	3063
1	3063
1	3063
1	3063
1	3063
1	3063
1	3063
1	7
1	3063
1	3063
1	3063
1	3063
1	3063
1	3063
1	16
1	3063
1	3063
1	3063
1	4
1	3063
1	3063
1	3063
1	3063
1	3063
1	3063
1	3063
1	3063
1	3063
1	7
1	3063
1	3063
1	3063
1	9
1	3063
1	3063
1	3063
1	3063
1	6
1	3063
1	3063
1	3063
1	3063
1	3063
1	3063
1	5
1	9
1	3063
1	3063
1	3063
1	3063
1	3063
1	3063
1	3063
1	3063
1	3063
1	3063
1	3063
1	3063
1	3063
1	3063
1	3063
1	3063
1	10
1	3063
1	3063
1	3063
1	3063
1	3063
1	3063
1	4
1	14
1	3063
1	9
1	3063
1	3063
1	3063
1	3063
1	3063
1	3063
1	3063
1	3063
1	3063
1	3064
1	3063
1	3063
1	3063
1	3063
1	3063
1	3063
1	3063
1	3063
1	3063
1	3063
1	13
1	3063
1	3063
1	3063
1	3063
1	3063
1	3063
1	3063
1	5
1	3063
1	3063
1	3063
1	3063
1	3063
1	3063
1	3063
1	3063
1	3063
1	3063
1	3063
1	3063
1	3063
1	3063
1	11
1	3063
1	3063
1	3063
1	7
1	3063
1	3063
1	3063
1	3063
1	3063
1	3063
1	3063
1	3063
1	3063
1	3063
1	3063
1	3063
1	3063
1	3063
1	3063
1	3063
1	3063
1	3063
1	3063
1	3063
1	3063
1	3063
1	3063
1	3063
1	3063
1	3063
1	3063
1	3063
1	3063
1	3063
1	3063
1	3063
1	3063
1	16
1	19
1	3063
1	10
1	3063
1	3063
1	3063
1	3063
1	3063
1	3063
1	3063
1	3063
1	3063
1	3063
1	9
1	3063
1	3063
1	3063
1	10
1	3063
1	3063
1	3063
1	3063
1	16
1	3063
1	13
1	3063
1	3063
1	3063
1	3063
1	16
1	6
1	3063
1	3063
1	3063
1	3063
1	3063
1	3063
1	3063
1	3063
1	3063
1	3063
1	3063
1	6
1	3063
1	3063
1	3063
1	3063
1	3063
1	3063
1	3063
1	3063
1	3063
1	3063
1	3063
1	3063
1	3063
1	3063
1	3063
1	3064
1	16
1	3063
1	3063
1	3063
1	3063
1	3063
1	3063
1	3063
1	3063
1	3063
1	3063
1	3063
1	3063
1	3063
1	3063
1	3063
1	3063
1	3063
1	6
1	3063
1	3063
1	3063
1	3063
1	3063
1	3063
1	3063
1	3063
1	3063
1	3063
1	13
1	3063
1	3063
1	3063
1	3063
1	3063
1	3063
1	3063
1	3063
1	3063
1	13
1	3063
1	3063
1	3063
1	3063
1	3063
1	6124
1	7
1	3063
1	3063
1	13
1	6
1	3063
1	3063
1	3063
1	3063
1	3063
1	3063
1	3063
1	3063
1	8
1	3063
1	3063
1	3063
1	3063
1	5
1	3063
1	3063
1	3063
1	3063
1	3063
1	3063
1	3063
1	3063
1	3063
1	3063
1	3063
1	7
1	3063
1	3063
1	3063
1	3063
1	3063
1	3063
1	3063
1	3063
1	3063
1	3063
1	3063
1	3063
1	3063
1	3063
1	3063
1	3063
1	3063
1	3063
1	3063
1	3063
1	3063
1	3063
1	3063
1	3063
1	3063
1	3063
1	3063
1	3063
1	3063
1	8
1	3063
1	3063
1	3063
1	3063
1	3063
1	3063
1	3063
1	3063
1	13
1	3063
1	8
1	3065
1	3064
1	3063
1	11
1	3063
1	3063
1	3063
1	3063
1	3063
1	3063
1	3063
1	3063
1	3063
1	3063
1	3063
1	3063
1	3063
1	3063
1	3063
1	3063
1	3063
1	3063
1	8
1	3063
1	3063
1	3063
1	3063
1	3063
1	3063
1	3063
1	6
1	3063
1	3063
1	3063
1	11
1	3063
1	3063
1	3063
1	3063
1	3063
1	3063
1	19
1	3063
1	3063
1	3063
1	3063
1	3063
1	3063
1	3063
1	3063
1	3063
1	3063
1	6
1	3063
1	3063
1	3063
1	3063
1	6
1	4
1	3063
1	3063
1	7
1	3063
1	3063
1	3063
1	3063
1	3063
1	3063
1	3063
1	3063
1	3063
1	3063
1	3063
1	3063
1	3063
1	3063
1	3063
1	3063
1	3063
1	6
1	3063
1	3063
1	5
1	3063
1	3063
1	3063
1	3063
1	3063
1	3063
1	3063
1	3063
1	3063
1	3063
1	3063
1	3063
1	3063
1	3063
1	3063
1	3063
1	3063
1	3063
1	7
1	3063
1	3063
1	3063
1	3063
1	3063
1	6
1	3063
1	3063
1	3063
1	17
1	3063
1	3063
1	3063
1	3063
1	3063
1	3063
1	3063
1	3063
1	3063
1	4
1	3063
1	3063
1	3063
1	3063
1	3063
1	3063
1	8
1	3063
1	3063
1	3063
1	3063
1	3063
1	3063
1	3063
1	3063
1	3063
1	15
1	3063
1	3063
1	3063
1	3063
1	3063
1	3063
1	9
1	3063
1	3063
1	3063
1	3063
1	10
1	3063
1	3063
1	3063
1	3063
1	3063
1	4
1	3063
1	3063
1	3063
1	3063
1	3063
1	6
1	3063
1	3063
1	3063
1	3063
1	3064
1	3063
1	3063
1	3063
1	3063
1	3063
1	3063
1	3063
1	3063
1	3063
1	3063
1	3063
1	13
1	3063
1	9
1	3063
1	3063
1	4
1	3063
1	3063
1	3063
1	10
1	3063
1	3063
1	3063
1	3063
1	3064
1	3063
1	3063
1	6
1	3063
1	16
1	3063
1	3063
1	3063
1	3063
1	3063
1	3063
1	3063
1	3063
1	3063
1	3063
1	3063
1	3063
1	3063
1	3063
1	3063
1	3063
1	3063
1	3063
1	3063
1	3063
1	3063
1	3063
1	3063
1	3063
1	3063
1	3063
1	3063
1	3063
1	3063
1	3063
1	3063
1	7
1	3063
1	3063
1	3063
1	3063
1	3063
1	3063
1	3063
1	3063
1	15
1	3063
1	15
1	3063
1	3063
1	3063
1	3063
1	3063
1	3063
1	3063
1	3063
1	3063
1	3063
1	3063
1	3063
1	3063
1	7
1	3063
1	3063
1	3063
1	3063
1	3063
1	3063
1	16
1	3063
1	3063
1	7
1	3063
1	3063
1	3063
1	3063
1	3063
1	3063
1	3063
1	3063
1	3063
1	3063
1	3063
1	3063
1	3063
1	3063
1	3063
1	3063
1	10
1	3063
1	3063
1	3063
1	6
1	3063
1	3063
1	3063
1	3063
1	3063
1	3063
1	3063
1	3063
1	3063
1	3063
1	3063
1	3063
1	3063
1	2
1	3063
1	3063
1	3063
1	3063
1	3063
1	3063
1	13
1	3063
1	8
1	3063
1	3063
1	7
1	3063
1	3063
1	3063
1	3063
1	3063
1	3063
1	3063
1	3063
1	3063
1	3063
1	3063
1	3063
1	3063
1	10
1	3063
1	3063
1	2
1	3063
1	3063
1	3063
1	3063
1	3063
1	3063
1	3063
1	3063
1	3063
1	3063
1	3063
1	3063
1	3063
1	3063
1	3063
1	3063
1	3063
1	3063
1	3063
1	3063
1	3063
1	3063
1	10
1	3063
1	3063
1	3063
1	3063
1	3063
1	3063
1	3063
1	3063
1	3063
1	3063
1	3063
1	3063
1	3063
1	3063
1	3063
1	3063
1	3063
1	3063
1	3063
1	3063
1	10
1	3063
1	3063
1	3063
1	3063
1	3063
1	3063
1	3063
1	3063
1	3063
1	6
1	3063
1	3063
1	11
1	3063
1	3063
1	3063
1	3063
1	3063
1	3063
1	3063
1	3063
1	3063
1	3063
1	13
1	3063
1	3063
1	3063
1	3063
1	3063
1	3063
1	3063
1	8
1	3063
1	3063
1	3063
1	3063
1	3063
1	3063
1	3063
1	3063
1	3063
1	3063
1	3063
1	3063
1	3063
1	3064
1	3063
1	3063
1	3063
1	3063
1	3063
1	5
1	8
1	10
1	3063
1	3063
1	3063
1	3063
1	3063
2	3
2	8
2	3
2	8
2	3
2	3
2	3
2	3
2	7
2	14
2	3
2	6
2	10
2	6
2	3
2	7
2	7
2	5
2	3
2	3
2	3
2	3
2	6
2	3
2	8
2	3
2	5
2	4
2	8
2	3
2	7
2	11
2	3
2	3
2	5
2	11
2	3
2	5
2	3
2	4
2	9
2	3064
2	6
2	3
2	11
2	5
2	9
2	14
2	5
2	3064
2	3
2	6
2	7
2	4
2	5
2	3064
2	5
2	3
2	4
2	8
2	10
2	12
2	3
2	3
2	3
2	7
2	3
2	3
2	10
2	7
2	11
2	3064
2	3
2	10
2	3
2	7
2	3
2	10
2	3
2	3
2	5
2	11
2	3
2	3064
2	3
2	3
2	9
2	4
2	6
2	6
2	3064
2	7
2	7
2	3
2	3
2	5
2	7
2	3064
2	3
2	3
2	4
2	6
2	4
2	6
2	4
2	3
2	7
2	6
2	4
2	4
2	7
2	8
2	11
2	8
2	3
2	3
2	3
2	3
2	7
2	7
2	5
2	4
2	8
2	14
2	3
2	8
2	3
2	5
2	3
2	11
2	4
2	3
2	3
2	3
2	17
2	4
2	3
2	8
2	6
2	3
2	3
2	5
2	3
2	10
2	9
2	11
2	3
2	3
2	12
2	5
2	4
2	3
2	4
2	5
2	4
2	3
2	11
2	3
2	4
2	3
2	3
2	6
2	3
2	7
2	3
2	3
2	5
2	4
2	15
2	4
2	4
2	7
2	4
2	5
2	4
2	3
2	3
2	3
2	3
2	3
2	4
2	3
2	7
3	8
3	4
3	4
3	4
3	5
3	5
3	4
3	4
3	4
3	6
3	4
3	5
3	4
3	4
3	5
3	4
3	9
3	5
3	4
3	5
3	4
3	4
3	4
3	5
3	5
3	4
3	4
3	4
3	5
3	5
3	4
3	10
3	4
3	4
3	4
3	4
3	4
3	4
3	5
3	4
3	4
3	4
3	4
3	4
3	4
3	4
3	7
3	5
3	5
3	4
3	5
3	4
3	4
3	4
3	4
3	4
3	4
3	5
4	6
4	5
4	5
4	5
4	5
4	5
4	6
4	5
4	5
4	5
4	5
4	10
4	7
4	5
4	5
4	5
4	5
4	6
4	5
4	5
4	5
4	5
4	6
4	6
4	5
4	7
4	5
4	5
4	5
5	6
5	6
5	6
5	6
5	6
5	6
5	6
5	6
5	6
5	6
5	6
5	6
5	6
5	6
5	6
5	6
5	6
5	6
5	6
6	7
6	7
6	7
6	7
6	7
6	7
6	7
6	7
6	7
6	7
6	7
6	7
6	7
6	7
7	8
7	8
7	8
7	8
7	8
7	8
7	8
7	8
7	8
7	8
7	8
8	9
8	9
8	9
8	9
8	9
8	9
8	9
8	9
9	10
9	10
9	10
9	10
9	10
9	10
10	11
10	11
12	13
12	13
12	13
12	13
12	13
14	15
15	16
15	16
15	16
18	19
3062	3063
