1	6124
1	2571
1	2571
1	2571
1	2571
1	2571
1	2571
1	2571
1	2572
1	2571
1	2571
1	2571
1	2571
1	2571
1	2571
1	2571
1	2571
1	146
1	2571
1	2571
1	2571
1	145
1	2571
1	17
1	2571
1	2571
1	15
1	149
1	2571
1	2571
1	2571
1	2571
1	2571
1	2571
1	2571
1	2571
1	2571
1	2571
1	2571
1	2571
1	2571
1	13
1	14
1	2571
1	2571
1	2571
1	141
1	14
1	2571
1	2571
1	2571
1	2571
1	2571
1	2571
1	2571
1	145
1	2571
1	2571
1	2571
1	2571
1	2571
1	2571
1	2571
1	2571
1	2571
1	2571
1	2571
1	2571
1	2571
1	2571
1	2571
1	2571
1	2571
1	2571
1	2571
1	2571
1	2571
1	2571
1	2571
1	13
1	2571
1	13
1	2571
1	2571
1	2571
1	16
1	2571
1	14
1	16
1	140
1	14
1	2571
1	2571
1	2571
1	2571
1	2571
1	16
1	2571
1	2571
1	2571
1	2571
1	2571
1	2571
1	2571
1	2571
1	2571
1	2571
1	2571
1	2571
1	13
1	2571
1	2571
1	2579
1	2571
1	140
1	2571
1	2571
1	145
1	2571
1	2571
1	2571
1	2571
1	2571
1	11
1	16
1	2571
1	26
1	12
1	2571
1	2571
1	13
1	2571
1	2571
1	18
1	2571
1	2571
1	2571
1	17
1	22
1	2571
1	2571
1	2571
1	2571
1	2571
1	140
1	2571
1	2571
1	2571
1	2571
1	2571
1	2571
1	2571
1	2571
1	2571
1	2571
1	2571
1	2571
1	2571
1	2571
1	18
1	17
1	2571
1	2571
1	2571
1	2571
1	2571
1	13
1	2571
1	22
1	2571
1	8
1	2571
1	2571
1	149
1	2571
1	2571
1	2571
1	140
1	145
1	2571
1	13
1	142
1	2571
1	25
1	2571
1	2571
1	2571
1	2571
1	2571
1	2571
1	2571
1	2571
1	2571
1	2571
1	2571
1	2571
1	140
1	145
1	2571
1	2571
1	9
1	2571
1	2571
1	2571
1	11
1	15
1	145
1	2571
1	2571
1	2571
1	2571
1	2571
1	25
1	2571
1	17
1	2571
1	12
1	2571
1	2571
1	2571
1	2571
1	2571
1	145
1	2571
1	140
1	2571
1	2571
1	2571
1	2571
1	2571
1	15
1	2571
1	2571
1	2571
1	2571
1	2571
1	2571
1	2571
1	2571
1	2571
1	2571
1	2571
1	2571
1	2571
1	2571
1	2571
1	2571
1	2571
1	2571
1	15
1	2571
1	2574
1	144
1	2571
1	2571
1	2571
1	2571
1	2571
1	2571
1	2571
1	2571
1	2572
1	2571
1	2571
1	2571
1	2571
1	2571
1	2571
1	140
1	2571
1	2571
1	2571
1	2571
1	2571
1	2571
1	2571
1	8
1	2571
1	2571
1	140
1	2571
1	17
1	2571
1	2571
1	140
1	145
1	12
1	2571
1	2571
1	2571
1	2571
1	13
1	2572
1	2571
1	2571
1	2571
1	2571
1	2571
1	2571
1	13
1	2571
1	2571
1	2571
1	2571
1	2571
1	2571
1	2571
1	2571
1	2571
1	2571
1	17
1	140
1	10
1	2571
1	2571
1	2571
1	2571
1	2571
1	2571
1	2571
1	2571
1	2571
1	2571
1	2571
1	2571
1	2571
1	2571
1	2571
1	145
1	10
1	2571
1	11
1	2571
1	2571
1	2571
1	2571
1	2571
1	2571
1	2571
1	2571
1	2571
1	2571
1	147
1	2571
1	16
1	2571
1	2571
1	12
1	2571
1	2571
1	2571
1	2571
1	2571
1	2571
1	2571
1	7
1	2571
1	2571
1	2571
1	2571
1	2571
1	2571
1	11
1	2571
1	2571
1	2571
1	2571
1	2571
1	2571
1	2571
1	12
1	2571
1	7
1	2571
1	2571
1	14
1	140
1	2572
1	2571
1	2571
1	2571
1	140
1	2571
1	2571
1	2573
1	2571
1	2571
1	2571
1	13
1	2571
1	2571
1	2571
1	2571
1	2571
1	20
1	2571
1	12
1	2571
1	27
1	2571
1	2571
1	2571
1	2571
1	2571
1	2571
1	2571
1	2571
1	2571
1	2571
1	2571
1	140
1	2571
1	2571
1	2571
1	11
1	13
1	2571
1	14
1	14
1	2571
1	2571
1	2573
1	2571
1	2571
1	2571
1	2571
1	2571
1	2571
1	2571
1	140
1	2571
1	2571
1	2571
1	2571
1	2571
1	140
1	2572
1	2571
1	2571
1	20
1	140
1	2571
1	13
1	140
1	2571
1	11
1	10
1	2571
1	2571
1	2571
1	140
1	2571
1	2571
1	2571
1	145
1	2571
1	2571
1	2571
1	2571
1	13
1	25
1	2571
1	2571
1	2571
1	2571
1	16
1	2571
1	2571
1	2571
1	2571
1	2571
1	2571
1	2571
1	2571
1	145
1	2571
1	2571
1	2571
1	2571
1	2571
1	2571
1	2571
1	2571
1	2571
1	2571
1	140
1	2571
1	2571
1	2571
1	2571
1	2571
1	23
1	2571
1	16
1	16
1	16
1	2571
1	2571
1	2571
1	10
1	140
1	2571
1	2571
1	25
1	9
1	2571
1	2571
1	2571
1	2571
1	2571
1	2571
1	2571
1	2571
1	2571
1	140
1	2571
1	2571
1	2571
1	2571
1	145
1	2571
1	2571
1	2571
1	12
1	10
1	20
1	2571
1	2571
1	2571
1	2571
1	2571
1	2571
1	2571
1	2571
1	2571
1	2571
1	2571
1	17
1	2571
1	2571
1	2571
1	2571
1	2571
1	2571
1	2571
1	2571
1	2571
1	13
1	2571
1	2571
1	2571
1	2571
1	2571
1	2571
1	2571
1	12
1	2571
1	2571
1	11
1	2571
1	14
1	2571
1	2571
1	2571
1	2571
1	2571
1	2571
1	2571
1	10
1	2571
1	2571
1	2571
1	10
1	9
1	15
1	5
1	2571
1	2571
1	2571
1	2571
1	2571
1	2571
1	2571
1	16
1	2571
1	2571
1	2571
1	2571
1	2571
1	2571
1	2571
1	2571
1	2571
1	4
1	140
1	2571
1	2571
1	2571
1	2571
1	2571
1	2571
1	2571
1	20
1	2571
1	2571
1	2571
1	2571
1	2571
1	2571
1	2571
1	2571
1	2571
1	2571
1	2571
1	2571
1	2571
1	2571
1	2571
1	2571
1	2571
1	2571
1	2571
1	6
1	2571
1	2571
1	140
1	2571
1	2571
1	2571
1	2571
1	2571
1	2571
1	16
1	2571
1	2571
1	2571
1	2571
1	2571
1	2571
1	20
1	2571
1	2571
1	2571
1	2571
1	2571
1	2571
1	2571
1	2571
1	2571
1	14
1	12
1	2571
1	2571
1	2571
1	2571
1	2571
1	2571
1	2571
1	2571
1	2571
1	2571
1	10
1	2571
1	12
1	2571
1	2571
1	2571
1	2571
1	12
1	2571
1	2571
1	2571
1	18
1	2571
1	2571
1	15
1	2571
1	2571
1	11
1	2571
1	6
1	2571
1	2571
1	2571
1	2571
1	2571
1	2571
1	2571
1	2571
1	2571
1	2571
1	2571
1	2571
1	145
1	2571
1	2571
1	2571
1	2571
1	2571
1	2571
1	2571
1	2571
1	2571
1	2571
1	2571
1	2571
1	10
1	2571
1	2571
1	9
1	2571
1	2571
1	2571
1	12
1	4
1	2571
1	2571
1	2571
1	2571
1	2571
1	14
1	2571
1	140
1	2571
1	2571
1	2573
1	2571
1	2571
1	16
1	2571
1	2571
1	2571
1	2571
1	2571
1	2571
1	2571
1	2571
1	2571
1	2571
1	2571
1	2571
1	2571
1	2571
1	2571
1	2571
1	145
1	2571
1	2571
1	2571
1	2571
1	10
1	21
1	2571
1	2571
1	2571
1	2571
1	2571
1	2571
1	2571
1	2571
1	2571
1	2571
1	2571
1	13
1	2571
1	2571
1	2571
1	2571
1	2571
1	2571
1	2571
1	2571
1	2571
1	14
1	2571
1	145
1	2571
1	2571
1	2571
1	145
1	2571
1	2571
1	2571
1	2571
1	11
1	2571
1	2571
1	25
1	11
1	11
1	11
1	9
1	2571
1	145
1	2571
1	4
1	2571
1	2571
1	2571
1	2571
1	2571
1	2571
1	2571
1	2571
1	2571
1	2571
1	2571
1	2571
1	2571
1	2571
1	2571
1	2571
1	2571
1	16
1	2571
1	2574
1	2571
1	2571
1	9
1	2571
1	2571
1	2571
1	2571
1	2571
1	2571
1	2571
1	2571
1	2571
1	2571
1	2571
1	2571
1	2571
1	2571
1	2571
1	2571
1	2571
1	2571
1	2571
1	2571
1	12
1	2571
1	2571
1	2571
1	2571
1	2571
1	2571
1	140
1	2571
1	2571
1	2571
1	2571
1	2571
1	2571
1	2571
1	2571
1	142
1	2571
1	2571
1	2571
1	2571
1	2571
1	2571
1	2571
1	2571
1	2571
1	2571
1	2571
1	2571
1	16
1	2571
1	2572
1	2571
1	145
1	2571
1	2571
1	2571
1	2571
1	2571
1	2571
1	2571
1	2571
1	2571
1	8
1	2571
1	2571
1	2571
1	2571
1	2571
1	2571
1	2571
1	2571
1	2571
1	2571
1	2571
1	2571
1	2571
1	2571
1	2571
1	2571
1	9
1	2571
1	2571
1	2571
1	145
1	2571
1	2571
1	2571
1	2571
1	2571
1	145
1	2571
1	2571
1	2571
1	11
1	2571
1	2571
1	2571
1	2571
1	2571
1	2571
1	2571
1	145
1	2571
1	2571
1	2571
1	2571
1	2571
1	2571
1	2571
1	2571
1	2571
1	2571
1	2571
1	2571
1	15
1	2571
1	2571
1	2571
1	2571
1	140
1	2571
1	2571
1	2571
1	2571
1	2571
1	13
1	2571
1	2571
1	2571
1	2571
1	2571
1	16
1	2571
1	25
1	2571
1	22
1	2571
1	2571
1	2571
1	2571
1	2571
1	2571
1	2571
1	2571
1	2571
1	2571
1	2571
1	2571
1	2571
1	2571
1	2571
1	2571
1	2571
1	2571
1	2571
1	146
1	9
1	2571
1	2571
1	2571
1	2571
1	2571
1	2571
1	11
1	2571
1	2571
1	2571
1	2571
1	2571
1	2571
1	2571
1	2571
1	2571
1	2571
1	2571
1	2571
1	2571
1	15
1	2571
1	142
1	2571
1	2571
1	2571
1	2571
1	145
1	2571
1	2571
1	2571
1	2571
1	2571
1	2571
1	2571
1	2571
1	2571
1	2571
1	2571
1	2571
1	2571
1	2571
1	15
1	9
1	2571
1	2571
1	2571
1	140
1	2571
1	2571
1	12
1	2571
1	2571
1	2571
1	2571
1	16
1	140
1	2571
1	2571
1	2571
1	2571
1	2571
1	6
1	2571
1	2571
1	2571
1	2571
1	2571
1	2571
1	14
1	2571
1	2571
1	4
1	2571
1	140
1	2571
1	2571
1	2571
1	145
1	140
1	2571
1	2571
1	2571
1	8
1	8
1	2571
1	140
1	9
1	2571
1	2571
1	2571
1	2572
1	2571
1	16
1	2571
1	2571
1	2571
1	2571
1	21
1	2573
1	2571
1	2571
1	2571
1	2571
1	2571
1	2571
1	145
1	2571
1	140
1	2571
1	2571
1	2571
1	2571
1	2571
1	15
1	2571
1	2571
1	2571
1	2571
1	2571
1	2571
1	2571
1	2571
1	2571
1	2571
1	140
1	2571
1	2571
1	2571
1	2571
1	2571
1	2571
1	2571
1	2571
1	2571
1	2571
1	2571
1	2571
1	2571
1	2571
1	20
1	2571
1	2571
1	2571
1	2571
1	2571
1	2571
1	2571
1	2571
1	2571
1	2571
1	13
1	2571
1	2571
1	2571
1	2571
1	2571
1	22
1	8
1	140
1	2571
1	2572
1	2571
1	2571
1	2571
1	2571
1	2571
1	140
1	2571
1	2571
1	2571
1	2571
1	2571
1	2571
1	2571
1	2571
1	2571
1	2571
1	140
1	2571
1	2571
1	9
1	2571
1	10
1	13
1	2571
1	2571
1	2571
1	2571
1	12
1	2571
1	2571
1	2571
1	2571
1	25
1	2571
1	2571
1	2571
1	6
1	2571
1	145
1	2571
1	2571
1	7
1	2571
1	2571
1	11
1	2571
1	2571
1	2571
1	2571
1	2571
1	2571
1	10
1	2571
1	2571
1	2571
1	2571
1	2571
1	2571
1	2571
1	2571
1	145
1	2571
1	2571
1	10
1	2571
1	2571
1	5
1	18
1	2571
1	2571
1	2571
1	2571
1	2571
1	145
1	5
1	2571
1	2571
1	6
1	2571
1	2571
1	11
1	2571
1	2571
1	8
1	2571
1	6124
1	10
1	2571
1	2571
1	2571
1	2571
1	18
1	2571
1	2571
1	2571
1	2571
1	2571
1	16
1	2571
1	2571
1	2571
1	2571
1	2571
1	2571
1	2571
1	2571
1	2571
1	2571
1	2571
1	2571
1	2571
1	9
1	17
1	12
1	2571
1	2571
1	2571
1	2571
1	9
1	2571
1	2571
1	2571
1	2571
1	10
1	2571
1	17
1	2571
1	2571
1	2571
1	2571
1	2571
1	2571
1	2571
1	2571
1	2571
1	2571
1	8
1	9
1	2571
1	2571
1	2571
1	2571
1	2571
1	2571
1	2571
1	2571
1	2571
1	2571
1	2571
1	2571
1	2571
1	2571
1	16
1	2571
1	2571
1	2571
1	2571
1	2571
1	2571
1	22
1	2571
1	2571
1	2571
1	140
1	14
1	2571
1	15
1	18
1	2571
1	2571
1	2571
1	2571
1	2571
1	2571
1	2571
1	12
1	2571
1	2571
1	2571
1	2571
1	2571
1	7
1	2571
1	2571
1	2571
1	2571
1	2571
1	2571
1	2571
1	2571
1	2571
1	2571
1	7
1	2571
1	2571
1	2571
1	2571
1	2571
1	2571
1	2571
1	2571
1	2571
1	2571
1	2571
1	2571
1	2571
1	2571
1	2571
1	145
1	2571
1	2571
1	2571
1	2571
1	2571
1	2571
1	2571
1	2571
1	2571
1	2571
1	2571
1	145
1	2571
1	2571
1	2571
1	2571
1	2571
1	2571
1	2571
1	16
1	2571
1	16
1	2571
1	2571
1	2571
1	2571
1	2571
1	4
1	2571
1	2571
1	145
1	2571
1	9
1	2571
1	2571
1	2571
1	9
1	2571
1	2571
1	2571
1	2571
1	2571
1	2571
1	2571
1	2571
1	2571
1	145
1	6
1	21
1	2571
1	145
1	2571
1	2571
1	2571
1	2571
1	2571
1	2571
1	2571
1	2571
1	2571
1	2571
1	2571
1	2571
1	2571
1	140
1	9
1	2571
1	2571
1	2571
1	2571
1	2571
1	2571
1	2571
1	14
1	2571
1	2571
1	2571
1	2571
1	2571
1	2571
1	2571
1	145
1	8
1	16
1	20
1	140
1	2571
1	2571
1	2571
1	2571
1	2571
1	140
1	2571
1	2571
1	2571
1	2571
1	140
1	2571
1	2571
1	2571
1	2571
1	2571
1	7
1	2571
1	2571
1	2571
1	2571
1	2571
1	2571
1	12
1	2571
1	13
1	2571
1	11
1	2571
1	2572
1	2571
1	2571
1	2571
1	2571
1	2571
1	2571
1	2571
1	2572
1	2571
1	2571
1	2571
1	2571
1	11
1	2571
1	2571
1	2571
1	2571
1	2571
1	12
1	2571
1	2571
1	2571
1	4
1	2571
1	2571
1	2571
1	2571
1	2571
1	2571
1	2571
1	2571
1	2571
1	2571
1	2571
1	2571
1	2571
1	2571
1	2571
1	2571
1	2571
1	2571
1	22
1	2571
1	2571
1	2571
1	2571
1	2571
1	2571
1	2571
1	2571
1	20
1	2571
1	22
1	145
1	2571
1	2571
1	2571
1	2571
1	2571
1	2571
1	11
1	2571
1	2571
1	2571
1	2571
1	2571
1	14
1	145
1	2571
1	2571
1	2571
1	2571
1	2571
1	2571
1	2571
1	7
1	8
1	2571
1	2571
1	2571
1	2571
1	2571
1	2571
1	2571
1	2571
1	2571
1	25
1	10
1	2572
1	2571
1	2571
1	13
1	2571
1	2571
1	2571
1	2571
1	2571
1	2571
1	2571
1	2571
1	2571
1	2571
1	2571
1	14
1	16
1	2571
1	2571
1	2571
1	2571
1	2571
1	2571
1	10
1	2571
1	140
1	2571
1	2571
1	2571
1	2571
1	2571
1	2571
1	140
1	2571
1	2571
1	2571
1	2571
1	2571
1	145
1	2571
1	140
1	2571
1	2571
1	2571
1	2571
1	2571
1	2571
1	2571
1	2571
1	2571
1	2571
1	2571
1	2571
1	2572
1	2571
1	2571
1	2571
1	2571
1	2571
1	2571
1	2571
1	16
1	2571
1	7
1	2571
1	2571
1	2571
1	2571
1	2571
1	2571
1	2571
1	7
1	2571
1	2571
1	2571
1	14
1	2571
1	2571
1	2571
1	2571
1	2571
1	2571
1	2571
1	2571
1	2571
1	14
1	2571
1	2571
1	2571
1	5
1	2571
1	7
1	2571
1	2571
1	2571
1	2571
1	26
1	2571
1	15
1	2571
1	2571
1	8
1	2571
1	2571
1	2571
1	2571
1	2571
1	2571
1	2571
1	2571
1	2571
1	2573
1	2571
1	2571
1	2571
1	2571
1	2571
1	2571
1	17
1	2571
1	2571
1	2571
1	145
1	2571
1	2571
1	2571
1	2571
1	2571
1	2571
1	2571
1	2571
1	2571
1	2571
1	2571
1	2571
1	2571
1	2571
1	2571
1	2571
1	2571
1	2571
1	2571
1	2573
1	2571
1	2571
1	2571
1	2571
1	2571
1	2571
1	2571
1	2571
1	2571
1	2571
1	2571
1	2571
1	145
1	2571
1	2571
1	2571
1	2572
1	2571
1	2571
1	2571
1	2571
1	2571
1	2571
1	2571
1	2571
1	13
1	2571
1	2571
1	2571
1	2571
1	2571
1	20
1	2571
1	2571
1	2571
1	2571
1	145
1	2571
1	2571
1	2571
1	10
1	2571
1	2571
1	2571
1	2571
1	2571
1	2571
1	140
1	2571
1	2571
1	2571
1	2571
1	2571
1	2571
1	2571
1	7
1	2571
1	4
1	2571
1	2571
1	2571
1	2571
1	2571
1	2571
1	2571
1	2571
1	2571
1	2571
1	2571
1	2571
1	2571
1	2571
1	2571
1	2571
1	12
1	2571
1	145
1	2571
1	6
1	2571
1	2571
1	2571
1	16
1	2571
1	2571
1	4
1	2571
1	5
1	2571
1	145
1	140
1	2571
1	2571
1	11
1	2571
1	2571
1	2571
1	2571
1	2571
1	2571
1	2571
1	2571
1	2571
1	2571
1	2571
1	2571
1	2571
1	145
1	2571
1	2571
1	2571
1	2571
1	2571
1	2571
1	2571
1	2571
1	2571
1	2571
1	2571
1	2571
1	2571
1	2571
1	2571
1	2571
1	2571
1	14
1	2571
1	140
1	2571
1	2571
1	2571
1	2571
1	2571
1	2571
1	5
1	6124
1	2571
1	2571
1	2571
1	140
1	2571
1	7
1	2571
1	2571
1	2571
1	16
1	2571
1	2571
1	25
1	2571
1	2571
1	2571
1	2571
1	9
1	2571
1	2571
1	2571
1	2571
1	2571
1	2571
1	2571
1	2571
1	2571
1	2571
1	2571
1	2571
1	2571
1	8
1	2571
1	2571
1	2571
1	2571
1	2571
1	2571
1	2571
1	2571
1	2571
1	2571
1	14
1	2571
1	5
1	2571
1	2571
1	2571
1	2571
1	2571
1	2571
1	8
1	2571
1	2571
1	2571
1	2571
1	11
1	2571
1	2571
1	8
1	2571
1	2571
1	2571
1	2571
1	2571
1	2571
1	2571
1	2571
1	2571
1	2571
1	2571
1	2571
1	145
1	147
1	2571
1	2571
1	16
1	2571
1	2571
1	145
1	27
1	2571
1	2571
1	2571
1	2571
1	11
1	2571
1	2571
1	2571
1	9
1	2571
1	2571
1	2571
1	2571
1	2571
1	8
1	2571
1	2571
1	7
1	2571
1	2571
1	2571
1	2571
1	2571
1	2571
1	140
1	2571
1	2571
1	2571
1	2571
1	2571
1	140
1	2571
1	2571
1	2571
1	2571
1	2571
1	2571
1	2571
1	2571
1	2571
1	2571
1	2571
1	2571
1	2571
1	2571
1	2571
1	2571
1	2571
1	2571
1	2571
1	2571
1	2571
1	2571
1	2571
1	2571
1	2571
1	2571
1	2571
1	2571
1	13
1	2571
1	2571
1	10
1	2571
1	2571
1	2571
1	8
1	2571
1	2571
1	2571
1	2571
1	140
1	2571
1	11
1	2571
1	2571
1	2571
1	2571
1	140
1	2571
1	2571
1	145
1	2571
1	2571
1	145
1	11
1	145
1	2571
1	145
1	2571
1	9
1	2571
1	2571
1	2571
1	2571
1	2571
1	2571
1	140
1	2571
1	145
1	2571
1	2571
1	2571
1	2571
1	2571
1	2571
1	2571
1	2571
1	2571
1	2571
1	2571
1	2571
1	2571
1	2571
1	145
1	2571
1	2571
1	2571
1	145
1	2571
1	2571
1	2571
1	5
1	2571
1	2571
1	2571
1	2571
1	6
1	2571
1	2571
1	2571
1	2571
1	2571
1	2571
1	140
1	141
1	145
1	2571
1	2571
1	2571
1	2571
1	2571
1	2571
1	2571
1	2571
1	145
1	2571
1	2571
1	2571
1	2571
1	2571
1	2571
1	2571
1	2571
1	2571
1	2571
1	8
1	2571
1	2571
1	2571
1	10
1	2571
1	13
1	140
1	12
1	9
1	8
1	2571
1	2571
1	2571
1	2571
1	2571
1	2571
1	2571
1	2571
1	16
1	2571
1	2571
1	2571
1	2571
1	2571
1	15
1	2571
1	2571
1	20
1	11
1	2571
1	17
1	2571
1	2571
1	2571
1	2571
1	2571
1	2571
1	2571
1	2571
1	2571
1	2571
1	2571
1	2571
1	20
1	5
1	2571
1	2571
1	2571
1	2571
1	2571
1	2571
1	2571
1	2571
1	2571
1	16
1	2571
1	2571
1	140
1	2571
1	2571
1	2571
1	2571
1	2571
1	2571
1	140
1	20
1	2571
1	2571
1	2571
1	2571
1	140
1	11
1	2571
1	2571
1	2571
1	2571
1	2571
1	4
1	2571
1	2571
1	2571
1	2571
1	5
1	2571
1	2571
1	2571
1	2571
1	2571
1	2571
1	2571
1	2571
1	2571
1	2571
1	2571
1	2571
1	2572
1	2571
1	2571
1	8
1	2571
1	2571
1	2571
1	2571
1	2571
1	2571
1	2571
1	2571
1	2571
1	2571
1	2571
1	2571
1	10
1	7
1	2571
1	2571
1	2571
1	9
1	2571
1	2571
1	2571
1	8
1	17
1	2571
1	2571
1	2571
1	2571
1	2571
1	2571
1	2571
1	16
1	2571
1	2571
1	2571
1	2571
1	2571
1	2571
1	16
1	2571
1	2571
1	2571
1	140
1	14
1	2571
1	2571
1	2571
1	2571
1	2571
1	2571
1	2571
1	2571
1	2571
1	2571
1	2571
1	2571
1	13
1	2571
1	2571
1	2571
1	2571
1	2571
1	2571
1	2571
1	2571
1	2571
1	2571
1	2571
1	2571
1	2571
1	2571
1	2571
1	2571
1	2571
1	2571
1	145
1	2571
1	2571
1	2571
1	145
1	2571
1	2571
1	2571
1	2571
1	140
1	2571
1	2571
1	2571
1	140
1	2571
1	2571
1	10
1	2571
1	2571
1	2571
1	2571
1	2571
1	145
1	2571
1	2571
1	2571
1	2571
1	2571
1	2571
1	2571
1	2571
1	2571
1	140
1	2571
1	2571
1	2571
1	2571
1	8
1	2571
1	5
1	9
1	2571
1	2571
1	2571
1	2571
1	2571
1	2571
1	2571
1	2571
1	10
1	2571
1	140
1	4
1	2571
1	2571
1	2571
1	2571
1	2571
1	2571
1	2571
1	2571
1	2571
1	2571
1	2571
1	2571
1	2571
1	2571
1	2571
1	2571
1	2571
1	2571
1	2571
1	2571
1	2571
1	2571
1	2571
1	21
1	2571
1	2571
1	2571
1	2571
1	2571
1	2571
1	5
1	2571
1	2571
1	2571
1	2571
1	2571
1	2571
1	2571
1	2571
1	140
1	5
1	2571
1	2571
1	2571
1	2571
1	8
1	2571
1	2571
1	14
1	2571
1	2571
1	10
1	14
1	2571
1	145
1	2571
1	2571
1	2571
1	2571
1	2571
1	2571
1	2571
1	2571
1	2571
1	2571
1	2571
1	2571
1	2571
1	2571
1	2571
1	2571
1	2571
1	2571
1	9
1	2571
1	2571
1	2572
1	2571
1	6
1	2571
1	2571
1	2571
1	2571
1	2571
1	2571
1	2571
1	2571
1	2571
1	2571
1	2571
1	5
1	2571
1	2571
1	140
1	2571
1	2571
1	2571
1	2571
1	13
1	2571
1	2571
1	2571
1	2571
1	6
1	2571
1	140
1	2571
1	2571
1	2571
1	2571
1	140
1	2571
1	2571
1	7
1	2571
1	2571
1	2571
1	2571
1	2571
1	145
1	2571
1	2571
1	2571
1	2571
1	2571
1	2571
1	2571
1	2571
1	5
1	140
1	2571
1	2571
1	2571
1	2571
1	2571
1	2571
1	2571
1	145
1	2571
1	2571
1	7
1	2571
1	2571
1	2571
1	2571
1	2571
1	2571
1	2571
1	2571
1	2571
1	2571
1	2571
1	2571
1	2571
1	2571
1	2571
1	2571
1	2571
1	2571
1	25
1	2571
1	2571
1	8
1	2571
1	2571
1	2571
1	2571
1	2571
1	140
1	2571
1	2571
1	145
1	2571
1	2571
1	2571
1	2571
1	2571
1	2571
1	2571
1	2571
1	2571
1	2571
1	2571
1	2571
1	2571
1	140
1	2571
1	2572
1	2571
1	2571
1	2571
1	9
1	2571
1	7
1	2571
1	2571
1	2
1	2571
1	2571
1	2571
1	2571
1	2571
1	2571
1	2571
1	2571
1	2571
1	16
1	7
1	2571
1	2571
1	2571
1	2571
1	2571
1	2571
1	2571
1	2571
1	140
1	2571
1	2571
1	8
1	2571
1	2571
1	2571
1	2571
1	2571
1	2571
1	2571
1	2571
1	2571
1	2571
1	12
1	2571
1	140
1	2571
1	14
1	2571
1	145
1	2571
1	2571
1	2571
1	2571
1	2571
1	2571
1	2571
1	2571
1	2571
1	2571
1	7
1	2571
1	2571
1	2571
1	2571
1	2571
1	2571
1	2571
1	2571
1	2571
1	2571
1	2571
1	2571
1	9
1	2571
1	2571
1	2571
1	2571
1	2571
1	2571
1	2571
1	2571
1	2571
1	2571
1	2571
1	2571
1	2571
1	2571
1	2571
1	13
1	2571
1	2571
1	2571
1	145
1	2571
1	2571
1	2571
1	2571
1	5
1	2571
1	8
1	2571
1	2571
1	2571
1	2571
1	2571
1	13
1	2571
1	145
1	2571
1	2571
1	2571
1	2571
1	2571
1	145
1	2571
1	2571
1	140
1	2571
1	2571
1	2571
1	2571
1	2571
1	2571
1	2571
1	2571
1	2571
1	2571
1	140
1	2571
1	2571
1	2571
1	2571
1	9
1	140
1	2571
1	2572
1	2571
1	8
1	2571
1	2571
1	2571
1	2571
1	2571
1	2571
1	2571
1	2571
1	2571
1	2571
1	17
1	2571
1	2571
1	2571
1	2571
1	2571
1	2571
1	2571
1	2571
1	2571
1	2571
1	2571
1	2571
1	140
1	2571
1	17
1	2571
1	2571
1	2571
1	16
1	2571
1	2571
1	7
1	2571
1	2571
1	2571
1	2571
1	2571
1	2571
1	2571
1	2571
1	2571
1	2571
1	2571
1	2571
1	2571
1	2571
1	145
1	2571
1	2571
1	2571
1	2571
1	20
1	2571
1	2571
1	2571
1	2571
1	2571
1	2571
1	2571
1	2571
1	12
1	2571
1	2571
1	2571
1	17
1	2571
1	2571
1	2571
1	9
1	2571
1	2571
1	2571
1	2571
1	2571
1	2571
1	2571
1	2571
1	2571
1	140
1	2571
1	8
1	2571
1	2571
1	4
1	2571
1	15
1	2571
1	2571
1	2
1	140
1	2571
1	2571
1	2571
1	14
1	2571
1	2571
1	2571
1	2571
1	17
1	2571
1	2571
1	2571
1	2571
1	2571
1	2571
1	2571
1	145
1	2571
1	2571
1	2571
1	2571
1	2571
1	140
1	2571
1	2571
1	2571
1	2571
1	2571
1	2571
1	9
1	2571
1	2571
1	2571
1	2571
1	2571
1	2571
1	2572
1	140
1	2571
1	2571
1	2571
1	145
1	2571
1	10
1	2571
1	2571
1	2571
1	2571
1	2571
1	2571
1	2571
1	2571
1	2571
1	2571
1	2571
1	2571
1	2571
1	2571
1	2571
1	2572
1	2571
1	17
1	25
1	2571
1	2571
1	2571
1	7
1	2571
1	2571
1	2571
1	2571
1	2571
1	2571
1	2571
1	2571
1	2571
1	2571
1	2571
1	2571
1	2571
1	2571
1	2571
1	2571
1	2571
1	2571
1	2571
1	2571
1	2571
1	2571
1	2571
1	2571
1	12
1	2571
1	8
1	2571
1	2571
1	2571
1	26
1	2571
1	2571
1	12
1	2571
1	2571
1	2571
1	2571
1	2571
1	2571
1	2571
1	2571
1	2571
1	2571
1	2571
1	2571
1	2571
1	2571
1	2571
1	2571
1	2571
1	2571
1	2571
1	2571
1	2571
1	2571
1	2571
1	2571
1	16
1	2571
1	2571
1	2571
1	11
1	2571
1	2571
1	2571
1	2571
1	2571
1	2571
1	2571
1	2571
1	10
1	2571
1	2571
1	2571
1	2571
1	2571
1	9
1	2571
1	4
1	140
1	2571
1	2571
1	9
1	5
1	2571
1	140
1	2571
1	2571
1	2571
1	2571
1	2571
1	2571
1	9
1	2571
1	2571
1	2571
1	2571
1	2571
1	2571
1	2571
1	2571
1	2571
1	2571
1	2571
1	2571
1	2571
1	2571
1	2571
1	2571
1	2571
1	2571
1	22
1	2571
2	141
2	9
2	14
2	17
2	8
2	8
2	2572
2	2572
2	7
2	12
2	4
2	11
2	12
2	3
2	5
2	146
2	17
2	7
2	141
2	10
2	3
2	7
2	146
2	3
2	15
2	9
2	3
2	3
2	141
2	3
2	3
2	146
2	12
2	3
2	3
2	14
2	10
2	10
2	4
2	2572
2	14
2	4
2	12
2	8
2	5
2	3
2	10
2	2572
2	4
2	14
2	11
2	3
2	141
2	7
2	6
2	5
2	3
2	141
2	6
2	14
2	3
2	5
2	3
2	13
2	17
2	141
2	3
2	7
2	8
2	2572
2	12
2	3
2	141
2	3
2	3
2	4
2	4
2	3
2	7
2	5
2	3
2	5
2	8
2	13
2	5
2	2572
2	23
2	8
2	146
2	4
2	21
2	8
2	6
2	12
2	7
2	146
2	141
2	141
2	12
2	3
2	4
2	3
2	4
2	4
2	2572
2	8
2	3
2	3
2	146
2	15
2	6
2	15
2	7
2	146
2	4
2	6
2	3
2	3
2	5
2	5
2	6
2	23
2	3
2	4
2	12
2	8
2	14
2	10
2	7
2	11
2	3
2	141
2	10
2	17
2	2572
2	9
2	9
2	146
2	2572
2	4
2	7
2	8
2	4
2	3
2	11
2	8
2	3
2	19
2	3
2	4
2	5
2	3
2	5
2	3
2	146
2	146
2	3
2	21
2	21
2	3
2	21
2	6
2	3
2	146
2	11
2	3
2	7
2	3
2	3
2	9
2	7
2	4
2	4
2	141
2	4
2	8
2	3
2	146
2	5
2	7
2	3
2	8
2	14
2	142
2	146
2	15
2	23
2	7
2	146
2	7
2	146
2	3
2	141
2	3
2	9
2	10
2	4
2	4
2	4
2	3
2	3
2	5
2	7
2	4
2	4
2	8
2	4
2	9
2	4
2	3
2	3
2	141
2	4
2	3
2	4
2	4
2	4
2	7
2	5
2	17
2	17
2	141
2	8
2	4
2	3
2	5
2	141
2	7
2	3
2	3
2	4
2	7
2	21
2	3
2	8
2	17
2	6
2	3
2	10
2	3
2	21
2	2572
2	4
2	5
2	4
2	12
2	4
2	8
2	7
3	11
3	4
3	5
3	5
3	4
3	4
3	4
3	4
3	8
3	6
3	5
3	7
3	5
3	5
3	9
3	4
3	5
3	4
3	5
3	5
3	4
3	10
3	4
3	4
3	6
3	5
3	4
3	10
3	4
3	5
3	7
3	6
3	4
3	4
3	4
3	5
3	5
3	8
3	5
3	5
3	4
3	4
3	4
3	5
3	4
3	4
3	5
3	5
3	5
3	4
3	5
3	4
3	5
3	5
3	4
3	4
3	4
3	6
3	6
3	6
3	5
3	4
3	4
3	5
3	4
3	4
3	24
3	5
3	4
3	4
3	8
3	5
3	4
3	4
3	5
3	11
3	4
3	4
3	142
4	8
4	5
4	5
4	5
4	5
4	5
4	6
4	5
4	5
4	5
4	5
4	5
4	6
4	5
4	5
4	5
4	8
4	16
4	6
4	5
4	9
4	5
4	6
4	5
4	6
4	5
4	5
4	6
4	8
4	6
4	5
4	5
4	7
4	6
4	5
4	6
4	6
4	6
4	5
4	5
4	5
4	5
4	6
4	5
5	7
5	6
5	6
5	7
5	6
5	10
5	6
5	6
5	6
5	6
5	6
5	7
5	7
5	6
5	7
5	6
5	7
5	6
5	6
5	6
5	6
5	6
5	6
5	6
5	6
5	6
6	7
6	7
6	7
6	7
6	8
6	7
6	7
6	7
6	7
6	7
6	7
6	7
6	7
6	7
6	7
6	7
7	8
7	8
7	8
7	8
7	8
7	8
7	8
7	8
7	8
7	8
8	9
8	9
8	9
8	9
8	9
8	9
8	9
8	9
8	9
8	9
9	10
9	10
9	10
9	10
9	10
10	11
10	11
10	11
10	11
10	11
11	12
11	12
11	12
12	13
12	14
12	13
12	13
13	14
13	14
13	14
14	15
15	16
15	16
15	16
15	16
15	16
16	17
19	20
19	20
21	22
24	25
139	140
144	145
2570	2571
