1	6124
1	2446
1	2447
1	26
1	2446
1	2446
1	2446
1	2446
1	2446
1	2446
1	2446
1	2446
1	2446
1	2447
1	2446
1	2446
1	2446
1	24
1	363
1	2446
1	2446
1	2446
1	2446
1	2446
1	2446
1	2446
1	2446
1	2446
1	2446
1	19
1	2446
1	2446
1	2446
1	2446
1	2446
1	2446
1	24
1	2446
1	2446
1	2446
1	2446
1	2446
1	2446
1	2446
1	2446
1	2446
1	2446
1	2446
1	2446
1	2446
1	2446
1	2446
1	2446
1	2446
1	2446
1	2446
1	2446
1	2446
1	2446
1	2446
1	2446
1	16
1	2446
1	2446
1	2446
1	2446
1	27
1	357
1	2446
1	2446
1	2446
1	22
1	2446
1	2446
1	2446
1	17
1	2446
1	2446
1	356
1	2446
1	2446
1	357
1	2446
1	2446
1	16
1	21
1	2446
1	2446
1	10
1	2446
1	356
1	2446
1	2446
1	2446
1	2446
1	2446
1	2446
1	2446
1	2446
1	16
1	356
1	2446
1	2446
1	2446
1	19
1	2446
1	2446
1	2446
1	2446
1	359
1	2446
1	356
1	2446
1	2446
1	2446
1	356
1	2446
1	2446
1	2446
1	2446
1	2446
1	2446
1	2446
1	356
1	2446
1	2446
1	2446
1	2446
1	2446
1	2446
1	2446
1	2446
1	356
1	2446
1	2446
1	2446
1	16
1	2446
1	2446
1	356
1	2446
1	356
1	2446
1	2446
1	17
1	2446
1	2446
1	2446
1	2447
1	2446
1	2448
1	2446
1	2446
1	2446
1	2446
1	17
1	2446
1	2446
1	2446
1	2446
1	2446
1	2446
1	2446
1	2446
1	2446
1	2446
1	27
1	2446
1	2446
1	2446
1	2446
1	2446
1	2446
1	2446
1	2446
1	2446
1	2446
1	2447
1	2446
1	356
1	15
1	13
1	2446
1	2446
1	2446
1	24
1	2446
1	2446
1	2446
1	2446
1	2446
1	2446
1	2446
1	359
1	2446
1	356
1	2446
1	2446
1	2446
1	2446
1	356
1	2446
1	2446
1	356
1	2446
1	2446
1	2446
1	2446
1	2446
1	2446
1	2446
1	2446
1	2446
1	2446
1	2446
1	2446
1	2446
1	21
1	2446
1	2446
1	2446
1	12
1	2446
1	2446
1	2446
1	2446
1	2446
1	2446
1	2446
1	2446
1	2446
1	2446
1	2447
1	2446
1	2446
1	356
1	2446
1	2446
1	2446
1	2446
1	2446
1	2446
1	8
1	2446
1	2446
1	2446
1	17
1	2446
1	2446
1	2446
1	2446
1	360
1	2446
1	24
1	2446
1	2446
1	2446
1	2446
1	2446
1	2446
1	2446
1	2448
1	16
1	2446
1	2446
1	2446
1	2446
1	2446
1	17
1	2446
1	2446
1	2446
1	2446
1	2446
1	2446
1	2446
1	2446
1	2446
1	2446
1	2446
1	2446
1	12
1	2446
1	2446
1	2446
1	2446
1	2446
1	2446
1	2446
1	356
1	2446
1	4
1	2446
1	356
1	359
1	2446
1	2446
1	2446
1	11
1	2446
1	2446
1	2446
1	2446
1	2446
1	2446
1	2446
1	2446
1	2446
1	2446
1	2446
1	2446
1	2446
1	2446
1	2446
1	2446
1	2447
1	2446
1	2446
1	2446
1	2446
1	2446
1	2446
1	2446
1	2446
1	2446
1	2446
1	2446
1	2446
1	2446
1	16
1	2446
1	2446
1	2446
1	14
1	2446
1	2446
1	11
1	2446
1	2447
1	2446
1	2446
1	2446
1	2446
1	16
1	2446
1	2446
1	2446
1	2446
1	2446
1	2446
1	2446
1	2446
1	2446
1	2446
1	2446
1	2446
1	2446
1	2446
1	2446
1	2446
1	2446
1	11
1	14
1	2446
1	2446
1	2446
1	2446
1	356
1	2446
1	2446
1	2446
1	2446
1	2446
1	356
1	2446
1	2446
1	2446
1	2446
1	2446
1	2446
1	2446
1	2446
1	356
1	2446
1	6124
1	2446
1	12
1	2446
1	2446
1	2446
1	2446
1	2446
1	2446
1	2446
1	2446
1	2446
1	2446
1	2446
1	2446
1	2446
1	7
1	2446
1	356
1	2446
1	2446
1	2446
1	2446
1	9
1	2446
1	2446
1	2446
1	23
1	358
1	2446
1	2446
1	356
1	2446
1	17
1	2446
1	5
1	17
1	2446
1	2446
1	2446
1	2446
1	2446
1	2446
1	2446
1	19
1	2446
1	2446
1	2446
1	356
1	22
1	2446
1	2446
1	2446
1	6124
1	2446
1	357
1	2446
1	2446
1	2446
1	18
1	11
1	2446
1	2446
1	2446
1	2446
1	2446
1	2446
1	2446
1	2446
1	2446
1	2446
1	2446
1	2446
1	2446
1	2446
1	2446
1	2446
1	2446
1	356
1	2446
1	2446
1	356
1	2446
1	2446
1	2446
1	2446
1	2446
1	2446
1	2446
1	2446
1	15
1	2446
1	2446
1	2446
1	24
1	2446
1	2446
1	2446
1	8
1	2446
1	22
1	2446
1	14
1	2446
1	2446
1	2446
1	2446
1	2446
1	2446
1	2446
1	2446
1	15
1	2446
1	2446
1	2446
1	2446
1	2446
1	2446
1	2446
1	2446
1	2446
1	2446
1	8
1	2446
1	2446
1	2446
1	2446
1	10
1	2446
1	2446
1	2446
1	2446
1	16
1	9
1	2446
1	2446
1	2446
1	356
1	2446
1	2446
1	2446
1	2446
1	2446
1	2446
1	2446
1	361
1	2446
1	2446
1	2446
1	2446
1	2446
1	2446
1	2446
1	2446
1	2446
1	2446
1	2446
1	2446
1	2446
1	2446
1	2446
1	2446
1	2446
1	2446
1	2446
1	2446
1	2446
1	2446
1	2446
1	2446
1	2446
1	6
1	20
1	2446
1	2446
1	2446
1	2446
1	2446
1	2446
1	2446
1	2446
1	2446
1	2446
1	2446
1	2446
1	2446
1	356
1	2446
1	2446
1	2446
1	356
1	2446
1	2446
1	2446
1	2446
1	2446
1	2446
1	2446
1	2446
1	358
1	2448
1	2446
1	2446
1	2446
1	2446
1	2446
1	2446
1	2446
1	2446
1	2446
1	19
1	2446
1	19
1	2446
1	2446
1	2446
1	18
1	2446
1	2446
1	2446
1	2446
1	2446
1	2446
1	2446
1	26
1	2446
1	2446
1	2446
1	2446
1	2446
1	2446
1	2446
1	2446
1	2446
1	2446
1	2446
1	2446
1	2446
1	16
1	2446
1	2446
1	2446
1	2446
1	2446
1	2446
1	2446
1	358
1	356
1	356
1	2446
1	2446
1	2446
1	2446
1	2446
1	2446
1	2446
1	9
1	359
1	2446
1	2446
1	2446
1	2446
1	15
1	22
1	2446
1	2446
1	2446
1	5
1	2446
1	2446
1	2446
1	356
1	2446
1	2446
1	2446
1	2446
1	2446
1	2446
1	2446
1	2446
1	2446
1	2446
1	2446
1	2446
1	358
1	2446
1	2446
1	2446
1	2446
1	356
1	2446
1	2446
1	2446
1	2446
1	2446
1	2446
1	2446
1	2446
1	2446
1	2446
1	2446
1	2446
1	2446
1	2446
1	2446
1	2446
1	2446
1	2446
1	2446
1	14
1	2446
1	2446
1	2446
1	2446
1	2446
1	2446
1	2446
1	2446
1	2446
1	2446
1	2446
1	2446
1	2446
1	2446
1	2446
1	14
1	2446
1	2446
1	2446
1	14
1	11
1	2446
1	2446
1	358
1	2446
1	11
1	2446
1	23
1	2446
1	14
1	2446
1	23
1	2446
1	2446
1	2446
1	2446
1	2446
1	11
1	2446
1	2446
1	25
1	2446
1	2446
1	15
1	2446
1	2446
1	2446
1	2446
1	2446
1	2446
1	2446
1	2446
1	2446
1	2446
1	2446
1	2446
1	2446
1	2446
1	2446
1	2446
1	2446
1	2446
1	5
1	2446
1	2446
1	22
1	2448
1	2446
1	2446
1	2446
1	2446
1	2446
1	2446
1	2446
1	2446
1	2446
1	9
1	2446
1	9
1	2446
1	16
1	2446
1	2446
1	2446
1	5
1	2446
1	2446
1	2446
1	2446
1	2446
1	356
1	2446
1	2446
1	2446
1	2446
1	2446
1	2446
1	2446
1	2446
1	356
1	2
1	2446
1	2446
1	2446
1	2446
1	2446
1	2446
1	356
1	2446
1	2446
1	15
1	2446
1	2446
1	18
1	2446
1	2446
1	2446
1	2446
1	2446
1	2446
1	2446
1	2446
1	16
1	2446
1	2446
1	2446
1	2446
1	2446
1	2446
1	15
1	2446
1	2446
1	2446
1	2446
1	2446
1	2446
1	2446
1	16
1	2446
1	2446
1	23
1	2446
1	2446
1	2446
1	2446
1	2446
1	356
1	2446
1	2446
1	2446
1	2446
1	2446
1	15
1	2446
1	2446
1	2446
1	2446
1	10
1	2446
1	356
1	2446
1	2446
1	2446
1	2446
1	18
1	16
1	2446
1	2446
1	2446
1	2446
1	2446
1	2446
1	2446
1	357
1	2446
1	9
1	15
1	357
1	2446
1	2446
1	2446
1	12
1	2446
1	2446
1	2446
1	2446
1	2446
1	2446
1	5
1	18
1	2446
1	2446
1	2446
1	2446
1	10
1	2446
1	356
1	2446
1	2446
1	2446
1	2446
1	2446
1	2446
1	2446
1	2446
1	2446
1	2446
1	2446
1	2446
1	2446
1	2446
1	2446
1	2446
1	2447
1	2446
1	2446
1	2446
1	2446
1	2446
1	2446
1	8
1	2446
1	356
1	2447
1	2446
1	2446
1	2446
1	2446
1	2446
1	2446
1	2446
1	2446
1	2446
1	2446
1	2446
1	13
1	2446
1	2446
1	2446
1	2446
1	2446
1	2446
1	12
1	2446
1	2446
1	20
1	2446
1	8
1	356
1	356
1	2446
1	9
1	356
1	2446
1	2446
1	2446
1	12
1	356
1	2446
1	2446
1	2446
1	2446
1	2446
1	2446
1	2446
1	17
1	5
1	2446
1	2446
1	2446
1	2446
1	2446
1	2446
1	2446
1	2446
1	9
1	2446
1	2446
1	8
1	17
1	2446
1	2446
1	2446
1	2446
1	2446
1	9
1	2446
1	2446
1	2446
1	2446
1	356
1	2446
1	2446
1	2446
1	2446
1	2446
1	2446
1	2446
1	2446
1	10
1	2446
1	8
1	2446
1	2446
1	15
1	17
1	2446
1	2446
1	2446
1	2446
1	2446
1	356
1	2446
1	2446
1	2446
1	2446
1	2446
1	2446
1	2446
1	2446
1	2446
1	8
1	2446
1	2446
1	2446
1	2446
1	10
1	13
1	2446
1	2446
1	356
1	2446
1	2446
1	2446
1	2446
1	2446
1	356
1	2446
1	2446
1	2446
1	2446
1	2446
1	15
1	2446
1	2446
1	2446
1	357
1	356
1	2446
1	2446
1	2446
1	2446
1	2446
1	356
1	2446
1	2446
1	2446
1	2446
1	2446
1	2446
1	2446
1	2446
1	2446
1	6
1	2446
1	5
1	2446
1	356
1	15
1	2446
1	2446
1	15
1	2446
1	2446
1	360
1	2446
1	2446
1	2446
1	2446
1	2446
1	2446
1	2446
1	2446
1	2446
1	356
1	2446
1	2446
1	2447
1	2446
1	2446
1	2446
1	24
1	2446
1	16
1	2446
1	2446
1	2446
1	2446
1	2446
1	356
1	2446
1	2446
1	2446
1	2446
1	2446
1	2446
1	2446
1	8
1	2446
1	2446
1	2446
1	2446
1	2446
1	2446
1	2446
1	2446
1	2446
1	2446
1	356
1	2446
1	2446
1	2446
1	356
1	2446
1	2446
1	5
1	2446
1	2446
1	2446
1	2446
1	2446
1	2446
1	6124
1	2446
1	356
1	2446
1	10
1	2446
1	2446
1	356
1	2446
1	2446
1	356
1	2446
1	2446
1	2446
1	2446
1	2446
1	2446
1	2446
1	2446
1	2446
1	2446
1	2446
1	2446
1	2446
1	2446
1	5
1	24
1	2446
1	2446
1	2446
1	2446
1	2446
1	17
1	2446
1	2446
1	2446
1	356
1	15
1	2446
1	356
1	9
1	2447
1	2446
1	358
1	2446
1	2446
1	9
1	2446
1	2446
1	2446
1	2446
1	29
1	2446
1	2446
1	2446
1	2446
1	2446
1	2446
1	2446
1	2446
1	2446
1	2446
1	3
1	356
1	2446
1	2446
1	2446
1	2446
1	356
1	2446
1	2446
1	2446
1	2446
1	2446
1	2446
1	2446
1	11
1	17
1	356
1	2446
1	2446
1	2446
1	2446
1	2446
1	2446
1	2446
1	2446
1	356
1	2446
1	2446
1	2446
1	2449
1	2446
1	2446
1	2446
1	2446
1	2446
1	12
1	2446
1	2446
1	2446
1	2446
1	2446
1	2446
1	356
1	2446
1	8
1	356
1	23
1	2446
1	9
1	2446
1	2446
1	2446
1	359
1	356
1	2446
1	11
1	2446
1	2446
1	23
1	2446
1	2446
1	2446
1	2446
1	2446
1	2446
1	2446
1	2446
1	2446
1	13
1	2446
1	2446
1	2446
1	2446
1	2446
1	2446
1	2446
1	2446
1	22
1	2446
1	2446
1	22
1	2446
1	2446
1	2446
1	2446
1	2446
1	2446
1	2448
1	16
1	2446
1	2446
1	2446
1	5
1	19
1	2446
1	2446
1	2446
1	2446
1	2446
1	2446
1	2446
1	2446
1	2446
1	2446
1	2446
1	2446
1	2446
1	2446
1	13
1	2446
1	2446
1	2446
1	4
1	12
1	2446
1	2446
1	2446
1	2446
1	2446
1	2446
1	19
1	2446
1	2446
1	2446
1	2446
1	2446
1	356
1	2446
1	11
1	2446
1	9
1	2446
1	2446
1	2446
1	2446
1	2446
1	2446
1	9
1	2446
1	2446
1	2446
1	2446
1	2446
1	2446
1	2446
1	2446
1	2446
1	2446
1	2446
1	2446
1	2446
1	2446
1	2446
1	2446
1	356
1	2446
1	2446
1	2446
1	2446
1	2446
1	2446
1	2446
1	5
1	29
1	2446
1	2446
1	2446
1	2446
1	2446
1	21
1	2446
1	2446
1	2446
1	2446
1	2446
1	2446
1	2446
1	2446
1	2446
1	2446
1	2446
1	10
1	2446
1	2446
1	7
1	2446
1	2446
1	2446
1	2446
1	2446
1	2446
1	11
1	2446
1	5
1	2446
1	2446
1	356
1	356
1	2446
1	18
1	2446
1	2446
1	2446
1	2446
1	2446
1	2446
1	2446
1	2446
1	9
1	2446
1	2446
1	359
1	5
1	2446
1	2446
1	358
1	2446
1	356
1	2446
1	2446
1	2446
1	2446
1	17
1	2446
1	2446
1	2446
1	2446
1	2446
1	356
1	2446
1	2446
1	2446
1	2446
1	2446
1	2446
1	2446
1	2446
1	2446
1	2446
1	2446
1	2446
1	2446
1	2446
1	2446
1	2446
1	2446
1	2446
1	2446
1	2446
1	356
1	2446
1	2446
1	2446
1	2446
1	2446
1	2446
1	2446
1	2446
1	8
1	2446
1	2446
1	2446
1	7
1	2446
1	356
1	2446
1	356
1	359
1	2446
1	2446
1	2446
1	2446
1	2446
1	2446
1	2446
1	18
1	2446
1	2446
1	2446
1	2446
1	2446
1	2446
1	2446
1	2446
1	2446
1	2446
1	2446
1	356
1	6
1	2446
1	356
1	2446
1	2446
1	2446
1	356
1	2446
1	2446
1	2446
1	356
1	2446
1	2446
1	22
1	2446
1	9
1	18
1	8
1	2446
1	2446
1	2446
1	11
1	2446
1	2446
1	6
1	359
1	2446
1	2446
1	356
1	2446
1	2446
1	2446
1	2446
1	356
1	356
1	6
1	2446
1	2446
1	10
1	2446
1	2446
1	2446
1	2446
1	358
1	2446
1	356
1	2446
1	2446
1	2446
1	356
1	2446
1	2446
1	2446
1	2446
1	2446
1	2446
1	8
1	2446
1	2446
1	2446
1	2446
1	2446
1	2446
1	16
1	2446
1	2446
1	17
1	2446
1	2446
1	2446
1	8
1	10
1	2446
1	2446
1	2446
1	2446
1	2446
1	2446
1	2446
1	2446
1	2446
1	9
1	2446
1	2446
1	21
1	2446
1	2446
1	2446
1	2446
1	11
1	2446
1	2446
1	2446
1	2446
1	356
1	2446
1	11
1	2446
1	2446
1	2446
1	2446
1	2446
1	2446
1	2446
1	7
1	356
1	23
1	2446
1	4
1	2446
1	8
1	356
1	21
1	2446
1	2446
1	2446
1	2446
1	356
1	2446
1	13
1	2446
1	2446
1	2446
1	2446
1	2446
1	2446
1	2446
1	2446
1	4
1	2446
1	2446
1	2446
1	2446
1	2446
1	2446
1	2446
1	2446
1	2446
1	2446
1	12
1	2446
1	2446
1	356
1	356
1	2446
1	2446
1	2446
1	356
1	2446
1	356
1	2446
1	2446
1	2446
1	2446
1	2446
1	2446
1	2446
1	21
1	356
1	2446
1	2446
1	2446
1	356
1	10
1	2446
1	6124
1	23
1	2446
1	2446
1	357
1	2446
1	356
1	2446
1	23
1	2446
1	2446
1	2446
1	2446
1	2446
1	2446
1	356
1	2446
1	2446
1	2446
1	2446
1	2446
1	2446
1	2446
1	2446
1	2446
1	356
1	2446
1	2446
1	356
1	2446
1	2446
1	2446
1	2446
1	4
1	23
1	5
1	2446
1	356
1	2446
1	2446
1	2446
1	2446
1	2446
1	2446
1	2446
1	2446
1	2446
1	356
1	2446
1	2446
1	2446
1	2446
1	2446
1	21
1	2446
1	356
1	2446
1	18
1	356
1	2446
1	2446
1	10
1	2446
1	8
1	2446
1	2446
1	2446
1	2446
1	2446
1	2446
1	2446
1	2446
1	16
1	2446
1	15
1	15
1	2446
1	2446
1	2446
1	2446
1	2446
1	2446
1	2446
1	2446
1	2446
1	2446
1	2446
1	2446
1	356
1	2446
1	2446
1	2446
1	2446
1	2446
1	2446
1	9
1	2446
1	2446
1	9
1	2446
1	2446
1	356
1	2446
1	2446
1	13
1	2446
1	2446
1	2446
1	2446
1	2446
1	2446
1	2446
1	21
1	2446
1	2446
1	2446
1	2446
1	2446
1	2446
1	2446
1	2446
1	2446
1	2446
1	2446
1	2446
1	2446
1	2446
1	2446
1	2446
1	2446
1	2446
1	2446
1	2446
1	2446
1	23
1	356
1	2446
1	356
1	11
1	2446
1	2446
1	23
1	2446
1	2446
1	2446
1	2446
1	2446
1	2446
1	2446
1	2446
1	2446
1	16
1	2446
1	2446
1	2446
1	356
1	2446
1	2446
1	2446
1	356
1	22
1	8
1	2446
1	2446
1	2446
1	2446
1	5
1	2446
1	2446
1	2446
1	2446
1	2446
1	2446
1	2446
1	23
1	11
1	2446
1	11
1	356
1	2446
1	2446
1	2446
1	2446
1	2446
1	2446
1	2446
1	2446
1	356
1	2446
1	2446
1	2446
1	2446
1	2446
1	2446
1	2446
1	2446
1	8
1	2446
1	8
1	21
1	2446
1	7
1	356
1	9
1	2446
1	15
1	2446
1	2446
1	2446
1	2446
1	7
1	2446
1	2446
1	2446
1	2446
1	2446
1	2446
1	2
1	6
1	356
1	2446
1	2446
1	2446
1	2446
1	2446
1	2446
1	356
1	2446
1	2446
1	5
1	2446
1	2446
1	2446
1	2446
1	2447
1	2446
1	2446
1	6
1	2446
1	2446
1	2446
1	2446
1	2446
1	2446
1	2447
1	9
1	356
1	2446
1	2446
1	2446
1	2446
1	2446
1	2446
1	13
1	2446
1	356
1	2446
1	356
1	2446
1	2446
1	2446
1	2446
1	2446
1	2446
1	2446
1	2446
1	2446
1	2446
1	356
1	2446
1	2446
1	2446
1	356
1	2446
1	2446
1	2446
1	2446
1	356
1	2446
1	2446
1	2446
1	2446
1	2446
1	7
1	2446
1	2446
1	356
1	2446
1	2446
1	2446
1	17
1	13
1	2446
1	2446
1	2446
1	356
1	6
1	2446
1	2446
1	2446
1	2446
1	15
1	2446
1	2446
1	2446
1	2446
1	2446
1	2446
1	2446
1	2446
1	356
1	9
1	2446
1	2446
1	2446
1	2446
1	2446
1	2446
1	2446
1	2446
1	2446
1	2446
1	356
1	2446
1	2446
1	356
1	2446
1	23
1	2446
1	7
1	2446
1	2446
1	2446
1	7
1	2446
1	2446
1	2446
1	9
1	2446
1	2446
1	2446
1	2446
1	8
1	2446
1	2446
1	2446
1	8
1	2446
1	2446
1	2446
1	2446
1	2446
1	2446
1	2446
1	2446
1	2446
1	2446
1	13
1	2446
1	2446
1	2446
1	23
1	2446
1	2446
1	2446
1	4
1	2446
1	2446
1	2446
1	9
1	2446
1	2446
1	356
1	2446
1	356
1	2446
1	2446
1	356
1	2446
1	2446
1	2446
1	8
1	2446
1	2446
1	2446
1	356
1	2446
1	2446
1	2446
1	2446
1	2446
1	356
1	2446
1	2446
1	2446
1	2446
1	2446
1	2446
1	2446
1	2446
1	2447
1	2447
1	2446
1	2446
1	2446
1	23
1	2446
1	2446
1	2446
1	2446
1	8
1	2446
1	2446
1	2446
1	2446
1	6
1	2446
1	2446
1	2446
1	2446
1	2446
1	2446
1	2446
1	2446
1	2446
1	2446
1	2446
1	2446
1	2446
1	2446
1	2446
1	2446
1	2446
1	6
1	2446
1	358
1	2446
1	2446
1	2446
1	2446
1	2446
1	2446
1	2446
1	2446
1	2
1	2446
1	2446
1	2446
1	2446
1	2447
1	2446
1	2446
1	2446
1	2446
1	2446
1	2446
1	2446
1	2446
1	2446
1	2446
1	2446
1	2446
1	2446
1	2446
1	2446
1	2446
1	5
1	2446
1	2446
1	2446
1	2446
1	2446
1	9
1	2446
1	2446
1	2447
1	11
1	10
1	15
1	16
1	2446
1	2446
1	2446
1	2446
1	2446
1	2446
1	2446
1	2446
1	10
1	2446
1	10
1	2446
1	2446
1	2446
1	2446
1	2446
1	2446
1	2446
1	2446
1	2446
1	2446
1	2446
1	2446
1	2446
1	2446
1	2446
1	2446
1	2446
1	2446
1	2446
1	2446
1	2446
1	2446
1	2446
1	2446
1	2446
1	13
1	2446
1	2446
1	2446
1	4
1	2446
1	2446
1	2446
1	2446
1	18
1	2446
1	2446
1	2446
1	356
1	5
1	2446
1	356
1	25
1	2446
1	9
1	2446
1	2446
1	2446
1	2446
1	9
1	2446
1	16
1	356
1	2446
1	2446
1	2446
1	2446
1	2446
1	2446
1	6
1	2446
1	2446
1	2446
1	2446
1	2446
1	2446
1	2447
1	2446
1	8
1	2446
1	20
1	2446
1	2446
1	2446
1	2446
1	2446
1	2446
1	2446
1	2446
1	2446
1	2446
1	23
1	6
1	2446
1	2446
1	2446
1	2446
1	2446
1	15
1	2446
1	2446
1	2446
1	18
1	2446
1	2446
1	2446
1	10
1	2446
1	2446
1	2446
1	11
1	2446
1	11
1	356
1	2447
1	2446
1	2446
1	2446
1	2446
1	2446
1	356
1	2446
1	2446
1	15
1	2446
1	2446
1	2446
1	2446
1	2446
1	2446
1	357
1	2446
1	2446
1	2446
1	2446
1	2446
1	2446
1	2446
1	2446
1	2446
1	18
1	2446
1	2446
1	2446
1	2446
1	2446
1	2446
1	2446
1	356
1	2446
1	2446
1	2446
1	2446
1	2446
1	2446
1	2446
1	2446
1	2446
1	2446
1	2446
1	2446
1	2446
1	357
1	4
1	357
1	2446
1	356
1	356
1	2446
1	2446
1	2446
1	2446
1	2446
1	2446
1	2446
1	8
1	2446
1	2446
1	2446
1	2446
1	2446
1	2446
1	356
1	2446
1	2446
1	2446
1	2446
1	2446
1	2446
1	2446
1	4
1	2446
1	9
1	2446
1	2446
1	2446
1	2446
1	2446
1	2446
1	2446
1	2446
1	2446
1	356
1	2446
1	10
1	356
1	2446
1	2446
1	2446
1	2446
1	2446
1	356
1	2446
1	2446
1	2446
1	2446
1	2446
1	2446
1	2446
1	356
1	2446
1	2446
1	2446
1	2446
1	2446
1	2446
1	2446
1	2446
1	2446
1	2446
1	2446
1	2446
1	2446
1	2446
1	2446
1	6
1	2446
1	2446
1	2446
1	2446
1	2446
1	2446
1	2446
1	356
1	15
1	2446
1	2446
1	2446
1	2446
1	2446
1	2446
1	2446
1	2446
1	356
1	2446
1	2446
1	2446
1	356
1	2446
1	2446
1	2446
1	2446
1	2446
1	356
1	2446
1	2446
1	2446
1	2446
1	2446
1	2446
1	2446
1	2446
1	2446
1	2446
1	2446
1	2446
1	2446
1	2446
1	2446
1	2446
1	2446
1	2446
1	2446
1	2446
1	2446
1	2446
1	2446
1	2446
1	358
1	2446
1	2447
1	2446
1	2446
1	2446
1	2446
1	8
1	2446
1	2446
1	2446
1	2446
1	2446
1	2446
1	2446
1	2446
1	2446
1	2446
1	2446
1	2446
1	2446
1	2446
1	2446
1	2446
1	2446
1	2446
1	2446
1	5
1	2446
1	5
1	2446
1	2446
1	2446
1	2446
1	9
1	2446
1	2446
1	2446
1	17
1	2446
1	2446
1	2447
1	2446
1	5
1	2446
1	2446
1	2446
1	2446
1	356
1	356
1	2446
1	2446
1	2446
1	2446
1	2446
1	2446
1	356
1	2446
1	18
1	356
1	2446
1	2446
1	2446
1	2446
1	16
1	2446
1	2446
1	2446
1	2446
1	2446
1	2446
1	2446
1	2446
1	2446
1	9
1	2446
1	2446
1	2446
1	2446
1	2446
1	2446
1	2446
1	2446
1	2446
1	2446
1	2446
1	2446
1	2446
1	2446
1	2446
1	2446
1	2446
1	2446
1	2446
1	2446
1	2446
1	2446
1	8
1	21
1	356
1	356
1	2446
1	2446
1	2446
1	2446
1	6
1	356
1	2446
1	2446
1	2446
1	9
1	8
1	2446
1	2446
1	21
1	2446
1	17
1	2446
1	2446
1	2446
1	2446
1	2446
1	2446
1	2446
1	2446
1	2446
1	2446
1	2447
1	2446
1	2446
1	2446
1	2446
1	2446
1	4
1	2446
1	2446
1	2446
1	2446
1	2446
1	2446
1	2446
1	2446
1	2446
1	2446
1	2446
1	2446
1	2446
1	2446
1	2446
1	2446
1	2446
1	2446
1	2446
1	2446
1	2446
1	2446
1	2446
1	2446
1	2446
1	2446
1	2446
1	2446
1	2446
1	2446
1	2446
1	2446
1	2446
1	2446
1	2446
1	2446
1	2446
1	2446
1	2446
1	2446
1	2446
1	2446
1	2446
1	9
1	2446
1	356
1	2446
1	2446
1	2446
1	2446
1	2446
1	2446
1	2446
1	8
1	5
1	2446
1	9
1	2446
1	2446
1	2446
1	2446
1	2446
1	2446
1	2446
1	2446
1	2446
1	21
1	2446
1	2446
1	9
1	2446
1	2446
1	2446
1	2446
1	2446
1	356
1	2446
1	9
1	2446
1	6
1	2446
1	2446
1	2446
1	2446
1	2446
1	2446
1	356
1	2446
1	2446
1	2446
1	356
1	2446
1	2446
1	2446
1	2446
1	2446
1	2446
1	2446
1	356
1	2446
1	356
1	2447
1	2446
1	2446
1	2446
1	15
1	357
1	2446
1	2446
1	358
1	2446
1	2446
1	2446
1	2446
1	2446
1	23
1	2446
1	2446
1	2446
1	2446
1	2446
1	2446
1	23
1	12
1	2446
1	2446
1	2446
1	356
1	2446
1	8
1	2446
1	2446
1	2446
1	2446
1	2446
1	2446
1	2446
1	2446
1	2446
1	2446
1	16
1	2446
1	356
1	5
1	2446
1	2446
1	2446
1	5
1	2446
1	2446
1	2446
1	2446
1	18
1	2446
1	2446
1	2447
1	2446
1	15
1	2446
1	2446
1	2446
1	2446
1	8
1	2446
1	2446
1	2446
1	2446
1	2446
1	2446
1	2446
1	2446
1	356
1	2447
1	2446
1	2446
1	2446
1	2446
1	356
1	11
1	357
1	5
1	356
1	356
2	3
2	357
2	5
2	357
2	8
2	3
2	357
2	2447
2	7
2	5
2	3
2	357
2	3
2	357
2	357
2	3
2	25
2	3
2	357
2	357
2	357
2	6
2	7
2	3
2	6
2	357
2	4
2	4
2	5
2	3
2	3
2	3
2	3
2	2447
2	3
2	357
2	357
2	8
2	6
2	357
2	4
2	3
2	357
2	4
2	22
2	6
2	357
2	357
2	357
2	17
2	9
2	8
2	3
2	4
2	3
2	7
2	7
2	13
2	16
2	10
2	5
2	3
2	11
2	6
2	4
2	9
2	357
2	2447
2	357
2	9
2	7
2	3
2	8
2	3
2	357
2	5
2	4
2	11
2	10
2	357
2	8
2	7
2	10
2	357
2	3
2	357
2	7
2	7
2	5
2	3
2	6
2	7
2	6
2	357
2	10
2	4
2	3
2	5
2	3
2	9
2	4
2	4
2	7
2	4
2	3
2	357
2	3
2	24
2	3
2	10
2	4
2	6
2	7
2	3
2	357
2	8
2	12
2	9
2	3
2	3
2	4
2	8
2	8
2	22
2	6
2	357
2	4
2	6
2	357
2	357
2	358
2	6
2	3
2	3
2	2447
2	5
2	18
2	357
2	357
2	357
2	2447
2	2447
2	5
2	5
2	3
2	357
2	3
2	357
2	3
2	10
2	3
2	9
2	357
2	3
2	10
2	3
2	4
2	3
2	11
2	357
2	3
2	8
2	6
2	3
2	12
2	3
2	4
2	3
2	4
2	4
2	358
2	4
2	3
2	3
2	25
2	20
2	357
2	9
2	4
2	18
2	5
2	357
2	9
2	2447
2	7
2	16
2	12
2	4
2	3
2	8
2	357
2	4
2	7
2	4
2	8
2	4
2	2447
2	8
2	357
2	3
2	4
2	11
2	11
2	3
2	4
2	3
2	3
2	8
2	4
2	4
2	5
2	357
2	18
2	4
2	4
2	3
2	4
2	4
2	357
2	3
2	7
2	10
2	4
2	357
2	10
2	357
2	4
2	4
2	11
2	22
2	357
2	4
2	357
2	8
2	3
2	8
2	3
2	11
2	9
2	5
2	8
2	6
2	3
2	3
2	3
2	3
2	22
2	11
2	7
2	12
2	12
2	10
2	7
2	357
2	7
2	16
2	4
2	357
2	358
2	3
2	357
2	4
2	357
2	3
2	8
2	357
2	6
2	4
2	4
2	10
2	6
2	3
3	4
3	4
3	4
3	4
3	4
3	17
3	5
3	4
3	11
3	6
3	4
3	4
3	4
3	4
3	4
3	7
3	17
3	4
3	7
3	4
3	4
3	10
3	4
3	4
3	23
3	7
3	4
3	7
3	7
3	5
3	5
3	4
3	4
3	6
3	4
3	4
3	5
3	4
3	5
3	4
3	11
3	6
3	6
3	4
3	10
3	9
3	5
3	4
3	5
3	5
3	4
3	4
3	4
3	4
3	4
3	11
3	5
3	4
3	4
3	4
3	4
3	4
3	5
3	4
3	4
3	4
3	5
3	4
3	5
3	9
3	4
3	4
3	5
3	4
3	4
3	8
3	4
3	5
3	9
3	4
3	6
3	4
3	4
3	4
3	4
3	15
3	4
3	5
3	6
3	11
3	4
3	5
3	4
3	5
3	4
4	5
4	5
4	5
4	6
4	5
4	7
4	5
4	5
4	6
4	7
4	5
4	6
4	5
4	5
4	5
4	5
4	5
4	5
4	6
4	5
4	5
4	6
4	5
4	6
4	5
4	5
4	5
4	6
4	5
4	7
4	5
4	5
4	8
4	5
4	6
4	5
4	9
4	6
4	7
4	6
4	5
4	5
4	5
4	5
4	5
4	5
4	5
4	5
4	6
4	5
4	5
4	5
5	6
5	9
5	6
5	14
5	6
5	7
5	7
5	7
5	6
5	6
5	6
5	6
5	6
5	9
5	6
5	6
5	10
5	6
5	6
5	7
5	6
5	7
6	7
6	7
6	8
6	7
6	7
6	11
6	7
6	8
6	7
6	8
6	7
6	7
6	7
6	7
6	7
6	7
6	8
7	8
7	8
7	8
7	8
7	8
7	8
7	9
7	8
7	8
7	8
7	8
7	8
7	8
8	9
8	9
8	9
8	9
8	9
8	10
8	9
8	9
8	9
8	9
9	10
9	10
9	10
9	10
9	10
10	11
10	11
12	13
12	13
14	15
14	15
14	15
14	15
15	16
15	16
16	17
17	18
20	21
20	21
21	22
22	23
22	23
355	356
2445	2446
