1	6124
1	1710
1	1709
1	1709
1	15
1	14
1	10
1	1709
1	1709
1	1709
1	14
1	1709
1	10
1	1709
1	1709
1	1709
1	1709
1	1709
1	1709
1	11
1	17
1	1709
1	15
1	1709
1	1709
1	1709
1	1709
1	1709
1	1709
1	1709
1	1709
1	1709
1	6124
1	1709
1	1709
1	1709
1	1709
1	1709
1	1709
1	1709
1	17
1	1709
1	1709
1	1709
1	1709
1	11
1	1709
1	1709
1	1709
1	1709
1	20
1	16
1	1709
1	1709
1	1709
1	1709
1	1712
1	1709
1	21
1	1709
1	1709
1	1709
1	1711
1	1709
1	1709
1	1709
1	13
1	1709
1	1709
1	1709
1	1709
1	5
1	1709
1	1709
1	7
1	1709
1	17
1	1709
1	1709
1	43
1	1710
1	1709
1	1709
1	1709
1	1709
1	1709
1	1709
1	14
1	1709
1	1709
1	1709
1	1710
1	1709
1	1709
1	1709
1	1709
1	1709
1	1709
1	1709
1	1709
1	1709
1	1709
1	1709
1	13
1	1710
1	1709
1	1709
1	1709
1	1709
1	1709
1	1709
1	1709
1	1709
1	1709
1	1709
1	1709
1	14
1	1709
1	6124
1	14
1	1709
1	1709
1	1709
1	1709
1	1709
1	1709
1	1709
1	1709
1	1709
1	10
1	1709
1	5
1	10
1	1709
1	1709
1	1709
1	1709
1	1709
1	1709
1	1709
1	1709
1	1709
1	1709
1	1709
1	1709
1	1709
1	10
1	1709
1	1710
1	1709
1	1709
1	14
1	1709
1	1709
1	1709
1	1709
1	1709
1	1709
1	1709
1	1709
1	1709
1	1709
1	1709
1	1709
1	1709
1	1709
1	1709
1	11
1	1709
1	1709
1	14
1	1709
1	1709
1	1709
1	1709
1	14
1	1710
1	1710
1	1709
1	1709
1	1709
1	24
1	1709
1	1709
1	1709
1	1709
1	1709
1	1709
1	16
1	1709
1	1709
1	12
1	1709
1	1709
1	1709
1	1709
1	1709
1	1709
1	12
1	1709
1	1709
1	1709
1	1709
1	1709
1	1709
1	1709
1	1709
1	1709
1	1709
1	11
1	11
1	1709
1	1709
1	1710
1	1709
1	1709
1	1711
1	1709
1	1709
1	1709
1	1709
1	1709
1	9
1	1709
1	1709
1	1709
1	4
1	1709
1	12
1	1709
1	17
1	1709
1	1709
1	10
1	10
1	1709
1	1709
1	1709
1	1709
1	1709
1	1709
1	1709
1	1709
1	1709
1	15
1	1709
1	1709
1	1709
1	8
1	16
1	1709
1	1709
1	15
1	1709
1	1709
1	1709
1	1709
1	1711
1	1709
1	1709
1	17
1	7
1	1709
1	1710
1	12
1	1709
1	1709
1	1709
1	1709
1	1711
1	1709
1	13
1	1709
1	15
1	13
1	1710
1	1709
1	1709
1	1709
1	1709
1	14
1	1709
1	1709
1	1709
1	1709
1	1709
1	10
1	1709
1	1709
1	1709
1	4
1	1710
1	1709
1	1716
1	1709
1	13
1	1709
1	1709
1	1709
1	1709
1	14
1	1709
1	1709
1	1709
1	1709
1	1709
1	1709
1	1709
1	1709
1	1709
1	1709
1	1710
1	1709
1	1709
1	1709
1	1710
1	15
1	1709
1	11
1	14
1	16
1	1709
1	1709
1	15
1	1709
1	1709
1	1709
1	1709
1	1709
1	1709
1	1709
1	1709
1	1709
1	12
1	1709
1	1709
1	1709
1	1709
1	1709
1	1709
1	1709
1	1709
1	1709
1	1709
1	1709
1	1709
1	1709
1	1709
1	1710
1	1709
1	1709
1	1709
1	16
1	1709
1	1709
1	16
1	1709
1	1709
1	1709
1	1709
1	9
1	1709
1	7
1	1709
1	1709
1	1709
1	1709
1	1709
1	1709
1	1709
1	1709
1	1710
1	1709
1	1709
1	1709
1	1709
1	10
1	1709
1	1709
1	1709
1	1709
1	1709
1	1709
1	20
1	1709
1	1709
1	6
1	1709
1	16
1	1709
1	11
1	1709
1	1709
1	1709
1	1709
1	14
1	1709
1	1709
1	16
1	11
1	1709
1	1709
1	1709
1	1709
1	1709
1	12
1	1709
1	1709
1	1709
1	1709
1	1709
1	1709
1	10
1	1709
1	1709
1	8
1	1709
1	1709
1	1709
1	13
1	1709
1	1709
1	13
1	1709
1	16
1	1709
1	1709
1	1709
1	1709
1	1709
1	1709
1	1709
1	12
1	1709
1	1709
1	1709
1	10
1	1709
1	1709
1	1709
1	1709
1	1709
1	1709
1	1709
1	1709
1	1709
1	1709
1	1709
1	1709
1	1709
1	1709
1	9
1	1709
1	1709
1	1709
1	1710
1	1709
1	1709
1	1709
1	1709
1	1709
1	1709
1	1710
1	13
1	8
1	1709
1	12
1	1709
1	1709
1	11
1	1710
1	1709
1	1709
1	1709
1	1709
1	1709
1	1709
1	1709
1	1709
1	1709
1	1709
1	7
1	1709
1	1709
1	1709
1	1709
1	4
1	1709
1	1709
1	1709
1	1709
1	1709
1	1709
1	1710
1	1709
1	1709
1	1709
1	1709
1	1709
1	1709
1	1709
1	1709
1	1709
1	1709
1	1709
1	1709
1	1709
1	1709
1	1709
1	1709
1	1709
1	1709
1	1709
1	1709
1	1709
1	10
1	1709
1	1709
1	1709
1	1709
1	9
1	9
1	12
1	1709
1	1709
1	1709
1	1709
1	11
1	1709
1	1709
1	1709
1	1709
1	16
1	1709
1	1709
1	1709
1	1709
1	14
1	1709
1	1709
1	1709
1	1709
1	8
1	1709
1	1709
1	1709
1	11
1	1709
1	1709
1	1709
1	1709
1	1709
1	1709
1	1709
1	1709
1	12
1	10
1	1709
1	20
1	1709
1	1710
1	1709
1	10
1	1709
1	1709
1	1709
1	1709
1	1709
1	1709
1	1709
1	1709
1	1709
1	1709
1	1709
1	1709
1	1709
1	1709
1	1709
1	1710
1	1709
1	16
1	16
1	14
1	1709
1	1709
1	1709
1	1709
1	1711
1	1709
1	1709
1	1709
1	15
1	1709
1	1709
1	1709
1	16
1	1709
1	1709
1	1709
1	1709
1	12
1	1709
1	1709
1	1709
1	1709
1	1709
1	1709
1	1709
1	1709
1	1709
1	4
1	1709
1	9
1	1709
1	1709
1	1709
1	1709
1	1709
1	1709
1	1709
1	1709
1	1709
1	1709
1	1709
1	1709
1	1709
1	1709
1	1709
1	1709
1	1709
1	1709
1	1709
1	1709
1	1709
1	1709
1	1709
1	9
1	1709
1	1709
1	1709
1	1710
1	1709
1	1709
1	1709
1	1709
1	1709
1	1709
1	6
1	1709
1	1709
1	1709
1	9
1	16
1	1709
1	8
1	1709
1	1709
1	1709
1	1709
1	10
1	1709
1	1709
1	1709
1	1709
1	1709
1	7
1	6124
1	1709
1	1709
1	10
1	1709
1	1709
1	1709
1	1709
1	1709
1	15
1	22
1	1709
1	1709
1	1709
1	1709
1	6
1	1709
1	1709
1	7
1	1709
1	1709
1	1709
1	1709
1	1709
1	12
1	1709
1	1709
1	1709
1	1709
1	1709
1	1709
1	1709
1	1709
1	1709
1	6
1	1709
1	1709
1	7
1	1709
1	9
1	8
1	24
1	15
1	9
1	1709
1	13
1	1709
1	1709
1	9
1	1709
1	1709
1	1709
1	1709
1	1709
1	11
1	1709
1	1709
1	1709
1	1709
1	1710
1	1709
1	1709
1	1709
1	1709
1	1709
1	1709
1	1709
1	16
1	1709
1	1709
1	1709
1	1709
1	1709
1	1709
1	1709
1	1710
1	1709
1	22
1	1709
1	9
1	1709
1	1709
1	8
1	1709
1	1709
1	1709
1	1709
1	1709
1	1709
1	1709
1	1709
1	1709
1	1709
1	10
1	1709
1	1709
1	1709
1	1709
1	1709
1	1709
1	1709
1	1710
1	1709
1	1709
1	1709
1	1709
1	1709
1	9
1	1709
1	1709
1	1709
1	1709
1	1709
1	1709
1	7
1	1709
1	1709
1	1709
1	5
1	6
1	1709
1	1709
1	1709
1	1709
1	1709
1	9
1	1709
1	13
1	7
1	13
1	1709
1	1709
1	9
1	8
1	1709
1	1709
1	1709
1	1709
1	1709
1	1709
1	1709
1	1709
1	1709
1	1709
1	1709
1	11
1	1709
1	1709
1	5
1	1709
1	1709
1	1709
1	1709
1	1709
1	1709
1	1709
1	1709
1	1710
1	1709
1	1709
1	1709
1	1709
1	1709
1	1709
1	1709
1	1709
1	1709
1	1709
1	1709
1	1709
1	1710
1	8
1	2
1	1709
1	22
1	1709
1	1709
1	1709
1	1709
1	1709
1	1710
1	1709
1	1709
1	1709
1	1709
1	1709
1	1709
1	2
1	1709
1	22
1	1711
1	1709
1	1709
1	13
1	7
1	1709
1	1709
1	9
1	1709
1	1709
1	1711
1	1709
1	1709
1	1709
1	6
1	1709
1	9
1	1709
1	1709
1	1709
1	11
1	9
1	1709
1	1709
1	1710
1	1709
1	1709
1	1709
1	9
1	1709
1	1709
1	1709
1	13
1	1709
1	13
1	1709
1	1709
1	1709
1	1709
1	1709
1	1709
1	22
1	1709
1	1709
1	1709
1	14
1	12
1	1709
1	1709
1	1709
1	1709
1	14
1	1709
1	1709
1	1709
1	1709
1	1709
1	15
1	1709
1	1710
1	1709
1	1709
1	1709
1	1709
1	1709
1	1709
1	7
1	1710
1	1709
1	1709
1	1709
1	6
1	1709
1	25
1	1709
1	1709
1	1709
1	1709
1	1709
1	1709
1	1709
1	1709
1	1709
1	1709
1	1709
1	7
1	1709
1	1709
1	5
1	1709
1	1709
1	1709
1	1709
1	1709
1	1709
1	1709
1	1709
1	1709
1	1709
1	1709
1	1709
1	1709
1	1709
1	1709
1	1709
1	1709
1	1709
1	1709
1	5
1	1709
1	1709
1	1709
1	1709
1	1709
1	1709
1	1709
1	1709
1	1709
1	1709
1	1710
1	9
1	13
1	1709
1	1709
1	4
1	1709
1	1709
1	1709
1	1709
1	1709
1	14
1	1709
1	1709
1	1709
1	1709
1	1709
1	8
1	1709
1	1709
1	1709
1	1709
1	1709
1	4
1	1709
1	1709
1	1709
1	15
1	1711
1	17
1	1709
1	15
1	1709
1	1709
1	1709
1	1709
1	6
1	8
1	1709
1	1709
1	42
1	1709
1	1709
1	1709
1	1709
1	1709
1	1709
1	1709
1	1709
1	1709
1	5
1	1709
1	1709
1	1709
1	1709
1	1709
1	1709
1	1709
1	1709
1	1709
1	1709
1	1709
1	1710
1	1709
1	1709
1	10
1	1709
1	8
1	1709
1	9
1	1709
1	1709
1	1709
1	8
1	16
1	1709
1	16
1	1709
1	1709
1	1709
1	7
1	1709
1	1709
1	1709
1	1709
1	1710
1	1709
1	1709
1	1709
1	1709
1	1709
1	1709
1	1709
1	1709
1	1709
1	1709
1	1709
1	1709
1	1709
1	5
1	1709
1	1709
1	1709
1	1709
1	1709
1	1709
1	1709
1	1709
1	1709
1	5
1	1709
1	1709
1	1709
1	1709
1	1709
1	1709
1	1709
1	1709
1	12
1	1709
1	1709
1	1709
1	1709
1	1709
1	8
1	1709
1	22
1	1709
1	1709
1	1709
1	10
1	1709
1	1709
1	1709
1	1709
1	16
1	1709
1	1709
1	1709
1	1709
1	14
1	1709
1	1709
1	1709
1	1709
1	14
1	13
1	17
1	1709
1	1709
1	9
1	1709
1	1709
1	1709
1	1709
1	1709
1	1710
1	1709
1	1709
1	1709
1	1709
1	1709
1	1709
1	1709
1	1709
1	1709
1	1709
1	1709
1	1709
1	1709
1	11
1	1709
1	1709
1	19
1	1709
1	18
1	1709
1	7
1	1709
1	19
1	1709
1	1709
1	1709
1	1709
1	1709
1	1709
1	1709
1	1709
1	1709
1	1709
1	11
1	1709
1	14
1	1709
1	1709
1	1709
1	1709
1	11
1	1709
1	1709
1	1710
1	1709
1	1709
1	1709
1	1709
1	1709
1	1709
1	1709
1	16
1	1709
1	1709
1	6
1	1709
1	1709
1	1709
1	1709
1	1709
1	1709
1	1709
1	22
1	6
1	1709
1	1709
1	1710
1	1709
1	1709
1	1709
1	1709
1	1709
1	13
1	7
1	1709
1	1709
1	1709
1	1709
1	1709
1	1709
1	1709
1	1709
1	1709
1	1709
1	1709
1	14
1	1709
1	1709
1	1709
1	8
1	1709
1	1709
1	7
1	1709
1	1709
1	1709
1	1709
1	1709
1	1709
1	1709
1	1709
1	22
1	14
1	1709
1	1709
1	1709
1	1709
1	1710
1	1709
1	13
1	1709
1	1709
1	1709
1	1709
1	1709
1	1709
1	1709
1	11
1	1709
1	1709
1	1709
1	1709
1	1709
1	1709
1	1709
1	1709
1	10
1	1709
1	1709
1	1709
1	1709
1	1709
1	1709
1	11
1	1709
1	1709
1	1709
1	1709
1	1709
1	1709
1	1709
1	6
1	1709
1	1709
1	1710
1	1709
1	11
1	1709
1	8
1	1709
1	1709
1	1709
1	1709
1	1709
1	1709
1	16
1	1709
1	1709
1	1709
1	1709
1	1709
1	1709
1	1709
1	1709
1	1709
1	1709
1	1709
1	14
1	9
1	1709
1	6
1	1709
1	14
1	1709
1	1709
1	9
1	1709
1	1709
1	7
1	13
1	1709
1	1709
1	1710
1	1709
1	1709
1	1709
1	1709
1	1709
1	10
1	1709
1	1709
1	1709
1	1709
1	1709
1	1709
1	1710
1	1709
1	1709
1	1709
1	1709
1	12
1	1709
1	1709
1	1709
1	1710
1	1709
1	1709
1	19
1	13
1	10
1	1709
1	1709
1	11
1	7
1	1709
1	1709
1	1709
1	1709
1	1709
1	1709
1	1709
1	9
1	1709
1	13
1	1709
1	1709
1	8
1	1709
1	12
1	8
1	1709
1	1709
1	1709
1	1709
1	1709
1	1709
1	7
1	1709
1	1709
1	1709
1	1709
1	1709
1	1709
1	12
1	1709
1	1709
1	1709
1	12
1	1709
1	1709
1	13
1	1709
1	1709
1	1709
1	1709
1	1709
1	1709
1	1709
1	1709
1	1709
1	1709
1	11
1	1709
1	5
1	1709
1	1709
1	1709
1	1709
1	1709
1	1709
1	1709
1	1709
1	1709
1	1709
1	1709
1	1709
1	8
1	1709
1	1709
1	1709
1	1709
1	1709
1	1709
1	1709
1	1709
1	1709
1	1709
1	1709
1	1709
1	10
1	5
1	1709
1	1709
1	1709
1	1709
1	1709
1	1709
1	1709
1	7
1	1709
1	1709
1	1709
1	13
1	1709
1	12
1	1709
1	1709
1	1709
1	1709
1	1709
1	1709
1	1709
1	1709
1	22
1	1709
1	7
1	1709
1	1709
1	1709
1	12
1	7
1	1709
1	4
1	6
1	1709
1	1709
1	8
1	1709
1	1709
1	1709
1	1709
1	8
1	1709
1	1709
1	1709
1	4
1	1709
1	1709
1	9
1	1709
1	1709
1	1709
1	1709
1	1709
1	14
1	5
1	18
1	1709
1	1709
1	13
1	1709
1	1709
1	1709
1	1709
1	1709
1	1709
1	1709
1	1709
1	1709
1	6124
1	1709
1	12
1	1709
1	1709
1	1709
1	1709
1	1709
1	1709
1	1709
1	1709
1	1709
1	26
1	7
1	1710
1	1710
1	1709
1	23
1	1709
1	1709
1	1709
1	9
1	12
1	10
1	8
1	1709
1	6
1	1709
1	1709
1	1709
1	7
1	15
1	8
1	1709
1	1709
1	8
1	1709
1	1709
1	1709
1	8
1	6
1	1709
1	1709
1	1709
1	1709
1	1709
1	1709
1	8
1	9
1	1709
1	1709
1	1709
1	1709
1	1709
1	1709
1	1709
1	9
1	1709
1	14
1	1709
1	1709
1	1709
1	1709
1	1709
1	1709
1	1709
1	1709
1	1709
1	1709
1	1709
1	1709
1	1709
1	1709
1	1709
1	1709
1	1709
1	1709
1	1709
1	1709
1	1710
1	1709
1	1709
1	1709
1	1709
1	1709
1	1709
1	1709
1	16
1	1710
1	6
1	1709
1	14
1	1709
1	1709
1	1709
1	1709
1	1709
1	1709
1	9
1	1709
1	1709
1	1709
1	1709
1	1709
1	13
1	1709
1	18
1	1709
1	1709
1	13
1	14
1	1709
1	1709
1	1709
1	3
1	1709
1	11
1	1709
1	1709
1	14
1	1709
1	1709
1	1709
1	1709
1	1709
1	1709
1	1709
1	1709
1	1709
1	1709
1	9
1	14
1	2
1	1709
1	13
1	1709
1	13
1	1709
1	14
1	15
1	1709
1	1709
1	1709
1	1709
1	1709
1	1709
1	1709
1	1709
1	9
1	1709
1	1709
1	9
1	1710
1	1709
1	9
1	1709
1	1709
1	1709
1	1709
1	1709
1	1709
1	1709
1	1709
1	1709
1	1709
1	1709
1	1709
1	1709
1	41
1	14
1	1709
1	1709
1	1710
1	8
1	1709
1	1709
1	1709
1	1709
1	6
1	1709
1	1709
1	9
1	1709
1	1709
1	7
1	1709
1	1709
1	14
1	1709
1	14
1	1709
1	1709
1	1709
1	1709
1	1709
1	1709
1	1709
1	6
1	13
1	1709
1	10
1	1709
1	1709
1	6
1	1709
1	11
1	5
1	1709
1	1709
1	1709
1	8
1	1709
1	16
1	19
1	1709
1	9
1	1709
1	1709
1	1709
1	1709
1	1709
1	1709
1	1710
1	1709
1	1709
1	1709
1	1709
1	1709
1	1709
1	1709
1	10
1	1709
1	15
1	1709
1	1709
1	1709
1	1709
1	1709
1	1709
1	1709
1	1709
1	9
1	1709
1	1709
1	1709
1	1709
1	1709
1	1709
1	1709
1	1709
1	1709
1	1709
1	1709
1	9
1	1709
1	1709
1	1709
1	1709
1	1709
1	1709
1	1709
1	1709
1	1709
1	1709
1	1709
1	1709
1	1709
1	1709
1	1709
1	1709
1	15
1	12
1	1709
1	1709
1	10
1	1709
1	1709
1	1709
1	1709
1	7
1	1709
1	1709
1	1709
1	1709
1	42
1	1709
1	1709
1	14
1	14
1	1709
1	1709
1	13
1	1709
1	1709
1	1709
1	1709
1	1709
1	1709
1	1709
1	1709
1	1709
1	1709
1	1709
1	1709
1	1709
1	1709
1	1710
1	1709
1	1709
1	1709
1	1709
1	1710
1	1709
1	1709
1	7
1	1709
1	1709
1	6
1	1709
1	1709
1	1709
1	13
1	1709
1	1710
1	1709
1	1709
1	12
1	1709
1	1709
1	1709
1	1709
1	1709
1	1709
1	1709
1	1709
1	8
1	14
1	1709
1	1709
1	1709
1	1709
1	1709
1	1709
1	1709
1	1709
1	1710
1	1709
1	1709
1	1709
1	1709
1	1709
1	1709
1	1709
1	1709
1	1709
1	1709
1	1709
1	1709
1	1709
1	6
1	1709
1	1709
1	9
1	1709
1	1709
1	1709
1	7
2	9
2	1710
2	3
2	1710
2	10
2	10
2	41
2	6
2	5
2	1710
2	9
2	7
2	3
2	3
2	9
2	1710
2	1710
2	7
2	6
2	41
2	3
2	8
2	1710
2	6
2	3
2	13
2	3
2	9
2	11
2	3
2	3
2	6
2	10
2	5
2	7
2	7
2	41
2	3
2	3
2	3
2	6
2	3
2	1710
2	3
2	3
2	1710
2	8
2	7
2	8
2	5
2	3
2	14
2	12
2	1710
2	23
2	1710
2	6
2	41
2	3
2	4
2	3
2	4
2	7
2	5
2	10
2	14
2	3
2	5
2	3
2	5
2	3
2	4
2	4
2	15
2	11
2	4
2	3
2	3
2	5
2	3
2	3
2	3
2	3
2	5
2	1710
2	10
2	6
2	3
2	4
2	4
2	3
2	7
2	5
2	6
2	41
2	13
2	6
2	13
2	3
2	3
2	41
2	41
2	23
2	41
2	4
2	12
2	3
2	23
2	11
2	7
2	6
2	3
2	23
2	5
2	4
2	5
2	41
2	4
2	9
2	11
2	1710
2	41
2	3
2	3
2	3
2	6
2	7
2	1710
2	3
2	5
2	12
2	9
2	7
2	5
2	3
2	3
2	9
2	12
2	41
2	15
2	13
2	5
2	6
2	3
2	4
2	10
2	6
2	3
2	19
2	8
2	4
2	41
2	4
2	41
2	41
2	7
2	5
2	7
2	3
2	6
2	4
2	1710
2	4
2	6
2	41
2	6
2	3
2	12
2	4
2	4
2	8
2	3
2	3
2	6
2	13
2	41
2	4
2	4
2	7
2	9
2	5
2	3
2	3
2	4
2	3
2	4
2	4
2	4
2	3
2	3
2	3
2	6
2	3
2	3
2	3
2	3
2	4
2	12
2	4
2	6
2	5
2	14
2	3
2	41
2	3
2	4
2	13
2	3
2	41
2	14
2	41
2	3
2	4
2	3
2	15
2	3
2	3
2	9
2	4
2	15
2	6
2	4
2	6
2	10
2	7
2	4
2	3
2	4
2	41
2	5
2	4
2	9
2	5
2	7
2	7
2	7
2	7
2	3
2	41
2	15
2	3
2	41
2	3
2	4
2	14
2	3
2	11
2	7
2	4
2	14
2	5
2	12
2	4
2	3
2	3
2	7
2	12
2	3
2	3
2	4
2	3
2	5
2	8
2	3
2	11
2	4
2	7
2	5
2	14
2	4
2	4
2	3
2	4
2	3
2	7
2	4
2	41
2	12
2	4
2	3
2	41
2	10
2	41
2	4
2	41
2	7
2	10
2	5
2	4
2	6
2	4
2	4
2	14
3	4
3	6
3	7
3	4
3	7
3	4
3	9
3	4
3	5
3	4
3	9
3	4
3	4
3	14
3	4
3	5
3	4
3	6
3	4
3	4
3	11
3	7
3	4
3	5
3	4
3	4
3	4
3	5
3	5
3	4
3	9
3	4
3	5
3	4
3	18
3	4
3	4
3	4
3	4
3	5
3	5
3	4
3	5
3	4
3	8
3	4
3	8
3	6
3	14
3	5
3	11
3	5
3	6
3	5
3	5
3	4
3	5
3	4
3	5
3	5
3	4
3	5
3	14
3	5
3	4
3	4
3	4
3	5
3	4
3	5
3	4
3	6
3	4
3	8
3	4
3	5
3	5
3	5
3	7
3	10
3	4
3	6
3	4
3	4
3	4
3	5
3	5
3	4
3	7
3	4
3	4
3	4
3	4
3	4
3	4
4	5
4	5
4	5
4	5
4	5
4	6
4	5
4	5
4	7
4	6
4	5
4	6
4	5
4	5
4	5
4	5
4	5
4	7
4	5
4	5
4	6
4	5
4	6
4	6
4	5
4	5
4	6
4	5
4	5
4	6
4	8
4	5
4	6
4	6
4	7
4	5
5	6
5	6
5	6
5	7
5	6
5	7
5	6
5	6
5	7
5	6
5	6
5	6
5	6
5	6
5	6
5	6
5	7
5	6
5	6
5	6
6	7
6	7
6	7
6	7
6	7
6	7
6	7
6	9
6	7
6	7
6	7
6	7
6	7
7	8
7	8
7	8
7	8
7	8
7	8
7	8
7	8
7	8
7	8
7	9
8	9
8	9
8	9
8	9
8	9
8	9
8	10
8	9
8	9
8	9
8	9
8	9
9	10
9	10
9	11
9	10
10	11
10	11
10	12
11	12
11	12
11	13
11	12
11	12
11	12
11	12
12	13
12	13
12	13
12	13
13	14
13	14
13	14
13	14
14	15
15	16
15	16
17	18
21	22
39	41
1708	1709
