1	6124
1	154
1	154
1	154
1	159
1	154
1	154
1	154
1	154
1	154
1	154
1	154
1	154
1	154
1	154
1	154
1	6124
1	154
1	154
1	156
1	154
1	8
1	154
1	155
1	156
1	155
1	4
1	157
1	5
1	154
1	154
1	154
1	157
1	154
1	154
1	155
1	154
1	154
1	6
1	156
1	154
1	154
1	154
1	154
1	154
1	154
1	154
1	155
1	7
1	154
1	154
1	154
1	154
1	6
1	154
1	154
1	7
1	154
1	154
1	155
1	154
1	154
1	154
1	154
1	154
1	155
1	155
1	155
1	154
1	154
1	154
1	154
1	155
1	154
1	154
1	7
1	5
1	154
1	154
1	154
1	154
1	155
1	154
1	154
1	7
1	154
1	155
1	7
1	8
1	154
1	154
1	154
1	7
1	2
1	154
1	6
1	155
1	4
1	154
1	154
1	154
1	154
1	154
1	154
1	155
1	154
1	154
1	154
1	155
1	154
1	4
1	154
1	6
1	155
1	6
1	154
1	154
1	154
1	154
1	154
1	7
1	7
1	154
1	154
1	154
1	154
1	154
1	154
1	155
1	154
1	154
1	154
1	154
1	154
1	154
1	154
1	154
1	5
1	7
1	154
1	154
1	154
1	154
1	154
1	154
1	154
1	154
1	154
1	154
1	154
1	154
1	154
1	6
1	154
1	155
1	154
1	154
1	6
1	154
1	154
1	154
1	154
1	154
1	154
2	155
2	155
2	3
2	5
2	3
2	6
2	7
2	3
2	155
2	3
2	3
2	7
2	3
2	3
2	7
2	4
2	6
2	3
2	3
2	4
2	3
2	4
2	3
2	3
2	6
2	6
2	3
2	3
2	3
2	3
2	3
2	4
2	4
2	5
3	4
3	4
3	4
3	5
3	4
3	7
3	4
3	4
4	5
4	5
4	5
4	5
4	6
4	5
4	5
4	6
5	6
5	6
5	6
6	7
153	154
