1	6124
1	556
1	13
1	555
1	555
1	555
1	22
1	555
1	13
1	15
1	12
1	12
1	555
1	555
1	555
1	555
1	13
1	555
1	11
1	555
1	12
1	555
1	555
1	20
1	555
1	12
1	555
1	17
1	555
1	555
1	555
1	15
1	9
1	555
1	555
1	555
1	12
1	12
1	17
1	13
1	12
1	555
1	555
1	555
1	15
1	555
1	555
1	555
1	555
1	11
1	555
1	555
1	555
1	556
1	555
1	555
1	555
1	9
1	555
1	555
1	20
1	555
1	555
1	10
1	9
1	23
1	556
1	11
1	555
1	555
1	11
1	15
1	14
1	555
1	555
1	16
1	16
1	14
1	17
1	14
1	22
1	555
1	16
1	555
1	555
1	5
1	555
1	555
1	11
1	555
1	10
1	555
1	555
1	11
1	19
1	20
1	555
1	22
1	555
1	555
1	10
1	6124
1	11
1	18
1	16
1	555
1	555
1	555
1	555
1	12
1	5
1	21
1	555
1	555
1	555
1	11
1	22
1	10
1	13
1	19
1	555
1	10
1	16
1	555
1	555
1	10
1	555
1	555
1	15
1	27
1	555
1	555
1	11
1	22
1	555
1	555
1	555
1	555
1	19
1	555
1	13
1	555
1	555
1	555
1	555
1	8
1	20
1	19
1	555
1	11
1	14
1	12
1	555
1	8
1	555
1	555
1	7
1	6
1	555
1	555
1	13
1	555
1	555
1	26
1	17
1	555
1	555
1	555
1	10
1	12
1	20
1	555
1	10
1	555
1	19
1	555
1	11
1	555
1	22
1	6
1	7
1	555
1	555
1	9
1	555
1	555
1	555
1	16
1	555
1	555
1	8
1	555
1	21
1	17
1	11
1	555
1	555
1	555
1	555
1	555
1	555
1	14
1	556
1	14
1	9
1	555
1	555
1	556
1	555
1	555
1	555
1	555
1	10
1	7
1	555
1	555
1	11
1	8
1	12
1	555
1	19
1	555
1	9
1	555
1	11
1	11
1	555
1	8
1	557
1	555
1	21
1	555
1	556
1	555
1	555
1	4
1	9
1	555
1	555
1	555
1	555
1	555
1	12
1	8
1	555
1	555
1	555
1	19
1	21
1	21
1	555
1	555
1	555
1	555
1	19
1	8
1	18
1	555
1	555
1	555
1	11
1	555
1	22
1	555
1	6124
1	555
1	555
1	555
1	555
1	21
1	555
1	16
1	555
1	555
1	555
1	555
1	21
1	555
1	555
1	555
1	8
1	555
1	555
1	555
1	11
1	7
1	555
1	11
1	555
1	555
1	20
1	555
1	11
1	14
1	555
1	555
1	555
1	555
1	556
1	555
1	555
1	555
1	555
1	555
1	555
1	10
1	555
1	555
1	555
1	555
1	555
1	8
1	12
1	556
1	10
1	10
1	555
1	555
1	555
1	555
1	555
1	555
1	555
1	556
1	555
1	555
1	555
1	16
1	7
1	6124
1	5
1	555
1	555
1	10
1	5
1	555
1	7
1	7
1	16
1	9
1	555
1	555
1	555
1	555
1	555
1	9
1	555
1	555
1	555
1	8
1	8
1	555
1	2
1	555
1	555
1	555
1	10
1	555
1	555
1	555
1	555
1	555
1	555
1	16
1	18
1	10
1	555
1	555
1	16
1	5
1	555
1	555
1	555
1	555
1	555
1	555
1	555
1	7
1	555
1	555
1	21
1	5
1	555
1	7
1	555
1	19
1	556
1	555
1	555
1	555
1	555
1	12
1	555
1	6
1	555
1	555
1	555
1	555
1	5
1	17
1	555
1	555
1	555
1	555
1	10
1	555
1	555
1	11
1	6
1	555
1	19
1	23
1	555
1	16
1	555
1	7
1	555
1	8
1	555
1	15
1	10
1	555
1	555
1	555
1	555
1	555
1	555
1	11
1	555
1	555
1	556
1	555
1	555
1	12
1	555
1	555
1	17
1	555
1	20
1	22
1	555
1	7
1	555
1	555
1	555
1	555
1	555
1	555
1	19
1	556
1	9
1	555
1	555
1	7
1	16
1	555
1	5
1	20
1	555
1	555
1	4
1	7
1	14
1	555
1	555
1	555
1	555
1	555
1	555
1	19
1	555
1	10
1	11
1	22
1	9
1	555
1	16
1	11
1	555
1	555
1	555
1	555
1	555
1	555
1	5
1	555
1	555
1	555
1	555
1	555
1	555
1	555
1	14
1	555
1	17
1	6
1	555
1	5
1	11
1	14
1	555
1	555
1	555
1	555
1	21
1	555
1	18
1	22
1	10
1	6
1	16
1	555
1	555
1	13
1	555
1	555
1	555
1	4
1	555
1	6
1	555
1	8
1	13
1	555
1	555
1	16
1	555
1	7
1	10
1	6
1	555
1	6
1	555
1	555
1	555
1	555
1	555
1	555
1	555
1	8
1	555
1	15
1	556
1	555
1	555
1	10
1	21
1	4
1	555
1	555
1	4
1	555
1	555
1	555
1	555
1	555
1	13
1	7
1	7
1	555
1	555
1	555
1	18
1	6
1	9
1	9
1	555
1	21
1	9
1	555
1	555
1	555
1	555
1	555
1	555
1	555
1	15
1	6124
1	7
1	555
1	555
1	556
1	555
1	555
1	10
1	555
1	9
1	11
1	555
1	9
1	555
1	10
1	555
1	6124
1	555
1	555
1	12
1	556
1	16
1	7
1	5
1	19
1	555
1	556
1	15
1	10
1	10
1	10
1	5
1	555
1	556
1	22
1	555
1	555
1	555
1	555
1	556
1	555
1	15
1	555
1	555
1	6124
1	4
1	555
1	555
1	555
1	555
1	555
1	555
1	17
1	9
1	9
1	13
1	2
1	555
1	8
1	16
1	7
1	555
1	555
1	8
1	8
1	26
1	10
1	555
1	555
1	7
1	19
1	8
1	21
1	555
1	7
1	555
1	555
1	8
1	21
1	555
1	4
1	555
1	19
1	555
1	10
1	555
1	555
1	8
1	555
1	556
1	7
1	2
1	556
1	21
1	555
1	555
1	555
1	7
1	21
1	13
1	555
1	555
1	16
1	13
1	19
1	16
1	555
1	555
1	555
1	555
1	555
1	556
1	9
1	555
1	555
1	7
1	8
1	555
1	7
1	555
1	555
1	555
1	555
1	555
1	556
1	555
1	555
1	555
1	555
1	555
1	555
1	8
1	555
1	555
1	555
1	555
1	13
1	7
1	555
1	5
1	11
1	555
1	6
1	555
1	555
1	555
1	19
1	555
1	9
1	555
1	555
1	10
1	555
1	555
1	555
1	555
1	555
1	555
1	7
1	10
1	555
1	7
1	16
1	555
1	555
1	555
1	9
1	11
1	555
1	555
1	555
1	2
1	555
1	10
1	555
1	555
2	5
2	8
2	11
2	8
2	8
2	3
2	8
2	3
2	3
2	7
2	15
2	8
2	12
2	9
2	3
2	8
2	7
2	9
2	3
2	13
2	7
2	8
2	3
2	4
2	8
2	7
2	9
2	3
2	3
2	4
2	8
2	3
2	556
2	556
2	3
2	3
2	3
2	11
2	6
2	19
2	3
2	3
2	7
2	3
2	6
2	10
2	8
2	8
2	5
2	3
2	7
2	3
2	7
2	7
2	3
2	3
2	5
2	3
2	22
2	7
2	5
2	3
2	16
2	7
2	4
2	3
2	10
2	3
2	21
2	3
2	6
2	4
2	13
2	7
2	11
2	4
2	3
2	556
2	3
2	5
2	3
2	4
2	5
2	10
2	14
2	6
2	4
2	8
2	21
2	4
2	5
2	4
2	17
2	556
2	8
2	7
2	22
2	3
2	6
2	3
2	7
2	3
2	4
2	9
2	3
2	4
2	4
2	3
2	17
2	4
2	6
2	9
2	4
2	6
2	10
2	9
2	3
2	4
2	4
2	3
2	6
2	4
2	12
2	3
2	9
2	3
2	4
2	6
2	4
2	3
2	16
2	9
2	4
2	4
2	4
2	10
2	5
2	4
2	6
2	4
2	3
2	8
2	20
2	3
2	4
2	5
2	8
2	3
2	4
2	4
2	5
2	10
2	5
2	7
2	5
2	5
2	3
2	3
2	3
2	3
2	10
2	7
2	6
2	3
2	3
2	5
2	27
2	6
2	5
2	6
2	10
2	3
2	6
3	4
3	5
3	5
3	5
3	5
3	5
3	5
3	4
3	5
3	4
3	4
3	10
3	4
3	5
3	7
3	4
3	4
3	7
3	7
3	5
3	6
3	4
3	11
3	4
3	10
3	4
3	4
3	5
3	6
3	9
3	10
3	9
3	4
3	5
3	5
3	5
3	6
3	4
3	6
3	4
3	4
3	7
3	6
3	4
3	9
3	8
3	5
3	7
3	4
3	5
3	6
3	4
3	4
3	4
3	5
3	15
3	8
3	4
3	5
3	4
3	6
3	7
3	4
3	4
3	5
3	7
3	8
3	9
3	5
3	4
3	5
3	5
3	17
3	5
3	6
3	4
3	4
3	4
3	4
3	5
3	4
4	5
4	5
4	5
4	6
4	5
4	6
4	5
4	5
4	5
4	5
4	6
4	5
4	7
4	5
4	5
4	7
4	5
4	5
4	6
4	7
4	5
4	5
4	6
4	7
4	5
4	5
4	6
4	5
4	7
4	6
4	7
4	6
4	5
4	9
4	6
4	5
4	5
4	5
4	6
4	6
4	5
5	7
5	6
5	6
5	7
5	6
5	6
5	7
5	7
5	6
5	7
5	6
5	6
5	6
5	6
5	7
5	7
5	6
5	6
5	8
5	6
5	8
5	6
5	6
5	6
5	6
5	7
5	10
5	7
5	6
6	7
6	8
6	7
6	7
6	7
6	8
6	7
6	7
6	7
6	7
6	7
6	7
6	7
6	7
6	8
6	7
6	8
6	8
6	7
6	7
7	8
7	8
7	9
7	9
7	8
7	8
7	8
7	8
7	9
7	9
7	8
7	8
8	9
8	9
8	9
8	9
9	10
9	10
9	10
9	10
9	10
9	10
9	10
10	11
10	11
10	12
10	11
10	11
11	12
11	12
12	13
12	13
13	14
13	14
14	15
14	15
14	15
15	16
15	16
15	16
15	16
17	18
18	19
18	19
19	20
20	21
20	21
21	22
25	27
554	555
