1	6124
1	1691
1	1691
1	1691
1	1692
1	23
1	1694
1	13
1	13
1	28
1	21
1	1691
1	12
1	1691
1	17
1	1691
1	1691
1	1691
1	17
1	1691
1	1691
1	1691
1	1691
1	45
1	1693
1	1691
1	1691
1	1691
1	1691
1	1691
1	1691
1	1691
1	12
1	1691
1	1691
1	1691
1	12
1	1691
1	14
1	13
1	1691
1	16
1	1691
1	1691
1	14
1	1691
1	21
1	1691
1	11
1	25
1	1695
1	22
1	1691
1	1691
1	1691
1	1691
1	12
1	1691
1	1693
1	11
1	1691
1	11
1	1691
1	21
1	1694
1	1692
1	1691
1	1691
1	1691
1	1691
1	11
1	1691
1	5
1	9
1	1691
1	1691
1	1691
1	43
1	1691
1	1691
1	1691
1	1691
1	22
1	1691
1	1691
1	1691
1	1691
1	1691
1	1691
1	1691
1	1691
1	1691
1	18
1	1692
1	1691
1	1691
1	1691
1	1691
1	1691
1	1691
1	1691
1	1691
1	1691
1	1691
1	1691
1	1691
1	1691
1	1691
1	1691
1	1691
1	20
1	1691
1	1691
1	1691
1	1691
1	1691
1	1691
1	1691
1	1691
1	1691
1	1691
1	1691
1	1691
1	1691
1	1691
1	19
1	1691
1	1691
1	22
1	1691
1	1691
1	1691
1	1691
1	1691
1	1691
1	1691
1	1692
1	1691
1	1691
1	12
1	11
1	1691
1	12
1	1691
1	15
1	1691
1	1691
1	1691
1	1691
1	15
1	1691
1	1691
1	1691
1	1699
1	1691
1	1691
1	1691
1	1691
1	1691
1	1691
1	13
1	1691
1	1691
1	1691
1	1691
1	20
1	15
1	1691
1	1691
1	17
1	1691
1	18
1	1691
1	24
1	49
1	1691
1	1691
1	1691
1	16
1	1691
1	1691
1	13
1	27
1	10
1	1691
1	11
1	1691
1	1691
1	20
1	10
1	1691
1	1691
1	1691
1	11
1	12
1	1691
1	1691
1	1691
1	9
1	1691
1	1691
1	1691
1	1691
1	42
1	10
1	1691
1	42
1	1691
1	9
1	1691
1	1691
1	1691
1	1691
1	1691
1	1691
1	16
1	1691
1	1691
1	1691
1	1691
1	1691
1	27
1	10
1	1691
1	1691
1	1691
1	1691
1	1691
1	1691
1	13
1	1691
1	1691
1	12
1	1691
1	13
1	1691
1	1691
1	1691
1	1691
1	1691
1	9
1	1691
1	22
1	1691
1	1691
1	1691
1	14
1	1691
1	1691
1	1691
1	1691
1	1691
1	43
1	1691
1	1691
1	11
1	1691
1	1691
1	1691
1	1691
1	11
1	1691
1	1691
1	1691
1	9
1	1691
1	1691
1	1691
1	24
1	27
1	14
1	1691
1	1691
1	21
1	18
1	1691
1	14
1	1691
1	1691
1	1691
1	11
1	8
1	1691
1	22
1	1691
1	1691
1	1691
1	1691
1	1691
1	16
1	1691
1	1691
1	1692
1	1691
1	1691
1	1691
1	1692
1	1691
1	13
1	10
1	9
1	14
1	15
1	1691
1	1691
1	24
1	1691
1	1692
1	1691
1	1691
1	1691
1	10
1	1691
1	1691
1	1691
1	1691
1	12
1	1691
1	1691
1	1691
1	8
1	1691
1	20
1	1691
1	1691
1	1691
1	1691
1	1691
1	1691
1	1692
1	18
1	1693
1	1691
1	1691
1	42
1	1691
1	1691
1	1691
1	1691
1	8
1	1691
1	1691
1	1691
1	20
1	1691
1	1691
1	1691
1	1691
1	1691
1	1691
1	1691
1	1691
1	1691
1	1691
1	1691
1	1691
1	1691
1	1691
1	1691
1	1692
1	1691
1	17
1	1691
1	8
1	12
1	1691
1	1691
1	1691
1	1691
1	1691
1	1691
1	1691
1	1691
1	1691
1	20
1	43
1	9
1	1691
1	1691
1	1691
1	1691
1	1692
1	24
1	1691
1	1691
1	1691
1	1691
1	14
1	1691
1	1691
1	1691
1	1691
1	1691
1	1691
1	1691
1	1691
1	1691
1	1691
1	1692
1	1691
1	1691
1	23
1	1691
1	20
1	1691
1	1691
1	13
1	1691
1	1691
1	1691
1	1691
1	1691
1	10
1	1691
1	12
1	1691
1	4
1	1691
1	12
1	1691
1	12
1	8
1	1691
1	1691
1	1691
1	1691
1	1691
1	9
1	22
1	1691
1	1691
1	1691
1	1691
1	1691
1	22
1	1691
1	1691
1	1691
1	1691
1	1691
1	1692
1	47
1	1691
1	1693
1	1691
1	1691
1	1691
1	1691
1	1691
1	1691
1	1691
1	1691
1	1691
1	1691
1	1691
1	1691
1	1691
1	1691
1	1691
1	6
1	1691
1	1691
1	1691
1	1691
1	1691
1	1691
1	42
1	1691
1	1691
1	1691
1	9
1	1692
1	42
1	1691
1	1691
1	1691
1	1691
1	1691
1	13
1	1691
1	12
1	20
1	1691
1	1691
1	1691
1	1691
1	1691
1	1691
1	1691
1	1691
1	1691
1	1691
1	1691
1	1691
1	1691
1	1691
1	1691
1	1691
1	1691
1	1691
1	1691
1	1691
1	16
1	1691
1	17
1	1691
1	1691
1	1691
1	1691
1	1691
1	1691
1	1691
1	1691
1	15
1	1691
1	1691
1	1691
1	1691
1	1691
1	1691
1	1691
1	6
1	1693
1	1691
1	1691
1	1691
1	1692
1	1691
1	1691
1	8
1	1691
1	1691
1	1691
1	10
1	1691
1	1692
1	20
1	1691
1	9
1	1691
1	10
1	1691
1	1691
1	10
1	1691
1	1692
1	1691
1	1691
1	1691
1	1691
1	1691
1	1691
1	6
1	1691
1	1691
1	1691
1	1691
1	1691
1	1691
1	1691
1	1691
1	11
1	1691
1	1691
1	18
1	1691
1	1691
1	1691
1	1691
1	1691
1	1691
1	1691
1	1691
1	42
1	1691
1	1691
1	1691
1	1691
1	6
1	1691
1	1691
1	1691
1	1691
1	9
1	24
1	18
1	1691
1	1691
1	22
1	1691
1	1691
1	1691
1	1691
1	1691
1	9
1	1691
1	1691
1	1691
1	1691
1	1691
1	1691
1	1691
1	1691
1	1691
1	1691
1	1691
1	1691
1	1691
1	1691
1	1691
1	1691
1	1691
1	1691
1	1691
1	16
1	5
1	1691
1	15
1	1691
1	8
1	4
1	1691
1	1691
1	1691
1	1691
1	1691
1	1691
1	1691
1	11
1	1691
1	6
1	1691
1	6124
1	1691
1	1691
1	6124
1	20
1	1691
1	1691
1	1691
1	1691
1	29
1	15
1	1691
1	1691
1	1691
1	1691
1	1691
1	1691
1	1691
1	1691
1	1691
1	1691
1	1691
1	1691
1	1691
1	1691
1	1694
1	1691
1	1691
1	7
1	1691
1	1691
1	18
1	1691
1	1692
1	1691
1	1691
1	1691
1	1691
1	1693
1	1691
1	1691
1	1691
1	1691
1	1691
1	1691
1	1691
1	1691
1	1691
1	1691
1	1691
1	1691
1	1691
1	1691
1	8
1	1691
1	1691
1	1691
1	1691
1	13
1	1691
1	1691
1	1691
1	12
1	1691
1	14
1	1691
1	1691
1	1691
1	1691
1	1691
1	6
1	15
1	1691
1	1691
1	1691
1	1691
1	27
1	19
1	1691
1	1691
1	1691
1	1691
1	24
1	1691
1	1691
1	1691
1	6
1	1691
1	1691
1	1691
1	1691
1	1691
1	7
1	1691
1	1691
1	13
1	1691
1	1691
1	10
1	1691
1	1691
1	1691
1	1691
1	43
1	1691
1	1691
1	10
1	1691
1	1692
1	1691
1	18
1	1691
1	1691
1	1691
1	1691
1	1691
1	1691
1	8
1	10
1	1691
1	1691
1	1691
1	1691
1	1691
1	1691
1	1691
1	1691
1	11
1	10
1	1691
1	1691
1	1691
1	10
1	5
1	1691
1	1691
1	1691
1	10
1	1691
1	1692
1	1691
1	11
1	1691
1	1691
1	1691
1	1691
1	1691
1	22
1	1692
1	1691
1	1691
1	1691
1	12
1	1691
1	1691
1	1691
1	1691
1	9
1	1691
1	1691
1	1691
1	1691
1	1691
1	8
1	1691
1	1691
1	1691
1	1691
1	16
1	9
1	1691
1	1691
1	1691
1	1691
1	4
1	1692
1	1691
1	12
1	6
1	1691
1	1691
1	1691
1	1691
1	1691
1	14
1	24
1	9
1	1691
1	9
1	1691
1	1691
1	1691
1	1691
1	1691
1	1691
1	1691
1	1691
1	1691
1	42
1	12
1	1691
1	1691
1	1692
1	1691
1	1691
1	5
1	1691
1	1691
1	1691
1	14
1	1691
1	11
1	1691
1	1691
1	17
1	1691
1	10
1	1691
1	1691
1	1691
1	1691
1	1691
1	25
1	1691
1	1691
1	1691
1	5
1	11
1	1691
1	1691
1	1691
1	1691
1	1691
1	1691
1	1691
1	1691
1	1691
1	1691
1	1691
1	1691
1	1691
1	22
1	1691
1	14
1	1691
1	15
1	16
1	1691
1	10
1	1691
1	14
1	1691
1	1691
1	1691
1	1691
1	1691
1	10
1	1691
1	12
1	8
1	1691
1	1691
1	1691
1	1691
1	1691
1	1691
1	43
1	1691
1	1691
1	6
1	1691
1	11
1	1691
1	1691
1	1691
1	1691
1	1691
1	1691
1	1691
1	1691
1	1691
1	1691
1	1691
1	12
1	10
1	1691
1	1691
1	1691
1	1691
1	1691
1	1691
1	22
1	4
1	1691
1	1691
1	10
1	6
1	1691
1	2
1	42
1	11
1	1691
1	42
1	1691
1	15
1	1691
1	1691
1	1691
1	28
1	1691
1	1691
1	1691
1	1691
1	8
1	1691
1	1691
1	1691
1	1691
1	1691
1	5
1	1691
1	1691
1	1691
1	1691
1	1691
1	1691
1	1691
1	6
1	1691
1	6
1	1691
1	1691
1	15
1	9
1	1691
1	1691
1	1691
1	20
1	1691
1	15
1	1691
1	1691
1	1691
1	1691
1	42
1	1691
1	12
1	1691
1	1691
1	1691
1	1691
1	1691
1	1691
1	1691
1	1691
1	1691
1	1691
1	10
1	1691
1	1691
1	1691
1	7
1	1691
1	1691
1	15
1	10
1	1691
1	1691
1	1691
1	13
1	1691
1	1691
1	1691
1	1691
1	9
1	1691
1	1691
1	1691
1	1691
1	21
1	1691
1	1691
1	1692
1	8
1	13
1	1691
1	1691
1	1691
1	1691
1	1691
1	1691
1	11
1	1691
1	1691
1	1691
1	1692
1	1691
1	1691
1	1691
1	1692
1	10
1	1691
1	1691
1	7
1	8
1	1691
1	1691
1	1691
1	1691
1	15
1	1691
1	1691
1	1691
1	9
1	1691
1	1691
1	7
1	1691
1	8
1	1691
1	10
1	1692
1	1691
1	1691
1	1691
1	1691
1	1691
1	1691
1	1691
1	27
1	9
1	21
1	1691
1	1691
1	1691
1	1691
1	1691
1	1691
1	8
1	1691
1	1691
1	42
1	14
1	1691
1	1691
1	1691
1	1691
1	1691
1	1691
1	1691
1	6
1	1691
1	4
1	1691
1	14
1	1691
1	1691
1	1691
1	1691
1	1691
1	10
1	1691
1	1691
1	1691
1	1691
1	4
1	1691
1	1691
1	8
1	20
1	1691
1	1691
1	13
1	1691
1	1691
1	1691
1	1691
1	1691
1	10
1	1691
1	1691
1	1691
1	23
1	1691
1	6
1	1691
1	10
1	1691
1	11
1	10
1	1691
1	6
1	11
1	8
1	1691
1	1691
1	1691
1	11
1	1691
1	1691
1	1691
1	21
1	1691
1	1691
1	1691
1	1691
1	1691
1	11
1	1691
1	1691
1	1691
1	1691
1	1691
1	1691
1	1691
1	1691
1	1691
1	1691
1	10
1	1691
1	10
1	6
1	1691
1	1691
1	1691
1	1691
1	1691
1	1691
1	1692
1	1691
1	10
1	1691
1	1691
1	1691
1	1691
1	1691
1	1691
1	1691
1	1691
1	1691
1	1691
1	11
1	24
1	1691
1	1691
1	8
1	6
1	1691
1	1691
1	1691
1	22
1	6
1	1691
1	1691
1	8
1	18
1	1691
1	1691
1	1691
1	1691
1	8
1	1691
1	1691
1	13
1	1691
1	1691
1	1691
1	1691
1	1691
1	6
1	15
1	1691
1	1691
1	7
1	1691
1	1691
1	1691
1	10
1	1691
1	10
1	1691
1	1691
1	1691
1	18
1	1691
1	1691
1	12
1	11
1	1691
1	1691
1	8
1	1691
1	1691
1	5
1	1691
1	1691
1	1691
1	1691
1	1691
1	1691
1	1691
1	1691
1	1691
1	11
1	1691
1	1691
1	1691
1	1691
1	5
1	1691
1	1691
1	18
1	1691
1	1691
1	1691
1	1691
1	8
1	1691
1	6
1	1691
1	1691
1	6
1	1691
1	1691
1	1691
1	1691
1	1691
1	1691
1	1691
1	8
1	1691
1	1691
1	1691
1	1691
1	1691
1	9
1	21
1	1691
1	1691
1	1691
1	1692
1	1691
1	1691
1	1691
1	9
1	1691
1	1691
1	1691
1	1691
1	1691
1	10
1	1691
1	1691
1	5
1	5
1	9
1	14
1	1691
1	42
1	1691
1	1691
1	1691
1	1691
1	1691
1	4
1	1691
1	1691
1	1691
1	9
1	1691
1	1691
1	1691
1	1691
1	1691
1	1691
1	1691
1	1691
1	1691
1	1691
1	1691
1	1691
1	1691
1	1691
1	1691
1	1691
1	1691
1	7
1	1691
1	1691
1	16
1	1691
1	1691
1	1691
1	1691
1	1691
1	1691
1	8
1	11
1	1691
1	1691
1	1691
1	1691
1	1691
1	1691
1	1691
1	1691
1	1691
1	1691
1	1691
1	1691
1	1691
1	1691
1	1691
1	1691
1	1691
1	11
1	1691
1	1691
1	1691
1	1691
1	1691
1	1691
1	12
1	1691
1	10
1	1691
1	1691
1	1691
1	6
1	1691
1	1691
1	10
1	1691
1	1691
1	1691
1	1691
1	27
1	5
1	1691
1	28
1	1691
1	1691
1	1691
1	1691
1	15
1	1691
1	1691
1	6
1	1691
1	1691
1	1692
1	1691
1	8
1	1691
1	1691
1	1692
1	1691
1	1691
1	1691
1	1691
1	10
1	1691
1	27
1	1691
1	1691
1	1691
1	1691
1	1691
1	1691
1	1691
1	1691
1	6
1	1691
1	1691
1	1691
1	1691
1	10
1	1691
1	5
1	1691
1	1691
1	1691
1	1691
1	1691
1	1691
1	8
1	1691
1	1691
1	6
1	1691
1	1691
1	1691
1	1691
1	1691
1	1691
1	1691
1	1691
1	1691
1	1691
1	1691
1	1691
1	1691
1	1691
1	1691
1	15
1	1691
1	1691
1	21
1	1691
1	1691
1	1691
1	7
1	1691
1	1691
1	1691
1	1691
1	14
1	10
1	1691
1	13
1	9
1	1691
1	5
1	1691
1	1691
1	1691
1	14
1	6
1	1691
1	1691
1	1692
1	1691
1	11
1	1691
1	1691
1	1691
1	1691
1	1692
1	1691
1	7
1	1691
1	1691
1	6
1	20
1	1691
1	1691
1	1691
1	1691
1	24
1	1691
1	12
1	1691
1	1691
1	1691
1	1691
1	1691
1	1691
1	1691
1	1691
1	1691
1	1691
1	1691
1	22
1	1691
1	1691
1	1691
1	1691
1	1691
1	1691
1	1691
1	1691
1	9
1	1691
1	1691
1	1691
1	1691
1	1691
1	1691
1	1691
1	1691
1	1691
1	6
1	1691
1	1691
1	17
1	1691
1	1691
1	1691
1	1691
1	1691
1	1691
1	1691
1	1691
1	1691
1	1691
1	1691
1	1691
1	1691
1	15
1	1691
1	1691
1	1691
1	1691
1	15
1	1691
1	1692
1	1691
1	1691
1	9
1	1691
1	1691
1	9
1	1691
1	1691
1	11
1	1691
1	1691
1	1691
1	1691
1	1691
1	42
1	1691
1	1691
1	1691
1	7
1	1691
1	11
1	1691
1	1691
1	1691
1	1691
1	1691
1	1691
1	22
1	1691
1	42
1	1691
1	15
1	1691
1	1691
1	1691
1	1691
1	15
1	1691
1	1691
1	9
1	1691
1	1691
1	1691
1	10
1	1691
1	11
1	1691
1	1691
1	1691
1	1691
1	1691
1	1691
1	15
1	1691
1	1691
1	16
1	1691
1	1691
1	1691
1	1691
1	1691
1	1691
1	1691
1	1691
1	1691
1	1691
1	15
1	1691
1	9
1	27
1	1691
1	1691
1	42
1	14
1	1691
1	21
1	1691
1	1691
1	1691
1	1691
1	18
1	1691
1	1691
1	8
1	7
1	1692
1	42
1	16
1	1691
1	10
1	1691
1	1691
1	1691
1	1691
1	1691
1	1692
1	4
1	1691
1	1691
1	9
1	1691
1	1691
1	7
1	1691
1	11
1	1691
1	1691
1	1691
1	1691
1	15
1	1691
1	1691
1	1691
1	1691
1	10
1	6
1	1691
1	1691
1	1691
1	1693
1	1691
1	1691
1	1691
1	1691
1	1691
1	1691
1	1691
1	14
1	1691
1	1691
1	1691
1	1691
1	6
1	1691
1	1691
1	1691
1	1691
1	5
1	9
1	1692
1	1691
1	1691
1	1691
1	11
1	5
1	1691
1	1691
1	1691
1	22
1	1691
1	1691
1	1692
1	1691
1	1691
1	1691
1	1691
1	1691
1	1691
1	1691
1	1691
1	6
1	1691
1	1691
1	1691
1	1691
1	1691
1	1691
1	1691
1	21
1	1691
1	1691
1	1691
1	1691
1	22
1	1691
1	8
1	7
1	1691
1	1691
1	1691
1	1691
1	1691
1	1691
1	1691
1	1691
1	1691
1	1691
1	1691
1	1691
1	7
1	1691
1	1691
1	1691
1	1691
1	1691
1	1691
1	1691
1	8
1	1691
1	1691
1	24
1	1691
1	1691
1	1691
1	1691
1	7
1	1691
1	20
1	1691
1	1691
1	1691
1	5
1	28
1	1691
1	12
1	1691
1	1691
1	1691
1	24
1	1691
1	1691
1	9
1	1691
1	1691
1	1691
1	1691
1	10
1	1691
1	1691
1	1691
1	1691
1	1691
1	17
1	1691
1	12
1	1691
1	1691
1	27
1	1691
1	1691
1	1691
1	1691
1	6
1	1691
1	1691
1	1691
1	1691
1	6
1	1691
1	12
1	1691
1	1691
1	1691
1	1691
1	1691
1	1691
1	1691
1	1691
1	1691
1	1691
1	1691
1	1691
1	1691
1	10
1	1691
1	1691
1	1691
1	1691
1	1691
1	1691
1	1691
1	1691
1	5
1	1691
1	1691
1	20
1	1691
1	1691
1	1692
1	1691
1	1691
1	1691
1	1691
1	1691
1	1691
1	1691
1	6
1	1691
1	1691
1	1691
1	1691
1	1691
1	1691
1	1691
1	1691
1	9
1	1691
1	4
1	1692
1	1691
1	1691
1	1691
1	1691
1	1691
1	1691
1	1691
1	1691
1	1691
1	1691
1	1691
1	16
1	1691
1	1691
1	1691
1	1691
1	15
1	1691
1	9
1	8
1	1691
1	1691
1	1691
1	1692
1	1691
1	1691
1	1691
1	1691
1	1691
1	1691
1	1692
1	1691
1	1691
1	1691
1	1691
1	1691
1	1691
1	13
1	12
1	1691
1	21
1	9
1	1691
1	1691
1	1691
1	1691
1	1691
1	24
1	1691
1	11
1	1691
1	1691
1	1691
1	18
1	27
1	4
1	18
1	1691
1	1691
1	1691
1	1691
1	1691
1	1691
1	1691
1	1691
1	1691
1	1691
1	15
1	1691
1	27
1	1691
1	1691
1	1691
1	1691
1	1691
1	10
1	1691
1	1691
1	7
1	1691
1	1691
1	1691
1	1691
1	1691
1	1691
1	1691
1	1691
1	1691
1	24
1	1691
1	18
1	1691
1	1691
1	16
1	1691
1	1691
1	1691
1	1691
1	1691
1	1691
1	1691
1	1691
1	1691
1	1691
1	1691
1	1691
1	1691
1	1691
1	1691
1	1691
1	1691
1	1691
1	1691
1	20
1	1691
1	2
1	1691
1	1691
1	7
1	1691
1	1691
1	1691
1	1691
1	1691
1	1691
1	1691
1	1691
1	1691
1	1691
1	1691
1	1691
1	1691
1	9
1	1691
1	1691
1	1691
1	1691
1	8
1	1691
1	1691
1	1691
1	4
1	1691
1	1691
1	1691
1	1691
1	1691
1	1691
1	1692
1	1691
1	13
2	3
2	5
2	3
2	3
2	3
2	4
2	1692
2	8
2	8
2	6
2	7
2	10
2	8
2	13
2	3
2	3
2	8
2	3
2	6
2	5
2	6
2	16
2	3
2	43
2	15
2	11
2	4
2	3
2	7
2	3
2	16
2	9
2	3
2	11
2	3
2	3
2	3
2	12
2	43
2	3
2	7
2	21
2	15
2	7
2	13
2	9
2	3
2	3
2	3
2	9
2	3
2	4
2	6
2	6
2	3
2	1692
2	10
2	9
2	7
2	3
2	8
2	8
2	3
2	5
2	3
2	10
2	8
2	3
2	8
2	4
2	3
2	3
2	9
2	3
2	3
2	11
2	4
2	3
2	43
2	3
2	4
2	22
2	3
2	7
2	3
2	23
2	6
2	4
2	4
2	7
2	6
2	10
2	6
2	3
2	3
2	8
2	7
2	3
2	19
2	10
2	8
2	3
2	28
2	3
2	6
2	11
2	8
2	9
2	13
2	5
2	3
2	3
2	3
2	4
2	4
2	21
2	22
2	4
2	7
2	3
2	18
2	7
2	4
2	4
2	3
2	3
2	1692
2	8
2	3
2	6
2	3
2	7
2	9
2	4
2	21
2	3
2	3
2	5
2	3
2	4
2	3
2	3
2	44
2	9
2	4
2	6
2	4
2	3
2	8
2	4
2	8
2	7
2	4
2	9
2	5
2	10
2	7
2	4
2	4
2	3
2	8
2	3
2	11
2	4
2	5
2	3
2	9
2	8
2	7
2	7
2	6
2	8
2	3
2	7
2	3
2	14
2	7
2	3
2	6
2	4
2	3
2	4
2	8
2	3
2	12
2	4
2	6
2	3
2	3
2	3
2	3
2	7
2	4
2	3
2	3
2	5
2	10
2	3
2	5
2	9
2	6
2	3
2	4
2	9
2	4
2	16
2	4
2	4
2	6
2	6
2	7
2	10
2	28
2	3
2	3
2	3
2	7
2	22
2	3
2	11
2	5
2	12
2	4
2	5
2	10
2	3
2	3
2	3
2	16
2	4
2	3
2	4
2	4
2	3
2	4
2	3
2	3
2	4
2	11
2	8
2	6
2	6
2	11
2	4
2	4
2	4
2	13
2	7
3	4
3	4
3	12
3	5
3	9
3	8
3	4
3	5
3	5
3	4
3	6
3	10
3	13
3	5
3	4
3	4
3	4
3	4
3	4
3	4
3	4
3	5
3	5
3	4
3	4
3	5
3	4
3	5
3	5
3	4
3	4
3	4
3	4
3	5
3	4
3	4
3	8
3	8
3	4
3	5
3	4
3	4
3	5
3	4
3	5
3	4
3	5
3	5
3	5
3	4
3	5
3	9
3	5
3	4
3	6
3	6
3	5
3	8
3	4
3	4
3	4
3	4
3	4
3	4
3	5
3	4
3	11
3	4
3	4
3	5
3	6
3	5
3	7
3	4
4	5
4	7
4	6
4	7
4	7
4	6
4	5
4	5
4	5
4	5
4	6
4	6
4	5
4	6
4	5
4	5
4	5
4	5
4	5
4	5
4	5
4	8
4	7
4	5
4	5
4	8
4	5
4	6
4	5
4	5
4	5
4	5
4	5
4	5
4	5
4	5
4	6
4	5
4	5
4	5
5	8
5	6
5	6
5	6
5	6
5	6
5	6
5	7
5	6
5	6
5	6
5	7
5	6
5	6
5	6
5	6
5	6
5	7
5	6
5	6
5	6
5	7
5	6
5	7
5	10
5	6
5	6
6	7
6	7
6	7
6	7
6	7
6	7
6	7
6	7
6	7
6	7
6	8
6	7
6	7
7	8
7	8
7	8
7	8
7	8
7	8
7	8
7	8
8	9
8	9
8	9
8	9
8	9
8	9
8	9
8	9
8	9
8	10
8	9
8	9
8	9
8	9
9	10
9	10
9	10
9	10
9	10
9	10
9	10
9	10
10	11
10	11
10	11
11	12
11	12
11	12
12	13
12	13
13	14
14	15
14	15
14	15
15	16
16	17
17	18
19	20
19	20
20	21
21	22
23	24
26	27
41	42
1690	1691
