1	6124
1	639
1	639
1	638
1	638
1	638
1	638
1	638
1	638
1	20
1	638
1	638
1	638
1	638
1	638
1	639
1	638
1	638
1	641
1	638
1	638
1	638
1	638
1	638
1	638
1	638
1	638
1	638
1	640
1	638
1	639
1	639
1	638
1	638
1	638
1	638
1	638
1	638
1	638
1	638
1	638
1	640
1	638
1	638
1	638
1	638
1	638
1	638
1	20
1	22
1	638
1	20
1	638
1	638
1	638
1	638
1	638
1	638
1	638
1	638
1	638
1	638
1	638
1	20
1	638
1	638
1	638
1	638
1	638
1	13
1	638
1	638
1	639
1	638
1	638
1	638
1	638
1	638
1	638
1	638
1	638
1	638
1	638
1	638
1	638
1	638
1	638
1	22
1	638
1	638
1	638
1	638
1	638
1	638
1	638
1	639
1	638
1	638
1	638
1	638
1	638
1	638
1	638
1	638
1	638
1	638
1	638
1	638
1	638
1	638
1	638
1	638
1	638
1	638
1	638
1	639
1	638
1	638
1	638
1	640
1	638
1	638
1	638
1	638
1	638
1	638
1	638
1	12
1	638
1	638
1	638
1	638
1	8
1	638
1	638
1	638
1	638
1	638
1	638
1	638
1	638
1	638
1	638
1	638
1	638
1	638
1	638
1	640
1	638
1	642
1	638
1	638
1	11
1	638
1	638
1	638
1	638
1	638
1	638
1	6
1	638
1	638
1	638
1	638
1	638
1	638
1	638
1	638
1	638
1	6
1	638
1	638
1	638
1	638
1	638
1	638
1	638
1	638
1	638
1	638
1	639
1	638
1	638
1	638
1	638
1	638
1	638
1	638
1	638
1	638
1	6
1	638
1	638
1	638
1	638
1	638
1	638
1	638
1	638
1	638
1	638
1	638
1	638
1	638
1	638
1	638
1	19
1	639
1	638
1	640
1	638
1	638
1	638
1	638
1	638
1	8
1	638
1	638
1	638
1	638
1	638
1	12
1	638
1	638
1	20
1	638
1	638
1	638
1	638
1	638
1	638
1	638
1	638
1	638
1	638
1	638
1	638
1	638
1	638
1	9
1	9
1	638
1	638
1	638
1	638
1	638
1	638
1	638
1	638
1	638
1	638
1	639
1	638
1	638
1	638
1	638
1	639
1	638
1	638
1	638
1	638
1	638
1	638
1	638
1	638
1	638
1	638
1	638
1	638
1	638
1	638
1	638
1	638
1	638
1	4
1	638
1	638
1	638
1	639
1	638
1	638
1	638
1	12
1	638
1	638
1	638
1	638
1	638
1	638
1	638
1	638
1	638
1	638
1	638
1	638
1	638
1	638
1	638
1	638
1	638
1	638
1	638
1	638
1	638
1	638
1	638
1	638
1	638
1	21
1	638
1	9
1	638
1	638
1	638
1	638
1	638
1	638
1	6
1	638
1	6
1	638
1	12
1	638
1	638
1	638
1	638
1	638
1	638
1	638
1	638
1	5
1	638
1	638
1	638
1	638
1	638
1	638
1	638
1	638
1	638
1	639
1	638
1	638
1	638
1	638
1	638
1	639
1	638
1	638
1	638
1	638
1	638
1	638
1	638
1	9
1	638
1	638
1	638
1	638
1	638
1	638
1	638
1	638
1	638
1	638
1	638
1	638
1	638
1	638
1	638
1	638
1	638
1	638
1	638
1	638
1	638
1	638
1	638
1	638
1	638
1	638
1	638
1	9
1	638
1	638
1	638
1	638
1	638
1	638
1	638
1	638
1	638
1	638
1	638
1	638
1	638
1	638
1	638
1	638
1	638
1	7
1	638
1	638
1	638
1	638
1	638
1	639
1	638
1	638
1	638
1	638
1	638
1	638
1	638
1	638
1	638
1	638
1	638
1	638
1	638
1	638
1	638
1	638
1	638
1	638
1	638
1	638
1	8
1	638
1	638
1	638
1	638
1	638
1	638
1	638
1	6
1	638
1	638
1	638
1	638
1	638
1	638
1	638
1	638
1	638
1	638
1	638
1	638
1	638
1	638
1	638
1	638
1	638
1	638
1	638
1	638
1	638
1	638
1	638
1	638
1	20
1	638
1	638
1	638
1	638
1	638
1	638
1	638
1	638
1	638
1	9
1	638
1	638
1	638
1	638
1	638
1	638
1	638
1	638
1	638
1	638
1	638
1	7
1	12
1	638
1	9
1	638
1	638
1	638
1	638
1	638
1	638
1	638
1	638
1	638
1	638
1	638
1	638
1	638
1	638
1	638
1	638
1	638
1	638
1	638
1	639
1	638
1	638
1	12
1	638
1	9
1	638
1	638
1	638
1	638
1	638
1	638
1	638
1	638
1	638
1	638
1	638
1	638
1	638
1	5
1	638
1	638
1	639
1	20
1	638
1	638
1	638
1	638
1	638
1	638
1	638
1	638
1	638
1	638
1	638
1	7
1	638
1	638
1	638
1	638
1	638
1	638
1	638
1	638
1	638
1	638
1	638
1	638
1	638
1	12
1	638
1	638
1	638
1	638
1	638
1	638
1	638
1	638
1	638
1	20
1	638
1	639
1	638
1	638
1	638
1	638
1	638
1	638
1	638
1	638
1	638
1	638
1	638
1	4
1	638
1	638
1	638
1	638
1	638
1	638
1	638
1	638
1	639
1	638
1	638
1	638
1	638
1	20
1	638
1	638
1	638
1	638
1	638
1	638
1	638
1	638
1	639
1	638
1	638
1	20
1	639
1	638
1	638
1	638
1	638
1	638
1	638
1	4
1	638
1	638
1	638
1	638
1	638
1	638
1	638
1	638
1	638
1	638
1	638
1	638
1	638
1	638
1	638
1	638
1	638
1	9
1	638
1	638
1	638
1	638
1	638
1	638
1	638
1	638
1	638
1	638
1	638
1	638
1	638
1	638
1	638
1	4
1	638
1	638
1	638
1	638
1	638
1	638
1	638
1	638
1	638
1	638
2	3
2	8
2	3
2	639
2	639
2	639
2	4
2	7
2	3
2	21
2	7
2	3
2	3
2	3
2	21
2	3
2	3
2	3
2	4
2	5
2	3
2	7
2	639
2	5
2	3
2	5
2	639
2	3
2	3
2	4
2	10
2	21
2	4
2	3
2	7
2	6
2	3
2	4
2	4
2	4
2	3
2	4
2	4
2	4
2	5
2	3
2	7
2	3
2	3
2	3
3	4
3	6
3	4
3	4
3	5
3	4
3	5
3	4
3	4
3	4
3	4
3	4
3	4
3	4
3	4
3	4
3	6
3	4
3	5
4	5
4	5
5	6
5	7
5	6
5	6
5	6
8	9
8	9
11	12
19	20
637	638
