1	6124
1	748
1	748
1	748
1	749
1	19
1	748
1	748
1	748
1	748
1	752
1	749
1	748
1	32
1	750
1	748
1	32
1	748
1	748
1	748
1	748
1	748
1	748
1	748
1	748
1	748
1	748
1	748
1	748
1	748
1	748
1	748
1	17
1	748
1	748
1	10
1	748
1	749
1	749
1	748
1	748
1	748
1	748
1	749
1	748
1	748
1	20
1	749
1	748
1	31
1	5
1	4
1	9
1	748
1	753
1	750
1	748
1	18
1	748
1	748
1	749
1	748
1	748
1	748
1	748
1	748
1	748
1	748
1	748
1	10
1	748
1	749
1	748
1	17
1	748
1	748
1	748
1	748
1	748
1	748
1	28
1	748
1	748
1	748
1	748
1	748
1	748
1	13
1	748
1	748
1	748
1	748
1	748
1	749
1	748
1	748
1	748
1	748
1	748
1	748
1	748
1	748
1	749
1	748
1	748
1	748
1	748
1	748
1	28
1	15
1	10
1	749
1	751
1	6124
1	748
1	6124
1	750
1	25
1	11
1	748
1	6
1	748
1	748
1	748
1	748
1	750
1	748
1	748
1	13
1	23
1	748
1	748
1	748
1	750
1	21
1	16
1	748
1	748
1	748
1	750
1	748
1	748
1	748
1	748
1	748
1	748
1	748
1	748
1	748
1	748
1	748
1	749
1	748
1	748
1	748
1	748
1	14
1	748
1	748
1	17
1	4
1	748
1	748
1	748
1	748
1	750
1	748
1	748
1	749
1	748
1	15
1	748
1	21
1	748
1	748
1	748
1	748
1	748
1	748
1	748
1	748
1	748
1	6
1	748
1	748
1	748
1	748
1	748
1	748
1	748
1	749
1	748
1	748
1	748
1	748
1	749
1	748
1	748
1	749
1	15
1	748
1	7
1	748
1	11
1	19
1	748
1	748
1	748
1	748
1	748
1	6
1	748
1	748
1	748
1	748
1	748
1	748
1	748
1	748
1	748
1	749
1	749
1	748
1	749
1	13
1	748
1	21
1	748
1	748
1	9
1	748
1	28
1	748
1	748
1	748
1	751
1	748
1	748
1	15
1	748
1	13
1	750
1	748
1	11
1	748
1	748
1	748
1	748
1	748
1	10
1	5
1	30
1	748
1	748
1	749
1	16
1	748
1	748
1	748
1	748
1	748
1	748
1	748
1	748
1	749
1	748
1	748
1	9
1	748
1	748
1	748
1	748
1	748
1	10
1	748
1	9
1	748
1	22
1	748
1	748
1	748
1	748
1	748
1	748
1	748
1	748
1	748
1	748
1	748
1	8
1	748
1	748
1	748
1	748
1	748
1	749
1	748
1	5
1	748
1	748
1	11
1	748
1	748
1	748
1	13
1	13
1	748
1	7
1	748
1	748
1	4
1	748
1	748
1	9
1	748
1	748
1	28
1	14
1	748
1	748
1	748
1	748
1	748
1	748
1	748
1	748
1	748
1	14
1	748
1	748
1	748
1	748
1	748
1	748
1	748
1	748
1	748
1	748
1	748
1	748
1	748
1	748
1	748
1	748
1	748
1	748
1	748
1	748
1	5
1	749
1	9
1	748
1	748
1	8
1	748
1	5
1	750
1	10
1	748
1	748
1	28
1	28
1	748
1	28
1	22
1	8
1	748
1	748
1	5
1	748
1	748
1	13
1	10
1	748
1	748
1	748
1	748
1	748
1	748
1	748
1	6
1	748
1	21
1	748
1	748
1	8
1	748
1	7
1	15
1	748
1	748
1	748
1	748
1	748
1	748
1	748
1	749
1	12
1	748
1	748
1	748
1	748
1	6
1	28
1	7
1	748
1	750
1	16
1	748
1	748
1	9
1	748
1	748
1	748
1	748
1	748
1	748
1	7
1	748
1	18
1	748
1	748
1	748
1	748
1	749
1	748
1	748
1	748
1	748
1	748
1	748
1	748
1	7
1	748
1	748
1	7
1	748
1	748
1	748
1	4
1	748
1	748
1	748
1	748
1	748
1	748
1	748
1	14
1	748
1	748
1	748
1	748
1	748
1	748
1	13
1	748
1	748
1	748
1	748
1	748
1	748
1	9
1	748
1	8
1	15
1	3
1	749
1	7
1	748
1	748
1	6
1	748
1	748
1	748
1	748
1	748
1	748
1	8
1	748
1	748
1	748
1	748
1	12
1	28
1	748
1	13
1	748
1	748
1	748
1	748
1	8
1	28
1	15
1	748
1	748
1	8
1	5
1	748
1	748
1	748
1	9
1	748
1	21
1	748
1	748
1	748
1	748
1	748
1	748
1	748
1	7
1	748
1	22
1	748
1	748
1	748
1	748
1	748
1	7
1	748
1	748
1	6124
1	748
1	7
1	28
1	748
1	748
1	748
1	748
1	748
1	748
1	748
1	8
1	748
1	748
1	748
1	8
1	5
1	748
1	748
1	15
1	748
1	749
1	4
1	748
1	748
1	748
1	749
1	748
1	748
1	748
1	748
1	748
1	7
1	748
1	9
1	6124
1	8
1	5
1	6
1	748
1	748
1	748
1	748
1	748
1	28
1	748
1	748
1	748
1	748
1	748
1	6124
1	748
1	749
1	748
1	749
1	748
1	748
1	9
1	15
1	4
1	748
1	6
1	15
1	748
1	748
1	748
1	748
1	748
1	748
1	5
1	748
1	748
1	748
1	748
1	748
1	748
1	7
1	9
1	5
1	8
1	5
1	748
1	748
1	748
1	15
1	748
1	28
1	749
1	748
1	748
1	748
1	748
1	748
1	748
1	748
1	748
1	748
1	6
1	748
1	748
1	748
1	748
1	5
1	748
1	748
1	748
1	8
1	748
1	748
1	748
1	8
1	748
1	21
1	748
1	748
1	5
1	748
1	21
1	748
1	749
1	6
1	9
1	748
1	7
1	748
1	748
1	29
1	748
1	748
1	748
1	748
1	748
1	21
1	748
1	748
1	748
1	748
1	15
1	5
1	748
1	748
1	7
1	748
1	748
1	748
1	6
1	748
1	748
1	748
1	7
1	748
1	748
1	7
1	748
1	748
1	748
1	748
1	748
1	748
1	748
1	748
1	748
1	748
1	748
1	748
1	748
1	749
1	7
1	16
1	6
1	748
1	748
1	748
1	748
1	748
1	748
1	748
1	748
1	748
1	748
1	748
1	748
1	748
1	21
1	6
1	748
1	748
1	10
1	13
1	15
1	748
1	6
1	13
1	748
1	748
1	5
1	748
1	748
1	748
1	750
1	748
1	13
1	748
1	748
1	16
1	748
1	748
1	748
1	748
1	748
1	748
1	28
1	748
1	748
1	748
1	15
1	748
1	3
1	10
1	748
1	748
1	12
1	748
1	748
1	749
1	748
1	15
1	748
1	748
1	7
1	748
1	21
1	748
1	4
1	2
1	748
1	748
1	4
1	6
1	748
1	7
1	748
1	748
1	748
1	15
1	4
1	748
1	748
1	748
1	748
1	748
1	748
1	748
1	748
1	6
1	15
1	748
1	748
1	748
1	6
1	748
1	748
1	8
1	4
1	748
1	28
1	748
1	748
1	13
1	748
1	748
1	748
1	749
1	4
1	749
1	752
1	748
1	748
1	748
1	748
1	748
1	14
1	748
1	748
1	748
1	748
1	748
1	8
1	748
1	748
1	748
1	748
1	749
1	748
1	10
1	748
1	748
1	748
1	748
1	749
1	748
1	15
1	748
1	8
1	748
1	8
1	748
1	9
1	748
1	748
1	748
1	748
1	7
1	748
1	5
1	10
1	6
1	748
1	748
1	748
1	748
1	29
1	748
1	7
1	748
1	6
1	5
1	748
1	9
1	748
1	748
1	748
1	748
1	28
1	748
1	748
1	748
1	748
2	5
2	3
2	5
2	7
2	3
2	3
2	749
2	7
2	3
2	749
2	7
2	749
2	5
2	3
2	8
2	6
2	5
2	9
2	12
2	7
2	3
2	7
2	14
2	749
2	749
2	3
2	14
2	3
2	5
2	7
2	10
2	3
2	749
2	7
2	3
2	3
2	12
2	3
2	3
2	3
2	3
2	8
2	749
2	3
2	7
2	3
2	4
2	3
2	3
2	3
2	4
2	22
2	15
2	3
2	4
2	3
2	3
2	749
2	7
2	3
2	31
2	5
2	749
2	4
2	749
2	3
2	3
2	749
2	3
2	4
2	749
2	3
2	3
2	3
2	6
2	3
2	4
2	6
2	3
2	4
2	4
2	3
2	6
2	3
2	3
2	29
2	7
2	4
2	3
2	7
2	4
2	4
2	3
2	3
2	3
2	6
2	6
2	5
2	6
2	3
2	3
2	4
2	3
2	7
2	4
2	3
2	3
2	6
2	4
2	22
2	3
2	4
2	29
2	4
2	4
2	4
2	4
2	4
2	8
2	3
2	9
2	4
2	3
2	6
2	10
2	6
2	3
2	4
2	3
2	4
2	3
2	3
2	3
2	7
2	3
2	6
2	5
2	3
2	4
2	5
2	6
2	7
2	3
2	3
2	5
2	3
2	22
2	4
3	4
3	4
3	4
3	4
3	5
3	4
3	4
3	4
3	4
3	4
3	5
3	4
3	4
3	4
3	9
3	5
3	4
3	4
3	4
3	5
3	4
3	4
3	4
3	4
3	10
3	4
3	5
3	5
3	4
3	6
3	4
3	4
3	4
3	4
3	4
3	4
3	5
3	4
3	4
3	4
3	4
3	4
3	4
3	4
3	4
3	5
3	5
3	4
4	5
4	7
4	6
4	5
4	6
4	5
4	6
4	5
4	6
4	5
4	5
4	5
4	5
4	5
4	5
4	5
4	5
4	5
4	5
4	6
4	5
4	6
5	6
5	6
5	6
5	6
5	6
5	7
5	6
5	6
5	6
5	6
5	6
5	6
5	6
5	6
5	6
5	6
6	7
6	7
6	7
6	7
6	7
6	7
6	7
6	7
7	8
7	8
7	8
8	9
9	10
10	11
10	11
12	13
13	14
14	15
14	15
20	21
27	28
747	748
