1	6124
1	491
1	490
1	490
1	490
1	490
1	490
1	490
1	490
1	490
1	490
1	490
1	30
1	490
1	18
1	29
1	12
1	490
1	11
1	491
1	490
1	491
1	490
1	8
1	10
1	490
1	490
1	490
1	490
1	24
1	490
1	490
1	490
1	491
1	490
1	490
1	490
1	10
1	490
1	12
1	490
1	490
1	490
1	26
1	490
1	490
1	490
1	490
1	490
1	490
1	490
1	25
1	490
1	490
1	490
1	490
1	490
1	490
1	490
1	11
1	490
1	490
1	10
1	490
1	490
1	490
1	490
1	8
1	491
1	490
1	16
1	490
1	490
1	490
1	23
1	491
1	490
1	490
1	490
1	490
1	490
1	29
1	490
1	490
1	29
1	14
1	490
1	11
1	22
1	490
1	490
1	490
1	490
1	10
1	492
1	490
1	16
1	490
1	490
1	29
1	490
1	490
1	10
1	490
1	490
1	490
1	14
1	490
1	490
1	14
1	29
1	490
1	490
1	12
1	490
1	22
1	7
1	15
1	490
1	490
1	490
1	490
1	490
1	490
1	490
1	490
1	490
1	5
1	490
1	490
1	490
1	490
1	490
1	490
1	490
1	25
1	9
1	490
1	492
1	491
1	490
1	8
1	490
1	490
1	490
1	490
1	490
1	490
1	490
1	490
1	490
1	490
1	490
1	15
1	490
1	10
1	490
1	490
1	490
1	10
1	17
1	25
1	490
1	490
1	490
1	5
1	5
1	10
1	490
1	490
1	9
1	25
1	490
1	491
1	491
1	490
1	490
1	490
1	11
1	10
1	490
1	490
1	29
1	15
1	490
1	490
1	490
1	490
1	11
1	490
1	490
1	15
1	15
1	9
1	490
1	490
1	490
1	490
1	490
1	490
1	490
1	490
1	490
1	490
1	490
1	11
1	30
1	490
1	491
1	490
1	29
1	490
1	490
1	490
1	490
1	490
1	7
1	490
1	5
1	490
1	490
1	490
1	9
1	5
1	490
1	490
1	15
1	8
1	490
1	490
1	11
1	490
1	490
1	490
1	490
1	11
1	490
1	29
1	15
1	490
1	25
1	9
1	490
1	490
1	490
1	15
1	490
1	15
1	490
1	491
1	490
1	9
1	490
1	490
1	490
1	490
1	490
1	490
1	12
1	490
1	490
1	7
1	490
1	491
1	490
1	490
1	490
1	490
1	6
1	490
1	490
1	490
1	490
1	490
1	490
1	491
1	9
1	490
1	491
1	5
1	490
1	491
1	490
1	490
1	490
1	7
1	490
1	490
1	490
1	490
1	490
1	490
1	25
1	490
1	490
1	490
1	6
1	10
1	490
1	490
1	22
1	15
1	5
1	491
1	490
1	490
1	490
1	490
1	22
1	490
1	490
1	490
1	490
1	490
1	490
1	6
1	490
1	490
1	491
1	490
1	490
1	15
1	490
1	491
1	490
1	490
1	7
1	490
1	490
1	7
1	490
1	10
1	490
1	490
1	490
1	10
1	490
1	490
1	490
1	490
1	490
1	490
1	490
1	490
1	7
1	25
1	490
1	490
1	490
1	490
1	490
1	9
1	12
1	490
1	490
1	490
1	490
1	12
1	490
1	491
1	490
1	490
1	490
1	490
1	490
1	490
1	9
1	490
1	490
1	9
1	17
1	490
1	490
1	490
1	490
1	490
1	490
1	490
1	490
1	26
1	12
1	490
1	7
1	490
1	490
1	490
1	490
1	490
1	490
1	490
1	7
1	490
1	22
1	490
1	490
1	490
1	10
1	8
1	8
1	490
1	491
1	490
1	490
1	10
1	490
1	490
1	490
1	31
1	4
1	490
1	490
1	490
1	490
1	490
1	490
1	490
1	490
1	490
1	490
1	490
1	490
1	490
1	12
1	490
1	22
1	10
1	490
1	490
1	490
1	490
1	490
1	490
1	490
1	490
1	490
1	9
1	10
1	490
1	490
1	490
1	490
1	8
1	29
1	490
1	490
1	490
1	10
1	490
1	490
1	490
1	490
1	490
1	490
1	490
1	490
1	8
1	490
1	490
1	490
1	9
1	29
1	9
1	15
1	490
1	490
1	29
1	490
1	490
1	490
1	12
1	490
1	10
1	15
1	490
1	490
1	490
1	490
1	490
1	490
1	490
1	490
1	490
1	490
1	7
1	15
1	490
1	490
1	490
1	490
1	490
1	9
1	29
1	490
1	490
1	9
1	490
1	490
1	491
1	7
1	490
1	490
1	490
1	490
1	29
1	490
1	490
1	25
1	490
1	490
1	22
1	490
1	490
1	15
1	490
1	490
1	26
1	490
1	491
1	10
1	490
1	490
1	491
1	7
1	490
1	490
1	490
1	490
1	8
1	490
1	491
1	490
1	490
1	491
1	490
1	490
1	490
1	8
1	490
1	490
1	9
1	490
1	29
1	29
1	490
1	490
1	490
1	490
1	490
1	490
1	490
1	490
1	490
1	490
1	490
1	490
1	490
1	4
1	490
1	490
1	29
1	8
1	490
1	490
1	7
1	490
1	490
1	10
1	490
1	490
1	27
2	491
2	3
2	4
2	3
2	26
2	3
2	3
2	9
2	3
2	491
2	5
2	3
2	9
2	15
2	3
2	6
2	26
2	3
2	4
2	30
2	7
2	7
2	10
2	3
2	4
2	9
2	3
2	6
2	3
2	3
2	6
2	6
2	9
2	6
2	8
2	3
2	10
2	3
2	3
2	7
2	9
2	3
2	3
2	7
2	3
2	3
2	3
2	3
2	3
2	6
2	6
2	10
2	3
2	7
2	4
2	4
2	5
2	3
2	16
2	26
2	3
2	3
2	3
2	491
2	491
2	3
2	23
2	6
2	4
2	8
2	13
2	7
2	7
2	3
2	6
2	3
2	4
2	23
2	4
2	23
2	3
2	16
2	4
2	491
2	5
2	3
2	10
2	11
2	3
2	4
2	3
2	10
2	4
2	13
2	23
2	4
2	4
2	3
2	4
2	4
2	9
2	4
2	4
2	3
2	4
3	5
3	4
3	5
3	4
3	4
3	4
3	4
3	7
3	9
3	4
3	7
3	5
3	7
3	5
3	5
3	11
3	4
3	5
3	5
3	5
3	4
3	5
3	4
3	4
3	5
3	4
3	7
3	5
3	4
4	9
4	6
4	5
4	5
4	5
4	6
4	6
4	5
4	7
4	5
4	5
4	5
4	6
4	5
4	8
4	5
4	5
4	5
4	6
4	5
4	5
5	6
5	6
5	6
5	8
5	6
5	7
6	7
6	8
6	8
6	7
6	7
6	7
6	7
6	7
6	7
7	8
7	8
7	8
7	8
7	8
8	9
8	9
8	9
8	9
9	10
9	10
11	12
11	13
14	15
14	15
21	22
24	25
28	29
489	490
