1	6124
1	1152
1	1152
1	1152
1	1152
1	1153
1	1152
1	22
1	1152
1	1152
1	1152
1	16
1	1152
1	1152
1	1152
1	1152
1	1152
1	21
1	1157
1	1153
1	24
1	1152
1	96
1	1152
1	1152
1	92
1	17
1	1152
1	23
1	1152
1	21
1	14
1	1152
1	15
1	13
1	1152
1	1152
1	1152
1	1152
1	1152
1	1152
1	1152
1	1152
1	1152
1	1152
1	1152
1	1152
1	1152
1	1152
1	1152
1	17
1	15
1	91
1	1153
1	1152
1	1154
1	8
1	1152
1	1152
1	1152
1	1152
1	1152
1	1152
1	1152
1	12
1	1152
1	1152
1	1152
1	1152
1	1152
1	1152
1	1152
1	15
1	23
1	1153
1	1152
1	1152
1	10
1	1153
1	16
1	23
1	91
1	1152
1	1152
1	1152
1	1152
1	13
1	1152
1	1152
1	15
1	1152
1	1152
1	1152
1	1152
1	1152
1	1152
1	1152
1	1152
1	21
1	91
1	95
1	1152
1	1152
1	1152
1	6
1	17
1	1152
1	1152
1	1152
1	91
1	1152
1	1152
1	10
1	1152
1	9
1	1152
1	1152
1	1155
1	1152
1	1152
1	1152
1	1152
1	14
1	7
1	1153
1	91
1	1152
1	19
1	92
1	1152
1	1152
1	1152
1	1152
1	1152
1	1153
1	1152
1	1152
1	1152
1	1152
1	1152
1	1152
1	1152
1	1152
1	1152
1	12
1	1152
1	1152
1	25
1	1152
1	1152
1	1152
1	1152
1	1152
1	14
1	1152
1	1152
1	92
1	13
1	10
1	1152
1	1152
1	1152
1	1152
1	1152
1	1152
1	1152
1	1152
1	14
1	1152
1	1152
1	1152
1	1152
1	1153
1	13
1	1152
1	1152
1	1153
1	1152
1	1152
1	1152
1	1152
1	1152
1	1152
1	9
1	12
1	1152
1	1152
1	1152
1	1152
1	9
1	8
1	1152
1	15
1	1152
1	1152
1	7
1	1153
1	1153
1	1152
1	91
1	1152
1	1152
1	1152
1	1152
1	91
1	1152
1	11
1	1152
1	1152
1	1152
1	1152
1	1152
1	1152
1	1152
1	1152
1	1152
1	1152
1	1152
1	11
1	1152
1	1152
1	19
1	91
1	1152
1	1152
1	1152
1	1152
1	1152
1	1152
1	4
1	7
1	1152
1	1152
1	8
1	1152
1	21
1	1152
1	1152
1	1152
1	1152
1	1152
1	1152
1	10
1	1152
1	1152
1	1152
1	1152
1	1152
1	1153
1	1152
1	1152
1	1152
1	1152
1	1152
1	10
1	1152
1	7
1	7
1	1152
1	1154
1	1152
1	5
1	15
1	1152
1	1152
1	1152
1	1152
1	1152
1	1152
1	1152
1	1152
1	1153
1	1152
1	1152
1	1152
1	1152
1	1152
1	1152
1	1152
1	1152
1	1152
1	1152
1	1152
1	1152
1	1152
1	1153
1	13
1	1152
1	1152
1	1152
1	7
1	1152
1	1152
1	1152
1	1152
1	1152
1	1152
1	1152
1	1152
1	1152
1	1152
1	1152
1	1152
1	1152
1	1152
1	1152
1	1152
1	1152
1	1152
1	1152
1	18
1	1152
1	1152
1	1156
1	1152
1	1152
1	1152
1	13
1	6
1	1152
1	1152
1	12
1	1152
1	1152
1	1152
1	91
1	6
1	1152
1	1152
1	1152
1	23
1	1152
1	1152
1	1152
1	11
1	1152
1	1152
1	1152
1	1152
1	1152
1	1152
1	1152
1	1152
1	6
1	1152
1	93
1	1152
1	11
1	1152
1	1152
1	1152
1	13
1	18
1	9
1	1152
1	1152
1	1152
1	1152
1	1152
1	1152
1	6124
1	1152
1	1152
1	1153
1	6
1	1152
1	1152
1	1152
1	13
1	1152
1	91
1	1152
1	1152
1	1152
1	1152
1	91
1	1152
1	1152
1	1152
1	1152
1	1152
1	1152
1	1152
1	1152
1	1152
1	1152
1	1152
1	1152
1	1152
1	1152
1	1152
1	14
1	24
1	6
1	1152
1	1152
1	1152
1	1152
1	1152
1	13
1	1152
1	1152
1	1153
1	7
1	1152
1	1152
1	1152
1	18
1	1152
1	1152
1	1152
1	24
1	5
1	1152
1	1152
1	1152
1	1152
1	1152
1	1152
1	1152
1	1152
1	18
1	7
1	1152
1	1152
1	13
1	1152
1	1152
1	1152
1	1152
1	9
1	91
1	7
1	1153
1	13
1	1152
1	1152
1	1152
1	1152
1	1152
1	1152
1	1152
1	1152
1	18
1	1152
1	1154
1	1152
1	1152
1	1152
1	1152
1	91
1	1152
1	1152
1	1152
1	1152
1	1152
1	1152
1	7
1	1152
1	9
1	1152
1	1152
1	1152
1	1152
1	24
1	1152
1	1152
1	11
1	1152
1	1152
1	1152
1	1152
1	1152
1	1152
1	1152
1	1152
1	6
1	1153
1	6
1	1152
1	6
1	1152
1	1152
1	13
1	1152
1	1152
1	1152
1	1152
1	1152
1	6
1	1152
1	1152
1	1152
1	1152
1	1152
1	1152
1	1152
1	1152
1	5
1	1152
1	9
1	1152
1	15
1	1152
1	1152
1	9
1	1152
1	1152
1	1152
1	1152
1	13
1	11
1	1152
1	1152
1	1152
1	1152
1	1152
1	1152
1	8
1	1152
1	1152
1	1152
1	14
1	1152
1	6
1	1152
1	1152
1	1152
1	1152
1	5
1	1152
1	1152
1	1152
1	1152
1	1152
1	1152
1	8
1	1152
1	1152
1	1152
1	6
1	1152
1	1152
1	9
1	1152
1	1152
1	1152
1	1152
1	6
1	1152
1	1152
1	1152
1	1152
1	1152
1	7
1	1152
1	1152
1	1152
1	1152
1	1152
1	9
1	1152
1	24
1	1152
1	23
1	6
1	1152
1	4
1	24
1	1152
1	1152
1	1152
1	1152
1	1152
1	6124
1	1152
1	1152
1	1152
1	1152
1	1152
1	1152
1	1152
1	1153
1	1152
1	1152
1	14
1	1152
1	1152
1	1152
1	1152
1	1152
1	1152
1	12
1	1152
1	1152
1	1152
1	1152
1	13
1	1152
1	1152
1	1152
1	1152
1	1152
1	1152
1	1152
1	14
1	13
1	18
1	1152
1	1152
1	1152
1	1152
1	7
1	1153
1	1152
1	1152
1	5
1	24
1	13
1	1153
1	1152
1	1152
1	1152
1	9
1	1152
1	1152
1	1152
1	1152
1	1152
1	1152
1	1152
1	1152
1	1152
1	1152
1	1152
1	1152
1	13
1	1152
1	1152
1	1152
1	1152
1	1152
1	91
1	23
1	1152
1	1152
1	24
1	1152
1	1152
1	1152
1	1152
1	11
1	1152
1	1152
1	1152
1	1152
1	1153
1	1152
1	1152
1	93
1	1152
1	1152
1	1152
1	1152
1	1152
1	7
1	1152
1	91
1	1152
1	1152
1	1152
1	1152
1	1152
1	1152
1	1152
1	1152
1	1152
1	1152
1	1152
1	1152
1	1152
1	9
1	1152
1	1152
1	14
1	1152
1	1152
1	91
1	1152
1	1152
1	1152
1	1152
1	13
1	19
1	9
1	14
1	8
1	1152
1	19
1	1152
1	1152
1	1152
1	14
1	9
1	1152
1	1152
1	1152
1	1152
1	1152
1	1152
1	1152
1	1152
1	1152
1	1152
1	1152
1	6124
1	1152
1	1152
1	24
1	1152
1	12
1	91
1	1152
1	14
1	1152
1	1152
1	1152
1	1152
1	1152
1	1152
1	1152
1	14
1	1153
1	1152
1	11
1	1152
1	24
1	1152
1	1152
1	12
1	1153
1	1152
1	1152
1	1152
1	1152
1	1152
1	1152
1	1152
1	24
1	1152
1	1152
1	1152
1	1152
1	1152
1	4
1	1152
1	1152
1	1152
1	1152
1	91
1	1152
1	1152
1	1152
1	1152
1	1152
1	1152
1	9
1	7
1	1153
1	1152
1	1152
1	9
1	1152
1	1152
1	1152
1	1152
1	4
1	1152
1	1152
1	1152
1	1152
1	1152
1	5
1	1152
1	91
1	1152
1	1152
1	1152
1	1152
1	1152
1	10
1	1152
1	1152
1	91
1	11
1	1155
1	1152
1	25
1	1152
1	1152
1	1153
1	1153
1	1152
1	1152
1	1152
1	1152
1	1152
1	1152
1	1152
1	5
1	1152
1	25
1	1152
1	1152
1	1152
1	1152
1	1152
1	1152
1	7
1	1152
1	1152
1	1152
1	1152
1	1152
1	1152
1	1152
1	11
1	1152
1	1152
1	1152
1	23
1	1154
1	1152
1	1152
1	13
1	1152
1	9
1	1152
1	24
1	1152
1	91
1	91
1	1152
1	1152
1	1152
1	1152
1	1152
1	92
1	1152
1	91
1	1152
1	1152
1	19
1	1152
1	7
1	1152
1	1152
1	1152
1	1152
1	1152
1	1152
1	1152
1	14
1	1152
1	1152
1	1152
1	1152
1	9
1	1152
1	91
1	1152
1	1152
1	1153
1	1152
1	1152
1	1152
1	1152
1	1152
1	1152
1	1152
1	1152
1	1152
1	1152
1	7
1	1152
1	1152
1	12
1	1152
1	13
1	1152
1	18
1	1152
1	1153
1	14
1	1152
1	1152
1	1152
1	1152
1	1152
1	1152
1	12
1	1152
1	24
1	91
1	1152
1	5
1	1152
1	91
1	1152
1	1152
1	1152
1	1152
1	1152
1	91
1	1152
1	1152
1	91
1	2
1	1152
1	1152
1	1152
1	10
1	1152
1	1152
1	1152
1	1152
1	1152
1	1152
1	1153
1	13
1	1152
1	1152
1	1152
1	1152
1	1152
1	1152
1	1152
1	1152
1	4
1	1152
1	1152
1	1152
1	1152
1	1152
1	1152
1	1152
1	9
1	7
1	1152
1	1152
1	1152
1	1152
1	1152
1	10
1	1152
1	1152
1	1152
1	1152
1	1152
1	1152
1	1152
1	1152
1	7
1	1152
1	1152
1	1152
1	1152
1	15
1	9
1	14
1	1153
1	1152
1	1152
1	1152
1	1152
1	2
1	1152
1	1152
1	91
1	1152
1	91
1	13
1	1152
1	1152
1	1152
1	1152
1	1152
1	1152
1	94
1	1152
1	1152
1	1152
1	6
1	1152
1	1152
1	91
1	1152
1	1152
1	1152
1	8
1	1152
1	1152
1	1152
1	6
1	1152
1	7
1	1152
1	7
1	1152
1	1152
1	1152
1	1152
1	1152
1	1152
1	23
1	1152
1	1152
1	1152
1	1152
1	1152
1	19
1	1152
1	19
1	1152
1	13
1	1152
1	13
1	1152
1	1152
1	1152
1	10
1	91
1	91
1	1152
1	1152
1	10
1	1152
1	1152
1	1152
1	1152
1	15
1	1152
1	1152
1	1152
1	1152
1	1152
1	1152
1	1152
1	1152
1	1152
1	1152
1	1152
1	1152
1	1152
1	1153
1	5
1	1152
1	20
1	1152
1	1152
1	1152
1	1152
1	6
1	91
1	1152
1	7
1	6
1	1152
1	1152
1	1152
1	1152
1	1152
1	1152
1	1152
1	1152
1	1152
1	1152
1	1152
1	1152
1	5
1	1152
1	5
1	1152
1	1152
1	1152
1	1152
1	1152
1	13
1	5
1	1152
1	1152
1	91
1	1152
1	1152
1	91
1	1152
1	1152
1	1152
1	1152
1	91
1	8
1	1152
1	1152
1	1152
1	1152
1	1152
1	1152
1	1152
1	7
1	1152
1	91
1	12
1	23
1	12
1	1152
1	10
1	1152
1	1152
1	1152
1	1152
1	1152
1	1152
1	1152
1	6
1	1152
1	1152
1	1152
1	1152
1	1152
1	91
1	1152
1	1152
1	1152
1	1152
1	10
1	91
1	1152
1	1152
1	91
1	1152
1	1152
1	12
1	4
1	1152
1	1152
1	1152
1	14
1	1152
1	1152
1	1152
1	1152
1	1152
1	19
1	1152
1	1152
1	1152
1	13
1	1152
1	1152
1	1153
1	11
1	19
1	1152
1	1152
1	5
1	1152
1	1152
1	1152
1	12
1	13
1	11
1	1152
1	2
1	1152
1	1152
1	1152
1	10
1	1152
1	1152
1	1152
1	23
1	1152
1	1152
1	1152
1	91
1	1153
1	1152
1	1152
1	1152
1	1152
1	1152
1	1152
1	1152
1	1152
1	1152
1	1152
1	1152
1	1152
1	1152
1	1152
1	1152
1	1152
1	9
1	1152
1	13
1	1152
1	91
1	18
1	1152
1	1152
1	1152
1	9
1	1152
1	1152
1	1152
1	1152
1	8
1	1152
1	1152
1	11
1	12
1	1152
1	1152
1	1152
1	1152
1	1152
1	11
1	1152
1	1152
1	6
1	1152
1	1152
1	1152
1	11
1	1152
1	1152
1	1152
1	1152
1	1152
1	1152
1	1152
1	8
1	1152
1	1152
1	1152
1	1152
1	1152
1	1152
1	1152
1	1152
1	1152
1	1153
1	1152
1	1152
1	1152
1	1152
1	1152
1	9
1	1152
1	6
1	1152
1	11
1	1152
1	1152
1	8
1	93
1	1152
1	1152
1	1152
1	8
1	1152
1	1152
1	1152
1	1152
1	1152
1	9
1	1152
1	1152
1	1152
1	1152
1	1152
1	1152
1	1152
1	6
1	1152
1	1152
1	1152
1	1152
1	1152
1	1152
1	1152
1	1152
1	91
1	1152
1	91
1	1152
1	1152
1	13
1	1152
1	1152
1	1152
1	1152
1	91
1	1152
1	91
1	1152
1	1152
1	1152
1	1152
1	1152
1	1152
1	1152
1	1152
1	1152
1	1152
1	1152
1	1152
1	1152
1	1152
1	1152
1	1152
1	1152
1	1152
1	24
1	1152
1	1152
1	91
1	1152
1	1152
1	1152
1	1152
1	1152
1	5
1	1152
1	1153
1	1152
1	1152
1	1152
1	5
1	1152
1	1152
1	1152
1	1152
1	1152
1	9
1	1152
1	1152
1	23
1	1152
1	1152
1	10
1	1152
1	1152
2	3
2	14
2	3
2	1153
2	14
2	3
2	8
2	12
2	7
2	24
2	3
2	3
2	3
2	3
2	9
2	4
2	3
2	6
2	1153
2	13
2	92
2	25
2	92
2	3
2	24
2	12
2	6
2	92
2	3
2	19
2	5
2	1153
2	14
2	3
2	3
2	1153
2	3
2	14
2	3
2	3
2	3
2	3
2	24
2	3
2	3
2	4
2	4
2	7
2	4
2	14
2	8
2	3
2	5
2	15
2	5
2	6
2	7
2	9
2	5
2	3
2	5
2	13
2	3
2	13
2	3
2	9
2	4
2	14
2	4
2	5
2	5
2	6
2	24
2	3
2	3
2	12
2	4
2	10
2	5
2	4
2	6
2	4
2	3
2	3
2	92
2	6
2	13
2	3
2	25
2	6
2	3
2	7
2	4
2	8
2	3
2	6
2	24
2	92
2	8
2	14
2	10
2	4
2	3
2	9
2	16
2	5
2	7
2	3
2	4
2	3
2	3
2	11
2	3
2	3
2	3
2	14
2	3
2	5
2	19
2	3
2	4
2	3
2	3
2	3
2	92
2	3
2	3
2	92
2	6
2	25
2	7
2	6
2	4
2	9
2	6
2	3
2	92
2	3
2	3
2	25
2	4
2	4
2	6
2	19
2	14
2	5
2	4
2	14
2	4
2	3
2	4
2	3
2	3
2	5
2	3
2	3
2	3
2	3
2	4
2	3
2	4
2	4
2	4
2	3
2	3
2	6
3	4
3	4
3	4
3	4
3	5
3	5
3	4
3	6
3	4
3	15
3	5
3	5
3	4
3	4
3	4
3	7
3	5
3	5
3	5
3	4
3	6
3	4
3	5
3	4
3	5
3	4
3	6
3	4
3	6
3	6
3	4
3	5
3	4
3	5
3	4
3	4
3	5
3	6
3	15
3	7
3	6
3	4
3	4
3	12
3	4
3	4
3	5
3	4
3	4
3	4
3	4
3	4
3	4
3	4
3	5
3	4
3	4
3	4
3	4
3	21
4	5
4	6
4	5
4	6
4	5
4	5
4	5
4	5
4	5
4	5
4	5
4	5
4	6
4	5
4	6
4	5
4	6
4	5
4	6
4	5
4	6
4	5
4	12
4	5
4	6
4	5
5	6
5	6
5	6
5	6
5	7
5	6
5	6
5	6
5	6
5	6
5	6
5	6
5	6
6	7
6	7
6	7
6	7
6	7
7	8
7	8
7	8
7	8
8	9
8	9
8	9
8	9
8	9
8	9
9	10
9	10
10	11
10	11
10	11
11	12
11	12
12	13
12	13
12	13
12	13
12	13
13	14
17	18
18	19
22	23
23	24
90	91
1151	1152
