1	6124
1	437
1	436
1	436
1	436
1	436
1	18
1	436
1	17
1	16
1	442
1	436
1	442
1	23
1	20
1	436
1	436
1	436
1	6124
1	436
1	436
1	437
1	436
1	19
1	436
1	436
1	436
1	436
1	19
1	19
1	436
1	436
1	439
1	436
1	436
1	436
1	436
1	20
1	17
1	436
1	19
1	11
1	15
1	14
1	436
1	21
1	436
1	18
1	436
1	436
1	436
1	13
1	436
1	436
1	436
1	436
1	436
1	16
1	436
1	436
1	436
1	436
1	436
1	9
1	439
1	436
1	436
1	436
1	436
1	437
1	17
1	436
1	2
1	436
1	436
1	436
1	17
1	8
1	13
1	436
1	436
1	436
1	11
1	436
1	436
1	436
1	8
1	439
1	436
1	18
1	436
1	436
1	436
1	17
1	10
1	436
1	436
1	436
1	13
1	436
1	436
1	437
1	436
1	436
1	436
1	11
1	9
1	436
1	14
1	436
1	436
1	436
1	439
1	18
1	436
1	436
1	436
1	436
1	5
1	15
1	436
1	436
1	436
1	436
1	8
1	14
1	8
1	436
1	436
1	436
1	436
1	17
1	14
1	436
1	13
1	13
1	436
1	18
1	436
1	436
1	436
1	436
1	436
1	7
1	436
1	11
1	17
1	17
1	436
1	6124
1	11
1	6124
1	436
1	10
1	6
1	436
1	16
1	436
1	436
1	436
1	436
1	11
1	436
1	10
1	436
1	436
1	436
1	436
1	437
1	436
1	11
1	13
1	10
1	436
1	436
1	436
1	439
1	8
1	436
1	436
1	436
1	436
1	6
1	436
1	436
1	436
1	436
1	437
1	437
1	436
1	436
1	436
1	436
1	436
1	14
1	436
1	13
1	436
1	17
1	11
1	11
1	436
1	13
1	18
1	17
1	8
1	18
1	12
1	436
1	436
1	436
1	436
1	436
1	15
1	436
1	17
1	436
1	13
1	15
1	436
1	436
1	436
1	17
1	13
1	10
1	436
1	436
1	9
1	12
1	436
1	8
1	436
1	7
1	436
1	436
1	436
1	436
1	436
1	17
1	6
1	436
1	437
1	436
1	436
1	436
1	436
1	8
1	438
1	19
1	7
1	5
1	6
1	12
1	12
1	436
1	437
1	436
1	436
1	7
1	436
1	9
1	436
1	13
1	437
1	436
1	436
1	8
1	437
1	14
1	11
1	8
1	436
1	437
1	15
1	436
1	9
1	9
1	9
1	436
1	436
1	436
1	436
1	436
1	436
1	6
1	436
1	8
1	437
1	436
1	436
1	18
1	436
1	436
1	8
1	436
1	6
1	9
1	436
1	437
1	436
1	436
1	19
1	436
1	8
1	8
1	436
1	5
1	436
1	436
1	436
1	8
1	436
1	18
1	13
1	436
1	436
1	436
1	436
1	436
1	436
1	12
1	436
1	436
1	10
1	9
1	6
1	436
1	436
1	8
1	2
1	436
1	436
1	436
1	436
1	437
1	8
1	10
1	15
1	17
1	436
1	436
1	436
1	436
1	436
1	5
1	7
1	436
1	8
1	436
1	436
1	436
1	436
1	436
1	436
1	17
1	436
1	436
1	6
1	9
1	436
1	7
1	436
1	5
1	11
1	12
1	436
1	438
1	15
1	436
1	436
1	12
1	13
1	11
1	17
1	436
1	12
1	10
1	7
1	11
1	15
1	437
1	4
1	436
1	436
1	436
1	436
1	5
1	436
1	15
1	8
1	436
1	5
1	436
1	436
1	436
1	436
1	4
1	10
1	17
1	436
1	7
1	436
1	436
1	436
1	437
1	17
1	9
1	436
1	11
1	436
1	9
1	436
1	6
1	6
1	436
1	436
1	436
1	438
1	6
1	7
1	15
1	16
1	438
1	437
1	438
1	436
1	7
1	436
1	15
1	436
1	5
1	17
1	19
1	10
1	9
1	12
1	436
1	436
1	436
1	437
1	10
1	11
1	436
1	10
1	9
1	436
1	17
1	8
1	7
1	13
1	8
1	436
1	17
1	2
1	436
1	436
1	5
1	11
1	5
1	436
1	12
1	436
1	436
1	6
1	436
1	436
1	436
1	436
1	436
1	10
1	17
1	436
1	5
1	13
1	436
1	11
1	7
1	7
1	11
1	437
1	11
1	436
1	437
1	436
1	16
1	436
1	436
1	16
1	436
1	436
1	10
1	437
1	6124
1	436
1	11
1	19
1	18
1	436
1	17
1	436
1	12
1	436
1	436
1	436
1	12
1	436
1	436
1	436
1	13
1	5
1	6
1	13
1	17
1	436
1	436
1	436
1	13
1	436
1	437
1	6
1	436
1	4
1	16
1	436
1	19
1	436
1	17
1	436
1	16
1	436
1	7
1	436
1	10
1	436
1	6
1	436
1	436
1	436
1	4
1	8
1	8
1	436
1	437
1	436
1	10
1	436
1	19
1	436
1	436
1	13
1	8
1	17
1	436
1	436
1	436
1	436
1	436
1	436
1	17
1	5
1	436
1	436
1	7
1	8
1	17
1	436
1	12
1	436
1	436
1	436
1	4
1	436
1	436
1	11
1	437
1	19
1	436
1	15
1	8
1	436
1	436
1	20
1	5
1	436
1	436
1	436
1	6
1	8
1	17
1	8
1	436
1	436
1	10
1	436
1	15
1	436
1	436
1	10
1	8
1	436
1	436
1	436
1	15
1	16
1	10
1	2
1	436
1	436
1	11
1	11
1	436
1	436
1	5
1	5
1	436
1	436
1	7
1	17
1	436
1	19
1	436
1	437
1	15
1	7
1	436
2	9
2	7
2	5
2	3
2	8
2	9
2	18
2	437
2	3
2	6
2	6
2	5
2	437
2	5
2	16
2	13
2	3
2	3
2	4
2	3
2	4
2	3
2	3
2	6
2	4
2	11
2	9
2	5
2	3
2	6
2	7
2	5
2	18
2	3
2	9
2	3
2	9
2	8
2	5
2	5
2	4
2	7
2	3
2	3
2	8
2	7
2	18
2	12
2	7
2	3
2	6
2	4
2	3
2	3
2	4
2	4
2	5
2	3
2	3
2	3
2	4
2	9
2	12
2	437
2	3
2	7
2	4
2	3
2	3
2	3
2	4
2	7
2	3
2	4
2	3
2	18
2	9
2	437
2	6
2	3
2	11
2	3
2	11
2	4
2	4
2	3
2	3
2	4
2	6
2	7
2	3
2	20
2	3
2	3
2	3
2	4
2	3
2	5
2	12
2	6
2	3
2	4
2	5
2	20
2	3
2	4
2	17
2	3
2	4
2	3
2	6
2	3
2	3
2	7
2	4
2	9
2	4
2	6
2	7
2	3
2	20
2	3
2	3
2	3
2	3
2	4
2	4
2	3
2	4
2	13
2	13
2	7
2	7
2	10
2	4
2	9
2	3
2	5
2	3
2	4
2	7
2	3
2	3
2	4
2	17
2	3
2	3
3	6
3	5
3	4
3	4
3	6
3	6
3	4
3	5
3	5
3	5
3	5
3	4
3	4
3	5
3	6
3	10
3	6
3	6
3	7
3	5
3	7
3	4
3	5
3	4
3	5
3	5
3	5
3	7
3	4
3	4
3	4
3	5
3	4
3	4
3	4
3	5
3	4
3	4
3	5
3	4
3	4
3	5
3	5
3	5
4	5
4	5
4	5
4	5
4	6
4	5
4	5
4	5
4	5
4	5
4	5
4	6
4	5
4	5
4	5
4	5
4	5
4	5
4	6
4	5
4	5
5	6
5	7
5	6
5	6
5	7
5	6
5	6
5	6
5	6
5	6
5	6
5	6
5	7
5	6
6	7
6	7
6	7
6	7
7	8
7	8
7	8
7	8
7	8
7	8
7	8
7	8
7	8
8	10
8	9
8	9
9	10
9	10
9	10
9	10
10	11
10	11
11	12
11	12
11	12
12	13
12	13
14	15
15	16
16	17
16	17
16	17
17	18
18	19
435	436
