1	6124
1	526
1	526
1	527
1	22
1	526
1	526
1	526
1	12
1	12
1	526
1	526
1	19
1	526
1	16
1	526
1	526
1	526
1	526
1	526
1	21
1	526
1	526
1	526
1	526
1	526
1	526
1	526
1	526
1	15
1	526
1	526
1	21
1	526
1	526
1	18
1	526
1	526
1	526
1	14
1	526
1	528
1	20
1	526
1	526
1	526
1	526
1	18
1	526
1	526
1	526
1	526
1	526
1	526
1	13
1	13
1	526
1	526
1	11
1	526
1	12
1	21
1	526
1	526
1	526
1	526
1	14
1	18
1	526
1	526
1	12
1	10
1	21
1	526
1	526
1	526
1	526
1	526
1	526
1	10
1	526
1	9
1	9
1	526
1	17
1	526
1	16
1	526
1	526
1	526
1	526
1	528
1	15
1	9
1	9
1	526
1	9
1	526
1	16
1	19
1	526
1	526
1	526
1	13
1	528
1	526
1	526
1	526
1	526
1	18
1	526
1	526
1	526
1	16
1	526
1	526
1	526
1	11
1	527
1	13
1	8
1	526
1	526
1	526
1	526
1	11
1	526
1	526
1	526
1	5
1	10
1	526
1	526
1	526
1	13
1	10
1	9
1	528
1	22
1	10
1	20
1	526
1	526
1	17
1	18
1	526
1	526
1	526
1	526
1	9
1	526
1	526
1	526
1	526
1	526
1	14
1	526
1	526
1	526
1	526
1	526
1	526
1	526
1	5
1	526
1	527
1	526
1	526
1	10
1	526
1	526
1	526
1	19
1	526
1	526
1	526
1	526
1	6124
1	526
1	526
1	16
1	11
1	23
1	526
1	526
1	18
1	526
1	526
1	526
1	9
1	9
1	526
1	526
1	526
1	526
1	526
1	526
1	526
1	4
1	527
1	9
1	527
1	526
1	526
1	526
1	526
1	526
1	526
1	526
1	526
1	526
1	11
1	21
1	526
1	14
1	526
1	527
1	6
1	13
1	526
1	526
1	9
1	15
1	527
1	8
1	7
1	6
1	526
1	526
1	6124
1	526
1	526
1	526
1	526
1	4
1	526
1	526
1	526
1	526
1	526
1	526
1	9
1	526
1	10
1	9
1	526
1	5
1	526
1	527
1	526
1	526
1	526
1	526
1	526
1	10
1	9
1	17
1	526
1	16
1	526
1	526
1	527
1	15
1	4
1	526
1	526
1	526
1	526
1	526
1	21
1	526
1	19
1	526
1	526
1	9
1	526
1	15
1	526
1	526
1	526
1	526
1	526
1	11
1	527
1	526
1	526
1	526
1	8
1	10
1	526
1	7
1	526
1	526
1	527
1	526
1	14
1	526
1	15
1	526
1	526
1	13
1	526
1	526
1	10
1	526
1	526
1	5
1	526
1	527
1	9
1	526
1	526
1	8
1	11
1	526
1	4
1	526
1	526
1	526
1	15
1	526
1	526
1	526
1	526
1	527
1	526
1	526
1	17
1	2
1	526
1	526
1	5
1	527
1	526
1	14
1	526
1	526
1	526
1	526
1	526
1	526
1	526
1	526
1	22
1	526
1	526
1	526
1	526
1	526
1	18
1	526
1	15
1	21
1	526
1	526
1	526
1	526
1	526
1	526
1	15
1	11
1	11
1	10
1	526
1	8
1	526
1	13
1	526
1	526
1	12
1	526
1	526
1	526
1	526
1	9
1	526
1	526
1	526
1	526
1	526
1	5
1	526
1	526
1	5
1	526
1	526
1	526
1	526
1	6
1	10
1	526
1	526
1	526
1	10
1	526
1	526
1	14
1	526
1	10
1	526
1	526
1	526
1	12
1	17
1	19
1	526
1	526
1	526
1	526
1	10
1	526
1	526
1	10
1	18
1	526
1	10
1	526
1	526
1	526
1	8
1	9
1	13
1	526
1	526
1	526
1	526
1	526
1	526
1	10
1	526
1	526
1	526
1	18
1	526
1	9
1	9
1	21
1	526
1	526
1	526
1	526
1	9
1	5
1	526
1	526
1	15
1	526
1	14
1	526
1	526
1	526
1	526
1	526
1	4
1	526
1	17
1	10
1	526
1	526
1	526
1	526
1	526
1	526
1	526
1	526
1	526
1	526
1	11
1	526
1	526
1	526
1	526
1	526
1	10
1	526
1	9
1	526
1	526
1	526
1	17
1	526
1	7
1	526
1	526
1	526
1	526
1	526
1	10
1	526
1	13
1	526
1	526
1	526
1	526
1	526
1	526
1	526
1	526
1	526
1	526
1	13
1	527
1	526
1	526
1	526
1	526
1	526
1	5
1	8
1	526
1	526
1	526
1	526
1	10
1	526
1	526
1	526
1	526
1	526
1	13
1	526
1	526
1	526
1	526
1	5
1	5
1	526
1	526
1	526
1	13
1	15
1	526
1	526
1	526
1	526
1	19
1	526
1	527
1	8
1	526
1	7
1	5
1	526
1	526
1	526
1	526
1	8
1	526
1	526
1	7
1	4
1	526
1	526
1	526
1	526
1	10
1	526
1	526
1	526
1	527
1	527
1	526
1	526
1	526
1	526
1	526
1	526
1	528
1	4
1	526
1	526
1	526
1	5
1	526
1	6
1	526
1	526
1	9
1	526
1	526
1	12
1	5
1	8
1	8
1	8
1	10
1	527
1	526
1	526
1	526
1	526
1	526
1	527
1	526
1	526
1	526
1	526
1	526
1	526
1	5
1	4
1	526
1	526
1	526
1	17
1	526
1	526
1	527
1	526
1	527
1	5
1	526
1	526
1	526
1	526
1	526
1	526
1	526
1	526
1	6
1	526
1	526
1	526
1	526
1	13
1	526
1	526
1	18
1	526
1	19
1	526
1	6
1	9
1	526
1	11
1	526
1	526
1	526
1	526
1	526
1	526
1	19
1	526
1	8
1	526
1	526
1	526
1	526
1	526
1	11
1	526
2	22
2	4
2	8
2	5
2	3
2	3
2	11
2	6
2	6
2	9
2	3
2	9
2	3
2	3
2	6
2	11
2	6
2	20
2	4
2	6
2	5
2	9
2	5
2	3
2	4
2	8
2	3
2	6
2	18
2	5
2	5
2	3
2	7
2	7
2	3
2	8
2	5
2	3
2	3
2	5
2	12
2	7
2	9
2	3
2	3
2	527
2	6
2	3
2	3
2	11
2	5
2	4
2	527
2	3
2	3
2	5
2	4
2	6
2	6
2	4
2	3
2	4
2	3
2	6
2	5
2	5
2	4
2	8
2	6
2	4
2	3
2	4
2	3
2	5
2	8
2	4
2	4
2	8
2	4
2	4
2	4
2	9
2	19
2	3
2	3
2	3
2	5
2	3
2	4
2	4
2	20
2	9
2	3
2	6
2	6
2	3
2	3
2	6
2	6
3	4
3	4
3	4
3	7
3	4
3	5
3	4
3	9
3	12
3	4
3	4
3	4
3	4
3	5
3	8
3	4
3	4
3	5
3	4
3	11
3	5
3	4
3	4
3	4
3	4
3	5
3	5
3	4
3	5
3	4
3	7
3	5
3	4
3	4
3	13
3	5
3	4
3	9
3	4
3	5
3	10
3	4
3	4
3	6
3	5
3	4
4	5
4	5
4	5
4	5
4	5
4	5
4	7
4	7
4	5
4	7
4	6
4	7
4	5
4	6
4	7
4	6
4	5
4	5
4	5
4	5
4	5
4	5
4	5
4	7
4	5
4	7
4	6
4	5
4	5
4	5
5	6
5	6
5	6
5	6
6	7
6	7
6	7
6	8
6	7
6	7
6	7
7	8
7	8
7	8
7	8
7	9
8	9
8	9
8	9
8	9
8	9
9	11
9	10
9	10
9	10
9	10
10	11
10	11
12	13
12	13
13	14
14	15
16	17
17	18
18	19
20	21
525	526
