1	6124
1	533
1	533
1	533
1	533
1	533
1	533
1	533
1	533
1	534
1	533
1	533
1	533
1	533
1	533
1	17
1	533
1	16
1	535
1	13
1	534
1	534
1	533
1	533
1	533
1	533
1	15
1	533
1	533
1	533
1	533
1	533
1	14
1	533
1	533
1	533
1	533
1	534
1	533
1	533
1	535
1	13
1	533
1	533
1	533
1	10
1	533
1	11
1	533
1	11
1	533
1	533
1	533
1	533
1	533
1	533
1	533
1	533
1	534
1	533
1	15
1	533
1	533
1	533
1	14
1	533
1	12
1	533
1	533
1	533
1	533
1	533
1	13
1	533
1	533
1	533
1	533
1	533
1	533
1	533
1	13
1	533
1	534
1	533
1	533
1	533
1	533
1	533
1	11
1	533
1	9
1	533
1	533
1	533
1	533
1	533
1	533
1	533
1	533
1	15
1	533
1	533
1	533
1	533
1	533
1	533
1	533
1	533
1	533
1	533
1	11
1	533
1	9
1	534
1	533
1	533
1	533
1	10
1	533
1	533
1	18
1	8
1	533
1	10
1	533
1	533
1	533
1	533
1	533
1	533
1	534
1	533
1	533
1	533
1	533
1	533
1	534
1	17
1	9
1	533
1	8
1	533
1	533
1	533
1	533
1	4
1	6
1	9
1	16
1	533
1	533
1	533
1	533
1	533
1	533
1	533
1	533
1	534
1	533
1	533
1	533
1	533
1	10
1	13
1	533
1	533
1	533
1	533
1	533
1	8
1	533
1	533
1	533
1	533
1	6124
1	533
1	533
1	533
1	17
1	533
1	533
1	534
1	533
1	533
1	533
1	10
1	533
1	533
1	2
1	533
1	533
1	533
1	533
1	533
1	534
1	535
1	533
1	533
1	533
1	533
1	533
1	533
1	533
1	533
1	533
1	534
1	533
1	533
1	9
1	533
1	533
1	533
1	533
1	533
1	533
1	533
1	533
1	533
1	534
1	533
1	533
1	533
1	533
1	533
1	12
1	533
1	533
1	533
1	533
1	17
1	533
1	533
1	533
1	10
1	5
1	533
1	534
1	533
1	533
1	4
1	534
1	533
1	533
1	533
1	533
1	9
1	533
1	533
1	15
1	8
1	533
1	533
1	7
1	533
1	533
1	534
1	533
1	12
1	533
1	533
1	533
1	533
1	533
1	533
1	533
1	533
1	533
1	533
1	533
1	533
1	10
1	533
1	533
1	8
1	533
1	533
1	533
1	533
1	533
1	533
1	533
1	534
1	534
1	533
1	533
1	17
1	533
1	533
1	533
1	533
1	533
1	533
1	7
1	533
1	533
1	533
1	533
1	8
1	533
1	533
1	533
1	6
1	533
1	6
1	533
1	10
1	533
1	533
1	533
1	533
1	8
1	533
1	9
1	534
1	533
1	533
1	533
1	533
1	533
1	533
1	14
1	533
1	13
1	533
1	533
1	533
1	533
1	9
1	533
1	533
1	533
1	533
1	533
1	8
1	533
1	15
1	533
1	533
1	533
1	533
1	533
1	533
1	533
1	533
1	533
1	533
1	533
1	533
1	5
1	533
1	533
1	533
1	533
1	8
1	533
1	533
1	4
1	533
1	533
1	534
1	533
1	533
1	533
1	533
1	533
1	533
1	7
1	533
1	533
1	533
1	8
1	533
1	10
1	16
1	17
1	8
1	534
1	533
1	533
1	533
1	533
1	15
1	533
1	533
1	533
1	533
1	533
1	533
1	533
1	533
1	533
1	533
1	533
1	533
1	533
1	533
1	533
1	533
1	10
1	533
1	533
1	533
1	10
1	8
1	533
1	533
1	13
1	533
1	533
1	11
1	534
1	8
1	533
1	533
1	9
1	4
1	533
1	533
1	5
1	533
1	15
1	13
1	533
1	5
1	533
1	533
1	533
1	533
1	535
1	533
1	533
1	533
1	533
1	13
1	533
1	533
1	8
1	533
1	533
1	533
1	533
1	533
1	533
1	533
1	533
1	533
1	533
1	533
1	533
1	8
1	533
1	533
1	533
1	533
1	15
1	533
1	533
1	533
1	533
1	535
1	534
1	533
1	533
1	7
1	533
1	533
1	533
1	15
1	533
1	533
1	533
1	533
1	533
1	5
1	4
1	533
1	10
1	533
1	533
1	17
1	533
1	533
1	533
1	533
1	533
1	4
1	533
1	533
1	533
1	533
1	533
1	533
1	533
1	533
1	533
1	533
1	533
1	533
1	533
1	533
1	533
1	533
1	13
1	8
1	533
1	533
1	533
1	533
1	535
1	533
1	533
1	533
1	533
1	533
1	533
1	10
1	533
1	533
1	11
1	5
1	534
1	533
1	533
1	533
1	533
1	534
1	533
1	12
1	533
1	533
1	533
1	533
1	533
1	533
1	533
1	533
1	533
1	533
1	8
1	533
1	533
1	533
1	533
1	533
1	533
1	7
1	533
1	533
1	533
1	6
1	533
1	533
1	533
1	533
1	9
1	533
1	8
1	533
1	533
1	8
1	533
1	533
1	533
1	533
1	9
1	533
1	533
1	7
1	533
1	533
1	533
1	5
1	533
1	533
1	10
1	9
1	533
1	533
1	534
1	533
1	533
1	533
1	533
1	533
1	12
1	533
1	10
1	4
1	533
2	18
2	10
2	13
2	7
2	3
2	18
2	5
2	8
2	3
2	4
2	4
2	10
2	8
2	4
2	6
2	5
2	3
2	18
2	9
2	11
2	3
2	7
2	10
2	7
2	9
2	3
2	3
2	3
2	4
2	13
2	7
2	3
2	3
2	3
2	4
2	7
2	10
2	6
2	11
2	15
2	7
2	5
2	4
2	5
2	4
2	4
2	3
2	6
2	3
2	3
2	4
2	6
2	4
2	4
2	3
2	3
2	3
2	5
2	3
2	3
2	3
2	4
2	3
2	4
2	18
2	3
2	4
2	11
2	3
2	3
2	3
2	7
2	4
2	13
2	3
2	8
2	3
2	6
2	4
2	3
2	3
2	3
2	5
2	3
2	3
2	3
2	3
2	3
2	3
2	6
2	18
2	16
2	7
2	9
2	5
3	5
3	6
3	4
3	5
3	5
3	4
3	5
3	4
3	5
3	4
3	4
3	4
3	4
3	6
3	4
3	5
3	4
3	4
3	4
3	5
3	4
3	5
3	5
3	5
3	4
3	4
3	4
3	5
3	4
3	4
3	4
3	4
3	6
3	5
3	4
3	4
3	10
3	4
3	4
4	5
4	7
4	6
4	5
4	5
4	6
4	5
4	5
5	6
5	6
5	7
5	6
5	7
5	6
5	6
5	6
5	6
5	6
6	8
6	7
6	7
7	8
7	8
7	8
7	8
7	8
7	8
8	9
8	9
8	9
9	10
9	10
11	12
11	12
12	13
14	15
16	17
532	533
