1	6124
1	1543
1	1543
1	1543
1	1543
1	1543
1	1543
1	1543
1	1543
1	1543
1	1543
1	1543
1	1544
1	1546
1	1543
1	1543
1	1543
1	1543
1	1543
1	1543
1	1543
1	1543
1	1543
1	1543
1	1543
1	1544
1	1543
1	1543
1	1543
1	1543
1	1543
1	1543
1	1543
1	1544
1	1543
1	1543
1	1543
1	1543
1	1543
1	1543
1	12
1	1543
1	1543
1	1543
1	1543
1	1543
1	1545
1	1543
1	1543
1	1543
1	1543
1	1543
1	1544
1	1543
1	1543
1	1543
1	1543
1	1544
1	1543
1	1543
1	1543
1	10
1	1543
1	1544
1	1543
1	1543
1	1543
1	1543
1	1543
1	1543
1	1543
1	1544
1	1543
1	1543
1	1543
1	1543
1	1543
1	1543
1	10
1	1544
1	1543
1	1543
1	1543
1	1543
1	9
1	1543
1	8
1	1543
1	15
1	1544
1	1543
1	1543
1	1543
1	1543
1	1543
1	1543
1	1543
1	1543
1	1543
1	1543
1	1543
1	1543
1	1543
1	1543
1	1543
1	16
1	1543
1	1543
1	1543
1	18
1	1543
1	1544
1	1543
1	1543
1	1543
1	1543
1	1543
1	1543
1	1543
1	1543
1	1543
1	1543
1	1543
1	11
1	1543
1	1543
1	1543
1	1543
1	1543
1	1543
1	1543
1	1543
1	1543
1	1543
1	1543
1	1543
1	1543
1	1543
1	13
1	1543
1	1543
1	12
1	1543
1	1545
1	1543
1	8
1	1543
1	1543
1	1545
1	1543
1	1543
1	1543
1	1543
1	11
1	1543
1	1543
1	1543
1	1543
1	1543
1	1543
1	1543
1	1546
1	1543
1	1543
1	1543
1	8
1	1543
1	1543
1	1543
1	11
1	1543
1	1543
1	1543
1	1543
1	1543
1	1543
1	1543
1	1543
1	1543
1	1543
1	1543
1	1543
1	1543
1	1543
1	1543
1	1543
1	1543
1	1543
1	1543
1	1543
1	1543
1	1543
1	12
1	1543
1	1543
1	1543
1	1543
1	1543
1	1543
1	1543
1	1543
1	1543
1	1543
1	1543
1	7
1	1543
1	1543
1	1543
1	1543
1	1543
1	1543
1	1543
1	1543
1	1543
1	1543
1	1543
1	1543
1	1543
1	1543
1	1543
1	1543
1	1543
1	1543
1	1543
1	1543
1	1543
1	1543
1	18
1	1543
1	1543
1	1543
1	1543
1	1543
1	1543
1	1543
1	1543
1	1543
1	1543
1	11
1	18
1	1543
1	12
1	1543
1	1543
1	1543
1	1543
1	8
1	1543
1	1543
1	1543
1	1543
1	1543
1	1544
1	1543
1	1543
1	1543
1	1543
1	1543
1	1543
1	1543
1	1543
1	1543
1	1543
1	1543
1	1543
1	1543
1	1543
1	1543
1	1543
1	1543
1	1545
1	1543
1	1543
1	9
1	1543
1	1543
1	1543
1	1543
1	1543
1	1543
1	1543
1	1543
1	1543
1	1543
1	1543
1	1543
1	1543
1	1543
1	1543
1	1543
1	1543
1	1543
1	1543
1	1543
1	1543
1	1543
1	1543
1	1543
1	1543
1	1543
1	1545
1	1543
1	1543
1	1543
1	1543
1	1547
1	1543
1	1543
1	1543
1	1543
1	1543
1	1543
1	1543
1	1543
1	1543
1	1543
1	1545
1	1543
1	1543
1	1543
1	1543
1	1543
1	1543
1	1543
1	1543
1	1543
1	1543
1	1543
1	1543
1	1543
1	1543
1	1543
1	1543
1	1543
1	1543
1	1543
1	1543
1	1543
1	1543
1	1543
1	1543
1	1543
1	1543
1	1543
1	1543
1	1543
1	1543
1	1543
1	1543
1	1545
1	1543
1	1543
1	1543
1	1543
1	1543
1	1543
1	1543
1	13
1	1543
1	1543
1	15
1	1543
1	8
1	1543
1	1543
1	1543
1	8
1	1543
1	1543
1	1543
1	1543
1	1543
1	1543
1	1543
1	1543
1	1543
1	1543
1	1543
1	5
1	1543
1	1543
1	1543
1	6
1	8
1	1543
1	1543
1	1543
1	1543
1	1543
1	1543
1	1543
1	1543
1	1543
1	8
1	1543
1	1543
1	1543
1	1543
1	1543
1	1543
1	1543
1	1543
1	1543
1	1543
1	1545
1	1543
1	1543
1	1543
1	12
1	1543
1	1543
1	1543
1	1543
1	1543
1	1543
1	1543
1	1543
1	1543
1	1543
1	1543
1	11
1	1543
1	1543
1	1543
1	15
1	1543
1	1543
1	1543
1	1543
1	1543
1	1545
1	1543
1	1543
1	1543
1	1543
1	1543
1	1546
1	1543
1	8
1	1543
1	1543
1	1543
1	1543
1	1543
1	1543
1	1543
1	1543
1	1543
1	1543
1	1543
1	1543
1	1543
1	1543
1	1543
1	7
1	1543
1	1543
1	1543
1	1543
1	1543
1	1543
1	1543
1	1543
1	1543
1	1543
1	1543
1	1543
1	1546
1	8
1	1543
1	1543
1	1543
1	1543
1	1543
1	1543
1	1543
1	1543
1	1543
1	1543
1	1543
1	1543
1	1543
1	5
1	1543
1	1543
1	1543
1	1543
1	1543
1	1543
1	1543
1	1545
1	8
1	1543
1	14
1	1543
1	6
1	1543
1	1543
1	1543
1	1543
1	1543
1	1543
1	1543
1	1543
1	1543
1	1543
1	1543
1	1543
1	1543
1	10
1	1543
1	1543
1	1543
1	1543
1	1543
1	1543
1	1543
1	1543
1	1543
1	1543
1	1543
1	1543
1	1543
1	1543
1	1543
1	1543
1	1543
1	1543
1	1543
1	1543
1	1543
1	5
1	1543
1	1543
1	1543
1	1543
1	1543
1	1543
1	1543
1	1543
1	1547
1	1543
1	1543
1	1543
1	1543
1	1543
1	1546
1	1543
1	5
1	1544
1	1543
1	1543
1	6
1	1543
1	1543
1	1543
1	1543
1	1543
1	1543
1	1543
1	1543
1	1543
1	1543
1	1543
1	1543
1	1543
1	1543
1	1543
1	1543
1	1543
1	1543
1	6
1	1543
1	1543
1	1543
1	1543
1	1543
1	1544
1	1543
1	5
1	1543
1	1543
1	1543
1	1543
1	1543
1	1543
1	1543
1	1543
1	1543
1	1543
1	1543
1	1544
1	1543
1	1543
1	1543
1	1543
1	1546
1	1543
1	1543
1	1543
1	1543
1	1543
1	5
1	1543
1	1543
1	1543
1	1543
1	1543
1	1543
1	1543
1	1543
1	1543
1	1543
1	1543
1	11
1	1543
1	1543
1	10
1	1543
1	1543
1	1543
1	11
1	1543
1	1543
1	1543
1	1543
1	1543
1	9
1	1543
1	1543
1	1543
1	1543
1	1543
1	1543
1	1543
1	1543
1	1543
1	13
1	1543
1	1543
1	1543
1	1543
1	1543
1	7
1	1543
1	1543
1	1543
1	1543
1	1543
1	1543
1	1543
1	5
1	1543
1	1544
1	1543
1	1543
1	1543
1	7
1	1543
1	7
1	1543
1	1543
1	1543
1	5
1	1543
1	1543
1	1543
1	1543
1	1543
1	1543
1	1543
1	1543
1	1543
1	1543
1	1543
1	1543
1	1543
1	1543
1	1543
1	1543
1	1543
1	1543
1	1543
1	1543
1	1543
1	1543
1	1543
1	1543
1	1543
1	1543
1	1543
1	1543
1	1543
1	1543
1	1543
1	1543
1	1543
1	1543
1	1543
1	1543
1	1543
1	1543
1	1543
1	1543
1	1543
1	1543
1	1543
1	1543
1	1543
1	1543
1	1543
1	1543
1	1543
1	1543
1	1543
1	1543
1	1543
1	1543
1	1543
1	1543
1	1543
1	1543
1	1543
1	5
1	1543
1	1543
1	1543
1	1543
1	1543
1	1543
1	1543
1	1543
1	1543
1	1543
1	1543
1	1543
1	1543
1	5
1	1543
1	7
1	1543
1	1543
1	1544
1	1543
1	1543
1	1543
1	11
1	1543
1	1543
1	1543
1	1543
1	1543
1	1543
1	1543
1	1543
1	6
1	1543
1	1543
1	1543
1	1543
1	11
1	1543
1	1543
1	1543
1	1543
1	1543
1	1543
1	1543
1	1543
1	1544
1	1543
1	1543
1	1543
1	1543
1	12
1	1543
1	1543
1	1543
1	1543
1	1543
1	1543
1	1543
1	1543
1	1543
1	1543
1	1543
1	1543
1	1543
1	1543
1	1543
1	1543
1	1543
1	1543
1	1543
1	1544
1	1543
1	1544
1	1543
1	1543
1	1543
1	1543
1	1543
1	1543
1	1543
1	1543
1	1543
1	1543
1	1543
1	1543
1	1543
1	1543
1	1543
1	1543
1	1544
1	1543
1	1543
1	1543
1	1543
1	1543
1	1543
1	1545
1	1543
1	5
1	1543
1	1543
1	1543
1	1543
1	1543
1	7
1	1543
1	1543
1	1543
1	1543
1	1543
1	1543
1	1543
1	1543
1	1543
1	11
1	1543
1	1543
1	1543
1	1543
1	1543
1	1543
1	1543
1	1543
1	1543
1	1543
1	1543
1	1543
1	1543
1	1543
1	1543
1	1543
1	1543
1	1543
1	1543
1	1543
1	1543
1	1543
1	1543
1	1543
1	1543
1	1543
1	1543
1	1543
1	1543
1	1543
1	10
1	1543
1	7
1	4
1	1543
1	1543
1	1543
1	1543
1	1543
1	1543
1	5
1	1543
1	1543
1	1543
1	1543
1	1543
1	5
1	1543
1	1543
1	1543
1	1544
1	9
1	1543
1	1545
1	1543
1	1543
1	1544
1	1543
1	1543
1	1544
1	1543
1	1543
1	8
1	1543
1	1543
1	1543
1	1543
1	1543
1	1543
1	1543
1	1543
1	1543
1	1543
1	1543
1	7
1	1543
1	1543
1	1543
1	1543
1	1543
1	1543
1	1543
1	1543
1	1543
1	1543
1	1543
1	1543
1	1543
1	1543
1	1543
1	5
1	1543
1	1543
1	1543
1	1543
1	1543
1	1543
1	1543
1	1543
1	1543
1	1543
1	7
1	1543
1	1543
1	1543
1	1543
1	1543
1	1543
1	1543
1	1543
1	1543
1	1543
1	1543
1	1543
1	1543
1	1543
1	1543
1	1543
1	1543
1	1543
1	1543
1	1543
1	1543
1	5
1	1543
1	1543
1	1543
1	1543
1	1543
1	1543
1	1543
1	1543
1	8
1	1543
1	1543
1	1543
1	1543
1	1543
1	1543
1	1543
1	1543
1	1543
1	1543
1	1543
1	1543
1	8
1	1543
1	1543
1	9
1	1543
1	1543
1	1543
1	1543
1	1543
1	1543
1	6
1	1543
1	1543
1	1543
1	1543
1	1543
1	1543
1	1543
1	1543
1	1543
1	1543
1	1543
1	1543
1	1543
1	1543
1	1543
1	1546
1	8
1	6
1	7
1	1543
1	1543
1	10
1	1543
1	1543
1	1543
1	1543
1	1543
1	1543
1	1543
1	1543
1	1543
1	1543
1	1543
1	1543
1	1543
1	1543
1	8
1	1543
1	1543
1	5
1	1543
1	1543
1	1543
1	6
1	1543
1	1543
1	1543
1	1543
1	1543
1	1543
1	1543
1	10
1	1543
1	1543
1	1543
1	6
1	1543
1	1543
1	1543
1	1543
1	1543
1	1543
1	1543
1	4
1	1543
1	1543
1	7
1	1543
1	1543
1	4
1	1543
1	1543
1	1543
1	1543
1	1543
1	1543
1	1543
1	1543
1	1543
1	1543
1	1543
1	1543
1	1543
1	1543
1	1543
1	1543
1	8
1	1543
1	1543
1	6
1	1543
1	1543
1	1543
1	1543
1	1543
1	1543
1	1543
1	1543
1	1543
1	1543
1	1543
1	1543
1	1543
1	1543
1	1543
1	1543
1	1543
1	1543
1	1543
1	1543
1	1543
1	1543
1	1543
1	1543
1	5
1	1543
1	1543
1	1543
1	5
1	1543
1	1543
1	1543
1	1543
1	1543
1	1543
1	1543
1	1543
1	12
1	6
1	1543
1	1543
1	1543
1	1543
1	1543
1	1543
1	1543
1	1543
1	1543
1	1543
1	1543
1	1543
1	1543
1	1543
1	1543
1	1543
1	1543
1	1543
1	1543
1	1543
1	1543
1	1543
1	1543
1	1543
1	1543
1	1543
1	1543
1	1543
1	10
1	1543
1	1543
1	1543
1	1543
1	1543
1	1543
1	1543
1	7
1	1543
1	1543
1	6
1	1543
1	1543
1	1543
1	1543
1	1543
1	1543
1	7
1	1543
1	1543
1	1543
1	1543
1	1543
1	1543
1	1543
1	1543
1	1543
1	1543
1	1543
1	1543
1	1543
1	1543
1	1543
1	1543
1	1543
1	1543
1	1543
1	1543
1	1543
1	1543
1	1543
1	1544
1	1543
1	1543
1	1543
1	1543
1	1544
1	1543
1	1543
1	1543
1	1543
1	1543
1	1543
1	1543
1	1543
1	1543
1	1543
1	1543
1	1543
1	1543
1	1543
1	6
1	1543
1	1543
1	5
1	7
1	1543
1	1543
1	1543
1	1543
1	1543
1	1543
1	1543
1	12
1	1543
1	1543
1	1543
1	1543
1	1543
1	1543
1	1543
1	1543
1	1543
1	1543
1	1543
1	1543
1	1543
1	1543
1	5
1	1543
1	1543
1	9
1	1543
1	1543
1	1543
1	1543
1	1543
1	1543
1	1543
1	1543
1	5
1	1543
1	1543
1	1543
1	1543
1	1543
1	1543
1	1543
1	1543
1	1543
1	1543
1	1543
1	1543
1	1543
1	5
1	1543
1	1543
1	1543
1	1543
1	1543
1	13
1	1543
1	4
1	7
1	1543
1	1543
1	12
1	1543
1	1543
1	1543
1	1543
1	1543
1	1543
1	1543
1	1543
1	1543
1	1543
1	1543
1	1543
1	1543
1	1543
1	1543
1	1543
1	1543
1	1543
1	1543
1	1543
1	1543
1	1543
1	1543
1	1543
1	1544
1	1543
1	1543
1	1543
1	1543
1	1543
1	1543
1	1543
1	1543
1	1543
1	1543
1	1543
1	1543
1	1543
1	1543
1	1543
1	1543
1	1543
1	1543
1	1543
1	1543
1	1543
1	1543
1	1545
1	1543
1	5
1	1543
1	1543
1	1543
1	1543
1	1543
1	1543
1	1543
1	1543
1	1543
1	1543
1	1543
1	1543
1	1543
1	1543
1	1543
1	1544
1	1543
1	8
1	1543
1	1543
1	1543
1	1543
1	1543
1	1543
1	7
1	1543
1	1543
1	1543
1	5
1	1543
1	1543
1	1543
1	1543
1	1543
1	1543
1	1543
1	1543
1	4
1	1543
1	1543
1	1543
1	1543
1	1543
1	1543
1	1543
1	1543
1	1543
1	1543
1	1543
1	1543
1	1543
1	1543
1	1543
1	1543
1	1543
1	1543
1	1543
1	1543
1	1543
1	1543
1	1543
1	1543
1	11
1	1543
1	1543
1	1543
1	1543
1	1543
1	1543
1	1543
1	1543
1	1543
1	1543
1	1543
1	6
1	1543
1	1543
1	1543
1	1543
1	1543
1	1543
1	1543
1	1543
1	1543
1	1543
1	1543
1	1543
1	7
1	1543
1	1543
1	1543
1	1543
1	1543
1	1543
1	1543
1	1543
1	1543
1	1543
1	1543
1	1544
1	1543
1	1543
1	1543
1	1544
1	1543
1	1543
1	1543
1	1543
1	1543
1	1543
1	1543
1	1543
1	1543
1	1543
1	1543
1	8
1	1543
1	1543
1	1543
1	1543
1	1543
1	4
1	1543
1	4
1	1543
1	1543
1	1543
1	1543
1	1543
1	1543
1	1543
1	1543
1	1544
1	1543
1	1543
1	1543
1	1543
1	1543
1	1543
1	1543
1	1543
1	1543
1	1543
1	1543
1	6
1	1543
1	1543
1	1543
1	1543
1	1543
1	1543
1	8
1	4
1	1543
1	1543
1	1543
1	1543
1	1543
1	4
1	1543
1	1543
1	1543
1	1543
1	1543
1	1543
1	1543
1	1543
1	1543
1	1543
1	7
1	1543
1	1543
1	1543
1	1543
1	1543
1	1543
1	1543
1	1544
1	1543
1	1543
1	1543
1	1543
1	1543
1	1543
1	1543
1	1543
1	1543
1	1543
1	1543
1	1543
1	1543
1	1543
1	1543
1	1544
1	1543
1	1543
1	1543
1	1543
1	1543
1	4
1	1543
1	1543
1	1543
1	1543
1	1543
1	1543
1	1543
1	1543
1	1543
1	1543
1	1543
1	1543
1	1543
1	1543
1	1544
1	8
1	1543
1	1543
1	1543
1	1543
1	1543
1	6
1	1543
1	1543
1	1543
1	1543
1	1543
1	1543
1	1543
1	1543
1	1543
1	1543
1	1543
1	1543
1	1543
1	1543
1	1543
1	1543
1	1543
1	1543
1	1543
1	10
1	1543
1	1543
1	1543
1	1543
1	1543
1	1543
1	6
1	1543
1	1543
1	1543
1	1543
1	1543
1	1543
1	1543
1	1543
1	1543
1	1543
1	1543
1	1543
1	1543
1	1543
1	1543
1	1543
1	1543
1	1544
1	1543
1	1543
1	1543
1	1543
1	1543
1	1543
1	1543
1	1543
1	1543
1	5
1	9
1	1543
1	1543
1	1543
1	1543
1	1543
1	1543
1	1543
1	1543
1	1543
1	8
1	6
1	1543
1	1543
1	1543
1	1543
1	10
1	4
1	12
1	1543
1	1543
1	1543
1	1543
2	3
2	1544
2	13
2	3
2	3
2	3
2	3
2	5
2	5
2	3
2	3
2	3
2	1544
2	1544
2	3
2	5
2	1544
2	3
2	3
2	3
2	3
2	3
2	11
2	4
2	1544
2	4
2	3
2	3
2	1544
2	4
2	12
2	11
2	3
2	3
2	1544
2	4
2	4
2	8
2	3
2	3
2	4
2	4
2	5
2	4
2	3
2	3
2	1544
2	1544
2	6
2	3
2	3
2	4
2	3
2	8
2	8
2	3
2	4
2	8
2	4
2	3
2	3
2	3
2	5
2	3
2	3
2	3
2	3
2	3
2	4
2	4
2	4
2	5
2	3
2	3
2	3
2	5
2	4
2	5
2	3
2	3
2	4
2	7
2	4
2	14
2	3
2	4
2	3
2	4
2	6
2	4
2	3
2	3
2	3
2	3
2	6
2	3
2	12
2	3
2	3
2	13
2	3
2	3
2	3
3	4
3	4
3	4
3	4
3	4
3	4
3	9
3	4
3	4
3	4
3	4
3	5
3	5
3	7
3	5
3	4
3	5
3	4
3	5
3	4
3	4
3	7
3	4
3	5
3	4
3	4
3	5
3	4
3	4
3	4
3	4
3	5
3	4
3	5
3	5
3	5
3	4
3	4
3	4
4	5
4	5
4	5
4	5
4	5
4	5
4	5
4	5
4	5
4	5
4	7
4	5
4	5
4	5
4	5
4	5
4	5
4	9
4	6
4	5
4	5
4	5
4	5
5	6
5	6
5	6
5	6
5	6
5	6
5	6
6	7
6	7
6	7
6	7
6	7
6	7
7	8
7	8
7	8
8	9
9	10
9	10
10	11
11	12
12	13
1542	1543
