1	6124
1	1654
1	1654
1	1654
1	1655
1	1654
1	1654
1	1654
1	1654
1	27
1	20
1	14
1	19
1	13
1	1654
1	1654
1	1654
1	1654
1	1654
1	1654
1	18
1	1654
1	37
1	1654
1	20
1	1654
1	6124
1	1654
1	1654
1	9
1	1654
1	1654
1	1654
1	1654
1	1654
1	1654
1	1654
1	1654
1	1654
1	1654
1	6124
1	1654
1	1654
1	1654
1	1654
1	1654
1	1654
1	1654
1	1654
1	1654
1	1654
1	9
1	1654
1	1654
1	19
1	1654
1	1654
1	14
1	1654
1	1654
1	1654
1	1654
1	1654
1	1654
1	14
1	1654
1	1654
1	13
1	1654
1	1654
1	1654
1	1654
1	6124
1	17
1	1654
1	1654
1	1654
1	1654
1	1654
1	1654
1	1654
1	16
1	1654
1	1654
1	1654
1	1654
1	1654
1	1654
1	1654
1	17
1	1654
1	1654
1	1654
1	1654
1	1654
1	1654
1	1654
1	6
1	1654
1	1654
1	1654
1	1655
1	1654
1	1654
1	14
1	1654
1	1654
1	15
1	1654
1	1654
1	1654
1	1654
1	18
1	1654
1	1654
1	1654
1	37
1	1654
1	1654
1	1654
1	1654
1	1655
1	1654
1	1654
1	1654
1	1654
1	1654
1	1654
1	1654
1	13
1	1654
1	1654
1	1654
1	6
1	1654
1	1654
1	18
1	20
1	1656
1	1654
1	1654
1	17
1	1654
1	16
1	10
1	15
1	1654
1	1654
1	13
1	1654
1	1655
1	1654
1	1654
1	1654
1	1654
1	1654
1	14
1	1654
1	12
1	1654
1	12
1	13
1	1654
1	1654
1	1654
1	15
1	14
1	1654
1	1654
1	1655
1	1654
1	1654
1	1654
1	12
1	1654
1	1654
1	1654
1	1654
1	1654
1	12
1	16
1	1654
1	1654
1	14
1	1654
1	13
1	16
1	1654
1	1654
1	1654
1	1654
1	1654
1	1654
1	1654
1	14
1	1654
1	18
1	1654
1	1654
1	1654
1	1654
1	1654
1	1654
1	1654
1	1654
1	1654
1	18
1	1654
1	1654
1	1654
1	1654
1	1654
1	34
1	16
1	8
1	1654
1	1656
1	17
1	1654
1	1654
1	1654
1	11
1	1654
1	1656
1	1654
1	1654
1	1654
1	1654
1	1654
1	1654
1	1654
1	16
1	1654
1	11
1	1654
1	1655
1	36
1	12
1	19
1	1654
1	1654
1	15
1	15
1	1654
1	1655
1	8
1	1654
1	1654
1	1654
1	31
1	1654
1	16
1	1654
1	1654
1	1654
1	1654
1	1654
1	1654
1	14
1	1654
1	1654
1	1654
1	1654
1	1654
1	9
1	17
1	1654
1	1654
1	15
1	1654
1	15
1	1654
1	1654
1	13
1	1654
1	1654
1	1654
1	1654
1	1654
1	1654
1	1654
1	1654
1	1654
1	1654
1	1654
1	15
1	1654
1	1654
1	13
1	1654
1	1654
1	1654
1	1654
1	12
1	1654
1	1654
1	1654
1	9
1	1654
1	1654
1	1654
1	1654
1	1654
1	15
1	1654
1	1655
1	1654
1	1654
1	17
1	1654
1	1654
1	15
1	1654
1	1654
1	12
1	9
1	1654
1	1654
1	1654
1	1654
1	1654
1	1654
1	1655
1	1654
1	1654
1	33
1	1654
1	1654
1	1654
1	1654
1	1654
1	1654
1	11
1	15
1	12
1	1654
1	17
1	1654
1	1654
1	1654
1	1654
1	1654
1	1654
1	1654
1	1654
1	15
1	7
1	1654
1	1654
1	1654
1	1654
1	1654
1	1654
1	1654
1	1654
1	1654
1	1654
1	1654
1	16
1	22
1	1654
1	1654
1	1654
1	1654
1	15
1	1654
1	1654
1	7
1	36
1	1654
1	11
1	11
1	29
1	1654
1	1654
1	1654
1	1654
1	14
1	1654
1	1654
1	1654
1	17
1	1654
1	33
1	11
1	14
1	15
1	1654
1	14
1	1654
1	1654
1	1654
1	19
1	1654
1	1654
1	8
1	1654
1	6124
1	13
1	1654
1	1654
1	1654
1	19
1	1654
1	1654
1	1654
1	1654
1	1654
1	1654
1	36
1	1654
1	1654
1	1654
1	1654
1	1654
1	14
1	1654
1	11
1	15
1	1654
1	1654
1	1654
1	1654
1	33
1	1654
1	1654
1	1655
1	1654
1	1654
1	1654
1	1654
1	6
1	1654
1	1654
1	11
1	1654
1	1654
1	1654
1	1655
1	1654
1	1654
1	1654
1	1654
1	1654
1	1654
1	37
1	1654
1	1654
1	1654
1	15
1	1654
1	10
1	1654
1	1654
1	1655
1	1656
1	1654
1	1654
1	16
1	1654
1	1654
1	1654
1	1654
1	12
1	9
1	1654
1	1654
1	19
1	1654
1	1654
1	1654
1	1654
1	1654
1	1654
1	1654
1	1654
1	1654
1	1654
1	1654
1	1654
1	1654
1	1654
1	1654
1	1655
1	6
1	1654
1	15
1	1654
1	1654
1	1654
1	11
1	1654
1	1654
1	14
1	1654
1	1654
1	1654
1	1654
1	1654
1	20
1	1654
1	9
1	1654
1	1654
1	1654
1	1654
1	1654
1	1654
1	1654
1	1654
1	14
1	2
1	1654
1	1654
1	1654
1	1654
1	1654
1	4
1	1654
1	1654
1	1654
1	15
1	1654
1	1654
1	18
1	1654
1	1656
1	1654
1	1654
1	1654
1	18
1	1654
1	15
1	1657
1	1654
1	1654
1	11
1	1654
1	12
1	1654
1	1654
1	1654
1	1654
1	1654
1	16
1	15
1	1654
1	1654
1	1654
1	1654
1	1654
1	10
1	1654
1	1654
1	1654
1	1654
1	1654
1	1654
1	1654
1	1654
1	1654
1	19
1	1654
1	1654
1	1654
1	15
1	1654
1	1654
1	1654
1	29
1	11
1	15
1	1654
1	1654
1	6
1	1654
1	1655
1	1654
1	1654
1	1654
1	1654
1	1654
1	11
1	18
1	1654
1	14
1	1654
1	1654
1	13
1	1654
1	18
1	15
1	1654
1	1654
1	1654
1	1654
1	1654
1	1654
1	1654
1	15
1	1654
1	1654
1	14
1	1654
1	1654
1	1654
1	1654
1	1654
1	1654
1	1654
1	1654
1	1654
1	14
1	11
1	1654
1	1654
1	1654
1	1654
1	1654
1	9
1	11
1	1654
1	11
1	1654
1	1654
1	1654
1	6
1	1654
1	1654
1	1654
1	10
1	11
1	1654
1	9
1	1654
1	1654
1	1654
1	1654
1	11
1	1654
1	1654
1	1654
1	1654
1	1654
1	1654
1	1654
1	1654
1	1654
1	1656
1	1654
1	1654
1	15
1	1654
1	1654
1	1654
1	1654
1	1654
1	1654
1	10
1	1654
1	1654
1	1654
1	1654
1	1654
1	9
1	1654
1	1654
1	1654
1	1654
1	6
1	33
1	1654
1	1654
1	1654
1	33
1	1654
1	1654
1	1654
1	1654
1	14
1	1654
1	1654
1	1654
1	1654
1	1654
1	1654
1	1654
1	1654
1	1654
1	29
1	16
1	14
1	9
1	1654
1	1654
1	1654
1	1654
1	33
1	1654
1	1654
1	1654
1	10
1	1654
1	1654
1	1654
1	11
1	8
1	11
1	1654
1	10
1	1654
1	1654
1	6
1	1654
1	1654
1	1654
1	1654
1	36
1	1654
1	4
1	1654
1	15
1	1654
1	1654
1	1654
1	1654
1	1654
1	5
1	1654
1	1654
1	1654
1	11
1	1654
1	13
1	1654
1	1654
1	1654
1	12
1	1654
1	1654
1	1654
1	1654
1	1654
1	1654
1	1654
1	9
1	36
1	1654
1	1654
1	1654
1	1654
1	4
1	12
1	9
1	1654
1	1654
1	1655
1	1654
1	12
1	1654
1	1654
1	1654
1	1654
1	33
1	1654
1	13
1	1654
1	1654
1	1654
1	1654
1	29
1	29
1	6
1	1654
1	1654
1	1654
1	1654
1	1654
1	1655
1	1654
1	11
1	15
1	1654
1	1654
1	10
1	1654
1	1654
1	1654
1	1654
1	1654
1	1655
1	1654
1	11
1	1654
1	8
1	14
1	9
1	1654
1	1654
1	11
1	1654
1	1654
1	1654
1	1654
1	1654
1	29
1	1655
1	1654
1	12
1	1654
1	29
1	5
1	1654
1	1655
1	1654
1	1654
1	1654
1	1654
1	1654
1	1654
1	1654
1	29
1	1654
1	1654
1	1654
1	1655
1	5
1	1654
1	1654
1	1654
1	1654
1	1654
1	14
1	1654
1	1654
1	1654
1	1654
1	1654
1	1654
1	1654
1	15
1	1654
1	1654
1	20
1	1654
1	1654
1	1654
1	1654
1	1654
1	1654
1	6
1	29
1	36
1	1654
1	1654
1	1654
1	1654
1	1654
1	1654
1	34
1	1654
1	18
1	20
1	6
1	1654
1	1654
1	1654
1	1654
1	1654
1	5
1	1654
1	10
1	13
1	1654
1	1654
1	4
1	1654
1	1654
1	1654
1	1654
1	16
1	1654
1	1654
1	1654
1	1654
1	4
1	11
1	1654
1	1654
1	1654
1	1654
1	1654
1	1654
1	1654
1	13
1	1655
1	29
1	1654
1	1654
1	16
1	1654
1	1654
1	1654
1	9
1	11
1	16
1	1654
1	1654
1	9
1	1654
1	1654
1	1654
1	1658
1	1654
1	18
1	1654
1	1654
1	11
1	16
1	1654
1	1654
1	16
1	33
1	12
1	1654
1	1654
1	1654
1	1654
1	1654
1	1655
1	8
1	1654
1	1654
1	1654
1	8
1	1654
1	1654
1	1654
1	1654
1	15
1	1654
1	1654
1	1654
1	1654
1	1654
1	1654
1	13
1	1654
1	1654
1	14
1	1654
1	1654
1	1654
1	1654
1	1654
1	1654
1	1654
1	1654
1	7
1	1654
1	1654
1	1654
1	1654
1	1654
1	15
1	1654
1	1654
1	19
1	1654
1	8
1	1654
1	13
1	34
1	1654
1	1654
1	9
1	1654
1	1654
1	12
1	1654
1	1654
1	1654
1	1654
1	12
1	1654
1	10
1	19
1	1654
1	1654
1	1654
1	6
1	11
1	1654
1	15
1	1654
1	1654
1	1654
1	1654
1	1654
1	1654
1	1654
1	1654
1	1654
1	1654
1	29
1	9
1	1654
1	1654
1	1654
1	1654
1	6
1	1654
1	1654
1	16
1	1654
1	1654
1	5
1	1654
1	15
1	18
1	1654
1	1654
1	1654
1	11
1	1654
1	18
1	1654
1	1654
1	15
1	1654
1	1654
1	1654
1	1654
1	9
1	1654
1	1654
1	6
1	1654
1	1654
1	1654
1	1654
1	1654
1	1654
1	1654
1	1654
1	15
1	1654
1	1654
1	14
1	20
1	1654
1	6
1	1654
1	1654
1	1654
1	18
1	1654
1	1654
1	1654
1	1654
1	1654
1	1654
1	1654
1	1654
1	1654
1	9
1	15
1	1654
1	1654
1	1654
1	1654
1	1654
1	1654
1	1654
1	1654
1	1654
1	1654
1	1654
1	1654
1	1654
1	1654
1	15
1	1654
1	1654
1	1654
1	6124
1	10
1	1654
1	1654
1	15
1	1654
1	5
1	1654
1	1654
1	10
1	1654
1	1654
1	1654
1	1654
1	1654
1	14
1	1654
1	1654
1	6
1	1654
1	6
1	1654
1	8
1	1655
1	10
1	9
1	1654
1	16
1	1654
1	1654
1	1654
1	1654
1	1654
1	1654
1	1654
1	1654
1	1654
1	3
1	9
1	4
1	1654
1	1654
1	20
1	1654
1	1654
1	1654
1	7
1	11
1	1654
1	20
1	1654
1	1654
1	1654
1	1657
1	36
1	1654
1	15
1	1654
1	33
1	1654
1	1654
1	1654
1	1654
1	1654
1	5
1	34
1	1654
1	1654
1	1654
1	1655
1	1654
1	10
1	9
1	12
1	8
1	1654
1	11
1	1654
1	1654
1	1654
1	1654
1	1654
1	1654
1	10
1	1654
1	1654
1	18
1	1654
1	5
1	1654
1	1654
1	1654
1	1654
1	1654
1	1654
1	1654
1	1654
1	1654
1	1654
1	9
1	1654
1	1654
1	1654
1	13
1	9
1	1654
1	1654
1	1654
1	1655
1	1654
1	1654
1	1654
1	1654
1	8
1	5
1	1654
1	1654
1	1654
1	1654
1	15
1	1654
1	1654
1	1654
1	1654
1	1654
1	1654
1	1654
1	1654
1	11
1	9
1	1654
1	18
1	1654
1	1654
1	15
1	1654
1	1654
1	36
1	1654
1	7
1	1654
1	1654
1	1654
1	1654
1	4
1	1654
1	1654
1	1654
1	1654
1	6124
1	1654
1	1654
1	33
1	1654
1	1654
1	1654
1	1654
1	1654
1	1654
1	8
1	13
1	1654
1	1654
1	8
1	29
1	1654
1	1654
1	1654
1	15
1	1655
1	1654
1	1654
1	1654
1	6
1	1654
1	1654
1	7
1	1654
1	10
1	1654
1	1654
1	1654
1	1654
1	1654
1	1654
1	1654
1	1654
1	1654
1	1654
1	1654
1	1654
1	1654
1	1654
1	18
1	1654
1	1654
1	1654
1	1654
1	1654
1	34
1	1654
1	12
1	1654
1	1654
1	4
1	1654
1	1654
1	1654
1	1654
1	6
1	15
1	6
1	1654
1	1654
1	1654
1	1654
1	1654
1	1654
1	7
1	9
1	1654
1	1654
1	1654
1	1654
1	1654
1	1654
1	1654
1	15
1	15
1	1654
1	1654
1	1655
1	1654
1	6
1	19
1	1654
1	1654
1	36
1	1654
1	1654
1	7
1	1654
1	1654
1	1654
1	1654
1	9
1	1654
1	1654
1	1654
1	1654
1	12
1	1654
1	1654
1	9
1	1654
1	1654
1	1654
1	1654
1	1654
1	1654
1	11
1	1654
1	18
1	1654
1	7
1	1654
1	1654
1	1654
1	1654
1	1654
1	1654
1	1654
1	1654
1	1654
1	1654
1	1654
1	1654
1	1654
1	1654
1	7
1	1654
1	17
1	1654
1	1654
1	1654
1	1654
1	1654
1	1654
1	1654
1	1654
1	1654
1	8
1	1654
1	10
1	1654
1	1654
1	1654
1	30
1	1654
1	1654
1	1654
1	1654
1	11
1	14
1	1654
1	1654
1	1654
1	11
1	1654
1	5
1	1654
1	1654
1	18
1	1654
1	1654
1	1654
1	1654
1	1654
1	1654
1	1654
1	1654
1	9
1	15
1	1654
1	1655
1	1654
1	1654
1	1654
1	1654
1	18
1	1654
1	1654
1	1654
1	1654
1	1654
1	1654
1	1654
1	33
1	1654
1	9
1	1654
1	1654
1	1654
1	1654
1	1654
1	12
1	1654
1	1654
1	1654
1	1654
1	5
1	1654
1	1654
1	1654
1	1654
1	1654
1	1654
1	1654
1	18
1	1654
1	1654
1	9
1	1654
1	1654
1	1654
1	1654
1	1654
1	1654
1	1654
1	9
1	1654
1	1654
1	9
1	1654
1	1654
1	1654
1	1654
1	1654
1	1654
1	13
1	1654
1	1654
1	1654
1	1654
1	1654
1	11
1	1654
1	15
1	1654
1	1654
1	7
1	1654
1	1654
1	1654
1	1654
1	19
1	1654
1	12
1	1654
1	1654
1	1654
1	1654
1	1654
1	12
1	1654
1	1654
1	1654
1	1654
1	1654
1	1654
1	1654
1	1654
1	1654
1	1654
1	1654
1	13
1	1654
1	1654
1	1654
1	14
1	5
1	1654
1	1654
1	10
1	1654
1	1654
1	12
1	1654
1	4
1	1654
1	1654
1	36
1	1654
1	36
1	1654
1	1654
1	1654
1	1654
1	1654
1	1654
1	1654
1	1654
1	1654
1	1654
1	1654
1	14
1	1654
1	7
1	10
1	1654
1	1654
1	1654
1	5
1	1654
1	33
1	1655
1	1654
1	1654
1	1654
1	1654
1	1654
1	14
1	1654
1	1654
1	1654
1	1654
1	1654
1	15
1	1654
1	1654
1	2
1	36
1	1654
1	1654
1	9
1	11
1	1654
1	34
1	1654
1	1654
1	36
1	8
1	15
1	1654
1	1654
1	1654
1	1654
1	1654
1	1654
1	1654
1	1654
1	1654
1	1654
1	1654
1	1654
1	1654
1	1654
1	1654
1	1654
1	1654
1	11
1	1654
1	1654
1	1654
1	12
1	1654
1	1654
1	1654
1	8
1	15
1	1654
1	1654
1	30
1	1654
1	1654
1	8
1	1654
1	1654
1	1654
1	29
1	1654
1	1654
1	8
1	1654
1	1654
1	1654
1	36
1	1654
1	1654
1	1654
1	1654
1	1654
1	15
1	1654
1	1654
1	1654
1	1654
1	9
1	1654
1	1654
1	1654
1	1654
1	1654
1	1654
1	10
1	1654
1	18
1	7
1	15
1	1654
1	1654
1	11
1	1654
1	1654
1	1654
1	12
1	1654
1	1654
1	1654
1	1654
1	1654
1	1654
1	11
1	1654
1	16
1	1654
1	1654
1	1654
1	1654
1	1654
1	1654
1	1654
1	1654
1	1654
1	1654
1	1654
1	4
1	8
1	5
1	1654
1	1654
1	1654
1	9
1	5
1	1654
1	8
1	1654
1	1654
1	1654
1	1654
1	1654
1	1654
1	1654
1	1654
1	1654
1	1654
1	9
1	1654
1	6
1	1654
1	1654
1	11
1	1654
1	1654
1	1654
1	12
1	1654
1	1654
1	1654
1	12
1	16
1	1654
1	14
1	10
1	8
1	1654
1	1654
1	2
1	1654
1	10
1	1654
1	1654
1	1654
1	1654
1	1654
1	6
1	12
1	1654
1	1654
1	1654
1	1654
1	1654
1	1654
1	1654
1	1654
1	1654
1	18
1	1654
1	1654
1	11
1	1654
1	1655
1	1654
1	1654
1	1654
1	1654
1	1654
1	1654
1	9
1	1654
1	1654
1	1654
1	4
1	29
1	1654
1	8
1	1654
1	14
1	6
1	1654
1	1654
1	1654
1	1654
1	5
1	1654
1	13
1	1654
1	1654
1	1654
1	8
1	13
1	1654
1	1654
1	1654
1	1654
1	7
1	1654
1	1654
1	1654
1	1654
1	16
1	1654
1	29
1	1654
1	1654
1	8
1	1654
1	1654
1	1654
1	1654
1	1655
1	10
1	1654
1	8
1	1654
1	5
1	1654
1	1654
1	1654
1	1654
1	1654
1	1654
1	1654
1	1654
1	1654
1	1654
1	1654
1	12
1	1654
1	1654
1	12
1	1654
1	15
1	1655
1	1654
1	1654
1	15
1	1654
1	1654
1	1654
1	1654
1	1654
1	1654
1	1654
1	1654
1	12
1	16
1	1654
1	19
1	1654
1	1654
1	15
1	8
1	1655
1	1654
1	1654
1	1654
1	16
1	1654
1	8
1	5
1	1654
1	1654
1	1655
1	1654
1	1654
1	1654
1	1654
1	1654
1	1654
1	1654
1	1654
1	1654
1	1654
1	15
1	1654
1	7
1	1654
1	1654
1	1654
1	5
1	6124
1	1654
1	1654
1	1654
1	1654
1	1654
1	1654
1	1654
1	36
1	15
1	1654
1	1654
1	16
1	1654
1	1654
1	29
1	1654
1	9
1	14
1	1654
1	1654
1	1654
1	1654
1	15
1	1654
1	6
1	1654
1	19
1	1654
1	1654
1	15
1	1655
1	2
1	15
1	1654
1	1654
1	1654
1	1654
1	14
1	15
1	1654
1	1654
1	36
1	9
1	1654
1	1654
1	1654
1	2
1	9
1	36
1	1654
1	1654
1	1654
1	9
1	1654
1	8
1	1654
1	1654
1	11
1	12
1	14
1	11
1	6
1	1655
1	16
1	16
1	14
1	1654
1	13
1	6
1	1654
1	1654
1	1654
1	1654
1	1654
1	1654
1	1654
1	1654
1	4
1	18
1	1654
1	1654
1	1654
1	1654
1	1654
1	1654
1	1654
1	15
1	10
1	1654
1	12
1	1654
1	1654
1	1654
1	1654
1	12
1	1654
1	1654
1	1654
1	7
1	20
1	1654
1	1654
1	1654
1	1654
1	1654
2	6
2	10
2	9
2	3
2	9
2	4
2	8
2	6
2	3
2	8
2	7
2	5
2	3
2	11
2	26
2	6
2	8
2	1655
2	7
2	10
2	3
2	4
2	6
2	8
2	4
2	8
2	3
2	3
2	3
2	11
2	4
2	8
2	12
2	3
2	3
2	5
2	4
2	3
2	3
2	16
2	11
2	6
2	18
2	3
2	3
2	3
2	3
2	1655
2	4
2	6
2	10
2	3
2	3
2	3
2	5
2	8
2	3
2	16
2	3
2	7
2	4
2	30
2	12
2	6
2	8
2	4
2	13
2	3
2	9
2	11
2	3
2	5
2	5
2	5
2	8
2	3
2	8
2	6
2	4
2	3
2	5
2	5
2	6
2	1655
2	15
2	6
2	5
2	3
2	3
2	5
2	3
2	9
2	3
2	3
2	8
2	3
2	9
2	11
2	3
2	9
2	4
2	5
2	10
2	3
2	10
2	1655
2	8
2	4
2	3
2	13
2	37
2	8
2	1655
2	9
2	9
2	16
2	3
2	3
2	9
2	7
2	11
2	3
2	9
2	3
2	3
2	3
2	3
2	3
2	12
2	10
2	35
2	19
2	6
2	4
2	3
2	3
2	5
2	1655
2	3
2	4
2	9
2	4
2	8
2	3
2	19
2	5
2	13
2	14
2	3
2	4
2	16
2	14
2	7
2	10
2	4
2	4
2	1655
2	3
2	4
2	3
2	15
2	4
2	9
2	3
2	8
2	11
2	12
2	6
2	1655
2	5
2	10
2	4
2	7
2	15
2	16
2	3
2	4
2	6
2	4
2	3
2	3
2	3
2	3
2	4
2	8
2	5
2	10
2	3
2	4
2	11
2	4
2	4
2	10
2	3
2	5
2	3
2	4
2	15
2	16
2	8
2	11
2	3
2	3
2	6
2	7
2	3
2	10
2	30
2	4
2	4
2	3
2	19
2	4
2	6
2	3
2	3
2	3
2	20
2	3
2	13
2	4
2	8
2	10
2	3
2	10
2	6
2	8
2	10
2	3
2	8
2	3
2	4
2	4
2	12
2	8
2	4
2	3
2	11
2	8
2	4
2	6
2	6
2	3
2	10
2	12
2	3
2	6
2	5
2	3
2	3
2	12
2	8
2	10
2	4
2	6
2	3
2	3
2	4
2	3
2	19
2	4
2	3
2	6
2	5
2	4
2	3
2	3
2	3
2	4
2	13
2	5
2	10
2	4
2	11
2	8
2	3
2	6
2	3
2	8
2	3
2	7
2	16
2	9
2	4
2	3
2	6
2	3
2	34
2	3
2	14
2	4
2	4
2	11
2	3
2	3
2	9
2	4
2	8
2	5
2	4
2	15
2	8
2	4
2	4
2	4
2	8
2	19
2	3
2	3
2	6
2	3
2	4
2	3
2	3
2	7
2	3
3	4
3	5
3	10
3	5
3	4
3	4
3	10
3	4
3	5
3	4
3	5
3	4
3	5
3	4
3	7
3	4
3	8
3	10
3	4
3	5
3	4
3	5
3	9
3	9
3	13
3	4
3	4
3	5
3	4
3	4
3	4
3	5
3	11
3	4
3	4
3	5
3	5
3	5
3	5
3	8
3	4
3	4
3	14
3	16
3	4
3	4
3	4
3	8
3	4
3	4
3	4
3	4
3	4
3	4
3	4
3	4
3	4
3	5
3	9
3	5
3	5
3	4
3	5
3	4
3	5
3	5
3	4
3	5
3	5
3	13
3	5
3	9
3	4
3	4
3	4
3	4
3	5
3	5
3	10
3	5
3	5
3	5
3	4
3	8
3	9
3	5
4	6
4	5
4	5
4	5
4	6
4	5
4	5
4	5
4	5
4	6
4	7
4	6
4	6
4	5
4	5
4	6
4	5
4	5
4	5
4	5
4	5
4	5
4	5
4	6
4	5
4	6
4	5
4	6
4	5
4	5
4	5
4	5
4	6
4	5
4	5
4	8
4	5
4	5
4	6
4	9
4	5
4	5
4	5
4	5
4	6
4	5
5	9
5	6
5	6
5	7
5	6
5	6
5	7
5	6
5	6
5	6
5	6
5	6
5	6
5	6
5	6
5	6
5	6
5	6
5	6
5	6
6	7
6	7
6	7
6	8
6	8
6	7
6	7
6	8
6	8
6	7
6	8
6	7
6	7
6	7
6	7
6	7
6	7
6	8
6	7
6	7
6	7
6	7
6	8
6	7
7	9
7	8
7	8
7	8
7	9
7	11
7	8
7	8
7	9
7	8
7	8
7	8
7	8
8	9
8	9
8	9
8	9
8	9
8	10
8	9
8	9
8	9
8	9
8	9
8	12
9	10
9	10
9	10
9	10
9	10
10	11
10	11
10	11
10	11
10	11
10	11
10	11
11	12
11	12
11	12
11	12
11	12
11	12
12	13
12	13
12	13
13	14
13	14
13	14
13	14
14	15
14	15
14	15
14	15
14	15
14	15
14	15
14	15
15	16
17	18
17	18
17	18
18	19
24	26
28	29
32	33
35	36
1653	1654
