1	6124
1	6124
1	117
1	116
1	117
1	117
1	118
1	62
1	57
1	118
1	3
1	65
1	118
1	118
1	12
1	12
1	58
1	13
1	12
1	116
1	117
1	11
1	117
1	116
1	116
1	8
1	119
1	12
1	12
1	12
1	6
1	12
1	9
1	116
1	6
1	5
1	55
1	116
1	12
1	116
1	57
1	118
1	120
1	7
1	61
1	116
1	116
1	55
1	119
1	119
1	59
1	12
1	57
1	5
1	10
1	117
1	116
1	55
1	5
1	117
1	8
1	119
1	118
1	116
1	116
1	10
1	7
1	13
1	6
1	56
1	117
1	116
1	7
1	6
1	118
1	7
1	4
1	117
1	8
1	7
1	9
1	5
1	7
1	8
1	56
1	118
1	6
1	11
1	9
1	117
1	116
1	57
1	8
1	9
1	6
1	118
1	5
1	117
1	5
1	7
1	118
1	5
1	57
1	59
1	6
1	4
1	56
1	116
1	116
1	55
1	5
1	119
1	7
1	116
1	7
1	116
1	6
1	6
1	4
1	9
1	7
1	8
1	9
1	9
1	5
1	57
1	10
1	117
1	4
1	4
1	116
1	9
1	7
1	118
1	5
1	116
1	5
1	7
1	9
1	4
1	55
1	116
1	7
1	6
1	116
1	4
1	6
1	117
1	4
1	5
1	8
1	118
1	116
1	9
1	116
1	116
1	57
1	6
1	6
1	117
1	116
1	4
1	6
1	10
1	55
1	4
1	6
1	117
1	7
1	6
1	116
1	8
1	5
1	5
1	55
1	5
1	117
1	7
1	116
1	116
1	6
1	5
1	12
1	57
1	55
1	117
1	116
1	4
1	5
1	6124
1	116
1	9
1	5
1	7
1	8
1	6
1	5
1	5
1	6
1	9
1	55
1	4
1	10
1	6
1	5
1	4
1	116
1	5
1	4
1	8
2	5
2	56
2	3
2	56
2	56
2	3
2	3
2	5
2	7
2	56
2	3
2	4
2	3
2	3
2	3
2	5
2	10
2	5
2	3
2	4
2	56
2	56
2	4
2	3
2	3
2	4
2	3
2	4
2	5
2	3
2	3
2	56
2	3
2	3
2	3
2	3
2	3
2	3
2	3
2	56
2	56
2	56
2	3
2	7
2	3
2	56
2	3
2	3
2	3
2	56
2	56
2	56
2	3
2	3
2	3
2	3
2	56
2	3
2	4
2	3
2	3
2	5
2	56
2	5
2	3
2	3
2	3
2	56
2	4
2	56
2	3
2	5
2	9
2	56
2	3
2	3
2	3
2	3
2	56
2	3
2	3
2	5
2	56
2	3
2	5
2	56
2	3
2	5
2	5
2	3
2	3
2	5
2	5
2	5
2	5
2	4
2	3
2	56
2	4
2	3
2	56
2	3
2	3
2	56
2	56
2	4
2	4
2	3
2	6
2	3
3	4
3	5
3	4
3	4
3	4
3	4
3	4
3	11
3	4
3	7
3	4
3	4
3	4
3	4
3	5
3	4
3	4
3	4
3	4
3	4
3	4
3	4
3	4
3	4
3	4
3	4
3	4
3	4
3	4
3	4
3	4
3	5
3	6
3	4
3	4
3	4
3	4
3	6
3	4
3	4
3	4
3	5
3	4
3	4
3	5
3	4
4	5
4	6
4	5
4	5
4	5
4	5
4	5
4	6
4	5
4	5
4	5
5	6
5	6
5	6
5	6
5	6
5	6
5	6
5	6
5	6
7	8
7	8
7	8
8	9
8	9
8	9
11	12
54	55
115	116
