1	6124
1	118
1	118
1	107
1	103
1	102
1	117
1	117
1	26
1	13
1	12
1	11
1	21
1	103
1	117
1	102
1	117
1	117
1	12
1	19
1	117
1	11
1	19
1	10
1	19
1	117
1	107
1	105
1	4
1	102
1	102
1	6124
1	102
1	102
1	10
1	104
1	117
1	117
1	106
1	103
1	11
1	117
1	117
1	8
1	117
1	19
1	10
1	104
1	9
1	19
1	22
1	117
1	117
1	117
1	117
1	10
1	105
1	117
1	117
1	117
1	102
1	104
1	102
1	5
1	117
1	102
1	102
1	7
1	8
1	6
1	5
1	10
1	103
1	7
1	8
1	6
1	103
1	121
1	117
1	7
1	117
1	5
1	4
1	102
1	102
1	7
1	117
1	10
1	102
1	102
1	117
1	117
1	117
1	106
1	117
1	117
1	103
1	102
1	102
1	102
1	118
1	102
1	7
1	117
1	102
1	102
1	9
1	19
1	102
1	104
1	7
1	10
1	6
1	117
1	102
1	117
1	7
1	117
1	6
1	8
1	117
1	103
1	117
1	102
1	5
1	7
1	118
1	9
1	117
1	102
1	117
1	102
1	117
1	102
1	7
1	7
1	103
1	8
1	117
1	9
1	117
1	117
1	9
1	102
1	102
1	117
1	21
1	102
1	102
1	9
1	7
1	20
1	8
1	7
1	7
1	6
1	9
1	117
1	117
1	6
1	102
1	119
1	5
1	117
1	19
1	8
1	117
1	102
1	117
1	117
1	6
1	117
1	102
1	6
1	118
1	118
1	102
1	12
1	2
1	6
1	102
1	5
1	5
1	117
1	117
1	117
1	9
1	117
1	117
1	9
1	9
1	102
1	6
1	102
1	117
1	4
1	4
1	9
1	117
1	5
1	6
1	102
1	117
1	117
1	102
1	9
1	6
1	102
1	103
1	6
1	117
1	117
1	117
1	117
1	103
1	6
1	102
1	9
1	6
1	7
1	117
1	117
1	102
1	102
1	117
1	6
1	117
1	102
1	7
1	7
1	4
1	117
1	4
1	102
1	117
1	9
1	117
1	102
1	117
1	117
1	117
1	117
1	6
1	117
1	103
1	117
1	117
1	9
1	7
1	19
1	9
1	9
1	117
1	117
1	4
1	5
1	4
1	117
1	19
1	7
1	117
1	117
1	7
1	117
1	102
1	7
2	5
2	4
2	10
2	103
2	7
2	3
2	6
2	4
2	103
2	10
2	3
2	4
2	3
2	3
2	103
2	3
2	3
2	10
2	3
2	103
2	3
2	3
2	3
2	103
2	4
2	3
2	3
2	4
2	3
2	3
2	3
2	3
2	3
2	10
2	5
2	103
2	6
2	103
2	103
2	103
2	3
2	5
2	3
2	3
2	3
2	5
2	103
2	103
2	4
2	4
2	3
2	7
2	103
2	103
2	3
2	103
2	103
2	4
2	3
2	3
2	3
2	3
2	3
2	3
2	4
2	6
2	4
2	4
2	5
2	3
2	4
2	9
2	103
2	4
3	5
3	4
3	4
3	4
3	4
3	4
3	5
3	10
3	4
3	4
3	4
3	4
3	4
3	4
3	4
3	4
3	4
3	4
3	4
3	4
3	4
3	6
3	5
3	4
3	4
4	6
4	5
4	5
4	5
4	5
4	5
4	5
4	6
4	5
4	6
4	5
4	5
5	6
5	6
5	6
5	6
5	6
5	8
5	6
5	6
5	6
6	7
6	7
6	7
6	7
7	8
8	9
8	9
8	9
8	9
18	19
101	102
116	117
