1	6124
1	157
1	158
1	157
1	107
1	107
1	157
1	157
1	107
1	12
1	108
1	157
1	107
1	106
1	157
1	107
1	157
1	14
1	157
1	157
1	110
1	157
1	157
1	106
1	107
1	106
1	108
1	157
1	157
1	157
1	11
1	110
1	157
1	11
1	106
1	157
1	9
1	107
1	157
1	157
1	157
1	106
1	157
1	107
1	106
1	10
1	157
1	157
1	9
1	9
1	107
1	157
1	157
1	106
1	157
1	157
1	9
1	11
1	6
1	157
1	157
1	9
1	107
1	157
1	8
1	157
1	106
1	157
1	157
1	157
1	157
1	109
1	108
1	106
1	157
1	157
1	157
1	157
1	157
1	9
1	157
1	157
1	157
1	108
1	11
1	10
1	157
1	158
1	157
1	157
1	157
1	157
1	7
1	9
1	157
1	9
1	10
1	12
1	157
1	106
1	157
1	106
1	157
1	157
1	157
1	12
1	157
1	106
1	10
1	157
1	157
1	157
1	5
1	157
1	157
1	157
1	8
1	108
1	157
1	8
1	107
1	7
1	157
1	157
1	8
1	8
1	157
1	157
1	157
1	106
1	6
1	6
1	7
1	106
1	6
1	157
1	6
1	10
1	108
1	157
1	157
1	108
1	6
1	106
1	106
1	8
1	157
1	106
1	157
1	5
1	157
1	6
1	5
1	7
1	7
1	4
1	106
1	157
1	157
1	157
1	157
1	157
1	106
1	5
1	7
1	8
1	106
1	157
1	7
1	157
1	157
1	157
1	106
1	157
1	106
1	6
1	157
1	107
1	106
1	5
1	157
1	106
1	106
1	106
1	157
1	157
1	157
1	157
1	157
1	5
1	157
1	7
1	9
1	106
1	157
1	9
1	157
1	157
1	157
1	5
1	5
1	157
1	106
1	8
1	8
1	157
1	157
1	7
1	157
1	7
1	7
1	106
1	5
1	106
1	157
1	7
1	157
1	157
2	7
2	5
2	8
2	107
2	107
2	4
2	107
2	9
2	6
2	107
2	107
2	4
2	4
2	107
2	4
2	107
2	3
2	107
2	107
2	107
2	107
2	9
2	107
2	3
2	3
2	107
2	7
2	6
2	6
2	9
2	107
2	107
2	4
2	3
2	107
2	107
2	107
2	107
2	107
2	107
2	3
2	3
2	10
2	107
2	7
2	107
2	3
2	107
2	4
2	3
2	4
2	3
2	7
2	3
2	3
2	3
2	3
2	3
2	107
2	3
2	8
2	107
2	107
2	3
2	3
2	3
2	107
2	3
2	107
2	4
2	107
3	8
3	4
3	4
3	11
3	108
3	6
3	4
3	5
3	4
3	4
3	4
3	5
3	9
3	6
3	4
3	5
3	4
4	5
4	6
4	5
4	5
4	5
4	5
4	5
4	5
4	6
4	5
5	7
5	6
5	6
5	6
5	6
5	6
5	6
6	7
6	7
6	7
6	7
6	7
7	8
7	8
8	9
8	9
9	10
105	106
156	157
