1	6124
1	6124
1	224
1	224
1	225
1	224
1	8
1	224
1	224
1	224
1	224
1	6124
1	224
1	224
1	224
1	224
1	224
1	224
1	224
1	6124
1	6124
1	224
1	224
1	224
1	224
1	224
1	224
1	224
1	224
1	226
1	227
1	224
1	224
1	224
1	6124
1	224
1	224
1	224
1	224
1	224
1	225
1	224
1	225
1	224
1	224
1	225
1	224
1	224
1	224
1	224
1	224
1	224
1	224
1	224
1	224
1	224
1	224
1	224
1	5
1	6124
1	6124
1	224
1	224
1	224
1	225
1	7
1	6124
1	224
1	224
1	224
1	224
1	226
1	225
1	6124
1	9
1	224
1	224
1	224
1	224
1	4
1	224
1	224
1	227
1	224
1	4
1	224
1	224
1	3
1	224
1	224
1	6
1	224
1	224
1	224
1	5
1	224
1	224
1	7
1	224
1	6124
1	224
1	4
1	224
1	224
1	224
1	224
1	224
1	224
1	224
1	8
1	224
1	224
1	224
1	224
1	224
1	224
1	224
1	224
1	224
1	4
1	224
1	224
1	224
1	224
1	224
1	224
1	224
1	6
1	225
1	7
1	224
1	8
1	224
1	224
1	8
1	224
1	225
1	224
1	2
1	224
1	5
1	224
1	2
1	224
1	6124
1	6124
1	224
1	224
1	224
1	2
1	224
1	9
1	224
1	224
1	224
1	224
1	224
1	224
1	224
1	224
1	224
1	224
1	224
1	6124
1	224
1	2
1	224
1	224
1	224
1	224
1	224
1	224
1	5
1	5
1	224
1	224
1	224
1	224
1	224
1	224
1	224
1	224
1	3
1	224
1	224
1	224
1	224
1	224
1	224
1	10
1	224
1	224
1	224
1	224
1	224
1	225
1	224
1	224
1	5
1	224
1	224
1	224
1	224
1	224
1	224
1	224
1	224
1	224
1	224
1	2
1	224
1	224
1	224
1	224
1	5
1	224
1	224
1	224
1	7
1	224
1	224
1	224
1	224
1	224
1	224
1	224
1	224
1	224
1	224
1	224
1	224
1	224
1	224
1	224
1	224
1	224
1	224
1	224
1	224
1	3
1	224
1	224
1	224
1	8
1	225
1	224
1	3
1	224
1	5
1	224
1	224
1	224
1	224
1	224
1	224
1	224
1	224
1	224
1	224
1	225
1	225
1	4
1	225
1	7
2	4
2	3
2	3
2	4
2	3
2	6
2	3
2	3
2	3
2	3
2	3
2	3
2	3
2	3
2	6
2	8
2	3
2	3
2	3
2	3
2	225
2	3
2	3
2	4
2	3
2	5
2	3
2	5
2	3
2	3
2	4
2	4
2	3
2	3
2	3
2	3
3	4
3	4
3	6
3	4
3	4
3	7
3	4
3	4
4	5
4	5
4	5
4	5
4	5
4	5
4	7
6	7
7	8
223	224
