1	6124
1	172
1	171
1	172
1	161
1	158
1	171
1	159
1	171
1	160
1	171
1	161
1	158
1	158
1	171
1	171
1	171
1	160
1	158
1	10
1	171
1	171
1	158
1	158
1	171
1	158
1	158
1	10
1	171
1	171
1	172
1	159
1	171
1	158
1	171
1	172
1	171
1	158
1	158
1	6
1	158
1	158
1	171
1	171
1	171
1	160
1	171
1	160
1	12
1	6
1	171
1	8
1	159
1	171
1	158
1	158
1	158
1	158
1	6
1	158
1	171
1	171
1	172
1	158
1	172
1	158
1	172
1	171
1	171
1	158
1	171
1	158
1	158
1	160
1	13
1	161
1	171
1	11
1	161
1	158
1	7
1	4
1	158
1	158
1	161
1	158
1	9
1	171
1	5
1	171
1	171
1	6
1	158
1	171
1	158
1	171
1	171
1	171
1	158
1	158
1	158
1	171
1	10
1	158
1	158
1	171
1	158
1	5
1	171
1	171
1	171
1	158
1	158
1	158
1	158
1	158
1	158
1	160
1	171
1	171
1	7
1	9
1	158
1	172
1	158
1	4
2	159
2	3
2	159
2	4
2	159
2	159
2	159
2	159
2	3
2	8
2	159
2	3
2	5
2	159
2	159
2	159
2	3
2	4
2	159
2	5
2	159
2	160
2	159
2	159
2	159
2	159
2	159
2	159
2	3
2	159
2	159
2	3
2	159
2	159
2	159
2	3
2	159
2	159
2	159
2	159
2	159
2	159
2	5
2	3
2	159
2	11
2	7
2	159
2	159
2	159
2	159
2	159
2	3
2	159
2	159
2	159
2	159
2	7
2	159
2	159
2	159
2	159
2	159
2	159
2	159
2	159
2	159
2	160
2	6
2	7
2	159
2	159
2	3
2	159
2	6
2	159
2	159
2	159
2	159
2	3
2	159
2	159
2	159
2	159
2	3
2	159
2	159
2	9
2	159
2	3
2	159
2	159
2	159
2	159
2	159
2	159
2	159
2	159
2	159
2	4
2	159
2	159
2	159
2	159
2	3
2	159
2	159
2	159
2	159
2	159
2	160
2	159
2	159
2	159
2	6
3	160
3	4
3	4
3	4
3	4
3	6
3	4
3	4
3	8
3	8
3	5
3	9
3	4
3	5
3	6
3	5
3	4
3	5
3	6
3	4
3	5
3	5
4	7
4	5
4	5
4	5
4	6
4	6
4	6
4	6
4	5
5	6
5	6
5	6
5	6
5	6
5	7
9	10
157	158
170	171
