1	6124
1	183
1	182
1	182
1	181
1	183
1	181
1	88
1	4
1	182
1	186
1	182
1	184
1	181
1	181
1	85
1	185
1	12
1	90
1	86
1	185
1	5
1	181
1	16
1	181
1	183
1	181
1	182
1	182
1	182
1	181
1	87
1	181
1	184
1	7
1	181
1	186
1	7
1	182
1	6
1	183
1	11
1	9
1	182
1	182
1	185
1	181
1	182
1	181
1	17
1	12
1	4
1	181
1	181
1	181
1	182
1	182
1	181
1	6
1	181
1	181
1	181
1	86
1	181
1	9
1	5
1	183
1	87
1	6
1	5
1	86
1	6
1	181
1	181
1	6
1	12
1	5
1	7
1	181
1	6
1	182
1	12
1	5
1	182
1	181
1	5
1	86
1	181
1	8
1	181
1	8
1	181
1	182
1	182
1	182
1	9
1	85
1	7
1	7
1	5
1	182
1	181
1	12
1	181
1	6
1	86
1	4
1	181
1	181
1	181
1	5
1	7
1	11
1	8
1	181
1	181
1	181
1	181
1	4
1	181
1	85
1	181
1	181
1	6
1	181
1	5
1	6
1	181
1	181
1	181
1	182
1	5
1	8
1	6
1	181
1	182
1	181
1	11
1	181
1	181
1	182
1	5
1	182
1	9
1	181
1	181
1	181
1	8
1	84
1	4
1	181
1	181
1	4
1	11
1	181
1	6
1	7
1	4
1	7
1	8
1	181
1	9
1	8
1	6
1	7
1	6
1	4
1	181
1	182
1	86
1	181
2	85
2	8
2	85
2	3
2	3
2	3
2	85
2	85
2	85
2	85
2	85
2	3
2	4
2	4
2	3
2	3
2	3
2	5
2	85
2	4
2	3
2	85
2	3
2	85
2	3
2	85
2	85
2	85
2	7
2	3
2	85
2	85
2	4
2	85
2	3
2	8
2	85
2	5
2	4
2	85
2	85
2	85
2	85
2	3
2	85
2	3
2	3
2	3
2	85
2	85
2	7
2	85
2	5
2	3
2	3
2	3
2	85
2	85
2	10
2	85
2	4
2	85
2	4
2	85
2	3
2	85
2	3
2	85
2	4
2	85
2	3
2	85
2	3
2	85
2	3
2	4
2	85
2	3
2	85
2	85
2	85
2	3
2	85
2	4
2	85
2	3
2	85
2	3
2	85
2	85
2	85
2	3
2	3
2	85
2	85
2	85
2	85
2	3
2	5
2	10
2	3
2	4
2	3
2	85
2	85
2	85
2	4
2	85
2	85
2	3
2	85
2	3
2	85
2	3
2	3
2	3
2	85
2	85
2	4
2	85
2	3
2	3
2	85
2	85
2	3
2	85
2	4
2	3
2	3
2	85
2	3
2	85
2	85
2	4
2	5
3	4
3	4
3	5
3	86
3	4
3	4
3	5
3	5
3	4
3	4
3	4
3	6
3	4
3	4
3	4
3	4
3	4
3	6
3	4
3	4
3	4
3	4
3	4
3	4
3	5
3	7
3	5
4	5
4	5
4	5
4	5
4	5
4	5
4	5
5	6
5	6
5	6
5	6
5	6
5	6
6	7
6	7
6	7
7	8
8	9
10	11
83	84
180	181
