1	6124
1	152
1	153
1	80
1	79
1	154
1	12
1	152
1	152
1	153
1	153
1	153
1	76
1	76
1	79
1	152
1	155
1	153
1	9
1	153
1	153
1	78
1	7
1	6
1	153
1	74
1	154
1	152
1	152
1	153
1	7
1	75
1	153
1	76
1	9
1	152
1	154
1	10
1	7
1	154
1	152
1	152
1	79
1	74
1	8
1	153
1	153
1	8
1	152
1	152
1	7
1	154
1	75
1	7
1	152
1	8
1	152
1	154
1	152
1	152
1	152
1	6
1	6
1	7
1	78
1	4
1	6
1	155
1	6
1	152
1	6
1	152
1	75
1	9
1	152
1	152
1	152
1	153
1	6
1	152
1	10
1	5
1	155
1	6
1	5
1	152
1	8
1	76
1	5
1	4
1	5
1	77
1	4
1	153
1	5
1	10
1	6
1	152
1	5
1	6
1	152
1	6
1	152
1	7
1	8
1	6
1	6
1	152
1	152
1	4
1	153
1	6
1	152
1	152
1	7
1	153
1	5
1	152
1	6
1	5
1	152
1	7
1	155
1	5
1	152
1	152
1	6
1	152
1	152
1	152
1	152
1	5
1	6
1	152
1	152
1	6
1	8
1	6
1	152
1	152
1	8
1	76
1	153
1	7
1	7
1	9
1	5
1	154
1	74
1	152
1	4
1	76
1	8
1	7
1	4
1	7
1	152
1	5
1	7
1	5
1	153
1	5
1	4
1	5
1	152
1	153
1	153
1	8
1	152
1	152
1	5
1	5
1	153
1	153
1	8
2	3
2	75
2	3
2	7
2	75
2	4
2	75
2	3
2	3
2	75
2	75
2	75
2	4
2	75
2	75
2	75
2	75
2	75
2	4
2	75
2	75
2	4
2	4
2	75
2	3
2	3
2	3
2	4
2	3
2	4
2	75
2	75
2	3
2	4
2	3
2	3
2	75
2	75
2	3
2	75
2	75
2	3
2	75
2	5
2	75
2	3
2	75
2	5
2	75
2	3
2	7
2	3
2	3
2	6
2	4
2	75
2	5
2	75
2	4
2	6
2	75
2	75
2	4
2	4
2	6
2	4
2	4
2	3
2	4
2	3
2	3
2	3
2	3
2	3
2	5
2	5
2	75
2	75
2	7
2	75
2	75
2	75
2	3
2	4
2	4
2	3
2	75
2	75
2	4
2	75
2	3
2	75
2	3
2	3
2	4
2	6
2	75
2	3
2	75
2	4
2	4
2	4
2	75
2	3
2	75
2	3
2	75
2	4
2	75
2	3
2	4
2	3
2	4
2	3
2	75
2	75
2	3
2	3
2	75
2	75
2	5
2	4
2	4
2	4
2	5
2	6
2	5
2	3
2	6
2	75
2	3
2	5
2	3
2	75
2	75
2	4
2	4
2	75
2	4
2	75
2	3
2	3
3	4
3	4
3	5
3	4
3	4
3	4
3	6
3	4
3	4
3	4
3	4
3	6
3	4
3	4
3	4
3	5
3	4
3	4
3	4
3	4
3	4
3	5
3	4
3	4
3	5
3	4
3	4
3	4
3	4
3	4
4	5
4	5
4	5
4	5
4	5
4	5
4	5
4	5
4	5
4	5
4	6
4	5
4	5
5	6
5	6
5	6
5	6
5	6
5	6
5	6
5	6
6	7
6	7
6	7
6	7
6	7
7	8
73	74
151	152
