1	6124
1	128
1	115
1	127
1	114
1	115
1	112
1	127
1	112
1	114
1	21
1	112
1	112
1	128
1	115
1	126
1	126
1	126
1	19
1	112
1	112
1	126
1	21
1	115
1	112
1	112
1	12
1	18
1	119
1	18
1	112
1	11
1	116
1	112
1	112
1	9
1	115
1	112
1	127
1	126
1	112
1	127
1	119
1	6
1	126
1	127
1	16
1	127
1	127
1	18
1	116
1	127
1	112
1	112
1	4
1	115
1	112
1	126
1	126
1	7
1	9
1	112
1	6
1	10
1	6
1	112
1	112
1	9
1	9
1	112
1	126
1	6
1	18
1	112
1	112
1	112
1	6
1	6
1	9
1	9
1	9
1	113
1	7
1	19
1	126
1	112
1	112
1	7
1	126
1	6
1	112
1	126
1	112
1	5
1	126
1	126
1	114
1	12
1	126
1	21
1	6
1	112
1	126
1	129
1	128
1	114
1	112
1	5
1	127
1	112
1	112
1	7
1	126
1	19
1	6
1	114
1	112
1	8
1	4
1	5
1	18
1	18
1	9
1	114
1	130
1	9
1	128
1	7
1	126
1	126
1	6
1	126
1	5
1	112
1	112
1	6
1	5
1	9
1	6
1	126
1	9
1	126
1	112
1	112
1	4
1	112
1	5
1	112
1	9
1	126
1	18
1	8
1	126
1	6
1	5
1	5
1	6
1	126
1	10
1	112
1	9
1	112
1	9
1	116
1	126
1	126
1	7
1	18
1	7
1	126
1	10
1	112
1	127
1	126
1	5
1	7
1	126
1	6
1	114
1	6
1	6
1	5
1	9
1	6
1	126
1	128
1	112
1	4
1	6
1	126
1	112
1	114
1	9
1	10
1	4
1	126
1	8
1	7
1	5
2	113
2	3
2	5
2	7
2	113
2	113
2	5
2	5
2	113
2	3
2	3
2	4
2	113
2	3
2	113
2	3
2	3
2	113
2	5
2	113
2	3
2	113
2	7
2	7
2	113
2	3
2	113
2	6
2	3
2	3
2	4
2	5
2	7
2	113
2	113
2	113
2	113
2	113
2	3
2	3
2	113
2	3
2	4
2	5
2	5
2	3
2	3
2	4
2	113
2	113
2	113
2	4
2	113
2	3
2	3
2	113
2	113
2	3
2	113
2	6
2	113
2	113
2	113
2	113
2	5
2	5
2	113
2	113
2	114
2	113
2	5
2	113
2	3
2	113
2	3
2	3
2	6
2	5
2	4
2	3
2	4
2	4
2	113
2	3
2	3
2	113
2	4
2	113
2	113
2	4
2	3
2	113
2	113
2	113
2	113
2	113
3	4
3	7
3	4
3	4
3	5
3	5
3	4
3	5
3	4
3	5
3	5
3	4
3	4
3	4
3	4
3	4
3	4
3	4
3	4
3	4
3	4
3	4
3	4
3	7
4	8
4	5
4	5
4	5
4	5
4	6
4	5
4	5
4	5
4	5
4	5
4	5
4	5
4	5
4	5
4	6
5	6
5	6
5	6
5	6
5	6
5	6
5	6
5	6
6	7
6	7
8	9
8	9
8	9
8	9
17	18
111	112
125	126
