1	6124
1	115
1	114
1	114
1	113
1	114
1	115
1	113
1	15
1	114
1	10
1	8
1	16
1	15
1	115
1	15
1	15
1	7
1	113
1	114
1	117
1	10
1	113
1	114
1	7
1	114
1	113
1	114
1	116
1	113
1	117
1	7
1	10
1	113
1	14
1	116
1	113
1	10
1	113
1	114
1	115
1	115
1	114
1	117
1	113
1	9
1	114
1	114
1	113
1	114
1	114
1	114
1	114
1	8
1	7
1	114
1	6
1	7
1	114
1	7
1	114
1	114
1	114
1	113
1	114
1	12
1	114
1	114
1	114
1	115
1	114
1	5
1	114
1	113
1	6
1	113
1	12
1	13
1	114
1	8
1	114
1	6
1	113
1	10
1	15
1	115
1	114
1	14
1	114
1	5
1	114
1	114
1	7
1	12
1	114
1	114
1	114
1	8
1	7
1	115
1	114
1	114
1	114
1	113
1	114
1	114
1	8
1	5
1	113
1	114
1	114
1	116
1	118
1	114
1	114
1	6
1	114
1	4
1	114
1	15
1	113
1	114
1	4
1	12
1	6
1	12
1	113
1	6
1	113
1	7
1	114
1	113
1	113
1	113
1	114
1	6
1	114
1	115
1	115
1	113
1	7
1	114
1	113
1	7
1	12
1	114
1	114
1	115
1	6
1	8
1	115
1	8
1	114
1	7
1	114
1	7
1	14
1	114
1	5
1	113
1	114
1	114
1	4
1	114
1	115
1	113
1	6
1	113
1	114
1	114
1	114
1	114
1	9
1	114
1	12
1	7
1	4
1	114
1	114
1	114
1	7
1	6
1	6
1	5
1	115
1	113
1	7
1	114
1	114
1	12
1	114
1	6
1	8
1	113
1	113
1	14
1	14
1	113
1	113
1	116
1	7
1	113
1	5
1	113
1	7
1	10
1	6
1	113
1	9
1	13
1	114
1	114
1	113
1	113
1	114
1	113
1	113
1	14
1	6124
1	114
1	113
1	12
1	114
1	113
1	114
1	8
1	7
1	5
1	4
1	113
1	113
1	6
1	6
1	113
1	114
1	114
1	114
1	6
1	113
1	6
1	7
1	5
1	14
1	113
1	113
1	114
1	2
1	6
1	113
1	7
1	5
1	114
1	4
1	12
2	8
2	4
2	8
2	3
2	6
2	3
2	3
2	3
2	3
2	6
2	4
2	114
2	3
2	3
2	5
2	114
2	7
2	4
2	3
2	3
2	5
2	3
2	3
2	3
2	114
2	6
2	3
2	114
2	3
2	114
2	4
2	114
2	8
2	3
2	114
2	114
2	114
2	8
2	3
2	3
2	6
2	3
2	114
2	8
2	3
2	4
2	4
2	4
2	3
2	4
2	4
2	7
2	3
2	5
2	4
2	3
2	3
2	114
2	6
2	6
2	4
2	3
2	114
2	114
2	6
2	3
2	3
2	114
2	114
2	3
2	114
2	3
2	5
2	114
2	4
2	114
2	114
2	5
3	16
3	4
3	5
3	4
3	4
3	4
3	5
3	4
3	4
3	4
3	4
3	4
3	4
3	4
3	4
3	4
3	7
3	4
3	4
3	4
3	4
3	4
3	5
3	4
3	4
3	5
3	6
3	4
3	4
3	5
3	4
4	5
4	5
4	5
4	5
4	5
4	5
4	6
4	5
4	5
4	5
4	5
4	5
4	5
5	6
5	6
5	6
5	6
5	6
5	6
5	6
5	6
6	7
6	7
6	7
6	7
6	7
6	7
6	7
7	8
11	12
11	12
13	14
112	113
113	114
