1	6124
1	84
1	85
1	104
1	10
1	31
1	22
1	10
1	7
1	19
1	47
1	86
1	18
1	84
1	86
1	84
1	86
1	86
1	84
1	11
1	103
1	8
1	86
1	15
1	8
1	46
1	84
1	15
1	7
1	84
2	47
2	20
2	12
2	85
2	85
2	47
2	48
2	85
2	47
2	3
2	47
2	11
2	47
2	13
2	3
2	11
2	18
2	47
2	85
2	85
2	30
2	47
2	30
2	30
2	30
2	30
2	49
2	47
2	8
2	30
2	6
2	47
2	85
2	85
2	85
2	85
2	30
2	47
2	4
2	4
2	85
2	4
2	30
2	85
2	85
2	85
2	85
2	47
2	85
2	9
2	85
2	85
2	47
2	11
2	85
2	85
2	85
2	47
2	85
2	11
2	13
2	4
2	18
2	10
2	85
2	9
2	10
3	10
3	48
3	19
3	11
3	9
3	31
3	31
3	4
3	8
3	9
3	4
3	5
3	5
3	8
3	48
3	31
3	31
3	48
3	5
3	31
3	13
3	6
3	12
3	4
3	4
3	4
3	9
3	31
3	19
3	11
3	4
3	31
4	12
4	5
4	6
4	8
4	7
4	7
4	6
4	11
4	7
4	9
4	8
4	8
4	32
4	6
4	6
5	15
5	9
5	10
5	12
5	9
5	10
5	6
5	10
5	8
6	7
6	7
6	8
6	7
6	7
7	9
7	9
8	10
9	10
10	11
16	17
28	30
45	46
83	84
102	103
