1	6124
1	19
1	4
1	6124
1	10
1	18
1	17
1	16
1	3
1	6
1	16
1	16
1	5
1	16
1	8
1	18
1	10
1	5
1	8
1	5
1	16
1	17
1	8
1	16
1	6
2	3
2	3
2	3
2	3
2	4
2	6
2	3
2	3
2	4
2	4
2	3
3	4
3	4
4	5
4	5
4	5
4	6
4	5
6	7
15	16
