1	6124
1	160
1	161
1	9
1	126
1	126
1	160
1	160
1	126
1	160
1	160
1	125
1	10
1	127
1	160
1	125
1	125
1	160
1	126
1	24
1	160
1	160
1	160
1	127
1	160
1	161
1	162
1	160
1	125
1	160
1	14
1	125
1	9
1	160
1	127
1	16
1	160
1	127
1	160
1	127
1	10
1	160
1	127
1	160
1	127
1	160
1	160
1	160
1	14
1	127
1	126
1	160
1	125
1	160
1	14
1	160
1	125
1	4
1	160
1	128
1	160
1	160
1	125
1	160
1	10
1	160
1	160
1	7
1	125
1	125
1	125
1	160
1	160
1	14
1	160
1	160
1	160
1	11
1	160
1	125
1	125
1	18
1	125
1	160
1	161
1	125
1	14
1	160
1	160
1	160
1	9
1	129
1	8
1	126
1	160
1	160
1	6
1	10
1	160
1	125
1	12
1	160
1	160
1	160
1	7
1	126
1	160
1	7
1	160
1	160
1	8
1	160
1	128
1	127
1	160
1	125
1	9
1	14
1	125
1	160
1	126
1	8
1	160
1	125
1	8
1	160
1	125
1	160
1	127
1	5
1	125
1	6
1	125
1	125
1	127
1	14
1	160
1	160
1	10
1	125
1	125
1	13
1	160
1	160
1	17
1	160
1	5
1	160
1	160
1	127
1	160
1	125
1	160
1	125
1	160
1	125
1	125
1	160
1	125
1	14
1	6
1	160
1	12
1	160
1	125
1	5
1	160
1	125
1	160
1	9
1	160
1	160
1	160
1	4
1	160
1	160
1	125
1	6
1	125
1	160
1	11
1	125
1	160
1	4
2	3
2	126
2	126
2	126
2	126
2	126
2	126
2	7
2	3
2	4
2	4
2	11
2	126
2	126
2	3
2	126
2	126
2	10
2	16
2	126
2	7
2	126
2	126
2	126
2	126
2	3
2	126
2	3
2	4
2	3
2	6
2	4
2	3
2	5
2	3
2	126
2	10
2	126
2	126
2	126
2	126
2	3
2	126
2	126
2	3
2	126
2	126
2	126
2	6
2	9
2	126
2	126
2	126
2	126
2	126
2	7
2	126
2	126
2	15
2	4
2	126
2	13
2	126
2	3
2	6
2	3
2	126
2	126
2	126
2	4
2	126
2	126
2	4
2	3
2	4
3	5
3	4
3	7
3	7
3	4
3	5
3	127
3	4
3	4
3	7
3	5
3	16
3	4
3	5
3	4
3	4
3	6
3	5
3	6
3	4
3	5
3	8
3	4
3	9
3	6
4	6
4	5
4	5
4	5
4	5
4	5
4	5
4	5
4	5
4	5
5	6
5	6
5	6
5	6
5	6
6	7
7	8
7	8
8	9
9	10
11	12
13	14
124	125
159	160
