1	6124
1	252
1	252
1	252
1	252
1	252
1	252
1	252
1	252
1	252
1	252
1	252
1	252
1	252
1	252
1	252
1	252
1	252
1	252
1	252
1	252
1	252
1	252
1	252
1	253
1	253
1	252
1	252
1	252
1	252
1	96
1	252
1	252
1	252
1	252
1	252
1	252
1	252
1	252
1	252
1	252
1	252
1	252
1	252
1	252
1	96
1	96
1	252
1	252
1	253
1	252
1	252
1	252
1	252
1	252
1	252
1	252
1	252
1	252
1	252
1	94
1	96
1	252
1	252
1	252
1	252
1	95
1	252
1	252
1	252
1	252
1	252
1	252
1	252
1	96
1	252
1	252
1	252
1	252
1	252
1	252
1	252
1	252
1	252
1	252
1	252
1	252
1	252
1	252
1	252
1	252
1	252
1	252
1	96
1	252
1	94
1	252
1	252
1	252
1	252
1	252
1	252
1	252
1	252
1	252
1	252
1	252
1	252
1	252
1	94
1	94
1	252
1	252
1	95
1	252
1	252
1	252
1	252
1	252
1	252
1	252
1	252
1	252
1	252
1	252
1	252
1	252
1	252
1	252
1	10
1	96
1	252
1	252
1	94
1	252
1	252
1	252
1	253
1	252
1	252
1	252
1	252
1	252
1	252
1	252
1	252
1	252
1	252
1	252
1	252
1	252
1	252
1	252
1	252
1	252
1	252
1	252
1	252
1	252
1	252
1	252
1	252
1	252
1	252
1	252
1	252
1	252
1	252
1	252
1	252
1	252
1	252
1	252
2	95
2	3
2	95
2	95
2	95
2	95
2	95
2	96
2	95
2	95
2	96
2	8
2	95
2	95
2	95
2	95
2	95
2	95
2	95
2	95
2	95
2	96
2	95
2	95
2	95
2	95
2	95
2	95
2	95
2	95
2	95
2	95
2	95
2	95
2	95
2	95
2	7
2	95
2	95
2	95
2	253
2	95
2	95
2	95
2	95
2	253
2	95
2	95
2	95
2	3
2	3
2	95
2	95
2	95
2	95
2	95
2	95
2	95
2	4
2	95
2	95
2	95
2	95
2	95
2	95
2	4
2	95
2	3
2	95
2	95
2	95
2	95
2	95
2	3
2	95
3	7
3	6
3	5
3	7
3	8
3	96
3	96
3	5
3	8
3	4
3	4
3	4
3	4
3	8
3	7
3	5
3	6
3	6
4	5
4	6
4	5
4	7
4	6
5	6
5	6
5	7
93	94
251	252
