1	6124
1	209
1	208
1	208
1	208
1	12
1	208
1	208
1	147
1	208
1	144
1	208
1	144
1	208
1	145
1	143
1	144
1	14
1	11
1	208
1	148
1	208
1	208
1	208
1	13
1	8
1	208
1	143
1	4
1	146
1	143
1	208
1	143
1	208
1	144
1	208
1	208
1	208
1	145
1	143
1	208
1	143
1	208
1	143
1	144
1	146
1	208
1	143
1	5
1	208
1	143
1	208
1	208
1	208
1	10
1	143
1	208
1	208
1	208
1	5
1	143
1	208
1	208
1	208
1	208
1	6
1	210
1	208
1	14
1	208
1	143
1	208
1	11
1	208
1	7
1	208
1	208
1	10
1	208
1	143
1	208
1	7
1	208
1	10
1	143
1	143
1	208
1	143
1	208
1	145
1	145
1	208
1	208
1	143
1	208
1	208
1	7
1	8
1	208
1	208
1	7
1	143
1	208
1	143
1	208
1	144
1	208
1	8
1	208
1	208
1	145
1	208
1	10
1	208
1	143
1	208
1	208
1	208
1	143
1	143
1	7
1	143
1	208
1	208
1	208
1	208
1	143
1	209
1	208
1	143
1	208
1	208
1	208
1	208
1	208
1	208
1	208
1	208
1	208
1	4
1	143
1	144
1	208
1	208
1	8
1	4
1	208
1	208
1	208
1	208
1	208
1	208
1	208
1	5
1	4
1	8
1	208
1	143
1	208
1	143
1	208
1	208
1	208
1	208
1	208
1	208
1	209
1	7
1	208
1	208
1	5
1	208
1	143
1	208
1	144
1	208
1	208
1	143
1	208
2	6
2	144
2	3
2	144
2	144
2	144
2	144
2	144
2	144
2	144
2	144
2	3
2	144
2	144
2	144
2	144
2	9
2	144
2	144
2	144
2	144
2	144
2	3
2	144
2	144
2	144
2	144
2	144
2	5
2	3
2	3
2	4
2	144
2	144
2	144
2	4
2	3
2	144
2	144
2	144
2	3
2	144
2	144
2	144
2	7
2	144
2	144
2	144
2	144
2	144
2	4
2	144
2	144
2	144
2	144
2	144
2	144
2	144
2	144
2	144
2	144
2	144
2	144
2	144
2	144
2	144
2	144
2	144
2	144
2	144
2	144
2	144
2	6
2	4
2	144
2	144
2	144
2	144
2	144
2	144
2	144
2	144
2	144
2	3
2	144
2	144
2	144
2	144
2	3
2	145
2	3
2	144
2	3
2	144
2	144
2	144
2	144
2	144
2	144
2	144
2	144
2	144
2	144
2	144
3	5
3	4
3	4
3	4
3	4
3	8
3	4
3	4
3	4
3	4
3	5
3	6
3	4
3	4
3	4
4	5
4	5
4	5
4	6
4	5
4	5
5	6
5	7
5	6
5	6
5	6
6	7
6	7
7	8
9	10
142	143
207	208
