1	6124
1	208
1	208
1	209
1	208
1	208
1	15
1	78
1	208
1	208
1	11
1	208
1	12
1	76
1	208
1	16
1	14
1	76
1	210
1	10
1	208
1	208
1	208
1	208
1	7
1	8
1	208
1	208
1	208
1	208
1	12
1	208
1	208
1	208
1	76
1	79
1	208
1	208
1	208
1	208
1	208
1	208
1	208
1	7
1	208
1	208
1	9
1	208
1	208
1	8
1	208
1	208
1	208
1	75
1	8
1	41
1	208
1	208
1	10
1	75
1	208
1	12
1	208
1	208
1	208
1	208
1	16
1	12
1	208
1	7
1	208
1	208
1	208
1	75
1	208
1	78
1	75
1	208
1	11
1	4
1	208
1	208
1	208
1	208
1	208
1	208
1	77
1	208
1	208
1	208
1	208
1	208
1	208
1	208
1	208
1	12
1	5
1	208
1	208
1	13
1	208
1	208
1	208
1	208
1	208
1	208
1	208
1	208
1	208
1	210
1	8
1	12
1	7
1	8
1	11
1	208
1	208
1	12
1	77
1	208
1	208
1	208
1	75
1	208
1	208
1	208
1	76
1	208
1	208
1	208
1	5
1	7
1	208
1	208
1	208
1	208
1	5
1	14
1	208
1	208
1	4
1	5
1	7
1	208
1	208
1	208
1	208
1	16
1	7
1	11
1	7
1	75
1	208
1	209
1	208
1	75
1	5
1	208
1	6
1	208
1	208
1	208
1	208
1	208
1	208
1	13
1	208
1	4
1	208
1	208
2	76
2	39
2	76
2	76
2	40
2	39
2	4
2	39
2	76
2	76
2	3
2	76
2	76
2	12
2	3
2	76
2	39
2	6
2	39
2	13
2	8
2	4
2	76
2	76
2	4
2	3
2	76
2	39
2	76
2	14
2	76
2	6
2	4
2	76
2	76
2	76
2	39
2	3
2	39
2	76
2	3
2	39
2	39
2	76
2	9
2	76
2	76
2	39
2	76
2	76
2	4
2	39
2	39
2	8
2	39
2	76
2	3
2	6
2	76
2	5
2	5
2	39
2	39
2	4
2	77
2	3
2	39
2	13
2	209
2	39
2	5
2	76
2	39
2	39
2	76
2	39
2	76
2	76
2	3
2	76
2	76
2	4
2	76
2	209
2	76
2	76
2	4
2	3
2	4
2	39
2	8
2	3
2	5
2	76
2	76
2	76
2	3
2	76
2	4
2	39
2	39
2	9
2	39
2	76
2	39
2	76
2	76
2	76
2	4
2	3
3	14
3	6
3	5
3	5
3	6
3	4
3	40
3	5
3	4
3	4
3	6
3	4
3	4
3	4
3	5
3	6
3	4
3	4
3	4
3	5
3	4
3	6
3	14
3	5
3	5
3	5
3	11
3	40
3	4
4	5
4	5
4	5
4	5
4	5
4	5
5	7
5	6
5	6
5	6
6	7
6	7
7	8
8	9
10	11
11	12
11	12
37	39
74	75
207	208
