1	6124
1	88
1	14
1	13
1	21
1	12
1	170
1	170
1	170
1	169
1	169
1	12
1	12
1	87
1	169
1	18
1	5
1	86
1	18
1	22
1	10
1	86
1	169
1	169
1	89
1	7
1	87
1	15
1	15
1	169
1	169
1	15
1	169
1	172
1	169
1	169
1	169
1	169
1	169
1	169
1	11
1	12
1	169
1	88
1	169
1	88
1	170
1	86
1	169
1	86
1	169
1	169
1	169
1	169
1	169
1	169
1	169
1	169
1	15
1	86
1	4
1	10
1	169
1	169
1	169
1	5
1	169
1	5
1	169
1	169
1	169
1	169
1	169
1	11
1	9
1	11
1	169
1	86
1	13
1	169
1	169
1	11
1	169
1	169
1	169
1	169
1	86
1	169
1	169
1	4
1	169
1	86
1	7
1	169
1	169
1	11
1	169
1	12
1	7
1	12
1	12
1	169
1	169
1	169
1	169
1	169
1	7
1	86
1	86
1	89
1	169
1	90
1	169
1	169
1	86
1	88
1	5
1	169
1	169
1	9
1	169
1	169
1	169
1	169
1	169
1	169
1	7
1	8
1	86
1	86
1	86
1	9
1	86
1	169
1	13
1	6
1	86
1	169
1	169
1	6
1	169
1	86
1	86
1	4
1	6
1	169
1	14
1	169
1	169
1	87
1	8
1	169
1	169
1	169
1	169
1	7
1	8
1	15
1	5
1	5
1	170
1	169
1	169
1	8
1	86
1	169
1	169
1	86
1	169
1	169
1	169
1	169
1	12
1	169
1	4
1	169
1	169
1	7
1	86
1	169
1	169
1	12
1	10
1	169
1	169
1	169
1	10
1	169
1	169
1	6
1	169
1	169
1	169
1	9
1	169
1	169
1	169
1	86
1	7
1	11
1	8
1	169
1	169
1	10
1	169
1	88
1	15
1	5
1	170
1	169
1	169
1	8
1	11
1	87
1	169
1	169
1	88
1	169
1	86
1	169
1	12
1	169
1	169
1	86
1	169
1	169
1	169
1	169
1	10
2	3
2	5
2	3
2	10
2	6
2	3
2	5
2	3
2	3
2	5
2	87
2	10
2	4
2	87
2	87
2	3
2	3
2	87
2	7
2	87
2	3
2	3
2	3
2	4
2	87
2	8
2	6
2	10
2	4
2	87
2	3
2	3
2	3
2	87
2	87
2	4
2	3
2	3
2	3
2	4
2	87
2	3
2	87
2	87
2	87
2	87
2	4
2	3
2	3
2	87
2	3
2	4
2	87
2	4
2	10
2	3
2	10
2	5
2	5
2	88
2	87
2	87
2	5
2	10
2	87
2	87
2	5
2	3
2	5
2	5
2	87
2	87
2	4
3	4
3	5
3	5
3	8
3	4
3	4
3	4
3	4
3	4
3	4
3	4
3	5
3	11
3	5
3	17
3	4
3	5
3	5
3	4
3	5
3	4
3	4
3	4
3	4
3	4
3	5
3	4
3	5
3	4
3	4
4	6
4	7
4	5
4	6
4	6
4	6
4	5
4	5
4	5
4	5
5	6
5	6
5	6
5	7
5	6
6	7
7	8
8	9
8	9
8	9
8	9
9	10
10	11
11	12
14	15
85	86
168	169
