1	6124
1	73
1	13
1	88
1	87
1	12
1	72
1	11
1	87
1	88
1	11
1	12
1	72
1	11
1	72
1	72
1	11
1	87
1	87
1	87
1	72
1	87
1	72
1	87
1	14
1	10
1	88
1	72
1	72
1	10
1	87
1	9
1	10
1	11
1	87
1	87
1	87
1	87
1	12
1	6
1	72
1	73
1	13
1	87
1	5
1	87
1	11
1	11
1	14
1	87
1	9
1	87
1	72
1	72
1	10
1	72
1	72
1	11
1	87
1	5
1	7
1	88
1	87
1	11
1	87
1	87
1	87
1	72
1	87
1	87
1	87
1	87
1	87
1	72
1	87
1	87
1	87
1	11
1	9
1	72
1	7
1	8
1	87
1	87
1	12
1	74
1	87
1	72
1	72
1	72
1	8
1	5
1	13
1	8
1	87
1	9
1	6
1	7
1	10
1	13
1	87
1	72
2	73
2	73
2	73
2	3
2	6
2	3
2	88
2	8
2	73
2	4
2	6
2	3
2	3
2	8
2	8
2	7
2	6
2	9
2	7
2	73
2	10
2	73
2	8
2	73
2	7
2	5
2	9
2	7
2	11
2	4
2	3
2	8
2	73
2	8
2	10
2	9
3	4
3	4
3	7
3	8
3	10
3	4
3	10
3	4
3	15
3	6
3	6
3	10
3	4
3	8
3	11
3	9
3	4
3	4
3	9
3	12
3	6
3	6
3	7
3	8
3	5
3	8
3	6
3	10
3	5
3	4
4	9
4	5
4	9
4	10
4	5
4	6
4	5
4	7
4	5
4	5
4	7
4	9
5	7
5	7
5	8
5	6
5	7
5	6
5	6
5	7
5	7
6	7
6	7
6	7
6	7
7	9
7	8
7	8
7	8
7	10
8	10
8	9
8	9
8	9
10	11
11	12
12	13
71	72
86	87
