1	6124
1	195
1	195
1	196
1	195
1	201
1	196
1	196
1	195
1	56
1	55
1	56
1	11
1	195
1	7
1	12
1	195
1	195
1	55
1	57
1	8
1	54
1	198
1	195
1	198
1	195
1	195
1	195
1	195
1	195
1	5
1	195
1	9
1	195
1	195
1	196
1	196
1	195
1	55
1	4
1	196
1	197
1	195
1	195
1	195
1	11
1	195
1	10
1	12
1	195
1	196
1	195
1	197
1	196
1	56
1	195
1	9
1	195
1	54
1	195
1	195
1	5
1	195
1	195
1	58
1	195
1	195
1	54
1	10
1	195
1	8
1	195
1	55
1	6
1	195
1	54
1	195
1	9
1	56
1	195
1	6
1	195
1	195
1	195
1	195
1	5
1	195
1	54
1	11
1	195
1	10
1	195
1	195
1	195
1	4
1	195
1	195
1	7
1	8
1	195
1	195
1	195
1	195
1	195
1	9
1	195
1	54
1	195
1	5
1	8
1	195
1	195
1	195
1	8
1	195
1	195
1	5
1	195
1	6
1	5
1	195
1	7
1	195
1	195
1	54
1	195
1	7
1	200
1	7
1	195
1	7
1	7
1	195
1	195
1	195
1	195
1	195
1	10
1	195
1	5
1	195
1	195
1	8
1	195
1	195
1	8
1	195
1	9
1	195
1	195
1	195
1	195
1	198
1	196
1	4
1	195
1	195
1	9
1	5
1	196
1	195
1	54
1	5
1	195
1	196
1	8
1	9
1	4
1	195
1	54
1	8
1	9
1	10
1	195
1	6
1	195
1	6
1	195
1	195
1	195
1	6
1	9
1	6
1	195
1	7
1	55
1	7
1	195
1	195
1	54
1	195
1	5
1	195
1	195
1	5
1	195
1	10
1	8
1	196
1	195
1	195
1	6
1	54
1	9
1	195
1	5
1	10
1	195
1	195
1	195
1	4
1	195
1	195
1	195
1	195
1	195
1	196
1	195
1	6
1	195
1	5
1	195
1	195
1	8
1	8
1	195
1	195
1	6
1	195
1	195
1	195
1	195
1	6
1	9
1	195
1	195
1	195
1	4
1	10
1	196
1	195
1	8
1	195
1	9
1	195
1	195
1	9
1	5
1	7
1	5
1	195
1	9
1	8
1	195
1	55
1	195
1	195
1	4
1	195
1	7
1	55
1	6
1	54
1	195
1	6
1	195
1	8
1	5
1	5
1	195
1	56
1	54
1	195
1	55
1	54
1	195
1	195
1	195
1	195
1	195
1	195
1	195
1	195
1	54
1	195
1	195
1	195
2	3
2	5
2	3
2	4
2	3
2	55
2	3
2	3
2	5
2	3
2	3
2	4
2	55
2	4
2	3
2	4
2	7
2	3
2	3
2	55
2	3
2	3
2	55
2	55
2	3
2	3
2	4
2	3
2	3
2	3
2	4
2	4
2	6
2	3
2	3
2	3
2	3
2	4
2	4
2	3
2	5
2	4
2	3
2	56
2	8
2	3
2	4
2	3
2	5
2	4
2	55
2	3
2	3
2	55
2	55
2	3
2	5
2	6
2	4
2	3
2	4
2	55
2	55
2	56
2	3
2	4
2	3
2	5
2	3
2	3
2	4
2	3
2	6
2	55
2	5
2	4
2	3
2	55
2	5
2	3
2	3
3	4
3	4
3	4
3	4
3	4
3	4
3	5
3	4
3	4
3	6
3	4
3	4
3	4
3	5
3	4
3	4
3	4
3	4
3	4
3	4
3	5
3	4
3	4
3	4
3	4
3	4
3	4
3	7
3	4
3	5
4	5
4	5
4	5
4	5
4	6
4	5
4	5
4	5
4	5
4	5
4	5
4	5
4	5
4	10
5	6
5	6
5	6
5	6
6	7
6	7
6	7
6	7
6	7
7	8
7	8
8	9
8	9
53	54
194	195
