1	6124
1	169
1	168
1	168
1	12
1	87
1	168
1	86
1	169
1	168
1	6
1	87
1	85
1	168
1	85
1	168
1	168
1	171
1	169
1	168
1	5
1	170
1	11
1	170
1	168
1	4
1	168
1	171
1	168
1	83
1	85
1	83
1	83
1	168
1	168
1	169
1	169
1	4
1	85
1	169
1	7
1	6
1	168
1	9
1	168
1	168
1	12
1	168
1	8
1	85
1	168
1	168
1	9
1	12
1	168
1	6
1	168
1	83
1	168
1	169
1	168
1	9
1	168
1	5
1	169
1	7
1	170
1	168
1	168
1	168
1	6
1	168
1	168
1	169
1	168
1	169
1	11
1	85
1	168
1	168
1	8
1	7
1	168
1	168
1	6
1	168
1	168
1	85
1	169
1	5
1	169
1	168
1	83
1	6
1	83
1	168
1	168
1	6
1	8
1	8
1	168
1	168
1	169
1	169
1	168
1	85
1	168
1	168
1	5
1	168
1	168
1	168
1	168
1	11
1	7
1	8
1	168
1	4
1	168
1	9
1	168
1	5
1	168
1	168
1	85
1	8
1	5
1	168
1	6
1	168
1	168
1	7
1	168
1	168
1	168
1	8
1	7
1	11
1	168
1	169
1	168
1	7
1	169
2	3
2	4
2	84
2	84
2	84
2	84
2	84
2	84
2	3
2	84
2	3
2	84
2	3
2	6
2	84
2	5
2	84
2	84
2	84
2	3
2	84
2	3
2	84
2	4
2	84
2	84
2	3
2	3
2	3
2	84
2	5
2	84
2	84
2	84
2	5
2	84
2	84
2	84
2	84
2	84
2	84
2	84
2	84
2	84
2	6
2	84
2	3
2	84
2	3
2	84
2	84
2	3
2	3
2	3
2	5
2	84
2	84
2	5
2	84
2	3
2	84
2	84
2	3
2	84
2	6
2	84
2	84
2	4
2	84
2	84
2	84
2	84
2	84
2	3
2	12
2	84
2	4
2	84
2	84
2	84
2	84
2	84
2	4
2	3
2	84
2	84
2	84
2	5
2	9
2	4
2	84
2	84
2	3
2	84
2	3
2	84
2	84
2	3
3	5
3	4
3	6
3	4
3	6
3	4
3	5
3	4
3	5
3	4
3	6
3	4
3	4
3	4
3	4
3	4
3	4
3	4
3	4
3	4
3	7
3	4
3	4
4	5
4	5
4	6
4	5
4	5
4	5
4	5
5	7
5	6
5	6
5	6
5	6
5	6
6	7
7	8
10	11
82	83
167	168
