1	6124
1	220
1	219
1	142
1	143
1	142
1	219
1	145
1	219
1	144
1	145
1	219
1	219
1	219
1	219
1	219
1	144
1	219
1	219
1	219
1	142
1	219
1	219
1	219
1	144
1	219
1	142
1	143
1	145
1	219
1	219
1	219
1	219
1	143
1	143
1	144
1	219
1	143
1	219
1	142
1	219
1	142
1	219
1	219
1	219
1	219
1	9
1	219
1	8
1	219
1	219
1	219
1	142
1	142
1	219
1	219
1	219
1	219
1	8
1	7
1	219
1	7
1	219
1	219
1	219
1	142
1	219
1	5
1	6
1	144
1	11
1	219
1	219
1	219
1	219
1	145
1	219
1	143
1	219
1	219
1	142
1	219
1	144
1	219
1	219
1	142
1	219
1	219
1	219
1	219
1	219
1	142
1	219
1	219
1	219
1	219
1	219
1	142
1	219
1	219
1	219
1	219
1	219
1	219
1	219
1	10
1	219
1	11
1	219
1	219
1	219
1	219
1	143
1	219
1	219
1	219
1	219
1	219
1	7
1	219
1	219
1	7
1	219
1	219
1	219
1	219
1	219
1	219
1	219
1	219
1	219
1	142
1	219
1	219
1	219
1	142
1	142
1	219
1	10
1	142
1	219
1	219
1	219
1	142
1	142
1	219
1	219
1	4
1	219
1	142
1	219
1	219
1	5
1	219
1	219
1	219
1	219
1	219
1	219
1	142
1	219
1	219
1	6
1	142
1	219
1	142
1	219
1	219
1	219
1	219
1	219
1	142
1	142
1	219
1	219
2	3
2	143
2	7
2	143
2	143
2	143
2	143
2	143
2	11
2	143
2	4
2	143
2	143
2	143
2	143
2	143
2	5
2	5
2	143
2	3
2	143
2	143
2	143
2	143
2	143
2	143
2	143
2	143
2	143
2	143
2	5
2	143
2	143
2	143
2	143
2	143
2	143
2	143
2	143
2	143
2	143
2	143
2	4
2	3
2	8
2	143
2	143
2	143
2	143
2	143
2	143
2	143
2	143
2	143
2	143
2	143
2	4
2	5
2	3
2	143
2	5
2	143
2	143
2	143
2	4
2	143
2	3
2	143
2	4
2	143
2	143
2	143
2	143
2	143
2	143
2	143
2	143
2	143
2	143
2	3
2	143
2	143
2	143
2	143
2	7
2	143
2	143
2	143
2	143
2	143
2	143
2	3
2	3
2	143
2	143
2	143
2	143
2	143
2	143
2	143
2	143
2	143
2	143
2	143
2	143
2	143
2	143
2	3
2	143
2	143
2	143
2	3
2	143
3	4
3	4
3	4
3	6
3	5
3	9
3	4
3	5
3	4
3	5
3	4
3	4
3	5
3	4
4	5
4	5
4	5
4	5
4	5
5	7
6	7
6	7
9	10
141	142
218	219
