1	6124
1	164
1	163
1	92
1	163
1	163
1	163
1	163
1	92
1	163
1	163
1	92
1	163
1	163
1	163
1	163
1	163
1	163
1	163
1	163
1	163
1	163
1	163
1	163
1	163
1	163
1	163
1	163
1	163
1	163
1	163
1	163
1	163
1	163
1	163
1	163
1	163
1	163
1	163
1	163
1	163
1	163
1	163
1	163
1	163
1	163
1	163
1	163
1	163
1	163
1	92
1	92
1	163
1	163
1	163
1	163
1	163
1	163
1	163
1	163
1	163
1	163
1	163
1	92
1	163
1	163
1	163
1	163
1	163
1	163
1	163
1	163
1	163
1	163
1	163
1	163
1	163
1	163
1	163
1	163
2	93
2	93
2	93
2	94
2	93
2	93
2	93
2	93
2	93
2	93
2	93
2	93
2	93
2	93
2	93
2	93
2	93
2	93
2	93
2	93
2	93
2	93
2	93
2	94
2	93
2	93
2	93
2	93
2	93
2	93
2	93
2	93
2	93
2	93
2	93
2	93
2	93
2	93
2	93
2	93
2	93
2	93
2	93
2	93
2	93
2	93
2	93
2	94
2	93
2	93
2	93
2	93
2	93
2	93
2	93
2	93
2	93
2	93
2	93
2	93
2	93
2	93
2	93
2	93
2	93
2	93
2	93
2	93
2	93
2	93
2	93
2	93
3	5
3	94
3	9
3	8
3	5
3	94
3	9
3	7
3	6
3	6
3	9
3	6
3	5
4	6
4	7
4	7
6	9
91	92
162	163
