1	6124
1	30
1	6124
1	21
1	10
1	12
1	137
1	137
1	9
1	136
1	16
1	29
1	136
1	136
1	136
1	29
1	136
1	12
1	29
1	136
1	8
1	9
1	136
1	136
1	7
1	9
1	30
1	136
1	9
1	136
1	15
1	12
1	137
1	136
1	136
1	136
1	9
1	136
1	8
1	9
1	8
1	136
1	136
1	136
1	136
1	137
1	136
1	137
1	18
1	136
1	136
1	10
1	23
1	18
1	30
1	136
1	30
1	15
1	6
1	136
1	136
1	15
1	8
1	15
1	136
1	7
1	8
1	31
1	7
1	136
1	15
1	15
1	2
1	136
1	136
1	9
1	136
1	136
1	136
1	136
1	29
1	29
1	136
1	9
1	136
1	136
1	136
1	7
1	136
1	9
1	136
1	136
1	7
1	136
1	9
1	9
1	136
1	136
1	136
1	29
1	136
1	136
1	136
1	9
1	29
1	8
1	136
1	7
1	19
1	29
1	136
1	136
1	18
1	136
1	8
1	8
1	136
1	6124
1	136
1	136
1	136
1	136
1	136
1	4
1	136
1	137
1	5
1	7
1	30
1	6
1	136
1	136
1	4
1	29
1	4
1	136
1	15
1	136
1	136
1	136
1	136
1	137
1	136
1	136
1	8
1	136
1	10
1	136
1	15
1	5
1	136
1	7
1	2
1	19
1	136
1	136
1	136
1	7
1	29
1	136
1	136
1	136
1	136
1	29
1	136
1	137
1	136
1	8
1	5
1	136
1	7
1	136
1	136
1	4
1	136
1	136
1	136
1	136
1	4
1	136
1	136
2	8
2	5
2	6
2	5
2	5
2	18
2	9
2	4
2	8
2	16
2	16
2	3
2	3
2	16
2	16
2	8
2	8
2	8
2	19
2	9
2	9
2	10
2	3
2	6
2	3
2	7
2	3
2	9
2	9
2	7
2	4
2	16
2	3
2	3
2	9
2	5
2	9
2	5
2	30
2	9
2	16
2	4
2	3
2	6
2	3
2	3
2	4
2	4
2	9
2	16
2	5
2	7
2	3
2	3
2	4
2	4
2	7
2	4
2	5
3	5
3	7
3	4
3	4
3	5
3	8
3	7
3	4
3	4
3	4
3	5
3	5
3	4
3	4
3	4
3	4
3	4
3	4
3	6
4	5
4	5
4	6
4	7
4	6
4	5
4	5
4	6
4	5
4	5
4	5
4	5
4	6
5	6
5	7
5	7
5	6
6	7
6	7
6	7
6	7
6	8
6	7
6	7
6	7
6	7
7	9
7	8
7	8
7	9
14	16
14	15
17	18
28	29
135	136
