1	6124
1	45
1	45
1	46
1	45
1	42
1	44
1	41
1	41
1	41
1	5
1	43
1	44
1	43
1	41
1	45
1	42
1	43
1	41
1	46
1	45
1	43
1	45
1	42
1	45
1	45
1	43
1	45
1	8
2	43
2	42
2	42
2	42
2	42
2	42
2	3
2	42
2	42
2	42
2	42
2	42
2	42
2	42
2	42
2	42
2	42
2	42
2	3
2	3
2	4
2	3
2	42
2	42
2	42
2	42
2	5
2	42
2	6
2	42
3	5
3	4
3	4
3	4
3	4
3	4
3	5
4	5
4	5
4	5
40	41
44	45
