1	6124
1	119
1	116
1	9
1	10
1	115
1	113
1	141
1	116
1	118
1	115
1	141
1	114
1	16
1	140
1	140
1	15
1	113
1	114
1	11
1	8
1	9
1	115
1	140
1	12
1	140
1	140
1	113
1	140
1	140
1	12
1	140
1	140
1	8
1	113
1	140
1	8
1	9
1	9
1	140
1	15
1	9
1	140
1	113
1	140
1	143
1	117
1	118
1	8
1	141
1	113
1	140
1	113
1	140
1	7
1	113
1	115
1	116
1	113
1	140
1	7
1	12
1	7
1	113
1	119
1	7
1	8
1	114
1	141
1	13
1	113
1	115
1	113
1	8
1	12
1	140
1	7
1	5
1	113
1	141
1	140
1	113
1	113
1	7
1	8
1	7
1	5
1	8
1	8
1	113
1	141
1	140
1	140
1	6
1	11
1	113
1	140
1	6
1	9
1	142
1	113
1	6
1	113
1	140
1	115
1	9
1	113
1	113
1	7
1	6
1	140
1	9
1	4
1	140
1	113
1	113
1	113
1	140
1	113
1	8
1	5
1	115
1	113
1	115
1	115
1	8
1	11
1	5
1	9
1	140
1	9
1	9
1	113
1	113
1	113
1	9
1	113
1	113
1	4
1	6
1	140
1	113
1	113
1	6
1	140
1	140
1	6
1	140
1	140
1	113
1	5
1	140
1	113
1	113
1	140
1	141
1	6
1	113
1	8
1	140
1	6
1	140
1	140
1	141
1	7
1	140
1	140
1	9
1	113
2	3
2	3
2	7
2	10
2	114
2	114
2	114
2	3
2	5
2	114
2	3
2	114
2	114
2	7
2	114
2	114
2	3
2	4
2	141
2	4
2	115
2	114
2	5
2	6
2	114
2	3
2	114
2	10
2	114
2	114
2	7
2	114
2	114
2	114
2	114
2	114
2	5
2	114
2	3
2	114
2	114
2	5
2	4
2	114
2	114
2	4
2	5
2	3
2	114
2	7
2	114
2	3
2	114
2	3
2	5
2	9
2	114
2	114
2	3
2	114
2	5
2	114
2	3
2	114
2	4
2	114
2	114
2	114
2	4
2	3
2	3
2	4
2	114
2	114
2	114
2	114
2	3
2	114
2	7
2	114
2	4
2	4
2	4
2	3
2	6
2	7
2	4
2	114
3	4
3	4
3	5
3	5
3	5
3	4
3	7
3	5
3	4
3	6
3	4
3	5
3	6
3	6
3	4
3	4
3	4
3	7
3	4
3	4
3	4
3	4
3	5
3	5
3	4
3	4
3	4
3	5
3	4
3	4
4	5
4	5
4	5
4	7
4	6
4	5
4	5
4	5
4	5
4	5
4	5
4	5
4	5
5	8
5	6
5	6
5	6
5	6
5	7
5	6
5	6
5	6
6	7
6	7
7	8
7	8
8	9
8	9
11	12
112	113
139	140
