1	6124
1	62
1	14
1	36
1	10
1	9
1	34
1	61
1	34
1	62
1	8
1	61
1	61
1	61
1	61
1	9
1	15
1	13
1	7
1	12
1	11
1	13
1	12
1	34
1	15
1	34
1	34
1	11
1	15
1	34
1	12
1	12
1	13
1	34
1	8
1	61
1	35
1	13
1	61
1	63
1	8
1	15
1	61
1	61
1	11
1	35
1	12
1	35
1	8
1	4
1	62
1	34
1	14
1	61
1	34
1	11
1	13
1	6
1	61
1	34
1	61
1	11
1	34
1	9
1	61
1	61
1	11
1	61
1	61
1	12
1	34
1	34
1	13
1	61
1	61
1	13
1	13
1	61
1	61
1	10
1	11
1	12
1	7
1	7
1	4
1	34
1	61
1	62
1	61
1	4
1	62
1	62
2	4
2	8
2	35
2	14
2	3
2	3
2	12
2	3
2	3
2	6
2	12
2	8
2	35
2	3
2	14
2	3
2	4
2	10
2	4
2	10
2	3
2	9
2	62
2	6
2	5
2	5
2	11
2	3
2	4
2	3
2	4
2	8
2	3
2	8
2	3
2	3
2	5
2	8
2	5
2	7
3	5
3	9
3	5
3	7
3	4
3	13
3	6
3	6
3	5
3	4
3	4
3	4
3	8
3	5
3	5
3	5
3	6
3	5
3	6
3	4
3	9
3	4
3	5
3	12
3	4
3	4
3	6
3	4
3	8
3	10
4	10
4	6
4	5
4	5
4	7
5	8
5	9
5	8
5	7
5	8
5	7
6	7
6	8
6	8
6	7
7	8
7	8
9	10
9	10
10	11
10	11
10	11
10	11
12	13
12	13
13	14
33	34
60	61
