1	6124
1	200
1	201
1	200
1	97
1	199
1	97
1	199
1	99
1	202
1	97
1	199
1	201
1	200
1	200
1	199
1	201
1	199
1	200
1	10
1	97
1	200
1	97
1	5
1	10
1	199
1	199
1	199
1	201
1	199
1	201
1	199
1	199
1	6
1	201
1	199
1	199
1	199
1	201
1	201
1	199
1	199
1	199
1	199
1	200
1	5
1	200
1	4
1	199
1	199
1	97
1	200
1	4
1	5
1	201
1	199
1	199
1	4
1	97
1	200
1	5
1	199
1	200
1	200
1	200
1	200
1	199
1	199
1	4
1	6
1	200
1	5
1	201
1	199
1	8
1	5
1	7
1	199
1	199
1	98
1	200
1	199
1	4
1	97
1	199
1	201
1	199
1	200
1	199
1	199
1	98
1	199
1	199
1	199
1	199
1	200
1	199
1	98
1	6
1	200
1	96
1	95
1	5
1	199
1	200
1	199
1	10
1	4
1	200
1	6
1	199
1	6
1	199
1	199
1	199
1	11
1	5
1	6
1	200
1	199
1	199
1	6
1	200
1	200
1	199
1	199
1	5
1	8
1	199
1	4
1	200
1	200
1	200
1	5
1	199
1	4
1	200
1	9
1	199
1	200
1	6
1	199
1	4
1	200
1	4
1	10
1	199
1	200
1	5
1	200
2	3
2	96
2	4
2	3
2	3
2	96
2	4
2	3
2	96
2	5
2	3
2	96
2	96
2	5
2	3
2	96
2	4
2	3
2	3
2	96
2	96
2	5
2	9
2	96
2	96
2	96
2	96
2	3
2	6
2	5
2	96
2	96
2	3
2	96
2	3
2	96
2	96
2	10
2	3
2	96
2	3
2	96
2	3
2	96
2	3
2	96
2	3
2	10
2	3
2	96
2	3
2	3
2	3
2	3
2	3
2	96
2	96
2	6
2	96
2	4
2	96
2	3
2	4
2	3
2	96
2	96
2	96
2	200
2	4
2	3
2	3
2	96
2	5
2	96
2	4
2	4
2	96
2	96
2	96
2	4
2	3
2	3
2	4
2	96
2	96
2	3
2	4
2	96
2	96
2	96
2	96
2	96
2	3
2	96
2	96
2	96
2	96
2	4
2	3
2	3
2	96
2	96
2	96
2	96
2	4
2	4
2	96
2	5
2	3
2	4
2	96
2	3
2	96
2	96
2	3
2	96
2	96
2	96
2	3
2	96
2	4
2	3
2	96
2	5
2	96
2	96
2	3
2	4
2	96
2	96
2	4
2	96
2	96
2	4
2	10
2	96
2	96
2	3
2	3
2	96
2	96
2	96
2	96
2	96
2	96
2	3
2	3
2	96
2	3
2	4
2	3
2	96
2	96
2	96
2	3
2	96
2	96
2	96
3	4
3	5
3	5
3	5
3	4
3	4
3	5
3	4
3	5
3	4
3	4
3	5
3	4
3	4
3	4
3	5
3	4
3	4
3	6
3	4
3	4
3	4
3	5
3	4
3	5
3	5
3	4
3	5
3	5
3	4
3	4
3	4
3	4
3	4
3	5
3	4
4	5
4	5
4	5
4	5
4	5
5	6
7	8
8	9
94	95
198	199
