1	6124
1	137
1	140
1	136
1	83
1	136
1	140
1	84
1	83
1	136
1	81
1	83
1	136
1	136
1	136
1	85
1	81
1	136
1	81
1	138
1	81
1	142
1	6
1	138
1	136
1	81
1	136
1	6
1	15
1	11
1	83
1	4
1	11
1	6
1	11
1	137
1	10
1	136
1	136
1	10
1	81
1	136
1	10
1	138
1	84
1	13
1	137
1	138
1	6
1	6
1	9
1	7
1	8
1	10
1	139
1	139
1	6
1	4
1	9
1	139
1	81
1	6
1	14
1	8
1	8
1	82
1	8
1	14
1	8
1	136
1	7
1	14
1	136
1	137
1	7
1	7
1	12
1	9
1	136
1	7
1	136
1	82
1	15
1	5
1	139
1	136
1	137
1	6
1	137
1	136
1	9
1	8
1	5
1	136
1	136
1	6
1	82
1	136
1	6
1	7
1	6
1	8
1	4
1	4
1	136
1	136
1	6
1	8
1	85
1	136
1	6
1	4
1	7
1	136
1	136
1	6
1	14
1	7
1	136
1	137
1	136
1	81
1	136
1	81
1	5
1	6
1	136
1	81
1	16
1	6
1	5
1	5
1	4
1	81
1	6
1	136
1	137
1	7
1	136
1	81
1	136
1	81
1	136
1	136
1	136
1	83
1	4
1	6
1	81
1	7
1	136
1	136
1	8
1	81
1	9
1	81
1	6
1	83
1	5
1	138
1	136
1	136
1	81
1	9
1	15
1	5
1	8
1	6
1	82
1	8
1	5
1	6
1	136
1	81
1	7
1	5
1	136
1	5
1	136
1	7
1	136
1	7
1	137
1	81
1	136
1	136
1	5
1	5
1	6
1	136
1	136
1	81
1	11
1	4
1	14
1	4
1	81
1	9
1	6
1	136
1	136
1	81
1	81
1	4
1	14
1	7
1	14
1	136
1	5
1	9
1	81
2	3
2	82
2	82
2	6
2	82
2	5
2	5
2	82
2	6
2	8
2	82
2	7
2	3
2	82
2	3
2	82
2	82
2	82
2	3
2	82
2	82
2	82
2	5
2	5
2	82
2	82
2	3
2	82
2	82
2	3
2	82
2	7
2	82
2	3
2	3
2	7
2	82
2	82
2	6
2	4
2	4
2	3
2	5
2	4
2	5
2	5
2	3
2	3
2	4
2	82
2	82
2	3
2	3
2	8
2	82
2	82
2	82
2	4
2	82
2	82
2	82
2	4
2	3
2	82
2	4
2	7
2	7
2	82
2	82
2	82
2	4
2	4
2	7
2	3
2	3
2	4
2	3
2	82
2	3
2	82
2	3
2	3
2	82
2	82
2	3
2	3
2	3
2	3
2	3
3	5
3	6
3	4
3	4
3	8
3	4
3	4
3	5
3	4
3	4
3	6
3	4
3	4
3	4
3	5
3	6
3	4
3	4
3	4
3	4
3	4
3	4
3	4
3	5
3	4
3	4
3	4
3	4
3	4
3	5
3	4
3	4
3	4
3	4
3	4
3	4
3	4
3	5
4	5
4	5
4	5
4	6
4	5
4	5
4	5
4	5
4	5
4	6
4	6
4	6
4	5
4	5
5	6
5	6
5	6
5	7
5	7
5	6
5	6
5	6
5	6
5	6
5	6
5	6
6	7
6	7
6	7
6	7
7	8
8	9
13	14
80	81
135	136
