1	6124
1	144
1	6
1	127
1	124
1	11
1	143
1	123
1	124
1	123
1	13
1	126
1	11
1	143
1	9
1	124
1	143
1	124
1	11
1	123
1	143
1	124
1	143
1	143
1	143
1	143
1	143
1	8
1	143
1	14
1	13
1	143
1	143
1	143
1	123
1	8
1	143
1	11
1	6
1	126
1	10
1	6
1	6
1	143
1	143
1	143
1	143
1	143
1	143
1	124
1	9
1	143
1	143
1	5
1	6
1	123
1	8
1	123
1	124
1	10
1	143
1	143
1	123
1	124
1	143
1	143
1	143
1	123
1	123
1	123
1	143
1	143
1	7
1	143
1	143
1	143
1	123
1	143
1	6
1	6
1	4
1	143
1	123
1	125
1	11
1	125
1	123
1	6
1	123
1	123
1	10
1	6
1	123
1	143
1	143
1	7
1	123
1	143
1	8
1	143
1	8
1	9
1	143
1	143
1	6
1	143
1	143
1	143
1	143
1	7
1	143
1	123
1	7
1	143
1	143
1	10
1	143
1	126
1	143
1	143
1	143
1	143
1	123
1	143
1	143
1	143
1	125
1	6
1	143
1	123
1	123
1	5
1	143
1	6
1	9
1	143
1	124
1	123
1	5
1	6
1	5
1	124
1	143
1	5
1	8
1	143
1	143
1	126
1	6
1	7
1	143
1	5
1	6
1	6
1	143
1	6
1	143
1	8
1	143
1	123
1	143
1	6
1	8
1	143
1	123
1	10
1	4
1	143
1	6
1	143
1	124
1	4
1	143
1	4
1	5
1	143
1	6
1	7
1	8
1	6
1	143
1	143
1	143
2	124
2	10
2	124
2	124
2	124
2	3
2	124
2	124
2	3
2	6
2	124
2	124
2	124
2	124
2	124
2	124
2	5
2	124
2	3
2	124
2	124
2	125
2	8
2	4
2	3
2	3
2	3
2	5
2	124
2	8
2	4
2	6
2	3
2	124
2	124
2	124
2	3
2	144
2	3
2	6
2	7
2	3
2	3
2	124
2	3
2	4
2	124
2	124
2	4
2	124
2	124
2	124
2	124
2	124
2	124
2	124
2	124
2	4
2	124
2	124
2	124
2	124
2	124
2	4
2	4
2	124
2	5
2	3
2	3
2	5
2	124
2	124
2	9
2	124
2	124
2	124
2	124
2	124
2	124
2	124
2	124
2	124
2	5
2	4
2	124
2	124
2	124
2	124
2	4
2	4
2	3
2	5
2	3
2	124
2	4
2	124
2	3
2	6
2	124
2	4
2	6
2	5
2	124
2	124
2	124
2	124
2	4
2	124
2	3
3	6
3	5
3	5
3	4
3	4
3	4
3	4
3	5
3	4
3	4
3	4
3	4
3	4
3	4
3	5
3	4
3	4
3	5
3	4
3	4
3	4
3	6
3	4
3	4
3	4
3	5
3	4
3	5
3	4
3	5
4	7
4	5
4	5
4	5
4	5
4	5
4	5
4	5
4	5
4	5
4	5
4	5
5	6
5	6
5	6
5	6
5	7
6	7
6	7
6	7
7	8
8	9
9	10
122	123
142	143
