1	6124
1	24
1	4
1	23
1	22
1	21
1	22
1	22
1	23
1	5
1	4
1	22
1	6
1	6
1	7
1	21
1	22
1	6
2	3
2	22
2	22
2	22
2	7
2	3
2	3
2	4
2	4
2	4
2	4
2	4
2	3
2	3
2	3
2	4
2	4
2	5
2	4
2	5
2	4
3	5
3	6
3	4
3	4
3	4
3	4
3	5
4	6
5	6
20	21
