1	6124
1	30
1	30
1	30
1	31
1	30
1	30
1	36
1	10
1	4
1	8
1	30
1	30
1	32
1	8
1	30
1	30
1	30
1	32
1	9
1	30
1	31
1	30
1	30
1	30
1	31
1	30
1	30
1	4
1	30
1	30
1	30
1	5
1	5
1	31
2	3
2	5
2	3
2	4
2	5
2	5
2	5
2	3
2	4
2	4
2	3
3	4
3	4
3	4
3	4
3	4
3	4
3	5
7	8
29	30
