1	6124
1	16
1	49
1	48
1	48
1	15
1	13
1	11
1	48
1	13
1	48
1	7
1	15
1	48
1	7
1	48
1	7
1	15
1	12
1	15
1	48
1	48
1	7
1	48
1	8
1	10
1	15
1	48
1	49
1	48
1	15
1	48
1	9
1	48
1	48
1	48
1	7
1	7
1	48
1	48
1	15
1	6
1	48
1	6
1	48
1	49
1	11
1	48
1	6
1	48
1	9
1	48
1	5
1	48
1	48
1	8
1	48
1	48
1	48
1	48
1	48
1	10
1	11
1	8
1	48
1	6
1	48
1	48
1	48
2	7
2	4
2	4
2	3
2	16
2	8
2	3
2	8
2	3
2	3
2	16
2	3
2	11
2	7
3	5
3	5
3	4
3	5
3	10
4	5
5	6
5	6
5	6
6	7
6	7
6	7
7	8
9	10
14	15
47	48
