1	6124
1	26
1	6124
1	8
1	26
1	25
1	25
1	2
1	25
1	25
1	25
1	25
1	25
1	7
1	7
1	25
1	25
1	25
1	25
1	25
1	26
1	25
1	7
2	5
2	5
2	6
2	3
2	3
2	4
2	6
2	3
2	5
2	4
3	7
3	4
3	5
3	5
3	6
3	4
4	7
4	6
4	5
5	6
24	25
