1	6124
1	25
1	9
1	10
1	25
1	24
1	9
1	9
1	8
1	7
1	24
1	7
1	24
1	24
1	25
1	25
1	24
1	25
1	8
1	24
1	5
1	6
1	8
1	8
1	24
1	7
1	8
1	24
1	24
1	6
2	3
2	9
2	6
2	9
2	3
2	3
2	5
2	3
2	7
2	7
2	4
2	3
2	5
2	7
3	4
3	5
3	4
3	5
4	6
4	5
5	6
5	6
6	7
6	7
7	8
23	24
