1	6124
1	49
1	6124
1	50
1	50
1	6124
1	50
1	12
1	49
1	49
1	49
1	50
1	11
1	49
1	10
1	50
1	12
1	49
1	49
1	2
1	49
1	49
1	2
1	6
1	49
1	12
1	6
1	50
1	50
1	5
1	49
1	50
1	49
1	50
1	49
1	50
1	49
1	49
1	7
1	8
1	8
1	49
1	49
1	49
1	8
1	6
1	49
1	50
1	6
1	4
1	8
1	7
1	49
1	4
1	49
1	49
1	49
1	50
1	49
2	50
2	3
2	6
2	3
2	5
2	5
2	3
2	3
2	7
2	3
2	3
2	3
2	5
2	3
2	4
2	4
2	5
2	3
2	3
2	3
3	5
3	4
3	4
3	4
3	6
3	5
4	5
4	5
5	6
5	6
5	6
7	8
7	8
48	49
