1	6124
1	37
1	37
1	38
1	37
1	37
1	37
1	37
1	37
1	38
1	37
1	39
1	37
1	38
1	6
1	5
1	38
1	37
1	37
1	6
1	39
1	5
1	5
1	37
1	37
1	37
1	37
1	37
1	37
1	8
1	7
1	4
1	37
1	38
1	37
1	37
1	6
2	6
2	6
2	6
2	5
2	3
2	3
2	5
2	3
3	5
3	4
3	4
3	5
3	5
3	6
3	4
3	4
3	4
3	6
3	4
4	6
4	5
4	5
4	5
36	37
