1	6124
1	22
1	27
1	9
1	23
1	22
1	22
1	22
1	6
1	25
1	9
1	21
1	8
1	21
1	21
1	22
1	5
1	21
1	22
1	21
1	22
1	9
1	4
1	21
1	4
1	21
1	8
1	21
1	7
1	5
2	3
2	3
2	6
2	5
2	4
2	7
2	3
2	4
2	4
2	4
2	3
2	3
2	4
2	4
2	4
2	3
2	4
2	3
2	3
2	5
3	4
3	4
3	4
3	4
4	5
5	6
7	8
20	21
