1	6124
1	6124
1	36
1	36
1	39
1	36
1	37
1	36
1	8
1	8
1	38
1	36
1	4
1	9
1	36
1	36
1	6124
1	37
1	36
1	7
1	36
1	39
1	5
1	36
1	2
1	36
1	36
1	37
1	36
1	5
1	36
1	36
1	36
1	37
1	8
1	36
1	5
1	36
1	5
1	36
1	36
1	2
1	36
1	7
2	4
2	3
2	3
2	7
2	3
2	5
2	4
2	4
2	7
2	3
2	3
2	4
2	6
2	3
2	6
2	4
3	4
3	5
3	5
3	4
3	4
3	5
4	5
4	5
4	6
5	6
6	7
35	36
