1	6124
1	37
1	36
1	37
1	11
1	36
1	38
1	36
1	4
1	36
1	37
1	11
1	36
1	11
1	36
1	10
1	11
1	36
1	7
1	7
1	11
1	8
1	36
1	36
1	9
1	9
1	36
1	36
1	37
1	36
1	36
1	9
1	11
1	36
1	10
1	6
1	36
1	36
1	9
1	6
1	6
1	36
1	6
1	5
1	7
1	10
1	6
1	36
1	8
1	7
2	6
2	5
2	10
2	6
2	7
2	4
2	4
2	5
2	3
2	6
2	7
2	6
2	6
2	5
2	3
2	4
2	3
2	5
2	4
2	6
2	5
2	6
2	4
2	3
3	4
3	4
3	4
3	4
3	6
3	4
3	4
3	4
3	4
3	4
3	5
3	4
4	6
4	6
4	5
4	6
4	6
4	5
5	6
5	6
5	6
6	7
7	8
8	10
9	10
35	36
