1	6124
1	40
1	40
1	40
1	40
1	41
1	40
1	42
1	40
1	40
1	5
1	40
1	41
1	40
1	40
1	40
1	41
1	40
1	40
1	40
1	40
1	40
1	40
1	40
1	40
1	40
1	40
1	6
1	41
1	40
1	40
1	40
1	40
1	40
1	40
1	40
1	40
1	40
1	40
2	3
2	3
2	41
2	3
2	4
2	3
2	3
3	4
3	4
39	40
