1	6124
1	33
1	32
1	37
1	32
1	9
1	33
1	32
1	9
1	4
1	32
1	32
1	32
1	9
1	32
1	6
1	7
1	7
1	32
1	32
1	32
1	32
1	32
1	32
1	7
1	32
1	5
1	9
1	32
1	32
1	32
1	34
1	8
1	32
1	7
1	32
1	32
1	4
2	34
2	3
2	6
2	6
2	8
2	3
2	4
2	4
2	4
2	8
3	4
3	6
3	4
3	5
3	4
3	5
3	5
3	4
3	5
4	5
6	7
6	7
6	7
31	32
