1	6124
1	6124
1	20
1	34
1	34
1	33
1	9
1	10
1	36
1	6124
1	33
1	33
1	9
1	6124
1	33
1	6124
1	9
1	20
1	19
1	4
1	33
1	10
1	33
1	34
1	33
1	3
1	34
1	33
1	6124
1	5
1	6124
1	9
1	34
1	19
1	12
1	9
1	8
1	8
1	9
1	10
1	8
1	2
1	3
1	5
1	5
1	4
1	7
1	19
1	20
1	5
1	10
1	10
1	6
1	5
1	33
1	19
1	19
1	19
1	33
1	10
1	2
1	34
1	6
1	4
1	10
1	33
1	2
2	5
2	3
2	8
2	3
2	20
2	3
2	3
2	34
2	4
2	3
2	3
2	3
2	5
2	3
2	5
2	8
2	4
2	3
2	5
2	6
2	3
2	4
2	3
2	3
2	8
2	7
2	6
2	3
2	4
2	9
2	8
2	3
2	5
2	3
2	4
3	4
3	4
3	4
3	9
3	6
3	7
3	5
3	5
3	6
3	4
3	6
3	4
3	5
4	5
4	6
4	6
4	6
4	5
4	5
4	8
4	5
5	6
5	6
5	6
6	7
6	7
6	7
6	8
7	8
8	9
18	19
32	33
