1	6124
1	14
1	6124
1	18
1	8
1	6124
1	8
1	16
1	6
1	24
1	12
1	6
1	15
1	2
1	14
1	6124
1	13
1	14
1	12
1	4
1	12
1	13
1	12
1	5
1	12
1	5
1	12
1	14
1	14
1	15
1	2
1	14
1	5
1	14
2	3
2	4
2	3
2	3
2	4
2	4
2	3
2	3
2	3
2	4
2	5
2	3
2	3
2	3
2	4
2	4
3	4
3	4
3	4
3	5
3	4
5	6
11	12
13	14
