1	6124
1	39
1	40
1	39
1	39
1	13
1	19
1	39
1	13
1	10
1	39
1	15
1	18
1	12
1	39
1	15
1	18
1	40
1	39
1	12
1	7
1	7
1	39
1	7
1	6
1	9
1	5
1	16
1	6
1	11
1	7
1	11
1	39
1	39
1	6
1	11
1	39
1	39
1	40
1	39
1	8
1	39
1	5
1	39
1	6
1	11
1	11
1	40
1	39
1	39
1	9
1	15
1	8
1	11
1	15
1	39
1	8
1	15
1	5
2	6
2	16
2	3
2	6
2	7
2	5
2	4
2	4
2	10
2	10
2	3
2	10
2	3
2	3
2	4
2	5
2	3
2	4
2	3
2	8
2	3
2	4
2	5
3	4
3	7
3	4
3	5
3	4
3	4
3	5
4	6
4	5
4	5
4	5
4	5
5	6
5	7
5	6
5	6
6	7
6	7
8	9
8	9
10	11
14	15
38	39
