1	6124
1	28
1	28
1	25
1	25
1	26
1	25
1	25
1	25
1	25
1	25
1	6124
1	5
1	10
1	25
1	25
1	2
1	25
1	26
1	25
1	5
1	9
1	25
1	26
1	8
1	6
1	26
1	6
1	25
1	9
1	25
2	5
2	3
2	3
2	10
2	6
2	3
2	6
2	3
2	4
2	4
3	4
4	5
4	5
4	5
4	5
8	9
24	25
