1	6124
1	32
1	30
1	29
1	29
1	29
1	29
1	29
1	6
1	29
1	29
1	5
1	30
1	29
1	30
1	29
1	29
1	29
1	29
1	30
1	29
1	29
1	30
1	30
1	29
1	30
1	29
1	29
1	29
2	3
2	5
2	3
2	3
2	3
2	3
2	3
2	3
2	3
2	4
2	4
3	5
4	5
28	29
