1	6124
1	39
1	38
1	38
1	38
1	17
1	37
1	18
1	9
1	37
1	16
1	37
1	37
1	37
1	7
1	38
1	5
1	37
1	38
1	38
1	37
1	37
1	9
1	10
1	9
1	8
1	37
1	15
1	37
1	37
1	7
1	5
1	8
1	6124
1	7
1	5
1	8
1	37
1	16
1	15
1	37
1	37
1	37
1	4
1	37
1	6
1	37
1	4
1	5
1	37
1	4
1	8
1	37
1	37
1	38
1	15
2	3
2	3
2	3
2	3
2	6
2	3
2	3
2	6
2	5
2	3
2	16
2	4
2	3
2	4
2	3
2	8
2	5
2	7
2	3
2	6
2	6
2	3
3	5
3	4
3	4
3	4
3	5
3	4
3	4
3	5
3	4
4	6
4	5
4	5
4	5
4	5
6	7
7	8
14	15
36	37
