1	6124
1	31
1	33
1	31
1	31
1	31
1	31
1	31
1	31
1	31
1	31
1	31
1	32
1	31
1	31
1	31
1	31
1	31
1	31
1	7
1	31
1	34
1	5
1	5
1	5
1	33
1	31
1	32
1	31
1	4
1	5
1	31
1	31
1	31
1	31
1	32
2	3
2	3
2	3
3	4
3	4
4	5
4	5
30	31
