1	6124
1	23
1	23
1	22
1	7
1	21
1	8
1	8
1	22
1	7
1	8
1	21
1	7
1	21
1	21
1	21
1	5
1	6
1	22
1	7
1	21
1	5
1	21
1	4
1	22
1	6124
1	7
1	2
1	21
1	5
1	6
2	4
2	3
2	9
2	3
2	6
2	3
2	3
2	6
2	3
2	4
2	4
3	5
3	4
3	4
3	4
3	4
4	5
4	5
4	5
4	5
4	5
6	7
20	21
