1	6124
1	21
1	14
1	20
1	7
1	13
1	20
1	7
1	7
1	22
1	14
1	20
1	16
1	21
1	20
1	16
1	13
1	6124
1	13
1	8
1	20
1	21
1	9
1	7
1	7
1	7
1	21
1	22
1	20
1	5
1	5
1	13
1	2
1	21
1	7
2	3
2	3
2	3
2	7
2	3
2	3
2	9
2	3
2	3
2	4
2	6
2	3
2	9
3	4
3	9
3	5
3	5
3	5
3	6
3	4
4	5
4	5
5	6
6	7
6	7
12	13
19	20
