1	6124
1	25
1	26
1	26
1	27
1	25
1	12
1	25
1	25
1	25
1	25
1	25
1	25
1	26
1	25
1	25
1	25
1	11
1	11
1	25
1	8
1	8
1	10
1	25
1	10
1	9
1	25
1	8
1	8
1	5
1	25
1	9
1	25
1	7
1	5
2	3
2	4
2	8
2	5
2	5
2	5
2	4
2	7
2	3
2	3
2	11
2	3
2	4
2	4
3	4
3	4
3	5
3	4
4	5
5	6
7	8
9	10
24	25
