1	6124
1	12
1	54
1	53
1	11
1	10
1	9
1	10
1	53
1	8
1	12
1	10
1	9
1	54
1	54
1	53
1	6
1	7
1	55
1	54
1	53
1	6
1	12
1	55
1	54
1	4
1	6
1	53
1	53
1	55
1	53
1	53
1	7
1	53
1	9
1	53
1	8
1	6124
1	53
1	53
1	13
1	12
1	11
1	53
1	53
1	53
1	11
1	9
1	9
1	6124
1	7
1	53
1	2
1	54
1	7
1	8
1	10
1	53
1	9
1	9
1	6
1	9
1	53
1	8
1	7
1	53
1	11
1	53
1	4
1	9
1	8
1	53
1	13
1	6
1	8
1	10
1	7
1	9
1	6
1	53
1	6
1	9
1	5
1	9
1	7
1	2
1	6
1	53
1	4
1	54
1	7
1	54
1	4
1	53
1	53
1	53
1	7
2	3
2	3
2	5
2	4
2	3
2	8
2	4
2	4
2	6
2	3
2	9
2	3
2	4
2	5
2	4
2	3
2	4
2	3
2	4
2	5
2	4
2	3
2	3
2	7
2	7
2	3
2	4
2	4
2	6
2	9
2	6
2	4
2	4
2	4
2	4
2	6
2	8
2	3
2	5
2	3
2	3
2	3
2	3
3	5
3	4
3	4
3	4
3	4
3	5
3	6
3	4
3	4
3	4
3	4
3	4
3	6
3	6
3	4
3	4
4	6
4	5
4	6
4	6
4	5
4	6
5	6
5	7
5	6
5	6
6	7
6	7
6	7
7	8
7	8
8	9
8	9
8	9
9	10
52	53
