1	6124
1	31
1	31
1	32
1	31
1	31
1	31
1	32
1	31
1	31
1	31
1	32
1	31
1	32
1	31
1	4
1	31
1	31
1	32
1	32
1	31
1	31
1	6
1	31
1	31
1	31
1	31
1	31
1	31
1	31
1	31
2	3
2	3
2	3
2	5
2	4
2	3
2	5
3	4
3	4
3	4
30	31
