1	6124
1	33
1	32
1	7
1	32
1	32
1	33
1	32
1	32
1	32
1	32
1	32
1	32
1	32
1	32
1	6
1	32
1	32
1	32
1	33
1	32
1	34
1	4
1	4
1	33
1	32
1	32
1	32
2	7
2	6
2	6
2	3
2	4
2	5
2	7
2	4
2	7
2	4
2	4
2	5
3	4
3	4
3	5
3	4
4	5
4	5
5	6
31	32
