1	6124
1	39
1	39
1	10
1	12
1	38
1	37
1	12
1	38
1	37
1	9
1	11
1	37
1	37
1	9
1	6
1	40
1	11
1	9
1	37
1	37
1	5
1	37
1	9
1	6
1	38
1	37
1	9
1	5
1	10
1	39
1	7
1	6
1	10
1	6
1	12
1	7
1	37
1	37
1	8
1	11
1	7
1	8
1	5
1	37
1	37
1	7
1	5
1	10
1	37
1	37
1	7
1	4
1	5
1	37
1	9
1	5
1	37
1	37
1	37
1	37
1	6
2	3
2	5
2	11
2	6
2	3
2	6
2	4
2	3
2	3
2	4
2	3
3	4
3	6
3	4
3	4
3	4
3	4
3	4
3	7
3	4
3	4
3	7
3	4
4	5
4	5
4	5
4	5
4	6
4	7
4	5
5	6
5	6
5	7
6	7
6	7
8	9
9	10
36	37
