1	6124
1	29
1	28
1	15
1	11
1	11
1	28
1	28
1	15
1	13
1	28
1	13
1	6
1	12
1	8
1	28
1	28
1	28
1	14
1	7
1	6
1	29
1	8
1	28
1	28
1	14
1	28
1	10
1	30
1	28
1	14
1	8
1	6124
1	28
1	8
1	11
1	11
1	13
1	7
1	28
1	7
1	6
1	4
1	14
1	29
1	28
1	5
1	29
1	6
1	28
1	2
2	6
2	3
2	3
2	8
2	7
2	4
2	3
2	7
2	3
2	4
2	3
2	7
2	3
2	3
2	4
2	5
2	3
2	4
2	14
2	3
2	3
2	4
2	3
2	6
2	4
2	6
2	3
3	4
3	5
3	6
3	4
3	4
3	7
3	4
4	6
4	5
5	6
5	6
6	7
6	7
9	10
12	13
27	28
