This is BibTeX, Version 0.99d (TeX Live 2017/Arch Linux)
Capacity: max_strings=100000, hash_size=100000, hash_prime=85009
The top-level auxiliary file: thesis.aux
The style file: biblatex.bst
A level-1 auxiliary file: Sources/Title.aux
A level-1 auxiliary file: Sources/Abstract.aux
A level-1 auxiliary file: Sources/Erklaerung.aux
A level-1 auxiliary file: Sources/Einfuehrung.aux
A level-1 auxiliary file: Sources/Related_Work.aux
A level-1 auxiliary file: Sources/Mathematische_Grundlagen.aux
A level-1 auxiliary file: Sources/Algorithmen_Persistenzlandschaft.aux
A level-1 auxiliary file: Sources/Berechnung_Synthetische_Daten.aux
A level-1 auxiliary file: Sources/Persistente_Homologie_Netzwerke.aux
A level-1 auxiliary file: Sources/Persistenzlandschaften_auf_Reddit_Graphen.aux
A level-1 auxiliary file: Sources/Future_Work.aux
Reallocated glb_str_ptr (elt_size=8) to 20 items from 10.
Reallocated global_strs (elt_size=20001) to 20 items from 10.
Reallocated glb_str_end (elt_size=8) to 20 items from 10.
Reallocated singl_function (elt_size=8) to 100 items from 50.
Reallocated singl_function (elt_size=8) to 100 items from 50.
Reallocated singl_function (elt_size=8) to 100 items from 50.
Reallocated wiz_functions (elt_size=8) to 6000 items from 3000.
Reallocated singl_function (elt_size=8) to 100 items from 50.
Reallocated singl_function (elt_size=8) to 100 items from 50.
Reallocated singl_function (elt_size=8) to 100 items from 50.
Reallocated singl_function (elt_size=8) to 100 items from 50.
Reallocated singl_function (elt_size=8) to 100 items from 50.
Reallocated singl_function (elt_size=8) to 100 items from 50.
Reallocated singl_function (elt_size=8) to 100 items from 50.
Database file #1: thesis-blx.bib
Database file #2: Quellen.bib
Warning--entry type for "CarlssonAndZomordian2005" isn't style-file defined
--line 161 of file Quellen.bib
Biblatex version: 3.8
Reallocated wiz_functions (elt_size=8) to 9000 items from 6000.
Reallocated singl_function (elt_size=8) to 100 items from 50.
You've used 32 entries,
            6268 wiz_defined-function locations,
            1391 strings with 14059 characters,
and the built_in function-call counts, 175037 in all, are:
= -- 11665
> -- 4017
< -- 1354
+ -- 4041
- -- 1427
* -- 12585
:= -- 16010
add.period$ -- 0
call.type$ -- 32
change.case$ -- 786
chr.to.int$ -- 38
cite$ -- 62
duplicate$ -- 18497
empty$ -- 16080
format.name$ -- 2147
if$ -- 37266
int.to.chr$ -- 0
int.to.str$ -- 88
missing$ -- 0
newline$ -- 963
num.names$ -- 1815
pop$ -- 10440
preamble$ -- 1
purify$ -- 947
quote$ -- 0
skip$ -- 6741
stack$ -- 0
substring$ -- 18208
swap$ -- 4963
text.length$ -- 932
text.prefix$ -- 31
top$ -- 1
type$ -- 1071
warning$ -- 0
while$ -- 1897
width$ -- 0
write$ -- 932
(There was 1 warning)
