\relax 
\providecommand\hyper@newdestlabel[2]{}
\providecommand\BKM@entry[2]{}
\providecommand*\new@tpo@label[2]{}
\catcode `:\active 
\catcode `;\active 
\catcode `!\active 
\catcode `?\active 
\catcode `"\active 
\bibstyle{biblatex}
\bibdata{thesis-blx,Quellen}
\citation{biblatex-control}
\abx@aux@refcontext{nty/global//global/global}
\providecommand\HyperFirstAtBeginDocument{\AtBeginDocument}
\HyperFirstAtBeginDocument{\ifx\hyper@anchor\@undefined
\global\let\oldcontentsline\contentsline
\gdef\contentsline#1#2#3#4{\oldcontentsline{#1}{#2}{#3}}
\global\let\oldnewlabel\newlabel
\gdef\newlabel#1#2{\newlabelxx{#1}#2}
\gdef\newlabelxx#1#2#3#4#5#6{\oldnewlabel{#1}{{#2}{#3}}}
\AtEndDocument{\ifx\hyper@anchor\@undefined
\let\contentsline\oldcontentsline
\let\newlabel\oldnewlabel
\fi}
\fi}
\global\let\hyper@last\relax 
\gdef\HyperFirstAtBeginDocument#1{#1}
\providecommand\HyField@AuxAddToFields[1]{}
\providecommand\HyField@AuxAddToCoFields[2]{}
\@input{Sources/Title.aux}
\@writefile{toc}{\boolfalse {citerequest}\boolfalse {citetracker}\boolfalse {pagetracker}\boolfalse {backtracker}\relax }
\@writefile{lof}{\boolfalse {citerequest}\boolfalse {citetracker}\boolfalse {pagetracker}\boolfalse {backtracker}\relax }
\@writefile{lot}{\boolfalse {citerequest}\boolfalse {citetracker}\boolfalse {pagetracker}\boolfalse {backtracker}\relax }
\select@language{ngerman}
\@writefile{toc}{\defcounter {refsection}{0}\relax }\@writefile{toc}{\select@language{ngerman}}
\@writefile{lof}{\defcounter {refsection}{0}\relax }\@writefile{lof}{\select@language{ngerman}}
\@writefile{lot}{\defcounter {refsection}{0}\relax }\@writefile{lot}{\select@language{ngerman}}
\@input{Sources/Abstract.aux}
\@input{Sources/Erklaerung.aux}
\@input{Sources/Einfuehrung.aux}
\BKM@entry{id=1,dest={73656374696F6E2E31},srcline={1}}{45696E665C3337346872756E67}
\@input{Sources/Related_Work.aux}
\BKM@entry{id=2,dest={73656374696F6E2E32},srcline={1}}{45696E62657474756E6720696E2064656E2077697373656E7363686166746C696368656E204B6F6E74657874}
\citation{edelsbrunner}
\abx@aux@cite{edelsbrunner}
\abx@aux@segm{0}{0}{edelsbrunner}
\citation{carlsson2009topologyAndData}
\abx@aux@cite{carlsson2009topologyAndData}
\abx@aux@segm{0}{0}{carlsson2009topologyAndData}
\citation{landscapeTheory}
\abx@aux@cite{landscapeTheory}
\abx@aux@segm{0}{0}{landscapeTheory}
\citation{landscapeToolbox}
\abx@aux@cite{landscapeToolbox}
\abx@aux@segm{0}{0}{landscapeToolbox}
\citation{deSilva2007coverage}
\abx@aux@cite{deSilva2007coverage}
\abx@aux@segm{0}{0}{deSilva2007coverage}
\citation{carstens2016topology}
\abx@aux@cite{carstens2016topology}
\abx@aux@segm{0}{0}{carstens2016topology}
\citation{horak2009persistentHomOfComplexNetwoks}
\abx@aux@cite{horak2009persistentHomOfComplexNetwoks}
\abx@aux@segm{0}{0}{horak2009persistentHomOfComplexNetwoks}
\citation{lee2011discriminative}
\abx@aux@cite{lee2011discriminative}
\abx@aux@segm{0}{0}{lee2011discriminative}
\citation{Rieck18a}
\abx@aux@cite{Rieck18a}
\abx@aux@segm{0}{0}{Rieck18a}
\citation{carstens2013collNetworks}
\abx@aux@cite{carstens2013collNetworks}
\abx@aux@segm{0}{0}{carstens2013collNetworks}
\citation{BarabasiBook}
\abx@aux@cite{BarabasiBook}
\abx@aux@segm{0}{0}{BarabasiBook}
\citation{BarabasiBook}
\abx@aux@segm{0}{0}{BarabasiBook}
\citation{ComplexesOfGraphs}
\abx@aux@cite{ComplexesOfGraphs}
\abx@aux@segm{0}{0}{ComplexesOfGraphs}
\citation{borgwardt2007graph}
\abx@aux@cite{borgwardt2007graph}
\abx@aux@segm{0}{0}{borgwardt2007graph}
\citation{deepGraph}
\abx@aux@cite{deepGraph}
\abx@aux@segm{0}{0}{deepGraph}
\citation{networkx}
\abx@aux@cite{networkx}
\abx@aux@segm{0}{0}{networkx}
\citation{gephi}
\abx@aux@cite{gephi}
\abx@aux@segm{0}{0}{gephi}
\@input{Sources/Mathematische_Grundlagen.aux}
\BKM@entry{id=3,dest={73656374696F6E2E33},srcline={1}}{4D617468656D61746973636865204772756E646C6167656E}
\citation{carlsson_2014}
\abx@aux@cite{carlsson_2014}
\abx@aux@segm{0}{0}{carlsson_2014}
\citation{dissBastian}
\abx@aux@cite{dissBastian}
\abx@aux@segm{0}{0}{dissBastian}
\citation{edelsbrunner}
\abx@aux@segm{0}{0}{edelsbrunner}
\BKM@entry{id=4,dest={73756273656374696F6E2E332E31},srcline={8}}{416C6765627261697363686520546F706F6C6F676965}
\citation{nabutovskiHomeomorphisms}
\abx@aux@cite{nabutovskiHomeomorphisms}
\abx@aux@segm{0}{0}{nabutovskiHomeomorphisms}
\BKM@entry{id=5,dest={73756273656374696F6E2E332E32},srcline={110}}{53696D706C697A69616C6520486F6D6F6C6F676965}
\citation{whitehead1940}
\abx@aux@cite{whitehead1940}
\abx@aux@segm{0}{0}{whitehead1940}
\citation{hatcher2002algebraic}
\abx@aux@cite{hatcher2002algebraic}
\abx@aux@segm{0}{0}{hatcher2002algebraic}
\BKM@entry{id=6,dest={73756273656374696F6E2E332E33},srcline={590}}{4265726563686E756E672073696D706C697A69616C657220486F6D6F6C6F676965}
\citation{edelsbrunner}
\abx@aux@segm{0}{0}{edelsbrunner}
\BKM@entry{id=7,dest={73756273656374696F6E2E332E34},srcline={595}}{50657273697374656E746520486F6D6F6C6F676965}
\citation{hatcher2002algebraic}
\abx@aux@segm{0}{0}{hatcher2002algebraic}
\citation{zomorodian2010VRComplex}
\abx@aux@cite{zomorodian2010VRComplex}
\abx@aux@segm{0}{0}{zomorodian2010VRComplex}
\citation{carlsson_2014}
\abx@aux@segm{0}{0}{carlsson_2014}
\citation{edelsbrunner}
\abx@aux@segm{0}{0}{edelsbrunner}
\citation{CarlssonAndZomordian2005}
\abx@aux@cite{CarlssonAndZomordian2005}
\abx@aux@segm{0}{0}{CarlssonAndZomordian2005}
\citation{edelsbrunner}
\abx@aux@segm{0}{0}{edelsbrunner}
\citation{landscapeTheory}
\abx@aux@segm{0}{0}{landscapeTheory}
\citation{landscapeToolbox}
\abx@aux@segm{0}{0}{landscapeToolbox}
\@input{Sources/Algorithmen_Persistenzlandschaft.aux}
\BKM@entry{id=8,dest={73656374696F6E2E34},srcline={1}}{416C676F726974686D656E206175662050657273697374656E7A6C616E64736368616674656E}
\BKM@entry{id=9,dest={73756273656374696F6E2E342E31},srcline={5}}{4B6F6E737472756B74696F6E20766F6E2050657273697374656E7A6C616E64736368616674656E}
\citation{landscapeToolbox}
\abx@aux@segm{0}{0}{landscapeToolbox}
\citation{landscapeToolbox}
\abx@aux@segm{0}{0}{landscapeToolbox}
\BKM@entry{id=10,dest={73756273656374696F6E2E342E32},srcline={158}}{4C696E6561726B6F6D62696E6174696F6E656E20766F6E2050657273697374656E7A6C616E64736368616674656E}
\citation{landscapeToolbox}
\abx@aux@segm{0}{0}{landscapeToolbox}
\citation{landscapeToolbox}
\abx@aux@segm{0}{0}{landscapeToolbox}
\citation{landscapeToolbox}
\abx@aux@segm{0}{0}{landscapeToolbox}
\citation{landscapeToolbox}
\abx@aux@segm{0}{0}{landscapeToolbox}
\citation{landscapeToolbox}
\abx@aux@segm{0}{0}{landscapeToolbox}
\citation{landscapeToolbox}
\abx@aux@segm{0}{0}{landscapeToolbox}
\citation{landscapeToolbox}
\abx@aux@segm{0}{0}{landscapeToolbox}
\BKM@entry{id=11,dest={73756273656374696F6E2E342E33},srcline={191}}{4E6F726D656E206175662050657273697374656E7A6C616E64736368616674656E}
\BKM@entry{id=12,dest={73756273656374696F6E2E342E34},srcline={217}}{556E656E646C696368652050657273697374656E7A}
\BKM@entry{id=13,dest={73756273656374696F6E2E342E35},srcline={224}}{456666697A69656E7A20766F6E2050657273697374656E7A6C616E64736368616674656E}
\@input{Sources/Berechnung_Synthetische_Daten.aux}
\BKM@entry{id=14,dest={73656374696F6E2E35},srcline={1}}{50657273697374656E7A6C616E64736368616674656E206175662073796E7468657469736368656E20446174656E}
\BKM@entry{id=15,dest={73756273656374696F6E2E352E31},srcline={8}}{546F72757320756E64205370685C3334347265}
\citation{edelsbrunner}
\abx@aux@segm{0}{0}{edelsbrunner}
\citation{PHforRandomFieldsandComplexes}
\abx@aux@cite{PHforRandomFieldsandComplexes}
\abx@aux@segm{0}{0}{PHforRandomFieldsandComplexes}
\BKM@entry{id=16,dest={73756273656374696F6E2E352E32},srcline={169}}{46617A6974}
\@input{Sources/Persistente_Homologie_Netzwerke.aux}
\BKM@entry{id=17,dest={73656374696F6E2E36},srcline={1}}{50657273697374656E746520486F6D6F6C6F67696520766F6E204E65747A7765726B656E}
\citation{horak2009persistentHomOfComplexNetwoks}
\abx@aux@segm{0}{0}{horak2009persistentHomOfComplexNetwoks}
\BKM@entry{id=18,dest={73756273656374696F6E2E362E31},srcline={10}}{4265726563686E756E672070657273697374656E74657220486F6D6F6C6F67696520617566204E65747A7765726B656E}
\citation{ComplexesOfGraphs}
\abx@aux@segm{0}{0}{ComplexesOfGraphs}
\citation{ComplexesOfGraphs}
\abx@aux@segm{0}{0}{ComplexesOfGraphs}
\BKM@entry{id=19,dest={73756273756273656374696F6E2E362E312E31},srcline={202}}{50657273697374656E746520486F6D6F6C6F67696520696E2044696D656E73696F6E2030}
\BKM@entry{id=20,dest={73756273756273656374696F6E2E362E312E32},srcline={207}}{50657273697374656E746520486F6D6F6C6F67696520696E2044696D656E73696F6E2031}
\BKM@entry{id=21,dest={73756273756273656374696F6E2E362E312E33},srcline={241}}{417573647275636B736B726166742064657220477261642D46696C74726174696F6E}
\citation{BarabasiBook}
\abx@aux@segm{0}{0}{BarabasiBook}
\BKM@entry{id=22,dest={73756273656374696F6E2E362E32},srcline={294}}{50657273697374656E7A6C616E64736368616674656E20766F6E204E65747A7765726B6D6F64656C6C656E}
\BKM@entry{id=23,dest={73756273756273656374696F6E2E362E322E31},srcline={297}}{4E65747A7765726B6D6F64656C6C65}
\citation{BarabasiBook}
\abx@aux@segm{0}{0}{BarabasiBook}
\BKM@entry{id=24,dest={73756273756273656374696F6E2E362E322E32},srcline={347}}{416E616C797365206465722070657273697374656E74656E20486F6D6F6C6F67696520766F6E204E65747A7765726B656E}
\BKM@entry{id=25,dest={73756273656374696F6E2E362E33},srcline={408}}{4D6974746C6572652050657273697374656E7A6C616E64736368616674656E}
\citation{BarabasiBook}
\abx@aux@segm{0}{0}{BarabasiBook}
\BKM@entry{id=26,dest={73756273756273656374696F6E2E362E332E31},srcline={476}}{566572676C656963683A20476E705C28302E30375C29204E65747A7765726B65202D20476E705C28302E30355C29204E65747A7765726B65}
\citation{BarabasiBook}
\abx@aux@segm{0}{0}{BarabasiBook}
\BKM@entry{id=27,dest={73756273756273656374696F6E2E362E332E32},srcline={483}}{566572676C656963683A20476E702D4E65747A7765726B65202D20476E6D2D4E65747A7765726B65}
\citation{BarabasiBook}
\abx@aux@segm{0}{0}{BarabasiBook}
\BKM@entry{id=28,dest={73756273756273656374696F6E2E362E332E33},srcline={487}}{566572676C656963683A20476E6D2D4E65747A7765726B65202D2042617261626173692D416C626572742D4E65747A7765726B65}
\citation{BarabasiBook}
\abx@aux@segm{0}{0}{BarabasiBook}
\BKM@entry{id=29,dest={73756273656374696F6E2E362E34},srcline={491}}{50657273697374656E746520486F6D6F6C6F67696520766F6E204772617068656E206D69742067656D65696E73616D657220477261642D53657175656E7A}
\BKM@entry{id=30,dest={73756273756273656374696F6E2E362E342E31},srcline={493}}{4E65747A7765726B6D6F64656C6C65206D69742066657374657220477261642D53657175656E7A}
\citation{hakimi1962realizability}
\abx@aux@cite{hakimi1962realizability}
\abx@aux@segm{0}{0}{hakimi1962realizability}
\citation{kleitman1973algorithms}
\abx@aux@cite{kleitman1973algorithms}
\abx@aux@segm{0}{0}{kleitman1973algorithms}
\citation{bayati2010sequential}
\abx@aux@cite{bayati2010sequential}
\abx@aux@segm{0}{0}{bayati2010sequential}
\BKM@entry{id=31,dest={73756273756273656374696F6E2E362E342E32},srcline={508}}{44697374616E7A656E20766F6E204772617068656E206D69742066657374657220477261642D53657175656E7A}
\BKM@entry{id=32,dest={73756273656374696F6E2E362E35},srcline={526}}{4B65726E656C2D504341206175662073796E7468657469736368656E20446174656E}
\BKM@entry{id=33,dest={73756273756273656374696F6E2E362E352E31},srcline={530}}{4772756E646C6167656E}
\citation{kpcaTheory}
\abx@aux@cite{kpcaTheory}
\abx@aux@segm{0}{0}{kpcaTheory}
\citation{svm_book}
\abx@aux@cite{svm_book}
\abx@aux@segm{0}{0}{svm_book}
\citation{kpcaTheory}
\abx@aux@segm{0}{0}{kpcaTheory}
\BKM@entry{id=34,dest={73756273756273656374696F6E2E362E352E32},srcline={567}}{45696E62657474756E6720766F6E204E65747A7765726B656E}
\citation{scholkopfKernelDistance}
\abx@aux@cite{scholkopfKernelDistance}
\abx@aux@segm{0}{0}{scholkopfKernelDistance}
\BKM@entry{id=35,dest={73756273756273656374696F6E2E362E352E33},srcline={624}}{46617A6974}
\@input{Sources/Persistenzlandschaften_auf_Reddit_Graphen.aux}
\BKM@entry{id=36,dest={73656374696F6E2E37},srcline={1}}{4265726563686E756E6720766F6E2050657273697374656E7A6C616E64736368616674656E20617566205265646469742D4772617068656E}
\citation{deepGraph}
\abx@aux@segm{0}{0}{deepGraph}
\BKM@entry{id=37,dest={73756273656374696F6E2E372E31},srcline={11}}{44696520446174656E}
\BKM@entry{id=38,dest={73756273656374696F6E2E372E32},srcline={18}}{44697374616E7A6D617472697A656E2064657220526564646974204772617068656E}
\BKM@entry{id=39,dest={73756273656374696F6E2E372E33},srcline={58}}{4B65726E656C2D50434120646572205265646469742D4772617068656E}
\BKM@entry{id=40,dest={73756273656374696F6E2E372E34},srcline={97}}{566F72617573736167656E206D697468696C666520766F6E20537570706F72742056656B746F72204D61736368696E656E}
\citation{landscapeToolbox}
\abx@aux@segm{0}{0}{landscapeToolbox}
\citation{deepGraph}
\abx@aux@segm{0}{0}{deepGraph}
\citation{gonen2011multiple}
\abx@aux@cite{gonen2011multiple}
\abx@aux@segm{0}{0}{gonen2011multiple}
\BKM@entry{id=41,dest={73756273656374696F6E2E372E35},srcline={106}}{46617A6974}
\@input{Sources/Future_Work.aux}
\BKM@entry{id=42,dest={73656374696F6E2E38},srcline={1}}{46617A6974205C30343620417573626C69636B}
\citation{landscapeTheory}
\abx@aux@segm{0}{0}{landscapeTheory}
\citation{landscapeTheory}
\abx@aux@segm{0}{0}{landscapeTheory}
\citation{landscapeToolbox}
\abx@aux@segm{0}{0}{landscapeToolbox}
\abx@aux@refcontextdefaultsdone
\abx@aux@defaultrefcontext{0}{PHforRandomFieldsandComplexes}{nty/global//global/global}
\abx@aux@defaultrefcontext{0}{BarabasiBook}{nty/global//global/global}
\abx@aux@defaultrefcontext{0}{gephi}{nty/global//global/global}
\abx@aux@defaultrefcontext{0}{bayati2010sequential}{nty/global//global/global}
\abx@aux@defaultrefcontext{0}{borgwardt2007graph}{nty/global//global/global}
\abx@aux@defaultrefcontext{0}{landscapeTheory}{nty/global//global/global}
\abx@aux@defaultrefcontext{0}{landscapeToolbox}{nty/global//global/global}
\abx@aux@defaultrefcontext{0}{carlsson_2014}{nty/global//global/global}
\abx@aux@defaultrefcontext{0}{carlsson2009topologyAndData}{nty/global//global/global}
\abx@aux@defaultrefcontext{0}{CarlssonAndZomordian2005}{nty/global//global/global}
\abx@aux@defaultrefcontext{0}{carstens2016topology}{nty/global//global/global}
\abx@aux@defaultrefcontext{0}{carstens2013collNetworks}{nty/global//global/global}
\abx@aux@defaultrefcontext{0}{deSilva2007coverage}{nty/global//global/global}
\abx@aux@defaultrefcontext{0}{edelsbrunner}{nty/global//global/global}
\abx@aux@defaultrefcontext{0}{gonen2011multiple}{nty/global//global/global}
\abx@aux@defaultrefcontext{0}{networkx}{nty/global//global/global}
\abx@aux@defaultrefcontext{0}{hakimi1962realizability}{nty/global//global/global}
\abx@aux@defaultrefcontext{0}{hatcher2002algebraic}{nty/global//global/global}
\abx@aux@defaultrefcontext{0}{horak2009persistentHomOfComplexNetwoks}{nty/global//global/global}
\abx@aux@defaultrefcontext{0}{ComplexesOfGraphs}{nty/global//global/global}
\abx@aux@defaultrefcontext{0}{kleitman1973algorithms}{nty/global//global/global}
\abx@aux@defaultrefcontext{0}{lee2011discriminative}{nty/global//global/global}
\abx@aux@defaultrefcontext{0}{nabutovskiHomeomorphisms}{nty/global//global/global}
\abx@aux@defaultrefcontext{0}{Rieck18a}{nty/global//global/global}
\abx@aux@defaultrefcontext{0}{dissBastian}{nty/global//global/global}
\abx@aux@defaultrefcontext{0}{scholkopfKernelDistance}{nty/global//global/global}
\abx@aux@defaultrefcontext{0}{svm_book}{nty/global//global/global}
\abx@aux@defaultrefcontext{0}{kpcaTheory}{nty/global//global/global}
\abx@aux@defaultrefcontext{0}{whitehead1940}{nty/global//global/global}
\abx@aux@defaultrefcontext{0}{deepGraph}{nty/global//global/global}
\abx@aux@defaultrefcontext{0}{zomorodian2010VRComplex}{nty/global//global/global}
\global\@namedef{scr@dte@section@lastmaxnumwidth}{10.31227pt}
\global\@namedef{scr@dte@subsection@lastmaxnumwidth}{18.8165pt}
\global\@namedef{scr@dte@subsubsection@lastmaxnumwidth}{27.58354pt}
