0.0588971	0.0684104
0.125832	0.154735
0.150185	0.156696
0.157201	0.24586
0.161411	0.190042
0.174	0.203611
0.181964	0.192784
0.19103	0.191747
0.194805	0.250936
0.197972	0.289855
0.202078	0.246808
0.203739	0.312342
0.210215	0.25459
0.214835	0.239203
0.214844	0.234874
0.21582	0.253482
0.217489	0.353417
0.221822	0.412755
0.224738	0.297417
0.225653	0.247467
0.228871	0.231765
0.231967	0.242162
0.232176	0.429497
0.240943	0.291815
0.24173	0.351231
0.245333	0.306999
0.246514	0.306657
0.247683	0.499175
0.254561	0.262869
0.255639	0.354661
0.258771	0.399983
0.260898	0.271737
0.262203	0.296761
0.270098	0.288666
0.272725	0.336787
0.280292	0.403333
0.287645	0.369568
0.292615	0.307185
0.294359	0.380004
0.296867	0.314566
0.304648	0.338783
0.306545	0.351254
0.316692	0.361263
0.32137	0.489163
0.324817	0.344539
0.327014	0.361231
0.328961	0.338121
0.332441	0.344878
0.348282	0.351108
0.34951	0.364257

