0.107127	0.11003
0.114937	0.137584
0.146019	0.168765
0.146142	0.165471
0.146965	0.151201
0.152362	0.191195
0.152503	0.154423
0.160821	0.165968
0.164599	0.171063
0.167405	0.186469
0.1759	0.240626
0.176696	0.2238
0.187708	0.286034
0.195028	0.195841
0.199388	0.357201
0.205444	0.207157
0.206838	0.399166
0.20975	0.40161
0.211465	0.289361
0.211711	0.257622
0.21245	0.322701
0.212987	0.221169
0.217976	0.245077
0.218003	0.240576
0.230214	0.436967
0.232879	0.238663
0.23493	inf
0.236116	0.386528
0.23675	0.261172
0.237996	0.266768
0.238785	0.388181
0.2422	0.291797
0.242592	0.432845
0.247476	0.277473
0.249552	0.326515
0.250925	0.290058
0.253103	0.294662
0.264502	0.313214
0.274021	0.408004
0.278309	0.28906
0.285252	0.353879
0.293131	0.368481
0.335836	0.360578
0.336909	0.352412
0.357231	0.417928
0.360664	0.48842
0.363922	0.41326
0.431639	0.433277
0.460429	0.486876

