0.0819796	0.0919812
0.129655	0.163598
0.140209	0.148764
0.141686	0.148243
0.146594	0.172826
0.151201	0.184192
0.157281	0.158673
0.159759	0.173832
0.162028	0.205605
0.163769	0.171871
0.172678	0.177502
0.174695	0.215146
0.189493	0.219762
0.193689	0.388465
0.198832	0.271418
0.20674	0.343238
0.209952	0.245954
0.209979	0.235934
0.213957	0.44007
0.215303	0.335458
0.220851	0.466154
0.222758	0.31162
0.229839	0.242879
0.24482	0.285776
0.246826	0.301517
0.24849	0.293925
0.250856	0.270548
0.25669	0.380706
0.257975	0.272508
0.261107	0.427441
0.264707	0.281631
0.273023	0.318959
0.273191	0.429546
0.282451	0.44536
0.289686	0.459542
0.293314	0.478446
0.296076	0.43392
0.296797	0.328498
0.298917	0.335878
0.311358	0.329708
0.311842	0.329826
0.334522	0.428864
0.342522	0.365349
0.35752	0.40554
0.359352	0.364553
0.381383	0.406169

