0.148357	0.158266
0.154585	0.171448
0.163627	0.188654
0.179805	0.195521
0.1856	0.263106
0.191053	0.23822
0.191833	0.308531
0.197318	0.234007
0.201312	0.226241
0.207674	0.414384
0.211144	0.276225
0.217728	0.233016
0.220546	0.328808
0.22126	0.229335
0.228269	0.314407
0.23246	0.373214
0.233142	0.242802
0.234286	0.432834
0.240568	0.279604
0.243793	0.354356
0.244551	0.273534
0.246161	0.260201
0.250869	0.264856
0.260343	0.370002
0.263337	0.292851
0.265228	0.476298
0.266259	0.271907
0.269004	0.307728
0.271431	0.28268
0.272257	0.314755
0.2797	0.375717
0.282605	0.330561
0.283802	0.458852
0.294776	0.458472
0.29767	0.353923
0.328878	0.437791
0.350871	0.431504
0.359825	0.366556
0.369984	0.402619
0.372896	0.41351

