0.14946	0.173793
0.171281	0.206627
0.188044	0.226092
0.19555	0.195585
0.199833	0.206675
0.210882	0.239096
0.221696	0.483495
0.225983	0.410997
0.228579	0.422759
0.229355	0.362126
0.230266	0.284894
0.230284	0.270879
0.233703	0.292289
0.235227	0.281274
0.238923	0.256942
0.241163	0.290247
0.241899	0.418607
0.244371	0.299805
0.245935	0.415251
0.246713	0.396049
0.247663	0.336425
0.2486	0.348153
0.24971	0.302183
0.252969	0.322168
0.264193	0.295194
0.26589	0.285884
0.27426	0.322141
0.276635	0.299993
0.277784	0.312725
0.280727	0.284975
0.284763	0.375011
0.290155	0.39086
0.290897	0.345718
0.297729	0.331139
0.301033	0.330219
0.303535	0.389994
0.303793	0.317348
0.305054	0.336649
0.310245	0.376507
0.322158	0.351612
0.335041	0.367584
0.340606	0.342391
0.36006	0.375107

