# persistence landscape
# X Y
"layer 0:"
-inf 0
0.257731 0
0.259633 0.00190192
0.261535 0
0.299472 0
0.320566 0.0210949
0.324722 0.0169395
0.40575 0.0979676
0.471172 0.0325458
0.524817 0.086191
0.54138 0.0696279
0.588645 0.116893
0.705538 0
inf 0


"layer 1:"
-inf 0
0.307782 0
0.324722 0.0169395
0.341661 0
0.342386 0
0.355304 0.0129187
0.368223 0
0.436235 0
0.461742 0.0255071
0.462938 0.0243118
0.471172 0.0325458
0.487735 0.0159827
0.54138 0.0696279
0.611008 0
inf 0


"layer 2:"
-inf 0
0.314359 0
0.319829 0.00546985
0.325299 0
0.351778 0
0.352036 0.000258167
0.352294 0
0.438626 0
0.462938 0.0243118
0.479501 0.00774871
0.487735 0.0159827
0.501584 0.002134
0.514702 0.0152519
0.52207 0.00788328
0.529529 0.015342
0.544871 0
inf 0


"layer 3:"
-inf 0
0.471752 0
0.479501 0.00774871
0.484556 0.0026938
0.491236 0.00937377
0.50003 0.000579957
0.501584 0.002134
0.503718 0
0.514187 0
0.52207 0.00788328
0.529954 0
inf 0


"layer 4:"
-inf 0
0.481862 0
0.484556 0.0026938
0.48725 0
0.49945 0
0.50003 0.000579957
0.50061 0
inf 0


