# persistence landscape
# X Y
"layer 0:"
-inf 0
0.301367 0
0.3953 0.0939327
0.425742 0.0634902
0.426584 0.0643317
0.453265 0.0376506
0.457088 0.0414731
0.484127 0.0144334
0.524065 0.0543709
0.578436 0
inf 0


"layer 1:"
-inf 0
0.303953 0
0.353842 0.0498895
0.382992 0.0207398
0.425742 0.0634902
0.452424 0.0368091
0.453265 0.0376506
0.480305 0.0106109
0.484127 0.0144334
0.487544 0.0110167
0.493583 0.0170554
0.510638 0
0.544646 0
0.555198 0.0105518
0.565749 0
inf 0


"layer 2:"
-inf 0
0.318712 0
0.329858 0.011146
0.341004 0
0.35032 0
0.355279 0.00495855
0.360237 0
0.362252 0
0.382992 0.0207398
0.385702 0.0180301
0.398899 0.0312272
0.42287 0.00725577
0.452424 0.0368091
0.469254 0.019979
0.469915 0.0206406
0.480125 0.0104309
0.480305 0.0106109
0.483722 0.00719422
0.487544 0.0110167
0.498561 0
inf 0


"layer 3:"
-inf 0
0.319257 0
0.32409 0.0048332
0.328923 0
0.367672 0
0.385702 0.0180301
0.403732 0
0.415614 0
0.42287 0.00725577
0.430126 0
0.449275 0
0.469254 0.019979
0.479463 0.00976938
0.480125 0.0104309
0.483542 0.00701421
0.483722 0.00719422
0.490916 0
inf 0


"layer 4:"
-inf 0
0.469694 0
0.479463 0.00976938
0.48288 0.00635265
0.483542 0.00701421
0.490556 0
inf 0


"layer 5:"
-inf 0
0.476527 0
0.48288 0.00635265
0.489233 0
inf 0


